<?xml version='1.0' encoding='UTF-8'?>
<?xml-stylesheet type="text/xsl" href="/static/xsl/oai2.v1.0.xsl"?>
<OAI-PMH xmlns="http://www.openarchives.org/OAI/2.0/" xmlns:xsi="http://www.w3.org/2001/XMLSchema-instance" xsi:schemaLocation="http://www.openarchives.org/OAI/2.0/ http://www.openarchives.org/OAI/2.0/OAI-PMH.xsd">
  <responseDate>2017-08-31T15:41:45Z</responseDate>
  <request verb="ListIdentifiers" resumptionToken=".eJyNz00PQzAAgOH_0rMsrfqKZBdh4oBUR3BZDBFTJroFFf99Ljtv5_e5vBvgdV0BE5403VAwVnWkqQgqUJUAL6cnY7f2yKBME1YOLC7c5B31CczkRg9svvh2hgPRwbBHgl6InCJjiVu4kmv8ykS0JNibKXR0X5A1eHiHq3DosvzujjQeLEblagodslJk0RyXX4f-dOKns_kZSGAsmhqYCB1X3VxMDQfmtu8fl9BRMw.DIm_uQ.5SC9kOy6wjlKq-C2k2WAvTajYgw">https://zenodo.org/oai2d</request>
  <ListIdentifiers>
    <header>
      <identifier>oai:zenodo.org:261626</identifier>
      <datestamp>2017-01-28T11:58:06Z</datestamp>
      <setSpec>user-biosyslit</setSpec>
    </header>
    <header>
      <identifier>oai:zenodo.org:261448</identifier>
      <datestamp>2017-01-28T08:46:28Z</datestamp>
      <setSpec>user-biosyslit</setSpec>
    </header>
    <header>
      <identifier>oai:zenodo.org:261472</identifier>
      <datestamp>2017-01-28T09:30:35Z</datestamp>
      <setSpec>user-biosyslit</setSpec>
    </header>
    <header>
      <identifier>oai:zenodo.org:261795</identifier>
      <datestamp>2017-01-28T15:09:43Z</datestamp>
      <setSpec>user-biosyslit</setSpec>
    </header>
    <header>
      <identifier>oai:zenodo.org:261619</identifier>
      <datestamp>2017-01-28T11:37:25Z</datestamp>
      <setSpec>user-biosyslit</setSpec>
    </header>
    <header>
      <identifier>oai:zenodo.org:261902</identifier>
      <datestamp>2017-01-28T17:20:28Z</datestamp>
      <setSpec>user-biosyslit</setSpec>
    </header>
    <header>
      <identifier>oai:zenodo.org:262228</identifier>
      <datestamp>2017-01-28T23:52:24Z</datestamp>
      <setSpec>user-biosyslit</setSpec>
    </header>
    <header>
      <identifier>oai:zenodo.org:273801</identifier>
      <datestamp>2017-02-08T10:48:02Z</datestamp>
      <setSpec>user-biosyslit</setSpec>
    </header>
    <header>
      <identifier>oai:zenodo.org:273973</identifier>
      <datestamp>2017-02-08T11:42:36Z</datestamp>
      <setSpec>user-biosyslit</setSpec>
    </header>
    <header>
      <identifier>oai:zenodo.org:262016</identifier>
      <datestamp>2017-01-28T19:27:01Z</datestamp>
      <setSpec>user-biosyslit</setSpec>
    </header>
    <header>
      <identifier>oai:zenodo.org:273563</identifier>
      <datestamp>2017-02-08T09:53:06Z</datestamp>
      <setSpec>user-biosyslit</setSpec>
    </header>
    <header>
      <identifier>oai:zenodo.org:274315</identifier>
      <datestamp>2017-02-08T12:49:17Z</datestamp>
      <setSpec>user-biosyslit</setSpec>
    </header>
    <header>
      <identifier>oai:zenodo.org:274035</identifier>
      <datestamp>2017-02-08T11:53:49Z</datestamp>
      <setSpec>user-biosyslit</setSpec>
    </header>
    <header>
      <identifier>oai:zenodo.org:262322</identifier>
      <datestamp>2017-01-29T01:58:40Z</datestamp>
      <setSpec>user-biosyslit</setSpec>
    </header>
    <header>
      <identifier>oai:zenodo.org:273874</identifier>
      <datestamp>2017-02-08T11:01:56Z</datestamp>
      <setSpec>user-biosyslit</setSpec>
    </header>
    <header>
      <identifier>oai:zenodo.org:273914</identifier>
      <datestamp>2017-02-08T11:13:57Z</datestamp>
      <setSpec>user-biosyslit</setSpec>
    </header>
    <header>
      <identifier>oai:zenodo.org:274135</identifier>
      <datestamp>2017-02-08T12:14:29Z</datestamp>
      <setSpec>user-biosyslit</setSpec>
    </header>
    <header>
      <identifier>oai:zenodo.org:262507</identifier>
      <datestamp>2017-01-29T04:59:00Z</datestamp>
      <setSpec>user-biosyslit</setSpec>
    </header>
    <header>
      <identifier>oai:zenodo.org:226893</identifier>
      <datestamp>2017-01-01T05:24:59Z</datestamp>
      <setSpec>user-biosyslit</setSpec>
    </header>
    <header>
      <identifier>oai:zenodo.org:274465</identifier>
      <datestamp>2017-02-08T13:18:32Z</datestamp>
      <setSpec>user-biosyslit</setSpec>
    </header>
    <header>
      <identifier>oai:zenodo.org:226798</identifier>
      <datestamp>2017-01-01T03:34:09Z</datestamp>
      <setSpec>user-biosyslit</setSpec>
    </header>
    <header>
      <identifier>oai:zenodo.org:262574</identifier>
      <datestamp>2017-01-29T05:43:25Z</datestamp>
      <setSpec>user-biosyslit</setSpec>
    </header>
    <header>
      <identifier>oai:zenodo.org:264041</identifier>
      <datestamp>2017-01-30T12:23:45Z</datestamp>
      <setSpec>user-biosyslit</setSpec>
    </header>
    <header>
      <identifier>oai:zenodo.org:262694</identifier>
      <datestamp>2017-01-29T07:15:05Z</datestamp>
      <setSpec>user-biosyslit</setSpec>
    </header>
    <header>
      <identifier>oai:zenodo.org:262930</identifier>
      <datestamp>2017-01-29T13:26:19Z</datestamp>
      <setSpec>user-biosyslit</setSpec>
    </header>
    <header>
      <identifier>oai:zenodo.org:262598</identifier>
      <datestamp>2017-01-29T06:02:21Z</datestamp>
      <setSpec>user-biosyslit</setSpec>
    </header>
    <header>
      <identifier>oai:zenodo.org:262740</identifier>
      <datestamp>2017-01-29T07:53:31Z</datestamp>
      <setSpec>user-biosyslit</setSpec>
    </header>
    <header>
      <identifier>oai:zenodo.org:264062</identifier>
      <datestamp>2017-01-30T12:26:33Z</datestamp>
      <setSpec>user-biosyslit</setSpec>
    </header>
    <header>
      <identifier>oai:zenodo.org:263472</identifier>
      <datestamp>2017-01-29T22:35:08Z</datestamp>
      <setSpec>user-biosyslit</setSpec>
    </header>
    <header>
      <identifier>oai:zenodo.org:262804</identifier>
      <datestamp>2017-01-29T09:17:23Z</datestamp>
      <setSpec>user-biosyslit</setSpec>
    </header>
    <header>
      <identifier>oai:zenodo.org:263280</identifier>
      <datestamp>2017-01-29T20:29:51Z</datestamp>
      <setSpec>user-biosyslit</setSpec>
    </header>
    <header>
      <identifier>oai:zenodo.org:260705</identifier>
      <datestamp>2017-01-27T23:59:14Z</datestamp>
      <setSpec>user-biosyslit</setSpec>
    </header>
    <header>
      <identifier>oai:zenodo.org:260482</identifier>
      <datestamp>2017-01-27T20:47:03Z</datestamp>
      <setSpec>user-biosyslit</setSpec>
    </header>
    <header>
      <identifier>oai:zenodo.org:259670</identifier>
      <datestamp>2017-01-25T15:00:51Z</datestamp>
      <setSpec>user-biosyslit</setSpec>
    </header>
    <header>
      <identifier>oai:zenodo.org:259608</identifier>
      <datestamp>2017-01-25T14:15:29Z</datestamp>
      <setSpec>user-biosyslit</setSpec>
    </header>
    <header>
      <identifier>oai:zenodo.org:273978</identifier>
      <datestamp>2017-02-08T11:42:57Z</datestamp>
      <setSpec>user-biosyslit</setSpec>
    </header>
    <header>
      <identifier>oai:zenodo.org:259844</identifier>
      <datestamp>2017-01-25T16:53:07Z</datestamp>
      <setSpec>user-biosyslit</setSpec>
    </header>
    <header>
      <identifier>oai:zenodo.org:261618</identifier>
      <datestamp>2017-01-28T11:37:20Z</datestamp>
      <setSpec>user-biosyslit</setSpec>
    </header>
    <header>
      <identifier>oai:zenodo.org:259938</identifier>
      <datestamp>2017-01-25T17:46:32Z</datestamp>
      <setSpec>user-biosyslit</setSpec>
    </header>
    <header>
      <identifier>oai:zenodo.org:261265</identifier>
      <datestamp>2017-01-28T07:29:28Z</datestamp>
      <setSpec>user-biosyslit</setSpec>
    </header>
    <header>
      <identifier>oai:zenodo.org:261711</identifier>
      <datestamp>2017-01-28T13:29:45Z</datestamp>
      <setSpec>user-biosyslit</setSpec>
    </header>
    <header>
      <identifier>oai:zenodo.org:261648</identifier>
      <datestamp>2017-01-28T12:14:13Z</datestamp>
      <setSpec>user-biosyslit</setSpec>
    </header>
    <header>
      <identifier>oai:zenodo.org:262172</identifier>
      <datestamp>2017-01-28T22:23:34Z</datestamp>
      <setSpec>user-biosyslit</setSpec>
    </header>
    <header>
      <identifier>oai:zenodo.org:261308</identifier>
      <datestamp>2017-01-28T07:50:36Z</datestamp>
      <setSpec>user-biosyslit</setSpec>
    </header>
    <header>
      <identifier>oai:zenodo.org:260887</identifier>
      <datestamp>2017-01-28T02:02:59Z</datestamp>
      <setSpec>user-biosyslit</setSpec>
    </header>
    <header>
      <identifier>oai:zenodo.org:262142</identifier>
      <datestamp>2017-01-28T22:02:45Z</datestamp>
      <setSpec>user-biosyslit</setSpec>
    </header>
    <header>
      <identifier>oai:zenodo.org:260539</identifier>
      <datestamp>2017-01-27T21:33:51Z</datestamp>
      <setSpec>user-biosyslit</setSpec>
    </header>
    <header>
      <identifier>oai:zenodo.org:260708</identifier>
      <datestamp>2017-01-27T23:59:26Z</datestamp>
      <setSpec>user-biosyslit</setSpec>
    </header>
    <header>
      <identifier>oai:zenodo.org:260831</identifier>
      <datestamp>2017-01-28T01:12:58Z</datestamp>
      <setSpec>user-biosyslit</setSpec>
    </header>
    <header>
      <identifier>oai:zenodo.org:261553</identifier>
      <datestamp>2017-01-28T10:49:28Z</datestamp>
      <setSpec>user-biosyslit</setSpec>
    </header>
    <header>
      <identifier>oai:zenodo.org:260779</identifier>
      <datestamp>2017-01-28T00:52:40Z</datestamp>
      <setSpec>user-biosyslit</setSpec>
    </header>
    <header>
      <identifier>oai:zenodo.org:260918</identifier>
      <datestamp>2017-01-28T02:28:07Z</datestamp>
      <setSpec>user-biosyslit</setSpec>
    </header>
    <header>
      <identifier>oai:zenodo.org:261163</identifier>
      <datestamp>2017-01-28T06:02:47Z</datestamp>
      <setSpec>user-biosyslit</setSpec>
    </header>
    <header>
      <identifier>oai:zenodo.org:260938</identifier>
      <datestamp>2017-01-28T02:41:14Z</datestamp>
      <setSpec>user-biosyslit</setSpec>
    </header>
    <header>
      <identifier>oai:zenodo.org:273606</identifier>
      <datestamp>2017-02-08T10:03:49Z</datestamp>
      <setSpec>user-biosyslit</setSpec>
    </header>
    <header>
      <identifier>oai:zenodo.org:261790</identifier>
      <datestamp>2017-01-28T15:09:25Z</datestamp>
      <setSpec>user-biosyslit</setSpec>
    </header>
    <header>
      <identifier>oai:zenodo.org:261729</identifier>
      <datestamp>2017-01-28T13:45:25Z</datestamp>
      <setSpec>user-biosyslit</setSpec>
    </header>
    <header>
      <identifier>oai:zenodo.org:261393</identifier>
      <datestamp>2017-01-28T08:44:09Z</datestamp>
      <setSpec>user-biosyslit</setSpec>
    </header>
    <header>
      <identifier>oai:zenodo.org:261403</identifier>
      <datestamp>2017-01-28T08:44:37Z</datestamp>
      <setSpec>user-biosyslit</setSpec>
    </header>
    <header>
      <identifier>oai:zenodo.org:274143</identifier>
      <datestamp>2017-02-08T12:14:50Z</datestamp>
      <setSpec>user-biosyslit</setSpec>
    </header>
    <header>
      <identifier>oai:zenodo.org:262284</identifier>
      <datestamp>2017-01-29T01:56:19Z</datestamp>
      <setSpec>user-biosyslit</setSpec>
    </header>
    <header>
      <identifier>oai:zenodo.org:262495</identifier>
      <datestamp>2017-01-29T04:49:36Z</datestamp>
      <setSpec>user-biosyslit</setSpec>
    </header>
    <header>
      <identifier>oai:zenodo.org:262052</identifier>
      <datestamp>2017-01-28T19:49:23Z</datestamp>
      <setSpec>user-biosyslit</setSpec>
    </header>
    <header>
      <identifier>oai:zenodo.org:262478</identifier>
      <datestamp>2017-01-29T04:41:45Z</datestamp>
      <setSpec>user-biosyslit</setSpec>
    </header>
    <header>
      <identifier>oai:zenodo.org:274184</identifier>
      <datestamp>2017-02-08T12:19:46Z</datestamp>
      <setSpec>user-biosyslit</setSpec>
    </header>
    <header>
      <identifier>oai:zenodo.org:273994</identifier>
      <datestamp>2017-02-08T11:45:22Z</datestamp>
      <setSpec>user-biosyslit</setSpec>
    </header>
    <header>
      <identifier>oai:zenodo.org:274068</identifier>
      <datestamp>2017-02-08T12:02:10Z</datestamp>
      <setSpec>user-biosyslit</setSpec>
    </header>
    <header>
      <identifier>oai:zenodo.org:273728</identifier>
      <datestamp>2017-02-08T10:29:39Z</datestamp>
      <setSpec>user-biosyslit</setSpec>
    </header>
    <header>
      <identifier>oai:zenodo.org:262412</identifier>
      <datestamp>2017-01-29T03:42:54Z</datestamp>
      <setSpec>user-biosyslit</setSpec>
    </header>
    <header>
      <identifier>oai:zenodo.org:262139</identifier>
      <datestamp>2017-01-28T21:54:49Z</datestamp>
      <setSpec>user-biosyslit</setSpec>
    </header>
    <header>
      <identifier>oai:zenodo.org:262230</identifier>
      <datestamp>2017-01-28T23:56:43Z</datestamp>
      <setSpec>user-biosyslit</setSpec>
    </header>
    <header>
      <identifier>oai:zenodo.org:262222</identifier>
      <datestamp>2017-01-28T23:52:03Z</datestamp>
      <setSpec>user-biosyslit</setSpec>
    </header>
    <header>
      <identifier>oai:zenodo.org:262258</identifier>
      <datestamp>2017-01-29T01:13:42Z</datestamp>
      <setSpec>user-biosyslit</setSpec>
    </header>
    <header>
      <identifier>oai:zenodo.org:274312</identifier>
      <datestamp>2017-02-08T12:49:00Z</datestamp>
      <setSpec>user-biosyslit</setSpec>
    </header>
    <header>
      <identifier>oai:zenodo.org:274960</identifier>
      <datestamp>2017-02-08T14:54:59Z</datestamp>
      <setSpec>user-biosyslit</setSpec>
    </header>
    <header>
      <identifier>oai:zenodo.org:262486</identifier>
      <datestamp>2017-01-29T04:42:07Z</datestamp>
      <setSpec>user-biosyslit</setSpec>
    </header>
    <header>
      <identifier>oai:zenodo.org:274213</identifier>
      <datestamp>2017-02-08T12:26:04Z</datestamp>
      <setSpec>user-biosyslit</setSpec>
    </header>
    <header>
      <identifier>oai:zenodo.org:262336</identifier>
      <datestamp>2017-01-29T01:59:31Z</datestamp>
      <setSpec>user-biosyslit</setSpec>
    </header>
    <header>
      <identifier>oai:zenodo.org:273864</identifier>
      <datestamp>2017-02-08T11:01:30Z</datestamp>
      <setSpec>user-biosyslit</setSpec>
    </header>
    <header>
      <identifier>oai:zenodo.org:262594</identifier>
      <datestamp>2017-01-29T06:02:10Z</datestamp>
      <setSpec>user-biosyslit</setSpec>
    </header>
    <header>
      <identifier>oai:zenodo.org:226728</identifier>
      <datestamp>2017-01-01T02:33:07Z</datestamp>
      <setSpec>user-biosyslit</setSpec>
    </header>
    <header>
      <identifier>oai:zenodo.org:262745</identifier>
      <datestamp>2017-01-29T07:53:43Z</datestamp>
      <setSpec>user-biosyslit</setSpec>
    </header>
    <header>
      <identifier>oai:zenodo.org:263096</identifier>
      <datestamp>2017-01-29T16:39:52Z</datestamp>
      <setSpec>user-biosyslit</setSpec>
    </header>
    <header>
      <identifier>oai:zenodo.org:263133</identifier>
      <datestamp>2017-01-29T17:28:57Z</datestamp>
      <setSpec>user-biosyslit</setSpec>
    </header>
    <header>
      <identifier>oai:zenodo.org:262743</identifier>
      <datestamp>2017-01-29T07:53:39Z</datestamp>
      <setSpec>user-biosyslit</setSpec>
    </header>
    <header>
      <identifier>oai:zenodo.org:262757</identifier>
      <datestamp>2017-01-29T07:54:16Z</datestamp>
      <setSpec>user-biosyslit</setSpec>
    </header>
    <header>
      <identifier>oai:zenodo.org:263035</identifier>
      <datestamp>2017-01-29T15:04:49Z</datestamp>
      <setSpec>user-biosyslit</setSpec>
    </header>
    <header>
      <identifier>oai:zenodo.org:226897</identifier>
      <datestamp>2017-01-01T05:25:17Z</datestamp>
      <setSpec>user-biosyslit</setSpec>
    </header>
    <header>
      <identifier>oai:zenodo.org:260745</identifier>
      <datestamp>2017-01-28T00:23:26Z</datestamp>
      <setSpec>user-biosyslit</setSpec>
    </header>
    <header>
      <identifier>oai:zenodo.org:259160</identifier>
      <datestamp>2017-01-24T08:20:43Z</datestamp>
      <setSpec>user-biosyslit</setSpec>
    </header>
    <header>
      <identifier>oai:zenodo.org:259312</identifier>
      <datestamp>2017-01-24T09:51:01Z</datestamp>
      <setSpec>user-biosyslit</setSpec>
    </header>
    <header>
      <identifier>oai:zenodo.org:260835</identifier>
      <datestamp>2017-01-28T01:13:07Z</datestamp>
      <setSpec>user-biosyslit</setSpec>
    </header>
    <header>
      <identifier>oai:zenodo.org:261382</identifier>
      <datestamp>2017-01-28T08:29:32Z</datestamp>
      <setSpec>user-biosyslit</setSpec>
    </header>
    <header>
      <identifier>oai:zenodo.org:274138</identifier>
      <datestamp>2017-02-08T12:14:36Z</datestamp>
      <setSpec>user-biosyslit</setSpec>
    </header>
    <header>
      <identifier>oai:zenodo.org:260912</identifier>
      <datestamp>2017-01-28T02:27:51Z</datestamp>
      <setSpec>user-biosyslit</setSpec>
    </header>
    <header>
      <identifier>oai:zenodo.org:261391</identifier>
      <datestamp>2017-01-28T08:44:04Z</datestamp>
      <setSpec>user-biosyslit</setSpec>
    </header>
    <header>
      <identifier>oai:zenodo.org:273926</identifier>
      <datestamp>2017-02-08T11:16:59Z</datestamp>
      <setSpec>user-biosyslit</setSpec>
    </header>
    <header>
      <identifier>oai:zenodo.org:273713</identifier>
      <datestamp>2017-02-08T10:24:53Z</datestamp>
      <setSpec>user-biosyslit</setSpec>
    </header>
    <header>
      <identifier>oai:zenodo.org:273400</identifier>
      <datestamp>2017-02-08T09:10:51Z</datestamp>
      <setSpec>user-biosyslit</setSpec>
    </header>
    <header>
      <identifier>oai:zenodo.org:261062</identifier>
      <datestamp>2017-01-28T04:35:20Z</datestamp>
      <setSpec>user-biosyslit</setSpec>
    </header>
    <resumptionToken expirationDate="2017-08-31T15:43:45Z" cursor="11400" completeListSize="77796">.eJyNyj0LgkAYAOD_8s4S91GeCC1hiYOKXoq6hKmIeZp4RXrSf8-luebnWUBWVQkm2iDGyFY3kM4QxdsdwRrIYrwLcWlWhyKJRdGLKLfjZ9jFKCU18yw5uVZKPdUiv8OKnwKSYGOKGjQH5-iRqnCKqfPi6MhcFczezVlfSX1bZFd74FF_EJyUo38MZo4PPKPF9-E_n_r5LLkHDYa8rsDEWNegfeVjLcFc3u8PxrpRYg.DIm_uQ.cgo8xOmr2G60-St4lC7Wy-TFCn8</resumptionToken>
  </ListIdentifiers>
</OAI-PMH>
