<?xml version='1.0' encoding='UTF-8'?>
<?xml-stylesheet type="text/xsl" href="/static/xsl/oai2.v1.0.xsl"?>
<OAI-PMH xmlns="http://www.openarchives.org/OAI/2.0/" xmlns:xsi="http://www.w3.org/2001/XMLSchema-instance" xsi:schemaLocation="http://www.openarchives.org/OAI/2.0/ http://www.openarchives.org/OAI/2.0/OAI-PMH.xsd">
  <responseDate>2017-08-31T15:45:24Z</responseDate>
  <request verb="ListIdentifiers" resumptionToken=".eJyNyssKgkAUANB_uWuJefhCaCOatFCxSVE3YSpSjiZOkY7477lpXetzFhB1XYGFdrqJVaIjVSOaRgzVVECU44Pzy21jKNOElz2PCy95nboEZaQxAkdMvpPRQLYo7LBkh4ik2JziG5qjc_zM5GlK6PHNkGv4MpqD-3F7FQ09nl-9gcW9zRmpxtCNZoZtltPy-_CfT_58jtiDAkPR1GDpVFOgfRdjI8Ba1vUDm3NRPg.DInAlA.S3xESsLHvBp9-CzmaVy8sF7oUgg">https://zenodo.org/oai2d</request>
  <ListIdentifiers>
    <header>
      <identifier>oai:zenodo.org:275271</identifier>
      <datestamp>2017-02-08T15:55:49Z</datestamp>
      <setSpec>user-biosyslit</setSpec>
    </header>
    <header>
      <identifier>oai:zenodo.org:275277</identifier>
      <datestamp>2017-02-08T15:56:08Z</datestamp>
      <setSpec>user-biosyslit</setSpec>
    </header>
    <header>
      <identifier>oai:zenodo.org:266720</identifier>
      <datestamp>2017-02-01T14:20:43Z</datestamp>
      <setSpec>user-biosyslit</setSpec>
    </header>
    <header>
      <identifier>oai:zenodo.org:266727</identifier>
      <datestamp>2017-02-01T14:20:42Z</datestamp>
      <setSpec>user-biosyslit</setSpec>
    </header>
    <header>
      <identifier>oai:zenodo.org:235031</identifier>
      <datestamp>2017-01-09T04:59:07Z</datestamp>
      <setSpec>user-biosyslit</setSpec>
    </header>
    <header>
      <identifier>oai:zenodo.org:235039</identifier>
      <datestamp>2017-01-09T04:59:43Z</datestamp>
      <setSpec>user-biosyslit</setSpec>
    </header>
    <header>
      <identifier>oai:zenodo.org:235045</identifier>
      <datestamp>2017-01-09T05:00:04Z</datestamp>
      <setSpec>user-biosyslit</setSpec>
    </header>
    <header>
      <identifier>oai:zenodo.org:235033</identifier>
      <datestamp>2017-01-09T04:59:14Z</datestamp>
      <setSpec>user-biosyslit</setSpec>
    </header>
    <header>
      <identifier>oai:zenodo.org:266722</identifier>
      <datestamp>2017-02-01T14:20:28Z</datestamp>
      <setSpec>user-biosyslit</setSpec>
    </header>
    <header>
      <identifier>oai:zenodo.org:266726</identifier>
      <datestamp>2017-02-01T14:20:37Z</datestamp>
      <setSpec>user-biosyslit</setSpec>
    </header>
    <header>
      <identifier>oai:zenodo.org:266724</identifier>
      <datestamp>2017-02-01T14:20:32Z</datestamp>
      <setSpec>user-biosyslit</setSpec>
    </header>
    <header>
      <identifier>oai:zenodo.org:277986</identifier>
      <datestamp>2017-02-08T22:11:54Z</datestamp>
      <setSpec>user-biosyslit</setSpec>
    </header>
    <header>
      <identifier>oai:zenodo.org:277984</identifier>
      <datestamp>2017-02-08T22:11:48Z</datestamp>
      <setSpec>user-biosyslit</setSpec>
    </header>
    <header>
      <identifier>oai:zenodo.org:277990</identifier>
      <datestamp>2017-02-08T22:12:08Z</datestamp>
      <setSpec>user-biosyslit</setSpec>
    </header>
    <header>
      <identifier>oai:zenodo.org:277985</identifier>
      <datestamp>2017-02-08T22:11:51Z</datestamp>
      <setSpec>user-biosyslit</setSpec>
    </header>
    <header>
      <identifier>oai:zenodo.org:277988</identifier>
      <datestamp>2017-02-08T22:12:01Z</datestamp>
      <setSpec>user-biosyslit</setSpec>
    </header>
    <header>
      <identifier>oai:zenodo.org:277991</identifier>
      <datestamp>2017-02-08T22:12:12Z</datestamp>
      <setSpec>user-biosyslit</setSpec>
    </header>
    <header>
      <identifier>oai:zenodo.org:279058</identifier>
      <datestamp>2017-02-09T00:33:13Z</datestamp>
      <setSpec>user-biosyslit</setSpec>
    </header>
    <header>
      <identifier>oai:zenodo.org:256743</identifier>
      <datestamp>2017-01-22T20:03:37Z</datestamp>
      <setSpec>user-biosyslit</setSpec>
    </header>
    <header>
      <identifier>oai:zenodo.org:256747</identifier>
      <datestamp>2017-01-22T20:03:46Z</datestamp>
      <setSpec>user-biosyslit</setSpec>
    </header>
    <header>
      <identifier>oai:zenodo.org:256749</identifier>
      <datestamp>2017-01-22T20:03:51Z</datestamp>
      <setSpec>user-biosyslit</setSpec>
    </header>
    <header>
      <identifier>oai:zenodo.org:279074</identifier>
      <datestamp>2017-02-09T00:33:09Z</datestamp>
      <setSpec>user-biosyslit</setSpec>
    </header>
    <header>
      <identifier>oai:zenodo.org:256742</identifier>
      <datestamp>2017-01-22T20:03:35Z</datestamp>
      <setSpec>user-biosyslit</setSpec>
    </header>
    <header>
      <identifier>oai:zenodo.org:256750</identifier>
      <datestamp>2017-01-22T20:03:53Z</datestamp>
      <setSpec>user-biosyslit</setSpec>
    </header>
    <header>
      <identifier>oai:zenodo.org:245343</identifier>
      <datestamp>2017-01-15T12:06:07Z</datestamp>
      <setSpec>user-biosyslit</setSpec>
    </header>
    <header>
      <identifier>oai:zenodo.org:245361</identifier>
      <datestamp>2017-01-15T12:06:03Z</datestamp>
      <setSpec>user-biosyslit</setSpec>
    </header>
    <header>
      <identifier>oai:zenodo.org:245353</identifier>
      <datestamp>2017-01-15T12:05:38Z</datestamp>
      <setSpec>user-biosyslit</setSpec>
    </header>
    <header>
      <identifier>oai:zenodo.org:245355</identifier>
      <datestamp>2017-01-15T12:05:45Z</datestamp>
      <setSpec>user-biosyslit</setSpec>
    </header>
    <header>
      <identifier>oai:zenodo.org:245352</identifier>
      <datestamp>2017-01-15T12:05:35Z</datestamp>
      <setSpec>user-biosyslit</setSpec>
    </header>
    <header>
      <identifier>oai:zenodo.org:279523</identifier>
      <datestamp>2017-02-09T01:34:19Z</datestamp>
      <setSpec>user-biosyslit</setSpec>
    </header>
    <header>
      <identifier>oai:zenodo.org:279524</identifier>
      <datestamp>2017-02-09T01:34:21Z</datestamp>
      <setSpec>user-biosyslit</setSpec>
    </header>
    <header>
      <identifier>oai:zenodo.org:279522</identifier>
      <datestamp>2017-02-09T01:34:17Z</datestamp>
      <setSpec>user-biosyslit</setSpec>
    </header>
    <header>
      <identifier>oai:zenodo.org:279525</identifier>
      <datestamp>2017-02-09T01:34:23Z</datestamp>
      <setSpec>user-biosyslit</setSpec>
    </header>
    <header>
      <identifier>oai:zenodo.org:279528</identifier>
      <datestamp>2017-02-09T01:34:29Z</datestamp>
      <setSpec>user-biosyslit</setSpec>
    </header>
    <header>
      <identifier>oai:zenodo.org:279529</identifier>
      <datestamp>2017-02-09T01:34:31Z</datestamp>
      <setSpec>user-biosyslit</setSpec>
    </header>
    <header>
      <identifier>oai:zenodo.org:279527</identifier>
      <datestamp>2017-02-09T01:34:27Z</datestamp>
      <setSpec>user-biosyslit</setSpec>
    </header>
    <header>
      <identifier>oai:zenodo.org:279187</identifier>
      <datestamp>2017-02-09T00:46:40Z</datestamp>
      <setSpec>user-biosyslit</setSpec>
    </header>
    <header>
      <identifier>oai:zenodo.org:279185</identifier>
      <datestamp>2017-02-09T00:46:34Z</datestamp>
      <setSpec>user-biosyslit</setSpec>
    </header>
    <header>
      <identifier>oai:zenodo.org:279190</identifier>
      <datestamp>2017-02-09T00:46:46Z</datestamp>
      <setSpec>user-biosyslit</setSpec>
    </header>
    <header>
      <identifier>oai:zenodo.org:279535</identifier>
      <datestamp>2017-02-09T01:34:44Z</datestamp>
      <setSpec>user-biosyslit</setSpec>
    </header>
    <header>
      <identifier>oai:zenodo.org:279534</identifier>
      <datestamp>2017-02-09T01:34:42Z</datestamp>
      <setSpec>user-biosyslit</setSpec>
    </header>
    <header>
      <identifier>oai:zenodo.org:279537</identifier>
      <datestamp>2017-02-09T01:34:48Z</datestamp>
      <setSpec>user-biosyslit</setSpec>
    </header>
    <header>
      <identifier>oai:zenodo.org:279532</identifier>
      <datestamp>2017-02-09T01:34:38Z</datestamp>
      <setSpec>user-biosyslit</setSpec>
    </header>
    <header>
      <identifier>oai:zenodo.org:278746</identifier>
      <datestamp>2017-02-08T23:49:38Z</datestamp>
      <setSpec>user-biosyslit</setSpec>
    </header>
    <header>
      <identifier>oai:zenodo.org:278750</identifier>
      <datestamp>2017-02-08T23:49:27Z</datestamp>
      <setSpec>user-biosyslit</setSpec>
    </header>
    <header>
      <identifier>oai:zenodo.org:278753</identifier>
      <datestamp>2017-02-08T23:49:35Z</datestamp>
      <setSpec>user-biosyslit</setSpec>
    </header>
    <header>
      <identifier>oai:zenodo.org:278749</identifier>
      <datestamp>2017-02-08T23:49:25Z</datestamp>
      <setSpec>user-biosyslit</setSpec>
    </header>
    <header>
      <identifier>oai:zenodo.org:278751</identifier>
      <datestamp>2017-02-08T23:49:30Z</datestamp>
      <setSpec>user-biosyslit</setSpec>
    </header>
    <header>
      <identifier>oai:zenodo.org:278754</identifier>
      <datestamp>2017-02-08T23:49:37Z</datestamp>
      <setSpec>user-biosyslit</setSpec>
    </header>
    <header>
      <identifier>oai:zenodo.org:285731</identifier>
      <datestamp>2017-02-09T14:14:25Z</datestamp>
      <setSpec>user-biosyslit</setSpec>
    </header>
    <header>
      <identifier>oai:zenodo.org:285739</identifier>
      <datestamp>2017-02-09T14:14:12Z</datestamp>
      <setSpec>user-biosyslit</setSpec>
    </header>
    <header>
      <identifier>oai:zenodo.org:285738</identifier>
      <datestamp>2017-02-09T14:14:09Z</datestamp>
      <setSpec>user-biosyslit</setSpec>
    </header>
    <header>
      <identifier>oai:zenodo.org:285740</identifier>
      <datestamp>2017-02-09T14:14:14Z</datestamp>
      <setSpec>user-biosyslit</setSpec>
    </header>
    <header>
      <identifier>oai:zenodo.org:288690</identifier>
      <datestamp>2017-02-09T21:43:03Z</datestamp>
      <setSpec>user-biosyslit</setSpec>
    </header>
    <header>
      <identifier>oai:zenodo.org:288691</identifier>
      <datestamp>2017-02-09T21:43:05Z</datestamp>
      <setSpec>user-biosyslit</setSpec>
    </header>
    <header>
      <identifier>oai:zenodo.org:227027</identifier>
      <datestamp>2017-01-01T08:42:03Z</datestamp>
      <setSpec>user-biosyslit</setSpec>
    </header>
    <header>
      <identifier>oai:zenodo.org:227052</identifier>
      <datestamp>2017-01-01T08:41:50Z</datestamp>
      <setSpec>user-biosyslit</setSpec>
    </header>
    <header>
      <identifier>oai:zenodo.org:227056</identifier>
      <datestamp>2017-01-01T08:42:02Z</datestamp>
      <setSpec>user-biosyslit</setSpec>
    </header>
    <header>
      <identifier>oai:zenodo.org:227041</identifier>
      <datestamp>2017-01-01T08:41:18Z</datestamp>
      <setSpec>user-biosyslit</setSpec>
    </header>
    <header>
      <identifier>oai:zenodo.org:227042</identifier>
      <datestamp>2017-01-01T08:41:20Z</datestamp>
      <setSpec>user-biosyslit</setSpec>
    </header>
    <header>
      <identifier>oai:zenodo.org:227054</identifier>
      <datestamp>2017-01-01T08:41:56Z</datestamp>
      <setSpec>user-biosyslit</setSpec>
    </header>
    <header>
      <identifier>oai:zenodo.org:227055</identifier>
      <datestamp>2017-01-01T08:41:59Z</datestamp>
      <setSpec>user-biosyslit</setSpec>
    </header>
    <header>
      <identifier>oai:zenodo.org:227053</identifier>
      <datestamp>2017-01-01T08:41:53Z</datestamp>
      <setSpec>user-biosyslit</setSpec>
    </header>
    <header>
      <identifier>oai:zenodo.org:227049</identifier>
      <datestamp>2017-01-01T08:41:40Z</datestamp>
      <setSpec>user-biosyslit</setSpec>
    </header>
    <header>
      <identifier>oai:zenodo.org:249025</identifier>
      <datestamp>2017-01-17T15:17:37Z</datestamp>
      <setSpec>user-biosyslit</setSpec>
    </header>
    <header>
      <identifier>oai:zenodo.org:249026</identifier>
      <datestamp>2017-01-17T15:17:41Z</datestamp>
      <setSpec>user-biosyslit</setSpec>
    </header>
    <header>
      <identifier>oai:zenodo.org:249023</identifier>
      <datestamp>2017-01-17T15:17:28Z</datestamp>
      <setSpec>user-biosyslit</setSpec>
    </header>
    <header>
      <identifier>oai:zenodo.org:262674</identifier>
      <datestamp>2017-01-29T07:00:19Z</datestamp>
      <setSpec>user-biosyslit</setSpec>
    </header>
    <header>
      <identifier>oai:zenodo.org:262667</identifier>
      <datestamp>2017-01-29T06:59:58Z</datestamp>
      <setSpec>user-biosyslit</setSpec>
    </header>
    <header>
      <identifier>oai:zenodo.org:262663</identifier>
      <datestamp>2017-01-29T06:59:46Z</datestamp>
      <setSpec>user-biosyslit</setSpec>
    </header>
    <header>
      <identifier>oai:zenodo.org:262676</identifier>
      <datestamp>2017-01-29T07:00:24Z</datestamp>
      <setSpec>user-biosyslit</setSpec>
    </header>
    <header>
      <identifier>oai:zenodo.org:262675</identifier>
      <datestamp>2017-01-29T07:00:21Z</datestamp>
      <setSpec>user-biosyslit</setSpec>
    </header>
    <header>
      <identifier>oai:zenodo.org:262673</identifier>
      <datestamp>2017-01-29T07:00:16Z</datestamp>
      <setSpec>user-biosyslit</setSpec>
    </header>
    <header>
      <identifier>oai:zenodo.org:262669</identifier>
      <datestamp>2017-01-29T07:00:03Z</datestamp>
      <setSpec>user-biosyslit</setSpec>
    </header>
    <header>
      <identifier>oai:zenodo.org:262672</identifier>
      <datestamp>2017-01-29T07:00:13Z</datestamp>
      <setSpec>user-biosyslit</setSpec>
    </header>
    <header>
      <identifier>oai:zenodo.org:262665</identifier>
      <datestamp>2017-01-29T06:59:52Z</datestamp>
      <setSpec>user-biosyslit</setSpec>
    </header>
    <header>
      <identifier>oai:zenodo.org:231901</identifier>
      <datestamp>2017-01-06T08:30:33Z</datestamp>
      <setSpec>user-biosyslit</setSpec>
    </header>
    <header>
      <identifier>oai:zenodo.org:237106</identifier>
      <datestamp>2017-01-10T10:47:47Z</datestamp>
      <setSpec>user-biosyslit</setSpec>
    </header>
    <header>
      <identifier>oai:zenodo.org:288824</identifier>
      <datestamp>2017-02-09T22:00:42Z</datestamp>
      <setSpec>user-biosyslit</setSpec>
    </header>
    <header>
      <identifier>oai:zenodo.org:288832</identifier>
      <datestamp>2017-02-09T22:01:00Z</datestamp>
      <setSpec>user-biosyslit</setSpec>
    </header>
    <header>
      <identifier>oai:zenodo.org:288834</identifier>
      <datestamp>2017-02-09T22:01:04Z</datestamp>
      <setSpec>user-biosyslit</setSpec>
    </header>
    <header>
      <identifier>oai:zenodo.org:288825</identifier>
      <datestamp>2017-02-09T22:00:45Z</datestamp>
      <setSpec>user-biosyslit</setSpec>
    </header>
    <header>
      <identifier>oai:zenodo.org:288835</identifier>
      <datestamp>2017-02-09T22:01:08Z</datestamp>
      <setSpec>user-biosyslit</setSpec>
    </header>
    <header>
      <identifier>oai:zenodo.org:288821</identifier>
      <datestamp>2017-02-09T22:00:35Z</datestamp>
      <setSpec>user-biosyslit</setSpec>
    </header>
    <header>
      <identifier>oai:zenodo.org:288818</identifier>
      <datestamp>2017-02-09T22:00:28Z</datestamp>
      <setSpec>user-biosyslit</setSpec>
    </header>
    <header>
      <identifier>oai:zenodo.org:288828</identifier>
      <datestamp>2017-02-09T22:00:52Z</datestamp>
      <setSpec>user-biosyslit</setSpec>
    </header>
    <header>
      <identifier>oai:zenodo.org:288816</identifier>
      <datestamp>2017-02-09T22:02:36Z</datestamp>
      <setSpec>user-biosyslit</setSpec>
    </header>
    <header>
      <identifier>oai:zenodo.org:247042</identifier>
      <datestamp>2017-01-16T10:43:51Z</datestamp>
      <setSpec>user-biosyslit</setSpec>
    </header>
    <header>
      <identifier>oai:zenodo.org:288866</identifier>
      <datestamp>2017-02-09T22:02:26Z</datestamp>
      <setSpec>user-biosyslit</setSpec>
    </header>
    <header>
      <identifier>oai:zenodo.org:247032</identifier>
      <datestamp>2017-01-16T10:43:10Z</datestamp>
      <setSpec>user-biosyslit</setSpec>
    </header>
    <header>
      <identifier>oai:zenodo.org:247033</identifier>
      <datestamp>2017-01-16T10:43:14Z</datestamp>
      <setSpec>user-biosyslit</setSpec>
    </header>
    <header>
      <identifier>oai:zenodo.org:247036</identifier>
      <datestamp>2017-01-16T10:43:25Z</datestamp>
      <setSpec>user-biosyslit</setSpec>
    </header>
    <header>
      <identifier>oai:zenodo.org:247038</identifier>
      <datestamp>2017-01-16T10:43:36Z</datestamp>
      <setSpec>user-biosyslit</setSpec>
    </header>
    <header>
      <identifier>oai:zenodo.org:242812</identifier>
      <datestamp>2017-01-13T19:33:40Z</datestamp>
      <setSpec>user-biosyslit</setSpec>
    </header>
    <header>
      <identifier>oai:zenodo.org:242810</identifier>
      <datestamp>2017-01-13T19:33:30Z</datestamp>
      <setSpec>user-biosyslit</setSpec>
    </header>
    <header>
      <identifier>oai:zenodo.org:242783</identifier>
      <datestamp>2017-01-13T19:32:10Z</datestamp>
      <setSpec>user-biosyslit</setSpec>
    </header>
    <header>
      <identifier>oai:zenodo.org:242793</identifier>
      <datestamp>2017-01-13T19:32:44Z</datestamp>
      <setSpec>user-biosyslit</setSpec>
    </header>
    <header>
      <identifier>oai:zenodo.org:242813</identifier>
      <datestamp>2017-01-13T19:33:43Z</datestamp>
      <setSpec>user-biosyslit</setSpec>
    </header>
    <header>
      <identifier>oai:zenodo.org:242786</identifier>
      <datestamp>2017-01-13T19:32:18Z</datestamp>
      <setSpec>user-biosyslit</setSpec>
    </header>
    <header>
      <identifier>oai:zenodo.org:242798</identifier>
      <datestamp>2017-01-13T19:32:58Z</datestamp>
      <setSpec>user-biosyslit</setSpec>
    </header>
    <resumptionToken expirationDate="2017-08-31T15:47:24Z" cursor="63400" completeListSize="77796">.eJyNysEKgjAYAOB3-c8Sm1uaQhfRpEOKLUW9hE2Rapm4Qp347nnpXOfvm0BWVQk2WlFzQ-naIBStLcPCugaSd08hzteFgaeJ4I2ICz95Hx8JyvTaDFw5HNyMBOqOwgdWbBfpKd4M8RWN0Sl-Zeo4JGTfM-SZBxWNwW2_vJKEvsgvfsvixhFML7vQi0aGHZYT_n34z6d-PlduQYO2qCuwDWJocO-LrpZgT_P8AaMUUUc.DInAlA.6kS0fh70f8ngVke0zt_fmNXNvdY</resumptionToken>
  </ListIdentifiers>
</OAI-PMH>
