<?xml version='1.0' encoding='UTF-8'?>
<?xml-stylesheet type="text/xsl" href="/static/xsl/oai2.v1.0.xsl"?>
<OAI-PMH xmlns="http://www.openarchives.org/OAI/2.0/" xmlns:xsi="http://www.w3.org/2001/XMLSchema-instance" xsi:schemaLocation="http://www.openarchives.org/OAI/2.0/ http://www.openarchives.org/OAI/2.0/OAI-PMH.xsd">
  <responseDate>2017-08-31T15:42:45Z</responseDate>
  <request verb="ListIdentifiers" resumptionToken=".eJyNzz0LgkAcgPHv8p8l7sXUhBaxpEFFL0VdwlSkOk28Qj3xu-fSXPPzW54ZRFWVYKKNahiEGJpOibbbEhUrIIr-yfnltmYokpgXLY9yJ36HTYxSUuueLUbXTqknH8hvsGTHgCTYGKMbmoJz9EplOMb0NDB00F0ZTN79tLqS-g7Prk7HotbijJS9fwgmhi2W0eLr8J9O_nS22IMCXV5XYK5nCjyGvK8FmPOyfACjRVFJ.DIm_9Q.m3Yqrk2zvdMvG_mvHewDFyMpMKU">https://zenodo.org/oai2d</request>
  <ListIdentifiers>
    <header>
      <identifier>oai:zenodo.org:234084</identifier>
      <datestamp>2017-01-08T14:45:49Z</datestamp>
      <setSpec>user-biosyslit</setSpec>
    </header>
    <header>
      <identifier>oai:zenodo.org:234086</identifier>
      <datestamp>2017-01-08T14:45:57Z</datestamp>
      <setSpec>user-biosyslit</setSpec>
    </header>
    <header>
      <identifier>oai:zenodo.org:234085</identifier>
      <datestamp>2017-01-08T14:45:52Z</datestamp>
      <setSpec>user-biosyslit</setSpec>
    </header>
    <header>
      <identifier>oai:zenodo.org:234082</identifier>
      <datestamp>2017-01-08T14:45:41Z</datestamp>
      <setSpec>user-biosyslit</setSpec>
    </header>
    <header>
      <identifier>oai:zenodo.org:234083</identifier>
      <datestamp>2017-01-08T14:45:45Z</datestamp>
      <setSpec>user-biosyslit</setSpec>
    </header>
    <header>
      <identifier>oai:zenodo.org:283012</identifier>
      <datestamp>2017-02-09T08:01:19Z</datestamp>
      <setSpec>user-biosyslit</setSpec>
    </header>
    <header>
      <identifier>oai:zenodo.org:238984</identifier>
      <datestamp>2017-01-11T14:23:11Z</datestamp>
      <setSpec>user-biosyslit</setSpec>
    </header>
    <header>
      <identifier>oai:zenodo.org:240311</identifier>
      <datestamp>2017-01-12T07:16:48Z</datestamp>
      <setSpec>user-biosyslit</setSpec>
    </header>
    <header>
      <identifier>oai:zenodo.org:227023</identifier>
      <datestamp>2017-01-01T08:15:06Z</datestamp>
      <setSpec>user-biosyslit</setSpec>
    </header>
    <header>
      <identifier>oai:zenodo.org:227021</identifier>
      <datestamp>2017-01-01T08:14:56Z</datestamp>
      <setSpec>user-biosyslit</setSpec>
    </header>
    <header>
      <identifier>oai:zenodo.org:240318</identifier>
      <datestamp>2017-01-12T07:16:25Z</datestamp>
      <setSpec>user-biosyslit</setSpec>
    </header>
    <header>
      <identifier>oai:zenodo.org:240315</identifier>
      <datestamp>2017-01-12T07:16:15Z</datestamp>
      <setSpec>user-biosyslit</setSpec>
    </header>
    <header>
      <identifier>oai:zenodo.org:240320</identifier>
      <datestamp>2017-01-12T07:16:34Z</datestamp>
      <setSpec>user-biosyslit</setSpec>
    </header>
    <header>
      <identifier>oai:zenodo.org:240319</identifier>
      <datestamp>2017-01-12T07:16:29Z</datestamp>
      <setSpec>user-biosyslit</setSpec>
    </header>
    <header>
      <identifier>oai:zenodo.org:240313</identifier>
      <datestamp>2017-01-12T07:16:08Z</datestamp>
      <setSpec>user-biosyslit</setSpec>
    </header>
    <header>
      <identifier>oai:zenodo.org:240316</identifier>
      <datestamp>2017-01-12T07:16:18Z</datestamp>
      <setSpec>user-biosyslit</setSpec>
    </header>
    <header>
      <identifier>oai:zenodo.org:267281</identifier>
      <datestamp>2017-02-01T23:48:13Z</datestamp>
      <setSpec>user-biosyslit</setSpec>
    </header>
    <header>
      <identifier>oai:zenodo.org:267284</identifier>
      <datestamp>2017-02-01T23:48:05Z</datestamp>
      <setSpec>user-biosyslit</setSpec>
    </header>
    <header>
      <identifier>oai:zenodo.org:267282</identifier>
      <datestamp>2017-02-01T23:47:57Z</datestamp>
      <setSpec>user-biosyslit</setSpec>
    </header>
    <header>
      <identifier>oai:zenodo.org:271926</identifier>
      <datestamp>2017-02-08T03:05:28Z</datestamp>
      <setSpec>user-biosyslit</setSpec>
    </header>
    <header>
      <identifier>oai:zenodo.org:271929</identifier>
      <datestamp>2017-02-08T03:05:43Z</datestamp>
      <setSpec>user-biosyslit</setSpec>
    </header>
    <header>
      <identifier>oai:zenodo.org:271928</identifier>
      <datestamp>2017-02-08T03:05:38Z</datestamp>
      <setSpec>user-biosyslit</setSpec>
    </header>
    <header>
      <identifier>oai:zenodo.org:228178</identifier>
      <datestamp>2017-01-02T19:26:10Z</datestamp>
      <setSpec>user-biosyslit</setSpec>
    </header>
    <header>
      <identifier>oai:zenodo.org:254514</identifier>
      <datestamp>2017-01-20T19:51:09Z</datestamp>
      <setSpec>user-biosyslit</setSpec>
    </header>
    <header>
      <identifier>oai:zenodo.org:241280</identifier>
      <datestamp>2017-01-12T23:32:42Z</datestamp>
      <setSpec>user-biosyslit</setSpec>
    </header>
    <header>
      <identifier>oai:zenodo.org:241291</identifier>
      <datestamp>2017-01-12T23:32:40Z</datestamp>
      <setSpec>user-biosyslit</setSpec>
    </header>
    <header>
      <identifier>oai:zenodo.org:241290</identifier>
      <datestamp>2017-01-12T23:32:37Z</datestamp>
      <setSpec>user-biosyslit</setSpec>
    </header>
    <header>
      <identifier>oai:zenodo.org:241289</identifier>
      <datestamp>2017-01-12T23:32:34Z</datestamp>
      <setSpec>user-biosyslit</setSpec>
    </header>
    <header>
      <identifier>oai:zenodo.org:241288</identifier>
      <datestamp>2017-01-12T23:32:32Z</datestamp>
      <setSpec>user-biosyslit</setSpec>
    </header>
    <header>
      <identifier>oai:zenodo.org:241282</identifier>
      <datestamp>2017-01-12T23:32:12Z</datestamp>
      <setSpec>user-biosyslit</setSpec>
    </header>
    <header>
      <identifier>oai:zenodo.org:238789</identifier>
      <datestamp>2017-01-11T11:10:24Z</datestamp>
      <setSpec>user-biosyslit</setSpec>
    </header>
    <header>
      <identifier>oai:zenodo.org:279708</identifier>
      <datestamp>2017-02-09T01:54:38Z</datestamp>
      <setSpec>user-biosyslit</setSpec>
    </header>
    <header>
      <identifier>oai:zenodo.org:236203</identifier>
      <datestamp>2017-01-09T19:21:47Z</datestamp>
      <setSpec>user-biosyslit</setSpec>
    </header>
    <header>
      <identifier>oai:zenodo.org:236200</identifier>
      <datestamp>2017-01-09T19:21:39Z</datestamp>
      <setSpec>user-biosyslit</setSpec>
    </header>
    <header>
      <identifier>oai:zenodo.org:279711</identifier>
      <datestamp>2017-02-09T01:54:36Z</datestamp>
      <setSpec>user-biosyslit</setSpec>
    </header>
    <header>
      <identifier>oai:zenodo.org:279710</identifier>
      <datestamp>2017-02-09T01:54:34Z</datestamp>
      <setSpec>user-biosyslit</setSpec>
    </header>
    <header>
      <identifier>oai:zenodo.org:270380</identifier>
      <datestamp>2017-02-07T23:07:10Z</datestamp>
      <setSpec>user-biosyslit</setSpec>
    </header>
    <header>
      <identifier>oai:zenodo.org:270381</identifier>
      <datestamp>2017-02-07T23:07:12Z</datestamp>
      <setSpec>user-biosyslit</setSpec>
    </header>
    <header>
      <identifier>oai:zenodo.org:270379</identifier>
      <datestamp>2017-02-07T23:07:07Z</datestamp>
      <setSpec>user-biosyslit</setSpec>
    </header>
    <header>
      <identifier>oai:zenodo.org:281324</identifier>
      <datestamp>2017-02-09T05:08:00Z</datestamp>
      <setSpec>user-biosyslit</setSpec>
    </header>
    <header>
      <identifier>oai:zenodo.org:281322</identifier>
      <datestamp>2017-02-09T05:07:56Z</datestamp>
      <setSpec>user-biosyslit</setSpec>
    </header>
    <header>
      <identifier>oai:zenodo.org:275288</identifier>
      <datestamp>2017-02-08T15:59:58Z</datestamp>
      <setSpec>user-biosyslit</setSpec>
    </header>
    <header>
      <identifier>oai:zenodo.org:275290</identifier>
      <datestamp>2017-02-08T16:00:02Z</datestamp>
      <setSpec>user-biosyslit</setSpec>
    </header>
    <header>
      <identifier>oai:zenodo.org:228664</identifier>
      <datestamp>2017-01-03T03:05:02Z</datestamp>
      <setSpec>user-biosyslit</setSpec>
    </header>
    <header>
      <identifier>oai:zenodo.org:228663</identifier>
      <datestamp>2017-01-03T03:04:57Z</datestamp>
      <setSpec>user-biosyslit</setSpec>
    </header>
    <header>
      <identifier>oai:zenodo.org:287736</identifier>
      <datestamp>2017-02-09T19:09:42Z</datestamp>
      <setSpec>user-biosyslit</setSpec>
    </header>
    <header>
      <identifier>oai:zenodo.org:289378</identifier>
      <datestamp>2017-02-09T23:24:05Z</datestamp>
      <setSpec>user-biosyslit</setSpec>
    </header>
    <header>
      <identifier>oai:zenodo.org:289380</identifier>
      <datestamp>2017-02-09T23:24:09Z</datestamp>
      <setSpec>user-biosyslit</setSpec>
    </header>
    <header>
      <identifier>oai:zenodo.org:289377</identifier>
      <datestamp>2017-02-09T23:24:03Z</datestamp>
      <setSpec>user-biosyslit</setSpec>
    </header>
    <header>
      <identifier>oai:zenodo.org:289379</identifier>
      <datestamp>2017-02-09T23:24:08Z</datestamp>
      <setSpec>user-biosyslit</setSpec>
    </header>
    <header>
      <identifier>oai:zenodo.org:247661</identifier>
      <datestamp>2017-01-16T18:13:34Z</datestamp>
      <setSpec>user-biosyslit</setSpec>
    </header>
    <header>
      <identifier>oai:zenodo.org:247660</identifier>
      <datestamp>2017-01-16T18:13:30Z</datestamp>
      <setSpec>user-biosyslit</setSpec>
    </header>
    <header>
      <identifier>oai:zenodo.org:247649</identifier>
      <datestamp>2017-01-16T18:12:46Z</datestamp>
      <setSpec>user-biosyslit</setSpec>
    </header>
    <header>
      <identifier>oai:zenodo.org:247651</identifier>
      <datestamp>2017-01-16T18:12:53Z</datestamp>
      <setSpec>user-biosyslit</setSpec>
    </header>
    <header>
      <identifier>oai:zenodo.org:247647</identifier>
      <datestamp>2017-01-16T18:12:39Z</datestamp>
      <setSpec>user-biosyslit</setSpec>
    </header>
    <header>
      <identifier>oai:zenodo.org:247648</identifier>
      <datestamp>2017-01-16T18:12:42Z</datestamp>
      <setSpec>user-biosyslit</setSpec>
    </header>
    <header>
      <identifier>oai:zenodo.org:247652</identifier>
      <datestamp>2017-01-16T18:12:55Z</datestamp>
      <setSpec>user-biosyslit</setSpec>
    </header>
    <header>
      <identifier>oai:zenodo.org:247656</identifier>
      <datestamp>2017-01-16T18:13:16Z</datestamp>
      <setSpec>user-biosyslit</setSpec>
    </header>
    <header>
      <identifier>oai:zenodo.org:247654</identifier>
      <datestamp>2017-01-16T18:13:01Z</datestamp>
      <setSpec>user-biosyslit</setSpec>
    </header>
    <header>
      <identifier>oai:zenodo.org:247662</identifier>
      <datestamp>2017-01-16T18:13:38Z</datestamp>
      <setSpec>user-biosyslit</setSpec>
    </header>
    <header>
      <identifier>oai:zenodo.org:247669</identifier>
      <datestamp>2017-01-16T18:14:00Z</datestamp>
      <setSpec>user-biosyslit</setSpec>
    </header>
    <header>
      <identifier>oai:zenodo.org:247667</identifier>
      <datestamp>2017-01-16T18:13:53Z</datestamp>
      <setSpec>user-biosyslit</setSpec>
    </header>
    <header>
      <identifier>oai:zenodo.org:247674</identifier>
      <datestamp>2017-01-16T18:14:15Z</datestamp>
      <setSpec>user-biosyslit</setSpec>
    </header>
    <header>
      <identifier>oai:zenodo.org:247670</identifier>
      <datestamp>2017-01-16T18:14:03Z</datestamp>
      <setSpec>user-biosyslit</setSpec>
    </header>
    <header>
      <identifier>oai:zenodo.org:247671</identifier>
      <datestamp>2017-01-16T18:14:07Z</datestamp>
      <setSpec>user-biosyslit</setSpec>
    </header>
    <header>
      <identifier>oai:zenodo.org:247664</identifier>
      <datestamp>2017-01-16T18:13:44Z</datestamp>
      <setSpec>user-biosyslit</setSpec>
    </header>
    <header>
      <identifier>oai:zenodo.org:247663</identifier>
      <datestamp>2017-01-16T18:13:41Z</datestamp>
      <setSpec>user-biosyslit</setSpec>
    </header>
    <header>
      <identifier>oai:zenodo.org:247672</identifier>
      <datestamp>2017-01-16T18:14:10Z</datestamp>
      <setSpec>user-biosyslit</setSpec>
    </header>
    <header>
      <identifier>oai:zenodo.org:269720</identifier>
      <datestamp>2017-02-07T20:08:32Z</datestamp>
      <setSpec>user-biosyslit</setSpec>
    </header>
    <header>
      <identifier>oai:zenodo.org:269717</identifier>
      <datestamp>2017-02-07T20:08:25Z</datestamp>
      <setSpec>user-biosyslit</setSpec>
    </header>
    <header>
      <identifier>oai:zenodo.org:269722</identifier>
      <datestamp>2017-02-07T20:08:37Z</datestamp>
      <setSpec>user-biosyslit</setSpec>
    </header>
    <header>
      <identifier>oai:zenodo.org:269718</identifier>
      <datestamp>2017-02-07T20:08:27Z</datestamp>
      <setSpec>user-biosyslit</setSpec>
    </header>
    <header>
      <identifier>oai:zenodo.org:269713</identifier>
      <datestamp>2017-02-07T20:08:13Z</datestamp>
      <setSpec>user-biosyslit</setSpec>
    </header>
    <header>
      <identifier>oai:zenodo.org:269712</identifier>
      <datestamp>2017-02-07T20:08:41Z</datestamp>
      <setSpec>user-biosyslit</setSpec>
    </header>
    <header>
      <identifier>oai:zenodo.org:269723</identifier>
      <datestamp>2017-02-07T20:08:39Z</datestamp>
      <setSpec>user-biosyslit</setSpec>
    </header>
    <header>
      <identifier>oai:zenodo.org:271506</identifier>
      <datestamp>2017-02-08T01:51:34Z</datestamp>
      <setSpec>user-biosyslit</setSpec>
    </header>
    <header>
      <identifier>oai:zenodo.org:228108</identifier>
      <datestamp>2017-01-02T10:34:40Z</datestamp>
      <setSpec>user-biosyslit</setSpec>
    </header>
    <header>
      <identifier>oai:zenodo.org:228109</identifier>
      <datestamp>2017-01-02T10:34:39Z</datestamp>
      <setSpec>user-biosyslit</setSpec>
    </header>
    <header>
      <identifier>oai:zenodo.org:275708</identifier>
      <datestamp>2017-02-08T16:57:04Z</datestamp>
      <setSpec>user-biosyslit</setSpec>
    </header>
    <header>
      <identifier>oai:zenodo.org:282918</identifier>
      <datestamp>2017-02-09T07:50:53Z</datestamp>
      <setSpec>user-biosyslit</setSpec>
    </header>
    <header>
      <identifier>oai:zenodo.org:275710</identifier>
      <datestamp>2017-02-08T16:57:08Z</datestamp>
      <setSpec>user-biosyslit</setSpec>
    </header>
    <header>
      <identifier>oai:zenodo.org:282913</identifier>
      <datestamp>2017-02-09T07:50:20Z</datestamp>
      <setSpec>user-biosyslit</setSpec>
    </header>
    <header>
      <identifier>oai:zenodo.org:283159</identifier>
      <datestamp>2017-02-09T08:15:10Z</datestamp>
      <setSpec>user-biosyslit</setSpec>
    </header>
    <header>
      <identifier>oai:zenodo.org:283157</identifier>
      <datestamp>2017-02-09T08:15:12Z</datestamp>
      <setSpec>user-biosyslit</setSpec>
    </header>
    <header>
      <identifier>oai:zenodo.org:282246</identifier>
      <datestamp>2017-02-09T06:42:10Z</datestamp>
      <setSpec>user-biosyslit</setSpec>
    </header>
    <header>
      <identifier>oai:zenodo.org:245445</identifier>
      <datestamp>2017-01-15T13:38:20Z</datestamp>
      <setSpec>user-biosyslit</setSpec>
    </header>
    <header>
      <identifier>oai:zenodo.org:245451</identifier>
      <datestamp>2017-01-15T13:38:39Z</datestamp>
      <setSpec>user-biosyslit</setSpec>
    </header>
    <header>
      <identifier>oai:zenodo.org:245444</identifier>
      <datestamp>2017-01-15T13:38:15Z</datestamp>
      <setSpec>user-biosyslit</setSpec>
    </header>
    <header>
      <identifier>oai:zenodo.org:245447</identifier>
      <datestamp>2017-01-15T13:38:26Z</datestamp>
      <setSpec>user-biosyslit</setSpec>
    </header>
    <header>
      <identifier>oai:zenodo.org:245443</identifier>
      <datestamp>2017-01-15T13:38:12Z</datestamp>
      <setSpec>user-biosyslit</setSpec>
    </header>
    <header>
      <identifier>oai:zenodo.org:245446</identifier>
      <datestamp>2017-01-15T13:38:22Z</datestamp>
      <setSpec>user-biosyslit</setSpec>
    </header>
    <header>
      <identifier>oai:zenodo.org:245452</identifier>
      <datestamp>2017-01-15T13:38:43Z</datestamp>
      <setSpec>user-biosyslit</setSpec>
    </header>
    <header>
      <identifier>oai:zenodo.org:282247</identifier>
      <datestamp>2017-02-09T06:42:12Z</datestamp>
      <setSpec>user-biosyslit</setSpec>
    </header>
    <header>
      <identifier>oai:zenodo.org:245470</identifier>
      <datestamp>2017-01-15T13:39:33Z</datestamp>
      <setSpec>user-biosyslit</setSpec>
    </header>
    <header>
      <identifier>oai:zenodo.org:287090</identifier>
      <datestamp>2017-02-09T17:26:37Z</datestamp>
      <setSpec>user-biosyslit</setSpec>
    </header>
    <header>
      <identifier>oai:zenodo.org:287084</identifier>
      <datestamp>2017-02-09T17:26:25Z</datestamp>
      <setSpec>user-biosyslit</setSpec>
    </header>
    <header>
      <identifier>oai:zenodo.org:287077</identifier>
      <datestamp>2017-02-09T17:26:08Z</datestamp>
      <setSpec>user-biosyslit</setSpec>
    </header>
    <header>
      <identifier>oai:zenodo.org:287081</identifier>
      <datestamp>2017-02-09T17:26:18Z</datestamp>
      <setSpec>user-biosyslit</setSpec>
    </header>
    <header>
      <identifier>oai:zenodo.org:287083</identifier>
      <datestamp>2017-02-09T17:26:22Z</datestamp>
      <setSpec>user-biosyslit</setSpec>
    </header>
    <header>
      <identifier>oai:zenodo.org:287086</identifier>
      <datestamp>2017-02-09T17:26:28Z</datestamp>
      <setSpec>user-biosyslit</setSpec>
    </header>
    <resumptionToken expirationDate="2017-08-31T15:44:45Z" cursor="26800" completeListSize="77796">.eJyNzz0LgkAcgPHv8p8l7kW0hJbQxEHFrhN1CVMR86zwCvXE755Lc83Pb3lmkFVVgoU2SKfGlhATEYPoZIc1kEX_EOLSrBmKJBbFXfDcjd-nLkYpqc3AlqNvpzRQLQo7rNgxIgnejrxBU3Tmr1Sdxph6A0OO6atoCm7e6koauiK7uk_G7wfBSNmHTjQxfGAZLb4O_-nUT2fLPWjwzOsKrHVOg3bI-1qCNS_LB5EYUS4.DIm_9Q.QL2XPif-P27OhxHzNKTxAd4tlLc</resumptionToken>
  </ListIdentifiers>
</OAI-PMH>
