<?xml version='1.0' encoding='UTF-8'?>
<?xml-stylesheet type="text/xsl" href="/static/xsl/oai2.v1.0.xsl"?>
<OAI-PMH xmlns="http://www.openarchives.org/OAI/2.0/" xmlns:xsi="http://www.w3.org/2001/XMLSchema-instance" xsi:schemaLocation="http://www.openarchives.org/OAI/2.0/ http://www.openarchives.org/OAI/2.0/OAI-PMH.xsd">
  <responseDate>2017-08-31T14:40:32Z</responseDate>
  <request verb="ListIdentifiers" resumptionToken=".eJwVzdFuREAYQOF3mWtpZhBj3a1Q2aY_scxYbhodytZQRYPZ7Lvv9vok37mhua4r5OAX26aWQeiBWsTCpm5qaBbTj5Qf12dG4sKlGCQrA_537jnO9YaG3ryBl5MwZSrqiUpeY_1C7I1d8R6nbMnVeePGaU2wT0HFK6hGj_rKiAJZfAZjwgZXJno1RX68J8RNCkNQSI_60yPwPS4CtyyUhy_gpwU6n7xngAWvdvAXN1KAwQMzTMehUu2YZdsvk29rwZahVK0P3RKz_5c6UqShsWxq5BiWhrq1nJoZObf7_QF11FIV.DImxKg.frTuHeFA96bnasWGUpy0Za7jsvA">https://zenodo.org/oai2d</request>
  <ListIdentifiers>
    <header>
      <identifier>oai:zenodo.org:278706</identifier>
      <datestamp>2017-02-08T23:44:13Z</datestamp>
      <setSpec>user-biosyslit</setSpec>
    </header>
    <header>
      <identifier>oai:zenodo.org:236947</identifier>
      <datestamp>2017-01-10T08:38:54Z</datestamp>
      <setSpec>user-biosyslit</setSpec>
    </header>
    <header>
      <identifier>oai:zenodo.org:236289</identifier>
      <datestamp>2017-01-09T21:46:32Z</datestamp>
      <setSpec>user-biosyslit</setSpec>
    </header>
    <header>
      <identifier>oai:zenodo.org:236474</identifier>
      <datestamp>2017-01-10T00:36:31Z</datestamp>
      <setSpec>user-biosyslit</setSpec>
    </header>
    <header>
      <identifier>oai:zenodo.org:238208</identifier>
      <datestamp>2017-01-11T02:17:25Z</datestamp>
      <setSpec>user-biosyslit</setSpec>
    </header>
    <header>
      <identifier>oai:zenodo.org:276684</identifier>
      <datestamp>2017-02-08T19:28:04Z</datestamp>
      <setSpec>user-biosyslit</setSpec>
    </header>
    <header>
      <identifier>oai:zenodo.org:277581</identifier>
      <datestamp>2017-02-08T21:25:48Z</datestamp>
      <setSpec>user-biosyslit</setSpec>
    </header>
    <header>
      <identifier>oai:zenodo.org:277711</identifier>
      <datestamp>2017-02-08T21:41:22Z</datestamp>
      <setSpec>user-biosyslit</setSpec>
    </header>
    <header>
      <identifier>oai:zenodo.org:238113</identifier>
      <datestamp>2017-01-11T01:14:21Z</datestamp>
      <setSpec>user-biosyslit</setSpec>
    </header>
    <header>
      <identifier>oai:zenodo.org:277514</identifier>
      <datestamp>2017-02-08T21:16:52Z</datestamp>
      <setSpec>user-biosyslit</setSpec>
    </header>
    <header>
      <identifier>oai:zenodo.org:271805</identifier>
      <datestamp>2017-02-08T02:43:02Z</datestamp>
      <setSpec>user-biosyslit</setSpec>
    </header>
    <header>
      <identifier>oai:zenodo.org:277770</identifier>
      <datestamp>2017-02-08T21:47:07Z</datestamp>
      <setSpec>user-biosyslit</setSpec>
    </header>
    <header>
      <identifier>oai:zenodo.org:239075</identifier>
      <datestamp>2017-01-11T16:05:37Z</datestamp>
      <setSpec>user-biosyslit</setSpec>
    </header>
    <header>
      <identifier>oai:zenodo.org:238178</identifier>
      <datestamp>2017-01-11T01:56:50Z</datestamp>
      <setSpec>user-biosyslit</setSpec>
    </header>
    <header>
      <identifier>oai:zenodo.org:237314</identifier>
      <datestamp>2017-01-10T14:14:15Z</datestamp>
      <setSpec>user-biosyslit</setSpec>
    </header>
    <header>
      <identifier>oai:zenodo.org:277429</identifier>
      <datestamp>2017-02-08T21:07:30Z</datestamp>
      <setSpec>user-biosyslit</setSpec>
    </header>
    <header>
      <identifier>oai:zenodo.org:272201</identifier>
      <datestamp>2017-02-08T03:58:53Z</datestamp>
      <setSpec>user-biosyslit</setSpec>
    </header>
    <header>
      <identifier>oai:zenodo.org:239189</identifier>
      <datestamp>2017-01-11T17:34:57Z</datestamp>
      <setSpec>user-biosyslit</setSpec>
    </header>
    <header>
      <identifier>oai:zenodo.org:271530</identifier>
      <datestamp>2017-02-08T01:53:27Z</datestamp>
      <setSpec>user-biosyslit</setSpec>
    </header>
    <header>
      <identifier>oai:zenodo.org:278184</identifier>
      <datestamp>2017-02-08T22:37:17Z</datestamp>
      <setSpec>user-biosyslit</setSpec>
    </header>
    <header>
      <identifier>oai:zenodo.org:238344</identifier>
      <datestamp>2017-01-11T04:33:14Z</datestamp>
      <setSpec>user-biosyslit</setSpec>
    </header>
    <header>
      <identifier>oai:zenodo.org:239245</identifier>
      <datestamp>2017-01-11T18:46:13Z</datestamp>
      <setSpec>user-biosyslit</setSpec>
    </header>
    <header>
      <identifier>oai:zenodo.org:238152</identifier>
      <datestamp>2017-01-11T01:43:28Z</datestamp>
      <setSpec>user-biosyslit</setSpec>
    </header>
    <header>
      <identifier>oai:zenodo.org:277963</identifier>
      <datestamp>2017-02-08T22:10:07Z</datestamp>
      <setSpec>user-biosyslit</setSpec>
    </header>
    <header>
      <identifier>oai:zenodo.org:239861</identifier>
      <datestamp>2017-01-12T01:58:16Z</datestamp>
      <setSpec>user-biosyslit</setSpec>
    </header>
    <header>
      <identifier>oai:zenodo.org:239651</identifier>
      <datestamp>2017-01-11T23:20:44Z</datestamp>
      <setSpec>user-biosyslit</setSpec>
    </header>
    <header>
      <identifier>oai:zenodo.org:278292</identifier>
      <datestamp>2017-02-08T22:47:22Z</datestamp>
      <setSpec>user-biosyslit</setSpec>
    </header>
    <header>
      <identifier>oai:zenodo.org:278173</identifier>
      <datestamp>2017-02-08T22:36:46Z</datestamp>
      <setSpec>user-biosyslit</setSpec>
    </header>
    <header>
      <identifier>oai:zenodo.org:239233</identifier>
      <datestamp>2017-01-11T18:45:36Z</datestamp>
      <setSpec>user-biosyslit</setSpec>
    </header>
    <header>
      <identifier>oai:zenodo.org:278489</identifier>
      <datestamp>2017-02-08T23:16:58Z</datestamp>
      <setSpec>user-biosyslit</setSpec>
    </header>
    <header>
      <identifier>oai:zenodo.org:239269</identifier>
      <datestamp>2017-01-11T18:47:42Z</datestamp>
      <setSpec>user-biosyslit</setSpec>
    </header>
    <header>
      <identifier>oai:zenodo.org:279338</identifier>
      <datestamp>2017-02-09T01:06:19Z</datestamp>
      <setSpec>user-biosyslit</setSpec>
    </header>
    <header>
      <identifier>oai:zenodo.org:240200</identifier>
      <datestamp>2017-01-12T05:58:54Z</datestamp>
      <setSpec>user-biosyslit</setSpec>
    </header>
    <header>
      <identifier>oai:zenodo.org:240418</identifier>
      <datestamp>2017-01-12T08:19:02Z</datestamp>
      <setSpec>user-biosyslit</setSpec>
    </header>
    <header>
      <identifier>oai:zenodo.org:278725</identifier>
      <datestamp>2017-02-08T23:46:55Z</datestamp>
      <setSpec>user-biosyslit</setSpec>
    </header>
    <header>
      <identifier>oai:zenodo.org:278541</identifier>
      <datestamp>2017-02-08T23:22:16Z</datestamp>
      <setSpec>user-biosyslit</setSpec>
    </header>
    <header>
      <identifier>oai:zenodo.org:271803</identifier>
      <datestamp>2017-02-08T02:42:54Z</datestamp>
      <setSpec>user-biosyslit</setSpec>
    </header>
    <header>
      <identifier>oai:zenodo.org:240264</identifier>
      <datestamp>2017-01-12T06:41:36Z</datestamp>
      <setSpec>user-biosyslit</setSpec>
    </header>
    <header>
      <identifier>oai:zenodo.org:271269</identifier>
      <datestamp>2017-02-08T01:14:10Z</datestamp>
      <setSpec>user-biosyslit</setSpec>
    </header>
    <header>
      <identifier>oai:zenodo.org:241647</identifier>
      <datestamp>2017-01-13T04:12:33Z</datestamp>
      <setSpec>user-biosyslit</setSpec>
    </header>
    <header>
      <identifier>oai:zenodo.org:271660</identifier>
      <datestamp>2017-02-08T02:10:13Z</datestamp>
      <setSpec>user-biosyslit</setSpec>
    </header>
    <header>
      <identifier>oai:zenodo.org:240803</identifier>
      <datestamp>2017-01-12T14:19:47Z</datestamp>
      <setSpec>user-biosyslit</setSpec>
    </header>
    <header>
      <identifier>oai:zenodo.org:278722</identifier>
      <datestamp>2017-02-08T23:46:56Z</datestamp>
      <setSpec>user-biosyslit</setSpec>
    </header>
    <header>
      <identifier>oai:zenodo.org:271376</identifier>
      <datestamp>2017-02-08T01:33:59Z</datestamp>
      <setSpec>user-biosyslit</setSpec>
    </header>
    <header>
      <identifier>oai:zenodo.org:279918</identifier>
      <datestamp>2017-02-09T02:17:03Z</datestamp>
      <setSpec>user-biosyslit</setSpec>
    </header>
    <header>
      <identifier>oai:zenodo.org:271615</identifier>
      <datestamp>2017-02-08T02:03:46Z</datestamp>
      <setSpec>user-biosyslit</setSpec>
    </header>
    <header>
      <identifier>oai:zenodo.org:241343</identifier>
      <datestamp>2017-01-13T00:11:58Z</datestamp>
      <setSpec>user-biosyslit</setSpec>
    </header>
    <header>
      <identifier>oai:zenodo.org:279430</identifier>
      <datestamp>2017-02-09T01:21:22Z</datestamp>
      <setSpec>user-biosyslit</setSpec>
    </header>
    <header>
      <identifier>oai:zenodo.org:241546</identifier>
      <datestamp>2017-01-13T03:13:15Z</datestamp>
      <setSpec>user-biosyslit</setSpec>
    </header>
    <header>
      <identifier>oai:zenodo.org:272127</identifier>
      <datestamp>2017-02-08T03:48:38Z</datestamp>
      <setSpec>user-biosyslit</setSpec>
    </header>
    <header>
      <identifier>oai:zenodo.org:271934</identifier>
      <datestamp>2017-02-08T03:07:13Z</datestamp>
      <setSpec>user-biosyslit</setSpec>
    </header>
    <header>
      <identifier>oai:zenodo.org:271563</identifier>
      <datestamp>2017-02-08T01:55:04Z</datestamp>
      <setSpec>user-biosyslit</setSpec>
    </header>
    <header>
      <identifier>oai:zenodo.org:271980</identifier>
      <datestamp>2017-02-08T03:13:24Z</datestamp>
      <setSpec>user-biosyslit</setSpec>
    </header>
    <header>
      <identifier>oai:zenodo.org:273202</identifier>
      <datestamp>2017-02-08T08:27:21Z</datestamp>
      <setSpec>user-biosyslit</setSpec>
    </header>
    <header>
      <identifier>oai:zenodo.org:241690</identifier>
      <datestamp>2017-01-13T05:01:33Z</datestamp>
      <setSpec>user-biosyslit</setSpec>
    </header>
    <header>
      <identifier>oai:zenodo.org:241893</identifier>
      <datestamp>2017-01-13T07:24:11Z</datestamp>
      <setSpec>user-biosyslit</setSpec>
    </header>
    <header>
      <identifier>oai:zenodo.org:241867</identifier>
      <datestamp>2017-01-13T07:06:23Z</datestamp>
      <setSpec>user-biosyslit</setSpec>
    </header>
    <header>
      <identifier>oai:zenodo.org:243060</identifier>
      <datestamp>2017-01-13T22:45:08Z</datestamp>
      <setSpec>user-biosyslit</setSpec>
    </header>
    <header>
      <identifier>oai:zenodo.org:279734</identifier>
      <datestamp>2017-02-09T01:58:12Z</datestamp>
      <setSpec>user-biosyslit</setSpec>
    </header>
    <header>
      <identifier>oai:zenodo.org:242514</identifier>
      <datestamp>2017-01-13T16:08:17Z</datestamp>
      <setSpec>user-biosyslit</setSpec>
    </header>
    <header>
      <identifier>oai:zenodo.org:273078</identifier>
      <datestamp>2017-02-08T07:01:16Z</datestamp>
      <setSpec>user-biosyslit</setSpec>
    </header>
    <header>
      <identifier>oai:zenodo.org:272236</identifier>
      <datestamp>2017-02-08T04:04:11Z</datestamp>
      <setSpec>user-biosyslit</setSpec>
    </header>
    <header>
      <identifier>oai:zenodo.org:242294</identifier>
      <datestamp>2017-01-13T13:02:20Z</datestamp>
      <setSpec>user-biosyslit</setSpec>
    </header>
    <header>
      <identifier>oai:zenodo.org:237118</identifier>
      <datestamp>2017-01-10T11:06:35Z</datestamp>
      <setSpec>user-biosyslit</setSpec>
    </header>
    <header>
      <identifier>oai:zenodo.org:235930</identifier>
      <datestamp>2017-01-09T16:56:18Z</datestamp>
      <setSpec>user-biosyslit</setSpec>
    </header>
    <header>
      <identifier>oai:zenodo.org:277027</identifier>
      <datestamp>2017-02-08T20:14:10Z</datestamp>
      <setSpec>user-biosyslit</setSpec>
    </header>
    <header>
      <identifier>oai:zenodo.org:271019</identifier>
      <datestamp>2017-02-08T00:36:30Z</datestamp>
      <setSpec>user-biosyslit</setSpec>
    </header>
    <header>
      <identifier>oai:zenodo.org:236422</identifier>
      <datestamp>2017-01-10T00:06:07Z</datestamp>
      <setSpec>user-biosyslit</setSpec>
    </header>
    <header>
      <identifier>oai:zenodo.org:277880</identifier>
      <datestamp>2017-02-08T22:00:46Z</datestamp>
      <setSpec>user-biosyslit</setSpec>
    </header>
    <header>
      <identifier>oai:zenodo.org:277325</identifier>
      <datestamp>2017-02-08T20:53:59Z</datestamp>
      <setSpec>user-biosyslit</setSpec>
    </header>
    <header>
      <identifier>oai:zenodo.org:277617</identifier>
      <datestamp>2017-02-08T21:30:54Z</datestamp>
      <setSpec>user-biosyslit</setSpec>
    </header>
    <header>
      <identifier>oai:zenodo.org:237672</identifier>
      <datestamp>2017-01-10T18:30:47Z</datestamp>
      <setSpec>user-biosyslit</setSpec>
    </header>
    <header>
      <identifier>oai:zenodo.org:237893</identifier>
      <datestamp>2017-01-10T22:06:45Z</datestamp>
      <setSpec>user-biosyslit</setSpec>
    </header>
    <header>
      <identifier>oai:zenodo.org:271645</identifier>
      <datestamp>2017-02-08T02:06:33Z</datestamp>
      <setSpec>user-biosyslit</setSpec>
    </header>
    <header>
      <identifier>oai:zenodo.org:238216</identifier>
      <datestamp>2017-01-11T02:23:20Z</datestamp>
      <setSpec>user-biosyslit</setSpec>
    </header>
    <header>
      <identifier>oai:zenodo.org:238938</identifier>
      <datestamp>2017-01-11T12:51:05Z</datestamp>
      <setSpec>user-biosyslit</setSpec>
    </header>
    <header>
      <identifier>oai:zenodo.org:271817</identifier>
      <datestamp>2017-02-08T02:43:47Z</datestamp>
      <setSpec>user-biosyslit</setSpec>
    </header>
    <header>
      <identifier>oai:zenodo.org:238085</identifier>
      <datestamp>2017-01-11T00:52:07Z</datestamp>
      <setSpec>user-biosyslit</setSpec>
    </header>
    <header>
      <identifier>oai:zenodo.org:277946</identifier>
      <datestamp>2017-02-08T22:08:15Z</datestamp>
      <setSpec>user-biosyslit</setSpec>
    </header>
    <header>
      <identifier>oai:zenodo.org:238383</identifier>
      <datestamp>2017-01-11T05:07:49Z</datestamp>
      <setSpec>user-biosyslit</setSpec>
    </header>
    <header>
      <identifier>oai:zenodo.org:278277</identifier>
      <datestamp>2017-02-08T22:46:34Z</datestamp>
      <setSpec>user-biosyslit</setSpec>
    </header>
    <header>
      <identifier>oai:zenodo.org:277672</identifier>
      <datestamp>2017-02-08T21:36:06Z</datestamp>
      <setSpec>user-biosyslit</setSpec>
    </header>
    <header>
      <identifier>oai:zenodo.org:272011</identifier>
      <datestamp>2017-02-08T03:20:09Z</datestamp>
      <setSpec>user-biosyslit</setSpec>
    </header>
    <header>
      <identifier>oai:zenodo.org:278498</identifier>
      <datestamp>2017-02-08T23:17:24Z</datestamp>
      <setSpec>user-biosyslit</setSpec>
    </header>
    <header>
      <identifier>oai:zenodo.org:277801</identifier>
      <datestamp>2017-02-08T21:50:52Z</datestamp>
      <setSpec>user-biosyslit</setSpec>
    </header>
    <header>
      <identifier>oai:zenodo.org:278676</identifier>
      <datestamp>2017-02-08T23:38:27Z</datestamp>
      <setSpec>user-biosyslit</setSpec>
    </header>
    <header>
      <identifier>oai:zenodo.org:278969</identifier>
      <datestamp>2017-02-09T00:20:47Z</datestamp>
      <setSpec>user-biosyslit</setSpec>
    </header>
    <header>
      <identifier>oai:zenodo.org:238666</identifier>
      <datestamp>2017-01-11T09:04:24Z</datestamp>
      <setSpec>user-biosyslit</setSpec>
    </header>
    <header>
      <identifier>oai:zenodo.org:238539</identifier>
      <datestamp>2017-01-11T07:10:06Z</datestamp>
      <setSpec>user-biosyslit</setSpec>
    </header>
    <header>
      <identifier>oai:zenodo.org:278061</identifier>
      <datestamp>2017-02-08T22:21:48Z</datestamp>
      <setSpec>user-biosyslit</setSpec>
    </header>
    <header>
      <identifier>oai:zenodo.org:238694</identifier>
      <datestamp>2017-01-11T09:46:02Z</datestamp>
      <setSpec>user-biosyslit</setSpec>
    </header>
    <header>
      <identifier>oai:zenodo.org:278633</identifier>
      <datestamp>2017-02-08T23:33:30Z</datestamp>
      <setSpec>user-biosyslit</setSpec>
    </header>
    <header>
      <identifier>oai:zenodo.org:239261</identifier>
      <datestamp>2017-01-11T18:47:06Z</datestamp>
      <setSpec>user-biosyslit</setSpec>
    </header>
    <header>
      <identifier>oai:zenodo.org:239059</identifier>
      <datestamp>2017-01-11T15:53:36Z</datestamp>
      <setSpec>user-biosyslit</setSpec>
    </header>
    <header>
      <identifier>oai:zenodo.org:239334</identifier>
      <datestamp>2017-01-11T18:51:58Z</datestamp>
      <setSpec>user-biosyslit</setSpec>
    </header>
    <header>
      <identifier>oai:zenodo.org:239408</identifier>
      <datestamp>2017-01-11T20:05:55Z</datestamp>
      <setSpec>user-biosyslit</setSpec>
    </header>
    <header>
      <identifier>oai:zenodo.org:239186</identifier>
      <datestamp>2017-01-11T17:29:49Z</datestamp>
      <setSpec>user-biosyslit</setSpec>
    </header>
    <header>
      <identifier>oai:zenodo.org:272044</identifier>
      <datestamp>2017-02-08T03:24:38Z</datestamp>
      <setSpec>user-biosyslit</setSpec>
    </header>
    <header>
      <identifier>oai:zenodo.org:278788</identifier>
      <datestamp>2017-02-08T23:53:26Z</datestamp>
      <setSpec>user-biosyslit</setSpec>
    </header>
    <header>
      <identifier>oai:zenodo.org:271391</identifier>
      <datestamp>2017-02-08T01:35:36Z</datestamp>
      <setSpec>user-biosyslit</setSpec>
    </header>
    <resumptionToken expirationDate="2017-08-31T14:42:32Z" cursor="3500" completeListSize="142507">.eJwVzdFOgzAYQOF36TUxLRAL3G0ByYw_hJXC4MZgQZgURKgBuuzdndcn-c4NLU1TIw8_WS51Teq4mDw7tu3YloEWMX9L-X59dCQumRSj5FWY_Z6HDBdmSyN_2cAvSJRyHQ9Es5fEvBBn41e8JylXhT5vmXVaGQ4o6GQF3ZrxUFtxKMuPcGJ8PEpm1nMcJDsjR1ZagkJ6MB8ega9JCdzxSLqfkJ0U9AF5ywGLrN4hUMdYAwYf7Cidxlp3U55vP1y-riVXY6W7AHqV8P-XPlBkoKlqG-RZ1ED9Ws3tgrzb_f4HslBSUw.DImxYA.fEsXHsbunFKrgO7eC1sQq2ykQFc</resumptionToken>
  </ListIdentifiers>
</OAI-PMH>
