<?xml version='1.0' encoding='UTF-8'?>
<?xml-stylesheet type="text/xsl" href="/static/xsl/oai2.v1.0.xsl"?>
<OAI-PMH xmlns="http://www.openarchives.org/OAI/2.0/" xmlns:xsi="http://www.w3.org/2001/XMLSchema-instance" xsi:schemaLocation="http://www.openarchives.org/OAI/2.0/ http://www.openarchives.org/OAI/2.0/OAI-PMH.xsd">
  <responseDate>2017-08-31T15:46:13Z</responseDate>
  <request verb="ListIdentifiers" resumptionToken=".eJyNysEKgjAYAOB3-c8S-105FbqEJR1UbE2yS5iKlLPCFenEd89L5zp_3wCqLAtwycy0LQcJ2nSB6JCFxQxQeXuX8nSZHPJDIvObFJmfvHZNQlKzYqGnusBLaahrEjWo-SY2D2h34kL6eC-eqd51Cd2-OVmzQMd9eN1Or6CRL49n_8HFbSW5WbTROu45rviR5t-Hfz7983lqCQY8sqoEl82JAfU7aysF7jCOH879UW4.DInAxQ.gY1nO7J4XyrPx9J1f6UuPiLLhZY">https://zenodo.org/oai2d</request>
  <ListIdentifiers>
    <header>
      <identifier>oai:zenodo.org:247646</identifier>
      <datestamp>2017-01-16T18:12:36Z</datestamp>
      <setSpec>user-biosyslit</setSpec>
    </header>
    <header>
      <identifier>oai:zenodo.org:247650</identifier>
      <datestamp>2017-01-16T18:12:50Z</datestamp>
      <setSpec>user-biosyslit</setSpec>
    </header>
    <header>
      <identifier>oai:zenodo.org:247653</identifier>
      <datestamp>2017-01-16T18:12:59Z</datestamp>
      <setSpec>user-biosyslit</setSpec>
    </header>
    <header>
      <identifier>oai:zenodo.org:247655</identifier>
      <datestamp>2017-01-16T18:13:13Z</datestamp>
      <setSpec>user-biosyslit</setSpec>
    </header>
    <header>
      <identifier>oai:zenodo.org:269719</identifier>
      <datestamp>2017-02-07T20:08:30Z</datestamp>
      <setSpec>user-biosyslit</setSpec>
    </header>
    <header>
      <identifier>oai:zenodo.org:269716</identifier>
      <datestamp>2017-02-07T20:08:22Z</datestamp>
      <setSpec>user-biosyslit</setSpec>
    </header>
    <header>
      <identifier>oai:zenodo.org:269715</identifier>
      <datestamp>2017-02-07T20:08:19Z</datestamp>
      <setSpec>user-biosyslit</setSpec>
    </header>
    <header>
      <identifier>oai:zenodo.org:269714</identifier>
      <datestamp>2017-02-07T20:08:16Z</datestamp>
      <setSpec>user-biosyslit</setSpec>
    </header>
    <header>
      <identifier>oai:zenodo.org:271504</identifier>
      <datestamp>2017-02-08T01:51:38Z</datestamp>
      <setSpec>user-biosyslit</setSpec>
    </header>
    <header>
      <identifier>oai:zenodo.org:275322</identifier>
      <datestamp>2017-02-08T16:06:34Z</datestamp>
      <setSpec>user-biosyslit</setSpec>
    </header>
    <header>
      <identifier>oai:zenodo.org:275323</identifier>
      <datestamp>2017-02-08T16:06:33Z</datestamp>
      <setSpec>user-biosyslit</setSpec>
    </header>
    <header>
      <identifier>oai:zenodo.org:284094</identifier>
      <datestamp>2017-02-09T10:22:24Z</datestamp>
      <setSpec>user-biosyslit</setSpec>
    </header>
    <header>
      <identifier>oai:zenodo.org:284095</identifier>
      <datestamp>2017-02-09T10:22:26Z</datestamp>
      <setSpec>user-biosyslit</setSpec>
    </header>
    <header>
      <identifier>oai:zenodo.org:275702</identifier>
      <datestamp>2017-02-08T16:57:10Z</datestamp>
      <setSpec>user-biosyslit</setSpec>
    </header>
    <header>
      <identifier>oai:zenodo.org:282917</identifier>
      <datestamp>2017-02-09T07:50:55Z</datestamp>
      <setSpec>user-biosyslit</setSpec>
    </header>
    <header>
      <identifier>oai:zenodo.org:281656</identifier>
      <datestamp>2017-02-09T05:42:07Z</datestamp>
      <setSpec>user-biosyslit</setSpec>
    </header>
    <header>
      <identifier>oai:zenodo.org:281665</identifier>
      <datestamp>2017-02-09T05:42:35Z</datestamp>
      <setSpec>user-biosyslit</setSpec>
    </header>
    <header>
      <identifier>oai:zenodo.org:281664</identifier>
      <datestamp>2017-02-09T05:42:29Z</datestamp>
      <setSpec>user-biosyslit</setSpec>
    </header>
    <header>
      <identifier>oai:zenodo.org:281655</identifier>
      <datestamp>2017-02-09T05:42:04Z</datestamp>
      <setSpec>user-biosyslit</setSpec>
    </header>
    <header>
      <identifier>oai:zenodo.org:281662</identifier>
      <datestamp>2017-02-09T05:42:24Z</datestamp>
      <setSpec>user-biosyslit</setSpec>
    </header>
    <header>
      <identifier>oai:zenodo.org:230316</identifier>
      <datestamp>2017-01-04T22:47:07Z</datestamp>
      <setSpec>user-biosyslit</setSpec>
    </header>
    <header>
      <identifier>oai:zenodo.org:271734</identifier>
      <datestamp>2017-02-08T02:28:34Z</datestamp>
      <setSpec>user-biosyslit</setSpec>
    </header>
    <header>
      <identifier>oai:zenodo.org:228654</identifier>
      <datestamp>2017-01-03T03:00:55Z</datestamp>
      <setSpec>user-biosyslit</setSpec>
    </header>
    <header>
      <identifier>oai:zenodo.org:230319</identifier>
      <datestamp>2017-01-04T22:46:56Z</datestamp>
      <setSpec>user-biosyslit</setSpec>
    </header>
    <header>
      <identifier>oai:zenodo.org:230321</identifier>
      <datestamp>2017-01-04T22:47:03Z</datestamp>
      <setSpec>user-biosyslit</setSpec>
    </header>
    <header>
      <identifier>oai:zenodo.org:271733</identifier>
      <datestamp>2017-02-08T02:28:30Z</datestamp>
      <setSpec>user-biosyslit</setSpec>
    </header>
    <header>
      <identifier>oai:zenodo.org:280342</identifier>
      <datestamp>2017-02-09T03:13:45Z</datestamp>
      <setSpec>user-biosyslit</setSpec>
    </header>
    <header>
      <identifier>oai:zenodo.org:280341</identifier>
      <datestamp>2017-02-09T03:13:41Z</datestamp>
      <setSpec>user-biosyslit</setSpec>
    </header>
    <header>
      <identifier>oai:zenodo.org:246179</identifier>
      <datestamp>2017-01-15T22:53:51Z</datestamp>
      <setSpec>user-biosyslit</setSpec>
    </header>
    <header>
      <identifier>oai:zenodo.org:246178</identifier>
      <datestamp>2017-01-15T22:53:48Z</datestamp>
      <setSpec>user-biosyslit</setSpec>
    </header>
    <header>
      <identifier>oai:zenodo.org:246181</identifier>
      <datestamp>2017-01-15T22:53:59Z</datestamp>
      <setSpec>user-biosyslit</setSpec>
    </header>
    <header>
      <identifier>oai:zenodo.org:246175</identifier>
      <datestamp>2017-01-15T22:53:35Z</datestamp>
      <setSpec>user-biosyslit</setSpec>
    </header>
    <header>
      <identifier>oai:zenodo.org:235237</identifier>
      <datestamp>2017-01-09T07:10:03Z</datestamp>
      <setSpec>user-biosyslit</setSpec>
    </header>
    <header>
      <identifier>oai:zenodo.org:235235</identifier>
      <datestamp>2017-01-09T07:09:57Z</datestamp>
      <setSpec>user-biosyslit</setSpec>
    </header>
    <header>
      <identifier>oai:zenodo.org:235239</identifier>
      <datestamp>2017-01-09T07:10:25Z</datestamp>
      <setSpec>user-biosyslit</setSpec>
    </header>
    <header>
      <identifier>oai:zenodo.org:235236</identifier>
      <datestamp>2017-01-09T07:10:00Z</datestamp>
      <setSpec>user-biosyslit</setSpec>
    </header>
    <header>
      <identifier>oai:zenodo.org:230378</identifier>
      <datestamp>2017-01-04T23:40:55Z</datestamp>
      <setSpec>user-biosyslit</setSpec>
    </header>
    <header>
      <identifier>oai:zenodo.org:239618</identifier>
      <datestamp>2017-01-11T22:45:16Z</datestamp>
      <setSpec>user-biosyslit</setSpec>
    </header>
    <header>
      <identifier>oai:zenodo.org:269737</identifier>
      <datestamp>2017-02-07T20:12:07Z</datestamp>
      <setSpec>user-biosyslit</setSpec>
    </header>
    <header>
      <identifier>oai:zenodo.org:269739</identifier>
      <datestamp>2017-02-07T20:12:15Z</datestamp>
      <setSpec>user-biosyslit</setSpec>
    </header>
    <header>
      <identifier>oai:zenodo.org:239616</identifier>
      <datestamp>2017-01-11T22:45:09Z</datestamp>
      <setSpec>user-biosyslit</setSpec>
    </header>
    <header>
      <identifier>oai:zenodo.org:239615</identifier>
      <datestamp>2017-01-11T22:45:05Z</datestamp>
      <setSpec>user-biosyslit</setSpec>
    </header>
    <header>
      <identifier>oai:zenodo.org:286240</identifier>
      <datestamp>2017-02-09T15:37:49Z</datestamp>
      <setSpec>user-biosyslit</setSpec>
    </header>
    <header>
      <identifier>oai:zenodo.org:230760</identifier>
      <datestamp>2017-01-05T07:49:20Z</datestamp>
      <setSpec>user-biosyslit</setSpec>
    </header>
    <header>
      <identifier>oai:zenodo.org:286256</identifier>
      <datestamp>2017-02-09T15:37:45Z</datestamp>
      <setSpec>user-biosyslit</setSpec>
    </header>
    <header>
      <identifier>oai:zenodo.org:286254</identifier>
      <datestamp>2017-02-09T15:37:41Z</datestamp>
      <setSpec>user-biosyslit</setSpec>
    </header>
    <header>
      <identifier>oai:zenodo.org:286255</identifier>
      <datestamp>2017-02-09T15:37:43Z</datestamp>
      <setSpec>user-biosyslit</setSpec>
    </header>
    <header>
      <identifier>oai:zenodo.org:230763</identifier>
      <datestamp>2017-01-05T07:49:29Z</datestamp>
      <setSpec>user-biosyslit</setSpec>
    </header>
    <header>
      <identifier>oai:zenodo.org:260680</identifier>
      <datestamp>2017-01-27T23:23:18Z</datestamp>
      <setSpec>user-biosyslit</setSpec>
    </header>
    <header>
      <identifier>oai:zenodo.org:282297</identifier>
      <datestamp>2017-02-09T06:47:26Z</datestamp>
      <setSpec>user-biosyslit</setSpec>
    </header>
    <header>
      <identifier>oai:zenodo.org:245568</identifier>
      <datestamp>2017-01-15T15:30:23Z</datestamp>
      <setSpec>user-biosyslit</setSpec>
    </header>
    <header>
      <identifier>oai:zenodo.org:282304</identifier>
      <datestamp>2017-02-09T06:47:22Z</datestamp>
      <setSpec>user-biosyslit</setSpec>
    </header>
    <header>
      <identifier>oai:zenodo.org:282299</identifier>
      <datestamp>2017-02-09T06:47:09Z</datestamp>
      <setSpec>user-biosyslit</setSpec>
    </header>
    <header>
      <identifier>oai:zenodo.org:253334</identifier>
      <datestamp>2017-01-20T05:39:14Z</datestamp>
      <setSpec>user-biosyslit</setSpec>
    </header>
    <header>
      <identifier>oai:zenodo.org:253329</identifier>
      <datestamp>2017-01-20T05:39:01Z</datestamp>
      <setSpec>user-biosyslit</setSpec>
    </header>
    <header>
      <identifier>oai:zenodo.org:253330</identifier>
      <datestamp>2017-01-20T05:39:05Z</datestamp>
      <setSpec>user-biosyslit</setSpec>
    </header>
    <header>
      <identifier>oai:zenodo.org:245123</identifier>
      <datestamp>2017-01-15T08:05:00Z</datestamp>
      <setSpec>user-biosyslit</setSpec>
    </header>
    <header>
      <identifier>oai:zenodo.org:257168</identifier>
      <datestamp>2017-01-23T03:09:47Z</datestamp>
      <setSpec>user-biosyslit</setSpec>
    </header>
    <header>
      <identifier>oai:zenodo.org:245128</identifier>
      <datestamp>2017-01-15T08:04:49Z</datestamp>
      <setSpec>user-biosyslit</setSpec>
    </header>
    <header>
      <identifier>oai:zenodo.org:245126</identifier>
      <datestamp>2017-01-15T08:04:41Z</datestamp>
      <setSpec>user-biosyslit</setSpec>
    </header>
    <header>
      <identifier>oai:zenodo.org:257173</identifier>
      <datestamp>2017-01-23T03:09:45Z</datestamp>
      <setSpec>user-biosyslit</setSpec>
    </header>
    <header>
      <identifier>oai:zenodo.org:245130</identifier>
      <datestamp>2017-01-15T08:04:55Z</datestamp>
      <setSpec>user-biosyslit</setSpec>
    </header>
    <header>
      <identifier>oai:zenodo.org:257172</identifier>
      <datestamp>2017-01-23T03:09:40Z</datestamp>
      <setSpec>user-biosyslit</setSpec>
    </header>
    <header>
      <identifier>oai:zenodo.org:232859</identifier>
      <datestamp>2017-01-07T00:39:14Z</datestamp>
      <setSpec>user-biosyslit</setSpec>
    </header>
    <header>
      <identifier>oai:zenodo.org:232865</identifier>
      <datestamp>2017-01-07T00:39:02Z</datestamp>
      <setSpec>user-biosyslit</setSpec>
    </header>
    <header>
      <identifier>oai:zenodo.org:232867</identifier>
      <datestamp>2017-01-07T00:39:09Z</datestamp>
      <setSpec>user-biosyslit</setSpec>
    </header>
    <header>
      <identifier>oai:zenodo.org:232864</identifier>
      <datestamp>2017-01-07T00:38:58Z</datestamp>
      <setSpec>user-biosyslit</setSpec>
    </header>
    <header>
      <identifier>oai:zenodo.org:232868</identifier>
      <datestamp>2017-01-07T00:39:13Z</datestamp>
      <setSpec>user-biosyslit</setSpec>
    </header>
    <header>
      <identifier>oai:zenodo.org:232866</identifier>
      <datestamp>2017-01-07T00:39:05Z</datestamp>
      <setSpec>user-biosyslit</setSpec>
    </header>
    <header>
      <identifier>oai:zenodo.org:275538</identifier>
      <datestamp>2017-02-08T16:39:45Z</datestamp>
      <setSpec>user-biosyslit</setSpec>
    </header>
    <header>
      <identifier>oai:zenodo.org:231409</identifier>
      <datestamp>2017-01-06T01:33:21Z</datestamp>
      <setSpec>user-biosyslit</setSpec>
    </header>
    <header>
      <identifier>oai:zenodo.org:287073</identifier>
      <datestamp>2017-02-09T17:24:12Z</datestamp>
      <setSpec>user-biosyslit</setSpec>
    </header>
    <header>
      <identifier>oai:zenodo.org:287072</identifier>
      <datestamp>2017-02-09T17:24:09Z</datestamp>
      <setSpec>user-biosyslit</setSpec>
    </header>
    <header>
      <identifier>oai:zenodo.org:245442</identifier>
      <datestamp>2017-01-15T13:39:42Z</datestamp>
      <setSpec>user-biosyslit</setSpec>
    </header>
    <header>
      <identifier>oai:zenodo.org:245466</identifier>
      <datestamp>2017-01-15T13:39:20Z</datestamp>
      <setSpec>user-biosyslit</setSpec>
    </header>
    <header>
      <identifier>oai:zenodo.org:245468</identifier>
      <datestamp>2017-01-15T13:39:26Z</datestamp>
      <setSpec>user-biosyslit</setSpec>
    </header>
    <header>
      <identifier>oai:zenodo.org:245472</identifier>
      <datestamp>2017-01-15T13:39:39Z</datestamp>
      <setSpec>user-biosyslit</setSpec>
    </header>
    <header>
      <identifier>oai:zenodo.org:245467</identifier>
      <datestamp>2017-01-15T13:39:22Z</datestamp>
      <setSpec>user-biosyslit</setSpec>
    </header>
    <header>
      <identifier>oai:zenodo.org:245465</identifier>
      <datestamp>2017-01-15T13:39:17Z</datestamp>
      <setSpec>user-biosyslit</setSpec>
    </header>
    <header>
      <identifier>oai:zenodo.org:245471</identifier>
      <datestamp>2017-01-15T13:39:36Z</datestamp>
      <setSpec>user-biosyslit</setSpec>
    </header>
    <header>
      <identifier>oai:zenodo.org:245473</identifier>
      <datestamp>2017-01-15T13:39:41Z</datestamp>
      <setSpec>user-biosyslit</setSpec>
    </header>
    <header>
      <identifier>oai:zenodo.org:287093</identifier>
      <datestamp>2017-02-09T17:26:45Z</datestamp>
      <setSpec>user-biosyslit</setSpec>
    </header>
    <header>
      <identifier>oai:zenodo.org:287092</identifier>
      <datestamp>2017-02-09T17:26:43Z</datestamp>
      <setSpec>user-biosyslit</setSpec>
    </header>
    <header>
      <identifier>oai:zenodo.org:243866</identifier>
      <datestamp>2017-01-14T12:16:24Z</datestamp>
      <setSpec>user-biosyslit</setSpec>
    </header>
    <header>
      <identifier>oai:zenodo.org:243863</identifier>
      <datestamp>2017-01-14T12:16:12Z</datestamp>
      <setSpec>user-biosyslit</setSpec>
    </header>
    <header>
      <identifier>oai:zenodo.org:243862</identifier>
      <datestamp>2017-01-14T12:16:09Z</datestamp>
      <setSpec>user-biosyslit</setSpec>
    </header>
    <header>
      <identifier>oai:zenodo.org:243867</identifier>
      <datestamp>2017-01-14T12:16:27Z</datestamp>
      <setSpec>user-biosyslit</setSpec>
    </header>
    <header>
      <identifier>oai:zenodo.org:243865</identifier>
      <datestamp>2017-01-14T12:16:21Z</datestamp>
      <setSpec>user-biosyslit</setSpec>
    </header>
    <header>
      <identifier>oai:zenodo.org:281595</identifier>
      <datestamp>2017-02-09T05:35:55Z</datestamp>
      <setSpec>user-biosyslit</setSpec>
    </header>
    <header>
      <identifier>oai:zenodo.org:274658</identifier>
      <datestamp>2017-02-08T13:56:01Z</datestamp>
      <setSpec>user-biosyslit</setSpec>
    </header>
    <header>
      <identifier>oai:zenodo.org:281599</identifier>
      <datestamp>2017-02-09T05:35:46Z</datestamp>
      <setSpec>user-biosyslit</setSpec>
    </header>
    <header>
      <identifier>oai:zenodo.org:274664</identifier>
      <datestamp>2017-02-08T13:55:53Z</datestamp>
      <setSpec>user-biosyslit</setSpec>
    </header>
    <header>
      <identifier>oai:zenodo.org:281597</identifier>
      <datestamp>2017-02-09T05:35:41Z</datestamp>
      <setSpec>user-biosyslit</setSpec>
    </header>
    <header>
      <identifier>oai:zenodo.org:274659</identifier>
      <datestamp>2017-02-08T13:55:41Z</datestamp>
      <setSpec>user-biosyslit</setSpec>
    </header>
    <header>
      <identifier>oai:zenodo.org:274662</identifier>
      <datestamp>2017-02-08T13:55:48Z</datestamp>
      <setSpec>user-biosyslit</setSpec>
    </header>
    <header>
      <identifier>oai:zenodo.org:274667</identifier>
      <datestamp>2017-02-08T13:55:59Z</datestamp>
      <setSpec>user-biosyslit</setSpec>
    </header>
    <header>
      <identifier>oai:zenodo.org:246146</identifier>
      <datestamp>2017-01-15T22:38:47Z</datestamp>
      <setSpec>user-biosyslit</setSpec>
    </header>
    <header>
      <identifier>oai:zenodo.org:253918</identifier>
      <datestamp>2017-01-20T12:36:01Z</datestamp>
      <setSpec>user-biosyslit</setSpec>
    </header>
    <header>
      <identifier>oai:zenodo.org:246159</identifier>
      <datestamp>2017-01-15T22:38:45Z</datestamp>
      <setSpec>user-biosyslit</setSpec>
    </header>
    <header>
      <identifier>oai:zenodo.org:246155</identifier>
      <datestamp>2017-01-15T22:38:30Z</datestamp>
      <setSpec>user-biosyslit</setSpec>
    </header>
    <resumptionToken expirationDate="2017-08-31T15:48:13Z" cursor="73900" completeListSize="77796">.eJyNysEKgjAYAOB3-c8S28ymQhfRxEOKLiW9hKmIOUtcoU5897p0rvP3LSCqqgQTbSgy8E7XsYGpRjSdKCCK4cH5pfkwFOeEF3ce527yiroEpaSmvi2mo52qvmxR0GHJDiE5Y32KGzSHp_iZymhKVG9kyKFHGc7-zfu8Ug1cnl3dnsV3izNSDoETzgxbLFOL78N_Pvnz2WIPCvR5XYFJt1iBdsyHWoC5rOsbpLVRRg.DInAxQ.pK5hgWEGq8LYdT4NJTNDM3gwBnQ</resumptionToken>
  </ListIdentifiers>
</OAI-PMH>
