<?xml version='1.0' encoding='UTF-8'?>
<?xml-stylesheet type="text/xsl" href="/static/xsl/oai2.v1.0.xsl"?>
<OAI-PMH xmlns="http://www.openarchives.org/OAI/2.0/" xmlns:xsi="http://www.w3.org/2001/XMLSchema-instance" xsi:schemaLocation="http://www.openarchives.org/OAI/2.0/ http://www.openarchives.org/OAI/2.0/OAI-PMH.xsd">
  <responseDate>2017-08-31T15:42:50Z</responseDate>
  <request verb="ListIdentifiers" resumptionToken=".eJyNyssOQ0AUANB_uWtp5hGPSLoRKhYIU1I2jSKihoppg5H-e226btfnbCDqugITHTQdEUMjCCOiEk1XFRDl9OD82u4M5SXl5cCTwk1fcZ-ijDR6YIvFtzMayA6FPZbsFJELNpakRWt0Tp6ZjJeUejNDju7LaA3u3v4qGro8v7kjSwaLM1JNoROtDFssp-X34T-f_PlscQQFxqKpwSQGVaCbi6kRYG7v9weSRVEz.DIm_-g.ZPEE4B-EubKauV6UiTUsYryYIAg">https://zenodo.org/oai2d</request>
  <ListIdentifiers>
    <header>
      <identifier>oai:zenodo.org:282963</identifier>
      <datestamp>2017-02-09T07:55:20Z</datestamp>
      <setSpec>user-biosyslit</setSpec>
    </header>
    <header>
      <identifier>oai:zenodo.org:279084</identifier>
      <datestamp>2017-02-09T00:35:31Z</datestamp>
      <setSpec>user-biosyslit</setSpec>
    </header>
    <header>
      <identifier>oai:zenodo.org:293934</identifier>
      <datestamp>2017-02-20T19:00:40Z</datestamp>
      <setSpec>user-biosyslit</setSpec>
    </header>
    <header>
      <identifier>oai:zenodo.org:279087</identifier>
      <datestamp>2017-02-09T00:35:22Z</datestamp>
      <setSpec>user-biosyslit</setSpec>
    </header>
    <header>
      <identifier>oai:zenodo.org:279090</identifier>
      <datestamp>2017-02-09T00:35:30Z</datestamp>
      <setSpec>user-biosyslit</setSpec>
    </header>
    <header>
      <identifier>oai:zenodo.org:279086</identifier>
      <datestamp>2017-02-09T00:35:20Z</datestamp>
      <setSpec>user-biosyslit</setSpec>
    </header>
    <header>
      <identifier>oai:zenodo.org:279089</identifier>
      <datestamp>2017-02-09T00:35:27Z</datestamp>
      <setSpec>user-biosyslit</setSpec>
    </header>
    <header>
      <identifier>oai:zenodo.org:278298</identifier>
      <datestamp>2017-02-08T22:52:08Z</datestamp>
      <setSpec>user-biosyslit</setSpec>
    </header>
    <header>
      <identifier>oai:zenodo.org:242867</identifier>
      <datestamp>2017-01-13T19:59:11Z</datestamp>
      <setSpec>user-biosyslit</setSpec>
    </header>
    <header>
      <identifier>oai:zenodo.org:242863</identifier>
      <datestamp>2017-01-13T19:58:55Z</datestamp>
      <setSpec>user-biosyslit</setSpec>
    </header>
    <header>
      <identifier>oai:zenodo.org:242864</identifier>
      <datestamp>2017-01-13T19:58:59Z</datestamp>
      <setSpec>user-biosyslit</setSpec>
    </header>
    <header>
      <identifier>oai:zenodo.org:278307</identifier>
      <datestamp>2017-02-08T22:52:02Z</datestamp>
      <setSpec>user-biosyslit</setSpec>
    </header>
    <header>
      <identifier>oai:zenodo.org:278305</identifier>
      <datestamp>2017-02-08T22:51:58Z</datestamp>
      <setSpec>user-biosyslit</setSpec>
    </header>
    <header>
      <identifier>oai:zenodo.org:270364</identifier>
      <datestamp>2017-02-07T23:05:58Z</datestamp>
      <setSpec>user-biosyslit</setSpec>
    </header>
    <header>
      <identifier>oai:zenodo.org:270368</identifier>
      <datestamp>2017-02-07T23:05:54Z</datestamp>
      <setSpec>user-biosyslit</setSpec>
    </header>
    <header>
      <identifier>oai:zenodo.org:270369</identifier>
      <datestamp>2017-02-07T23:05:57Z</datestamp>
      <setSpec>user-biosyslit</setSpec>
    </header>
    <header>
      <identifier>oai:zenodo.org:270365</identifier>
      <datestamp>2017-02-07T23:05:47Z</datestamp>
      <setSpec>user-biosyslit</setSpec>
    </header>
    <header>
      <identifier>oai:zenodo.org:245226</identifier>
      <datestamp>2017-01-15T10:15:49Z</datestamp>
      <setSpec>user-biosyslit</setSpec>
    </header>
    <header>
      <identifier>oai:zenodo.org:232147</identifier>
      <datestamp>2017-01-06T11:38:16Z</datestamp>
      <setSpec>user-biosyslit</setSpec>
    </header>
    <header>
      <identifier>oai:zenodo.org:238799</identifier>
      <datestamp>2017-01-11T11:11:55Z</datestamp>
      <setSpec>user-biosyslit</setSpec>
    </header>
    <header>
      <identifier>oai:zenodo.org:238800</identifier>
      <datestamp>2017-01-11T11:12:00Z</datestamp>
      <setSpec>user-biosyslit</setSpec>
    </header>
    <header>
      <identifier>oai:zenodo.org:238801</identifier>
      <datestamp>2017-01-11T11:12:03Z</datestamp>
      <setSpec>user-biosyslit</setSpec>
    </header>
    <header>
      <identifier>oai:zenodo.org:275222</identifier>
      <datestamp>2017-02-08T15:45:09Z</datestamp>
      <setSpec>user-biosyslit</setSpec>
    </header>
    <header>
      <identifier>oai:zenodo.org:275226</identifier>
      <datestamp>2017-02-08T15:45:08Z</datestamp>
      <setSpec>user-biosyslit</setSpec>
    </header>
    <header>
      <identifier>oai:zenodo.org:239097</identifier>
      <datestamp>2017-01-11T16:25:09Z</datestamp>
      <setSpec>user-biosyslit</setSpec>
    </header>
    <header>
      <identifier>oai:zenodo.org:239095</identifier>
      <datestamp>2017-01-11T16:25:11Z</datestamp>
      <setSpec>user-biosyslit</setSpec>
    </header>
    <header>
      <identifier>oai:zenodo.org:275223</identifier>
      <datestamp>2017-02-08T15:45:00Z</datestamp>
      <setSpec>user-biosyslit</setSpec>
    </header>
    <header>
      <identifier>oai:zenodo.org:231392</identifier>
      <datestamp>2017-01-06T01:23:28Z</datestamp>
      <setSpec>user-biosyslit</setSpec>
    </header>
    <header>
      <identifier>oai:zenodo.org:231393</identifier>
      <datestamp>2017-01-06T01:23:06Z</datestamp>
      <setSpec>user-biosyslit</setSpec>
    </header>
    <header>
      <identifier>oai:zenodo.org:231395</identifier>
      <datestamp>2017-01-06T01:23:23Z</datestamp>
      <setSpec>user-biosyslit</setSpec>
    </header>
    <header>
      <identifier>oai:zenodo.org:231394</identifier>
      <datestamp>2017-01-06T01:23:09Z</datestamp>
      <setSpec>user-biosyslit</setSpec>
    </header>
    <header>
      <identifier>oai:zenodo.org:236623</identifier>
      <datestamp>2017-01-10T02:09:05Z</datestamp>
      <setSpec>user-biosyslit</setSpec>
    </header>
    <header>
      <identifier>oai:zenodo.org:230886</identifier>
      <datestamp>2017-01-05T09:56:11Z</datestamp>
      <setSpec>user-biosyslit</setSpec>
    </header>
    <header>
      <identifier>oai:zenodo.org:230885</identifier>
      <datestamp>2017-01-05T09:56:26Z</datestamp>
      <setSpec>user-biosyslit</setSpec>
    </header>
    <header>
      <identifier>oai:zenodo.org:254641</identifier>
      <datestamp>2017-01-21T00:53:45Z</datestamp>
      <setSpec>user-biosyslit</setSpec>
    </header>
    <header>
      <identifier>oai:zenodo.org:230888</identifier>
      <datestamp>2017-01-05T09:56:25Z</datestamp>
      <setSpec>user-biosyslit</setSpec>
    </header>
    <header>
      <identifier>oai:zenodo.org:239557</identifier>
      <datestamp>2017-01-11T22:13:21Z</datestamp>
      <setSpec>user-biosyslit</setSpec>
    </header>
    <header>
      <identifier>oai:zenodo.org:239558</identifier>
      <datestamp>2017-01-11T22:13:23Z</datestamp>
      <setSpec>user-biosyslit</setSpec>
    </header>
    <header>
      <identifier>oai:zenodo.org:254639</identifier>
      <datestamp>2017-01-21T00:53:35Z</datestamp>
      <setSpec>user-biosyslit</setSpec>
    </header>
    <header>
      <identifier>oai:zenodo.org:239555</identifier>
      <datestamp>2017-01-11T22:14:14Z</datestamp>
      <setSpec>user-biosyslit</setSpec>
    </header>
    <header>
      <identifier>oai:zenodo.org:267748</identifier>
      <datestamp>2017-02-02T06:47:31Z</datestamp>
      <setSpec>user-biosyslit</setSpec>
    </header>
    <header>
      <identifier>oai:zenodo.org:274927</identifier>
      <datestamp>2017-02-08T14:52:21Z</datestamp>
      <setSpec>user-biosyslit</setSpec>
    </header>
    <header>
      <identifier>oai:zenodo.org:274928</identifier>
      <datestamp>2017-02-08T14:52:24Z</datestamp>
      <setSpec>user-biosyslit</setSpec>
    </header>
    <header>
      <identifier>oai:zenodo.org:274932</identifier>
      <datestamp>2017-02-08T14:52:33Z</datestamp>
      <setSpec>user-biosyslit</setSpec>
    </header>
    <header>
      <identifier>oai:zenodo.org:274926</identifier>
      <datestamp>2017-02-08T14:52:19Z</datestamp>
      <setSpec>user-biosyslit</setSpec>
    </header>
    <header>
      <identifier>oai:zenodo.org:232665</identifier>
      <datestamp>2017-01-06T21:21:09Z</datestamp>
      <setSpec>user-biosyslit</setSpec>
    </header>
    <header>
      <identifier>oai:zenodo.org:232671</identifier>
      <datestamp>2017-01-06T21:21:31Z</datestamp>
      <setSpec>user-biosyslit</setSpec>
    </header>
    <header>
      <identifier>oai:zenodo.org:232672</identifier>
      <datestamp>2017-01-06T21:21:34Z</datestamp>
      <setSpec>user-biosyslit</setSpec>
    </header>
    <header>
      <identifier>oai:zenodo.org:232662</identifier>
      <datestamp>2017-01-06T21:21:01Z</datestamp>
      <setSpec>user-biosyslit</setSpec>
    </header>
    <header>
      <identifier>oai:zenodo.org:232663</identifier>
      <datestamp>2017-01-06T21:21:04Z</datestamp>
      <setSpec>user-biosyslit</setSpec>
    </header>
    <header>
      <identifier>oai:zenodo.org:232673</identifier>
      <datestamp>2017-01-06T21:21:36Z</datestamp>
      <setSpec>user-biosyslit</setSpec>
    </header>
    <header>
      <identifier>oai:zenodo.org:232666</identifier>
      <datestamp>2017-01-06T21:21:12Z</datestamp>
      <setSpec>user-biosyslit</setSpec>
    </header>
    <header>
      <identifier>oai:zenodo.org:232667</identifier>
      <datestamp>2017-01-06T21:21:15Z</datestamp>
      <setSpec>user-biosyslit</setSpec>
    </header>
    <header>
      <identifier>oai:zenodo.org:232670</identifier>
      <datestamp>2017-01-06T21:21:27Z</datestamp>
      <setSpec>user-biosyslit</setSpec>
    </header>
    <header>
      <identifier>oai:zenodo.org:247486</identifier>
      <datestamp>2017-01-16T16:15:13Z</datestamp>
      <setSpec>user-biosyslit</setSpec>
    </header>
    <header>
      <identifier>oai:zenodo.org:247485</identifier>
      <datestamp>2017-01-16T16:15:10Z</datestamp>
      <setSpec>user-biosyslit</setSpec>
    </header>
    <header>
      <identifier>oai:zenodo.org:247484</identifier>
      <datestamp>2017-01-16T16:15:06Z</datestamp>
      <setSpec>user-biosyslit</setSpec>
    </header>
    <header>
      <identifier>oai:zenodo.org:238752</identifier>
      <datestamp>2017-01-11T10:53:18Z</datestamp>
      <setSpec>user-biosyslit</setSpec>
    </header>
    <header>
      <identifier>oai:zenodo.org:238758</identifier>
      <datestamp>2017-01-11T10:53:42Z</datestamp>
      <setSpec>user-biosyslit</setSpec>
    </header>
    <header>
      <identifier>oai:zenodo.org:238753</identifier>
      <datestamp>2017-01-11T10:53:22Z</datestamp>
      <setSpec>user-biosyslit</setSpec>
    </header>
    <header>
      <identifier>oai:zenodo.org:238750</identifier>
      <datestamp>2017-01-11T10:53:12Z</datestamp>
      <setSpec>user-biosyslit</setSpec>
    </header>
    <header>
      <identifier>oai:zenodo.org:238754</identifier>
      <datestamp>2017-01-11T10:53:27Z</datestamp>
      <setSpec>user-biosyslit</setSpec>
    </header>
    <header>
      <identifier>oai:zenodo.org:238759</identifier>
      <datestamp>2017-01-11T10:53:45Z</datestamp>
      <setSpec>user-biosyslit</setSpec>
    </header>
    <header>
      <identifier>oai:zenodo.org:287106</identifier>
      <datestamp>2017-02-09T17:29:13Z</datestamp>
      <setSpec>user-biosyslit</setSpec>
    </header>
    <header>
      <identifier>oai:zenodo.org:287107</identifier>
      <datestamp>2017-02-09T17:29:05Z</datestamp>
      <setSpec>user-biosyslit</setSpec>
    </header>
    <header>
      <identifier>oai:zenodo.org:229686</identifier>
      <datestamp>2017-01-03T20:39:51Z</datestamp>
      <setSpec>user-biosyslit</setSpec>
    </header>
    <header>
      <identifier>oai:zenodo.org:229700</identifier>
      <datestamp>2017-01-03T20:39:21Z</datestamp>
      <setSpec>user-biosyslit</setSpec>
    </header>
    <header>
      <identifier>oai:zenodo.org:229704</identifier>
      <datestamp>2017-01-03T20:39:47Z</datestamp>
      <setSpec>user-biosyslit</setSpec>
    </header>
    <header>
      <identifier>oai:zenodo.org:273455</identifier>
      <datestamp>2017-02-08T09:24:03Z</datestamp>
      <setSpec>user-biosyslit</setSpec>
    </header>
    <header>
      <identifier>oai:zenodo.org:273454</identifier>
      <datestamp>2017-02-08T09:24:00Z</datestamp>
      <setSpec>user-biosyslit</setSpec>
    </header>
    <header>
      <identifier>oai:zenodo.org:278248</identifier>
      <datestamp>2017-02-08T22:43:37Z</datestamp>
      <setSpec>user-biosyslit</setSpec>
    </header>
    <header>
      <identifier>oai:zenodo.org:278249</identifier>
      <datestamp>2017-02-08T22:43:40Z</datestamp>
      <setSpec>user-biosyslit</setSpec>
    </header>
    <header>
      <identifier>oai:zenodo.org:293885</identifier>
      <datestamp>2017-02-20T18:54:46Z</datestamp>
      <setSpec>user-biosyslit</setSpec>
    </header>
    <header>
      <identifier>oai:zenodo.org:293884</identifier>
      <datestamp>2017-02-20T18:54:45Z</datestamp>
      <setSpec>user-biosyslit</setSpec>
    </header>
    <header>
      <identifier>oai:zenodo.org:274857</identifier>
      <datestamp>2017-02-08T14:36:18Z</datestamp>
      <setSpec>user-biosyslit</setSpec>
    </header>
    <header>
      <identifier>oai:zenodo.org:274850</identifier>
      <datestamp>2017-02-08T14:36:00Z</datestamp>
      <setSpec>user-biosyslit</setSpec>
    </header>
    <header>
      <identifier>oai:zenodo.org:274852</identifier>
      <datestamp>2017-02-08T14:36:05Z</datestamp>
      <setSpec>user-biosyslit</setSpec>
    </header>
    <header>
      <identifier>oai:zenodo.org:274856</identifier>
      <datestamp>2017-02-08T14:36:15Z</datestamp>
      <setSpec>user-biosyslit</setSpec>
    </header>
    <header>
      <identifier>oai:zenodo.org:286303</identifier>
      <datestamp>2017-02-09T15:47:31Z</datestamp>
      <setSpec>user-biosyslit</setSpec>
    </header>
    <header>
      <identifier>oai:zenodo.org:285707</identifier>
      <datestamp>2017-02-09T14:10:34Z</datestamp>
      <setSpec>user-biosyslit</setSpec>
    </header>
    <header>
      <identifier>oai:zenodo.org:275775</identifier>
      <datestamp>2017-02-08T17:04:10Z</datestamp>
      <setSpec>user-biosyslit</setSpec>
    </header>
    <header>
      <identifier>oai:zenodo.org:285712</identifier>
      <datestamp>2017-02-09T14:10:32Z</datestamp>
      <setSpec>user-biosyslit</setSpec>
    </header>
    <header>
      <identifier>oai:zenodo.org:285708</identifier>
      <datestamp>2017-02-09T14:10:23Z</datestamp>
      <setSpec>user-biosyslit</setSpec>
    </header>
    <header>
      <identifier>oai:zenodo.org:285709</identifier>
      <datestamp>2017-02-09T14:10:25Z</datestamp>
      <setSpec>user-biosyslit</setSpec>
    </header>
    <header>
      <identifier>oai:zenodo.org:293432</identifier>
      <datestamp>2017-02-19T13:39:53Z</datestamp>
      <setSpec>user-biosyslit</setSpec>
    </header>
    <header>
      <identifier>oai:zenodo.org:293433</identifier>
      <datestamp>2017-02-19T13:39:55Z</datestamp>
      <setSpec>user-biosyslit</setSpec>
    </header>
    <header>
      <identifier>oai:zenodo.org:255916</identifier>
      <datestamp>2017-01-22T00:00:47Z</datestamp>
      <setSpec>user-biosyslit</setSpec>
    </header>
    <header>
      <identifier>oai:zenodo.org:255920</identifier>
      <datestamp>2017-01-22T00:00:57Z</datestamp>
      <setSpec>user-biosyslit</setSpec>
    </header>
    <header>
      <identifier>oai:zenodo.org:265566</identifier>
      <datestamp>2017-01-31T17:06:16Z</datestamp>
      <setSpec>user-biosyslit</setSpec>
    </header>
    <header>
      <identifier>oai:zenodo.org:245722</identifier>
      <datestamp>2017-01-15T17:55:06Z</datestamp>
      <setSpec>user-biosyslit</setSpec>
    </header>
    <header>
      <identifier>oai:zenodo.org:245723</identifier>
      <datestamp>2017-01-15T17:55:09Z</datestamp>
      <setSpec>user-biosyslit</setSpec>
    </header>
    <header>
      <identifier>oai:zenodo.org:257723</identifier>
      <datestamp>2017-01-23T12:48:00Z</datestamp>
      <setSpec>user-biosyslit</setSpec>
    </header>
    <header>
      <identifier>oai:zenodo.org:257732</identifier>
      <datestamp>2017-01-23T12:47:56Z</datestamp>
      <setSpec>user-biosyslit</setSpec>
    </header>
    <header>
      <identifier>oai:zenodo.org:257730</identifier>
      <datestamp>2017-01-23T12:47:51Z</datestamp>
      <setSpec>user-biosyslit</setSpec>
    </header>
    <header>
      <identifier>oai:zenodo.org:257727</identifier>
      <datestamp>2017-01-23T12:47:42Z</datestamp>
      <setSpec>user-biosyslit</setSpec>
    </header>
    <header>
      <identifier>oai:zenodo.org:257728</identifier>
      <datestamp>2017-01-23T12:47:45Z</datestamp>
      <setSpec>user-biosyslit</setSpec>
    </header>
    <header>
      <identifier>oai:zenodo.org:257731</identifier>
      <datestamp>2017-01-23T12:47:53Z</datestamp>
      <setSpec>user-biosyslit</setSpec>
    </header>
    <header>
      <identifier>oai:zenodo.org:280297</identifier>
      <datestamp>2017-02-09T03:08:59Z</datestamp>
      <setSpec>user-biosyslit</setSpec>
    </header>
    <header>
      <identifier>oai:zenodo.org:233532</identifier>
      <datestamp>2017-01-08T08:14:04Z</datestamp>
      <setSpec>user-biosyslit</setSpec>
    </header>
    <header>
      <identifier>oai:zenodo.org:233531</identifier>
      <datestamp>2017-01-08T08:13:58Z</datestamp>
      <setSpec>user-biosyslit</setSpec>
    </header>
    <resumptionToken expirationDate="2017-08-31T15:44:50Z" cursor="28200" completeListSize="77796">.eJyNyssKgkAUANB_uWuJeWijQhvRxEWKTUq6CVMRc3rgFOmI_56b1rU-ZwJZ1xXYaMV0U6fMYBYja8vAhgay7O9CnNqFoTymoryJpPDT1_6aoow0LHTlsHMzGqoORVes-DYmR2wOSYvG-JA8M7UfUhq8OfLYTsVjeAmWV9HIF_nZf_Dk5ghOqj7y4pFjh-e0_D7851M_nys3oMGjaGqwialr0L2LvpFgT_P8Aa4JUVI.DIm_-g.7HNubemi8hZq23OyUx_pLsop64A</resumptionToken>
  </ListIdentifiers>
</OAI-PMH>
