<?xml version='1.0' encoding='UTF-8'?>
<?xml-stylesheet type="text/xsl" href="/static/xsl/oai2.v1.0.xsl"?>
<OAI-PMH xmlns="http://www.openarchives.org/OAI/2.0/" xmlns:xsi="http://www.w3.org/2001/XMLSchema-instance" xsi:schemaLocation="http://www.openarchives.org/OAI/2.0/ http://www.openarchives.org/OAI/2.0/OAI-PMH.xsd">
  <responseDate>2017-08-31T15:42:38Z</responseDate>
  <request verb="ListIdentifiers" resumptionToken=".eJyNyrEOgjAUQNF_eTMxbQGLJC4EJQ5ASoUIi8FCiFrUUI1Qwr_L4qzLXe4ZQdV1BS5aUGtF8NKaa2PboSsDlOjuUh7P8wZxyKS4ybQMslfSZignDY181Yd-bkb6iuIWa75l5ICdPj2jge3TZ66TPjN3b442NNRsiC672VVmHMjiFDx4evMkJ1UXb9jAsccLU3wd_tPpn85XazDgUTY1uMRGBlzfZdcocMdp-gCn3VFF.DIm_7g.Lx8XGRMbPTxdXHigRJqmQ7HsZGw">https://zenodo.org/oai2d</request>
  <ListIdentifiers>
    <header>
      <identifier>oai:zenodo.org:277679</identifier>
      <datestamp>2017-02-08T21:37:28Z</datestamp>
      <setSpec>user-biosyslit</setSpec>
    </header>
    <header>
      <identifier>oai:zenodo.org:277682</identifier>
      <datestamp>2017-02-08T21:37:13Z</datestamp>
      <setSpec>user-biosyslit</setSpec>
    </header>
    <header>
      <identifier>oai:zenodo.org:277683</identifier>
      <datestamp>2017-02-08T21:37:22Z</datestamp>
      <setSpec>user-biosyslit</setSpec>
    </header>
    <header>
      <identifier>oai:zenodo.org:277684</identifier>
      <datestamp>2017-02-08T21:37:25Z</datestamp>
      <setSpec>user-biosyslit</setSpec>
    </header>
    <header>
      <identifier>oai:zenodo.org:278752</identifier>
      <datestamp>2017-02-08T23:49:32Z</datestamp>
      <setSpec>user-biosyslit</setSpec>
    </header>
    <header>
      <identifier>oai:zenodo.org:278748</identifier>
      <datestamp>2017-02-08T23:49:22Z</datestamp>
      <setSpec>user-biosyslit</setSpec>
    </header>
    <header>
      <identifier>oai:zenodo.org:229988</identifier>
      <datestamp>2017-01-04T16:55:33Z</datestamp>
      <setSpec>user-biosyslit</setSpec>
    </header>
    <header>
      <identifier>oai:zenodo.org:229992</identifier>
      <datestamp>2017-01-04T16:55:26Z</datestamp>
      <setSpec>user-biosyslit</setSpec>
    </header>
    <header>
      <identifier>oai:zenodo.org:275013</identifier>
      <datestamp>2017-02-08T15:06:14Z</datestamp>
      <setSpec>user-biosyslit</setSpec>
    </header>
    <header>
      <identifier>oai:zenodo.org:237255</identifier>
      <datestamp>2017-01-10T13:23:19Z</datestamp>
      <setSpec>user-biosyslit</setSpec>
    </header>
    <header>
      <identifier>oai:zenodo.org:237267</identifier>
      <datestamp>2017-01-10T13:24:01Z</datestamp>
      <setSpec>user-biosyslit</setSpec>
    </header>
    <header>
      <identifier>oai:zenodo.org:237268</identifier>
      <datestamp>2017-01-10T13:24:04Z</datestamp>
      <setSpec>user-biosyslit</setSpec>
    </header>
    <header>
      <identifier>oai:zenodo.org:290075</identifier>
      <datestamp>2017-02-10T01:14:46Z</datestamp>
      <setSpec>user-biosyslit</setSpec>
    </header>
    <header>
      <identifier>oai:zenodo.org:242621</identifier>
      <datestamp>2017-01-13T17:51:03Z</datestamp>
      <setSpec>user-biosyslit</setSpec>
    </header>
    <header>
      <identifier>oai:zenodo.org:283579</identifier>
      <datestamp>2017-02-09T09:14:51Z</datestamp>
      <setSpec>user-biosyslit</setSpec>
    </header>
    <header>
      <identifier>oai:zenodo.org:282966</identifier>
      <datestamp>2017-02-09T07:55:43Z</datestamp>
      <setSpec>user-biosyslit</setSpec>
    </header>
    <header>
      <identifier>oai:zenodo.org:290088</identifier>
      <datestamp>2017-02-10T01:14:42Z</datestamp>
      <setSpec>user-biosyslit</setSpec>
    </header>
    <header>
      <identifier>oai:zenodo.org:242623</identifier>
      <datestamp>2017-01-13T17:51:02Z</datestamp>
      <setSpec>user-biosyslit</setSpec>
    </header>
    <header>
      <identifier>oai:zenodo.org:283580</identifier>
      <datestamp>2017-02-09T09:14:44Z</datestamp>
      <setSpec>user-biosyslit</setSpec>
    </header>
    <header>
      <identifier>oai:zenodo.org:283583</identifier>
      <datestamp>2017-02-09T09:14:50Z</datestamp>
      <setSpec>user-biosyslit</setSpec>
    </header>
    <header>
      <identifier>oai:zenodo.org:242587</identifier>
      <datestamp>2017-01-13T17:24:08Z</datestamp>
      <setSpec>user-biosyslit</setSpec>
    </header>
    <header>
      <identifier>oai:zenodo.org:267651</identifier>
      <datestamp>2017-02-02T05:21:46Z</datestamp>
      <setSpec>user-biosyslit</setSpec>
    </header>
    <header>
      <identifier>oai:zenodo.org:242588</identifier>
      <datestamp>2017-01-13T17:23:48Z</datestamp>
      <setSpec>user-biosyslit</setSpec>
    </header>
    <header>
      <identifier>oai:zenodo.org:267650</identifier>
      <datestamp>2017-02-02T05:21:43Z</datestamp>
      <setSpec>user-biosyslit</setSpec>
    </header>
    <header>
      <identifier>oai:zenodo.org:267653</identifier>
      <datestamp>2017-02-02T05:21:56Z</datestamp>
      <setSpec>user-biosyslit</setSpec>
    </header>
    <header>
      <identifier>oai:zenodo.org:267654</identifier>
      <datestamp>2017-02-02T05:22:00Z</datestamp>
      <setSpec>user-biosyslit</setSpec>
    </header>
    <header>
      <identifier>oai:zenodo.org:273415</identifier>
      <datestamp>2017-02-08T09:17:50Z</datestamp>
      <setSpec>user-biosyslit</setSpec>
    </header>
    <header>
      <identifier>oai:zenodo.org:273418</identifier>
      <datestamp>2017-02-08T09:17:49Z</datestamp>
      <setSpec>user-biosyslit</setSpec>
    </header>
    <header>
      <identifier>oai:zenodo.org:278721</identifier>
      <datestamp>2017-02-08T23:46:21Z</datestamp>
      <setSpec>user-biosyslit</setSpec>
    </header>
    <header>
      <identifier>oai:zenodo.org:278720</identifier>
      <datestamp>2017-02-08T23:46:15Z</datestamp>
      <setSpec>user-biosyslit</setSpec>
    </header>
    <header>
      <identifier>oai:zenodo.org:278718</identifier>
      <datestamp>2017-02-08T23:46:24Z</datestamp>
      <setSpec>user-biosyslit</setSpec>
    </header>
    <header>
      <identifier>oai:zenodo.org:278719</identifier>
      <datestamp>2017-02-08T23:46:12Z</datestamp>
      <setSpec>user-biosyslit</setSpec>
    </header>
    <header>
      <identifier>oai:zenodo.org:253857</identifier>
      <datestamp>2017-01-20T11:46:20Z</datestamp>
      <setSpec>user-biosyslit</setSpec>
    </header>
    <header>
      <identifier>oai:zenodo.org:253864</identifier>
      <datestamp>2017-01-20T11:46:39Z</datestamp>
      <setSpec>user-biosyslit</setSpec>
    </header>
    <header>
      <identifier>oai:zenodo.org:253852</identifier>
      <datestamp>2017-01-20T11:46:02Z</datestamp>
      <setSpec>user-biosyslit</setSpec>
    </header>
    <header>
      <identifier>oai:zenodo.org:253854</identifier>
      <datestamp>2017-01-20T11:46:08Z</datestamp>
      <setSpec>user-biosyslit</setSpec>
    </header>
    <header>
      <identifier>oai:zenodo.org:253856</identifier>
      <datestamp>2017-01-20T11:46:17Z</datestamp>
      <setSpec>user-biosyslit</setSpec>
    </header>
    <header>
      <identifier>oai:zenodo.org:253863</identifier>
      <datestamp>2017-01-20T11:46:36Z</datestamp>
      <setSpec>user-biosyslit</setSpec>
    </header>
    <header>
      <identifier>oai:zenodo.org:234596</identifier>
      <datestamp>2017-01-08T22:34:16Z</datestamp>
      <setSpec>user-biosyslit</setSpec>
    </header>
    <header>
      <identifier>oai:zenodo.org:234599</identifier>
      <datestamp>2017-01-08T22:34:10Z</datestamp>
      <setSpec>user-biosyslit</setSpec>
    </header>
    <header>
      <identifier>oai:zenodo.org:234600</identifier>
      <datestamp>2017-01-08T22:34:13Z</datestamp>
      <setSpec>user-biosyslit</setSpec>
    </header>
    <header>
      <identifier>oai:zenodo.org:234601</identifier>
      <datestamp>2017-01-08T22:34:15Z</datestamp>
      <setSpec>user-biosyslit</setSpec>
    </header>
    <header>
      <identifier>oai:zenodo.org:286782</identifier>
      <datestamp>2017-02-09T16:48:20Z</datestamp>
      <setSpec>user-biosyslit</setSpec>
    </header>
    <header>
      <identifier>oai:zenodo.org:286787</identifier>
      <datestamp>2017-02-09T16:48:37Z</datestamp>
      <setSpec>user-biosyslit</setSpec>
    </header>
    <header>
      <identifier>oai:zenodo.org:286786</identifier>
      <datestamp>2017-02-09T16:48:34Z</datestamp>
      <setSpec>user-biosyslit</setSpec>
    </header>
    <header>
      <identifier>oai:zenodo.org:228237</identifier>
      <datestamp>2017-01-02T20:18:34Z</datestamp>
      <setSpec>user-biosyslit</setSpec>
    </header>
    <header>
      <identifier>oai:zenodo.org:228239</identifier>
      <datestamp>2017-01-02T20:18:20Z</datestamp>
      <setSpec>user-biosyslit</setSpec>
    </header>
    <header>
      <identifier>oai:zenodo.org:228242</identifier>
      <datestamp>2017-01-02T20:18:29Z</datestamp>
      <setSpec>user-biosyslit</setSpec>
    </header>
    <header>
      <identifier>oai:zenodo.org:280218</identifier>
      <datestamp>2017-02-09T03:00:05Z</datestamp>
      <setSpec>user-biosyslit</setSpec>
    </header>
    <header>
      <identifier>oai:zenodo.org:280216</identifier>
      <datestamp>2017-02-09T03:00:20Z</datestamp>
      <setSpec>user-biosyslit</setSpec>
    </header>
    <header>
      <identifier>oai:zenodo.org:280217</identifier>
      <datestamp>2017-02-09T03:00:02Z</datestamp>
      <setSpec>user-biosyslit</setSpec>
    </header>
    <header>
      <identifier>oai:zenodo.org:228243</identifier>
      <datestamp>2017-01-02T20:18:32Z</datestamp>
      <setSpec>user-biosyslit</setSpec>
    </header>
    <header>
      <identifier>oai:zenodo.org:280219</identifier>
      <datestamp>2017-02-09T03:00:09Z</datestamp>
      <setSpec>user-biosyslit</setSpec>
    </header>
    <header>
      <identifier>oai:zenodo.org:280221</identifier>
      <datestamp>2017-02-09T03:00:16Z</datestamp>
      <setSpec>user-biosyslit</setSpec>
    </header>
    <header>
      <identifier>oai:zenodo.org:239142</identifier>
      <datestamp>2017-01-11T16:57:04Z</datestamp>
      <setSpec>user-biosyslit</setSpec>
    </header>
    <header>
      <identifier>oai:zenodo.org:270346</identifier>
      <datestamp>2017-02-07T23:03:03Z</datestamp>
      <setSpec>user-biosyslit</setSpec>
    </header>
    <header>
      <identifier>oai:zenodo.org:270348</identifier>
      <datestamp>2017-02-07T23:02:58Z</datestamp>
      <setSpec>user-biosyslit</setSpec>
    </header>
    <header>
      <identifier>oai:zenodo.org:270349</identifier>
      <datestamp>2017-02-07T23:03:01Z</datestamp>
      <setSpec>user-biosyslit</setSpec>
    </header>
    <header>
      <identifier>oai:zenodo.org:230416</identifier>
      <datestamp>2017-01-05T01:10:13Z</datestamp>
      <setSpec>user-biosyslit</setSpec>
    </header>
    <header>
      <identifier>oai:zenodo.org:230418</identifier>
      <datestamp>2017-01-05T01:10:20Z</datestamp>
      <setSpec>user-biosyslit</setSpec>
    </header>
    <header>
      <identifier>oai:zenodo.org:230417</identifier>
      <datestamp>2017-01-05T01:10:17Z</datestamp>
      <setSpec>user-biosyslit</setSpec>
    </header>
    <header>
      <identifier>oai:zenodo.org:230419</identifier>
      <datestamp>2017-01-05T01:10:26Z</datestamp>
      <setSpec>user-biosyslit</setSpec>
    </header>
    <header>
      <identifier>oai:zenodo.org:230415</identifier>
      <datestamp>2017-01-05T01:10:10Z</datestamp>
      <setSpec>user-biosyslit</setSpec>
    </header>
    <header>
      <identifier>oai:zenodo.org:276347</identifier>
      <datestamp>2017-02-08T18:40:57Z</datestamp>
      <setSpec>user-biosyslit</setSpec>
    </header>
    <header>
      <identifier>oai:zenodo.org:237318</identifier>
      <datestamp>2017-01-10T14:16:26Z</datestamp>
      <setSpec>user-biosyslit</setSpec>
    </header>
    <header>
      <identifier>oai:zenodo.org:261557</identifier>
      <datestamp>2017-01-28T10:55:20Z</datestamp>
      <setSpec>user-biosyslit</setSpec>
    </header>
    <header>
      <identifier>oai:zenodo.org:237319</identifier>
      <datestamp>2017-01-10T14:16:24Z</datestamp>
      <setSpec>user-biosyslit</setSpec>
    </header>
    <header>
      <identifier>oai:zenodo.org:276351</identifier>
      <datestamp>2017-02-08T18:40:53Z</datestamp>
      <setSpec>user-biosyslit</setSpec>
    </header>
    <header>
      <identifier>oai:zenodo.org:243930</identifier>
      <datestamp>2017-01-14T13:26:54Z</datestamp>
      <setSpec>user-biosyslit</setSpec>
    </header>
    <header>
      <identifier>oai:zenodo.org:243928</identifier>
      <datestamp>2017-01-14T13:27:29Z</datestamp>
      <setSpec>user-biosyslit</setSpec>
    </header>
    <header>
      <identifier>oai:zenodo.org:279585</identifier>
      <datestamp>2017-02-09T01:40:55Z</datestamp>
      <setSpec>user-biosyslit</setSpec>
    </header>
    <header>
      <identifier>oai:zenodo.org:243937</identifier>
      <datestamp>2017-01-14T13:27:24Z</datestamp>
      <setSpec>user-biosyslit</setSpec>
    </header>
    <header>
      <identifier>oai:zenodo.org:243931</identifier>
      <datestamp>2017-01-14T13:26:59Z</datestamp>
      <setSpec>user-biosyslit</setSpec>
    </header>
    <header>
      <identifier>oai:zenodo.org:243938</identifier>
      <datestamp>2017-01-14T13:27:28Z</datestamp>
      <setSpec>user-biosyslit</setSpec>
    </header>
    <header>
      <identifier>oai:zenodo.org:279589</identifier>
      <datestamp>2017-02-09T01:40:53Z</datestamp>
      <setSpec>user-biosyslit</setSpec>
    </header>
    <header>
      <identifier>oai:zenodo.org:288412</identifier>
      <datestamp>2017-02-09T20:54:20Z</datestamp>
      <setSpec>user-biosyslit</setSpec>
    </header>
    <header>
      <identifier>oai:zenodo.org:288409</identifier>
      <datestamp>2017-02-09T20:54:13Z</datestamp>
      <setSpec>user-biosyslit</setSpec>
    </header>
    <header>
      <identifier>oai:zenodo.org:288426</identifier>
      <datestamp>2017-02-09T20:54:53Z</datestamp>
      <setSpec>user-biosyslit</setSpec>
    </header>
    <header>
      <identifier>oai:zenodo.org:288422</identifier>
      <datestamp>2017-02-09T20:54:44Z</datestamp>
      <setSpec>user-biosyslit</setSpec>
    </header>
    <header>
      <identifier>oai:zenodo.org:288415</identifier>
      <datestamp>2017-02-09T20:54:27Z</datestamp>
      <setSpec>user-biosyslit</setSpec>
    </header>
    <header>
      <identifier>oai:zenodo.org:288424</identifier>
      <datestamp>2017-02-09T20:54:48Z</datestamp>
      <setSpec>user-biosyslit</setSpec>
    </header>
    <header>
      <identifier>oai:zenodo.org:288423</identifier>
      <datestamp>2017-02-09T20:54:46Z</datestamp>
      <setSpec>user-biosyslit</setSpec>
    </header>
    <header>
      <identifier>oai:zenodo.org:288418</identifier>
      <datestamp>2017-02-09T20:54:34Z</datestamp>
      <setSpec>user-biosyslit</setSpec>
    </header>
    <header>
      <identifier>oai:zenodo.org:288425</identifier>
      <datestamp>2017-02-09T20:54:50Z</datestamp>
      <setSpec>user-biosyslit</setSpec>
    </header>
    <header>
      <identifier>oai:zenodo.org:229504</identifier>
      <datestamp>2017-01-03T17:14:22Z</datestamp>
      <setSpec>user-biosyslit</setSpec>
    </header>
    <header>
      <identifier>oai:zenodo.org:229939</identifier>
      <datestamp>2017-01-04T16:09:39Z</datestamp>
      <setSpec>user-biosyslit</setSpec>
    </header>
    <header>
      <identifier>oai:zenodo.org:285877</identifier>
      <datestamp>2017-02-09T14:45:07Z</datestamp>
      <setSpec>user-biosyslit</setSpec>
    </header>
    <header>
      <identifier>oai:zenodo.org:229944</identifier>
      <datestamp>2017-01-04T16:09:57Z</datestamp>
      <setSpec>user-biosyslit</setSpec>
    </header>
    <header>
      <identifier>oai:zenodo.org:229942</identifier>
      <datestamp>2017-01-04T16:09:50Z</datestamp>
      <setSpec>user-biosyslit</setSpec>
    </header>
    <header>
      <identifier>oai:zenodo.org:239062</identifier>
      <datestamp>2017-01-11T15:58:08Z</datestamp>
      <setSpec>user-biosyslit</setSpec>
    </header>
    <header>
      <identifier>oai:zenodo.org:256472</identifier>
      <datestamp>2017-01-22T14:58:17Z</datestamp>
      <setSpec>user-biosyslit</setSpec>
    </header>
    <header>
      <identifier>oai:zenodo.org:239066</identifier>
      <datestamp>2017-01-11T15:58:07Z</datestamp>
      <setSpec>user-biosyslit</setSpec>
    </header>
    <header>
      <identifier>oai:zenodo.org:256471</identifier>
      <datestamp>2017-01-22T14:58:14Z</datestamp>
      <setSpec>user-biosyslit</setSpec>
    </header>
    <header>
      <identifier>oai:zenodo.org:239063</identifier>
      <datestamp>2017-01-11T15:57:55Z</datestamp>
      <setSpec>user-biosyslit</setSpec>
    </header>
    <header>
      <identifier>oai:zenodo.org:289215</identifier>
      <datestamp>2017-02-09T22:58:24Z</datestamp>
      <setSpec>user-biosyslit</setSpec>
    </header>
    <header>
      <identifier>oai:zenodo.org:277125</identifier>
      <datestamp>2017-02-08T20:27:52Z</datestamp>
      <setSpec>user-biosyslit</setSpec>
    </header>
    <header>
      <identifier>oai:zenodo.org:277126</identifier>
      <datestamp>2017-02-08T20:27:45Z</datestamp>
      <setSpec>user-biosyslit</setSpec>
    </header>
    <header>
      <identifier>oai:zenodo.org:280057</identifier>
      <datestamp>2017-02-09T02:35:46Z</datestamp>
      <setSpec>user-biosyslit</setSpec>
    </header>
    <header>
      <identifier>oai:zenodo.org:280058</identifier>
      <datestamp>2017-02-09T02:35:32Z</datestamp>
      <setSpec>user-biosyslit</setSpec>
    </header>
    <header>
      <identifier>oai:zenodo.org:280061</identifier>
      <datestamp>2017-02-09T02:35:40Z</datestamp>
      <setSpec>user-biosyslit</setSpec>
    </header>
    <resumptionToken expirationDate="2017-08-31T15:44:38Z" cursor="24900" completeListSize="77796">.eJyNyj0LgkAYAOD_8s4S92FZQotY4pByXifpEqYi5lniFepJ_72W5pqfZwZVlgXYaEGwSTcUm0uETYuSlQEq7-9SnusPQ36KZX6TIvPiZ9TGKCGVFbhqPLgJDXSDwhZrvmfkhNejqNHEjuKR6GiMqT9wtLMOmk3B1f-8goaeTC9ex8XNkZwUfbhjE8cOT2n-ffjPp38-V23BgC6rSrDJEhvQDFlfKbDn1-sNjjdRKg.DIm_7g.P401gxuARGCK2Gt411WtddBZnfU</resumptionToken>
  </ListIdentifiers>
</OAI-PMH>
