<?xml version='1.0' encoding='UTF-8'?>
<?xml-stylesheet type="text/xsl" href="/static/xsl/oai2.v1.0.xsl"?>
<OAI-PMH xmlns="http://www.openarchives.org/OAI/2.0/" xmlns:xsi="http://www.w3.org/2001/XMLSchema-instance" xsi:schemaLocation="http://www.openarchives.org/OAI/2.0/ http://www.openarchives.org/OAI/2.0/OAI-PMH.xsd">
  <responseDate>2017-08-31T15:43:26Z</responseDate>
  <request verb="ListIdentifiers" resumptionToken=".eJyNyssKgkAUANB_uWuJeeQjoY1o0kJFJyXdhKlIOZo4hTrhv-emda3PeYOoqhJMtCHqTtth3dC2xEAEqwqIYnhwfrmtDMU54UXH49xNXlGboJTUum-LybNT6ssGBS2W7BCSMzam-Ibm8BQ_UxlNCT2ODDm6J8PZvx_XV9LA5dnV7VncWZyRcgiccGbYYhktvg__-eTPZ4s9KNDndQUm1akCzZgPtQDzvSwfoUxRQw.DInAHg.JffOLj7Y2RAM3Ub0iBhaOHmmRK8">https://zenodo.org/oai2d</request>
  <ListIdentifiers>
    <header>
      <identifier>oai:zenodo.org:844999</identifier>
      <datestamp>2017-08-18T05:30:03Z</datestamp>
      <setSpec>user-biosyslit</setSpec>
    </header>
    <header>
      <identifier>oai:zenodo.org:845077</identifier>
      <datestamp>2017-08-18T06:45:37Z</datestamp>
      <setSpec>user-biosyslit</setSpec>
    </header>
    <header>
      <identifier>oai:zenodo.org:845141</identifier>
      <datestamp>2017-08-18T06:49:42Z</datestamp>
      <setSpec>user-biosyslit</setSpec>
    </header>
    <header>
      <identifier>oai:zenodo.org:845149</identifier>
      <datestamp>2017-08-18T06:51:51Z</datestamp>
      <setSpec>user-biosyslit</setSpec>
    </header>
    <header>
      <identifier>oai:zenodo.org:845123</identifier>
      <datestamp>2017-08-18T06:49:14Z</datestamp>
      <setSpec>user-biosyslit</setSpec>
    </header>
    <header>
      <identifier>oai:zenodo.org:845127</identifier>
      <datestamp>2017-08-18T06:49:21Z</datestamp>
      <setSpec>user-biosyslit</setSpec>
    </header>
    <header>
      <identifier>oai:zenodo.org:845129</identifier>
      <datestamp>2017-08-18T06:49:24Z</datestamp>
      <setSpec>user-biosyslit</setSpec>
    </header>
    <header>
      <identifier>oai:zenodo.org:845131</identifier>
      <datestamp>2017-08-18T06:49:27Z</datestamp>
      <setSpec>user-biosyslit</setSpec>
    </header>
    <header>
      <identifier>oai:zenodo.org:845125</identifier>
      <datestamp>2017-08-18T06:49:17Z</datestamp>
      <setSpec>user-biosyslit</setSpec>
    </header>
    <header>
      <identifier>oai:zenodo.org:845147</identifier>
      <datestamp>2017-08-18T06:51:47Z</datestamp>
      <setSpec>user-biosyslit</setSpec>
    </header>
    <header>
      <identifier>oai:zenodo.org:845115</identifier>
      <datestamp>2017-08-18T06:48:20Z</datestamp>
      <setSpec>user-biosyslit</setSpec>
    </header>
    <header>
      <identifier>oai:zenodo.org:845201</identifier>
      <datestamp>2017-08-18T06:56:38Z</datestamp>
      <setSpec>user-biosyslit</setSpec>
    </header>
    <header>
      <identifier>oai:zenodo.org:845215</identifier>
      <datestamp>2017-08-18T06:57:56Z</datestamp>
      <setSpec>user-biosyslit</setSpec>
    </header>
    <header>
      <identifier>oai:zenodo.org:845221</identifier>
      <datestamp>2017-08-18T06:58:05Z</datestamp>
      <setSpec>user-biosyslit</setSpec>
    </header>
    <header>
      <identifier>oai:zenodo.org:845217</identifier>
      <datestamp>2017-08-18T06:57:59Z</datestamp>
      <setSpec>user-biosyslit</setSpec>
    </header>
    <header>
      <identifier>oai:zenodo.org:845225</identifier>
      <datestamp>2017-08-18T06:58:11Z</datestamp>
      <setSpec>user-biosyslit</setSpec>
    </header>
    <header>
      <identifier>oai:zenodo.org:845239</identifier>
      <datestamp>2017-08-18T06:59:35Z</datestamp>
      <setSpec>user-biosyslit</setSpec>
    </header>
    <header>
      <identifier>oai:zenodo.org:845227</identifier>
      <datestamp>2017-08-18T06:58:15Z</datestamp>
      <setSpec>user-biosyslit</setSpec>
    </header>
    <header>
      <identifier>oai:zenodo.org:845209</identifier>
      <datestamp>2017-08-18T06:57:46Z</datestamp>
      <setSpec>user-biosyslit</setSpec>
    </header>
    <header>
      <identifier>oai:zenodo.org:845205</identifier>
      <datestamp>2017-08-18T06:56:44Z</datestamp>
      <setSpec>user-biosyslit</setSpec>
    </header>
    <header>
      <identifier>oai:zenodo.org:841808</identifier>
      <datestamp>2017-08-11T17:50:18Z</datestamp>
      <setSpec>openaire</setSpec>
      <setSpec>user-biosyslit</setSpec>
    </header>
    <header>
      <identifier>oai:zenodo.org:831826</identifier>
      <datestamp>2017-07-18T21:28:31Z</datestamp>
      <setSpec>user-biosyslit</setSpec>
    </header>
    <header>
      <identifier>oai:zenodo.org:831830</identifier>
      <datestamp>2017-07-18T21:28:40Z</datestamp>
      <setSpec>user-biosyslit</setSpec>
    </header>
    <header>
      <identifier>oai:zenodo.org:831838</identifier>
      <datestamp>2017-07-18T21:28:56Z</datestamp>
      <setSpec>user-biosyslit</setSpec>
    </header>
    <header>
      <identifier>oai:zenodo.org:831842</identifier>
      <datestamp>2017-07-18T21:29:03Z</datestamp>
      <setSpec>user-biosyslit</setSpec>
    </header>
    <header>
      <identifier>oai:zenodo.org:832220</identifier>
      <datestamp>2017-07-19T12:55:32Z</datestamp>
      <setSpec>user-biosyslit</setSpec>
    </header>
    <header>
      <identifier>oai:zenodo.org:832224</identifier>
      <datestamp>2017-07-19T12:55:41Z</datestamp>
      <setSpec>user-biosyslit</setSpec>
    </header>
    <header>
      <identifier>oai:zenodo.org:832230</identifier>
      <datestamp>2017-07-19T12:55:52Z</datestamp>
      <setSpec>user-biosyslit</setSpec>
    </header>
    <header>
      <identifier>oai:zenodo.org:832226</identifier>
      <datestamp>2017-07-19T12:55:44Z</datestamp>
      <setSpec>user-biosyslit</setSpec>
    </header>
    <header>
      <identifier>oai:zenodo.org:814708</identifier>
      <datestamp>2017-06-20T10:06:03Z</datestamp>
      <setSpec>user-biosyslit</setSpec>
    </header>
    <header>
      <identifier>oai:zenodo.org:814710</identifier>
      <datestamp>2017-06-20T10:06:07Z</datestamp>
      <setSpec>user-biosyslit</setSpec>
    </header>
    <header>
      <identifier>oai:zenodo.org:814712</identifier>
      <datestamp>2017-06-20T10:06:11Z</datestamp>
      <setSpec>user-biosyslit</setSpec>
    </header>
    <header>
      <identifier>oai:zenodo.org:814736</identifier>
      <datestamp>2017-06-20T10:07:06Z</datestamp>
      <setSpec>user-biosyslit</setSpec>
    </header>
    <header>
      <identifier>oai:zenodo.org:814718</identifier>
      <datestamp>2017-06-20T10:06:24Z</datestamp>
      <setSpec>user-biosyslit</setSpec>
    </header>
    <header>
      <identifier>oai:zenodo.org:814720</identifier>
      <datestamp>2017-06-20T10:06:28Z</datestamp>
      <setSpec>user-biosyslit</setSpec>
    </header>
    <header>
      <identifier>oai:zenodo.org:814738</identifier>
      <datestamp>2017-06-20T10:07:11Z</datestamp>
      <setSpec>user-biosyslit</setSpec>
    </header>
    <header>
      <identifier>oai:zenodo.org:814716</identifier>
      <datestamp>2017-06-20T10:06:19Z</datestamp>
      <setSpec>user-biosyslit</setSpec>
    </header>
    <header>
      <identifier>oai:zenodo.org:814730</identifier>
      <datestamp>2017-06-20T10:06:47Z</datestamp>
      <setSpec>user-biosyslit</setSpec>
    </header>
    <header>
      <identifier>oai:zenodo.org:814726</identifier>
      <datestamp>2017-06-20T10:06:40Z</datestamp>
      <setSpec>user-biosyslit</setSpec>
    </header>
    <header>
      <identifier>oai:zenodo.org:814722</identifier>
      <datestamp>2017-06-20T10:06:32Z</datestamp>
      <setSpec>user-biosyslit</setSpec>
    </header>
    <header>
      <identifier>oai:zenodo.org:814746</identifier>
      <datestamp>2017-06-20T10:07:26Z</datestamp>
      <setSpec>user-biosyslit</setSpec>
    </header>
    <header>
      <identifier>oai:zenodo.org:814748</identifier>
      <datestamp>2017-06-20T10:07:30Z</datestamp>
      <setSpec>user-biosyslit</setSpec>
    </header>
    <header>
      <identifier>oai:zenodo.org:814764</identifier>
      <datestamp>2017-06-20T10:08:04Z</datestamp>
      <setSpec>user-biosyslit</setSpec>
    </header>
    <header>
      <identifier>oai:zenodo.org:814750</identifier>
      <datestamp>2017-06-20T10:07:34Z</datestamp>
      <setSpec>user-biosyslit</setSpec>
    </header>
    <header>
      <identifier>oai:zenodo.org:814744</identifier>
      <datestamp>2017-06-20T10:07:22Z</datestamp>
      <setSpec>user-biosyslit</setSpec>
    </header>
    <header>
      <identifier>oai:zenodo.org:814752</identifier>
      <datestamp>2017-06-20T10:07:39Z</datestamp>
      <setSpec>user-biosyslit</setSpec>
    </header>
    <header>
      <identifier>oai:zenodo.org:814740</identifier>
      <datestamp>2017-06-20T10:07:15Z</datestamp>
      <setSpec>user-biosyslit</setSpec>
    </header>
    <header>
      <identifier>oai:zenodo.org:814760</identifier>
      <datestamp>2017-06-20T10:07:57Z</datestamp>
      <setSpec>user-biosyslit</setSpec>
    </header>
    <header>
      <identifier>oai:zenodo.org:814742</identifier>
      <datestamp>2017-06-20T10:07:19Z</datestamp>
      <setSpec>user-biosyslit</setSpec>
    </header>
    <header>
      <identifier>oai:zenodo.org:814782</identifier>
      <datestamp>2017-06-20T10:08:55Z</datestamp>
      <setSpec>user-biosyslit</setSpec>
    </header>
    <header>
      <identifier>oai:zenodo.org:814780</identifier>
      <datestamp>2017-06-20T10:08:52Z</datestamp>
      <setSpec>user-biosyslit</setSpec>
    </header>
    <header>
      <identifier>oai:zenodo.org:814766</identifier>
      <datestamp>2017-06-20T10:08:09Z</datestamp>
      <setSpec>user-biosyslit</setSpec>
    </header>
    <header>
      <identifier>oai:zenodo.org:814772</identifier>
      <datestamp>2017-06-20T10:08:23Z</datestamp>
      <setSpec>user-biosyslit</setSpec>
    </header>
    <header>
      <identifier>oai:zenodo.org:814778</identifier>
      <datestamp>2017-06-20T10:08:45Z</datestamp>
      <setSpec>user-biosyslit</setSpec>
    </header>
    <header>
      <identifier>oai:zenodo.org:814776</identifier>
      <datestamp>2017-06-20T10:08:36Z</datestamp>
      <setSpec>user-biosyslit</setSpec>
    </header>
    <header>
      <identifier>oai:zenodo.org:814774</identifier>
      <datestamp>2017-06-20T10:08:30Z</datestamp>
      <setSpec>user-biosyslit</setSpec>
    </header>
    <header>
      <identifier>oai:zenodo.org:814788</identifier>
      <datestamp>2017-06-20T10:09:15Z</datestamp>
      <setSpec>user-biosyslit</setSpec>
    </header>
    <header>
      <identifier>oai:zenodo.org:803958</identifier>
      <datestamp>2017-06-07T12:02:17Z</datestamp>
      <setSpec>user-biosyslit</setSpec>
    </header>
    <header>
      <identifier>oai:zenodo.org:803960</identifier>
      <datestamp>2017-06-07T12:02:22Z</datestamp>
      <setSpec>user-biosyslit</setSpec>
    </header>
    <header>
      <identifier>oai:zenodo.org:803962</identifier>
      <datestamp>2017-06-07T12:02:25Z</datestamp>
      <setSpec>user-biosyslit</setSpec>
    </header>
    <header>
      <identifier>oai:zenodo.org:803964</identifier>
      <datestamp>2017-06-07T12:02:28Z</datestamp>
      <setSpec>user-biosyslit</setSpec>
    </header>
    <header>
      <identifier>oai:zenodo.org:803966</identifier>
      <datestamp>2017-06-07T12:02:31Z</datestamp>
      <setSpec>user-biosyslit</setSpec>
    </header>
    <header>
      <identifier>oai:zenodo.org:828449</identifier>
      <datestamp>2017-07-15T08:55:09Z</datestamp>
      <setSpec>user-biosyslit</setSpec>
    </header>
    <header>
      <identifier>oai:zenodo.org:828469</identifier>
      <datestamp>2017-07-15T08:55:59Z</datestamp>
      <setSpec>user-biosyslit</setSpec>
    </header>
    <header>
      <identifier>oai:zenodo.org:828485</identifier>
      <datestamp>2017-07-15T08:56:39Z</datestamp>
      <setSpec>user-biosyslit</setSpec>
    </header>
    <header>
      <identifier>oai:zenodo.org:828471</identifier>
      <datestamp>2017-07-15T08:56:04Z</datestamp>
      <setSpec>user-biosyslit</setSpec>
    </header>
    <header>
      <identifier>oai:zenodo.org:828483</identifier>
      <datestamp>2017-07-15T08:56:35Z</datestamp>
      <setSpec>user-biosyslit</setSpec>
    </header>
    <header>
      <identifier>oai:zenodo.org:828489</identifier>
      <datestamp>2017-07-15T08:56:46Z</datestamp>
      <setSpec>user-biosyslit</setSpec>
    </header>
    <header>
      <identifier>oai:zenodo.org:828473</identifier>
      <datestamp>2017-07-15T08:56:07Z</datestamp>
      <setSpec>user-biosyslit</setSpec>
    </header>
    <header>
      <identifier>oai:zenodo.org:828493</identifier>
      <datestamp>2017-07-15T08:57:00Z</datestamp>
      <setSpec>user-biosyslit</setSpec>
    </header>
    <header>
      <identifier>oai:zenodo.org:828447</identifier>
      <datestamp>2017-07-15T08:55:05Z</datestamp>
      <setSpec>user-biosyslit</setSpec>
    </header>
    <header>
      <identifier>oai:zenodo.org:828789</identifier>
      <datestamp>2017-07-15T09:08:27Z</datestamp>
      <setSpec>user-biosyslit</setSpec>
    </header>
    <header>
      <identifier>oai:zenodo.org:828797</identifier>
      <datestamp>2017-07-15T09:10:02Z</datestamp>
      <setSpec>user-biosyslit</setSpec>
    </header>
    <header>
      <identifier>oai:zenodo.org:828795</identifier>
      <datestamp>2017-07-15T09:09:58Z</datestamp>
      <setSpec>user-biosyslit</setSpec>
    </header>
    <header>
      <identifier>oai:zenodo.org:828785</identifier>
      <datestamp>2017-07-15T09:08:15Z</datestamp>
      <setSpec>user-biosyslit</setSpec>
    </header>
    <header>
      <identifier>oai:zenodo.org:829305</identifier>
      <datestamp>2017-07-15T09:34:46Z</datestamp>
      <setSpec>user-biosyslit</setSpec>
    </header>
    <header>
      <identifier>oai:zenodo.org:829307</identifier>
      <datestamp>2017-07-15T09:34:49Z</datestamp>
      <setSpec>user-biosyslit</setSpec>
    </header>
    <header>
      <identifier>oai:zenodo.org:829319</identifier>
      <datestamp>2017-07-15T09:35:17Z</datestamp>
      <setSpec>user-biosyslit</setSpec>
    </header>
    <header>
      <identifier>oai:zenodo.org:829317</identifier>
      <datestamp>2017-07-15T09:35:12Z</datestamp>
      <setSpec>user-biosyslit</setSpec>
    </header>
    <header>
      <identifier>oai:zenodo.org:829291</identifier>
      <datestamp>2017-07-15T09:34:19Z</datestamp>
      <setSpec>user-biosyslit</setSpec>
    </header>
    <header>
      <identifier>oai:zenodo.org:829299</identifier>
      <datestamp>2017-07-15T09:34:38Z</datestamp>
      <setSpec>user-biosyslit</setSpec>
    </header>
    <header>
      <identifier>oai:zenodo.org:829311</identifier>
      <datestamp>2017-07-15T09:34:58Z</datestamp>
      <setSpec>user-biosyslit</setSpec>
    </header>
    <header>
      <identifier>oai:zenodo.org:829445</identifier>
      <datestamp>2017-07-15T09:39:52Z</datestamp>
      <setSpec>user-biosyslit</setSpec>
    </header>
    <header>
      <identifier>oai:zenodo.org:829443</identifier>
      <datestamp>2017-07-15T09:39:49Z</datestamp>
      <setSpec>user-biosyslit</setSpec>
    </header>
    <header>
      <identifier>oai:zenodo.org:829433</identifier>
      <datestamp>2017-07-15T09:39:31Z</datestamp>
      <setSpec>user-biosyslit</setSpec>
    </header>
    <header>
      <identifier>oai:zenodo.org:829437</identifier>
      <datestamp>2017-07-15T09:39:39Z</datestamp>
      <setSpec>user-biosyslit</setSpec>
    </header>
    <header>
      <identifier>oai:zenodo.org:829423</identifier>
      <datestamp>2017-07-15T09:39:13Z</datestamp>
      <setSpec>user-biosyslit</setSpec>
    </header>
    <header>
      <identifier>oai:zenodo.org:829441</identifier>
      <datestamp>2017-07-15T09:39:45Z</datestamp>
      <setSpec>user-biosyslit</setSpec>
    </header>
    <header>
      <identifier>oai:zenodo.org:829431</identifier>
      <datestamp>2017-07-15T09:39:28Z</datestamp>
      <setSpec>user-biosyslit</setSpec>
    </header>
    <header>
      <identifier>oai:zenodo.org:829447</identifier>
      <datestamp>2017-07-15T09:39:55Z</datestamp>
      <setSpec>user-biosyslit</setSpec>
    </header>
    <header>
      <identifier>oai:zenodo.org:828687</identifier>
      <datestamp>2017-07-15T09:04:35Z</datestamp>
      <setSpec>user-biosyslit</setSpec>
    </header>
    <header>
      <identifier>oai:zenodo.org:828669</identifier>
      <datestamp>2017-07-15T09:04:05Z</datestamp>
      <setSpec>user-biosyslit</setSpec>
    </header>
    <header>
      <identifier>oai:zenodo.org:828671</identifier>
      <datestamp>2017-07-15T09:04:09Z</datestamp>
      <setSpec>user-biosyslit</setSpec>
    </header>
    <header>
      <identifier>oai:zenodo.org:828677</identifier>
      <datestamp>2017-07-15T09:04:17Z</datestamp>
      <setSpec>user-biosyslit</setSpec>
    </header>
    <header>
      <identifier>oai:zenodo.org:828689</identifier>
      <datestamp>2017-07-15T09:04:39Z</datestamp>
      <setSpec>user-biosyslit</setSpec>
    </header>
    <header>
      <identifier>oai:zenodo.org:828685</identifier>
      <datestamp>2017-07-15T09:04:32Z</datestamp>
      <setSpec>user-biosyslit</setSpec>
    </header>
    <header>
      <identifier>oai:zenodo.org:828667</identifier>
      <datestamp>2017-07-15T09:04:01Z</datestamp>
      <setSpec>user-biosyslit</setSpec>
    </header>
    <header>
      <identifier>oai:zenodo.org:828693</identifier>
      <datestamp>2017-07-15T09:04:51Z</datestamp>
      <setSpec>user-biosyslit</setSpec>
    </header>
    <header>
      <identifier>oai:zenodo.org:828887</identifier>
      <datestamp>2017-07-15T09:15:46Z</datestamp>
      <setSpec>user-biosyslit</setSpec>
    </header>
    <header>
      <identifier>oai:zenodo.org:828927</identifier>
      <datestamp>2017-07-15T09:17:32Z</datestamp>
      <setSpec>user-biosyslit</setSpec>
    </header>
    <resumptionToken expirationDate="2017-08-31T15:45:26Z" cursor="37200" completeListSize="77796">.eJyNzzEPQ0AYxvHvcrM0d962VNJFqBgQrqQsjSKijoprgxPfvTp0bpdn-f-WZ0a8KHKk4Q0AUQ_4s_IeQNltJcSz_sHYtVo7yi4Ry1oWplb0CpoIx3KpuAYfHSMGV9TYa4igJ1--EHUMKzz55_AZi2CMwB4oNhVH-JN7t1eXg2ex5GZ1NGx1RuW890x_okSnCWRfR_504qcz-BFJqEvLAmmgrK_qIe1LjrR5Wd7MR1Fu.DInAHg.i1Yy3Sf-Pyli6URaTkDrjn_waXg</resumptionToken>
  </ListIdentifiers>
</OAI-PMH>
