<?xml version='1.0' encoding='UTF-8'?>
<?xml-stylesheet type="text/xsl" href="/static/xsl/oai2.v1.0.xsl"?>
<OAI-PMH xmlns="http://www.openarchives.org/OAI/2.0/" xmlns:xsi="http://www.w3.org/2001/XMLSchema-instance" xsi:schemaLocation="http://www.openarchives.org/OAI/2.0/ http://www.openarchives.org/OAI/2.0/OAI-PMH.xsd">
  <responseDate>2017-08-31T15:41:10Z</responseDate>
  <request verb="ListIdentifiers" resumptionToken=".eJyNyj0LgkAYAOD_8s4S91EqQotY0pBil4e6hJ0i1WniFemJ_z0bmuuZnxFUWRbgoAVa2aZp0w-8tK2laRqgRHeX8nSZA4iES9HIOPf581BzlJLKCjzV772UBvqGwhprto1Igu0-vqAhOsaPVB96TncvhjbWXkdDcN3Nr6ChL7Oz37K4cSUjRRduooFhl2VUfB_-8-mfz1NrMKDNqxIcQgy4vfKuUuCM0_QGuzhRcw.DIm_lg.0NTIj_hLM0Jo9M5FpPinFi3XJHQ">https://zenodo.org/oai2d</request>
  <ListIdentifiers>
    <header>
      <identifier>oai:zenodo.org:271739</identifier>
      <datestamp>2017-02-08T02:31:28Z</datestamp>
      <setSpec>user-biosyslit</setSpec>
    </header>
    <header>
      <identifier>oai:zenodo.org:279099</identifier>
      <datestamp>2017-02-09T00:36:59Z</datestamp>
      <setSpec>user-biosyslit</setSpec>
    </header>
    <header>
      <identifier>oai:zenodo.org:271903</identifier>
      <datestamp>2017-02-08T02:59:04Z</datestamp>
      <setSpec>user-biosyslit</setSpec>
    </header>
    <header>
      <identifier>oai:zenodo.org:273273</identifier>
      <datestamp>2017-02-08T08:48:45Z</datestamp>
      <setSpec>user-biosyslit</setSpec>
    </header>
    <header>
      <identifier>oai:zenodo.org:242422</identifier>
      <datestamp>2017-01-13T15:14:16Z</datestamp>
      <setSpec>user-biosyslit</setSpec>
    </header>
    <header>
      <identifier>oai:zenodo.org:242202</identifier>
      <datestamp>2017-01-13T12:02:06Z</datestamp>
      <setSpec>user-biosyslit</setSpec>
    </header>
    <header>
      <identifier>oai:zenodo.org:278976</identifier>
      <datestamp>2017-02-09T00:21:10Z</datestamp>
      <setSpec>user-biosyslit</setSpec>
    </header>
    <header>
      <identifier>oai:zenodo.org:280226</identifier>
      <datestamp>2017-02-09T03:00:58Z</datestamp>
      <setSpec>user-biosyslit</setSpec>
    </header>
    <header>
      <identifier>oai:zenodo.org:242399</identifier>
      <datestamp>2017-01-13T15:06:07Z</datestamp>
      <setSpec>user-biosyslit</setSpec>
    </header>
    <header>
      <identifier>oai:zenodo.org:242478</identifier>
      <datestamp>2017-01-13T15:40:10Z</datestamp>
      <setSpec>user-biosyslit</setSpec>
    </header>
    <header>
      <identifier>oai:zenodo.org:242261</identifier>
      <datestamp>2017-01-13T12:37:09Z</datestamp>
      <setSpec>user-biosyslit</setSpec>
    </header>
    <header>
      <identifier>oai:zenodo.org:242635</identifier>
      <datestamp>2017-01-13T18:01:35Z</datestamp>
      <setSpec>user-biosyslit</setSpec>
    </header>
    <header>
      <identifier>oai:zenodo.org:242896</identifier>
      <datestamp>2017-01-13T20:34:10Z</datestamp>
      <setSpec>user-biosyslit</setSpec>
    </header>
    <header>
      <identifier>oai:zenodo.org:272063</identifier>
      <datestamp>2017-02-08T03:27:06Z</datestamp>
      <setSpec>user-biosyslit</setSpec>
    </header>
    <header>
      <identifier>oai:zenodo.org:243283</identifier>
      <datestamp>2017-01-14T02:07:14Z</datestamp>
      <setSpec>user-biosyslit</setSpec>
    </header>
    <header>
      <identifier>oai:zenodo.org:243664</identifier>
      <datestamp>2017-01-14T08:56:29Z</datestamp>
      <setSpec>user-biosyslit</setSpec>
    </header>
    <header>
      <identifier>oai:zenodo.org:243048</identifier>
      <datestamp>2017-01-13T22:36:48Z</datestamp>
      <setSpec>user-biosyslit</setSpec>
    </header>
    <header>
      <identifier>oai:zenodo.org:272357</identifier>
      <datestamp>2017-02-08T04:21:51Z</datestamp>
      <setSpec>user-biosyslit</setSpec>
    </header>
    <header>
      <identifier>oai:zenodo.org:272202</identifier>
      <datestamp>2017-02-08T03:58:56Z</datestamp>
      <setSpec>user-biosyslit</setSpec>
    </header>
    <header>
      <identifier>oai:zenodo.org:243914</identifier>
      <datestamp>2017-01-14T13:08:02Z</datestamp>
      <setSpec>user-biosyslit</setSpec>
    </header>
    <header>
      <identifier>oai:zenodo.org:243541</identifier>
      <datestamp>2017-01-14T07:14:17Z</datestamp>
      <setSpec>user-biosyslit</setSpec>
    </header>
    <header>
      <identifier>oai:zenodo.org:243640</identifier>
      <datestamp>2017-01-14T08:30:35Z</datestamp>
      <setSpec>user-biosyslit</setSpec>
    </header>
    <header>
      <identifier>oai:zenodo.org:272048</identifier>
      <datestamp>2017-02-08T03:24:48Z</datestamp>
      <setSpec>user-biosyslit</setSpec>
    </header>
    <header>
      <identifier>oai:zenodo.org:275690</identifier>
      <datestamp>2017-02-08T16:55:57Z</datestamp>
      <setSpec>user-biosyslit</setSpec>
    </header>
    <header>
      <identifier>oai:zenodo.org:244274</identifier>
      <datestamp>2017-01-14T18:52:27Z</datestamp>
      <setSpec>user-biosyslit</setSpec>
    </header>
    <header>
      <identifier>oai:zenodo.org:244430</identifier>
      <datestamp>2017-01-14T21:46:07Z</datestamp>
      <setSpec>user-biosyslit</setSpec>
    </header>
    <header>
      <identifier>oai:zenodo.org:245033</identifier>
      <datestamp>2017-01-15T06:57:19Z</datestamp>
      <setSpec>user-biosyslit</setSpec>
    </header>
    <header>
      <identifier>oai:zenodo.org:244877</identifier>
      <datestamp>2017-01-15T04:33:50Z</datestamp>
      <setSpec>user-biosyslit</setSpec>
    </header>
    <header>
      <identifier>oai:zenodo.org:244848</identifier>
      <datestamp>2017-01-15T04:05:18Z</datestamp>
      <setSpec>user-biosyslit</setSpec>
    </header>
    <header>
      <identifier>oai:zenodo.org:244682</identifier>
      <datestamp>2017-01-15T01:10:23Z</datestamp>
      <setSpec>user-biosyslit</setSpec>
    </header>
    <header>
      <identifier>oai:zenodo.org:244649</identifier>
      <datestamp>2017-01-15T00:30:24Z</datestamp>
      <setSpec>user-biosyslit</setSpec>
    </header>
    <header>
      <identifier>oai:zenodo.org:245210</identifier>
      <datestamp>2017-01-15T10:05:28Z</datestamp>
      <setSpec>user-biosyslit</setSpec>
    </header>
    <header>
      <identifier>oai:zenodo.org:245665</identifier>
      <datestamp>2017-01-15T17:13:30Z</datestamp>
      <setSpec>user-biosyslit</setSpec>
    </header>
    <header>
      <identifier>oai:zenodo.org:246405</identifier>
      <datestamp>2017-01-16T01:50:42Z</datestamp>
      <setSpec>user-biosyslit</setSpec>
    </header>
    <header>
      <identifier>oai:zenodo.org:246676</identifier>
      <datestamp>2017-01-16T06:58:18Z</datestamp>
      <setSpec>user-biosyslit</setSpec>
    </header>
    <header>
      <identifier>oai:zenodo.org:245869</identifier>
      <datestamp>2017-01-15T19:12:04Z</datestamp>
      <setSpec>user-biosyslit</setSpec>
    </header>
    <header>
      <identifier>oai:zenodo.org:272572</identifier>
      <datestamp>2017-02-08T05:09:40Z</datestamp>
      <setSpec>user-biosyslit</setSpec>
    </header>
    <header>
      <identifier>oai:zenodo.org:245876</identifier>
      <datestamp>2017-01-15T19:12:31Z</datestamp>
      <setSpec>user-biosyslit</setSpec>
    </header>
    <header>
      <identifier>oai:zenodo.org:246954</identifier>
      <datestamp>2017-01-16T10:07:03Z</datestamp>
      <setSpec>user-biosyslit</setSpec>
    </header>
    <header>
      <identifier>oai:zenodo.org:246865</identifier>
      <datestamp>2017-01-16T09:22:10Z</datestamp>
      <setSpec>user-biosyslit</setSpec>
    </header>
    <header>
      <identifier>oai:zenodo.org:246765</identifier>
      <datestamp>2017-01-16T07:45:04Z</datestamp>
      <setSpec>user-biosyslit</setSpec>
    </header>
    <header>
      <identifier>oai:zenodo.org:246937</identifier>
      <datestamp>2017-01-16T10:06:04Z</datestamp>
      <setSpec>user-biosyslit</setSpec>
    </header>
    <header>
      <identifier>oai:zenodo.org:247359</identifier>
      <datestamp>2017-01-16T14:31:03Z</datestamp>
      <setSpec>user-biosyslit</setSpec>
    </header>
    <header>
      <identifier>oai:zenodo.org:231732</identifier>
      <datestamp>2017-01-06T06:29:59Z</datestamp>
      <setSpec>user-biosyslit</setSpec>
    </header>
    <header>
      <identifier>oai:zenodo.org:269754</identifier>
      <datestamp>2017-02-07T20:17:12Z</datestamp>
      <setSpec>user-biosyslit</setSpec>
    </header>
    <header>
      <identifier>oai:zenodo.org:275030</identifier>
      <datestamp>2017-02-08T15:08:08Z</datestamp>
      <setSpec>user-biosyslit</setSpec>
    </header>
    <header>
      <identifier>oai:zenodo.org:269266</identifier>
      <datestamp>2017-02-06T23:44:25Z</datestamp>
      <setSpec>user-biosyslit</setSpec>
    </header>
    <header>
      <identifier>oai:zenodo.org:269035</identifier>
      <datestamp>2017-02-06T22:35:49Z</datestamp>
      <setSpec>user-biosyslit</setSpec>
    </header>
    <header>
      <identifier>oai:zenodo.org:270010</identifier>
      <datestamp>2017-02-07T22:00:01Z</datestamp>
      <setSpec>user-biosyslit</setSpec>
    </header>
    <header>
      <identifier>oai:zenodo.org:270640</identifier>
      <datestamp>2017-02-07T23:40:38Z</datestamp>
      <setSpec>user-biosyslit</setSpec>
    </header>
    <header>
      <identifier>oai:zenodo.org:231136</identifier>
      <datestamp>2017-01-06T11:05:17Z</datestamp>
      <setSpec>openaire</setSpec>
      <setSpec>user-biosyslit</setSpec>
    </header>
    <header>
      <identifier>oai:zenodo.org:274917</identifier>
      <datestamp>2017-02-08T14:48:44Z</datestamp>
      <setSpec>user-biosyslit</setSpec>
    </header>
    <header>
      <identifier>oai:zenodo.org:269800</identifier>
      <datestamp>2017-02-07T20:23:43Z</datestamp>
      <setSpec>user-biosyslit</setSpec>
    </header>
    <header>
      <identifier>oai:zenodo.org:270817</identifier>
      <datestamp>2017-02-07T23:57:22Z</datestamp>
      <setSpec>user-biosyslit</setSpec>
    </header>
    <header>
      <identifier>oai:zenodo.org:270576</identifier>
      <datestamp>2017-02-07T23:31:54Z</datestamp>
      <setSpec>user-biosyslit</setSpec>
    </header>
    <header>
      <identifier>oai:zenodo.org:231925</identifier>
      <datestamp>2017-01-06T08:49:58Z</datestamp>
      <setSpec>user-biosyslit</setSpec>
    </header>
    <header>
      <identifier>oai:zenodo.org:231730</identifier>
      <datestamp>2017-01-06T06:29:53Z</datestamp>
      <setSpec>user-biosyslit</setSpec>
    </header>
    <header>
      <identifier>oai:zenodo.org:231934</identifier>
      <datestamp>2017-01-06T08:50:23Z</datestamp>
      <setSpec>user-biosyslit</setSpec>
    </header>
    <header>
      <identifier>oai:zenodo.org:270150</identifier>
      <datestamp>2017-02-07T22:26:56Z</datestamp>
      <setSpec>user-biosyslit</setSpec>
    </header>
    <header>
      <identifier>oai:zenodo.org:275059</identifier>
      <datestamp>2017-02-08T15:11:28Z</datestamp>
      <setSpec>user-biosyslit</setSpec>
    </header>
    <header>
      <identifier>oai:zenodo.org:269576</identifier>
      <datestamp>2017-02-07T01:02:22Z</datestamp>
      <setSpec>user-biosyslit</setSpec>
    </header>
    <header>
      <identifier>oai:zenodo.org:270462</identifier>
      <datestamp>2017-02-07T23:16:38Z</datestamp>
      <setSpec>user-biosyslit</setSpec>
    </header>
    <header>
      <identifier>oai:zenodo.org:269425</identifier>
      <datestamp>2017-02-07T00:29:18Z</datestamp>
      <setSpec>user-biosyslit</setSpec>
    </header>
    <header>
      <identifier>oai:zenodo.org:233376</identifier>
      <datestamp>2017-01-08T04:02:49Z</datestamp>
      <setSpec>user-biosyslit</setSpec>
    </header>
    <header>
      <identifier>oai:zenodo.org:232055</identifier>
      <datestamp>2017-01-06T10:47:46Z</datestamp>
      <setSpec>user-biosyslit</setSpec>
    </header>
    <header>
      <identifier>oai:zenodo.org:275695</identifier>
      <datestamp>2017-02-08T16:55:53Z</datestamp>
      <setSpec>user-biosyslit</setSpec>
    </header>
    <header>
      <identifier>oai:zenodo.org:232137</identifier>
      <datestamp>2017-01-06T11:30:59Z</datestamp>
      <setSpec>user-biosyslit</setSpec>
    </header>
    <header>
      <identifier>oai:zenodo.org:232271</identifier>
      <datestamp>2017-01-06T14:50:49Z</datestamp>
      <setSpec>user-biosyslit</setSpec>
    </header>
    <header>
      <identifier>oai:zenodo.org:275133</identifier>
      <datestamp>2017-02-08T15:22:43Z</datestamp>
      <setSpec>user-biosyslit</setSpec>
    </header>
    <header>
      <identifier>oai:zenodo.org:275187</identifier>
      <datestamp>2017-02-08T15:36:12Z</datestamp>
      <setSpec>user-biosyslit</setSpec>
    </header>
    <header>
      <identifier>oai:zenodo.org:234033</identifier>
      <datestamp>2017-01-08T14:13:19Z</datestamp>
      <setSpec>user-biosyslit</setSpec>
    </header>
    <header>
      <identifier>oai:zenodo.org:275636</identifier>
      <datestamp>2017-02-08T16:50:18Z</datestamp>
      <setSpec>user-biosyslit</setSpec>
    </header>
    <header>
      <identifier>oai:zenodo.org:232467</identifier>
      <datestamp>2017-01-06T18:12:31Z</datestamp>
      <setSpec>user-biosyslit</setSpec>
    </header>
    <header>
      <identifier>oai:zenodo.org:233693</identifier>
      <datestamp>2017-01-08T10:13:10Z</datestamp>
      <setSpec>user-biosyslit</setSpec>
    </header>
    <header>
      <identifier>oai:zenodo.org:233218</identifier>
      <datestamp>2017-01-08T02:15:37Z</datestamp>
      <setSpec>user-biosyslit</setSpec>
    </header>
    <header>
      <identifier>oai:zenodo.org:276752</identifier>
      <datestamp>2017-02-08T19:37:13Z</datestamp>
      <setSpec>user-biosyslit</setSpec>
    </header>
    <header>
      <identifier>oai:zenodo.org:276875</identifier>
      <datestamp>2017-02-08T19:53:11Z</datestamp>
      <setSpec>user-biosyslit</setSpec>
    </header>
    <header>
      <identifier>oai:zenodo.org:277076</identifier>
      <datestamp>2017-02-08T20:20:02Z</datestamp>
      <setSpec>user-biosyslit</setSpec>
    </header>
    <header>
      <identifier>oai:zenodo.org:235822</identifier>
      <datestamp>2017-01-09T15:30:09Z</datestamp>
      <setSpec>user-biosyslit</setSpec>
    </header>
    <header>
      <identifier>oai:zenodo.org:277069</identifier>
      <datestamp>2017-02-08T20:19:31Z</datestamp>
      <setSpec>user-biosyslit</setSpec>
    </header>
    <header>
      <identifier>oai:zenodo.org:233816</identifier>
      <datestamp>2017-01-08T12:09:45Z</datestamp>
      <setSpec>user-biosyslit</setSpec>
    </header>
    <header>
      <identifier>oai:zenodo.org:276998</identifier>
      <datestamp>2017-02-08T20:09:52Z</datestamp>
      <setSpec>user-biosyslit</setSpec>
    </header>
    <header>
      <identifier>oai:zenodo.org:234848</identifier>
      <datestamp>2017-01-09T02:40:46Z</datestamp>
      <setSpec>user-biosyslit</setSpec>
    </header>
    <header>
      <identifier>oai:zenodo.org:276769</identifier>
      <datestamp>2017-02-08T19:39:02Z</datestamp>
      <setSpec>user-biosyslit</setSpec>
    </header>
    <header>
      <identifier>oai:zenodo.org:236408</identifier>
      <datestamp>2017-01-09T23:49:55Z</datestamp>
      <setSpec>user-biosyslit</setSpec>
    </header>
    <header>
      <identifier>oai:zenodo.org:276535</identifier>
      <datestamp>2017-02-08T19:06:04Z</datestamp>
      <setSpec>user-biosyslit</setSpec>
    </header>
    <header>
      <identifier>oai:zenodo.org:277051</identifier>
      <datestamp>2017-02-08T20:16:45Z</datestamp>
      <setSpec>user-biosyslit</setSpec>
    </header>
    <header>
      <identifier>oai:zenodo.org:235628</identifier>
      <datestamp>2017-01-09T13:04:55Z</datestamp>
      <setSpec>user-biosyslit</setSpec>
    </header>
    <header>
      <identifier>oai:zenodo.org:277172</identifier>
      <datestamp>2017-02-08T20:32:59Z</datestamp>
      <setSpec>user-biosyslit</setSpec>
    </header>
    <header>
      <identifier>oai:zenodo.org:235258</identifier>
      <datestamp>2017-01-09T07:34:56Z</datestamp>
      <setSpec>user-biosyslit</setSpec>
    </header>
    <header>
      <identifier>oai:zenodo.org:276655</identifier>
      <datestamp>2017-02-08T19:24:45Z</datestamp>
      <setSpec>user-biosyslit</setSpec>
    </header>
    <header>
      <identifier>oai:zenodo.org:276959</identifier>
      <datestamp>2017-02-08T20:04:20Z</datestamp>
      <setSpec>user-biosyslit</setSpec>
    </header>
    <header>
      <identifier>oai:zenodo.org:236294</identifier>
      <datestamp>2017-01-09T21:46:14Z</datestamp>
      <setSpec>user-biosyslit</setSpec>
    </header>
    <header>
      <identifier>oai:zenodo.org:277034</identifier>
      <datestamp>2017-02-08T20:14:58Z</datestamp>
      <setSpec>user-biosyslit</setSpec>
    </header>
    <header>
      <identifier>oai:zenodo.org:278706</identifier>
      <datestamp>2017-02-08T23:44:13Z</datestamp>
      <setSpec>user-biosyslit</setSpec>
    </header>
    <header>
      <identifier>oai:zenodo.org:236947</identifier>
      <datestamp>2017-01-10T08:38:54Z</datestamp>
      <setSpec>user-biosyslit</setSpec>
    </header>
    <header>
      <identifier>oai:zenodo.org:236289</identifier>
      <datestamp>2017-01-09T21:46:32Z</datestamp>
      <setSpec>user-biosyslit</setSpec>
    </header>
    <header>
      <identifier>oai:zenodo.org:236474</identifier>
      <datestamp>2017-01-10T00:36:31Z</datestamp>
      <setSpec>user-biosyslit</setSpec>
    </header>
    <header>
      <identifier>oai:zenodo.org:238208</identifier>
      <datestamp>2017-01-11T02:17:25Z</datestamp>
      <setSpec>user-biosyslit</setSpec>
    </header>
    <header>
      <identifier>oai:zenodo.org:276684</identifier>
      <datestamp>2017-02-08T19:28:04Z</datestamp>
      <setSpec>user-biosyslit</setSpec>
    </header>
    <resumptionToken expirationDate="2017-08-31T15:43:10Z" cursor="2100" completeListSize="77796">.eJyNyk0LgjAYAOD_8p4lNudHCl1Ekw4ptjbSS9gUsWaFK9KF_z0vnes5P29QdV2BjxaIeI7rWa7tYOQhz7ItA5Tob1Ie2zmAOHAprpKVMX_uOo5ys3GTUA3bMCeJvqC0w5quM_OAlwNr0Zjt2SPXu4GTzYuiyN3qbEzOm_lVJI1lcYrvlF0DSc2qT6NspDigBRHfh_98-ucL1QoMuJdNDb5JDLi8yr5R4L-n6QO_IVF4.DIm_lg.lcFi9NruXyu4nUb50rmssgMdglQ</resumptionToken>
  </ListIdentifiers>
</OAI-PMH>
