<?xml version='1.0' encoding='UTF-8'?>
<?xml-stylesheet type="text/xsl" href="/static/xsl/oai2.v1.0.xsl"?>
<OAI-PMH xmlns="http://www.openarchives.org/OAI/2.0/" xmlns:xsi="http://www.w3.org/2001/XMLSchema-instance" xsi:schemaLocation="http://www.openarchives.org/OAI/2.0/ http://www.openarchives.org/OAI/2.0/OAI-PMH.xsd">
  <responseDate>2017-08-31T15:45:00Z</responseDate>
  <request verb="ListIdentifiers" resumptionToken=".eJyNyssKgkAUANB_uWuJeSQ-oE1o4kJFJ0XdhKmIOZo4RTrSv-emda3PWUHUdQUm2hmqQQlFWEfqHmFDVUCU053zS7sxlGnCy4HHhZM8oz5BGWk03xKzZ2XUlx0KeizZKSQp1ue4RUt4jh-ZjOaEui-GbM2T4eLf3O1VNHB4fnVGFg9Hzkg1BXa4MHxkOS2_D__55M9niQMoMBZNDaaqEwW6VzE1Asz1_f4AlzFROg.DInAfA.tyfrHrAomON7BIrPSMBeWBPr3yc">https://zenodo.org/oai2d</request>
  <ListIdentifiers>
    <header>
      <identifier>oai:zenodo.org:569747</identifier>
      <datestamp>2017-04-28T07:35:01Z</datestamp>
      <setSpec>user-biosyslit</setSpec>
    </header>
    <header>
      <identifier>oai:zenodo.org:572531</identifier>
      <datestamp>2017-05-08T07:35:13Z</datestamp>
      <setSpec>user-biosyslit</setSpec>
    </header>
    <header>
      <identifier>oai:zenodo.org:572508</identifier>
      <datestamp>2017-05-08T07:19:17Z</datestamp>
      <setSpec>user-biosyslit</setSpec>
    </header>
    <header>
      <identifier>oai:zenodo.org:495402</identifier>
      <datestamp>2017-04-06T12:53:35Z</datestamp>
      <setSpec>user-biosyslit</setSpec>
    </header>
    <header>
      <identifier>oai:zenodo.org:571687</identifier>
      <datestamp>2017-05-05T08:34:22Z</datestamp>
      <setSpec>user-biosyslit</setSpec>
    </header>
    <header>
      <identifier>oai:zenodo.org:495837</identifier>
      <datestamp>2017-04-10T07:21:16Z</datestamp>
      <setSpec>user-biosyslit</setSpec>
    </header>
    <header>
      <identifier>oai:zenodo.org:571048</identifier>
      <datestamp>2017-05-03T08:16:02Z</datestamp>
      <setSpec>user-biosyslit</setSpec>
    </header>
    <header>
      <identifier>oai:zenodo.org:571651</identifier>
      <datestamp>2017-05-05T08:11:32Z</datestamp>
      <setSpec>user-biosyslit</setSpec>
    </header>
    <header>
      <identifier>oai:zenodo.org:546754</identifier>
      <datestamp>2017-04-28T10:53:36Z</datestamp>
      <setSpec>openaire</setSpec>
      <setSpec>user-2231-0614-bjmmr</setSpec>
      <setSpec>user-biosyslit</setSpec>
    </header>
    <header>
      <identifier>oai:zenodo.org:573059</identifier>
      <datestamp>2017-05-09T07:18:53Z</datestamp>
      <setSpec>user-biosyslit</setSpec>
    </header>
    <header>
      <identifier>oai:zenodo.org:573113</identifier>
      <datestamp>2017-05-09T08:21:14Z</datestamp>
      <setSpec>user-biosyslit</setSpec>
    </header>
    <header>
      <identifier>oai:zenodo.org:573193</identifier>
      <datestamp>2017-05-09T09:42:31Z</datestamp>
      <setSpec>user-biosyslit</setSpec>
    </header>
    <header>
      <identifier>oai:zenodo.org:570113</identifier>
      <datestamp>2017-05-01T07:41:53Z</datestamp>
      <setSpec>user-biosyslit</setSpec>
    </header>
    <header>
      <identifier>oai:zenodo.org:571007</identifier>
      <datestamp>2017-05-03T07:31:05Z</datestamp>
      <setSpec>user-biosyslit</setSpec>
    </header>
    <header>
      <identifier>oai:zenodo.org:571663</identifier>
      <datestamp>2017-05-05T08:12:00Z</datestamp>
      <setSpec>user-biosyslit</setSpec>
    </header>
    <header>
      <identifier>oai:zenodo.org:571325</identifier>
      <datestamp>2017-05-04T07:41:17Z</datestamp>
      <setSpec>user-biosyslit</setSpec>
    </header>
    <header>
      <identifier>oai:zenodo.org:572605</identifier>
      <datestamp>2017-05-08T10:59:56Z</datestamp>
      <setSpec>user-biosyslit</setSpec>
    </header>
    <header>
      <identifier>oai:zenodo.org:573116</identifier>
      <datestamp>2017-05-09T08:23:06Z</datestamp>
      <setSpec>user-biosyslit</setSpec>
    </header>
    <header>
      <identifier>oai:zenodo.org:572539</identifier>
      <datestamp>2017-05-08T07:35:46Z</datestamp>
      <setSpec>user-biosyslit</setSpec>
    </header>
    <header>
      <identifier>oai:zenodo.org:570125</identifier>
      <datestamp>2017-05-01T07:59:30Z</datestamp>
      <setSpec>user-biosyslit</setSpec>
    </header>
    <header>
      <identifier>oai:zenodo.org:571037</identifier>
      <datestamp>2017-05-03T08:03:50Z</datestamp>
      <setSpec>user-biosyslit</setSpec>
    </header>
    <header>
      <identifier>oai:zenodo.org:571649</identifier>
      <datestamp>2017-05-05T08:11:27Z</datestamp>
      <setSpec>user-biosyslit</setSpec>
    </header>
    <header>
      <identifier>oai:zenodo.org:571626</identifier>
      <datestamp>2017-05-05T08:10:32Z</datestamp>
      <setSpec>user-biosyslit</setSpec>
    </header>
    <header>
      <identifier>oai:zenodo.org:571669</identifier>
      <datestamp>2017-05-05T08:12:14Z</datestamp>
      <setSpec>user-biosyslit</setSpec>
    </header>
    <header>
      <identifier>oai:zenodo.org:570408</identifier>
      <datestamp>2017-05-02T07:19:14Z</datestamp>
      <setSpec>user-biosyslit</setSpec>
    </header>
    <header>
      <identifier>oai:zenodo.org:573153</identifier>
      <datestamp>2017-05-09T09:03:54Z</datestamp>
      <setSpec>user-biosyslit</setSpec>
    </header>
    <header>
      <identifier>oai:zenodo.org:556054</identifier>
      <datestamp>2017-04-19T07:48:51Z</datestamp>
      <setSpec>user-biosyslit</setSpec>
    </header>
    <header>
      <identifier>oai:zenodo.org:570130</identifier>
      <datestamp>2017-05-01T07:59:43Z</datestamp>
      <setSpec>user-biosyslit</setSpec>
    </header>
    <header>
      <identifier>oai:zenodo.org:556899</identifier>
      <datestamp>2017-04-24T08:07:13Z</datestamp>
      <setSpec>user-biosyslit</setSpec>
    </header>
    <header>
      <identifier>oai:zenodo.org:556903</identifier>
      <datestamp>2017-04-24T08:07:29Z</datestamp>
      <setSpec>user-biosyslit</setSpec>
    </header>
    <header>
      <identifier>oai:zenodo.org:556496</identifier>
      <datestamp>2017-04-21T08:46:08Z</datestamp>
      <setSpec>user-biosyslit</setSpec>
    </header>
    <header>
      <identifier>oai:zenodo.org:556458</identifier>
      <datestamp>2017-04-20T21:21:08Z</datestamp>
      <setSpec>user-biosyslit</setSpec>
    </header>
    <header>
      <identifier>oai:zenodo.org:571014</identifier>
      <datestamp>2017-05-03T07:31:23Z</datestamp>
      <setSpec>user-biosyslit</setSpec>
    </header>
    <header>
      <identifier>oai:zenodo.org:570443</identifier>
      <datestamp>2017-05-02T08:02:41Z</datestamp>
      <setSpec>user-biosyslit</setSpec>
    </header>
    <header>
      <identifier>oai:zenodo.org:571620</identifier>
      <datestamp>2017-05-05T08:10:18Z</datestamp>
      <setSpec>user-biosyslit</setSpec>
    </header>
    <header>
      <identifier>oai:zenodo.org:570930</identifier>
      <datestamp>2017-05-19T12:51:27Z</datestamp>
      <setSpec>openaire</setSpec>
      <setSpec>user-biosyslit</setSpec>
    </header>
    <header>
      <identifier>oai:zenodo.org:571046</identifier>
      <datestamp>2017-05-03T08:16:06Z</datestamp>
      <setSpec>user-biosyslit</setSpec>
    </header>
    <header>
      <identifier>oai:zenodo.org:569463</identifier>
      <datestamp>2017-04-27T08:46:00Z</datestamp>
      <setSpec>user-biosyslit</setSpec>
    </header>
    <header>
      <identifier>oai:zenodo.org:495073</identifier>
      <datestamp>2017-04-05T07:40:56Z</datestamp>
      <setSpec>user-biosyslit</setSpec>
    </header>
    <header>
      <identifier>oai:zenodo.org:571641</identifier>
      <datestamp>2017-05-05T08:11:07Z</datestamp>
      <setSpec>user-biosyslit</setSpec>
    </header>
    <header>
      <identifier>oai:zenodo.org:572600</identifier>
      <datestamp>2017-05-08T10:51:10Z</datestamp>
      <setSpec>user-biosyslit</setSpec>
    </header>
    <header>
      <identifier>oai:zenodo.org:573162</identifier>
      <datestamp>2017-05-09T09:03:53Z</datestamp>
      <setSpec>user-biosyslit</setSpec>
    </header>
    <header>
      <identifier>oai:zenodo.org:573103</identifier>
      <datestamp>2017-05-09T08:07:31Z</datestamp>
      <setSpec>user-biosyslit</setSpec>
    </header>
    <header>
      <identifier>oai:zenodo.org:556875</identifier>
      <datestamp>2017-04-24T08:05:55Z</datestamp>
      <setSpec>user-biosyslit</setSpec>
    </header>
    <header>
      <identifier>oai:zenodo.org:569781</identifier>
      <datestamp>2017-04-28T08:15:51Z</datestamp>
      <setSpec>user-biosyslit</setSpec>
    </header>
    <header>
      <identifier>oai:zenodo.org:571011</identifier>
      <datestamp>2017-05-03T07:31:14Z</datestamp>
      <setSpec>user-biosyslit</setSpec>
    </header>
    <header>
      <identifier>oai:zenodo.org:573096</identifier>
      <datestamp>2017-05-09T08:03:08Z</datestamp>
      <setSpec>user-biosyslit</setSpec>
    </header>
    <header>
      <identifier>oai:zenodo.org:573195</identifier>
      <datestamp>2017-05-09T09:40:38Z</datestamp>
      <setSpec>user-biosyslit</setSpec>
    </header>
    <header>
      <identifier>oai:zenodo.org:571714</identifier>
      <datestamp>2017-05-05T08:35:31Z</datestamp>
      <setSpec>user-biosyslit</setSpec>
    </header>
    <header>
      <identifier>oai:zenodo.org:572511</identifier>
      <datestamp>2017-05-08T07:19:23Z</datestamp>
      <setSpec>user-biosyslit</setSpec>
    </header>
    <header>
      <identifier>oai:zenodo.org:572590</identifier>
      <datestamp>2017-05-08T10:38:51Z</datestamp>
      <setSpec>user-biosyslit</setSpec>
    </header>
    <header>
      <identifier>oai:zenodo.org:571701</identifier>
      <datestamp>2017-05-05T08:34:57Z</datestamp>
      <setSpec>user-biosyslit</setSpec>
    </header>
    <header>
      <identifier>oai:zenodo.org:573058</identifier>
      <datestamp>2017-05-09T07:18:47Z</datestamp>
      <setSpec>user-biosyslit</setSpec>
    </header>
    <header>
      <identifier>oai:zenodo.org:495830</identifier>
      <datestamp>2017-04-10T07:20:58Z</datestamp>
      <setSpec>user-biosyslit</setSpec>
    </header>
    <header>
      <identifier>oai:zenodo.org:495334</identifier>
      <datestamp>2017-04-06T08:03:06Z</datestamp>
      <setSpec>user-biosyslit</setSpec>
    </header>
    <header>
      <identifier>oai:zenodo.org:570428</identifier>
      <datestamp>2017-05-02T07:38:48Z</datestamp>
      <setSpec>user-biosyslit</setSpec>
    </header>
    <header>
      <identifier>oai:zenodo.org:495282</identifier>
      <datestamp>2017-04-06T07:16:38Z</datestamp>
      <setSpec>user-biosyslit</setSpec>
    </header>
    <header>
      <identifier>oai:zenodo.org:495401</identifier>
      <datestamp>2017-04-06T12:53:10Z</datestamp>
      <setSpec>user-biosyslit</setSpec>
    </header>
    <header>
      <identifier>oai:zenodo.org:496984</identifier>
      <datestamp>2017-04-11T07:48:12Z</datestamp>
      <setSpec>user-biosyslit</setSpec>
    </header>
    <header>
      <identifier>oai:zenodo.org:573146</identifier>
      <datestamp>2017-05-09T08:48:12Z</datestamp>
      <setSpec>user-biosyslit</setSpec>
    </header>
    <header>
      <identifier>oai:zenodo.org:495560</identifier>
      <datestamp>2017-04-07T07:58:38Z</datestamp>
      <setSpec>user-biosyslit</setSpec>
    </header>
    <header>
      <identifier>oai:zenodo.org:495866</identifier>
      <datestamp>2017-04-10T08:01:46Z</datestamp>
      <setSpec>user-biosyslit</setSpec>
    </header>
    <header>
      <identifier>oai:zenodo.org:573085</identifier>
      <datestamp>2017-05-09T07:47:39Z</datestamp>
      <setSpec>user-biosyslit</setSpec>
    </header>
    <header>
      <identifier>oai:zenodo.org:573074</identifier>
      <datestamp>2017-05-09T07:31:23Z</datestamp>
      <setSpec>user-biosyslit</setSpec>
    </header>
    <header>
      <identifier>oai:zenodo.org:545914</identifier>
      <datestamp>2017-04-13T08:06:56Z</datestamp>
      <setSpec>user-biosyslit</setSpec>
    </header>
    <header>
      <identifier>oai:zenodo.org:571013</identifier>
      <datestamp>2017-05-03T07:31:21Z</datestamp>
      <setSpec>user-biosyslit</setSpec>
    </header>
    <header>
      <identifier>oai:zenodo.org:556905</identifier>
      <datestamp>2017-04-24T08:07:35Z</datestamp>
      <setSpec>user-biosyslit</setSpec>
    </header>
    <header>
      <identifier>oai:zenodo.org:569768</identifier>
      <datestamp>2017-04-28T07:57:27Z</datestamp>
      <setSpec>user-biosyslit</setSpec>
    </header>
    <header>
      <identifier>oai:zenodo.org:569449</identifier>
      <datestamp>2017-04-27T08:26:43Z</datestamp>
      <setSpec>user-biosyslit</setSpec>
    </header>
    <header>
      <identifier>oai:zenodo.org:571312</identifier>
      <datestamp>2017-05-04T07:40:40Z</datestamp>
      <setSpec>user-biosyslit</setSpec>
    </header>
    <header>
      <identifier>oai:zenodo.org:570111</identifier>
      <datestamp>2017-05-01T07:41:48Z</datestamp>
      <setSpec>user-biosyslit</setSpec>
    </header>
    <header>
      <identifier>oai:zenodo.org:571612</identifier>
      <datestamp>2017-05-05T08:09:54Z</datestamp>
      <setSpec>user-biosyslit</setSpec>
    </header>
    <header>
      <identifier>oai:zenodo.org:571640</identifier>
      <datestamp>2017-05-05T08:11:05Z</datestamp>
      <setSpec>user-biosyslit</setSpec>
    </header>
    <header>
      <identifier>oai:zenodo.org:571652</identifier>
      <datestamp>2017-05-05T08:11:34Z</datestamp>
      <setSpec>user-biosyslit</setSpec>
    </header>
    <header>
      <identifier>oai:zenodo.org:572506</identifier>
      <datestamp>2017-05-08T07:19:11Z</datestamp>
      <setSpec>user-biosyslit</setSpec>
    </header>
    <header>
      <identifier>oai:zenodo.org:572626</identifier>
      <datestamp>2017-05-08T11:41:12Z</datestamp>
      <setSpec>user-biosyslit</setSpec>
    </header>
    <header>
      <identifier>oai:zenodo.org:572504</identifier>
      <datestamp>2017-05-08T07:19:56Z</datestamp>
      <setSpec>user-biosyslit</setSpec>
    </header>
    <header>
      <identifier>oai:zenodo.org:573205</identifier>
      <datestamp>2017-05-09T09:48:10Z</datestamp>
      <setSpec>user-biosyslit</setSpec>
    </header>
    <header>
      <identifier>oai:zenodo.org:438232</identifier>
      <datestamp>2017-03-27T07:44:32Z</datestamp>
      <setSpec>user-biosyslit</setSpec>
    </header>
    <header>
      <identifier>oai:zenodo.org:438580</identifier>
      <datestamp>2017-03-28T07:34:04Z</datestamp>
      <setSpec>user-biosyslit</setSpec>
    </header>
    <header>
      <identifier>oai:zenodo.org:571685</identifier>
      <datestamp>2017-05-05T08:34:17Z</datestamp>
      <setSpec>user-biosyslit</setSpec>
    </header>
    <header>
      <identifier>oai:zenodo.org:438543</identifier>
      <datestamp>2017-03-28T07:24:03Z</datestamp>
      <setSpec>user-biosyslit</setSpec>
    </header>
    <header>
      <identifier>oai:zenodo.org:571692</identifier>
      <datestamp>2017-05-05T08:34:35Z</datestamp>
      <setSpec>user-biosyslit</setSpec>
    </header>
    <header>
      <identifier>oai:zenodo.org:439860</identifier>
      <datestamp>2017-04-03T09:39:18Z</datestamp>
      <setSpec>user-biosyslit</setSpec>
    </header>
    <header>
      <identifier>oai:zenodo.org:572535</identifier>
      <datestamp>2017-05-08T07:35:28Z</datestamp>
      <setSpec>user-biosyslit</setSpec>
    </header>
    <header>
      <identifier>oai:zenodo.org:572565</identifier>
      <datestamp>2017-05-08T08:08:34Z</datestamp>
      <setSpec>user-biosyslit</setSpec>
    </header>
    <header>
      <identifier>oai:zenodo.org:495311</identifier>
      <datestamp>2017-04-06T07:41:22Z</datestamp>
      <setSpec>user-biosyslit</setSpec>
    </header>
    <header>
      <identifier>oai:zenodo.org:569439</identifier>
      <datestamp>2017-04-27T08:15:49Z</datestamp>
      <setSpec>user-biosyslit</setSpec>
    </header>
    <header>
      <identifier>oai:zenodo.org:570117</identifier>
      <datestamp>2017-05-01T07:51:45Z</datestamp>
      <setSpec>user-biosyslit</setSpec>
    </header>
    <header>
      <identifier>oai:zenodo.org:569738</identifier>
      <datestamp>2017-04-28T07:22:01Z</datestamp>
      <setSpec>user-biosyslit</setSpec>
    </header>
    <header>
      <identifier>oai:zenodo.org:572532</identifier>
      <datestamp>2017-05-08T07:35:17Z</datestamp>
      <setSpec>user-biosyslit</setSpec>
    </header>
    <header>
      <identifier>oai:zenodo.org:573088</identifier>
      <datestamp>2017-05-09T07:49:44Z</datestamp>
      <setSpec>user-biosyslit</setSpec>
    </header>
    <header>
      <identifier>oai:zenodo.org:573056</identifier>
      <datestamp>2017-05-09T07:18:39Z</datestamp>
      <setSpec>user-biosyslit</setSpec>
    </header>
    <header>
      <identifier>oai:zenodo.org:569732</identifier>
      <datestamp>2017-04-28T07:21:45Z</datestamp>
      <setSpec>user-biosyslit</setSpec>
    </header>
    <header>
      <identifier>oai:zenodo.org:570086</identifier>
      <datestamp>2017-05-01T07:13:55Z</datestamp>
      <setSpec>user-biosyslit</setSpec>
    </header>
    <header>
      <identifier>oai:zenodo.org:573149</identifier>
      <datestamp>2017-05-09T08:50:28Z</datestamp>
      <setSpec>user-biosyslit</setSpec>
    </header>
    <header>
      <identifier>oai:zenodo.org:573076</identifier>
      <datestamp>2017-05-09T07:31:29Z</datestamp>
      <setSpec>user-biosyslit</setSpec>
    </header>
    <header>
      <identifier>oai:zenodo.org:570432</identifier>
      <datestamp>2017-05-02T07:51:13Z</datestamp>
      <setSpec>user-biosyslit</setSpec>
    </header>
    <header>
      <identifier>oai:zenodo.org:573132</identifier>
      <datestamp>2017-05-09T08:30:53Z</datestamp>
      <setSpec>user-biosyslit</setSpec>
    </header>
    <header>
      <identifier>oai:zenodo.org:570444</identifier>
      <datestamp>2017-05-02T08:02:44Z</datestamp>
      <setSpec>user-biosyslit</setSpec>
    </header>
    <resumptionToken expirationDate="2017-08-31T15:47:00Z" cursor="58100" completeListSize="77796">.eJyNyrsOgjAUANB_uTMxffCSxIWgxEFIqRBhMVgIUYsSqhFq-HdZnHU-5w2qrivw0AKbDrEtC5Gl65iIENsAJfq7lMfz7CAOmRQ3mZZh9kzaDOWkcaJADbsgp5G-orjFmm8YOWB3SM9oZPv0ketkyOj2xdHa2Wk2Rpft_Coah7I4hR1Pb77kpOrjNRs59nlBxffhP5_--QK1AgO6sqnBs1xqwPVV9o0C7z1NH81zUXE.DInAfA.Ec_FUn7Nbip6ur81LAcKOlNOEq4</resumptionToken>
  </ListIdentifiers>
</OAI-PMH>
