<?xml version='1.0' encoding='UTF-8'?>
<?xml-stylesheet type="text/xsl" href="/static/xsl/oai2.v1.0.xsl"?>
<OAI-PMH xmlns="http://www.openarchives.org/OAI/2.0/" xmlns:xsi="http://www.w3.org/2001/XMLSchema-instance" xsi:schemaLocation="http://www.openarchives.org/OAI/2.0/ http://www.openarchives.org/OAI/2.0/OAI-PMH.xsd">
  <responseDate>2017-08-31T15:45:16Z</responseDate>
  <request verb="ListIdentifiers" resumptionToken=".eJyNz70OQ0AAAOB3uVmbO-c_6SJUDAhXUpZGEVFHxbXBiXevpXO7f8u3AlZVJTCUI5JlSVR0qCpI0SW5OkBZAKwYn5Teml2A4prQoqdx7iTvqEtgKtaqb7HZs1Ls8xYGHeLkHIpXpM1xA5fwEr9SHs0JdicCbdXj4eI_3N2VOHBodncGEvcmJWI5Bna4EGSSDBdfh_50_Kez2AkIYMjran8iTQDtlI81A8a6bR9nelIN.DInAjA.A2TVV9Ls3BqNFghgZB8lJ0vFVFE">https://zenodo.org/oai2d</request>
  <ListIdentifiers>
    <header>
      <identifier>oai:zenodo.org:282609</identifier>
      <datestamp>2017-02-09T07:17:53Z</datestamp>
      <setSpec>user-biosyslit</setSpec>
    </header>
    <header>
      <identifier>oai:zenodo.org:282610</identifier>
      <datestamp>2017-02-09T07:17:55Z</datestamp>
      <setSpec>user-biosyslit</setSpec>
    </header>
    <header>
      <identifier>oai:zenodo.org:282598</identifier>
      <datestamp>2017-02-09T07:17:29Z</datestamp>
      <setSpec>user-biosyslit</setSpec>
    </header>
    <header>
      <identifier>oai:zenodo.org:282599</identifier>
      <datestamp>2017-02-09T07:17:31Z</datestamp>
      <setSpec>user-biosyslit</setSpec>
    </header>
    <header>
      <identifier>oai:zenodo.org:282605</identifier>
      <datestamp>2017-02-09T07:17:44Z</datestamp>
      <setSpec>user-biosyslit</setSpec>
    </header>
    <header>
      <identifier>oai:zenodo.org:282601</identifier>
      <datestamp>2017-02-09T07:17:35Z</datestamp>
      <setSpec>user-biosyslit</setSpec>
    </header>
    <header>
      <identifier>oai:zenodo.org:282607</identifier>
      <datestamp>2017-02-09T07:17:48Z</datestamp>
      <setSpec>user-biosyslit</setSpec>
    </header>
    <header>
      <identifier>oai:zenodo.org:282604</identifier>
      <datestamp>2017-02-09T07:17:42Z</datestamp>
      <setSpec>user-biosyslit</setSpec>
    </header>
    <header>
      <identifier>oai:zenodo.org:239812</identifier>
      <datestamp>2017-01-12T01:15:04Z</datestamp>
      <setSpec>user-biosyslit</setSpec>
    </header>
    <header>
      <identifier>oai:zenodo.org:239814</identifier>
      <datestamp>2017-01-12T01:15:10Z</datestamp>
      <setSpec>user-biosyslit</setSpec>
    </header>
    <header>
      <identifier>oai:zenodo.org:247836</identifier>
      <datestamp>2017-01-16T20:35:28Z</datestamp>
      <setSpec>user-biosyslit</setSpec>
    </header>
    <header>
      <identifier>oai:zenodo.org:244773</identifier>
      <datestamp>2017-01-15T02:17:15Z</datestamp>
      <setSpec>user-biosyslit</setSpec>
    </header>
    <header>
      <identifier>oai:zenodo.org:244772</identifier>
      <datestamp>2017-01-15T02:17:11Z</datestamp>
      <setSpec>user-biosyslit</setSpec>
    </header>
    <header>
      <identifier>oai:zenodo.org:244775</identifier>
      <datestamp>2017-01-15T02:17:23Z</datestamp>
      <setSpec>user-biosyslit</setSpec>
    </header>
    <header>
      <identifier>oai:zenodo.org:283358</identifier>
      <datestamp>2017-02-09T08:41:13Z</datestamp>
      <setSpec>user-biosyslit</setSpec>
    </header>
    <header>
      <identifier>oai:zenodo.org:283355</identifier>
      <datestamp>2017-02-09T08:41:06Z</datestamp>
      <setSpec>user-biosyslit</setSpec>
    </header>
    <header>
      <identifier>oai:zenodo.org:283354</identifier>
      <datestamp>2017-02-09T08:41:03Z</datestamp>
      <setSpec>user-biosyslit</setSpec>
    </header>
    <header>
      <identifier>oai:zenodo.org:274339</identifier>
      <datestamp>2017-02-08T12:59:07Z</datestamp>
      <setSpec>user-biosyslit</setSpec>
    </header>
    <header>
      <identifier>oai:zenodo.org:274341</identifier>
      <datestamp>2017-02-08T12:59:03Z</datestamp>
      <setSpec>user-biosyslit</setSpec>
    </header>
    <header>
      <identifier>oai:zenodo.org:274340</identifier>
      <datestamp>2017-02-08T12:59:00Z</datestamp>
      <setSpec>user-biosyslit</setSpec>
    </header>
    <header>
      <identifier>oai:zenodo.org:279481</identifier>
      <datestamp>2017-02-09T01:31:15Z</datestamp>
      <setSpec>user-biosyslit</setSpec>
    </header>
    <header>
      <identifier>oai:zenodo.org:279511</identifier>
      <datestamp>2017-02-09T01:31:12Z</datestamp>
      <setSpec>user-biosyslit</setSpec>
    </header>
    <header>
      <identifier>oai:zenodo.org:279512</identifier>
      <datestamp>2017-02-09T01:31:14Z</datestamp>
      <setSpec>user-biosyslit</setSpec>
    </header>
    <header>
      <identifier>oai:zenodo.org:234065</identifier>
      <datestamp>2017-01-08T14:31:13Z</datestamp>
      <setSpec>user-biosyslit</setSpec>
    </header>
    <header>
      <identifier>oai:zenodo.org:234057</identifier>
      <datestamp>2017-01-08T14:30:38Z</datestamp>
      <setSpec>user-biosyslit</setSpec>
    </header>
    <header>
      <identifier>oai:zenodo.org:234060</identifier>
      <datestamp>2017-01-08T14:30:51Z</datestamp>
      <setSpec>user-biosyslit</setSpec>
    </header>
    <header>
      <identifier>oai:zenodo.org:234059</identifier>
      <datestamp>2017-01-08T14:30:48Z</datestamp>
      <setSpec>user-biosyslit</setSpec>
    </header>
    <header>
      <identifier>oai:zenodo.org:234062</identifier>
      <datestamp>2017-01-08T14:30:59Z</datestamp>
      <setSpec>user-biosyslit</setSpec>
    </header>
    <header>
      <identifier>oai:zenodo.org:234053</identifier>
      <datestamp>2017-01-08T14:30:22Z</datestamp>
      <setSpec>user-biosyslit</setSpec>
    </header>
    <header>
      <identifier>oai:zenodo.org:277772</identifier>
      <datestamp>2017-02-08T21:47:22Z</datestamp>
      <setSpec>user-biosyslit</setSpec>
    </header>
    <header>
      <identifier>oai:zenodo.org:234056</identifier>
      <datestamp>2017-01-08T14:30:33Z</datestamp>
      <setSpec>user-biosyslit</setSpec>
    </header>
    <header>
      <identifier>oai:zenodo.org:277775</identifier>
      <datestamp>2017-02-08T21:47:32Z</datestamp>
      <setSpec>user-biosyslit</setSpec>
    </header>
    <header>
      <identifier>oai:zenodo.org:280252</identifier>
      <datestamp>2017-02-09T03:03:48Z</datestamp>
      <setSpec>user-biosyslit</setSpec>
    </header>
    <header>
      <identifier>oai:zenodo.org:247194</identifier>
      <datestamp>2017-01-16T12:03:21Z</datestamp>
      <setSpec>user-biosyslit</setSpec>
    </header>
    <header>
      <identifier>oai:zenodo.org:279514</identifier>
      <datestamp>2017-02-09T01:33:26Z</datestamp>
      <setSpec>user-biosyslit</setSpec>
    </header>
    <header>
      <identifier>oai:zenodo.org:247198</identifier>
      <datestamp>2017-01-16T12:03:34Z</datestamp>
      <setSpec>user-biosyslit</setSpec>
    </header>
    <header>
      <identifier>oai:zenodo.org:279515</identifier>
      <datestamp>2017-02-09T01:33:28Z</datestamp>
      <setSpec>user-biosyslit</setSpec>
    </header>
    <header>
      <identifier>oai:zenodo.org:238126</identifier>
      <datestamp>2017-01-11T01:22:25Z</datestamp>
      <setSpec>user-biosyslit</setSpec>
    </header>
    <header>
      <identifier>oai:zenodo.org:399756</identifier>
      <datestamp>2017-03-15T23:54:39Z</datestamp>
      <setSpec>user-biosyslit</setSpec>
    </header>
    <header>
      <identifier>oai:zenodo.org:399755</identifier>
      <datestamp>2017-03-15T23:54:36Z</datestamp>
      <setSpec>user-biosyslit</setSpec>
    </header>
    <header>
      <identifier>oai:zenodo.org:399976</identifier>
      <datestamp>2017-03-16T01:57:33Z</datestamp>
      <setSpec>user-biosyslit</setSpec>
    </header>
    <header>
      <identifier>oai:zenodo.org:258267</identifier>
      <datestamp>2017-01-23T20:03:29Z</datestamp>
      <setSpec>user-biosyslit</setSpec>
    </header>
    <header>
      <identifier>oai:zenodo.org:258268</identifier>
      <datestamp>2017-01-23T20:03:33Z</datestamp>
      <setSpec>user-biosyslit</setSpec>
    </header>
    <header>
      <identifier>oai:zenodo.org:258271</identifier>
      <datestamp>2017-01-23T20:03:42Z</datestamp>
      <setSpec>user-biosyslit</setSpec>
    </header>
    <header>
      <identifier>oai:zenodo.org:258275</identifier>
      <datestamp>2017-01-23T20:03:54Z</datestamp>
      <setSpec>user-biosyslit</setSpec>
    </header>
    <header>
      <identifier>oai:zenodo.org:283170</identifier>
      <datestamp>2017-02-09T08:17:07Z</datestamp>
      <setSpec>user-biosyslit</setSpec>
    </header>
    <header>
      <identifier>oai:zenodo.org:281334</identifier>
      <datestamp>2017-02-09T05:08:45Z</datestamp>
      <setSpec>user-biosyslit</setSpec>
    </header>
    <header>
      <identifier>oai:zenodo.org:281331</identifier>
      <datestamp>2017-02-09T05:08:36Z</datestamp>
      <setSpec>user-biosyslit</setSpec>
    </header>
    <header>
      <identifier>oai:zenodo.org:281330</identifier>
      <datestamp>2017-02-09T05:08:34Z</datestamp>
      <setSpec>user-biosyslit</setSpec>
    </header>
    <header>
      <identifier>oai:zenodo.org:281326</identifier>
      <datestamp>2017-02-09T05:08:19Z</datestamp>
      <setSpec>user-biosyslit</setSpec>
    </header>
    <header>
      <identifier>oai:zenodo.org:281338</identifier>
      <datestamp>2017-02-09T05:08:56Z</datestamp>
      <setSpec>user-biosyslit</setSpec>
    </header>
    <header>
      <identifier>oai:zenodo.org:281333</identifier>
      <datestamp>2017-02-09T05:08:42Z</datestamp>
      <setSpec>user-biosyslit</setSpec>
    </header>
    <header>
      <identifier>oai:zenodo.org:281335</identifier>
      <datestamp>2017-02-09T05:08:49Z</datestamp>
      <setSpec>user-biosyslit</setSpec>
    </header>
    <header>
      <identifier>oai:zenodo.org:283174</identifier>
      <datestamp>2017-02-09T08:17:05Z</datestamp>
      <setSpec>user-biosyslit</setSpec>
    </header>
    <header>
      <identifier>oai:zenodo.org:241884</identifier>
      <datestamp>2017-01-13T07:20:29Z</datestamp>
      <setSpec>user-biosyslit</setSpec>
    </header>
    <header>
      <identifier>oai:zenodo.org:241888</identifier>
      <datestamp>2017-01-13T07:20:16Z</datestamp>
      <setSpec>user-biosyslit</setSpec>
    </header>
    <header>
      <identifier>oai:zenodo.org:241886</identifier>
      <datestamp>2017-01-13T07:20:09Z</datestamp>
      <setSpec>user-biosyslit</setSpec>
    </header>
    <header>
      <identifier>oai:zenodo.org:241891</identifier>
      <datestamp>2017-01-13T07:20:27Z</datestamp>
      <setSpec>user-biosyslit</setSpec>
    </header>
    <header>
      <identifier>oai:zenodo.org:241887</identifier>
      <datestamp>2017-01-13T07:20:13Z</datestamp>
      <setSpec>user-biosyslit</setSpec>
    </header>
    <header>
      <identifier>oai:zenodo.org:275995</identifier>
      <datestamp>2017-02-08T17:50:45Z</datestamp>
      <setSpec>user-biosyslit</setSpec>
    </header>
    <header>
      <identifier>oai:zenodo.org:275996</identifier>
      <datestamp>2017-02-08T17:50:48Z</datestamp>
      <setSpec>user-biosyslit</setSpec>
    </header>
    <header>
      <identifier>oai:zenodo.org:276000</identifier>
      <datestamp>2017-02-08T17:51:01Z</datestamp>
      <setSpec>user-biosyslit</setSpec>
    </header>
    <header>
      <identifier>oai:zenodo.org:276004</identifier>
      <datestamp>2017-02-08T17:51:16Z</datestamp>
      <setSpec>user-biosyslit</setSpec>
    </header>
    <header>
      <identifier>oai:zenodo.org:276002</identifier>
      <datestamp>2017-02-08T17:51:09Z</datestamp>
      <setSpec>user-biosyslit</setSpec>
    </header>
    <header>
      <identifier>oai:zenodo.org:275999</identifier>
      <datestamp>2017-02-08T17:50:58Z</datestamp>
      <setSpec>user-biosyslit</setSpec>
    </header>
    <header>
      <identifier>oai:zenodo.org:275997</identifier>
      <datestamp>2017-02-08T17:50:52Z</datestamp>
      <setSpec>user-biosyslit</setSpec>
    </header>
    <header>
      <identifier>oai:zenodo.org:276005</identifier>
      <datestamp>2017-02-08T17:51:18Z</datestamp>
      <setSpec>user-biosyslit</setSpec>
    </header>
    <header>
      <identifier>oai:zenodo.org:276001</identifier>
      <datestamp>2017-02-08T17:51:04Z</datestamp>
      <setSpec>user-biosyslit</setSpec>
    </header>
    <header>
      <identifier>oai:zenodo.org:275994</identifier>
      <datestamp>2017-02-08T17:52:46Z</datestamp>
      <setSpec>user-biosyslit</setSpec>
    </header>
    <header>
      <identifier>oai:zenodo.org:229053</identifier>
      <datestamp>2017-01-03T08:53:07Z</datestamp>
      <setSpec>user-biosyslit</setSpec>
    </header>
    <header>
      <identifier>oai:zenodo.org:276028</identifier>
      <datestamp>2017-02-08T17:52:25Z</datestamp>
      <setSpec>user-biosyslit</setSpec>
    </header>
    <header>
      <identifier>oai:zenodo.org:276026</identifier>
      <datestamp>2017-02-08T17:52:20Z</datestamp>
      <setSpec>user-biosyslit</setSpec>
    </header>
    <header>
      <identifier>oai:zenodo.org:276029</identifier>
      <datestamp>2017-02-08T17:52:29Z</datestamp>
      <setSpec>user-biosyslit</setSpec>
    </header>
    <header>
      <identifier>oai:zenodo.org:276025</identifier>
      <datestamp>2017-02-08T17:52:17Z</datestamp>
      <setSpec>user-biosyslit</setSpec>
    </header>
    <header>
      <identifier>oai:zenodo.org:276033</identifier>
      <datestamp>2017-02-08T17:52:42Z</datestamp>
      <setSpec>user-biosyslit</setSpec>
    </header>
    <header>
      <identifier>oai:zenodo.org:229050</identifier>
      <datestamp>2017-01-03T08:52:55Z</datestamp>
      <setSpec>user-biosyslit</setSpec>
    </header>
    <header>
      <identifier>oai:zenodo.org:252218</identifier>
      <datestamp>2017-01-19T10:59:04Z</datestamp>
      <setSpec>user-biosyslit</setSpec>
    </header>
    <header>
      <identifier>oai:zenodo.org:252237</identifier>
      <datestamp>2017-01-19T10:58:52Z</datestamp>
      <setSpec>user-biosyslit</setSpec>
    </header>
    <header>
      <identifier>oai:zenodo.org:252241</identifier>
      <datestamp>2017-01-19T10:59:02Z</datestamp>
      <setSpec>user-biosyslit</setSpec>
    </header>
    <header>
      <identifier>oai:zenodo.org:252240</identifier>
      <datestamp>2017-01-19T10:58:59Z</datestamp>
      <setSpec>user-biosyslit</setSpec>
    </header>
    <header>
      <identifier>oai:zenodo.org:252239</identifier>
      <datestamp>2017-01-19T10:58:57Z</datestamp>
      <setSpec>user-biosyslit</setSpec>
    </header>
    <header>
      <identifier>oai:zenodo.org:254068</identifier>
      <datestamp>2017-01-20T14:02:43Z</datestamp>
      <setSpec>user-biosyslit</setSpec>
    </header>
    <header>
      <identifier>oai:zenodo.org:254077</identifier>
      <datestamp>2017-01-20T14:03:08Z</datestamp>
      <setSpec>user-biosyslit</setSpec>
    </header>
    <header>
      <identifier>oai:zenodo.org:254069</identifier>
      <datestamp>2017-01-20T14:02:44Z</datestamp>
      <setSpec>user-biosyslit</setSpec>
    </header>
    <header>
      <identifier>oai:zenodo.org:254086</identifier>
      <datestamp>2017-01-20T14:03:31Z</datestamp>
      <setSpec>user-biosyslit</setSpec>
    </header>
    <header>
      <identifier>oai:zenodo.org:254084</identifier>
      <datestamp>2017-01-20T14:03:27Z</datestamp>
      <setSpec>user-biosyslit</setSpec>
    </header>
    <header>
      <identifier>oai:zenodo.org:254080</identifier>
      <datestamp>2017-01-20T14:03:15Z</datestamp>
      <setSpec>user-biosyslit</setSpec>
    </header>
    <header>
      <identifier>oai:zenodo.org:254078</identifier>
      <datestamp>2017-01-20T14:03:10Z</datestamp>
      <setSpec>user-biosyslit</setSpec>
    </header>
    <header>
      <identifier>oai:zenodo.org:229258</identifier>
      <datestamp>2017-01-03T13:23:49Z</datestamp>
      <setSpec>user-biosyslit</setSpec>
    </header>
    <header>
      <identifier>oai:zenodo.org:269394</identifier>
      <datestamp>2017-02-07T00:24:04Z</datestamp>
      <setSpec>user-biosyslit</setSpec>
    </header>
    <header>
      <identifier>oai:zenodo.org:269397</identifier>
      <datestamp>2017-02-07T00:24:14Z</datestamp>
      <setSpec>user-biosyslit</setSpec>
    </header>
    <header>
      <identifier>oai:zenodo.org:269396</identifier>
      <datestamp>2017-02-07T00:24:10Z</datestamp>
      <setSpec>user-biosyslit</setSpec>
    </header>
    <header>
      <identifier>oai:zenodo.org:229106</identifier>
      <datestamp>2017-01-03T09:40:12Z</datestamp>
      <setSpec>user-biosyslit</setSpec>
    </header>
    <header>
      <identifier>oai:zenodo.org:229107</identifier>
      <datestamp>2017-01-03T09:40:16Z</datestamp>
      <setSpec>user-biosyslit</setSpec>
    </header>
    <header>
      <identifier>oai:zenodo.org:229110</identifier>
      <datestamp>2017-01-03T09:40:24Z</datestamp>
      <setSpec>user-biosyslit</setSpec>
    </header>
    <header>
      <identifier>oai:zenodo.org:229108</identifier>
      <datestamp>2017-01-03T09:40:19Z</datestamp>
      <setSpec>user-biosyslit</setSpec>
    </header>
    <header>
      <identifier>oai:zenodo.org:229112</identifier>
      <datestamp>2017-01-03T09:40:30Z</datestamp>
      <setSpec>user-biosyslit</setSpec>
    </header>
    <header>
      <identifier>oai:zenodo.org:238858</identifier>
      <datestamp>2017-01-11T11:57:08Z</datestamp>
      <setSpec>user-biosyslit</setSpec>
    </header>
    <header>
      <identifier>oai:zenodo.org:273826</identifier>
      <datestamp>2017-02-08T10:53:35Z</datestamp>
      <setSpec>user-biosyslit</setSpec>
    </header>
    <header>
      <identifier>oai:zenodo.org:273828</identifier>
      <datestamp>2017-02-08T10:53:06Z</datestamp>
      <setSpec>user-biosyslit</setSpec>
    </header>
    <resumptionToken expirationDate="2017-08-31T15:47:16Z" cursor="61700" completeListSize="77796">.eJyNyssKgkAYQOF3-dcSc8krtBFNWqjopKSbMBUpRxOnUCd699y0Ls7yfC8QdV2BhTaYYk01sU6IumaoWwVEOd45P1_XD-Up5WXPk8JLn3GXoow0euCI2XcyGsgWhR2WbB-REzbm5IqW6Jg8MhnPKT1MDLm6L6MluB1WV9HQ4_nFG1jS25yRagzdaGHYZjktvw7_6eRP54gdKDAUTQ2Whk0F2qkYGwHW6_3-AMtrUW8.DInAjA.PkxX2BqFFR5fZWZQHNlQIPWBdB0</resumptionToken>
  </ListIdentifiers>
</OAI-PMH>
