<?xml version='1.0' encoding='UTF-8'?>
<?xml-stylesheet type="text/xsl" href="/static/xsl/oai2.v1.0.xsl"?>
<OAI-PMH xmlns="http://www.openarchives.org/OAI/2.0/" xmlns:xsi="http://www.w3.org/2001/XMLSchema-instance" xsi:schemaLocation="http://www.openarchives.org/OAI/2.0/ http://www.openarchives.org/OAI/2.0/OAI-PMH.xsd">
  <responseDate>2017-08-31T15:46:29Z</responseDate>
  <request verb="ListIdentifiers" resumptionToken=".eJyNyjEPQ0AYgOH_8s3S3NE4JF0aKgaEK8HSKCLqqLg2OPHfa-ncbm_yPivwqirBQAcdE01Dqk6OZE9dloAX45OxW7NvKJKYFT2Lcjt-h12MUrkmnsln10wVT7TI77Cgl0BOsDZHDVqCa_RKRTjHijNRZBFXBIv3cHZXKr7Nsrs90Kg_MyqXo28FC8VnminF1-E_nfjpTH4CCYa8rsAgRJWgnfKx5mCs2_YBsvRRXQ.DInA1Q.4RgiJjvmgwzyWq8CqaxKi2iC-n4">https://zenodo.org/oai2d</request>
  <ListIdentifiers>
    <header>
      <identifier>oai:zenodo.org:847504</identifier>
      <datestamp>2017-08-23T12:15:44Z</datestamp>
      <setSpec>user-biosyslit</setSpec>
    </header>
    <header>
      <identifier>oai:zenodo.org:847506</identifier>
      <datestamp>2017-08-23T12:15:48Z</datestamp>
      <setSpec>user-biosyslit</setSpec>
    </header>
    <header>
      <identifier>oai:zenodo.org:847500</identifier>
      <datestamp>2017-08-23T12:15:38Z</datestamp>
      <setSpec>user-biosyslit</setSpec>
    </header>
    <header>
      <identifier>oai:zenodo.org:847540</identifier>
      <datestamp>2017-08-23T12:18:07Z</datestamp>
      <setSpec>user-biosyslit</setSpec>
    </header>
    <header>
      <identifier>oai:zenodo.org:847532</identifier>
      <datestamp>2017-08-23T12:17:24Z</datestamp>
      <setSpec>user-biosyslit</setSpec>
    </header>
    <header>
      <identifier>oai:zenodo.org:847528</identifier>
      <datestamp>2017-08-23T12:17:17Z</datestamp>
      <setSpec>user-biosyslit</setSpec>
    </header>
    <header>
      <identifier>oai:zenodo.org:847534</identifier>
      <datestamp>2017-08-23T12:17:28Z</datestamp>
      <setSpec>user-biosyslit</setSpec>
    </header>
    <header>
      <identifier>oai:zenodo.org:847536</identifier>
      <datestamp>2017-08-23T12:17:31Z</datestamp>
      <setSpec>user-biosyslit</setSpec>
    </header>
    <header>
      <identifier>oai:zenodo.org:847530</identifier>
      <datestamp>2017-08-23T12:17:20Z</datestamp>
      <setSpec>user-biosyslit</setSpec>
    </header>
    <header>
      <identifier>oai:zenodo.org:847542</identifier>
      <datestamp>2017-08-23T12:18:11Z</datestamp>
      <setSpec>user-biosyslit</setSpec>
    </header>
    <header>
      <identifier>oai:zenodo.org:847522</identifier>
      <datestamp>2017-08-23T12:16:16Z</datestamp>
      <setSpec>user-biosyslit</setSpec>
    </header>
    <header>
      <identifier>oai:zenodo.org:847554</identifier>
      <datestamp>2017-08-23T12:19:37Z</datestamp>
      <setSpec>user-biosyslit</setSpec>
    </header>
    <header>
      <identifier>oai:zenodo.org:847560</identifier>
      <datestamp>2017-08-23T12:19:24Z</datestamp>
      <setSpec>user-biosyslit</setSpec>
    </header>
    <header>
      <identifier>oai:zenodo.org:847564</identifier>
      <datestamp>2017-08-23T12:19:34Z</datestamp>
      <setSpec>user-biosyslit</setSpec>
    </header>
    <header>
      <identifier>oai:zenodo.org:847546</identifier>
      <datestamp>2017-08-23T12:18:34Z</datestamp>
      <setSpec>user-biosyslit</setSpec>
    </header>
    <header>
      <identifier>oai:zenodo.org:847548</identifier>
      <datestamp>2017-08-23T12:18:38Z</datestamp>
      <setSpec>user-biosyslit</setSpec>
    </header>
    <header>
      <identifier>oai:zenodo.org:847552</identifier>
      <datestamp>2017-08-23T12:18:45Z</datestamp>
      <setSpec>user-biosyslit</setSpec>
    </header>
    <header>
      <identifier>oai:zenodo.org:847588</identifier>
      <datestamp>2017-08-23T12:43:53Z</datestamp>
      <setSpec>user-biosyslit</setSpec>
    </header>
    <header>
      <identifier>oai:zenodo.org:847584</identifier>
      <datestamp>2017-08-23T12:43:14Z</datestamp>
      <setSpec>user-biosyslit</setSpec>
    </header>
    <header>
      <identifier>oai:zenodo.org:847582</identifier>
      <datestamp>2017-08-23T12:43:10Z</datestamp>
      <setSpec>user-biosyslit</setSpec>
    </header>
    <header>
      <identifier>oai:zenodo.org:847580</identifier>
      <datestamp>2017-08-23T12:43:07Z</datestamp>
      <setSpec>user-biosyslit</setSpec>
    </header>
    <header>
      <identifier>oai:zenodo.org:847586</identifier>
      <datestamp>2017-08-23T12:43:18Z</datestamp>
      <setSpec>user-biosyslit</setSpec>
    </header>
    <header>
      <identifier>oai:zenodo.org:847631</identifier>
      <datestamp>2017-08-23T15:58:53Z</datestamp>
      <setSpec>openaire</setSpec>
      <setSpec>user-biosyslit</setSpec>
    </header>
    <header>
      <identifier>oai:zenodo.org:847645</identifier>
      <datestamp>2017-08-23T15:01:33Z</datestamp>
      <setSpec>user-biosyslit</setSpec>
    </header>
    <header>
      <identifier>oai:zenodo.org:847647</identifier>
      <datestamp>2017-08-23T15:01:37Z</datestamp>
      <setSpec>user-biosyslit</setSpec>
    </header>
    <header>
      <identifier>oai:zenodo.org:847649</identifier>
      <datestamp>2017-08-23T15:01:40Z</datestamp>
      <setSpec>user-biosyslit</setSpec>
    </header>
    <header>
      <identifier>oai:zenodo.org:847665</identifier>
      <datestamp>2017-08-23T15:02:09Z</datestamp>
      <setSpec>user-biosyslit</setSpec>
    </header>
    <header>
      <identifier>oai:zenodo.org:847659</identifier>
      <datestamp>2017-08-23T15:01:59Z</datestamp>
      <setSpec>user-biosyslit</setSpec>
    </header>
    <header>
      <identifier>oai:zenodo.org:847657</identifier>
      <datestamp>2017-08-23T15:01:55Z</datestamp>
      <setSpec>user-biosyslit</setSpec>
    </header>
    <header>
      <identifier>oai:zenodo.org:847687</identifier>
      <datestamp>2017-08-23T15:03:04Z</datestamp>
      <setSpec>user-biosyslit</setSpec>
    </header>
    <header>
      <identifier>oai:zenodo.org:847673</identifier>
      <datestamp>2017-08-23T15:02:26Z</datestamp>
      <setSpec>user-biosyslit</setSpec>
    </header>
    <header>
      <identifier>oai:zenodo.org:847651</identifier>
      <datestamp>2017-08-23T15:01:43Z</datestamp>
      <setSpec>user-biosyslit</setSpec>
    </header>
    <header>
      <identifier>oai:zenodo.org:847683</identifier>
      <datestamp>2017-08-23T15:02:52Z</datestamp>
      <setSpec>user-biosyslit</setSpec>
    </header>
    <header>
      <identifier>oai:zenodo.org:847671</identifier>
      <datestamp>2017-08-23T15:02:19Z</datestamp>
      <setSpec>user-biosyslit</setSpec>
    </header>
    <header>
      <identifier>oai:zenodo.org:847701</identifier>
      <datestamp>2017-08-23T15:03:36Z</datestamp>
      <setSpec>user-biosyslit</setSpec>
    </header>
    <header>
      <identifier>oai:zenodo.org:847693</identifier>
      <datestamp>2017-08-23T15:03:16Z</datestamp>
      <setSpec>user-biosyslit</setSpec>
    </header>
    <header>
      <identifier>oai:zenodo.org:847705</identifier>
      <datestamp>2017-08-23T15:03:44Z</datestamp>
      <setSpec>user-biosyslit</setSpec>
    </header>
    <header>
      <identifier>oai:zenodo.org:847689</identifier>
      <datestamp>2017-08-23T15:03:09Z</datestamp>
      <setSpec>user-biosyslit</setSpec>
    </header>
    <header>
      <identifier>oai:zenodo.org:847840</identifier>
      <datestamp>2017-08-24T04:53:41Z</datestamp>
      <setSpec>user-biosyslit</setSpec>
    </header>
    <header>
      <identifier>oai:zenodo.org:847816</identifier>
      <datestamp>2017-08-24T04:52:53Z</datestamp>
      <setSpec>user-biosyslit</setSpec>
    </header>
    <header>
      <identifier>oai:zenodo.org:847814</identifier>
      <datestamp>2017-08-24T04:52:48Z</datestamp>
      <setSpec>user-biosyslit</setSpec>
    </header>
    <header>
      <identifier>oai:zenodo.org:847830</identifier>
      <datestamp>2017-08-24T04:53:22Z</datestamp>
      <setSpec>user-biosyslit</setSpec>
    </header>
    <header>
      <identifier>oai:zenodo.org:847832</identifier>
      <datestamp>2017-08-24T04:53:26Z</datestamp>
      <setSpec>user-biosyslit</setSpec>
    </header>
    <header>
      <identifier>oai:zenodo.org:847834</identifier>
      <datestamp>2017-08-24T04:53:30Z</datestamp>
      <setSpec>user-biosyslit</setSpec>
    </header>
    <header>
      <identifier>oai:zenodo.org:847836</identifier>
      <datestamp>2017-08-24T04:53:33Z</datestamp>
      <setSpec>user-biosyslit</setSpec>
    </header>
    <header>
      <identifier>oai:zenodo.org:847818</identifier>
      <datestamp>2017-08-24T04:52:55Z</datestamp>
      <setSpec>user-biosyslit</setSpec>
    </header>
    <header>
      <identifier>oai:zenodo.org:847826</identifier>
      <datestamp>2017-08-24T04:53:15Z</datestamp>
      <setSpec>user-biosyslit</setSpec>
    </header>
    <header>
      <identifier>oai:zenodo.org:847850</identifier>
      <datestamp>2017-08-24T04:55:34Z</datestamp>
      <setSpec>user-biosyslit</setSpec>
    </header>
    <header>
      <identifier>oai:zenodo.org:847864</identifier>
      <datestamp>2017-08-24T04:56:07Z</datestamp>
      <setSpec>user-biosyslit</setSpec>
    </header>
    <header>
      <identifier>oai:zenodo.org:847858</identifier>
      <datestamp>2017-08-24T04:55:56Z</datestamp>
      <setSpec>user-biosyslit</setSpec>
    </header>
    <header>
      <identifier>oai:zenodo.org:847872</identifier>
      <datestamp>2017-08-24T04:56:23Z</datestamp>
      <setSpec>user-biosyslit</setSpec>
    </header>
    <header>
      <identifier>oai:zenodo.org:847860</identifier>
      <datestamp>2017-08-24T04:55:59Z</datestamp>
      <setSpec>user-biosyslit</setSpec>
    </header>
    <header>
      <identifier>oai:zenodo.org:847862</identifier>
      <datestamp>2017-08-24T04:56:03Z</datestamp>
      <setSpec>user-biosyslit</setSpec>
    </header>
    <header>
      <identifier>oai:zenodo.org:847844</identifier>
      <datestamp>2017-08-24T04:53:48Z</datestamp>
      <setSpec>user-biosyslit</setSpec>
    </header>
    <header>
      <identifier>oai:zenodo.org:847842</identifier>
      <datestamp>2017-08-24T04:53:45Z</datestamp>
      <setSpec>user-biosyslit</setSpec>
    </header>
    <header>
      <identifier>oai:zenodo.org:847848</identifier>
      <datestamp>2017-08-24T04:53:54Z</datestamp>
      <setSpec>user-biosyslit</setSpec>
    </header>
    <header>
      <identifier>oai:zenodo.org:847892</identifier>
      <datestamp>2017-08-24T04:56:59Z</datestamp>
      <setSpec>user-biosyslit</setSpec>
    </header>
    <header>
      <identifier>oai:zenodo.org:847896</identifier>
      <datestamp>2017-08-24T04:58:33Z</datestamp>
      <setSpec>user-biosyslit</setSpec>
    </header>
    <header>
      <identifier>oai:zenodo.org:847882</identifier>
      <datestamp>2017-08-24T04:56:41Z</datestamp>
      <setSpec>user-biosyslit</setSpec>
    </header>
    <header>
      <identifier>oai:zenodo.org:847888</identifier>
      <datestamp>2017-08-24T04:56:53Z</datestamp>
      <setSpec>user-biosyslit</setSpec>
    </header>
    <header>
      <identifier>oai:zenodo.org:847874</identifier>
      <datestamp>2017-08-24T04:56:27Z</datestamp>
      <setSpec>user-biosyslit</setSpec>
    </header>
    <header>
      <identifier>oai:zenodo.org:847906</identifier>
      <datestamp>2017-08-24T04:58:53Z</datestamp>
      <setSpec>user-biosyslit</setSpec>
    </header>
    <header>
      <identifier>oai:zenodo.org:847910</identifier>
      <datestamp>2017-08-24T04:59:00Z</datestamp>
      <setSpec>user-biosyslit</setSpec>
    </header>
    <header>
      <identifier>oai:zenodo.org:847886</identifier>
      <datestamp>2017-08-24T04:56:49Z</datestamp>
      <setSpec>user-biosyslit</setSpec>
    </header>
    <header>
      <identifier>oai:zenodo.org:847912</identifier>
      <datestamp>2017-08-24T04:59:04Z</datestamp>
      <setSpec>user-biosyslit</setSpec>
    </header>
    <header>
      <identifier>oai:zenodo.org:847926</identifier>
      <datestamp>2017-08-24T05:00:50Z</datestamp>
      <setSpec>user-biosyslit</setSpec>
    </header>
    <header>
      <identifier>oai:zenodo.org:847916</identifier>
      <datestamp>2017-08-24T04:59:55Z</datestamp>
      <setSpec>user-biosyslit</setSpec>
    </header>
    <header>
      <identifier>oai:zenodo.org:847940</identifier>
      <datestamp>2017-08-24T05:01:18Z</datestamp>
      <setSpec>user-biosyslit</setSpec>
    </header>
    <header>
      <identifier>oai:zenodo.org:847938</identifier>
      <datestamp>2017-08-24T05:01:15Z</datestamp>
      <setSpec>user-biosyslit</setSpec>
    </header>
    <header>
      <identifier>oai:zenodo.org:847920</identifier>
      <datestamp>2017-08-24T05:00:01Z</datestamp>
      <setSpec>user-biosyslit</setSpec>
    </header>
    <header>
      <identifier>oai:zenodo.org:847918</identifier>
      <datestamp>2017-08-24T04:59:58Z</datestamp>
      <setSpec>user-biosyslit</setSpec>
    </header>
    <header>
      <identifier>oai:zenodo.org:847930</identifier>
      <datestamp>2017-08-24T05:00:41Z</datestamp>
      <setSpec>user-biosyslit</setSpec>
    </header>
    <header>
      <identifier>oai:zenodo.org:847932</identifier>
      <datestamp>2017-08-24T05:00:44Z</datestamp>
      <setSpec>user-biosyslit</setSpec>
    </header>
    <header>
      <identifier>oai:zenodo.org:847934</identifier>
      <datestamp>2017-08-24T05:00:46Z</datestamp>
      <setSpec>user-biosyslit</setSpec>
    </header>
    <header>
      <identifier>oai:zenodo.org:847944</identifier>
      <datestamp>2017-08-24T05:02:07Z</datestamp>
      <setSpec>user-biosyslit</setSpec>
    </header>
    <header>
      <identifier>oai:zenodo.org:847954</identifier>
      <datestamp>2017-08-24T05:02:04Z</datestamp>
      <setSpec>user-biosyslit</setSpec>
    </header>
    <header>
      <identifier>oai:zenodo.org:847946</identifier>
      <datestamp>2017-08-24T05:01:50Z</datestamp>
      <setSpec>user-biosyslit</setSpec>
    </header>
    <header>
      <identifier>oai:zenodo.org:847952</identifier>
      <datestamp>2017-08-24T05:02:00Z</datestamp>
      <setSpec>user-biosyslit</setSpec>
    </header>
    <header>
      <identifier>oai:zenodo.org:847950</identifier>
      <datestamp>2017-08-24T05:01:57Z</datestamp>
      <setSpec>user-biosyslit</setSpec>
    </header>
    <header>
      <identifier>oai:zenodo.org:847970</identifier>
      <datestamp>2017-08-24T05:03:29Z</datestamp>
      <setSpec>user-biosyslit</setSpec>
    </header>
    <header>
      <identifier>oai:zenodo.org:847974</identifier>
      <datestamp>2017-08-24T05:03:36Z</datestamp>
      <setSpec>user-biosyslit</setSpec>
    </header>
    <header>
      <identifier>oai:zenodo.org:580889</identifier>
      <datestamp>2017-05-18T07:43:36Z</datestamp>
      <setSpec>user-biosyslit</setSpec>
    </header>
    <header>
      <identifier>oai:zenodo.org:580888</identifier>
      <datestamp>2017-05-18T07:43:33Z</datestamp>
      <setSpec>user-biosyslit</setSpec>
    </header>
    <header>
      <identifier>oai:zenodo.org:847960</identifier>
      <datestamp>2017-08-24T05:02:45Z</datestamp>
      <setSpec>user-biosyslit</setSpec>
    </header>
    <header>
      <identifier>oai:zenodo.org:847958</identifier>
      <datestamp>2017-08-24T05:02:40Z</datestamp>
      <setSpec>user-biosyslit</setSpec>
    </header>
    <header>
      <identifier>oai:zenodo.org:847956</identifier>
      <datestamp>2017-08-24T05:02:58Z</datestamp>
      <setSpec>user-biosyslit</setSpec>
    </header>
    <header>
      <identifier>oai:zenodo.org:847964</identifier>
      <datestamp>2017-08-24T05:02:51Z</datestamp>
      <setSpec>user-biosyslit</setSpec>
    </header>
    <header>
      <identifier>oai:zenodo.org:847966</identifier>
      <datestamp>2017-08-24T05:02:55Z</datestamp>
      <setSpec>user-biosyslit</setSpec>
    </header>
    <header>
      <identifier>oai:zenodo.org:848347</identifier>
      <datestamp>2017-08-25T05:50:28Z</datestamp>
      <setSpec>user-biosyslit</setSpec>
    </header>
    <header>
      <identifier>oai:zenodo.org:848349</identifier>
      <datestamp>2017-08-25T05:50:21Z</datestamp>
      <setSpec>user-biosyslit</setSpec>
    </header>
    <header>
      <identifier>oai:zenodo.org:848351</identifier>
      <datestamp>2017-08-25T05:50:24Z</datestamp>
      <setSpec>user-biosyslit</setSpec>
    </header>
    <header>
      <identifier>oai:zenodo.org:848355</identifier>
      <datestamp>2017-08-25T05:50:53Z</datestamp>
      <setSpec>user-biosyslit</setSpec>
    </header>
    <header>
      <identifier>oai:zenodo.org:848377</identifier>
      <datestamp>2017-08-25T05:52:01Z</datestamp>
      <setSpec>user-biosyslit</setSpec>
    </header>
    <header>
      <identifier>oai:zenodo.org:848379</identifier>
      <datestamp>2017-08-25T05:52:05Z</datestamp>
      <setSpec>user-biosyslit</setSpec>
    </header>
    <header>
      <identifier>oai:zenodo.org:848389</identifier>
      <datestamp>2017-08-25T05:52:21Z</datestamp>
      <setSpec>user-biosyslit</setSpec>
    </header>
    <header>
      <identifier>oai:zenodo.org:848387</identifier>
      <datestamp>2017-08-25T05:52:17Z</datestamp>
      <setSpec>user-biosyslit</setSpec>
    </header>
    <header>
      <identifier>oai:zenodo.org:848395</identifier>
      <datestamp>2017-08-25T05:53:34Z</datestamp>
      <setSpec>user-biosyslit</setSpec>
    </header>
    <header>
      <identifier>oai:zenodo.org:848413</identifier>
      <datestamp>2017-08-25T05:54:46Z</datestamp>
      <setSpec>user-biosyslit</setSpec>
    </header>
    <header>
      <identifier>oai:zenodo.org:848411</identifier>
      <datestamp>2017-08-25T05:54:42Z</datestamp>
      <setSpec>user-biosyslit</setSpec>
    </header>
    <header>
      <identifier>oai:zenodo.org:848294</identifier>
      <datestamp>2017-08-25T05:54:01Z</datestamp>
      <setSpec>openaire_data</setSpec>
      <setSpec>user-biosyslit</setSpec>
    </header>
    <resumptionToken expirationDate="2017-08-31T15:48:29Z" cursor="77500" completeListSize="77796">.eJyNz8EOQzAAgOF36VmW0lAkuwgTB6Q6gstiiJgy0S2oePe57Lyd_-_yb4DXdQVMeDKwhlUNqRCqUDF0LAFeTk_Gbu2RQZkmrBxYXLjJO-oTmCkNDmy--HaGAtHBsJcFvRAllfUlbuFKrvErE9GSIG-m0MG-IGvw8A5XodBl-d0daTxYjCrVFDpkpbJFc1R-nfynEz-dzc9AAmPR1MDE-Ljq5mJqODC3ff8ApVBRTw.DInA1Q.Yqk8SmKIOv0YmfN0novEah9Pq2s</resumptionToken>
  </ListIdentifiers>
</OAI-PMH>
