<?xml version='1.0' encoding='UTF-8'?>
<?xml-stylesheet type="text/xsl" href="/static/xsl/oai2.v1.0.xsl"?>
<OAI-PMH xmlns="http://www.openarchives.org/OAI/2.0/" xmlns:xsi="http://www.w3.org/2001/XMLSchema-instance" xsi:schemaLocation="http://www.openarchives.org/OAI/2.0/ http://www.openarchives.org/OAI/2.0/OAI-PMH.xsd">
  <responseDate>2017-08-31T15:45:51Z</responseDate>
  <request verb="ListIdentifiers" resumptionToken=".eJyNysEKgjAYAOB3-c8S2yx1QhexpIOKLiW9hKlIOU1coU5897x0rvP3zSDKsgATbYydhnVMjR3RiUYpVUDk_ZPz631lyC8xz1seZU78DpsYJaTSPVuMrp2onqyR32DJjgG5YGOM7mgKztErkeEYq6eBoYPuymDyHqf1Farv8PTmdCxqLc5I0fuHYGLYYqmafx_-88mfzxZ7UKDLqhJMjW4VqIesrwSY87J8ALKdUVw.DInArw.jb5JnZ8In_qMADzfs8vhsEIITWw">https://zenodo.org/oai2d</request>
  <ListIdentifiers>
    <header>
      <identifier>oai:zenodo.org:816001</identifier>
      <datestamp>2017-06-22T13:20:06Z</datestamp>
      <setSpec>user-biosyslit</setSpec>
    </header>
    <header>
      <identifier>oai:zenodo.org:815995</identifier>
      <datestamp>2017-06-22T13:19:53Z</datestamp>
      <setSpec>user-biosyslit</setSpec>
    </header>
    <header>
      <identifier>oai:zenodo.org:815999</identifier>
      <datestamp>2017-06-22T13:20:03Z</datestamp>
      <setSpec>user-biosyslit</setSpec>
    </header>
    <header>
      <identifier>oai:zenodo.org:251195</identifier>
      <datestamp>2017-01-18T19:51:59Z</datestamp>
      <setSpec>user-biosyslit</setSpec>
    </header>
    <header>
      <identifier>oai:zenodo.org:251190</identifier>
      <datestamp>2017-01-18T19:51:46Z</datestamp>
      <setSpec>user-biosyslit</setSpec>
    </header>
    <header>
      <identifier>oai:zenodo.org:251191</identifier>
      <datestamp>2017-01-18T19:51:49Z</datestamp>
      <setSpec>user-biosyslit</setSpec>
    </header>
    <header>
      <identifier>oai:zenodo.org:251197</identifier>
      <datestamp>2017-01-18T19:52:04Z</datestamp>
      <setSpec>user-biosyslit</setSpec>
    </header>
    <header>
      <identifier>oai:zenodo.org:251192</identifier>
      <datestamp>2017-01-18T19:51:52Z</datestamp>
      <setSpec>user-biosyslit</setSpec>
    </header>
    <header>
      <identifier>oai:zenodo.org:251199</identifier>
      <datestamp>2017-01-18T19:52:09Z</datestamp>
      <setSpec>user-biosyslit</setSpec>
    </header>
    <header>
      <identifier>oai:zenodo.org:251198</identifier>
      <datestamp>2017-01-18T19:52:07Z</datestamp>
      <setSpec>user-biosyslit</setSpec>
    </header>
    <header>
      <identifier>oai:zenodo.org:245932</identifier>
      <datestamp>2017-01-15T19:35:32Z</datestamp>
      <setSpec>user-biosyslit</setSpec>
    </header>
    <header>
      <identifier>oai:zenodo.org:245934</identifier>
      <datestamp>2017-01-15T19:35:38Z</datestamp>
      <setSpec>user-biosyslit</setSpec>
    </header>
    <header>
      <identifier>oai:zenodo.org:245931</identifier>
      <datestamp>2017-01-15T19:35:28Z</datestamp>
      <setSpec>user-biosyslit</setSpec>
    </header>
    <header>
      <identifier>oai:zenodo.org:245937</identifier>
      <datestamp>2017-01-15T19:35:48Z</datestamp>
      <setSpec>user-biosyslit</setSpec>
    </header>
    <header>
      <identifier>oai:zenodo.org:245933</identifier>
      <datestamp>2017-01-15T19:35:35Z</datestamp>
      <setSpec>user-biosyslit</setSpec>
    </header>
    <header>
      <identifier>oai:zenodo.org:245935</identifier>
      <datestamp>2017-01-15T19:35:42Z</datestamp>
      <setSpec>user-biosyslit</setSpec>
    </header>
    <header>
      <identifier>oai:zenodo.org:284556</identifier>
      <datestamp>2017-02-09T11:29:13Z</datestamp>
      <setSpec>user-biosyslit</setSpec>
    </header>
    <header>
      <identifier>oai:zenodo.org:284557</identifier>
      <datestamp>2017-02-09T11:29:15Z</datestamp>
      <setSpec>user-biosyslit</setSpec>
    </header>
    <header>
      <identifier>oai:zenodo.org:289392</identifier>
      <datestamp>2017-02-09T23:25:50Z</datestamp>
      <setSpec>user-biosyslit</setSpec>
    </header>
    <header>
      <identifier>oai:zenodo.org:229739</identifier>
      <datestamp>2017-01-03T21:37:15Z</datestamp>
      <setSpec>user-biosyslit</setSpec>
    </header>
    <header>
      <identifier>oai:zenodo.org:229735</identifier>
      <datestamp>2017-01-03T21:36:54Z</datestamp>
      <setSpec>user-biosyslit</setSpec>
    </header>
    <header>
      <identifier>oai:zenodo.org:289489</identifier>
      <datestamp>2017-02-09T23:41:37Z</datestamp>
      <setSpec>user-biosyslit</setSpec>
    </header>
    <header>
      <identifier>oai:zenodo.org:250710</identifier>
      <datestamp>2017-01-18T14:16:42Z</datestamp>
      <setSpec>user-biosyslit</setSpec>
    </header>
    <header>
      <identifier>oai:zenodo.org:250709</identifier>
      <datestamp>2017-01-18T14:16:39Z</datestamp>
      <setSpec>user-biosyslit</setSpec>
    </header>
    <header>
      <identifier>oai:zenodo.org:250708</identifier>
      <datestamp>2017-01-18T14:16:37Z</datestamp>
      <setSpec>user-biosyslit</setSpec>
    </header>
    <header>
      <identifier>oai:zenodo.org:250711</identifier>
      <datestamp>2017-01-18T14:16:45Z</datestamp>
      <setSpec>user-biosyslit</setSpec>
    </header>
    <header>
      <identifier>oai:zenodo.org:233298</identifier>
      <datestamp>2017-01-08T03:12:09Z</datestamp>
      <setSpec>user-biosyslit</setSpec>
    </header>
    <header>
      <identifier>oai:zenodo.org:233301</identifier>
      <datestamp>2017-01-08T03:12:19Z</datestamp>
      <setSpec>user-biosyslit</setSpec>
    </header>
    <header>
      <identifier>oai:zenodo.org:233297</identifier>
      <datestamp>2017-01-08T03:12:06Z</datestamp>
      <setSpec>user-biosyslit</setSpec>
    </header>
    <header>
      <identifier>oai:zenodo.org:233300</identifier>
      <datestamp>2017-01-08T03:12:16Z</datestamp>
      <setSpec>user-biosyslit</setSpec>
    </header>
    <header>
      <identifier>oai:zenodo.org:233299</identifier>
      <datestamp>2017-01-08T03:12:12Z</datestamp>
      <setSpec>user-biosyslit</setSpec>
    </header>
    <header>
      <identifier>oai:zenodo.org:399815</identifier>
      <datestamp>2017-03-15T23:59:21Z</datestamp>
      <setSpec>user-biosyslit</setSpec>
    </header>
    <header>
      <identifier>oai:zenodo.org:399817</identifier>
      <datestamp>2017-03-15T23:59:10Z</datestamp>
      <setSpec>user-biosyslit</setSpec>
    </header>
    <header>
      <identifier>oai:zenodo.org:399820</identifier>
      <datestamp>2017-03-15T23:59:19Z</datestamp>
      <setSpec>user-biosyslit</setSpec>
    </header>
    <header>
      <identifier>oai:zenodo.org:232093</identifier>
      <datestamp>2017-01-06T11:04:22Z</datestamp>
      <setSpec>user-biosyslit</setSpec>
    </header>
    <header>
      <identifier>oai:zenodo.org:232086</identifier>
      <datestamp>2017-01-06T11:03:53Z</datestamp>
      <setSpec>user-biosyslit</setSpec>
    </header>
    <header>
      <identifier>oai:zenodo.org:237073</identifier>
      <datestamp>2017-01-10T10:29:22Z</datestamp>
      <setSpec>user-biosyslit</setSpec>
    </header>
    <header>
      <identifier>oai:zenodo.org:280293</identifier>
      <datestamp>2017-02-09T03:08:15Z</datestamp>
      <setSpec>user-biosyslit</setSpec>
    </header>
    <header>
      <identifier>oai:zenodo.org:280294</identifier>
      <datestamp>2017-02-09T03:08:19Z</datestamp>
      <setSpec>user-biosyslit</setSpec>
    </header>
    <header>
      <identifier>oai:zenodo.org:231618</identifier>
      <datestamp>2017-01-06T05:02:28Z</datestamp>
      <setSpec>user-biosyslit</setSpec>
    </header>
    <header>
      <identifier>oai:zenodo.org:231627</identifier>
      <datestamp>2017-01-06T05:02:54Z</datestamp>
      <setSpec>user-biosyslit</setSpec>
    </header>
    <header>
      <identifier>oai:zenodo.org:231622</identifier>
      <datestamp>2017-01-06T05:02:40Z</datestamp>
      <setSpec>user-biosyslit</setSpec>
    </header>
    <header>
      <identifier>oai:zenodo.org:231625</identifier>
      <datestamp>2017-01-06T05:02:49Z</datestamp>
      <setSpec>user-biosyslit</setSpec>
    </header>
    <header>
      <identifier>oai:zenodo.org:231630</identifier>
      <datestamp>2017-01-06T05:03:01Z</datestamp>
      <setSpec>user-biosyslit</setSpec>
    </header>
    <header>
      <identifier>oai:zenodo.org:239600</identifier>
      <datestamp>2017-01-11T22:36:28Z</datestamp>
      <setSpec>user-biosyslit</setSpec>
    </header>
    <header>
      <identifier>oai:zenodo.org:239594</identifier>
      <datestamp>2017-01-11T22:36:10Z</datestamp>
      <setSpec>user-biosyslit</setSpec>
    </header>
    <header>
      <identifier>oai:zenodo.org:239590</identifier>
      <datestamp>2017-01-11T22:35:57Z</datestamp>
      <setSpec>user-biosyslit</setSpec>
    </header>
    <header>
      <identifier>oai:zenodo.org:239591</identifier>
      <datestamp>2017-01-11T22:36:00Z</datestamp>
      <setSpec>user-biosyslit</setSpec>
    </header>
    <header>
      <identifier>oai:zenodo.org:239595</identifier>
      <datestamp>2017-01-11T22:36:13Z</datestamp>
      <setSpec>user-biosyslit</setSpec>
    </header>
    <header>
      <identifier>oai:zenodo.org:281207</identifier>
      <datestamp>2017-02-09T04:56:07Z</datestamp>
      <setSpec>user-biosyslit</setSpec>
    </header>
    <header>
      <identifier>oai:zenodo.org:245110</identifier>
      <datestamp>2017-01-15T07:56:37Z</datestamp>
      <setSpec>user-biosyslit</setSpec>
    </header>
    <header>
      <identifier>oai:zenodo.org:281215</identifier>
      <datestamp>2017-02-09T04:56:01Z</datestamp>
      <setSpec>user-biosyslit</setSpec>
    </header>
    <header>
      <identifier>oai:zenodo.org:240539</identifier>
      <datestamp>2017-01-12T09:59:40Z</datestamp>
      <setSpec>user-biosyslit</setSpec>
    </header>
    <header>
      <identifier>oai:zenodo.org:274480</identifier>
      <datestamp>2017-02-08T13:28:41Z</datestamp>
      <setSpec>user-biosyslit</setSpec>
    </header>
    <header>
      <identifier>oai:zenodo.org:274478</identifier>
      <datestamp>2017-02-08T13:28:34Z</datestamp>
      <setSpec>user-biosyslit</setSpec>
    </header>
    <header>
      <identifier>oai:zenodo.org:249275</identifier>
      <datestamp>2017-01-17T18:17:22Z</datestamp>
      <setSpec>user-biosyslit</setSpec>
    </header>
    <header>
      <identifier>oai:zenodo.org:232817</identifier>
      <datestamp>2017-01-06T23:30:08Z</datestamp>
      <setSpec>user-biosyslit</setSpec>
    </header>
    <header>
      <identifier>oai:zenodo.org:239430</identifier>
      <datestamp>2017-01-11T20:19:09Z</datestamp>
      <setSpec>user-biosyslit</setSpec>
    </header>
    <header>
      <identifier>oai:zenodo.org:239429</identifier>
      <datestamp>2017-01-11T20:19:06Z</datestamp>
      <setSpec>user-biosyslit</setSpec>
    </header>
    <header>
      <identifier>oai:zenodo.org:239427</identifier>
      <datestamp>2017-01-11T20:19:11Z</datestamp>
      <setSpec>user-biosyslit</setSpec>
    </header>
    <header>
      <identifier>oai:zenodo.org:232816</identifier>
      <datestamp>2017-01-06T23:30:05Z</datestamp>
      <setSpec>user-biosyslit</setSpec>
    </header>
    <header>
      <identifier>oai:zenodo.org:240298</identifier>
      <datestamp>2017-01-12T07:04:34Z</datestamp>
      <setSpec>user-biosyslit</setSpec>
    </header>
    <header>
      <identifier>oai:zenodo.org:240294</identifier>
      <datestamp>2017-01-12T07:04:19Z</datestamp>
      <setSpec>user-biosyslit</setSpec>
    </header>
    <header>
      <identifier>oai:zenodo.org:240297</identifier>
      <datestamp>2017-01-12T07:04:31Z</datestamp>
      <setSpec>user-biosyslit</setSpec>
    </header>
    <header>
      <identifier>oai:zenodo.org:236698</identifier>
      <datestamp>2017-01-10T03:20:04Z</datestamp>
      <setSpec>user-biosyslit</setSpec>
    </header>
    <header>
      <identifier>oai:zenodo.org:236704</identifier>
      <datestamp>2017-01-10T03:19:57Z</datestamp>
      <setSpec>user-biosyslit</setSpec>
    </header>
    <header>
      <identifier>oai:zenodo.org:236699</identifier>
      <datestamp>2017-01-10T03:19:38Z</datestamp>
      <setSpec>user-biosyslit</setSpec>
    </header>
    <header>
      <identifier>oai:zenodo.org:236700</identifier>
      <datestamp>2017-01-10T03:19:41Z</datestamp>
      <setSpec>user-biosyslit</setSpec>
    </header>
    <header>
      <identifier>oai:zenodo.org:236705</identifier>
      <datestamp>2017-01-10T03:20:02Z</datestamp>
      <setSpec>user-biosyslit</setSpec>
    </header>
    <header>
      <identifier>oai:zenodo.org:250161</identifier>
      <datestamp>2017-01-18T05:36:59Z</datestamp>
      <setSpec>user-biosyslit</setSpec>
    </header>
    <header>
      <identifier>oai:zenodo.org:250162</identifier>
      <datestamp>2017-01-18T05:37:03Z</datestamp>
      <setSpec>user-biosyslit</setSpec>
    </header>
    <header>
      <identifier>oai:zenodo.org:250158</identifier>
      <datestamp>2017-01-18T05:36:44Z</datestamp>
      <setSpec>user-biosyslit</setSpec>
    </header>
    <header>
      <identifier>oai:zenodo.org:286042</identifier>
      <datestamp>2017-02-09T15:07:03Z</datestamp>
      <setSpec>user-biosyslit</setSpec>
    </header>
    <header>
      <identifier>oai:zenodo.org:286041</identifier>
      <datestamp>2017-02-09T15:06:56Z</datestamp>
      <setSpec>user-biosyslit</setSpec>
    </header>
    <header>
      <identifier>oai:zenodo.org:275310</identifier>
      <datestamp>2017-02-08T16:04:31Z</datestamp>
      <setSpec>user-biosyslit</setSpec>
    </header>
    <header>
      <identifier>oai:zenodo.org:273242</identifier>
      <datestamp>2017-02-08T08:42:30Z</datestamp>
      <setSpec>user-biosyslit</setSpec>
    </header>
    <header>
      <identifier>oai:zenodo.org:273240</identifier>
      <datestamp>2017-02-08T08:42:26Z</datestamp>
      <setSpec>user-biosyslit</setSpec>
    </header>
    <header>
      <identifier>oai:zenodo.org:273241</identifier>
      <datestamp>2017-02-08T08:42:29Z</datestamp>
      <setSpec>user-biosyslit</setSpec>
    </header>
    <header>
      <identifier>oai:zenodo.org:276821</identifier>
      <datestamp>2017-02-08T19:45:49Z</datestamp>
      <setSpec>user-biosyslit</setSpec>
    </header>
    <header>
      <identifier>oai:zenodo.org:273238</identifier>
      <datestamp>2017-02-08T08:42:22Z</datestamp>
      <setSpec>user-biosyslit</setSpec>
    </header>
    <header>
      <identifier>oai:zenodo.org:228213</identifier>
      <datestamp>2017-01-02T19:52:06Z</datestamp>
      <setSpec>user-biosyslit</setSpec>
    </header>
    <header>
      <identifier>oai:zenodo.org:240149</identifier>
      <datestamp>2017-01-12T05:13:32Z</datestamp>
      <setSpec>user-biosyslit</setSpec>
    </header>
    <header>
      <identifier>oai:zenodo.org:277663</identifier>
      <datestamp>2017-02-08T21:35:40Z</datestamp>
      <setSpec>user-biosyslit</setSpec>
    </header>
    <header>
      <identifier>oai:zenodo.org:227161</identifier>
      <datestamp>2017-01-01T17:38:20Z</datestamp>
      <setSpec>user-biosyslit</setSpec>
    </header>
    <header>
      <identifier>oai:zenodo.org:227163</identifier>
      <datestamp>2017-01-01T17:38:13Z</datestamp>
      <setSpec>user-biosyslit</setSpec>
    </header>
    <header>
      <identifier>oai:zenodo.org:277665</identifier>
      <datestamp>2017-02-08T21:35:39Z</datestamp>
      <setSpec>user-biosyslit</setSpec>
    </header>
    <header>
      <identifier>oai:zenodo.org:231305</identifier>
      <datestamp>2017-01-05T19:25:27Z</datestamp>
      <setSpec>user-biosyslit</setSpec>
    </header>
    <header>
      <identifier>oai:zenodo.org:231303</identifier>
      <datestamp>2017-01-05T19:25:19Z</datestamp>
      <setSpec>user-biosyslit</setSpec>
    </header>
    <header>
      <identifier>oai:zenodo.org:235680</identifier>
      <datestamp>2017-01-09T13:36:47Z</datestamp>
      <setSpec>user-biosyslit</setSpec>
    </header>
    <header>
      <identifier>oai:zenodo.org:235683</identifier>
      <datestamp>2017-01-09T13:36:45Z</datestamp>
      <setSpec>user-biosyslit</setSpec>
    </header>
    <header>
      <identifier>oai:zenodo.org:260667</identifier>
      <datestamp>2017-01-27T23:10:39Z</datestamp>
      <setSpec>user-biosyslit</setSpec>
    </header>
    <header>
      <identifier>oai:zenodo.org:282335</identifier>
      <datestamp>2017-02-09T06:49:58Z</datestamp>
      <setSpec>user-biosyslit</setSpec>
    </header>
    <header>
      <identifier>oai:zenodo.org:282336</identifier>
      <datestamp>2017-02-09T06:50:00Z</datestamp>
      <setSpec>user-biosyslit</setSpec>
    </header>
    <header>
      <identifier>oai:zenodo.org:282332</identifier>
      <datestamp>2017-02-09T06:49:50Z</datestamp>
      <setSpec>user-biosyslit</setSpec>
    </header>
    <header>
      <identifier>oai:zenodo.org:282333</identifier>
      <datestamp>2017-02-09T06:49:52Z</datestamp>
      <setSpec>user-biosyslit</setSpec>
    </header>
    <header>
      <identifier>oai:zenodo.org:282331</identifier>
      <datestamp>2017-02-09T06:49:48Z</datestamp>
      <setSpec>user-biosyslit</setSpec>
    </header>
    <header>
      <identifier>oai:zenodo.org:282327</identifier>
      <datestamp>2017-02-09T06:49:38Z</datestamp>
      <setSpec>user-biosyslit</setSpec>
    </header>
    <header>
      <identifier>oai:zenodo.org:282328</identifier>
      <datestamp>2017-02-09T06:49:42Z</datestamp>
      <setSpec>user-biosyslit</setSpec>
    </header>
    <header>
      <identifier>oai:zenodo.org:282330</identifier>
      <datestamp>2017-02-09T06:49:46Z</datestamp>
      <setSpec>user-biosyslit</setSpec>
    </header>
    <header>
      <identifier>oai:zenodo.org:288636</identifier>
      <datestamp>2017-02-09T21:37:47Z</datestamp>
      <setSpec>user-biosyslit</setSpec>
    </header>
    <resumptionToken expirationDate="2017-08-31T15:47:51Z" cursor="69300" completeListSize="77796">.eJyNyj0LgkAYAOD_8s4S92FZQotY4qCi10m6hJ0i5mnhFepF_72W5pqf5wmqqkqw0YKa5ppgy8QWIkuCNwYoMVylPDUfBnFMpeglL7z0kXQpykhtha6aAjejoW5R1GHN9jE54vXEGzTHB37PdDKl1B8Z2lmBjufw4n9eSSNP5mfvxnjvSEbKIdrFM8MOy6n4Pvzn0z-fq7ZgwK2oK7BXm6UB7VgMtQL7-Xq9AZOhUTs.DInArw.DsyG6hb0HvTG1CRBGTJLZsFdqPE</resumptionToken>
  </ListIdentifiers>
</OAI-PMH>
