<?xml version='1.0' encoding='UTF-8'?>
<?xml-stylesheet type="text/xsl" href="/static/xsl/oai2.v1.0.xsl"?>
<OAI-PMH xmlns="http://www.openarchives.org/OAI/2.0/" xmlns:xsi="http://www.w3.org/2001/XMLSchema-instance" xsi:schemaLocation="http://www.openarchives.org/OAI/2.0/ http://www.openarchives.org/OAI/2.0/OAI-PMH.xsd">
  <responseDate>2017-08-31T15:41:27Z</responseDate>
  <request verb="ListIdentifiers" resumptionToken=".eJyNz00PQzAAgOH_0rMsrW-SXYSJA0JHcFmsREyZ6BZU_Pe57Lyd3-fyboDVdQVMeEK6ZsgKVHWoKLKhawJgZHpSemuPDEiWUjLQpHTTd9ynMBcbLbDZ4tu5FPAOhj3i-BKJGdKXpIVrdE1eOY-XVPJmDB3N59EaPLzDVVLo0uLujjgZLIrFagqdaMXIwoVEvg796fhPZ7MzEMBYNjUw1WOqm8upYcDc9v0DW-9RHg.DIm_pw.cD9AuIrn2jU-mKkS9ZhIHzzem5o">https://zenodo.org/oai2d</request>
  <ListIdentifiers>
    <header>
      <identifier>oai:zenodo.org:231022</identifier>
      <datestamp>2017-01-05T12:33:04Z</datestamp>
      <setSpec>user-biosyslit</setSpec>
    </header>
    <header>
      <identifier>oai:zenodo.org:269823</identifier>
      <datestamp>2017-02-07T20:28:41Z</datestamp>
      <setSpec>user-biosyslit</setSpec>
    </header>
    <header>
      <identifier>oai:zenodo.org:268948</identifier>
      <datestamp>2017-02-07T10:00:32Z</datestamp>
      <setSpec>openaire</setSpec>
      <setSpec>user-biosyslit</setSpec>
    </header>
    <header>
      <identifier>oai:zenodo.org:269246</identifier>
      <datestamp>2017-02-06T23:40:56Z</datestamp>
      <setSpec>user-biosyslit</setSpec>
    </header>
    <header>
      <identifier>oai:zenodo.org:229730</identifier>
      <datestamp>2017-01-03T21:09:02Z</datestamp>
      <setSpec>user-biosyslit</setSpec>
    </header>
    <header>
      <identifier>oai:zenodo.org:231227</identifier>
      <datestamp>2017-01-05T17:35:46Z</datestamp>
      <setSpec>user-biosyslit</setSpec>
    </header>
    <header>
      <identifier>oai:zenodo.org:231237</identifier>
      <datestamp>2017-01-05T17:52:11Z</datestamp>
      <setSpec>user-biosyslit</setSpec>
    </header>
    <header>
      <identifier>oai:zenodo.org:269102</identifier>
      <datestamp>2017-02-06T22:44:08Z</datestamp>
      <setSpec>user-biosyslit</setSpec>
    </header>
    <header>
      <identifier>oai:zenodo.org:269445</identifier>
      <datestamp>2017-02-07T00:36:10Z</datestamp>
      <setSpec>user-biosyslit</setSpec>
    </header>
    <header>
      <identifier>oai:zenodo.org:269299</identifier>
      <datestamp>2017-02-06T23:50:18Z</datestamp>
      <setSpec>user-biosyslit</setSpec>
    </header>
    <header>
      <identifier>oai:zenodo.org:269921</identifier>
      <datestamp>2017-02-07T20:44:02Z</datestamp>
      <setSpec>user-biosyslit</setSpec>
    </header>
    <header>
      <identifier>oai:zenodo.org:230745</identifier>
      <datestamp>2017-01-05T07:38:20Z</datestamp>
      <setSpec>user-biosyslit</setSpec>
    </header>
    <header>
      <identifier>oai:zenodo.org:270362</identifier>
      <datestamp>2017-02-07T23:05:16Z</datestamp>
      <setSpec>user-biosyslit</setSpec>
    </header>
    <header>
      <identifier>oai:zenodo.org:269894</identifier>
      <datestamp>2017-02-07T20:41:19Z</datestamp>
      <setSpec>user-biosyslit</setSpec>
    </header>
    <header>
      <identifier>oai:zenodo.org:230747</identifier>
      <datestamp>2017-01-05T07:38:26Z</datestamp>
      <setSpec>user-biosyslit</setSpec>
    </header>
    <header>
      <identifier>oai:zenodo.org:230864</identifier>
      <datestamp>2017-01-05T09:20:10Z</datestamp>
      <setSpec>user-biosyslit</setSpec>
    </header>
    <header>
      <identifier>oai:zenodo.org:231775</identifier>
      <datestamp>2017-01-06T07:13:15Z</datestamp>
      <setSpec>user-biosyslit</setSpec>
    </header>
    <header>
      <identifier>oai:zenodo.org:274918</identifier>
      <datestamp>2017-02-08T14:48:47Z</datestamp>
      <setSpec>user-biosyslit</setSpec>
    </header>
    <header>
      <identifier>oai:zenodo.org:274838</identifier>
      <datestamp>2017-02-08T14:33:56Z</datestamp>
      <setSpec>user-biosyslit</setSpec>
    </header>
    <header>
      <identifier>oai:zenodo.org:231742</identifier>
      <datestamp>2017-01-06T06:36:20Z</datestamp>
      <setSpec>user-biosyslit</setSpec>
    </header>
    <header>
      <identifier>oai:zenodo.org:231749</identifier>
      <datestamp>2017-01-06T06:42:36Z</datestamp>
      <setSpec>user-biosyslit</setSpec>
    </header>
    <header>
      <identifier>oai:zenodo.org:275041</identifier>
      <datestamp>2017-02-08T15:08:35Z</datestamp>
      <setSpec>user-biosyslit</setSpec>
    </header>
    <header>
      <identifier>oai:zenodo.org:269491</identifier>
      <datestamp>2017-02-07T00:43:06Z</datestamp>
      <setSpec>user-biosyslit</setSpec>
    </header>
    <header>
      <identifier>oai:zenodo.org:271198</identifier>
      <datestamp>2017-02-08T01:00:35Z</datestamp>
      <setSpec>user-biosyslit</setSpec>
    </header>
    <header>
      <identifier>oai:zenodo.org:270761</identifier>
      <datestamp>2017-02-07T23:55:12Z</datestamp>
      <setSpec>user-biosyslit</setSpec>
    </header>
    <header>
      <identifier>oai:zenodo.org:275253</identifier>
      <datestamp>2017-02-08T15:48:46Z</datestamp>
      <setSpec>user-biosyslit</setSpec>
    </header>
    <header>
      <identifier>oai:zenodo.org:232106</identifier>
      <datestamp>2017-01-06T11:12:46Z</datestamp>
      <setSpec>user-biosyslit</setSpec>
    </header>
    <header>
      <identifier>oai:zenodo.org:232184</identifier>
      <datestamp>2017-01-06T12:56:50Z</datestamp>
      <setSpec>user-biosyslit</setSpec>
    </header>
    <header>
      <identifier>oai:zenodo.org:232531</identifier>
      <datestamp>2017-01-06T19:04:32Z</datestamp>
      <setSpec>user-biosyslit</setSpec>
    </header>
    <header>
      <identifier>oai:zenodo.org:232769</identifier>
      <datestamp>2017-01-06T22:45:54Z</datestamp>
      <setSpec>user-biosyslit</setSpec>
    </header>
    <header>
      <identifier>oai:zenodo.org:233318</identifier>
      <datestamp>2017-01-08T03:23:39Z</datestamp>
      <setSpec>user-biosyslit</setSpec>
    </header>
    <header>
      <identifier>oai:zenodo.org:276231</identifier>
      <datestamp>2017-02-08T18:27:16Z</datestamp>
      <setSpec>user-biosyslit</setSpec>
    </header>
    <header>
      <identifier>oai:zenodo.org:275456</identifier>
      <datestamp>2017-02-08T16:30:22Z</datestamp>
      <setSpec>user-biosyslit</setSpec>
    </header>
    <header>
      <identifier>oai:zenodo.org:275522</identifier>
      <datestamp>2017-02-08T16:37:25Z</datestamp>
      <setSpec>user-biosyslit</setSpec>
    </header>
    <header>
      <identifier>oai:zenodo.org:276494</identifier>
      <datestamp>2017-02-08T18:57:55Z</datestamp>
      <setSpec>user-biosyslit</setSpec>
    </header>
    <header>
      <identifier>oai:zenodo.org:276865</identifier>
      <datestamp>2017-02-08T19:52:42Z</datestamp>
      <setSpec>user-biosyslit</setSpec>
    </header>
    <header>
      <identifier>oai:zenodo.org:233154</identifier>
      <datestamp>2017-01-08T01:27:00Z</datestamp>
      <setSpec>user-biosyslit</setSpec>
    </header>
    <header>
      <identifier>oai:zenodo.org:270594</identifier>
      <datestamp>2017-02-07T23:33:49Z</datestamp>
      <setSpec>user-biosyslit</setSpec>
    </header>
    <header>
      <identifier>oai:zenodo.org:233072</identifier>
      <datestamp>2017-01-07T23:50:11Z</datestamp>
      <setSpec>user-biosyslit</setSpec>
    </header>
    <header>
      <identifier>oai:zenodo.org:276729</identifier>
      <datestamp>2017-02-08T19:32:53Z</datestamp>
      <setSpec>user-biosyslit</setSpec>
    </header>
    <header>
      <identifier>oai:zenodo.org:233397</identifier>
      <datestamp>2017-01-08T04:16:25Z</datestamp>
      <setSpec>user-biosyslit</setSpec>
    </header>
    <header>
      <identifier>oai:zenodo.org:276828</identifier>
      <datestamp>2017-02-08T19:46:19Z</datestamp>
      <setSpec>user-biosyslit</setSpec>
    </header>
    <header>
      <identifier>oai:zenodo.org:234988</identifier>
      <datestamp>2017-01-09T04:27:57Z</datestamp>
      <setSpec>user-biosyslit</setSpec>
    </header>
    <header>
      <identifier>oai:zenodo.org:266346</identifier>
      <datestamp>2017-02-01T06:36:16Z</datestamp>
      <setSpec>user-biosyslit</setSpec>
    </header>
    <header>
      <identifier>oai:zenodo.org:266236</identifier>
      <datestamp>2017-02-01T03:25:29Z</datestamp>
      <setSpec>user-biosyslit</setSpec>
    </header>
    <header>
      <identifier>oai:zenodo.org:266839</identifier>
      <datestamp>2017-02-01T15:55:06Z</datestamp>
      <setSpec>user-biosyslit</setSpec>
    </header>
    <header>
      <identifier>oai:zenodo.org:226762</identifier>
      <datestamp>2017-01-01T02:50:30Z</datestamp>
      <setSpec>user-biosyslit</setSpec>
    </header>
    <header>
      <identifier>oai:zenodo.org:266218</identifier>
      <datestamp>2017-02-01T03:03:23Z</datestamp>
      <setSpec>user-biosyslit</setSpec>
    </header>
    <header>
      <identifier>oai:zenodo.org:265723</identifier>
      <datestamp>2017-01-31T19:40:52Z</datestamp>
      <setSpec>user-biosyslit</setSpec>
    </header>
    <header>
      <identifier>oai:zenodo.org:265773</identifier>
      <datestamp>2017-01-31T20:29:44Z</datestamp>
      <setSpec>user-biosyslit</setSpec>
    </header>
    <header>
      <identifier>oai:zenodo.org:266139</identifier>
      <datestamp>2017-02-01T01:05:01Z</datestamp>
      <setSpec>user-biosyslit</setSpec>
    </header>
    <header>
      <identifier>oai:zenodo.org:266469</identifier>
      <datestamp>2017-02-01T10:13:25Z</datestamp>
      <setSpec>user-biosyslit</setSpec>
    </header>
    <header>
      <identifier>oai:zenodo.org:266603</identifier>
      <datestamp>2017-02-01T12:28:49Z</datestamp>
      <setSpec>user-biosyslit</setSpec>
    </header>
    <header>
      <identifier>oai:zenodo.org:266098</identifier>
      <datestamp>2017-02-01T00:25:06Z</datestamp>
      <setSpec>user-biosyslit</setSpec>
    </header>
    <header>
      <identifier>oai:zenodo.org:267431</identifier>
      <datestamp>2017-02-02T02:04:27Z</datestamp>
      <setSpec>user-biosyslit</setSpec>
    </header>
    <header>
      <identifier>oai:zenodo.org:266418</identifier>
      <datestamp>2017-02-01T08:32:13Z</datestamp>
      <setSpec>user-biosyslit</setSpec>
    </header>
    <header>
      <identifier>oai:zenodo.org:266698</identifier>
      <datestamp>2017-02-01T14:03:52Z</datestamp>
      <setSpec>user-biosyslit</setSpec>
    </header>
    <header>
      <identifier>oai:zenodo.org:267013</identifier>
      <datestamp>2017-02-01T18:10:39Z</datestamp>
      <setSpec>user-biosyslit</setSpec>
    </header>
    <header>
      <identifier>oai:zenodo.org:266207</identifier>
      <datestamp>2017-02-01T02:37:32Z</datestamp>
      <setSpec>user-biosyslit</setSpec>
    </header>
    <header>
      <identifier>oai:zenodo.org:266536</identifier>
      <datestamp>2017-02-01T11:44:02Z</datestamp>
      <setSpec>user-biosyslit</setSpec>
    </header>
    <header>
      <identifier>oai:zenodo.org:266927</identifier>
      <datestamp>2017-02-01T17:07:18Z</datestamp>
      <setSpec>user-biosyslit</setSpec>
    </header>
    <header>
      <identifier>oai:zenodo.org:266529</identifier>
      <datestamp>2017-02-01T11:43:41Z</datestamp>
      <setSpec>user-biosyslit</setSpec>
    </header>
    <header>
      <identifier>oai:zenodo.org:267644</identifier>
      <datestamp>2017-02-02T05:14:48Z</datestamp>
      <setSpec>user-biosyslit</setSpec>
    </header>
    <header>
      <identifier>oai:zenodo.org:267150</identifier>
      <datestamp>2017-02-01T20:15:04Z</datestamp>
      <setSpec>user-biosyslit</setSpec>
    </header>
    <header>
      <identifier>oai:zenodo.org:274285</identifier>
      <datestamp>2017-02-08T12:44:31Z</datestamp>
      <setSpec>user-biosyslit</setSpec>
    </header>
    <header>
      <identifier>oai:zenodo.org:267548</identifier>
      <datestamp>2017-02-02T03:45:08Z</datestamp>
      <setSpec>user-biosyslit</setSpec>
    </header>
    <header>
      <identifier>oai:zenodo.org:267510</identifier>
      <datestamp>2017-02-02T03:08:30Z</datestamp>
      <setSpec>user-biosyslit</setSpec>
    </header>
    <header>
      <identifier>oai:zenodo.org:266948</identifier>
      <datestamp>2017-02-01T17:22:16Z</datestamp>
      <setSpec>user-biosyslit</setSpec>
    </header>
    <header>
      <identifier>oai:zenodo.org:266941</identifier>
      <datestamp>2017-02-01T17:22:25Z</datestamp>
      <setSpec>user-biosyslit</setSpec>
    </header>
    <header>
      <identifier>oai:zenodo.org:266666</identifier>
      <datestamp>2017-02-01T13:28:46Z</datestamp>
      <setSpec>user-biosyslit</setSpec>
    </header>
    <header>
      <identifier>oai:zenodo.org:266844</identifier>
      <datestamp>2017-02-01T15:55:19Z</datestamp>
      <setSpec>user-biosyslit</setSpec>
    </header>
    <header>
      <identifier>oai:zenodo.org:267553</identifier>
      <datestamp>2017-02-02T03:45:26Z</datestamp>
      <setSpec>user-biosyslit</setSpec>
    </header>
    <header>
      <identifier>oai:zenodo.org:268264</identifier>
      <datestamp>2017-02-03T04:59:41Z</datestamp>
      <setSpec>user-biosyslit</setSpec>
    </header>
    <header>
      <identifier>oai:zenodo.org:266943</identifier>
      <datestamp>2017-02-01T17:21:58Z</datestamp>
      <setSpec>user-biosyslit</setSpec>
    </header>
    <header>
      <identifier>oai:zenodo.org:269324</identifier>
      <datestamp>2017-02-06T23:54:07Z</datestamp>
      <setSpec>user-biosyslit</setSpec>
    </header>
    <header>
      <identifier>oai:zenodo.org:267077</identifier>
      <datestamp>2017-02-01T18:57:54Z</datestamp>
      <setSpec>user-biosyslit</setSpec>
    </header>
    <header>
      <identifier>oai:zenodo.org:267452</identifier>
      <datestamp>2017-02-02T02:21:58Z</datestamp>
      <setSpec>user-biosyslit</setSpec>
    </header>
    <header>
      <identifier>oai:zenodo.org:267620</identifier>
      <datestamp>2017-02-02T04:58:37Z</datestamp>
      <setSpec>user-biosyslit</setSpec>
    </header>
    <header>
      <identifier>oai:zenodo.org:268248</identifier>
      <datestamp>2017-02-03T04:35:38Z</datestamp>
      <setSpec>user-biosyslit</setSpec>
    </header>
    <header>
      <identifier>oai:zenodo.org:267846</identifier>
      <datestamp>2017-02-02T08:11:32Z</datestamp>
      <setSpec>user-biosyslit</setSpec>
    </header>
    <header>
      <identifier>oai:zenodo.org:267581</identifier>
      <datestamp>2017-02-02T04:05:56Z</datestamp>
      <setSpec>user-biosyslit</setSpec>
    </header>
    <header>
      <identifier>oai:zenodo.org:227254</identifier>
      <datestamp>2017-01-01T18:50:22Z</datestamp>
      <setSpec>user-biosyslit</setSpec>
    </header>
    <header>
      <identifier>oai:zenodo.org:267902</identifier>
      <datestamp>2017-02-02T09:18:31Z</datestamp>
      <setSpec>user-biosyslit</setSpec>
    </header>
    <header>
      <identifier>oai:zenodo.org:227240</identifier>
      <datestamp>2017-01-01T18:34:44Z</datestamp>
      <setSpec>user-biosyslit</setSpec>
    </header>
    <header>
      <identifier>oai:zenodo.org:274512</identifier>
      <datestamp>2017-02-08T13:34:13Z</datestamp>
      <setSpec>user-biosyslit</setSpec>
    </header>
    <header>
      <identifier>oai:zenodo.org:227729</identifier>
      <datestamp>2017-01-02T02:39:47Z</datestamp>
      <setSpec>user-biosyslit</setSpec>
    </header>
    <header>
      <identifier>oai:zenodo.org:227696</identifier>
      <datestamp>2017-01-02T02:23:21Z</datestamp>
      <setSpec>user-biosyslit</setSpec>
    </header>
    <header>
      <identifier>oai:zenodo.org:269200</identifier>
      <datestamp>2017-02-06T23:07:18Z</datestamp>
      <setSpec>user-biosyslit</setSpec>
    </header>
    <header>
      <identifier>oai:zenodo.org:275343</identifier>
      <datestamp>2017-02-08T16:08:18Z</datestamp>
      <setSpec>user-biosyslit</setSpec>
    </header>
    <header>
      <identifier>oai:zenodo.org:229659</identifier>
      <datestamp>2017-01-03T20:05:38Z</datestamp>
      <setSpec>user-biosyslit</setSpec>
    </header>
    <header>
      <identifier>oai:zenodo.org:268174</identifier>
      <datestamp>2017-02-03T02:56:36Z</datestamp>
      <setSpec>user-biosyslit</setSpec>
    </header>
    <header>
      <identifier>oai:zenodo.org:267906</identifier>
      <datestamp>2017-02-02T09:18:28Z</datestamp>
      <setSpec>user-biosyslit</setSpec>
    </header>
    <header>
      <identifier>oai:zenodo.org:266634</identifier>
      <datestamp>2017-02-01T12:48:04Z</datestamp>
      <setSpec>user-biosyslit</setSpec>
    </header>
    <header>
      <identifier>oai:zenodo.org:266304</identifier>
      <datestamp>2017-02-01T05:53:30Z</datestamp>
      <setSpec>user-biosyslit</setSpec>
    </header>
    <header>
      <identifier>oai:zenodo.org:274263</identifier>
      <datestamp>2017-02-08T12:41:41Z</datestamp>
      <setSpec>user-biosyslit</setSpec>
    </header>
    <header>
      <identifier>oai:zenodo.org:266501</identifier>
      <datestamp>2017-02-01T11:12:13Z</datestamp>
      <setSpec>user-biosyslit</setSpec>
    </header>
    <header>
      <identifier>oai:zenodo.org:266626</identifier>
      <datestamp>2017-02-01T12:47:46Z</datestamp>
      <setSpec>user-biosyslit</setSpec>
    </header>
    <header>
      <identifier>oai:zenodo.org:268076</identifier>
      <datestamp>2017-02-03T01:17:01Z</datestamp>
      <setSpec>user-biosyslit</setSpec>
    </header>
    <header>
      <identifier>oai:zenodo.org:266380</identifier>
      <datestamp>2017-02-01T07:23:26Z</datestamp>
      <setSpec>user-biosyslit</setSpec>
    </header>
    <header>
      <identifier>oai:zenodo.org:266516</identifier>
      <datestamp>2017-02-01T11:24:56Z</datestamp>
      <setSpec>user-biosyslit</setSpec>
    </header>
    <resumptionToken expirationDate="2017-08-31T15:43:27Z" cursor="6600" completeListSize="77796">.eJyNysEKgjAYAOB3-c8Sm6PmhC6hSYcUXQ71EjZFqlXiCnXhu-elc52_7w26ritw0YKulpg5DDNGMSMOtUDL7qHU8TwzyEwoeVdpGYhXchMotxsaenrYezkJzRVFN2z4NrYz7AzpGY3xIX3mJhkE2fUc-XRv4jG87OZXkShQxSloeXrfKG5XXeTHI8cbXhD5ffjPZ34-T6_BgrZsanBXjgXXvuwaDe57mj5oAFEs.DIm_pw.m6YXxbY6SHuczzCyEv_LvVT-nv8</resumptionToken>
  </ListIdentifiers>
</OAI-PMH>
