<?xml version='1.0' encoding='UTF-8'?>
<?xml-stylesheet type="text/xsl" href="/static/xsl/oai2.v1.0.xsl"?>
<OAI-PMH xmlns="http://www.openarchives.org/OAI/2.0/" xmlns:xsi="http://www.w3.org/2001/XMLSchema-instance" xsi:schemaLocation="http://www.openarchives.org/OAI/2.0/ http://www.openarchives.org/OAI/2.0/OAI-PMH.xsd">
  <responseDate>2017-08-31T15:44:36Z</responseDate>
  <request verb="ListIdentifiers" resumptionToken=".eJyNysEKgjAYAOB3-c8Sm9NmQhexpIOKrkl6CZsi1TRxhbro3evSuc7f9wRV1xW4aGE7S7yyiUUIJQ5dUQOUGG5SHs8fBnHIpOgkL4PskbYZys2GRr6aQj8nkb6iuMWabRPzgJ2Jn9Gc7Pk91-mUkd3I0IaGOpmjy-7zKhIHsjgFPeOdJ5lZDfEmmRn2WEHE9-E_n_75fLUGA_qyqcG1TcuA61gOjQL3-Xq9AayvUU4.DInAZA.aqDTBT5LZT05DuiNIPVdmRXxnPI">https://zenodo.org/oai2d</request>
  <ListIdentifiers>
    <header>
      <identifier>oai:zenodo.org:255061</identifier>
      <datestamp>2017-01-21T07:11:48Z</datestamp>
      <setSpec>user-biosyslit</setSpec>
    </header>
    <header>
      <identifier>oai:zenodo.org:254248</identifier>
      <datestamp>2017-01-20T17:08:34Z</datestamp>
      <setSpec>user-biosyslit</setSpec>
    </header>
    <header>
      <identifier>oai:zenodo.org:254990</identifier>
      <datestamp>2017-01-21T06:22:39Z</datestamp>
      <setSpec>user-biosyslit</setSpec>
    </header>
    <header>
      <identifier>oai:zenodo.org:254686</identifier>
      <datestamp>2017-01-21T01:34:31Z</datestamp>
      <setSpec>user-biosyslit</setSpec>
    </header>
    <header>
      <identifier>oai:zenodo.org:254829</identifier>
      <datestamp>2017-01-21T03:39:16Z</datestamp>
      <setSpec>user-biosyslit</setSpec>
    </header>
    <header>
      <identifier>oai:zenodo.org:254767</identifier>
      <datestamp>2017-01-21T02:44:22Z</datestamp>
      <setSpec>user-biosyslit</setSpec>
    </header>
    <header>
      <identifier>oai:zenodo.org:255390</identifier>
      <datestamp>2017-01-21T12:47:30Z</datestamp>
      <setSpec>user-biosyslit</setSpec>
    </header>
    <header>
      <identifier>oai:zenodo.org:254743</identifier>
      <datestamp>2017-01-21T02:16:54Z</datestamp>
      <setSpec>user-biosyslit</setSpec>
    </header>
    <header>
      <identifier>oai:zenodo.org:251673</identifier>
      <datestamp>2017-01-19T03:28:16Z</datestamp>
      <setSpec>user-biosyslit</setSpec>
    </header>
    <header>
      <identifier>oai:zenodo.org:251510</identifier>
      <datestamp>2017-01-19T01:15:28Z</datestamp>
      <setSpec>user-biosyslit</setSpec>
    </header>
    <header>
      <identifier>oai:zenodo.org:251515</identifier>
      <datestamp>2017-01-19T01:34:56Z</datestamp>
      <setSpec>user-biosyslit</setSpec>
    </header>
    <header>
      <identifier>oai:zenodo.org:251648</identifier>
      <datestamp>2017-01-19T02:49:00Z</datestamp>
      <setSpec>user-biosyslit</setSpec>
    </header>
    <header>
      <identifier>oai:zenodo.org:273094</identifier>
      <datestamp>2017-02-08T07:09:27Z</datestamp>
      <setSpec>user-biosyslit</setSpec>
    </header>
    <header>
      <identifier>oai:zenodo.org:273125</identifier>
      <datestamp>2017-02-08T07:20:03Z</datestamp>
      <setSpec>user-biosyslit</setSpec>
    </header>
    <header>
      <identifier>oai:zenodo.org:273027</identifier>
      <datestamp>2017-02-08T06:58:57Z</datestamp>
      <setSpec>user-biosyslit</setSpec>
    </header>
    <header>
      <identifier>oai:zenodo.org:276274</identifier>
      <datestamp>2017-02-08T18:33:47Z</datestamp>
      <setSpec>user-biosyslit</setSpec>
    </header>
    <header>
      <identifier>oai:zenodo.org:276310</identifier>
      <datestamp>2017-02-08T18:37:20Z</datestamp>
      <setSpec>user-biosyslit</setSpec>
    </header>
    <header>
      <identifier>oai:zenodo.org:276227</identifier>
      <datestamp>2017-02-08T18:27:01Z</datestamp>
      <setSpec>user-biosyslit</setSpec>
    </header>
    <header>
      <identifier>oai:zenodo.org:275919</identifier>
      <datestamp>2017-02-08T17:22:18Z</datestamp>
      <setSpec>user-biosyslit</setSpec>
    </header>
    <header>
      <identifier>oai:zenodo.org:251857</identifier>
      <datestamp>2017-01-19T05:21:53Z</datestamp>
      <setSpec>user-biosyslit</setSpec>
    </header>
    <header>
      <identifier>oai:zenodo.org:276396</identifier>
      <datestamp>2017-02-08T18:46:33Z</datestamp>
      <setSpec>user-biosyslit</setSpec>
    </header>
    <header>
      <identifier>oai:zenodo.org:252310</identifier>
      <datestamp>2017-01-19T11:56:05Z</datestamp>
      <setSpec>user-biosyslit</setSpec>
    </header>
    <header>
      <identifier>oai:zenodo.org:252020</identifier>
      <datestamp>2017-01-19T07:22:17Z</datestamp>
      <setSpec>user-biosyslit</setSpec>
    </header>
    <header>
      <identifier>oai:zenodo.org:256028</identifier>
      <datestamp>2017-01-22T02:36:22Z</datestamp>
      <setSpec>user-biosyslit</setSpec>
    </header>
    <header>
      <identifier>oai:zenodo.org:257075</identifier>
      <datestamp>2017-01-23T00:42:10Z</datestamp>
      <setSpec>user-biosyslit</setSpec>
    </header>
    <header>
      <identifier>oai:zenodo.org:256058</identifier>
      <datestamp>2017-01-22T03:07:40Z</datestamp>
      <setSpec>user-biosyslit</setSpec>
    </header>
    <header>
      <identifier>oai:zenodo.org:256108</identifier>
      <datestamp>2017-01-22T04:17:50Z</datestamp>
      <setSpec>user-biosyslit</setSpec>
    </header>
    <header>
      <identifier>oai:zenodo.org:256390</identifier>
      <datestamp>2017-01-22T13:52:09Z</datestamp>
      <setSpec>user-biosyslit</setSpec>
    </header>
    <header>
      <identifier>oai:zenodo.org:256206</identifier>
      <datestamp>2017-01-22T07:00:01Z</datestamp>
      <setSpec>user-biosyslit</setSpec>
    </header>
    <header>
      <identifier>oai:zenodo.org:257261</identifier>
      <datestamp>2017-01-23T04:20:02Z</datestamp>
      <setSpec>user-biosyslit</setSpec>
    </header>
    <header>
      <identifier>oai:zenodo.org:256371</identifier>
      <datestamp>2017-01-22T13:25:34Z</datestamp>
      <setSpec>user-biosyslit</setSpec>
    </header>
    <header>
      <identifier>oai:zenodo.org:256588</identifier>
      <datestamp>2017-01-22T18:06:40Z</datestamp>
      <setSpec>user-biosyslit</setSpec>
    </header>
    <header>
      <identifier>oai:zenodo.org:256757</identifier>
      <datestamp>2017-01-22T20:23:54Z</datestamp>
      <setSpec>user-biosyslit</setSpec>
    </header>
    <header>
      <identifier>oai:zenodo.org:257107</identifier>
      <datestamp>2017-01-23T01:20:47Z</datestamp>
      <setSpec>user-biosyslit</setSpec>
    </header>
    <header>
      <identifier>oai:zenodo.org:257807</identifier>
      <datestamp>2017-01-23T13:30:17Z</datestamp>
      <setSpec>user-biosyslit</setSpec>
    </header>
    <header>
      <identifier>oai:zenodo.org:276486</identifier>
      <datestamp>2017-02-08T18:57:33Z</datestamp>
      <setSpec>user-biosyslit</setSpec>
    </header>
    <header>
      <identifier>oai:zenodo.org:256660</identifier>
      <datestamp>2017-01-22T19:05:07Z</datestamp>
      <setSpec>user-biosyslit</setSpec>
    </header>
    <header>
      <identifier>oai:zenodo.org:256836</identifier>
      <datestamp>2017-01-22T21:18:51Z</datestamp>
      <setSpec>user-biosyslit</setSpec>
    </header>
    <header>
      <identifier>oai:zenodo.org:256951</identifier>
      <datestamp>2017-01-22T23:38:01Z</datestamp>
      <setSpec>user-biosyslit</setSpec>
    </header>
    <header>
      <identifier>oai:zenodo.org:256735</identifier>
      <datestamp>2017-01-22T19:54:20Z</datestamp>
      <setSpec>user-biosyslit</setSpec>
    </header>
    <header>
      <identifier>oai:zenodo.org:257116</identifier>
      <datestamp>2017-01-23T01:21:20Z</datestamp>
      <setSpec>user-biosyslit</setSpec>
    </header>
    <header>
      <identifier>oai:zenodo.org:257849</identifier>
      <datestamp>2017-01-23T13:32:13Z</datestamp>
      <setSpec>user-biosyslit</setSpec>
    </header>
    <header>
      <identifier>oai:zenodo.org:257005</identifier>
      <datestamp>2017-01-22T23:40:49Z</datestamp>
      <setSpec>user-biosyslit</setSpec>
    </header>
    <header>
      <identifier>oai:zenodo.org:258032</identifier>
      <datestamp>2017-01-23T15:29:35Z</datestamp>
      <setSpec>user-biosyslit</setSpec>
    </header>
    <header>
      <identifier>oai:zenodo.org:257249</identifier>
      <datestamp>2017-01-23T04:14:06Z</datestamp>
      <setSpec>user-biosyslit</setSpec>
    </header>
    <header>
      <identifier>oai:zenodo.org:258478</identifier>
      <datestamp>2017-01-23T23:36:18Z</datestamp>
      <setSpec>user-biosyslit</setSpec>
    </header>
    <header>
      <identifier>oai:zenodo.org:257431</identifier>
      <datestamp>2017-01-23T06:49:29Z</datestamp>
      <setSpec>user-biosyslit</setSpec>
    </header>
    <header>
      <identifier>oai:zenodo.org:257701</identifier>
      <datestamp>2017-01-23T12:30:41Z</datestamp>
      <setSpec>user-biosyslit</setSpec>
    </header>
    <header>
      <identifier>oai:zenodo.org:257347</identifier>
      <datestamp>2017-01-23T05:42:03Z</datestamp>
      <setSpec>user-biosyslit</setSpec>
    </header>
    <header>
      <identifier>oai:zenodo.org:257483</identifier>
      <datestamp>2017-01-23T07:25:12Z</datestamp>
      <setSpec>user-biosyslit</setSpec>
    </header>
    <header>
      <identifier>oai:zenodo.org:258141</identifier>
      <datestamp>2017-01-23T16:46:36Z</datestamp>
      <setSpec>user-biosyslit</setSpec>
    </header>
    <header>
      <identifier>oai:zenodo.org:257591</identifier>
      <datestamp>2017-01-23T10:50:21Z</datestamp>
      <setSpec>user-biosyslit</setSpec>
    </header>
    <header>
      <identifier>oai:zenodo.org:258006</identifier>
      <datestamp>2017-01-23T15:12:36Z</datestamp>
      <setSpec>user-biosyslit</setSpec>
    </header>
    <header>
      <identifier>oai:zenodo.org:258806</identifier>
      <datestamp>2017-01-24T04:55:53Z</datestamp>
      <setSpec>user-biosyslit</setSpec>
    </header>
    <header>
      <identifier>oai:zenodo.org:258055</identifier>
      <datestamp>2017-01-23T15:43:02Z</datestamp>
      <setSpec>user-biosyslit</setSpec>
    </header>
    <header>
      <identifier>oai:zenodo.org:257883</identifier>
      <datestamp>2017-01-23T13:49:20Z</datestamp>
      <setSpec>user-biosyslit</setSpec>
    </header>
    <header>
      <identifier>oai:zenodo.org:258849</identifier>
      <datestamp>2017-01-24T05:41:35Z</datestamp>
      <setSpec>user-biosyslit</setSpec>
    </header>
    <header>
      <identifier>oai:zenodo.org:258012</identifier>
      <datestamp>2017-01-23T15:12:54Z</datestamp>
      <setSpec>user-biosyslit</setSpec>
    </header>
    <header>
      <identifier>oai:zenodo.org:257983</identifier>
      <datestamp>2017-01-23T15:05:24Z</datestamp>
      <setSpec>user-biosyslit</setSpec>
    </header>
    <header>
      <identifier>oai:zenodo.org:258792</identifier>
      <datestamp>2017-01-24T04:55:16Z</datestamp>
      <setSpec>user-biosyslit</setSpec>
    </header>
    <header>
      <identifier>oai:zenodo.org:258370</identifier>
      <datestamp>2017-01-23T21:41:36Z</datestamp>
      <setSpec>user-biosyslit</setSpec>
    </header>
    <header>
      <identifier>oai:zenodo.org:258264</identifier>
      <datestamp>2017-01-23T19:50:21Z</datestamp>
      <setSpec>user-biosyslit</setSpec>
    </header>
    <header>
      <identifier>oai:zenodo.org:258559</identifier>
      <datestamp>2017-01-24T00:20:17Z</datestamp>
      <setSpec>user-biosyslit</setSpec>
    </header>
    <header>
      <identifier>oai:zenodo.org:259629</identifier>
      <datestamp>2017-01-25T14:27:22Z</datestamp>
      <setSpec>user-biosyslit</setSpec>
    </header>
    <header>
      <identifier>oai:zenodo.org:258769</identifier>
      <datestamp>2017-01-24T04:53:48Z</datestamp>
      <setSpec>user-biosyslit</setSpec>
    </header>
    <header>
      <identifier>oai:zenodo.org:259620</identifier>
      <datestamp>2017-01-25T14:23:20Z</datestamp>
      <setSpec>user-biosyslit</setSpec>
    </header>
    <header>
      <identifier>oai:zenodo.org:258744</identifier>
      <datestamp>2017-01-24T04:21:48Z</datestamp>
      <setSpec>user-biosyslit</setSpec>
    </header>
    <header>
      <identifier>oai:zenodo.org:258921</identifier>
      <datestamp>2017-01-24T06:22:25Z</datestamp>
      <setSpec>user-biosyslit</setSpec>
    </header>
    <header>
      <identifier>oai:zenodo.org:259040</identifier>
      <datestamp>2017-01-24T07:31:34Z</datestamp>
      <setSpec>user-biosyslit</setSpec>
    </header>
    <header>
      <identifier>oai:zenodo.org:259861</identifier>
      <datestamp>2017-01-25T17:00:32Z</datestamp>
      <setSpec>user-biosyslit</setSpec>
    </header>
    <header>
      <identifier>oai:zenodo.org:259088</identifier>
      <datestamp>2017-01-24T07:48:26Z</datestamp>
      <setSpec>user-biosyslit</setSpec>
    </header>
    <header>
      <identifier>oai:zenodo.org:259091</identifier>
      <datestamp>2017-01-24T07:48:42Z</datestamp>
      <setSpec>user-biosyslit</setSpec>
    </header>
    <header>
      <identifier>oai:zenodo.org:259018</identifier>
      <datestamp>2017-01-24T07:30:23Z</datestamp>
      <setSpec>user-biosyslit</setSpec>
    </header>
    <header>
      <identifier>oai:zenodo.org:260635</identifier>
      <datestamp>2017-01-27T22:50:31Z</datestamp>
      <setSpec>user-biosyslit</setSpec>
    </header>
    <header>
      <identifier>oai:zenodo.org:260488</identifier>
      <datestamp>2017-01-27T20:47:19Z</datestamp>
      <setSpec>user-biosyslit</setSpec>
    </header>
    <header>
      <identifier>oai:zenodo.org:258988</identifier>
      <datestamp>2017-01-24T07:17:06Z</datestamp>
      <setSpec>user-biosyslit</setSpec>
    </header>
    <header>
      <identifier>oai:zenodo.org:259095</identifier>
      <datestamp>2017-01-24T07:48:56Z</datestamp>
      <setSpec>user-biosyslit</setSpec>
    </header>
    <header>
      <identifier>oai:zenodo.org:259184</identifier>
      <datestamp>2017-01-24T08:34:46Z</datestamp>
      <setSpec>user-biosyslit</setSpec>
    </header>
    <header>
      <identifier>oai:zenodo.org:260478</identifier>
      <datestamp>2017-01-27T20:46:55Z</datestamp>
      <setSpec>user-biosyslit</setSpec>
    </header>
    <header>
      <identifier>oai:zenodo.org:259779</identifier>
      <datestamp>2017-01-25T16:05:25Z</datestamp>
      <setSpec>user-biosyslit</setSpec>
    </header>
    <header>
      <identifier>oai:zenodo.org:273387</identifier>
      <datestamp>2017-02-08T09:09:26Z</datestamp>
      <setSpec>user-biosyslit</setSpec>
    </header>
    <header>
      <identifier>oai:zenodo.org:259632</identifier>
      <datestamp>2017-01-25T14:32:16Z</datestamp>
      <setSpec>user-biosyslit</setSpec>
    </header>
    <header>
      <identifier>oai:zenodo.org:259778</identifier>
      <datestamp>2017-01-25T16:05:23Z</datestamp>
      <setSpec>user-biosyslit</setSpec>
    </header>
    <header>
      <identifier>oai:zenodo.org:259667</identifier>
      <datestamp>2017-01-25T15:00:42Z</datestamp>
      <setSpec>user-biosyslit</setSpec>
    </header>
    <header>
      <identifier>oai:zenodo.org:260649</identifier>
      <datestamp>2017-01-27T22:59:28Z</datestamp>
      <setSpec>user-biosyslit</setSpec>
    </header>
    <header>
      <identifier>oai:zenodo.org:261081</identifier>
      <datestamp>2017-01-28T04:46:09Z</datestamp>
      <setSpec>user-biosyslit</setSpec>
    </header>
    <header>
      <identifier>oai:zenodo.org:259876</identifier>
      <datestamp>2017-01-25T17:10:55Z</datestamp>
      <setSpec>user-biosyslit</setSpec>
    </header>
    <header>
      <identifier>oai:zenodo.org:260562</identifier>
      <datestamp>2017-01-27T21:51:32Z</datestamp>
      <setSpec>user-biosyslit</setSpec>
    </header>
    <header>
      <identifier>oai:zenodo.org:260673</identifier>
      <datestamp>2017-01-27T23:19:47Z</datestamp>
      <setSpec>user-biosyslit</setSpec>
    </header>
    <header>
      <identifier>oai:zenodo.org:260878</identifier>
      <datestamp>2017-01-28T01:53:24Z</datestamp>
      <setSpec>user-biosyslit</setSpec>
    </header>
    <header>
      <identifier>oai:zenodo.org:259934</identifier>
      <datestamp>2017-01-25T17:46:16Z</datestamp>
      <setSpec>user-biosyslit</setSpec>
    </header>
    <header>
      <identifier>oai:zenodo.org:260582</identifier>
      <datestamp>2017-01-27T22:07:28Z</datestamp>
      <setSpec>user-biosyslit</setSpec>
    </header>
    <header>
      <identifier>oai:zenodo.org:261132</identifier>
      <datestamp>2017-01-28T05:38:38Z</datestamp>
      <setSpec>user-biosyslit</setSpec>
    </header>
    <header>
      <identifier>oai:zenodo.org:260940</identifier>
      <datestamp>2017-01-28T02:41:27Z</datestamp>
      <setSpec>user-biosyslit</setSpec>
    </header>
    <header>
      <identifier>oai:zenodo.org:260847</identifier>
      <datestamp>2017-01-28T01:30:44Z</datestamp>
      <setSpec>user-biosyslit</setSpec>
    </header>
    <header>
      <identifier>oai:zenodo.org:261072</identifier>
      <datestamp>2017-01-28T04:40:15Z</datestamp>
      <setSpec>user-biosyslit</setSpec>
    </header>
    <header>
      <identifier>oai:zenodo.org:261114</identifier>
      <datestamp>2017-01-28T05:13:50Z</datestamp>
      <setSpec>user-biosyslit</setSpec>
    </header>
    <header>
      <identifier>oai:zenodo.org:262144</identifier>
      <datestamp>2017-01-28T22:02:54Z</datestamp>
      <setSpec>user-biosyslit</setSpec>
    </header>
    <header>
      <identifier>oai:zenodo.org:256988</identifier>
      <datestamp>2017-01-22T23:39:53Z</datestamp>
      <setSpec>user-biosyslit</setSpec>
    </header>
    <header>
      <identifier>oai:zenodo.org:256931</identifier>
      <datestamp>2017-01-22T23:04:47Z</datestamp>
      <setSpec>user-biosyslit</setSpec>
    </header>
    <resumptionToken expirationDate="2017-08-31T15:46:36Z" cursor="52300" completeListSize="77796">.eJyNyk0LgjAYAOD_8p4l3m2UJnQJSzykzKWklzAVMdcHrlAn_ve8dK7z84ygyrIAGxe4XjGKxETKGCKzLANU3j6kPNezQ36KZX6XUebG7_AWY0Ir03dUf3AS5usGgxvRYs_piVh9VOPAj9Er0WEfM68TuDMPmg_-1ZtfwQJXphf3KaL7VgpatMGOD4JsRcry7yN_Pv3zOWoDBjyzqgR7SZcGNF3WVgrscZo-v0hRXg.DInAZA.DLacI-PA85PVD9wE6jyYPjwWjxU</resumptionToken>
  </ListIdentifiers>
</OAI-PMH>
