<?xml version='1.0' encoding='UTF-8'?>
<?xml-stylesheet type="text/xsl" href="/static/xsl/oai2.v1.0.xsl"?>
<OAI-PMH xmlns="http://www.openarchives.org/OAI/2.0/" xmlns:xsi="http://www.w3.org/2001/XMLSchema-instance" xsi:schemaLocation="http://www.openarchives.org/OAI/2.0/ http://www.openarchives.org/OAI/2.0/OAI-PMH.xsd">
  <responseDate>2017-08-31T15:42:49Z</responseDate>
  <request verb="ListIdentifiers" resumptionToken=".eJyNysEKgjAYAOB3-c8S_zbLJXQRTTyk6FLSS5iKWKvEFemid69L5zp_3xNU09Rg44ybJi6oxThynJtLYoCqhquU--7DUO0yWV1kWvrZPTlnmNPWCl01btychfqE0ZlosY7pjvAx7XCKt-kt18mYseAh0LM2Op7CY_B5NYt8WRz8XqQXRwpaD5EXT4I4omDV95E_n_75XLUCA_qybcCmHA04PcqhVWA_X683m1xROg.DIm_-Q.uwOCsiTXs20R9apGRWqNLxV0pEM">https://zenodo.org/oai2d</request>
  <ListIdentifiers>
    <header>
      <identifier>oai:zenodo.org:251697</identifier>
      <datestamp>2017-01-19T03:46:05Z</datestamp>
      <setSpec>user-biosyslit</setSpec>
    </header>
    <header>
      <identifier>oai:zenodo.org:249861</identifier>
      <datestamp>2017-01-18T01:01:21Z</datestamp>
      <setSpec>user-biosyslit</setSpec>
    </header>
    <header>
      <identifier>oai:zenodo.org:251708</identifier>
      <datestamp>2017-01-19T03:45:48Z</datestamp>
      <setSpec>user-biosyslit</setSpec>
    </header>
    <header>
      <identifier>oai:zenodo.org:251702</identifier>
      <datestamp>2017-01-19T03:45:23Z</datestamp>
      <setSpec>user-biosyslit</setSpec>
    </header>
    <header>
      <identifier>oai:zenodo.org:251698</identifier>
      <datestamp>2017-01-19T03:45:10Z</datestamp>
      <setSpec>user-biosyslit</setSpec>
    </header>
    <header>
      <identifier>oai:zenodo.org:273664</identifier>
      <datestamp>2017-02-08T10:11:07Z</datestamp>
      <setSpec>user-biosyslit</setSpec>
    </header>
    <header>
      <identifier>oai:zenodo.org:232629</identifier>
      <datestamp>2017-01-06T20:51:04Z</datestamp>
      <setSpec>user-biosyslit</setSpec>
    </header>
    <header>
      <identifier>oai:zenodo.org:232630</identifier>
      <datestamp>2017-01-06T20:50:45Z</datestamp>
      <setSpec>user-biosyslit</setSpec>
    </header>
    <header>
      <identifier>oai:zenodo.org:232634</identifier>
      <datestamp>2017-01-06T20:51:00Z</datestamp>
      <setSpec>user-biosyslit</setSpec>
    </header>
    <header>
      <identifier>oai:zenodo.org:232635</identifier>
      <datestamp>2017-01-06T20:51:03Z</datestamp>
      <setSpec>user-biosyslit</setSpec>
    </header>
    <header>
      <identifier>oai:zenodo.org:232633</identifier>
      <datestamp>2017-01-06T20:50:56Z</datestamp>
      <setSpec>user-biosyslit</setSpec>
    </header>
    <header>
      <identifier>oai:zenodo.org:232631</identifier>
      <datestamp>2017-01-06T20:50:48Z</datestamp>
      <setSpec>user-biosyslit</setSpec>
    </header>
    <header>
      <identifier>oai:zenodo.org:283115</identifier>
      <datestamp>2017-02-09T08:11:25Z</datestamp>
      <setSpec>user-biosyslit</setSpec>
    </header>
    <header>
      <identifier>oai:zenodo.org:283116</identifier>
      <datestamp>2017-02-09T08:11:19Z</datestamp>
      <setSpec>user-biosyslit</setSpec>
    </header>
    <header>
      <identifier>oai:zenodo.org:283118</identifier>
      <datestamp>2017-02-09T08:11:24Z</datestamp>
      <setSpec>user-biosyslit</setSpec>
    </header>
    <header>
      <identifier>oai:zenodo.org:248750</identifier>
      <datestamp>2017-01-17T10:37:15Z</datestamp>
      <setSpec>user-biosyslit</setSpec>
    </header>
    <header>
      <identifier>oai:zenodo.org:248752</identifier>
      <datestamp>2017-01-17T10:37:22Z</datestamp>
      <setSpec>user-biosyslit</setSpec>
    </header>
    <header>
      <identifier>oai:zenodo.org:248758</identifier>
      <datestamp>2017-01-17T10:37:47Z</datestamp>
      <setSpec>user-biosyslit</setSpec>
    </header>
    <header>
      <identifier>oai:zenodo.org:248744</identifier>
      <datestamp>2017-01-17T10:36:55Z</datestamp>
      <setSpec>user-biosyslit</setSpec>
    </header>
    <header>
      <identifier>oai:zenodo.org:248760</identifier>
      <datestamp>2017-01-17T10:37:54Z</datestamp>
      <setSpec>user-biosyslit</setSpec>
    </header>
    <header>
      <identifier>oai:zenodo.org:248762</identifier>
      <datestamp>2017-01-17T10:38:01Z</datestamp>
      <setSpec>user-biosyslit</setSpec>
    </header>
    <header>
      <identifier>oai:zenodo.org:248764</identifier>
      <datestamp>2017-01-17T10:38:07Z</datestamp>
      <setSpec>user-biosyslit</setSpec>
    </header>
    <header>
      <identifier>oai:zenodo.org:231559</identifier>
      <datestamp>2017-01-06T03:55:53Z</datestamp>
      <setSpec>user-biosyslit</setSpec>
    </header>
    <header>
      <identifier>oai:zenodo.org:253311</identifier>
      <datestamp>2017-01-20T05:24:51Z</datestamp>
      <setSpec>user-biosyslit</setSpec>
    </header>
    <header>
      <identifier>oai:zenodo.org:231564</identifier>
      <datestamp>2017-01-06T03:55:51Z</datestamp>
      <setSpec>user-biosyslit</setSpec>
    </header>
    <header>
      <identifier>oai:zenodo.org:231561</identifier>
      <datestamp>2017-01-06T03:55:41Z</datestamp>
      <setSpec>user-biosyslit</setSpec>
    </header>
    <header>
      <identifier>oai:zenodo.org:253310</identifier>
      <datestamp>2017-01-20T05:25:28Z</datestamp>
      <setSpec>user-biosyslit</setSpec>
    </header>
    <header>
      <identifier>oai:zenodo.org:253314</identifier>
      <datestamp>2017-01-20T05:25:05Z</datestamp>
      <setSpec>user-biosyslit</setSpec>
    </header>
    <header>
      <identifier>oai:zenodo.org:253319</identifier>
      <datestamp>2017-01-20T05:25:27Z</datestamp>
      <setSpec>user-biosyslit</setSpec>
    </header>
    <header>
      <identifier>oai:zenodo.org:253313</identifier>
      <datestamp>2017-01-20T05:25:02Z</datestamp>
      <setSpec>user-biosyslit</setSpec>
    </header>
    <header>
      <identifier>oai:zenodo.org:253317</identifier>
      <datestamp>2017-01-20T05:25:17Z</datestamp>
      <setSpec>user-biosyslit</setSpec>
    </header>
    <header>
      <identifier>oai:zenodo.org:253315</identifier>
      <datestamp>2017-01-20T05:25:09Z</datestamp>
      <setSpec>user-biosyslit</setSpec>
    </header>
    <header>
      <identifier>oai:zenodo.org:226659</identifier>
      <datestamp>2017-01-01T01:22:33Z</datestamp>
      <setSpec>user-biosyslit</setSpec>
    </header>
    <header>
      <identifier>oai:zenodo.org:226661</identifier>
      <datestamp>2017-01-01T01:22:39Z</datestamp>
      <setSpec>user-biosyslit</setSpec>
    </header>
    <header>
      <identifier>oai:zenodo.org:226662</identifier>
      <datestamp>2017-01-01T01:22:42Z</datestamp>
      <setSpec>user-biosyslit</setSpec>
    </header>
    <header>
      <identifier>oai:zenodo.org:226660</identifier>
      <datestamp>2017-01-01T01:22:36Z</datestamp>
      <setSpec>user-biosyslit</setSpec>
    </header>
    <header>
      <identifier>oai:zenodo.org:257098</identifier>
      <datestamp>2017-01-23T01:08:21Z</datestamp>
      <setSpec>user-biosyslit</setSpec>
    </header>
    <header>
      <identifier>oai:zenodo.org:257094</identifier>
      <datestamp>2017-01-23T01:08:07Z</datestamp>
      <setSpec>user-biosyslit</setSpec>
    </header>
    <header>
      <identifier>oai:zenodo.org:257103</identifier>
      <datestamp>2017-01-23T01:08:34Z</datestamp>
      <setSpec>user-biosyslit</setSpec>
    </header>
    <header>
      <identifier>oai:zenodo.org:257097</identifier>
      <datestamp>2017-01-23T01:08:17Z</datestamp>
      <setSpec>user-biosyslit</setSpec>
    </header>
    <header>
      <identifier>oai:zenodo.org:257104</identifier>
      <datestamp>2017-01-23T01:08:37Z</datestamp>
      <setSpec>user-biosyslit</setSpec>
    </header>
    <header>
      <identifier>oai:zenodo.org:257102</identifier>
      <datestamp>2017-01-23T01:08:32Z</datestamp>
      <setSpec>user-biosyslit</setSpec>
    </header>
    <header>
      <identifier>oai:zenodo.org:257091</identifier>
      <datestamp>2017-01-23T01:08:41Z</datestamp>
      <setSpec>user-biosyslit</setSpec>
    </header>
    <header>
      <identifier>oai:zenodo.org:251068</identifier>
      <datestamp>2017-01-18T18:29:21Z</datestamp>
      <setSpec>user-biosyslit</setSpec>
    </header>
    <header>
      <identifier>oai:zenodo.org:257105</identifier>
      <datestamp>2017-01-23T01:08:39Z</datestamp>
      <setSpec>user-biosyslit</setSpec>
    </header>
    <header>
      <identifier>oai:zenodo.org:251064</identifier>
      <datestamp>2017-01-18T18:29:32Z</datestamp>
      <setSpec>user-biosyslit</setSpec>
    </header>
    <header>
      <identifier>oai:zenodo.org:251070</identifier>
      <datestamp>2017-01-18T18:29:25Z</datestamp>
      <setSpec>user-biosyslit</setSpec>
    </header>
    <header>
      <identifier>oai:zenodo.org:261986</identifier>
      <datestamp>2017-01-28T18:44:07Z</datestamp>
      <setSpec>user-biosyslit</setSpec>
    </header>
    <header>
      <identifier>oai:zenodo.org:261983</identifier>
      <datestamp>2017-01-28T18:43:59Z</datestamp>
      <setSpec>user-biosyslit</setSpec>
    </header>
    <header>
      <identifier>oai:zenodo.org:261982</identifier>
      <datestamp>2017-01-28T18:43:57Z</datestamp>
      <setSpec>user-biosyslit</setSpec>
    </header>
    <header>
      <identifier>oai:zenodo.org:261980</identifier>
      <datestamp>2017-01-28T18:44:08Z</datestamp>
      <setSpec>user-biosyslit</setSpec>
    </header>
    <header>
      <identifier>oai:zenodo.org:228284</identifier>
      <datestamp>2017-01-02T21:12:33Z</datestamp>
      <setSpec>user-biosyslit</setSpec>
    </header>
    <header>
      <identifier>oai:zenodo.org:228283</identifier>
      <datestamp>2017-01-02T21:12:28Z</datestamp>
      <setSpec>user-biosyslit</setSpec>
    </header>
    <header>
      <identifier>oai:zenodo.org:228285</identifier>
      <datestamp>2017-01-02T21:12:37Z</datestamp>
      <setSpec>user-biosyslit</setSpec>
    </header>
    <header>
      <identifier>oai:zenodo.org:229348</identifier>
      <datestamp>2017-01-03T14:46:28Z</datestamp>
      <setSpec>user-biosyslit</setSpec>
    </header>
    <header>
      <identifier>oai:zenodo.org:228272</identifier>
      <datestamp>2017-01-02T21:11:42Z</datestamp>
      <setSpec>user-biosyslit</setSpec>
    </header>
    <header>
      <identifier>oai:zenodo.org:228270</identifier>
      <datestamp>2017-01-02T21:11:16Z</datestamp>
      <setSpec>user-biosyslit</setSpec>
    </header>
    <header>
      <identifier>oai:zenodo.org:226810</identifier>
      <datestamp>2017-01-01T03:39:32Z</datestamp>
      <setSpec>user-biosyslit</setSpec>
    </header>
    <header>
      <identifier>oai:zenodo.org:226811</identifier>
      <datestamp>2017-01-01T03:39:06Z</datestamp>
      <setSpec>user-biosyslit</setSpec>
    </header>
    <header>
      <identifier>oai:zenodo.org:287407</identifier>
      <datestamp>2017-02-09T18:14:25Z</datestamp>
      <setSpec>user-biosyslit</setSpec>
    </header>
    <header>
      <identifier>oai:zenodo.org:287405</identifier>
      <datestamp>2017-02-09T18:14:19Z</datestamp>
      <setSpec>user-biosyslit</setSpec>
    </header>
    <header>
      <identifier>oai:zenodo.org:253765</identifier>
      <datestamp>2017-01-20T10:58:40Z</datestamp>
      <setSpec>user-biosyslit</setSpec>
    </header>
    <header>
      <identifier>oai:zenodo.org:253768</identifier>
      <datestamp>2017-01-20T10:58:48Z</datestamp>
      <setSpec>user-biosyslit</setSpec>
    </header>
    <header>
      <identifier>oai:zenodo.org:253770</identifier>
      <datestamp>2017-01-20T10:58:53Z</datestamp>
      <setSpec>user-biosyslit</setSpec>
    </header>
    <header>
      <identifier>oai:zenodo.org:253773</identifier>
      <datestamp>2017-01-20T10:58:59Z</datestamp>
      <setSpec>user-biosyslit</setSpec>
    </header>
    <header>
      <identifier>oai:zenodo.org:287408</identifier>
      <datestamp>2017-02-09T18:14:27Z</datestamp>
      <setSpec>user-biosyslit</setSpec>
    </header>
    <header>
      <identifier>oai:zenodo.org:253769</identifier>
      <datestamp>2017-01-20T10:58:51Z</datestamp>
      <setSpec>user-biosyslit</setSpec>
    </header>
    <header>
      <identifier>oai:zenodo.org:253767</identifier>
      <datestamp>2017-01-20T10:58:45Z</datestamp>
      <setSpec>user-biosyslit</setSpec>
    </header>
    <header>
      <identifier>oai:zenodo.org:253774</identifier>
      <datestamp>2017-01-20T10:59:02Z</datestamp>
      <setSpec>user-biosyslit</setSpec>
    </header>
    <header>
      <identifier>oai:zenodo.org:253764</identifier>
      <datestamp>2017-01-20T10:59:09Z</datestamp>
      <setSpec>user-biosyslit</setSpec>
    </header>
    <header>
      <identifier>oai:zenodo.org:253776</identifier>
      <datestamp>2017-01-20T10:59:07Z</datestamp>
      <setSpec>user-biosyslit</setSpec>
    </header>
    <header>
      <identifier>oai:zenodo.org:253775</identifier>
      <datestamp>2017-01-20T10:59:05Z</datestamp>
      <setSpec>user-biosyslit</setSpec>
    </header>
    <header>
      <identifier>oai:zenodo.org:253886</identifier>
      <datestamp>2017-01-20T12:14:08Z</datestamp>
      <setSpec>user-biosyslit</setSpec>
    </header>
    <header>
      <identifier>oai:zenodo.org:253887</identifier>
      <datestamp>2017-01-20T12:14:14Z</datestamp>
      <setSpec>user-biosyslit</setSpec>
    </header>
    <header>
      <identifier>oai:zenodo.org:253892</identifier>
      <datestamp>2017-01-20T12:14:33Z</datestamp>
      <setSpec>user-biosyslit</setSpec>
    </header>
    <header>
      <identifier>oai:zenodo.org:253891</identifier>
      <datestamp>2017-01-20T12:14:27Z</datestamp>
      <setSpec>user-biosyslit</setSpec>
    </header>
    <header>
      <identifier>oai:zenodo.org:253888</identifier>
      <datestamp>2017-01-20T12:14:18Z</datestamp>
      <setSpec>user-biosyslit</setSpec>
    </header>
    <header>
      <identifier>oai:zenodo.org:253889</identifier>
      <datestamp>2017-01-20T12:14:21Z</datestamp>
      <setSpec>user-biosyslit</setSpec>
    </header>
    <header>
      <identifier>oai:zenodo.org:239899</identifier>
      <datestamp>2017-01-12T02:31:08Z</datestamp>
      <setSpec>user-biosyslit</setSpec>
    </header>
    <header>
      <identifier>oai:zenodo.org:231482</identifier>
      <datestamp>2017-01-06T02:38:56Z</datestamp>
      <setSpec>user-biosyslit</setSpec>
    </header>
    <header>
      <identifier>oai:zenodo.org:235649</identifier>
      <datestamp>2017-01-09T13:14:22Z</datestamp>
      <setSpec>user-biosyslit</setSpec>
    </header>
    <header>
      <identifier>oai:zenodo.org:231483</identifier>
      <datestamp>2017-01-06T02:38:38Z</datestamp>
      <setSpec>user-biosyslit</setSpec>
    </header>
    <header>
      <identifier>oai:zenodo.org:228905</identifier>
      <datestamp>2017-01-03T06:55:17Z</datestamp>
      <setSpec>user-biosyslit</setSpec>
    </header>
    <header>
      <identifier>oai:zenodo.org:231487</identifier>
      <datestamp>2017-01-06T02:38:49Z</datestamp>
      <setSpec>user-biosyslit</setSpec>
    </header>
    <header>
      <identifier>oai:zenodo.org:231488</identifier>
      <datestamp>2017-01-06T02:38:52Z</datestamp>
      <setSpec>user-biosyslit</setSpec>
    </header>
    <header>
      <identifier>oai:zenodo.org:228904</identifier>
      <datestamp>2017-01-03T06:55:15Z</datestamp>
      <setSpec>user-biosyslit</setSpec>
    </header>
    <header>
      <identifier>oai:zenodo.org:231486</identifier>
      <datestamp>2017-01-06T02:38:47Z</datestamp>
      <setSpec>user-biosyslit</setSpec>
    </header>
    <header>
      <identifier>oai:zenodo.org:239924</identifier>
      <datestamp>2017-01-12T02:30:26Z</datestamp>
      <setSpec>user-biosyslit</setSpec>
    </header>
    <header>
      <identifier>oai:zenodo.org:235363</identifier>
      <datestamp>2017-01-09T09:28:10Z</datestamp>
      <setSpec>user-biosyslit</setSpec>
    </header>
    <header>
      <identifier>oai:zenodo.org:235364</identifier>
      <datestamp>2017-01-09T09:28:06Z</datestamp>
      <setSpec>user-biosyslit</setSpec>
    </header>
    <header>
      <identifier>oai:zenodo.org:257420</identifier>
      <datestamp>2017-01-23T06:43:33Z</datestamp>
      <setSpec>user-biosyslit</setSpec>
    </header>
    <header>
      <identifier>oai:zenodo.org:257421</identifier>
      <datestamp>2017-01-23T06:43:39Z</datestamp>
      <setSpec>user-biosyslit</setSpec>
    </header>
    <header>
      <identifier>oai:zenodo.org:257427</identifier>
      <datestamp>2017-01-23T06:44:06Z</datestamp>
      <setSpec>user-biosyslit</setSpec>
    </header>
    <header>
      <identifier>oai:zenodo.org:257425</identifier>
      <datestamp>2017-01-23T06:44:01Z</datestamp>
      <setSpec>user-biosyslit</setSpec>
    </header>
    <header>
      <identifier>oai:zenodo.org:257424</identifier>
      <datestamp>2017-01-23T06:43:58Z</datestamp>
      <setSpec>user-biosyslit</setSpec>
    </header>
    <header>
      <identifier>oai:zenodo.org:257423</identifier>
      <datestamp>2017-01-23T06:43:54Z</datestamp>
      <setSpec>user-biosyslit</setSpec>
    </header>
    <header>
      <identifier>oai:zenodo.org:251917</identifier>
      <datestamp>2017-01-19T06:09:51Z</datestamp>
      <setSpec>user-biosyslit</setSpec>
    </header>
    <header>
      <identifier>oai:zenodo.org:251918</identifier>
      <datestamp>2017-01-19T06:09:59Z</datestamp>
      <setSpec>user-biosyslit</setSpec>
    </header>
    <header>
      <identifier>oai:zenodo.org:251912</identifier>
      <datestamp>2017-01-19T06:09:38Z</datestamp>
      <setSpec>user-biosyslit</setSpec>
    </header>
    <header>
      <identifier>oai:zenodo.org:251916</identifier>
      <datestamp>2017-01-19T06:09:49Z</datestamp>
      <setSpec>user-biosyslit</setSpec>
    </header>
    <resumptionToken expirationDate="2017-08-31T15:44:49Z" cursor="27900" completeListSize="77796">.eJyNyj0LgkAYAOD_8s4S9wGeCS2iiYOKXoq2hJ0i5lXiFepJ_72W5pqfZwXVNDXYaEOpSRizKCaWyciWGqDEeJfy1H0YRJFLcZNZ5efP9JqjkrQsctUcuiWNdI_iK9Z8n5ACW3PWoSU5ZI9Sp3NOg4kjj4U6WaJL8Hk1jX15PPsDz26O5KQeYy9ZOHb4kYrvw38-_fO5agcGDFXbgE0sbEA_VWOrwF5frzeinlFD.DIm_-Q.VMoPpAqm9ZDVcmvQ43wgdSlvbRE</resumptionToken>
  </ListIdentifiers>
</OAI-PMH>
