<?xml version='1.0' encoding='UTF-8'?>
<?xml-stylesheet type="text/xsl" href="/static/xsl/oai2.v1.0.xsl"?>
<OAI-PMH xmlns="http://www.openarchives.org/OAI/2.0/" xmlns:xsi="http://www.w3.org/2001/XMLSchema-instance" xsi:schemaLocation="http://www.openarchives.org/OAI/2.0/ http://www.openarchives.org/OAI/2.0/OAI-PMH.xsd">
  <responseDate>2017-08-31T15:42:42Z</responseDate>
  <request verb="ListIdentifiers" resumptionToken=".eJyNyssKgkAUANB_uWuJeZCTQhuxpIWKTiPqJkxFyumBU6gj_ntuWtf6nAlUXVdgoxXaYGYxa21SShlBa9MAVXYPKU-XxaFME1nepSi85B3fEpSRhgWuGnw3o4FuUXjDmu8jkuLNIC5ojI7ilel4SOih52jHfB2NwfWwvIqGnszP3pOLuyM5qbpwF40cOzyn5ffhP5_--Vy1BQOeRVODTUxsQNsXXaPAnub5A9dSUXU.DIm_8g.IIsbD2Hw5cIRa8rUIFGrEqzvX4E">https://zenodo.org/oai2d</request>
  <ListIdentifiers>
    <header>
      <identifier>oai:zenodo.org:234201</identifier>
      <datestamp>2017-01-08T16:17:10Z</datestamp>
      <setSpec>user-biosyslit</setSpec>
    </header>
    <header>
      <identifier>oai:zenodo.org:234204</identifier>
      <datestamp>2017-01-08T16:17:23Z</datestamp>
      <setSpec>user-biosyslit</setSpec>
    </header>
    <header>
      <identifier>oai:zenodo.org:234208</identifier>
      <datestamp>2017-01-08T16:17:36Z</datestamp>
      <setSpec>user-biosyslit</setSpec>
    </header>
    <header>
      <identifier>oai:zenodo.org:280937</identifier>
      <datestamp>2017-02-09T04:22:26Z</datestamp>
      <setSpec>user-biosyslit</setSpec>
    </header>
    <header>
      <identifier>oai:zenodo.org:280936</identifier>
      <datestamp>2017-02-09T04:22:23Z</datestamp>
      <setSpec>user-biosyslit</setSpec>
    </header>
    <header>
      <identifier>oai:zenodo.org:249156</identifier>
      <datestamp>2017-01-17T16:50:44Z</datestamp>
      <setSpec>user-biosyslit</setSpec>
    </header>
    <header>
      <identifier>oai:zenodo.org:234209</identifier>
      <datestamp>2017-01-08T16:17:38Z</datestamp>
      <setSpec>user-biosyslit</setSpec>
    </header>
    <header>
      <identifier>oai:zenodo.org:228693</identifier>
      <datestamp>2017-01-03T03:34:44Z</datestamp>
      <setSpec>user-biosyslit</setSpec>
    </header>
    <header>
      <identifier>oai:zenodo.org:228694</identifier>
      <datestamp>2017-01-03T03:34:21Z</datestamp>
      <setSpec>user-biosyslit</setSpec>
    </header>
    <header>
      <identifier>oai:zenodo.org:228695</identifier>
      <datestamp>2017-01-03T03:34:35Z</datestamp>
      <setSpec>user-biosyslit</setSpec>
    </header>
    <header>
      <identifier>oai:zenodo.org:228697</identifier>
      <datestamp>2017-01-03T03:34:42Z</datestamp>
      <setSpec>user-biosyslit</setSpec>
    </header>
    <header>
      <identifier>oai:zenodo.org:238316</identifier>
      <datestamp>2017-01-11T04:00:37Z</datestamp>
      <setSpec>user-biosyslit</setSpec>
    </header>
    <header>
      <identifier>oai:zenodo.org:277141</identifier>
      <datestamp>2017-02-08T20:29:50Z</datestamp>
      <setSpec>user-biosyslit</setSpec>
    </header>
    <header>
      <identifier>oai:zenodo.org:238320</identifier>
      <datestamp>2017-01-11T04:00:27Z</datestamp>
      <setSpec>user-biosyslit</setSpec>
    </header>
    <header>
      <identifier>oai:zenodo.org:238321</identifier>
      <datestamp>2017-01-11T04:00:30Z</datestamp>
      <setSpec>user-biosyslit</setSpec>
    </header>
    <header>
      <identifier>oai:zenodo.org:238318</identifier>
      <datestamp>2017-01-11T04:00:20Z</datestamp>
      <setSpec>user-biosyslit</setSpec>
    </header>
    <header>
      <identifier>oai:zenodo.org:238317</identifier>
      <datestamp>2017-01-11T04:00:18Z</datestamp>
      <setSpec>user-biosyslit</setSpec>
    </header>
    <header>
      <identifier>oai:zenodo.org:238319</identifier>
      <datestamp>2017-01-11T04:00:23Z</datestamp>
      <setSpec>user-biosyslit</setSpec>
    </header>
    <header>
      <identifier>oai:zenodo.org:238323</identifier>
      <datestamp>2017-01-11T04:00:36Z</datestamp>
      <setSpec>user-biosyslit</setSpec>
    </header>
    <header>
      <identifier>oai:zenodo.org:273342</identifier>
      <datestamp>2017-02-08T09:01:24Z</datestamp>
      <setSpec>user-biosyslit</setSpec>
    </header>
    <header>
      <identifier>oai:zenodo.org:273343</identifier>
      <datestamp>2017-02-08T09:01:23Z</datestamp>
      <setSpec>user-biosyslit</setSpec>
    </header>
    <header>
      <identifier>oai:zenodo.org:287960</identifier>
      <datestamp>2017-02-09T19:41:10Z</datestamp>
      <setSpec>user-biosyslit</setSpec>
    </header>
    <header>
      <identifier>oai:zenodo.org:287962</identifier>
      <datestamp>2017-02-09T19:41:15Z</datestamp>
      <setSpec>user-biosyslit</setSpec>
    </header>
    <header>
      <identifier>oai:zenodo.org:287961</identifier>
      <datestamp>2017-02-09T19:41:12Z</datestamp>
      <setSpec>user-biosyslit</setSpec>
    </header>
    <header>
      <identifier>oai:zenodo.org:234247</identifier>
      <datestamp>2017-01-08T17:35:00Z</datestamp>
      <setSpec>user-biosyslit</setSpec>
    </header>
    <header>
      <identifier>oai:zenodo.org:234248</identifier>
      <datestamp>2017-01-08T17:35:05Z</datestamp>
      <setSpec>user-biosyslit</setSpec>
    </header>
    <header>
      <identifier>oai:zenodo.org:234252</identifier>
      <datestamp>2017-01-08T17:35:22Z</datestamp>
      <setSpec>user-biosyslit</setSpec>
    </header>
    <header>
      <identifier>oai:zenodo.org:244564</identifier>
      <datestamp>2017-01-14T23:29:14Z</datestamp>
      <setSpec>user-biosyslit</setSpec>
    </header>
    <header>
      <identifier>oai:zenodo.org:244560</identifier>
      <datestamp>2017-01-14T23:29:01Z</datestamp>
      <setSpec>user-biosyslit</setSpec>
    </header>
    <header>
      <identifier>oai:zenodo.org:244563</identifier>
      <datestamp>2017-01-14T23:29:11Z</datestamp>
      <setSpec>user-biosyslit</setSpec>
    </header>
    <header>
      <identifier>oai:zenodo.org:244559</identifier>
      <datestamp>2017-01-14T23:28:57Z</datestamp>
      <setSpec>user-biosyslit</setSpec>
    </header>
    <header>
      <identifier>oai:zenodo.org:244555</identifier>
      <datestamp>2017-01-14T23:28:46Z</datestamp>
      <setSpec>user-biosyslit</setSpec>
    </header>
    <header>
      <identifier>oai:zenodo.org:814625</identifier>
      <datestamp>2017-06-20T09:18:12Z</datestamp>
      <setSpec>user-biosyslit</setSpec>
    </header>
    <header>
      <identifier>oai:zenodo.org:814623</identifier>
      <datestamp>2017-06-20T09:18:05Z</datestamp>
      <setSpec>user-biosyslit</setSpec>
    </header>
    <header>
      <identifier>oai:zenodo.org:814633</identifier>
      <datestamp>2017-06-20T09:18:26Z</datestamp>
      <setSpec>user-biosyslit</setSpec>
    </header>
    <header>
      <identifier>oai:zenodo.org:814631</identifier>
      <datestamp>2017-06-20T09:18:23Z</datestamp>
      <setSpec>user-biosyslit</setSpec>
    </header>
    <header>
      <identifier>oai:zenodo.org:814635</identifier>
      <datestamp>2017-06-20T09:18:29Z</datestamp>
      <setSpec>user-biosyslit</setSpec>
    </header>
    <header>
      <identifier>oai:zenodo.org:814615</identifier>
      <datestamp>2017-06-20T09:17:27Z</datestamp>
      <setSpec>user-biosyslit</setSpec>
    </header>
    <header>
      <identifier>oai:zenodo.org:814617</identifier>
      <datestamp>2017-06-20T09:17:35Z</datestamp>
      <setSpec>user-biosyslit</setSpec>
    </header>
    <header>
      <identifier>oai:zenodo.org:233416</identifier>
      <datestamp>2017-01-08T04:45:18Z</datestamp>
      <setSpec>user-biosyslit</setSpec>
    </header>
    <header>
      <identifier>oai:zenodo.org:263754</identifier>
      <datestamp>2017-01-30T07:32:05Z</datestamp>
      <setSpec>user-biosyslit</setSpec>
    </header>
    <header>
      <identifier>oai:zenodo.org:263750</identifier>
      <datestamp>2017-01-30T07:31:51Z</datestamp>
      <setSpec>user-biosyslit</setSpec>
    </header>
    <header>
      <identifier>oai:zenodo.org:263763</identifier>
      <datestamp>2017-01-30T07:32:32Z</datestamp>
      <setSpec>user-biosyslit</setSpec>
    </header>
    <header>
      <identifier>oai:zenodo.org:263761</identifier>
      <datestamp>2017-01-30T07:32:27Z</datestamp>
      <setSpec>user-biosyslit</setSpec>
    </header>
    <header>
      <identifier>oai:zenodo.org:263758</identifier>
      <datestamp>2017-01-30T07:32:18Z</datestamp>
      <setSpec>user-biosyslit</setSpec>
    </header>
    <header>
      <identifier>oai:zenodo.org:263757</identifier>
      <datestamp>2017-01-30T07:32:15Z</datestamp>
      <setSpec>user-biosyslit</setSpec>
    </header>
    <header>
      <identifier>oai:zenodo.org:256526</identifier>
      <datestamp>2017-01-22T17:03:53Z</datestamp>
      <setSpec>user-biosyslit</setSpec>
    </header>
    <header>
      <identifier>oai:zenodo.org:256528</identifier>
      <datestamp>2017-01-22T17:03:59Z</datestamp>
      <setSpec>user-biosyslit</setSpec>
    </header>
    <header>
      <identifier>oai:zenodo.org:255186</identifier>
      <datestamp>2017-01-21T09:04:48Z</datestamp>
      <setSpec>user-biosyslit</setSpec>
    </header>
    <header>
      <identifier>oai:zenodo.org:255189</identifier>
      <datestamp>2017-01-21T09:04:41Z</datestamp>
      <setSpec>user-biosyslit</setSpec>
    </header>
    <header>
      <identifier>oai:zenodo.org:255187</identifier>
      <datestamp>2017-01-21T09:04:34Z</datestamp>
      <setSpec>user-biosyslit</setSpec>
    </header>
    <header>
      <identifier>oai:zenodo.org:254470</identifier>
      <datestamp>2017-01-20T19:06:03Z</datestamp>
      <setSpec>user-biosyslit</setSpec>
    </header>
    <header>
      <identifier>oai:zenodo.org:254467</identifier>
      <datestamp>2017-01-20T19:05:55Z</datestamp>
      <setSpec>user-biosyslit</setSpec>
    </header>
    <header>
      <identifier>oai:zenodo.org:229126</identifier>
      <datestamp>2017-01-03T10:16:08Z</datestamp>
      <setSpec>user-biosyslit</setSpec>
    </header>
    <header>
      <identifier>oai:zenodo.org:229134</identifier>
      <datestamp>2017-01-03T10:15:50Z</datestamp>
      <setSpec>user-biosyslit</setSpec>
    </header>
    <header>
      <identifier>oai:zenodo.org:229135</identifier>
      <datestamp>2017-01-03T10:15:54Z</datestamp>
      <setSpec>user-biosyslit</setSpec>
    </header>
    <header>
      <identifier>oai:zenodo.org:229132</identifier>
      <datestamp>2017-01-03T10:15:44Z</datestamp>
      <setSpec>user-biosyslit</setSpec>
    </header>
    <header>
      <identifier>oai:zenodo.org:229131</identifier>
      <datestamp>2017-01-03T10:15:39Z</datestamp>
      <setSpec>user-biosyslit</setSpec>
    </header>
    <header>
      <identifier>oai:zenodo.org:244590</identifier>
      <datestamp>2017-01-14T23:55:44Z</datestamp>
      <setSpec>user-biosyslit</setSpec>
    </header>
    <header>
      <identifier>oai:zenodo.org:279309</identifier>
      <datestamp>2017-02-09T01:04:41Z</datestamp>
      <setSpec>user-biosyslit</setSpec>
    </header>
    <header>
      <identifier>oai:zenodo.org:242516</identifier>
      <datestamp>2017-01-13T16:10:54Z</datestamp>
      <setSpec>user-biosyslit</setSpec>
    </header>
    <header>
      <identifier>oai:zenodo.org:279334</identifier>
      <datestamp>2017-02-09T01:04:34Z</datestamp>
      <setSpec>user-biosyslit</setSpec>
    </header>
    <header>
      <identifier>oai:zenodo.org:279336</identifier>
      <datestamp>2017-02-09T01:04:39Z</datestamp>
      <setSpec>user-biosyslit</setSpec>
    </header>
    <header>
      <identifier>oai:zenodo.org:279335</identifier>
      <datestamp>2017-02-09T01:04:37Z</datestamp>
      <setSpec>user-biosyslit</setSpec>
    </header>
    <header>
      <identifier>oai:zenodo.org:252099</identifier>
      <datestamp>2017-01-19T09:03:32Z</datestamp>
      <setSpec>user-biosyslit</setSpec>
    </header>
    <header>
      <identifier>oai:zenodo.org:252097</identifier>
      <datestamp>2017-01-19T09:03:26Z</datestamp>
      <setSpec>user-biosyslit</setSpec>
    </header>
    <header>
      <identifier>oai:zenodo.org:252098</identifier>
      <datestamp>2017-01-19T09:03:29Z</datestamp>
      <setSpec>user-biosyslit</setSpec>
    </header>
    <header>
      <identifier>oai:zenodo.org:252100</identifier>
      <datestamp>2017-01-19T09:03:35Z</datestamp>
      <setSpec>user-biosyslit</setSpec>
    </header>
    <header>
      <identifier>oai:zenodo.org:279109</identifier>
      <datestamp>2017-02-09T00:38:08Z</datestamp>
      <setSpec>user-biosyslit</setSpec>
    </header>
    <header>
      <identifier>oai:zenodo.org:252096</identifier>
      <datestamp>2017-01-19T09:03:23Z</datestamp>
      <setSpec>user-biosyslit</setSpec>
    </header>
    <header>
      <identifier>oai:zenodo.org:252095</identifier>
      <datestamp>2017-01-19T09:03:20Z</datestamp>
      <setSpec>user-biosyslit</setSpec>
    </header>
    <header>
      <identifier>oai:zenodo.org:279108</identifier>
      <datestamp>2017-02-09T00:38:05Z</datestamp>
      <setSpec>user-biosyslit</setSpec>
    </header>
    <header>
      <identifier>oai:zenodo.org:279107</identifier>
      <datestamp>2017-02-09T00:38:14Z</datestamp>
      <setSpec>user-biosyslit</setSpec>
    </header>
    <header>
      <identifier>oai:zenodo.org:279111</identifier>
      <datestamp>2017-02-09T00:38:13Z</datestamp>
      <setSpec>user-biosyslit</setSpec>
    </header>
    <header>
      <identifier>oai:zenodo.org:281315</identifier>
      <datestamp>2017-02-09T05:07:14Z</datestamp>
      <setSpec>user-biosyslit</setSpec>
    </header>
    <header>
      <identifier>oai:zenodo.org:281320</identifier>
      <datestamp>2017-02-09T05:07:25Z</datestamp>
      <setSpec>user-biosyslit</setSpec>
    </header>
    <header>
      <identifier>oai:zenodo.org:284272</identifier>
      <datestamp>2017-02-09T10:51:32Z</datestamp>
      <setSpec>user-biosyslit</setSpec>
    </header>
    <header>
      <identifier>oai:zenodo.org:282100</identifier>
      <datestamp>2017-02-09T06:27:10Z</datestamp>
      <setSpec>user-biosyslit</setSpec>
    </header>
    <header>
      <identifier>oai:zenodo.org:226968</identifier>
      <datestamp>2017-01-01T07:33:05Z</datestamp>
      <setSpec>user-biosyslit</setSpec>
    </header>
    <header>
      <identifier>oai:zenodo.org:226973</identifier>
      <datestamp>2017-01-01T07:33:04Z</datestamp>
      <setSpec>user-biosyslit</setSpec>
    </header>
    <header>
      <identifier>oai:zenodo.org:226972</identifier>
      <datestamp>2017-01-01T07:33:00Z</datestamp>
      <setSpec>user-biosyslit</setSpec>
    </header>
    <header>
      <identifier>oai:zenodo.org:226969</identifier>
      <datestamp>2017-01-01T07:32:49Z</datestamp>
      <setSpec>user-biosyslit</setSpec>
    </header>
    <header>
      <identifier>oai:zenodo.org:229933</identifier>
      <datestamp>2017-01-04T16:05:44Z</datestamp>
      <setSpec>user-biosyslit</setSpec>
    </header>
    <header>
      <identifier>oai:zenodo.org:229932</identifier>
      <datestamp>2017-01-04T16:05:40Z</datestamp>
      <setSpec>user-biosyslit</setSpec>
    </header>
    <header>
      <identifier>oai:zenodo.org:229931</identifier>
      <datestamp>2017-01-04T16:05:37Z</datestamp>
      <setSpec>user-biosyslit</setSpec>
    </header>
    <header>
      <identifier>oai:zenodo.org:277023</identifier>
      <datestamp>2017-02-08T20:13:07Z</datestamp>
      <setSpec>user-biosyslit</setSpec>
    </header>
    <header>
      <identifier>oai:zenodo.org:277022</identifier>
      <datestamp>2017-02-08T20:13:09Z</datestamp>
      <setSpec>user-biosyslit</setSpec>
    </header>
    <header>
      <identifier>oai:zenodo.org:274427</identifier>
      <datestamp>2017-02-08T13:10:05Z</datestamp>
      <setSpec>user-biosyslit</setSpec>
    </header>
    <header>
      <identifier>oai:zenodo.org:274426</identifier>
      <datestamp>2017-02-08T13:10:07Z</datestamp>
      <setSpec>user-biosyslit</setSpec>
    </header>
    <header>
      <identifier>oai:zenodo.org:244277</identifier>
      <datestamp>2017-01-14T18:57:45Z</datestamp>
      <setSpec>user-biosyslit</setSpec>
    </header>
    <header>
      <identifier>oai:zenodo.org:228999</identifier>
      <datestamp>2017-01-03T08:16:59Z</datestamp>
      <setSpec>user-biosyslit</setSpec>
    </header>
    <header>
      <identifier>oai:zenodo.org:244283</identifier>
      <datestamp>2017-01-14T18:57:31Z</datestamp>
      <setSpec>user-biosyslit</setSpec>
    </header>
    <header>
      <identifier>oai:zenodo.org:244285</identifier>
      <datestamp>2017-01-14T18:57:38Z</datestamp>
      <setSpec>user-biosyslit</setSpec>
    </header>
    <header>
      <identifier>oai:zenodo.org:244284</identifier>
      <datestamp>2017-01-14T18:57:35Z</datestamp>
      <setSpec>user-biosyslit</setSpec>
    </header>
    <header>
      <identifier>oai:zenodo.org:229001</identifier>
      <datestamp>2017-01-03T08:16:54Z</datestamp>
      <setSpec>user-biosyslit</setSpec>
    </header>
    <header>
      <identifier>oai:zenodo.org:264777</identifier>
      <datestamp>2017-01-31T02:32:12Z</datestamp>
      <setSpec>user-biosyslit</setSpec>
    </header>
    <header>
      <identifier>oai:zenodo.org:248060</identifier>
      <datestamp>2017-01-16T23:18:35Z</datestamp>
      <setSpec>user-biosyslit</setSpec>
    </header>
    <header>
      <identifier>oai:zenodo.org:248061</identifier>
      <datestamp>2017-01-16T23:18:39Z</datestamp>
      <setSpec>user-biosyslit</setSpec>
    </header>
    <header>
      <identifier>oai:zenodo.org:248064</identifier>
      <datestamp>2017-01-16T23:18:53Z</datestamp>
      <setSpec>user-biosyslit</setSpec>
    </header>
    <header>
      <identifier>oai:zenodo.org:248071</identifier>
      <datestamp>2017-01-16T23:19:21Z</datestamp>
      <setSpec>user-biosyslit</setSpec>
    </header>
    <resumptionToken expirationDate="2017-08-31T15:44:42Z" cursor="26000" completeListSize="77796">.eJyNyk0LgjAYAOD_8p4ltr1ZIXQRSzqkzLWhXcKmSLU-cIW66L_XpXOdn-cJtq4rCMiI0TEiUt-fjBmSGfU9sLq9GrM7fBx0roy-GFnG6pGdFSlYM00i26-jAhN3IumZOrHkLKezXh7IwDfyXrisV7jqBFlM144PyXH1eRWmsdnu45uQl9AIVrXpgg-ChmKL-vvon8_9fJGdgwe3sqkhYBPmwakr28ZC8Hy93sAJUV0.DIm_8g.R1nPzq9kEqjXu8cq3VBOTiWxegM</resumptionToken>
  </ListIdentifiers>
</OAI-PMH>
