<?xml version='1.0' encoding='UTF-8'?>
<?xml-stylesheet type="text/xsl" href="/static/xsl/oai2.v1.0.xsl"?>
<OAI-PMH xmlns="http://www.openarchives.org/OAI/2.0/" xmlns:xsi="http://www.w3.org/2001/XMLSchema-instance" xsi:schemaLocation="http://www.openarchives.org/OAI/2.0/ http://www.openarchives.org/OAI/2.0/OAI-PMH.xsd">
  <responseDate>2017-08-31T15:42:21Z</responseDate>
  <request verb="ListIdentifiers" resumptionToken=".eJyNyssKgkAUANB_uWuJefhCaBOWuFDRSck2YSpijiZOoY7477lpXetzFhBlWYCFdqqm65Ro2EAYqaaKqQIiH56c3-rNIb8kPO94nDnJO2oTlJLK8G0xeXZKfdmgoMWSnUJyweYU12gOz_ErldGUUHdk6Gh4Mpz9h7u9ggYOv96dnsXdgTNSDMExnBk-sCvNvw__-eTPZ4s9KNBnVQkWQaYCzZgNlQBrWdcPxAlRYQ.DIm_3Q.bH2lZ0n2w7DDHtiTzLTISRXuaKM">https://zenodo.org/oai2d</request>
  <ListIdentifiers>
    <header>
      <identifier>oai:zenodo.org:578867</identifier>
      <datestamp>2017-06-02T15:35:46Z</datestamp>
      <setSpec>openaire</setSpec>
      <setSpec>user-biosyslit</setSpec>
    </header>
    <header>
      <identifier>oai:zenodo.org:576438</identifier>
      <datestamp>2017-06-02T15:35:55Z</datestamp>
      <setSpec>openaire</setSpec>
      <setSpec>user-biosyslit</setSpec>
    </header>
    <header>
      <identifier>oai:zenodo.org:574532</identifier>
      <datestamp>2017-06-02T14:33:55Z</datestamp>
      <setSpec>openaire</setSpec>
      <setSpec>user-biosyslit</setSpec>
    </header>
    <header>
      <identifier>oai:zenodo.org:578579</identifier>
      <datestamp>2017-06-02T14:33:55Z</datestamp>
      <setSpec>openaire</setSpec>
      <setSpec>user-biosyslit</setSpec>
    </header>
    <header>
      <identifier>oai:zenodo.org:577002</identifier>
      <datestamp>2017-06-02T14:33:48Z</datestamp>
      <setSpec>openaire</setSpec>
      <setSpec>user-biosyslit</setSpec>
    </header>
    <header>
      <identifier>oai:zenodo.org:574334</identifier>
      <datestamp>2017-06-02T14:33:49Z</datestamp>
      <setSpec>openaire</setSpec>
      <setSpec>user-biosyslit</setSpec>
    </header>
    <header>
      <identifier>oai:zenodo.org:575468</identifier>
      <datestamp>2017-06-02T14:33:52Z</datestamp>
      <setSpec>openaire</setSpec>
      <setSpec>user-biosyslit</setSpec>
    </header>
    <header>
      <identifier>oai:zenodo.org:578180</identifier>
      <datestamp>2017-06-02T14:33:52Z</datestamp>
      <setSpec>openaire</setSpec>
      <setSpec>user-biosyslit</setSpec>
    </header>
    <header>
      <identifier>oai:zenodo.org:578329</identifier>
      <datestamp>2017-06-02T14:33:53Z</datestamp>
      <setSpec>openaire</setSpec>
      <setSpec>user-biosyslit</setSpec>
    </header>
    <header>
      <identifier>oai:zenodo.org:575716</identifier>
      <datestamp>2017-06-02T14:33:53Z</datestamp>
      <setSpec>openaire</setSpec>
      <setSpec>user-biosyslit</setSpec>
    </header>
    <header>
      <identifier>oai:zenodo.org:575396</identifier>
      <datestamp>2017-06-02T14:33:57Z</datestamp>
      <setSpec>openaire</setSpec>
      <setSpec>user-biosyslit</setSpec>
    </header>
    <header>
      <identifier>oai:zenodo.org:576481</identifier>
      <datestamp>2017-06-02T14:33:54Z</datestamp>
      <setSpec>openaire</setSpec>
      <setSpec>user-biosyslit</setSpec>
    </header>
    <header>
      <identifier>oai:zenodo.org:575542</identifier>
      <datestamp>2017-06-02T14:33:59Z</datestamp>
      <setSpec>openaire</setSpec>
      <setSpec>user-biosyslit</setSpec>
    </header>
    <header>
      <identifier>oai:zenodo.org:579122</identifier>
      <datestamp>2017-06-02T14:33:56Z</datestamp>
      <setSpec>openaire</setSpec>
      <setSpec>user-biosyslit</setSpec>
    </header>
    <header>
      <identifier>oai:zenodo.org:576206</identifier>
      <datestamp>2017-06-02T14:33:50Z</datestamp>
      <setSpec>openaire</setSpec>
      <setSpec>user-biosyslit</setSpec>
    </header>
    <header>
      <identifier>oai:zenodo.org:578709</identifier>
      <datestamp>2017-06-02T14:36:14Z</datestamp>
      <setSpec>openaire</setSpec>
      <setSpec>user-biosyslit</setSpec>
    </header>
    <header>
      <identifier>oai:zenodo.org:574780</identifier>
      <datestamp>2017-06-02T14:36:14Z</datestamp>
      <setSpec>openaire</setSpec>
      <setSpec>user-biosyslit</setSpec>
    </header>
    <header>
      <identifier>oai:zenodo.org:576947</identifier>
      <datestamp>2017-06-02T14:36:06Z</datestamp>
      <setSpec>openaire</setSpec>
      <setSpec>user-biosyslit</setSpec>
    </header>
    <header>
      <identifier>oai:zenodo.org:577997</identifier>
      <datestamp>2017-06-02T14:36:06Z</datestamp>
      <setSpec>openaire</setSpec>
      <setSpec>user-biosyslit</setSpec>
    </header>
    <header>
      <identifier>oai:zenodo.org:578336</identifier>
      <datestamp>2017-06-02T14:36:20Z</datestamp>
      <setSpec>openaire</setSpec>
      <setSpec>user-biosyslit</setSpec>
    </header>
    <header>
      <identifier>oai:zenodo.org:576840</identifier>
      <datestamp>2017-06-02T14:36:19Z</datestamp>
      <setSpec>openaire</setSpec>
      <setSpec>user-biosyslit</setSpec>
    </header>
    <header>
      <identifier>oai:zenodo.org:574405</identifier>
      <datestamp>2017-06-02T14:36:07Z</datestamp>
      <setSpec>openaire</setSpec>
      <setSpec>user-biosyslit</setSpec>
    </header>
    <header>
      <identifier>oai:zenodo.org:578137</identifier>
      <datestamp>2017-06-02T14:36:18Z</datestamp>
      <setSpec>openaire</setSpec>
      <setSpec>user-biosyslit</setSpec>
    </header>
    <header>
      <identifier>oai:zenodo.org:578698</identifier>
      <datestamp>2017-06-02T14:36:23Z</datestamp>
      <setSpec>openaire</setSpec>
      <setSpec>user-biosyslit</setSpec>
    </header>
    <header>
      <identifier>oai:zenodo.org:577618</identifier>
      <datestamp>2017-06-02T14:36:15Z</datestamp>
      <setSpec>openaire</setSpec>
      <setSpec>user-biosyslit</setSpec>
    </header>
    <header>
      <identifier>oai:zenodo.org:578265</identifier>
      <datestamp>2017-06-02T14:36:09Z</datestamp>
      <setSpec>openaire</setSpec>
      <setSpec>user-biosyslit</setSpec>
    </header>
    <header>
      <identifier>oai:zenodo.org:577695</identifier>
      <datestamp>2017-06-02T14:37:45Z</datestamp>
      <setSpec>openaire</setSpec>
      <setSpec>user-biosyslit</setSpec>
    </header>
    <header>
      <identifier>oai:zenodo.org:577656</identifier>
      <datestamp>2017-06-02T14:37:37Z</datestamp>
      <setSpec>openaire</setSpec>
      <setSpec>user-biosyslit</setSpec>
    </header>
    <header>
      <identifier>oai:zenodo.org:578159</identifier>
      <datestamp>2017-06-02T14:37:38Z</datestamp>
      <setSpec>openaire</setSpec>
      <setSpec>user-biosyslit</setSpec>
    </header>
    <header>
      <identifier>oai:zenodo.org:576096</identifier>
      <datestamp>2017-06-02T14:37:43Z</datestamp>
      <setSpec>openaire</setSpec>
      <setSpec>user-biosyslit</setSpec>
    </header>
    <header>
      <identifier>oai:zenodo.org:578167</identifier>
      <datestamp>2017-06-02T14:37:44Z</datestamp>
      <setSpec>openaire</setSpec>
      <setSpec>user-biosyslit</setSpec>
    </header>
    <header>
      <identifier>oai:zenodo.org:576976</identifier>
      <datestamp>2017-06-02T14:37:35Z</datestamp>
      <setSpec>openaire</setSpec>
      <setSpec>user-biosyslit</setSpec>
    </header>
    <header>
      <identifier>oai:zenodo.org:574491</identifier>
      <datestamp>2017-06-02T14:37:43Z</datestamp>
      <setSpec>openaire</setSpec>
      <setSpec>user-biosyslit</setSpec>
    </header>
    <header>
      <identifier>oai:zenodo.org:575553</identifier>
      <datestamp>2017-06-02T14:37:40Z</datestamp>
      <setSpec>openaire</setSpec>
      <setSpec>user-biosyslit</setSpec>
    </header>
    <header>
      <identifier>oai:zenodo.org:578531</identifier>
      <datestamp>2017-06-02T14:37:36Z</datestamp>
      <setSpec>openaire</setSpec>
      <setSpec>user-biosyslit</setSpec>
    </header>
    <header>
      <identifier>oai:zenodo.org:576355</identifier>
      <datestamp>2017-06-02T14:37:42Z</datestamp>
      <setSpec>openaire</setSpec>
      <setSpec>user-biosyslit</setSpec>
    </header>
    <header>
      <identifier>oai:zenodo.org:576552</identifier>
      <datestamp>2017-06-02T14:37:47Z</datestamp>
      <setSpec>openaire</setSpec>
      <setSpec>user-biosyslit</setSpec>
    </header>
    <header>
      <identifier>oai:zenodo.org:579047</identifier>
      <datestamp>2017-06-02T14:39:27Z</datestamp>
      <setSpec>openaire</setSpec>
      <setSpec>user-biosyslit</setSpec>
    </header>
    <header>
      <identifier>oai:zenodo.org:578718</identifier>
      <datestamp>2017-06-02T14:39:28Z</datestamp>
      <setSpec>openaire</setSpec>
      <setSpec>user-biosyslit</setSpec>
    </header>
    <header>
      <identifier>oai:zenodo.org:578344</identifier>
      <datestamp>2017-06-02T14:39:23Z</datestamp>
      <setSpec>openaire</setSpec>
      <setSpec>user-biosyslit</setSpec>
    </header>
    <header>
      <identifier>oai:zenodo.org:575630</identifier>
      <datestamp>2017-06-02T14:39:25Z</datestamp>
      <setSpec>openaire</setSpec>
      <setSpec>user-biosyslit</setSpec>
    </header>
    <header>
      <identifier>oai:zenodo.org:575097</identifier>
      <datestamp>2017-06-02T14:39:21Z</datestamp>
      <setSpec>openaire</setSpec>
      <setSpec>user-biosyslit</setSpec>
    </header>
    <header>
      <identifier>oai:zenodo.org:576185</identifier>
      <datestamp>2017-06-02T14:39:28Z</datestamp>
      <setSpec>openaire</setSpec>
      <setSpec>user-biosyslit</setSpec>
    </header>
    <header>
      <identifier>oai:zenodo.org:576150</identifier>
      <datestamp>2017-06-02T14:39:21Z</datestamp>
      <setSpec>openaire</setSpec>
      <setSpec>user-biosyslit</setSpec>
    </header>
    <header>
      <identifier>oai:zenodo.org:577634</identifier>
      <datestamp>2017-06-02T14:39:25Z</datestamp>
      <setSpec>openaire</setSpec>
      <setSpec>user-biosyslit</setSpec>
    </header>
    <header>
      <identifier>oai:zenodo.org:576931</identifier>
      <datestamp>2017-06-02T14:39:24Z</datestamp>
      <setSpec>openaire</setSpec>
      <setSpec>user-biosyslit</setSpec>
    </header>
    <header>
      <identifier>oai:zenodo.org:577868</identifier>
      <datestamp>2017-06-02T14:39:26Z</datestamp>
      <setSpec>openaire</setSpec>
      <setSpec>user-biosyslit</setSpec>
    </header>
    <header>
      <identifier>oai:zenodo.org:575369</identifier>
      <datestamp>2017-06-02T14:40:54Z</datestamp>
      <setSpec>openaire</setSpec>
      <setSpec>user-biosyslit</setSpec>
    </header>
    <header>
      <identifier>oai:zenodo.org:578475</identifier>
      <datestamp>2017-06-02T14:41:06Z</datestamp>
      <setSpec>openaire</setSpec>
      <setSpec>user-biosyslit</setSpec>
    </header>
    <header>
      <identifier>oai:zenodo.org:576477</identifier>
      <datestamp>2017-06-02T14:40:57Z</datestamp>
      <setSpec>openaire</setSpec>
      <setSpec>user-biosyslit</setSpec>
    </header>
    <header>
      <identifier>oai:zenodo.org:198764</identifier>
      <datestamp>2017-06-02T14:41:03Z</datestamp>
      <setSpec>openaire</setSpec>
      <setSpec>user-biosyslit</setSpec>
    </header>
    <header>
      <identifier>oai:zenodo.org:578391</identifier>
      <datestamp>2017-06-02T14:40:58Z</datestamp>
      <setSpec>openaire</setSpec>
      <setSpec>user-biosyslit</setSpec>
    </header>
    <header>
      <identifier>oai:zenodo.org:578282</identifier>
      <datestamp>2017-06-02T14:40:55Z</datestamp>
      <setSpec>openaire</setSpec>
      <setSpec>user-biosyslit</setSpec>
    </header>
    <header>
      <identifier>oai:zenodo.org:577129</identifier>
      <datestamp>2017-06-02T14:40:56Z</datestamp>
      <setSpec>openaire</setSpec>
      <setSpec>user-biosyslit</setSpec>
    </header>
    <header>
      <identifier>oai:zenodo.org:577113</identifier>
      <datestamp>2017-06-02T14:41:01Z</datestamp>
      <setSpec>openaire</setSpec>
      <setSpec>user-biosyslit</setSpec>
    </header>
    <header>
      <identifier>oai:zenodo.org:577825</identifier>
      <datestamp>2017-06-02T14:41:04Z</datestamp>
      <setSpec>openaire</setSpec>
      <setSpec>user-biosyslit</setSpec>
    </header>
    <header>
      <identifier>oai:zenodo.org:576906</identifier>
      <datestamp>2017-06-02T14:42:28Z</datestamp>
      <setSpec>openaire</setSpec>
      <setSpec>user-biosyslit</setSpec>
    </header>
    <header>
      <identifier>oai:zenodo.org:575472</identifier>
      <datestamp>2017-06-02T14:42:29Z</datestamp>
      <setSpec>openaire</setSpec>
      <setSpec>user-biosyslit</setSpec>
    </header>
    <header>
      <identifier>oai:zenodo.org:577432</identifier>
      <datestamp>2017-06-02T14:42:33Z</datestamp>
      <setSpec>openaire</setSpec>
      <setSpec>user-biosyslit</setSpec>
    </header>
    <header>
      <identifier>oai:zenodo.org:574621</identifier>
      <datestamp>2017-06-02T14:42:34Z</datestamp>
      <setSpec>openaire</setSpec>
      <setSpec>user-biosyslit</setSpec>
    </header>
    <header>
      <identifier>oai:zenodo.org:577487</identifier>
      <datestamp>2017-06-02T14:42:35Z</datestamp>
      <setSpec>openaire</setSpec>
      <setSpec>user-biosyslit</setSpec>
    </header>
    <header>
      <identifier>oai:zenodo.org:578987</identifier>
      <datestamp>2017-06-02T14:42:36Z</datestamp>
      <setSpec>openaire</setSpec>
      <setSpec>user-biosyslit</setSpec>
    </header>
    <header>
      <identifier>oai:zenodo.org:577343</identifier>
      <datestamp>2017-06-02T14:42:30Z</datestamp>
      <setSpec>openaire</setSpec>
      <setSpec>user-biosyslit</setSpec>
    </header>
    <header>
      <identifier>oai:zenodo.org:575023</identifier>
      <datestamp>2017-06-02T14:42:31Z</datestamp>
      <setSpec>openaire</setSpec>
      <setSpec>user-biosyslit</setSpec>
    </header>
    <header>
      <identifier>oai:zenodo.org:575364</identifier>
      <datestamp>2017-06-02T14:42:32Z</datestamp>
      <setSpec>openaire</setSpec>
      <setSpec>user-biosyslit</setSpec>
    </header>
    <header>
      <identifier>oai:zenodo.org:574675</identifier>
      <datestamp>2017-06-02T14:42:28Z</datestamp>
      <setSpec>openaire</setSpec>
      <setSpec>user-biosyslit</setSpec>
    </header>
    <header>
      <identifier>oai:zenodo.org:577233</identifier>
      <datestamp>2017-06-02T14:42:30Z</datestamp>
      <setSpec>openaire</setSpec>
      <setSpec>user-biosyslit</setSpec>
    </header>
    <header>
      <identifier>oai:zenodo.org:574785</identifier>
      <datestamp>2017-06-02T14:42:37Z</datestamp>
      <setSpec>openaire</setSpec>
      <setSpec>user-biosyslit</setSpec>
    </header>
    <header>
      <identifier>oai:zenodo.org:577499</identifier>
      <datestamp>2017-06-02T14:42:32Z</datestamp>
      <setSpec>openaire</setSpec>
      <setSpec>user-biosyslit</setSpec>
    </header>
    <header>
      <identifier>oai:zenodo.org:574966</identifier>
      <datestamp>2017-06-02T14:44:53Z</datestamp>
      <setSpec>openaire</setSpec>
      <setSpec>user-biosyslit</setSpec>
    </header>
    <header>
      <identifier>oai:zenodo.org:575971</identifier>
      <datestamp>2017-06-02T14:44:54Z</datestamp>
      <setSpec>openaire</setSpec>
      <setSpec>user-biosyslit</setSpec>
    </header>
    <header>
      <identifier>oai:zenodo.org:576487</identifier>
      <datestamp>2017-06-02T14:44:47Z</datestamp>
      <setSpec>openaire</setSpec>
      <setSpec>user-biosyslit</setSpec>
    </header>
    <header>
      <identifier>oai:zenodo.org:577721</identifier>
      <datestamp>2017-06-02T14:44:47Z</datestamp>
      <setSpec>openaire</setSpec>
      <setSpec>user-biosyslit</setSpec>
    </header>
    <header>
      <identifier>oai:zenodo.org:578556</identifier>
      <datestamp>2017-06-02T14:44:57Z</datestamp>
      <setSpec>openaire</setSpec>
      <setSpec>user-biosyslit</setSpec>
    </header>
    <header>
      <identifier>oai:zenodo.org:575040</identifier>
      <datestamp>2017-06-02T14:45:01Z</datestamp>
      <setSpec>openaire</setSpec>
      <setSpec>user-biosyslit</setSpec>
    </header>
    <header>
      <identifier>oai:zenodo.org:574351</identifier>
      <datestamp>2017-06-02T14:44:56Z</datestamp>
      <setSpec>openaire</setSpec>
      <setSpec>user-biosyslit</setSpec>
    </header>
    <header>
      <identifier>oai:zenodo.org:576416</identifier>
      <datestamp>2017-06-02T14:44:55Z</datestamp>
      <setSpec>openaire</setSpec>
      <setSpec>user-biosyslit</setSpec>
    </header>
    <header>
      <identifier>oai:zenodo.org:574770</identifier>
      <datestamp>2017-06-02T14:44:49Z</datestamp>
      <setSpec>openaire</setSpec>
      <setSpec>user-biosyslit</setSpec>
    </header>
    <header>
      <identifier>oai:zenodo.org:577287</identifier>
      <datestamp>2017-06-02T14:44:58Z</datestamp>
      <setSpec>openaire</setSpec>
      <setSpec>user-biosyslit</setSpec>
    </header>
    <header>
      <identifier>oai:zenodo.org:576743</identifier>
      <datestamp>2017-06-02T14:44:49Z</datestamp>
      <setSpec>openaire</setSpec>
      <setSpec>user-biosyslit</setSpec>
    </header>
    <header>
      <identifier>oai:zenodo.org:579064</identifier>
      <datestamp>2017-06-02T14:47:34Z</datestamp>
      <setSpec>openaire</setSpec>
      <setSpec>user-biosyslit</setSpec>
    </header>
    <header>
      <identifier>oai:zenodo.org:577668</identifier>
      <datestamp>2017-06-02T14:47:34Z</datestamp>
      <setSpec>openaire</setSpec>
      <setSpec>user-biosyslit</setSpec>
    </header>
    <header>
      <identifier>oai:zenodo.org:579026</identifier>
      <datestamp>2017-06-02T14:47:29Z</datestamp>
      <setSpec>openaire</setSpec>
      <setSpec>user-biosyslit</setSpec>
    </header>
    <header>
      <identifier>oai:zenodo.org:575701</identifier>
      <datestamp>2017-06-02T14:47:38Z</datestamp>
      <setSpec>openaire</setSpec>
      <setSpec>user-biosyslit</setSpec>
    </header>
    <header>
      <identifier>oai:zenodo.org:575575</identifier>
      <datestamp>2017-06-02T14:47:30Z</datestamp>
      <setSpec>openaire</setSpec>
      <setSpec>user-biosyslit</setSpec>
    </header>
    <header>
      <identifier>oai:zenodo.org:576962</identifier>
      <datestamp>2017-06-02T14:47:30Z</datestamp>
      <setSpec>openaire</setSpec>
      <setSpec>user-biosyslit</setSpec>
    </header>
    <header>
      <identifier>oai:zenodo.org:577585</identifier>
      <datestamp>2017-06-02T14:47:35Z</datestamp>
      <setSpec>openaire</setSpec>
      <setSpec>user-biosyslit</setSpec>
    </header>
    <header>
      <identifier>oai:zenodo.org:577693</identifier>
      <datestamp>2017-06-02T14:47:39Z</datestamp>
      <setSpec>openaire</setSpec>
      <setSpec>user-biosyslit</setSpec>
    </header>
    <header>
      <identifier>oai:zenodo.org:575813</identifier>
      <datestamp>2017-06-02T14:47:37Z</datestamp>
      <setSpec>openaire</setSpec>
      <setSpec>user-biosyslit</setSpec>
    </header>
    <header>
      <identifier>oai:zenodo.org:578337</identifier>
      <datestamp>2017-06-02T14:47:33Z</datestamp>
      <setSpec>openaire</setSpec>
      <setSpec>user-biosyslit</setSpec>
    </header>
    <header>
      <identifier>oai:zenodo.org:578190</identifier>
      <datestamp>2017-06-02T14:49:48Z</datestamp>
      <setSpec>openaire</setSpec>
      <setSpec>user-biosyslit</setSpec>
    </header>
    <header>
      <identifier>oai:zenodo.org:578893</identifier>
      <datestamp>2017-06-02T14:49:49Z</datestamp>
      <setSpec>openaire</setSpec>
      <setSpec>user-biosyslit</setSpec>
    </header>
    <header>
      <identifier>oai:zenodo.org:578114</identifier>
      <datestamp>2017-06-02T14:49:39Z</datestamp>
      <setSpec>openaire</setSpec>
      <setSpec>user-biosyslit</setSpec>
    </header>
    <header>
      <identifier>oai:zenodo.org:575995</identifier>
      <datestamp>2017-06-02T14:49:46Z</datestamp>
      <setSpec>openaire</setSpec>
      <setSpec>user-biosyslit</setSpec>
    </header>
    <header>
      <identifier>oai:zenodo.org:576606</identifier>
      <datestamp>2017-06-02T14:49:47Z</datestamp>
      <setSpec>openaire</setSpec>
      <setSpec>user-biosyslit</setSpec>
    </header>
    <header>
      <identifier>oai:zenodo.org:575519</identifier>
      <datestamp>2017-06-02T14:49:45Z</datestamp>
      <setSpec>openaire</setSpec>
      <setSpec>user-biosyslit</setSpec>
    </header>
    <header>
      <identifier>oai:zenodo.org:577255</identifier>
      <datestamp>2017-06-02T14:49:44Z</datestamp>
      <setSpec>openaire</setSpec>
      <setSpec>user-biosyslit</setSpec>
    </header>
    <header>
      <identifier>oai:zenodo.org:576882</identifier>
      <datestamp>2017-06-02T14:49:48Z</datestamp>
      <setSpec>openaire</setSpec>
      <setSpec>user-biosyslit</setSpec>
    </header>
    <header>
      <identifier>oai:zenodo.org:577991</identifier>
      <datestamp>2017-06-02T14:49:51Z</datestamp>
      <setSpec>openaire</setSpec>
      <setSpec>user-biosyslit</setSpec>
    </header>
    <header>
      <identifier>oai:zenodo.org:574993</identifier>
      <datestamp>2017-06-02T14:49:53Z</datestamp>
      <setSpec>openaire</setSpec>
      <setSpec>user-biosyslit</setSpec>
    </header>
    <resumptionToken expirationDate="2017-08-31T15:44:21Z" cursor="20700" completeListSize="77796">.eJyNyk0LgjAYAOD_8p4ltpnohC5hiQcVXRvpJUxFzPWBK9SF_z0vnev8PG9QdV2Bi1Zk7VCbYOSsqYUsatkGqLK_S3lqF4fyKGR5k7zwxSu9CpSRxo48NYZeZka6Q_EVa7ZPyBE7I2_RlBz4M9PpKMxgYGhnhzqZokuwvMqMfZmf_Qfjt61kpOrjXTIxvGW5WX4f_vPpn89TGzDgUTQ1uARRA7qh6BsF7nueP9rQUXs.DIm_3Q.m0sXk2h5-SLqYHDotuSrUePyLaM</resumptionToken>
  </ListIdentifiers>
</OAI-PMH>
