<?xml version='1.0' encoding='UTF-8'?>
<?xml-stylesheet type="text/xsl" href="/static/xsl/oai2.v1.0.xsl"?>
<OAI-PMH xmlns="http://www.openarchives.org/OAI/2.0/" xmlns:xsi="http://www.w3.org/2001/XMLSchema-instance" xsi:schemaLocation="http://www.openarchives.org/OAI/2.0/ http://www.openarchives.org/OAI/2.0/OAI-PMH.xsd">
  <responseDate>2017-08-31T15:44:32Z</responseDate>
  <request verb="ListIdentifiers" resumptionToken=".eJyNyj0PQ0AYAOD_8s7S3Aehki5CxYBwJVgaRUQdFdcG1_S_t0vndn6eJ4imqcFEO6SrVN1jrFNjT1SNEgVENd84P3cfhypLeTXypHTTRzykKCetHthi9e2cBrJH4YAlO0Ykw8aadGiLTsk9l_GaUm9hyNF9GW3B1fu8moYuLy7uxJLR4ozUc-hEG8MWK2j1ffjPJ38-WxxAgalsGzA1rCnQL-XcCjCfr9cbzvZRbg.DInAYA.9dRyiqUOBKUCFOK-Hil7o0wXHmQ">https://zenodo.org/oai2d</request>
  <ListIdentifiers>
    <header>
      <identifier>oai:zenodo.org:265172</identifier>
      <datestamp>2017-01-31T09:36:59Z</datestamp>
      <setSpec>user-biosyslit</setSpec>
    </header>
    <header>
      <identifier>oai:zenodo.org:265683</identifier>
      <datestamp>2017-01-31T18:54:30Z</datestamp>
      <setSpec>user-biosyslit</setSpec>
    </header>
    <header>
      <identifier>oai:zenodo.org:265593</identifier>
      <datestamp>2017-01-31T17:25:43Z</datestamp>
      <setSpec>user-biosyslit</setSpec>
    </header>
    <header>
      <identifier>oai:zenodo.org:265576</identifier>
      <datestamp>2017-01-31T17:14:39Z</datestamp>
      <setSpec>user-biosyslit</setSpec>
    </header>
    <header>
      <identifier>oai:zenodo.org:265798</identifier>
      <datestamp>2017-01-31T21:12:15Z</datestamp>
      <setSpec>user-biosyslit</setSpec>
    </header>
    <header>
      <identifier>oai:zenodo.org:265482</identifier>
      <datestamp>2017-01-31T14:24:59Z</datestamp>
      <setSpec>user-biosyslit</setSpec>
    </header>
    <header>
      <identifier>oai:zenodo.org:265575</identifier>
      <datestamp>2017-01-31T17:10:34Z</datestamp>
      <setSpec>user-biosyslit</setSpec>
    </header>
    <header>
      <identifier>oai:zenodo.org:265579</identifier>
      <datestamp>2017-01-31T17:18:09Z</datestamp>
      <setSpec>user-biosyslit</setSpec>
    </header>
    <header>
      <identifier>oai:zenodo.org:265552</identifier>
      <datestamp>2017-01-31T16:28:23Z</datestamp>
      <setSpec>user-biosyslit</setSpec>
    </header>
    <header>
      <identifier>oai:zenodo.org:265478</identifier>
      <datestamp>2017-01-31T14:24:46Z</datestamp>
      <setSpec>user-biosyslit</setSpec>
    </header>
    <header>
      <identifier>oai:zenodo.org:265435</identifier>
      <datestamp>2017-01-31T13:52:42Z</datestamp>
      <setSpec>user-biosyslit</setSpec>
    </header>
    <header>
      <identifier>oai:zenodo.org:236559</identifier>
      <datestamp>2017-01-10T01:23:11Z</datestamp>
      <setSpec>user-biosyslit</setSpec>
    </header>
    <header>
      <identifier>oai:zenodo.org:236385</identifier>
      <datestamp>2017-01-09T23:36:27Z</datestamp>
      <setSpec>user-biosyslit</setSpec>
    </header>
    <header>
      <identifier>oai:zenodo.org:236519</identifier>
      <datestamp>2017-01-10T01:06:50Z</datestamp>
      <setSpec>user-biosyslit</setSpec>
    </header>
    <header>
      <identifier>oai:zenodo.org:276995</identifier>
      <datestamp>2017-02-08T20:09:44Z</datestamp>
      <setSpec>user-biosyslit</setSpec>
    </header>
    <header>
      <identifier>oai:zenodo.org:276745</identifier>
      <datestamp>2017-02-08T19:34:13Z</datestamp>
      <setSpec>user-biosyslit</setSpec>
    </header>
    <header>
      <identifier>oai:zenodo.org:277415</identifier>
      <datestamp>2017-02-08T21:05:06Z</datestamp>
      <setSpec>user-biosyslit</setSpec>
    </header>
    <header>
      <identifier>oai:zenodo.org:277404</identifier>
      <datestamp>2017-02-08T21:04:31Z</datestamp>
      <setSpec>user-biosyslit</setSpec>
    </header>
    <header>
      <identifier>oai:zenodo.org:277431</identifier>
      <datestamp>2017-02-08T21:09:20Z</datestamp>
      <setSpec>user-biosyslit</setSpec>
    </header>
    <header>
      <identifier>oai:zenodo.org:237922</identifier>
      <datestamp>2017-01-10T22:25:25Z</datestamp>
      <setSpec>user-biosyslit</setSpec>
    </header>
    <header>
      <identifier>oai:zenodo.org:237003</identifier>
      <datestamp>2017-01-10T09:25:05Z</datestamp>
      <setSpec>user-biosyslit</setSpec>
    </header>
    <header>
      <identifier>oai:zenodo.org:237119</identifier>
      <datestamp>2017-01-10T11:06:38Z</datestamp>
      <setSpec>user-biosyslit</setSpec>
    </header>
    <header>
      <identifier>oai:zenodo.org:237067</identifier>
      <datestamp>2017-01-10T10:23:17Z</datestamp>
      <setSpec>user-biosyslit</setSpec>
    </header>
    <header>
      <identifier>oai:zenodo.org:277524</identifier>
      <datestamp>2017-02-08T21:17:32Z</datestamp>
      <setSpec>user-biosyslit</setSpec>
    </header>
    <header>
      <identifier>oai:zenodo.org:277487</identifier>
      <datestamp>2017-02-08T21:13:40Z</datestamp>
      <setSpec>user-biosyslit</setSpec>
    </header>
    <header>
      <identifier>oai:zenodo.org:237565</identifier>
      <datestamp>2017-01-10T17:06:20Z</datestamp>
      <setSpec>user-biosyslit</setSpec>
    </header>
    <header>
      <identifier>oai:zenodo.org:238509</identifier>
      <datestamp>2017-01-11T06:52:13Z</datestamp>
      <setSpec>user-biosyslit</setSpec>
    </header>
    <header>
      <identifier>oai:zenodo.org:238513</identifier>
      <datestamp>2017-01-11T06:52:25Z</datestamp>
      <setSpec>user-biosyslit</setSpec>
    </header>
    <header>
      <identifier>oai:zenodo.org:278405</identifier>
      <datestamp>2017-02-08T23:05:52Z</datestamp>
      <setSpec>user-biosyslit</setSpec>
    </header>
    <header>
      <identifier>oai:zenodo.org:271818</identifier>
      <datestamp>2017-02-08T02:43:50Z</datestamp>
      <setSpec>user-biosyslit</setSpec>
    </header>
    <header>
      <identifier>oai:zenodo.org:278182</identifier>
      <datestamp>2017-02-08T22:37:10Z</datestamp>
      <setSpec>user-biosyslit</setSpec>
    </header>
    <header>
      <identifier>oai:zenodo.org:279140</identifier>
      <datestamp>2017-02-09T00:42:13Z</datestamp>
      <setSpec>user-biosyslit</setSpec>
    </header>
    <header>
      <identifier>oai:zenodo.org:278180</identifier>
      <datestamp>2017-02-08T22:37:06Z</datestamp>
      <setSpec>user-biosyslit</setSpec>
    </header>
    <header>
      <identifier>oai:zenodo.org:239841</identifier>
      <datestamp>2017-01-12T01:39:28Z</datestamp>
      <setSpec>user-biosyslit</setSpec>
    </header>
    <header>
      <identifier>oai:zenodo.org:239314</identifier>
      <datestamp>2017-01-11T18:50:54Z</datestamp>
      <setSpec>user-biosyslit</setSpec>
    </header>
    <header>
      <identifier>oai:zenodo.org:239786</identifier>
      <datestamp>2017-01-12T00:46:24Z</datestamp>
      <setSpec>user-biosyslit</setSpec>
    </header>
    <header>
      <identifier>oai:zenodo.org:278545</identifier>
      <datestamp>2017-02-08T23:22:31Z</datestamp>
      <setSpec>user-biosyslit</setSpec>
    </header>
    <header>
      <identifier>oai:zenodo.org:271931</identifier>
      <datestamp>2017-02-08T03:06:36Z</datestamp>
      <setSpec>user-biosyslit</setSpec>
    </header>
    <header>
      <identifier>oai:zenodo.org:278280</identifier>
      <datestamp>2017-02-08T22:46:42Z</datestamp>
      <setSpec>user-biosyslit</setSpec>
    </header>
    <header>
      <identifier>oai:zenodo.org:278066</identifier>
      <datestamp>2017-02-08T22:22:05Z</datestamp>
      <setSpec>user-biosyslit</setSpec>
    </header>
    <header>
      <identifier>oai:zenodo.org:239472</identifier>
      <datestamp>2017-01-11T21:07:03Z</datestamp>
      <setSpec>user-biosyslit</setSpec>
    </header>
    <header>
      <identifier>oai:zenodo.org:239774</identifier>
      <datestamp>2017-01-12T00:45:38Z</datestamp>
      <setSpec>user-biosyslit</setSpec>
    </header>
    <header>
      <identifier>oai:zenodo.org:272126</identifier>
      <datestamp>2017-02-08T03:46:42Z</datestamp>
      <setSpec>user-biosyslit</setSpec>
    </header>
    <header>
      <identifier>oai:zenodo.org:241616</identifier>
      <datestamp>2017-01-13T04:10:57Z</datestamp>
      <setSpec>user-biosyslit</setSpec>
    </header>
    <header>
      <identifier>oai:zenodo.org:278967</identifier>
      <datestamp>2017-02-09T00:19:46Z</datestamp>
      <setSpec>user-biosyslit</setSpec>
    </header>
    <header>
      <identifier>oai:zenodo.org:271657</identifier>
      <datestamp>2017-02-08T02:08:54Z</datestamp>
      <setSpec>user-biosyslit</setSpec>
    </header>
    <header>
      <identifier>oai:zenodo.org:241503</identifier>
      <datestamp>2017-01-13T02:18:01Z</datestamp>
      <setSpec>user-biosyslit</setSpec>
    </header>
    <header>
      <identifier>oai:zenodo.org:241650</identifier>
      <datestamp>2017-01-13T04:12:42Z</datestamp>
      <setSpec>user-biosyslit</setSpec>
    </header>
    <header>
      <identifier>oai:zenodo.org:240511</identifier>
      <datestamp>2017-01-12T09:44:40Z</datestamp>
      <setSpec>user-biosyslit</setSpec>
    </header>
    <header>
      <identifier>oai:zenodo.org:280021</identifier>
      <datestamp>2017-02-09T02:31:19Z</datestamp>
      <setSpec>user-biosyslit</setSpec>
    </header>
    <header>
      <identifier>oai:zenodo.org:278705</identifier>
      <datestamp>2017-02-08T23:44:32Z</datestamp>
      <setSpec>user-biosyslit</setSpec>
    </header>
    <header>
      <identifier>oai:zenodo.org:278591</identifier>
      <datestamp>2017-02-08T23:29:08Z</datestamp>
      <setSpec>user-biosyslit</setSpec>
    </header>
    <header>
      <identifier>oai:zenodo.org:241108</identifier>
      <datestamp>2017-01-12T20:08:05Z</datestamp>
      <setSpec>user-biosyslit</setSpec>
    </header>
    <header>
      <identifier>oai:zenodo.org:240859</identifier>
      <datestamp>2017-01-12T14:59:23Z</datestamp>
      <setSpec>user-biosyslit</setSpec>
    </header>
    <header>
      <identifier>oai:zenodo.org:271516</identifier>
      <datestamp>2017-02-08T01:52:54Z</datestamp>
      <setSpec>user-biosyslit</setSpec>
    </header>
    <header>
      <identifier>oai:zenodo.org:279211</identifier>
      <datestamp>2017-02-09T00:48:48Z</datestamp>
      <setSpec>user-biosyslit</setSpec>
    </header>
    <header>
      <identifier>oai:zenodo.org:240801</identifier>
      <datestamp>2017-01-12T14:04:50Z</datestamp>
      <setSpec>user-biosyslit</setSpec>
    </header>
    <header>
      <identifier>oai:zenodo.org:241048</identifier>
      <datestamp>2017-01-12T19:18:26Z</datestamp>
      <setSpec>user-biosyslit</setSpec>
    </header>
    <header>
      <identifier>oai:zenodo.org:241471</identifier>
      <datestamp>2017-01-13T01:47:34Z</datestamp>
      <setSpec>user-biosyslit</setSpec>
    </header>
    <header>
      <identifier>oai:zenodo.org:271637</identifier>
      <datestamp>2017-02-08T02:06:10Z</datestamp>
      <setSpec>user-biosyslit</setSpec>
    </header>
    <header>
      <identifier>oai:zenodo.org:272251</identifier>
      <datestamp>2017-02-08T04:04:55Z</datestamp>
      <setSpec>user-biosyslit</setSpec>
    </header>
    <header>
      <identifier>oai:zenodo.org:278501</identifier>
      <datestamp>2017-02-08T23:17:33Z</datestamp>
      <setSpec>user-biosyslit</setSpec>
    </header>
    <header>
      <identifier>oai:zenodo.org:272523</identifier>
      <datestamp>2017-02-08T05:00:16Z</datestamp>
      <setSpec>user-biosyslit</setSpec>
    </header>
    <header>
      <identifier>oai:zenodo.org:272402</identifier>
      <datestamp>2017-02-08T04:32:54Z</datestamp>
      <setSpec>user-biosyslit</setSpec>
    </header>
    <header>
      <identifier>oai:zenodo.org:241639</identifier>
      <datestamp>2017-01-13T04:12:07Z</datestamp>
      <setSpec>user-biosyslit</setSpec>
    </header>
    <header>
      <identifier>oai:zenodo.org:271627</identifier>
      <datestamp>2017-02-08T02:05:41Z</datestamp>
      <setSpec>user-biosyslit</setSpec>
    </header>
    <header>
      <identifier>oai:zenodo.org:271999</identifier>
      <datestamp>2017-02-08T03:19:14Z</datestamp>
      <setSpec>user-biosyslit</setSpec>
    </header>
    <header>
      <identifier>oai:zenodo.org:280798</identifier>
      <datestamp>2017-02-09T04:06:19Z</datestamp>
      <setSpec>user-biosyslit</setSpec>
    </header>
    <header>
      <identifier>oai:zenodo.org:279480</identifier>
      <datestamp>2017-02-09T01:27:37Z</datestamp>
      <setSpec>user-biosyslit</setSpec>
    </header>
    <header>
      <identifier>oai:zenodo.org:242269</identifier>
      <datestamp>2017-01-13T12:40:53Z</datestamp>
      <setSpec>user-biosyslit</setSpec>
    </header>
    <header>
      <identifier>oai:zenodo.org:242409</identifier>
      <datestamp>2017-01-13T15:09:00Z</datestamp>
      <setSpec>user-biosyslit</setSpec>
    </header>
    <header>
      <identifier>oai:zenodo.org:279462</identifier>
      <datestamp>2017-02-09T01:25:35Z</datestamp>
      <setSpec>user-biosyslit</setSpec>
    </header>
    <header>
      <identifier>oai:zenodo.org:243139</identifier>
      <datestamp>2017-01-13T23:51:06Z</datestamp>
      <setSpec>user-biosyslit</setSpec>
    </header>
    <header>
      <identifier>oai:zenodo.org:242249</identifier>
      <datestamp>2017-01-13T12:29:18Z</datestamp>
      <setSpec>user-biosyslit</setSpec>
    </header>
    <header>
      <identifier>oai:zenodo.org:242413</identifier>
      <datestamp>2017-01-13T15:09:16Z</datestamp>
      <setSpec>user-biosyslit</setSpec>
    </header>
    <header>
      <identifier>oai:zenodo.org:279203</identifier>
      <datestamp>2017-02-09T00:48:26Z</datestamp>
      <setSpec>user-biosyslit</setSpec>
    </header>
    <header>
      <identifier>oai:zenodo.org:242291</identifier>
      <datestamp>2017-01-13T12:59:54Z</datestamp>
      <setSpec>user-biosyslit</setSpec>
    </header>
    <header>
      <identifier>oai:zenodo.org:243090</identifier>
      <datestamp>2017-01-13T23:19:15Z</datestamp>
      <setSpec>user-biosyslit</setSpec>
    </header>
    <header>
      <identifier>oai:zenodo.org:243248</identifier>
      <datestamp>2017-01-14T01:39:22Z</datestamp>
      <setSpec>user-biosyslit</setSpec>
    </header>
    <header>
      <identifier>oai:zenodo.org:279800</identifier>
      <datestamp>2017-02-09T02:05:04Z</datestamp>
      <setSpec>user-biosyslit</setSpec>
    </header>
    <header>
      <identifier>oai:zenodo.org:243504</identifier>
      <datestamp>2017-01-14T06:42:28Z</datestamp>
      <setSpec>user-biosyslit</setSpec>
    </header>
    <header>
      <identifier>oai:zenodo.org:272266</identifier>
      <datestamp>2017-02-08T04:08:28Z</datestamp>
      <setSpec>user-biosyslit</setSpec>
    </header>
    <header>
      <identifier>oai:zenodo.org:243733</identifier>
      <datestamp>2017-01-14T10:03:03Z</datestamp>
      <setSpec>user-biosyslit</setSpec>
    </header>
    <header>
      <identifier>oai:zenodo.org:279451</identifier>
      <datestamp>2017-02-09T01:22:18Z</datestamp>
      <setSpec>user-biosyslit</setSpec>
    </header>
    <header>
      <identifier>oai:zenodo.org:244104</identifier>
      <datestamp>2017-01-14T16:23:23Z</datestamp>
      <setSpec>user-biosyslit</setSpec>
    </header>
    <header>
      <identifier>oai:zenodo.org:243542</identifier>
      <datestamp>2017-01-14T07:13:52Z</datestamp>
      <setSpec>user-biosyslit</setSpec>
    </header>
    <header>
      <identifier>oai:zenodo.org:243824</identifier>
      <datestamp>2017-01-14T11:26:59Z</datestamp>
      <setSpec>user-biosyslit</setSpec>
    </header>
    <header>
      <identifier>oai:zenodo.org:244806</identifier>
      <datestamp>2017-01-15T02:44:37Z</datestamp>
      <setSpec>user-biosyslit</setSpec>
    </header>
    <header>
      <identifier>oai:zenodo.org:244125</identifier>
      <datestamp>2017-01-14T16:31:44Z</datestamp>
      <setSpec>user-biosyslit</setSpec>
    </header>
    <header>
      <identifier>oai:zenodo.org:244444</identifier>
      <datestamp>2017-01-14T22:12:47Z</datestamp>
      <setSpec>user-biosyslit</setSpec>
    </header>
    <header>
      <identifier>oai:zenodo.org:272276</identifier>
      <datestamp>2017-02-08T04:09:21Z</datestamp>
      <setSpec>user-biosyslit</setSpec>
    </header>
    <header>
      <identifier>oai:zenodo.org:244867</identifier>
      <datestamp>2017-01-15T04:24:27Z</datestamp>
      <setSpec>user-biosyslit</setSpec>
    </header>
    <header>
      <identifier>oai:zenodo.org:246169</identifier>
      <datestamp>2017-01-15T22:46:53Z</datestamp>
      <setSpec>user-biosyslit</setSpec>
    </header>
    <header>
      <identifier>oai:zenodo.org:244826</identifier>
      <datestamp>2017-01-15T03:43:43Z</datestamp>
      <setSpec>user-biosyslit</setSpec>
    </header>
    <header>
      <identifier>oai:zenodo.org:244883</identifier>
      <datestamp>2017-01-15T04:37:02Z</datestamp>
      <setSpec>user-biosyslit</setSpec>
    </header>
    <header>
      <identifier>oai:zenodo.org:272292</identifier>
      <datestamp>2017-02-08T04:10:34Z</datestamp>
      <setSpec>user-biosyslit</setSpec>
    </header>
    <header>
      <identifier>oai:zenodo.org:245900</identifier>
      <datestamp>2017-01-15T19:21:37Z</datestamp>
      <setSpec>user-biosyslit</setSpec>
    </header>
    <header>
      <identifier>oai:zenodo.org:245813</identifier>
      <datestamp>2017-01-15T18:55:20Z</datestamp>
      <setSpec>user-biosyslit</setSpec>
    </header>
    <header>
      <identifier>oai:zenodo.org:246417</identifier>
      <datestamp>2017-01-16T01:51:27Z</datestamp>
      <setSpec>user-biosyslit</setSpec>
    </header>
    <header>
      <identifier>oai:zenodo.org:272455</identifier>
      <datestamp>2017-02-08T04:42:04Z</datestamp>
      <setSpec>user-biosyslit</setSpec>
    </header>
    <resumptionToken expirationDate="2017-08-31T15:46:32Z" cursor="51400" completeListSize="77796">.eJyNyrsOgjAUANB_uTMxvVR5JS4GJQ5AoJYIi0EgRC1IqEao4d9lcdb5nDfIqirBIQsDDYugiUu0lzq1bQ1k0d-FOF1mhuKYiKIVPPeSZ9wkJNVrM3Dl4LspDdSNhA0qtov0I1oDv5AxOvBHquIhofsXI1vTV9EYXPfzK2noiezsdYy3G8H0sg-30chwwzJafB_--dTP58o1aNDldQXOCg0Nbq-8ryU472n6AJ0JUT4.DInAYA.y0HPRdXIqFjSbInkZp4izYjArc0</resumptionToken>
  </ListIdentifiers>
</OAI-PMH>
