<?xml version='1.0' encoding='UTF-8'?>
<?xml-stylesheet type="text/xsl" href="/static/xsl/oai2.v1.0.xsl"?>
<OAI-PMH xmlns="http://www.openarchives.org/OAI/2.0/" xmlns:xsi="http://www.w3.org/2001/XMLSchema-instance" xsi:schemaLocation="http://www.openarchives.org/OAI/2.0/ http://www.openarchives.org/OAI/2.0/OAI-PMH.xsd">
  <responseDate>2017-08-31T15:45:44Z</responseDate>
  <request verb="ListIdentifiers" resumptionToken=".eJyNyssKgkAUANB_uWuJeeQT2ogmLlJ0UtJNmIqYY4lTqCP9e21a11mfFURdV2ChDcJIw3RrEhUTVaUGVRUQ5Xjn_Nx-ApSnlJc3nhRe-oz7FGWk0QNHzAcno4HsUNhjyfYROWFjTlq0RMfkkcl4Tqk_MeTqBxktwdX_vIqGHs8v3sCSm80ZqcbQjRaGbZbT8vvwn0_-fI7YgQJD0dRgabqpQDcVYyPAWl-vN_f1UaA.DInApw.qptTcJA5MlFOBK9CsXi0_ZQJUuI">https://zenodo.org/oai2d</request>
  <ListIdentifiers>
    <header>
      <identifier>oai:zenodo.org:243812</identifier>
      <datestamp>2017-01-14T11:16:57Z</datestamp>
      <setSpec>user-biosyslit</setSpec>
    </header>
    <header>
      <identifier>oai:zenodo.org:281573</identifier>
      <datestamp>2017-02-09T05:33:02Z</datestamp>
      <setSpec>user-biosyslit</setSpec>
    </header>
    <header>
      <identifier>oai:zenodo.org:281570</identifier>
      <datestamp>2017-02-09T05:32:53Z</datestamp>
      <setSpec>user-biosyslit</setSpec>
    </header>
    <header>
      <identifier>oai:zenodo.org:264760</identifier>
      <datestamp>2017-01-31T02:24:47Z</datestamp>
      <setSpec>user-biosyslit</setSpec>
    </header>
    <header>
      <identifier>oai:zenodo.org:232281</identifier>
      <datestamp>2017-01-06T15:06:23Z</datestamp>
      <setSpec>user-biosyslit</setSpec>
    </header>
    <header>
      <identifier>oai:zenodo.org:232282</identifier>
      <datestamp>2017-01-06T15:06:27Z</datestamp>
      <setSpec>user-biosyslit</setSpec>
    </header>
    <header>
      <identifier>oai:zenodo.org:232286</identifier>
      <datestamp>2017-01-06T15:06:40Z</datestamp>
      <setSpec>user-biosyslit</setSpec>
    </header>
    <header>
      <identifier>oai:zenodo.org:232287</identifier>
      <datestamp>2017-01-06T15:06:42Z</datestamp>
      <setSpec>user-biosyslit</setSpec>
    </header>
    <header>
      <identifier>oai:zenodo.org:238887</identifier>
      <datestamp>2017-01-11T12:20:36Z</datestamp>
      <setSpec>user-biosyslit</setSpec>
    </header>
    <header>
      <identifier>oai:zenodo.org:238896</identifier>
      <datestamp>2017-01-11T12:20:29Z</datestamp>
      <setSpec>user-biosyslit</setSpec>
    </header>
    <header>
      <identifier>oai:zenodo.org:238892</identifier>
      <datestamp>2017-01-11T12:20:16Z</datestamp>
      <setSpec>user-biosyslit</setSpec>
    </header>
    <header>
      <identifier>oai:zenodo.org:238895</identifier>
      <datestamp>2017-01-11T12:20:26Z</datestamp>
      <setSpec>user-biosyslit</setSpec>
    </header>
    <header>
      <identifier>oai:zenodo.org:238898</identifier>
      <datestamp>2017-01-11T12:20:35Z</datestamp>
      <setSpec>user-biosyslit</setSpec>
    </header>
    <header>
      <identifier>oai:zenodo.org:238891</identifier>
      <datestamp>2017-01-11T12:20:13Z</datestamp>
      <setSpec>user-biosyslit</setSpec>
    </header>
    <header>
      <identifier>oai:zenodo.org:233345</identifier>
      <datestamp>2017-01-08T03:41:33Z</datestamp>
      <setSpec>user-biosyslit</setSpec>
    </header>
    <header>
      <identifier>oai:zenodo.org:233344</identifier>
      <datestamp>2017-01-08T03:41:30Z</datestamp>
      <setSpec>user-biosyslit</setSpec>
    </header>
    <header>
      <identifier>oai:zenodo.org:237033</identifier>
      <datestamp>2017-01-10T09:51:00Z</datestamp>
      <setSpec>user-biosyslit</setSpec>
    </header>
    <header>
      <identifier>oai:zenodo.org:237035</identifier>
      <datestamp>2017-01-10T09:51:06Z</datestamp>
      <setSpec>user-biosyslit</setSpec>
    </header>
    <header>
      <identifier>oai:zenodo.org:257724</identifier>
      <datestamp>2017-01-23T12:47:34Z</datestamp>
      <setSpec>user-biosyslit</setSpec>
    </header>
    <header>
      <identifier>oai:zenodo.org:257726</identifier>
      <datestamp>2017-01-23T12:47:40Z</datestamp>
      <setSpec>user-biosyslit</setSpec>
    </header>
    <header>
      <identifier>oai:zenodo.org:257729</identifier>
      <datestamp>2017-01-23T12:47:48Z</datestamp>
      <setSpec>user-biosyslit</setSpec>
    </header>
    <header>
      <identifier>oai:zenodo.org:257733</identifier>
      <datestamp>2017-01-23T12:47:59Z</datestamp>
      <setSpec>user-biosyslit</setSpec>
    </header>
    <header>
      <identifier>oai:zenodo.org:235758</identifier>
      <datestamp>2017-01-09T14:30:36Z</datestamp>
      <setSpec>user-biosyslit</setSpec>
    </header>
    <header>
      <identifier>oai:zenodo.org:235753</identifier>
      <datestamp>2017-01-09T14:30:15Z</datestamp>
      <setSpec>user-biosyslit</setSpec>
    </header>
    <header>
      <identifier>oai:zenodo.org:235756</identifier>
      <datestamp>2017-01-09T14:30:28Z</datestamp>
      <setSpec>user-biosyslit</setSpec>
    </header>
    <header>
      <identifier>oai:zenodo.org:235746</identifier>
      <datestamp>2017-01-09T14:29:49Z</datestamp>
      <setSpec>user-biosyslit</setSpec>
    </header>
    <header>
      <identifier>oai:zenodo.org:235759</identifier>
      <datestamp>2017-01-09T14:30:40Z</datestamp>
      <setSpec>user-biosyslit</setSpec>
    </header>
    <header>
      <identifier>oai:zenodo.org:235757</identifier>
      <datestamp>2017-01-09T14:30:32Z</datestamp>
      <setSpec>user-biosyslit</setSpec>
    </header>
    <header>
      <identifier>oai:zenodo.org:235751</identifier>
      <datestamp>2017-01-09T14:30:08Z</datestamp>
      <setSpec>user-biosyslit</setSpec>
    </header>
    <header>
      <identifier>oai:zenodo.org:235750</identifier>
      <datestamp>2017-01-09T14:30:04Z</datestamp>
      <setSpec>user-biosyslit</setSpec>
    </header>
    <header>
      <identifier>oai:zenodo.org:235752</identifier>
      <datestamp>2017-01-09T14:30:12Z</datestamp>
      <setSpec>user-biosyslit</setSpec>
    </header>
    <header>
      <identifier>oai:zenodo.org:279928</identifier>
      <datestamp>2017-02-09T02:18:14Z</datestamp>
      <setSpec>user-biosyslit</setSpec>
    </header>
    <header>
      <identifier>oai:zenodo.org:245091</identifier>
      <datestamp>2017-01-15T07:39:57Z</datestamp>
      <setSpec>user-biosyslit</setSpec>
    </header>
    <header>
      <identifier>oai:zenodo.org:245095</identifier>
      <datestamp>2017-01-15T07:40:13Z</datestamp>
      <setSpec>user-biosyslit</setSpec>
    </header>
    <header>
      <identifier>oai:zenodo.org:279930</identifier>
      <datestamp>2017-02-09T02:18:18Z</datestamp>
      <setSpec>user-biosyslit</setSpec>
    </header>
    <header>
      <identifier>oai:zenodo.org:279929</identifier>
      <datestamp>2017-02-09T02:18:16Z</datestamp>
      <setSpec>user-biosyslit</setSpec>
    </header>
    <header>
      <identifier>oai:zenodo.org:245092</identifier>
      <datestamp>2017-01-15T07:40:01Z</datestamp>
      <setSpec>user-biosyslit</setSpec>
    </header>
    <header>
      <identifier>oai:zenodo.org:245094</identifier>
      <datestamp>2017-01-15T07:40:10Z</datestamp>
      <setSpec>user-biosyslit</setSpec>
    </header>
    <header>
      <identifier>oai:zenodo.org:245096</identifier>
      <datestamp>2017-01-15T07:40:16Z</datestamp>
      <setSpec>user-biosyslit</setSpec>
    </header>
    <header>
      <identifier>oai:zenodo.org:245097</identifier>
      <datestamp>2017-01-15T07:40:20Z</datestamp>
      <setSpec>user-biosyslit</setSpec>
    </header>
    <header>
      <identifier>oai:zenodo.org:246016</identifier>
      <datestamp>2017-01-15T21:04:31Z</datestamp>
      <setSpec>user-biosyslit</setSpec>
    </header>
    <header>
      <identifier>oai:zenodo.org:278045</identifier>
      <datestamp>2017-02-08T22:19:56Z</datestamp>
      <setSpec>user-biosyslit</setSpec>
    </header>
    <header>
      <identifier>oai:zenodo.org:278044</identifier>
      <datestamp>2017-02-08T22:19:54Z</datestamp>
      <setSpec>user-biosyslit</setSpec>
    </header>
    <header>
      <identifier>oai:zenodo.org:278042</identifier>
      <datestamp>2017-02-08T22:19:48Z</datestamp>
      <setSpec>user-biosyslit</setSpec>
    </header>
    <header>
      <identifier>oai:zenodo.org:278048</identifier>
      <datestamp>2017-02-08T22:20:05Z</datestamp>
      <setSpec>user-biosyslit</setSpec>
    </header>
    <header>
      <identifier>oai:zenodo.org:278041</identifier>
      <datestamp>2017-02-08T22:19:45Z</datestamp>
      <setSpec>user-biosyslit</setSpec>
    </header>
    <header>
      <identifier>oai:zenodo.org:278047</identifier>
      <datestamp>2017-02-08T22:20:02Z</datestamp>
      <setSpec>user-biosyslit</setSpec>
    </header>
    <header>
      <identifier>oai:zenodo.org:278043</identifier>
      <datestamp>2017-02-08T22:19:51Z</datestamp>
      <setSpec>user-biosyslit</setSpec>
    </header>
    <header>
      <identifier>oai:zenodo.org:246017</identifier>
      <datestamp>2017-01-15T21:04:29Z</datestamp>
      <setSpec>user-biosyslit</setSpec>
    </header>
    <header>
      <identifier>oai:zenodo.org:815376</identifier>
      <datestamp>2017-06-21T11:11:32Z</datestamp>
      <setSpec>user-biosyslit</setSpec>
    </header>
    <header>
      <identifier>oai:zenodo.org:815378</identifier>
      <datestamp>2017-06-21T11:11:19Z</datestamp>
      <setSpec>user-biosyslit</setSpec>
    </header>
    <header>
      <identifier>oai:zenodo.org:283666</identifier>
      <datestamp>2017-02-09T09:22:42Z</datestamp>
      <setSpec>user-biosyslit</setSpec>
    </header>
    <header>
      <identifier>oai:zenodo.org:283665</identifier>
      <datestamp>2017-02-09T09:22:40Z</datestamp>
      <setSpec>user-biosyslit</setSpec>
    </header>
    <header>
      <identifier>oai:zenodo.org:283667</identifier>
      <datestamp>2017-02-09T09:22:44Z</datestamp>
      <setSpec>user-biosyslit</setSpec>
    </header>
    <header>
      <identifier>oai:zenodo.org:283663</identifier>
      <datestamp>2017-02-09T09:22:37Z</datestamp>
      <setSpec>user-biosyslit</setSpec>
    </header>
    <header>
      <identifier>oai:zenodo.org:286177</identifier>
      <datestamp>2017-02-09T15:26:18Z</datestamp>
      <setSpec>user-biosyslit</setSpec>
    </header>
    <header>
      <identifier>oai:zenodo.org:286172</identifier>
      <datestamp>2017-02-09T15:26:07Z</datestamp>
      <setSpec>user-biosyslit</setSpec>
    </header>
    <header>
      <identifier>oai:zenodo.org:286173</identifier>
      <datestamp>2017-02-09T15:26:09Z</datestamp>
      <setSpec>user-biosyslit</setSpec>
    </header>
    <header>
      <identifier>oai:zenodo.org:286180</identifier>
      <datestamp>2017-02-09T15:26:25Z</datestamp>
      <setSpec>user-biosyslit</setSpec>
    </header>
    <header>
      <identifier>oai:zenodo.org:229957</identifier>
      <datestamp>2017-01-04T16:21:50Z</datestamp>
      <setSpec>user-biosyslit</setSpec>
    </header>
    <header>
      <identifier>oai:zenodo.org:229960</identifier>
      <datestamp>2017-01-04T16:22:00Z</datestamp>
      <setSpec>user-biosyslit</setSpec>
    </header>
    <header>
      <identifier>oai:zenodo.org:233234</identifier>
      <datestamp>2017-01-08T02:22:52Z</datestamp>
      <setSpec>user-biosyslit</setSpec>
    </header>
    <header>
      <identifier>oai:zenodo.org:233232</identifier>
      <datestamp>2017-01-08T02:22:45Z</datestamp>
      <setSpec>user-biosyslit</setSpec>
    </header>
    <header>
      <identifier>oai:zenodo.org:233235</identifier>
      <datestamp>2017-01-08T02:22:55Z</datestamp>
      <setSpec>user-biosyslit</setSpec>
    </header>
    <header>
      <identifier>oai:zenodo.org:232880</identifier>
      <datestamp>2017-01-07T00:54:09Z</datestamp>
      <setSpec>user-biosyslit</setSpec>
    </header>
    <header>
      <identifier>oai:zenodo.org:232882</identifier>
      <datestamp>2017-01-07T00:54:18Z</datestamp>
      <setSpec>user-biosyslit</setSpec>
    </header>
    <header>
      <identifier>oai:zenodo.org:232881</identifier>
      <datestamp>2017-01-07T00:54:13Z</datestamp>
      <setSpec>user-biosyslit</setSpec>
    </header>
    <header>
      <identifier>oai:zenodo.org:232884</identifier>
      <datestamp>2017-01-07T00:54:25Z</datestamp>
      <setSpec>user-biosyslit</setSpec>
    </header>
    <header>
      <identifier>oai:zenodo.org:232885</identifier>
      <datestamp>2017-01-07T00:54:30Z</datestamp>
      <setSpec>user-biosyslit</setSpec>
    </header>
    <header>
      <identifier>oai:zenodo.org:234966</identifier>
      <datestamp>2017-01-09T04:03:00Z</datestamp>
      <setSpec>user-biosyslit</setSpec>
    </header>
    <header>
      <identifier>oai:zenodo.org:234964</identifier>
      <datestamp>2017-01-09T04:02:54Z</datestamp>
      <setSpec>user-biosyslit</setSpec>
    </header>
    <header>
      <identifier>oai:zenodo.org:276964</identifier>
      <datestamp>2017-02-08T20:05:15Z</datestamp>
      <setSpec>user-biosyslit</setSpec>
    </header>
    <header>
      <identifier>oai:zenodo.org:276967</identifier>
      <datestamp>2017-02-08T20:05:23Z</datestamp>
      <setSpec>user-biosyslit</setSpec>
    </header>
    <header>
      <identifier>oai:zenodo.org:276968</identifier>
      <datestamp>2017-02-08T20:05:25Z</datestamp>
      <setSpec>user-biosyslit</setSpec>
    </header>
    <header>
      <identifier>oai:zenodo.org:277611</identifier>
      <datestamp>2017-02-08T21:29:22Z</datestamp>
      <setSpec>user-biosyslit</setSpec>
    </header>
    <header>
      <identifier>oai:zenodo.org:277614</identifier>
      <datestamp>2017-02-08T21:29:30Z</datestamp>
      <setSpec>user-biosyslit</setSpec>
    </header>
    <header>
      <identifier>oai:zenodo.org:277613</identifier>
      <datestamp>2017-02-08T21:29:28Z</datestamp>
      <setSpec>user-biosyslit</setSpec>
    </header>
    <header>
      <identifier>oai:zenodo.org:280919</identifier>
      <datestamp>2017-02-09T04:21:09Z</datestamp>
      <setSpec>user-biosyslit</setSpec>
    </header>
    <header>
      <identifier>oai:zenodo.org:280932</identifier>
      <datestamp>2017-02-09T04:21:05Z</datestamp>
      <setSpec>user-biosyslit</setSpec>
    </header>
    <header>
      <identifier>oai:zenodo.org:280929</identifier>
      <datestamp>2017-02-09T04:20:57Z</datestamp>
      <setSpec>user-biosyslit</setSpec>
    </header>
    <header>
      <identifier>oai:zenodo.org:280930</identifier>
      <datestamp>2017-02-09T04:21:00Z</datestamp>
      <setSpec>user-biosyslit</setSpec>
    </header>
    <header>
      <identifier>oai:zenodo.org:280924</identifier>
      <datestamp>2017-02-09T04:20:43Z</datestamp>
      <setSpec>user-biosyslit</setSpec>
    </header>
    <header>
      <identifier>oai:zenodo.org:280933</identifier>
      <datestamp>2017-02-09T04:21:08Z</datestamp>
      <setSpec>user-biosyslit</setSpec>
    </header>
    <header>
      <identifier>oai:zenodo.org:241128</identifier>
      <datestamp>2017-01-12T20:18:25Z</datestamp>
      <setSpec>user-biosyslit</setSpec>
    </header>
    <header>
      <identifier>oai:zenodo.org:226843</identifier>
      <datestamp>2017-01-01T04:23:32Z</datestamp>
      <setSpec>user-biosyslit</setSpec>
    </header>
    <header>
      <identifier>oai:zenodo.org:227487</identifier>
      <datestamp>2017-01-01T22:05:51Z</datestamp>
      <setSpec>user-biosyslit</setSpec>
    </header>
    <header>
      <identifier>oai:zenodo.org:241130</identifier>
      <datestamp>2017-01-12T20:18:24Z</datestamp>
      <setSpec>user-biosyslit</setSpec>
    </header>
    <header>
      <identifier>oai:zenodo.org:241129</identifier>
      <datestamp>2017-01-12T20:18:22Z</datestamp>
      <setSpec>user-biosyslit</setSpec>
    </header>
    <header>
      <identifier>oai:zenodo.org:229578</identifier>
      <datestamp>2017-01-03T18:46:45Z</datestamp>
      <setSpec>user-biosyslit</setSpec>
    </header>
    <header>
      <identifier>oai:zenodo.org:229582</identifier>
      <datestamp>2017-01-03T18:46:35Z</datestamp>
      <setSpec>user-biosyslit</setSpec>
    </header>
    <header>
      <identifier>oai:zenodo.org:229585</identifier>
      <datestamp>2017-01-03T18:46:44Z</datestamp>
      <setSpec>user-biosyslit</setSpec>
    </header>
    <header>
      <identifier>oai:zenodo.org:229583</identifier>
      <datestamp>2017-01-03T18:46:38Z</datestamp>
      <setSpec>user-biosyslit</setSpec>
    </header>
    <header>
      <identifier>oai:zenodo.org:229584</identifier>
      <datestamp>2017-01-03T18:46:41Z</datestamp>
      <setSpec>user-biosyslit</setSpec>
    </header>
    <header>
      <identifier>oai:zenodo.org:278552</identifier>
      <datestamp>2017-02-08T23:25:24Z</datestamp>
      <setSpec>user-biosyslit</setSpec>
    </header>
    <header>
      <identifier>oai:zenodo.org:278570</identifier>
      <datestamp>2017-02-08T23:25:21Z</datestamp>
      <setSpec>user-biosyslit</setSpec>
    </header>
    <header>
      <identifier>oai:zenodo.org:278560</identifier>
      <datestamp>2017-02-08T23:24:43Z</datestamp>
      <setSpec>user-biosyslit</setSpec>
    </header>
    <header>
      <identifier>oai:zenodo.org:278561</identifier>
      <datestamp>2017-02-08T23:24:45Z</datestamp>
      <setSpec>user-biosyslit</setSpec>
    </header>
    <header>
      <identifier>oai:zenodo.org:278564</identifier>
      <datestamp>2017-02-08T23:25:05Z</datestamp>
      <setSpec>user-biosyslit</setSpec>
    </header>
    <header>
      <identifier>oai:zenodo.org:278566</identifier>
      <datestamp>2017-02-08T23:25:11Z</datestamp>
      <setSpec>user-biosyslit</setSpec>
    </header>
    <header>
      <identifier>oai:zenodo.org:278562</identifier>
      <datestamp>2017-02-08T23:24:57Z</datestamp>
      <setSpec>user-biosyslit</setSpec>
    </header>
    <resumptionToken expirationDate="2017-08-31T15:47:44Z" cursor="67800" completeListSize="77796">.eJyNysEOQzAYAOB3-c-ytLphkl2EiQNCR8ZlMURMmegWVLz7XHbezt-3AC_LAnS0O2raQSYqIhgjZa-oEvB8eDJ2qzeG_BqzvGNRZsfvsI1RIleqZ_LJNRPiiQb5LRb0HMhXrE1RjebgEr0SEU4xcUaKLNUVwew9nO0VxLdZerd7GnUGo3Ix-FYwU2zQlOTfh_984ucz-Qkk6LOqBF3RkATNmA0VB31Z1w-cvVE_.DInAqA.1e-W58S_wFfRwA5rjAqk3LQmQ9g</resumptionToken>
  </ListIdentifiers>
</OAI-PMH>
