<?xml version='1.0' encoding='UTF-8'?>
<?xml-stylesheet type="text/xsl" href="/static/xsl/oai2.v1.0.xsl"?>
<OAI-PMH xmlns="http://www.openarchives.org/OAI/2.0/" xmlns:xsi="http://www.w3.org/2001/XMLSchema-instance" xsi:schemaLocation="http://www.openarchives.org/OAI/2.0/ http://www.openarchives.org/OAI/2.0/OAI-PMH.xsd">
  <responseDate>2017-08-31T15:42:39Z</responseDate>
  <request verb="ListIdentifiers" resumptionToken=".eJyNysEKgjAYAOB3-c8Sc0uXQhfRxEOKLiW9hKmIuUxcoU5897p0rvP3LSCqqgQTbYhGiYGJQRHaGojqugKiGB6cX5qPQ3FOeNHxOHeTV3RPUIpr6ttiOtop8WWLgrsq2SHEZ3U3xQ2aw1P8TGU0JcQbGXLoUYazf_M-rySBy7Or27O4szjD5RA44cxUi2Wk-D71zyd_PlvsQYE-ryswsUYUaMd8qAWYy7q-AdZGUXU.DIm_7w.5kksiiu05irYxMf1sqsqorzHzcs">https://zenodo.org/oai2d</request>
  <ListIdentifiers>
    <header>
      <identifier>oai:zenodo.org:265605</identifier>
      <datestamp>2017-01-31T17:36:39Z</datestamp>
      <setSpec>user-biosyslit</setSpec>
    </header>
    <header>
      <identifier>oai:zenodo.org:278783</identifier>
      <datestamp>2017-02-08T23:53:02Z</datestamp>
      <setSpec>user-biosyslit</setSpec>
    </header>
    <header>
      <identifier>oai:zenodo.org:265606</identifier>
      <datestamp>2017-01-31T17:36:20Z</datestamp>
      <setSpec>user-biosyslit</setSpec>
    </header>
    <header>
      <identifier>oai:zenodo.org:265609</identifier>
      <datestamp>2017-01-31T17:36:32Z</datestamp>
      <setSpec>user-biosyslit</setSpec>
    </header>
    <header>
      <identifier>oai:zenodo.org:237084</identifier>
      <datestamp>2017-01-10T10:35:08Z</datestamp>
      <setSpec>user-biosyslit</setSpec>
    </header>
    <header>
      <identifier>oai:zenodo.org:237083</identifier>
      <datestamp>2017-01-10T10:35:03Z</datestamp>
      <setSpec>user-biosyslit</setSpec>
    </header>
    <header>
      <identifier>oai:zenodo.org:237081</identifier>
      <datestamp>2017-01-10T10:34:55Z</datestamp>
      <setSpec>user-biosyslit</setSpec>
    </header>
    <header>
      <identifier>oai:zenodo.org:294059</identifier>
      <datestamp>2017-02-20T19:13:35Z</datestamp>
      <setSpec>user-biosyslit</setSpec>
    </header>
    <header>
      <identifier>oai:zenodo.org:279233</identifier>
      <datestamp>2017-02-09T00:51:37Z</datestamp>
      <setSpec>user-biosyslit</setSpec>
    </header>
    <header>
      <identifier>oai:zenodo.org:294066</identifier>
      <datestamp>2017-02-20T19:13:32Z</datestamp>
      <setSpec>user-biosyslit</setSpec>
    </header>
    <header>
      <identifier>oai:zenodo.org:279228</identifier>
      <datestamp>2017-02-09T00:51:21Z</datestamp>
      <setSpec>user-biosyslit</setSpec>
    </header>
    <header>
      <identifier>oai:zenodo.org:279234</identifier>
      <datestamp>2017-02-09T00:51:43Z</datestamp>
      <setSpec>user-biosyslit</setSpec>
    </header>
    <header>
      <identifier>oai:zenodo.org:279227</identifier>
      <datestamp>2017-02-09T00:51:18Z</datestamp>
      <setSpec>user-biosyslit</setSpec>
    </header>
    <header>
      <identifier>oai:zenodo.org:279232</identifier>
      <datestamp>2017-02-09T00:51:32Z</datestamp>
      <setSpec>user-biosyslit</setSpec>
    </header>
    <header>
      <identifier>oai:zenodo.org:279229</identifier>
      <datestamp>2017-02-09T00:51:23Z</datestamp>
      <setSpec>user-biosyslit</setSpec>
    </header>
    <header>
      <identifier>oai:zenodo.org:279230</identifier>
      <datestamp>2017-02-09T00:51:26Z</datestamp>
      <setSpec>user-biosyslit</setSpec>
    </header>
    <header>
      <identifier>oai:zenodo.org:274236</identifier>
      <datestamp>2017-02-08T12:31:09Z</datestamp>
      <setSpec>user-biosyslit</setSpec>
    </header>
    <header>
      <identifier>oai:zenodo.org:274234</identifier>
      <datestamp>2017-02-08T12:31:05Z</datestamp>
      <setSpec>user-biosyslit</setSpec>
    </header>
    <header>
      <identifier>oai:zenodo.org:274237</identifier>
      <datestamp>2017-02-08T12:31:11Z</datestamp>
      <setSpec>user-biosyslit</setSpec>
    </header>
    <header>
      <identifier>oai:zenodo.org:237862</identifier>
      <datestamp>2017-01-10T21:46:12Z</datestamp>
      <setSpec>user-biosyslit</setSpec>
    </header>
    <header>
      <identifier>oai:zenodo.org:251821</identifier>
      <datestamp>2017-01-19T04:55:26Z</datestamp>
      <setSpec>user-biosyslit</setSpec>
    </header>
    <header>
      <identifier>oai:zenodo.org:237868</identifier>
      <datestamp>2017-01-10T21:46:08Z</datestamp>
      <setSpec>user-biosyslit</setSpec>
    </header>
    <header>
      <identifier>oai:zenodo.org:237869</identifier>
      <datestamp>2017-01-10T21:46:11Z</datestamp>
      <setSpec>user-biosyslit</setSpec>
    </header>
    <header>
      <identifier>oai:zenodo.org:251822</identifier>
      <datestamp>2017-01-19T04:55:29Z</datestamp>
      <setSpec>user-biosyslit</setSpec>
    </header>
    <header>
      <identifier>oai:zenodo.org:279906</identifier>
      <datestamp>2017-02-09T02:16:08Z</datestamp>
      <setSpec>user-biosyslit</setSpec>
    </header>
    <header>
      <identifier>oai:zenodo.org:274601</identifier>
      <datestamp>2017-02-08T13:47:08Z</datestamp>
      <setSpec>user-biosyslit</setSpec>
    </header>
    <header>
      <identifier>oai:zenodo.org:279907</identifier>
      <datestamp>2017-02-09T02:16:04Z</datestamp>
      <setSpec>user-biosyslit</setSpec>
    </header>
    <header>
      <identifier>oai:zenodo.org:289260</identifier>
      <datestamp>2017-02-09T23:04:39Z</datestamp>
      <setSpec>user-biosyslit</setSpec>
    </header>
    <header>
      <identifier>oai:zenodo.org:251801</identifier>
      <datestamp>2017-01-19T04:44:04Z</datestamp>
      <setSpec>user-biosyslit</setSpec>
    </header>
    <header>
      <identifier>oai:zenodo.org:289261</identifier>
      <datestamp>2017-02-09T23:04:42Z</datestamp>
      <setSpec>user-biosyslit</setSpec>
    </header>
    <header>
      <identifier>oai:zenodo.org:289256</identifier>
      <datestamp>2017-02-09T23:04:29Z</datestamp>
      <setSpec>user-biosyslit</setSpec>
    </header>
    <header>
      <identifier>oai:zenodo.org:231668</identifier>
      <datestamp>2017-01-06T05:33:54Z</datestamp>
      <setSpec>user-biosyslit</setSpec>
    </header>
    <header>
      <identifier>oai:zenodo.org:252960</identifier>
      <datestamp>2017-01-20T00:40:03Z</datestamp>
      <setSpec>user-biosyslit</setSpec>
    </header>
    <header>
      <identifier>oai:zenodo.org:252964</identifier>
      <datestamp>2017-01-20T00:40:17Z</datestamp>
      <setSpec>user-biosyslit</setSpec>
    </header>
    <header>
      <identifier>oai:zenodo.org:252963</identifier>
      <datestamp>2017-01-20T00:40:14Z</datestamp>
      <setSpec>user-biosyslit</setSpec>
    </header>
    <header>
      <identifier>oai:zenodo.org:252962</identifier>
      <datestamp>2017-01-20T00:40:10Z</datestamp>
      <setSpec>user-biosyslit</setSpec>
    </header>
    <header>
      <identifier>oai:zenodo.org:252965</identifier>
      <datestamp>2017-01-20T00:40:21Z</datestamp>
      <setSpec>user-biosyslit</setSpec>
    </header>
    <header>
      <identifier>oai:zenodo.org:245790</identifier>
      <datestamp>2017-01-15T18:44:37Z</datestamp>
      <setSpec>user-biosyslit</setSpec>
    </header>
    <header>
      <identifier>oai:zenodo.org:279584</identifier>
      <datestamp>2017-02-09T01:40:26Z</datestamp>
      <setSpec>user-biosyslit</setSpec>
    </header>
    <header>
      <identifier>oai:zenodo.org:279582</identifier>
      <datestamp>2017-02-09T01:40:28Z</datestamp>
      <setSpec>user-biosyslit</setSpec>
    </header>
    <header>
      <identifier>oai:zenodo.org:245793</identifier>
      <datestamp>2017-01-15T18:44:34Z</datestamp>
      <setSpec>user-biosyslit</setSpec>
    </header>
    <header>
      <identifier>oai:zenodo.org:245792</identifier>
      <datestamp>2017-01-15T18:44:29Z</datestamp>
      <setSpec>user-biosyslit</setSpec>
    </header>
    <header>
      <identifier>oai:zenodo.org:246177</identifier>
      <datestamp>2017-01-15T22:53:44Z</datestamp>
      <setSpec>user-biosyslit</setSpec>
    </header>
    <header>
      <identifier>oai:zenodo.org:246180</identifier>
      <datestamp>2017-01-15T22:53:55Z</datestamp>
      <setSpec>user-biosyslit</setSpec>
    </header>
    <header>
      <identifier>oai:zenodo.org:246176</identifier>
      <datestamp>2017-01-15T22:53:39Z</datestamp>
      <setSpec>user-biosyslit</setSpec>
    </header>
    <header>
      <identifier>oai:zenodo.org:235229</identifier>
      <datestamp>2017-01-09T07:10:27Z</datestamp>
      <setSpec>user-biosyslit</setSpec>
    </header>
    <header>
      <identifier>oai:zenodo.org:230376</identifier>
      <datestamp>2017-01-04T23:40:56Z</datestamp>
      <setSpec>user-biosyslit</setSpec>
    </header>
    <header>
      <identifier>oai:zenodo.org:267126</identifier>
      <datestamp>2017-02-01T19:51:51Z</datestamp>
      <setSpec>user-biosyslit</setSpec>
    </header>
    <header>
      <identifier>oai:zenodo.org:235238</identifier>
      <datestamp>2017-01-09T07:10:07Z</datestamp>
      <setSpec>user-biosyslit</setSpec>
    </header>
    <header>
      <identifier>oai:zenodo.org:230377</identifier>
      <datestamp>2017-01-04T23:40:52Z</datestamp>
      <setSpec>user-biosyslit</setSpec>
    </header>
    <header>
      <identifier>oai:zenodo.org:230381</identifier>
      <datestamp>2017-01-04T23:49:23Z</datestamp>
      <setSpec>user-biosyslit</setSpec>
    </header>
    <header>
      <identifier>oai:zenodo.org:230757</identifier>
      <datestamp>2017-01-05T07:49:11Z</datestamp>
      <setSpec>user-biosyslit</setSpec>
    </header>
    <header>
      <identifier>oai:zenodo.org:286246</identifier>
      <datestamp>2017-02-09T15:37:25Z</datestamp>
      <setSpec>user-biosyslit</setSpec>
    </header>
    <header>
      <identifier>oai:zenodo.org:230758</identifier>
      <datestamp>2017-01-05T07:49:14Z</datestamp>
      <setSpec>user-biosyslit</setSpec>
    </header>
    <header>
      <identifier>oai:zenodo.org:230761</identifier>
      <datestamp>2017-01-05T07:49:22Z</datestamp>
      <setSpec>user-biosyslit</setSpec>
    </header>
    <header>
      <identifier>oai:zenodo.org:286253</identifier>
      <datestamp>2017-02-09T15:37:40Z</datestamp>
      <setSpec>user-biosyslit</setSpec>
    </header>
    <header>
      <identifier>oai:zenodo.org:286244</identifier>
      <datestamp>2017-02-09T15:37:20Z</datestamp>
      <setSpec>user-biosyslit</setSpec>
    </header>
    <header>
      <identifier>oai:zenodo.org:230759</identifier>
      <datestamp>2017-01-05T07:49:17Z</datestamp>
      <setSpec>user-biosyslit</setSpec>
    </header>
    <header>
      <identifier>oai:zenodo.org:286257</identifier>
      <datestamp>2017-02-09T15:37:47Z</datestamp>
      <setSpec>user-biosyslit</setSpec>
    </header>
    <header>
      <identifier>oai:zenodo.org:270559</identifier>
      <datestamp>2017-02-07T23:29:25Z</datestamp>
      <setSpec>user-biosyslit</setSpec>
    </header>
    <header>
      <identifier>oai:zenodo.org:231511</identifier>
      <datestamp>2017-01-06T03:13:45Z</datestamp>
      <setSpec>user-biosyslit</setSpec>
    </header>
    <header>
      <identifier>oai:zenodo.org:231512</identifier>
      <datestamp>2017-01-06T03:13:44Z</datestamp>
      <setSpec>user-biosyslit</setSpec>
    </header>
    <header>
      <identifier>oai:zenodo.org:240053</identifier>
      <datestamp>2017-01-12T04:09:30Z</datestamp>
      <setSpec>user-biosyslit</setSpec>
    </header>
    <header>
      <identifier>oai:zenodo.org:253331</identifier>
      <datestamp>2017-01-20T05:39:07Z</datestamp>
      <setSpec>user-biosyslit</setSpec>
    </header>
    <header>
      <identifier>oai:zenodo.org:253328</identifier>
      <datestamp>2017-01-20T05:38:58Z</datestamp>
      <setSpec>user-biosyslit</setSpec>
    </header>
    <header>
      <identifier>oai:zenodo.org:253327</identifier>
      <datestamp>2017-01-20T05:38:55Z</datestamp>
      <setSpec>user-biosyslit</setSpec>
    </header>
    <header>
      <identifier>oai:zenodo.org:253326</identifier>
      <datestamp>2017-01-20T05:38:51Z</datestamp>
      <setSpec>user-biosyslit</setSpec>
    </header>
    <header>
      <identifier>oai:zenodo.org:277540</identifier>
      <datestamp>2017-02-08T21:20:42Z</datestamp>
      <setSpec>user-biosyslit</setSpec>
    </header>
    <header>
      <identifier>oai:zenodo.org:277542</identifier>
      <datestamp>2017-02-08T21:20:47Z</datestamp>
      <setSpec>user-biosyslit</setSpec>
    </header>
    <header>
      <identifier>oai:zenodo.org:277545</identifier>
      <datestamp>2017-02-08T21:20:55Z</datestamp>
      <setSpec>user-biosyslit</setSpec>
    </header>
    <header>
      <identifier>oai:zenodo.org:277549</identifier>
      <datestamp>2017-02-08T21:21:06Z</datestamp>
      <setSpec>user-biosyslit</setSpec>
    </header>
    <header>
      <identifier>oai:zenodo.org:277547</identifier>
      <datestamp>2017-02-08T21:21:01Z</datestamp>
      <setSpec>user-biosyslit</setSpec>
    </header>
    <header>
      <identifier>oai:zenodo.org:277551</identifier>
      <datestamp>2017-02-08T21:21:11Z</datestamp>
      <setSpec>user-biosyslit</setSpec>
    </header>
    <header>
      <identifier>oai:zenodo.org:277552</identifier>
      <datestamp>2017-02-08T21:21:14Z</datestamp>
      <setSpec>user-biosyslit</setSpec>
    </header>
    <header>
      <identifier>oai:zenodo.org:277555</identifier>
      <datestamp>2017-02-08T21:21:25Z</datestamp>
      <setSpec>user-biosyslit</setSpec>
    </header>
    <header>
      <identifier>oai:zenodo.org:231756</identifier>
      <datestamp>2017-01-06T06:55:13Z</datestamp>
      <setSpec>user-biosyslit</setSpec>
    </header>
    <header>
      <identifier>oai:zenodo.org:281089</identifier>
      <datestamp>2017-02-09T04:43:14Z</datestamp>
      <setSpec>user-biosyslit</setSpec>
    </header>
    <header>
      <identifier>oai:zenodo.org:281098</identifier>
      <datestamp>2017-02-09T04:43:10Z</datestamp>
      <setSpec>user-biosyslit</setSpec>
    </header>
    <header>
      <identifier>oai:zenodo.org:245124</identifier>
      <datestamp>2017-01-15T08:04:34Z</datestamp>
      <setSpec>user-biosyslit</setSpec>
    </header>
    <header>
      <identifier>oai:zenodo.org:245127</identifier>
      <datestamp>2017-01-15T08:04:45Z</datestamp>
      <setSpec>user-biosyslit</setSpec>
    </header>
    <header>
      <identifier>oai:zenodo.org:281096</identifier>
      <datestamp>2017-02-09T04:43:04Z</datestamp>
      <setSpec>user-biosyslit</setSpec>
    </header>
    <header>
      <identifier>oai:zenodo.org:231112</identifier>
      <datestamp>2017-01-05T14:39:33Z</datestamp>
      <setSpec>user-biosyslit</setSpec>
    </header>
    <header>
      <identifier>oai:zenodo.org:231114</identifier>
      <datestamp>2017-01-05T14:39:40Z</datestamp>
      <setSpec>user-biosyslit</setSpec>
    </header>
    <header>
      <identifier>oai:zenodo.org:231109</identifier>
      <datestamp>2017-01-05T14:39:24Z</datestamp>
      <setSpec>user-biosyslit</setSpec>
    </header>
    <header>
      <identifier>oai:zenodo.org:231111</identifier>
      <datestamp>2017-01-05T14:39:30Z</datestamp>
      <setSpec>user-biosyslit</setSpec>
    </header>
    <header>
      <identifier>oai:zenodo.org:231113</identifier>
      <datestamp>2017-01-05T14:39:36Z</datestamp>
      <setSpec>user-biosyslit</setSpec>
    </header>
    <header>
      <identifier>oai:zenodo.org:231640</identifier>
      <datestamp>2017-01-06T05:10:30Z</datestamp>
      <setSpec>user-biosyslit</setSpec>
    </header>
    <header>
      <identifier>oai:zenodo.org:231642</identifier>
      <datestamp>2017-01-06T05:10:36Z</datestamp>
      <setSpec>user-biosyslit</setSpec>
    </header>
    <header>
      <identifier>oai:zenodo.org:231641</identifier>
      <datestamp>2017-01-06T05:10:33Z</datestamp>
      <setSpec>user-biosyslit</setSpec>
    </header>
    <header>
      <identifier>oai:zenodo.org:270608</identifier>
      <datestamp>2017-02-07T23:34:59Z</datestamp>
      <setSpec>user-biosyslit</setSpec>
    </header>
    <header>
      <identifier>oai:zenodo.org:270598</identifier>
      <datestamp>2017-02-07T23:34:26Z</datestamp>
      <setSpec>user-biosyslit</setSpec>
    </header>
    <header>
      <identifier>oai:zenodo.org:270609</identifier>
      <datestamp>2017-02-07T23:35:02Z</datestamp>
      <setSpec>user-biosyslit</setSpec>
    </header>
    <header>
      <identifier>oai:zenodo.org:270605</identifier>
      <datestamp>2017-02-07T23:34:50Z</datestamp>
      <setSpec>user-biosyslit</setSpec>
    </header>
    <header>
      <identifier>oai:zenodo.org:270599</identifier>
      <datestamp>2017-02-07T23:34:28Z</datestamp>
      <setSpec>user-biosyslit</setSpec>
    </header>
    <header>
      <identifier>oai:zenodo.org:270604</identifier>
      <datestamp>2017-02-07T23:34:46Z</datestamp>
      <setSpec>user-biosyslit</setSpec>
    </header>
    <header>
      <identifier>oai:zenodo.org:270603</identifier>
      <datestamp>2017-02-07T23:34:43Z</datestamp>
      <setSpec>user-biosyslit</setSpec>
    </header>
    <header>
      <identifier>oai:zenodo.org:270602</identifier>
      <datestamp>2017-02-07T23:34:39Z</datestamp>
      <setSpec>user-biosyslit</setSpec>
    </header>
    <header>
      <identifier>oai:zenodo.org:256481</identifier>
      <datestamp>2017-01-22T15:34:07Z</datestamp>
      <setSpec>user-biosyslit</setSpec>
    </header>
    <header>
      <identifier>oai:zenodo.org:263546</identifier>
      <datestamp>2017-01-30T00:20:43Z</datestamp>
      <setSpec>user-biosyslit</setSpec>
    </header>
    <header>
      <identifier>oai:zenodo.org:256483</identifier>
      <datestamp>2017-01-22T15:33:49Z</datestamp>
      <setSpec>user-biosyslit</setSpec>
    </header>
    <resumptionToken expirationDate="2017-08-31T15:44:39Z" cursor="25200" completeListSize="77796">.eJyNyssKgkAUANB_uWuJeWg-oI1o4kLFJiXdhKmINVo4hTriv9emda3PWUDUdQUW2hC03aqUYNU0DFNDhCggyuHO-bn9OJSnlJc9TwovfR26FGWk0UNHTIGT0VDeUNRhyfYxOWFjSlo0x8fkmcnDlFJ_ZMjVAxnP4dX_vIpGHs8v3oMlvc0ZqYbIjWeGbZbT8vvwn0_-fI7YgQKPoqnBIpqqwG0shkaAtazrG83zUW0.DIm_7w.k2DcqyPIURvxaJGFjb03i4jHK7k</resumptionToken>
  </ListIdentifiers>
</OAI-PMH>
