<?xml version='1.0' encoding='UTF-8'?>
<?xml-stylesheet type="text/xsl" href="/static/xsl/oai2.v1.0.xsl"?>
<OAI-PMH xmlns="http://www.openarchives.org/OAI/2.0/" xmlns:xsi="http://www.w3.org/2001/XMLSchema-instance" xsi:schemaLocation="http://www.openarchives.org/OAI/2.0/ http://www.openarchives.org/OAI/2.0/OAI-PMH.xsd">
  <responseDate>2017-08-31T15:43:54Z</responseDate>
  <request verb="ListIdentifiers" resumptionToken=".eJyNyj0PQ0AYAOD_8s7S3Lmqj6RLQ8WAcCVlaRQRdVRcG5z477V0bufnWYCXZQEG2iGiq0g_KApRiSYTXZOA58OTsVu9OeTXmOUdizI7fodtjBK5Uj2TT66ZEE80yG-xoOdAvmJtimo0B5folYhwiokzUmSprghm7-FsryC-zdK73dOoOzEqF4NvBTPFJ5qS_Pvwn0_8fCY_ggR9VpVg7PdYgmbMhoqDsazrB9x7UXs.DInAOg.iOHtawkMZwwAJUiaOndusyon6E4">https://zenodo.org/oai2d</request>
  <ListIdentifiers>
    <header>
      <identifier>oai:zenodo.org:256516</identifier>
      <datestamp>2017-01-22T16:41:56Z</datestamp>
      <setSpec>user-biosyslit</setSpec>
    </header>
    <header>
      <identifier>oai:zenodo.org:256634</identifier>
      <datestamp>2017-01-22T18:37:19Z</datestamp>
      <setSpec>user-biosyslit</setSpec>
    </header>
    <header>
      <identifier>oai:zenodo.org:256240</identifier>
      <datestamp>2017-01-22T07:56:19Z</datestamp>
      <setSpec>user-biosyslit</setSpec>
    </header>
    <header>
      <identifier>oai:zenodo.org:256710</identifier>
      <datestamp>2017-01-22T19:43:20Z</datestamp>
      <setSpec>user-biosyslit</setSpec>
    </header>
    <header>
      <identifier>oai:zenodo.org:257002</identifier>
      <datestamp>2017-01-22T23:40:41Z</datestamp>
      <setSpec>user-biosyslit</setSpec>
    </header>
    <header>
      <identifier>oai:zenodo.org:257676</identifier>
      <datestamp>2017-01-23T12:18:05Z</datestamp>
      <setSpec>user-biosyslit</setSpec>
    </header>
    <header>
      <identifier>oai:zenodo.org:256803</identifier>
      <datestamp>2017-01-22T20:59:46Z</datestamp>
      <setSpec>user-biosyslit</setSpec>
    </header>
    <header>
      <identifier>oai:zenodo.org:257024</identifier>
      <datestamp>2017-01-23T00:00:15Z</datestamp>
      <setSpec>user-biosyslit</setSpec>
    </header>
    <header>
      <identifier>oai:zenodo.org:256835</identifier>
      <datestamp>2017-01-22T21:18:48Z</datestamp>
      <setSpec>user-biosyslit</setSpec>
    </header>
    <header>
      <identifier>oai:zenodo.org:256981</identifier>
      <datestamp>2017-01-22T23:39:34Z</datestamp>
      <setSpec>user-biosyslit</setSpec>
    </header>
    <header>
      <identifier>oai:zenodo.org:275189</identifier>
      <datestamp>2017-02-08T15:36:06Z</datestamp>
      <setSpec>user-biosyslit</setSpec>
    </header>
    <header>
      <identifier>oai:zenodo.org:268117</identifier>
      <datestamp>2017-02-03T01:33:54Z</datestamp>
      <setSpec>user-biosyslit</setSpec>
    </header>
    <header>
      <identifier>oai:zenodo.org:269482</identifier>
      <datestamp>2017-02-07T00:42:41Z</datestamp>
      <setSpec>user-biosyslit</setSpec>
    </header>
    <header>
      <identifier>oai:zenodo.org:268351</identifier>
      <datestamp>2017-02-03T12:06:07Z</datestamp>
      <setSpec>user-biosyslit</setSpec>
    </header>
    <header>
      <identifier>oai:zenodo.org:268388</identifier>
      <datestamp>2017-02-03T12:54:45Z</datestamp>
      <setSpec>user-biosyslit</setSpec>
    </header>
    <header>
      <identifier>oai:zenodo.org:269294</identifier>
      <datestamp>2017-02-06T23:48:44Z</datestamp>
      <setSpec>user-biosyslit</setSpec>
    </header>
    <header>
      <identifier>oai:zenodo.org:269496</identifier>
      <datestamp>2017-02-07T00:43:22Z</datestamp>
      <setSpec>user-biosyslit</setSpec>
    </header>
    <header>
      <identifier>oai:zenodo.org:285692</identifier>
      <datestamp>2017-02-09T14:06:59Z</datestamp>
      <setSpec>user-biosyslit</setSpec>
    </header>
    <header>
      <identifier>oai:zenodo.org:226802</identifier>
      <datestamp>2017-01-01T03:34:22Z</datestamp>
      <setSpec>user-biosyslit</setSpec>
    </header>
    <header>
      <identifier>oai:zenodo.org:226934</identifier>
      <datestamp>2017-01-01T06:59:52Z</datestamp>
      <setSpec>user-biosyslit</setSpec>
    </header>
    <header>
      <identifier>oai:zenodo.org:286611</identifier>
      <datestamp>2017-02-09T16:25:06Z</datestamp>
      <setSpec>user-biosyslit</setSpec>
    </header>
    <header>
      <identifier>oai:zenodo.org:226776</identifier>
      <datestamp>2017-01-01T03:09:05Z</datestamp>
      <setSpec>user-biosyslit</setSpec>
    </header>
    <header>
      <identifier>oai:zenodo.org:226657</identifier>
      <datestamp>2017-01-01T01:19:02Z</datestamp>
      <setSpec>user-biosyslit</setSpec>
    </header>
    <header>
      <identifier>oai:zenodo.org:285762</identifier>
      <datestamp>2017-02-09T14:26:01Z</datestamp>
      <setSpec>user-biosyslit</setSpec>
    </header>
    <header>
      <identifier>oai:zenodo.org:285432</identifier>
      <datestamp>2017-02-09T13:35:23Z</datestamp>
      <setSpec>user-biosyslit</setSpec>
    </header>
    <header>
      <identifier>oai:zenodo.org:285760</identifier>
      <datestamp>2017-02-09T14:25:55Z</datestamp>
      <setSpec>user-biosyslit</setSpec>
    </header>
    <header>
      <identifier>oai:zenodo.org:287248</identifier>
      <datestamp>2017-02-09T17:54:07Z</datestamp>
      <setSpec>user-biosyslit</setSpec>
    </header>
    <header>
      <identifier>oai:zenodo.org:286747</identifier>
      <datestamp>2017-02-09T16:45:14Z</datestamp>
      <setSpec>user-biosyslit</setSpec>
    </header>
    <header>
      <identifier>oai:zenodo.org:285978</identifier>
      <datestamp>2017-02-09T14:56:27Z</datestamp>
      <setSpec>user-biosyslit</setSpec>
    </header>
    <header>
      <identifier>oai:zenodo.org:285754</identifier>
      <datestamp>2017-02-09T14:25:40Z</datestamp>
      <setSpec>user-biosyslit</setSpec>
    </header>
    <header>
      <identifier>oai:zenodo.org:226632</identifier>
      <datestamp>2017-01-01T00:58:08Z</datestamp>
      <setSpec>user-biosyslit</setSpec>
    </header>
    <header>
      <identifier>oai:zenodo.org:226956</identifier>
      <datestamp>2017-01-01T07:20:52Z</datestamp>
      <setSpec>user-biosyslit</setSpec>
    </header>
    <header>
      <identifier>oai:zenodo.org:226648</identifier>
      <datestamp>2017-01-01T01:11:16Z</datestamp>
      <setSpec>user-biosyslit</setSpec>
    </header>
    <header>
      <identifier>oai:zenodo.org:285652</identifier>
      <datestamp>2017-02-09T14:03:51Z</datestamp>
      <setSpec>user-biosyslit</setSpec>
    </header>
    <header>
      <identifier>oai:zenodo.org:285687</identifier>
      <datestamp>2017-02-09T14:06:47Z</datestamp>
      <setSpec>user-biosyslit</setSpec>
    </header>
    <header>
      <identifier>oai:zenodo.org:271635</identifier>
      <datestamp>2017-02-08T02:06:04Z</datestamp>
      <setSpec>user-biosyslit</setSpec>
    </header>
    <header>
      <identifier>oai:zenodo.org:241552</identifier>
      <datestamp>2017-01-13T03:13:35Z</datestamp>
      <setSpec>user-biosyslit</setSpec>
    </header>
    <header>
      <identifier>oai:zenodo.org:271791</identifier>
      <datestamp>2017-02-08T02:41:09Z</datestamp>
      <setSpec>user-biosyslit</setSpec>
    </header>
    <header>
      <identifier>oai:zenodo.org:241872</identifier>
      <datestamp>2017-01-13T07:06:41Z</datestamp>
      <setSpec>user-biosyslit</setSpec>
    </header>
    <header>
      <identifier>oai:zenodo.org:272226</identifier>
      <datestamp>2017-02-08T04:02:14Z</datestamp>
      <setSpec>user-biosyslit</setSpec>
    </header>
    <header>
      <identifier>oai:zenodo.org:271972</identifier>
      <datestamp>2017-02-08T03:10:56Z</datestamp>
      <setSpec>user-biosyslit</setSpec>
    </header>
    <header>
      <identifier>oai:zenodo.org:242886</identifier>
      <datestamp>2017-01-13T20:22:29Z</datestamp>
      <setSpec>user-biosyslit</setSpec>
    </header>
    <header>
      <identifier>oai:zenodo.org:271994</identifier>
      <datestamp>2017-02-08T03:15:15Z</datestamp>
      <setSpec>user-biosyslit</setSpec>
    </header>
    <header>
      <identifier>oai:zenodo.org:272426</identifier>
      <datestamp>2017-02-08T04:35:09Z</datestamp>
      <setSpec>user-biosyslit</setSpec>
    </header>
    <header>
      <identifier>oai:zenodo.org:241976</identifier>
      <datestamp>2017-01-13T09:01:07Z</datestamp>
      <setSpec>user-biosyslit</setSpec>
    </header>
    <header>
      <identifier>oai:zenodo.org:242090</identifier>
      <datestamp>2017-01-13T10:23:10Z</datestamp>
      <setSpec>user-biosyslit</setSpec>
    </header>
    <header>
      <identifier>oai:zenodo.org:241705</identifier>
      <datestamp>2017-01-13T05:10:02Z</datestamp>
      <setSpec>user-biosyslit</setSpec>
    </header>
    <header>
      <identifier>oai:zenodo.org:241938</identifier>
      <datestamp>2017-01-13T08:02:56Z</datestamp>
      <setSpec>user-biosyslit</setSpec>
    </header>
    <header>
      <identifier>oai:zenodo.org:241696</identifier>
      <datestamp>2017-01-13T05:10:29Z</datestamp>
      <setSpec>user-biosyslit</setSpec>
    </header>
    <header>
      <identifier>oai:zenodo.org:242528</identifier>
      <datestamp>2017-01-13T16:25:54Z</datestamp>
      <setSpec>user-biosyslit</setSpec>
    </header>
    <header>
      <identifier>oai:zenodo.org:242960</identifier>
      <datestamp>2017-01-13T21:04:30Z</datestamp>
      <setSpec>user-biosyslit</setSpec>
    </header>
    <header>
      <identifier>oai:zenodo.org:242116</identifier>
      <datestamp>2017-01-13T10:39:12Z</datestamp>
      <setSpec>user-biosyslit</setSpec>
    </header>
    <header>
      <identifier>oai:zenodo.org:242905</identifier>
      <datestamp>2017-01-13T20:34:45Z</datestamp>
      <setSpec>user-biosyslit</setSpec>
    </header>
    <header>
      <identifier>oai:zenodo.org:242654</identifier>
      <datestamp>2017-01-13T18:16:16Z</datestamp>
      <setSpec>user-biosyslit</setSpec>
    </header>
    <header>
      <identifier>oai:zenodo.org:242368</identifier>
      <datestamp>2017-01-13T13:58:36Z</datestamp>
      <setSpec>user-biosyslit</setSpec>
    </header>
    <header>
      <identifier>oai:zenodo.org:242446</identifier>
      <datestamp>2017-01-13T15:21:08Z</datestamp>
      <setSpec>user-biosyslit</setSpec>
    </header>
    <header>
      <identifier>oai:zenodo.org:242084</identifier>
      <datestamp>2017-01-13T10:23:34Z</datestamp>
      <setSpec>user-biosyslit</setSpec>
    </header>
    <header>
      <identifier>oai:zenodo.org:242253</identifier>
      <datestamp>2017-01-13T12:29:35Z</datestamp>
      <setSpec>user-biosyslit</setSpec>
    </header>
    <header>
      <identifier>oai:zenodo.org:242201</identifier>
      <datestamp>2017-01-13T12:02:01Z</datestamp>
      <setSpec>user-biosyslit</setSpec>
    </header>
    <header>
      <identifier>oai:zenodo.org:242856</identifier>
      <datestamp>2017-01-13T19:53:30Z</datestamp>
      <setSpec>user-biosyslit</setSpec>
    </header>
    <header>
      <identifier>oai:zenodo.org:242397</identifier>
      <datestamp>2017-01-13T15:06:00Z</datestamp>
      <setSpec>user-biosyslit</setSpec>
    </header>
    <header>
      <identifier>oai:zenodo.org:242646</identifier>
      <datestamp>2017-01-13T18:16:58Z</datestamp>
      <setSpec>user-biosyslit</setSpec>
    </header>
    <header>
      <identifier>oai:zenodo.org:242544</identifier>
      <datestamp>2017-01-13T16:34:31Z</datestamp>
      <setSpec>user-biosyslit</setSpec>
    </header>
    <header>
      <identifier>oai:zenodo.org:271959</identifier>
      <datestamp>2017-02-08T03:10:22Z</datestamp>
      <setSpec>user-biosyslit</setSpec>
    </header>
    <header>
      <identifier>oai:zenodo.org:243058</identifier>
      <datestamp>2017-01-13T22:45:02Z</datestamp>
      <setSpec>user-biosyslit</setSpec>
    </header>
    <header>
      <identifier>oai:zenodo.org:271968</identifier>
      <datestamp>2017-02-08T03:10:47Z</datestamp>
      <setSpec>user-biosyslit</setSpec>
    </header>
    <header>
      <identifier>oai:zenodo.org:243350</identifier>
      <datestamp>2017-01-14T03:13:07Z</datestamp>
      <setSpec>user-biosyslit</setSpec>
    </header>
    <header>
      <identifier>oai:zenodo.org:243386</identifier>
      <datestamp>2017-01-14T03:35:11Z</datestamp>
      <setSpec>user-biosyslit</setSpec>
    </header>
    <header>
      <identifier>oai:zenodo.org:243220</identifier>
      <datestamp>2017-01-14T00:48:15Z</datestamp>
      <setSpec>user-biosyslit</setSpec>
    </header>
    <header>
      <identifier>oai:zenodo.org:242716</identifier>
      <datestamp>2017-01-13T18:58:01Z</datestamp>
      <setSpec>user-biosyslit</setSpec>
    </header>
    <header>
      <identifier>oai:zenodo.org:243536</identifier>
      <datestamp>2017-01-14T07:03:27Z</datestamp>
      <setSpec>user-biosyslit</setSpec>
    </header>
    <header>
      <identifier>oai:zenodo.org:243219</identifier>
      <datestamp>2017-01-14T00:48:11Z</datestamp>
      <setSpec>user-biosyslit</setSpec>
    </header>
    <header>
      <identifier>oai:zenodo.org:243617</identifier>
      <datestamp>2017-01-14T08:12:32Z</datestamp>
      <setSpec>user-biosyslit</setSpec>
    </header>
    <header>
      <identifier>oai:zenodo.org:243292</identifier>
      <datestamp>2017-01-14T02:08:04Z</datestamp>
      <setSpec>user-biosyslit</setSpec>
    </header>
    <header>
      <identifier>oai:zenodo.org:243500</identifier>
      <datestamp>2017-01-14T06:36:03Z</datestamp>
      <setSpec>user-biosyslit</setSpec>
    </header>
    <header>
      <identifier>oai:zenodo.org:244242</identifier>
      <datestamp>2017-01-14T18:17:05Z</datestamp>
      <setSpec>user-biosyslit</setSpec>
    </header>
    <header>
      <identifier>oai:zenodo.org:243730</identifier>
      <datestamp>2017-01-14T10:02:51Z</datestamp>
      <setSpec>user-biosyslit</setSpec>
    </header>
    <header>
      <identifier>oai:zenodo.org:243768</identifier>
      <datestamp>2017-01-14T10:38:51Z</datestamp>
      <setSpec>user-biosyslit</setSpec>
    </header>
    <header>
      <identifier>oai:zenodo.org:243642</identifier>
      <datestamp>2017-01-14T08:30:41Z</datestamp>
      <setSpec>user-biosyslit</setSpec>
    </header>
    <header>
      <identifier>oai:zenodo.org:244512</identifier>
      <datestamp>2017-01-14T22:57:12Z</datestamp>
      <setSpec>user-biosyslit</setSpec>
    </header>
    <header>
      <identifier>oai:zenodo.org:244652</identifier>
      <datestamp>2017-01-15T00:30:41Z</datestamp>
      <setSpec>user-biosyslit</setSpec>
    </header>
    <header>
      <identifier>oai:zenodo.org:272109</identifier>
      <datestamp>2017-02-08T03:45:52Z</datestamp>
      <setSpec>user-biosyslit</setSpec>
    </header>
    <header>
      <identifier>oai:zenodo.org:272184</identifier>
      <datestamp>2017-02-08T03:57:32Z</datestamp>
      <setSpec>user-biosyslit</setSpec>
    </header>
    <header>
      <identifier>oai:zenodo.org:243884</identifier>
      <datestamp>2017-01-14T12:42:37Z</datestamp>
      <setSpec>user-biosyslit</setSpec>
    </header>
    <header>
      <identifier>oai:zenodo.org:272113</identifier>
      <datestamp>2017-02-08T03:46:02Z</datestamp>
      <setSpec>user-biosyslit</setSpec>
    </header>
    <header>
      <identifier>oai:zenodo.org:244355</identifier>
      <datestamp>2017-01-14T20:32:03Z</datestamp>
      <setSpec>user-biosyslit</setSpec>
    </header>
    <header>
      <identifier>oai:zenodo.org:244108</identifier>
      <datestamp>2017-01-14T16:23:36Z</datestamp>
      <setSpec>user-biosyslit</setSpec>
    </header>
    <header>
      <identifier>oai:zenodo.org:244650</identifier>
      <datestamp>2017-01-15T00:30:29Z</datestamp>
      <setSpec>user-biosyslit</setSpec>
    </header>
    <header>
      <identifier>oai:zenodo.org:244722</identifier>
      <datestamp>2017-01-15T01:38:28Z</datestamp>
      <setSpec>user-biosyslit</setSpec>
    </header>
    <header>
      <identifier>oai:zenodo.org:245425</identifier>
      <datestamp>2017-01-15T13:01:00Z</datestamp>
      <setSpec>user-biosyslit</setSpec>
    </header>
    <header>
      <identifier>oai:zenodo.org:272395</identifier>
      <datestamp>2017-02-08T04:27:05Z</datestamp>
      <setSpec>user-biosyslit</setSpec>
    </header>
    <header>
      <identifier>oai:zenodo.org:244151</identifier>
      <datestamp>2017-01-14T16:49:35Z</datestamp>
      <setSpec>user-biosyslit</setSpec>
    </header>
    <header>
      <identifier>oai:zenodo.org:244799</identifier>
      <datestamp>2017-01-15T02:44:14Z</datestamp>
      <setSpec>user-biosyslit</setSpec>
    </header>
    <header>
      <identifier>oai:zenodo.org:244684</identifier>
      <datestamp>2017-01-15T01:10:29Z</datestamp>
      <setSpec>user-biosyslit</setSpec>
    </header>
    <header>
      <identifier>oai:zenodo.org:272460</identifier>
      <datestamp>2017-02-08T04:44:54Z</datestamp>
      <setSpec>user-biosyslit</setSpec>
    </header>
    <header>
      <identifier>oai:zenodo.org:245649</identifier>
      <datestamp>2017-01-15T16:41:24Z</datestamp>
      <setSpec>user-biosyslit</setSpec>
    </header>
    <header>
      <identifier>oai:zenodo.org:272413</identifier>
      <datestamp>2017-02-08T04:33:44Z</datestamp>
      <setSpec>user-biosyslit</setSpec>
    </header>
    <header>
      <identifier>oai:zenodo.org:245015</identifier>
      <datestamp>2017-01-15T06:33:25Z</datestamp>
      <setSpec>user-biosyslit</setSpec>
    </header>
    <header>
      <identifier>oai:zenodo.org:247918</identifier>
      <datestamp>2017-01-16T21:32:58Z</datestamp>
      <setSpec>user-biosyslit</setSpec>
    </header>
    <header>
      <identifier>oai:zenodo.org:245675</identifier>
      <datestamp>2017-01-15T17:14:10Z</datestamp>
      <setSpec>user-biosyslit</setSpec>
    </header>
    <resumptionToken expirationDate="2017-08-31T15:45:54Z" cursor="44000" completeListSize="77796">.eJyNyj0PQ0AcgPHv8p-luRelkXRpqBgQrqQsjSKijoprgxPfvZbO7fIsz28BUZYFGGhH90jFmrZVQ7pKsAIiH56c3-ptQ36Ned7xKLPjd9jGKCGV7plics2EerJBfoslOwfkig9TVKM5uESvRIZTTJ2RIUt3ZTB7D2dzBfVtnt7tnkXdiTNSDL4VzAyfWErzr8N_OvnTmeIICvRZVYKhqkSBZsyGSoCxrOsHjYxRKw.DInAOg.kVA_1TtbkTc25bpAgFpKpbmWvBQ</resumptionToken>
  </ListIdentifiers>
</OAI-PMH>
