<?xml version='1.0' encoding='UTF-8'?>
<?xml-stylesheet type="text/xsl" href="/static/xsl/oai2.v1.0.xsl"?>
<OAI-PMH xmlns="http://www.openarchives.org/OAI/2.0/" xmlns:xsi="http://www.w3.org/2001/XMLSchema-instance" xsi:schemaLocation="http://www.openarchives.org/OAI/2.0/ http://www.openarchives.org/OAI/2.0/OAI-PMH.xsd">
  <responseDate>2017-08-31T15:45:36Z</responseDate>
  <request verb="ListIdentifiers" resumptionToken=".eJyNyk0LgjAYAOD_8p4l9mGbCF1Ckw4quhzqJUxFqlnhinTRf89L5zo_zwt02zbgogVlzKHcpkuObYKQzS3Q9XBVan-cHepcqvqisiqQj7SXqCAdjzw9hl5BI3NGcY-N2CQkx86YHdGU7LJ7YdJR0u1TIJ-HJpmi03Z-DY0DVR6Cm8guayVIM8R-Mgm8FiWtvw__-czP5-kVWHCruhZcxogF52c1dBrc1_v9Ac2fUW8.DInAoA.bd8bV32KwzL5yew6H1Vyi4XWsUE">https://zenodo.org/oai2d</request>
  <ListIdentifiers>
    <header>
      <identifier>oai:zenodo.org:232730</identifier>
      <datestamp>2017-01-06T22:17:09Z</datestamp>
      <setSpec>user-biosyslit</setSpec>
    </header>
    <header>
      <identifier>oai:zenodo.org:232735</identifier>
      <datestamp>2017-01-06T22:17:33Z</datestamp>
      <setSpec>user-biosyslit</setSpec>
    </header>
    <header>
      <identifier>oai:zenodo.org:232731</identifier>
      <datestamp>2017-01-06T22:17:12Z</datestamp>
      <setSpec>user-biosyslit</setSpec>
    </header>
    <header>
      <identifier>oai:zenodo.org:232728</identifier>
      <datestamp>2017-01-06T22:17:03Z</datestamp>
      <setSpec>user-biosyslit</setSpec>
    </header>
    <header>
      <identifier>oai:zenodo.org:265879</identifier>
      <datestamp>2017-01-31T22:55:48Z</datestamp>
      <setSpec>user-biosyslit</setSpec>
    </header>
    <header>
      <identifier>oai:zenodo.org:238362</identifier>
      <datestamp>2017-01-11T04:50:51Z</datestamp>
      <setSpec>user-biosyslit</setSpec>
    </header>
    <header>
      <identifier>oai:zenodo.org:238364</identifier>
      <datestamp>2017-01-11T04:50:58Z</datestamp>
      <setSpec>user-biosyslit</setSpec>
    </header>
    <header>
      <identifier>oai:zenodo.org:238363</identifier>
      <datestamp>2017-01-11T04:50:54Z</datestamp>
      <setSpec>user-biosyslit</setSpec>
    </header>
    <header>
      <identifier>oai:zenodo.org:286115</identifier>
      <datestamp>2017-02-09T15:15:59Z</datestamp>
      <setSpec>user-biosyslit</setSpec>
    </header>
    <header>
      <identifier>oai:zenodo.org:286116</identifier>
      <datestamp>2017-02-09T15:16:00Z</datestamp>
      <setSpec>user-biosyslit</setSpec>
    </header>
    <header>
      <identifier>oai:zenodo.org:286114</identifier>
      <datestamp>2017-02-09T15:15:56Z</datestamp>
      <setSpec>user-biosyslit</setSpec>
    </header>
    <header>
      <identifier>oai:zenodo.org:238366</identifier>
      <datestamp>2017-01-11T04:51:05Z</datestamp>
      <setSpec>user-biosyslit</setSpec>
    </header>
    <header>
      <identifier>oai:zenodo.org:286113</identifier>
      <datestamp>2017-02-09T15:15:54Z</datestamp>
      <setSpec>user-biosyslit</setSpec>
    </header>
    <header>
      <identifier>oai:zenodo.org:279798</identifier>
      <datestamp>2017-02-09T02:04:18Z</datestamp>
      <setSpec>user-biosyslit</setSpec>
    </header>
    <header>
      <identifier>oai:zenodo.org:264975</identifier>
      <datestamp>2017-01-31T05:32:43Z</datestamp>
      <setSpec>user-biosyslit</setSpec>
    </header>
    <header>
      <identifier>oai:zenodo.org:263685</identifier>
      <datestamp>2017-01-30T03:13:41Z</datestamp>
      <setSpec>user-biosyslit</setSpec>
    </header>
    <header>
      <identifier>oai:zenodo.org:263684</identifier>
      <datestamp>2017-01-30T03:13:38Z</datestamp>
      <setSpec>user-biosyslit</setSpec>
    </header>
    <header>
      <identifier>oai:zenodo.org:263682</identifier>
      <datestamp>2017-01-30T03:13:33Z</datestamp>
      <setSpec>user-biosyslit</setSpec>
    </header>
    <header>
      <identifier>oai:zenodo.org:244403</identifier>
      <datestamp>2017-01-14T21:19:14Z</datestamp>
      <setSpec>user-biosyslit</setSpec>
    </header>
    <header>
      <identifier>oai:zenodo.org:244402</identifier>
      <datestamp>2017-01-14T21:19:11Z</datestamp>
      <setSpec>user-biosyslit</setSpec>
    </header>
    <header>
      <identifier>oai:zenodo.org:244401</identifier>
      <datestamp>2017-01-14T21:19:07Z</datestamp>
      <setSpec>user-biosyslit</setSpec>
    </header>
    <header>
      <identifier>oai:zenodo.org:248025</identifier>
      <datestamp>2017-01-16T23:00:17Z</datestamp>
      <setSpec>user-biosyslit</setSpec>
    </header>
    <header>
      <identifier>oai:zenodo.org:228054</identifier>
      <datestamp>2017-01-02T09:35:27Z</datestamp>
      <setSpec>user-biosyslit</setSpec>
    </header>
    <header>
      <identifier>oai:zenodo.org:228050</identifier>
      <datestamp>2017-01-02T09:35:12Z</datestamp>
      <setSpec>user-biosyslit</setSpec>
    </header>
    <header>
      <identifier>oai:zenodo.org:228049</identifier>
      <datestamp>2017-01-02T09:35:08Z</datestamp>
      <setSpec>user-biosyslit</setSpec>
    </header>
    <header>
      <identifier>oai:zenodo.org:230395</identifier>
      <datestamp>2017-01-04T23:55:42Z</datestamp>
      <setSpec>user-biosyslit</setSpec>
    </header>
    <header>
      <identifier>oai:zenodo.org:248937</identifier>
      <datestamp>2017-01-17T14:05:14Z</datestamp>
      <setSpec>user-biosyslit</setSpec>
    </header>
    <header>
      <identifier>oai:zenodo.org:230397</identifier>
      <datestamp>2017-01-04T23:55:47Z</datestamp>
      <setSpec>user-biosyslit</setSpec>
    </header>
    <header>
      <identifier>oai:zenodo.org:248941</identifier>
      <datestamp>2017-01-17T14:05:29Z</datestamp>
      <setSpec>user-biosyslit</setSpec>
    </header>
    <header>
      <identifier>oai:zenodo.org:248938</identifier>
      <datestamp>2017-01-17T14:05:19Z</datestamp>
      <setSpec>user-biosyslit</setSpec>
    </header>
    <header>
      <identifier>oai:zenodo.org:248947</identifier>
      <datestamp>2017-01-17T14:05:55Z</datestamp>
      <setSpec>user-biosyslit</setSpec>
    </header>
    <header>
      <identifier>oai:zenodo.org:248948</identifier>
      <datestamp>2017-01-17T14:05:59Z</datestamp>
      <setSpec>user-biosyslit</setSpec>
    </header>
    <header>
      <identifier>oai:zenodo.org:248954</identifier>
      <datestamp>2017-01-17T14:06:21Z</datestamp>
      <setSpec>user-biosyslit</setSpec>
    </header>
    <header>
      <identifier>oai:zenodo.org:248944</identifier>
      <datestamp>2017-01-17T14:05:40Z</datestamp>
      <setSpec>user-biosyslit</setSpec>
    </header>
    <header>
      <identifier>oai:zenodo.org:248950</identifier>
      <datestamp>2017-01-17T14:06:06Z</datestamp>
      <setSpec>user-biosyslit</setSpec>
    </header>
    <header>
      <identifier>oai:zenodo.org:248952</identifier>
      <datestamp>2017-01-17T14:06:14Z</datestamp>
      <setSpec>user-biosyslit</setSpec>
    </header>
    <header>
      <identifier>oai:zenodo.org:248946</identifier>
      <datestamp>2017-01-17T14:05:51Z</datestamp>
      <setSpec>user-biosyslit</setSpec>
    </header>
    <header>
      <identifier>oai:zenodo.org:248964</identifier>
      <datestamp>2017-01-17T14:06:54Z</datestamp>
      <setSpec>user-biosyslit</setSpec>
    </header>
    <header>
      <identifier>oai:zenodo.org:248957</identifier>
      <datestamp>2017-01-17T14:06:33Z</datestamp>
      <setSpec>user-biosyslit</setSpec>
    </header>
    <header>
      <identifier>oai:zenodo.org:248956</identifier>
      <datestamp>2017-01-17T14:06:30Z</datestamp>
      <setSpec>user-biosyslit</setSpec>
    </header>
    <header>
      <identifier>oai:zenodo.org:248960</identifier>
      <datestamp>2017-01-17T14:06:43Z</datestamp>
      <setSpec>user-biosyslit</setSpec>
    </header>
    <header>
      <identifier>oai:zenodo.org:248955</identifier>
      <datestamp>2017-01-17T14:06:26Z</datestamp>
      <setSpec>user-biosyslit</setSpec>
    </header>
    <header>
      <identifier>oai:zenodo.org:239100</identifier>
      <datestamp>2017-01-11T16:27:52Z</datestamp>
      <setSpec>user-biosyslit</setSpec>
    </header>
    <header>
      <identifier>oai:zenodo.org:239098</identifier>
      <datestamp>2017-01-11T16:27:58Z</datestamp>
      <setSpec>user-biosyslit</setSpec>
    </header>
    <header>
      <identifier>oai:zenodo.org:252772</identifier>
      <datestamp>2017-01-19T19:45:57Z</datestamp>
      <setSpec>user-biosyslit</setSpec>
    </header>
    <header>
      <identifier>oai:zenodo.org:252770</identifier>
      <datestamp>2017-01-19T19:45:50Z</datestamp>
      <setSpec>user-biosyslit</setSpec>
    </header>
    <header>
      <identifier>oai:zenodo.org:234219</identifier>
      <datestamp>2017-01-08T16:58:17Z</datestamp>
      <setSpec>user-biosyslit</setSpec>
    </header>
    <header>
      <identifier>oai:zenodo.org:234223</identifier>
      <datestamp>2017-01-08T16:58:31Z</datestamp>
      <setSpec>user-biosyslit</setSpec>
    </header>
    <header>
      <identifier>oai:zenodo.org:239101</identifier>
      <datestamp>2017-01-11T16:27:57Z</datestamp>
      <setSpec>user-biosyslit</setSpec>
    </header>
    <header>
      <identifier>oai:zenodo.org:234225</identifier>
      <datestamp>2017-01-08T16:58:37Z</datestamp>
      <setSpec>user-biosyslit</setSpec>
    </header>
    <header>
      <identifier>oai:zenodo.org:234224</identifier>
      <datestamp>2017-01-08T16:58:34Z</datestamp>
      <setSpec>user-biosyslit</setSpec>
    </header>
    <header>
      <identifier>oai:zenodo.org:234227</identifier>
      <datestamp>2017-01-08T16:58:43Z</datestamp>
      <setSpec>user-biosyslit</setSpec>
    </header>
    <header>
      <identifier>oai:zenodo.org:252773</identifier>
      <datestamp>2017-01-19T19:46:00Z</datestamp>
      <setSpec>user-biosyslit</setSpec>
    </header>
    <header>
      <identifier>oai:zenodo.org:252778</identifier>
      <datestamp>2017-01-19T19:46:15Z</datestamp>
      <setSpec>user-biosyslit</setSpec>
    </header>
    <header>
      <identifier>oai:zenodo.org:252777</identifier>
      <datestamp>2017-01-19T19:46:12Z</datestamp>
      <setSpec>user-biosyslit</setSpec>
    </header>
    <header>
      <identifier>oai:zenodo.org:252775</identifier>
      <datestamp>2017-01-19T19:46:06Z</datestamp>
      <setSpec>user-biosyslit</setSpec>
    </header>
    <header>
      <identifier>oai:zenodo.org:248498</identifier>
      <datestamp>2017-01-17T04:55:14Z</datestamp>
      <setSpec>user-biosyslit</setSpec>
    </header>
    <header>
      <identifier>oai:zenodo.org:248506</identifier>
      <datestamp>2017-01-17T04:55:39Z</datestamp>
      <setSpec>user-biosyslit</setSpec>
    </header>
    <header>
      <identifier>oai:zenodo.org:248503</identifier>
      <datestamp>2017-01-17T04:55:30Z</datestamp>
      <setSpec>user-biosyslit</setSpec>
    </header>
    <header>
      <identifier>oai:zenodo.org:248510</identifier>
      <datestamp>2017-01-17T04:55:52Z</datestamp>
      <setSpec>user-biosyslit</setSpec>
    </header>
    <header>
      <identifier>oai:zenodo.org:248505</identifier>
      <datestamp>2017-01-17T04:55:36Z</datestamp>
      <setSpec>user-biosyslit</setSpec>
    </header>
    <header>
      <identifier>oai:zenodo.org:248500</identifier>
      <datestamp>2017-01-17T04:55:21Z</datestamp>
      <setSpec>user-biosyslit</setSpec>
    </header>
    <header>
      <identifier>oai:zenodo.org:248514</identifier>
      <datestamp>2017-01-17T04:56:09Z</datestamp>
      <setSpec>user-biosyslit</setSpec>
    </header>
    <header>
      <identifier>oai:zenodo.org:248513</identifier>
      <datestamp>2017-01-17T04:56:04Z</datestamp>
      <setSpec>user-biosyslit</setSpec>
    </header>
    <header>
      <identifier>oai:zenodo.org:248507</identifier>
      <datestamp>2017-01-17T04:55:42Z</datestamp>
      <setSpec>user-biosyslit</setSpec>
    </header>
    <header>
      <identifier>oai:zenodo.org:248509</identifier>
      <datestamp>2017-01-17T04:55:49Z</datestamp>
      <setSpec>user-biosyslit</setSpec>
    </header>
    <header>
      <identifier>oai:zenodo.org:286793</identifier>
      <datestamp>2017-02-09T16:51:08Z</datestamp>
      <setSpec>user-biosyslit</setSpec>
    </header>
    <header>
      <identifier>oai:zenodo.org:286796</identifier>
      <datestamp>2017-02-09T16:51:14Z</datestamp>
      <setSpec>user-biosyslit</setSpec>
    </header>
    <header>
      <identifier>oai:zenodo.org:286795</identifier>
      <datestamp>2017-02-09T16:51:12Z</datestamp>
      <setSpec>user-biosyslit</setSpec>
    </header>
    <header>
      <identifier>oai:zenodo.org:286794</identifier>
      <datestamp>2017-02-09T16:51:10Z</datestamp>
      <setSpec>user-biosyslit</setSpec>
    </header>
    <header>
      <identifier>oai:zenodo.org:237848</identifier>
      <datestamp>2017-01-10T21:28:23Z</datestamp>
      <setSpec>user-biosyslit</setSpec>
    </header>
    <header>
      <identifier>oai:zenodo.org:287445</identifier>
      <datestamp>2017-02-09T18:20:25Z</datestamp>
      <setSpec>user-biosyslit</setSpec>
    </header>
    <header>
      <identifier>oai:zenodo.org:287449</identifier>
      <datestamp>2017-02-09T18:20:22Z</datestamp>
      <setSpec>user-biosyslit</setSpec>
    </header>
    <header>
      <identifier>oai:zenodo.org:287448</identifier>
      <datestamp>2017-02-09T18:20:20Z</datestamp>
      <setSpec>user-biosyslit</setSpec>
    </header>
    <header>
      <identifier>oai:zenodo.org:287447</identifier>
      <datestamp>2017-02-09T18:20:18Z</datestamp>
      <setSpec>user-biosyslit</setSpec>
    </header>
    <header>
      <identifier>oai:zenodo.org:237851</identifier>
      <datestamp>2017-01-10T21:28:18Z</datestamp>
      <setSpec>user-biosyslit</setSpec>
    </header>
    <header>
      <identifier>oai:zenodo.org:253225</identifier>
      <datestamp>2017-01-20T04:44:43Z</datestamp>
      <setSpec>user-biosyslit</setSpec>
    </header>
    <header>
      <identifier>oai:zenodo.org:253238</identifier>
      <datestamp>2017-01-20T04:45:16Z</datestamp>
      <setSpec>user-biosyslit</setSpec>
    </header>
    <header>
      <identifier>oai:zenodo.org:253246</identifier>
      <datestamp>2017-01-20T04:45:35Z</datestamp>
      <setSpec>user-biosyslit</setSpec>
    </header>
    <header>
      <identifier>oai:zenodo.org:253227</identifier>
      <datestamp>2017-01-20T04:44:49Z</datestamp>
      <setSpec>user-biosyslit</setSpec>
    </header>
    <header>
      <identifier>oai:zenodo.org:253226</identifier>
      <datestamp>2017-01-20T04:44:46Z</datestamp>
      <setSpec>user-biosyslit</setSpec>
    </header>
    <header>
      <identifier>oai:zenodo.org:253251</identifier>
      <datestamp>2017-01-20T04:45:46Z</datestamp>
      <setSpec>user-biosyslit</setSpec>
    </header>
    <header>
      <identifier>oai:zenodo.org:253232</identifier>
      <datestamp>2017-01-20T04:45:02Z</datestamp>
      <setSpec>user-biosyslit</setSpec>
    </header>
    <header>
      <identifier>oai:zenodo.org:286868</identifier>
      <datestamp>2017-02-09T17:02:31Z</datestamp>
      <setSpec>user-biosyslit</setSpec>
    </header>
    <header>
      <identifier>oai:zenodo.org:286919</identifier>
      <datestamp>2017-02-09T17:02:29Z</datestamp>
      <setSpec>user-biosyslit</setSpec>
    </header>
    <header>
      <identifier>oai:zenodo.org:286917</identifier>
      <datestamp>2017-02-09T17:02:25Z</datestamp>
      <setSpec>user-biosyslit</setSpec>
    </header>
    <header>
      <identifier>oai:zenodo.org:286918</identifier>
      <datestamp>2017-02-09T17:02:27Z</datestamp>
      <setSpec>user-biosyslit</setSpec>
    </header>
    <header>
      <identifier>oai:zenodo.org:286907</identifier>
      <datestamp>2017-02-09T17:02:01Z</datestamp>
      <setSpec>user-biosyslit</setSpec>
    </header>
    <header>
      <identifier>oai:zenodo.org:286914</identifier>
      <datestamp>2017-02-09T17:02:17Z</datestamp>
      <setSpec>user-biosyslit</setSpec>
    </header>
    <header>
      <identifier>oai:zenodo.org:286913</identifier>
      <datestamp>2017-02-09T17:02:14Z</datestamp>
      <setSpec>user-biosyslit</setSpec>
    </header>
    <header>
      <identifier>oai:zenodo.org:286911</identifier>
      <datestamp>2017-02-09T17:02:10Z</datestamp>
      <setSpec>user-biosyslit</setSpec>
    </header>
    <header>
      <identifier>oai:zenodo.org:286908</identifier>
      <datestamp>2017-02-09T17:02:03Z</datestamp>
      <setSpec>user-biosyslit</setSpec>
    </header>
    <header>
      <identifier>oai:zenodo.org:234618</identifier>
      <datestamp>2017-01-08T23:00:50Z</datestamp>
      <setSpec>user-biosyslit</setSpec>
    </header>
    <header>
      <identifier>oai:zenodo.org:234627</identifier>
      <datestamp>2017-01-08T23:00:49Z</datestamp>
      <setSpec>user-biosyslit</setSpec>
    </header>
    <header>
      <identifier>oai:zenodo.org:234623</identifier>
      <datestamp>2017-01-08T23:00:33Z</datestamp>
      <setSpec>user-biosyslit</setSpec>
    </header>
    <header>
      <identifier>oai:zenodo.org:234624</identifier>
      <datestamp>2017-01-08T23:00:37Z</datestamp>
      <setSpec>user-biosyslit</setSpec>
    </header>
    <header>
      <identifier>oai:zenodo.org:252244</identifier>
      <datestamp>2017-01-19T11:08:27Z</datestamp>
      <setSpec>user-biosyslit</setSpec>
    </header>
    <header>
      <identifier>oai:zenodo.org:241324</identifier>
      <datestamp>2017-01-12T23:56:18Z</datestamp>
      <setSpec>user-biosyslit</setSpec>
    </header>
    <header>
      <identifier>oai:zenodo.org:241326</identifier>
      <datestamp>2017-01-12T23:56:33Z</datestamp>
      <setSpec>user-biosyslit</setSpec>
    </header>
    <header>
      <identifier>oai:zenodo.org:241321</identifier>
      <datestamp>2017-01-12T23:56:04Z</datestamp>
      <setSpec>user-biosyslit</setSpec>
    </header>
    <resumptionToken expirationDate="2017-08-31T15:47:36Z" cursor="66100" completeListSize="77796">.eJyNyr0OgjAYheF7-WZi-qOgJC4GJQxAsJaAi0EgBClIqEao4d7t4qw5wzuc5w2yLAuw0WK5wmRl6q11MNkYIPPhLsSl1jfkSSzyTvDMjZ_HNkYpqazAkaPvpDRQDQpbrNghIglej7xGU3Tij1Qdx5h6L4b2lq-iKbh52hU0dMX56vaMdzvBSDGE-2hieMfONP86_KdTP50jt2BAn1Ul2KZJDWhe2VBJsN_z_AGeQVFC.DInAoA.PRDivV7C9or6_EqR37g1FlTLUsQ</resumptionToken>
  </ListIdentifiers>
</OAI-PMH>
