<?xml version='1.0' encoding='UTF-8'?>
<?xml-stylesheet type="text/xsl" href="/static/xsl/oai2.v1.0.xsl"?>
<OAI-PMH xmlns="http://www.openarchives.org/OAI/2.0/" xmlns:xsi="http://www.w3.org/2001/XMLSchema-instance" xsi:schemaLocation="http://www.openarchives.org/OAI/2.0/ http://www.openarchives.org/OAI/2.0/OAI-PMH.xsd">
  <responseDate>2017-08-31T15:46:05Z</responseDate>
  <request verb="ListIdentifiers" resumptionToken=".eJyNyk0LgjAcgPHv8j9L7AWaCV1CEw8puja0S9gUsVaJK9KF3z0vnev2wPN7g6nrCjy0WLp4hbFLKSPuHNQBo_q71sd23qByqdVNizKUz-wqUUEaFvtm2PkFje0FJVds-TYlOXYH0aIx3YtHYbNB0ujFUcB2Nh3jczS7iiahPpzCjovbRnNS9UmQjhxv-IGqr8N_OvvT-WYNDnRlU4PHCHPg8ir7xoD3nqYPnapRQg.DInAvQ.vVlW111RuqKWXpR6KTWDFJOQ6uU">https://zenodo.org/oai2d</request>
  <ListIdentifiers>
    <header>
      <identifier>oai:zenodo.org:249188</identifier>
      <datestamp>2017-01-17T17:06:15Z</datestamp>
      <setSpec>user-biosyslit</setSpec>
    </header>
    <header>
      <identifier>oai:zenodo.org:249175</identifier>
      <datestamp>2017-01-17T17:05:33Z</datestamp>
      <setSpec>user-biosyslit</setSpec>
    </header>
    <header>
      <identifier>oai:zenodo.org:249176</identifier>
      <datestamp>2017-01-17T17:05:36Z</datestamp>
      <setSpec>user-biosyslit</setSpec>
    </header>
    <header>
      <identifier>oai:zenodo.org:249183</identifier>
      <datestamp>2017-01-17T17:06:04Z</datestamp>
      <setSpec>user-biosyslit</setSpec>
    </header>
    <header>
      <identifier>oai:zenodo.org:249186</identifier>
      <datestamp>2017-01-17T17:06:10Z</datestamp>
      <setSpec>user-biosyslit</setSpec>
    </header>
    <header>
      <identifier>oai:zenodo.org:237775</identifier>
      <datestamp>2017-01-10T20:36:09Z</datestamp>
      <setSpec>user-biosyslit</setSpec>
    </header>
    <header>
      <identifier>oai:zenodo.org:237778</identifier>
      <datestamp>2017-01-10T20:35:58Z</datestamp>
      <setSpec>user-biosyslit</setSpec>
    </header>
    <header>
      <identifier>oai:zenodo.org:237777</identifier>
      <datestamp>2017-01-10T20:35:54Z</datestamp>
      <setSpec>user-biosyslit</setSpec>
    </header>
    <header>
      <identifier>oai:zenodo.org:282205</identifier>
      <datestamp>2017-02-09T06:36:45Z</datestamp>
      <setSpec>user-biosyslit</setSpec>
    </header>
    <header>
      <identifier>oai:zenodo.org:282204</identifier>
      <datestamp>2017-02-09T06:36:43Z</datestamp>
      <setSpec>user-biosyslit</setSpec>
    </header>
    <header>
      <identifier>oai:zenodo.org:282201</identifier>
      <datestamp>2017-02-09T06:36:36Z</datestamp>
      <setSpec>user-biosyslit</setSpec>
    </header>
    <header>
      <identifier>oai:zenodo.org:285521</identifier>
      <datestamp>2017-02-09T13:46:58Z</datestamp>
      <setSpec>user-biosyslit</setSpec>
    </header>
    <header>
      <identifier>oai:zenodo.org:244192</identifier>
      <datestamp>2017-01-14T17:28:53Z</datestamp>
      <setSpec>user-biosyslit</setSpec>
    </header>
    <header>
      <identifier>oai:zenodo.org:285515</identifier>
      <datestamp>2017-02-09T13:46:41Z</datestamp>
      <setSpec>user-biosyslit</setSpec>
    </header>
    <header>
      <identifier>oai:zenodo.org:244197</identifier>
      <datestamp>2017-01-14T17:29:08Z</datestamp>
      <setSpec>user-biosyslit</setSpec>
    </header>
    <header>
      <identifier>oai:zenodo.org:244196</identifier>
      <datestamp>2017-01-14T17:29:05Z</datestamp>
      <setSpec>user-biosyslit</setSpec>
    </header>
    <header>
      <identifier>oai:zenodo.org:285520</identifier>
      <datestamp>2017-02-09T13:46:55Z</datestamp>
      <setSpec>user-biosyslit</setSpec>
    </header>
    <header>
      <identifier>oai:zenodo.org:285517</identifier>
      <datestamp>2017-02-09T13:46:48Z</datestamp>
      <setSpec>user-biosyslit</setSpec>
    </header>
    <header>
      <identifier>oai:zenodo.org:285516</identifier>
      <datestamp>2017-02-09T13:46:46Z</datestamp>
      <setSpec>user-biosyslit</setSpec>
    </header>
    <header>
      <identifier>oai:zenodo.org:285524</identifier>
      <datestamp>2017-02-09T13:47:05Z</datestamp>
      <setSpec>user-biosyslit</setSpec>
    </header>
    <header>
      <identifier>oai:zenodo.org:227958</identifier>
      <datestamp>2017-01-02T07:54:39Z</datestamp>
      <setSpec>user-biosyslit</setSpec>
    </header>
    <header>
      <identifier>oai:zenodo.org:235352</identifier>
      <datestamp>2017-01-09T09:23:46Z</datestamp>
      <setSpec>user-biosyslit</setSpec>
    </header>
    <header>
      <identifier>oai:zenodo.org:227960</identifier>
      <datestamp>2017-01-02T07:54:24Z</datestamp>
      <setSpec>user-biosyslit</setSpec>
    </header>
    <header>
      <identifier>oai:zenodo.org:235354</identifier>
      <datestamp>2017-01-09T09:23:52Z</datestamp>
      <setSpec>user-biosyslit</setSpec>
    </header>
    <header>
      <identifier>oai:zenodo.org:235355</identifier>
      <datestamp>2017-01-09T09:23:55Z</datestamp>
      <setSpec>user-biosyslit</setSpec>
    </header>
    <header>
      <identifier>oai:zenodo.org:235356</identifier>
      <datestamp>2017-01-09T09:23:58Z</datestamp>
      <setSpec>user-biosyslit</setSpec>
    </header>
    <header>
      <identifier>oai:zenodo.org:235359</identifier>
      <datestamp>2017-01-09T09:24:08Z</datestamp>
      <setSpec>user-biosyslit</setSpec>
    </header>
    <header>
      <identifier>oai:zenodo.org:234364</identifier>
      <datestamp>2017-01-08T18:53:42Z</datestamp>
      <setSpec>user-biosyslit</setSpec>
    </header>
    <header>
      <identifier>oai:zenodo.org:234366</identifier>
      <datestamp>2017-01-08T18:53:48Z</datestamp>
      <setSpec>user-biosyslit</setSpec>
    </header>
    <header>
      <identifier>oai:zenodo.org:234369</identifier>
      <datestamp>2017-01-08T18:53:57Z</datestamp>
      <setSpec>user-biosyslit</setSpec>
    </header>
    <header>
      <identifier>oai:zenodo.org:234370</identifier>
      <datestamp>2017-01-08T18:54:00Z</datestamp>
      <setSpec>user-biosyslit</setSpec>
    </header>
    <header>
      <identifier>oai:zenodo.org:233710</identifier>
      <datestamp>2017-01-08T10:31:57Z</datestamp>
      <setSpec>user-biosyslit</setSpec>
    </header>
    <header>
      <identifier>oai:zenodo.org:294026</identifier>
      <datestamp>2017-02-20T19:09:49Z</datestamp>
      <setSpec>user-biosyslit</setSpec>
    </header>
    <header>
      <identifier>oai:zenodo.org:233712</identifier>
      <datestamp>2017-01-08T10:31:50Z</datestamp>
      <setSpec>user-biosyslit</setSpec>
    </header>
    <header>
      <identifier>oai:zenodo.org:293299</identifier>
      <datestamp>2017-02-19T13:28:51Z</datestamp>
      <setSpec>user-biosyslit</setSpec>
    </header>
    <header>
      <identifier>oai:zenodo.org:399498</identifier>
      <datestamp>2017-03-15T21:50:25Z</datestamp>
      <setSpec>user-biosyslit</setSpec>
    </header>
    <header>
      <identifier>oai:zenodo.org:399496</identifier>
      <datestamp>2017-03-15T21:50:19Z</datestamp>
      <setSpec>user-biosyslit</setSpec>
    </header>
    <header>
      <identifier>oai:zenodo.org:399500</identifier>
      <datestamp>2017-03-15T21:50:31Z</datestamp>
      <setSpec>user-biosyslit</setSpec>
    </header>
    <header>
      <identifier>oai:zenodo.org:233713</identifier>
      <datestamp>2017-01-08T10:31:53Z</datestamp>
      <setSpec>user-biosyslit</setSpec>
    </header>
    <header>
      <identifier>oai:zenodo.org:230853</identifier>
      <datestamp>2017-01-05T09:14:29Z</datestamp>
      <setSpec>user-biosyslit</setSpec>
    </header>
    <header>
      <identifier>oai:zenodo.org:229096</identifier>
      <datestamp>2017-01-03T09:31:39Z</datestamp>
      <setSpec>user-biosyslit</setSpec>
    </header>
    <header>
      <identifier>oai:zenodo.org:399495</identifier>
      <datestamp>2017-03-15T21:50:12Z</datestamp>
      <setSpec>user-biosyslit</setSpec>
    </header>
    <header>
      <identifier>oai:zenodo.org:230856</identifier>
      <datestamp>2017-01-05T09:14:27Z</datestamp>
      <setSpec>user-biosyslit</setSpec>
    </header>
    <header>
      <identifier>oai:zenodo.org:229098</identifier>
      <datestamp>2017-01-03T09:31:31Z</datestamp>
      <setSpec>user-biosyslit</setSpec>
    </header>
    <header>
      <identifier>oai:zenodo.org:288175</identifier>
      <datestamp>2017-02-09T20:10:52Z</datestamp>
      <setSpec>user-biosyslit</setSpec>
    </header>
    <header>
      <identifier>oai:zenodo.org:230192</identifier>
      <datestamp>2017-01-04T20:59:38Z</datestamp>
      <setSpec>user-biosyslit</setSpec>
    </header>
    <header>
      <identifier>oai:zenodo.org:288173</identifier>
      <datestamp>2017-02-09T20:10:56Z</datestamp>
      <setSpec>user-biosyslit</setSpec>
    </header>
    <header>
      <identifier>oai:zenodo.org:230194</identifier>
      <datestamp>2017-01-04T20:59:33Z</datestamp>
      <setSpec>user-biosyslit</setSpec>
    </header>
    <header>
      <identifier>oai:zenodo.org:230195</identifier>
      <datestamp>2017-01-04T20:59:36Z</datestamp>
      <setSpec>user-biosyslit</setSpec>
    </header>
    <header>
      <identifier>oai:zenodo.org:288176</identifier>
      <datestamp>2017-02-09T20:10:55Z</datestamp>
      <setSpec>user-biosyslit</setSpec>
    </header>
    <header>
      <identifier>oai:zenodo.org:251235</identifier>
      <datestamp>2017-01-18T20:25:27Z</datestamp>
      <setSpec>user-biosyslit</setSpec>
    </header>
    <header>
      <identifier>oai:zenodo.org:251248</identifier>
      <datestamp>2017-01-18T20:25:19Z</datestamp>
      <setSpec>user-biosyslit</setSpec>
    </header>
    <header>
      <identifier>oai:zenodo.org:251246</identifier>
      <datestamp>2017-01-18T20:25:10Z</datestamp>
      <setSpec>user-biosyslit</setSpec>
    </header>
    <header>
      <identifier>oai:zenodo.org:251238</identifier>
      <datestamp>2017-01-18T20:24:34Z</datestamp>
      <setSpec>user-biosyslit</setSpec>
    </header>
    <header>
      <identifier>oai:zenodo.org:251249</identifier>
      <datestamp>2017-01-18T20:25:23Z</datestamp>
      <setSpec>user-biosyslit</setSpec>
    </header>
    <header>
      <identifier>oai:zenodo.org:251242</identifier>
      <datestamp>2017-01-18T20:24:50Z</datestamp>
      <setSpec>user-biosyslit</setSpec>
    </header>
    <header>
      <identifier>oai:zenodo.org:289322</identifier>
      <datestamp>2017-02-09T23:17:09Z</datestamp>
      <setSpec>user-biosyslit</setSpec>
    </header>
    <header>
      <identifier>oai:zenodo.org:289320</identifier>
      <datestamp>2017-02-09T23:17:03Z</datestamp>
      <setSpec>user-biosyslit</setSpec>
    </header>
    <header>
      <identifier>oai:zenodo.org:289335</identifier>
      <datestamp>2017-02-09T23:17:42Z</datestamp>
      <setSpec>user-biosyslit</setSpec>
    </header>
    <header>
      <identifier>oai:zenodo.org:289330</identifier>
      <datestamp>2017-02-09T23:17:30Z</datestamp>
      <setSpec>user-biosyslit</setSpec>
    </header>
    <header>
      <identifier>oai:zenodo.org:289339</identifier>
      <datestamp>2017-02-09T23:17:55Z</datestamp>
      <setSpec>user-biosyslit</setSpec>
    </header>
    <header>
      <identifier>oai:zenodo.org:289342</identifier>
      <datestamp>2017-02-09T23:18:01Z</datestamp>
      <setSpec>user-biosyslit</setSpec>
    </header>
    <header>
      <identifier>oai:zenodo.org:289329</identifier>
      <datestamp>2017-02-09T23:17:28Z</datestamp>
      <setSpec>user-biosyslit</setSpec>
    </header>
    <header>
      <identifier>oai:zenodo.org:289331</identifier>
      <datestamp>2017-02-09T23:17:32Z</datestamp>
      <setSpec>user-biosyslit</setSpec>
    </header>
    <header>
      <identifier>oai:zenodo.org:289324</identifier>
      <datestamp>2017-02-09T23:17:17Z</datestamp>
      <setSpec>user-biosyslit</setSpec>
    </header>
    <header>
      <identifier>oai:zenodo.org:289318</identifier>
      <datestamp>2017-02-09T23:18:30Z</datestamp>
      <setSpec>user-biosyslit</setSpec>
    </header>
    <header>
      <identifier>oai:zenodo.org:289352</identifier>
      <datestamp>2017-02-09T23:18:26Z</datestamp>
      <setSpec>user-biosyslit</setSpec>
    </header>
    <header>
      <identifier>oai:zenodo.org:271429</identifier>
      <datestamp>2017-02-08T01:38:36Z</datestamp>
      <setSpec>user-biosyslit</setSpec>
    </header>
    <header>
      <identifier>oai:zenodo.org:271425</identifier>
      <datestamp>2017-02-08T01:38:24Z</datestamp>
      <setSpec>user-biosyslit</setSpec>
    </header>
    <header>
      <identifier>oai:zenodo.org:289349</identifier>
      <datestamp>2017-02-09T23:18:17Z</datestamp>
      <setSpec>user-biosyslit</setSpec>
    </header>
    <header>
      <identifier>oai:zenodo.org:289344</identifier>
      <datestamp>2017-02-09T23:18:06Z</datestamp>
      <setSpec>user-biosyslit</setSpec>
    </header>
    <header>
      <identifier>oai:zenodo.org:271421</identifier>
      <datestamp>2017-02-08T01:38:15Z</datestamp>
      <setSpec>user-biosyslit</setSpec>
    </header>
    <header>
      <identifier>oai:zenodo.org:289348</identifier>
      <datestamp>2017-02-09T23:18:14Z</datestamp>
      <setSpec>user-biosyslit</setSpec>
    </header>
    <header>
      <identifier>oai:zenodo.org:289347</identifier>
      <datestamp>2017-02-09T23:18:12Z</datestamp>
      <setSpec>user-biosyslit</setSpec>
    </header>
    <header>
      <identifier>oai:zenodo.org:280591</identifier>
      <datestamp>2017-02-09T03:42:14Z</datestamp>
      <setSpec>user-biosyslit</setSpec>
    </header>
    <header>
      <identifier>oai:zenodo.org:280594</identifier>
      <datestamp>2017-02-09T03:42:23Z</datestamp>
      <setSpec>user-biosyslit</setSpec>
    </header>
    <header>
      <identifier>oai:zenodo.org:280592</identifier>
      <datestamp>2017-02-09T03:42:17Z</datestamp>
      <setSpec>user-biosyslit</setSpec>
    </header>
    <header>
      <identifier>oai:zenodo.org:280601</identifier>
      <datestamp>2017-02-09T03:42:44Z</datestamp>
      <setSpec>user-biosyslit</setSpec>
    </header>
    <header>
      <identifier>oai:zenodo.org:280605</identifier>
      <datestamp>2017-02-09T03:42:58Z</datestamp>
      <setSpec>user-biosyslit</setSpec>
    </header>
    <header>
      <identifier>oai:zenodo.org:280600</identifier>
      <datestamp>2017-02-09T03:42:40Z</datestamp>
      <setSpec>user-biosyslit</setSpec>
    </header>
    <header>
      <identifier>oai:zenodo.org:280607</identifier>
      <datestamp>2017-02-09T03:43:04Z</datestamp>
      <setSpec>user-biosyslit</setSpec>
    </header>
    <header>
      <identifier>oai:zenodo.org:280599</identifier>
      <datestamp>2017-02-09T03:42:37Z</datestamp>
      <setSpec>user-biosyslit</setSpec>
    </header>
    <header>
      <identifier>oai:zenodo.org:280602</identifier>
      <datestamp>2017-02-09T03:42:46Z</datestamp>
      <setSpec>user-biosyslit</setSpec>
    </header>
    <header>
      <identifier>oai:zenodo.org:280608</identifier>
      <datestamp>2017-02-09T03:43:07Z</datestamp>
      <setSpec>user-biosyslit</setSpec>
    </header>
    <header>
      <identifier>oai:zenodo.org:280615</identifier>
      <datestamp>2017-02-09T03:43:25Z</datestamp>
      <setSpec>user-biosyslit</setSpec>
    </header>
    <header>
      <identifier>oai:zenodo.org:281703</identifier>
      <datestamp>2017-02-09T05:47:18Z</datestamp>
      <setSpec>user-biosyslit</setSpec>
    </header>
    <header>
      <identifier>oai:zenodo.org:281711</identifier>
      <datestamp>2017-02-09T05:47:04Z</datestamp>
      <setSpec>user-biosyslit</setSpec>
    </header>
    <header>
      <identifier>oai:zenodo.org:281706</identifier>
      <datestamp>2017-02-09T05:46:43Z</datestamp>
      <setSpec>user-biosyslit</setSpec>
    </header>
    <header>
      <identifier>oai:zenodo.org:256941</identifier>
      <datestamp>2017-01-22T23:11:45Z</datestamp>
      <setSpec>user-biosyslit</setSpec>
    </header>
    <header>
      <identifier>oai:zenodo.org:256942</identifier>
      <datestamp>2017-01-22T23:11:43Z</datestamp>
      <setSpec>user-biosyslit</setSpec>
    </header>
    <header>
      <identifier>oai:zenodo.org:242175</identifier>
      <datestamp>2017-01-13T11:47:15Z</datestamp>
      <setSpec>user-biosyslit</setSpec>
    </header>
    <header>
      <identifier>oai:zenodo.org:242178</identifier>
      <datestamp>2017-01-13T11:47:31Z</datestamp>
      <setSpec>user-biosyslit</setSpec>
    </header>
    <header>
      <identifier>oai:zenodo.org:242177</identifier>
      <datestamp>2017-01-13T11:47:28Z</datestamp>
      <setSpec>user-biosyslit</setSpec>
    </header>
    <header>
      <identifier>oai:zenodo.org:242174</identifier>
      <datestamp>2017-01-13T11:48:28Z</datestamp>
      <setSpec>user-biosyslit</setSpec>
    </header>
    <header>
      <identifier>oai:zenodo.org:242181</identifier>
      <datestamp>2017-01-13T11:47:43Z</datestamp>
      <setSpec>user-biosyslit</setSpec>
    </header>
    <header>
      <identifier>oai:zenodo.org:242179</identifier>
      <datestamp>2017-01-13T11:47:34Z</datestamp>
      <setSpec>user-biosyslit</setSpec>
    </header>
    <header>
      <identifier>oai:zenodo.org:242184</identifier>
      <datestamp>2017-01-13T11:48:00Z</datestamp>
      <setSpec>user-biosyslit</setSpec>
    </header>
    <header>
      <identifier>oai:zenodo.org:242183</identifier>
      <datestamp>2017-01-13T11:47:57Z</datestamp>
      <setSpec>user-biosyslit</setSpec>
    </header>
    <header>
      <identifier>oai:zenodo.org:242189</identifier>
      <datestamp>2017-01-13T11:48:20Z</datestamp>
      <setSpec>user-biosyslit</setSpec>
    </header>
    <header>
      <identifier>oai:zenodo.org:242188</identifier>
      <datestamp>2017-01-13T11:48:16Z</datestamp>
      <setSpec>user-biosyslit</setSpec>
    </header>
    <resumptionToken expirationDate="2017-08-31T15:48:05Z" cursor="72600" completeListSize="77796">.eJyNyrsOgjAUANB_uTMxt60KkrgQkDAIgQoRFoNACFIfoRqgxH-XxVnPfCaQVVWCiQskS1zhTMcNo5SsmQay6O5CnJo5QHFMRHETce4mr-iaYEpr3bflsLdT5qsWgytRfBfSIzGGuMExPMTPVEVDwryeo6PvVTj6F29-JQtckZ3dB49vluC07AInHDmxeMaK7yN_PvXz2XILGjzyugJTp4YGbZ93tQRzer8_5UtRhw.DInAvQ.DMRjcG826xOOZMGkYnqPhNpmbwI</resumptionToken>
  </ListIdentifiers>
</OAI-PMH>
