<?xml version='1.0' encoding='UTF-8'?>
<?xml-stylesheet type="text/xsl" href="/static/xsl/oai2.v1.0.xsl"?>
<OAI-PMH xmlns="http://www.openarchives.org/OAI/2.0/" xmlns:xsi="http://www.w3.org/2001/XMLSchema-instance" xsi:schemaLocation="http://www.openarchives.org/OAI/2.0/ http://www.openarchives.org/OAI/2.0/OAI-PMH.xsd">
  <responseDate>2017-08-31T15:43:07Z</responseDate>
  <request verb="ListIdentifiers" resumptionToken=".eJyNyssKgkAUANB_uWuJeZAvaBOWuFDRaUTbhKmIOZU4hTriv-emda3PmUFWVQk22lBEDR1hYm1Ny9KpqYEs-qcQl2ZlKNJEFA_Bczd5x_cEZaQ2AkeOvpPRQLUovGPFjhFJsTnyBk3Rib8yFY8J9QaGDoavoim4eesraeiK89XtGH_sBSNlHx6iieE9O9Pi-_CfT_18jtyBBl1eV2BTgjVoh7yvJdjzsnwAo81RQA.DInACg.ZUwABzOtF-sS3UOsFaHAL8zQ7aQ">https://zenodo.org/oai2d</request>
  <ListIdentifiers>
    <header>
      <identifier>oai:zenodo.org:281185</identifier>
      <datestamp>2017-02-09T04:53:05Z</datestamp>
      <setSpec>user-biosyslit</setSpec>
    </header>
    <header>
      <identifier>oai:zenodo.org:233087</identifier>
      <datestamp>2017-01-07T23:58:03Z</datestamp>
      <setSpec>user-biosyslit</setSpec>
    </header>
    <header>
      <identifier>oai:zenodo.org:233086</identifier>
      <datestamp>2017-01-07T23:57:59Z</datestamp>
      <setSpec>user-biosyslit</setSpec>
    </header>
    <header>
      <identifier>oai:zenodo.org:233082</identifier>
      <datestamp>2017-01-07T23:57:46Z</datestamp>
      <setSpec>user-biosyslit</setSpec>
    </header>
    <header>
      <identifier>oai:zenodo.org:233084</identifier>
      <datestamp>2017-01-07T23:57:52Z</datestamp>
      <setSpec>user-biosyslit</setSpec>
    </header>
    <header>
      <identifier>oai:zenodo.org:233081</identifier>
      <datestamp>2017-01-07T23:57:43Z</datestamp>
      <setSpec>user-biosyslit</setSpec>
    </header>
    <header>
      <identifier>oai:zenodo.org:233078</identifier>
      <datestamp>2017-01-07T23:57:34Z</datestamp>
      <setSpec>user-biosyslit</setSpec>
    </header>
    <header>
      <identifier>oai:zenodo.org:271169</identifier>
      <datestamp>2017-02-08T00:57:06Z</datestamp>
      <setSpec>user-biosyslit</setSpec>
    </header>
    <header>
      <identifier>oai:zenodo.org:271174</identifier>
      <datestamp>2017-02-08T00:57:02Z</datestamp>
      <setSpec>user-biosyslit</setSpec>
    </header>
    <header>
      <identifier>oai:zenodo.org:271171</identifier>
      <datestamp>2017-02-08T00:56:55Z</datestamp>
      <setSpec>user-biosyslit</setSpec>
    </header>
    <header>
      <identifier>oai:zenodo.org:285170</identifier>
      <datestamp>2017-02-09T12:50:13Z</datestamp>
      <setSpec>user-biosyslit</setSpec>
    </header>
    <header>
      <identifier>oai:zenodo.org:227489</identifier>
      <datestamp>2017-01-01T22:05:58Z</datestamp>
      <setSpec>user-biosyslit</setSpec>
    </header>
    <header>
      <identifier>oai:zenodo.org:229296</identifier>
      <datestamp>2017-01-03T13:59:20Z</datestamp>
      <setSpec>user-biosyslit</setSpec>
    </header>
    <header>
      <identifier>oai:zenodo.org:229297</identifier>
      <datestamp>2017-01-03T13:59:23Z</datestamp>
      <setSpec>user-biosyslit</setSpec>
    </header>
    <header>
      <identifier>oai:zenodo.org:228955</identifier>
      <datestamp>2017-01-03T07:43:46Z</datestamp>
      <setSpec>user-biosyslit</setSpec>
    </header>
    <header>
      <identifier>oai:zenodo.org:228962</identifier>
      <datestamp>2017-01-03T07:43:37Z</datestamp>
      <setSpec>user-biosyslit</setSpec>
    </header>
    <header>
      <identifier>oai:zenodo.org:228963</identifier>
      <datestamp>2017-01-03T07:43:41Z</datestamp>
      <setSpec>user-biosyslit</setSpec>
    </header>
    <header>
      <identifier>oai:zenodo.org:254407</identifier>
      <datestamp>2017-01-20T18:34:03Z</datestamp>
      <setSpec>user-biosyslit</setSpec>
    </header>
    <header>
      <identifier>oai:zenodo.org:254397</identifier>
      <datestamp>2017-01-20T18:33:31Z</datestamp>
      <setSpec>user-biosyslit</setSpec>
    </header>
    <header>
      <identifier>oai:zenodo.org:254400</identifier>
      <datestamp>2017-01-20T18:33:40Z</datestamp>
      <setSpec>user-biosyslit</setSpec>
    </header>
    <header>
      <identifier>oai:zenodo.org:228964</identifier>
      <datestamp>2017-01-03T07:43:45Z</datestamp>
      <setSpec>user-biosyslit</setSpec>
    </header>
    <header>
      <identifier>oai:zenodo.org:254405</identifier>
      <datestamp>2017-01-20T18:33:57Z</datestamp>
      <setSpec>user-biosyslit</setSpec>
    </header>
    <header>
      <identifier>oai:zenodo.org:254399</identifier>
      <datestamp>2017-01-20T18:33:37Z</datestamp>
      <setSpec>user-biosyslit</setSpec>
    </header>
    <header>
      <identifier>oai:zenodo.org:287861</identifier>
      <datestamp>2017-02-09T19:31:04Z</datestamp>
      <setSpec>user-biosyslit</setSpec>
    </header>
    <header>
      <identifier>oai:zenodo.org:287870</identifier>
      <datestamp>2017-02-09T19:30:55Z</datestamp>
      <setSpec>user-biosyslit</setSpec>
    </header>
    <header>
      <identifier>oai:zenodo.org:287871</identifier>
      <datestamp>2017-02-09T19:30:57Z</datestamp>
      <setSpec>user-biosyslit</setSpec>
    </header>
    <header>
      <identifier>oai:zenodo.org:287867</identifier>
      <datestamp>2017-02-09T19:30:48Z</datestamp>
      <setSpec>user-biosyslit</setSpec>
    </header>
    <header>
      <identifier>oai:zenodo.org:287866</identifier>
      <datestamp>2017-02-09T19:30:45Z</datestamp>
      <setSpec>user-biosyslit</setSpec>
    </header>
    <header>
      <identifier>oai:zenodo.org:266434</identifier>
      <datestamp>2017-02-01T09:50:17Z</datestamp>
      <setSpec>user-biosyslit</setSpec>
    </header>
    <header>
      <identifier>oai:zenodo.org:283386</identifier>
      <datestamp>2017-02-09T08:48:47Z</datestamp>
      <setSpec>user-biosyslit</setSpec>
    </header>
    <header>
      <identifier>oai:zenodo.org:283380</identifier>
      <datestamp>2017-02-09T08:48:33Z</datestamp>
      <setSpec>user-biosyslit</setSpec>
    </header>
    <header>
      <identifier>oai:zenodo.org:266436</identifier>
      <datestamp>2017-02-01T09:50:11Z</datestamp>
      <setSpec>user-biosyslit</setSpec>
    </header>
    <header>
      <identifier>oai:zenodo.org:283382</identifier>
      <datestamp>2017-02-09T08:48:37Z</datestamp>
      <setSpec>user-biosyslit</setSpec>
    </header>
    <header>
      <identifier>oai:zenodo.org:284059</identifier>
      <datestamp>2017-02-09T10:17:40Z</datestamp>
      <setSpec>user-biosyslit</setSpec>
    </header>
    <header>
      <identifier>oai:zenodo.org:284068</identifier>
      <datestamp>2017-02-09T10:18:13Z</datestamp>
      <setSpec>user-biosyslit</setSpec>
    </header>
    <header>
      <identifier>oai:zenodo.org:284064</identifier>
      <datestamp>2017-02-09T10:17:56Z</datestamp>
      <setSpec>user-biosyslit</setSpec>
    </header>
    <header>
      <identifier>oai:zenodo.org:284056</identifier>
      <datestamp>2017-02-09T10:17:29Z</datestamp>
      <setSpec>user-biosyslit</setSpec>
    </header>
    <header>
      <identifier>oai:zenodo.org:279971</identifier>
      <datestamp>2017-02-09T02:23:44Z</datestamp>
      <setSpec>user-biosyslit</setSpec>
    </header>
    <header>
      <identifier>oai:zenodo.org:279970</identifier>
      <datestamp>2017-02-09T02:23:48Z</datestamp>
      <setSpec>user-biosyslit</setSpec>
    </header>
    <header>
      <identifier>oai:zenodo.org:240556</identifier>
      <datestamp>2017-01-12T10:21:40Z</datestamp>
      <setSpec>user-biosyslit</setSpec>
    </header>
    <header>
      <identifier>oai:zenodo.org:240575</identifier>
      <datestamp>2017-01-12T10:21:06Z</datestamp>
      <setSpec>user-biosyslit</setSpec>
    </header>
    <header>
      <identifier>oai:zenodo.org:240569</identifier>
      <datestamp>2017-01-12T10:20:50Z</datestamp>
      <setSpec>user-biosyslit</setSpec>
    </header>
    <header>
      <identifier>oai:zenodo.org:240587</identifier>
      <datestamp>2017-01-12T10:21:36Z</datestamp>
      <setSpec>user-biosyslit</setSpec>
    </header>
    <header>
      <identifier>oai:zenodo.org:240580</identifier>
      <datestamp>2017-01-12T10:21:19Z</datestamp>
      <setSpec>user-biosyslit</setSpec>
    </header>
    <header>
      <identifier>oai:zenodo.org:240568</identifier>
      <datestamp>2017-01-12T10:20:47Z</datestamp>
      <setSpec>user-biosyslit</setSpec>
    </header>
    <header>
      <identifier>oai:zenodo.org:240576</identifier>
      <datestamp>2017-01-12T10:21:09Z</datestamp>
      <setSpec>user-biosyslit</setSpec>
    </header>
    <header>
      <identifier>oai:zenodo.org:240577</identifier>
      <datestamp>2017-01-12T10:21:11Z</datestamp>
      <setSpec>user-biosyslit</setSpec>
    </header>
    <header>
      <identifier>oai:zenodo.org:240130</identifier>
      <datestamp>2017-01-12T04:58:45Z</datestamp>
      <setSpec>user-biosyslit</setSpec>
    </header>
    <header>
      <identifier>oai:zenodo.org:240125</identifier>
      <datestamp>2017-01-12T04:58:23Z</datestamp>
      <setSpec>user-biosyslit</setSpec>
    </header>
    <header>
      <identifier>oai:zenodo.org:240134</identifier>
      <datestamp>2017-01-12T04:58:59Z</datestamp>
      <setSpec>user-biosyslit</setSpec>
    </header>
    <header>
      <identifier>oai:zenodo.org:240128</identifier>
      <datestamp>2017-01-12T04:58:38Z</datestamp>
      <setSpec>user-biosyslit</setSpec>
    </header>
    <header>
      <identifier>oai:zenodo.org:294252</identifier>
      <datestamp>2017-02-20T19:33:47Z</datestamp>
      <setSpec>user-biosyslit</setSpec>
    </header>
    <header>
      <identifier>oai:zenodo.org:243567</identifier>
      <datestamp>2017-01-14T07:41:57Z</datestamp>
      <setSpec>user-biosyslit</setSpec>
    </header>
    <header>
      <identifier>oai:zenodo.org:243568</identifier>
      <datestamp>2017-01-14T07:41:25Z</datestamp>
      <setSpec>user-biosyslit</setSpec>
    </header>
    <header>
      <identifier>oai:zenodo.org:244454</identifier>
      <datestamp>2017-01-14T22:19:40Z</datestamp>
      <setSpec>user-biosyslit</setSpec>
    </header>
    <header>
      <identifier>oai:zenodo.org:244458</identifier>
      <datestamp>2017-01-14T22:19:38Z</datestamp>
      <setSpec>user-biosyslit</setSpec>
    </header>
    <header>
      <identifier>oai:zenodo.org:244457</identifier>
      <datestamp>2017-01-14T22:19:35Z</datestamp>
      <setSpec>user-biosyslit</setSpec>
    </header>
    <header>
      <identifier>oai:zenodo.org:244455</identifier>
      <datestamp>2017-01-14T22:19:27Z</datestamp>
      <setSpec>user-biosyslit</setSpec>
    </header>
    <header>
      <identifier>oai:zenodo.org:244456</identifier>
      <datestamp>2017-01-14T22:19:31Z</datestamp>
      <setSpec>user-biosyslit</setSpec>
    </header>
    <header>
      <identifier>oai:zenodo.org:246518</identifier>
      <datestamp>2017-01-16T03:13:44Z</datestamp>
      <setSpec>user-biosyslit</setSpec>
    </header>
    <header>
      <identifier>oai:zenodo.org:246510</identifier>
      <datestamp>2017-01-16T03:13:08Z</datestamp>
      <setSpec>user-biosyslit</setSpec>
    </header>
    <header>
      <identifier>oai:zenodo.org:246525</identifier>
      <datestamp>2017-01-16T03:14:18Z</datestamp>
      <setSpec>user-biosyslit</setSpec>
    </header>
    <header>
      <identifier>oai:zenodo.org:246506</identifier>
      <datestamp>2017-01-16T03:12:50Z</datestamp>
      <setSpec>user-biosyslit</setSpec>
    </header>
    <header>
      <identifier>oai:zenodo.org:246520</identifier>
      <datestamp>2017-01-16T03:13:56Z</datestamp>
      <setSpec>user-biosyslit</setSpec>
    </header>
    <header>
      <identifier>oai:zenodo.org:246513</identifier>
      <datestamp>2017-01-16T03:13:21Z</datestamp>
      <setSpec>user-biosyslit</setSpec>
    </header>
    <header>
      <identifier>oai:zenodo.org:246517</identifier>
      <datestamp>2017-01-16T03:13:40Z</datestamp>
      <setSpec>user-biosyslit</setSpec>
    </header>
    <header>
      <identifier>oai:zenodo.org:246508</identifier>
      <datestamp>2017-01-16T03:12:59Z</datestamp>
      <setSpec>user-biosyslit</setSpec>
    </header>
    <header>
      <identifier>oai:zenodo.org:246523</identifier>
      <datestamp>2017-01-16T03:14:09Z</datestamp>
      <setSpec>user-biosyslit</setSpec>
    </header>
    <header>
      <identifier>oai:zenodo.org:283062</identifier>
      <datestamp>2017-02-09T08:06:21Z</datestamp>
      <setSpec>user-biosyslit</setSpec>
    </header>
    <header>
      <identifier>oai:zenodo.org:244073</identifier>
      <datestamp>2017-01-14T16:02:46Z</datestamp>
      <setSpec>user-biosyslit</setSpec>
    </header>
    <header>
      <identifier>oai:zenodo.org:244070</identifier>
      <datestamp>2017-01-14T16:02:32Z</datestamp>
      <setSpec>user-biosyslit</setSpec>
    </header>
    <header>
      <identifier>oai:zenodo.org:234521</identifier>
      <datestamp>2017-01-08T21:11:49Z</datestamp>
      <setSpec>user-biosyslit</setSpec>
    </header>
    <header>
      <identifier>oai:zenodo.org:234525</identifier>
      <datestamp>2017-01-08T21:12:03Z</datestamp>
      <setSpec>user-biosyslit</setSpec>
    </header>
    <header>
      <identifier>oai:zenodo.org:234519</identifier>
      <datestamp>2017-01-08T21:11:41Z</datestamp>
      <setSpec>user-biosyslit</setSpec>
    </header>
    <header>
      <identifier>oai:zenodo.org:234523</identifier>
      <datestamp>2017-01-08T21:11:57Z</datestamp>
      <setSpec>user-biosyslit</setSpec>
    </header>
    <header>
      <identifier>oai:zenodo.org:234529</identifier>
      <datestamp>2017-01-08T21:12:21Z</datestamp>
      <setSpec>user-biosyslit</setSpec>
    </header>
    <header>
      <identifier>oai:zenodo.org:234526</identifier>
      <datestamp>2017-01-08T21:12:11Z</datestamp>
      <setSpec>user-biosyslit</setSpec>
    </header>
    <header>
      <identifier>oai:zenodo.org:234528</identifier>
      <datestamp>2017-01-08T21:12:17Z</datestamp>
      <setSpec>user-biosyslit</setSpec>
    </header>
    <header>
      <identifier>oai:zenodo.org:234527</identifier>
      <datestamp>2017-01-08T21:12:14Z</datestamp>
      <setSpec>user-biosyslit</setSpec>
    </header>
    <header>
      <identifier>oai:zenodo.org:234533</identifier>
      <datestamp>2017-01-08T21:12:33Z</datestamp>
      <setSpec>user-biosyslit</setSpec>
    </header>
    <header>
      <identifier>oai:zenodo.org:234517</identifier>
      <datestamp>2017-01-08T21:12:53Z</datestamp>
      <setSpec>user-biosyslit</setSpec>
    </header>
    <header>
      <identifier>oai:zenodo.org:234538</identifier>
      <datestamp>2017-01-08T21:12:49Z</datestamp>
      <setSpec>user-biosyslit</setSpec>
    </header>
    <header>
      <identifier>oai:zenodo.org:248982</identifier>
      <datestamp>2017-01-17T14:28:53Z</datestamp>
      <setSpec>user-biosyslit</setSpec>
    </header>
    <header>
      <identifier>oai:zenodo.org:234536</identifier>
      <datestamp>2017-01-08T21:12:42Z</datestamp>
      <setSpec>user-biosyslit</setSpec>
    </header>
    <header>
      <identifier>oai:zenodo.org:248983</identifier>
      <datestamp>2017-01-17T14:28:57Z</datestamp>
      <setSpec>user-biosyslit</setSpec>
    </header>
    <header>
      <identifier>oai:zenodo.org:234534</identifier>
      <datestamp>2017-01-08T21:12:36Z</datestamp>
      <setSpec>user-biosyslit</setSpec>
    </header>
    <header>
      <identifier>oai:zenodo.org:248984</identifier>
      <datestamp>2017-01-17T14:29:01Z</datestamp>
      <setSpec>user-biosyslit</setSpec>
    </header>
    <header>
      <identifier>oai:zenodo.org:248981</identifier>
      <datestamp>2017-01-17T14:28:48Z</datestamp>
      <setSpec>user-biosyslit</setSpec>
    </header>
    <header>
      <identifier>oai:zenodo.org:248980</identifier>
      <datestamp>2017-01-17T14:28:43Z</datestamp>
      <setSpec>user-biosyslit</setSpec>
    </header>
    <header>
      <identifier>oai:zenodo.org:816077</identifier>
      <datestamp>2017-06-22T13:23:05Z</datestamp>
      <setSpec>user-biosyslit</setSpec>
    </header>
    <header>
      <identifier>oai:zenodo.org:816079</identifier>
      <datestamp>2017-06-22T13:22:53Z</datestamp>
      <setSpec>user-biosyslit</setSpec>
    </header>
    <header>
      <identifier>oai:zenodo.org:816093</identifier>
      <datestamp>2017-06-22T13:23:27Z</datestamp>
      <setSpec>user-biosyslit</setSpec>
    </header>
    <header>
      <identifier>oai:zenodo.org:816089</identifier>
      <datestamp>2017-06-22T13:23:16Z</datestamp>
      <setSpec>user-biosyslit</setSpec>
    </header>
    <header>
      <identifier>oai:zenodo.org:816087</identifier>
      <datestamp>2017-06-22T13:23:12Z</datestamp>
      <setSpec>user-biosyslit</setSpec>
    </header>
    <header>
      <identifier>oai:zenodo.org:816081</identifier>
      <datestamp>2017-06-22T13:22:57Z</datestamp>
      <setSpec>user-biosyslit</setSpec>
    </header>
    <header>
      <identifier>oai:zenodo.org:816103</identifier>
      <datestamp>2017-06-22T13:23:54Z</datestamp>
      <setSpec>user-biosyslit</setSpec>
    </header>
    <header>
      <identifier>oai:zenodo.org:816083</identifier>
      <datestamp>2017-06-22T13:23:01Z</datestamp>
      <setSpec>user-biosyslit</setSpec>
    </header>
    <header>
      <identifier>oai:zenodo.org:816105</identifier>
      <datestamp>2017-06-22T13:23:57Z</datestamp>
      <setSpec>user-biosyslit</setSpec>
    </header>
    <header>
      <identifier>oai:zenodo.org:235658</identifier>
      <datestamp>2017-01-09T13:21:38Z</datestamp>
      <setSpec>user-biosyslit</setSpec>
    </header>
    <header>
      <identifier>oai:zenodo.org:235655</identifier>
      <datestamp>2017-01-09T13:21:26Z</datestamp>
      <setSpec>user-biosyslit</setSpec>
    </header>
    <resumptionToken expirationDate="2017-08-31T15:45:07Z" cursor="32000" completeListSize="77796">.eJyNyssKgkAYQOF3-dcScxFGhTaiiQsVmxR1E6Yi5mjhFOmE714tWtfuwPmeIJumBgttsKGbGJk6YvonGdNAVtNFiGP3_lBlqahGkZReet8PKcpJy0JHzoGT01D1KBqw4ruYZNiYkw4t8SG55Wo_p9R_cOSyQMVLePbfrqaRJ4qTd-XJaAtO6ily44Vjmxe0-jr8p1M_nSO3oMG1bBuwKCEa9I9yaiVYz3V9AdigUXU.DInACw.51rDZj8VtiXWMWIQWyUINNy6hF4</resumptionToken>
  </ListIdentifiers>
</OAI-PMH>
