<?xml version='1.0' encoding='UTF-8'?>
<?xml-stylesheet type="text/xsl" href="/static/xsl/oai2.v1.0.xsl"?>
<OAI-PMH xmlns="http://www.openarchives.org/OAI/2.0/" xmlns:xsi="http://www.w3.org/2001/XMLSchema-instance" xsi:schemaLocation="http://www.openarchives.org/OAI/2.0/ http://www.openarchives.org/OAI/2.0/OAI-PMH.xsd">
  <responseDate>2017-08-31T15:43:14Z</responseDate>
  <request verb="ListIdentifiers" resumptionToken=".eJyNysEKgjAYAOB3-c8S27_MErqEJR5UdCnaJUxFzGnhCnXRu-elc52_7wWyLAswyQL1NSJu0FgtKTJD1zWQeX8T4lzPDnkSi7wTUWbHz7CNSYqV4VlydK2UeaohfksVPwSY0PUY1WQKjtEjVeEYM2fgZG-4Kpi8qzO_gvm2OF3sO4-6neBY9P4-mDjd8RPLv4_--dTPZ8ktaHDPqhJMtiQaNEPWVxLM1_v9Ac62UWo.DInAEg.IXLoJ7DniYNmVjJkDOgYSpr7M7Y">https://zenodo.org/oai2d</request>
  <ListIdentifiers>
    <header>
      <identifier>oai:zenodo.org:280741</identifier>
      <datestamp>2017-02-09T04:00:03Z</datestamp>
      <setSpec>user-biosyslit</setSpec>
    </header>
    <header>
      <identifier>oai:zenodo.org:280744</identifier>
      <datestamp>2017-02-09T04:00:09Z</datestamp>
      <setSpec>user-biosyslit</setSpec>
    </header>
    <header>
      <identifier>oai:zenodo.org:280749</identifier>
      <datestamp>2017-02-09T04:00:20Z</datestamp>
      <setSpec>user-biosyslit</setSpec>
    </header>
    <header>
      <identifier>oai:zenodo.org:280742</identifier>
      <datestamp>2017-02-09T04:00:05Z</datestamp>
      <setSpec>user-biosyslit</setSpec>
    </header>
    <header>
      <identifier>oai:zenodo.org:280746</identifier>
      <datestamp>2017-02-09T04:00:14Z</datestamp>
      <setSpec>user-biosyslit</setSpec>
    </header>
    <header>
      <identifier>oai:zenodo.org:238580</identifier>
      <datestamp>2017-01-11T07:44:01Z</datestamp>
      <setSpec>user-biosyslit</setSpec>
    </header>
    <header>
      <identifier>oai:zenodo.org:238573</identifier>
      <datestamp>2017-01-11T07:43:36Z</datestamp>
      <setSpec>user-biosyslit</setSpec>
    </header>
    <header>
      <identifier>oai:zenodo.org:238567</identifier>
      <datestamp>2017-01-11T07:43:11Z</datestamp>
      <setSpec>user-biosyslit</setSpec>
    </header>
    <header>
      <identifier>oai:zenodo.org:238577</identifier>
      <datestamp>2017-01-11T07:43:50Z</datestamp>
      <setSpec>user-biosyslit</setSpec>
    </header>
    <header>
      <identifier>oai:zenodo.org:238582</identifier>
      <datestamp>2017-01-11T07:44:14Z</datestamp>
      <setSpec>user-biosyslit</setSpec>
    </header>
    <header>
      <identifier>oai:zenodo.org:238566</identifier>
      <datestamp>2017-01-11T07:43:08Z</datestamp>
      <setSpec>user-biosyslit</setSpec>
    </header>
    <header>
      <identifier>oai:zenodo.org:238570</identifier>
      <datestamp>2017-01-11T07:43:28Z</datestamp>
      <setSpec>user-biosyslit</setSpec>
    </header>
    <header>
      <identifier>oai:zenodo.org:238569</identifier>
      <datestamp>2017-01-11T07:43:26Z</datestamp>
      <setSpec>user-biosyslit</setSpec>
    </header>
    <header>
      <identifier>oai:zenodo.org:238578</identifier>
      <datestamp>2017-01-11T07:43:54Z</datestamp>
      <setSpec>user-biosyslit</setSpec>
    </header>
    <header>
      <identifier>oai:zenodo.org:274559</identifier>
      <datestamp>2017-02-08T13:40:53Z</datestamp>
      <setSpec>user-biosyslit</setSpec>
    </header>
    <header>
      <identifier>oai:zenodo.org:248017</identifier>
      <datestamp>2017-01-16T22:44:58Z</datestamp>
      <setSpec>user-biosyslit</setSpec>
    </header>
    <header>
      <identifier>oai:zenodo.org:248011</identifier>
      <datestamp>2017-01-16T22:44:35Z</datestamp>
      <setSpec>user-biosyslit</setSpec>
    </header>
    <header>
      <identifier>oai:zenodo.org:248260</identifier>
      <datestamp>2017-01-17T01:53:48Z</datestamp>
      <setSpec>user-biosyslit</setSpec>
    </header>
    <header>
      <identifier>oai:zenodo.org:248261</identifier>
      <datestamp>2017-01-17T01:53:52Z</datestamp>
      <setSpec>user-biosyslit</setSpec>
    </header>
    <header>
      <identifier>oai:zenodo.org:248013</identifier>
      <datestamp>2017-01-16T22:44:42Z</datestamp>
      <setSpec>user-biosyslit</setSpec>
    </header>
    <header>
      <identifier>oai:zenodo.org:248016</identifier>
      <datestamp>2017-01-16T22:44:54Z</datestamp>
      <setSpec>user-biosyslit</setSpec>
    </header>
    <header>
      <identifier>oai:zenodo.org:248263</identifier>
      <datestamp>2017-01-17T01:53:59Z</datestamp>
      <setSpec>user-biosyslit</setSpec>
    </header>
    <header>
      <identifier>oai:zenodo.org:288057</identifier>
      <datestamp>2017-02-09T19:59:13Z</datestamp>
      <setSpec>user-biosyslit</setSpec>
    </header>
    <header>
      <identifier>oai:zenodo.org:288099</identifier>
      <datestamp>2017-02-09T19:59:06Z</datestamp>
      <setSpec>user-biosyslit</setSpec>
    </header>
    <header>
      <identifier>oai:zenodo.org:288101</identifier>
      <datestamp>2017-02-09T19:59:11Z</datestamp>
      <setSpec>user-biosyslit</setSpec>
    </header>
    <header>
      <identifier>oai:zenodo.org:230453</identifier>
      <datestamp>2017-01-05T01:34:18Z</datestamp>
      <setSpec>user-biosyslit</setSpec>
    </header>
    <header>
      <identifier>oai:zenodo.org:230458</identifier>
      <datestamp>2017-01-05T01:34:40Z</datestamp>
      <setSpec>user-biosyslit</setSpec>
    </header>
    <header>
      <identifier>oai:zenodo.org:230449</identifier>
      <datestamp>2017-01-05T01:34:44Z</datestamp>
      <setSpec>user-biosyslit</setSpec>
    </header>
    <header>
      <identifier>oai:zenodo.org:246555</identifier>
      <datestamp>2017-01-16T03:52:44Z</datestamp>
      <setSpec>user-biosyslit</setSpec>
    </header>
    <header>
      <identifier>oai:zenodo.org:246566</identifier>
      <datestamp>2017-01-16T03:53:29Z</datestamp>
      <setSpec>user-biosyslit</setSpec>
    </header>
    <header>
      <identifier>oai:zenodo.org:246562</identifier>
      <datestamp>2017-01-16T03:53:07Z</datestamp>
      <setSpec>user-biosyslit</setSpec>
    </header>
    <header>
      <identifier>oai:zenodo.org:246563</identifier>
      <datestamp>2017-01-16T03:53:10Z</datestamp>
      <setSpec>user-biosyslit</setSpec>
    </header>
    <header>
      <identifier>oai:zenodo.org:246564</identifier>
      <datestamp>2017-01-16T03:53:24Z</datestamp>
      <setSpec>user-biosyslit</setSpec>
    </header>
    <header>
      <identifier>oai:zenodo.org:246568</identifier>
      <datestamp>2017-01-16T03:53:36Z</datestamp>
      <setSpec>user-biosyslit</setSpec>
    </header>
    <header>
      <identifier>oai:zenodo.org:246567</identifier>
      <datestamp>2017-01-16T03:53:32Z</datestamp>
      <setSpec>user-biosyslit</setSpec>
    </header>
    <header>
      <identifier>oai:zenodo.org:246572</identifier>
      <datestamp>2017-01-16T03:53:51Z</datestamp>
      <setSpec>user-biosyslit</setSpec>
    </header>
    <header>
      <identifier>oai:zenodo.org:274130</identifier>
      <datestamp>2017-02-08T12:14:02Z</datestamp>
      <setSpec>user-biosyslit</setSpec>
    </header>
    <header>
      <identifier>oai:zenodo.org:234129</identifier>
      <datestamp>2017-01-08T15:29:30Z</datestamp>
      <setSpec>user-biosyslit</setSpec>
    </header>
    <header>
      <identifier>oai:zenodo.org:234145</identifier>
      <datestamp>2017-01-08T15:29:08Z</datestamp>
      <setSpec>user-biosyslit</setSpec>
    </header>
    <header>
      <identifier>oai:zenodo.org:234150</identifier>
      <datestamp>2017-01-08T15:29:29Z</datestamp>
      <setSpec>user-biosyslit</setSpec>
    </header>
    <header>
      <identifier>oai:zenodo.org:234144</identifier>
      <datestamp>2017-01-08T15:29:02Z</datestamp>
      <setSpec>user-biosyslit</setSpec>
    </header>
    <header>
      <identifier>oai:zenodo.org:234140</identifier>
      <datestamp>2017-01-08T15:28:48Z</datestamp>
      <setSpec>user-biosyslit</setSpec>
    </header>
    <header>
      <identifier>oai:zenodo.org:234141</identifier>
      <datestamp>2017-01-08T15:28:51Z</datestamp>
      <setSpec>user-biosyslit</setSpec>
    </header>
    <header>
      <identifier>oai:zenodo.org:234148</identifier>
      <datestamp>2017-01-08T15:29:19Z</datestamp>
      <setSpec>user-biosyslit</setSpec>
    </header>
    <header>
      <identifier>oai:zenodo.org:252796</identifier>
      <datestamp>2017-01-19T20:01:47Z</datestamp>
      <setSpec>user-biosyslit</setSpec>
    </header>
    <header>
      <identifier>oai:zenodo.org:252794</identifier>
      <datestamp>2017-01-19T20:01:41Z</datestamp>
      <setSpec>user-biosyslit</setSpec>
    </header>
    <header>
      <identifier>oai:zenodo.org:252789</identifier>
      <datestamp>2017-01-19T20:01:27Z</datestamp>
      <setSpec>user-biosyslit</setSpec>
    </header>
    <header>
      <identifier>oai:zenodo.org:252784</identifier>
      <datestamp>2017-01-19T20:00:55Z</datestamp>
      <setSpec>user-biosyslit</setSpec>
    </header>
    <header>
      <identifier>oai:zenodo.org:252791</identifier>
      <datestamp>2017-01-19T20:01:32Z</datestamp>
      <setSpec>user-biosyslit</setSpec>
    </header>
    <header>
      <identifier>oai:zenodo.org:252801</identifier>
      <datestamp>2017-01-19T20:02:03Z</datestamp>
      <setSpec>user-biosyslit</setSpec>
    </header>
    <header>
      <identifier>oai:zenodo.org:252792</identifier>
      <datestamp>2017-01-19T20:01:34Z</datestamp>
      <setSpec>user-biosyslit</setSpec>
    </header>
    <header>
      <identifier>oai:zenodo.org:252788</identifier>
      <datestamp>2017-01-19T20:01:05Z</datestamp>
      <setSpec>user-biosyslit</setSpec>
    </header>
    <header>
      <identifier>oai:zenodo.org:252800</identifier>
      <datestamp>2017-01-19T20:02:00Z</datestamp>
      <setSpec>user-biosyslit</setSpec>
    </header>
    <header>
      <identifier>oai:zenodo.org:280308</identifier>
      <datestamp>2017-02-09T03:09:34Z</datestamp>
      <setSpec>user-biosyslit</setSpec>
    </header>
    <header>
      <identifier>oai:zenodo.org:280309</identifier>
      <datestamp>2017-02-09T03:09:37Z</datestamp>
      <setSpec>user-biosyslit</setSpec>
    </header>
    <header>
      <identifier>oai:zenodo.org:280306</identifier>
      <datestamp>2017-02-09T03:09:28Z</datestamp>
      <setSpec>user-biosyslit</setSpec>
    </header>
    <header>
      <identifier>oai:zenodo.org:280304</identifier>
      <datestamp>2017-02-09T03:09:22Z</datestamp>
      <setSpec>user-biosyslit</setSpec>
    </header>
    <header>
      <identifier>oai:zenodo.org:249770</identifier>
      <datestamp>2017-01-17T23:44:05Z</datestamp>
      <setSpec>user-biosyslit</setSpec>
    </header>
    <header>
      <identifier>oai:zenodo.org:249780</identifier>
      <datestamp>2017-01-17T23:44:49Z</datestamp>
      <setSpec>user-biosyslit</setSpec>
    </header>
    <header>
      <identifier>oai:zenodo.org:249771</identifier>
      <datestamp>2017-01-17T23:44:09Z</datestamp>
      <setSpec>user-biosyslit</setSpec>
    </header>
    <header>
      <identifier>oai:zenodo.org:249774</identifier>
      <datestamp>2017-01-17T23:44:22Z</datestamp>
      <setSpec>user-biosyslit</setSpec>
    </header>
    <header>
      <identifier>oai:zenodo.org:249767</identifier>
      <datestamp>2017-01-17T23:43:51Z</datestamp>
      <setSpec>user-biosyslit</setSpec>
    </header>
    <header>
      <identifier>oai:zenodo.org:249779</identifier>
      <datestamp>2017-01-17T23:44:45Z</datestamp>
      <setSpec>user-biosyslit</setSpec>
    </header>
    <header>
      <identifier>oai:zenodo.org:249778</identifier>
      <datestamp>2017-01-17T23:44:38Z</datestamp>
      <setSpec>user-biosyslit</setSpec>
    </header>
    <header>
      <identifier>oai:zenodo.org:249783</identifier>
      <datestamp>2017-01-17T23:44:59Z</datestamp>
      <setSpec>user-biosyslit</setSpec>
    </header>
    <header>
      <identifier>oai:zenodo.org:249776</identifier>
      <datestamp>2017-01-17T23:44:30Z</datestamp>
      <setSpec>user-biosyslit</setSpec>
    </header>
    <header>
      <identifier>oai:zenodo.org:284917</identifier>
      <datestamp>2017-02-09T12:16:39Z</datestamp>
      <setSpec>user-biosyslit</setSpec>
    </header>
    <header>
      <identifier>oai:zenodo.org:275167</identifier>
      <datestamp>2017-02-08T15:26:40Z</datestamp>
      <setSpec>user-biosyslit</setSpec>
    </header>
    <header>
      <identifier>oai:zenodo.org:275161</identifier>
      <datestamp>2017-02-08T15:26:25Z</datestamp>
      <setSpec>user-biosyslit</setSpec>
    </header>
    <header>
      <identifier>oai:zenodo.org:275158</identifier>
      <datestamp>2017-02-08T15:26:17Z</datestamp>
      <setSpec>user-biosyslit</setSpec>
    </header>
    <header>
      <identifier>oai:zenodo.org:275152</identifier>
      <datestamp>2017-02-08T15:26:02Z</datestamp>
      <setSpec>user-biosyslit</setSpec>
    </header>
    <header>
      <identifier>oai:zenodo.org:275149</identifier>
      <datestamp>2017-02-08T15:25:54Z</datestamp>
      <setSpec>user-biosyslit</setSpec>
    </header>
    <header>
      <identifier>oai:zenodo.org:275154</identifier>
      <datestamp>2017-02-08T15:26:07Z</datestamp>
      <setSpec>user-biosyslit</setSpec>
    </header>
    <header>
      <identifier>oai:zenodo.org:275151</identifier>
      <datestamp>2017-02-08T15:25:59Z</datestamp>
      <setSpec>user-biosyslit</setSpec>
    </header>
    <header>
      <identifier>oai:zenodo.org:275162</identifier>
      <datestamp>2017-02-08T15:26:28Z</datestamp>
      <setSpec>user-biosyslit</setSpec>
    </header>
    <header>
      <identifier>oai:zenodo.org:275163</identifier>
      <datestamp>2017-02-08T15:26:30Z</datestamp>
      <setSpec>user-biosyslit</setSpec>
    </header>
    <header>
      <identifier>oai:zenodo.org:285885</identifier>
      <datestamp>2017-02-09T14:49:08Z</datestamp>
      <setSpec>user-biosyslit</setSpec>
    </header>
    <header>
      <identifier>oai:zenodo.org:234457</identifier>
      <datestamp>2017-01-08T20:21:34Z</datestamp>
      <setSpec>user-biosyslit</setSpec>
    </header>
    <header>
      <identifier>oai:zenodo.org:234454</identifier>
      <datestamp>2017-01-08T20:21:22Z</datestamp>
      <setSpec>user-biosyslit</setSpec>
    </header>
    <header>
      <identifier>oai:zenodo.org:285912</identifier>
      <datestamp>2017-02-09T14:49:05Z</datestamp>
      <setSpec>user-biosyslit</setSpec>
    </header>
    <header>
      <identifier>oai:zenodo.org:287903</identifier>
      <datestamp>2017-02-09T19:35:22Z</datestamp>
      <setSpec>user-biosyslit</setSpec>
    </header>
    <header>
      <identifier>oai:zenodo.org:287908</identifier>
      <datestamp>2017-02-09T19:35:10Z</datestamp>
      <setSpec>user-biosyslit</setSpec>
    </header>
    <header>
      <identifier>oai:zenodo.org:287910</identifier>
      <datestamp>2017-02-09T19:35:20Z</datestamp>
      <setSpec>user-biosyslit</setSpec>
    </header>
    <header>
      <identifier>oai:zenodo.org:238264</identifier>
      <datestamp>2017-01-11T03:11:39Z</datestamp>
      <setSpec>user-biosyslit</setSpec>
    </header>
    <header>
      <identifier>oai:zenodo.org:238275</identifier>
      <datestamp>2017-01-11T03:11:37Z</datestamp>
      <setSpec>user-biosyslit</setSpec>
    </header>
    <header>
      <identifier>oai:zenodo.org:273245</identifier>
      <datestamp>2017-02-08T08:43:51Z</datestamp>
      <setSpec>user-biosyslit</setSpec>
    </header>
    <header>
      <identifier>oai:zenodo.org:282091</identifier>
      <datestamp>2017-02-09T06:26:03Z</datestamp>
      <setSpec>user-biosyslit</setSpec>
    </header>
    <header>
      <identifier>oai:zenodo.org:282081</identifier>
      <datestamp>2017-02-09T06:25:41Z</datestamp>
      <setSpec>user-biosyslit</setSpec>
    </header>
    <header>
      <identifier>oai:zenodo.org:282088</identifier>
      <datestamp>2017-02-09T06:25:56Z</datestamp>
      <setSpec>user-biosyslit</setSpec>
    </header>
    <header>
      <identifier>oai:zenodo.org:264851</identifier>
      <datestamp>2017-01-31T03:28:38Z</datestamp>
      <setSpec>user-biosyslit</setSpec>
    </header>
    <header>
      <identifier>oai:zenodo.org:282087</identifier>
      <datestamp>2017-02-09T06:25:54Z</datestamp>
      <setSpec>user-biosyslit</setSpec>
    </header>
    <header>
      <identifier>oai:zenodo.org:282083</identifier>
      <datestamp>2017-02-09T06:25:45Z</datestamp>
      <setSpec>user-biosyslit</setSpec>
    </header>
    <header>
      <identifier>oai:zenodo.org:264850</identifier>
      <datestamp>2017-01-31T03:28:35Z</datestamp>
      <setSpec>user-biosyslit</setSpec>
    </header>
    <header>
      <identifier>oai:zenodo.org:282082</identifier>
      <datestamp>2017-02-09T06:25:43Z</datestamp>
      <setSpec>user-biosyslit</setSpec>
    </header>
    <header>
      <identifier>oai:zenodo.org:282086</identifier>
      <datestamp>2017-02-09T06:25:52Z</datestamp>
      <setSpec>user-biosyslit</setSpec>
    </header>
    <header>
      <identifier>oai:zenodo.org:272923</identifier>
      <datestamp>2017-02-08T06:44:56Z</datestamp>
      <setSpec>user-biosyslit</setSpec>
    </header>
    <header>
      <identifier>oai:zenodo.org:285628</identifier>
      <datestamp>2017-02-09T14:01:44Z</datestamp>
      <setSpec>user-biosyslit</setSpec>
    </header>
    <header>
      <identifier>oai:zenodo.org:272947</identifier>
      <datestamp>2017-02-08T06:44:52Z</datestamp>
      <setSpec>user-biosyslit</setSpec>
    </header>
    <header>
      <identifier>oai:zenodo.org:285631</identifier>
      <datestamp>2017-02-09T14:01:38Z</datestamp>
      <setSpec>user-biosyslit</setSpec>
    </header>
    <header>
      <identifier>oai:zenodo.org:285632</identifier>
      <datestamp>2017-02-09T14:01:40Z</datestamp>
      <setSpec>user-biosyslit</setSpec>
    </header>
    <resumptionToken expirationDate="2017-08-31T15:45:14Z" cursor="33900" completeListSize="77796">.eJyNyrsOgjAUANB_uTMxtxRfJC4EJAxAoEKExWAhBC1qqAao4d9lcdb5nDfIqirBxMUGt8uVbhgUcYu4ohpI3t2FODUzAz-mgt9EUrjpK25TzPR6Hdhy8O2MBuqKYUsU20f6kWyGpMExOiTPTMVDSr2eobP2VTQGF29-JQ1dkZ_dB0tulmB62YVONDJisZzy7yN_PvXz2XIHGjyKugKTGkSDa190tQTzPU0fkkdRLg.DInAEg.IjeWLpfkiIg8TapfTIoU5CPkIc8</resumptionToken>
  </ListIdentifiers>
</OAI-PMH>
