<?xml version='1.0' encoding='UTF-8'?>
<?xml-stylesheet type="text/xsl" href="/static/xsl/oai2.v1.0.xsl"?>
<OAI-PMH xmlns="http://www.openarchives.org/OAI/2.0/" xmlns:xsi="http://www.w3.org/2001/XMLSchema-instance" xsi:schemaLocation="http://www.openarchives.org/OAI/2.0/ http://www.openarchives.org/OAI/2.0/OAI-PMH.xsd">
  <responseDate>2017-08-31T15:43:01Z</responseDate>
  <request verb="ListIdentifiers" resumptionToken=".eJyNyk0LgjAYAOD_8p4lNqdNhS6iSYcUW4p6CZsi1vrAFerE_56XznV-nglkXVfgoJVJzTW2qLG2LUpsg2ogefcQ4tQuDDxLBb-LpAzS9-GWolxvaOjJYe_lJFRXFN2wYttYz7A1JC0a42PyytVhSMmuZ8inexWP4WW3vIpEgSjOwZMld1cwveoiPx4ZdllB-PfhP5_6-Ty5AQ2eZVODQzDS4NqXXSPBmeb5A7OxUU8.DInABA.oNF0Tygn4tXdyK7JJCtEQfWi5GE">https://zenodo.org/oai2d</request>
  <ListIdentifiers>
    <header>
      <identifier>oai:zenodo.org:254626</identifier>
      <datestamp>2017-01-21T00:27:16Z</datestamp>
      <setSpec>user-biosyslit</setSpec>
    </header>
    <header>
      <identifier>oai:zenodo.org:254628</identifier>
      <datestamp>2017-01-21T00:27:21Z</datestamp>
      <setSpec>user-biosyslit</setSpec>
    </header>
    <header>
      <identifier>oai:zenodo.org:244741</identifier>
      <datestamp>2017-01-15T01:57:14Z</datestamp>
      <setSpec>user-biosyslit</setSpec>
    </header>
    <header>
      <identifier>oai:zenodo.org:244752</identifier>
      <datestamp>2017-01-15T01:57:13Z</datestamp>
      <setSpec>user-biosyslit</setSpec>
    </header>
    <header>
      <identifier>oai:zenodo.org:244749</identifier>
      <datestamp>2017-01-15T01:57:02Z</datestamp>
      <setSpec>user-biosyslit</setSpec>
    </header>
    <header>
      <identifier>oai:zenodo.org:244747</identifier>
      <datestamp>2017-01-15T01:56:56Z</datestamp>
      <setSpec>user-biosyslit</setSpec>
    </header>
    <header>
      <identifier>oai:zenodo.org:278335</identifier>
      <datestamp>2017-02-08T22:56:00Z</datestamp>
      <setSpec>user-biosyslit</setSpec>
    </header>
    <header>
      <identifier>oai:zenodo.org:278337</identifier>
      <datestamp>2017-02-08T22:55:45Z</datestamp>
      <setSpec>user-biosyslit</setSpec>
    </header>
    <header>
      <identifier>oai:zenodo.org:278339</identifier>
      <datestamp>2017-02-08T22:55:52Z</datestamp>
      <setSpec>user-biosyslit</setSpec>
    </header>
    <header>
      <identifier>oai:zenodo.org:278336</identifier>
      <datestamp>2017-02-08T22:55:42Z</datestamp>
      <setSpec>user-biosyslit</setSpec>
    </header>
    <header>
      <identifier>oai:zenodo.org:278340</identifier>
      <datestamp>2017-02-08T22:55:55Z</datestamp>
      <setSpec>user-biosyslit</setSpec>
    </header>
    <header>
      <identifier>oai:zenodo.org:278338</identifier>
      <datestamp>2017-02-08T22:55:48Z</datestamp>
      <setSpec>user-biosyslit</setSpec>
    </header>
    <header>
      <identifier>oai:zenodo.org:234705</identifier>
      <datestamp>2017-01-09T00:09:18Z</datestamp>
      <setSpec>user-biosyslit</setSpec>
    </header>
    <header>
      <identifier>oai:zenodo.org:277786</identifier>
      <datestamp>2017-02-08T21:49:11Z</datestamp>
      <setSpec>user-biosyslit</setSpec>
    </header>
    <header>
      <identifier>oai:zenodo.org:275092</identifier>
      <datestamp>2017-02-08T15:16:39Z</datestamp>
      <setSpec>user-biosyslit</setSpec>
    </header>
    <header>
      <identifier>oai:zenodo.org:277783</identifier>
      <datestamp>2017-02-08T21:49:05Z</datestamp>
      <setSpec>user-biosyslit</setSpec>
    </header>
    <header>
      <identifier>oai:zenodo.org:277784</identifier>
      <datestamp>2017-02-08T21:49:07Z</datestamp>
      <setSpec>user-biosyslit</setSpec>
    </header>
    <header>
      <identifier>oai:zenodo.org:278735</identifier>
      <datestamp>2017-02-08T23:47:38Z</datestamp>
      <setSpec>user-biosyslit</setSpec>
    </header>
    <header>
      <identifier>oai:zenodo.org:278734</identifier>
      <datestamp>2017-02-08T23:47:34Z</datestamp>
      <setSpec>user-biosyslit</setSpec>
    </header>
    <header>
      <identifier>oai:zenodo.org:278731</identifier>
      <datestamp>2017-02-08T23:47:26Z</datestamp>
      <setSpec>user-biosyslit</setSpec>
    </header>
    <header>
      <identifier>oai:zenodo.org:278728</identifier>
      <datestamp>2017-02-08T23:47:19Z</datestamp>
      <setSpec>user-biosyslit</setSpec>
    </header>
    <header>
      <identifier>oai:zenodo.org:278733</identifier>
      <datestamp>2017-02-08T23:47:32Z</datestamp>
      <setSpec>user-biosyslit</setSpec>
    </header>
    <header>
      <identifier>oai:zenodo.org:278729</identifier>
      <datestamp>2017-02-08T23:47:21Z</datestamp>
      <setSpec>user-biosyslit</setSpec>
    </header>
    <header>
      <identifier>oai:zenodo.org:278739</identifier>
      <datestamp>2017-02-08T23:47:49Z</datestamp>
      <setSpec>user-biosyslit</setSpec>
    </header>
    <header>
      <identifier>oai:zenodo.org:261889</identifier>
      <datestamp>2017-01-28T16:52:32Z</datestamp>
      <setSpec>user-biosyslit</setSpec>
    </header>
    <header>
      <identifier>oai:zenodo.org:261892</identifier>
      <datestamp>2017-01-28T16:52:41Z</datestamp>
      <setSpec>user-biosyslit</setSpec>
    </header>
    <header>
      <identifier>oai:zenodo.org:278325</identifier>
      <datestamp>2017-02-08T22:54:38Z</datestamp>
      <setSpec>user-biosyslit</setSpec>
    </header>
    <header>
      <identifier>oai:zenodo.org:278324</identifier>
      <datestamp>2017-02-08T22:54:35Z</datestamp>
      <setSpec>user-biosyslit</setSpec>
    </header>
    <header>
      <identifier>oai:zenodo.org:261893</identifier>
      <datestamp>2017-01-28T16:52:44Z</datestamp>
      <setSpec>user-biosyslit</setSpec>
    </header>
    <header>
      <identifier>oai:zenodo.org:278327</identifier>
      <datestamp>2017-02-08T22:54:42Z</datestamp>
      <setSpec>user-biosyslit</setSpec>
    </header>
    <header>
      <identifier>oai:zenodo.org:261891</identifier>
      <datestamp>2017-01-28T16:52:38Z</datestamp>
      <setSpec>user-biosyslit</setSpec>
    </header>
    <header>
      <identifier>oai:zenodo.org:283262</identifier>
      <datestamp>2017-02-09T08:27:22Z</datestamp>
      <setSpec>user-biosyslit</setSpec>
    </header>
    <header>
      <identifier>oai:zenodo.org:232818</identifier>
      <datestamp>2017-01-06T23:38:13Z</datestamp>
      <setSpec>user-biosyslit</setSpec>
    </header>
    <header>
      <identifier>oai:zenodo.org:232823</identifier>
      <datestamp>2017-01-06T23:38:12Z</datestamp>
      <setSpec>user-biosyslit</setSpec>
    </header>
    <header>
      <identifier>oai:zenodo.org:232822</identifier>
      <datestamp>2017-01-06T23:38:07Z</datestamp>
      <setSpec>user-biosyslit</setSpec>
    </header>
    <header>
      <identifier>oai:zenodo.org:232820</identifier>
      <datestamp>2017-01-06T23:38:02Z</datestamp>
      <setSpec>user-biosyslit</setSpec>
    </header>
    <header>
      <identifier>oai:zenodo.org:232821</identifier>
      <datestamp>2017-01-06T23:38:04Z</datestamp>
      <setSpec>user-biosyslit</setSpec>
    </header>
    <header>
      <identifier>oai:zenodo.org:232819</identifier>
      <datestamp>2017-01-06T23:37:58Z</datestamp>
      <setSpec>user-biosyslit</setSpec>
    </header>
    <header>
      <identifier>oai:zenodo.org:276807</identifier>
      <datestamp>2017-02-08T19:43:16Z</datestamp>
      <setSpec>user-biosyslit</setSpec>
    </header>
    <header>
      <identifier>oai:zenodo.org:243900</identifier>
      <datestamp>2017-01-14T12:59:43Z</datestamp>
      <setSpec>user-biosyslit</setSpec>
    </header>
    <header>
      <identifier>oai:zenodo.org:245258</identifier>
      <datestamp>2017-01-15T10:55:51Z</datestamp>
      <setSpec>user-biosyslit</setSpec>
    </header>
    <header>
      <identifier>oai:zenodo.org:245257</identifier>
      <datestamp>2017-01-15T10:55:48Z</datestamp>
      <setSpec>user-biosyslit</setSpec>
    </header>
    <header>
      <identifier>oai:zenodo.org:245256</identifier>
      <datestamp>2017-01-15T10:55:44Z</datestamp>
      <setSpec>user-biosyslit</setSpec>
    </header>
    <header>
      <identifier>oai:zenodo.org:243902</identifier>
      <datestamp>2017-01-14T12:59:41Z</datestamp>
      <setSpec>user-biosyslit</setSpec>
    </header>
    <header>
      <identifier>oai:zenodo.org:242679</identifier>
      <datestamp>2017-01-13T18:34:10Z</datestamp>
      <setSpec>user-biosyslit</setSpec>
    </header>
    <header>
      <identifier>oai:zenodo.org:242681</identifier>
      <datestamp>2017-01-13T18:34:18Z</datestamp>
      <setSpec>user-biosyslit</setSpec>
    </header>
    <header>
      <identifier>oai:zenodo.org:242680</identifier>
      <datestamp>2017-01-13T18:34:13Z</datestamp>
      <setSpec>user-biosyslit</setSpec>
    </header>
    <header>
      <identifier>oai:zenodo.org:262395</identifier>
      <datestamp>2017-01-29T03:27:51Z</datestamp>
      <setSpec>user-biosyslit</setSpec>
    </header>
    <header>
      <identifier>oai:zenodo.org:285211</identifier>
      <datestamp>2017-02-09T13:01:05Z</datestamp>
      <setSpec>user-biosyslit</setSpec>
    </header>
    <header>
      <identifier>oai:zenodo.org:285209</identifier>
      <datestamp>2017-02-09T13:00:59Z</datestamp>
      <setSpec>user-biosyslit</setSpec>
    </header>
    <header>
      <identifier>oai:zenodo.org:285200</identifier>
      <datestamp>2017-02-09T13:00:27Z</datestamp>
      <setSpec>user-biosyslit</setSpec>
    </header>
    <header>
      <identifier>oai:zenodo.org:285205</identifier>
      <datestamp>2017-02-09T13:00:45Z</datestamp>
      <setSpec>user-biosyslit</setSpec>
    </header>
    <header>
      <identifier>oai:zenodo.org:285201</identifier>
      <datestamp>2017-02-09T13:00:31Z</datestamp>
      <setSpec>user-biosyslit</setSpec>
    </header>
    <header>
      <identifier>oai:zenodo.org:283105</identifier>
      <datestamp>2017-02-09T08:09:57Z</datestamp>
      <setSpec>user-biosyslit</setSpec>
    </header>
    <header>
      <identifier>oai:zenodo.org:259195</identifier>
      <datestamp>2017-01-24T08:48:41Z</datestamp>
      <setSpec>user-biosyslit</setSpec>
    </header>
    <header>
      <identifier>oai:zenodo.org:259200</identifier>
      <datestamp>2017-01-24T08:48:59Z</datestamp>
      <setSpec>user-biosyslit</setSpec>
    </header>
    <header>
      <identifier>oai:zenodo.org:283107</identifier>
      <datestamp>2017-02-09T08:09:56Z</datestamp>
      <setSpec>user-biosyslit</setSpec>
    </header>
    <header>
      <identifier>oai:zenodo.org:276575</identifier>
      <datestamp>2017-02-08T19:14:12Z</datestamp>
      <setSpec>user-biosyslit</setSpec>
    </header>
    <header>
      <identifier>oai:zenodo.org:250191</identifier>
      <datestamp>2017-01-18T05:58:51Z</datestamp>
      <setSpec>user-biosyslit</setSpec>
    </header>
    <header>
      <identifier>oai:zenodo.org:250189</identifier>
      <datestamp>2017-01-18T05:58:45Z</datestamp>
      <setSpec>user-biosyslit</setSpec>
    </header>
    <header>
      <identifier>oai:zenodo.org:250190</identifier>
      <datestamp>2017-01-18T05:58:48Z</datestamp>
      <setSpec>user-biosyslit</setSpec>
    </header>
    <header>
      <identifier>oai:zenodo.org:250194</identifier>
      <datestamp>2017-01-18T05:59:13Z</datestamp>
      <setSpec>user-biosyslit</setSpec>
    </header>
    <header>
      <identifier>oai:zenodo.org:253506</identifier>
      <datestamp>2017-01-20T07:55:30Z</datestamp>
      <setSpec>user-biosyslit</setSpec>
    </header>
    <header>
      <identifier>oai:zenodo.org:253511</identifier>
      <datestamp>2017-01-20T07:55:41Z</datestamp>
      <setSpec>user-biosyslit</setSpec>
    </header>
    <header>
      <identifier>oai:zenodo.org:253507</identifier>
      <datestamp>2017-01-20T07:55:32Z</datestamp>
      <setSpec>user-biosyslit</setSpec>
    </header>
    <header>
      <identifier>oai:zenodo.org:250195</identifier>
      <datestamp>2017-01-18T05:59:19Z</datestamp>
      <setSpec>user-biosyslit</setSpec>
    </header>
    <header>
      <identifier>oai:zenodo.org:253509</identifier>
      <datestamp>2017-01-20T07:55:37Z</datestamp>
      <setSpec>user-biosyslit</setSpec>
    </header>
    <header>
      <identifier>oai:zenodo.org:286069</identifier>
      <datestamp>2017-02-09T15:11:01Z</datestamp>
      <setSpec>user-biosyslit</setSpec>
    </header>
    <header>
      <identifier>oai:zenodo.org:278921</identifier>
      <datestamp>2017-02-09T00:10:27Z</datestamp>
      <setSpec>user-biosyslit</setSpec>
    </header>
    <header>
      <identifier>oai:zenodo.org:281895</identifier>
      <datestamp>2017-02-09T06:08:07Z</datestamp>
      <setSpec>user-biosyslit</setSpec>
    </header>
    <header>
      <identifier>oai:zenodo.org:281898</identifier>
      <datestamp>2017-02-09T06:08:13Z</datestamp>
      <setSpec>user-biosyslit</setSpec>
    </header>
    <header>
      <identifier>oai:zenodo.org:281894</identifier>
      <datestamp>2017-02-09T06:08:05Z</datestamp>
      <setSpec>user-biosyslit</setSpec>
    </header>
    <header>
      <identifier>oai:zenodo.org:265859</identifier>
      <datestamp>2017-01-31T22:24:30Z</datestamp>
      <setSpec>user-biosyslit</setSpec>
    </header>
    <header>
      <identifier>oai:zenodo.org:265867</identifier>
      <datestamp>2017-01-31T22:24:29Z</datestamp>
      <setSpec>user-biosyslit</setSpec>
    </header>
    <header>
      <identifier>oai:zenodo.org:265865</identifier>
      <datestamp>2017-01-31T22:24:24Z</datestamp>
      <setSpec>user-biosyslit</setSpec>
    </header>
    <header>
      <identifier>oai:zenodo.org:243357</identifier>
      <datestamp>2017-01-14T03:21:46Z</datestamp>
      <setSpec>user-biosyslit</setSpec>
    </header>
    <header>
      <identifier>oai:zenodo.org:235341</identifier>
      <datestamp>2017-01-09T09:11:45Z</datestamp>
      <setSpec>user-biosyslit</setSpec>
    </header>
    <header>
      <identifier>oai:zenodo.org:235344</identifier>
      <datestamp>2017-01-09T09:11:41Z</datestamp>
      <setSpec>user-biosyslit</setSpec>
    </header>
    <header>
      <identifier>oai:zenodo.org:235345</identifier>
      <datestamp>2017-01-09T09:11:44Z</datestamp>
      <setSpec>user-biosyslit</setSpec>
    </header>
    <header>
      <identifier>oai:zenodo.org:269020</identifier>
      <datestamp>2017-02-06T22:33:38Z</datestamp>
      <setSpec>user-biosyslit</setSpec>
    </header>
    <header>
      <identifier>oai:zenodo.org:235205</identifier>
      <datestamp>2017-01-09T06:36:47Z</datestamp>
      <setSpec>user-biosyslit</setSpec>
    </header>
    <header>
      <identifier>oai:zenodo.org:269021</identifier>
      <datestamp>2017-02-06T22:33:41Z</datestamp>
      <setSpec>user-biosyslit</setSpec>
    </header>
    <header>
      <identifier>oai:zenodo.org:274565</identifier>
      <datestamp>2017-02-08T13:42:04Z</datestamp>
      <setSpec>user-biosyslit</setSpec>
    </header>
    <header>
      <identifier>oai:zenodo.org:343782</identifier>
      <datestamp>2017-02-28T08:32:39Z</datestamp>
      <setSpec>user-biosyslit</setSpec>
    </header>
    <header>
      <identifier>oai:zenodo.org:274570</identifier>
      <datestamp>2017-02-08T13:41:59Z</datestamp>
      <setSpec>user-biosyslit</setSpec>
    </header>
    <header>
      <identifier>oai:zenodo.org:274568</identifier>
      <datestamp>2017-02-08T13:41:54Z</datestamp>
      <setSpec>user-biosyslit</setSpec>
    </header>
    <header>
      <identifier>oai:zenodo.org:285808</identifier>
      <datestamp>2017-02-09T14:35:05Z</datestamp>
      <setSpec>user-biosyslit</setSpec>
    </header>
    <header>
      <identifier>oai:zenodo.org:343790</identifier>
      <datestamp>2017-02-28T08:32:59Z</datestamp>
      <setSpec>user-biosyslit</setSpec>
    </header>
    <header>
      <identifier>oai:zenodo.org:343788</identifier>
      <datestamp>2017-02-28T08:32:54Z</datestamp>
      <setSpec>user-biosyslit</setSpec>
    </header>
    <header>
      <identifier>oai:zenodo.org:343785</identifier>
      <datestamp>2017-02-28T08:32:47Z</datestamp>
      <setSpec>user-biosyslit</setSpec>
    </header>
    <header>
      <identifier>oai:zenodo.org:343783</identifier>
      <datestamp>2017-02-28T08:32:42Z</datestamp>
      <setSpec>user-biosyslit</setSpec>
    </header>
    <header>
      <identifier>oai:zenodo.org:266402</identifier>
      <datestamp>2017-02-01T07:49:35Z</datestamp>
      <setSpec>user-biosyslit</setSpec>
    </header>
    <header>
      <identifier>oai:zenodo.org:343787</identifier>
      <datestamp>2017-02-28T08:32:52Z</datestamp>
      <setSpec>user-biosyslit</setSpec>
    </header>
    <header>
      <identifier>oai:zenodo.org:343792</identifier>
      <datestamp>2017-02-28T08:33:05Z</datestamp>
      <setSpec>user-biosyslit</setSpec>
    </header>
    <header>
      <identifier>oai:zenodo.org:343789</identifier>
      <datestamp>2017-02-28T08:32:56Z</datestamp>
      <setSpec>user-biosyslit</setSpec>
    </header>
    <header>
      <identifier>oai:zenodo.org:266396</identifier>
      <datestamp>2017-02-01T07:49:45Z</datestamp>
      <setSpec>user-biosyslit</setSpec>
    </header>
    <header>
      <identifier>oai:zenodo.org:243067</identifier>
      <datestamp>2017-01-13T22:49:44Z</datestamp>
      <setSpec>user-biosyslit</setSpec>
    </header>
    <header>
      <identifier>oai:zenodo.org:236628</identifier>
      <datestamp>2017-01-10T02:10:46Z</datestamp>
      <setSpec>user-biosyslit</setSpec>
    </header>
    <header>
      <identifier>oai:zenodo.org:272018</identifier>
      <datestamp>2017-02-08T03:20:50Z</datestamp>
      <setSpec>user-biosyslit</setSpec>
    </header>
    <header>
      <identifier>oai:zenodo.org:266404</identifier>
      <datestamp>2017-02-01T07:49:40Z</datestamp>
      <setSpec>user-biosyslit</setSpec>
    </header>
    <resumptionToken expirationDate="2017-08-31T15:45:01Z" cursor="30900" completeListSize="77796">.eJyNyj0PQ0AYAOD_8s7S3Dn1lXQRKgaEK8HSKCKto-La4Jr-91o6t_PzvIA3TQ0m2hkYqYZCNBUre5XsdQl4Nd0ZO183hipLWTWwpHTTZ9ynKJdbLbD54ts5CUSHwh4LeozkDOtLckVrdEoeuYiXlHgzRY7mi2gNbt72ahK6rLi4I00Gi1G5nkInWim2aEGq78N_PvHz2fwAEoxl24BJMJagm8up5WC-3u8PolBRPQ.DInABQ.T86kvr5TlTgCrJoXn-rClc1PQ6U</resumptionToken>
  </ListIdentifiers>
</OAI-PMH>
