<?xml version='1.0' encoding='UTF-8'?>
<?xml-stylesheet type="text/xsl" href="/static/xsl/oai2.v1.0.xsl"?>
<OAI-PMH xmlns="http://www.openarchives.org/OAI/2.0/" xmlns:xsi="http://www.w3.org/2001/XMLSchema-instance" xsi:schemaLocation="http://www.openarchives.org/OAI/2.0/ http://www.openarchives.org/OAI/2.0/OAI-PMH.xsd">
  <responseDate>2017-08-31T15:45:22Z</responseDate>
  <request verb="ListIdentifiers" resumptionToken=".eJyNyj0LgkAYAOD_8s4S9yGdCS2hSYPKdSnqEqYi1mniFelJ_z2X5pqfZwZVVSXYaEWZSRjbWJRaDJlkY4AqhruU52ZhKJJYFp2Mci9-HtsYpaRmgaNG30lpoG8obLEWe04SbI1RgyZ-ih6pPo4xPbwEcpmv-RRcD8sraejJ7OL1Iup2UpByCF0-CbwTGS2-D__59M_nqC0Y0Od1BfaaIgNur3yoFdjz-_0BqCxRRw.DInAkg.asZk_oFsNtYQFY2EvYGhjzmOG4A">https://zenodo.org/oai2d</request>
  <ListIdentifiers>
    <header>
      <identifier>oai:zenodo.org:287500</identifier>
      <datestamp>2017-02-09T18:30:12Z</datestamp>
      <setSpec>user-biosyslit</setSpec>
    </header>
    <header>
      <identifier>oai:zenodo.org:283851</identifier>
      <datestamp>2017-02-09T09:56:56Z</datestamp>
      <setSpec>user-biosyslit</setSpec>
    </header>
    <header>
      <identifier>oai:zenodo.org:288694</identifier>
      <datestamp>2017-02-09T21:43:48Z</datestamp>
      <setSpec>user-biosyslit</setSpec>
    </header>
    <header>
      <identifier>oai:zenodo.org:288696</identifier>
      <datestamp>2017-02-09T21:43:52Z</datestamp>
      <setSpec>user-biosyslit</setSpec>
    </header>
    <header>
      <identifier>oai:zenodo.org:288698</identifier>
      <datestamp>2017-02-09T21:43:57Z</datestamp>
      <setSpec>user-biosyslit</setSpec>
    </header>
    <header>
      <identifier>oai:zenodo.org:287508</identifier>
      <datestamp>2017-02-09T18:30:11Z</datestamp>
      <setSpec>user-biosyslit</setSpec>
    </header>
    <header>
      <identifier>oai:zenodo.org:304557</identifier>
      <datestamp>2017-02-20T22:25:01Z</datestamp>
      <setSpec>user-biosyslit</setSpec>
    </header>
    <header>
      <identifier>oai:zenodo.org:304555</identifier>
      <datestamp>2017-02-20T22:24:58Z</datestamp>
      <setSpec>user-biosyslit</setSpec>
    </header>
    <header>
      <identifier>oai:zenodo.org:304541</identifier>
      <datestamp>2017-02-20T22:24:50Z</datestamp>
      <setSpec>user-biosyslit</setSpec>
    </header>
    <header>
      <identifier>oai:zenodo.org:283883</identifier>
      <datestamp>2017-02-09T10:00:05Z</datestamp>
      <setSpec>user-biosyslit</setSpec>
    </header>
    <header>
      <identifier>oai:zenodo.org:283886</identifier>
      <datestamp>2017-02-09T09:59:54Z</datestamp>
      <setSpec>user-biosyslit</setSpec>
    </header>
    <header>
      <identifier>oai:zenodo.org:283884</identifier>
      <datestamp>2017-02-09T09:59:50Z</datestamp>
      <setSpec>user-biosyslit</setSpec>
    </header>
    <header>
      <identifier>oai:zenodo.org:283890</identifier>
      <datestamp>2017-02-09T10:00:04Z</datestamp>
      <setSpec>user-biosyslit</setSpec>
    </header>
    <header>
      <identifier>oai:zenodo.org:283888</identifier>
      <datestamp>2017-02-09T09:59:59Z</datestamp>
      <setSpec>user-biosyslit</setSpec>
    </header>
    <header>
      <identifier>oai:zenodo.org:283885</identifier>
      <datestamp>2017-02-09T09:59:51Z</datestamp>
      <setSpec>user-biosyslit</setSpec>
    </header>
    <header>
      <identifier>oai:zenodo.org:245330</identifier>
      <datestamp>2017-01-15T11:51:20Z</datestamp>
      <setSpec>user-biosyslit</setSpec>
    </header>
    <header>
      <identifier>oai:zenodo.org:245331</identifier>
      <datestamp>2017-01-15T11:51:24Z</datestamp>
      <setSpec>user-biosyslit</setSpec>
    </header>
    <header>
      <identifier>oai:zenodo.org:244909</identifier>
      <datestamp>2017-01-15T04:57:31Z</datestamp>
      <setSpec>user-biosyslit</setSpec>
    </header>
    <header>
      <identifier>oai:zenodo.org:275419</identifier>
      <datestamp>2017-02-08T16:17:54Z</datestamp>
      <setSpec>user-biosyslit</setSpec>
    </header>
    <header>
      <identifier>oai:zenodo.org:275415</identifier>
      <datestamp>2017-02-08T16:17:38Z</datestamp>
      <setSpec>user-biosyslit</setSpec>
    </header>
    <header>
      <identifier>oai:zenodo.org:275417</identifier>
      <datestamp>2017-02-08T16:17:44Z</datestamp>
      <setSpec>user-biosyslit</setSpec>
    </header>
    <header>
      <identifier>oai:zenodo.org:282268</identifier>
      <datestamp>2017-02-09T06:45:08Z</datestamp>
      <setSpec>user-biosyslit</setSpec>
    </header>
    <header>
      <identifier>oai:zenodo.org:266659</identifier>
      <datestamp>2017-02-01T13:10:32Z</datestamp>
      <setSpec>user-biosyslit</setSpec>
    </header>
    <header>
      <identifier>oai:zenodo.org:399676</identifier>
      <datestamp>2017-03-15T23:15:38Z</datestamp>
      <setSpec>user-biosyslit</setSpec>
    </header>
    <header>
      <identifier>oai:zenodo.org:266660</identifier>
      <datestamp>2017-02-01T13:10:25Z</datestamp>
      <setSpec>user-biosyslit</setSpec>
    </header>
    <header>
      <identifier>oai:zenodo.org:282282</identifier>
      <datestamp>2017-02-09T06:45:04Z</datestamp>
      <setSpec>user-biosyslit</setSpec>
    </header>
    <header>
      <identifier>oai:zenodo.org:274754</identifier>
      <datestamp>2017-02-08T14:10:17Z</datestamp>
      <setSpec>user-biosyslit</setSpec>
    </header>
    <header>
      <identifier>oai:zenodo.org:274753</identifier>
      <datestamp>2017-02-08T14:10:14Z</datestamp>
      <setSpec>user-biosyslit</setSpec>
    </header>
    <header>
      <identifier>oai:zenodo.org:282281</identifier>
      <datestamp>2017-02-09T06:45:02Z</datestamp>
      <setSpec>user-biosyslit</setSpec>
    </header>
    <header>
      <identifier>oai:zenodo.org:274752</identifier>
      <datestamp>2017-02-08T14:10:12Z</datestamp>
      <setSpec>user-biosyslit</setSpec>
    </header>
    <header>
      <identifier>oai:zenodo.org:226665</identifier>
      <datestamp>2017-01-01T01:32:37Z</datestamp>
      <setSpec>user-biosyslit</setSpec>
    </header>
    <header>
      <identifier>oai:zenodo.org:226667</identifier>
      <datestamp>2017-01-01T01:32:24Z</datestamp>
      <setSpec>user-biosyslit</setSpec>
    </header>
    <header>
      <identifier>oai:zenodo.org:226668</identifier>
      <datestamp>2017-01-01T01:32:27Z</datestamp>
      <setSpec>user-biosyslit</setSpec>
    </header>
    <header>
      <identifier>oai:zenodo.org:239633</identifier>
      <datestamp>2017-01-11T23:09:33Z</datestamp>
      <setSpec>user-biosyslit</setSpec>
    </header>
    <header>
      <identifier>oai:zenodo.org:229186</identifier>
      <datestamp>2017-01-03T12:11:01Z</datestamp>
      <setSpec>user-biosyslit</setSpec>
    </header>
    <header>
      <identifier>oai:zenodo.org:229190</identifier>
      <datestamp>2017-01-03T12:11:18Z</datestamp>
      <setSpec>user-biosyslit</setSpec>
    </header>
    <header>
      <identifier>oai:zenodo.org:229185</identifier>
      <datestamp>2017-01-03T12:10:57Z</datestamp>
      <setSpec>user-biosyslit</setSpec>
    </header>
    <header>
      <identifier>oai:zenodo.org:239646</identifier>
      <datestamp>2017-01-11T23:09:23Z</datestamp>
      <setSpec>user-biosyslit</setSpec>
    </header>
    <header>
      <identifier>oai:zenodo.org:239645</identifier>
      <datestamp>2017-01-11T23:09:20Z</datestamp>
      <setSpec>user-biosyslit</setSpec>
    </header>
    <header>
      <identifier>oai:zenodo.org:229187</identifier>
      <datestamp>2017-01-03T12:11:05Z</datestamp>
      <setSpec>user-biosyslit</setSpec>
    </header>
    <header>
      <identifier>oai:zenodo.org:229188</identifier>
      <datestamp>2017-01-03T12:11:09Z</datestamp>
      <setSpec>user-biosyslit</setSpec>
    </header>
    <header>
      <identifier>oai:zenodo.org:229184</identifier>
      <datestamp>2017-01-03T12:10:54Z</datestamp>
      <setSpec>user-biosyslit</setSpec>
    </header>
    <header>
      <identifier>oai:zenodo.org:289480</identifier>
      <datestamp>2017-02-09T23:39:58Z</datestamp>
      <setSpec>user-biosyslit</setSpec>
    </header>
    <header>
      <identifier>oai:zenodo.org:289476</identifier>
      <datestamp>2017-02-09T23:39:47Z</datestamp>
      <setSpec>user-biosyslit</setSpec>
    </header>
    <header>
      <identifier>oai:zenodo.org:289478</identifier>
      <datestamp>2017-02-09T23:39:52Z</datestamp>
      <setSpec>user-biosyslit</setSpec>
    </header>
    <header>
      <identifier>oai:zenodo.org:289481</identifier>
      <datestamp>2017-02-09T23:40:01Z</datestamp>
      <setSpec>user-biosyslit</setSpec>
    </header>
    <header>
      <identifier>oai:zenodo.org:289484</identifier>
      <datestamp>2017-02-09T23:40:10Z</datestamp>
      <setSpec>user-biosyslit</setSpec>
    </header>
    <header>
      <identifier>oai:zenodo.org:289482</identifier>
      <datestamp>2017-02-09T23:40:05Z</datestamp>
      <setSpec>user-biosyslit</setSpec>
    </header>
    <header>
      <identifier>oai:zenodo.org:246127</identifier>
      <datestamp>2017-01-15T22:28:44Z</datestamp>
      <setSpec>user-biosyslit</setSpec>
    </header>
    <header>
      <identifier>oai:zenodo.org:246129</identifier>
      <datestamp>2017-01-15T22:28:51Z</datestamp>
      <setSpec>user-biosyslit</setSpec>
    </header>
    <header>
      <identifier>oai:zenodo.org:246131</identifier>
      <datestamp>2017-01-15T22:28:59Z</datestamp>
      <setSpec>user-biosyslit</setSpec>
    </header>
    <header>
      <identifier>oai:zenodo.org:246133</identifier>
      <datestamp>2017-01-15T22:29:06Z</datestamp>
      <setSpec>user-biosyslit</setSpec>
    </header>
    <header>
      <identifier>oai:zenodo.org:246132</identifier>
      <datestamp>2017-01-15T22:29:02Z</datestamp>
      <setSpec>user-biosyslit</setSpec>
    </header>
    <header>
      <identifier>oai:zenodo.org:284861</identifier>
      <datestamp>2017-02-09T12:05:46Z</datestamp>
      <setSpec>user-biosyslit</setSpec>
    </header>
    <header>
      <identifier>oai:zenodo.org:284860</identifier>
      <datestamp>2017-02-09T12:05:44Z</datestamp>
      <setSpec>user-biosyslit</setSpec>
    </header>
    <header>
      <identifier>oai:zenodo.org:284856</identifier>
      <datestamp>2017-02-09T12:05:33Z</datestamp>
      <setSpec>user-biosyslit</setSpec>
    </header>
    <header>
      <identifier>oai:zenodo.org:284855</identifier>
      <datestamp>2017-02-09T12:05:31Z</datestamp>
      <setSpec>user-biosyslit</setSpec>
    </header>
    <header>
      <identifier>oai:zenodo.org:284852</identifier>
      <datestamp>2017-02-09T12:05:23Z</datestamp>
      <setSpec>user-biosyslit</setSpec>
    </header>
    <header>
      <identifier>oai:zenodo.org:284851</identifier>
      <datestamp>2017-02-09T12:05:20Z</datestamp>
      <setSpec>user-biosyslit</setSpec>
    </header>
    <header>
      <identifier>oai:zenodo.org:284849</identifier>
      <datestamp>2017-02-09T12:05:14Z</datestamp>
      <setSpec>user-biosyslit</setSpec>
    </header>
    <header>
      <identifier>oai:zenodo.org:284859</identifier>
      <datestamp>2017-02-09T12:05:42Z</datestamp>
      <setSpec>user-biosyslit</setSpec>
    </header>
    <header>
      <identifier>oai:zenodo.org:284857</identifier>
      <datestamp>2017-02-09T12:05:36Z</datestamp>
      <setSpec>user-biosyslit</setSpec>
    </header>
    <header>
      <identifier>oai:zenodo.org:277648</identifier>
      <datestamp>2017-02-08T21:33:41Z</datestamp>
      <setSpec>user-biosyslit</setSpec>
    </header>
    <header>
      <identifier>oai:zenodo.org:277652</identifier>
      <datestamp>2017-02-08T21:33:51Z</datestamp>
      <setSpec>user-biosyslit</setSpec>
    </header>
    <header>
      <identifier>oai:zenodo.org:277656</identifier>
      <datestamp>2017-02-08T21:34:02Z</datestamp>
      <setSpec>user-biosyslit</setSpec>
    </header>
    <header>
      <identifier>oai:zenodo.org:277647</identifier>
      <datestamp>2017-02-08T21:33:39Z</datestamp>
      <setSpec>user-biosyslit</setSpec>
    </header>
    <header>
      <identifier>oai:zenodo.org:277650</identifier>
      <datestamp>2017-02-08T21:33:47Z</datestamp>
      <setSpec>user-biosyslit</setSpec>
    </header>
    <header>
      <identifier>oai:zenodo.org:277658</identifier>
      <datestamp>2017-02-08T21:34:09Z</datestamp>
      <setSpec>user-biosyslit</setSpec>
    </header>
    <header>
      <identifier>oai:zenodo.org:277659</identifier>
      <datestamp>2017-02-08T21:34:12Z</datestamp>
      <setSpec>user-biosyslit</setSpec>
    </header>
    <header>
      <identifier>oai:zenodo.org:277654</identifier>
      <datestamp>2017-02-08T21:33:57Z</datestamp>
      <setSpec>user-biosyslit</setSpec>
    </header>
    <header>
      <identifier>oai:zenodo.org:283541</identifier>
      <datestamp>2017-02-09T09:10:10Z</datestamp>
      <setSpec>user-biosyslit</setSpec>
    </header>
    <header>
      <identifier>oai:zenodo.org:283550</identifier>
      <datestamp>2017-02-09T09:10:09Z</datestamp>
      <setSpec>user-biosyslit</setSpec>
    </header>
    <header>
      <identifier>oai:zenodo.org:247329</identifier>
      <datestamp>2017-01-16T14:19:54Z</datestamp>
      <setSpec>user-biosyslit</setSpec>
    </header>
    <header>
      <identifier>oai:zenodo.org:227328</identifier>
      <datestamp>2017-01-01T19:39:27Z</datestamp>
      <setSpec>user-biosyslit</setSpec>
    </header>
    <header>
      <identifier>oai:zenodo.org:227351</identifier>
      <datestamp>2017-01-01T19:39:15Z</datestamp>
      <setSpec>user-biosyslit</setSpec>
    </header>
    <header>
      <identifier>oai:zenodo.org:227352</identifier>
      <datestamp>2017-01-01T19:39:18Z</datestamp>
      <setSpec>user-biosyslit</setSpec>
    </header>
    <header>
      <identifier>oai:zenodo.org:264586</identifier>
      <datestamp>2017-01-30T23:47:27Z</datestamp>
      <setSpec>user-biosyslit</setSpec>
    </header>
    <header>
      <identifier>oai:zenodo.org:234099</identifier>
      <datestamp>2017-01-08T15:03:21Z</datestamp>
      <setSpec>user-biosyslit</setSpec>
    </header>
    <header>
      <identifier>oai:zenodo.org:234102</identifier>
      <datestamp>2017-01-08T15:03:08Z</datestamp>
      <setSpec>user-biosyslit</setSpec>
    </header>
    <header>
      <identifier>oai:zenodo.org:264583</identifier>
      <datestamp>2017-01-30T23:47:49Z</datestamp>
      <setSpec>user-biosyslit</setSpec>
    </header>
    <header>
      <identifier>oai:zenodo.org:264592</identifier>
      <datestamp>2017-01-30T23:47:47Z</datestamp>
      <setSpec>user-biosyslit</setSpec>
    </header>
    <header>
      <identifier>oai:zenodo.org:234103</identifier>
      <datestamp>2017-01-08T15:03:12Z</datestamp>
      <setSpec>user-biosyslit</setSpec>
    </header>
    <header>
      <identifier>oai:zenodo.org:234104</identifier>
      <datestamp>2017-01-08T15:03:16Z</datestamp>
      <setSpec>user-biosyslit</setSpec>
    </header>
    <header>
      <identifier>oai:zenodo.org:264585</identifier>
      <datestamp>2017-01-30T23:47:23Z</datestamp>
      <setSpec>user-biosyslit</setSpec>
    </header>
    <header>
      <identifier>oai:zenodo.org:264588</identifier>
      <datestamp>2017-01-30T23:47:34Z</datestamp>
      <setSpec>user-biosyslit</setSpec>
    </header>
    <header>
      <identifier>oai:zenodo.org:264590</identifier>
      <datestamp>2017-01-30T23:47:42Z</datestamp>
      <setSpec>user-biosyslit</setSpec>
    </header>
    <header>
      <identifier>oai:zenodo.org:255117</identifier>
      <datestamp>2017-01-21T08:14:33Z</datestamp>
      <setSpec>user-biosyslit</setSpec>
    </header>
    <header>
      <identifier>oai:zenodo.org:287395</identifier>
      <datestamp>2017-02-09T18:13:43Z</datestamp>
      <setSpec>user-biosyslit</setSpec>
    </header>
    <header>
      <identifier>oai:zenodo.org:287399</identifier>
      <datestamp>2017-02-09T18:13:31Z</datestamp>
      <setSpec>user-biosyslit</setSpec>
    </header>
    <header>
      <identifier>oai:zenodo.org:242082</identifier>
      <datestamp>2017-01-13T10:18:21Z</datestamp>
      <setSpec>user-biosyslit</setSpec>
    </header>
    <header>
      <identifier>oai:zenodo.org:242083</identifier>
      <datestamp>2017-01-13T10:18:24Z</datestamp>
      <setSpec>user-biosyslit</setSpec>
    </header>
    <header>
      <identifier>oai:zenodo.org:236575</identifier>
      <datestamp>2017-01-10T01:38:27Z</datestamp>
      <setSpec>user-biosyslit</setSpec>
    </header>
    <header>
      <identifier>oai:zenodo.org:236574</identifier>
      <datestamp>2017-01-10T01:38:28Z</datestamp>
      <setSpec>user-biosyslit</setSpec>
    </header>
    <header>
      <identifier>oai:zenodo.org:285939</identifier>
      <datestamp>2017-02-09T14:53:31Z</datestamp>
      <setSpec>user-biosyslit</setSpec>
    </header>
    <header>
      <identifier>oai:zenodo.org:285948</identifier>
      <datestamp>2017-02-09T14:53:52Z</datestamp>
      <setSpec>user-biosyslit</setSpec>
    </header>
    <header>
      <identifier>oai:zenodo.org:285949</identifier>
      <datestamp>2017-02-09T14:53:54Z</datestamp>
      <setSpec>user-biosyslit</setSpec>
    </header>
    <header>
      <identifier>oai:zenodo.org:285938</identifier>
      <datestamp>2017-02-09T14:53:28Z</datestamp>
      <setSpec>user-biosyslit</setSpec>
    </header>
    <header>
      <identifier>oai:zenodo.org:285954</identifier>
      <datestamp>2017-02-09T14:54:07Z</datestamp>
      <setSpec>user-biosyslit</setSpec>
    </header>
    <header>
      <identifier>oai:zenodo.org:285953</identifier>
      <datestamp>2017-02-09T14:54:05Z</datestamp>
      <setSpec>user-biosyslit</setSpec>
    </header>
    <header>
      <identifier>oai:zenodo.org:285943</identifier>
      <datestamp>2017-02-09T14:53:41Z</datestamp>
      <setSpec>user-biosyslit</setSpec>
    </header>
    <resumptionToken expirationDate="2017-08-31T15:47:22Z" cursor="62900" completeListSize="77796">.eJyNyj0LgkAYAOD_8s4S91FeCi1iSYOKXkq6hKlIdZp4hXrif8-luebnmUCWZQEmWjGDUUPHZMMYJWuDaSDz7inE5bYw5OdY5I2IMid-h3WMElIxz5aDayfUUw_k11jxQ0DOeDtENzQGp-iVqHCI6bHnaM9cFYze_bi8gvqOSK9Oy6PGEpwUnb8PRo4tntL8-_CfT_18ttyBBm1WlWDqFGvw6LOukmBO8_wBrOtRTQ.DInAkg.FVNlNd65l0Y7hovmTelk2JQGH1A</resumptionToken>
  </ListIdentifiers>
</OAI-PMH>
