<?xml version='1.0' encoding='UTF-8'?>
<?xml-stylesheet type="text/xsl" href="/static/xsl/oai2.v1.0.xsl"?>
<OAI-PMH xmlns="http://www.openarchives.org/OAI/2.0/" xmlns:xsi="http://www.w3.org/2001/XMLSchema-instance" xsi:schemaLocation="http://www.openarchives.org/OAI/2.0/ http://www.openarchives.org/OAI/2.0/OAI-PMH.xsd">
  <responseDate>2017-08-31T15:44:23Z</responseDate>
  <request verb="ListIdentifiers" resumptionToken=".eJyNzz0PQ0AAgOH_crM09yGopEtDxYBwPcHSKCLqqLg2OPHfa-nczu-zvCsQVVUCEx4gIZBgDRkq1gxoaAoQxfjk_NbsGRRJzIues9yJ31EXwxTXum-J2bNS4ssWBh2S9BLiBBkza-ASXtkrldEcE3ei0NY9GS7-w91dSQKHZ3dnoKw_c4rLMbDDhaIzzUjxdehPJ386S5yAAoa8roCpHverdsrHWgBz3bYPkyBROg.DInAVw.r4eyl-qL4bTRmuMfER7sFyUHxYY">https://zenodo.org/oai2d</request>
  <ListIdentifiers>
    <header>
      <identifier>oai:zenodo.org:270801</identifier>
      <datestamp>2017-02-07T23:56:47Z</datestamp>
      <setSpec>user-biosyslit</setSpec>
    </header>
    <header>
      <identifier>oai:zenodo.org:271340</identifier>
      <datestamp>2017-02-08T01:22:13Z</datestamp>
      <setSpec>user-biosyslit</setSpec>
    </header>
    <header>
      <identifier>oai:zenodo.org:233161</identifier>
      <datestamp>2017-01-08T01:27:28Z</datestamp>
      <setSpec>user-biosyslit</setSpec>
    </header>
    <header>
      <identifier>oai:zenodo.org:269490</identifier>
      <datestamp>2017-02-07T00:43:03Z</datestamp>
      <setSpec>user-biosyslit</setSpec>
    </header>
    <header>
      <identifier>oai:zenodo.org:232181</identifier>
      <datestamp>2017-01-06T12:56:39Z</datestamp>
      <setSpec>user-biosyslit</setSpec>
    </header>
    <header>
      <identifier>oai:zenodo.org:269584</identifier>
      <datestamp>2017-02-07T01:03:15Z</datestamp>
      <setSpec>user-biosyslit</setSpec>
    </header>
    <header>
      <identifier>oai:zenodo.org:232270</identifier>
      <datestamp>2017-01-06T14:50:45Z</datestamp>
      <setSpec>user-biosyslit</setSpec>
    </header>
    <header>
      <identifier>oai:zenodo.org:232650</identifier>
      <datestamp>2017-01-06T21:04:23Z</datestamp>
      <setSpec>user-biosyslit</setSpec>
    </header>
    <header>
      <identifier>oai:zenodo.org:233812</identifier>
      <datestamp>2017-01-08T12:09:33Z</datestamp>
      <setSpec>user-biosyslit</setSpec>
    </header>
    <header>
      <identifier>oai:zenodo.org:276067</identifier>
      <datestamp>2017-02-08T18:02:48Z</datestamp>
      <setSpec>user-biosyslit</setSpec>
    </header>
    <header>
      <identifier>oai:zenodo.org:233734</identifier>
      <datestamp>2017-01-08T11:08:53Z</datestamp>
      <setSpec>user-biosyslit</setSpec>
    </header>
    <header>
      <identifier>oai:zenodo.org:275130</identifier>
      <datestamp>2017-02-08T15:22:30Z</datestamp>
      <setSpec>user-biosyslit</setSpec>
    </header>
    <header>
      <identifier>oai:zenodo.org:276075</identifier>
      <datestamp>2017-02-08T18:03:11Z</datestamp>
      <setSpec>user-biosyslit</setSpec>
    </header>
    <header>
      <identifier>oai:zenodo.org:233736</identifier>
      <datestamp>2017-01-08T11:09:01Z</datestamp>
      <setSpec>user-biosyslit</setSpec>
    </header>
    <header>
      <identifier>oai:zenodo.org:275599</identifier>
      <datestamp>2017-02-08T16:46:17Z</datestamp>
      <setSpec>user-biosyslit</setSpec>
    </header>
    <header>
      <identifier>oai:zenodo.org:277119</identifier>
      <datestamp>2017-02-08T20:26:39Z</datestamp>
      <setSpec>user-biosyslit</setSpec>
    </header>
    <header>
      <identifier>oai:zenodo.org:277167</identifier>
      <datestamp>2017-02-08T20:32:45Z</datestamp>
      <setSpec>user-biosyslit</setSpec>
    </header>
    <header>
      <identifier>oai:zenodo.org:234315</identifier>
      <datestamp>2017-01-08T18:21:30Z</datestamp>
      <setSpec>user-biosyslit</setSpec>
    </header>
    <header>
      <identifier>oai:zenodo.org:234197</identifier>
      <datestamp>2017-01-08T16:10:29Z</datestamp>
      <setSpec>user-biosyslit</setSpec>
    </header>
    <header>
      <identifier>oai:zenodo.org:276789</identifier>
      <datestamp>2017-02-08T19:40:30Z</datestamp>
      <setSpec>user-biosyslit</setSpec>
    </header>
    <header>
      <identifier>oai:zenodo.org:234018</identifier>
      <datestamp>2017-01-08T14:04:28Z</datestamp>
      <setSpec>user-biosyslit</setSpec>
    </header>
    <header>
      <identifier>oai:zenodo.org:277052</identifier>
      <datestamp>2017-02-08T20:16:48Z</datestamp>
      <setSpec>user-biosyslit</setSpec>
    </header>
    <header>
      <identifier>oai:zenodo.org:235105</identifier>
      <datestamp>2017-01-09T05:37:09Z</datestamp>
      <setSpec>user-biosyslit</setSpec>
    </header>
    <header>
      <identifier>oai:zenodo.org:235072</identifier>
      <datestamp>2017-01-09T05:21:30Z</datestamp>
      <setSpec>user-biosyslit</setSpec>
    </header>
    <header>
      <identifier>oai:zenodo.org:277199</identifier>
      <datestamp>2017-02-08T20:34:50Z</datestamp>
      <setSpec>user-biosyslit</setSpec>
    </header>
    <header>
      <identifier>oai:zenodo.org:270759</identifier>
      <datestamp>2017-02-07T23:55:08Z</datestamp>
      <setSpec>user-biosyslit</setSpec>
    </header>
    <header>
      <identifier>oai:zenodo.org:236989</identifier>
      <datestamp>2017-01-10T09:17:24Z</datestamp>
      <setSpec>user-biosyslit</setSpec>
    </header>
    <header>
      <identifier>oai:zenodo.org:236030</identifier>
      <datestamp>2017-01-09T18:01:31Z</datestamp>
      <setSpec>user-biosyslit</setSpec>
    </header>
    <header>
      <identifier>oai:zenodo.org:277203</identifier>
      <datestamp>2017-02-08T20:35:01Z</datestamp>
      <setSpec>user-biosyslit</setSpec>
    </header>
    <header>
      <identifier>oai:zenodo.org:236467</identifier>
      <datestamp>2017-01-10T00:26:49Z</datestamp>
      <setSpec>user-biosyslit</setSpec>
    </header>
    <header>
      <identifier>oai:zenodo.org:277190</identifier>
      <datestamp>2017-02-08T20:34:22Z</datestamp>
      <setSpec>user-biosyslit</setSpec>
    </header>
    <header>
      <identifier>oai:zenodo.org:236749</identifier>
      <datestamp>2017-01-10T04:08:13Z</datestamp>
      <setSpec>user-biosyslit</setSpec>
    </header>
    <header>
      <identifier>oai:zenodo.org:276996</identifier>
      <datestamp>2017-02-08T20:09:47Z</datestamp>
      <setSpec>user-biosyslit</setSpec>
    </header>
    <header>
      <identifier>oai:zenodo.org:269798</identifier>
      <datestamp>2017-02-07T20:19:25Z</datestamp>
      <setSpec>user-biosyslit</setSpec>
    </header>
    <header>
      <identifier>oai:zenodo.org:269043</identifier>
      <datestamp>2017-02-06T22:36:10Z</datestamp>
      <setSpec>user-biosyslit</setSpec>
    </header>
    <header>
      <identifier>oai:zenodo.org:268357</identifier>
      <datestamp>2017-02-03T12:17:35Z</datestamp>
      <setSpec>user-biosyslit</setSpec>
    </header>
    <header>
      <identifier>oai:zenodo.org:269428</identifier>
      <datestamp>2017-02-07T00:29:26Z</datestamp>
      <setSpec>user-biosyslit</setSpec>
    </header>
    <header>
      <identifier>oai:zenodo.org:230312</identifier>
      <datestamp>2017-01-04T22:41:00Z</datestamp>
      <setSpec>user-biosyslit</setSpec>
    </header>
    <header>
      <identifier>oai:zenodo.org:269580</identifier>
      <datestamp>2017-02-07T01:03:19Z</datestamp>
      <setSpec>user-biosyslit</setSpec>
    </header>
    <header>
      <identifier>oai:zenodo.org:269696</identifier>
      <datestamp>2017-02-07T20:03:32Z</datestamp>
      <setSpec>user-biosyslit</setSpec>
    </header>
    <header>
      <identifier>oai:zenodo.org:269326</identifier>
      <datestamp>2017-02-06T23:55:02Z</datestamp>
      <setSpec>user-biosyslit</setSpec>
    </header>
    <header>
      <identifier>oai:zenodo.org:270006</identifier>
      <datestamp>2017-02-07T21:59:51Z</datestamp>
      <setSpec>user-biosyslit</setSpec>
    </header>
    <header>
      <identifier>oai:zenodo.org:270270</identifier>
      <datestamp>2017-02-07T22:56:13Z</datestamp>
      <setSpec>user-biosyslit</setSpec>
    </header>
    <header>
      <identifier>oai:zenodo.org:230462</identifier>
      <datestamp>2017-01-05T01:37:23Z</datestamp>
      <setSpec>user-biosyslit</setSpec>
    </header>
    <header>
      <identifier>oai:zenodo.org:229818</identifier>
      <datestamp>2017-01-04T07:28:45Z</datestamp>
      <setSpec>user-biosyslit</setSpec>
    </header>
    <header>
      <identifier>oai:zenodo.org:269093</identifier>
      <datestamp>2017-02-06T22:41:40Z</datestamp>
      <setSpec>user-biosyslit</setSpec>
    </header>
    <header>
      <identifier>oai:zenodo.org:229849</identifier>
      <datestamp>2017-01-04T08:03:57Z</datestamp>
      <setSpec>user-biosyslit</setSpec>
    </header>
    <header>
      <identifier>oai:zenodo.org:230245</identifier>
      <datestamp>2017-01-04T21:37:07Z</datestamp>
      <setSpec>user-biosyslit</setSpec>
    </header>
    <header>
      <identifier>oai:zenodo.org:270428</identifier>
      <datestamp>2017-02-07T23:13:36Z</datestamp>
      <setSpec>user-biosyslit</setSpec>
    </header>
    <header>
      <identifier>oai:zenodo.org:269062</identifier>
      <datestamp>2017-02-06T22:39:39Z</datestamp>
      <setSpec>user-biosyslit</setSpec>
    </header>
    <header>
      <identifier>oai:zenodo.org:269236</identifier>
      <datestamp>2017-02-06T23:38:00Z</datestamp>
      <setSpec>user-biosyslit</setSpec>
    </header>
    <header>
      <identifier>oai:zenodo.org:269366</identifier>
      <datestamp>2017-02-06T23:58:48Z</datestamp>
      <setSpec>user-biosyslit</setSpec>
    </header>
    <header>
      <identifier>oai:zenodo.org:269079</identifier>
      <datestamp>2017-02-06T22:41:04Z</datestamp>
      <setSpec>user-biosyslit</setSpec>
    </header>
    <header>
      <identifier>oai:zenodo.org:231652</identifier>
      <datestamp>2017-01-06T05:20:17Z</datestamp>
      <setSpec>user-biosyslit</setSpec>
    </header>
    <header>
      <identifier>oai:zenodo.org:269092</identifier>
      <datestamp>2017-02-06T22:41:37Z</datestamp>
      <setSpec>user-biosyslit</setSpec>
    </header>
    <header>
      <identifier>oai:zenodo.org:231175</identifier>
      <datestamp>2017-01-05T16:58:34Z</datestamp>
      <setSpec>user-biosyslit</setSpec>
    </header>
    <header>
      <identifier>oai:zenodo.org:270476</identifier>
      <datestamp>2017-02-07T23:17:19Z</datestamp>
      <setSpec>user-biosyslit</setSpec>
    </header>
    <header>
      <identifier>oai:zenodo.org:230699</identifier>
      <datestamp>2017-01-05T06:54:24Z</datestamp>
      <setSpec>user-biosyslit</setSpec>
    </header>
    <header>
      <identifier>oai:zenodo.org:230878</identifier>
      <datestamp>2017-01-06T11:05:23Z</datestamp>
      <setSpec>openaire</setSpec>
      <setSpec>user-biosyslit</setSpec>
    </header>
    <header>
      <identifier>oai:zenodo.org:275395</identifier>
      <datestamp>2017-02-08T16:12:33Z</datestamp>
      <setSpec>user-biosyslit</setSpec>
    </header>
    <header>
      <identifier>oai:zenodo.org:230809</identifier>
      <datestamp>2017-01-05T08:40:45Z</datestamp>
      <setSpec>user-biosyslit</setSpec>
    </header>
    <header>
      <identifier>oai:zenodo.org:269910</identifier>
      <datestamp>2017-02-07T20:43:38Z</datestamp>
      <setSpec>user-biosyslit</setSpec>
    </header>
    <header>
      <identifier>oai:zenodo.org:229845</identifier>
      <datestamp>2017-01-04T08:03:44Z</datestamp>
      <setSpec>user-biosyslit</setSpec>
    </header>
    <header>
      <identifier>oai:zenodo.org:270199</identifier>
      <datestamp>2017-02-07T22:31:19Z</datestamp>
      <setSpec>user-biosyslit</setSpec>
    </header>
    <header>
      <identifier>oai:zenodo.org:270232</identifier>
      <datestamp>2017-02-07T22:44:35Z</datestamp>
      <setSpec>user-biosyslit</setSpec>
    </header>
    <header>
      <identifier>oai:zenodo.org:269787</identifier>
      <datestamp>2017-02-07T20:18:53Z</datestamp>
      <setSpec>user-biosyslit</setSpec>
    </header>
    <header>
      <identifier>oai:zenodo.org:270396</identifier>
      <datestamp>2017-02-07T23:09:17Z</datestamp>
      <setSpec>user-biosyslit</setSpec>
    </header>
    <header>
      <identifier>oai:zenodo.org:229870</identifier>
      <datestamp>2017-01-06T11:06:06Z</datestamp>
      <setSpec>openaire</setSpec>
      <setSpec>user-biosyslit</setSpec>
    </header>
    <header>
      <identifier>oai:zenodo.org:233336</identifier>
      <datestamp>2017-01-08T03:36:51Z</datestamp>
      <setSpec>user-biosyslit</setSpec>
    </header>
    <header>
      <identifier>oai:zenodo.org:231178</identifier>
      <datestamp>2017-01-05T17:02:42Z</datestamp>
      <setSpec>user-biosyslit</setSpec>
    </header>
    <header>
      <identifier>oai:zenodo.org:233151</identifier>
      <datestamp>2017-01-08T01:23:27Z</datestamp>
      <setSpec>user-biosyslit</setSpec>
    </header>
    <header>
      <identifier>oai:zenodo.org:275247</identifier>
      <datestamp>2017-02-08T15:47:37Z</datestamp>
      <setSpec>user-biosyslit</setSpec>
    </header>
    <header>
      <identifier>oai:zenodo.org:233335</identifier>
      <datestamp>2017-01-08T03:36:47Z</datestamp>
      <setSpec>user-biosyslit</setSpec>
    </header>
    <header>
      <identifier>oai:zenodo.org:269265</identifier>
      <datestamp>2017-02-06T23:44:23Z</datestamp>
      <setSpec>user-biosyslit</setSpec>
    </header>
    <header>
      <identifier>oai:zenodo.org:231877</identifier>
      <datestamp>2017-01-06T08:11:30Z</datestamp>
      <setSpec>user-biosyslit</setSpec>
    </header>
    <header>
      <identifier>oai:zenodo.org:269097</identifier>
      <datestamp>2017-02-06T22:44:13Z</datestamp>
      <setSpec>user-biosyslit</setSpec>
    </header>
    <header>
      <identifier>oai:zenodo.org:232724</identifier>
      <datestamp>2017-01-06T22:09:56Z</datestamp>
      <setSpec>user-biosyslit</setSpec>
    </header>
    <header>
      <identifier>oai:zenodo.org:269370</identifier>
      <datestamp>2017-02-06T23:58:59Z</datestamp>
      <setSpec>user-biosyslit</setSpec>
    </header>
    <header>
      <identifier>oai:zenodo.org:229926</identifier>
      <datestamp>2017-01-06T11:05:44Z</datestamp>
      <setSpec>openaire</setSpec>
      <setSpec>user-biosyslit</setSpec>
    </header>
    <header>
      <identifier>oai:zenodo.org:269297</identifier>
      <datestamp>2017-02-06T23:48:54Z</datestamp>
      <setSpec>user-biosyslit</setSpec>
    </header>
    <header>
      <identifier>oai:zenodo.org:233374</identifier>
      <datestamp>2017-01-08T04:02:41Z</datestamp>
      <setSpec>user-biosyslit</setSpec>
    </header>
    <header>
      <identifier>oai:zenodo.org:269189</identifier>
      <datestamp>2017-02-06T23:03:13Z</datestamp>
      <setSpec>user-biosyslit</setSpec>
    </header>
    <header>
      <identifier>oai:zenodo.org:276513</identifier>
      <datestamp>2017-02-08T19:02:47Z</datestamp>
      <setSpec>user-biosyslit</setSpec>
    </header>
    <header>
      <identifier>oai:zenodo.org:269071</identifier>
      <datestamp>2017-02-06T22:40:43Z</datestamp>
      <setSpec>user-biosyslit</setSpec>
    </header>
    <header>
      <identifier>oai:zenodo.org:233546</identifier>
      <datestamp>2017-01-08T08:14:59Z</datestamp>
      <setSpec>user-biosyslit</setSpec>
    </header>
    <header>
      <identifier>oai:zenodo.org:276654</identifier>
      <datestamp>2017-02-08T19:25:06Z</datestamp>
      <setSpec>user-biosyslit</setSpec>
    </header>
    <header>
      <identifier>oai:zenodo.org:274692</identifier>
      <datestamp>2017-02-08T14:02:19Z</datestamp>
      <setSpec>user-biosyslit</setSpec>
    </header>
    <header>
      <identifier>oai:zenodo.org:276657</identifier>
      <datestamp>2017-02-08T19:24:50Z</datestamp>
      <setSpec>user-biosyslit</setSpec>
    </header>
    <header>
      <identifier>oai:zenodo.org:274889</identifier>
      <datestamp>2017-02-08T14:43:25Z</datestamp>
      <setSpec>user-biosyslit</setSpec>
    </header>
    <header>
      <identifier>oai:zenodo.org:234974</identifier>
      <datestamp>2017-01-09T04:08:24Z</datestamp>
      <setSpec>user-biosyslit</setSpec>
    </header>
    <header>
      <identifier>oai:zenodo.org:231498</identifier>
      <datestamp>2017-01-06T02:51:39Z</datestamp>
      <setSpec>user-biosyslit</setSpec>
    </header>
    <header>
      <identifier>oai:zenodo.org:234356</identifier>
      <datestamp>2017-01-08T18:47:14Z</datestamp>
      <setSpec>user-biosyslit</setSpec>
    </header>
    <header>
      <identifier>oai:zenodo.org:274810</identifier>
      <datestamp>2017-02-08T14:29:55Z</datestamp>
      <setSpec>user-biosyslit</setSpec>
    </header>
    <header>
      <identifier>oai:zenodo.org:234955</identifier>
      <datestamp>2017-01-09T03:57:44Z</datestamp>
      <setSpec>user-biosyslit</setSpec>
    </header>
    <header>
      <identifier>oai:zenodo.org:275034</identifier>
      <datestamp>2017-02-08T15:08:17Z</datestamp>
      <setSpec>user-biosyslit</setSpec>
    </header>
    <header>
      <identifier>oai:zenodo.org:235106</identifier>
      <datestamp>2017-01-09T05:37:13Z</datestamp>
      <setSpec>user-biosyslit</setSpec>
    </header>
    <header>
      <identifier>oai:zenodo.org:276586</identifier>
      <datestamp>2017-02-08T19:16:46Z</datestamp>
      <setSpec>user-biosyslit</setSpec>
    </header>
    <header>
      <identifier>oai:zenodo.org:276993</identifier>
      <datestamp>2017-02-08T20:10:31Z</datestamp>
      <setSpec>user-biosyslit</setSpec>
    </header>
    <header>
      <identifier>oai:zenodo.org:237231</identifier>
      <datestamp>2017-01-10T12:44:34Z</datestamp>
      <setSpec>user-biosyslit</setSpec>
    </header>
    <header>
      <identifier>oai:zenodo.org:275127</identifier>
      <datestamp>2017-02-08T15:22:01Z</datestamp>
      <setSpec>user-biosyslit</setSpec>
    </header>
    <resumptionToken expirationDate="2017-08-31T15:46:23Z" cursor="49500" completeListSize="77796">.eJyNyk0LgjAYAOD_8p4l3m2iJXQRTTykrKWolzAVKdcHrkgX_ve8dK7z87xBNU0NDi6QWSaliKaFjJhoGaCq_ibl4TQzVFkqq6tMyiB97i4p5rS1I08NWy9nke4wvhAtNpxmZDkkJxz5PnnkejekLHwJ9O2t5mN0DudXsziQxTG4i-TqSkHrPvb5KIgrClZ9H_nz6Z_PU2sw4F62DTjmyjage5V9q8B5T9MHghVRKA.DInAVw.ISgEuZq5GXfUpUxXT-kBLf-GfWU</resumptionToken>
  </ListIdentifiers>
</OAI-PMH>
