<?xml version='1.0' encoding='UTF-8'?>
<?xml-stylesheet type="text/xsl" href="/static/xsl/oai2.v1.0.xsl"?>
<OAI-PMH xmlns="http://www.openarchives.org/OAI/2.0/" xmlns:xsi="http://www.w3.org/2001/XMLSchema-instance" xsi:schemaLocation="http://www.openarchives.org/OAI/2.0/ http://www.openarchives.org/OAI/2.0/OAI-PMH.xsd">
  <responseDate>2017-08-31T15:42:17Z</responseDate>
  <request verb="ListIdentifiers" resumptionToken=".eJyNyk0LgjAYAOD_8p4l9pFsCV1Ckw4qthzqJUxFqlnhCnXhf89L5zo_zxt0XVfgoAWhCCPKOGHMpiu-tC3QZXdX6nieHcpUqvKmksKXr30rUUYaFrp6CNyMhuaKohYbsY1JivmQnNEYH5JnZvaDpLteII8FJh7Dy25-FY18lZ_8h0huGyVI1UVePAq8ETktvw__-czP5-o1WPAomhocvOIWXPuiazQ472n6ANCvUXc.DIm_2Q.2m2QVT7m64zPInnyQBGkFSv8O8o">https://zenodo.org/oai2d</request>
  <ListIdentifiers>
    <header>
      <identifier>oai:zenodo.org:400025</identifier>
      <datestamp>2017-03-16T07:29:43Z</datestamp>
      <setSpec>user-biosyslit</setSpec>
    </header>
    <header>
      <identifier>oai:zenodo.org:556091</identifier>
      <datestamp>2017-04-19T09:39:02Z</datestamp>
      <setSpec>user-biosyslit</setSpec>
    </header>
    <header>
      <identifier>oai:zenodo.org:556045</identifier>
      <datestamp>2017-04-19T07:37:33Z</datestamp>
      <setSpec>user-biosyslit</setSpec>
    </header>
    <header>
      <identifier>oai:zenodo.org:437634</identifier>
      <datestamp>2017-03-23T10:09:34Z</datestamp>
      <setSpec>user-biosyslit</setSpec>
    </header>
    <header>
      <identifier>oai:zenodo.org:437226</identifier>
      <datestamp>2017-03-22T08:13:31Z</datestamp>
      <setSpec>user-biosyslit</setSpec>
    </header>
    <header>
      <identifier>oai:zenodo.org:437612</identifier>
      <datestamp>2017-03-23T10:08:43Z</datestamp>
      <setSpec>user-biosyslit</setSpec>
    </header>
    <header>
      <identifier>oai:zenodo.org:437977</identifier>
      <datestamp>2017-03-24T08:46:59Z</datestamp>
      <setSpec>user-biosyslit</setSpec>
    </header>
    <header>
      <identifier>oai:zenodo.org:439465</identifier>
      <datestamp>2017-03-31T07:48:40Z</datestamp>
      <setSpec>user-biosyslit</setSpec>
    </header>
    <header>
      <identifier>oai:zenodo.org:437948</identifier>
      <datestamp>2017-03-24T08:24:43Z</datestamp>
      <setSpec>user-biosyslit</setSpec>
    </header>
    <header>
      <identifier>oai:zenodo.org:438532</identifier>
      <datestamp>2017-03-28T07:14:18Z</datestamp>
      <setSpec>user-biosyslit</setSpec>
    </header>
    <header>
      <identifier>oai:zenodo.org:557182</identifier>
      <datestamp>2017-04-25T09:17:50Z</datestamp>
      <setSpec>user-biosyslit</setSpec>
    </header>
    <header>
      <identifier>oai:zenodo.org:438518</identifier>
      <datestamp>2017-03-28T07:13:40Z</datestamp>
      <setSpec>user-biosyslit</setSpec>
    </header>
    <header>
      <identifier>oai:zenodo.org:557167</identifier>
      <datestamp>2017-04-25T09:16:58Z</datestamp>
      <setSpec>user-biosyslit</setSpec>
    </header>
    <header>
      <identifier>oai:zenodo.org:438883</identifier>
      <datestamp>2017-03-29T08:04:09Z</datestamp>
      <setSpec>user-biosyslit</setSpec>
    </header>
    <header>
      <identifier>oai:zenodo.org:439303</identifier>
      <datestamp>2017-03-31T09:17:30Z</datestamp>
      <setSpec>user-biosyslit</setSpec>
    </header>
    <header>
      <identifier>oai:zenodo.org:438898</identifier>
      <datestamp>2017-03-29T08:24:42Z</datestamp>
      <setSpec>user-biosyslit</setSpec>
    </header>
    <header>
      <identifier>oai:zenodo.org:439311</identifier>
      <datestamp>2017-03-31T09:17:21Z</datestamp>
      <setSpec>user-biosyslit</setSpec>
    </header>
    <header>
      <identifier>oai:zenodo.org:452796</identifier>
      <datestamp>2017-04-04T07:41:05Z</datestamp>
      <setSpec>user-biosyslit</setSpec>
    </header>
    <header>
      <identifier>oai:zenodo.org:450968</identifier>
      <datestamp>2017-04-04T07:17:17Z</datestamp>
      <setSpec>user-biosyslit</setSpec>
    </header>
    <header>
      <identifier>oai:zenodo.org:495321</identifier>
      <datestamp>2017-04-06T07:53:51Z</datestamp>
      <setSpec>user-biosyslit</setSpec>
    </header>
    <header>
      <identifier>oai:zenodo.org:495292</identifier>
      <datestamp>2017-04-06T07:22:45Z</datestamp>
      <setSpec>user-biosyslit</setSpec>
    </header>
    <header>
      <identifier>oai:zenodo.org:495313</identifier>
      <datestamp>2017-04-06T07:46:45Z</datestamp>
      <setSpec>user-biosyslit</setSpec>
    </header>
    <header>
      <identifier>oai:zenodo.org:495324</identifier>
      <datestamp>2017-04-06T07:53:59Z</datestamp>
      <setSpec>user-biosyslit</setSpec>
    </header>
    <header>
      <identifier>oai:zenodo.org:496118</identifier>
      <datestamp>2017-04-28T10:58:13Z</datestamp>
      <setSpec>openaire</setSpec>
      <setSpec>user-biosyslit</setSpec>
    </header>
    <header>
      <identifier>oai:zenodo.org:545908</identifier>
      <datestamp>2017-04-13T08:02:05Z</datestamp>
      <setSpec>user-biosyslit</setSpec>
    </header>
    <header>
      <identifier>oai:zenodo.org:546821</identifier>
      <datestamp>2017-04-18T07:31:12Z</datestamp>
      <setSpec>user-biosyslit</setSpec>
    </header>
    <header>
      <identifier>oai:zenodo.org:556491</identifier>
      <datestamp>2017-04-21T08:45:51Z</datestamp>
      <setSpec>user-biosyslit</setSpec>
    </header>
    <header>
      <identifier>oai:zenodo.org:556050</identifier>
      <datestamp>2017-04-19T07:37:27Z</datestamp>
      <setSpec>user-biosyslit</setSpec>
    </header>
    <header>
      <identifier>oai:zenodo.org:556037</identifier>
      <datestamp>2017-04-19T07:30:14Z</datestamp>
      <setSpec>user-biosyslit</setSpec>
    </header>
    <header>
      <identifier>oai:zenodo.org:556012</identifier>
      <datestamp>2017-04-19T07:17:19Z</datestamp>
      <setSpec>user-biosyslit</setSpec>
    </header>
    <header>
      <identifier>oai:zenodo.org:556881</identifier>
      <datestamp>2017-04-24T08:06:12Z</datestamp>
      <setSpec>user-biosyslit</setSpec>
    </header>
    <header>
      <identifier>oai:zenodo.org:569730</identifier>
      <datestamp>2017-04-28T07:21:38Z</datestamp>
      <setSpec>user-biosyslit</setSpec>
    </header>
    <header>
      <identifier>oai:zenodo.org:569771</identifier>
      <datestamp>2017-04-28T07:57:35Z</datestamp>
      <setSpec>user-biosyslit</setSpec>
    </header>
    <header>
      <identifier>oai:zenodo.org:570437</identifier>
      <datestamp>2017-05-02T07:51:23Z</datestamp>
      <setSpec>user-biosyslit</setSpec>
    </header>
    <header>
      <identifier>oai:zenodo.org:571006</identifier>
      <datestamp>2017-05-03T07:31:03Z</datestamp>
      <setSpec>user-biosyslit</setSpec>
    </header>
    <header>
      <identifier>oai:zenodo.org:569064</identifier>
      <datestamp>2017-04-28T10:53:32Z</datestamp>
      <setSpec>openaire</setSpec>
      <setSpec>user-modphytomorphol</setSpec>
      <setSpec>user-biosyslit</setSpec>
    </header>
    <header>
      <identifier>oai:zenodo.org:569406</identifier>
      <datestamp>2017-04-27T07:16:52Z</datestamp>
      <setSpec>user-biosyslit</setSpec>
    </header>
    <header>
      <identifier>oai:zenodo.org:571038</identifier>
      <datestamp>2017-05-03T08:03:53Z</datestamp>
      <setSpec>user-biosyslit</setSpec>
    </header>
    <header>
      <identifier>oai:zenodo.org:570423</identifier>
      <datestamp>2017-05-02T07:38:34Z</datestamp>
      <setSpec>user-biosyslit</setSpec>
    </header>
    <header>
      <identifier>oai:zenodo.org:572603</identifier>
      <datestamp>2017-05-08T11:00:04Z</datestamp>
      <setSpec>user-biosyslit</setSpec>
    </header>
    <header>
      <identifier>oai:zenodo.org:570405</identifier>
      <datestamp>2017-05-02T07:19:07Z</datestamp>
      <setSpec>user-biosyslit</setSpec>
    </header>
    <header>
      <identifier>oai:zenodo.org:570414</identifier>
      <datestamp>2017-05-02T07:19:28Z</datestamp>
      <setSpec>user-biosyslit</setSpec>
    </header>
    <header>
      <identifier>oai:zenodo.org:571316</identifier>
      <datestamp>2017-05-04T07:40:52Z</datestamp>
      <setSpec>user-biosyslit</setSpec>
    </header>
    <header>
      <identifier>oai:zenodo.org:572505</identifier>
      <datestamp>2017-05-08T07:19:08Z</datestamp>
      <setSpec>user-biosyslit</setSpec>
    </header>
    <header>
      <identifier>oai:zenodo.org:571333</identifier>
      <datestamp>2017-05-04T07:41:38Z</datestamp>
      <setSpec>user-biosyslit</setSpec>
    </header>
    <header>
      <identifier>oai:zenodo.org:571710</identifier>
      <datestamp>2017-05-05T08:35:21Z</datestamp>
      <setSpec>user-biosyslit</setSpec>
    </header>
    <header>
      <identifier>oai:zenodo.org:571693</identifier>
      <datestamp>2017-05-05T08:34:38Z</datestamp>
      <setSpec>user-biosyslit</setSpec>
    </header>
    <header>
      <identifier>oai:zenodo.org:571335</identifier>
      <datestamp>2017-05-04T07:41:43Z</datestamp>
      <setSpec>user-biosyslit</setSpec>
    </header>
    <header>
      <identifier>oai:zenodo.org:571645</identifier>
      <datestamp>2017-05-05T08:11:16Z</datestamp>
      <setSpec>user-biosyslit</setSpec>
    </header>
    <header>
      <identifier>oai:zenodo.org:572515</identifier>
      <datestamp>2017-05-08T07:19:32Z</datestamp>
      <setSpec>user-biosyslit</setSpec>
    </header>
    <header>
      <identifier>oai:zenodo.org:572538</identifier>
      <datestamp>2017-05-08T07:35:37Z</datestamp>
      <setSpec>user-biosyslit</setSpec>
    </header>
    <header>
      <identifier>oai:zenodo.org:572625</identifier>
      <datestamp>2017-05-08T11:41:09Z</datestamp>
      <setSpec>user-biosyslit</setSpec>
    </header>
    <header>
      <identifier>oai:zenodo.org:573062</identifier>
      <datestamp>2017-05-09T07:19:06Z</datestamp>
      <setSpec>user-biosyslit</setSpec>
    </header>
    <header>
      <identifier>oai:zenodo.org:573063</identifier>
      <datestamp>2017-05-09T07:19:09Z</datestamp>
      <setSpec>user-biosyslit</setSpec>
    </header>
    <header>
      <identifier>oai:zenodo.org:573111</identifier>
      <datestamp>2017-05-09T08:19:52Z</datestamp>
      <setSpec>user-biosyslit</setSpec>
    </header>
    <header>
      <identifier>oai:zenodo.org:573104</identifier>
      <datestamp>2017-05-09T08:08:07Z</datestamp>
      <setSpec>user-biosyslit</setSpec>
    </header>
    <header>
      <identifier>oai:zenodo.org:571624</identifier>
      <datestamp>2017-05-05T08:10:27Z</datestamp>
      <setSpec>user-biosyslit</setSpec>
    </header>
    <header>
      <identifier>oai:zenodo.org:571326</identifier>
      <datestamp>2017-05-04T07:41:20Z</datestamp>
      <setSpec>user-biosyslit</setSpec>
    </header>
    <header>
      <identifier>oai:zenodo.org:571609</identifier>
      <datestamp>2017-05-05T08:09:48Z</datestamp>
      <setSpec>user-biosyslit</setSpec>
    </header>
    <header>
      <identifier>oai:zenodo.org:571648</identifier>
      <datestamp>2017-05-05T08:11:24Z</datestamp>
      <setSpec>user-biosyslit</setSpec>
    </header>
    <header>
      <identifier>oai:zenodo.org:571681</identifier>
      <datestamp>2017-05-05T08:12:42Z</datestamp>
      <setSpec>user-biosyslit</setSpec>
    </header>
    <header>
      <identifier>oai:zenodo.org:571679</identifier>
      <datestamp>2017-05-05T08:12:37Z</datestamp>
      <setSpec>user-biosyslit</setSpec>
    </header>
    <header>
      <identifier>oai:zenodo.org:571657</identifier>
      <datestamp>2017-05-05T08:11:46Z</datestamp>
      <setSpec>user-biosyslit</setSpec>
    </header>
    <header>
      <identifier>oai:zenodo.org:571677</identifier>
      <datestamp>2017-05-05T08:12:31Z</datestamp>
      <setSpec>user-biosyslit</setSpec>
    </header>
    <header>
      <identifier>oai:zenodo.org:572540</identifier>
      <datestamp>2017-05-08T07:35:49Z</datestamp>
      <setSpec>user-biosyslit</setSpec>
    </header>
    <header>
      <identifier>oai:zenodo.org:572558</identifier>
      <datestamp>2017-05-08T08:08:05Z</datestamp>
      <setSpec>user-biosyslit</setSpec>
    </header>
    <header>
      <identifier>oai:zenodo.org:573188</identifier>
      <datestamp>2017-05-09T09:31:32Z</datestamp>
      <setSpec>user-biosyslit</setSpec>
    </header>
    <header>
      <identifier>oai:zenodo.org:573087</identifier>
      <datestamp>2017-05-09T07:49:00Z</datestamp>
      <setSpec>user-biosyslit</setSpec>
    </header>
    <header>
      <identifier>oai:zenodo.org:573126</identifier>
      <datestamp>2017-05-09T08:28:29Z</datestamp>
      <setSpec>user-biosyslit</setSpec>
    </header>
    <header>
      <identifier>oai:zenodo.org:571310</identifier>
      <datestamp>2017-05-04T07:40:35Z</datestamp>
      <setSpec>user-biosyslit</setSpec>
    </header>
    <header>
      <identifier>oai:zenodo.org:572554</identifier>
      <datestamp>2017-05-08T07:54:26Z</datestamp>
      <setSpec>user-biosyslit</setSpec>
    </header>
    <header>
      <identifier>oai:zenodo.org:569187</identifier>
      <datestamp>2017-04-26T09:00:15Z</datestamp>
      <setSpec>user-biosyslit</setSpec>
    </header>
    <header>
      <identifier>oai:zenodo.org:570083</identifier>
      <datestamp>2017-05-01T07:13:45Z</datestamp>
      <setSpec>user-biosyslit</setSpec>
    </header>
    <header>
      <identifier>oai:zenodo.org:569183</identifier>
      <datestamp>2017-04-26T08:51:43Z</datestamp>
      <setSpec>user-biosyslit</setSpec>
    </header>
    <header>
      <identifier>oai:zenodo.org:570451</identifier>
      <datestamp>2017-05-02T08:10:41Z</datestamp>
      <setSpec>user-biosyslit</setSpec>
    </header>
    <header>
      <identifier>oai:zenodo.org:569469</identifier>
      <datestamp>2017-04-27T08:53:09Z</datestamp>
      <setSpec>user-biosyslit</setSpec>
    </header>
    <header>
      <identifier>oai:zenodo.org:569448</identifier>
      <datestamp>2017-04-27T08:26:39Z</datestamp>
      <setSpec>user-biosyslit</setSpec>
    </header>
    <header>
      <identifier>oai:zenodo.org:569127</identifier>
      <datestamp>2017-04-26T08:11:25Z</datestamp>
      <setSpec>user-biosyslit</setSpec>
    </header>
    <header>
      <identifier>oai:zenodo.org:571020</identifier>
      <datestamp>2017-05-03T07:41:59Z</datestamp>
      <setSpec>user-biosyslit</setSpec>
    </header>
    <header>
      <identifier>oai:zenodo.org:569117</identifier>
      <datestamp>2017-04-26T08:11:04Z</datestamp>
      <setSpec>user-biosyslit</setSpec>
    </header>
    <header>
      <identifier>oai:zenodo.org:569134</identifier>
      <datestamp>2017-04-26T08:16:43Z</datestamp>
      <setSpec>user-biosyslit</setSpec>
    </header>
    <header>
      <identifier>oai:zenodo.org:570438</identifier>
      <datestamp>2017-05-02T07:51:32Z</datestamp>
      <setSpec>user-biosyslit</setSpec>
    </header>
    <header>
      <identifier>oai:zenodo.org:569787</identifier>
      <datestamp>2017-04-28T08:24:52Z</datestamp>
      <setSpec>user-biosyslit</setSpec>
    </header>
    <header>
      <identifier>oai:zenodo.org:570418</identifier>
      <datestamp>2017-05-02T07:27:43Z</datestamp>
      <setSpec>user-biosyslit</setSpec>
    </header>
    <header>
      <identifier>oai:zenodo.org:571028</identifier>
      <datestamp>2017-05-03T07:54:22Z</datestamp>
      <setSpec>user-biosyslit</setSpec>
    </header>
    <header>
      <identifier>oai:zenodo.org:572550</identifier>
      <datestamp>2017-05-08T07:54:11Z</datestamp>
      <setSpec>user-biosyslit</setSpec>
    </header>
    <header>
      <identifier>oai:zenodo.org:572615</identifier>
      <datestamp>2017-05-08T11:33:38Z</datestamp>
      <setSpec>user-biosyslit</setSpec>
    </header>
    <header>
      <identifier>oai:zenodo.org:571331</identifier>
      <datestamp>2017-05-04T07:41:33Z</datestamp>
      <setSpec>user-biosyslit</setSpec>
    </header>
    <header>
      <identifier>oai:zenodo.org:571629</identifier>
      <datestamp>2017-05-05T08:10:38Z</datestamp>
      <setSpec>user-biosyslit</setSpec>
    </header>
    <header>
      <identifier>oai:zenodo.org:571623</identifier>
      <datestamp>2017-05-05T08:10:25Z</datestamp>
      <setSpec>user-biosyslit</setSpec>
    </header>
    <header>
      <identifier>oai:zenodo.org:571696</identifier>
      <datestamp>2017-05-05T08:34:43Z</datestamp>
      <setSpec>user-biosyslit</setSpec>
    </header>
    <header>
      <identifier>oai:zenodo.org:573082</identifier>
      <datestamp>2017-05-09T07:51:06Z</datestamp>
      <setSpec>user-biosyslit</setSpec>
    </header>
    <header>
      <identifier>oai:zenodo.org:572568</identifier>
      <datestamp>2017-05-08T08:24:52Z</datestamp>
      <setSpec>user-biosyslit</setSpec>
    </header>
    <header>
      <identifier>oai:zenodo.org:572589</identifier>
      <datestamp>2017-05-08T10:39:07Z</datestamp>
      <setSpec>user-biosyslit</setSpec>
    </header>
    <header>
      <identifier>oai:zenodo.org:572521</identifier>
      <datestamp>2017-05-08T07:19:46Z</datestamp>
      <setSpec>user-biosyslit</setSpec>
    </header>
    <header>
      <identifier>oai:zenodo.org:569169</identifier>
      <datestamp>2017-04-26T08:43:30Z</datestamp>
      <setSpec>user-biosyslit</setSpec>
    </header>
    <header>
      <identifier>oai:zenodo.org:572599</identifier>
      <datestamp>2017-05-08T10:51:06Z</datestamp>
      <setSpec>user-biosyslit</setSpec>
    </header>
    <header>
      <identifier>oai:zenodo.org:572534</identifier>
      <datestamp>2017-05-08T07:35:24Z</datestamp>
      <setSpec>user-biosyslit</setSpec>
    </header>
    <header>
      <identifier>oai:zenodo.org:573090</identifier>
      <datestamp>2017-05-09T07:51:05Z</datestamp>
      <setSpec>user-biosyslit</setSpec>
    </header>
    <header>
      <identifier>oai:zenodo.org:573105</identifier>
      <datestamp>2017-05-09T08:08:43Z</datestamp>
      <setSpec>user-biosyslit</setSpec>
    </header>
    <resumptionToken expirationDate="2017-08-31T15:44:17Z" cursor="19700" completeListSize="77796">.eJyNyj0LgkAYAOD_8s4S91GeCi1iiYPKdSnpEqYi5VnhFemJ_72W5pqfZwJV1xU4aEGYSewVXVKTWiYjlgGq7G9SHs8fhvKQyvIqk8JPn7suRRlpWOSpIfQyGukWxR3WYsvJAVtDckYj3yePTO-GlAYvgTYs1HyMLsHnVTT2ZX7y7yK5ulKQqo83fBTYFTktvw__-fTP56k1GHAvmhocbNsGtK-ibxQ40zy_Aaa4UU8.DIm_2Q.NwlXbm12q7-88IrYsO4Z_hYsHtE</resumptionToken>
  </ListIdentifiers>
</OAI-PMH>
