<?xml version='1.0' encoding='UTF-8'?>
<?xml-stylesheet type="text/xsl" href="/static/xsl/oai2.v1.0.xsl"?>
<OAI-PMH xmlns="http://www.openarchives.org/OAI/2.0/" xmlns:xsi="http://www.w3.org/2001/XMLSchema-instance" xsi:schemaLocation="http://www.openarchives.org/OAI/2.0/ http://www.openarchives.org/OAI/2.0/OAI-PMH.xsd">
  <responseDate>2017-08-31T15:43:13Z</responseDate>
  <request verb="ListIdentifiers" resumptionToken=".eJyNysEKgjAYAOB3-c8SmwvnhC6hiYcUXUp6CVMRa5q4Qp347nXpXOfvW0BWVQkW2piYIcbMLdUZogYzNJDF8BDi0nwYinMiik7EuZu8ojZBqV5T35bT0U6Jr-4oaLHih1A_Y3OKGzSHp_iZqmhKiDdy5NCjCmf_5n1eSQJXZFe353G3F1wvh8AJZ473PCPF9-E_n_r5bLkDDfq8rsAihGpwH_OhlmAt6_oGsmpRVg.DInAEQ.N_wpl6Rt_QE_IeZtKRR2Y-FUDP0">https://zenodo.org/oai2d</request>
  <ListIdentifiers>
    <header>
      <identifier>oai:zenodo.org:279015</identifier>
      <datestamp>2017-02-09T00:25:31Z</datestamp>
      <setSpec>user-biosyslit</setSpec>
    </header>
    <header>
      <identifier>oai:zenodo.org:248448</identifier>
      <datestamp>2017-01-17T04:12:15Z</datestamp>
      <setSpec>user-biosyslit</setSpec>
    </header>
    <header>
      <identifier>oai:zenodo.org:279013</identifier>
      <datestamp>2017-02-09T00:25:25Z</datestamp>
      <setSpec>user-biosyslit</setSpec>
    </header>
    <header>
      <identifier>oai:zenodo.org:248446</identifier>
      <datestamp>2017-01-17T04:12:09Z</datestamp>
      <setSpec>user-biosyslit</setSpec>
    </header>
    <header>
      <identifier>oai:zenodo.org:248453</identifier>
      <datestamp>2017-01-17T04:12:30Z</datestamp>
      <setSpec>user-biosyslit</setSpec>
    </header>
    <header>
      <identifier>oai:zenodo.org:248452</identifier>
      <datestamp>2017-01-17T04:12:27Z</datestamp>
      <setSpec>user-biosyslit</setSpec>
    </header>
    <header>
      <identifier>oai:zenodo.org:279020</identifier>
      <datestamp>2017-02-09T00:25:44Z</datestamp>
      <setSpec>user-biosyslit</setSpec>
    </header>
    <header>
      <identifier>oai:zenodo.org:279010</identifier>
      <datestamp>2017-02-09T00:25:45Z</datestamp>
      <setSpec>user-biosyslit</setSpec>
    </header>
    <header>
      <identifier>oai:zenodo.org:280800</identifier>
      <datestamp>2017-02-09T04:06:44Z</datestamp>
      <setSpec>user-biosyslit</setSpec>
    </header>
    <header>
      <identifier>oai:zenodo.org:277639</identifier>
      <datestamp>2017-02-08T21:31:59Z</datestamp>
      <setSpec>user-biosyslit</setSpec>
    </header>
    <header>
      <identifier>oai:zenodo.org:249159</identifier>
      <datestamp>2017-01-17T17:04:50Z</datestamp>
      <setSpec>user-biosyslit</setSpec>
    </header>
    <header>
      <identifier>oai:zenodo.org:249162</identifier>
      <datestamp>2017-01-17T17:04:58Z</datestamp>
      <setSpec>user-biosyslit</setSpec>
    </header>
    <header>
      <identifier>oai:zenodo.org:249164</identifier>
      <datestamp>2017-01-17T17:05:03Z</datestamp>
      <setSpec>user-biosyslit</setSpec>
    </header>
    <header>
      <identifier>oai:zenodo.org:249161</identifier>
      <datestamp>2017-01-17T17:04:55Z</datestamp>
      <setSpec>user-biosyslit</setSpec>
    </header>
    <header>
      <identifier>oai:zenodo.org:249166</identifier>
      <datestamp>2017-01-17T17:05:08Z</datestamp>
      <setSpec>user-biosyslit</setSpec>
    </header>
    <header>
      <identifier>oai:zenodo.org:285513</identifier>
      <datestamp>2017-02-09T13:47:06Z</datestamp>
      <setSpec>user-biosyslit</setSpec>
    </header>
    <header>
      <identifier>oai:zenodo.org:244193</identifier>
      <datestamp>2017-01-14T17:28:56Z</datestamp>
      <setSpec>user-biosyslit</setSpec>
    </header>
    <header>
      <identifier>oai:zenodo.org:244190</identifier>
      <datestamp>2017-01-14T17:28:47Z</datestamp>
      <setSpec>user-biosyslit</setSpec>
    </header>
    <header>
      <identifier>oai:zenodo.org:244191</identifier>
      <datestamp>2017-01-14T17:28:50Z</datestamp>
      <setSpec>user-biosyslit</setSpec>
    </header>
    <header>
      <identifier>oai:zenodo.org:285523</identifier>
      <datestamp>2017-02-09T13:47:03Z</datestamp>
      <setSpec>user-biosyslit</setSpec>
    </header>
    <header>
      <identifier>oai:zenodo.org:285514</identifier>
      <datestamp>2017-02-09T13:46:39Z</datestamp>
      <setSpec>user-biosyslit</setSpec>
    </header>
    <header>
      <identifier>oai:zenodo.org:285522</identifier>
      <datestamp>2017-02-09T13:47:01Z</datestamp>
      <setSpec>user-biosyslit</setSpec>
    </header>
    <header>
      <identifier>oai:zenodo.org:285519</identifier>
      <datestamp>2017-02-09T13:46:53Z</datestamp>
      <setSpec>user-biosyslit</setSpec>
    </header>
    <header>
      <identifier>oai:zenodo.org:285518</identifier>
      <datestamp>2017-02-09T13:46:50Z</datestamp>
      <setSpec>user-biosyslit</setSpec>
    </header>
    <header>
      <identifier>oai:zenodo.org:227964</identifier>
      <datestamp>2017-01-02T07:54:38Z</datestamp>
      <setSpec>user-biosyslit</setSpec>
    </header>
    <header>
      <identifier>oai:zenodo.org:227963</identifier>
      <datestamp>2017-01-02T07:54:35Z</datestamp>
      <setSpec>user-biosyslit</setSpec>
    </header>
    <header>
      <identifier>oai:zenodo.org:227961</identifier>
      <datestamp>2017-01-02T07:54:27Z</datestamp>
      <setSpec>user-biosyslit</setSpec>
    </header>
    <header>
      <identifier>oai:zenodo.org:227962</identifier>
      <datestamp>2017-01-02T07:54:31Z</datestamp>
      <setSpec>user-biosyslit</setSpec>
    </header>
    <header>
      <identifier>oai:zenodo.org:227959</identifier>
      <datestamp>2017-01-02T07:54:22Z</datestamp>
      <setSpec>user-biosyslit</setSpec>
    </header>
    <header>
      <identifier>oai:zenodo.org:283643</identifier>
      <datestamp>2017-02-09T09:21:15Z</datestamp>
      <setSpec>user-biosyslit</setSpec>
    </header>
    <header>
      <identifier>oai:zenodo.org:283649</identifier>
      <datestamp>2017-02-09T09:21:13Z</datestamp>
      <setSpec>user-biosyslit</setSpec>
    </header>
    <header>
      <identifier>oai:zenodo.org:235133</identifier>
      <datestamp>2017-01-09T05:54:12Z</datestamp>
      <setSpec>user-biosyslit</setSpec>
    </header>
    <header>
      <identifier>oai:zenodo.org:235132</identifier>
      <datestamp>2017-01-09T05:54:09Z</datestamp>
      <setSpec>user-biosyslit</setSpec>
    </header>
    <header>
      <identifier>oai:zenodo.org:235134</identifier>
      <datestamp>2017-01-09T05:54:15Z</datestamp>
      <setSpec>user-biosyslit</setSpec>
    </header>
    <header>
      <identifier>oai:zenodo.org:235130</identifier>
      <datestamp>2017-01-09T05:54:02Z</datestamp>
      <setSpec>user-biosyslit</setSpec>
    </header>
    <header>
      <identifier>oai:zenodo.org:235136</identifier>
      <datestamp>2017-01-09T05:54:22Z</datestamp>
      <setSpec>user-biosyslit</setSpec>
    </header>
    <header>
      <identifier>oai:zenodo.org:235139</identifier>
      <datestamp>2017-01-09T05:54:33Z</datestamp>
      <setSpec>user-biosyslit</setSpec>
    </header>
    <header>
      <identifier>oai:zenodo.org:235138</identifier>
      <datestamp>2017-01-09T05:54:29Z</datestamp>
      <setSpec>user-biosyslit</setSpec>
    </header>
    <header>
      <identifier>oai:zenodo.org:235137</identifier>
      <datestamp>2017-01-09T05:54:25Z</datestamp>
      <setSpec>user-biosyslit</setSpec>
    </header>
    <header>
      <identifier>oai:zenodo.org:235140</identifier>
      <datestamp>2017-01-09T05:54:35Z</datestamp>
      <setSpec>user-biosyslit</setSpec>
    </header>
    <header>
      <identifier>oai:zenodo.org:271417</identifier>
      <datestamp>2017-02-08T01:37:55Z</datestamp>
      <setSpec>user-biosyslit</setSpec>
    </header>
    <header>
      <identifier>oai:zenodo.org:399478</identifier>
      <datestamp>2017-03-15T21:49:21Z</datestamp>
      <setSpec>user-biosyslit</setSpec>
    </header>
    <header>
      <identifier>oai:zenodo.org:235144</identifier>
      <datestamp>2017-01-09T05:54:51Z</datestamp>
      <setSpec>user-biosyslit</setSpec>
    </header>
    <header>
      <identifier>oai:zenodo.org:399486</identifier>
      <datestamp>2017-03-15T21:49:45Z</datestamp>
      <setSpec>user-biosyslit</setSpec>
    </header>
    <header>
      <identifier>oai:zenodo.org:399481</identifier>
      <datestamp>2017-03-15T21:49:31Z</datestamp>
      <setSpec>user-biosyslit</setSpec>
    </header>
    <header>
      <identifier>oai:zenodo.org:399480</identifier>
      <datestamp>2017-03-15T21:49:28Z</datestamp>
      <setSpec>user-biosyslit</setSpec>
    </header>
    <header>
      <identifier>oai:zenodo.org:235142</identifier>
      <datestamp>2017-01-09T05:54:42Z</datestamp>
      <setSpec>user-biosyslit</setSpec>
    </header>
    <header>
      <identifier>oai:zenodo.org:235143</identifier>
      <datestamp>2017-01-09T05:54:47Z</datestamp>
      <setSpec>user-biosyslit</setSpec>
    </header>
    <header>
      <identifier>oai:zenodo.org:235141</identifier>
      <datestamp>2017-01-09T05:54:38Z</datestamp>
      <setSpec>user-biosyslit</setSpec>
    </header>
    <header>
      <identifier>oai:zenodo.org:230193</identifier>
      <datestamp>2017-01-04T20:59:30Z</datestamp>
      <setSpec>user-biosyslit</setSpec>
    </header>
    <header>
      <identifier>oai:zenodo.org:288174</identifier>
      <datestamp>2017-02-09T20:10:50Z</datestamp>
      <setSpec>user-biosyslit</setSpec>
    </header>
    <header>
      <identifier>oai:zenodo.org:251239</identifier>
      <datestamp>2017-01-18T20:24:38Z</datestamp>
      <setSpec>user-biosyslit</setSpec>
    </header>
    <header>
      <identifier>oai:zenodo.org:251241</identifier>
      <datestamp>2017-01-18T20:24:47Z</datestamp>
      <setSpec>user-biosyslit</setSpec>
    </header>
    <header>
      <identifier>oai:zenodo.org:251240</identifier>
      <datestamp>2017-01-18T20:24:43Z</datestamp>
      <setSpec>user-biosyslit</setSpec>
    </header>
    <header>
      <identifier>oai:zenodo.org:251236</identifier>
      <datestamp>2017-01-18T20:24:28Z</datestamp>
      <setSpec>user-biosyslit</setSpec>
    </header>
    <header>
      <identifier>oai:zenodo.org:251237</identifier>
      <datestamp>2017-01-18T20:24:31Z</datestamp>
      <setSpec>user-biosyslit</setSpec>
    </header>
    <header>
      <identifier>oai:zenodo.org:289336</identifier>
      <datestamp>2017-02-09T23:17:45Z</datestamp>
      <setSpec>user-biosyslit</setSpec>
    </header>
    <header>
      <identifier>oai:zenodo.org:289332</identifier>
      <datestamp>2017-02-09T23:17:34Z</datestamp>
      <setSpec>user-biosyslit</setSpec>
    </header>
    <header>
      <identifier>oai:zenodo.org:289333</identifier>
      <datestamp>2017-02-09T23:17:37Z</datestamp>
      <setSpec>user-biosyslit</setSpec>
    </header>
    <header>
      <identifier>oai:zenodo.org:289337</identifier>
      <datestamp>2017-02-09T23:17:47Z</datestamp>
      <setSpec>user-biosyslit</setSpec>
    </header>
    <header>
      <identifier>oai:zenodo.org:289334</identifier>
      <datestamp>2017-02-09T23:17:39Z</datestamp>
      <setSpec>user-biosyslit</setSpec>
    </header>
    <header>
      <identifier>oai:zenodo.org:289325</identifier>
      <datestamp>2017-02-09T23:17:20Z</datestamp>
      <setSpec>user-biosyslit</setSpec>
    </header>
    <header>
      <identifier>oai:zenodo.org:289328</identifier>
      <datestamp>2017-02-09T23:17:26Z</datestamp>
      <setSpec>user-biosyslit</setSpec>
    </header>
    <header>
      <identifier>oai:zenodo.org:289326</identifier>
      <datestamp>2017-02-09T23:17:22Z</datestamp>
      <setSpec>user-biosyslit</setSpec>
    </header>
    <header>
      <identifier>oai:zenodo.org:289327</identifier>
      <datestamp>2017-02-09T23:17:24Z</datestamp>
      <setSpec>user-biosyslit</setSpec>
    </header>
    <header>
      <identifier>oai:zenodo.org:271427</identifier>
      <datestamp>2017-02-08T01:38:31Z</datestamp>
      <setSpec>user-biosyslit</setSpec>
    </header>
    <header>
      <identifier>oai:zenodo.org:271423</identifier>
      <datestamp>2017-02-08T01:38:20Z</datestamp>
      <setSpec>user-biosyslit</setSpec>
    </header>
    <header>
      <identifier>oai:zenodo.org:271426</identifier>
      <datestamp>2017-02-08T01:38:27Z</datestamp>
      <setSpec>user-biosyslit</setSpec>
    </header>
    <header>
      <identifier>oai:zenodo.org:271422</identifier>
      <datestamp>2017-02-08T01:38:18Z</datestamp>
      <setSpec>user-biosyslit</setSpec>
    </header>
    <header>
      <identifier>oai:zenodo.org:271424</identifier>
      <datestamp>2017-02-08T01:38:22Z</datestamp>
      <setSpec>user-biosyslit</setSpec>
    </header>
    <header>
      <identifier>oai:zenodo.org:271420</identifier>
      <datestamp>2017-02-08T01:38:11Z</datestamp>
      <setSpec>user-biosyslit</setSpec>
    </header>
    <header>
      <identifier>oai:zenodo.org:251121</identifier>
      <datestamp>2017-01-18T19:01:22Z</datestamp>
      <setSpec>user-biosyslit</setSpec>
    </header>
    <header>
      <identifier>oai:zenodo.org:249197</identifier>
      <datestamp>2017-01-17T17:17:25Z</datestamp>
      <setSpec>user-biosyslit</setSpec>
    </header>
    <header>
      <identifier>oai:zenodo.org:242190</identifier>
      <datestamp>2017-01-13T11:48:23Z</datestamp>
      <setSpec>user-biosyslit</setSpec>
    </header>
    <header>
      <identifier>oai:zenodo.org:242191</identifier>
      <datestamp>2017-01-13T11:48:26Z</datestamp>
      <setSpec>user-biosyslit</setSpec>
    </header>
    <header>
      <identifier>oai:zenodo.org:249194</identifier>
      <datestamp>2017-01-17T17:17:17Z</datestamp>
      <setSpec>user-biosyslit</setSpec>
    </header>
    <header>
      <identifier>oai:zenodo.org:249195</identifier>
      <datestamp>2017-01-17T17:17:19Z</datestamp>
      <setSpec>user-biosyslit</setSpec>
    </header>
    <header>
      <identifier>oai:zenodo.org:276614</identifier>
      <datestamp>2017-02-08T19:18:56Z</datestamp>
      <setSpec>user-biosyslit</setSpec>
    </header>
    <header>
      <identifier>oai:zenodo.org:276604</identifier>
      <datestamp>2017-02-08T19:18:27Z</datestamp>
      <setSpec>user-biosyslit</setSpec>
    </header>
    <header>
      <identifier>oai:zenodo.org:276606</identifier>
      <datestamp>2017-02-08T19:18:33Z</datestamp>
      <setSpec>user-biosyslit</setSpec>
    </header>
    <header>
      <identifier>oai:zenodo.org:276600</identifier>
      <datestamp>2017-02-08T19:18:12Z</datestamp>
      <setSpec>user-biosyslit</setSpec>
    </header>
    <header>
      <identifier>oai:zenodo.org:276599</identifier>
      <datestamp>2017-02-08T19:18:10Z</datestamp>
      <setSpec>user-biosyslit</setSpec>
    </header>
    <header>
      <identifier>oai:zenodo.org:240599</identifier>
      <datestamp>2017-01-12T10:40:32Z</datestamp>
      <setSpec>user-biosyslit</setSpec>
    </header>
    <header>
      <identifier>oai:zenodo.org:276616</identifier>
      <datestamp>2017-02-08T19:19:01Z</datestamp>
      <setSpec>user-biosyslit</setSpec>
    </header>
    <header>
      <identifier>oai:zenodo.org:230784</identifier>
      <datestamp>2017-01-05T08:25:43Z</datestamp>
      <setSpec>user-biosyslit</setSpec>
    </header>
    <header>
      <identifier>oai:zenodo.org:240236</identifier>
      <datestamp>2017-01-12T06:16:54Z</datestamp>
      <setSpec>user-biosyslit</setSpec>
    </header>
    <header>
      <identifier>oai:zenodo.org:240235</identifier>
      <datestamp>2017-01-12T06:16:50Z</datestamp>
      <setSpec>user-biosyslit</setSpec>
    </header>
    <header>
      <identifier>oai:zenodo.org:240237</identifier>
      <datestamp>2017-01-12T06:16:57Z</datestamp>
      <setSpec>user-biosyslit</setSpec>
    </header>
    <header>
      <identifier>oai:zenodo.org:240238</identifier>
      <datestamp>2017-01-12T06:17:02Z</datestamp>
      <setSpec>user-biosyslit</setSpec>
    </header>
    <header>
      <identifier>oai:zenodo.org:261565</identifier>
      <datestamp>2017-01-28T11:13:12Z</datestamp>
      <setSpec>user-biosyslit</setSpec>
    </header>
    <header>
      <identifier>oai:zenodo.org:261596</identifier>
      <datestamp>2017-01-28T11:13:01Z</datestamp>
      <setSpec>user-biosyslit</setSpec>
    </header>
    <header>
      <identifier>oai:zenodo.org:261597</identifier>
      <datestamp>2017-01-28T11:13:04Z</datestamp>
      <setSpec>user-biosyslit</setSpec>
    </header>
    <header>
      <identifier>oai:zenodo.org:280837</identifier>
      <datestamp>2017-02-09T04:10:36Z</datestamp>
      <setSpec>user-biosyslit</setSpec>
    </header>
    <header>
      <identifier>oai:zenodo.org:283702</identifier>
      <datestamp>2017-02-09T09:32:14Z</datestamp>
      <setSpec>user-biosyslit</setSpec>
    </header>
    <header>
      <identifier>oai:zenodo.org:283717</identifier>
      <datestamp>2017-02-09T09:31:49Z</datestamp>
      <setSpec>user-biosyslit</setSpec>
    </header>
    <header>
      <identifier>oai:zenodo.org:283718</identifier>
      <datestamp>2017-02-09T09:31:52Z</datestamp>
      <setSpec>user-biosyslit</setSpec>
    </header>
    <header>
      <identifier>oai:zenodo.org:283722</identifier>
      <datestamp>2017-02-09T09:32:00Z</datestamp>
      <setSpec>user-biosyslit</setSpec>
    </header>
    <header>
      <identifier>oai:zenodo.org:283715</identifier>
      <datestamp>2017-02-09T09:31:45Z</datestamp>
      <setSpec>user-biosyslit</setSpec>
    </header>
    <header>
      <identifier>oai:zenodo.org:283714</identifier>
      <datestamp>2017-02-09T09:31:43Z</datestamp>
      <setSpec>user-biosyslit</setSpec>
    </header>
    <header>
      <identifier>oai:zenodo.org:283713</identifier>
      <datestamp>2017-02-09T09:31:41Z</datestamp>
      <setSpec>user-biosyslit</setSpec>
    </header>
    <resumptionToken expirationDate="2017-08-31T15:45:13Z" cursor="33600" completeListSize="77796">.eJyNyj0LgkAYAOD_8s4S95GcCS2hiYOKXh7pEqYi5lnhFepJ_72W5pqfZwFV1xXYaLVGFsEUERObdEMIYwaocrhJeWo_DuVRyPIq08ITz6QXKCMNCx01BU5GQ92hqMea72NyxNaUtmiOD-kj08kkqD9y5LJAx3N48T-vopEn87N35-l1JzmphsiNZ453PKfl9-E_n_75HLUFA-5FU4NNqWVANxZDo8BeXq83xLNRZg.DInAEQ.f3IIXCZOutohAiR1uSzyOXjDcLE</resumptionToken>
  </ListIdentifiers>
</OAI-PMH>
