<?xml version='1.0' encoding='UTF-8'?>
<?xml-stylesheet type="text/xsl" href="/static/xsl/oai2.v1.0.xsl"?>
<OAI-PMH xmlns="http://www.openarchives.org/OAI/2.0/" xmlns:xsi="http://www.w3.org/2001/XMLSchema-instance" xsi:schemaLocation="http://www.openarchives.org/OAI/2.0/ http://www.openarchives.org/OAI/2.0/OAI-PMH.xsd">
  <responseDate>2017-08-31T15:44:09Z</responseDate>
  <request verb="ListIdentifiers" resumptionToken=".eJyNyj0LgkAYAOD_8s4S91GeCS2iSYOKXkq6hKmIdZp4RXrif6-luebnmUFWVQkmWrEtNbChM90gmy1BTANZDHchzs2HoTglouhEnLvJM2oTlJKa-bYcPTulvrqhoMWK70NywsYYN2gKj_EjVdGY0MOLI4d5Kpz86-HzShq4Iru4PY87S3BSDoETThxbPKPF9-E_n_r5bLkDDfq8rsBcM6zB7ZUPtQRzXpY3rSRRTw.DInASQ.keThz-72G-96nzvnX6YVy87ex4o">https://zenodo.org/oai2d</request>
  <ListIdentifiers>
    <header>
      <identifier>oai:zenodo.org:272125</identifier>
      <datestamp>2017-02-08T03:46:36Z</datestamp>
      <setSpec>user-biosyslit</setSpec>
    </header>
    <header>
      <identifier>oai:zenodo.org:240486</identifier>
      <datestamp>2017-01-12T09:05:29Z</datestamp>
      <setSpec>user-biosyslit</setSpec>
    </header>
    <header>
      <identifier>oai:zenodo.org:271886</identifier>
      <datestamp>2017-02-08T02:54:57Z</datestamp>
      <setSpec>user-biosyslit</setSpec>
    </header>
    <header>
      <identifier>oai:zenodo.org:240523</identifier>
      <datestamp>2017-01-12T09:49:59Z</datestamp>
      <setSpec>user-biosyslit</setSpec>
    </header>
    <header>
      <identifier>oai:zenodo.org:241126</identifier>
      <datestamp>2017-01-12T20:16:18Z</datestamp>
      <setSpec>user-biosyslit</setSpec>
    </header>
    <header>
      <identifier>oai:zenodo.org:272244</identifier>
      <datestamp>2017-02-08T04:04:37Z</datestamp>
      <setSpec>user-biosyslit</setSpec>
    </header>
    <header>
      <identifier>oai:zenodo.org:240822</identifier>
      <datestamp>2017-01-12T14:19:41Z</datestamp>
      <setSpec>user-biosyslit</setSpec>
    </header>
    <header>
      <identifier>oai:zenodo.org:241275</identifier>
      <datestamp>2017-01-12T23:26:26Z</datestamp>
      <setSpec>user-biosyslit</setSpec>
    </header>
    <header>
      <identifier>oai:zenodo.org:241376</identifier>
      <datestamp>2017-01-13T00:28:07Z</datestamp>
      <setSpec>user-biosyslit</setSpec>
    </header>
    <header>
      <identifier>oai:zenodo.org:240898</identifier>
      <datestamp>2017-01-12T15:46:41Z</datestamp>
      <setSpec>user-biosyslit</setSpec>
    </header>
    <header>
      <identifier>oai:zenodo.org:272139</identifier>
      <datestamp>2017-02-08T03:48:24Z</datestamp>
      <setSpec>user-biosyslit</setSpec>
    </header>
    <header>
      <identifier>oai:zenodo.org:241106</identifier>
      <datestamp>2017-01-12T20:07:59Z</datestamp>
      <setSpec>user-biosyslit</setSpec>
    </header>
    <header>
      <identifier>oai:zenodo.org:271784</identifier>
      <datestamp>2017-02-08T02:39:44Z</datestamp>
      <setSpec>user-biosyslit</setSpec>
    </header>
    <header>
      <identifier>oai:zenodo.org:289745</identifier>
      <datestamp>2017-02-10T00:25:21Z</datestamp>
      <setSpec>user-biosyslit</setSpec>
    </header>
    <header>
      <identifier>oai:zenodo.org:272200</identifier>
      <datestamp>2017-02-08T03:58:51Z</datestamp>
      <setSpec>user-biosyslit</setSpec>
    </header>
    <header>
      <identifier>oai:zenodo.org:272458</identifier>
      <datestamp>2017-02-08T04:43:31Z</datestamp>
      <setSpec>user-biosyslit</setSpec>
    </header>
    <header>
      <identifier>oai:zenodo.org:241304</identifier>
      <datestamp>2017-01-12T23:46:33Z</datestamp>
      <setSpec>user-biosyslit</setSpec>
    </header>
    <header>
      <identifier>oai:zenodo.org:272162</identifier>
      <datestamp>2017-02-08T03:53:18Z</datestamp>
      <setSpec>user-biosyslit</setSpec>
    </header>
    <header>
      <identifier>oai:zenodo.org:271544</identifier>
      <datestamp>2017-02-08T01:54:05Z</datestamp>
      <setSpec>user-biosyslit</setSpec>
    </header>
    <header>
      <identifier>oai:zenodo.org:289019</identifier>
      <datestamp>2017-02-09T22:25:03Z</datestamp>
      <setSpec>user-biosyslit</setSpec>
    </header>
    <header>
      <identifier>oai:zenodo.org:289098</identifier>
      <datestamp>2017-02-09T22:37:51Z</datestamp>
      <setSpec>user-biosyslit</setSpec>
    </header>
    <header>
      <identifier>oai:zenodo.org:271665</identifier>
      <datestamp>2017-02-08T02:10:30Z</datestamp>
      <setSpec>user-biosyslit</setSpec>
    </header>
    <header>
      <identifier>oai:zenodo.org:241711</identifier>
      <datestamp>2017-01-13T05:10:24Z</datestamp>
      <setSpec>user-biosyslit</setSpec>
    </header>
    <header>
      <identifier>oai:zenodo.org:271697</identifier>
      <datestamp>2017-02-08T02:23:36Z</datestamp>
      <setSpec>user-biosyslit</setSpec>
    </header>
    <header>
      <identifier>oai:zenodo.org:242259</identifier>
      <datestamp>2017-01-13T12:37:03Z</datestamp>
      <setSpec>user-biosyslit</setSpec>
    </header>
    <header>
      <identifier>oai:zenodo.org:241687</identifier>
      <datestamp>2017-01-13T05:01:53Z</datestamp>
      <setSpec>user-biosyslit</setSpec>
    </header>
    <header>
      <identifier>oai:zenodo.org:272010</identifier>
      <datestamp>2017-02-08T03:20:21Z</datestamp>
      <setSpec>user-biosyslit</setSpec>
    </header>
    <header>
      <identifier>oai:zenodo.org:272972</identifier>
      <datestamp>2017-02-08T06:56:13Z</datestamp>
      <setSpec>user-biosyslit</setSpec>
    </header>
    <header>
      <identifier>oai:zenodo.org:271887</identifier>
      <datestamp>2017-02-08T02:54:36Z</datestamp>
      <setSpec>user-biosyslit</setSpec>
    </header>
    <header>
      <identifier>oai:zenodo.org:242687</identifier>
      <datestamp>2017-01-13T18:39:10Z</datestamp>
      <setSpec>user-biosyslit</setSpec>
    </header>
    <header>
      <identifier>oai:zenodo.org:242423</identifier>
      <datestamp>2017-01-13T15:14:21Z</datestamp>
      <setSpec>user-biosyslit</setSpec>
    </header>
    <header>
      <identifier>oai:zenodo.org:272183</identifier>
      <datestamp>2017-02-08T03:57:26Z</datestamp>
      <setSpec>user-biosyslit</setSpec>
    </header>
    <header>
      <identifier>oai:zenodo.org:241987</identifier>
      <datestamp>2017-01-13T09:08:02Z</datestamp>
      <setSpec>user-biosyslit</setSpec>
    </header>
    <header>
      <identifier>oai:zenodo.org:242403</identifier>
      <datestamp>2017-01-13T15:06:20Z</datestamp>
      <setSpec>user-biosyslit</setSpec>
    </header>
    <header>
      <identifier>oai:zenodo.org:242414</identifier>
      <datestamp>2017-01-13T15:09:21Z</datestamp>
      <setSpec>user-biosyslit</setSpec>
    </header>
    <header>
      <identifier>oai:zenodo.org:242382</identifier>
      <datestamp>2017-01-13T14:10:06Z</datestamp>
      <setSpec>user-biosyslit</setSpec>
    </header>
    <header>
      <identifier>oai:zenodo.org:242593</identifier>
      <datestamp>2017-01-13T17:29:15Z</datestamp>
      <setSpec>user-biosyslit</setSpec>
    </header>
    <header>
      <identifier>oai:zenodo.org:242880</identifier>
      <datestamp>2017-01-13T20:13:41Z</datestamp>
      <setSpec>user-biosyslit</setSpec>
    </header>
    <header>
      <identifier>oai:zenodo.org:242877</identifier>
      <datestamp>2017-01-13T20:13:48Z</datestamp>
      <setSpec>user-biosyslit</setSpec>
    </header>
    <header>
      <identifier>oai:zenodo.org:272295</identifier>
      <datestamp>2017-02-08T04:11:36Z</datestamp>
      <setSpec>user-biosyslit</setSpec>
    </header>
    <header>
      <identifier>oai:zenodo.org:272111</identifier>
      <datestamp>2017-02-08T03:45:57Z</datestamp>
      <setSpec>user-biosyslit</setSpec>
    </header>
    <header>
      <identifier>oai:zenodo.org:242558</identifier>
      <datestamp>2017-01-13T16:57:19Z</datestamp>
      <setSpec>user-biosyslit</setSpec>
    </header>
    <header>
      <identifier>oai:zenodo.org:243244</identifier>
      <datestamp>2017-01-14T01:37:46Z</datestamp>
      <setSpec>user-biosyslit</setSpec>
    </header>
    <header>
      <identifier>oai:zenodo.org:272026</identifier>
      <datestamp>2017-02-08T03:21:44Z</datestamp>
      <setSpec>user-biosyslit</setSpec>
    </header>
    <header>
      <identifier>oai:zenodo.org:242966</identifier>
      <datestamp>2017-01-13T21:07:53Z</datestamp>
      <setSpec>user-biosyslit</setSpec>
    </header>
    <header>
      <identifier>oai:zenodo.org:244612</identifier>
      <datestamp>2017-01-15T00:05:01Z</datestamp>
      <setSpec>user-biosyslit</setSpec>
    </header>
    <header>
      <identifier>oai:zenodo.org:243281</identifier>
      <datestamp>2017-01-14T02:08:25Z</datestamp>
      <setSpec>user-biosyslit</setSpec>
    </header>
    <header>
      <identifier>oai:zenodo.org:243285</identifier>
      <datestamp>2017-01-14T02:07:23Z</datestamp>
      <setSpec>user-biosyslit</setSpec>
    </header>
    <header>
      <identifier>oai:zenodo.org:243100</identifier>
      <datestamp>2017-01-13T23:19:49Z</datestamp>
      <setSpec>user-biosyslit</setSpec>
    </header>
    <header>
      <identifier>oai:zenodo.org:244270</identifier>
      <datestamp>2017-01-14T18:52:09Z</datestamp>
      <setSpec>user-biosyslit</setSpec>
    </header>
    <header>
      <identifier>oai:zenodo.org:243736</identifier>
      <datestamp>2017-01-14T10:08:58Z</datestamp>
      <setSpec>user-biosyslit</setSpec>
    </header>
    <header>
      <identifier>oai:zenodo.org:243715</identifier>
      <datestamp>2017-01-14T09:53:15Z</datestamp>
      <setSpec>user-biosyslit</setSpec>
    </header>
    <header>
      <identifier>oai:zenodo.org:243943</identifier>
      <datestamp>2017-01-14T13:43:18Z</datestamp>
      <setSpec>user-biosyslit</setSpec>
    </header>
    <header>
      <identifier>oai:zenodo.org:243942</identifier>
      <datestamp>2017-01-14T13:43:14Z</datestamp>
      <setSpec>user-biosyslit</setSpec>
    </header>
    <header>
      <identifier>oai:zenodo.org:272281</identifier>
      <datestamp>2017-02-08T04:10:36Z</datestamp>
      <setSpec>user-biosyslit</setSpec>
    </header>
    <header>
      <identifier>oai:zenodo.org:244738</identifier>
      <datestamp>2017-01-15T01:49:53Z</datestamp>
      <setSpec>user-biosyslit</setSpec>
    </header>
    <header>
      <identifier>oai:zenodo.org:244733</identifier>
      <datestamp>2017-01-15T01:49:38Z</datestamp>
      <setSpec>user-biosyslit</setSpec>
    </header>
    <header>
      <identifier>oai:zenodo.org:244477</identifier>
      <datestamp>2017-01-14T22:28:59Z</datestamp>
      <setSpec>user-biosyslit</setSpec>
    </header>
    <header>
      <identifier>oai:zenodo.org:245867</identifier>
      <datestamp>2017-01-15T19:11:57Z</datestamp>
      <setSpec>user-biosyslit</setSpec>
    </header>
    <header>
      <identifier>oai:zenodo.org:244672</identifier>
      <datestamp>2017-01-15T01:09:48Z</datestamp>
      <setSpec>user-biosyslit</setSpec>
    </header>
    <header>
      <identifier>oai:zenodo.org:245162</identifier>
      <datestamp>2017-01-15T09:02:08Z</datestamp>
      <setSpec>user-biosyslit</setSpec>
    </header>
    <header>
      <identifier>oai:zenodo.org:245732</identifier>
      <datestamp>2017-01-15T17:59:50Z</datestamp>
      <setSpec>user-biosyslit</setSpec>
    </header>
    <header>
      <identifier>oai:zenodo.org:245218</identifier>
      <datestamp>2017-01-15T10:12:07Z</datestamp>
      <setSpec>user-biosyslit</setSpec>
    </header>
    <header>
      <identifier>oai:zenodo.org:272425</identifier>
      <datestamp>2017-02-08T04:35:07Z</datestamp>
      <setSpec>user-biosyslit</setSpec>
    </header>
    <header>
      <identifier>oai:zenodo.org:245771</identifier>
      <datestamp>2017-01-15T18:28:47Z</datestamp>
      <setSpec>user-biosyslit</setSpec>
    </header>
    <header>
      <identifier>oai:zenodo.org:245421</identifier>
      <datestamp>2017-01-15T13:01:15Z</datestamp>
      <setSpec>user-biosyslit</setSpec>
    </header>
    <header>
      <identifier>oai:zenodo.org:289282</identifier>
      <datestamp>2017-02-09T23:09:29Z</datestamp>
      <setSpec>user-biosyslit</setSpec>
    </header>
    <header>
      <identifier>oai:zenodo.org:285130</identifier>
      <datestamp>2017-02-09T12:43:08Z</datestamp>
      <setSpec>user-biosyslit</setSpec>
    </header>
    <header>
      <identifier>oai:zenodo.org:285436</identifier>
      <datestamp>2017-02-09T13:35:38Z</datestamp>
      <setSpec>user-biosyslit</setSpec>
    </header>
    <header>
      <identifier>oai:zenodo.org:285488</identifier>
      <datestamp>2017-02-09T13:42:25Z</datestamp>
      <setSpec>user-biosyslit</setSpec>
    </header>
    <header>
      <identifier>oai:zenodo.org:285438</identifier>
      <datestamp>2017-02-09T13:35:44Z</datestamp>
      <setSpec>user-biosyslit</setSpec>
    </header>
    <header>
      <identifier>oai:zenodo.org:226763</identifier>
      <datestamp>2017-01-01T02:50:33Z</datestamp>
      <setSpec>user-biosyslit</setSpec>
    </header>
    <header>
      <identifier>oai:zenodo.org:226757</identifier>
      <datestamp>2017-01-01T02:49:52Z</datestamp>
      <setSpec>user-biosyslit</setSpec>
    </header>
    <header>
      <identifier>oai:zenodo.org:285559</identifier>
      <datestamp>2017-02-09T13:51:17Z</datestamp>
      <setSpec>user-biosyslit</setSpec>
    </header>
    <header>
      <identifier>oai:zenodo.org:226896</identifier>
      <datestamp>2017-01-01T05:25:14Z</datestamp>
      <setSpec>user-biosyslit</setSpec>
    </header>
    <header>
      <identifier>oai:zenodo.org:286848</identifier>
      <datestamp>2017-02-09T16:57:27Z</datestamp>
      <setSpec>user-biosyslit</setSpec>
    </header>
    <header>
      <identifier>oai:zenodo.org:287284</identifier>
      <datestamp>2017-02-09T17:59:37Z</datestamp>
      <setSpec>user-biosyslit</setSpec>
    </header>
    <header>
      <identifier>oai:zenodo.org:287331</identifier>
      <datestamp>2017-02-09T18:04:09Z</datestamp>
      <setSpec>user-biosyslit</setSpec>
    </header>
    <header>
      <identifier>oai:zenodo.org:288513</identifier>
      <datestamp>2017-02-09T21:05:01Z</datestamp>
      <setSpec>user-biosyslit</setSpec>
    </header>
    <header>
      <identifier>oai:zenodo.org:287256</identifier>
      <datestamp>2017-02-09T17:54:41Z</datestamp>
      <setSpec>user-biosyslit</setSpec>
    </header>
    <header>
      <identifier>oai:zenodo.org:288312</identifier>
      <datestamp>2017-02-09T20:33:35Z</datestamp>
      <setSpec>user-biosyslit</setSpec>
    </header>
    <header>
      <identifier>oai:zenodo.org:287973</identifier>
      <datestamp>2017-02-09T19:42:17Z</datestamp>
      <setSpec>user-biosyslit</setSpec>
    </header>
    <header>
      <identifier>oai:zenodo.org:287220</identifier>
      <datestamp>2017-02-09T17:48:25Z</datestamp>
      <setSpec>user-biosyslit</setSpec>
    </header>
    <header>
      <identifier>oai:zenodo.org:288469</identifier>
      <datestamp>2017-02-09T21:01:55Z</datestamp>
      <setSpec>user-biosyslit</setSpec>
    </header>
    <header>
      <identifier>oai:zenodo.org:288222</identifier>
      <datestamp>2017-02-09T20:20:50Z</datestamp>
      <setSpec>user-biosyslit</setSpec>
    </header>
    <header>
      <identifier>oai:zenodo.org:288546</identifier>
      <datestamp>2017-02-09T21:16:09Z</datestamp>
      <setSpec>user-biosyslit</setSpec>
    </header>
    <header>
      <identifier>oai:zenodo.org:288798</identifier>
      <datestamp>2017-02-09T21:53:25Z</datestamp>
      <setSpec>user-biosyslit</setSpec>
    </header>
    <header>
      <identifier>oai:zenodo.org:289063</identifier>
      <datestamp>2017-02-09T22:34:17Z</datestamp>
      <setSpec>user-biosyslit</setSpec>
    </header>
    <header>
      <identifier>oai:zenodo.org:288025</identifier>
      <datestamp>2017-02-09T19:49:57Z</datestamp>
      <setSpec>user-biosyslit</setSpec>
    </header>
    <header>
      <identifier>oai:zenodo.org:227405</identifier>
      <datestamp>2017-01-01T20:44:33Z</datestamp>
      <setSpec>user-biosyslit</setSpec>
    </header>
    <header>
      <identifier>oai:zenodo.org:227492</identifier>
      <datestamp>2017-01-01T22:13:42Z</datestamp>
      <setSpec>user-biosyslit</setSpec>
    </header>
    <header>
      <identifier>oai:zenodo.org:288620</identifier>
      <datestamp>2017-02-09T21:35:04Z</datestamp>
      <setSpec>user-biosyslit</setSpec>
    </header>
    <header>
      <identifier>oai:zenodo.org:227263</identifier>
      <datestamp>2017-01-01T18:50:53Z</datestamp>
      <setSpec>user-biosyslit</setSpec>
    </header>
    <header>
      <identifier>oai:zenodo.org:227386</identifier>
      <datestamp>2017-01-01T20:04:22Z</datestamp>
      <setSpec>user-biosyslit</setSpec>
    </header>
    <header>
      <identifier>oai:zenodo.org:227529</identifier>
      <datestamp>2017-01-01T23:19:40Z</datestamp>
      <setSpec>user-biosyslit</setSpec>
    </header>
    <header>
      <identifier>oai:zenodo.org:227562</identifier>
      <datestamp>2017-01-01T23:50:38Z</datestamp>
      <setSpec>user-biosyslit</setSpec>
    </header>
    <header>
      <identifier>oai:zenodo.org:227659</identifier>
      <datestamp>2017-01-02T02:02:58Z</datestamp>
      <setSpec>user-biosyslit</setSpec>
    </header>
    <header>
      <identifier>oai:zenodo.org:227276</identifier>
      <datestamp>2017-01-01T18:51:40Z</datestamp>
      <setSpec>user-biosyslit</setSpec>
    </header>
    <header>
      <identifier>oai:zenodo.org:228004</identifier>
      <datestamp>2017-01-02T08:21:48Z</datestamp>
      <setSpec>user-biosyslit</setSpec>
    </header>
    <header>
      <identifier>oai:zenodo.org:495555</identifier>
      <datestamp>2017-04-07T07:51:44Z</datestamp>
      <setSpec>user-biosyslit</setSpec>
    </header>
    <resumptionToken expirationDate="2017-08-31T15:46:09Z" cursor="47000" completeListSize="77796">.eJyNyj0LgkAYAOD_8s4S96WW0BKWOKTYpaRL2CliXiZekZ7432tprvl5JlBlWYCDFjYxMTNNk64sQpnFDFCiv0t5rj8M4pRI0co495Ln4ZaglFR24Kph76Y00A0Kb1jzXUROeDnENRqjY_xI9WFIqP_iaGvvdTQGV__zChp6Mrt4HY_bjeSk6MNtNHK84RkV34f_fPrnc9UaDOjyqgSH2cSA5pX3lQJnmuc3nU1RPw.DInASQ.EUuRd57YtxDDDzHPdd6U9bQsK_0</resumptionToken>
  </ListIdentifiers>
</OAI-PMH>
