<?xml version='1.0' encoding='UTF-8'?>
<?xml-stylesheet type="text/xsl" href="/static/xsl/oai2.v1.0.xsl"?>
<OAI-PMH xmlns="http://www.openarchives.org/OAI/2.0/" xmlns:xsi="http://www.w3.org/2001/XMLSchema-instance" xsi:schemaLocation="http://www.openarchives.org/OAI/2.0/ http://www.openarchives.org/OAI/2.0/OAI-PMH.xsd">
  <responseDate>2017-08-31T15:45:37Z</responseDate>
  <request verb="ListIdentifiers" resumptionToken=".eJyNyk0LgjAYAOD_8p4lNqdbCl1Ckw4pa02yS9gUsdYHrlAX_fe6dK7z8zzB1HUFIZp4wZRQn1EWEN_zkO-AUd1V6337YVDbXKuLlmWSP9bnHBVuw9LIDKuoIKk9oeyMrVhwd4ung2zRyDfyXtj1kJNlL1DMVpaP6XH5eRXJEr07JDchL3Mt3KrLYj4KPBc7or4P__nszxeZGThwK5saQko9B0592TUGwufr9QaqrFFQ.DInAoQ.2rF7ZVTINyaZO-lCINXkdlKbp6c">https://zenodo.org/oai2d</request>
  <ListIdentifiers>
    <header>
      <identifier>oai:zenodo.org:239796</identifier>
      <datestamp>2017-01-12T01:05:43Z</datestamp>
      <setSpec>user-biosyslit</setSpec>
    </header>
    <header>
      <identifier>oai:zenodo.org:239801</identifier>
      <datestamp>2017-01-12T01:06:02Z</datestamp>
      <setSpec>user-biosyslit</setSpec>
    </header>
    <header>
      <identifier>oai:zenodo.org:248564</identifier>
      <datestamp>2017-01-17T05:37:55Z</datestamp>
      <setSpec>user-biosyslit</setSpec>
    </header>
    <header>
      <identifier>oai:zenodo.org:228183</identifier>
      <datestamp>2017-01-02T19:32:28Z</datestamp>
      <setSpec>user-biosyslit</setSpec>
    </header>
    <header>
      <identifier>oai:zenodo.org:228185</identifier>
      <datestamp>2017-01-02T19:32:35Z</datestamp>
      <setSpec>user-biosyslit</setSpec>
    </header>
    <header>
      <identifier>oai:zenodo.org:228189</identifier>
      <datestamp>2017-01-02T19:32:49Z</datestamp>
      <setSpec>user-biosyslit</setSpec>
    </header>
    <header>
      <identifier>oai:zenodo.org:228187</identifier>
      <datestamp>2017-01-02T19:32:42Z</datestamp>
      <setSpec>user-biosyslit</setSpec>
    </header>
    <header>
      <identifier>oai:zenodo.org:228190</identifier>
      <datestamp>2017-01-02T19:32:52Z</datestamp>
      <setSpec>user-biosyslit</setSpec>
    </header>
    <header>
      <identifier>oai:zenodo.org:277140</identifier>
      <datestamp>2017-02-08T20:30:15Z</datestamp>
      <setSpec>user-biosyslit</setSpec>
    </header>
    <header>
      <identifier>oai:zenodo.org:277147</identifier>
      <datestamp>2017-02-08T20:30:08Z</datestamp>
      <setSpec>user-biosyslit</setSpec>
    </header>
    <header>
      <identifier>oai:zenodo.org:277145</identifier>
      <datestamp>2017-02-08T20:30:02Z</datestamp>
      <setSpec>user-biosyslit</setSpec>
    </header>
    <header>
      <identifier>oai:zenodo.org:277144</identifier>
      <datestamp>2017-02-08T20:29:59Z</datestamp>
      <setSpec>user-biosyslit</setSpec>
    </header>
    <header>
      <identifier>oai:zenodo.org:277146</identifier>
      <datestamp>2017-02-08T20:30:04Z</datestamp>
      <setSpec>user-biosyslit</setSpec>
    </header>
    <header>
      <identifier>oai:zenodo.org:278135</identifier>
      <datestamp>2017-02-08T22:29:32Z</datestamp>
      <setSpec>user-biosyslit</setSpec>
    </header>
    <header>
      <identifier>oai:zenodo.org:278137</identifier>
      <datestamp>2017-02-08T22:29:39Z</datestamp>
      <setSpec>user-biosyslit</setSpec>
    </header>
    <header>
      <identifier>oai:zenodo.org:278133</identifier>
      <datestamp>2017-02-08T22:29:27Z</datestamp>
      <setSpec>user-biosyslit</setSpec>
    </header>
    <header>
      <identifier>oai:zenodo.org:278139</identifier>
      <datestamp>2017-02-08T22:29:46Z</datestamp>
      <setSpec>user-biosyslit</setSpec>
    </header>
    <header>
      <identifier>oai:zenodo.org:278138</identifier>
      <datestamp>2017-02-08T22:29:43Z</datestamp>
      <setSpec>user-biosyslit</setSpec>
    </header>
    <header>
      <identifier>oai:zenodo.org:278132</identifier>
      <datestamp>2017-02-08T22:29:23Z</datestamp>
      <setSpec>user-biosyslit</setSpec>
    </header>
    <header>
      <identifier>oai:zenodo.org:278134</identifier>
      <datestamp>2017-02-08T22:29:30Z</datestamp>
      <setSpec>user-biosyslit</setSpec>
    </header>
    <header>
      <identifier>oai:zenodo.org:278140</identifier>
      <datestamp>2017-02-08T22:29:49Z</datestamp>
      <setSpec>user-biosyslit</setSpec>
    </header>
    <header>
      <identifier>oai:zenodo.org:278129</identifier>
      <datestamp>2017-02-08T22:29:14Z</datestamp>
      <setSpec>user-biosyslit</setSpec>
    </header>
    <header>
      <identifier>oai:zenodo.org:814669</identifier>
      <datestamp>2017-06-20T09:20:00Z</datestamp>
      <setSpec>user-biosyslit</setSpec>
    </header>
    <header>
      <identifier>oai:zenodo.org:814655</identifier>
      <datestamp>2017-06-20T09:19:37Z</datestamp>
      <setSpec>user-biosyslit</setSpec>
    </header>
    <header>
      <identifier>oai:zenodo.org:814665</identifier>
      <datestamp>2017-06-20T09:19:28Z</datestamp>
      <setSpec>user-biosyslit</setSpec>
    </header>
    <header>
      <identifier>oai:zenodo.org:814659</identifier>
      <datestamp>2017-06-20T09:19:16Z</datestamp>
      <setSpec>user-biosyslit</setSpec>
    </header>
    <header>
      <identifier>oai:zenodo.org:814661</identifier>
      <datestamp>2017-06-20T09:19:20Z</datestamp>
      <setSpec>user-biosyslit</setSpec>
    </header>
    <header>
      <identifier>oai:zenodo.org:814675</identifier>
      <datestamp>2017-06-20T09:19:51Z</datestamp>
      <setSpec>user-biosyslit</setSpec>
    </header>
    <header>
      <identifier>oai:zenodo.org:814647</identifier>
      <datestamp>2017-06-20T09:18:47Z</datestamp>
      <setSpec>user-biosyslit</setSpec>
    </header>
    <header>
      <identifier>oai:zenodo.org:814645</identifier>
      <datestamp>2017-06-20T09:18:45Z</datestamp>
      <setSpec>user-biosyslit</setSpec>
    </header>
    <header>
      <identifier>oai:zenodo.org:814639</identifier>
      <datestamp>2017-06-20T09:18:39Z</datestamp>
      <setSpec>user-biosyslit</setSpec>
    </header>
    <header>
      <identifier>oai:zenodo.org:263743</identifier>
      <datestamp>2017-01-30T07:32:42Z</datestamp>
      <setSpec>user-biosyslit</setSpec>
    </header>
    <header>
      <identifier>oai:zenodo.org:255188</identifier>
      <datestamp>2017-01-21T09:04:37Z</datestamp>
      <setSpec>user-biosyslit</setSpec>
    </header>
    <header>
      <identifier>oai:zenodo.org:255190</identifier>
      <datestamp>2017-01-21T09:04:44Z</datestamp>
      <setSpec>user-biosyslit</setSpec>
    </header>
    <header>
      <identifier>oai:zenodo.org:233823</identifier>
      <datestamp>2017-01-08T12:20:22Z</datestamp>
      <setSpec>user-biosyslit</setSpec>
    </header>
    <header>
      <identifier>oai:zenodo.org:265698</identifier>
      <datestamp>2017-01-31T19:23:05Z</datestamp>
      <setSpec>user-biosyslit</setSpec>
    </header>
    <header>
      <identifier>oai:zenodo.org:241789</identifier>
      <datestamp>2017-01-13T05:50:52Z</datestamp>
      <setSpec>user-biosyslit</setSpec>
    </header>
    <header>
      <identifier>oai:zenodo.org:255907</identifier>
      <datestamp>2017-01-21T23:39:00Z</datestamp>
      <setSpec>user-biosyslit</setSpec>
    </header>
    <header>
      <identifier>oai:zenodo.org:255906</identifier>
      <datestamp>2017-01-21T23:38:58Z</datestamp>
      <setSpec>user-biosyslit</setSpec>
    </header>
    <header>
      <identifier>oai:zenodo.org:233826</identifier>
      <datestamp>2017-01-08T12:20:17Z</datestamp>
      <setSpec>user-biosyslit</setSpec>
    </header>
    <header>
      <identifier>oai:zenodo.org:233824</identifier>
      <datestamp>2017-01-08T12:20:08Z</datestamp>
      <setSpec>user-biosyslit</setSpec>
    </header>
    <header>
      <identifier>oai:zenodo.org:265699</identifier>
      <datestamp>2017-01-31T19:23:01Z</datestamp>
      <setSpec>user-biosyslit</setSpec>
    </header>
    <header>
      <identifier>oai:zenodo.org:261708</identifier>
      <datestamp>2017-01-28T13:27:23Z</datestamp>
      <setSpec>user-biosyslit</setSpec>
    </header>
    <header>
      <identifier>oai:zenodo.org:252562</identifier>
      <datestamp>2017-01-19T16:29:12Z</datestamp>
      <setSpec>user-biosyslit</setSpec>
    </header>
    <header>
      <identifier>oai:zenodo.org:261710</identifier>
      <datestamp>2017-01-28T13:27:21Z</datestamp>
      <setSpec>user-biosyslit</setSpec>
    </header>
    <header>
      <identifier>oai:zenodo.org:252551</identifier>
      <datestamp>2017-01-19T16:28:15Z</datestamp>
      <setSpec>user-biosyslit</setSpec>
    </header>
    <header>
      <identifier>oai:zenodo.org:252554</identifier>
      <datestamp>2017-01-19T16:28:34Z</datestamp>
      <setSpec>user-biosyslit</setSpec>
    </header>
    <header>
      <identifier>oai:zenodo.org:252552</identifier>
      <datestamp>2017-01-19T16:28:21Z</datestamp>
      <setSpec>user-biosyslit</setSpec>
    </header>
    <header>
      <identifier>oai:zenodo.org:252559</identifier>
      <datestamp>2017-01-19T16:29:02Z</datestamp>
      <setSpec>user-biosyslit</setSpec>
    </header>
    <header>
      <identifier>oai:zenodo.org:252560</identifier>
      <datestamp>2017-01-19T16:29:05Z</datestamp>
      <setSpec>user-biosyslit</setSpec>
    </header>
    <header>
      <identifier>oai:zenodo.org:252558</identifier>
      <datestamp>2017-01-19T16:28:59Z</datestamp>
      <setSpec>user-biosyslit</setSpec>
    </header>
    <header>
      <identifier>oai:zenodo.org:243629</identifier>
      <datestamp>2017-01-14T08:25:12Z</datestamp>
      <setSpec>user-biosyslit</setSpec>
    </header>
    <header>
      <identifier>oai:zenodo.org:243630</identifier>
      <datestamp>2017-01-14T08:25:16Z</datestamp>
      <setSpec>user-biosyslit</setSpec>
    </header>
    <header>
      <identifier>oai:zenodo.org:283761</identifier>
      <datestamp>2017-02-09T09:36:11Z</datestamp>
      <setSpec>user-biosyslit</setSpec>
    </header>
    <header>
      <identifier>oai:zenodo.org:285163</identifier>
      <datestamp>2017-02-09T12:49:29Z</datestamp>
      <setSpec>user-biosyslit</setSpec>
    </header>
    <header>
      <identifier>oai:zenodo.org:285160</identifier>
      <datestamp>2017-02-09T12:49:18Z</datestamp>
      <setSpec>user-biosyslit</setSpec>
    </header>
    <header>
      <identifier>oai:zenodo.org:285159</identifier>
      <datestamp>2017-02-09T12:49:16Z</datestamp>
      <setSpec>user-biosyslit</setSpec>
    </header>
    <header>
      <identifier>oai:zenodo.org:243270</identifier>
      <datestamp>2017-01-14T01:55:54Z</datestamp>
      <setSpec>user-biosyslit</setSpec>
    </header>
    <header>
      <identifier>oai:zenodo.org:243272</identifier>
      <datestamp>2017-01-14T01:55:59Z</datestamp>
      <setSpec>user-biosyslit</setSpec>
    </header>
    <header>
      <identifier>oai:zenodo.org:243273</identifier>
      <datestamp>2017-01-14T01:56:02Z</datestamp>
      <setSpec>user-biosyslit</setSpec>
    </header>
    <header>
      <identifier>oai:zenodo.org:248080</identifier>
      <datestamp>2017-01-16T23:19:56Z</datestamp>
      <setSpec>user-biosyslit</setSpec>
    </header>
    <header>
      <identifier>oai:zenodo.org:248078</identifier>
      <datestamp>2017-01-16T23:19:50Z</datestamp>
      <setSpec>user-biosyslit</setSpec>
    </header>
    <header>
      <identifier>oai:zenodo.org:248075</identifier>
      <datestamp>2017-01-16T23:19:38Z</datestamp>
      <setSpec>user-biosyslit</setSpec>
    </header>
    <header>
      <identifier>oai:zenodo.org:248076</identifier>
      <datestamp>2017-01-16T23:19:42Z</datestamp>
      <setSpec>user-biosyslit</setSpec>
    </header>
    <header>
      <identifier>oai:zenodo.org:248077</identifier>
      <datestamp>2017-01-16T23:19:46Z</datestamp>
      <setSpec>user-biosyslit</setSpec>
    </header>
    <header>
      <identifier>oai:zenodo.org:246267</identifier>
      <datestamp>2017-01-15T23:36:53Z</datestamp>
      <setSpec>user-biosyslit</setSpec>
    </header>
    <header>
      <identifier>oai:zenodo.org:246269</identifier>
      <datestamp>2017-01-15T23:37:00Z</datestamp>
      <setSpec>user-biosyslit</setSpec>
    </header>
    <header>
      <identifier>oai:zenodo.org:246270</identifier>
      <datestamp>2017-01-15T23:37:05Z</datestamp>
      <setSpec>user-biosyslit</setSpec>
    </header>
    <header>
      <identifier>oai:zenodo.org:246268</identifier>
      <datestamp>2017-01-15T23:36:56Z</datestamp>
      <setSpec>user-biosyslit</setSpec>
    </header>
    <header>
      <identifier>oai:zenodo.org:246273</identifier>
      <datestamp>2017-01-15T23:37:17Z</datestamp>
      <setSpec>user-biosyslit</setSpec>
    </header>
    <header>
      <identifier>oai:zenodo.org:285341</identifier>
      <datestamp>2017-02-09T13:20:34Z</datestamp>
      <setSpec>user-biosyslit</setSpec>
    </header>
    <header>
      <identifier>oai:zenodo.org:278822</identifier>
      <datestamp>2017-02-08T23:55:58Z</datestamp>
      <setSpec>user-biosyslit</setSpec>
    </header>
    <header>
      <identifier>oai:zenodo.org:278817</identifier>
      <datestamp>2017-02-08T23:55:45Z</datestamp>
      <setSpec>user-biosyslit</setSpec>
    </header>
    <header>
      <identifier>oai:zenodo.org:278821</identifier>
      <datestamp>2017-02-08T23:55:55Z</datestamp>
      <setSpec>user-biosyslit</setSpec>
    </header>
    <header>
      <identifier>oai:zenodo.org:278805</identifier>
      <datestamp>2017-02-08T23:55:17Z</datestamp>
      <setSpec>user-biosyslit</setSpec>
    </header>
    <header>
      <identifier>oai:zenodo.org:278804</identifier>
      <datestamp>2017-02-08T23:55:14Z</datestamp>
      <setSpec>user-biosyslit</setSpec>
    </header>
    <header>
      <identifier>oai:zenodo.org:278811</identifier>
      <datestamp>2017-02-08T23:55:32Z</datestamp>
      <setSpec>user-biosyslit</setSpec>
    </header>
    <header>
      <identifier>oai:zenodo.org:278814</identifier>
      <datestamp>2017-02-08T23:55:39Z</datestamp>
      <setSpec>user-biosyslit</setSpec>
    </header>
    <header>
      <identifier>oai:zenodo.org:235316</identifier>
      <datestamp>2017-01-09T08:34:07Z</datestamp>
      <setSpec>user-biosyslit</setSpec>
    </header>
    <header>
      <identifier>oai:zenodo.org:235315</identifier>
      <datestamp>2017-01-09T08:34:03Z</datestamp>
      <setSpec>user-biosyslit</setSpec>
    </header>
    <header>
      <identifier>oai:zenodo.org:235305</identifier>
      <datestamp>2017-01-09T08:33:10Z</datestamp>
      <setSpec>user-biosyslit</setSpec>
    </header>
    <header>
      <identifier>oai:zenodo.org:235310</identifier>
      <datestamp>2017-01-09T08:33:44Z</datestamp>
      <setSpec>user-biosyslit</setSpec>
    </header>
    <header>
      <identifier>oai:zenodo.org:235312</identifier>
      <datestamp>2017-01-09T08:33:51Z</datestamp>
      <setSpec>user-biosyslit</setSpec>
    </header>
    <header>
      <identifier>oai:zenodo.org:235308</identifier>
      <datestamp>2017-01-09T08:33:39Z</datestamp>
      <setSpec>user-biosyslit</setSpec>
    </header>
    <header>
      <identifier>oai:zenodo.org:235307</identifier>
      <datestamp>2017-01-09T08:33:27Z</datestamp>
      <setSpec>user-biosyslit</setSpec>
    </header>
    <header>
      <identifier>oai:zenodo.org:235306</identifier>
      <datestamp>2017-01-09T08:33:24Z</datestamp>
      <setSpec>user-biosyslit</setSpec>
    </header>
    <header>
      <identifier>oai:zenodo.org:263733</identifier>
      <datestamp>2017-01-30T07:11:03Z</datestamp>
      <setSpec>user-biosyslit</setSpec>
    </header>
    <header>
      <identifier>oai:zenodo.org:278113</identifier>
      <datestamp>2017-02-08T22:28:19Z</datestamp>
      <setSpec>user-biosyslit</setSpec>
    </header>
    <header>
      <identifier>oai:zenodo.org:278115</identifier>
      <datestamp>2017-02-08T22:28:27Z</datestamp>
      <setSpec>user-biosyslit</setSpec>
    </header>
    <header>
      <identifier>oai:zenodo.org:287955</identifier>
      <datestamp>2017-02-09T19:41:24Z</datestamp>
      <setSpec>user-biosyslit</setSpec>
    </header>
    <header>
      <identifier>oai:zenodo.org:230392</identifier>
      <datestamp>2017-01-04T23:55:30Z</datestamp>
      <setSpec>user-biosyslit</setSpec>
    </header>
    <header>
      <identifier>oai:zenodo.org:230394</identifier>
      <datestamp>2017-01-04T23:55:37Z</datestamp>
      <setSpec>user-biosyslit</setSpec>
    </header>
    <header>
      <identifier>oai:zenodo.org:253411</identifier>
      <datestamp>2017-01-20T06:39:34Z</datestamp>
      <setSpec>user-biosyslit</setSpec>
    </header>
    <header>
      <identifier>oai:zenodo.org:253405</identifier>
      <datestamp>2017-01-20T06:39:13Z</datestamp>
      <setSpec>user-biosyslit</setSpec>
    </header>
    <header>
      <identifier>oai:zenodo.org:253408</identifier>
      <datestamp>2017-01-20T06:39:23Z</datestamp>
      <setSpec>user-biosyslit</setSpec>
    </header>
    <header>
      <identifier>oai:zenodo.org:253412</identifier>
      <datestamp>2017-01-20T06:39:37Z</datestamp>
      <setSpec>user-biosyslit</setSpec>
    </header>
    <header>
      <identifier>oai:zenodo.org:253403</identifier>
      <datestamp>2017-01-20T06:39:06Z</datestamp>
      <setSpec>user-biosyslit</setSpec>
    </header>
    <header>
      <identifier>oai:zenodo.org:253410</identifier>
      <datestamp>2017-01-20T06:39:30Z</datestamp>
      <setSpec>user-biosyslit</setSpec>
    </header>
    <header>
      <identifier>oai:zenodo.org:253409</identifier>
      <datestamp>2017-01-20T06:39:27Z</datestamp>
      <setSpec>user-biosyslit</setSpec>
    </header>
    <header>
      <identifier>oai:zenodo.org:253402</identifier>
      <datestamp>2017-01-20T06:39:03Z</datestamp>
      <setSpec>user-biosyslit</setSpec>
    </header>
    <resumptionToken expirationDate="2017-08-31T15:47:37Z" cursor="66300" completeListSize="77796">.eJyNys8PQlAcAPD_5Xu29n4I2boYmQPGi8WlCbPyyLxavOZ_z6VznT-fN4i6rsBEG7LVCcJYNTR1pyKq6gqIcrxzfr6uDuUp5WXPk8JNn3GXoow0emCLybczGsgWhR2W7BCREzam5Irm6Jg8MhlPKfVeDDm6L6M5uHnrq2jo8vziDizpLc5INYZONDNssZyW34f_fPLns8UeFBiKpgZT07YKtK9ibASY72X5AMqNUW8.DInAoQ.LykrBnWe6DwfVATaWAYVmOCTNbU</resumptionToken>
  </ListIdentifiers>
</OAI-PMH>
