<?xml version='1.0' encoding='UTF-8'?>
<?xml-stylesheet type="text/xsl" href="/static/xsl/oai2.v1.0.xsl"?>
<OAI-PMH xmlns="http://www.openarchives.org/OAI/2.0/" xmlns:xsi="http://www.w3.org/2001/XMLSchema-instance" xsi:schemaLocation="http://www.openarchives.org/OAI/2.0/ http://www.openarchives.org/OAI/2.0/OAI-PMH.xsd">
  <responseDate>2017-08-31T15:43:27Z</responseDate>
  <request verb="ListIdentifiers" resumptionToken=".eJyNzz0PQ0AAgOH_crM09xHxkXQRKgaEK8HS6BFRR8W1wYn_Xkvndn6f5d2AqOsKmPCkqwhhQohuGDrGUFWAYNOT81t7ZMCylLOBJ6WbvuM-hTlutMAWi2_nJJAdDHsk6SXCGdKXpIVrdE1euYyXlHgzhY7my2gNHt7hKhK6vLi7I00Gi1NcTaETrRRZtCDs69CfTv50tjgDBYxlUwOTaMdVN5dTI4C57fsHm5VRPw.DInAHw.VNIw7TZ0HplUwEKRb_o58QGAs44">https://zenodo.org/oai2d</request>
  <ListIdentifiers>
    <header>
      <identifier>oai:zenodo.org:828831</identifier>
      <datestamp>2017-07-15T09:11:09Z</datestamp>
      <setSpec>user-biosyslit</setSpec>
    </header>
    <header>
      <identifier>oai:zenodo.org:828811</identifier>
      <datestamp>2017-07-15T09:10:28Z</datestamp>
      <setSpec>user-biosyslit</setSpec>
    </header>
    <header>
      <identifier>oai:zenodo.org:828819</identifier>
      <datestamp>2017-07-15T09:10:43Z</datestamp>
      <setSpec>user-biosyslit</setSpec>
    </header>
    <header>
      <identifier>oai:zenodo.org:828807</identifier>
      <datestamp>2017-07-15T09:10:20Z</datestamp>
      <setSpec>user-biosyslit</setSpec>
    </header>
    <header>
      <identifier>oai:zenodo.org:828815</identifier>
      <datestamp>2017-07-15T09:10:36Z</datestamp>
      <setSpec>user-biosyslit</setSpec>
    </header>
    <header>
      <identifier>oai:zenodo.org:828803</identifier>
      <datestamp>2017-07-15T09:10:12Z</datestamp>
      <setSpec>user-biosyslit</setSpec>
    </header>
    <header>
      <identifier>oai:zenodo.org:828817</identifier>
      <datestamp>2017-07-15T09:10:39Z</datestamp>
      <setSpec>user-biosyslit</setSpec>
    </header>
    <header>
      <identifier>oai:zenodo.org:828971</identifier>
      <datestamp>2017-07-15T09:19:20Z</datestamp>
      <setSpec>user-biosyslit</setSpec>
    </header>
    <header>
      <identifier>oai:zenodo.org:828987</identifier>
      <datestamp>2017-07-15T09:20:05Z</datestamp>
      <setSpec>user-biosyslit</setSpec>
    </header>
    <header>
      <identifier>oai:zenodo.org:828985</identifier>
      <datestamp>2017-07-15T09:20:01Z</datestamp>
      <setSpec>user-biosyslit</setSpec>
    </header>
    <header>
      <identifier>oai:zenodo.org:828973</identifier>
      <datestamp>2017-07-15T09:19:28Z</datestamp>
      <setSpec>user-biosyslit</setSpec>
    </header>
    <header>
      <identifier>oai:zenodo.org:828967</identifier>
      <datestamp>2017-07-15T09:19:12Z</datestamp>
      <setSpec>user-biosyslit</setSpec>
    </header>
    <header>
      <identifier>oai:zenodo.org:828977</identifier>
      <datestamp>2017-07-15T09:19:36Z</datestamp>
      <setSpec>user-biosyslit</setSpec>
    </header>
    <header>
      <identifier>oai:zenodo.org:828991</identifier>
      <datestamp>2017-07-15T09:20:19Z</datestamp>
      <setSpec>user-biosyslit</setSpec>
    </header>
    <header>
      <identifier>oai:zenodo.org:829179</identifier>
      <datestamp>2017-07-15T09:31:00Z</datestamp>
      <setSpec>user-biosyslit</setSpec>
    </header>
    <header>
      <identifier>oai:zenodo.org:829167</identifier>
      <datestamp>2017-07-15T09:30:31Z</datestamp>
      <setSpec>user-biosyslit</setSpec>
    </header>
    <header>
      <identifier>oai:zenodo.org:829201</identifier>
      <datestamp>2017-07-15T09:31:20Z</datestamp>
      <setSpec>user-biosyslit</setSpec>
    </header>
    <header>
      <identifier>oai:zenodo.org:829187</identifier>
      <datestamp>2017-07-15T09:30:53Z</datestamp>
      <setSpec>user-biosyslit</setSpec>
    </header>
    <header>
      <identifier>oai:zenodo.org:829189</identifier>
      <datestamp>2017-07-15T09:30:56Z</datestamp>
      <setSpec>user-biosyslit</setSpec>
    </header>
    <header>
      <identifier>oai:zenodo.org:829185</identifier>
      <datestamp>2017-07-15T09:30:50Z</datestamp>
      <setSpec>user-biosyslit</setSpec>
    </header>
    <header>
      <identifier>oai:zenodo.org:829195</identifier>
      <datestamp>2017-07-15T09:31:09Z</datestamp>
      <setSpec>user-biosyslit</setSpec>
    </header>
    <header>
      <identifier>oai:zenodo.org:829177</identifier>
      <datestamp>2017-07-15T09:30:28Z</datestamp>
      <setSpec>user-biosyslit</setSpec>
    </header>
    <header>
      <identifier>oai:zenodo.org:829183</identifier>
      <datestamp>2017-07-15T09:30:47Z</datestamp>
      <setSpec>user-biosyslit</setSpec>
    </header>
    <header>
      <identifier>oai:zenodo.org:828583</identifier>
      <datestamp>2017-07-15T09:00:28Z</datestamp>
      <setSpec>user-biosyslit</setSpec>
    </header>
    <header>
      <identifier>oai:zenodo.org:828505</identifier>
      <datestamp>2017-07-15T08:57:25Z</datestamp>
      <setSpec>user-biosyslit</setSpec>
    </header>
    <header>
      <identifier>oai:zenodo.org:828605</identifier>
      <datestamp>2017-07-15T09:01:53Z</datestamp>
      <setSpec>user-biosyslit</setSpec>
    </header>
    <header>
      <identifier>oai:zenodo.org:828587</identifier>
      <datestamp>2017-07-15T09:00:40Z</datestamp>
      <setSpec>user-biosyslit</setSpec>
    </header>
    <header>
      <identifier>oai:zenodo.org:828597</identifier>
      <datestamp>2017-07-15T09:01:03Z</datestamp>
      <setSpec>user-biosyslit</setSpec>
    </header>
    <header>
      <identifier>oai:zenodo.org:828593</identifier>
      <datestamp>2017-07-15T09:00:55Z</datestamp>
      <setSpec>user-biosyslit</setSpec>
    </header>
    <header>
      <identifier>oai:zenodo.org:828595</identifier>
      <datestamp>2017-07-15T09:01:00Z</datestamp>
      <setSpec>user-biosyslit</setSpec>
    </header>
    <header>
      <identifier>oai:zenodo.org:828591</identifier>
      <datestamp>2017-07-15T09:00:46Z</datestamp>
      <setSpec>user-biosyslit</setSpec>
    </header>
    <header>
      <identifier>oai:zenodo.org:828599</identifier>
      <datestamp>2017-07-15T09:01:36Z</datestamp>
      <setSpec>user-biosyslit</setSpec>
    </header>
    <header>
      <identifier>oai:zenodo.org:828791</identifier>
      <datestamp>2017-07-15T09:11:34Z</datestamp>
      <setSpec>user-biosyslit</setSpec>
    </header>
    <header>
      <identifier>oai:zenodo.org:828861</identifier>
      <datestamp>2017-07-15T09:14:22Z</datestamp>
      <setSpec>user-biosyslit</setSpec>
    </header>
    <header>
      <identifier>oai:zenodo.org:828847</identifier>
      <datestamp>2017-07-15T09:14:01Z</datestamp>
      <setSpec>user-biosyslit</setSpec>
    </header>
    <header>
      <identifier>oai:zenodo.org:828849</identifier>
      <datestamp>2017-07-15T09:14:05Z</datestamp>
      <setSpec>user-biosyslit</setSpec>
    </header>
    <header>
      <identifier>oai:zenodo.org:828835</identifier>
      <datestamp>2017-07-15T09:11:17Z</datestamp>
      <setSpec>user-biosyslit</setSpec>
    </header>
    <header>
      <identifier>oai:zenodo.org:828841</identifier>
      <datestamp>2017-07-15T09:11:30Z</datestamp>
      <setSpec>user-biosyslit</setSpec>
    </header>
    <header>
      <identifier>oai:zenodo.org:828865</identifier>
      <datestamp>2017-07-15T09:14:31Z</datestamp>
      <setSpec>user-biosyslit</setSpec>
    </header>
    <header>
      <identifier>oai:zenodo.org:828857</identifier>
      <datestamp>2017-07-15T09:14:15Z</datestamp>
      <setSpec>user-biosyslit</setSpec>
    </header>
    <header>
      <identifier>oai:zenodo.org:828855</identifier>
      <datestamp>2017-07-15T09:14:12Z</datestamp>
      <setSpec>user-biosyslit</setSpec>
    </header>
    <header>
      <identifier>oai:zenodo.org:829067</identifier>
      <datestamp>2017-07-15T09:25:59Z</datestamp>
      <setSpec>user-biosyslit</setSpec>
    </header>
    <header>
      <identifier>oai:zenodo.org:829087</identifier>
      <datestamp>2017-07-15T09:27:01Z</datestamp>
      <setSpec>user-biosyslit</setSpec>
    </header>
    <header>
      <identifier>oai:zenodo.org:829073</identifier>
      <datestamp>2017-07-15T09:26:13Z</datestamp>
      <setSpec>user-biosyslit</setSpec>
    </header>
    <header>
      <identifier>oai:zenodo.org:829101</identifier>
      <datestamp>2017-07-15T09:27:34Z</datestamp>
      <setSpec>user-biosyslit</setSpec>
    </header>
    <header>
      <identifier>oai:zenodo.org:829103</identifier>
      <datestamp>2017-07-15T09:27:42Z</datestamp>
      <setSpec>user-biosyslit</setSpec>
    </header>
    <header>
      <identifier>oai:zenodo.org:829065</identifier>
      <datestamp>2017-07-15T09:25:56Z</datestamp>
      <setSpec>user-biosyslit</setSpec>
    </header>
    <header>
      <identifier>oai:zenodo.org:829097</identifier>
      <datestamp>2017-07-15T09:27:26Z</datestamp>
      <setSpec>user-biosyslit</setSpec>
    </header>
    <header>
      <identifier>oai:zenodo.org:829093</identifier>
      <datestamp>2017-07-15T09:27:11Z</datestamp>
      <setSpec>user-biosyslit</setSpec>
    </header>
    <header>
      <identifier>oai:zenodo.org:829231</identifier>
      <datestamp>2017-07-15T09:32:56Z</datestamp>
      <setSpec>user-biosyslit</setSpec>
    </header>
    <header>
      <identifier>oai:zenodo.org:829255</identifier>
      <datestamp>2017-07-15T09:33:25Z</datestamp>
      <setSpec>user-biosyslit</setSpec>
    </header>
    <header>
      <identifier>oai:zenodo.org:829277</identifier>
      <datestamp>2017-07-15T09:33:46Z</datestamp>
      <setSpec>user-biosyslit</setSpec>
    </header>
    <header>
      <identifier>oai:zenodo.org:829271</identifier>
      <datestamp>2017-07-15T09:33:30Z</datestamp>
      <setSpec>user-biosyslit</setSpec>
    </header>
    <header>
      <identifier>oai:zenodo.org:829267</identifier>
      <datestamp>2017-07-15T09:33:21Z</datestamp>
      <setSpec>user-biosyslit</setSpec>
    </header>
    <header>
      <identifier>oai:zenodo.org:829259</identifier>
      <datestamp>2017-07-15T09:33:09Z</datestamp>
      <setSpec>user-biosyslit</setSpec>
    </header>
    <header>
      <identifier>oai:zenodo.org:829261</identifier>
      <datestamp>2017-07-15T09:33:12Z</datestamp>
      <setSpec>user-biosyslit</setSpec>
    </header>
    <header>
      <identifier>oai:zenodo.org:829257</identifier>
      <datestamp>2017-07-15T09:33:03Z</datestamp>
      <setSpec>user-biosyslit</setSpec>
    </header>
    <header>
      <identifier>oai:zenodo.org:829263</identifier>
      <datestamp>2017-07-15T09:33:15Z</datestamp>
      <setSpec>user-biosyslit</setSpec>
    </header>
    <header>
      <identifier>oai:zenodo.org:829531</identifier>
      <datestamp>2017-07-15T09:43:52Z</datestamp>
      <setSpec>user-biosyslit</setSpec>
    </header>
    <header>
      <identifier>oai:zenodo.org:829561</identifier>
      <datestamp>2017-07-15T09:44:33Z</datestamp>
      <setSpec>user-biosyslit</setSpec>
    </header>
    <header>
      <identifier>oai:zenodo.org:829549</identifier>
      <datestamp>2017-07-15T09:43:34Z</datestamp>
      <setSpec>user-biosyslit</setSpec>
    </header>
    <header>
      <identifier>oai:zenodo.org:829553</identifier>
      <datestamp>2017-07-15T09:43:41Z</datestamp>
      <setSpec>user-biosyslit</setSpec>
    </header>
    <header>
      <identifier>oai:zenodo.org:829565</identifier>
      <datestamp>2017-07-15T09:44:04Z</datestamp>
      <setSpec>user-biosyslit</setSpec>
    </header>
    <header>
      <identifier>oai:zenodo.org:829543</identifier>
      <datestamp>2017-07-15T09:43:24Z</datestamp>
      <setSpec>user-biosyslit</setSpec>
    </header>
    <header>
      <identifier>oai:zenodo.org:829539</identifier>
      <datestamp>2017-07-15T09:43:16Z</datestamp>
      <setSpec>user-biosyslit</setSpec>
    </header>
    <header>
      <identifier>oai:zenodo.org:824150</identifier>
      <datestamp>2017-07-07T14:51:52Z</datestamp>
      <setSpec>user-biosyslit</setSpec>
    </header>
    <header>
      <identifier>oai:zenodo.org:283772</identifier>
      <datestamp>2017-02-09T09:41:54Z</datestamp>
      <setSpec>user-biosyslit</setSpec>
    </header>
    <header>
      <identifier>oai:zenodo.org:803954</identifier>
      <datestamp>2017-06-07T12:02:38Z</datestamp>
      <setSpec>user-biosyslit</setSpec>
    </header>
    <header>
      <identifier>oai:zenodo.org:819926</identifier>
      <datestamp>2017-06-27T14:06:01Z</datestamp>
      <setSpec>user-biosyslit</setSpec>
    </header>
    <header>
      <identifier>oai:zenodo.org:283776</identifier>
      <datestamp>2017-02-09T09:41:40Z</datestamp>
      <setSpec>user-biosyslit</setSpec>
    </header>
    <header>
      <identifier>oai:zenodo.org:824176</identifier>
      <datestamp>2017-07-07T14:52:34Z</datestamp>
      <setSpec>user-biosyslit</setSpec>
    </header>
    <header>
      <identifier>oai:zenodo.org:824182</identifier>
      <datestamp>2017-07-07T14:52:43Z</datestamp>
      <setSpec>user-biosyslit</setSpec>
    </header>
    <header>
      <identifier>oai:zenodo.org:824154</identifier>
      <datestamp>2017-07-07T14:51:58Z</datestamp>
      <setSpec>user-biosyslit</setSpec>
    </header>
    <header>
      <identifier>oai:zenodo.org:824174</identifier>
      <datestamp>2017-07-07T14:52:32Z</datestamp>
      <setSpec>user-biosyslit</setSpec>
    </header>
    <header>
      <identifier>oai:zenodo.org:824164</identifier>
      <datestamp>2017-07-07T14:52:13Z</datestamp>
      <setSpec>user-biosyslit</setSpec>
    </header>
    <header>
      <identifier>oai:zenodo.org:824180</identifier>
      <datestamp>2017-07-07T14:52:40Z</datestamp>
      <setSpec>user-biosyslit</setSpec>
    </header>
    <header>
      <identifier>oai:zenodo.org:824162</identifier>
      <datestamp>2017-07-07T14:52:10Z</datestamp>
      <setSpec>user-biosyslit</setSpec>
    </header>
    <header>
      <identifier>oai:zenodo.org:824148</identifier>
      <datestamp>2017-07-07T14:53:02Z</datestamp>
      <setSpec>user-biosyslit</setSpec>
    </header>
    <header>
      <identifier>oai:zenodo.org:824188</identifier>
      <datestamp>2017-07-07T14:52:52Z</datestamp>
      <setSpec>user-biosyslit</setSpec>
    </header>
    <header>
      <identifier>oai:zenodo.org:839735</identifier>
      <datestamp>2017-08-07T13:58:27Z</datestamp>
      <setSpec>user-biosyslit</setSpec>
    </header>
    <header>
      <identifier>oai:zenodo.org:839731</identifier>
      <datestamp>2017-08-07T13:58:18Z</datestamp>
      <setSpec>user-biosyslit</setSpec>
    </header>
    <header>
      <identifier>oai:zenodo.org:839743</identifier>
      <datestamp>2017-08-07T13:58:43Z</datestamp>
      <setSpec>user-biosyslit</setSpec>
    </header>
    <header>
      <identifier>oai:zenodo.org:839745</identifier>
      <datestamp>2017-08-07T13:58:47Z</datestamp>
      <setSpec>user-biosyslit</setSpec>
    </header>
    <header>
      <identifier>oai:zenodo.org:839737</identifier>
      <datestamp>2017-08-07T13:58:31Z</datestamp>
      <setSpec>user-biosyslit</setSpec>
    </header>
    <header>
      <identifier>oai:zenodo.org:839761</identifier>
      <datestamp>2017-08-07T13:59:27Z</datestamp>
      <setSpec>user-biosyslit</setSpec>
    </header>
    <header>
      <identifier>oai:zenodo.org:839755</identifier>
      <datestamp>2017-08-07T13:59:06Z</datestamp>
      <setSpec>user-biosyslit</setSpec>
    </header>
    <header>
      <identifier>oai:zenodo.org:839759</identifier>
      <datestamp>2017-08-07T13:59:19Z</datestamp>
      <setSpec>user-biosyslit</setSpec>
    </header>
    <header>
      <identifier>oai:zenodo.org:839785</identifier>
      <datestamp>2017-08-07T14:00:30Z</datestamp>
      <setSpec>user-biosyslit</setSpec>
    </header>
    <header>
      <identifier>oai:zenodo.org:839777</identifier>
      <datestamp>2017-08-07T14:00:09Z</datestamp>
      <setSpec>user-biosyslit</setSpec>
    </header>
    <header>
      <identifier>oai:zenodo.org:839775</identifier>
      <datestamp>2017-08-07T14:00:05Z</datestamp>
      <setSpec>user-biosyslit</setSpec>
    </header>
    <header>
      <identifier>oai:zenodo.org:839769</identifier>
      <datestamp>2017-08-07T13:59:52Z</datestamp>
      <setSpec>user-biosyslit</setSpec>
    </header>
    <header>
      <identifier>oai:zenodo.org:839787</identifier>
      <datestamp>2017-08-07T14:00:33Z</datestamp>
      <setSpec>user-biosyslit</setSpec>
    </header>
    <header>
      <identifier>oai:zenodo.org:839771</identifier>
      <datestamp>2017-08-07T13:59:56Z</datestamp>
      <setSpec>user-biosyslit</setSpec>
    </header>
    <header>
      <identifier>oai:zenodo.org:840116</identifier>
      <datestamp>2017-08-08T13:42:37Z</datestamp>
      <setSpec>user-biosyslit</setSpec>
    </header>
    <header>
      <identifier>oai:zenodo.org:840098</identifier>
      <datestamp>2017-08-08T13:42:04Z</datestamp>
      <setSpec>user-biosyslit</setSpec>
    </header>
    <header>
      <identifier>oai:zenodo.org:840114</identifier>
      <datestamp>2017-08-08T13:42:34Z</datestamp>
      <setSpec>user-biosyslit</setSpec>
    </header>
    <header>
      <identifier>oai:zenodo.org:839894</identifier>
      <datestamp>2017-08-07T23:28:33Z</datestamp>
      <setSpec>user-biosyslit</setSpec>
    </header>
    <header>
      <identifier>oai:zenodo.org:839898</identifier>
      <datestamp>2017-08-07T23:28:39Z</datestamp>
      <setSpec>user-biosyslit</setSpec>
    </header>
    <header>
      <identifier>oai:zenodo.org:839912</identifier>
      <datestamp>2017-08-07T23:29:05Z</datestamp>
      <setSpec>user-biosyslit</setSpec>
    </header>
    <header>
      <identifier>oai:zenodo.org:839910</identifier>
      <datestamp>2017-08-07T23:29:01Z</datestamp>
      <setSpec>user-biosyslit</setSpec>
    </header>
    <resumptionToken expirationDate="2017-08-31T15:45:27Z" cursor="37400" completeListSize="77796">.eJyNz00PQzAAgOH_0rMs1cZnsoswcUCqI7gshogpE92Civ8-l5238_tc3g3wuq6ACU-qDnUEDYR1A2mKokqAl9OTsVt7ZFCmCSsHFhdu8o76BGao0QKbL76d4UB0MOxlQS8EpbK-xC1cyTV-ZSJaEuzNFDqaL8gaPLzDVTh0WX53RxoPFqOomkKHrFS2aI7Lr5P_dOKns_kZSGAsmhqYWDuuurmYGg7Mbd8_patRSw.DInAHw.-SmXlvBDRtqKCUiXECb86nrQY5Q</resumptionToken>
  </ListIdentifiers>
</OAI-PMH>
