<?xml version='1.0' encoding='UTF-8'?>
<?xml-stylesheet type="text/xsl" href="/static/xsl/oai2.v1.0.xsl"?>
<OAI-PMH xmlns="http://www.openarchives.org/OAI/2.0/" xmlns:xsi="http://www.w3.org/2001/XMLSchema-instance" xsi:schemaLocation="http://www.openarchives.org/OAI/2.0/ http://www.openarchives.org/OAI/2.0/OAI-PMH.xsd">
  <responseDate>2017-08-31T15:43:31Z</responseDate>
  <request verb="ListIdentifiers" resumptionToken=".eJyNyssKgkAUANB_uWuJeeWI0CY0aaFik6JuwlSknB44hTriv-emdZ31mUDVdQU2WiFGuMmpxTBjJmcmWRugyu4h5emyBCjTRJZ3GRde8j7cEpSRhgeOGnwno4FuUXjDWuwikmJriC9ojI7xK9OHIaH7XiCX-zoag-t-eRUNPZmfvaeI71spSNWFbjQKvBU5Lb8P__n0z-eoDRjwLJoabGqZBrR90TUK7GmePwezUaw.DInAIw.hbqQL9rYOWEIIhI3EFJ8hofn5GY">https://zenodo.org/oai2d</request>
  <ListIdentifiers>
    <header>
      <identifier>oai:zenodo.org:835158</identifier>
      <datestamp>2017-07-26T17:17:12Z</datestamp>
      <setSpec>user-biosyslit</setSpec>
    </header>
    <header>
      <identifier>oai:zenodo.org:835160</identifier>
      <datestamp>2017-07-26T17:17:19Z</datestamp>
      <setSpec>user-biosyslit</setSpec>
    </header>
    <header>
      <identifier>oai:zenodo.org:835079</identifier>
      <datestamp>2017-07-26T16:39:56Z</datestamp>
      <setSpec>user-biosyslit</setSpec>
    </header>
    <header>
      <identifier>oai:zenodo.org:835065</identifier>
      <datestamp>2017-07-26T16:35:48Z</datestamp>
      <setSpec>user-biosyslit</setSpec>
    </header>
    <header>
      <identifier>oai:zenodo.org:835085</identifier>
      <datestamp>2017-07-26T16:40:06Z</datestamp>
      <setSpec>user-biosyslit</setSpec>
    </header>
    <header>
      <identifier>oai:zenodo.org:835083</identifier>
      <datestamp>2017-07-26T16:40:02Z</datestamp>
      <setSpec>user-biosyslit</setSpec>
    </header>
    <header>
      <identifier>oai:zenodo.org:835069</identifier>
      <datestamp>2017-07-26T16:35:45Z</datestamp>
      <setSpec>user-biosyslit</setSpec>
    </header>
    <header>
      <identifier>oai:zenodo.org:835075</identifier>
      <datestamp>2017-07-26T16:39:47Z</datestamp>
      <setSpec>user-biosyslit</setSpec>
    </header>
    <header>
      <identifier>oai:zenodo.org:835067</identifier>
      <datestamp>2017-07-26T16:35:40Z</datestamp>
      <setSpec>user-biosyslit</setSpec>
    </header>
    <header>
      <identifier>oai:zenodo.org:835095</identifier>
      <datestamp>2017-07-26T16:40:22Z</datestamp>
      <setSpec>user-biosyslit</setSpec>
    </header>
    <header>
      <identifier>oai:zenodo.org:835087</identifier>
      <datestamp>2017-07-26T16:40:09Z</datestamp>
      <setSpec>user-biosyslit</setSpec>
    </header>
    <header>
      <identifier>oai:zenodo.org:835105</identifier>
      <datestamp>2017-07-26T16:52:26Z</datestamp>
      <setSpec>user-biosyslit</setSpec>
    </header>
    <header>
      <identifier>oai:zenodo.org:835091</identifier>
      <datestamp>2017-07-26T16:40:15Z</datestamp>
      <setSpec>user-biosyslit</setSpec>
    </header>
    <header>
      <identifier>oai:zenodo.org:835678</identifier>
      <datestamp>2017-07-28T07:55:20Z</datestamp>
      <setSpec>user-biosyslit</setSpec>
    </header>
    <header>
      <identifier>oai:zenodo.org:835682</identifier>
      <datestamp>2017-07-28T07:55:07Z</datestamp>
      <setSpec>user-biosyslit</setSpec>
    </header>
    <header>
      <identifier>oai:zenodo.org:835666</identifier>
      <datestamp>2017-07-28T07:50:06Z</datestamp>
      <setSpec>user-biosyslit</setSpec>
    </header>
    <header>
      <identifier>oai:zenodo.org:835680</identifier>
      <datestamp>2017-07-28T07:55:04Z</datestamp>
      <setSpec>user-biosyslit</setSpec>
    </header>
    <header>
      <identifier>oai:zenodo.org:835707</identifier>
      <datestamp>2017-07-28T08:11:35Z</datestamp>
      <setSpec>user-biosyslit</setSpec>
    </header>
    <header>
      <identifier>oai:zenodo.org:835711</identifier>
      <datestamp>2017-07-28T08:11:44Z</datestamp>
      <setSpec>user-biosyslit</setSpec>
    </header>
    <header>
      <identifier>oai:zenodo.org:835697</identifier>
      <datestamp>2017-07-28T08:11:09Z</datestamp>
      <setSpec>user-biosyslit</setSpec>
    </header>
    <header>
      <identifier>oai:zenodo.org:835703</identifier>
      <datestamp>2017-07-28T08:11:24Z</datestamp>
      <setSpec>user-biosyslit</setSpec>
    </header>
    <header>
      <identifier>oai:zenodo.org:835713</identifier>
      <datestamp>2017-07-28T08:11:48Z</datestamp>
      <setSpec>user-biosyslit</setSpec>
    </header>
    <header>
      <identifier>oai:zenodo.org:835701</identifier>
      <datestamp>2017-07-28T08:11:16Z</datestamp>
      <setSpec>user-biosyslit</setSpec>
    </header>
    <header>
      <identifier>oai:zenodo.org:835699</identifier>
      <datestamp>2017-07-28T08:11:12Z</datestamp>
      <setSpec>user-biosyslit</setSpec>
    </header>
    <header>
      <identifier>oai:zenodo.org:833865</identifier>
      <datestamp>2017-07-22T20:54:49Z</datestamp>
      <setSpec>user-biosyslit</setSpec>
    </header>
    <header>
      <identifier>oai:zenodo.org:833861</identifier>
      <datestamp>2017-07-22T20:53:13Z</datestamp>
      <setSpec>user-biosyslit</setSpec>
    </header>
    <header>
      <identifier>oai:zenodo.org:833857</identifier>
      <datestamp>2017-07-22T20:53:03Z</datestamp>
      <setSpec>user-biosyslit</setSpec>
    </header>
    <header>
      <identifier>oai:zenodo.org:833867</identifier>
      <datestamp>2017-07-22T20:54:37Z</datestamp>
      <setSpec>user-biosyslit</setSpec>
    </header>
    <header>
      <identifier>oai:zenodo.org:833859</identifier>
      <datestamp>2017-07-22T20:53:05Z</datestamp>
      <setSpec>user-biosyslit</setSpec>
    </header>
    <header>
      <identifier>oai:zenodo.org:833871</identifier>
      <datestamp>2017-07-22T20:54:43Z</datestamp>
      <setSpec>user-biosyslit</setSpec>
    </header>
    <header>
      <identifier>oai:zenodo.org:833869</identifier>
      <datestamp>2017-07-22T20:54:40Z</datestamp>
      <setSpec>user-biosyslit</setSpec>
    </header>
    <header>
      <identifier>oai:zenodo.org:833794</identifier>
      <datestamp>2017-07-22T20:37:14Z</datestamp>
      <setSpec>user-biosyslit</setSpec>
    </header>
    <header>
      <identifier>oai:zenodo.org:833837</identifier>
      <datestamp>2017-07-22T20:48:39Z</datestamp>
      <setSpec>user-biosyslit</setSpec>
    </header>
    <header>
      <identifier>oai:zenodo.org:833839</identifier>
      <datestamp>2017-07-22T20:50:02Z</datestamp>
      <setSpec>user-biosyslit</setSpec>
    </header>
    <header>
      <identifier>oai:zenodo.org:833829</identifier>
      <datestamp>2017-07-22T20:45:04Z</datestamp>
      <setSpec>user-biosyslit</setSpec>
    </header>
    <header>
      <identifier>oai:zenodo.org:833833</identifier>
      <datestamp>2017-07-22T20:44:57Z</datestamp>
      <setSpec>user-biosyslit</setSpec>
    </header>
    <header>
      <identifier>oai:zenodo.org:833831</identifier>
      <datestamp>2017-07-22T20:44:53Z</datestamp>
      <setSpec>user-biosyslit</setSpec>
    </header>
    <header>
      <identifier>oai:zenodo.org:833847</identifier>
      <datestamp>2017-07-22T20:49:47Z</datestamp>
      <setSpec>user-biosyslit</setSpec>
    </header>
    <header>
      <identifier>oai:zenodo.org:833804</identifier>
      <datestamp>2017-07-22T20:36:30Z</datestamp>
      <setSpec>user-biosyslit</setSpec>
    </header>
    <header>
      <identifier>oai:zenodo.org:833802</identifier>
      <datestamp>2017-07-22T20:36:26Z</datestamp>
      <setSpec>user-biosyslit</setSpec>
    </header>
    <header>
      <identifier>oai:zenodo.org:833806</identifier>
      <datestamp>2017-07-22T20:36:35Z</datestamp>
      <setSpec>user-biosyslit</setSpec>
    </header>
    <header>
      <identifier>oai:zenodo.org:833822</identifier>
      <datestamp>2017-07-22T20:37:01Z</datestamp>
      <setSpec>user-biosyslit</setSpec>
    </header>
    <header>
      <identifier>oai:zenodo.org:833818</identifier>
      <datestamp>2017-07-22T20:36:54Z</datestamp>
      <setSpec>user-biosyslit</setSpec>
    </header>
    <header>
      <identifier>oai:zenodo.org:833800</identifier>
      <datestamp>2017-07-22T20:36:22Z</datestamp>
      <setSpec>user-biosyslit</setSpec>
    </header>
    <header>
      <identifier>oai:zenodo.org:833810</identifier>
      <datestamp>2017-07-22T20:36:40Z</datestamp>
      <setSpec>user-biosyslit</setSpec>
    </header>
    <header>
      <identifier>oai:zenodo.org:833812</identifier>
      <datestamp>2017-07-22T20:36:43Z</datestamp>
      <setSpec>user-biosyslit</setSpec>
    </header>
    <header>
      <identifier>oai:zenodo.org:833796</identifier>
      <datestamp>2017-07-22T20:36:15Z</datestamp>
      <setSpec>user-biosyslit</setSpec>
    </header>
    <header>
      <identifier>oai:zenodo.org:835910</identifier>
      <datestamp>2017-07-28T20:48:51Z</datestamp>
      <setSpec>user-biosyslit</setSpec>
    </header>
    <header>
      <identifier>oai:zenodo.org:835944</identifier>
      <datestamp>2017-07-28T21:02:25Z</datestamp>
      <setSpec>user-biosyslit</setSpec>
    </header>
    <header>
      <identifier>oai:zenodo.org:835948</identifier>
      <datestamp>2017-07-28T21:02:33Z</datestamp>
      <setSpec>user-biosyslit</setSpec>
    </header>
    <header>
      <identifier>oai:zenodo.org:835942</identifier>
      <datestamp>2017-07-28T21:02:21Z</datestamp>
      <setSpec>user-biosyslit</setSpec>
    </header>
    <header>
      <identifier>oai:zenodo.org:835940</identifier>
      <datestamp>2017-07-28T21:02:18Z</datestamp>
      <setSpec>user-biosyslit</setSpec>
    </header>
    <header>
      <identifier>oai:zenodo.org:835950</identifier>
      <datestamp>2017-07-28T21:02:36Z</datestamp>
      <setSpec>user-biosyslit</setSpec>
    </header>
    <header>
      <identifier>oai:zenodo.org:835962</identifier>
      <datestamp>2017-07-28T21:08:17Z</datestamp>
      <setSpec>user-biosyslit</setSpec>
    </header>
    <header>
      <identifier>oai:zenodo.org:835964</identifier>
      <datestamp>2017-07-28T21:08:22Z</datestamp>
      <setSpec>user-biosyslit</setSpec>
    </header>
    <header>
      <identifier>oai:zenodo.org:835952</identifier>
      <datestamp>2017-07-28T21:02:39Z</datestamp>
      <setSpec>user-biosyslit</setSpec>
    </header>
    <header>
      <identifier>oai:zenodo.org:836068</identifier>
      <datestamp>2017-07-28T21:36:20Z</datestamp>
      <setSpec>user-biosyslit</setSpec>
    </header>
    <header>
      <identifier>oai:zenodo.org:836084</identifier>
      <datestamp>2017-07-28T21:40:03Z</datestamp>
      <setSpec>user-biosyslit</setSpec>
    </header>
    <header>
      <identifier>oai:zenodo.org:836062</identifier>
      <datestamp>2017-07-28T21:35:28Z</datestamp>
      <setSpec>user-biosyslit</setSpec>
    </header>
    <header>
      <identifier>oai:zenodo.org:836052</identifier>
      <datestamp>2017-07-28T21:33:22Z</datestamp>
      <setSpec>user-biosyslit</setSpec>
    </header>
    <header>
      <identifier>oai:zenodo.org:836074</identifier>
      <datestamp>2017-07-28T21:36:17Z</datestamp>
      <setSpec>user-biosyslit</setSpec>
    </header>
    <header>
      <identifier>oai:zenodo.org:836054</identifier>
      <datestamp>2017-07-28T21:33:26Z</datestamp>
      <setSpec>user-biosyslit</setSpec>
    </header>
    <header>
      <identifier>oai:zenodo.org:836088</identifier>
      <datestamp>2017-07-28T21:39:52Z</datestamp>
      <setSpec>user-biosyslit</setSpec>
    </header>
    <header>
      <identifier>oai:zenodo.org:836058</identifier>
      <datestamp>2017-07-28T21:35:22Z</datestamp>
      <setSpec>user-biosyslit</setSpec>
    </header>
    <header>
      <identifier>oai:zenodo.org:836092</identifier>
      <datestamp>2017-07-28T21:40:00Z</datestamp>
      <setSpec>user-biosyslit</setSpec>
    </header>
    <header>
      <identifier>oai:zenodo.org:835906</identifier>
      <datestamp>2017-07-28T20:44:25Z</datestamp>
      <setSpec>user-biosyslit</setSpec>
    </header>
    <header>
      <identifier>oai:zenodo.org:835926</identifier>
      <datestamp>2017-07-28T20:48:30Z</datestamp>
      <setSpec>user-biosyslit</setSpec>
    </header>
    <header>
      <identifier>oai:zenodo.org:835916</identifier>
      <datestamp>2017-07-28T20:48:13Z</datestamp>
      <setSpec>user-biosyslit</setSpec>
    </header>
    <header>
      <identifier>oai:zenodo.org:835932</identifier>
      <datestamp>2017-07-28T20:48:42Z</datestamp>
      <setSpec>user-biosyslit</setSpec>
    </header>
    <header>
      <identifier>oai:zenodo.org:835918</identifier>
      <datestamp>2017-07-28T20:48:16Z</datestamp>
      <setSpec>user-biosyslit</setSpec>
    </header>
    <header>
      <identifier>oai:zenodo.org:835920</identifier>
      <datestamp>2017-07-28T20:48:20Z</datestamp>
      <setSpec>user-biosyslit</setSpec>
    </header>
    <header>
      <identifier>oai:zenodo.org:835936</identifier>
      <datestamp>2017-07-28T20:48:48Z</datestamp>
      <setSpec>user-biosyslit</setSpec>
    </header>
    <header>
      <identifier>oai:zenodo.org:835914</identifier>
      <datestamp>2017-07-28T20:48:09Z</datestamp>
      <setSpec>user-biosyslit</setSpec>
    </header>
    <header>
      <identifier>oai:zenodo.org:835974</identifier>
      <datestamp>2017-07-28T21:18:09Z</datestamp>
      <setSpec>user-biosyslit</setSpec>
    </header>
    <header>
      <identifier>oai:zenodo.org:836004</identifier>
      <datestamp>2017-07-28T21:21:42Z</datestamp>
      <setSpec>user-biosyslit</setSpec>
    </header>
    <header>
      <identifier>oai:zenodo.org:835990</identifier>
      <datestamp>2017-07-28T21:21:04Z</datestamp>
      <setSpec>user-biosyslit</setSpec>
    </header>
    <header>
      <identifier>oai:zenodo.org:835994</identifier>
      <datestamp>2017-07-28T21:21:16Z</datestamp>
      <setSpec>user-biosyslit</setSpec>
    </header>
    <header>
      <identifier>oai:zenodo.org:835996</identifier>
      <datestamp>2017-07-28T21:21:22Z</datestamp>
      <setSpec>user-biosyslit</setSpec>
    </header>
    <header>
      <identifier>oai:zenodo.org:835978</identifier>
      <datestamp>2017-07-28T21:18:01Z</datestamp>
      <setSpec>user-biosyslit</setSpec>
    </header>
    <header>
      <identifier>oai:zenodo.org:835970</identifier>
      <datestamp>2017-07-28T21:13:30Z</datestamp>
      <setSpec>user-biosyslit</setSpec>
    </header>
    <header>
      <identifier>oai:zenodo.org:835968</identifier>
      <datestamp>2017-07-28T21:13:25Z</datestamp>
      <setSpec>user-biosyslit</setSpec>
    </header>
    <header>
      <identifier>oai:zenodo.org:835984</identifier>
      <datestamp>2017-07-28T21:20:52Z</datestamp>
      <setSpec>user-biosyslit</setSpec>
    </header>
    <header>
      <identifier>oai:zenodo.org:836014</identifier>
      <datestamp>2017-07-28T21:22:03Z</datestamp>
      <setSpec>user-biosyslit</setSpec>
    </header>
    <header>
      <identifier>oai:zenodo.org:836046</identifier>
      <datestamp>2017-07-28T21:33:11Z</datestamp>
      <setSpec>user-biosyslit</setSpec>
    </header>
    <header>
      <identifier>oai:zenodo.org:836006</identifier>
      <datestamp>2017-07-28T21:21:46Z</datestamp>
      <setSpec>user-biosyslit</setSpec>
    </header>
    <header>
      <identifier>oai:zenodo.org:836010</identifier>
      <datestamp>2017-07-28T21:21:54Z</datestamp>
      <setSpec>user-biosyslit</setSpec>
    </header>
    <header>
      <identifier>oai:zenodo.org:836024</identifier>
      <datestamp>2017-07-28T21:31:11Z</datestamp>
      <setSpec>user-biosyslit</setSpec>
    </header>
    <header>
      <identifier>oai:zenodo.org:836036</identifier>
      <datestamp>2017-07-28T21:32:11Z</datestamp>
      <setSpec>user-biosyslit</setSpec>
    </header>
    <header>
      <identifier>oai:zenodo.org:836028</identifier>
      <datestamp>2017-07-28T21:31:18Z</datestamp>
      <setSpec>user-biosyslit</setSpec>
    </header>
    <header>
      <identifier>oai:zenodo.org:836040</identifier>
      <datestamp>2017-07-28T21:32:17Z</datestamp>
      <setSpec>user-biosyslit</setSpec>
    </header>
    <header>
      <identifier>oai:zenodo.org:830786</identifier>
      <datestamp>2017-08-01T15:50:10Z</datestamp>
      <setSpec>openaire</setSpec>
      <setSpec>user-biosyslit</setSpec>
    </header>
    <header>
      <identifier>oai:zenodo.org:830216</identifier>
      <datestamp>2017-08-01T15:50:09Z</datestamp>
      <setSpec>openaire</setSpec>
      <setSpec>user-biosyslit</setSpec>
    </header>
    <header>
      <identifier>oai:zenodo.org:831094</identifier>
      <datestamp>2017-08-01T15:50:10Z</datestamp>
      <setSpec>openaire</setSpec>
      <setSpec>user-biosyslit</setSpec>
    </header>
    <header>
      <identifier>oai:zenodo.org:832985</identifier>
      <datestamp>2017-08-01T15:50:10Z</datestamp>
      <setSpec>openaire</setSpec>
      <setSpec>user-biosyslit</setSpec>
    </header>
    <header>
      <identifier>oai:zenodo.org:851474</identifier>
      <datestamp>2017-08-27T12:08:10Z</datestamp>
      <setSpec>user-biosyslit</setSpec>
    </header>
    <header>
      <identifier>oai:zenodo.org:851472</identifier>
      <datestamp>2017-08-27T12:08:07Z</datestamp>
      <setSpec>user-biosyslit</setSpec>
    </header>
    <header>
      <identifier>oai:zenodo.org:851476</identifier>
      <datestamp>2017-08-27T12:08:13Z</datestamp>
      <setSpec>user-biosyslit</setSpec>
    </header>
    <header>
      <identifier>oai:zenodo.org:851462</identifier>
      <datestamp>2017-08-27T12:07:52Z</datestamp>
      <setSpec>user-biosyslit</setSpec>
    </header>
    <header>
      <identifier>oai:zenodo.org:851484</identifier>
      <datestamp>2017-08-27T12:08:26Z</datestamp>
      <setSpec>user-biosyslit</setSpec>
    </header>
    <header>
      <identifier>oai:zenodo.org:851563</identifier>
      <datestamp>2017-08-27T17:36:02Z</datestamp>
      <setSpec>user-biosyslit</setSpec>
    </header>
    <resumptionToken expirationDate="2017-08-31T15:45:31Z" cursor="38500" completeListSize="77796">.eJyNyssKgkAUANB_uWuJGW8-ENqEJi1UdFLUTZiKVKOJU6gT_ntuWtf6nDeIuq7AIhuKVKdb3UBdQ9Q0qoAohwfn5-vKUKYJLzseF27yitqEZGpj-LaYPDtDX95J0FLJDqGaUnOKr2QOT_Ezk9GU4HFkxDE8Gc7-7bi-CgOX5xe3Z3G350ythsAJZ0b3LMfy--ifT_58ttiBAn3R1GChaShwH4uhEWC9l-UDk15ROQ.DInAIw.nH_4PhMtdwE3Hp0JVoGJC6wwHDA</resumptionToken>
  </ListIdentifiers>
</OAI-PMH>
