<?xml version='1.0' encoding='UTF-8'?>
<?xml-stylesheet type="text/xsl" href="/static/xsl/oai2.v1.0.xsl"?>
<OAI-PMH xmlns="http://www.openarchives.org/OAI/2.0/" xmlns:xsi="http://www.w3.org/2001/XMLSchema-instance" xsi:schemaLocation="http://www.openarchives.org/OAI/2.0/ http://www.openarchives.org/OAI/2.0/OAI-PMH.xsd">
  <responseDate>2017-08-31T15:43:01Z</responseDate>
  <request verb="ListIdentifiers" resumptionToken=".eJyNyj0PQ0AYAOD_8s7S3Dn1lXQRKgaEK8HSKCKto-La4Jr-91o6t_PzvIA3TQ0m2hkYqYZCNBUre5XsdQl4Nd0ZO183hipLWTWwpHTTZ9ynKJdbLbD54ts5CUSHwh4LeozkDOtLckVrdEoeuYiXlHgzRY7mi2gNbt72ahK6rLi4I00Gi1G5nkInWim2aEGq78N_PvHz2fwAEoxl24BJMJagm8up5WC-3u8PolBRPQ.DInABQ.T86kvr5TlTgCrJoXn-rClc1PQ6U">https://zenodo.org/oai2d</request>
  <ListIdentifiers>
    <header>
      <identifier>oai:zenodo.org:266403</identifier>
      <datestamp>2017-02-01T07:49:38Z</datestamp>
      <setSpec>user-biosyslit</setSpec>
    </header>
    <header>
      <identifier>oai:zenodo.org:273439</identifier>
      <datestamp>2017-02-08T09:21:52Z</datestamp>
      <setSpec>user-biosyslit</setSpec>
    </header>
    <header>
      <identifier>oai:zenodo.org:236626</identifier>
      <datestamp>2017-01-10T02:10:48Z</datestamp>
      <setSpec>user-biosyslit</setSpec>
    </header>
    <header>
      <identifier>oai:zenodo.org:236893</identifier>
      <datestamp>2017-01-10T07:54:13Z</datestamp>
      <setSpec>user-biosyslit</setSpec>
    </header>
    <header>
      <identifier>oai:zenodo.org:236887</identifier>
      <datestamp>2017-01-10T07:53:54Z</datestamp>
      <setSpec>user-biosyslit</setSpec>
    </header>
    <header>
      <identifier>oai:zenodo.org:236888</identifier>
      <datestamp>2017-01-10T07:53:57Z</datestamp>
      <setSpec>user-biosyslit</setSpec>
    </header>
    <header>
      <identifier>oai:zenodo.org:236889</identifier>
      <datestamp>2017-01-10T07:54:00Z</datestamp>
      <setSpec>user-biosyslit</setSpec>
    </header>
    <header>
      <identifier>oai:zenodo.org:282441</identifier>
      <datestamp>2017-02-09T07:00:23Z</datestamp>
      <setSpec>user-biosyslit</setSpec>
    </header>
    <header>
      <identifier>oai:zenodo.org:285580</identifier>
      <datestamp>2017-02-09T13:53:22Z</datestamp>
      <setSpec>user-biosyslit</setSpec>
    </header>
    <header>
      <identifier>oai:zenodo.org:279829</identifier>
      <datestamp>2017-02-09T02:07:48Z</datestamp>
      <setSpec>user-biosyslit</setSpec>
    </header>
    <header>
      <identifier>oai:zenodo.org:279832</identifier>
      <datestamp>2017-02-09T02:07:54Z</datestamp>
      <setSpec>user-biosyslit</setSpec>
    </header>
    <header>
      <identifier>oai:zenodo.org:285577</identifier>
      <datestamp>2017-02-09T13:53:14Z</datestamp>
      <setSpec>user-biosyslit</setSpec>
    </header>
    <header>
      <identifier>oai:zenodo.org:279827</identifier>
      <datestamp>2017-02-09T02:07:41Z</datestamp>
      <setSpec>user-biosyslit</setSpec>
    </header>
    <header>
      <identifier>oai:zenodo.org:279830</identifier>
      <datestamp>2017-02-09T02:07:50Z</datestamp>
      <setSpec>user-biosyslit</setSpec>
    </header>
    <header>
      <identifier>oai:zenodo.org:282439</identifier>
      <datestamp>2017-02-09T07:00:20Z</datestamp>
      <setSpec>user-biosyslit</setSpec>
    </header>
    <header>
      <identifier>oai:zenodo.org:285582</identifier>
      <datestamp>2017-02-09T13:53:28Z</datestamp>
      <setSpec>user-biosyslit</setSpec>
    </header>
    <header>
      <identifier>oai:zenodo.org:282437</identifier>
      <datestamp>2017-02-09T07:00:31Z</datestamp>
      <setSpec>user-biosyslit</setSpec>
    </header>
    <header>
      <identifier>oai:zenodo.org:282443</identifier>
      <datestamp>2017-02-09T07:00:27Z</datestamp>
      <setSpec>user-biosyslit</setSpec>
    </header>
    <header>
      <identifier>oai:zenodo.org:240069</identifier>
      <datestamp>2017-01-12T04:21:44Z</datestamp>
      <setSpec>user-biosyslit</setSpec>
    </header>
    <header>
      <identifier>oai:zenodo.org:240068</identifier>
      <datestamp>2017-01-12T04:21:37Z</datestamp>
      <setSpec>user-biosyslit</setSpec>
    </header>
    <header>
      <identifier>oai:zenodo.org:240071</identifier>
      <datestamp>2017-01-12T04:21:50Z</datestamp>
      <setSpec>user-biosyslit</setSpec>
    </header>
    <header>
      <identifier>oai:zenodo.org:241878</identifier>
      <datestamp>2017-01-13T07:15:05Z</datestamp>
      <setSpec>user-biosyslit</setSpec>
    </header>
    <header>
      <identifier>oai:zenodo.org:240070</identifier>
      <datestamp>2017-01-12T04:21:47Z</datestamp>
      <setSpec>user-biosyslit</setSpec>
    </header>
    <header>
      <identifier>oai:zenodo.org:241879</identifier>
      <datestamp>2017-01-13T07:15:09Z</datestamp>
      <setSpec>user-biosyslit</setSpec>
    </header>
    <header>
      <identifier>oai:zenodo.org:240067</identifier>
      <datestamp>2017-01-12T04:21:33Z</datestamp>
      <setSpec>user-biosyslit</setSpec>
    </header>
    <header>
      <identifier>oai:zenodo.org:240066</identifier>
      <datestamp>2017-01-12T04:21:59Z</datestamp>
      <setSpec>user-biosyslit</setSpec>
    </header>
    <header>
      <identifier>oai:zenodo.org:240073</identifier>
      <datestamp>2017-01-12T04:21:55Z</datestamp>
      <setSpec>user-biosyslit</setSpec>
    </header>
    <header>
      <identifier>oai:zenodo.org:240072</identifier>
      <datestamp>2017-01-12T04:21:53Z</datestamp>
      <setSpec>user-biosyslit</setSpec>
    </header>
    <header>
      <identifier>oai:zenodo.org:231123</identifier>
      <datestamp>2017-01-05T14:44:58Z</datestamp>
      <setSpec>user-biosyslit</setSpec>
    </header>
    <header>
      <identifier>oai:zenodo.org:239500</identifier>
      <datestamp>2017-01-11T21:31:55Z</datestamp>
      <setSpec>user-biosyslit</setSpec>
    </header>
    <header>
      <identifier>oai:zenodo.org:239507</identifier>
      <datestamp>2017-01-11T21:31:54Z</datestamp>
      <setSpec>user-biosyslit</setSpec>
    </header>
    <header>
      <identifier>oai:zenodo.org:239504</identifier>
      <datestamp>2017-01-11T21:31:46Z</datestamp>
      <setSpec>user-biosyslit</setSpec>
    </header>
    <header>
      <identifier>oai:zenodo.org:270513</identifier>
      <datestamp>2017-02-07T23:23:55Z</datestamp>
      <setSpec>user-biosyslit</setSpec>
    </header>
    <header>
      <identifier>oai:zenodo.org:237488</identifier>
      <datestamp>2017-01-10T16:12:32Z</datestamp>
      <setSpec>user-biosyslit</setSpec>
    </header>
    <header>
      <identifier>oai:zenodo.org:237490</identifier>
      <datestamp>2017-01-10T16:12:45Z</datestamp>
      <setSpec>user-biosyslit</setSpec>
    </header>
    <header>
      <identifier>oai:zenodo.org:237492</identifier>
      <datestamp>2017-01-10T16:12:51Z</datestamp>
      <setSpec>user-biosyslit</setSpec>
    </header>
    <header>
      <identifier>oai:zenodo.org:237496</identifier>
      <datestamp>2017-01-10T16:13:04Z</datestamp>
      <setSpec>user-biosyslit</setSpec>
    </header>
    <header>
      <identifier>oai:zenodo.org:237494</identifier>
      <datestamp>2017-01-10T16:12:57Z</datestamp>
      <setSpec>user-biosyslit</setSpec>
    </header>
    <header>
      <identifier>oai:zenodo.org:270517</identifier>
      <datestamp>2017-02-07T23:23:54Z</datestamp>
      <setSpec>user-biosyslit</setSpec>
    </header>
    <header>
      <identifier>oai:zenodo.org:237487</identifier>
      <datestamp>2017-01-10T16:13:12Z</datestamp>
      <setSpec>user-biosyslit</setSpec>
    </header>
    <header>
      <identifier>oai:zenodo.org:265444</identifier>
      <datestamp>2017-01-31T14:02:21Z</datestamp>
      <setSpec>user-biosyslit</setSpec>
    </header>
    <header>
      <identifier>oai:zenodo.org:265447</identifier>
      <datestamp>2017-01-31T14:02:12Z</datestamp>
      <setSpec>user-biosyslit</setSpec>
    </header>
    <header>
      <identifier>oai:zenodo.org:265448</identifier>
      <datestamp>2017-01-31T14:02:15Z</datestamp>
      <setSpec>user-biosyslit</setSpec>
    </header>
    <header>
      <identifier>oai:zenodo.org:265446</identifier>
      <datestamp>2017-01-31T14:02:10Z</datestamp>
      <setSpec>user-biosyslit</setSpec>
    </header>
    <header>
      <identifier>oai:zenodo.org:232834</identifier>
      <datestamp>2017-01-06T23:44:58Z</datestamp>
      <setSpec>user-biosyslit</setSpec>
    </header>
    <header>
      <identifier>oai:zenodo.org:265450</identifier>
      <datestamp>2017-01-31T14:02:20Z</datestamp>
      <setSpec>user-biosyslit</setSpec>
    </header>
    <header>
      <identifier>oai:zenodo.org:282727</identifier>
      <datestamp>2017-02-09T07:32:09Z</datestamp>
      <setSpec>user-biosyslit</setSpec>
    </header>
    <header>
      <identifier>oai:zenodo.org:282729</identifier>
      <datestamp>2017-02-09T07:32:00Z</datestamp>
      <setSpec>user-biosyslit</setSpec>
    </header>
    <header>
      <identifier>oai:zenodo.org:282728</identifier>
      <datestamp>2017-02-09T07:31:57Z</datestamp>
      <setSpec>user-biosyslit</setSpec>
    </header>
    <header>
      <identifier>oai:zenodo.org:282730</identifier>
      <datestamp>2017-02-09T07:32:03Z</datestamp>
      <setSpec>user-biosyslit</setSpec>
    </header>
    <header>
      <identifier>oai:zenodo.org:282732</identifier>
      <datestamp>2017-02-09T07:32:08Z</datestamp>
      <setSpec>user-biosyslit</setSpec>
    </header>
    <header>
      <identifier>oai:zenodo.org:256222</identifier>
      <datestamp>2017-01-22T07:32:01Z</datestamp>
      <setSpec>user-biosyslit</setSpec>
    </header>
    <header>
      <identifier>oai:zenodo.org:256219</identifier>
      <datestamp>2017-01-22T07:32:29Z</datestamp>
      <setSpec>user-biosyslit</setSpec>
    </header>
    <header>
      <identifier>oai:zenodo.org:256223</identifier>
      <datestamp>2017-01-22T07:32:03Z</datestamp>
      <setSpec>user-biosyslit</setSpec>
    </header>
    <header>
      <identifier>oai:zenodo.org:256227</identifier>
      <datestamp>2017-01-22T07:32:13Z</datestamp>
      <setSpec>user-biosyslit</setSpec>
    </header>
    <header>
      <identifier>oai:zenodo.org:280792</identifier>
      <datestamp>2017-02-09T04:05:23Z</datestamp>
      <setSpec>user-biosyslit</setSpec>
    </header>
    <header>
      <identifier>oai:zenodo.org:280790</identifier>
      <datestamp>2017-02-09T04:05:19Z</datestamp>
      <setSpec>user-biosyslit</setSpec>
    </header>
    <header>
      <identifier>oai:zenodo.org:280789</identifier>
      <datestamp>2017-02-09T04:05:16Z</datestamp>
      <setSpec>user-biosyslit</setSpec>
    </header>
    <header>
      <identifier>oai:zenodo.org:280791</identifier>
      <datestamp>2017-02-09T04:05:21Z</datestamp>
      <setSpec>user-biosyslit</setSpec>
    </header>
    <header>
      <identifier>oai:zenodo.org:280788</identifier>
      <datestamp>2017-02-09T04:05:13Z</datestamp>
      <setSpec>user-biosyslit</setSpec>
    </header>
    <header>
      <identifier>oai:zenodo.org:280785</identifier>
      <datestamp>2017-02-09T04:05:07Z</datestamp>
      <setSpec>user-biosyslit</setSpec>
    </header>
    <header>
      <identifier>oai:zenodo.org:276594</identifier>
      <datestamp>2017-02-08T19:17:51Z</datestamp>
      <setSpec>user-biosyslit</setSpec>
    </header>
    <header>
      <identifier>oai:zenodo.org:280784</identifier>
      <datestamp>2017-02-09T04:05:24Z</datestamp>
      <setSpec>user-biosyslit</setSpec>
    </header>
    <header>
      <identifier>oai:zenodo.org:265635</identifier>
      <datestamp>2017-01-31T18:08:49Z</datestamp>
      <setSpec>user-biosyslit</setSpec>
    </header>
    <header>
      <identifier>oai:zenodo.org:276596</identifier>
      <datestamp>2017-02-08T19:17:46Z</datestamp>
      <setSpec>user-biosyslit</setSpec>
    </header>
    <header>
      <identifier>oai:zenodo.org:265636</identifier>
      <datestamp>2017-01-31T18:08:56Z</datestamp>
      <setSpec>user-biosyslit</setSpec>
    </header>
    <header>
      <identifier>oai:zenodo.org:286127</identifier>
      <datestamp>2017-02-09T15:17:21Z</datestamp>
      <setSpec>user-biosyslit</setSpec>
    </header>
    <header>
      <identifier>oai:zenodo.org:286128</identifier>
      <datestamp>2017-02-09T15:17:23Z</datestamp>
      <setSpec>user-biosyslit</setSpec>
    </header>
    <header>
      <identifier>oai:zenodo.org:276595</identifier>
      <datestamp>2017-02-08T19:17:44Z</datestamp>
      <setSpec>user-biosyslit</setSpec>
    </header>
    <header>
      <identifier>oai:zenodo.org:229088</identifier>
      <datestamp>2017-01-03T09:24:48Z</datestamp>
      <setSpec>user-biosyslit</setSpec>
    </header>
    <header>
      <identifier>oai:zenodo.org:230641</identifier>
      <datestamp>2017-01-05T05:21:08Z</datestamp>
      <setSpec>user-biosyslit</setSpec>
    </header>
    <header>
      <identifier>oai:zenodo.org:230635</identifier>
      <datestamp>2017-01-05T05:20:49Z</datestamp>
      <setSpec>user-biosyslit</setSpec>
    </header>
    <header>
      <identifier>oai:zenodo.org:230640</identifier>
      <datestamp>2017-01-05T05:21:05Z</datestamp>
      <setSpec>user-biosyslit</setSpec>
    </header>
    <header>
      <identifier>oai:zenodo.org:230638</identifier>
      <datestamp>2017-01-05T05:20:58Z</datestamp>
      <setSpec>user-biosyslit</setSpec>
    </header>
    <header>
      <identifier>oai:zenodo.org:228432</identifier>
      <datestamp>2017-01-02T23:45:12Z</datestamp>
      <setSpec>user-biosyslit</setSpec>
    </header>
    <header>
      <identifier>oai:zenodo.org:229091</identifier>
      <datestamp>2017-01-03T09:24:45Z</datestamp>
      <setSpec>user-biosyslit</setSpec>
    </header>
    <header>
      <identifier>oai:zenodo.org:228426</identifier>
      <datestamp>2017-01-02T23:44:51Z</datestamp>
      <setSpec>user-biosyslit</setSpec>
    </header>
    <header>
      <identifier>oai:zenodo.org:235608</identifier>
      <datestamp>2017-01-09T12:44:28Z</datestamp>
      <setSpec>user-biosyslit</setSpec>
    </header>
    <header>
      <identifier>oai:zenodo.org:235611</identifier>
      <datestamp>2017-01-09T12:44:38Z</datestamp>
      <setSpec>user-biosyslit</setSpec>
    </header>
    <header>
      <identifier>oai:zenodo.org:235606</identifier>
      <datestamp>2017-01-09T12:44:22Z</datestamp>
      <setSpec>user-biosyslit</setSpec>
    </header>
    <header>
      <identifier>oai:zenodo.org:235601</identifier>
      <datestamp>2017-01-09T12:44:02Z</datestamp>
      <setSpec>user-biosyslit</setSpec>
    </header>
    <header>
      <identifier>oai:zenodo.org:235602</identifier>
      <datestamp>2017-01-09T12:44:06Z</datestamp>
      <setSpec>user-biosyslit</setSpec>
    </header>
    <header>
      <identifier>oai:zenodo.org:235613</identifier>
      <datestamp>2017-01-09T12:44:43Z</datestamp>
      <setSpec>user-biosyslit</setSpec>
    </header>
    <header>
      <identifier>oai:zenodo.org:235612</identifier>
      <datestamp>2017-01-09T12:44:41Z</datestamp>
      <setSpec>user-biosyslit</setSpec>
    </header>
    <header>
      <identifier>oai:zenodo.org:241802</identifier>
      <datestamp>2017-01-13T06:14:01Z</datestamp>
      <setSpec>user-biosyslit</setSpec>
    </header>
    <header>
      <identifier>oai:zenodo.org:241806</identifier>
      <datestamp>2017-01-13T06:14:12Z</datestamp>
      <setSpec>user-biosyslit</setSpec>
    </header>
    <header>
      <identifier>oai:zenodo.org:241804</identifier>
      <datestamp>2017-01-13T06:14:07Z</datestamp>
      <setSpec>user-biosyslit</setSpec>
    </header>
    <header>
      <identifier>oai:zenodo.org:241808</identifier>
      <datestamp>2017-01-13T06:14:21Z</datestamp>
      <setSpec>user-biosyslit</setSpec>
    </header>
    <header>
      <identifier>oai:zenodo.org:241800</identifier>
      <datestamp>2017-01-13T06:13:54Z</datestamp>
      <setSpec>user-biosyslit</setSpec>
    </header>
    <header>
      <identifier>oai:zenodo.org:241807</identifier>
      <datestamp>2017-01-13T06:14:17Z</datestamp>
      <setSpec>user-biosyslit</setSpec>
    </header>
    <header>
      <identifier>oai:zenodo.org:241809</identifier>
      <datestamp>2017-01-13T06:14:24Z</datestamp>
      <setSpec>user-biosyslit</setSpec>
    </header>
    <header>
      <identifier>oai:zenodo.org:245399</identifier>
      <datestamp>2017-01-15T12:46:26Z</datestamp>
      <setSpec>user-biosyslit</setSpec>
    </header>
    <header>
      <identifier>oai:zenodo.org:245403</identifier>
      <datestamp>2017-01-15T12:46:24Z</datestamp>
      <setSpec>user-biosyslit</setSpec>
    </header>
    <header>
      <identifier>oai:zenodo.org:234080</identifier>
      <datestamp>2017-01-08T14:41:44Z</datestamp>
      <setSpec>user-biosyslit</setSpec>
    </header>
    <header>
      <identifier>oai:zenodo.org:234076</identifier>
      <datestamp>2017-01-08T14:41:29Z</datestamp>
      <setSpec>user-biosyslit</setSpec>
    </header>
    <header>
      <identifier>oai:zenodo.org:234079</identifier>
      <datestamp>2017-01-08T14:41:39Z</datestamp>
      <setSpec>user-biosyslit</setSpec>
    </header>
    <header>
      <identifier>oai:zenodo.org:234077</identifier>
      <datestamp>2017-01-08T14:41:32Z</datestamp>
      <setSpec>user-biosyslit</setSpec>
    </header>
    <header>
      <identifier>oai:zenodo.org:275257</identifier>
      <datestamp>2017-02-08T15:49:03Z</datestamp>
      <setSpec>user-biosyslit</setSpec>
    </header>
    <header>
      <identifier>oai:zenodo.org:241330</identifier>
      <datestamp>2017-01-13T00:03:15Z</datestamp>
      <setSpec>user-biosyslit</setSpec>
    </header>
    <header>
      <identifier>oai:zenodo.org:244058</identifier>
      <datestamp>2017-01-14T15:50:21Z</datestamp>
      <setSpec>user-biosyslit</setSpec>
    </header>
    <resumptionToken expirationDate="2017-08-31T15:45:01Z" cursor="31000" completeListSize="77796">.eJyNyk0LgjAYAOD_8p4lNudXQpfQxIOKLiW7hE0Rc1a4Qp343_PSuc7PM4OoqhJstDE0rBm6ZZjm1tCxAoL1D84vzYrAThlnd54WXvZOugzlam2GjhgDJyehbFHUYUkPsXrC1pg2aIqP6SuXyZgRf6DINQMZT-HNX19JIo-fr96Tpvc9p2rZR248UbynZ8K-D__55M_niB0o8CzqCmyCVQXaoehrAfa8LB8_WlDc.DInABQ.wW6JYcplnGS9uwnLgd8ZQRlYye0</resumptionToken>
  </ListIdentifiers>
</OAI-PMH>
