<?xml version='1.0' encoding='UTF-8'?>
<?xml-stylesheet type="text/xsl" href="/static/xsl/oai2.v1.0.xsl"?>
<OAI-PMH xmlns="http://www.openarchives.org/OAI/2.0/" xmlns:xsi="http://www.w3.org/2001/XMLSchema-instance" xsi:schemaLocation="http://www.openarchives.org/OAI/2.0/ http://www.openarchives.org/OAI/2.0/OAI-PMH.xsd">
  <responseDate>2017-08-31T15:41:28Z</responseDate>
  <request verb="ListIdentifiers" resumptionToken=".eJyNyssKgkAUANB_uWuJeZQvaBOauFDRSUk3YSpijiZOoY7077VpXetzVhBVVYKJNoSoVDN0dYu2yKA7TBUQxXjn_NJ8HIpzwouex7mTPKMuQSmpNd8Ss2el1JctCjos2TEkZ6zPcYOW8BQ_UhnNCXUnhmzNk-Hi39zPK2ng8OzqDCzuD5yRcgzscGH4wDJafB_-88mfzxJ7UGDI6wpMDSnQTvlYCzDX1-sNf8JROg.DIm_qA.rPtl98BEziVzmqKILICKGwMKqUo">https://zenodo.org/oai2d</request>
  <ListIdentifiers>
    <header>
      <identifier>oai:zenodo.org:228768</identifier>
      <datestamp>2017-01-03T04:37:56Z</datestamp>
      <setSpec>user-biosyslit</setSpec>
    </header>
    <header>
      <identifier>oai:zenodo.org:273933</identifier>
      <datestamp>2017-02-08T11:21:23Z</datestamp>
      <setSpec>user-biosyslit</setSpec>
    </header>
    <header>
      <identifier>oai:zenodo.org:273592</identifier>
      <datestamp>2017-02-08T10:01:37Z</datestamp>
      <setSpec>user-biosyslit</setSpec>
    </header>
    <header>
      <identifier>oai:zenodo.org:262406</identifier>
      <datestamp>2017-01-29T03:42:37Z</datestamp>
      <setSpec>user-biosyslit</setSpec>
    </header>
    <header>
      <identifier>oai:zenodo.org:262227</identifier>
      <datestamp>2017-01-28T23:52:20Z</datestamp>
      <setSpec>user-biosyslit</setSpec>
    </header>
    <header>
      <identifier>oai:zenodo.org:262360</identifier>
      <datestamp>2017-01-29T02:28:41Z</datestamp>
      <setSpec>user-biosyslit</setSpec>
    </header>
    <header>
      <identifier>oai:zenodo.org:262388</identifier>
      <datestamp>2017-01-29T03:25:36Z</datestamp>
      <setSpec>user-biosyslit</setSpec>
    </header>
    <header>
      <identifier>oai:zenodo.org:262401</identifier>
      <datestamp>2017-01-29T03:35:18Z</datestamp>
      <setSpec>user-biosyslit</setSpec>
    </header>
    <header>
      <identifier>oai:zenodo.org:273875</identifier>
      <datestamp>2017-02-08T11:01:58Z</datestamp>
      <setSpec>user-biosyslit</setSpec>
    </header>
    <header>
      <identifier>oai:zenodo.org:226958</identifier>
      <datestamp>2017-01-01T07:21:00Z</datestamp>
      <setSpec>user-biosyslit</setSpec>
    </header>
    <header>
      <identifier>oai:zenodo.org:226733</identifier>
      <datestamp>2017-01-01T02:50:38Z</datestamp>
      <setSpec>user-biosyslit</setSpec>
    </header>
    <header>
      <identifier>oai:zenodo.org:262708</identifier>
      <datestamp>2017-01-29T07:31:25Z</datestamp>
      <setSpec>user-biosyslit</setSpec>
    </header>
    <header>
      <identifier>oai:zenodo.org:262588</identifier>
      <datestamp>2017-01-29T06:01:49Z</datestamp>
      <setSpec>user-biosyslit</setSpec>
    </header>
    <header>
      <identifier>oai:zenodo.org:263470</identifier>
      <datestamp>2017-01-29T22:35:03Z</datestamp>
      <setSpec>user-biosyslit</setSpec>
    </header>
    <header>
      <identifier>oai:zenodo.org:262581</identifier>
      <datestamp>2017-01-29T05:50:22Z</datestamp>
      <setSpec>user-biosyslit</setSpec>
    </header>
    <header>
      <identifier>oai:zenodo.org:262800</identifier>
      <datestamp>2017-01-29T08:55:38Z</datestamp>
      <setSpec>user-biosyslit</setSpec>
    </header>
    <header>
      <identifier>oai:zenodo.org:262731</identifier>
      <datestamp>2017-01-29T07:53:08Z</datestamp>
      <setSpec>user-biosyslit</setSpec>
    </header>
    <header>
      <identifier>oai:zenodo.org:262928</identifier>
      <datestamp>2017-01-29T11:10:18Z</datestamp>
      <setSpec>user-biosyslit</setSpec>
    </header>
    <header>
      <identifier>oai:zenodo.org:262931</identifier>
      <datestamp>2017-01-29T13:26:04Z</datestamp>
      <setSpec>user-biosyslit</setSpec>
    </header>
    <header>
      <identifier>oai:zenodo.org:263452</identifier>
      <datestamp>2017-01-29T22:34:07Z</datestamp>
      <setSpec>user-biosyslit</setSpec>
    </header>
    <header>
      <identifier>oai:zenodo.org:263122</identifier>
      <datestamp>2017-01-29T17:26:24Z</datestamp>
      <setSpec>user-biosyslit</setSpec>
    </header>
    <header>
      <identifier>oai:zenodo.org:264313</identifier>
      <datestamp>2017-01-30T19:03:07Z</datestamp>
      <setSpec>user-biosyslit</setSpec>
    </header>
    <header>
      <identifier>oai:zenodo.org:263561</identifier>
      <datestamp>2017-01-30T00:34:17Z</datestamp>
      <setSpec>user-biosyslit</setSpec>
    </header>
    <header>
      <identifier>oai:zenodo.org:263099</identifier>
      <datestamp>2017-01-29T16:40:01Z</datestamp>
      <setSpec>user-biosyslit</setSpec>
    </header>
    <header>
      <identifier>oai:zenodo.org:262924</identifier>
      <datestamp>2017-01-29T11:10:03Z</datestamp>
      <setSpec>user-biosyslit</setSpec>
    </header>
    <header>
      <identifier>oai:zenodo.org:263576</identifier>
      <datestamp>2017-01-30T00:50:53Z</datestamp>
      <setSpec>user-biosyslit</setSpec>
    </header>
    <header>
      <identifier>oai:zenodo.org:274049</identifier>
      <datestamp>2017-02-08T11:58:40Z</datestamp>
      <setSpec>user-biosyslit</setSpec>
    </header>
    <header>
      <identifier>oai:zenodo.org:263567</identifier>
      <datestamp>2017-01-30T00:34:44Z</datestamp>
      <setSpec>user-biosyslit</setSpec>
    </header>
    <header>
      <identifier>oai:zenodo.org:263228</identifier>
      <datestamp>2017-01-29T19:12:00Z</datestamp>
      <setSpec>user-biosyslit</setSpec>
    </header>
    <header>
      <identifier>oai:zenodo.org:264758</identifier>
      <datestamp>2017-01-31T02:14:45Z</datestamp>
      <setSpec>user-biosyslit</setSpec>
    </header>
    <header>
      <identifier>oai:zenodo.org:262918</identifier>
      <datestamp>2017-01-29T11:09:39Z</datestamp>
      <setSpec>user-biosyslit</setSpec>
    </header>
    <header>
      <identifier>oai:zenodo.org:263876</identifier>
      <datestamp>2017-01-30T09:25:08Z</datestamp>
      <setSpec>user-biosyslit</setSpec>
    </header>
    <header>
      <identifier>oai:zenodo.org:263645</identifier>
      <datestamp>2017-01-30T02:16:07Z</datestamp>
      <setSpec>user-biosyslit</setSpec>
    </header>
    <header>
      <identifier>oai:zenodo.org:263438</identifier>
      <datestamp>2017-01-29T22:33:23Z</datestamp>
      <setSpec>user-biosyslit</setSpec>
    </header>
    <header>
      <identifier>oai:zenodo.org:263822</identifier>
      <datestamp>2017-01-30T08:36:16Z</datestamp>
      <setSpec>user-biosyslit</setSpec>
    </header>
    <header>
      <identifier>oai:zenodo.org:263828</identifier>
      <datestamp>2017-01-30T08:46:34Z</datestamp>
      <setSpec>user-biosyslit</setSpec>
    </header>
    <header>
      <identifier>oai:zenodo.org:263772</identifier>
      <datestamp>2017-01-30T07:49:06Z</datestamp>
      <setSpec>user-biosyslit</setSpec>
    </header>
    <header>
      <identifier>oai:zenodo.org:263865</identifier>
      <datestamp>2017-01-30T09:12:05Z</datestamp>
      <setSpec>user-biosyslit</setSpec>
    </header>
    <header>
      <identifier>oai:zenodo.org:264388</identifier>
      <datestamp>2017-01-30T20:24:28Z</datestamp>
      <setSpec>user-biosyslit</setSpec>
    </header>
    <header>
      <identifier>oai:zenodo.org:274815</identifier>
      <datestamp>2017-02-08T14:30:09Z</datestamp>
      <setSpec>user-biosyslit</setSpec>
    </header>
    <header>
      <identifier>oai:zenodo.org:264059</identifier>
      <datestamp>2017-01-30T12:26:17Z</datestamp>
      <setSpec>user-biosyslit</setSpec>
    </header>
    <header>
      <identifier>oai:zenodo.org:264697</identifier>
      <datestamp>2017-01-31T01:08:26Z</datestamp>
      <setSpec>user-biosyslit</setSpec>
    </header>
    <header>
      <identifier>oai:zenodo.org:266412</identifier>
      <datestamp>2017-02-01T08:31:16Z</datestamp>
      <setSpec>user-biosyslit</setSpec>
    </header>
    <header>
      <identifier>oai:zenodo.org:264718</identifier>
      <datestamp>2017-01-31T01:23:42Z</datestamp>
      <setSpec>user-biosyslit</setSpec>
    </header>
    <header>
      <identifier>oai:zenodo.org:264527</identifier>
      <datestamp>2017-01-30T23:05:45Z</datestamp>
      <setSpec>user-biosyslit</setSpec>
    </header>
    <header>
      <identifier>oai:zenodo.org:264635</identifier>
      <datestamp>2017-01-31T00:32:30Z</datestamp>
      <setSpec>user-biosyslit</setSpec>
    </header>
    <header>
      <identifier>oai:zenodo.org:264684</identifier>
      <datestamp>2017-01-31T00:57:54Z</datestamp>
      <setSpec>user-biosyslit</setSpec>
    </header>
    <header>
      <identifier>oai:zenodo.org:265502</identifier>
      <datestamp>2017-01-31T14:45:16Z</datestamp>
      <setSpec>user-biosyslit</setSpec>
    </header>
    <header>
      <identifier>oai:zenodo.org:264499</identifier>
      <datestamp>2017-01-30T22:54:24Z</datestamp>
      <setSpec>user-biosyslit</setSpec>
    </header>
    <header>
      <identifier>oai:zenodo.org:265873</identifier>
      <datestamp>2017-01-31T22:39:04Z</datestamp>
      <setSpec>user-biosyslit</setSpec>
    </header>
    <header>
      <identifier>oai:zenodo.org:266558</identifier>
      <datestamp>2017-02-01T12:02:53Z</datestamp>
      <setSpec>user-biosyslit</setSpec>
    </header>
    <header>
      <identifier>oai:zenodo.org:264752</identifier>
      <datestamp>2017-01-31T02:14:22Z</datestamp>
      <setSpec>user-biosyslit</setSpec>
    </header>
    <header>
      <identifier>oai:zenodo.org:264674</identifier>
      <datestamp>2017-01-31T00:57:10Z</datestamp>
      <setSpec>user-biosyslit</setSpec>
    </header>
    <header>
      <identifier>oai:zenodo.org:265124</identifier>
      <datestamp>2017-01-31T08:33:38Z</datestamp>
      <setSpec>user-biosyslit</setSpec>
    </header>
    <header>
      <identifier>oai:zenodo.org:265572</identifier>
      <datestamp>2017-01-31T17:10:27Z</datestamp>
      <setSpec>user-biosyslit</setSpec>
    </header>
    <header>
      <identifier>oai:zenodo.org:264595</identifier>
      <datestamp>2017-01-30T23:53:09Z</datestamp>
      <setSpec>user-biosyslit</setSpec>
    </header>
    <header>
      <identifier>oai:zenodo.org:264675</identifier>
      <datestamp>2017-01-31T00:57:16Z</datestamp>
      <setSpec>user-biosyslit</setSpec>
    </header>
    <header>
      <identifier>oai:zenodo.org:265600</identifier>
      <datestamp>2017-01-31T17:31:02Z</datestamp>
      <setSpec>user-biosyslit</setSpec>
    </header>
    <header>
      <identifier>oai:zenodo.org:264951</identifier>
      <datestamp>2017-01-31T05:08:08Z</datestamp>
      <setSpec>user-biosyslit</setSpec>
    </header>
    <header>
      <identifier>oai:zenodo.org:266644</identifier>
      <datestamp>2017-02-01T12:55:54Z</datestamp>
      <setSpec>user-biosyslit</setSpec>
    </header>
    <header>
      <identifier>oai:zenodo.org:265224</identifier>
      <datestamp>2017-01-31T10:19:27Z</datestamp>
      <setSpec>user-biosyslit</setSpec>
    </header>
    <header>
      <identifier>oai:zenodo.org:265915</identifier>
      <datestamp>2017-01-31T23:15:56Z</datestamp>
      <setSpec>user-biosyslit</setSpec>
    </header>
    <header>
      <identifier>oai:zenodo.org:265259</identifier>
      <datestamp>2017-01-31T10:57:30Z</datestamp>
      <setSpec>user-biosyslit</setSpec>
    </header>
    <header>
      <identifier>oai:zenodo.org:265193</identifier>
      <datestamp>2017-01-31T09:58:43Z</datestamp>
      <setSpec>user-biosyslit</setSpec>
    </header>
    <header>
      <identifier>oai:zenodo.org:265431</identifier>
      <datestamp>2017-01-31T13:52:43Z</datestamp>
      <setSpec>user-biosyslit</setSpec>
    </header>
    <header>
      <identifier>oai:zenodo.org:265538</identifier>
      <datestamp>2017-01-31T15:53:05Z</datestamp>
      <setSpec>user-biosyslit</setSpec>
    </header>
    <header>
      <identifier>oai:zenodo.org:265875</identifier>
      <datestamp>2017-01-31T22:39:11Z</datestamp>
      <setSpec>user-biosyslit</setSpec>
    </header>
    <header>
      <identifier>oai:zenodo.org:265836</identifier>
      <datestamp>2017-01-31T21:49:04Z</datestamp>
      <setSpec>user-biosyslit</setSpec>
    </header>
    <header>
      <identifier>oai:zenodo.org:265869</identifier>
      <datestamp>2017-01-31T22:39:18Z</datestamp>
      <setSpec>user-biosyslit</setSpec>
    </header>
    <header>
      <identifier>oai:zenodo.org:266142</identifier>
      <datestamp>2017-02-01T01:10:56Z</datestamp>
      <setSpec>user-biosyslit</setSpec>
    </header>
    <header>
      <identifier>oai:zenodo.org:266243</identifier>
      <datestamp>2017-02-01T03:28:42Z</datestamp>
      <setSpec>user-biosyslit</setSpec>
    </header>
    <header>
      <identifier>oai:zenodo.org:265621</identifier>
      <datestamp>2017-01-31T17:52:13Z</datestamp>
      <setSpec>user-biosyslit</setSpec>
    </header>
    <header>
      <identifier>oai:zenodo.org:265778</identifier>
      <datestamp>2017-01-31T20:56:39Z</datestamp>
      <setSpec>user-biosyslit</setSpec>
    </header>
    <header>
      <identifier>oai:zenodo.org:267745</identifier>
      <datestamp>2017-02-02T06:36:00Z</datestamp>
      <setSpec>user-biosyslit</setSpec>
    </header>
    <header>
      <identifier>oai:zenodo.org:268092</identifier>
      <datestamp>2017-02-03T01:32:57Z</datestamp>
      <setSpec>user-biosyslit</setSpec>
    </header>
    <header>
      <identifier>oai:zenodo.org:265822</identifier>
      <datestamp>2017-01-31T21:48:24Z</datestamp>
      <setSpec>user-biosyslit</setSpec>
    </header>
    <header>
      <identifier>oai:zenodo.org:265766</identifier>
      <datestamp>2017-01-31T20:29:50Z</datestamp>
      <setSpec>user-biosyslit</setSpec>
    </header>
    <header>
      <identifier>oai:zenodo.org:267453</identifier>
      <datestamp>2017-02-02T02:22:01Z</datestamp>
      <setSpec>user-biosyslit</setSpec>
    </header>
    <header>
      <identifier>oai:zenodo.org:227287</identifier>
      <datestamp>2017-01-01T19:00:38Z</datestamp>
      <setSpec>user-biosyslit</setSpec>
    </header>
    <header>
      <identifier>oai:zenodo.org:267864</identifier>
      <datestamp>2017-02-02T08:24:16Z</datestamp>
      <setSpec>user-biosyslit</setSpec>
    </header>
    <header>
      <identifier>oai:zenodo.org:227437</identifier>
      <datestamp>2017-01-01T21:23:06Z</datestamp>
      <setSpec>user-biosyslit</setSpec>
    </header>
    <header>
      <identifier>oai:zenodo.org:267845</identifier>
      <datestamp>2017-02-02T08:11:29Z</datestamp>
      <setSpec>user-biosyslit</setSpec>
    </header>
    <header>
      <identifier>oai:zenodo.org:268892</identifier>
      <datestamp>2017-02-06T14:00:31Z</datestamp>
      <setSpec>openaire</setSpec>
      <setSpec>user-biosyslit</setSpec>
    </header>
    <header>
      <identifier>oai:zenodo.org:267876</identifier>
      <datestamp>2017-02-02T08:51:51Z</datestamp>
      <setSpec>user-biosyslit</setSpec>
    </header>
    <header>
      <identifier>oai:zenodo.org:269148</identifier>
      <datestamp>2017-02-06T22:53:58Z</datestamp>
      <setSpec>user-biosyslit</setSpec>
    </header>
    <header>
      <identifier>oai:zenodo.org:267867</identifier>
      <datestamp>2017-02-02T08:42:01Z</datestamp>
      <setSpec>user-biosyslit</setSpec>
    </header>
    <header>
      <identifier>oai:zenodo.org:227740</identifier>
      <datestamp>2017-01-02T03:26:29Z</datestamp>
      <setSpec>user-biosyslit</setSpec>
    </header>
    <header>
      <identifier>oai:zenodo.org:228924</identifier>
      <datestamp>2017-01-03T07:11:42Z</datestamp>
      <setSpec>user-biosyslit</setSpec>
    </header>
    <header>
      <identifier>oai:zenodo.org:228625</identifier>
      <datestamp>2017-01-03T02:36:34Z</datestamp>
      <setSpec>user-biosyslit</setSpec>
    </header>
    <header>
      <identifier>oai:zenodo.org:269014</identifier>
      <datestamp>2017-02-06T22:32:26Z</datestamp>
      <setSpec>user-biosyslit</setSpec>
    </header>
    <header>
      <identifier>oai:zenodo.org:229237</identifier>
      <datestamp>2017-01-03T13:13:09Z</datestamp>
      <setSpec>user-biosyslit</setSpec>
    </header>
    <header>
      <identifier>oai:zenodo.org:268133</identifier>
      <datestamp>2017-02-03T02:54:52Z</datestamp>
      <setSpec>user-biosyslit</setSpec>
    </header>
    <header>
      <identifier>oai:zenodo.org:229654</identifier>
      <datestamp>2017-01-03T19:55:02Z</datestamp>
      <setSpec>user-biosyslit</setSpec>
    </header>
    <header>
      <identifier>oai:zenodo.org:229828</identifier>
      <datestamp>2017-01-04T07:41:54Z</datestamp>
      <setSpec>user-biosyslit</setSpec>
    </header>
    <header>
      <identifier>oai:zenodo.org:268339</identifier>
      <datestamp>2017-02-03T11:52:10Z</datestamp>
      <setSpec>user-biosyslit</setSpec>
    </header>
    <header>
      <identifier>oai:zenodo.org:228782</identifier>
      <datestamp>2017-01-03T04:54:23Z</datestamp>
      <setSpec>user-biosyslit</setSpec>
    </header>
    <header>
      <identifier>oai:zenodo.org:269557</identifier>
      <datestamp>2017-02-07T00:57:51Z</datestamp>
      <setSpec>user-biosyslit</setSpec>
    </header>
    <header>
      <identifier>oai:zenodo.org:229647</identifier>
      <datestamp>2017-01-03T19:46:20Z</datestamp>
      <setSpec>user-biosyslit</setSpec>
    </header>
    <header>
      <identifier>oai:zenodo.org:268252</identifier>
      <datestamp>2017-02-03T04:47:16Z</datestamp>
      <setSpec>user-biosyslit</setSpec>
    </header>
    <header>
      <identifier>oai:zenodo.org:269151</identifier>
      <datestamp>2017-02-06T22:54:04Z</datestamp>
      <setSpec>user-biosyslit</setSpec>
    </header>
    <resumptionToken expirationDate="2017-08-31T15:43:28Z" cursor="6900" completeListSize="77796">.eJyNysEKgjAYAOB3-c8S_7ZyIXQJSzyk6FKyS5iKmMvEFerCd89L5zp_3xtUUeRg4WJlIkdqLpEiWTHGDVBZ95DyUs0M2SmWWSOj1Ilf4T3GhJbcs9VwsBPm6Rr9O9FiH9ATWQ9RhWNwjJ6JDoeYub3AHT_oYPRu7vxy5jvyfHVaETVbKWje-btgFGQrziz7PvLn0z-frTZgQJuWBVicGFD3aVcqsN7T9AE7x1D2.DIm_qA.FosMqkzxj85NFS9ya_Q4Zcdqvq0</resumptionToken>
  </ListIdentifiers>
</OAI-PMH>
