<?xml version='1.0' encoding='UTF-8'?>
<?xml-stylesheet type="text/xsl" href="/static/xsl/oai2.v1.0.xsl"?>
<OAI-PMH xmlns="http://www.openarchives.org/OAI/2.0/" xmlns:xsi="http://www.w3.org/2001/XMLSchema-instance" xsi:schemaLocation="http://www.openarchives.org/OAI/2.0/ http://www.openarchives.org/OAI/2.0/OAI-PMH.xsd">
  <responseDate>2017-08-31T15:41:32Z</responseDate>
  <request verb="ListIdentifiers" resumptionToken=".eJyNyssKgkAUANB_uWuJeZAvaBOWuFDRaUTbhKmIOZU4hTriv-emda3PmUFWVQk22lg6taiOCUGWYW4x0UAW_VOIS7MyFGkiiofguZu843uCMlIbgSNH38looFoU3rFix4ik2Bx5g6boxF-ZiseEegNDB8NX0RTcvPWVNHTF-ep2jD_2gpGyDw_RxPCenWnxffjPp34-R-5Agy6vK7BNrEE75H0twZ6X5QNQMVEN.DIm_rA.Iv-NsEjwH6PTMgVEG13iRyvLPFM">https://zenodo.org/oai2d</request>
  <ListIdentifiers>
    <header>
      <identifier>oai:zenodo.org:284153</identifier>
      <datestamp>2017-02-09T10:34:57Z</datestamp>
      <setSpec>user-biosyslit</setSpec>
    </header>
    <header>
      <identifier>oai:zenodo.org:284006</identifier>
      <datestamp>2017-02-09T10:10:22Z</datestamp>
      <setSpec>user-biosyslit</setSpec>
    </header>
    <header>
      <identifier>oai:zenodo.org:283953</identifier>
      <datestamp>2017-02-09T10:07:23Z</datestamp>
      <setSpec>user-biosyslit</setSpec>
    </header>
    <header>
      <identifier>oai:zenodo.org:285024</identifier>
      <datestamp>2017-02-09T12:30:09Z</datestamp>
      <setSpec>user-biosyslit</setSpec>
    </header>
    <header>
      <identifier>oai:zenodo.org:284031</identifier>
      <datestamp>2017-02-09T10:11:32Z</datestamp>
      <setSpec>user-biosyslit</setSpec>
    </header>
    <header>
      <identifier>oai:zenodo.org:283434</identifier>
      <datestamp>2017-02-09T08:54:42Z</datestamp>
      <setSpec>user-biosyslit</setSpec>
    </header>
    <header>
      <identifier>oai:zenodo.org:283835</identifier>
      <datestamp>2017-02-09T09:55:01Z</datestamp>
      <setSpec>user-biosyslit</setSpec>
    </header>
    <header>
      <identifier>oai:zenodo.org:283832</identifier>
      <datestamp>2017-02-09T09:55:06Z</datestamp>
      <setSpec>user-biosyslit</setSpec>
    </header>
    <header>
      <identifier>oai:zenodo.org:283524</identifier>
      <datestamp>2017-02-09T09:08:23Z</datestamp>
      <setSpec>user-biosyslit</setSpec>
    </header>
    <header>
      <identifier>oai:zenodo.org:283529</identifier>
      <datestamp>2017-02-09T09:08:19Z</datestamp>
      <setSpec>user-biosyslit</setSpec>
    </header>
    <header>
      <identifier>oai:zenodo.org:283365</identifier>
      <datestamp>2017-02-09T08:41:57Z</datestamp>
      <setSpec>user-biosyslit</setSpec>
    </header>
    <header>
      <identifier>oai:zenodo.org:283421</identifier>
      <datestamp>2017-02-09T08:51:33Z</datestamp>
      <setSpec>user-biosyslit</setSpec>
    </header>
    <header>
      <identifier>oai:zenodo.org:283909</identifier>
      <datestamp>2017-02-09T10:02:45Z</datestamp>
      <setSpec>user-biosyslit</setSpec>
    </header>
    <header>
      <identifier>oai:zenodo.org:284355</identifier>
      <datestamp>2017-02-09T11:05:43Z</datestamp>
      <setSpec>user-biosyslit</setSpec>
    </header>
    <header>
      <identifier>oai:zenodo.org:283409</identifier>
      <datestamp>2017-02-09T08:50:34Z</datestamp>
      <setSpec>user-biosyslit</setSpec>
    </header>
    <header>
      <identifier>oai:zenodo.org:284138</identifier>
      <datestamp>2017-02-09T10:32:51Z</datestamp>
      <setSpec>user-biosyslit</setSpec>
    </header>
    <header>
      <identifier>oai:zenodo.org:283587</identifier>
      <datestamp>2017-02-09T09:15:13Z</datestamp>
      <setSpec>user-biosyslit</setSpec>
    </header>
    <header>
      <identifier>oai:zenodo.org:284145</identifier>
      <datestamp>2017-02-09T10:33:32Z</datestamp>
      <setSpec>user-biosyslit</setSpec>
    </header>
    <header>
      <identifier>oai:zenodo.org:283630</identifier>
      <datestamp>2017-02-09T09:19:48Z</datestamp>
      <setSpec>user-biosyslit</setSpec>
    </header>
    <header>
      <identifier>oai:zenodo.org:284482</identifier>
      <datestamp>2017-02-09T11:21:23Z</datestamp>
      <setSpec>user-biosyslit</setSpec>
    </header>
    <header>
      <identifier>oai:zenodo.org:283922</identifier>
      <datestamp>2017-02-09T10:03:15Z</datestamp>
      <setSpec>user-biosyslit</setSpec>
    </header>
    <header>
      <identifier>oai:zenodo.org:283836</identifier>
      <datestamp>2017-02-09T09:55:04Z</datestamp>
      <setSpec>user-biosyslit</setSpec>
    </header>
    <header>
      <identifier>oai:zenodo.org:284375</identifier>
      <datestamp>2017-02-09T11:06:37Z</datestamp>
      <setSpec>user-biosyslit</setSpec>
    </header>
    <header>
      <identifier>oai:zenodo.org:284395</identifier>
      <datestamp>2017-02-09T11:10:21Z</datestamp>
      <setSpec>user-biosyslit</setSpec>
    </header>
    <header>
      <identifier>oai:zenodo.org:284015</identifier>
      <datestamp>2017-02-09T10:10:51Z</datestamp>
      <setSpec>user-biosyslit</setSpec>
    </header>
    <header>
      <identifier>oai:zenodo.org:284340</identifier>
      <datestamp>2017-02-09T11:05:05Z</datestamp>
      <setSpec>user-biosyslit</setSpec>
    </header>
    <header>
      <identifier>oai:zenodo.org:283548</identifier>
      <datestamp>2017-02-09T09:10:05Z</datestamp>
      <setSpec>user-biosyslit</setSpec>
    </header>
    <header>
      <identifier>oai:zenodo.org:283984</identifier>
      <datestamp>2017-02-09T10:09:27Z</datestamp>
      <setSpec>user-biosyslit</setSpec>
    </header>
    <header>
      <identifier>oai:zenodo.org:283931</identifier>
      <datestamp>2017-02-09T10:04:42Z</datestamp>
      <setSpec>user-biosyslit</setSpec>
    </header>
    <header>
      <identifier>oai:zenodo.org:284346</identifier>
      <datestamp>2017-02-09T11:05:19Z</datestamp>
      <setSpec>user-biosyslit</setSpec>
    </header>
    <header>
      <identifier>oai:zenodo.org:426132</identifier>
      <datestamp>2017-03-21T08:14:18Z</datestamp>
      <setSpec>user-biosyslit</setSpec>
    </header>
    <header>
      <identifier>oai:zenodo.org:283958</identifier>
      <datestamp>2017-02-09T10:08:12Z</datestamp>
      <setSpec>user-biosyslit</setSpec>
    </header>
    <header>
      <identifier>oai:zenodo.org:284189</identifier>
      <datestamp>2017-02-09T10:38:16Z</datestamp>
      <setSpec>user-biosyslit</setSpec>
    </header>
    <header>
      <identifier>oai:zenodo.org:284352</identifier>
      <datestamp>2017-02-09T11:05:36Z</datestamp>
      <setSpec>user-biosyslit</setSpec>
    </header>
    <header>
      <identifier>oai:zenodo.org:283562</identifier>
      <datestamp>2017-02-09T09:11:21Z</datestamp>
      <setSpec>user-biosyslit</setSpec>
    </header>
    <header>
      <identifier>oai:zenodo.org:283968</identifier>
      <datestamp>2017-02-09T10:08:40Z</datestamp>
      <setSpec>user-biosyslit</setSpec>
    </header>
    <header>
      <identifier>oai:zenodo.org:284240</identifier>
      <datestamp>2017-02-09T10:45:41Z</datestamp>
      <setSpec>user-biosyslit</setSpec>
    </header>
    <header>
      <identifier>oai:zenodo.org:285021</identifier>
      <datestamp>2017-02-09T12:29:54Z</datestamp>
      <setSpec>user-biosyslit</setSpec>
    </header>
    <header>
      <identifier>oai:zenodo.org:283873</identifier>
      <datestamp>2017-02-09T09:58:40Z</datestamp>
      <setSpec>user-biosyslit</setSpec>
    </header>
    <header>
      <identifier>oai:zenodo.org:284184</identifier>
      <datestamp>2017-02-09T10:38:05Z</datestamp>
      <setSpec>user-biosyslit</setSpec>
    </header>
    <header>
      <identifier>oai:zenodo.org:426098</identifier>
      <datestamp>2017-03-21T08:13:54Z</datestamp>
      <setSpec>user-biosyslit</setSpec>
    </header>
    <header>
      <identifier>oai:zenodo.org:581356</identifier>
      <datestamp>2017-05-19T10:52:08Z</datestamp>
      <setSpec>user-biosyslit</setSpec>
    </header>
    <header>
      <identifier>oai:zenodo.org:581311</identifier>
      <datestamp>2017-05-19T09:40:34Z</datestamp>
      <setSpec>user-biosyslit</setSpec>
    </header>
    <header>
      <identifier>oai:zenodo.org:581259</identifier>
      <datestamp>2017-05-19T08:40:27Z</datestamp>
      <setSpec>user-biosyslit</setSpec>
    </header>
    <header>
      <identifier>oai:zenodo.org:282942</identifier>
      <datestamp>2017-02-09T07:53:31Z</datestamp>
      <setSpec>user-biosyslit</setSpec>
    </header>
    <header>
      <identifier>oai:zenodo.org:582001</identifier>
      <datestamp>2017-05-22T07:45:11Z</datestamp>
      <setSpec>user-biosyslit</setSpec>
    </header>
    <header>
      <identifier>oai:zenodo.org:581978</identifier>
      <datestamp>2017-05-22T07:19:27Z</datestamp>
      <setSpec>user-biosyslit</setSpec>
    </header>
    <header>
      <identifier>oai:zenodo.org:282445</identifier>
      <datestamp>2017-02-09T07:00:59Z</datestamp>
      <setSpec>user-biosyslit</setSpec>
    </header>
    <header>
      <identifier>oai:zenodo.org:281852</identifier>
      <datestamp>2017-02-09T06:02:30Z</datestamp>
      <setSpec>user-biosyslit</setSpec>
    </header>
    <header>
      <identifier>oai:zenodo.org:582756</identifier>
      <datestamp>2017-05-24T07:55:47Z</datestamp>
      <setSpec>user-biosyslit</setSpec>
    </header>
    <header>
      <identifier>oai:zenodo.org:375988</identifier>
      <datestamp>2017-03-09T08:15:01Z</datestamp>
      <setSpec>user-biosyslit</setSpec>
    </header>
    <header>
      <identifier>oai:zenodo.org:375466</identifier>
      <datestamp>2017-03-07T08:14:33Z</datestamp>
      <setSpec>user-biosyslit</setSpec>
    </header>
    <header>
      <identifier>oai:zenodo.org:282002</identifier>
      <datestamp>2017-02-09T06:17:44Z</datestamp>
      <setSpec>user-biosyslit</setSpec>
    </header>
    <header>
      <identifier>oai:zenodo.org:376148</identifier>
      <datestamp>2017-03-09T12:31:06Z</datestamp>
      <setSpec>user-biosyslit</setSpec>
    </header>
    <header>
      <identifier>oai:zenodo.org:375901</identifier>
      <datestamp>2017-03-08T13:25:16Z</datestamp>
      <setSpec>user-biosyslit</setSpec>
    </header>
    <header>
      <identifier>oai:zenodo.org:376392</identifier>
      <datestamp>2017-03-10T08:45:25Z</datestamp>
      <setSpec>user-biosyslit</setSpec>
    </header>
    <header>
      <identifier>oai:zenodo.org:282941</identifier>
      <datestamp>2017-02-09T07:53:29Z</datestamp>
      <setSpec>user-biosyslit</setSpec>
    </header>
    <header>
      <identifier>oai:zenodo.org:282521</identifier>
      <datestamp>2017-02-09T07:10:37Z</datestamp>
      <setSpec>user-biosyslit</setSpec>
    </header>
    <header>
      <identifier>oai:zenodo.org:437269</identifier>
      <datestamp>2017-03-22T08:56:32Z</datestamp>
      <setSpec>user-biosyslit</setSpec>
    </header>
    <header>
      <identifier>oai:zenodo.org:438811</identifier>
      <datestamp>2017-03-29T07:14:26Z</datestamp>
      <setSpec>user-biosyslit</setSpec>
    </header>
    <header>
      <identifier>oai:zenodo.org:438807</identifier>
      <datestamp>2017-03-29T07:14:14Z</datestamp>
      <setSpec>user-biosyslit</setSpec>
    </header>
    <header>
      <identifier>oai:zenodo.org:439797</identifier>
      <datestamp>2017-04-03T07:40:13Z</datestamp>
      <setSpec>user-biosyslit</setSpec>
    </header>
    <header>
      <identifier>oai:zenodo.org:437272</identifier>
      <datestamp>2017-03-22T09:03:46Z</datestamp>
      <setSpec>user-biosyslit</setSpec>
    </header>
    <header>
      <identifier>oai:zenodo.org:439175</identifier>
      <datestamp>2017-03-30T07:37:29Z</datestamp>
      <setSpec>user-biosyslit</setSpec>
    </header>
    <header>
      <identifier>oai:zenodo.org:284580</identifier>
      <datestamp>2017-02-09T11:33:49Z</datestamp>
      <setSpec>user-biosyslit</setSpec>
    </header>
    <header>
      <identifier>oai:zenodo.org:438817</identifier>
      <datestamp>2017-03-29T07:14:45Z</datestamp>
      <setSpec>user-biosyslit</setSpec>
    </header>
    <header>
      <identifier>oai:zenodo.org:438884</identifier>
      <datestamp>2017-03-29T08:04:00Z</datestamp>
      <setSpec>user-biosyslit</setSpec>
    </header>
    <header>
      <identifier>oai:zenodo.org:437663</identifier>
      <datestamp>2017-03-23T10:10:39Z</datestamp>
      <setSpec>user-biosyslit</setSpec>
    </header>
    <header>
      <identifier>oai:zenodo.org:437934</identifier>
      <datestamp>2017-03-24T08:12:04Z</datestamp>
      <setSpec>user-biosyslit</setSpec>
    </header>
    <header>
      <identifier>oai:zenodo.org:438897</identifier>
      <datestamp>2017-03-29T08:24:34Z</datestamp>
      <setSpec>user-biosyslit</setSpec>
    </header>
    <header>
      <identifier>oai:zenodo.org:284548</identifier>
      <datestamp>2017-02-09T11:28:17Z</datestamp>
      <setSpec>user-biosyslit</setSpec>
    </header>
    <header>
      <identifier>oai:zenodo.org:438252</identifier>
      <datestamp>2017-03-27T08:12:14Z</datestamp>
      <setSpec>user-biosyslit</setSpec>
    </header>
    <header>
      <identifier>oai:zenodo.org:438866</identifier>
      <datestamp>2017-03-29T07:36:53Z</datestamp>
      <setSpec>user-biosyslit</setSpec>
    </header>
    <header>
      <identifier>oai:zenodo.org:439800</identifier>
      <datestamp>2017-04-03T07:51:31Z</datestamp>
      <setSpec>user-biosyslit</setSpec>
    </header>
    <header>
      <identifier>oai:zenodo.org:439875</identifier>
      <datestamp>2017-04-03T10:36:33Z</datestamp>
      <setSpec>user-biosyslit</setSpec>
    </header>
    <header>
      <identifier>oai:zenodo.org:437650</identifier>
      <datestamp>2017-03-23T10:10:15Z</datestamp>
      <setSpec>user-biosyslit</setSpec>
    </header>
    <header>
      <identifier>oai:zenodo.org:437621</identifier>
      <datestamp>2017-03-23T10:09:02Z</datestamp>
      <setSpec>user-biosyslit</setSpec>
    </header>
    <header>
      <identifier>oai:zenodo.org:437616</identifier>
      <datestamp>2017-03-23T10:08:52Z</datestamp>
      <setSpec>user-biosyslit</setSpec>
    </header>
    <header>
      <identifier>oai:zenodo.org:438886</identifier>
      <datestamp>2017-03-29T08:04:05Z</datestamp>
      <setSpec>user-biosyslit</setSpec>
    </header>
    <header>
      <identifier>oai:zenodo.org:438226</identifier>
      <datestamp>2017-03-27T07:36:34Z</datestamp>
      <setSpec>user-biosyslit</setSpec>
    </header>
    <header>
      <identifier>oai:zenodo.org:438909</identifier>
      <datestamp>2017-03-29T08:35:11Z</datestamp>
      <setSpec>user-biosyslit</setSpec>
    </header>
    <header>
      <identifier>oai:zenodo.org:439627</identifier>
      <datestamp>2017-04-07T12:01:39Z</datestamp>
      <setSpec>openaire</setSpec>
      <setSpec>user-biosyslit</setSpec>
    </header>
    <header>
      <identifier>oai:zenodo.org:284907</identifier>
      <datestamp>2017-02-09T12:15:06Z</datestamp>
      <setSpec>user-biosyslit</setSpec>
    </header>
    <header>
      <identifier>oai:zenodo.org:284596</identifier>
      <datestamp>2017-02-09T11:34:45Z</datestamp>
      <setSpec>user-biosyslit</setSpec>
    </header>
    <header>
      <identifier>oai:zenodo.org:438822</identifier>
      <datestamp>2017-03-29T07:14:59Z</datestamp>
      <setSpec>user-biosyslit</setSpec>
    </header>
    <header>
      <identifier>oai:zenodo.org:438008</identifier>
      <datestamp>2017-03-31T09:17:48Z</datestamp>
      <setSpec>openaire_data</setSpec>
      <setSpec>user-biosyslit</setSpec>
    </header>
    <header>
      <identifier>oai:zenodo.org:438222</identifier>
      <datestamp>2017-03-27T07:36:43Z</datestamp>
      <setSpec>user-biosyslit</setSpec>
    </header>
    <header>
      <identifier>oai:zenodo.org:322662</identifier>
      <datestamp>2017-04-03T10:01:37Z</datestamp>
      <setSpec>openaire</setSpec>
      <setSpec>user-biosyslit</setSpec>
    </header>
    <header>
      <identifier>oai:zenodo.org:438570</identifier>
      <datestamp>2017-03-28T07:32:51Z</datestamp>
      <setSpec>user-biosyslit</setSpec>
    </header>
    <header>
      <identifier>oai:zenodo.org:439810</identifier>
      <datestamp>2017-04-03T07:58:20Z</datestamp>
      <setSpec>user-biosyslit</setSpec>
    </header>
    <header>
      <identifier>oai:zenodo.org:322669</identifier>
      <datestamp>2017-04-03T10:01:37Z</datestamp>
      <setSpec>openaire</setSpec>
      <setSpec>user-biosyslit</setSpec>
    </header>
    <header>
      <identifier>oai:zenodo.org:437284</identifier>
      <datestamp>2017-03-22T09:11:49Z</datestamp>
      <setSpec>user-biosyslit</setSpec>
    </header>
    <header>
      <identifier>oai:zenodo.org:437675</identifier>
      <datestamp>2017-03-23T10:11:04Z</datestamp>
      <setSpec>user-biosyslit</setSpec>
    </header>
    <header>
      <identifier>oai:zenodo.org:437980</identifier>
      <datestamp>2017-03-24T08:46:57Z</datestamp>
      <setSpec>user-biosyslit</setSpec>
    </header>
    <header>
      <identifier>oai:zenodo.org:438240</identifier>
      <datestamp>2017-03-27T07:55:01Z</datestamp>
      <setSpec>user-biosyslit</setSpec>
    </header>
    <header>
      <identifier>oai:zenodo.org:438256</identifier>
      <datestamp>2017-03-27T08:16:52Z</datestamp>
      <setSpec>user-biosyslit</setSpec>
    </header>
    <header>
      <identifier>oai:zenodo.org:438527</identifier>
      <datestamp>2017-03-28T07:14:05Z</datestamp>
      <setSpec>user-biosyslit</setSpec>
    </header>
    <header>
      <identifier>oai:zenodo.org:438253</identifier>
      <datestamp>2017-03-27T08:12:16Z</datestamp>
      <setSpec>user-biosyslit</setSpec>
    </header>
    <header>
      <identifier>oai:zenodo.org:439745</identifier>
      <datestamp>2017-04-02T21:16:09Z</datestamp>
      <setSpec>user-biosyslit</setSpec>
    </header>
    <header>
      <identifier>oai:zenodo.org:439320</identifier>
      <datestamp>2017-03-31T09:17:10Z</datestamp>
      <setSpec>user-biosyslit</setSpec>
    </header>
    <resumptionToken expirationDate="2017-08-31T15:43:32Z" cursor="8000" completeListSize="77796">.eJyNyk0LgjAcgPHv8j9L7AWcCV1Ckw4pujayS9gUqWaFK9SJ3z0vnev2wPMbwVRVCT5aUMLwErnMRYTOxVwHjGofWp8u8wd1kFrdtSgi-c4aiXJSszgw_S7IaWxvKGmw5ZuUHLDXiwsa0r145TbrJd12HIVsZ9Mhvm5nV9Ik0sdz9OTivtaclG0SpgPHa36k6uvwn87-dIFZgQPPoq7A94gDt65oawP-OE0fgzpRQQ.DIm_rA.rocSa1Azr3fQHhuNDUPE5b6qCdo</resumptionToken>
  </ListIdentifiers>
</OAI-PMH>
