<?xml version='1.0' encoding='UTF-8'?>
<?xml-stylesheet type="text/xsl" href="/static/xsl/oai2.v1.0.xsl"?>
<OAI-PMH xmlns="http://www.openarchives.org/OAI/2.0/" xmlns:xsi="http://www.w3.org/2001/XMLSchema-instance" xsi:schemaLocation="http://www.openarchives.org/OAI/2.0/ http://www.openarchives.org/OAI/2.0/OAI-PMH.xsd">
  <responseDate>2017-08-31T15:42:57Z</responseDate>
  <request verb="ListIdentifiers" resumptionToken=".eJyNyssKgkAUANB_uWuJeUQ-oE1Y4kJlnJRsE6Yi5mjiFOqI_56b1rU-ZwZZFDlYaEONLdZN0zQI2umUaiCz_inErVoVskssslZEqRO_wyZGCSl135ajZyfUVzUKGqz4iZELNsaoQhM7R69EhWNM3YGjo-4pNvkPd305DRxxvTsdj9qD4CTvgyObOD7wK82-D__51M9nyz1o0KVlARZFRIN6SPtSgjUvywdzplEP.DInAAQ.AIUTlaDDi3Y-6gjazJtTXw5aYlc">https://zenodo.org/oai2d</request>
  <ListIdentifiers>
    <header>
      <identifier>oai:zenodo.org:242026</identifier>
      <datestamp>2017-01-13T09:27:26Z</datestamp>
      <setSpec>user-biosyslit</setSpec>
    </header>
    <header>
      <identifier>oai:zenodo.org:242025</identifier>
      <datestamp>2017-01-13T09:27:21Z</datestamp>
      <setSpec>user-biosyslit</setSpec>
    </header>
    <header>
      <identifier>oai:zenodo.org:285744</identifier>
      <datestamp>2017-02-09T14:23:52Z</datestamp>
      <setSpec>user-biosyslit</setSpec>
    </header>
    <header>
      <identifier>oai:zenodo.org:232480</identifier>
      <datestamp>2017-01-06T18:28:27Z</datestamp>
      <setSpec>user-biosyslit</setSpec>
    </header>
    <header>
      <identifier>oai:zenodo.org:232481</identifier>
      <datestamp>2017-01-06T18:27:57Z</datestamp>
      <setSpec>user-biosyslit</setSpec>
    </header>
    <header>
      <identifier>oai:zenodo.org:232482</identifier>
      <datestamp>2017-01-06T18:28:00Z</datestamp>
      <setSpec>user-biosyslit</setSpec>
    </header>
    <header>
      <identifier>oai:zenodo.org:239375</identifier>
      <datestamp>2017-01-11T19:40:30Z</datestamp>
      <setSpec>user-biosyslit</setSpec>
    </header>
    <header>
      <identifier>oai:zenodo.org:232483</identifier>
      <datestamp>2017-01-06T18:28:26Z</datestamp>
      <setSpec>user-biosyslit</setSpec>
    </header>
    <header>
      <identifier>oai:zenodo.org:239376</identifier>
      <datestamp>2017-01-11T19:40:34Z</datestamp>
      <setSpec>user-biosyslit</setSpec>
    </header>
    <header>
      <identifier>oai:zenodo.org:285745</identifier>
      <datestamp>2017-02-09T14:23:48Z</datestamp>
      <setSpec>user-biosyslit</setSpec>
    </header>
    <header>
      <identifier>oai:zenodo.org:239174</identifier>
      <datestamp>2017-01-11T17:21:17Z</datestamp>
      <setSpec>user-biosyslit</setSpec>
    </header>
    <header>
      <identifier>oai:zenodo.org:277759</identifier>
      <datestamp>2017-02-08T21:46:08Z</datestamp>
      <setSpec>user-biosyslit</setSpec>
    </header>
    <header>
      <identifier>oai:zenodo.org:277128</identifier>
      <datestamp>2017-02-08T20:28:20Z</datestamp>
      <setSpec>user-biosyslit</setSpec>
    </header>
    <header>
      <identifier>oai:zenodo.org:277131</identifier>
      <datestamp>2017-02-08T20:28:16Z</datestamp>
      <setSpec>user-biosyslit</setSpec>
    </header>
    <header>
      <identifier>oai:zenodo.org:277765</identifier>
      <datestamp>2017-02-08T21:46:06Z</datestamp>
      <setSpec>user-biosyslit</setSpec>
    </header>
    <header>
      <identifier>oai:zenodo.org:294129</identifier>
      <datestamp>2017-02-20T19:21:56Z</datestamp>
      <setSpec>user-biosyslit</setSpec>
    </header>
    <header>
      <identifier>oai:zenodo.org:294136</identifier>
      <datestamp>2017-02-20T19:21:42Z</datestamp>
      <setSpec>user-biosyslit</setSpec>
    </header>
    <header>
      <identifier>oai:zenodo.org:294137</identifier>
      <datestamp>2017-02-20T19:21:44Z</datestamp>
      <setSpec>user-biosyslit</setSpec>
    </header>
    <header>
      <identifier>oai:zenodo.org:294135</identifier>
      <datestamp>2017-02-20T19:21:39Z</datestamp>
      <setSpec>user-biosyslit</setSpec>
    </header>
    <header>
      <identifier>oai:zenodo.org:294138</identifier>
      <datestamp>2017-02-20T19:21:47Z</datestamp>
      <setSpec>user-biosyslit</setSpec>
    </header>
    <header>
      <identifier>oai:zenodo.org:235677</identifier>
      <datestamp>2017-01-09T13:31:36Z</datestamp>
      <setSpec>user-biosyslit</setSpec>
    </header>
    <header>
      <identifier>oai:zenodo.org:249584</identifier>
      <datestamp>2017-01-17T21:19:42Z</datestamp>
      <setSpec>user-biosyslit</setSpec>
    </header>
    <header>
      <identifier>oai:zenodo.org:249588</identifier>
      <datestamp>2017-01-17T21:20:03Z</datestamp>
      <setSpec>user-biosyslit</setSpec>
    </header>
    <header>
      <identifier>oai:zenodo.org:249587</identifier>
      <datestamp>2017-01-17T21:19:58Z</datestamp>
      <setSpec>user-biosyslit</setSpec>
    </header>
    <header>
      <identifier>oai:zenodo.org:235676</identifier>
      <datestamp>2017-01-09T13:31:32Z</datestamp>
      <setSpec>user-biosyslit</setSpec>
    </header>
    <header>
      <identifier>oai:zenodo.org:235674</identifier>
      <datestamp>2017-01-09T13:31:24Z</datestamp>
      <setSpec>user-biosyslit</setSpec>
    </header>
    <header>
      <identifier>oai:zenodo.org:243777</identifier>
      <datestamp>2017-01-14T10:48:35Z</datestamp>
      <setSpec>user-biosyslit</setSpec>
    </header>
    <header>
      <identifier>oai:zenodo.org:235673</identifier>
      <datestamp>2017-01-09T13:31:19Z</datestamp>
      <setSpec>user-biosyslit</setSpec>
    </header>
    <header>
      <identifier>oai:zenodo.org:243778</identifier>
      <datestamp>2017-01-14T10:48:39Z</datestamp>
      <setSpec>user-biosyslit</setSpec>
    </header>
    <header>
      <identifier>oai:zenodo.org:287455</identifier>
      <datestamp>2017-02-09T18:21:18Z</datestamp>
      <setSpec>user-biosyslit</setSpec>
    </header>
    <header>
      <identifier>oai:zenodo.org:287457</identifier>
      <datestamp>2017-02-09T18:21:14Z</datestamp>
      <setSpec>user-biosyslit</setSpec>
    </header>
    <header>
      <identifier>oai:zenodo.org:287458</identifier>
      <datestamp>2017-02-09T18:21:17Z</datestamp>
      <setSpec>user-biosyslit</setSpec>
    </header>
    <header>
      <identifier>oai:zenodo.org:288562</identifier>
      <datestamp>2017-02-09T21:17:58Z</datestamp>
      <setSpec>user-biosyslit</setSpec>
    </header>
    <header>
      <identifier>oai:zenodo.org:288564</identifier>
      <datestamp>2017-02-09T21:17:51Z</datestamp>
      <setSpec>user-biosyslit</setSpec>
    </header>
    <header>
      <identifier>oai:zenodo.org:288566</identifier>
      <datestamp>2017-02-09T21:17:56Z</datestamp>
      <setSpec>user-biosyslit</setSpec>
    </header>
    <header>
      <identifier>oai:zenodo.org:288563</identifier>
      <datestamp>2017-02-09T21:17:49Z</datestamp>
      <setSpec>user-biosyslit</setSpec>
    </header>
    <header>
      <identifier>oai:zenodo.org:249424</identifier>
      <datestamp>2017-01-17T19:54:51Z</datestamp>
      <setSpec>user-biosyslit</setSpec>
    </header>
    <header>
      <identifier>oai:zenodo.org:249426</identifier>
      <datestamp>2017-01-17T19:54:59Z</datestamp>
      <setSpec>user-biosyslit</setSpec>
    </header>
    <header>
      <identifier>oai:zenodo.org:249429</identifier>
      <datestamp>2017-01-17T19:55:10Z</datestamp>
      <setSpec>user-biosyslit</setSpec>
    </header>
    <header>
      <identifier>oai:zenodo.org:240240</identifier>
      <datestamp>2017-01-12T06:26:10Z</datestamp>
      <setSpec>user-biosyslit</setSpec>
    </header>
    <header>
      <identifier>oai:zenodo.org:275617</identifier>
      <datestamp>2017-02-08T16:49:12Z</datestamp>
      <setSpec>user-biosyslit</setSpec>
    </header>
    <header>
      <identifier>oai:zenodo.org:240242</identifier>
      <datestamp>2017-01-12T06:25:54Z</datestamp>
      <setSpec>user-biosyslit</setSpec>
    </header>
    <header>
      <identifier>oai:zenodo.org:240245</identifier>
      <datestamp>2017-01-12T06:26:04Z</datestamp>
      <setSpec>user-biosyslit</setSpec>
    </header>
    <header>
      <identifier>oai:zenodo.org:240244</identifier>
      <datestamp>2017-01-12T06:26:01Z</datestamp>
      <setSpec>user-biosyslit</setSpec>
    </header>
    <header>
      <identifier>oai:zenodo.org:270974</identifier>
      <datestamp>2017-02-08T00:23:50Z</datestamp>
      <setSpec>user-biosyslit</setSpec>
    </header>
    <header>
      <identifier>oai:zenodo.org:270973</identifier>
      <datestamp>2017-02-08T00:23:55Z</datestamp>
      <setSpec>user-biosyslit</setSpec>
    </header>
    <header>
      <identifier>oai:zenodo.org:264143</identifier>
      <datestamp>2017-01-30T13:52:34Z</datestamp>
      <setSpec>user-biosyslit</setSpec>
    </header>
    <header>
      <identifier>oai:zenodo.org:264138</identifier>
      <datestamp>2017-01-30T13:52:21Z</datestamp>
      <setSpec>user-biosyslit</setSpec>
    </header>
    <header>
      <identifier>oai:zenodo.org:264137</identifier>
      <datestamp>2017-01-30T13:52:18Z</datestamp>
      <setSpec>user-biosyslit</setSpec>
    </header>
    <header>
      <identifier>oai:zenodo.org:264145</identifier>
      <datestamp>2017-01-30T13:52:39Z</datestamp>
      <setSpec>user-biosyslit</setSpec>
    </header>
    <header>
      <identifier>oai:zenodo.org:284931</identifier>
      <datestamp>2017-02-09T12:17:24Z</datestamp>
      <setSpec>user-biosyslit</setSpec>
    </header>
    <header>
      <identifier>oai:zenodo.org:284933</identifier>
      <datestamp>2017-02-09T12:17:28Z</datestamp>
      <setSpec>user-biosyslit</setSpec>
    </header>
    <header>
      <identifier>oai:zenodo.org:294103</identifier>
      <datestamp>2017-02-20T19:19:03Z</datestamp>
      <setSpec>user-biosyslit</setSpec>
    </header>
    <header>
      <identifier>oai:zenodo.org:245706</identifier>
      <datestamp>2017-01-15T17:40:00Z</datestamp>
      <setSpec>user-biosyslit</setSpec>
    </header>
    <header>
      <identifier>oai:zenodo.org:280989</identifier>
      <datestamp>2017-02-09T04:32:15Z</datestamp>
      <setSpec>user-biosyslit</setSpec>
    </header>
    <header>
      <identifier>oai:zenodo.org:240726</identifier>
      <datestamp>2017-01-12T13:10:38Z</datestamp>
      <setSpec>user-biosyslit</setSpec>
    </header>
    <header>
      <identifier>oai:zenodo.org:270213</identifier>
      <datestamp>2017-02-07T22:41:56Z</datestamp>
      <setSpec>user-biosyslit</setSpec>
    </header>
    <header>
      <identifier>oai:zenodo.org:243907</identifier>
      <datestamp>2017-01-14T13:02:43Z</datestamp>
      <setSpec>user-biosyslit</setSpec>
    </header>
    <header>
      <identifier>oai:zenodo.org:243905</identifier>
      <datestamp>2017-01-14T13:02:36Z</datestamp>
      <setSpec>user-biosyslit</setSpec>
    </header>
    <header>
      <identifier>oai:zenodo.org:243910</identifier>
      <datestamp>2017-01-14T13:02:52Z</datestamp>
      <setSpec>user-biosyslit</setSpec>
    </header>
    <header>
      <identifier>oai:zenodo.org:243912</identifier>
      <datestamp>2017-01-14T13:02:58Z</datestamp>
      <setSpec>user-biosyslit</setSpec>
    </header>
    <header>
      <identifier>oai:zenodo.org:240732</identifier>
      <datestamp>2017-01-12T13:10:37Z</datestamp>
      <setSpec>user-biosyslit</setSpec>
    </header>
    <header>
      <identifier>oai:zenodo.org:243312</identifier>
      <datestamp>2017-01-14T02:32:44Z</datestamp>
      <setSpec>user-biosyslit</setSpec>
    </header>
    <header>
      <identifier>oai:zenodo.org:245748</identifier>
      <datestamp>2017-01-15T18:10:02Z</datestamp>
      <setSpec>user-biosyslit</setSpec>
    </header>
    <header>
      <identifier>oai:zenodo.org:245743</identifier>
      <datestamp>2017-01-15T18:09:40Z</datestamp>
      <setSpec>user-biosyslit</setSpec>
    </header>
    <header>
      <identifier>oai:zenodo.org:245746</identifier>
      <datestamp>2017-01-15T18:09:51Z</datestamp>
      <setSpec>user-biosyslit</setSpec>
    </header>
    <header>
      <identifier>oai:zenodo.org:245744</identifier>
      <datestamp>2017-01-15T18:09:44Z</datestamp>
      <setSpec>user-biosyslit</setSpec>
    </header>
    <header>
      <identifier>oai:zenodo.org:245742</identifier>
      <datestamp>2017-01-15T18:09:37Z</datestamp>
      <setSpec>user-biosyslit</setSpec>
    </header>
    <header>
      <identifier>oai:zenodo.org:245745</identifier>
      <datestamp>2017-01-15T18:09:48Z</datestamp>
      <setSpec>user-biosyslit</setSpec>
    </header>
    <header>
      <identifier>oai:zenodo.org:243316</identifier>
      <datestamp>2017-01-14T02:32:42Z</datestamp>
      <setSpec>user-biosyslit</setSpec>
    </header>
    <header>
      <identifier>oai:zenodo.org:243315</identifier>
      <datestamp>2017-01-14T02:32:36Z</datestamp>
      <setSpec>user-biosyslit</setSpec>
    </header>
    <header>
      <identifier>oai:zenodo.org:278924</identifier>
      <datestamp>2017-02-09T00:11:22Z</datestamp>
      <setSpec>user-biosyslit</setSpec>
    </header>
    <header>
      <identifier>oai:zenodo.org:234755</identifier>
      <datestamp>2017-01-09T01:50:46Z</datestamp>
      <setSpec>user-biosyslit</setSpec>
    </header>
    <header>
      <identifier>oai:zenodo.org:278930</identifier>
      <datestamp>2017-02-09T00:11:20Z</datestamp>
      <setSpec>user-biosyslit</setSpec>
    </header>
    <header>
      <identifier>oai:zenodo.org:278926</identifier>
      <datestamp>2017-02-09T00:11:03Z</datestamp>
      <setSpec>user-biosyslit</setSpec>
    </header>
    <header>
      <identifier>oai:zenodo.org:278927</identifier>
      <datestamp>2017-02-09T00:11:09Z</datestamp>
      <setSpec>user-biosyslit</setSpec>
    </header>
    <header>
      <identifier>oai:zenodo.org:278929</identifier>
      <datestamp>2017-02-09T00:11:16Z</datestamp>
      <setSpec>user-biosyslit</setSpec>
    </header>
    <header>
      <identifier>oai:zenodo.org:237580</identifier>
      <datestamp>2017-01-10T17:20:11Z</datestamp>
      <setSpec>user-biosyslit</setSpec>
    </header>
    <header>
      <identifier>oai:zenodo.org:237587</identifier>
      <datestamp>2017-01-10T17:20:00Z</datestamp>
      <setSpec>user-biosyslit</setSpec>
    </header>
    <header>
      <identifier>oai:zenodo.org:237588</identifier>
      <datestamp>2017-01-10T17:20:03Z</datestamp>
      <setSpec>user-biosyslit</setSpec>
    </header>
    <header>
      <identifier>oai:zenodo.org:237589</identifier>
      <datestamp>2017-01-10T17:20:08Z</datestamp>
      <setSpec>user-biosyslit</setSpec>
    </header>
    <header>
      <identifier>oai:zenodo.org:269857</identifier>
      <datestamp>2017-02-07T20:34:05Z</datestamp>
      <setSpec>user-biosyslit</setSpec>
    </header>
    <header>
      <identifier>oai:zenodo.org:262498</identifier>
      <datestamp>2017-01-29T04:53:22Z</datestamp>
      <setSpec>user-biosyslit</setSpec>
    </header>
    <header>
      <identifier>oai:zenodo.org:269860</identifier>
      <datestamp>2017-02-07T20:34:12Z</datestamp>
      <setSpec>user-biosyslit</setSpec>
    </header>
    <header>
      <identifier>oai:zenodo.org:269859</identifier>
      <datestamp>2017-02-07T20:34:10Z</datestamp>
      <setSpec>user-biosyslit</setSpec>
    </header>
    <header>
      <identifier>oai:zenodo.org:269858</identifier>
      <datestamp>2017-02-07T20:34:07Z</datestamp>
      <setSpec>user-biosyslit</setSpec>
    </header>
    <header>
      <identifier>oai:zenodo.org:262499</identifier>
      <datestamp>2017-01-29T04:53:11Z</datestamp>
      <setSpec>user-biosyslit</setSpec>
    </header>
    <header>
      <identifier>oai:zenodo.org:399934</identifier>
      <datestamp>2017-03-16T01:34:18Z</datestamp>
      <setSpec>user-biosyslit</setSpec>
    </header>
    <header>
      <identifier>oai:zenodo.org:399937</identifier>
      <datestamp>2017-03-16T01:34:31Z</datestamp>
      <setSpec>user-biosyslit</setSpec>
    </header>
    <header>
      <identifier>oai:zenodo.org:270892</identifier>
      <datestamp>2017-02-08T00:11:01Z</datestamp>
      <setSpec>user-biosyslit</setSpec>
    </header>
    <header>
      <identifier>oai:zenodo.org:293322</identifier>
      <datestamp>2017-02-19T13:30:53Z</datestamp>
      <setSpec>user-biosyslit</setSpec>
    </header>
    <header>
      <identifier>oai:zenodo.org:270896</identifier>
      <datestamp>2017-02-08T00:10:51Z</datestamp>
      <setSpec>user-biosyslit</setSpec>
    </header>
    <header>
      <identifier>oai:zenodo.org:270897</identifier>
      <datestamp>2017-02-08T00:10:56Z</datestamp>
      <setSpec>user-biosyslit</setSpec>
    </header>
    <header>
      <identifier>oai:zenodo.org:238025</identifier>
      <datestamp>2017-01-11T00:01:32Z</datestamp>
      <setSpec>user-biosyslit</setSpec>
    </header>
    <header>
      <identifier>oai:zenodo.org:238029</identifier>
      <datestamp>2017-01-11T00:01:45Z</datestamp>
      <setSpec>user-biosyslit</setSpec>
    </header>
    <header>
      <identifier>oai:zenodo.org:245493</identifier>
      <datestamp>2017-01-15T14:26:23Z</datestamp>
      <setSpec>user-biosyslit</setSpec>
    </header>
    <header>
      <identifier>oai:zenodo.org:245495</identifier>
      <datestamp>2017-01-15T14:26:36Z</datestamp>
      <setSpec>user-biosyslit</setSpec>
    </header>
    <header>
      <identifier>oai:zenodo.org:245494</identifier>
      <datestamp>2017-01-15T14:26:32Z</datestamp>
      <setSpec>user-biosyslit</setSpec>
    </header>
    <header>
      <identifier>oai:zenodo.org:280915</identifier>
      <datestamp>2017-02-09T04:20:10Z</datestamp>
      <setSpec>user-biosyslit</setSpec>
    </header>
    <header>
      <identifier>oai:zenodo.org:282820</identifier>
      <datestamp>2017-02-09T07:40:38Z</datestamp>
      <setSpec>user-biosyslit</setSpec>
    </header>
    <resumptionToken expirationDate="2017-08-31T15:44:57Z" cursor="30100" completeListSize="77796">.eJyNysEKgjAYAOB3-c8Sm7-ZCV3Ekg4qa03SS5iKVLPEFenCd89L5zp_3xtUVZXgkpnp2HRuoW0tbYpkSQ1QRXeX8nieGIpDIoubFHmQPHdNQlKzXkS-6kM_xUhfSdxQzTfMPFCnF2cysL14pHrXJ7h9cbJehJoN0WU7vRLjQGanoOXi5klull28ZgOnHs-w-D7659M_n69WYECb1xW4SNCA6yvvagXuexw_mkFRNQ.DInAAQ.GVmI6KlKhdUdTGX7d5l56C3lCOw</resumptionToken>
  </ListIdentifiers>
</OAI-PMH>
