<?xml version='1.0' encoding='UTF-8'?>
<?xml-stylesheet type="text/xsl" href="/static/xsl/oai2.v1.0.xsl"?>
<OAI-PMH xmlns="http://www.openarchives.org/OAI/2.0/" xmlns:xsi="http://www.w3.org/2001/XMLSchema-instance" xsi:schemaLocation="http://www.openarchives.org/OAI/2.0/ http://www.openarchives.org/OAI/2.0/OAI-PMH.xsd">
  <responseDate>2017-08-31T15:43:33Z</responseDate>
  <request verb="ListIdentifiers" resumptionToken=".eJyNyj0LgkAYAOD_8s4S553f0CKaOKjYpaRLmIqYp4VXqCf-91qaa36eFXhdV2ChnaEqKiFYUUwNYY2oEvByvDN2aT8M5Tll5cCSwktfxz5FGW700OFz4GQkFB2KelnQQ4zPsjEnLVriU_LMxHFOiT9R5OqBiJfw5n9eRSKP5VfvQZPBZhRXY-TGC5VtmpPy--Q_n_j5HL4HCR5FU4NFDFOCbirGhoO1btsbm_1RRA.DInAJA.dBJqvBJr_nSsOWaUnQI9zoB8aRs">https://zenodo.org/oai2d</request>
  <ListIdentifiers>
    <header>
      <identifier>oai:zenodo.org:858531</identifier>
      <datestamp>2017-08-31T13:01:01Z</datestamp>
      <setSpec>user-biosyslit</setSpec>
    </header>
    <header>
      <identifier>oai:zenodo.org:858513</identifier>
      <datestamp>2017-08-31T13:00:16Z</datestamp>
      <setSpec>user-biosyslit</setSpec>
    </header>
    <header>
      <identifier>oai:zenodo.org:858388</identifier>
      <datestamp>2017-08-31T12:43:45Z</datestamp>
      <setSpec>user-biosyslit</setSpec>
    </header>
    <header>
      <identifier>oai:zenodo.org:858463</identifier>
      <datestamp>2017-08-31T12:59:03Z</datestamp>
      <setSpec>user-biosyslit</setSpec>
    </header>
    <header>
      <identifier>oai:zenodo.org:858465</identifier>
      <datestamp>2017-08-31T12:59:07Z</datestamp>
      <setSpec>user-biosyslit</setSpec>
    </header>
    <header>
      <identifier>oai:zenodo.org:858467</identifier>
      <datestamp>2017-08-31T12:59:11Z</datestamp>
      <setSpec>user-biosyslit</setSpec>
    </header>
    <header>
      <identifier>oai:zenodo.org:858535</identifier>
      <datestamp>2017-08-31T13:01:11Z</datestamp>
      <setSpec>user-biosyslit</setSpec>
    </header>
    <header>
      <identifier>oai:zenodo.org:858563</identifier>
      <datestamp>2017-08-31T13:02:19Z</datestamp>
      <setSpec>user-biosyslit</setSpec>
    </header>
    <header>
      <identifier>oai:zenodo.org:858551</identifier>
      <datestamp>2017-08-31T13:01:45Z</datestamp>
      <setSpec>user-biosyslit</setSpec>
    </header>
    <header>
      <identifier>oai:zenodo.org:858557</identifier>
      <datestamp>2017-08-31T13:02:06Z</datestamp>
      <setSpec>user-biosyslit</setSpec>
    </header>
    <header>
      <identifier>oai:zenodo.org:858575</identifier>
      <datestamp>2017-08-31T13:02:47Z</datestamp>
      <setSpec>user-biosyslit</setSpec>
    </header>
    <header>
      <identifier>oai:zenodo.org:858571</identifier>
      <datestamp>2017-08-31T13:02:38Z</datestamp>
      <setSpec>user-biosyslit</setSpec>
    </header>
    <header>
      <identifier>oai:zenodo.org:858573</identifier>
      <datestamp>2017-08-31T13:02:42Z</datestamp>
      <setSpec>user-biosyslit</setSpec>
    </header>
    <header>
      <identifier>oai:zenodo.org:858555</identifier>
      <datestamp>2017-08-31T13:01:59Z</datestamp>
      <setSpec>user-biosyslit</setSpec>
    </header>
    <header>
      <identifier>oai:zenodo.org:858569</identifier>
      <datestamp>2017-08-31T13:02:33Z</datestamp>
      <setSpec>user-biosyslit</setSpec>
    </header>
    <header>
      <identifier>oai:zenodo.org:858412</identifier>
      <datestamp>2017-08-31T12:47:52Z</datestamp>
      <setSpec>user-biosyslit</setSpec>
    </header>
    <header>
      <identifier>oai:zenodo.org:858449</identifier>
      <datestamp>2017-08-31T12:58:18Z</datestamp>
      <setSpec>user-biosyslit</setSpec>
    </header>
    <header>
      <identifier>oai:zenodo.org:858451</identifier>
      <datestamp>2017-08-31T12:58:26Z</datestamp>
      <setSpec>user-biosyslit</setSpec>
    </header>
    <header>
      <identifier>oai:zenodo.org:858453</identifier>
      <datestamp>2017-08-31T12:58:30Z</datestamp>
      <setSpec>user-biosyslit</setSpec>
    </header>
    <header>
      <identifier>oai:zenodo.org:858447</identifier>
      <datestamp>2017-08-31T12:58:13Z</datestamp>
      <setSpec>user-biosyslit</setSpec>
    </header>
    <header>
      <identifier>oai:zenodo.org:858613</identifier>
      <datestamp>2017-08-31T13:04:34Z</datestamp>
      <setSpec>user-biosyslit</setSpec>
    </header>
    <header>
      <identifier>oai:zenodo.org:858607</identifier>
      <datestamp>2017-08-31T13:04:15Z</datestamp>
      <setSpec>user-biosyslit</setSpec>
    </header>
    <header>
      <identifier>oai:zenodo.org:858605</identifier>
      <datestamp>2017-08-31T13:04:04Z</datestamp>
      <setSpec>user-biosyslit</setSpec>
    </header>
    <header>
      <identifier>oai:zenodo.org:858473</identifier>
      <datestamp>2017-08-31T12:59:23Z</datestamp>
      <setSpec>user-biosyslit</setSpec>
    </header>
    <header>
      <identifier>oai:zenodo.org:858475</identifier>
      <datestamp>2017-08-31T12:59:26Z</datestamp>
      <setSpec>user-biosyslit</setSpec>
    </header>
    <header>
      <identifier>oai:zenodo.org:858471</identifier>
      <datestamp>2017-08-31T12:59:19Z</datestamp>
      <setSpec>user-biosyslit</setSpec>
    </header>
    <header>
      <identifier>oai:zenodo.org:858418</identifier>
      <datestamp>2017-08-31T12:48:07Z</datestamp>
      <setSpec>user-biosyslit</setSpec>
    </header>
    <header>
      <identifier>oai:zenodo.org:858469</identifier>
      <datestamp>2017-08-31T12:59:15Z</datestamp>
      <setSpec>user-biosyslit</setSpec>
    </header>
    <header>
      <identifier>oai:zenodo.org:858483</identifier>
      <datestamp>2017-08-31T12:59:38Z</datestamp>
      <setSpec>user-biosyslit</setSpec>
    </header>
    <header>
      <identifier>oai:zenodo.org:858445</identifier>
      <datestamp>2017-08-31T13:04:43Z</datestamp>
      <setSpec>user-biosyslit</setSpec>
    </header>
    <header>
      <identifier>oai:zenodo.org:818650</identifier>
      <datestamp>2017-06-27T12:43:54Z</datestamp>
      <setSpec>user-biosyslit</setSpec>
    </header>
    <header>
      <identifier>oai:zenodo.org:818664</identifier>
      <datestamp>2017-06-27T12:43:06Z</datestamp>
      <setSpec>user-biosyslit</setSpec>
    </header>
    <header>
      <identifier>oai:zenodo.org:818660</identifier>
      <datestamp>2017-06-27T12:43:19Z</datestamp>
      <setSpec>user-biosyslit</setSpec>
    </header>
    <header>
      <identifier>oai:zenodo.org:818658</identifier>
      <datestamp>2017-06-27T12:43:22Z</datestamp>
      <setSpec>user-biosyslit</setSpec>
    </header>
    <header>
      <identifier>oai:zenodo.org:252141</identifier>
      <datestamp>2017-01-19T09:41:31Z</datestamp>
      <setSpec>user-biosyslit</setSpec>
    </header>
    <header>
      <identifier>oai:zenodo.org:252977</identifier>
      <datestamp>2017-01-20T01:01:57Z</datestamp>
      <setSpec>user-biosyslit</setSpec>
    </header>
    <header>
      <identifier>oai:zenodo.org:252363</identifier>
      <datestamp>2017-01-19T12:47:39Z</datestamp>
      <setSpec>user-biosyslit</setSpec>
    </header>
    <header>
      <identifier>oai:zenodo.org:251947</identifier>
      <datestamp>2017-01-19T06:27:58Z</datestamp>
      <setSpec>user-biosyslit</setSpec>
    </header>
    <header>
      <identifier>oai:zenodo.org:252670</identifier>
      <datestamp>2017-01-19T18:16:07Z</datestamp>
      <setSpec>user-biosyslit</setSpec>
    </header>
    <header>
      <identifier>oai:zenodo.org:252214</identifier>
      <datestamp>2017-01-19T10:45:22Z</datestamp>
      <setSpec>user-biosyslit</setSpec>
    </header>
    <header>
      <identifier>oai:zenodo.org:252381</identifier>
      <datestamp>2017-01-19T13:20:32Z</datestamp>
      <setSpec>user-biosyslit</setSpec>
    </header>
    <header>
      <identifier>oai:zenodo.org:252113</identifier>
      <datestamp>2017-01-19T09:21:50Z</datestamp>
      <setSpec>user-biosyslit</setSpec>
    </header>
    <header>
      <identifier>oai:zenodo.org:252110</identifier>
      <datestamp>2017-01-19T09:21:40Z</datestamp>
      <setSpec>user-biosyslit</setSpec>
    </header>
    <header>
      <identifier>oai:zenodo.org:252359</identifier>
      <datestamp>2017-01-19T12:36:54Z</datestamp>
      <setSpec>user-biosyslit</setSpec>
    </header>
    <header>
      <identifier>oai:zenodo.org:252298</identifier>
      <datestamp>2017-01-19T11:55:31Z</datestamp>
      <setSpec>user-biosyslit</setSpec>
    </header>
    <header>
      <identifier>oai:zenodo.org:252664</identifier>
      <datestamp>2017-01-19T18:15:52Z</datestamp>
      <setSpec>user-biosyslit</setSpec>
    </header>
    <header>
      <identifier>oai:zenodo.org:252992</identifier>
      <datestamp>2017-01-20T01:04:08Z</datestamp>
      <setSpec>user-biosyslit</setSpec>
    </header>
    <header>
      <identifier>oai:zenodo.org:252822</identifier>
      <datestamp>2017-01-19T20:54:56Z</datestamp>
      <setSpec>user-biosyslit</setSpec>
    </header>
    <header>
      <identifier>oai:zenodo.org:252921</identifier>
      <datestamp>2017-01-19T23:01:11Z</datestamp>
      <setSpec>user-biosyslit</setSpec>
    </header>
    <header>
      <identifier>oai:zenodo.org:252989</identifier>
      <datestamp>2017-01-20T01:04:00Z</datestamp>
      <setSpec>user-biosyslit</setSpec>
    </header>
    <header>
      <identifier>oai:zenodo.org:253100</identifier>
      <datestamp>2017-01-20T02:33:20Z</datestamp>
      <setSpec>user-biosyslit</setSpec>
    </header>
    <header>
      <identifier>oai:zenodo.org:252659</identifier>
      <datestamp>2017-01-19T18:16:14Z</datestamp>
      <setSpec>user-biosyslit</setSpec>
    </header>
    <header>
      <identifier>oai:zenodo.org:253128</identifier>
      <datestamp>2017-01-20T02:35:04Z</datestamp>
      <setSpec>user-biosyslit</setSpec>
    </header>
    <header>
      <identifier>oai:zenodo.org:253146</identifier>
      <datestamp>2017-01-20T02:36:05Z</datestamp>
      <setSpec>user-biosyslit</setSpec>
    </header>
    <header>
      <identifier>oai:zenodo.org:253661</identifier>
      <datestamp>2017-01-20T09:39:44Z</datestamp>
      <setSpec>user-biosyslit</setSpec>
    </header>
    <header>
      <identifier>oai:zenodo.org:253071</identifier>
      <datestamp>2017-01-20T02:09:34Z</datestamp>
      <setSpec>user-biosyslit</setSpec>
    </header>
    <header>
      <identifier>oai:zenodo.org:253222</identifier>
      <datestamp>2017-01-20T04:33:31Z</datestamp>
      <setSpec>user-biosyslit</setSpec>
    </header>
    <header>
      <identifier>oai:zenodo.org:253494</identifier>
      <datestamp>2017-01-20T07:49:51Z</datestamp>
      <setSpec>user-biosyslit</setSpec>
    </header>
    <header>
      <identifier>oai:zenodo.org:253514</identifier>
      <datestamp>2017-01-20T07:57:15Z</datestamp>
      <setSpec>user-biosyslit</setSpec>
    </header>
    <header>
      <identifier>oai:zenodo.org:254028</identifier>
      <datestamp>2017-01-20T13:39:38Z</datestamp>
      <setSpec>user-biosyslit</setSpec>
    </header>
    <header>
      <identifier>oai:zenodo.org:254710</identifier>
      <datestamp>2017-01-21T02:14:44Z</datestamp>
      <setSpec>user-biosyslit</setSpec>
    </header>
    <header>
      <identifier>oai:zenodo.org:276481</identifier>
      <datestamp>2017-02-08T18:55:51Z</datestamp>
      <setSpec>user-biosyslit</setSpec>
    </header>
    <header>
      <identifier>oai:zenodo.org:254130</identifier>
      <datestamp>2017-01-20T15:21:03Z</datestamp>
      <setSpec>user-biosyslit</setSpec>
    </header>
    <header>
      <identifier>oai:zenodo.org:254027</identifier>
      <datestamp>2017-01-20T13:39:36Z</datestamp>
      <setSpec>user-biosyslit</setSpec>
    </header>
    <header>
      <identifier>oai:zenodo.org:254115</identifier>
      <datestamp>2017-01-23T04:14:59Z</datestamp>
      <setSpec>openaire</setSpec>
      <setSpec>user-biosyslit</setSpec>
    </header>
    <header>
      <identifier>oai:zenodo.org:254451</identifier>
      <datestamp>2017-01-20T18:50:05Z</datestamp>
      <setSpec>user-biosyslit</setSpec>
    </header>
    <header>
      <identifier>oai:zenodo.org:254830</identifier>
      <datestamp>2017-01-21T03:39:00Z</datestamp>
      <setSpec>user-biosyslit</setSpec>
    </header>
    <header>
      <identifier>oai:zenodo.org:254687</identifier>
      <datestamp>2017-01-21T01:34:35Z</datestamp>
      <setSpec>user-biosyslit</setSpec>
    </header>
    <header>
      <identifier>oai:zenodo.org:254758</identifier>
      <datestamp>2017-01-21T02:34:37Z</datestamp>
      <setSpec>user-biosyslit</setSpec>
    </header>
    <header>
      <identifier>oai:zenodo.org:251614</identifier>
      <datestamp>2017-01-19T02:46:49Z</datestamp>
      <setSpec>user-biosyslit</setSpec>
    </header>
    <header>
      <identifier>oai:zenodo.org:272909</identifier>
      <datestamp>2017-02-08T06:33:34Z</datestamp>
      <setSpec>user-biosyslit</setSpec>
    </header>
    <header>
      <identifier>oai:zenodo.org:251563</identifier>
      <datestamp>2017-01-19T01:59:09Z</datestamp>
      <setSpec>user-biosyslit</setSpec>
    </header>
    <header>
      <identifier>oai:zenodo.org:272907</identifier>
      <datestamp>2017-02-08T06:33:28Z</datestamp>
      <setSpec>user-biosyslit</setSpec>
    </header>
    <header>
      <identifier>oai:zenodo.org:251541</identifier>
      <datestamp>2017-01-19T01:36:13Z</datestamp>
      <setSpec>user-biosyslit</setSpec>
    </header>
    <header>
      <identifier>oai:zenodo.org:273019</identifier>
      <datestamp>2017-02-08T06:58:38Z</datestamp>
      <setSpec>user-biosyslit</setSpec>
    </header>
    <header>
      <identifier>oai:zenodo.org:273291</identifier>
      <datestamp>2017-02-08T08:53:52Z</datestamp>
      <setSpec>user-biosyslit</setSpec>
    </header>
    <header>
      <identifier>oai:zenodo.org:251778</identifier>
      <datestamp>2017-01-19T04:30:32Z</datestamp>
      <setSpec>user-biosyslit</setSpec>
    </header>
    <header>
      <identifier>oai:zenodo.org:273271</identifier>
      <datestamp>2017-02-08T08:48:41Z</datestamp>
      <setSpec>user-biosyslit</setSpec>
    </header>
    <header>
      <identifier>oai:zenodo.org:276360</identifier>
      <datestamp>2017-02-08T18:42:14Z</datestamp>
      <setSpec>user-biosyslit</setSpec>
    </header>
    <header>
      <identifier>oai:zenodo.org:251789</identifier>
      <datestamp>2017-01-19T04:30:57Z</datestamp>
      <setSpec>user-biosyslit</setSpec>
    </header>
    <header>
      <identifier>oai:zenodo.org:276193</identifier>
      <datestamp>2017-02-08T18:22:18Z</datestamp>
      <setSpec>user-biosyslit</setSpec>
    </header>
    <header>
      <identifier>oai:zenodo.org:252016</identifier>
      <datestamp>2017-01-19T07:22:07Z</datestamp>
      <setSpec>user-biosyslit</setSpec>
    </header>
    <header>
      <identifier>oai:zenodo.org:252210</identifier>
      <datestamp>2017-01-19T10:45:03Z</datestamp>
      <setSpec>user-biosyslit</setSpec>
    </header>
    <header>
      <identifier>oai:zenodo.org:252009</identifier>
      <datestamp>2017-01-19T07:21:48Z</datestamp>
      <setSpec>user-biosyslit</setSpec>
    </header>
    <header>
      <identifier>oai:zenodo.org:252437</identifier>
      <datestamp>2017-01-19T14:36:02Z</datestamp>
      <setSpec>user-biosyslit</setSpec>
    </header>
    <header>
      <identifier>oai:zenodo.org:251955</identifier>
      <datestamp>2017-01-19T06:28:20Z</datestamp>
      <setSpec>user-biosyslit</setSpec>
    </header>
    <header>
      <identifier>oai:zenodo.org:252656</identifier>
      <datestamp>2017-01-19T18:06:12Z</datestamp>
      <setSpec>user-biosyslit</setSpec>
    </header>
    <header>
      <identifier>oai:zenodo.org:252084</identifier>
      <datestamp>2017-01-19T08:55:42Z</datestamp>
      <setSpec>user-biosyslit</setSpec>
    </header>
    <header>
      <identifier>oai:zenodo.org:252134</identifier>
      <datestamp>2017-01-19T09:41:40Z</datestamp>
      <setSpec>user-biosyslit</setSpec>
    </header>
    <header>
      <identifier>oai:zenodo.org:252319</identifier>
      <datestamp>2017-01-19T11:56:34Z</datestamp>
      <setSpec>user-biosyslit</setSpec>
    </header>
    <header>
      <identifier>oai:zenodo.org:253561</identifier>
      <datestamp>2017-01-20T08:25:08Z</datestamp>
      <setSpec>user-biosyslit</setSpec>
    </header>
    <header>
      <identifier>oai:zenodo.org:253202</identifier>
      <datestamp>2017-01-20T04:00:25Z</datestamp>
      <setSpec>user-biosyslit</setSpec>
    </header>
    <header>
      <identifier>oai:zenodo.org:253158</identifier>
      <datestamp>2017-01-20T03:14:25Z</datestamp>
      <setSpec>user-biosyslit</setSpec>
    </header>
    <header>
      <identifier>oai:zenodo.org:252883</identifier>
      <datestamp>2017-01-19T22:27:47Z</datestamp>
      <setSpec>user-biosyslit</setSpec>
    </header>
    <header>
      <identifier>oai:zenodo.org:253468</identifier>
      <datestamp>2017-01-20T07:24:40Z</datestamp>
      <setSpec>user-biosyslit</setSpec>
    </header>
    <header>
      <identifier>oai:zenodo.org:252662</identifier>
      <datestamp>2017-01-19T18:15:47Z</datestamp>
      <setSpec>user-biosyslit</setSpec>
    </header>
    <header>
      <identifier>oai:zenodo.org:252973</identifier>
      <datestamp>2017-01-20T01:00:56Z</datestamp>
      <setSpec>user-biosyslit</setSpec>
    </header>
    <header>
      <identifier>oai:zenodo.org:252641</identifier>
      <datestamp>2017-01-19T17:48:51Z</datestamp>
      <setSpec>user-biosyslit</setSpec>
    </header>
    <header>
      <identifier>oai:zenodo.org:252919</identifier>
      <datestamp>2017-01-19T23:01:03Z</datestamp>
      <setSpec>user-biosyslit</setSpec>
    </header>
    <header>
      <identifier>oai:zenodo.org:253120</identifier>
      <datestamp>2017-01-20T02:34:43Z</datestamp>
      <setSpec>user-biosyslit</setSpec>
    </header>
    <resumptionToken expirationDate="2017-08-31T15:45:33Z" cursor="38800" completeListSize="77796">.eJyNyj0PQ0AYAOD_8s7S3Lmoj6RLQ8WAcCVYGkVEHRXXBif-ey2d2_l5VuBVVYKBDrKuIoUckappGCsKkYAX45OxW7MzFEnMip5FuR2_wy5GqVyrnsln10yJJ1rkd1jQSyAnWJujBi3BNXqlIpxj4kwUWaorgsV7OPsriW-z7G4PNOrPjMrl6FvBQvGZZqT4PvznEz-fyU8gwZDXFRhERxK0Uz7WHIx12z6cb1E9.DInAJQ.t6bz8ooUHkyHRsjnEx4a93UdHR8</resumptionToken>
  </ListIdentifiers>
</OAI-PMH>
