<?xml version='1.0' encoding='UTF-8'?>
<?xml-stylesheet type="text/xsl" href="/static/xsl/oai2.v1.0.xsl"?>
<OAI-PMH xmlns="http://www.openarchives.org/OAI/2.0/" xmlns:xsi="http://www.w3.org/2001/XMLSchema-instance" xsi:schemaLocation="http://www.openarchives.org/OAI/2.0/ http://www.openarchives.org/OAI/2.0/OAI-PMH.xsd">
  <responseDate>2017-08-31T15:42:37Z</responseDate>
  <request verb="ListIdentifiers" resumptionToken=".eJyNyk0LgjAYAOD_8p4l9lHOhC5iiYeUuZT0EjZFylniinTRf69L5zo_zxN0XVfgohm1HdtBS4dQghldEAu0HK5KHU4fBrnPlLyotAyye9JlKCcNi3w9bv2cRqZFcYeN2HCyx86YntDEd-ktN8mY0fAh0JptDZ-ic_h5FY0DVRyDXqQXTwlSDfGaTwJ7oqDy-_Cfz_x8vl6BBX3Z1OCSObOgfZRDo8F9vl5vn2lRQQ.DIm_7Q.3jpEAj0bBxDBJvNMIyBqhWQuolg">https://zenodo.org/oai2d</request>
  <ListIdentifiers>
    <header>
      <identifier>oai:zenodo.org:236798</identifier>
      <datestamp>2017-01-10T05:41:07Z</datestamp>
      <setSpec>user-biosyslit</setSpec>
    </header>
    <header>
      <identifier>oai:zenodo.org:236795</identifier>
      <datestamp>2017-01-10T05:40:57Z</datestamp>
      <setSpec>user-biosyslit</setSpec>
    </header>
    <header>
      <identifier>oai:zenodo.org:273509</identifier>
      <datestamp>2017-02-08T09:33:05Z</datestamp>
      <setSpec>user-biosyslit</setSpec>
    </header>
    <header>
      <identifier>oai:zenodo.org:238310</identifier>
      <datestamp>2017-01-11T03:39:24Z</datestamp>
      <setSpec>user-biosyslit</setSpec>
    </header>
    <header>
      <identifier>oai:zenodo.org:273513</identifier>
      <datestamp>2017-02-08T09:33:03Z</datestamp>
      <setSpec>user-biosyslit</setSpec>
    </header>
    <header>
      <identifier>oai:zenodo.org:273511</identifier>
      <datestamp>2017-02-08T09:32:59Z</datestamp>
      <setSpec>user-biosyslit</setSpec>
    </header>
    <header>
      <identifier>oai:zenodo.org:238311</identifier>
      <datestamp>2017-01-11T03:39:18Z</datestamp>
      <setSpec>user-biosyslit</setSpec>
    </header>
    <header>
      <identifier>oai:zenodo.org:277968</identifier>
      <datestamp>2017-02-08T22:10:53Z</datestamp>
      <setSpec>user-biosyslit</setSpec>
    </header>
    <header>
      <identifier>oai:zenodo.org:231255</identifier>
      <datestamp>2017-01-05T18:02:37Z</datestamp>
      <setSpec>user-biosyslit</setSpec>
    </header>
    <header>
      <identifier>oai:zenodo.org:237648</identifier>
      <datestamp>2017-01-10T18:20:30Z</datestamp>
      <setSpec>user-biosyslit</setSpec>
    </header>
    <header>
      <identifier>oai:zenodo.org:237652</identifier>
      <datestamp>2017-01-10T18:20:47Z</datestamp>
      <setSpec>user-biosyslit</setSpec>
    </header>
    <header>
      <identifier>oai:zenodo.org:231254</identifier>
      <datestamp>2017-01-05T18:02:33Z</datestamp>
      <setSpec>user-biosyslit</setSpec>
    </header>
    <header>
      <identifier>oai:zenodo.org:231256</identifier>
      <datestamp>2017-01-05T18:02:42Z</datestamp>
      <setSpec>user-biosyslit</setSpec>
    </header>
    <header>
      <identifier>oai:zenodo.org:227904</identifier>
      <datestamp>2017-01-02T06:33:30Z</datestamp>
      <setSpec>user-biosyslit</setSpec>
    </header>
    <header>
      <identifier>oai:zenodo.org:280316</identifier>
      <datestamp>2017-02-09T03:11:19Z</datestamp>
      <setSpec>user-biosyslit</setSpec>
    </header>
    <header>
      <identifier>oai:zenodo.org:280322</identifier>
      <datestamp>2017-02-09T03:11:05Z</datestamp>
      <setSpec>user-biosyslit</setSpec>
    </header>
    <header>
      <identifier>oai:zenodo.org:280326</identifier>
      <datestamp>2017-02-09T03:11:15Z</datestamp>
      <setSpec>user-biosyslit</setSpec>
    </header>
    <header>
      <identifier>oai:zenodo.org:280327</identifier>
      <datestamp>2017-02-09T03:11:17Z</datestamp>
      <setSpec>user-biosyslit</setSpec>
    </header>
    <header>
      <identifier>oai:zenodo.org:228641</identifier>
      <datestamp>2017-01-03T02:54:52Z</datestamp>
      <setSpec>user-biosyslit</setSpec>
    </header>
    <header>
      <identifier>oai:zenodo.org:228647</identifier>
      <datestamp>2017-01-03T02:54:30Z</datestamp>
      <setSpec>user-biosyslit</setSpec>
    </header>
    <header>
      <identifier>oai:zenodo.org:228646</identifier>
      <datestamp>2017-01-03T02:54:27Z</datestamp>
      <setSpec>user-biosyslit</setSpec>
    </header>
    <header>
      <identifier>oai:zenodo.org:228651</identifier>
      <datestamp>2017-01-03T02:54:51Z</datestamp>
      <setSpec>user-biosyslit</setSpec>
    </header>
    <header>
      <identifier>oai:zenodo.org:229058</identifier>
      <datestamp>2017-01-03T08:57:53Z</datestamp>
      <setSpec>user-biosyslit</setSpec>
    </header>
    <header>
      <identifier>oai:zenodo.org:229060</identifier>
      <datestamp>2017-01-03T08:57:49Z</datestamp>
      <setSpec>user-biosyslit</setSpec>
    </header>
    <header>
      <identifier>oai:zenodo.org:275459</identifier>
      <datestamp>2017-02-08T16:30:52Z</datestamp>
      <setSpec>user-biosyslit</setSpec>
    </header>
    <header>
      <identifier>oai:zenodo.org:275462</identifier>
      <datestamp>2017-02-08T16:30:58Z</datestamp>
      <setSpec>user-biosyslit</setSpec>
    </header>
    <header>
      <identifier>oai:zenodo.org:275460</identifier>
      <datestamp>2017-02-08T16:30:54Z</datestamp>
      <setSpec>user-biosyslit</setSpec>
    </header>
    <header>
      <identifier>oai:zenodo.org:275465</identifier>
      <datestamp>2017-02-08T16:31:07Z</datestamp>
      <setSpec>user-biosyslit</setSpec>
    </header>
    <header>
      <identifier>oai:zenodo.org:275471</identifier>
      <datestamp>2017-02-08T16:31:19Z</datestamp>
      <setSpec>user-biosyslit</setSpec>
    </header>
    <header>
      <identifier>oai:zenodo.org:275472</identifier>
      <datestamp>2017-02-08T16:31:21Z</datestamp>
      <setSpec>user-biosyslit</setSpec>
    </header>
    <header>
      <identifier>oai:zenodo.org:275461</identifier>
      <datestamp>2017-02-08T16:30:56Z</datestamp>
      <setSpec>user-biosyslit</setSpec>
    </header>
    <header>
      <identifier>oai:zenodo.org:278198</identifier>
      <datestamp>2017-02-08T22:39:23Z</datestamp>
      <setSpec>user-biosyslit</setSpec>
    </header>
    <header>
      <identifier>oai:zenodo.org:285728</identifier>
      <datestamp>2017-02-09T14:12:20Z</datestamp>
      <setSpec>user-biosyslit</setSpec>
    </header>
    <header>
      <identifier>oai:zenodo.org:273346</identifier>
      <datestamp>2017-02-08T09:02:58Z</datestamp>
      <setSpec>user-biosyslit</setSpec>
    </header>
    <header>
      <identifier>oai:zenodo.org:273347</identifier>
      <datestamp>2017-02-08T09:02:55Z</datestamp>
      <setSpec>user-biosyslit</setSpec>
    </header>
    <header>
      <identifier>oai:zenodo.org:256173</identifier>
      <datestamp>2017-01-22T06:16:17Z</datestamp>
      <setSpec>user-biosyslit</setSpec>
    </header>
    <header>
      <identifier>oai:zenodo.org:256174</identifier>
      <datestamp>2017-01-22T06:15:42Z</datestamp>
      <setSpec>user-biosyslit</setSpec>
    </header>
    <header>
      <identifier>oai:zenodo.org:239364</identifier>
      <datestamp>2017-01-11T19:34:44Z</datestamp>
      <setSpec>user-biosyslit</setSpec>
    </header>
    <header>
      <identifier>oai:zenodo.org:239372</identifier>
      <datestamp>2017-01-11T19:35:12Z</datestamp>
      <setSpec>user-biosyslit</setSpec>
    </header>
    <header>
      <identifier>oai:zenodo.org:239365</identifier>
      <datestamp>2017-01-11T19:34:47Z</datestamp>
      <setSpec>user-biosyslit</setSpec>
    </header>
    <header>
      <identifier>oai:zenodo.org:239370</identifier>
      <datestamp>2017-01-11T19:35:03Z</datestamp>
      <setSpec>user-biosyslit</setSpec>
    </header>
    <header>
      <identifier>oai:zenodo.org:256179</identifier>
      <datestamp>2017-01-22T06:15:58Z</datestamp>
      <setSpec>user-biosyslit</setSpec>
    </header>
    <header>
      <identifier>oai:zenodo.org:256181</identifier>
      <datestamp>2017-01-22T06:16:05Z</datestamp>
      <setSpec>user-biosyslit</setSpec>
    </header>
    <header>
      <identifier>oai:zenodo.org:239371</identifier>
      <datestamp>2017-01-11T19:35:06Z</datestamp>
      <setSpec>user-biosyslit</setSpec>
    </header>
    <header>
      <identifier>oai:zenodo.org:281124</identifier>
      <datestamp>2017-02-09T04:46:34Z</datestamp>
      <setSpec>user-biosyslit</setSpec>
    </header>
    <header>
      <identifier>oai:zenodo.org:281119</identifier>
      <datestamp>2017-02-09T04:46:23Z</datestamp>
      <setSpec>user-biosyslit</setSpec>
    </header>
    <header>
      <identifier>oai:zenodo.org:281121</identifier>
      <datestamp>2017-02-09T04:46:27Z</datestamp>
      <setSpec>user-biosyslit</setSpec>
    </header>
    <header>
      <identifier>oai:zenodo.org:281122</identifier>
      <datestamp>2017-02-09T04:46:30Z</datestamp>
      <setSpec>user-biosyslit</setSpec>
    </header>
    <header>
      <identifier>oai:zenodo.org:231274</identifier>
      <datestamp>2017-01-05T18:16:18Z</datestamp>
      <setSpec>user-biosyslit</setSpec>
    </header>
    <header>
      <identifier>oai:zenodo.org:235568</identifier>
      <datestamp>2017-01-09T12:16:35Z</datestamp>
      <setSpec>user-biosyslit</setSpec>
    </header>
    <header>
      <identifier>oai:zenodo.org:235569</identifier>
      <datestamp>2017-01-09T12:16:37Z</datestamp>
      <setSpec>user-biosyslit</setSpec>
    </header>
    <header>
      <identifier>oai:zenodo.org:235567</identifier>
      <datestamp>2017-01-09T12:16:31Z</datestamp>
      <setSpec>user-biosyslit</setSpec>
    </header>
    <header>
      <identifier>oai:zenodo.org:235562</identifier>
      <datestamp>2017-01-09T12:16:11Z</datestamp>
      <setSpec>user-biosyslit</setSpec>
    </header>
    <header>
      <identifier>oai:zenodo.org:235563</identifier>
      <datestamp>2017-01-09T12:16:15Z</datestamp>
      <setSpec>user-biosyslit</setSpec>
    </header>
    <header>
      <identifier>oai:zenodo.org:235561</identifier>
      <datestamp>2017-01-09T12:16:07Z</datestamp>
      <setSpec>user-biosyslit</setSpec>
    </header>
    <header>
      <identifier>oai:zenodo.org:235555</identifier>
      <datestamp>2017-01-09T12:15:42Z</datestamp>
      <setSpec>user-biosyslit</setSpec>
    </header>
    <header>
      <identifier>oai:zenodo.org:275314</identifier>
      <datestamp>2017-02-08T16:05:02Z</datestamp>
      <setSpec>user-biosyslit</setSpec>
    </header>
    <header>
      <identifier>oai:zenodo.org:283889</identifier>
      <datestamp>2017-02-09T10:00:01Z</datestamp>
      <setSpec>user-biosyslit</setSpec>
    </header>
    <header>
      <identifier>oai:zenodo.org:245329</identifier>
      <datestamp>2017-01-15T11:51:25Z</datestamp>
      <setSpec>user-biosyslit</setSpec>
    </header>
    <header>
      <identifier>oai:zenodo.org:275313</identifier>
      <datestamp>2017-02-08T16:05:00Z</datestamp>
      <setSpec>user-biosyslit</setSpec>
    </header>
    <header>
      <identifier>oai:zenodo.org:283887</identifier>
      <datestamp>2017-02-09T09:59:56Z</datestamp>
      <setSpec>user-biosyslit</setSpec>
    </header>
    <header>
      <identifier>oai:zenodo.org:275413</identifier>
      <datestamp>2017-02-08T16:17:55Z</datestamp>
      <setSpec>user-biosyslit</setSpec>
    </header>
    <header>
      <identifier>oai:zenodo.org:275414</identifier>
      <datestamp>2017-02-08T16:17:36Z</datestamp>
      <setSpec>user-biosyslit</setSpec>
    </header>
    <header>
      <identifier>oai:zenodo.org:244910</identifier>
      <datestamp>2017-01-15T04:57:35Z</datestamp>
      <setSpec>user-biosyslit</setSpec>
    </header>
    <header>
      <identifier>oai:zenodo.org:244908</identifier>
      <datestamp>2017-01-15T04:57:28Z</datestamp>
      <setSpec>user-biosyslit</setSpec>
    </header>
    <header>
      <identifier>oai:zenodo.org:275416</identifier>
      <datestamp>2017-02-08T16:17:41Z</datestamp>
      <setSpec>user-biosyslit</setSpec>
    </header>
    <header>
      <identifier>oai:zenodo.org:275418</identifier>
      <datestamp>2017-02-08T16:17:47Z</datestamp>
      <setSpec>user-biosyslit</setSpec>
    </header>
    <header>
      <identifier>oai:zenodo.org:266328</identifier>
      <datestamp>2017-02-01T06:22:47Z</datestamp>
      <setSpec>user-biosyslit</setSpec>
    </header>
    <header>
      <identifier>oai:zenodo.org:266321</identifier>
      <datestamp>2017-02-01T06:22:27Z</datestamp>
      <setSpec>user-biosyslit</setSpec>
    </header>
    <header>
      <identifier>oai:zenodo.org:266327</identifier>
      <datestamp>2017-02-01T06:22:44Z</datestamp>
      <setSpec>user-biosyslit</setSpec>
    </header>
    <header>
      <identifier>oai:zenodo.org:266329</identifier>
      <datestamp>2017-02-01T06:22:51Z</datestamp>
      <setSpec>user-biosyslit</setSpec>
    </header>
    <header>
      <identifier>oai:zenodo.org:281192</identifier>
      <datestamp>2017-02-09T04:54:40Z</datestamp>
      <setSpec>user-biosyslit</setSpec>
    </header>
    <header>
      <identifier>oai:zenodo.org:284808</identifier>
      <datestamp>2017-02-09T12:03:00Z</datestamp>
      <setSpec>user-biosyslit</setSpec>
    </header>
    <header>
      <identifier>oai:zenodo.org:284807</identifier>
      <datestamp>2017-02-09T12:02:57Z</datestamp>
      <setSpec>user-biosyslit</setSpec>
    </header>
    <header>
      <identifier>oai:zenodo.org:281201</identifier>
      <datestamp>2017-02-09T04:54:35Z</datestamp>
      <setSpec>user-biosyslit</setSpec>
    </header>
    <header>
      <identifier>oai:zenodo.org:284804</identifier>
      <datestamp>2017-02-09T12:02:39Z</datestamp>
      <setSpec>user-biosyslit</setSpec>
    </header>
    <header>
      <identifier>oai:zenodo.org:281194</identifier>
      <datestamp>2017-02-09T04:54:15Z</datestamp>
      <setSpec>user-biosyslit</setSpec>
    </header>
    <header>
      <identifier>oai:zenodo.org:281195</identifier>
      <datestamp>2017-02-09T04:54:18Z</datestamp>
      <setSpec>user-biosyslit</setSpec>
    </header>
    <header>
      <identifier>oai:zenodo.org:281200</identifier>
      <datestamp>2017-02-09T04:54:32Z</datestamp>
      <setSpec>user-biosyslit</setSpec>
    </header>
    <header>
      <identifier>oai:zenodo.org:284858</identifier>
      <datestamp>2017-02-09T12:05:39Z</datestamp>
      <setSpec>user-biosyslit</setSpec>
    </header>
    <header>
      <identifier>oai:zenodo.org:284872</identifier>
      <datestamp>2017-02-09T12:06:22Z</datestamp>
      <setSpec>user-biosyslit</setSpec>
    </header>
    <header>
      <identifier>oai:zenodo.org:284864</identifier>
      <datestamp>2017-02-09T12:05:55Z</datestamp>
      <setSpec>user-biosyslit</setSpec>
    </header>
    <header>
      <identifier>oai:zenodo.org:284862</identifier>
      <datestamp>2017-02-09T12:05:50Z</datestamp>
      <setSpec>user-biosyslit</setSpec>
    </header>
    <header>
      <identifier>oai:zenodo.org:284863</identifier>
      <datestamp>2017-02-09T12:05:53Z</datestamp>
      <setSpec>user-biosyslit</setSpec>
    </header>
    <header>
      <identifier>oai:zenodo.org:284869</identifier>
      <datestamp>2017-02-09T12:06:13Z</datestamp>
      <setSpec>user-biosyslit</setSpec>
    </header>
    <header>
      <identifier>oai:zenodo.org:284865</identifier>
      <datestamp>2017-02-09T12:05:58Z</datestamp>
      <setSpec>user-biosyslit</setSpec>
    </header>
    <header>
      <identifier>oai:zenodo.org:284870</identifier>
      <datestamp>2017-02-09T12:06:16Z</datestamp>
      <setSpec>user-biosyslit</setSpec>
    </header>
    <header>
      <identifier>oai:zenodo.org:284868</identifier>
      <datestamp>2017-02-09T12:06:09Z</datestamp>
      <setSpec>user-biosyslit</setSpec>
    </header>
    <header>
      <identifier>oai:zenodo.org:277133</identifier>
      <datestamp>2017-02-08T20:28:50Z</datestamp>
      <setSpec>user-biosyslit</setSpec>
    </header>
    <header>
      <identifier>oai:zenodo.org:277135</identifier>
      <datestamp>2017-02-08T20:28:43Z</datestamp>
      <setSpec>user-biosyslit</setSpec>
    </header>
    <header>
      <identifier>oai:zenodo.org:239088</identifier>
      <datestamp>2017-01-11T16:17:48Z</datestamp>
      <setSpec>user-biosyslit</setSpec>
    </header>
    <header>
      <identifier>oai:zenodo.org:239086</identifier>
      <datestamp>2017-01-11T16:17:42Z</datestamp>
      <setSpec>user-biosyslit</setSpec>
    </header>
    <header>
      <identifier>oai:zenodo.org:275232</identifier>
      <datestamp>2017-02-08T15:45:53Z</datestamp>
      <setSpec>user-biosyslit</setSpec>
    </header>
    <header>
      <identifier>oai:zenodo.org:275233</identifier>
      <datestamp>2017-02-08T15:45:56Z</datestamp>
      <setSpec>user-biosyslit</setSpec>
    </header>
    <header>
      <identifier>oai:zenodo.org:275231</identifier>
      <datestamp>2017-02-08T15:45:50Z</datestamp>
      <setSpec>user-biosyslit</setSpec>
    </header>
    <header>
      <identifier>oai:zenodo.org:251860</identifier>
      <datestamp>2017-01-19T05:45:58Z</datestamp>
      <setSpec>user-biosyslit</setSpec>
    </header>
    <header>
      <identifier>oai:zenodo.org:264297</identifier>
      <datestamp>2017-01-30T18:35:05Z</datestamp>
      <setSpec>user-biosyslit</setSpec>
    </header>
    <header>
      <identifier>oai:zenodo.org:264296</identifier>
      <datestamp>2017-01-30T18:35:01Z</datestamp>
      <setSpec>user-biosyslit</setSpec>
    </header>
    <header>
      <identifier>oai:zenodo.org:251902</identifier>
      <datestamp>2017-01-19T05:45:34Z</datestamp>
      <setSpec>user-biosyslit</setSpec>
    </header>
    <header>
      <identifier>oai:zenodo.org:251909</identifier>
      <datestamp>2017-01-19T05:45:56Z</datestamp>
      <setSpec>user-biosyslit</setSpec>
    </header>
    <resumptionToken expirationDate="2017-08-31T15:44:37Z" cursor="24600" completeListSize="77796">.eJyNyk0LgjAYAOD_8p4l9mEqQpewxEPKXBvpJUxFrGniinTRf69L5zo_zxN0XVfgo4VtOxQtKbYd4rnYdSzQ5XhV6th-GMqDVGWvRBHKe9pJlJHGjQM97YKMxuaCkg4bvmXkgL1JtGhme3HLTDpJGj042rg7w-b4HH1eRZNQ5adw4KJfK06qMdmwmeM1z2n5ffjPZ36-QK_AgqFoavCJ7VlweRRjo8F_vl5vmXpRPA.DIm_7Q.odj1JP8MDmjOxjZ9G3DdC3WI5_0</resumptionToken>
  </ListIdentifiers>
</OAI-PMH>
