<?xml version='1.0' encoding='UTF-8'?>
<?xml-stylesheet type="text/xsl" href="/static/xsl/oai2.v1.0.xsl"?>
<OAI-PMH xmlns="http://www.openarchives.org/OAI/2.0/" xmlns:xsi="http://www.w3.org/2001/XMLSchema-instance" xsi:schemaLocation="http://www.openarchives.org/OAI/2.0/ http://www.openarchives.org/OAI/2.0/OAI-PMH.xsd">
  <responseDate>2017-08-31T15:46:10Z</responseDate>
  <request verb="ListIdentifiers" resumptionToken=".eJyNyssKgkAUANB_uWuJeeQjoY1o0kJFJ0XdhKlIOZo4hTrRv-emda3PeYGo6wpMtNkiYhg7DWm6oaoUEwVEOd45P19XhjJNeNnzuHCTZ9QlKCON7tti9uyM-rJFQYclO4QkxcYcX9ESnuJHJqM5oceJIUf3ZLj4t-P6Khq4PL-4A4t7izNSjYETLgxbLKfl9-E_n_z5bLEHBYaiqcHUqapAOxVjI8B8vd8foE5RRA.DInAwQ.AqEGVUuDOLRMlgFqrQ7MIMkLauA">https://zenodo.org/oai2d</request>
  <ListIdentifiers>
    <header>
      <identifier>oai:zenodo.org:256231</identifier>
      <datestamp>2017-01-22T07:32:21Z</datestamp>
      <setSpec>user-biosyslit</setSpec>
    </header>
    <header>
      <identifier>oai:zenodo.org:280787</identifier>
      <datestamp>2017-02-09T04:05:12Z</datestamp>
      <setSpec>user-biosyslit</setSpec>
    </header>
    <header>
      <identifier>oai:zenodo.org:235596</identifier>
      <datestamp>2017-01-09T12:44:45Z</datestamp>
      <setSpec>user-biosyslit</setSpec>
    </header>
    <header>
      <identifier>oai:zenodo.org:235610</identifier>
      <datestamp>2017-01-09T12:44:35Z</datestamp>
      <setSpec>user-biosyslit</setSpec>
    </header>
    <header>
      <identifier>oai:zenodo.org:235609</identifier>
      <datestamp>2017-01-09T12:44:32Z</datestamp>
      <setSpec>user-biosyslit</setSpec>
    </header>
    <header>
      <identifier>oai:zenodo.org:283510</identifier>
      <datestamp>2017-02-09T09:07:04Z</datestamp>
      <setSpec>user-biosyslit</setSpec>
    </header>
    <header>
      <identifier>oai:zenodo.org:283511</identifier>
      <datestamp>2017-02-09T09:06:51Z</datestamp>
      <setSpec>user-biosyslit</setSpec>
    </header>
    <header>
      <identifier>oai:zenodo.org:283515</identifier>
      <datestamp>2017-02-09T09:07:01Z</datestamp>
      <setSpec>user-biosyslit</setSpec>
    </header>
    <header>
      <identifier>oai:zenodo.org:283513</identifier>
      <datestamp>2017-02-09T09:06:56Z</datestamp>
      <setSpec>user-biosyslit</setSpec>
    </header>
    <header>
      <identifier>oai:zenodo.org:266479</identifier>
      <datestamp>2017-02-01T10:43:55Z</datestamp>
      <setSpec>user-biosyslit</setSpec>
    </header>
    <header>
      <identifier>oai:zenodo.org:266480</identifier>
      <datestamp>2017-02-01T10:43:43Z</datestamp>
      <setSpec>user-biosyslit</setSpec>
    </header>
    <header>
      <identifier>oai:zenodo.org:266482</identifier>
      <datestamp>2017-02-01T10:43:48Z</datestamp>
      <setSpec>user-biosyslit</setSpec>
    </header>
    <header>
      <identifier>oai:zenodo.org:266484</identifier>
      <datestamp>2017-02-01T10:43:54Z</datestamp>
      <setSpec>user-biosyslit</setSpec>
    </header>
    <header>
      <identifier>oai:zenodo.org:242043</identifier>
      <datestamp>2017-01-13T09:43:14Z</datestamp>
      <setSpec>user-biosyslit</setSpec>
    </header>
    <header>
      <identifier>oai:zenodo.org:289046</identifier>
      <datestamp>2017-02-09T22:32:04Z</datestamp>
      <setSpec>user-biosyslit</setSpec>
    </header>
    <header>
      <identifier>oai:zenodo.org:233047</identifier>
      <datestamp>2017-01-07T23:15:58Z</datestamp>
      <setSpec>user-biosyslit</setSpec>
    </header>
    <header>
      <identifier>oai:zenodo.org:242044</identifier>
      <datestamp>2017-01-13T09:43:00Z</datestamp>
      <setSpec>user-biosyslit</setSpec>
    </header>
    <header>
      <identifier>oai:zenodo.org:242047</identifier>
      <datestamp>2017-01-13T09:43:12Z</datestamp>
      <setSpec>user-biosyslit</setSpec>
    </header>
    <header>
      <identifier>oai:zenodo.org:244056</identifier>
      <datestamp>2017-01-14T15:50:27Z</datestamp>
      <setSpec>user-biosyslit</setSpec>
    </header>
    <header>
      <identifier>oai:zenodo.org:244639</identifier>
      <datestamp>2017-01-15T00:21:52Z</datestamp>
      <setSpec>user-biosyslit</setSpec>
    </header>
    <header>
      <identifier>oai:zenodo.org:244643</identifier>
      <datestamp>2017-01-15T00:21:51Z</datestamp>
      <setSpec>user-biosyslit</setSpec>
    </header>
    <header>
      <identifier>oai:zenodo.org:244641</identifier>
      <datestamp>2017-01-15T00:21:44Z</datestamp>
      <setSpec>user-biosyslit</setSpec>
    </header>
    <header>
      <identifier>oai:zenodo.org:244640</identifier>
      <datestamp>2017-01-15T00:21:39Z</datestamp>
      <setSpec>user-biosyslit</setSpec>
    </header>
    <header>
      <identifier>oai:zenodo.org:234313</identifier>
      <datestamp>2017-01-08T18:15:38Z</datestamp>
      <setSpec>user-biosyslit</setSpec>
    </header>
    <header>
      <identifier>oai:zenodo.org:234302</identifier>
      <datestamp>2017-01-08T18:14:55Z</datestamp>
      <setSpec>user-biosyslit</setSpec>
    </header>
    <header>
      <identifier>oai:zenodo.org:234314</identifier>
      <datestamp>2017-01-08T18:15:41Z</datestamp>
      <setSpec>user-biosyslit</setSpec>
    </header>
    <header>
      <identifier>oai:zenodo.org:234310</identifier>
      <datestamp>2017-01-08T18:15:25Z</datestamp>
      <setSpec>user-biosyslit</setSpec>
    </header>
    <header>
      <identifier>oai:zenodo.org:234312</identifier>
      <datestamp>2017-01-08T18:15:34Z</datestamp>
      <setSpec>user-biosyslit</setSpec>
    </header>
    <header>
      <identifier>oai:zenodo.org:234308</identifier>
      <datestamp>2017-01-08T18:15:17Z</datestamp>
      <setSpec>user-biosyslit</setSpec>
    </header>
    <header>
      <identifier>oai:zenodo.org:247717</identifier>
      <datestamp>2017-01-16T19:05:51Z</datestamp>
      <setSpec>user-biosyslit</setSpec>
    </header>
    <header>
      <identifier>oai:zenodo.org:247728</identifier>
      <datestamp>2017-01-16T19:04:59Z</datestamp>
      <setSpec>user-biosyslit</setSpec>
    </header>
    <header>
      <identifier>oai:zenodo.org:247726</identifier>
      <datestamp>2017-01-16T19:04:53Z</datestamp>
      <setSpec>user-biosyslit</setSpec>
    </header>
    <header>
      <identifier>oai:zenodo.org:247739</identifier>
      <datestamp>2017-01-16T19:05:47Z</datestamp>
      <setSpec>user-biosyslit</setSpec>
    </header>
    <header>
      <identifier>oai:zenodo.org:247738</identifier>
      <datestamp>2017-01-16T19:05:43Z</datestamp>
      <setSpec>user-biosyslit</setSpec>
    </header>
    <header>
      <identifier>oai:zenodo.org:247731</identifier>
      <datestamp>2017-01-16T19:05:09Z</datestamp>
      <setSpec>user-biosyslit</setSpec>
    </header>
    <header>
      <identifier>oai:zenodo.org:247730</identifier>
      <datestamp>2017-01-16T19:05:06Z</datestamp>
      <setSpec>user-biosyslit</setSpec>
    </header>
    <header>
      <identifier>oai:zenodo.org:247733</identifier>
      <datestamp>2017-01-16T19:05:24Z</datestamp>
      <setSpec>user-biosyslit</setSpec>
    </header>
    <header>
      <identifier>oai:zenodo.org:247737</identifier>
      <datestamp>2017-01-16T19:05:39Z</datestamp>
      <setSpec>user-biosyslit</setSpec>
    </header>
    <header>
      <identifier>oai:zenodo.org:240545</identifier>
      <datestamp>2017-01-12T10:08:42Z</datestamp>
      <setSpec>user-biosyslit</setSpec>
    </header>
    <header>
      <identifier>oai:zenodo.org:240549</identifier>
      <datestamp>2017-01-12T10:08:58Z</datestamp>
      <setSpec>user-biosyslit</setSpec>
    </header>
    <header>
      <identifier>oai:zenodo.org:240550</identifier>
      <datestamp>2017-01-12T10:09:05Z</datestamp>
      <setSpec>user-biosyslit</setSpec>
    </header>
    <header>
      <identifier>oai:zenodo.org:234158</identifier>
      <datestamp>2017-01-08T15:41:20Z</datestamp>
      <setSpec>user-biosyslit</setSpec>
    </header>
    <header>
      <identifier>oai:zenodo.org:234161</identifier>
      <datestamp>2017-01-08T15:41:15Z</datestamp>
      <setSpec>user-biosyslit</setSpec>
    </header>
    <header>
      <identifier>oai:zenodo.org:288912</identifier>
      <datestamp>2017-02-09T22:08:52Z</datestamp>
      <setSpec>user-biosyslit</setSpec>
    </header>
    <header>
      <identifier>oai:zenodo.org:288909</identifier>
      <datestamp>2017-02-09T22:08:44Z</datestamp>
      <setSpec>user-biosyslit</setSpec>
    </header>
    <header>
      <identifier>oai:zenodo.org:288910</identifier>
      <datestamp>2017-02-09T22:08:47Z</datestamp>
      <setSpec>user-biosyslit</setSpec>
    </header>
    <header>
      <identifier>oai:zenodo.org:288911</identifier>
      <datestamp>2017-02-09T22:08:50Z</datestamp>
      <setSpec>user-biosyslit</setSpec>
    </header>
    <header>
      <identifier>oai:zenodo.org:288913</identifier>
      <datestamp>2017-02-09T22:08:54Z</datestamp>
      <setSpec>user-biosyslit</setSpec>
    </header>
    <header>
      <identifier>oai:zenodo.org:286974</identifier>
      <datestamp>2017-02-09T17:09:35Z</datestamp>
      <setSpec>user-biosyslit</setSpec>
    </header>
    <header>
      <identifier>oai:zenodo.org:242526</identifier>
      <datestamp>2017-01-13T16:20:27Z</datestamp>
      <setSpec>user-biosyslit</setSpec>
    </header>
    <header>
      <identifier>oai:zenodo.org:282475</identifier>
      <datestamp>2017-02-09T07:04:18Z</datestamp>
      <setSpec>user-biosyslit</setSpec>
    </header>
    <header>
      <identifier>oai:zenodo.org:231400</identifier>
      <datestamp>2017-01-06T01:26:31Z</datestamp>
      <setSpec>user-biosyslit</setSpec>
    </header>
    <header>
      <identifier>oai:zenodo.org:231404</identifier>
      <datestamp>2017-01-06T01:26:43Z</datestamp>
      <setSpec>user-biosyslit</setSpec>
    </header>
    <header>
      <identifier>oai:zenodo.org:231398</identifier>
      <datestamp>2017-01-06T01:26:24Z</datestamp>
      <setSpec>user-biosyslit</setSpec>
    </header>
    <header>
      <identifier>oai:zenodo.org:231405</identifier>
      <datestamp>2017-01-06T01:26:46Z</datestamp>
      <setSpec>user-biosyslit</setSpec>
    </header>
    <header>
      <identifier>oai:zenodo.org:231403</identifier>
      <datestamp>2017-01-06T01:26:40Z</datestamp>
      <setSpec>user-biosyslit</setSpec>
    </header>
    <header>
      <identifier>oai:zenodo.org:264008</identifier>
      <datestamp>2017-06-27T05:21:33Z</datestamp>
      <setSpec>user-biosyslit</setSpec>
    </header>
    <header>
      <identifier>oai:zenodo.org:264007</identifier>
      <datestamp>2017-06-27T05:21:29Z</datestamp>
      <setSpec>user-biosyslit</setSpec>
    </header>
    <header>
      <identifier>oai:zenodo.org:230520</identifier>
      <datestamp>2017-01-05T02:26:07Z</datestamp>
      <setSpec>user-biosyslit</setSpec>
    </header>
    <header>
      <identifier>oai:zenodo.org:230521</identifier>
      <datestamp>2017-01-05T02:26:18Z</datestamp>
      <setSpec>user-biosyslit</setSpec>
    </header>
    <header>
      <identifier>oai:zenodo.org:271139</identifier>
      <datestamp>2017-02-08T00:52:45Z</datestamp>
      <setSpec>user-biosyslit</setSpec>
    </header>
    <header>
      <identifier>oai:zenodo.org:230522</identifier>
      <datestamp>2017-01-05T02:26:41Z</datestamp>
      <setSpec>user-biosyslit</setSpec>
    </header>
    <header>
      <identifier>oai:zenodo.org:230523</identifier>
      <datestamp>2017-01-05T02:26:45Z</datestamp>
      <setSpec>user-biosyslit</setSpec>
    </header>
    <header>
      <identifier>oai:zenodo.org:271140</identifier>
      <datestamp>2017-02-08T00:52:50Z</datestamp>
      <setSpec>user-biosyslit</setSpec>
    </header>
    <header>
      <identifier>oai:zenodo.org:240106</identifier>
      <datestamp>2017-01-12T04:46:04Z</datestamp>
      <setSpec>user-biosyslit</setSpec>
    </header>
    <header>
      <identifier>oai:zenodo.org:255080</identifier>
      <datestamp>2017-01-21T07:38:36Z</datestamp>
      <setSpec>user-biosyslit</setSpec>
    </header>
    <header>
      <identifier>oai:zenodo.org:255079</identifier>
      <datestamp>2017-01-21T07:38:33Z</datestamp>
      <setSpec>user-biosyslit</setSpec>
    </header>
    <header>
      <identifier>oai:zenodo.org:255077</identifier>
      <datestamp>2017-01-21T07:38:27Z</datestamp>
      <setSpec>user-biosyslit</setSpec>
    </header>
    <header>
      <identifier>oai:zenodo.org:236721</identifier>
      <datestamp>2017-01-10T03:41:51Z</datestamp>
      <setSpec>user-biosyslit</setSpec>
    </header>
    <header>
      <identifier>oai:zenodo.org:253678</identifier>
      <datestamp>2017-01-20T09:46:22Z</datestamp>
      <setSpec>user-biosyslit</setSpec>
    </header>
    <header>
      <identifier>oai:zenodo.org:253675</identifier>
      <datestamp>2017-01-20T09:46:10Z</datestamp>
      <setSpec>user-biosyslit</setSpec>
    </header>
    <header>
      <identifier>oai:zenodo.org:253676</identifier>
      <datestamp>2017-01-20T09:46:15Z</datestamp>
      <setSpec>user-biosyslit</setSpec>
    </header>
    <header>
      <identifier>oai:zenodo.org:236724</identifier>
      <datestamp>2017-01-10T03:41:50Z</datestamp>
      <setSpec>user-biosyslit</setSpec>
    </header>
    <header>
      <identifier>oai:zenodo.org:279592</identifier>
      <datestamp>2017-02-09T01:41:22Z</datestamp>
      <setSpec>user-biosyslit</setSpec>
    </header>
    <header>
      <identifier>oai:zenodo.org:279602</identifier>
      <datestamp>2017-02-09T01:41:50Z</datestamp>
      <setSpec>user-biosyslit</setSpec>
    </header>
    <header>
      <identifier>oai:zenodo.org:279591</identifier>
      <datestamp>2017-02-09T01:41:18Z</datestamp>
      <setSpec>user-biosyslit</setSpec>
    </header>
    <header>
      <identifier>oai:zenodo.org:279596</identifier>
      <datestamp>2017-02-09T01:41:33Z</datestamp>
      <setSpec>user-biosyslit</setSpec>
    </header>
    <header>
      <identifier>oai:zenodo.org:279595</identifier>
      <datestamp>2017-02-09T01:41:30Z</datestamp>
      <setSpec>user-biosyslit</setSpec>
    </header>
    <header>
      <identifier>oai:zenodo.org:279597</identifier>
      <datestamp>2017-02-09T01:41:36Z</datestamp>
      <setSpec>user-biosyslit</setSpec>
    </header>
    <header>
      <identifier>oai:zenodo.org:279601</identifier>
      <datestamp>2017-02-09T01:41:48Z</datestamp>
      <setSpec>user-biosyslit</setSpec>
    </header>
    <header>
      <identifier>oai:zenodo.org:279594</identifier>
      <datestamp>2017-02-09T01:41:27Z</datestamp>
      <setSpec>user-biosyslit</setSpec>
    </header>
    <header>
      <identifier>oai:zenodo.org:235454</identifier>
      <datestamp>2017-01-09T10:10:36Z</datestamp>
      <setSpec>user-biosyslit</setSpec>
    </header>
    <header>
      <identifier>oai:zenodo.org:280643</identifier>
      <datestamp>2017-02-09T03:48:12Z</datestamp>
      <setSpec>user-biosyslit</setSpec>
    </header>
    <header>
      <identifier>oai:zenodo.org:280644</identifier>
      <datestamp>2017-02-09T03:47:50Z</datestamp>
      <setSpec>user-biosyslit</setSpec>
    </header>
    <header>
      <identifier>oai:zenodo.org:280186</identifier>
      <datestamp>2017-02-09T02:55:35Z</datestamp>
      <setSpec>user-biosyslit</setSpec>
    </header>
    <header>
      <identifier>oai:zenodo.org:280647</identifier>
      <datestamp>2017-02-09T03:47:57Z</datestamp>
      <setSpec>user-biosyslit</setSpec>
    </header>
    <header>
      <identifier>oai:zenodo.org:280650</identifier>
      <datestamp>2017-02-09T03:48:04Z</datestamp>
      <setSpec>user-biosyslit</setSpec>
    </header>
    <header>
      <identifier>oai:zenodo.org:280652</identifier>
      <datestamp>2017-02-09T03:48:11Z</datestamp>
      <setSpec>user-biosyslit</setSpec>
    </header>
    <header>
      <identifier>oai:zenodo.org:280648</identifier>
      <datestamp>2017-02-09T03:47:59Z</datestamp>
      <setSpec>user-biosyslit</setSpec>
    </header>
    <header>
      <identifier>oai:zenodo.org:280649</identifier>
      <datestamp>2017-02-09T03:48:02Z</datestamp>
      <setSpec>user-biosyslit</setSpec>
    </header>
    <header>
      <identifier>oai:zenodo.org:280181</identifier>
      <datestamp>2017-02-09T02:54:24Z</datestamp>
      <setSpec>user-biosyslit</setSpec>
    </header>
    <header>
      <identifier>oai:zenodo.org:241944</identifier>
      <datestamp>2017-01-13T08:17:10Z</datestamp>
      <setSpec>user-biosyslit</setSpec>
    </header>
    <header>
      <identifier>oai:zenodo.org:241952</identifier>
      <datestamp>2017-01-13T08:17:09Z</datestamp>
      <setSpec>user-biosyslit</setSpec>
    </header>
    <header>
      <identifier>oai:zenodo.org:233076</identifier>
      <datestamp>2017-01-07T23:58:07Z</datestamp>
      <setSpec>user-biosyslit</setSpec>
    </header>
    <header>
      <identifier>oai:zenodo.org:233085</identifier>
      <datestamp>2017-01-07T23:57:56Z</datestamp>
      <setSpec>user-biosyslit</setSpec>
    </header>
    <header>
      <identifier>oai:zenodo.org:233083</identifier>
      <datestamp>2017-01-07T23:57:49Z</datestamp>
      <setSpec>user-biosyslit</setSpec>
    </header>
    <header>
      <identifier>oai:zenodo.org:258340</identifier>
      <datestamp>2017-01-23T21:14:21Z</datestamp>
      <setSpec>user-biosyslit</setSpec>
    </header>
    <header>
      <identifier>oai:zenodo.org:230359</identifier>
      <datestamp>2017-01-04T23:21:08Z</datestamp>
      <setSpec>user-biosyslit</setSpec>
    </header>
    <header>
      <identifier>oai:zenodo.org:230361</identifier>
      <datestamp>2017-01-04T23:21:14Z</datestamp>
      <setSpec>user-biosyslit</setSpec>
    </header>
    <header>
      <identifier>oai:zenodo.org:230358</identifier>
      <datestamp>2017-01-04T23:21:06Z</datestamp>
      <setSpec>user-biosyslit</setSpec>
    </header>
    <resumptionToken expirationDate="2017-08-31T15:48:10Z" cursor="73400" completeListSize="77796">.eJyNz8EOQzAAgOF36VmWahdFssvCxAGhq-CyGCKmTHQLKt59Ljtv5_-7_CsQVVUCEx4I0rABiXbUETIMpClAFOOT81uzZ1AkMS96znInfkddDFNUE98Ss2el2JctDDpV0kuIElWfWQOX8MpeqYzmGLsThTbxZLj4D3d3JQ4cnt2dgbL-zCkqx8AOF6qeaYaLr1P_dPKns8QJKGDI6wqYBO9X7ZSPtQDmum0fp45RTQ.DInAwg.ulGNUYNSmdyR9f_OZ2wYJDlxaZY</resumptionToken>
  </ListIdentifiers>
</OAI-PMH>
