<?xml version='1.0' encoding='UTF-8'?>
<?xml-stylesheet type="text/xsl" href="/static/xsl/oai2.v1.0.xsl"?>
<OAI-PMH xmlns="http://www.openarchives.org/OAI/2.0/" xmlns:xsi="http://www.w3.org/2001/XMLSchema-instance" xsi:schemaLocation="http://www.openarchives.org/OAI/2.0/ http://www.openarchives.org/OAI/2.0/OAI-PMH.xsd">
  <responseDate>2017-08-31T15:43:34Z</responseDate>
  <request verb="ListIdentifiers" resumptionToken=".eJyNysEKgjAYAOB3-c8S235LE7qEJR1SdE20S9gUqZaJK9JF756XznX-vhfoqirBIxO0ie2iPZ27lMwIpWiBlt1NqcNpdJBZqmSjRBGkj-SakpzVTujrfuvnGJoLia7U8HXMMur24kSGeCfuuUn6FDdPTlbO1sRDeN6Mr8QoUPtj0HLRLBVnZRet4oHTJd-j_D765zM_n68XYEFb1BV4OGcWXJ5FV2vwXu_3B8RSUWU.DInAJg.5ARKCHXL7-28nT53Gb-Cc70xQlY">https://zenodo.org/oai2d</request>
  <ListIdentifiers>
    <header>
      <identifier>oai:zenodo.org:264107</identifier>
      <datestamp>2017-01-30T13:00:52Z</datestamp>
      <setSpec>user-biosyslit</setSpec>
    </header>
    <header>
      <identifier>oai:zenodo.org:264389</identifier>
      <datestamp>2017-01-30T20:24:32Z</datestamp>
      <setSpec>user-biosyslit</setSpec>
    </header>
    <header>
      <identifier>oai:zenodo.org:263740</identifier>
      <datestamp>2017-01-30T07:18:57Z</datestamp>
      <setSpec>user-biosyslit</setSpec>
    </header>
    <header>
      <identifier>oai:zenodo.org:263213</identifier>
      <datestamp>2017-01-29T18:54:22Z</datestamp>
      <setSpec>user-biosyslit</setSpec>
    </header>
    <header>
      <identifier>oai:zenodo.org:263843</identifier>
      <datestamp>2017-01-30T09:01:29Z</datestamp>
      <setSpec>user-biosyslit</setSpec>
    </header>
    <header>
      <identifier>oai:zenodo.org:264526</identifier>
      <datestamp>2017-01-30T23:06:35Z</datestamp>
      <setSpec>user-biosyslit</setSpec>
    </header>
    <header>
      <identifier>oai:zenodo.org:263051</identifier>
      <datestamp>2017-01-29T15:35:48Z</datestamp>
      <setSpec>user-biosyslit</setSpec>
    </header>
    <header>
      <identifier>oai:zenodo.org:263874</identifier>
      <datestamp>2017-01-30T09:24:28Z</datestamp>
      <setSpec>user-biosyslit</setSpec>
    </header>
    <header>
      <identifier>oai:zenodo.org:263928</identifier>
      <datestamp>2017-01-30T10:20:50Z</datestamp>
      <setSpec>user-biosyslit</setSpec>
    </header>
    <header>
      <identifier>oai:zenodo.org:263981</identifier>
      <datestamp>2017-01-30T11:07:23Z</datestamp>
      <setSpec>user-biosyslit</setSpec>
    </header>
    <header>
      <identifier>oai:zenodo.org:263767</identifier>
      <datestamp>2017-01-30T07:42:39Z</datestamp>
      <setSpec>user-biosyslit</setSpec>
    </header>
    <header>
      <identifier>oai:zenodo.org:263768</identifier>
      <datestamp>2017-01-30T07:49:07Z</datestamp>
      <setSpec>user-biosyslit</setSpec>
    </header>
    <header>
      <identifier>oai:zenodo.org:263459</identifier>
      <datestamp>2017-01-29T22:34:27Z</datestamp>
      <setSpec>user-biosyslit</setSpec>
    </header>
    <header>
      <identifier>oai:zenodo.org:274536</identifier>
      <datestamp>2017-02-08T13:37:27Z</datestamp>
      <setSpec>user-biosyslit</setSpec>
    </header>
    <header>
      <identifier>oai:zenodo.org:263606</identifier>
      <datestamp>2017-01-30T01:23:18Z</datestamp>
      <setSpec>user-biosyslit</setSpec>
    </header>
    <header>
      <identifier>oai:zenodo.org:264513</identifier>
      <datestamp>2017-01-30T22:55:19Z</datestamp>
      <setSpec>user-biosyslit</setSpec>
    </header>
    <header>
      <identifier>oai:zenodo.org:264376</identifier>
      <datestamp>2017-01-30T20:24:00Z</datestamp>
      <setSpec>user-biosyslit</setSpec>
    </header>
    <header>
      <identifier>oai:zenodo.org:274126</identifier>
      <datestamp>2017-02-08T12:13:09Z</datestamp>
      <setSpec>user-biosyslit</setSpec>
    </header>
    <header>
      <identifier>oai:zenodo.org:264478</identifier>
      <datestamp>2017-01-30T22:29:16Z</datestamp>
      <setSpec>user-biosyslit</setSpec>
    </header>
    <header>
      <identifier>oai:zenodo.org:264129</identifier>
      <datestamp>2017-01-30T13:29:02Z</datestamp>
      <setSpec>user-biosyslit</setSpec>
    </header>
    <header>
      <identifier>oai:zenodo.org:264393</identifier>
      <datestamp>2017-01-30T20:52:11Z</datestamp>
      <setSpec>user-biosyslit</setSpec>
    </header>
    <header>
      <identifier>oai:zenodo.org:264693</identifier>
      <datestamp>2017-01-31T00:58:21Z</datestamp>
      <setSpec>user-biosyslit</setSpec>
    </header>
    <header>
      <identifier>oai:zenodo.org:264396</identifier>
      <datestamp>2017-01-30T20:52:09Z</datestamp>
      <setSpec>user-biosyslit</setSpec>
    </header>
    <header>
      <identifier>oai:zenodo.org:264433</identifier>
      <datestamp>2017-01-30T21:35:28Z</datestamp>
      <setSpec>user-biosyslit</setSpec>
    </header>
    <header>
      <identifier>oai:zenodo.org:265682</identifier>
      <datestamp>2017-01-31T18:54:27Z</datestamp>
      <setSpec>user-biosyslit</setSpec>
    </header>
    <header>
      <identifier>oai:zenodo.org:274499</identifier>
      <datestamp>2017-02-08T13:32:27Z</datestamp>
      <setSpec>user-biosyslit</setSpec>
    </header>
    <header>
      <identifier>oai:zenodo.org:265540</identifier>
      <datestamp>2017-01-31T15:56:11Z</datestamp>
      <setSpec>user-biosyslit</setSpec>
    </header>
    <header>
      <identifier>oai:zenodo.org:264610</identifier>
      <datestamp>2017-01-31T00:09:05Z</datestamp>
      <setSpec>user-biosyslit</setSpec>
    </header>
    <header>
      <identifier>oai:zenodo.org:264676</identifier>
      <datestamp>2017-01-31T00:57:19Z</datestamp>
      <setSpec>user-biosyslit</setSpec>
    </header>
    <header>
      <identifier>oai:zenodo.org:265107</identifier>
      <datestamp>2017-01-31T07:55:36Z</datestamp>
      <setSpec>user-biosyslit</setSpec>
    </header>
    <header>
      <identifier>oai:zenodo.org:264741</identifier>
      <datestamp>2017-01-31T02:03:39Z</datestamp>
      <setSpec>user-biosyslit</setSpec>
    </header>
    <header>
      <identifier>oai:zenodo.org:265303</identifier>
      <datestamp>2017-01-31T11:46:22Z</datestamp>
      <setSpec>user-biosyslit</setSpec>
    </header>
    <header>
      <identifier>oai:zenodo.org:264991</identifier>
      <datestamp>2017-01-31T05:42:20Z</datestamp>
      <setSpec>user-biosyslit</setSpec>
    </header>
    <header>
      <identifier>oai:zenodo.org:264892</identifier>
      <datestamp>2017-01-31T04:01:33Z</datestamp>
      <setSpec>user-biosyslit</setSpec>
    </header>
    <header>
      <identifier>oai:zenodo.org:265173</identifier>
      <datestamp>2017-01-31T09:37:03Z</datestamp>
      <setSpec>user-biosyslit</setSpec>
    </header>
    <header>
      <identifier>oai:zenodo.org:264942</identifier>
      <datestamp>2017-01-31T05:00:27Z</datestamp>
      <setSpec>user-biosyslit</setSpec>
    </header>
    <header>
      <identifier>oai:zenodo.org:265188</identifier>
      <datestamp>2017-01-31T09:58:26Z</datestamp>
      <setSpec>user-biosyslit</setSpec>
    </header>
    <header>
      <identifier>oai:zenodo.org:265745</identifier>
      <datestamp>2017-01-31T19:54:52Z</datestamp>
      <setSpec>user-biosyslit</setSpec>
    </header>
    <header>
      <identifier>oai:zenodo.org:274207</identifier>
      <datestamp>2017-02-08T12:24:00Z</datestamp>
      <setSpec>user-biosyslit</setSpec>
    </header>
    <header>
      <identifier>oai:zenodo.org:265628</identifier>
      <datestamp>2017-01-31T17:52:38Z</datestamp>
      <setSpec>user-biosyslit</setSpec>
    </header>
    <header>
      <identifier>oai:zenodo.org:265409</identifier>
      <datestamp>2017-01-31T13:36:19Z</datestamp>
      <setSpec>user-biosyslit</setSpec>
    </header>
    <header>
      <identifier>oai:zenodo.org:266208</identifier>
      <datestamp>2017-02-01T02:37:37Z</datestamp>
      <setSpec>user-biosyslit</setSpec>
    </header>
    <header>
      <identifier>oai:zenodo.org:266244</identifier>
      <datestamp>2017-02-01T03:28:45Z</datestamp>
      <setSpec>user-biosyslit</setSpec>
    </header>
    <header>
      <identifier>oai:zenodo.org:267467</identifier>
      <datestamp>2017-02-02T02:43:00Z</datestamp>
      <setSpec>user-biosyslit</setSpec>
    </header>
    <header>
      <identifier>oai:zenodo.org:266503</identifier>
      <datestamp>2017-02-01T11:17:31Z</datestamp>
      <setSpec>user-biosyslit</setSpec>
    </header>
    <header>
      <identifier>oai:zenodo.org:265742</identifier>
      <datestamp>2017-01-31T19:54:43Z</datestamp>
      <setSpec>user-biosyslit</setSpec>
    </header>
    <header>
      <identifier>oai:zenodo.org:266362</identifier>
      <datestamp>2017-02-01T06:58:02Z</datestamp>
      <setSpec>user-biosyslit</setSpec>
    </header>
    <header>
      <identifier>oai:zenodo.org:266993</identifier>
      <datestamp>2017-02-01T17:52:00Z</datestamp>
      <setSpec>user-biosyslit</setSpec>
    </header>
    <header>
      <identifier>oai:zenodo.org:266680</identifier>
      <datestamp>2017-02-01T13:34:39Z</datestamp>
      <setSpec>user-biosyslit</setSpec>
    </header>
    <header>
      <identifier>oai:zenodo.org:266217</identifier>
      <datestamp>2017-02-01T02:38:37Z</datestamp>
      <setSpec>user-biosyslit</setSpec>
    </header>
    <header>
      <identifier>oai:zenodo.org:276490</identifier>
      <datestamp>2017-02-08T18:57:46Z</datestamp>
      <setSpec>user-biosyslit</setSpec>
    </header>
    <header>
      <identifier>oai:zenodo.org:266676</identifier>
      <datestamp>2017-02-01T13:34:28Z</datestamp>
      <setSpec>user-biosyslit</setSpec>
    </header>
    <header>
      <identifier>oai:zenodo.org:266783</identifier>
      <datestamp>2017-02-01T14:53:26Z</datestamp>
      <setSpec>user-biosyslit</setSpec>
    </header>
    <header>
      <identifier>oai:zenodo.org:273685</identifier>
      <datestamp>2017-02-08T10:16:40Z</datestamp>
      <setSpec>user-biosyslit</setSpec>
    </header>
    <header>
      <identifier>oai:zenodo.org:261314</identifier>
      <datestamp>2017-01-28T07:50:56Z</datestamp>
      <setSpec>user-biosyslit</setSpec>
    </header>
    <header>
      <identifier>oai:zenodo.org:261972</identifier>
      <datestamp>2017-01-28T18:33:50Z</datestamp>
      <setSpec>user-biosyslit</setSpec>
    </header>
    <header>
      <identifier>oai:zenodo.org:261492</identifier>
      <datestamp>2017-01-28T09:40:01Z</datestamp>
      <setSpec>user-biosyslit</setSpec>
    </header>
    <header>
      <identifier>oai:zenodo.org:274242</identifier>
      <datestamp>2017-02-08T12:32:07Z</datestamp>
      <setSpec>user-biosyslit</setSpec>
    </header>
    <header>
      <identifier>oai:zenodo.org:273565</identifier>
      <datestamp>2017-02-08T09:53:10Z</datestamp>
      <setSpec>user-biosyslit</setSpec>
    </header>
    <header>
      <identifier>oai:zenodo.org:273462</identifier>
      <datestamp>2017-02-08T09:24:52Z</datestamp>
      <setSpec>user-biosyslit</setSpec>
    </header>
    <header>
      <identifier>oai:zenodo.org:262135</identifier>
      <datestamp>2017-01-28T21:42:40Z</datestamp>
      <setSpec>user-biosyslit</setSpec>
    </header>
    <header>
      <identifier>oai:zenodo.org:273544</identifier>
      <datestamp>2017-02-08T09:39:59Z</datestamp>
      <setSpec>user-biosyslit</setSpec>
    </header>
    <header>
      <identifier>oai:zenodo.org:261993</identifier>
      <datestamp>2017-01-28T19:11:28Z</datestamp>
      <setSpec>user-biosyslit</setSpec>
    </header>
    <header>
      <identifier>oai:zenodo.org:273564</identifier>
      <datestamp>2017-02-08T09:53:08Z</datestamp>
      <setSpec>user-biosyslit</setSpec>
    </header>
    <header>
      <identifier>oai:zenodo.org:262042</identifier>
      <datestamp>2017-01-28T19:42:17Z</datestamp>
      <setSpec>user-biosyslit</setSpec>
    </header>
    <header>
      <identifier>oai:zenodo.org:273746</identifier>
      <datestamp>2017-02-08T10:39:24Z</datestamp>
      <setSpec>user-biosyslit</setSpec>
    </header>
    <header>
      <identifier>oai:zenodo.org:273625</identifier>
      <datestamp>2017-02-08T10:05:02Z</datestamp>
      <setSpec>user-biosyslit</setSpec>
    </header>
    <header>
      <identifier>oai:zenodo.org:262292</identifier>
      <datestamp>2017-01-29T01:56:46Z</datestamp>
      <setSpec>user-biosyslit</setSpec>
    </header>
    <header>
      <identifier>oai:zenodo.org:273847</identifier>
      <datestamp>2017-02-08T11:00:10Z</datestamp>
      <setSpec>user-biosyslit</setSpec>
    </header>
    <header>
      <identifier>oai:zenodo.org:261995</identifier>
      <datestamp>2017-01-28T19:15:40Z</datestamp>
      <setSpec>user-biosyslit</setSpec>
    </header>
    <header>
      <identifier>oai:zenodo.org:262210</identifier>
      <datestamp>2017-01-28T23:44:55Z</datestamp>
      <setSpec>user-biosyslit</setSpec>
    </header>
    <header>
      <identifier>oai:zenodo.org:274008</identifier>
      <datestamp>2017-02-08T11:47:20Z</datestamp>
      <setSpec>user-biosyslit</setSpec>
    </header>
    <header>
      <identifier>oai:zenodo.org:262402</identifier>
      <datestamp>2017-01-29T03:35:25Z</datestamp>
      <setSpec>user-biosyslit</setSpec>
    </header>
    <header>
      <identifier>oai:zenodo.org:262334</identifier>
      <datestamp>2017-01-29T01:59:20Z</datestamp>
      <setSpec>user-biosyslit</setSpec>
    </header>
    <header>
      <identifier>oai:zenodo.org:273955</identifier>
      <datestamp>2017-02-08T11:34:46Z</datestamp>
      <setSpec>user-biosyslit</setSpec>
    </header>
    <header>
      <identifier>oai:zenodo.org:262688</identifier>
      <datestamp>2017-01-29T07:08:47Z</datestamp>
      <setSpec>user-biosyslit</setSpec>
    </header>
    <header>
      <identifier>oai:zenodo.org:262759</identifier>
      <datestamp>2017-01-29T07:54:21Z</datestamp>
      <setSpec>user-biosyslit</setSpec>
    </header>
    <header>
      <identifier>oai:zenodo.org:226835</identifier>
      <datestamp>2017-01-01T04:12:40Z</datestamp>
      <setSpec>user-biosyslit</setSpec>
    </header>
    <header>
      <identifier>oai:zenodo.org:262905</identifier>
      <datestamp>2017-01-29T11:08:54Z</datestamp>
      <setSpec>user-biosyslit</setSpec>
    </header>
    <header>
      <identifier>oai:zenodo.org:263704</identifier>
      <datestamp>2017-01-30T06:56:51Z</datestamp>
      <setSpec>user-biosyslit</setSpec>
    </header>
    <header>
      <identifier>oai:zenodo.org:263422</identifier>
      <datestamp>2017-01-29T22:32:07Z</datestamp>
      <setSpec>user-biosyslit</setSpec>
    </header>
    <header>
      <identifier>oai:zenodo.org:263462</identifier>
      <datestamp>2017-01-29T22:34:39Z</datestamp>
      <setSpec>user-biosyslit</setSpec>
    </header>
    <header>
      <identifier>oai:zenodo.org:262736</identifier>
      <datestamp>2017-01-29T07:53:21Z</datestamp>
      <setSpec>user-biosyslit</setSpec>
    </header>
    <header>
      <identifier>oai:zenodo.org:262766</identifier>
      <datestamp>2017-01-29T08:16:10Z</datestamp>
      <setSpec>user-biosyslit</setSpec>
    </header>
    <header>
      <identifier>oai:zenodo.org:262566</identifier>
      <datestamp>2017-01-29T05:43:00Z</datestamp>
      <setSpec>user-biosyslit</setSpec>
    </header>
    <header>
      <identifier>oai:zenodo.org:262587</identifier>
      <datestamp>2017-01-29T06:01:45Z</datestamp>
      <setSpec>user-biosyslit</setSpec>
    </header>
    <header>
      <identifier>oai:zenodo.org:262950</identifier>
      <datestamp>2017-01-29T13:43:03Z</datestamp>
      <setSpec>user-biosyslit</setSpec>
    </header>
    <header>
      <identifier>oai:zenodo.org:263299</identifier>
      <datestamp>2017-01-29T22:36:37Z</datestamp>
      <setSpec>user-biosyslit</setSpec>
    </header>
    <header>
      <identifier>oai:zenodo.org:262725</identifier>
      <datestamp>2017-01-29T07:52:53Z</datestamp>
      <setSpec>user-biosyslit</setSpec>
    </header>
    <header>
      <identifier>oai:zenodo.org:263316</identifier>
      <datestamp>2017-01-29T22:23:59Z</datestamp>
      <setSpec>user-biosyslit</setSpec>
    </header>
    <header>
      <identifier>oai:zenodo.org:263222</identifier>
      <datestamp>2017-01-29T18:58:17Z</datestamp>
      <setSpec>user-biosyslit</setSpec>
    </header>
    <header>
      <identifier>oai:zenodo.org:263302</identifier>
      <datestamp>2017-01-29T22:23:04Z</datestamp>
      <setSpec>user-biosyslit</setSpec>
    </header>
    <header>
      <identifier>oai:zenodo.org:262919</identifier>
      <datestamp>2017-01-29T11:09:42Z</datestamp>
      <setSpec>user-biosyslit</setSpec>
    </header>
    <header>
      <identifier>oai:zenodo.org:263447</identifier>
      <datestamp>2017-01-29T22:33:51Z</datestamp>
      <setSpec>user-biosyslit</setSpec>
    </header>
    <header>
      <identifier>oai:zenodo.org:264931</identifier>
      <datestamp>2017-01-31T04:49:44Z</datestamp>
      <setSpec>user-biosyslit</setSpec>
    </header>
    <header>
      <identifier>oai:zenodo.org:274115</identifier>
      <datestamp>2017-02-08T12:11:47Z</datestamp>
      <setSpec>user-biosyslit</setSpec>
    </header>
    <header>
      <identifier>oai:zenodo.org:263209</identifier>
      <datestamp>2017-01-29T18:51:05Z</datestamp>
      <setSpec>user-biosyslit</setSpec>
    </header>
    <header>
      <identifier>oai:zenodo.org:262932</identifier>
      <datestamp>2017-01-29T13:26:07Z</datestamp>
      <setSpec>user-biosyslit</setSpec>
    </header>
    <header>
      <identifier>oai:zenodo.org:263332</identifier>
      <datestamp>2017-01-29T22:25:16Z</datestamp>
      <setSpec>user-biosyslit</setSpec>
    </header>
    <header>
      <identifier>oai:zenodo.org:262951</identifier>
      <datestamp>2017-01-29T13:43:11Z</datestamp>
      <setSpec>user-biosyslit</setSpec>
    </header>
    <resumptionToken expirationDate="2017-08-31T15:45:34Z" cursor="39100" completeListSize="77796">.eJyNyssKgkAUANB_uWuJeZQvaCOatFDRSVE3YSpSjiZOoU7077lpXetzXiDqugITbQg2qIrIztCQjlV9ixUQ5Xjn_HxdHco04WXP48JNnlGXoIw0mm-L2bMz6ssWBR2W7BCSFOtzfEVLeIofmYzmhB4nhhzNk-Hi347rq2jg8vziDizuLc5INQZOuDBssZyW34f_fPLns8UeFBiKpgaTGlSBdirGRoD5er8_zyFRcg.DInAJg.nMARx1drS8_oDbXv7UJls1E6uDQ</resumptionToken>
  </ListIdentifiers>
</OAI-PMH>
