<?xml version='1.0' encoding='UTF-8'?>
<?xml-stylesheet type="text/xsl" href="/static/xsl/oai2.v1.0.xsl"?>
<OAI-PMH xmlns="http://www.openarchives.org/OAI/2.0/" xmlns:xsi="http://www.w3.org/2001/XMLSchema-instance" xsi:schemaLocation="http://www.openarchives.org/OAI/2.0/ http://www.openarchives.org/OAI/2.0/OAI-PMH.xsd">
  <responseDate>2017-08-31T15:42:51Z</responseDate>
  <request verb="ListIdentifiers" resumptionToken=".eJyNyj0LgkAYAOD_8s4S92HpCS1iSUOKXkq6hJ0i1VXiFeqJ_z2X5pqfZwRVVSU4aIEsZjJGyNJmSwszahqgRPuU8nSZHcQxleIhk8JP3_E9RRmprcBT_d7LaKBvKLxjzbcROWK7Ty5oiA7JK9Nxn9Jdx9HG2utoCK67-ZU09GV-9huePFzJSdmGm2jg2OU5Fd-H_3z65_PUGgxoiroCh9grA25d0dYKnHGaPuKrUYg.DIm_-w.7NOvrEJ7V5J8KhQNLcCua0VEVnI">https://zenodo.org/oai2d</request>
  <ListIdentifiers>
    <header>
      <identifier>oai:zenodo.org:226851</identifier>
      <datestamp>2017-01-01T04:39:24Z</datestamp>
      <setSpec>user-biosyslit</setSpec>
    </header>
    <header>
      <identifier>oai:zenodo.org:226853</identifier>
      <datestamp>2017-01-01T04:39:30Z</datestamp>
      <setSpec>user-biosyslit</setSpec>
    </header>
    <header>
      <identifier>oai:zenodo.org:226858</identifier>
      <datestamp>2017-01-01T04:39:46Z</datestamp>
      <setSpec>user-biosyslit</setSpec>
    </header>
    <header>
      <identifier>oai:zenodo.org:254902</identifier>
      <datestamp>2017-01-21T04:47:10Z</datestamp>
      <setSpec>user-biosyslit</setSpec>
    </header>
    <header>
      <identifier>oai:zenodo.org:252609</identifier>
      <datestamp>2017-01-19T17:10:27Z</datestamp>
      <setSpec>user-biosyslit</setSpec>
    </header>
    <header>
      <identifier>oai:zenodo.org:252610</identifier>
      <datestamp>2017-01-19T17:10:30Z</datestamp>
      <setSpec>user-biosyslit</setSpec>
    </header>
    <header>
      <identifier>oai:zenodo.org:254909</identifier>
      <datestamp>2017-01-21T04:46:23Z</datestamp>
      <setSpec>user-biosyslit</setSpec>
    </header>
    <header>
      <identifier>oai:zenodo.org:254920</identifier>
      <datestamp>2017-01-21T04:46:59Z</datestamp>
      <setSpec>user-biosyslit</setSpec>
    </header>
    <header>
      <identifier>oai:zenodo.org:254908</identifier>
      <datestamp>2017-01-21T04:46:20Z</datestamp>
      <setSpec>user-biosyslit</setSpec>
    </header>
    <header>
      <identifier>oai:zenodo.org:254916</identifier>
      <datestamp>2017-01-21T04:46:47Z</datestamp>
      <setSpec>user-biosyslit</setSpec>
    </header>
    <header>
      <identifier>oai:zenodo.org:254905</identifier>
      <datestamp>2017-01-21T04:46:12Z</datestamp>
      <setSpec>user-biosyslit</setSpec>
    </header>
    <header>
      <identifier>oai:zenodo.org:254917</identifier>
      <datestamp>2017-01-21T04:46:50Z</datestamp>
      <setSpec>user-biosyslit</setSpec>
    </header>
    <header>
      <identifier>oai:zenodo.org:271431</identifier>
      <datestamp>2017-02-08T01:39:55Z</datestamp>
      <setSpec>user-biosyslit</setSpec>
    </header>
    <header>
      <identifier>oai:zenodo.org:240951</identifier>
      <datestamp>2017-01-12T16:55:11Z</datestamp>
      <setSpec>user-biosyslit</setSpec>
    </header>
    <header>
      <identifier>oai:zenodo.org:271435</identifier>
      <datestamp>2017-02-08T01:39:35Z</datestamp>
      <setSpec>user-biosyslit</setSpec>
    </header>
    <header>
      <identifier>oai:zenodo.org:294127</identifier>
      <datestamp>2017-02-20T19:21:01Z</datestamp>
      <setSpec>user-biosyslit</setSpec>
    </header>
    <header>
      <identifier>oai:zenodo.org:271433</identifier>
      <datestamp>2017-02-08T01:39:29Z</datestamp>
      <setSpec>user-biosyslit</setSpec>
    </header>
    <header>
      <identifier>oai:zenodo.org:271436</identifier>
      <datestamp>2017-02-08T01:39:38Z</datestamp>
      <setSpec>user-biosyslit</setSpec>
    </header>
    <header>
      <identifier>oai:zenodo.org:271437</identifier>
      <datestamp>2017-02-08T01:39:40Z</datestamp>
      <setSpec>user-biosyslit</setSpec>
    </header>
    <header>
      <identifier>oai:zenodo.org:294128</identifier>
      <datestamp>2017-02-20T19:21:03Z</datestamp>
      <setSpec>user-biosyslit</setSpec>
    </header>
    <header>
      <identifier>oai:zenodo.org:275818</identifier>
      <datestamp>2017-02-08T17:08:03Z</datestamp>
      <setSpec>user-biosyslit</setSpec>
    </header>
    <header>
      <identifier>oai:zenodo.org:275816</identifier>
      <datestamp>2017-02-08T17:07:59Z</datestamp>
      <setSpec>user-biosyslit</setSpec>
    </header>
    <header>
      <identifier>oai:zenodo.org:275811</identifier>
      <datestamp>2017-02-08T17:07:50Z</datestamp>
      <setSpec>user-biosyslit</setSpec>
    </header>
    <header>
      <identifier>oai:zenodo.org:275813</identifier>
      <datestamp>2017-02-08T17:07:53Z</datestamp>
      <setSpec>user-biosyslit</setSpec>
    </header>
    <header>
      <identifier>oai:zenodo.org:275812</identifier>
      <datestamp>2017-02-08T17:07:51Z</datestamp>
      <setSpec>user-biosyslit</setSpec>
    </header>
    <header>
      <identifier>oai:zenodo.org:255512</identifier>
      <datestamp>2017-01-21T14:27:41Z</datestamp>
      <setSpec>user-biosyslit</setSpec>
    </header>
    <header>
      <identifier>oai:zenodo.org:276710</identifier>
      <datestamp>2017-02-08T19:30:00Z</datestamp>
      <setSpec>user-biosyslit</setSpec>
    </header>
    <header>
      <identifier>oai:zenodo.org:276695</identifier>
      <datestamp>2017-02-08T19:29:18Z</datestamp>
      <setSpec>user-biosyslit</setSpec>
    </header>
    <header>
      <identifier>oai:zenodo.org:276702</identifier>
      <datestamp>2017-02-08T19:29:38Z</datestamp>
      <setSpec>user-biosyslit</setSpec>
    </header>
    <header>
      <identifier>oai:zenodo.org:276697</identifier>
      <datestamp>2017-02-08T19:29:23Z</datestamp>
      <setSpec>user-biosyslit</setSpec>
    </header>
    <header>
      <identifier>oai:zenodo.org:276701</identifier>
      <datestamp>2017-02-08T19:29:35Z</datestamp>
      <setSpec>user-biosyslit</setSpec>
    </header>
    <header>
      <identifier>oai:zenodo.org:276705</identifier>
      <datestamp>2017-02-08T19:29:45Z</datestamp>
      <setSpec>user-biosyslit</setSpec>
    </header>
    <header>
      <identifier>oai:zenodo.org:276696</identifier>
      <datestamp>2017-02-08T19:29:20Z</datestamp>
      <setSpec>user-biosyslit</setSpec>
    </header>
    <header>
      <identifier>oai:zenodo.org:276706</identifier>
      <datestamp>2017-02-08T19:29:48Z</datestamp>
      <setSpec>user-biosyslit</setSpec>
    </header>
    <header>
      <identifier>oai:zenodo.org:276699</identifier>
      <datestamp>2017-02-08T19:29:29Z</datestamp>
      <setSpec>user-biosyslit</setSpec>
    </header>
    <header>
      <identifier>oai:zenodo.org:239000</identifier>
      <datestamp>2017-01-11T14:43:24Z</datestamp>
      <setSpec>user-biosyslit</setSpec>
    </header>
    <header>
      <identifier>oai:zenodo.org:239008</identifier>
      <datestamp>2017-01-11T14:43:19Z</datestamp>
      <setSpec>user-biosyslit</setSpec>
    </header>
    <header>
      <identifier>oai:zenodo.org:239002</identifier>
      <datestamp>2017-01-11T14:43:03Z</datestamp>
      <setSpec>user-biosyslit</setSpec>
    </header>
    <header>
      <identifier>oai:zenodo.org:239003</identifier>
      <datestamp>2017-01-11T14:43:05Z</datestamp>
      <setSpec>user-biosyslit</setSpec>
    </header>
    <header>
      <identifier>oai:zenodo.org:239001</identifier>
      <datestamp>2017-01-11T14:42:58Z</datestamp>
      <setSpec>user-biosyslit</setSpec>
    </header>
    <header>
      <identifier>oai:zenodo.org:237308</identifier>
      <datestamp>2017-01-10T14:09:05Z</datestamp>
      <setSpec>user-biosyslit</setSpec>
    </header>
    <header>
      <identifier>oai:zenodo.org:237310</identifier>
      <datestamp>2017-01-10T14:09:13Z</datestamp>
      <setSpec>user-biosyslit</setSpec>
    </header>
    <header>
      <identifier>oai:zenodo.org:237307</identifier>
      <datestamp>2017-01-10T14:09:15Z</datestamp>
      <setSpec>user-biosyslit</setSpec>
    </header>
    <header>
      <identifier>oai:zenodo.org:252516</identifier>
      <datestamp>2017-01-19T15:31:47Z</datestamp>
      <setSpec>user-biosyslit</setSpec>
    </header>
    <header>
      <identifier>oai:zenodo.org:252517</identifier>
      <datestamp>2017-01-19T15:31:51Z</datestamp>
      <setSpec>user-biosyslit</setSpec>
    </header>
    <header>
      <identifier>oai:zenodo.org:252510</identifier>
      <datestamp>2017-01-19T15:31:52Z</datestamp>
      <setSpec>user-biosyslit</setSpec>
    </header>
    <header>
      <identifier>oai:zenodo.org:237309</identifier>
      <datestamp>2017-01-10T14:09:10Z</datestamp>
      <setSpec>user-biosyslit</setSpec>
    </header>
    <header>
      <identifier>oai:zenodo.org:252511</identifier>
      <datestamp>2017-01-19T15:31:30Z</datestamp>
      <setSpec>user-biosyslit</setSpec>
    </header>
    <header>
      <identifier>oai:zenodo.org:252513</identifier>
      <datestamp>2017-01-19T15:31:37Z</datestamp>
      <setSpec>user-biosyslit</setSpec>
    </header>
    <header>
      <identifier>oai:zenodo.org:252514</identifier>
      <datestamp>2017-01-19T15:31:39Z</datestamp>
      <setSpec>user-biosyslit</setSpec>
    </header>
    <header>
      <identifier>oai:zenodo.org:235506</identifier>
      <datestamp>2017-01-09T10:48:25Z</datestamp>
      <setSpec>user-biosyslit</setSpec>
    </header>
    <header>
      <identifier>oai:zenodo.org:228609</identifier>
      <datestamp>2017-01-03T02:26:05Z</datestamp>
      <setSpec>user-biosyslit</setSpec>
    </header>
    <header>
      <identifier>oai:zenodo.org:234965</identifier>
      <datestamp>2017-01-09T04:02:57Z</datestamp>
      <setSpec>user-biosyslit</setSpec>
    </header>
    <header>
      <identifier>oai:zenodo.org:234968</identifier>
      <datestamp>2017-01-09T04:03:09Z</datestamp>
      <setSpec>user-biosyslit</setSpec>
    </header>
    <header>
      <identifier>oai:zenodo.org:227115</identifier>
      <datestamp>2017-01-01T17:16:35Z</datestamp>
      <setSpec>user-biosyslit</setSpec>
    </header>
    <header>
      <identifier>oai:zenodo.org:233245</identifier>
      <datestamp>2017-01-08T02:30:15Z</datestamp>
      <setSpec>user-biosyslit</setSpec>
    </header>
    <header>
      <identifier>oai:zenodo.org:227126</identifier>
      <datestamp>2017-01-01T17:16:25Z</datestamp>
      <setSpec>user-biosyslit</setSpec>
    </header>
    <header>
      <identifier>oai:zenodo.org:227125</identifier>
      <datestamp>2017-01-01T17:16:21Z</datestamp>
      <setSpec>user-biosyslit</setSpec>
    </header>
    <header>
      <identifier>oai:zenodo.org:233248</identifier>
      <datestamp>2017-01-08T02:30:10Z</datestamp>
      <setSpec>user-biosyslit</setSpec>
    </header>
    <header>
      <identifier>oai:zenodo.org:233247</identifier>
      <datestamp>2017-01-08T02:30:07Z</datestamp>
      <setSpec>user-biosyslit</setSpec>
    </header>
    <header>
      <identifier>oai:zenodo.org:227124</identifier>
      <datestamp>2017-01-01T17:16:18Z</datestamp>
      <setSpec>user-biosyslit</setSpec>
    </header>
    <header>
      <identifier>oai:zenodo.org:281473</identifier>
      <datestamp>2017-02-09T05:21:53Z</datestamp>
      <setSpec>user-biosyslit</setSpec>
    </header>
    <header>
      <identifier>oai:zenodo.org:245556</identifier>
      <datestamp>2017-01-15T15:23:53Z</datestamp>
      <setSpec>user-biosyslit</setSpec>
    </header>
    <header>
      <identifier>oai:zenodo.org:245557</identifier>
      <datestamp>2017-01-15T15:23:52Z</datestamp>
      <setSpec>user-biosyslit</setSpec>
    </header>
    <header>
      <identifier>oai:zenodo.org:288869</identifier>
      <datestamp>2017-02-09T22:06:03Z</datestamp>
      <setSpec>user-biosyslit</setSpec>
    </header>
    <header>
      <identifier>oai:zenodo.org:288889</identifier>
      <datestamp>2017-02-09T22:05:59Z</datestamp>
      <setSpec>user-biosyslit</setSpec>
    </header>
    <header>
      <identifier>oai:zenodo.org:288887</identifier>
      <datestamp>2017-02-09T22:05:53Z</datestamp>
      <setSpec>user-biosyslit</setSpec>
    </header>
    <header>
      <identifier>oai:zenodo.org:288888</identifier>
      <datestamp>2017-02-09T22:05:56Z</datestamp>
      <setSpec>user-biosyslit</setSpec>
    </header>
    <header>
      <identifier>oai:zenodo.org:288890</identifier>
      <datestamp>2017-02-09T22:06:01Z</datestamp>
      <setSpec>user-biosyslit</setSpec>
    </header>
    <header>
      <identifier>oai:zenodo.org:267897</identifier>
      <datestamp>2017-02-02T09:12:44Z</datestamp>
      <setSpec>user-biosyslit</setSpec>
    </header>
    <header>
      <identifier>oai:zenodo.org:249100</identifier>
      <datestamp>2017-01-17T16:22:05Z</datestamp>
      <setSpec>user-biosyslit</setSpec>
    </header>
    <header>
      <identifier>oai:zenodo.org:249103</identifier>
      <datestamp>2017-01-17T16:22:19Z</datestamp>
      <setSpec>user-biosyslit</setSpec>
    </header>
    <header>
      <identifier>oai:zenodo.org:249102</identifier>
      <datestamp>2017-01-17T16:22:15Z</datestamp>
      <setSpec>user-biosyslit</setSpec>
    </header>
    <header>
      <identifier>oai:zenodo.org:284310</identifier>
      <datestamp>2017-02-09T11:00:18Z</datestamp>
      <setSpec>user-biosyslit</setSpec>
    </header>
    <header>
      <identifier>oai:zenodo.org:232659</identifier>
      <datestamp>2017-01-06T21:21:38Z</datestamp>
      <setSpec>user-biosyslit</setSpec>
    </header>
    <header>
      <identifier>oai:zenodo.org:273555</identifier>
      <datestamp>2017-02-08T09:52:36Z</datestamp>
      <setSpec>user-biosyslit</setSpec>
    </header>
    <header>
      <identifier>oai:zenodo.org:273556</identifier>
      <datestamp>2017-02-08T09:52:39Z</datestamp>
      <setSpec>user-biosyslit</setSpec>
    </header>
    <header>
      <identifier>oai:zenodo.org:284312</identifier>
      <datestamp>2017-02-09T11:00:11Z</datestamp>
      <setSpec>user-biosyslit</setSpec>
    </header>
    <header>
      <identifier>oai:zenodo.org:259797</identifier>
      <datestamp>2017-01-25T16:22:59Z</datestamp>
      <setSpec>user-biosyslit</setSpec>
    </header>
    <header>
      <identifier>oai:zenodo.org:259800</identifier>
      <datestamp>2017-01-25T16:22:52Z</datestamp>
      <setSpec>user-biosyslit</setSpec>
    </header>
    <header>
      <identifier>oai:zenodo.org:259798</identifier>
      <datestamp>2017-01-25T16:22:47Z</datestamp>
      <setSpec>user-biosyslit</setSpec>
    </header>
    <header>
      <identifier>oai:zenodo.org:232734</identifier>
      <datestamp>2017-01-06T22:17:26Z</datestamp>
      <setSpec>user-biosyslit</setSpec>
    </header>
    <header>
      <identifier>oai:zenodo.org:265880</identifier>
      <datestamp>2017-01-31T22:55:50Z</datestamp>
      <setSpec>user-biosyslit</setSpec>
    </header>
    <header>
      <identifier>oai:zenodo.org:232727</identifier>
      <datestamp>2017-01-06T22:17:00Z</datestamp>
      <setSpec>user-biosyslit</setSpec>
    </header>
    <header>
      <identifier>oai:zenodo.org:232733</identifier>
      <datestamp>2017-01-06T22:17:20Z</datestamp>
      <setSpec>user-biosyslit</setSpec>
    </header>
    <header>
      <identifier>oai:zenodo.org:232732</identifier>
      <datestamp>2017-01-06T22:17:16Z</datestamp>
      <setSpec>user-biosyslit</setSpec>
    </header>
    <header>
      <identifier>oai:zenodo.org:232729</identifier>
      <datestamp>2017-01-06T22:17:06Z</datestamp>
      <setSpec>user-biosyslit</setSpec>
    </header>
    <header>
      <identifier>oai:zenodo.org:278715</identifier>
      <datestamp>2017-02-08T23:45:51Z</datestamp>
      <setSpec>user-biosyslit</setSpec>
    </header>
    <header>
      <identifier>oai:zenodo.org:281291</identifier>
      <datestamp>2017-02-09T05:05:17Z</datestamp>
      <setSpec>user-biosyslit</setSpec>
    </header>
    <header>
      <identifier>oai:zenodo.org:239842</identifier>
      <datestamp>2017-01-12T01:41:34Z</datestamp>
      <setSpec>user-biosyslit</setSpec>
    </header>
    <header>
      <identifier>oai:zenodo.org:239843</identifier>
      <datestamp>2017-01-12T01:41:26Z</datestamp>
      <setSpec>user-biosyslit</setSpec>
    </header>
    <header>
      <identifier>oai:zenodo.org:278717</identifier>
      <datestamp>2017-02-08T23:45:50Z</datestamp>
      <setSpec>user-biosyslit</setSpec>
    </header>
    <header>
      <identifier>oai:zenodo.org:281292</identifier>
      <datestamp>2017-02-09T05:05:15Z</datestamp>
      <setSpec>user-biosyslit</setSpec>
    </header>
    <header>
      <identifier>oai:zenodo.org:233288</identifier>
      <datestamp>2017-01-08T03:02:38Z</datestamp>
      <setSpec>user-biosyslit</setSpec>
    </header>
    <header>
      <identifier>oai:zenodo.org:266257</identifier>
      <datestamp>2017-02-01T04:38:34Z</datestamp>
      <setSpec>user-biosyslit</setSpec>
    </header>
    <header>
      <identifier>oai:zenodo.org:266278</identifier>
      <datestamp>2017-02-01T04:38:00Z</datestamp>
      <setSpec>user-biosyslit</setSpec>
    </header>
    <header>
      <identifier>oai:zenodo.org:266274</identifier>
      <datestamp>2017-02-01T04:37:50Z</datestamp>
      <setSpec>user-biosyslit</setSpec>
    </header>
    <header>
      <identifier>oai:zenodo.org:266282</identifier>
      <datestamp>2017-02-01T04:38:11Z</datestamp>
      <setSpec>user-biosyslit</setSpec>
    </header>
    <header>
      <identifier>oai:zenodo.org:266280</identifier>
      <datestamp>2017-02-01T04:38:05Z</datestamp>
      <setSpec>user-biosyslit</setSpec>
    </header>
    <header>
      <identifier>oai:zenodo.org:266289</identifier>
      <datestamp>2017-02-01T04:38:33Z</datestamp>
      <setSpec>user-biosyslit</setSpec>
    </header>
    <resumptionToken expirationDate="2017-08-31T15:44:51Z" cursor="28500" completeListSize="77796">.eJyNyj0LgkAYAOD_8s4S9xGeCC2iSUOKXoq6hKlIeZp4hXrif8-luebnWUBWVQkm2hGqG1hnmO2ZjgndUw1kMTyFuN43hyKJRdGJKHfjd9jGKCU182w5ne2UeqpBfosVPwYkwcYU3dEcXKJXqsIppqeRI4edVTB7j9P2Suq7Iru5PY86S3BSDr4TzBxbPKPF9-E_n_r5bHkADfq8rsAkBtOgGfOhlmAu6_oBzoRRcw.DIm_-w.Ax7B7goXJjg4ZP2GSX3nn6NLHB0</resumptionToken>
  </ListIdentifiers>
</OAI-PMH>
