<?xml version='1.0' encoding='UTF-8'?>
<?xml-stylesheet type="text/xsl" href="/static/xsl/oai2.v1.0.xsl"?>
<OAI-PMH xmlns="http://www.openarchives.org/OAI/2.0/" xmlns:xsi="http://www.w3.org/2001/XMLSchema-instance" xsi:schemaLocation="http://www.openarchives.org/OAI/2.0/ http://www.openarchives.org/OAI/2.0/OAI-PMH.xsd">
  <responseDate>2017-08-31T15:46:12Z</responseDate>
  <request verb="ListIdentifiers" resumptionToken=".eJyNyj0LgkAYAOD_8s4S9yFpQkto4qCi1x3pEqYi5lXiFepJ_72W5pqfZwFV1xU4aGViTMjGJGsbmwgboMrhLuWp_SCURyHLm-SFL57pVaCMNFbkqil0MxrpDsVXrNk-IUdsT7xFc3Lgj0ynk6DByJBnhTqZo0vweRWNfZmf_Z7x204yUg2xl8wM71hOy-_Dfz7987lqCwb0RVODY1HLgG4shkaBs7xebySaUMk.DInAww.np0KPHcSKcHHWveMYcmBssNrBM8">https://zenodo.org/oai2d</request>
  <ListIdentifiers>
    <header>
      <identifier>oai:zenodo.org:228428</identifier>
      <datestamp>2017-01-02T23:44:56Z</datestamp>
      <setSpec>user-biosyslit</setSpec>
    </header>
    <header>
      <identifier>oai:zenodo.org:229090</identifier>
      <datestamp>2017-01-03T09:24:28Z</datestamp>
      <setSpec>user-biosyslit</setSpec>
    </header>
    <header>
      <identifier>oai:zenodo.org:229089</identifier>
      <datestamp>2017-01-03T09:24:19Z</datestamp>
      <setSpec>user-biosyslit</setSpec>
    </header>
    <header>
      <identifier>oai:zenodo.org:245400</identifier>
      <datestamp>2017-01-15T12:46:14Z</datestamp>
      <setSpec>user-biosyslit</setSpec>
    </header>
    <header>
      <identifier>oai:zenodo.org:262184</identifier>
      <datestamp>2017-01-28T22:37:10Z</datestamp>
      <setSpec>user-biosyslit</setSpec>
    </header>
    <header>
      <identifier>oai:zenodo.org:262187</identifier>
      <datestamp>2017-01-28T22:37:09Z</datestamp>
      <setSpec>user-biosyslit</setSpec>
    </header>
    <header>
      <identifier>oai:zenodo.org:234075</identifier>
      <datestamp>2017-01-08T14:41:45Z</datestamp>
      <setSpec>user-biosyslit</setSpec>
    </header>
    <header>
      <identifier>oai:zenodo.org:234078</identifier>
      <datestamp>2017-01-08T14:41:36Z</datestamp>
      <setSpec>user-biosyslit</setSpec>
    </header>
    <header>
      <identifier>oai:zenodo.org:248839</identifier>
      <datestamp>2017-01-17T12:31:51Z</datestamp>
      <setSpec>user-biosyslit</setSpec>
    </header>
    <header>
      <identifier>oai:zenodo.org:248838</identifier>
      <datestamp>2017-01-17T12:31:49Z</datestamp>
      <setSpec>user-biosyslit</setSpec>
    </header>
    <header>
      <identifier>oai:zenodo.org:248835</identifier>
      <datestamp>2017-01-17T12:31:38Z</datestamp>
      <setSpec>user-biosyslit</setSpec>
    </header>
    <header>
      <identifier>oai:zenodo.org:248832</identifier>
      <datestamp>2017-01-17T12:31:23Z</datestamp>
      <setSpec>user-biosyslit</setSpec>
    </header>
    <header>
      <identifier>oai:zenodo.org:281840</identifier>
      <datestamp>2017-02-09T06:00:16Z</datestamp>
      <setSpec>user-biosyslit</setSpec>
    </header>
    <header>
      <identifier>oai:zenodo.org:229072</identifier>
      <datestamp>2017-01-03T09:08:53Z</datestamp>
      <setSpec>user-biosyslit</setSpec>
    </header>
    <header>
      <identifier>oai:zenodo.org:273229</identifier>
      <datestamp>2017-02-08T08:40:18Z</datestamp>
      <setSpec>user-biosyslit</setSpec>
    </header>
    <header>
      <identifier>oai:zenodo.org:281843</identifier>
      <datestamp>2017-02-09T06:00:22Z</datestamp>
      <setSpec>user-biosyslit</setSpec>
    </header>
    <header>
      <identifier>oai:zenodo.org:277850</identifier>
      <datestamp>2017-02-08T21:56:17Z</datestamp>
      <setSpec>user-biosyslit</setSpec>
    </header>
    <header>
      <identifier>oai:zenodo.org:277855</identifier>
      <datestamp>2017-02-08T21:56:33Z</datestamp>
      <setSpec>user-biosyslit</setSpec>
    </header>
    <header>
      <identifier>oai:zenodo.org:277854</identifier>
      <datestamp>2017-02-08T21:56:30Z</datestamp>
      <setSpec>user-biosyslit</setSpec>
    </header>
    <header>
      <identifier>oai:zenodo.org:236854</identifier>
      <datestamp>2017-01-10T06:30:39Z</datestamp>
      <setSpec>user-biosyslit</setSpec>
    </header>
    <header>
      <identifier>oai:zenodo.org:286219</identifier>
      <datestamp>2017-02-09T15:32:32Z</datestamp>
      <setSpec>user-biosyslit</setSpec>
    </header>
    <header>
      <identifier>oai:zenodo.org:286217</identifier>
      <datestamp>2017-02-09T15:32:24Z</datestamp>
      <setSpec>user-biosyslit</setSpec>
    </header>
    <header>
      <identifier>oai:zenodo.org:286216</identifier>
      <datestamp>2017-02-09T15:32:21Z</datestamp>
      <setSpec>user-biosyslit</setSpec>
    </header>
    <header>
      <identifier>oai:zenodo.org:286212</identifier>
      <datestamp>2017-02-09T15:32:06Z</datestamp>
      <setSpec>user-biosyslit</setSpec>
    </header>
    <header>
      <identifier>oai:zenodo.org:286213</identifier>
      <datestamp>2017-02-09T15:32:10Z</datestamp>
      <setSpec>user-biosyslit</setSpec>
    </header>
    <header>
      <identifier>oai:zenodo.org:273408</identifier>
      <datestamp>2017-02-08T09:12:51Z</datestamp>
      <setSpec>user-biosyslit</setSpec>
    </header>
    <header>
      <identifier>oai:zenodo.org:228328</identifier>
      <datestamp>2017-01-02T22:17:01Z</datestamp>
      <setSpec>user-biosyslit</setSpec>
    </header>
    <header>
      <identifier>oai:zenodo.org:286966</identifier>
      <datestamp>2017-02-09T17:09:09Z</datestamp>
      <setSpec>user-biosyslit</setSpec>
    </header>
    <header>
      <identifier>oai:zenodo.org:286965</identifier>
      <datestamp>2017-02-09T17:09:06Z</datestamp>
      <setSpec>user-biosyslit</setSpec>
    </header>
    <header>
      <identifier>oai:zenodo.org:286973</identifier>
      <datestamp>2017-02-09T17:09:32Z</datestamp>
      <setSpec>user-biosyslit</setSpec>
    </header>
    <header>
      <identifier>oai:zenodo.org:228339</identifier>
      <datestamp>2017-01-02T22:16:49Z</datestamp>
      <setSpec>user-biosyslit</setSpec>
    </header>
    <header>
      <identifier>oai:zenodo.org:228336</identifier>
      <datestamp>2017-01-02T22:16:40Z</datestamp>
      <setSpec>user-biosyslit</setSpec>
    </header>
    <header>
      <identifier>oai:zenodo.org:228342</identifier>
      <datestamp>2017-01-02T22:16:57Z</datestamp>
      <setSpec>user-biosyslit</setSpec>
    </header>
    <header>
      <identifier>oai:zenodo.org:228343</identifier>
      <datestamp>2017-01-02T22:17:00Z</datestamp>
      <setSpec>user-biosyslit</setSpec>
    </header>
    <header>
      <identifier>oai:zenodo.org:286964</identifier>
      <datestamp>2017-02-09T17:09:02Z</datestamp>
      <setSpec>user-biosyslit</setSpec>
    </header>
    <header>
      <identifier>oai:zenodo.org:243232</identifier>
      <datestamp>2017-01-14T00:58:14Z</datestamp>
      <setSpec>user-biosyslit</setSpec>
    </header>
    <header>
      <identifier>oai:zenodo.org:230262</identifier>
      <datestamp>2017-01-04T21:49:35Z</datestamp>
      <setSpec>user-biosyslit</setSpec>
    </header>
    <header>
      <identifier>oai:zenodo.org:275388</identifier>
      <datestamp>2017-02-08T16:12:08Z</datestamp>
      <setSpec>user-biosyslit</setSpec>
    </header>
    <header>
      <identifier>oai:zenodo.org:282468</identifier>
      <datestamp>2017-02-09T07:03:29Z</datestamp>
      <setSpec>user-biosyslit</setSpec>
    </header>
    <header>
      <identifier>oai:zenodo.org:281492</identifier>
      <datestamp>2017-02-09T05:23:00Z</datestamp>
      <setSpec>user-biosyslit</setSpec>
    </header>
    <header>
      <identifier>oai:zenodo.org:281493</identifier>
      <datestamp>2017-02-09T05:23:03Z</datestamp>
      <setSpec>user-biosyslit</setSpec>
    </header>
    <header>
      <identifier>oai:zenodo.org:281495</identifier>
      <datestamp>2017-02-09T05:23:07Z</datestamp>
      <setSpec>user-biosyslit</setSpec>
    </header>
    <header>
      <identifier>oai:zenodo.org:282470</identifier>
      <datestamp>2017-02-09T07:03:26Z</datestamp>
      <setSpec>user-biosyslit</setSpec>
    </header>
    <header>
      <identifier>oai:zenodo.org:282471</identifier>
      <datestamp>2017-02-09T07:03:28Z</datestamp>
      <setSpec>user-biosyslit</setSpec>
    </header>
    <header>
      <identifier>oai:zenodo.org:275495</identifier>
      <datestamp>2017-02-08T16:34:45Z</datestamp>
      <setSpec>user-biosyslit</setSpec>
    </header>
    <header>
      <identifier>oai:zenodo.org:281293</identifier>
      <datestamp>2017-02-09T05:05:33Z</datestamp>
      <setSpec>user-biosyslit</setSpec>
    </header>
    <header>
      <identifier>oai:zenodo.org:275502</identifier>
      <datestamp>2017-02-08T16:34:44Z</datestamp>
      <setSpec>user-biosyslit</setSpec>
    </header>
    <header>
      <identifier>oai:zenodo.org:275497</identifier>
      <datestamp>2017-02-08T16:34:32Z</datestamp>
      <setSpec>user-biosyslit</setSpec>
    </header>
    <header>
      <identifier>oai:zenodo.org:281294</identifier>
      <datestamp>2017-02-09T05:05:27Z</datestamp>
      <setSpec>user-biosyslit</setSpec>
    </header>
    <header>
      <identifier>oai:zenodo.org:275501</identifier>
      <datestamp>2017-02-08T16:34:42Z</datestamp>
      <setSpec>user-biosyslit</setSpec>
    </header>
    <header>
      <identifier>oai:zenodo.org:265035</identifier>
      <datestamp>2017-01-31T06:55:33Z</datestamp>
      <setSpec>user-biosyslit</setSpec>
    </header>
    <header>
      <identifier>oai:zenodo.org:281295</identifier>
      <datestamp>2017-02-09T05:05:29Z</datestamp>
      <setSpec>user-biosyslit</setSpec>
    </header>
    <header>
      <identifier>oai:zenodo.org:256046</identifier>
      <datestamp>2017-01-22T02:53:47Z</datestamp>
      <setSpec>user-biosyslit</setSpec>
    </header>
    <header>
      <identifier>oai:zenodo.org:279614</identifier>
      <datestamp>2017-02-09T01:44:49Z</datestamp>
      <setSpec>user-biosyslit</setSpec>
    </header>
    <header>
      <identifier>oai:zenodo.org:279624</identifier>
      <datestamp>2017-02-09T01:44:33Z</datestamp>
      <setSpec>user-biosyslit</setSpec>
    </header>
    <header>
      <identifier>oai:zenodo.org:279626</identifier>
      <datestamp>2017-02-09T01:44:39Z</datestamp>
      <setSpec>user-biosyslit</setSpec>
    </header>
    <header>
      <identifier>oai:zenodo.org:279623</identifier>
      <datestamp>2017-02-09T01:44:31Z</datestamp>
      <setSpec>user-biosyslit</setSpec>
    </header>
    <header>
      <identifier>oai:zenodo.org:279615</identifier>
      <datestamp>2017-02-09T01:44:06Z</datestamp>
      <setSpec>user-biosyslit</setSpec>
    </header>
    <header>
      <identifier>oai:zenodo.org:279619</identifier>
      <datestamp>2017-02-09T01:44:19Z</datestamp>
      <setSpec>user-biosyslit</setSpec>
    </header>
    <header>
      <identifier>oai:zenodo.org:279625</identifier>
      <datestamp>2017-02-09T01:44:36Z</datestamp>
      <setSpec>user-biosyslit</setSpec>
    </header>
    <header>
      <identifier>oai:zenodo.org:256048</identifier>
      <datestamp>2017-01-22T02:54:18Z</datestamp>
      <setSpec>user-biosyslit</setSpec>
    </header>
    <header>
      <identifier>oai:zenodo.org:234615</identifier>
      <datestamp>2017-01-08T22:49:08Z</datestamp>
      <setSpec>user-biosyslit</setSpec>
    </header>
    <header>
      <identifier>oai:zenodo.org:243781</identifier>
      <datestamp>2017-01-14T10:50:36Z</datestamp>
      <setSpec>user-biosyslit</setSpec>
    </header>
    <header>
      <identifier>oai:zenodo.org:281186</identifier>
      <datestamp>2017-02-09T04:53:08Z</datestamp>
      <setSpec>user-biosyslit</setSpec>
    </header>
    <header>
      <identifier>oai:zenodo.org:281183</identifier>
      <datestamp>2017-02-09T04:53:09Z</datestamp>
      <setSpec>user-biosyslit</setSpec>
    </header>
    <header>
      <identifier>oai:zenodo.org:243783</identifier>
      <datestamp>2017-01-14T10:50:34Z</datestamp>
      <setSpec>user-biosyslit</setSpec>
    </header>
    <header>
      <identifier>oai:zenodo.org:227010</identifier>
      <datestamp>2017-01-01T08:04:19Z</datestamp>
      <setSpec>user-biosyslit</setSpec>
    </header>
    <header>
      <identifier>oai:zenodo.org:227011</identifier>
      <datestamp>2017-01-01T08:04:17Z</datestamp>
      <setSpec>user-biosyslit</setSpec>
    </header>
    <header>
      <identifier>oai:zenodo.org:231531</identifier>
      <datestamp>2017-01-06T03:30:59Z</datestamp>
      <setSpec>user-biosyslit</setSpec>
    </header>
    <header>
      <identifier>oai:zenodo.org:231528</identifier>
      <datestamp>2017-01-06T03:30:44Z</datestamp>
      <setSpec>user-biosyslit</setSpec>
    </header>
    <header>
      <identifier>oai:zenodo.org:231527</identifier>
      <datestamp>2017-01-06T03:30:42Z</datestamp>
      <setSpec>user-biosyslit</setSpec>
    </header>
    <header>
      <identifier>oai:zenodo.org:241458</identifier>
      <datestamp>2017-01-13T01:43:29Z</datestamp>
      <setSpec>user-biosyslit</setSpec>
    </header>
    <header>
      <identifier>oai:zenodo.org:228607</identifier>
      <datestamp>2017-01-03T02:21:02Z</datestamp>
      <setSpec>user-biosyslit</setSpec>
    </header>
    <header>
      <identifier>oai:zenodo.org:241464</identifier>
      <datestamp>2017-01-13T01:43:27Z</datestamp>
      <setSpec>user-biosyslit</setSpec>
    </header>
    <header>
      <identifier>oai:zenodo.org:241459</identifier>
      <datestamp>2017-01-13T01:43:11Z</datestamp>
      <setSpec>user-biosyslit</setSpec>
    </header>
    <header>
      <identifier>oai:zenodo.org:233229</identifier>
      <datestamp>2017-01-08T02:20:31Z</datestamp>
      <setSpec>user-biosyslit</setSpec>
    </header>
    <header>
      <identifier>oai:zenodo.org:233228</identifier>
      <datestamp>2017-01-08T02:20:29Z</datestamp>
      <setSpec>user-biosyslit</setSpec>
    </header>
    <header>
      <identifier>oai:zenodo.org:279423</identifier>
      <datestamp>2017-02-09T01:19:51Z</datestamp>
      <setSpec>user-biosyslit</setSpec>
    </header>
    <header>
      <identifier>oai:zenodo.org:279421</identifier>
      <datestamp>2017-02-09T01:19:53Z</datestamp>
      <setSpec>user-biosyslit</setSpec>
    </header>
    <header>
      <identifier>oai:zenodo.org:230828</identifier>
      <datestamp>2017-01-05T08:52:06Z</datestamp>
      <setSpec>user-biosyslit</setSpec>
    </header>
    <header>
      <identifier>oai:zenodo.org:285244</identifier>
      <datestamp>2017-02-09T13:05:39Z</datestamp>
      <setSpec>user-biosyslit</setSpec>
    </header>
    <header>
      <identifier>oai:zenodo.org:285248</identifier>
      <datestamp>2017-02-09T13:05:48Z</datestamp>
      <setSpec>user-biosyslit</setSpec>
    </header>
    <header>
      <identifier>oai:zenodo.org:285254</identifier>
      <datestamp>2017-02-09T13:06:00Z</datestamp>
      <setSpec>user-biosyslit</setSpec>
    </header>
    <header>
      <identifier>oai:zenodo.org:285245</identifier>
      <datestamp>2017-02-09T13:05:41Z</datestamp>
      <setSpec>user-biosyslit</setSpec>
    </header>
    <header>
      <identifier>oai:zenodo.org:285251</identifier>
      <datestamp>2017-02-09T13:05:53Z</datestamp>
      <setSpec>user-biosyslit</setSpec>
    </header>
    <header>
      <identifier>oai:zenodo.org:285246</identifier>
      <datestamp>2017-02-09T13:05:43Z</datestamp>
      <setSpec>user-biosyslit</setSpec>
    </header>
    <header>
      <identifier>oai:zenodo.org:285255</identifier>
      <datestamp>2017-02-09T13:06:02Z</datestamp>
      <setSpec>user-biosyslit</setSpec>
    </header>
    <header>
      <identifier>oai:zenodo.org:237115</identifier>
      <datestamp>2017-01-10T10:57:00Z</datestamp>
      <setSpec>user-biosyslit</setSpec>
    </header>
    <header>
      <identifier>oai:zenodo.org:237114</identifier>
      <datestamp>2017-01-10T10:56:56Z</datestamp>
      <setSpec>user-biosyslit</setSpec>
    </header>
    <header>
      <identifier>oai:zenodo.org:261168</identifier>
      <datestamp>2017-01-28T06:10:43Z</datestamp>
      <setSpec>user-biosyslit</setSpec>
    </header>
    <header>
      <identifier>oai:zenodo.org:262625</identifier>
      <datestamp>2017-01-29T06:25:59Z</datestamp>
      <setSpec>user-biosyslit</setSpec>
    </header>
    <header>
      <identifier>oai:zenodo.org:245927</identifier>
      <datestamp>2017-01-15T19:30:50Z</datestamp>
      <setSpec>user-biosyslit</setSpec>
    </header>
    <header>
      <identifier>oai:zenodo.org:245926</identifier>
      <datestamp>2017-01-15T19:30:48Z</datestamp>
      <setSpec>user-biosyslit</setSpec>
    </header>
    <header>
      <identifier>oai:zenodo.org:245929</identifier>
      <datestamp>2017-01-15T19:30:57Z</datestamp>
      <setSpec>user-biosyslit</setSpec>
    </header>
    <header>
      <identifier>oai:zenodo.org:245928</identifier>
      <datestamp>2017-01-15T19:30:53Z</datestamp>
      <setSpec>user-biosyslit</setSpec>
    </header>
    <header>
      <identifier>oai:zenodo.org:240661</identifier>
      <datestamp>2017-01-12T12:22:56Z</datestamp>
      <setSpec>user-biosyslit</setSpec>
    </header>
    <header>
      <identifier>oai:zenodo.org:264306</identifier>
      <datestamp>2017-01-30T18:47:39Z</datestamp>
      <setSpec>user-biosyslit</setSpec>
    </header>
    <header>
      <identifier>oai:zenodo.org:236325</identifier>
      <datestamp>2017-01-09T22:22:27Z</datestamp>
      <setSpec>user-biosyslit</setSpec>
    </header>
    <header>
      <identifier>oai:zenodo.org:264303</identifier>
      <datestamp>2017-01-30T18:47:28Z</datestamp>
      <setSpec>user-biosyslit</setSpec>
    </header>
    <header>
      <identifier>oai:zenodo.org:236327</identifier>
      <datestamp>2017-01-09T22:22:21Z</datestamp>
      <setSpec>user-biosyslit</setSpec>
    </header>
    <resumptionToken expirationDate="2017-08-31T15:48:12Z" cursor="73600" completeListSize="77796">.eJyNyk0LgjAYAOD_8p4lNudUhC5hiQeVuRzpJUxFyvWBK9SF_z0vnev8PG9QTVODh1bIRq5lIssiNqUYU2qAqvq7lMfz4lAdhKxuMisD8UqvAuVm68S-GiM_J7HuUHLFmu-YecDumJ3RxPbZM9fpKEg4cLR1Is2m-BIuryZJIItT8ODZbSO5WffJlk0cb3hBqu_Dfz798_lqDQY8yrYBzyGuAd1Q9q0C7z3PH8NNUWg.DInAxA.1PCjAZPTYaRux51Yx5fepI9JYjY</resumptionToken>
  </ListIdentifiers>
</OAI-PMH>
