<?xml version='1.0' encoding='UTF-8'?>
<?xml-stylesheet type="text/xsl" href="/static/xsl/oai2.v1.0.xsl"?>
<OAI-PMH xmlns="http://www.openarchives.org/OAI/2.0/" xmlns:xsi="http://www.w3.org/2001/XMLSchema-instance" xsi:schemaLocation="http://www.openarchives.org/OAI/2.0/ http://www.openarchives.org/OAI/2.0/OAI-PMH.xsd">
  <responseDate>2017-08-31T15:46:08Z</responseDate>
  <request verb="ListIdentifiers" resumptionToken=".eJyNyj0LgkAYAOD_8s4S96FeCS2iSYOKXUq6hJ0i1lnhFemJ_72W5pqfZwJV1xU4aEEoxbZpmbaNiblizDJAif4m5bH9OIhDJsVVpmWQPXddhnLSsMhTQ-jlNNIXFHdY801CDng5pC0ak336yPVuyOj2xZHPQp2M0Xn7eRWNA1mcgjtPr67kpOpjPxk5dnlBxffhP5_--Ty1BgPuZVODwygx4PIq-0aBM83zG9F1UXI.DInAwA.L_ysCKoRMT3v_x3nlV0nZteBQMo">https://zenodo.org/oai2d</request>
  <ListIdentifiers>
    <header>
      <identifier>oai:zenodo.org:244385</identifier>
      <datestamp>2017-01-14T21:05:02Z</datestamp>
      <setSpec>user-biosyslit</setSpec>
    </header>
    <header>
      <identifier>oai:zenodo.org:244383</identifier>
      <datestamp>2017-01-14T21:04:54Z</datestamp>
      <setSpec>user-biosyslit</setSpec>
    </header>
    <header>
      <identifier>oai:zenodo.org:232736</identifier>
      <datestamp>2017-01-06T22:24:13Z</datestamp>
      <setSpec>user-biosyslit</setSpec>
    </header>
    <header>
      <identifier>oai:zenodo.org:273409</identifier>
      <datestamp>2017-02-08T09:12:50Z</datestamp>
      <setSpec>user-biosyslit</setSpec>
    </header>
    <header>
      <identifier>oai:zenodo.org:232739</identifier>
      <datestamp>2017-01-06T22:24:05Z</datestamp>
      <setSpec>user-biosyslit</setSpec>
    </header>
    <header>
      <identifier>oai:zenodo.org:232738</identifier>
      <datestamp>2017-01-06T22:24:01Z</datestamp>
      <setSpec>user-biosyslit</setSpec>
    </header>
    <header>
      <identifier>oai:zenodo.org:236436</identifier>
      <datestamp>2017-01-10T00:11:56Z</datestamp>
      <setSpec>user-biosyslit</setSpec>
    </header>
    <header>
      <identifier>oai:zenodo.org:236433</identifier>
      <datestamp>2017-01-10T00:11:43Z</datestamp>
      <setSpec>user-biosyslit</setSpec>
    </header>
    <header>
      <identifier>oai:zenodo.org:228263</identifier>
      <datestamp>2017-01-02T20:51:31Z</datestamp>
      <setSpec>user-biosyslit</setSpec>
    </header>
    <header>
      <identifier>oai:zenodo.org:228329</identifier>
      <datestamp>2017-01-02T22:16:22Z</datestamp>
      <setSpec>user-biosyslit</setSpec>
    </header>
    <header>
      <identifier>oai:zenodo.org:228334</identifier>
      <datestamp>2017-01-02T22:16:35Z</datestamp>
      <setSpec>user-biosyslit</setSpec>
    </header>
    <header>
      <identifier>oai:zenodo.org:228333</identifier>
      <datestamp>2017-01-02T22:16:32Z</datestamp>
      <setSpec>user-biosyslit</setSpec>
    </header>
    <header>
      <identifier>oai:zenodo.org:228265</identifier>
      <datestamp>2017-01-02T20:51:22Z</datestamp>
      <setSpec>user-biosyslit</setSpec>
    </header>
    <header>
      <identifier>oai:zenodo.org:228267</identifier>
      <datestamp>2017-01-02T20:51:29Z</datestamp>
      <setSpec>user-biosyslit</setSpec>
    </header>
    <header>
      <identifier>oai:zenodo.org:228264</identifier>
      <datestamp>2017-01-02T20:51:19Z</datestamp>
      <setSpec>user-biosyslit</setSpec>
    </header>
    <header>
      <identifier>oai:zenodo.org:228266</identifier>
      <datestamp>2017-01-02T20:51:25Z</datestamp>
      <setSpec>user-biosyslit</setSpec>
    </header>
    <header>
      <identifier>oai:zenodo.org:228332</identifier>
      <datestamp>2017-01-02T22:16:30Z</datestamp>
      <setSpec>user-biosyslit</setSpec>
    </header>
    <header>
      <identifier>oai:zenodo.org:281481</identifier>
      <datestamp>2017-02-09T05:22:34Z</datestamp>
      <setSpec>user-biosyslit</setSpec>
    </header>
    <header>
      <identifier>oai:zenodo.org:281483</identifier>
      <datestamp>2017-02-09T05:22:39Z</datestamp>
      <setSpec>user-biosyslit</setSpec>
    </header>
    <header>
      <identifier>oai:zenodo.org:281484</identifier>
      <datestamp>2017-02-09T05:22:41Z</datestamp>
      <setSpec>user-biosyslit</setSpec>
    </header>
    <header>
      <identifier>oai:zenodo.org:281485</identifier>
      <datestamp>2017-02-09T05:22:44Z</datestamp>
      <setSpec>user-biosyslit</setSpec>
    </header>
    <header>
      <identifier>oai:zenodo.org:281476</identifier>
      <datestamp>2017-02-09T05:22:20Z</datestamp>
      <setSpec>user-biosyslit</setSpec>
    </header>
    <header>
      <identifier>oai:zenodo.org:281487</identifier>
      <datestamp>2017-02-09T05:22:50Z</datestamp>
      <setSpec>user-biosyslit</setSpec>
    </header>
    <header>
      <identifier>oai:zenodo.org:281488</identifier>
      <datestamp>2017-02-09T05:22:52Z</datestamp>
      <setSpec>user-biosyslit</setSpec>
    </header>
    <header>
      <identifier>oai:zenodo.org:281490</identifier>
      <datestamp>2017-02-09T05:22:56Z</datestamp>
      <setSpec>user-biosyslit</setSpec>
    </header>
    <header>
      <identifier>oai:zenodo.org:231397</identifier>
      <datestamp>2017-01-06T01:26:54Z</datestamp>
      <setSpec>user-biosyslit</setSpec>
    </header>
    <header>
      <identifier>oai:zenodo.org:245795</identifier>
      <datestamp>2017-01-15T18:47:55Z</datestamp>
      <setSpec>user-biosyslit</setSpec>
    </header>
    <header>
      <identifier>oai:zenodo.org:231407</identifier>
      <datestamp>2017-01-06T01:26:52Z</datestamp>
      <setSpec>user-biosyslit</setSpec>
    </header>
    <header>
      <identifier>oai:zenodo.org:231406</identifier>
      <datestamp>2017-01-06T01:26:49Z</datestamp>
      <setSpec>user-biosyslit</setSpec>
    </header>
    <header>
      <identifier>oai:zenodo.org:279604</identifier>
      <datestamp>2017-02-09T01:43:11Z</datestamp>
      <setSpec>user-biosyslit</setSpec>
    </header>
    <header>
      <identifier>oai:zenodo.org:279606</identifier>
      <datestamp>2017-02-09T01:43:05Z</datestamp>
      <setSpec>user-biosyslit</setSpec>
    </header>
    <header>
      <identifier>oai:zenodo.org:271138</identifier>
      <datestamp>2017-02-08T00:52:43Z</datestamp>
      <setSpec>user-biosyslit</setSpec>
    </header>
    <header>
      <identifier>oai:zenodo.org:271137</identifier>
      <datestamp>2017-02-08T00:52:39Z</datestamp>
      <setSpec>user-biosyslit</setSpec>
    </header>
    <header>
      <identifier>oai:zenodo.org:245563</identifier>
      <datestamp>2017-01-15T15:27:00Z</datestamp>
      <setSpec>user-biosyslit</setSpec>
    </header>
    <header>
      <identifier>oai:zenodo.org:245561</identifier>
      <datestamp>2017-01-15T15:26:54Z</datestamp>
      <setSpec>user-biosyslit</setSpec>
    </header>
    <header>
      <identifier>oai:zenodo.org:245562</identifier>
      <datestamp>2017-01-15T15:26:56Z</datestamp>
      <setSpec>user-biosyslit</setSpec>
    </header>
    <header>
      <identifier>oai:zenodo.org:245565</identifier>
      <datestamp>2017-01-15T15:27:11Z</datestamp>
      <setSpec>user-biosyslit</setSpec>
    </header>
    <header>
      <identifier>oai:zenodo.org:248120</identifier>
      <datestamp>2017-01-17T00:13:24Z</datestamp>
      <setSpec>user-biosyslit</setSpec>
    </header>
    <header>
      <identifier>oai:zenodo.org:248119</identifier>
      <datestamp>2017-01-17T00:13:18Z</datestamp>
      <setSpec>user-biosyslit</setSpec>
    </header>
    <header>
      <identifier>oai:zenodo.org:265037</identifier>
      <datestamp>2017-01-31T06:55:39Z</datestamp>
      <setSpec>user-biosyslit</setSpec>
    </header>
    <header>
      <identifier>oai:zenodo.org:265041</identifier>
      <datestamp>2017-01-31T06:55:50Z</datestamp>
      <setSpec>user-biosyslit</setSpec>
    </header>
    <header>
      <identifier>oai:zenodo.org:265036</identifier>
      <datestamp>2017-01-31T06:55:36Z</datestamp>
      <setSpec>user-biosyslit</setSpec>
    </header>
    <header>
      <identifier>oai:zenodo.org:265044</identifier>
      <datestamp>2017-01-31T06:55:55Z</datestamp>
      <setSpec>user-biosyslit</setSpec>
    </header>
    <header>
      <identifier>oai:zenodo.org:265046</identifier>
      <datestamp>2017-01-31T06:56:00Z</datestamp>
      <setSpec>user-biosyslit</setSpec>
    </header>
    <header>
      <identifier>oai:zenodo.org:265049</identifier>
      <datestamp>2017-01-31T06:56:10Z</datestamp>
      <setSpec>user-biosyslit</setSpec>
    </header>
    <header>
      <identifier>oai:zenodo.org:282307</identifier>
      <datestamp>2017-02-09T06:48:00Z</datestamp>
      <setSpec>user-biosyslit</setSpec>
    </header>
    <header>
      <identifier>oai:zenodo.org:230434</identifier>
      <datestamp>2017-01-05T01:20:48Z</datestamp>
      <setSpec>user-biosyslit</setSpec>
    </header>
    <header>
      <identifier>oai:zenodo.org:230432</identifier>
      <datestamp>2017-01-05T01:20:53Z</datestamp>
      <setSpec>user-biosyslit</setSpec>
    </header>
    <header>
      <identifier>oai:zenodo.org:282312</identifier>
      <datestamp>2017-02-09T06:48:12Z</datestamp>
      <setSpec>user-biosyslit</setSpec>
    </header>
    <header>
      <identifier>oai:zenodo.org:283190</identifier>
      <datestamp>2017-02-09T08:18:58Z</datestamp>
      <setSpec>user-biosyslit</setSpec>
    </header>
    <header>
      <identifier>oai:zenodo.org:235455</identifier>
      <datestamp>2017-01-09T10:10:19Z</datestamp>
      <setSpec>user-biosyslit</setSpec>
    </header>
    <header>
      <identifier>oai:zenodo.org:283192</identifier>
      <datestamp>2017-02-09T08:18:53Z</datestamp>
      <setSpec>user-biosyslit</setSpec>
    </header>
    <header>
      <identifier>oai:zenodo.org:283191</identifier>
      <datestamp>2017-02-09T08:18:51Z</datestamp>
      <setSpec>user-biosyslit</setSpec>
    </header>
    <header>
      <identifier>oai:zenodo.org:283194</identifier>
      <datestamp>2017-02-09T08:18:57Z</datestamp>
      <setSpec>user-biosyslit</setSpec>
    </header>
    <header>
      <identifier>oai:zenodo.org:228570</identifier>
      <datestamp>2017-01-03T01:45:06Z</datestamp>
      <setSpec>user-biosyslit</setSpec>
    </header>
    <header>
      <identifier>oai:zenodo.org:237181</identifier>
      <datestamp>2017-01-10T11:49:35Z</datestamp>
      <setSpec>user-biosyslit</setSpec>
    </header>
    <header>
      <identifier>oai:zenodo.org:227286</identifier>
      <datestamp>2017-01-01T18:58:14Z</datestamp>
      <setSpec>user-biosyslit</setSpec>
    </header>
    <header>
      <identifier>oai:zenodo.org:233222</identifier>
      <datestamp>2017-01-08T02:18:13Z</datestamp>
      <setSpec>user-biosyslit</setSpec>
    </header>
    <header>
      <identifier>oai:zenodo.org:234439</identifier>
      <datestamp>2017-01-08T19:44:13Z</datestamp>
      <setSpec>user-biosyslit</setSpec>
    </header>
    <header>
      <identifier>oai:zenodo.org:237113</identifier>
      <datestamp>2017-01-10T10:57:01Z</datestamp>
      <setSpec>user-biosyslit</setSpec>
    </header>
    <header>
      <identifier>oai:zenodo.org:262627</identifier>
      <datestamp>2017-01-29T06:25:49Z</datestamp>
      <setSpec>user-biosyslit</setSpec>
    </header>
    <header>
      <identifier>oai:zenodo.org:262628</identifier>
      <datestamp>2017-01-29T06:25:52Z</datestamp>
      <setSpec>user-biosyslit</setSpec>
    </header>
    <header>
      <identifier>oai:zenodo.org:261179</identifier>
      <datestamp>2017-01-28T06:10:39Z</datestamp>
      <setSpec>user-biosyslit</setSpec>
    </header>
    <header>
      <identifier>oai:zenodo.org:261171</identifier>
      <datestamp>2017-01-28T06:10:19Z</datestamp>
      <setSpec>user-biosyslit</setSpec>
    </header>
    <header>
      <identifier>oai:zenodo.org:261180</identifier>
      <datestamp>2017-01-28T06:10:42Z</datestamp>
      <setSpec>user-biosyslit</setSpec>
    </header>
    <header>
      <identifier>oai:zenodo.org:261175</identifier>
      <datestamp>2017-01-28T06:10:28Z</datestamp>
      <setSpec>user-biosyslit</setSpec>
    </header>
    <header>
      <identifier>oai:zenodo.org:261173</identifier>
      <datestamp>2017-01-28T06:10:24Z</datestamp>
      <setSpec>user-biosyslit</setSpec>
    </header>
    <header>
      <identifier>oai:zenodo.org:261169</identifier>
      <datestamp>2017-01-28T06:10:13Z</datestamp>
      <setSpec>user-biosyslit</setSpec>
    </header>
    <header>
      <identifier>oai:zenodo.org:244905</identifier>
      <datestamp>2017-01-15T04:54:51Z</datestamp>
      <setSpec>user-biosyslit</setSpec>
    </header>
    <header>
      <identifier>oai:zenodo.org:244906</identifier>
      <datestamp>2017-01-15T04:54:57Z</datestamp>
      <setSpec>user-biosyslit</setSpec>
    </header>
    <header>
      <identifier>oai:zenodo.org:244904</identifier>
      <datestamp>2017-01-15T04:54:58Z</datestamp>
      <setSpec>user-biosyslit</setSpec>
    </header>
    <header>
      <identifier>oai:zenodo.org:264732</identifier>
      <datestamp>2017-01-31T01:47:49Z</datestamp>
      <setSpec>user-biosyslit</setSpec>
    </header>
    <header>
      <identifier>oai:zenodo.org:264735</identifier>
      <datestamp>2017-01-31T01:47:35Z</datestamp>
      <setSpec>user-biosyslit</setSpec>
    </header>
    <header>
      <identifier>oai:zenodo.org:264737</identifier>
      <datestamp>2017-01-31T01:47:43Z</datestamp>
      <setSpec>user-biosyslit</setSpec>
    </header>
    <header>
      <identifier>oai:zenodo.org:283824</identifier>
      <datestamp>2017-02-09T09:52:47Z</datestamp>
      <setSpec>user-biosyslit</setSpec>
    </header>
    <header>
      <identifier>oai:zenodo.org:283826</identifier>
      <datestamp>2017-02-09T09:52:43Z</datestamp>
      <setSpec>user-biosyslit</setSpec>
    </header>
    <header>
      <identifier>oai:zenodo.org:283827</identifier>
      <datestamp>2017-02-09T09:52:44Z</datestamp>
      <setSpec>user-biosyslit</setSpec>
    </header>
    <header>
      <identifier>oai:zenodo.org:283828</identifier>
      <datestamp>2017-02-09T09:52:46Z</datestamp>
      <setSpec>user-biosyslit</setSpec>
    </header>
    <header>
      <identifier>oai:zenodo.org:274086</identifier>
      <datestamp>2017-02-08T12:06:06Z</datestamp>
      <setSpec>user-biosyslit</setSpec>
    </header>
    <header>
      <identifier>oai:zenodo.org:274085</identifier>
      <datestamp>2017-02-08T12:06:04Z</datestamp>
      <setSpec>user-biosyslit</setSpec>
    </header>
    <header>
      <identifier>oai:zenodo.org:285845</identifier>
      <datestamp>2017-02-09T14:41:29Z</datestamp>
      <setSpec>user-biosyslit</setSpec>
    </header>
    <header>
      <identifier>oai:zenodo.org:285846</identifier>
      <datestamp>2017-02-09T14:41:31Z</datestamp>
      <setSpec>user-biosyslit</setSpec>
    </header>
    <header>
      <identifier>oai:zenodo.org:285844</identifier>
      <datestamp>2017-02-09T14:41:27Z</datestamp>
      <setSpec>user-biosyslit</setSpec>
    </header>
    <header>
      <identifier>oai:zenodo.org:285851</identifier>
      <datestamp>2017-02-09T14:41:42Z</datestamp>
      <setSpec>user-biosyslit</setSpec>
    </header>
    <header>
      <identifier>oai:zenodo.org:285849</identifier>
      <datestamp>2017-02-09T14:41:37Z</datestamp>
      <setSpec>user-biosyslit</setSpec>
    </header>
    <header>
      <identifier>oai:zenodo.org:285839</identifier>
      <datestamp>2017-02-09T14:41:17Z</datestamp>
      <setSpec>user-biosyslit</setSpec>
    </header>
    <header>
      <identifier>oai:zenodo.org:285847</identifier>
      <datestamp>2017-02-09T14:41:33Z</datestamp>
      <setSpec>user-biosyslit</setSpec>
    </header>
    <header>
      <identifier>oai:zenodo.org:253866</identifier>
      <datestamp>2017-01-20T11:57:00Z</datestamp>
      <setSpec>user-biosyslit</setSpec>
    </header>
    <header>
      <identifier>oai:zenodo.org:253876</identifier>
      <datestamp>2017-01-20T11:56:59Z</datestamp>
      <setSpec>user-biosyslit</setSpec>
    </header>
    <header>
      <identifier>oai:zenodo.org:239534</identifier>
      <datestamp>2017-01-11T21:59:39Z</datestamp>
      <setSpec>user-biosyslit</setSpec>
    </header>
    <header>
      <identifier>oai:zenodo.org:239539</identifier>
      <datestamp>2017-01-11T21:59:29Z</datestamp>
      <setSpec>user-biosyslit</setSpec>
    </header>
    <header>
      <identifier>oai:zenodo.org:239540</identifier>
      <datestamp>2017-01-11T21:59:35Z</datestamp>
      <setSpec>user-biosyslit</setSpec>
    </header>
    <header>
      <identifier>oai:zenodo.org:239535</identifier>
      <datestamp>2017-01-11T21:59:09Z</datestamp>
      <setSpec>user-biosyslit</setSpec>
    </header>
    <header>
      <identifier>oai:zenodo.org:239538</identifier>
      <datestamp>2017-01-11T21:59:25Z</datestamp>
      <setSpec>user-biosyslit</setSpec>
    </header>
    <header>
      <identifier>oai:zenodo.org:276851</identifier>
      <datestamp>2017-02-08T19:49:19Z</datestamp>
      <setSpec>user-biosyslit</setSpec>
    </header>
    <header>
      <identifier>oai:zenodo.org:235342</identifier>
      <datestamp>2017-01-09T09:11:35Z</datestamp>
      <setSpec>user-biosyslit</setSpec>
    </header>
    <header>
      <identifier>oai:zenodo.org:235343</identifier>
      <datestamp>2017-01-09T09:11:38Z</datestamp>
      <setSpec>user-biosyslit</setSpec>
    </header>
    <header>
      <identifier>oai:zenodo.org:273437</identifier>
      <datestamp>2017-02-08T09:22:02Z</datestamp>
      <setSpec>user-biosyslit</setSpec>
    </header>
    <header>
      <identifier>oai:zenodo.org:236627</identifier>
      <datestamp>2017-01-10T02:10:43Z</datestamp>
      <setSpec>user-biosyslit</setSpec>
    </header>
    <header>
      <identifier>oai:zenodo.org:273443</identifier>
      <datestamp>2017-02-08T09:22:00Z</datestamp>
      <setSpec>user-biosyslit</setSpec>
    </header>
    <resumptionToken expirationDate="2017-08-31T15:48:08Z" cursor="73100" completeListSize="77796">.eJyNyk0LgjAYAOD_8p4ltr3RUugSmnRIsbWRXsKmSLU-cEU66b_XpXOdn2cAW9cVBGTEfTYZTxkbIxJ_wj2wur0aszt8FPRWGX0xsozVY31WJGcNT0LbrcIcE3ci6Zk6scjYlk47eSB9tpH33K07hcunIBFfuaxPjsvPqzCNTbGPb0Je5kawqk2jrBd0LgrU30f_fO7nC-0MPLiVTQ0BR_Tg9CzbxkIwvF5vbadREA.DInAwA.HrS7B6-7Z4CjyGVjw3ObOzyTblE</resumptionToken>
  </ListIdentifiers>
</OAI-PMH>
