<?xml version='1.0' encoding='UTF-8'?>
<?xml-stylesheet type="text/xsl" href="/static/xsl/oai2.v1.0.xsl"?>
<OAI-PMH xmlns="http://www.openarchives.org/OAI/2.0/" xmlns:xsi="http://www.w3.org/2001/XMLSchema-instance" xsi:schemaLocation="http://www.openarchives.org/OAI/2.0/ http://www.openarchives.org/OAI/2.0/OAI-PMH.xsd">
  <responseDate>2017-08-31T15:41:20Z</responseDate>
  <request verb="ListIdentifiers" resumptionToken=".eJyNysEOQzAYAOB3-c-yVM1qkl2EiQNCR8ZlMURMmegWVLz7XHbezt-3AC_LAnS0I4iQI1IPGsFYI0SVgOfDk7FbvTHk15jlHYsyO36HbYwSXBHP5JNrJoonGuS3sqDnAF9lbYpqNAeX6JWIcIoVZ6TIIq4IZu_hbK9QfJuld7unUWcwiovBt4KZygZNlfz75D-f-PlMfgIJ-qwqQd9rEjRjNlQc9GVdP1zcUR4.DIm_oA.v3u_GpYAjleU_m_e9KH33RvDLTk">https://zenodo.org/oai2d</request>
  <ListIdentifiers>
    <header>
      <identifier>oai:zenodo.org:277304</identifier>
      <datestamp>2017-02-08T20:49:58Z</datestamp>
      <setSpec>user-biosyslit</setSpec>
    </header>
    <header>
      <identifier>oai:zenodo.org:277139</identifier>
      <datestamp>2017-02-08T20:29:15Z</datestamp>
      <setSpec>user-biosyslit</setSpec>
    </header>
    <header>
      <identifier>oai:zenodo.org:277204</identifier>
      <datestamp>2017-02-08T20:35:05Z</datestamp>
      <setSpec>user-biosyslit</setSpec>
    </header>
    <header>
      <identifier>oai:zenodo.org:278420</identifier>
      <datestamp>2017-02-08T23:08:16Z</datestamp>
      <setSpec>user-biosyslit</setSpec>
    </header>
    <header>
      <identifier>oai:zenodo.org:278402</identifier>
      <datestamp>2017-02-08T23:05:44Z</datestamp>
      <setSpec>user-biosyslit</setSpec>
    </header>
    <header>
      <identifier>oai:zenodo.org:279632</identifier>
      <datestamp>2017-02-09T01:45:48Z</datestamp>
      <setSpec>user-biosyslit</setSpec>
    </header>
    <header>
      <identifier>oai:zenodo.org:279212</identifier>
      <datestamp>2017-02-09T00:48:50Z</datestamp>
      <setSpec>user-biosyslit</setSpec>
    </header>
    <header>
      <identifier>oai:zenodo.org:278628</identifier>
      <datestamp>2017-02-08T23:33:18Z</datestamp>
      <setSpec>user-biosyslit</setSpec>
    </header>
    <header>
      <identifier>oai:zenodo.org:278916</identifier>
      <datestamp>2017-02-09T00:07:20Z</datestamp>
      <setSpec>user-biosyslit</setSpec>
    </header>
    <header>
      <identifier>oai:zenodo.org:241605</identifier>
      <datestamp>2017-01-13T03:49:09Z</datestamp>
      <setSpec>user-biosyslit</setSpec>
    </header>
    <header>
      <identifier>oai:zenodo.org:271658</identifier>
      <datestamp>2017-02-08T02:08:57Z</datestamp>
      <setSpec>user-biosyslit</setSpec>
    </header>
    <header>
      <identifier>oai:zenodo.org:271633</identifier>
      <datestamp>2017-02-08T02:05:59Z</datestamp>
      <setSpec>user-biosyslit</setSpec>
    </header>
    <header>
      <identifier>oai:zenodo.org:241667</identifier>
      <datestamp>2017-01-13T04:37:20Z</datestamp>
      <setSpec>user-biosyslit</setSpec>
    </header>
    <header>
      <identifier>oai:zenodo.org:242999</identifier>
      <datestamp>2017-01-13T21:50:27Z</datestamp>
      <setSpec>user-biosyslit</setSpec>
    </header>
    <header>
      <identifier>oai:zenodo.org:279814</identifier>
      <datestamp>2017-02-09T02:05:41Z</datestamp>
      <setSpec>user-biosyslit</setSpec>
    </header>
    <header>
      <identifier>oai:zenodo.org:279405</identifier>
      <datestamp>2017-02-09T01:14:45Z</datestamp>
      <setSpec>user-biosyslit</setSpec>
    </header>
    <header>
      <identifier>oai:zenodo.org:279145</identifier>
      <datestamp>2017-02-09T00:42:02Z</datestamp>
      <setSpec>user-biosyslit</setSpec>
    </header>
    <header>
      <identifier>oai:zenodo.org:242571</identifier>
      <datestamp>2017-01-13T16:57:58Z</datestamp>
      <setSpec>user-biosyslit</setSpec>
    </header>
    <header>
      <identifier>oai:zenodo.org:242714</identifier>
      <datestamp>2017-01-13T18:57:54Z</datestamp>
      <setSpec>user-biosyslit</setSpec>
    </header>
    <header>
      <identifier>oai:zenodo.org:243603</identifier>
      <datestamp>2017-01-14T08:02:45Z</datestamp>
      <setSpec>user-biosyslit</setSpec>
    </header>
    <header>
      <identifier>oai:zenodo.org:243006</identifier>
      <datestamp>2017-01-13T21:50:51Z</datestamp>
      <setSpec>user-biosyslit</setSpec>
    </header>
    <header>
      <identifier>oai:zenodo.org:272177</identifier>
      <datestamp>2017-02-08T03:55:51Z</datestamp>
      <setSpec>user-biosyslit</setSpec>
    </header>
    <header>
      <identifier>oai:zenodo.org:244047</identifier>
      <datestamp>2017-01-14T15:42:40Z</datestamp>
      <setSpec>user-biosyslit</setSpec>
    </header>
    <header>
      <identifier>oai:zenodo.org:243767</identifier>
      <datestamp>2017-01-14T10:39:09Z</datestamp>
      <setSpec>user-biosyslit</setSpec>
    </header>
    <header>
      <identifier>oai:zenodo.org:243773</identifier>
      <datestamp>2017-01-14T10:39:04Z</datestamp>
      <setSpec>user-biosyslit</setSpec>
    </header>
    <header>
      <identifier>oai:zenodo.org:275780</identifier>
      <datestamp>2017-02-08T17:04:38Z</datestamp>
      <setSpec>user-biosyslit</setSpec>
    </header>
    <header>
      <identifier>oai:zenodo.org:244526</identifier>
      <datestamp>2017-01-14T23:05:34Z</datestamp>
      <setSpec>user-biosyslit</setSpec>
    </header>
    <header>
      <identifier>oai:zenodo.org:275564</identifier>
      <datestamp>2017-02-08T16:42:24Z</datestamp>
      <setSpec>user-biosyslit</setSpec>
    </header>
    <header>
      <identifier>oai:zenodo.org:246355</identifier>
      <datestamp>2017-01-16T01:15:37Z</datestamp>
      <setSpec>user-biosyslit</setSpec>
    </header>
    <header>
      <identifier>oai:zenodo.org:244647</identifier>
      <datestamp>2017-01-15T00:30:13Z</datestamp>
      <setSpec>user-biosyslit</setSpec>
    </header>
    <header>
      <identifier>oai:zenodo.org:245868</identifier>
      <datestamp>2017-01-15T19:12:00Z</datestamp>
      <setSpec>user-biosyslit</setSpec>
    </header>
    <header>
      <identifier>oai:zenodo.org:245991</identifier>
      <datestamp>2017-01-15T20:29:58Z</datestamp>
      <setSpec>user-biosyslit</setSpec>
    </header>
    <header>
      <identifier>oai:zenodo.org:246855</identifier>
      <datestamp>2017-01-16T09:21:34Z</datestamp>
      <setSpec>user-biosyslit</setSpec>
    </header>
    <header>
      <identifier>oai:zenodo.org:245277</identifier>
      <datestamp>2017-01-15T11:16:10Z</datestamp>
      <setSpec>user-biosyslit</setSpec>
    </header>
    <header>
      <identifier>oai:zenodo.org:245436</identifier>
      <datestamp>2017-01-15T13:12:35Z</datestamp>
      <setSpec>user-biosyslit</setSpec>
    </header>
    <header>
      <identifier>oai:zenodo.org:246277</identifier>
      <datestamp>2017-01-15T23:46:23Z</datestamp>
      <setSpec>user-biosyslit</setSpec>
    </header>
    <header>
      <identifier>oai:zenodo.org:245631</identifier>
      <datestamp>2017-01-15T16:40:25Z</datestamp>
      <setSpec>user-biosyslit</setSpec>
    </header>
    <header>
      <identifier>oai:zenodo.org:245923</identifier>
      <datestamp>2017-01-15T19:26:59Z</datestamp>
      <setSpec>user-biosyslit</setSpec>
    </header>
    <header>
      <identifier>oai:zenodo.org:246459</identifier>
      <datestamp>2017-01-16T02:28:59Z</datestamp>
      <setSpec>user-biosyslit</setSpec>
    </header>
    <header>
      <identifier>oai:zenodo.org:246112</identifier>
      <datestamp>2017-01-15T22:19:06Z</datestamp>
      <setSpec>user-biosyslit</setSpec>
    </header>
    <header>
      <identifier>oai:zenodo.org:246350</identifier>
      <datestamp>2017-01-16T01:15:17Z</datestamp>
      <setSpec>user-biosyslit</setSpec>
    </header>
    <header>
      <identifier>oai:zenodo.org:246730</identifier>
      <datestamp>2017-01-16T07:16:44Z</datestamp>
      <setSpec>user-biosyslit</setSpec>
    </header>
    <header>
      <identifier>oai:zenodo.org:246814</identifier>
      <datestamp>2017-01-16T08:55:39Z</datestamp>
      <setSpec>user-biosyslit</setSpec>
    </header>
    <header>
      <identifier>oai:zenodo.org:246589</identifier>
      <datestamp>2017-01-16T04:20:29Z</datestamp>
      <setSpec>user-biosyslit</setSpec>
    </header>
    <header>
      <identifier>oai:zenodo.org:246701</identifier>
      <datestamp>2017-01-16T06:59:25Z</datestamp>
      <setSpec>user-biosyslit</setSpec>
    </header>
    <header>
      <identifier>oai:zenodo.org:246839</identifier>
      <datestamp>2017-01-16T09:09:38Z</datestamp>
      <setSpec>user-biosyslit</setSpec>
    </header>
    <header>
      <identifier>oai:zenodo.org:247499</identifier>
      <datestamp>2017-01-16T16:28:53Z</datestamp>
      <setSpec>user-biosyslit</setSpec>
    </header>
    <header>
      <identifier>oai:zenodo.org:247071</identifier>
      <datestamp>2017-01-16T11:08:59Z</datestamp>
      <setSpec>user-biosyslit</setSpec>
    </header>
    <header>
      <identifier>oai:zenodo.org:247454</identifier>
      <datestamp>2017-01-16T15:30:28Z</datestamp>
      <setSpec>user-biosyslit</setSpec>
    </header>
    <header>
      <identifier>oai:zenodo.org:272855</identifier>
      <datestamp>2017-02-08T06:30:44Z</datestamp>
      <setSpec>user-biosyslit</setSpec>
    </header>
    <header>
      <identifier>oai:zenodo.org:248199</identifier>
      <datestamp>2017-01-17T01:10:21Z</datestamp>
      <setSpec>user-biosyslit</setSpec>
    </header>
    <header>
      <identifier>oai:zenodo.org:247592</identifier>
      <datestamp>2017-01-16T17:14:00Z</datestamp>
      <setSpec>user-biosyslit</setSpec>
    </header>
    <header>
      <identifier>oai:zenodo.org:247945</identifier>
      <datestamp>2017-01-16T21:55:16Z</datestamp>
      <setSpec>user-biosyslit</setSpec>
    </header>
    <header>
      <identifier>oai:zenodo.org:248141</identifier>
      <datestamp>2017-01-17T00:26:37Z</datestamp>
      <setSpec>user-biosyslit</setSpec>
    </header>
    <header>
      <identifier>oai:zenodo.org:248088</identifier>
      <datestamp>2017-01-16T23:47:12Z</datestamp>
      <setSpec>user-biosyslit</setSpec>
    </header>
    <header>
      <identifier>oai:zenodo.org:272438</identifier>
      <datestamp>2017-02-08T04:39:26Z</datestamp>
      <setSpec>user-biosyslit</setSpec>
    </header>
    <header>
      <identifier>oai:zenodo.org:250207</identifier>
      <datestamp>2017-01-18T06:54:11Z</datestamp>
      <setSpec>user-biosyslit</setSpec>
    </header>
    <header>
      <identifier>oai:zenodo.org:249420</identifier>
      <datestamp>2017-01-17T19:48:09Z</datestamp>
      <setSpec>user-biosyslit</setSpec>
    </header>
    <header>
      <identifier>oai:zenodo.org:249327</identifier>
      <datestamp>2017-01-17T18:43:36Z</datestamp>
      <setSpec>user-biosyslit</setSpec>
    </header>
    <header>
      <identifier>oai:zenodo.org:250319</identifier>
      <datestamp>2017-01-18T08:18:45Z</datestamp>
      <setSpec>user-biosyslit</setSpec>
    </header>
    <header>
      <identifier>oai:zenodo.org:250282</identifier>
      <datestamp>2017-01-18T07:55:07Z</datestamp>
      <setSpec>user-biosyslit</setSpec>
    </header>
    <header>
      <identifier>oai:zenodo.org:273003</identifier>
      <datestamp>2017-02-08T06:57:56Z</datestamp>
      <setSpec>user-biosyslit</setSpec>
    </header>
    <header>
      <identifier>oai:zenodo.org:249601</identifier>
      <datestamp>2017-01-17T21:32:41Z</datestamp>
      <setSpec>user-biosyslit</setSpec>
    </header>
    <header>
      <identifier>oai:zenodo.org:249414</identifier>
      <datestamp>2017-01-17T19:47:46Z</datestamp>
      <setSpec>user-biosyslit</setSpec>
    </header>
    <header>
      <identifier>oai:zenodo.org:251056</identifier>
      <datestamp>2017-01-18T18:22:56Z</datestamp>
      <setSpec>user-biosyslit</setSpec>
    </header>
    <header>
      <identifier>oai:zenodo.org:249964</identifier>
      <datestamp>2017-01-18T02:41:55Z</datestamp>
      <setSpec>user-biosyslit</setSpec>
    </header>
    <header>
      <identifier>oai:zenodo.org:250953</identifier>
      <datestamp>2017-01-18T16:43:20Z</datestamp>
      <setSpec>user-biosyslit</setSpec>
    </header>
    <header>
      <identifier>oai:zenodo.org:250523</identifier>
      <datestamp>2017-01-18T11:23:00Z</datestamp>
      <setSpec>user-biosyslit</setSpec>
    </header>
    <header>
      <identifier>oai:zenodo.org:250343</identifier>
      <datestamp>2017-01-18T08:42:01Z</datestamp>
      <setSpec>user-biosyslit</setSpec>
    </header>
    <header>
      <identifier>oai:zenodo.org:250631</identifier>
      <datestamp>2017-01-18T13:14:37Z</datestamp>
      <setSpec>user-biosyslit</setSpec>
    </header>
    <header>
      <identifier>oai:zenodo.org:250428</identifier>
      <datestamp>2017-01-18T10:13:42Z</datestamp>
      <setSpec>user-biosyslit</setSpec>
    </header>
    <header>
      <identifier>oai:zenodo.org:250072</identifier>
      <datestamp>2017-01-18T04:23:20Z</datestamp>
      <setSpec>user-biosyslit</setSpec>
    </header>
    <header>
      <identifier>oai:zenodo.org:250886</identifier>
      <datestamp>2017-01-18T16:11:11Z</datestamp>
      <setSpec>user-biosyslit</setSpec>
    </header>
    <header>
      <identifier>oai:zenodo.org:272987</identifier>
      <datestamp>2017-02-08T06:56:59Z</datestamp>
      <setSpec>user-biosyslit</setSpec>
    </header>
    <header>
      <identifier>oai:zenodo.org:275783</identifier>
      <datestamp>2017-02-08T17:05:51Z</datestamp>
      <setSpec>user-biosyslit</setSpec>
    </header>
    <header>
      <identifier>oai:zenodo.org:251299</identifier>
      <datestamp>2017-01-18T21:19:58Z</datestamp>
      <setSpec>user-biosyslit</setSpec>
    </header>
    <header>
      <identifier>oai:zenodo.org:279685</identifier>
      <datestamp>2017-02-09T01:51:08Z</datestamp>
      <setSpec>user-biosyslit</setSpec>
    </header>
    <header>
      <identifier>oai:zenodo.org:273216</identifier>
      <datestamp>2017-02-08T08:28:57Z</datestamp>
      <setSpec>user-biosyslit</setSpec>
    </header>
    <header>
      <identifier>oai:zenodo.org:276166</identifier>
      <datestamp>2017-02-08T18:16:44Z</datestamp>
      <setSpec>user-biosyslit</setSpec>
    </header>
    <header>
      <identifier>oai:zenodo.org:273211</identifier>
      <datestamp>2017-02-08T08:28:42Z</datestamp>
      <setSpec>user-biosyslit</setSpec>
    </header>
    <header>
      <identifier>oai:zenodo.org:276200</identifier>
      <datestamp>2017-02-08T18:23:09Z</datestamp>
      <setSpec>user-biosyslit</setSpec>
    </header>
    <header>
      <identifier>oai:zenodo.org:252323</identifier>
      <datestamp>2017-01-19T11:56:50Z</datestamp>
      <setSpec>user-biosyslit</setSpec>
    </header>
    <header>
      <identifier>oai:zenodo.org:252083</identifier>
      <datestamp>2017-01-19T08:55:39Z</datestamp>
      <setSpec>user-biosyslit</setSpec>
    </header>
    <header>
      <identifier>oai:zenodo.org:253517</identifier>
      <datestamp>2017-01-20T07:57:11Z</datestamp>
      <setSpec>user-biosyslit</setSpec>
    </header>
    <header>
      <identifier>oai:zenodo.org:252321</identifier>
      <datestamp>2017-01-19T11:56:42Z</datestamp>
      <setSpec>user-biosyslit</setSpec>
    </header>
    <header>
      <identifier>oai:zenodo.org:253221</identifier>
      <datestamp>2017-01-20T04:33:29Z</datestamp>
      <setSpec>user-biosyslit</setSpec>
    </header>
    <header>
      <identifier>oai:zenodo.org:252896</identifier>
      <datestamp>2017-01-19T22:39:08Z</datestamp>
      <setSpec>user-biosyslit</setSpec>
    </header>
    <header>
      <identifier>oai:zenodo.org:253131</identifier>
      <datestamp>2017-01-20T02:35:12Z</datestamp>
      <setSpec>user-biosyslit</setSpec>
    </header>
    <header>
      <identifier>oai:zenodo.org:279457</identifier>
      <datestamp>2017-02-09T01:22:35Z</datestamp>
      <setSpec>user-biosyslit</setSpec>
    </header>
    <header>
      <identifier>oai:zenodo.org:252997</identifier>
      <datestamp>2017-01-20T01:05:08Z</datestamp>
      <setSpec>user-biosyslit</setSpec>
    </header>
    <header>
      <identifier>oai:zenodo.org:254119</identifier>
      <datestamp>2017-01-20T15:20:30Z</datestamp>
      <setSpec>user-biosyslit</setSpec>
    </header>
    <header>
      <identifier>oai:zenodo.org:254135</identifier>
      <datestamp>2017-01-20T15:21:21Z</datestamp>
      <setSpec>user-biosyslit</setSpec>
    </header>
    <header>
      <identifier>oai:zenodo.org:276508</identifier>
      <datestamp>2017-02-08T19:00:35Z</datestamp>
      <setSpec>user-biosyslit</setSpec>
    </header>
    <header>
      <identifier>oai:zenodo.org:254660</identifier>
      <datestamp>2017-01-21T01:08:51Z</datestamp>
      <setSpec>user-biosyslit</setSpec>
    </header>
    <header>
      <identifier>oai:zenodo.org:254880</identifier>
      <datestamp>2017-01-21T04:21:45Z</datestamp>
      <setSpec>user-biosyslit</setSpec>
    </header>
    <header>
      <identifier>oai:zenodo.org:254501</identifier>
      <datestamp>2017-01-20T19:34:39Z</datestamp>
      <setSpec>user-biosyslit</setSpec>
    </header>
    <header>
      <identifier>oai:zenodo.org:254606</identifier>
      <datestamp>2017-01-20T23:44:15Z</datestamp>
      <setSpec>user-biosyslit</setSpec>
    </header>
    <header>
      <identifier>oai:zenodo.org:254863</identifier>
      <datestamp>2017-01-21T04:13:12Z</datestamp>
      <setSpec>user-biosyslit</setSpec>
    </header>
    <header>
      <identifier>oai:zenodo.org:254842</identifier>
      <datestamp>2017-01-21T04:00:03Z</datestamp>
      <setSpec>user-biosyslit</setSpec>
    </header>
    <header>
      <identifier>oai:zenodo.org:254589</identifier>
      <datestamp>2017-01-20T22:37:01Z</datestamp>
      <setSpec>user-biosyslit</setSpec>
    </header>
    <resumptionToken expirationDate="2017-08-31T15:43:20Z" cursor="4700" completeListSize="77796">.eJyNz8EOQzAAgOF36VmWtmxWyS7CxAGpjozLYoiYMtEtqHj3uey8nf_v8i9AlGUBDLjT0P6AECYEYkw0SBQg8uHJ-a3eMsivMc87HmVO_A7bGCa40n1LTJ6VqL5sYNAiyc4UX9Fximo400v0SmQ4xao7MmjrnqSz_3A3V6iBw9O707OoMznDxRDYdGbIZKmafx3608mfzhInoIA-q0pgaNtUM2ZDJYCxrOsHR8JRCA.DIm_oA.4J9cMIxOeDMXN0ZGyuJzIxjeegM</resumptionToken>
  </ListIdentifiers>
</OAI-PMH>
