<?xml version='1.0' encoding='UTF-8'?>
<?xml-stylesheet type="text/xsl" href="/static/xsl/oai2.v1.0.xsl"?>
<OAI-PMH xmlns="http://www.openarchives.org/OAI/2.0/" xmlns:xsi="http://www.w3.org/2001/XMLSchema-instance" xsi:schemaLocation="http://www.openarchives.org/OAI/2.0/ http://www.openarchives.org/OAI/2.0/OAI-PMH.xsd">
  <responseDate>2017-08-31T15:41:17Z</responseDate>
  <request verb="ListIdentifiers" resumptionToken=".eJyNyssKgkAUANB_uWuJefhCaCOauEjRSVE3YSpiTSVOoY7477lpXZztWUA0TQ0W2iGi6UjDqmmQDSW6qoCohifn524LUGUprx48Kb30Hd9TlJPWCBwxHZ2cBvKGwjuW7BCRDJtT0qE5OiWvXMZTSv2RIdc4ymgOrv72ahp6vLh4PUseNmekHkI3mhm2WUGr78N_PvnzOWIPCvRl24ClIgVuYzm0AqxlXT-vJFFm.DIm_nQ.3tvBay25oJEnCccqv7V1C_M9kic">https://zenodo.org/oai2d</request>
  <ListIdentifiers>
    <header>
      <identifier>oai:zenodo.org:274612</identifier>
      <datestamp>2017-02-08T13:49:05Z</datestamp>
      <setSpec>user-biosyslit</setSpec>
    </header>
    <header>
      <identifier>oai:zenodo.org:269184</identifier>
      <datestamp>2017-02-06T23:03:43Z</datestamp>
      <setSpec>user-biosyslit</setSpec>
    </header>
    <header>
      <identifier>oai:zenodo.org:275796</identifier>
      <datestamp>2017-02-08T17:05:34Z</datestamp>
      <setSpec>user-biosyslit</setSpec>
    </header>
    <header>
      <identifier>oai:zenodo.org:269486</identifier>
      <datestamp>2017-02-07T00:42:51Z</datestamp>
      <setSpec>user-biosyslit</setSpec>
    </header>
    <header>
      <identifier>oai:zenodo.org:269052</identifier>
      <datestamp>2017-02-06T22:36:29Z</datestamp>
      <setSpec>user-biosyslit</setSpec>
    </header>
    <header>
      <identifier>oai:zenodo.org:275064</identifier>
      <datestamp>2017-02-08T15:13:52Z</datestamp>
      <setSpec>user-biosyslit</setSpec>
    </header>
    <header>
      <identifier>oai:zenodo.org:275642</identifier>
      <datestamp>2017-02-08T16:50:54Z</datestamp>
      <setSpec>user-biosyslit</setSpec>
    </header>
    <header>
      <identifier>oai:zenodo.org:278223</identifier>
      <datestamp>2017-02-08T22:40:32Z</datestamp>
      <setSpec>user-biosyslit</setSpec>
    </header>
    <header>
      <identifier>oai:zenodo.org:277036</identifier>
      <datestamp>2017-02-08T20:15:04Z</datestamp>
      <setSpec>user-biosyslit</setSpec>
    </header>
    <header>
      <identifier>oai:zenodo.org:277883</identifier>
      <datestamp>2017-02-08T22:00:56Z</datestamp>
      <setSpec>user-biosyslit</setSpec>
    </header>
    <header>
      <identifier>oai:zenodo.org:278241</identifier>
      <datestamp>2017-02-08T22:42:07Z</datestamp>
      <setSpec>user-biosyslit</setSpec>
    </header>
    <header>
      <identifier>oai:zenodo.org:278174</identifier>
      <datestamp>2017-02-08T22:36:49Z</datestamp>
      <setSpec>user-biosyslit</setSpec>
    </header>
    <header>
      <identifier>oai:zenodo.org:278909</identifier>
      <datestamp>2017-02-09T00:05:53Z</datestamp>
      <setSpec>user-biosyslit</setSpec>
    </header>
    <header>
      <identifier>oai:zenodo.org:278272</identifier>
      <datestamp>2017-02-08T22:46:18Z</datestamp>
      <setSpec>user-biosyslit</setSpec>
    </header>
    <header>
      <identifier>oai:zenodo.org:278920</identifier>
      <datestamp>2017-02-09T00:09:24Z</datestamp>
      <setSpec>user-biosyslit</setSpec>
    </header>
    <header>
      <identifier>oai:zenodo.org:278585</identifier>
      <datestamp>2017-02-08T23:28:07Z</datestamp>
      <setSpec>user-biosyslit</setSpec>
    </header>
    <header>
      <identifier>oai:zenodo.org:280080</identifier>
      <datestamp>2017-02-09T02:37:36Z</datestamp>
      <setSpec>user-biosyslit</setSpec>
    </header>
    <header>
      <identifier>oai:zenodo.org:279369</identifier>
      <datestamp>2017-02-09T01:09:58Z</datestamp>
      <setSpec>user-biosyslit</setSpec>
    </header>
    <header>
      <identifier>oai:zenodo.org:280359</identifier>
      <datestamp>2017-02-09T03:15:48Z</datestamp>
      <setSpec>user-biosyslit</setSpec>
    </header>
    <header>
      <identifier>oai:zenodo.org:281253</identifier>
      <datestamp>2017-02-09T05:01:15Z</datestamp>
      <setSpec>user-biosyslit</setSpec>
    </header>
    <header>
      <identifier>oai:zenodo.org:281064</identifier>
      <datestamp>2017-02-09T04:39:57Z</datestamp>
      <setSpec>user-biosyslit</setSpec>
    </header>
    <header>
      <identifier>oai:zenodo.org:281179</identifier>
      <datestamp>2017-02-09T04:52:35Z</datestamp>
      <setSpec>user-biosyslit</setSpec>
    </header>
    <header>
      <identifier>oai:zenodo.org:281080</identifier>
      <datestamp>2017-02-09T04:41:23Z</datestamp>
      <setSpec>user-biosyslit</setSpec>
    </header>
    <header>
      <identifier>oai:zenodo.org:281548</identifier>
      <datestamp>2017-02-09T05:30:47Z</datestamp>
      <setSpec>user-biosyslit</setSpec>
    </header>
    <header>
      <identifier>oai:zenodo.org:259890</identifier>
      <datestamp>2017-01-25T17:11:32Z</datestamp>
      <setSpec>user-biosyslit</setSpec>
    </header>
    <header>
      <identifier>oai:zenodo.org:261992</identifier>
      <datestamp>2017-01-28T19:11:26Z</datestamp>
      <setSpec>user-biosyslit</setSpec>
    </header>
    <header>
      <identifier>oai:zenodo.org:273904</identifier>
      <datestamp>2017-02-08T11:10:24Z</datestamp>
      <setSpec>user-biosyslit</setSpec>
    </header>
    <header>
      <identifier>oai:zenodo.org:261402</identifier>
      <datestamp>2017-01-28T08:44:35Z</datestamp>
      <setSpec>user-biosyslit</setSpec>
    </header>
    <header>
      <identifier>oai:zenodo.org:275141</identifier>
      <datestamp>2017-02-08T15:24:19Z</datestamp>
      <setSpec>user-biosyslit</setSpec>
    </header>
    <header>
      <identifier>oai:zenodo.org:261429</identifier>
      <datestamp>2017-01-28T08:45:39Z</datestamp>
      <setSpec>user-biosyslit</setSpec>
    </header>
    <header>
      <identifier>oai:zenodo.org:261375</identifier>
      <datestamp>2017-01-28T08:29:10Z</datestamp>
      <setSpec>user-biosyslit</setSpec>
    </header>
    <header>
      <identifier>oai:zenodo.org:273912</identifier>
      <datestamp>2017-02-08T11:11:47Z</datestamp>
      <setSpec>user-biosyslit</setSpec>
    </header>
    <header>
      <identifier>oai:zenodo.org:261405</identifier>
      <datestamp>2017-01-28T08:44:41Z</datestamp>
      <setSpec>user-biosyslit</setSpec>
    </header>
    <header>
      <identifier>oai:zenodo.org:261246</identifier>
      <datestamp>2017-01-28T07:13:00Z</datestamp>
      <setSpec>user-biosyslit</setSpec>
    </header>
    <header>
      <identifier>oai:zenodo.org:262410</identifier>
      <datestamp>2017-01-29T03:42:48Z</datestamp>
      <setSpec>user-biosyslit</setSpec>
    </header>
    <header>
      <identifier>oai:zenodo.org:274408</identifier>
      <datestamp>2017-02-08T13:07:31Z</datestamp>
      <setSpec>user-biosyslit</setSpec>
    </header>
    <header>
      <identifier>oai:zenodo.org:261251</identifier>
      <datestamp>2017-01-28T07:15:38Z</datestamp>
      <setSpec>user-biosyslit</setSpec>
    </header>
    <header>
      <identifier>oai:zenodo.org:261854</identifier>
      <datestamp>2017-01-28T16:10:58Z</datestamp>
      <setSpec>user-biosyslit</setSpec>
    </header>
    <header>
      <identifier>oai:zenodo.org:261813</identifier>
      <datestamp>2017-01-28T15:21:40Z</datestamp>
      <setSpec>user-biosyslit</setSpec>
    </header>
    <header>
      <identifier>oai:zenodo.org:261552</identifier>
      <datestamp>2017-01-28T10:49:25Z</datestamp>
      <setSpec>user-biosyslit</setSpec>
    </header>
    <header>
      <identifier>oai:zenodo.org:262003</identifier>
      <datestamp>2017-01-28T19:19:04Z</datestamp>
      <setSpec>user-biosyslit</setSpec>
    </header>
    <header>
      <identifier>oai:zenodo.org:262272</identifier>
      <datestamp>2017-01-29T01:27:04Z</datestamp>
      <setSpec>user-biosyslit</setSpec>
    </header>
    <header>
      <identifier>oai:zenodo.org:273658</identifier>
      <datestamp>2017-02-08T10:10:35Z</datestamp>
      <setSpec>user-biosyslit</setSpec>
    </header>
    <header>
      <identifier>oai:zenodo.org:273911</identifier>
      <datestamp>2017-02-08T11:11:43Z</datestamp>
      <setSpec>user-biosyslit</setSpec>
    </header>
    <header>
      <identifier>oai:zenodo.org:274445</identifier>
      <datestamp>2017-02-08T13:15:56Z</datestamp>
      <setSpec>user-biosyslit</setSpec>
    </header>
    <header>
      <identifier>oai:zenodo.org:262171</identifier>
      <datestamp>2017-01-28T22:23:32Z</datestamp>
      <setSpec>user-biosyslit</setSpec>
    </header>
    <header>
      <identifier>oai:zenodo.org:262323</identifier>
      <datestamp>2017-01-29T01:58:42Z</datestamp>
      <setSpec>user-biosyslit</setSpec>
    </header>
    <header>
      <identifier>oai:zenodo.org:274957</identifier>
      <datestamp>2017-02-08T14:54:51Z</datestamp>
      <setSpec>user-biosyslit</setSpec>
    </header>
    <header>
      <identifier>oai:zenodo.org:262521</identifier>
      <datestamp>2017-01-29T05:09:05Z</datestamp>
      <setSpec>user-biosyslit</setSpec>
    </header>
    <header>
      <identifier>oai:zenodo.org:263068</identifier>
      <datestamp>2017-01-29T15:56:34Z</datestamp>
      <setSpec>user-biosyslit</setSpec>
    </header>
    <header>
      <identifier>oai:zenodo.org:263127</identifier>
      <datestamp>2017-01-29T17:27:34Z</datestamp>
      <setSpec>user-biosyslit</setSpec>
    </header>
    <header>
      <identifier>oai:zenodo.org:263189</identifier>
      <datestamp>2017-01-29T18:25:51Z</datestamp>
      <setSpec>user-biosyslit</setSpec>
    </header>
    <header>
      <identifier>oai:zenodo.org:263929</identifier>
      <datestamp>2017-01-30T10:20:52Z</datestamp>
      <setSpec>user-biosyslit</setSpec>
    </header>
    <header>
      <identifier>oai:zenodo.org:264576</identifier>
      <datestamp>2017-01-30T23:38:35Z</datestamp>
      <setSpec>user-biosyslit</setSpec>
    </header>
    <header>
      <identifier>oai:zenodo.org:264056</identifier>
      <datestamp>2017-01-30T12:26:05Z</datestamp>
      <setSpec>user-biosyslit</setSpec>
    </header>
    <header>
      <identifier>oai:zenodo.org:265511</identifier>
      <datestamp>2017-01-31T15:28:42Z</datestamp>
      <setSpec>user-biosyslit</setSpec>
    </header>
    <header>
      <identifier>oai:zenodo.org:264528</identifier>
      <datestamp>2017-01-30T23:05:50Z</datestamp>
      <setSpec>user-biosyslit</setSpec>
    </header>
    <header>
      <identifier>oai:zenodo.org:264807</identifier>
      <datestamp>2017-01-31T02:53:17Z</datestamp>
      <setSpec>user-biosyslit</setSpec>
    </header>
    <header>
      <identifier>oai:zenodo.org:266252</identifier>
      <datestamp>2017-02-01T03:37:24Z</datestamp>
      <setSpec>user-biosyslit</setSpec>
    </header>
    <header>
      <identifier>oai:zenodo.org:265615</identifier>
      <datestamp>2017-01-31T17:43:52Z</datestamp>
      <setSpec>user-biosyslit</setSpec>
    </header>
    <header>
      <identifier>oai:zenodo.org:266464</identifier>
      <datestamp>2017-02-01T10:13:11Z</datestamp>
      <setSpec>user-biosyslit</setSpec>
    </header>
    <header>
      <identifier>oai:zenodo.org:265911</identifier>
      <datestamp>2017-01-31T23:16:28Z</datestamp>
      <setSpec>user-biosyslit</setSpec>
    </header>
    <header>
      <identifier>oai:zenodo.org:265690</identifier>
      <datestamp>2017-01-31T19:12:51Z</datestamp>
      <setSpec>user-biosyslit</setSpec>
    </header>
    <header>
      <identifier>oai:zenodo.org:267165</identifier>
      <datestamp>2017-02-01T20:25:08Z</datestamp>
      <setSpec>user-biosyslit</setSpec>
    </header>
    <header>
      <identifier>oai:zenodo.org:267556</identifier>
      <datestamp>2017-02-02T03:45:54Z</datestamp>
      <setSpec>user-biosyslit</setSpec>
    </header>
    <header>
      <identifier>oai:zenodo.org:274464</identifier>
      <datestamp>2017-02-08T13:18:29Z</datestamp>
      <setSpec>user-biosyslit</setSpec>
    </header>
    <header>
      <identifier>oai:zenodo.org:266450</identifier>
      <datestamp>2017-02-01T10:12:33Z</datestamp>
      <setSpec>user-biosyslit</setSpec>
    </header>
    <header>
      <identifier>oai:zenodo.org:274744</identifier>
      <datestamp>2017-02-08T14:09:28Z</datestamp>
      <setSpec>user-biosyslit</setSpec>
    </header>
    <header>
      <identifier>oai:zenodo.org:267929</identifier>
      <datestamp>2017-02-02T11:11:08Z</datestamp>
      <setSpec>user-biosyslit</setSpec>
    </header>
    <header>
      <identifier>oai:zenodo.org:267134</identifier>
      <datestamp>2017-02-01T20:02:45Z</datestamp>
      <setSpec>user-biosyslit</setSpec>
    </header>
    <header>
      <identifier>oai:zenodo.org:267180</identifier>
      <datestamp>2017-02-01T20:40:55Z</datestamp>
      <setSpec>user-biosyslit</setSpec>
    </header>
    <header>
      <identifier>oai:zenodo.org:266934</identifier>
      <datestamp>2017-02-01T17:16:36Z</datestamp>
      <setSpec>user-biosyslit</setSpec>
    </header>
    <header>
      <identifier>oai:zenodo.org:267112</identifier>
      <datestamp>2017-02-01T19:38:04Z</datestamp>
      <setSpec>user-biosyslit</setSpec>
    </header>
    <header>
      <identifier>oai:zenodo.org:267386</identifier>
      <datestamp>2017-02-02T01:15:48Z</datestamp>
      <setSpec>user-biosyslit</setSpec>
    </header>
    <header>
      <identifier>oai:zenodo.org:269140</identifier>
      <datestamp>2017-02-06T22:53:40Z</datestamp>
      <setSpec>user-biosyslit</setSpec>
    </header>
    <header>
      <identifier>oai:zenodo.org:267449</identifier>
      <datestamp>2017-02-02T02:18:38Z</datestamp>
      <setSpec>user-biosyslit</setSpec>
    </header>
    <header>
      <identifier>oai:zenodo.org:268058</identifier>
      <datestamp>2017-02-03T00:56:10Z</datestamp>
      <setSpec>user-biosyslit</setSpec>
    </header>
    <header>
      <identifier>oai:zenodo.org:267921</identifier>
      <datestamp>2017-02-02T10:12:36Z</datestamp>
      <setSpec>user-biosyslit</setSpec>
    </header>
    <header>
      <identifier>oai:zenodo.org:269316</identifier>
      <datestamp>2017-02-06T23:52:37Z</datestamp>
      <setSpec>user-biosyslit</setSpec>
    </header>
    <header>
      <identifier>oai:zenodo.org:268159</identifier>
      <datestamp>2017-02-03T02:55:54Z</datestamp>
      <setSpec>user-biosyslit</setSpec>
    </header>
    <header>
      <identifier>oai:zenodo.org:269129</identifier>
      <datestamp>2017-02-06T22:50:37Z</datestamp>
      <setSpec>user-biosyslit</setSpec>
    </header>
    <header>
      <identifier>oai:zenodo.org:268406</identifier>
      <datestamp>2017-02-07T08:19:37Z</datestamp>
      <setSpec>openaire</setSpec>
      <setSpec>user-biosyslit</setSpec>
    </header>
    <header>
      <identifier>oai:zenodo.org:268373</identifier>
      <datestamp>2017-02-03T12:29:14Z</datestamp>
      <setSpec>user-biosyslit</setSpec>
    </header>
    <header>
      <identifier>oai:zenodo.org:269170</identifier>
      <datestamp>2017-02-06T22:54:42Z</datestamp>
      <setSpec>user-biosyslit</setSpec>
    </header>
    <header>
      <identifier>oai:zenodo.org:269364</identifier>
      <datestamp>2017-02-06T23:58:41Z</datestamp>
      <setSpec>user-biosyslit</setSpec>
    </header>
    <header>
      <identifier>oai:zenodo.org:275039</identifier>
      <datestamp>2017-02-08T15:08:30Z</datestamp>
      <setSpec>user-biosyslit</setSpec>
    </header>
    <header>
      <identifier>oai:zenodo.org:276092</identifier>
      <datestamp>2017-02-08T18:07:10Z</datestamp>
      <setSpec>user-biosyslit</setSpec>
    </header>
    <header>
      <identifier>oai:zenodo.org:277903</identifier>
      <datestamp>2017-02-08T22:02:14Z</datestamp>
      <setSpec>user-biosyslit</setSpec>
    </header>
    <header>
      <identifier>oai:zenodo.org:278155</identifier>
      <datestamp>2017-02-08T22:34:30Z</datestamp>
      <setSpec>user-biosyslit</setSpec>
    </header>
    <header>
      <identifier>oai:zenodo.org:278251</identifier>
      <datestamp>2017-02-08T22:44:06Z</datestamp>
      <setSpec>user-biosyslit</setSpec>
    </header>
    <header>
      <identifier>oai:zenodo.org:277071</identifier>
      <datestamp>2017-02-08T20:19:22Z</datestamp>
      <setSpec>user-biosyslit</setSpec>
    </header>
    <header>
      <identifier>oai:zenodo.org:278005</identifier>
      <datestamp>2017-02-08T22:15:31Z</datestamp>
      <setSpec>user-biosyslit</setSpec>
    </header>
    <header>
      <identifier>oai:zenodo.org:278290</identifier>
      <datestamp>2017-02-08T22:47:16Z</datestamp>
      <setSpec>user-biosyslit</setSpec>
    </header>
    <header>
      <identifier>oai:zenodo.org:277879</identifier>
      <datestamp>2017-02-08T22:00:43Z</datestamp>
      <setSpec>user-biosyslit</setSpec>
    </header>
    <header>
      <identifier>oai:zenodo.org:278160</identifier>
      <datestamp>2017-02-08T22:35:39Z</datestamp>
      <setSpec>user-biosyslit</setSpec>
    </header>
    <header>
      <identifier>oai:zenodo.org:278598</identifier>
      <datestamp>2017-02-08T23:29:32Z</datestamp>
      <setSpec>user-biosyslit</setSpec>
    </header>
    <header>
      <identifier>oai:zenodo.org:279077</identifier>
      <datestamp>2017-02-09T00:34:25Z</datestamp>
      <setSpec>user-biosyslit</setSpec>
    </header>
    <header>
      <identifier>oai:zenodo.org:279671</identifier>
      <datestamp>2017-02-09T01:47:49Z</datestamp>
      <setSpec>user-biosyslit</setSpec>
    </header>
    <header>
      <identifier>oai:zenodo.org:280565</identifier>
      <datestamp>2017-02-09T03:38:33Z</datestamp>
      <setSpec>user-biosyslit</setSpec>
    </header>
    <header>
      <identifier>oai:zenodo.org:279083</identifier>
      <datestamp>2017-02-09T00:35:01Z</datestamp>
      <setSpec>user-biosyslit</setSpec>
    </header>
    <resumptionToken expirationDate="2017-08-31T15:43:17Z" cursor="3900" completeListSize="77796">.eJyNysEOQzAYAOB3-c-ytEqMZBexiQNSHWGXxRAxZaJb0MW7z2Xn7fx9bxBVVYKFdppuEKSbmKh7E5m6AqIYH5xfm02hSBNe9DzO3eQVdQnK1NoIHDH7TkYC2aKww5KdqJri_Rw3aKHn-JnJaE6INzF0NHxJl-Duba8kocsvN3dgcW9zppZjeKQLwza7kOL78J9P_nyOOIACQ15XYGlYgXbKx1qA9V7XDxxfUNY.DIm_nQ.TempUIvZPw74Y9LTiZ9Hajk8G3w</resumptionToken>
  </ListIdentifiers>
</OAI-PMH>
