<?xml version='1.0' encoding='UTF-8'?>
<?xml-stylesheet type="text/xsl" href="/static/xsl/oai2.v1.0.xsl"?>
<OAI-PMH xmlns="http://www.openarchives.org/OAI/2.0/" xmlns:xsi="http://www.w3.org/2001/XMLSchema-instance" xsi:schemaLocation="http://www.openarchives.org/OAI/2.0/ http://www.openarchives.org/OAI/2.0/OAI-PMH.xsd">
  <responseDate>2017-08-31T15:44:30Z</responseDate>
  <request verb="ListIdentifiers" resumptionToken=".eJyNyrsOgjAUANB_uTMxva0VJXEhKHEQUiuNsBgEQtT6CNUIJfy7Ls46n9ODqaoSPDKa8NmEMSScuRzHdOaAKZqb1vvjh6HYKV1cdZKH6rm5KJLS2o0C066DlEX2TOILWrkUdIfTNjmSTmyTR2o3rWKrlyQLd21FF51Wn1eyONTZIbzL5OprScsmXohOoi8zVnwf_vnszxeYOThwz-sKPI7owPmVN7UBrx-GN5s-UTc.DInAXg.PQ-PmM66F_EXP0WUQ3h8M-NjSSo">https://zenodo.org/oai2d</request>
  <ListIdentifiers>
    <header>
      <identifier>oai:zenodo.org:227306</identifier>
      <datestamp>2017-01-01T19:16:38Z</datestamp>
      <setSpec>user-biosyslit</setSpec>
    </header>
    <header>
      <identifier>oai:zenodo.org:227447</identifier>
      <datestamp>2017-01-01T21:32:16Z</datestamp>
      <setSpec>user-biosyslit</setSpec>
    </header>
    <header>
      <identifier>oai:zenodo.org:227528</identifier>
      <datestamp>2017-01-01T23:19:36Z</datestamp>
      <setSpec>user-biosyslit</setSpec>
    </header>
    <header>
      <identifier>oai:zenodo.org:227269</identifier>
      <datestamp>2017-01-01T18:51:16Z</datestamp>
      <setSpec>user-biosyslit</setSpec>
    </header>
    <header>
      <identifier>oai:zenodo.org:227525</identifier>
      <datestamp>2017-01-01T23:07:41Z</datestamp>
      <setSpec>user-biosyslit</setSpec>
    </header>
    <header>
      <identifier>oai:zenodo.org:268157</identifier>
      <datestamp>2017-02-03T02:55:50Z</datestamp>
      <setSpec>user-biosyslit</setSpec>
    </header>
    <header>
      <identifier>oai:zenodo.org:267918</identifier>
      <datestamp>2017-02-02T10:12:45Z</datestamp>
      <setSpec>user-biosyslit</setSpec>
    </header>
    <header>
      <identifier>oai:zenodo.org:269154</identifier>
      <datestamp>2017-02-06T22:54:10Z</datestamp>
      <setSpec>user-biosyslit</setSpec>
    </header>
    <header>
      <identifier>oai:zenodo.org:229985</identifier>
      <datestamp>2017-01-04T16:46:21Z</datestamp>
      <setSpec>user-biosyslit</setSpec>
    </header>
    <header>
      <identifier>oai:zenodo.org:227748</identifier>
      <datestamp>2017-01-02T03:26:54Z</datestamp>
      <setSpec>user-biosyslit</setSpec>
    </header>
    <header>
      <identifier>oai:zenodo.org:268165</identifier>
      <datestamp>2017-02-03T02:56:11Z</datestamp>
      <setSpec>user-biosyslit</setSpec>
    </header>
    <header>
      <identifier>oai:zenodo.org:269083</identifier>
      <datestamp>2017-02-06T22:41:14Z</datestamp>
      <setSpec>user-biosyslit</setSpec>
    </header>
    <header>
      <identifier>oai:zenodo.org:268164</identifier>
      <datestamp>2017-02-03T02:56:08Z</datestamp>
      <setSpec>user-biosyslit</setSpec>
    </header>
    <header>
      <identifier>oai:zenodo.org:274444</identifier>
      <datestamp>2017-02-08T13:16:02Z</datestamp>
      <setSpec>user-biosyslit</setSpec>
    </header>
    <header>
      <identifier>oai:zenodo.org:229213</identifier>
      <datestamp>2017-01-03T12:30:36Z</datestamp>
      <setSpec>user-biosyslit</setSpec>
    </header>
    <header>
      <identifier>oai:zenodo.org:269335</identifier>
      <datestamp>2017-02-07T00:00:04Z</datestamp>
      <setSpec>user-biosyslit</setSpec>
    </header>
    <header>
      <identifier>oai:zenodo.org:269238</identifier>
      <datestamp>2017-02-06T23:37:49Z</datestamp>
      <setSpec>user-biosyslit</setSpec>
    </header>
    <header>
      <identifier>oai:zenodo.org:269356</identifier>
      <datestamp>2017-02-06T23:58:15Z</datestamp>
      <setSpec>user-biosyslit</setSpec>
    </header>
    <header>
      <identifier>oai:zenodo.org:269454</identifier>
      <datestamp>2017-02-07T00:37:47Z</datestamp>
      <setSpec>user-biosyslit</setSpec>
    </header>
    <header>
      <identifier>oai:zenodo.org:230371</identifier>
      <datestamp>2017-01-04T23:33:53Z</datestamp>
      <setSpec>user-biosyslit</setSpec>
    </header>
    <header>
      <identifier>oai:zenodo.org:230304</identifier>
      <datestamp>2017-01-04T22:32:37Z</datestamp>
      <setSpec>user-biosyslit</setSpec>
    </header>
    <header>
      <identifier>oai:zenodo.org:270406</identifier>
      <datestamp>2017-02-07T23:10:26Z</datestamp>
      <setSpec>user-biosyslit</setSpec>
    </header>
    <header>
      <identifier>oai:zenodo.org:269044</identifier>
      <datestamp>2017-02-06T22:36:12Z</datestamp>
      <setSpec>user-biosyslit</setSpec>
    </header>
    <header>
      <identifier>oai:zenodo.org:231179</identifier>
      <datestamp>2017-01-05T17:02:14Z</datestamp>
      <setSpec>user-biosyslit</setSpec>
    </header>
    <header>
      <identifier>oai:zenodo.org:228207</identifier>
      <datestamp>2017-01-02T19:46:46Z</datestamp>
      <setSpec>user-biosyslit</setSpec>
    </header>
    <header>
      <identifier>oai:zenodo.org:230652</identifier>
      <datestamp>2017-01-05T05:47:02Z</datestamp>
      <setSpec>user-biosyslit</setSpec>
    </header>
    <header>
      <identifier>oai:zenodo.org:230891</identifier>
      <datestamp>2017-01-05T10:02:32Z</datestamp>
      <setSpec>user-biosyslit</setSpec>
    </header>
    <header>
      <identifier>oai:zenodo.org:228755</identifier>
      <datestamp>2017-01-03T04:20:46Z</datestamp>
      <setSpec>user-biosyslit</setSpec>
    </header>
    <header>
      <identifier>oai:zenodo.org:229039</identifier>
      <datestamp>2017-01-03T08:42:06Z</datestamp>
      <setSpec>user-biosyslit</setSpec>
    </header>
    <header>
      <identifier>oai:zenodo.org:269794</identifier>
      <datestamp>2017-02-07T20:19:14Z</datestamp>
      <setSpec>user-biosyslit</setSpec>
    </header>
    <header>
      <identifier>oai:zenodo.org:269967</identifier>
      <datestamp>2017-02-07T21:54:29Z</datestamp>
      <setSpec>user-biosyslit</setSpec>
    </header>
    <header>
      <identifier>oai:zenodo.org:270806</identifier>
      <datestamp>2017-02-07T23:56:57Z</datestamp>
      <setSpec>user-biosyslit</setSpec>
    </header>
    <header>
      <identifier>oai:zenodo.org:269873</identifier>
      <datestamp>2017-02-07T20:37:48Z</datestamp>
      <setSpec>user-biosyslit</setSpec>
    </header>
    <header>
      <identifier>oai:zenodo.org:230278</identifier>
      <datestamp>2017-01-04T22:08:25Z</datestamp>
      <setSpec>user-biosyslit</setSpec>
    </header>
    <header>
      <identifier>oai:zenodo.org:230114</identifier>
      <datestamp>2017-01-04T19:24:07Z</datestamp>
      <setSpec>user-biosyslit</setSpec>
    </header>
    <header>
      <identifier>oai:zenodo.org:269008</identifier>
      <datestamp>2017-03-08T12:01:05Z</datestamp>
      <setSpec>openaire</setSpec>
      <setSpec>user-biosyslit</setSpec>
    </header>
    <header>
      <identifier>oai:zenodo.org:230279</identifier>
      <datestamp>2017-01-04T22:08:28Z</datestamp>
      <setSpec>user-biosyslit</setSpec>
    </header>
    <header>
      <identifier>oai:zenodo.org:231851</identifier>
      <datestamp>2017-01-06T07:53:49Z</datestamp>
      <setSpec>user-biosyslit</setSpec>
    </header>
    <header>
      <identifier>oai:zenodo.org:230286</identifier>
      <datestamp>2017-01-04T22:12:49Z</datestamp>
      <setSpec>user-biosyslit</setSpec>
    </header>
    <header>
      <identifier>oai:zenodo.org:229838</identifier>
      <datestamp>2017-01-04T07:58:14Z</datestamp>
      <setSpec>user-biosyslit</setSpec>
    </header>
    <header>
      <identifier>oai:zenodo.org:269182</identifier>
      <datestamp>2017-02-06T23:01:25Z</datestamp>
      <setSpec>user-biosyslit</setSpec>
    </header>
    <header>
      <identifier>oai:zenodo.org:274621</identifier>
      <datestamp>2017-02-08T13:49:28Z</datestamp>
      <setSpec>user-biosyslit</setSpec>
    </header>
    <header>
      <identifier>oai:zenodo.org:269036</identifier>
      <datestamp>2017-02-06T22:35:51Z</datestamp>
      <setSpec>user-biosyslit</setSpec>
    </header>
    <header>
      <identifier>oai:zenodo.org:230834</identifier>
      <datestamp>2017-01-05T08:58:25Z</datestamp>
      <setSpec>user-biosyslit</setSpec>
    </header>
    <header>
      <identifier>oai:zenodo.org:230534</identifier>
      <datestamp>2017-01-05T02:53:58Z</datestamp>
      <setSpec>user-biosyslit</setSpec>
    </header>
    <header>
      <identifier>oai:zenodo.org:269029</identifier>
      <datestamp>2017-02-06T22:36:30Z</datestamp>
      <setSpec>user-biosyslit</setSpec>
    </header>
    <header>
      <identifier>oai:zenodo.org:269475</identifier>
      <datestamp>2017-02-07T00:42:25Z</datestamp>
      <setSpec>user-biosyslit</setSpec>
    </header>
    <header>
      <identifier>oai:zenodo.org:269023</identifier>
      <datestamp>2017-02-06T22:34:27Z</datestamp>
      <setSpec>user-biosyslit</setSpec>
    </header>
    <header>
      <identifier>oai:zenodo.org:269198</identifier>
      <datestamp>2017-02-06T23:03:39Z</datestamp>
      <setSpec>user-biosyslit</setSpec>
    </header>
    <header>
      <identifier>oai:zenodo.org:231922</identifier>
      <datestamp>2017-01-06T08:50:25Z</datestamp>
      <setSpec>user-biosyslit</setSpec>
    </header>
    <header>
      <identifier>oai:zenodo.org:270129</identifier>
      <datestamp>2017-02-07T22:24:59Z</datestamp>
      <setSpec>user-biosyslit</setSpec>
    </header>
    <header>
      <identifier>oai:zenodo.org:269552</identifier>
      <datestamp>2017-02-07T00:57:34Z</datestamp>
      <setSpec>user-biosyslit</setSpec>
    </header>
    <header>
      <identifier>oai:zenodo.org:275890</identifier>
      <datestamp>2017-02-08T17:19:54Z</datestamp>
      <setSpec>user-biosyslit</setSpec>
    </header>
    <header>
      <identifier>oai:zenodo.org:270031</identifier>
      <datestamp>2017-02-07T22:10:54Z</datestamp>
      <setSpec>user-biosyslit</setSpec>
    </header>
    <header>
      <identifier>oai:zenodo.org:275072</identifier>
      <datestamp>2017-02-08T15:14:10Z</datestamp>
      <setSpec>user-biosyslit</setSpec>
    </header>
    <header>
      <identifier>oai:zenodo.org:231973</identifier>
      <datestamp>2017-01-06T09:37:24Z</datestamp>
      <setSpec>user-biosyslit</setSpec>
    </header>
    <header>
      <identifier>oai:zenodo.org:231745</identifier>
      <datestamp>2017-01-06T06:36:29Z</datestamp>
      <setSpec>user-biosyslit</setSpec>
    </header>
    <header>
      <identifier>oai:zenodo.org:231863</identifier>
      <datestamp>2017-01-06T07:59:46Z</datestamp>
      <setSpec>user-biosyslit</setSpec>
    </header>
    <header>
      <identifier>oai:zenodo.org:270099</identifier>
      <datestamp>2017-02-07T22:18:50Z</datestamp>
      <setSpec>user-biosyslit</setSpec>
    </header>
    <header>
      <identifier>oai:zenodo.org:269488</identifier>
      <datestamp>2017-02-07T00:42:56Z</datestamp>
      <setSpec>user-biosyslit</setSpec>
    </header>
    <header>
      <identifier>oai:zenodo.org:275612</identifier>
      <datestamp>2017-02-08T16:48:04Z</datestamp>
      <setSpec>user-biosyslit</setSpec>
    </header>
    <header>
      <identifier>oai:zenodo.org:270860</identifier>
      <datestamp>2017-02-08T00:05:55Z</datestamp>
      <setSpec>user-biosyslit</setSpec>
    </header>
    <header>
      <identifier>oai:zenodo.org:231294</identifier>
      <datestamp>2017-01-05T19:14:04Z</datestamp>
      <setSpec>user-biosyslit</setSpec>
    </header>
    <header>
      <identifier>oai:zenodo.org:269317</identifier>
      <datestamp>2017-02-06T23:54:08Z</datestamp>
      <setSpec>user-biosyslit</setSpec>
    </header>
    <header>
      <identifier>oai:zenodo.org:275045</identifier>
      <datestamp>2017-02-08T15:08:44Z</datestamp>
      <setSpec>user-biosyslit</setSpec>
    </header>
    <header>
      <identifier>oai:zenodo.org:270693</identifier>
      <datestamp>2017-02-07T23:49:01Z</datestamp>
      <setSpec>user-biosyslit</setSpec>
    </header>
    <header>
      <identifier>oai:zenodo.org:231849</identifier>
      <datestamp>2017-01-06T07:53:44Z</datestamp>
      <setSpec>user-biosyslit</setSpec>
    </header>
    <header>
      <identifier>oai:zenodo.org:271416</identifier>
      <datestamp>2017-02-08T01:36:36Z</datestamp>
      <setSpec>user-biosyslit</setSpec>
    </header>
    <header>
      <identifier>oai:zenodo.org:270769</identifier>
      <datestamp>2017-02-07T23:55:27Z</datestamp>
      <setSpec>user-biosyslit</setSpec>
    </header>
    <header>
      <identifier>oai:zenodo.org:269506</identifier>
      <datestamp>2017-02-07T00:43:53Z</datestamp>
      <setSpec>user-biosyslit</setSpec>
    </header>
    <header>
      <identifier>oai:zenodo.org:233061</identifier>
      <datestamp>2017-01-07T23:38:42Z</datestamp>
      <setSpec>user-biosyslit</setSpec>
    </header>
    <header>
      <identifier>oai:zenodo.org:275629</identifier>
      <datestamp>2017-02-08T16:49:42Z</datestamp>
      <setSpec>user-biosyslit</setSpec>
    </header>
    <header>
      <identifier>oai:zenodo.org:269564</identifier>
      <datestamp>2017-02-07T00:58:13Z</datestamp>
      <setSpec>user-biosyslit</setSpec>
    </header>
    <header>
      <identifier>oai:zenodo.org:232651</identifier>
      <datestamp>2017-01-06T21:04:27Z</datestamp>
      <setSpec>user-biosyslit</setSpec>
    </header>
    <header>
      <identifier>oai:zenodo.org:276378</identifier>
      <datestamp>2017-02-08T18:44:22Z</datestamp>
      <setSpec>user-biosyslit</setSpec>
    </header>
    <header>
      <identifier>oai:zenodo.org:263742</identifier>
      <datestamp>2017-01-30T07:19:02Z</datestamp>
      <setSpec>user-biosyslit</setSpec>
    </header>
    <header>
      <identifier>oai:zenodo.org:263537</identifier>
      <datestamp>2017-01-30T00:09:03Z</datestamp>
      <setSpec>user-biosyslit</setSpec>
    </header>
    <header>
      <identifier>oai:zenodo.org:264311</identifier>
      <datestamp>2017-01-30T19:03:59Z</datestamp>
      <setSpec>user-biosyslit</setSpec>
    </header>
    <header>
      <identifier>oai:zenodo.org:263838</identifier>
      <datestamp>2017-01-30T09:01:14Z</datestamp>
      <setSpec>user-biosyslit</setSpec>
    </header>
    <header>
      <identifier>oai:zenodo.org:263592</identifier>
      <datestamp>2017-01-30T01:13:03Z</datestamp>
      <setSpec>user-biosyslit</setSpec>
    </header>
    <header>
      <identifier>oai:zenodo.org:263978</identifier>
      <datestamp>2017-01-30T11:07:05Z</datestamp>
      <setSpec>user-biosyslit</setSpec>
    </header>
    <header>
      <identifier>oai:zenodo.org:264320</identifier>
      <datestamp>2017-01-30T19:03:46Z</datestamp>
      <setSpec>user-biosyslit</setSpec>
    </header>
    <header>
      <identifier>oai:zenodo.org:264212</identifier>
      <datestamp>2017-01-30T14:53:47Z</datestamp>
      <setSpec>user-biosyslit</setSpec>
    </header>
    <header>
      <identifier>oai:zenodo.org:264073</identifier>
      <datestamp>2017-01-30T12:36:22Z</datestamp>
      <setSpec>user-biosyslit</setSpec>
    </header>
    <header>
      <identifier>oai:zenodo.org:264471</identifier>
      <datestamp>2017-01-30T22:13:34Z</datestamp>
      <setSpec>user-biosyslit</setSpec>
    </header>
    <header>
      <identifier>oai:zenodo.org:264503</identifier>
      <datestamp>2017-01-30T22:54:42Z</datestamp>
      <setSpec>user-biosyslit</setSpec>
    </header>
    <header>
      <identifier>oai:zenodo.org:264992</identifier>
      <datestamp>2017-01-31T05:42:24Z</datestamp>
      <setSpec>user-biosyslit</setSpec>
    </header>
    <header>
      <identifier>oai:zenodo.org:264507</identifier>
      <datestamp>2017-01-30T22:54:58Z</datestamp>
      <setSpec>user-biosyslit</setSpec>
    </header>
    <header>
      <identifier>oai:zenodo.org:264633</identifier>
      <datestamp>2017-01-31T00:32:22Z</datestamp>
      <setSpec>user-biosyslit</setSpec>
    </header>
    <header>
      <identifier>oai:zenodo.org:265116</identifier>
      <datestamp>2017-01-31T08:13:18Z</datestamp>
      <setSpec>user-biosyslit</setSpec>
    </header>
    <header>
      <identifier>oai:zenodo.org:264383</identifier>
      <datestamp>2017-01-30T20:24:16Z</datestamp>
      <setSpec>user-biosyslit</setSpec>
    </header>
    <header>
      <identifier>oai:zenodo.org:264548</identifier>
      <datestamp>2017-01-30T23:21:00Z</datestamp>
      <setSpec>user-biosyslit</setSpec>
    </header>
    <header>
      <identifier>oai:zenodo.org:264518</identifier>
      <datestamp>2017-01-30T22:55:33Z</datestamp>
      <setSpec>user-biosyslit</setSpec>
    </header>
    <header>
      <identifier>oai:zenodo.org:264926</identifier>
      <datestamp>2017-01-31T04:49:24Z</datestamp>
      <setSpec>user-biosyslit</setSpec>
    </header>
    <header>
      <identifier>oai:zenodo.org:265092</identifier>
      <datestamp>2017-01-31T07:54:40Z</datestamp>
      <setSpec>user-biosyslit</setSpec>
    </header>
    <header>
      <identifier>oai:zenodo.org:266160</identifier>
      <datestamp>2017-02-01T01:28:37Z</datestamp>
      <setSpec>user-biosyslit</setSpec>
    </header>
    <header>
      <identifier>oai:zenodo.org:265208</identifier>
      <datestamp>2017-01-31T10:05:12Z</datestamp>
      <setSpec>user-biosyslit</setSpec>
    </header>
    <header>
      <identifier>oai:zenodo.org:265102</identifier>
      <datestamp>2017-01-31T07:55:19Z</datestamp>
      <setSpec>user-biosyslit</setSpec>
    </header>
    <header>
      <identifier>oai:zenodo.org:265510</identifier>
      <datestamp>2017-01-31T15:28:46Z</datestamp>
      <setSpec>user-biosyslit</setSpec>
    </header>
    <header>
      <identifier>oai:zenodo.org:265207</identifier>
      <datestamp>2017-01-31T10:06:10Z</datestamp>
      <setSpec>user-biosyslit</setSpec>
    </header>
    <resumptionToken expirationDate="2017-08-31T15:46:30Z" cursor="51000" completeListSize="77796">.eJyNyj0LgkAYAOD_8s4S91GeCC2hiYPKdSnpEqYi5mniFelJ_72W5pqfZwFVVSXYaGWtTZMwhCi2GLawaYAqxpuU5-bDUJwSWfQyzr3kcegSlJKahY6aAieloW5R1GEt9pycsDXFDZr5Mb6n-jAl1H8K5LJA8zm8-p9X0siT2cUbRNzvpCDlGLl8FngnMlp8H_7z6Z_PUVswYMjrCuwNJga0z3ysFdjL6_UGml9RNw.DInAXg.B5GZDo34EbIHJ0tZfem8dhxHCjc</resumptionToken>
  </ListIdentifiers>
</OAI-PMH>
