<?xml version='1.0' encoding='UTF-8'?>
<?xml-stylesheet type="text/xsl" href="/static/xsl/oai2.v1.0.xsl"?>
<OAI-PMH xmlns="http://www.openarchives.org/OAI/2.0/" xmlns:xsi="http://www.w3.org/2001/XMLSchema-instance" xsi:schemaLocation="http://www.openarchives.org/OAI/2.0/ http://www.openarchives.org/OAI/2.0/OAI-PMH.xsd">
  <responseDate>2017-08-31T15:46:02Z</responseDate>
  <request verb="ListIdentifiers" resumptionToken=".eJyNysEOQzAYAOB3-c-ytBqMZJeFiQNCR3BZDBFTJroFFe8-l5238_etwKuqBAMddAWrqqIjIiNNRViVgBfjk7FbszMUScyKnkW5Hb_DLkapXGueyWfXTIknWuR3WNBLICf4OEcNWoJr9EpFOMfEmSiyNFcEi_dw9lcS32bZ3R5o1J8ZlcvRt4KF4jPNSPF9-M8nfj6Tn0CCIa8rMDSsS9BO-VhzMNZt-wCZO1E-.DInAug.4euxycAJ-vu4zbEFoFpKILqziN4">https://zenodo.org/oai2d</request>
  <ListIdentifiers>
    <header>
      <identifier>oai:zenodo.org:241840</identifier>
      <datestamp>2017-01-13T06:49:49Z</datestamp>
      <setSpec>user-biosyslit</setSpec>
    </header>
    <header>
      <identifier>oai:zenodo.org:283023</identifier>
      <datestamp>2017-02-09T08:02:07Z</datestamp>
      <setSpec>user-biosyslit</setSpec>
    </header>
    <header>
      <identifier>oai:zenodo.org:254643</identifier>
      <datestamp>2017-01-21T00:59:07Z</datestamp>
      <setSpec>user-biosyslit</setSpec>
    </header>
    <header>
      <identifier>oai:zenodo.org:254644</identifier>
      <datestamp>2017-01-21T00:59:13Z</datestamp>
      <setSpec>user-biosyslit</setSpec>
    </header>
    <header>
      <identifier>oai:zenodo.org:231918</identifier>
      <datestamp>2017-01-06T08:43:04Z</datestamp>
      <setSpec>user-biosyslit</setSpec>
    </header>
    <header>
      <identifier>oai:zenodo.org:254888</identifier>
      <datestamp>2017-01-21T04:28:50Z</datestamp>
      <setSpec>user-biosyslit</setSpec>
    </header>
    <header>
      <identifier>oai:zenodo.org:254887</identifier>
      <datestamp>2017-01-21T04:28:47Z</datestamp>
      <setSpec>user-biosyslit</setSpec>
    </header>
    <header>
      <identifier>oai:zenodo.org:227187</identifier>
      <datestamp>2017-01-01T17:52:34Z</datestamp>
      <setSpec>user-biosyslit</setSpec>
    </header>
    <header>
      <identifier>oai:zenodo.org:227189</identifier>
      <datestamp>2017-01-01T17:52:39Z</datestamp>
      <setSpec>user-biosyslit</setSpec>
    </header>
    <header>
      <identifier>oai:zenodo.org:227177</identifier>
      <datestamp>2017-01-01T17:51:47Z</datestamp>
      <setSpec>user-biosyslit</setSpec>
    </header>
    <header>
      <identifier>oai:zenodo.org:227179</identifier>
      <datestamp>2017-01-01T17:52:05Z</datestamp>
      <setSpec>user-biosyslit</setSpec>
    </header>
    <header>
      <identifier>oai:zenodo.org:227180</identifier>
      <datestamp>2017-01-01T17:52:07Z</datestamp>
      <setSpec>user-biosyslit</setSpec>
    </header>
    <header>
      <identifier>oai:zenodo.org:227178</identifier>
      <datestamp>2017-01-01T17:52:01Z</datestamp>
      <setSpec>user-biosyslit</setSpec>
    </header>
    <header>
      <identifier>oai:zenodo.org:227185</identifier>
      <datestamp>2017-01-01T17:52:28Z</datestamp>
      <setSpec>user-biosyslit</setSpec>
    </header>
    <header>
      <identifier>oai:zenodo.org:227310</identifier>
      <datestamp>2017-01-01T19:23:21Z</datestamp>
      <setSpec>user-biosyslit</setSpec>
    </header>
    <header>
      <identifier>oai:zenodo.org:227312</identifier>
      <datestamp>2017-01-01T19:23:07Z</datestamp>
      <setSpec>user-biosyslit</setSpec>
    </header>
    <header>
      <identifier>oai:zenodo.org:253378</identifier>
      <datestamp>2017-01-20T06:20:11Z</datestamp>
      <setSpec>user-biosyslit</setSpec>
    </header>
    <header>
      <identifier>oai:zenodo.org:227313</identifier>
      <datestamp>2017-01-01T19:23:15Z</datestamp>
      <setSpec>user-biosyslit</setSpec>
    </header>
    <header>
      <identifier>oai:zenodo.org:253377</identifier>
      <datestamp>2017-01-20T06:20:09Z</datestamp>
      <setSpec>user-biosyslit</setSpec>
    </header>
    <header>
      <identifier>oai:zenodo.org:253375</identifier>
      <datestamp>2017-01-20T06:20:02Z</datestamp>
      <setSpec>user-biosyslit</setSpec>
    </header>
    <header>
      <identifier>oai:zenodo.org:253376</identifier>
      <datestamp>2017-01-20T06:20:06Z</datestamp>
      <setSpec>user-biosyslit</setSpec>
    </header>
    <header>
      <identifier>oai:zenodo.org:285817</identifier>
      <datestamp>2017-02-09T14:37:22Z</datestamp>
      <setSpec>user-biosyslit</setSpec>
    </header>
    <header>
      <identifier>oai:zenodo.org:286046</identifier>
      <datestamp>2017-02-09T15:07:31Z</datestamp>
      <setSpec>user-biosyslit</setSpec>
    </header>
    <header>
      <identifier>oai:zenodo.org:255136</identifier>
      <datestamp>2017-01-21T08:25:04Z</datestamp>
      <setSpec>user-biosyslit</setSpec>
    </header>
    <header>
      <identifier>oai:zenodo.org:244901</identifier>
      <datestamp>2017-01-15T04:52:35Z</datestamp>
      <setSpec>user-biosyslit</setSpec>
    </header>
    <header>
      <identifier>oai:zenodo.org:244903</identifier>
      <datestamp>2017-01-15T04:52:34Z</datestamp>
      <setSpec>user-biosyslit</setSpec>
    </header>
    <header>
      <identifier>oai:zenodo.org:255142</identifier>
      <datestamp>2017-01-21T08:24:45Z</datestamp>
      <setSpec>user-biosyslit</setSpec>
    </header>
    <header>
      <identifier>oai:zenodo.org:255137</identifier>
      <datestamp>2017-01-21T08:24:32Z</datestamp>
      <setSpec>user-biosyslit</setSpec>
    </header>
    <header>
      <identifier>oai:zenodo.org:255143</identifier>
      <datestamp>2017-01-21T08:24:47Z</datestamp>
      <setSpec>user-biosyslit</setSpec>
    </header>
    <header>
      <identifier>oai:zenodo.org:255139</identifier>
      <datestamp>2017-01-21T08:24:37Z</datestamp>
      <setSpec>user-biosyslit</setSpec>
    </header>
    <header>
      <identifier>oai:zenodo.org:255147</identifier>
      <datestamp>2017-01-21T08:24:57Z</datestamp>
      <setSpec>user-biosyslit</setSpec>
    </header>
    <header>
      <identifier>oai:zenodo.org:228722</identifier>
      <datestamp>2017-01-03T03:54:35Z</datestamp>
      <setSpec>user-biosyslit</setSpec>
    </header>
    <header>
      <identifier>oai:zenodo.org:227755</identifier>
      <datestamp>2017-01-02T04:12:50Z</datestamp>
      <setSpec>user-biosyslit</setSpec>
    </header>
    <header>
      <identifier>oai:zenodo.org:227754</identifier>
      <datestamp>2017-01-02T04:12:47Z</datestamp>
      <setSpec>user-biosyslit</setSpec>
    </header>
    <header>
      <identifier>oai:zenodo.org:226999</identifier>
      <datestamp>2017-01-01T07:53:47Z</datestamp>
      <setSpec>user-biosyslit</setSpec>
    </header>
    <header>
      <identifier>oai:zenodo.org:226998</identifier>
      <datestamp>2017-01-01T07:53:43Z</datestamp>
      <setSpec>user-biosyslit</setSpec>
    </header>
    <header>
      <identifier>oai:zenodo.org:226997</identifier>
      <datestamp>2017-01-01T07:53:40Z</datestamp>
      <setSpec>user-biosyslit</setSpec>
    </header>
    <header>
      <identifier>oai:zenodo.org:227000</identifier>
      <datestamp>2017-01-01T07:53:50Z</datestamp>
      <setSpec>user-biosyslit</setSpec>
    </header>
    <header>
      <identifier>oai:zenodo.org:235977</identifier>
      <datestamp>2017-01-09T17:36:09Z</datestamp>
      <setSpec>user-biosyslit</setSpec>
    </header>
    <header>
      <identifier>oai:zenodo.org:236471</identifier>
      <datestamp>2017-01-10T00:33:41Z</datestamp>
      <setSpec>user-biosyslit</setSpec>
    </header>
    <header>
      <identifier>oai:zenodo.org:236470</identifier>
      <datestamp>2017-01-10T00:33:37Z</datestamp>
      <setSpec>user-biosyslit</setSpec>
    </header>
    <header>
      <identifier>oai:zenodo.org:235982</identifier>
      <datestamp>2017-01-09T17:36:07Z</datestamp>
      <setSpec>user-biosyslit</setSpec>
    </header>
    <header>
      <identifier>oai:zenodo.org:236472</identifier>
      <datestamp>2017-01-10T00:33:45Z</datestamp>
      <setSpec>user-biosyslit</setSpec>
    </header>
    <header>
      <identifier>oai:zenodo.org:230231</identifier>
      <datestamp>2017-01-04T21:27:16Z</datestamp>
      <setSpec>user-biosyslit</setSpec>
    </header>
    <header>
      <identifier>oai:zenodo.org:244519</identifier>
      <datestamp>2017-01-14T23:03:07Z</datestamp>
      <setSpec>user-biosyslit</setSpec>
    </header>
    <header>
      <identifier>oai:zenodo.org:244520</identifier>
      <datestamp>2017-01-14T23:02:59Z</datestamp>
      <setSpec>user-biosyslit</setSpec>
    </header>
    <header>
      <identifier>oai:zenodo.org:244521</identifier>
      <datestamp>2017-01-14T23:03:03Z</datestamp>
      <setSpec>user-biosyslit</setSpec>
    </header>
    <header>
      <identifier>oai:zenodo.org:244522</identifier>
      <datestamp>2017-01-14T23:03:05Z</datestamp>
      <setSpec>user-biosyslit</setSpec>
    </header>
    <header>
      <identifier>oai:zenodo.org:231349</identifier>
      <datestamp>2017-01-06T00:22:55Z</datestamp>
      <setSpec>user-biosyslit</setSpec>
    </header>
    <header>
      <identifier>oai:zenodo.org:231344</identifier>
      <datestamp>2017-01-06T00:22:38Z</datestamp>
      <setSpec>user-biosyslit</setSpec>
    </header>
    <header>
      <identifier>oai:zenodo.org:256918</identifier>
      <datestamp>2017-01-22T22:56:50Z</datestamp>
      <setSpec>user-biosyslit</setSpec>
    </header>
    <header>
      <identifier>oai:zenodo.org:231339</identifier>
      <datestamp>2017-01-06T00:22:22Z</datestamp>
      <setSpec>user-biosyslit</setSpec>
    </header>
    <header>
      <identifier>oai:zenodo.org:231348</identifier>
      <datestamp>2017-01-06T00:22:52Z</datestamp>
      <setSpec>user-biosyslit</setSpec>
    </header>
    <header>
      <identifier>oai:zenodo.org:256919</identifier>
      <datestamp>2017-01-22T22:56:52Z</datestamp>
      <setSpec>user-biosyslit</setSpec>
    </header>
    <header>
      <identifier>oai:zenodo.org:231338</identifier>
      <datestamp>2017-01-06T00:22:18Z</datestamp>
      <setSpec>user-biosyslit</setSpec>
    </header>
    <header>
      <identifier>oai:zenodo.org:256920</identifier>
      <datestamp>2017-01-22T22:56:56Z</datestamp>
      <setSpec>user-biosyslit</setSpec>
    </header>
    <header>
      <identifier>oai:zenodo.org:256921</identifier>
      <datestamp>2017-01-22T22:56:59Z</datestamp>
      <setSpec>user-biosyslit</setSpec>
    </header>
    <header>
      <identifier>oai:zenodo.org:227791</identifier>
      <datestamp>2017-01-02T05:06:04Z</datestamp>
      <setSpec>user-biosyslit</setSpec>
    </header>
    <header>
      <identifier>oai:zenodo.org:227805</identifier>
      <datestamp>2017-01-02T05:05:53Z</datestamp>
      <setSpec>user-biosyslit</setSpec>
    </header>
    <header>
      <identifier>oai:zenodo.org:227806</identifier>
      <datestamp>2017-01-02T05:05:57Z</datestamp>
      <setSpec>user-biosyslit</setSpec>
    </header>
    <header>
      <identifier>oai:zenodo.org:227800</identifier>
      <datestamp>2017-01-02T05:05:35Z</datestamp>
      <setSpec>user-biosyslit</setSpec>
    </header>
    <header>
      <identifier>oai:zenodo.org:249270</identifier>
      <datestamp>2017-01-17T18:11:25Z</datestamp>
      <setSpec>user-biosyslit</setSpec>
    </header>
    <header>
      <identifier>oai:zenodo.org:249269</identifier>
      <datestamp>2017-01-17T18:11:21Z</datestamp>
      <setSpec>user-biosyslit</setSpec>
    </header>
    <header>
      <identifier>oai:zenodo.org:249268</identifier>
      <datestamp>2017-01-17T18:11:17Z</datestamp>
      <setSpec>user-biosyslit</setSpec>
    </header>
    <header>
      <identifier>oai:zenodo.org:273567</identifier>
      <datestamp>2017-02-08T09:53:37Z</datestamp>
      <setSpec>user-biosyslit</setSpec>
    </header>
    <header>
      <identifier>oai:zenodo.org:285145</identifier>
      <datestamp>2017-02-09T12:44:54Z</datestamp>
      <setSpec>user-biosyslit</setSpec>
    </header>
    <header>
      <identifier>oai:zenodo.org:273568</identifier>
      <datestamp>2017-02-08T09:53:36Z</datestamp>
      <setSpec>user-biosyslit</setSpec>
    </header>
    <header>
      <identifier>oai:zenodo.org:285149</identifier>
      <datestamp>2017-02-09T12:44:47Z</datestamp>
      <setSpec>user-biosyslit</setSpec>
    </header>
    <header>
      <identifier>oai:zenodo.org:285148</identifier>
      <datestamp>2017-02-09T12:44:44Z</datestamp>
      <setSpec>user-biosyslit</setSpec>
    </header>
    <header>
      <identifier>oai:zenodo.org:285152</identifier>
      <datestamp>2017-02-09T12:44:53Z</datestamp>
      <setSpec>user-biosyslit</setSpec>
    </header>
    <header>
      <identifier>oai:zenodo.org:818369</identifier>
      <datestamp>2017-06-26T10:44:27Z</datestamp>
      <setSpec>user-biosyslit</setSpec>
    </header>
    <header>
      <identifier>oai:zenodo.org:818395</identifier>
      <datestamp>2017-06-26T10:49:39Z</datestamp>
      <setSpec>user-biosyslit</setSpec>
    </header>
    <header>
      <identifier>oai:zenodo.org:818409</identifier>
      <datestamp>2017-06-26T10:49:24Z</datestamp>
      <setSpec>user-biosyslit</setSpec>
    </header>
    <header>
      <identifier>oai:zenodo.org:818411</identifier>
      <datestamp>2017-06-26T10:49:27Z</datestamp>
      <setSpec>user-biosyslit</setSpec>
    </header>
    <header>
      <identifier>oai:zenodo.org:818399</identifier>
      <datestamp>2017-06-26T10:49:07Z</datestamp>
      <setSpec>user-biosyslit</setSpec>
    </header>
    <header>
      <identifier>oai:zenodo.org:818413</identifier>
      <datestamp>2017-06-26T10:49:31Z</datestamp>
      <setSpec>user-biosyslit</setSpec>
    </header>
    <header>
      <identifier>oai:zenodo.org:818405</identifier>
      <datestamp>2017-06-26T10:49:16Z</datestamp>
      <setSpec>user-biosyslit</setSpec>
    </header>
    <header>
      <identifier>oai:zenodo.org:818397</identifier>
      <datestamp>2017-06-26T10:49:03Z</datestamp>
      <setSpec>user-biosyslit</setSpec>
    </header>
    <header>
      <identifier>oai:zenodo.org:818670</identifier>
      <datestamp>2017-06-26T12:31:07Z</datestamp>
      <setSpec>user-biosyslit</setSpec>
    </header>
    <header>
      <identifier>oai:zenodo.org:818674</identifier>
      <datestamp>2017-06-26T12:31:13Z</datestamp>
      <setSpec>user-biosyslit</setSpec>
    </header>
    <header>
      <identifier>oai:zenodo.org:249082</identifier>
      <datestamp>2017-01-17T16:06:17Z</datestamp>
      <setSpec>user-biosyslit</setSpec>
    </header>
    <header>
      <identifier>oai:zenodo.org:249089</identifier>
      <datestamp>2017-01-17T16:06:16Z</datestamp>
      <setSpec>user-biosyslit</setSpec>
    </header>
    <header>
      <identifier>oai:zenodo.org:243890</identifier>
      <datestamp>2017-01-14T12:51:48Z</datestamp>
      <setSpec>user-biosyslit</setSpec>
    </header>
    <header>
      <identifier>oai:zenodo.org:243894</identifier>
      <datestamp>2017-01-14T12:51:59Z</datestamp>
      <setSpec>user-biosyslit</setSpec>
    </header>
    <header>
      <identifier>oai:zenodo.org:240968</identifier>
      <datestamp>2017-01-12T17:06:30Z</datestamp>
      <setSpec>user-biosyslit</setSpec>
    </header>
    <header>
      <identifier>oai:zenodo.org:262880</identifier>
      <datestamp>2017-01-29T10:54:23Z</datestamp>
      <setSpec>user-biosyslit</setSpec>
    </header>
    <header>
      <identifier>oai:zenodo.org:262886</identifier>
      <datestamp>2017-01-29T10:54:05Z</datestamp>
      <setSpec>user-biosyslit</setSpec>
    </header>
    <header>
      <identifier>oai:zenodo.org:262888</identifier>
      <datestamp>2017-01-29T10:54:13Z</datestamp>
      <setSpec>user-biosyslit</setSpec>
    </header>
    <header>
      <identifier>oai:zenodo.org:262887</identifier>
      <datestamp>2017-01-29T10:54:08Z</datestamp>
      <setSpec>user-biosyslit</setSpec>
    </header>
    <header>
      <identifier>oai:zenodo.org:262889</identifier>
      <datestamp>2017-01-29T10:54:15Z</datestamp>
      <setSpec>user-biosyslit</setSpec>
    </header>
    <header>
      <identifier>oai:zenodo.org:262891</identifier>
      <datestamp>2017-01-29T10:54:19Z</datestamp>
      <setSpec>user-biosyslit</setSpec>
    </header>
    <header>
      <identifier>oai:zenodo.org:285342</identifier>
      <datestamp>2017-02-09T13:21:06Z</datestamp>
      <setSpec>user-biosyslit</setSpec>
    </header>
    <header>
      <identifier>oai:zenodo.org:231432</identifier>
      <datestamp>2017-01-06T01:48:23Z</datestamp>
      <setSpec>user-biosyslit</setSpec>
    </header>
    <header>
      <identifier>oai:zenodo.org:231441</identifier>
      <datestamp>2017-01-06T01:48:22Z</datestamp>
      <setSpec>user-biosyslit</setSpec>
    </header>
    <header>
      <identifier>oai:zenodo.org:231440</identifier>
      <datestamp>2017-01-06T01:48:17Z</datestamp>
      <setSpec>user-biosyslit</setSpec>
    </header>
    <header>
      <identifier>oai:zenodo.org:231435</identifier>
      <datestamp>2017-01-06T01:48:04Z</datestamp>
      <setSpec>user-biosyslit</setSpec>
    </header>
    <header>
      <identifier>oai:zenodo.org:231438</identifier>
      <datestamp>2017-01-06T01:48:12Z</datestamp>
      <setSpec>user-biosyslit</setSpec>
    </header>
    <header>
      <identifier>oai:zenodo.org:285345</identifier>
      <datestamp>2017-02-09T13:20:59Z</datestamp>
      <setSpec>user-biosyslit</setSpec>
    </header>
    <header>
      <identifier>oai:zenodo.org:285343</identifier>
      <datestamp>2017-02-09T13:20:53Z</datestamp>
      <setSpec>user-biosyslit</setSpec>
    </header>
    <header>
      <identifier>oai:zenodo.org:281244</identifier>
      <datestamp>2017-02-09T05:00:21Z</datestamp>
      <setSpec>user-biosyslit</setSpec>
    </header>
    <resumptionToken expirationDate="2017-08-31T15:48:02Z" cursor="71800" completeListSize="77796">.eJyNyk0LgjAYAOD_8p4l9pFNhC6hSYeUtRzpJUxFrGXiinTif89L5zo_zwi6LAtw0WJpO5RQx14Rhh2CmAU67x5KneuZIT9JlTcqzgL5OtwlSkjFQk_3ey-hobmh6I6N2HJywk4f12jgx_iZmEMv6e4tkM_2hg_hdTe_gkaBSi9BK-JmowQpusjng8AbkdL8-_Cfz_x8nl6DBW1WleAygiy4vbOu0uCO0_QBnTRROw.DInAug.BgKOQ2ydwglUrMYc4pkLy2u4yc0</resumptionToken>
  </ListIdentifiers>
</OAI-PMH>
