<?xml version='1.0' encoding='UTF-8'?>
<?xml-stylesheet type="text/xsl" href="/static/xsl/oai2.v1.0.xsl"?>
<OAI-PMH xmlns="http://www.openarchives.org/OAI/2.0/" xmlns:xsi="http://www.w3.org/2001/XMLSchema-instance" xsi:schemaLocation="http://www.openarchives.org/OAI/2.0/ http://www.openarchives.org/OAI/2.0/OAI-PMH.xsd">
  <responseDate>2017-08-31T15:45:57Z</responseDate>
  <request verb="ListIdentifiers" resumptionToken=".eJyNyk0LgjAYAOD_8p4l9gUbQhfRxEOKrUl6CVMRa33gCnXif69L5zo_zwymaWpw0QpzKhgjjDEqBMbEAVP1d62P3YehOmS6umlVhtlrd81QTloe-2bc-jmN7QUlV2zlJiUHLEbVoSndq2dud2NGo0GigG9tOsXn6PNqmoS6OIUPqW6elqTukyCdJPZkQavvw38--_P5Zg0OPMq2AZcj7sBlKPvWgDsvyxuXDVE5.DInAtQ.bSd5RWYjFByer0VQdD7Tmd10r68">https://zenodo.org/oai2d</request>
  <ListIdentifiers>
    <header>
      <identifier>oai:zenodo.org:255671</identifier>
      <datestamp>2017-01-21T18:16:15Z</datestamp>
      <setSpec>user-biosyslit</setSpec>
    </header>
    <header>
      <identifier>oai:zenodo.org:277032</identifier>
      <datestamp>2017-02-08T20:14:41Z</datestamp>
      <setSpec>user-biosyslit</setSpec>
    </header>
    <header>
      <identifier>oai:zenodo.org:255672</identifier>
      <datestamp>2017-01-21T18:16:17Z</datestamp>
      <setSpec>user-biosyslit</setSpec>
    </header>
    <header>
      <identifier>oai:zenodo.org:277030</identifier>
      <datestamp>2017-02-08T20:14:42Z</datestamp>
      <setSpec>user-biosyslit</setSpec>
    </header>
    <header>
      <identifier>oai:zenodo.org:243125</identifier>
      <datestamp>2017-01-13T23:43:16Z</datestamp>
      <setSpec>user-biosyslit</setSpec>
    </header>
    <header>
      <identifier>oai:zenodo.org:243126</identifier>
      <datestamp>2017-01-13T23:43:20Z</datestamp>
      <setSpec>user-biosyslit</setSpec>
    </header>
    <header>
      <identifier>oai:zenodo.org:243128</identifier>
      <datestamp>2017-01-13T23:43:27Z</datestamp>
      <setSpec>user-biosyslit</setSpec>
    </header>
    <header>
      <identifier>oai:zenodo.org:288916</identifier>
      <datestamp>2017-02-09T22:09:25Z</datestamp>
      <setSpec>user-biosyslit</setSpec>
    </header>
    <header>
      <identifier>oai:zenodo.org:243131</identifier>
      <datestamp>2017-01-13T23:43:38Z</datestamp>
      <setSpec>user-biosyslit</setSpec>
    </header>
    <header>
      <identifier>oai:zenodo.org:282061</identifier>
      <datestamp>2017-02-09T06:24:06Z</datestamp>
      <setSpec>user-biosyslit</setSpec>
    </header>
    <header>
      <identifier>oai:zenodo.org:228374</identifier>
      <datestamp>2017-01-02T23:15:01Z</datestamp>
      <setSpec>user-biosyslit</setSpec>
    </header>
    <header>
      <identifier>oai:zenodo.org:228375</identifier>
      <datestamp>2017-01-02T23:15:05Z</datestamp>
      <setSpec>user-biosyslit</setSpec>
    </header>
    <header>
      <identifier>oai:zenodo.org:228376</identifier>
      <datestamp>2017-01-02T23:15:09Z</datestamp>
      <setSpec>user-biosyslit</setSpec>
    </header>
    <header>
      <identifier>oai:zenodo.org:234668</identifier>
      <datestamp>2017-01-08T23:42:09Z</datestamp>
      <setSpec>user-biosyslit</setSpec>
    </header>
    <header>
      <identifier>oai:zenodo.org:234669</identifier>
      <datestamp>2017-01-08T23:42:12Z</datestamp>
      <setSpec>user-biosyslit</setSpec>
    </header>
    <header>
      <identifier>oai:zenodo.org:228378</identifier>
      <datestamp>2017-01-02T23:15:20Z</datestamp>
      <setSpec>user-biosyslit</setSpec>
    </header>
    <header>
      <identifier>oai:zenodo.org:228380</identifier>
      <datestamp>2017-01-02T23:15:28Z</datestamp>
      <setSpec>user-biosyslit</setSpec>
    </header>
    <header>
      <identifier>oai:zenodo.org:228381</identifier>
      <datestamp>2017-01-02T23:15:31Z</datestamp>
      <setSpec>user-biosyslit</setSpec>
    </header>
    <header>
      <identifier>oai:zenodo.org:399375</identifier>
      <datestamp>2017-03-15T20:25:19Z</datestamp>
      <setSpec>user-biosyslit</setSpec>
    </header>
    <header>
      <identifier>oai:zenodo.org:399372</identifier>
      <datestamp>2017-03-15T20:25:10Z</datestamp>
      <setSpec>user-biosyslit</setSpec>
    </header>
    <header>
      <identifier>oai:zenodo.org:399371</identifier>
      <datestamp>2017-03-15T20:25:07Z</datestamp>
      <setSpec>user-biosyslit</setSpec>
    </header>
    <header>
      <identifier>oai:zenodo.org:290084</identifier>
      <datestamp>2017-02-10T01:14:32Z</datestamp>
      <setSpec>user-biosyslit</setSpec>
    </header>
    <header>
      <identifier>oai:zenodo.org:290079</identifier>
      <datestamp>2017-02-10T01:14:19Z</datestamp>
      <setSpec>user-biosyslit</setSpec>
    </header>
    <header>
      <identifier>oai:zenodo.org:290083</identifier>
      <datestamp>2017-02-10T01:14:30Z</datestamp>
      <setSpec>user-biosyslit</setSpec>
    </header>
    <header>
      <identifier>oai:zenodo.org:290078</identifier>
      <datestamp>2017-02-10T01:14:16Z</datestamp>
      <setSpec>user-biosyslit</setSpec>
    </header>
    <header>
      <identifier>oai:zenodo.org:290086</identifier>
      <datestamp>2017-02-10T01:14:37Z</datestamp>
      <setSpec>user-biosyslit</setSpec>
    </header>
    <header>
      <identifier>oai:zenodo.org:290081</identifier>
      <datestamp>2017-02-10T01:14:25Z</datestamp>
      <setSpec>user-biosyslit</setSpec>
    </header>
    <header>
      <identifier>oai:zenodo.org:290089</identifier>
      <datestamp>2017-02-10T01:14:44Z</datestamp>
      <setSpec>user-biosyslit</setSpec>
    </header>
    <header>
      <identifier>oai:zenodo.org:290085</identifier>
      <datestamp>2017-02-10T01:14:35Z</datestamp>
      <setSpec>user-biosyslit</setSpec>
    </header>
    <header>
      <identifier>oai:zenodo.org:234598</identifier>
      <datestamp>2017-01-08T22:34:07Z</datestamp>
      <setSpec>user-biosyslit</setSpec>
    </header>
    <header>
      <identifier>oai:zenodo.org:276421</identifier>
      <datestamp>2017-02-08T18:49:01Z</datestamp>
      <setSpec>user-biosyslit</setSpec>
    </header>
    <header>
      <identifier>oai:zenodo.org:276423</identifier>
      <datestamp>2017-02-08T18:48:53Z</datestamp>
      <setSpec>user-biosyslit</setSpec>
    </header>
    <header>
      <identifier>oai:zenodo.org:276424</identifier>
      <datestamp>2017-02-08T18:48:55Z</datestamp>
      <setSpec>user-biosyslit</setSpec>
    </header>
    <header>
      <identifier>oai:zenodo.org:276422</identifier>
      <datestamp>2017-02-08T18:48:52Z</datestamp>
      <setSpec>user-biosyslit</setSpec>
    </header>
    <header>
      <identifier>oai:zenodo.org:246362</identifier>
      <datestamp>2017-01-16T01:34:37Z</datestamp>
      <setSpec>user-biosyslit</setSpec>
    </header>
    <header>
      <identifier>oai:zenodo.org:246397</identifier>
      <datestamp>2017-01-16T01:34:32Z</datestamp>
      <setSpec>user-biosyslit</setSpec>
    </header>
    <header>
      <identifier>oai:zenodo.org:246388</identifier>
      <datestamp>2017-01-16T01:33:58Z</datestamp>
      <setSpec>user-biosyslit</setSpec>
    </header>
    <header>
      <identifier>oai:zenodo.org:246395</identifier>
      <datestamp>2017-01-16T01:34:26Z</datestamp>
      <setSpec>user-biosyslit</setSpec>
    </header>
    <header>
      <identifier>oai:zenodo.org:246391</identifier>
      <datestamp>2017-01-16T01:34:08Z</datestamp>
      <setSpec>user-biosyslit</setSpec>
    </header>
    <header>
      <identifier>oai:zenodo.org:246389</identifier>
      <datestamp>2017-01-16T01:34:02Z</datestamp>
      <setSpec>user-biosyslit</setSpec>
    </header>
    <header>
      <identifier>oai:zenodo.org:246382</identifier>
      <datestamp>2017-01-16T01:33:36Z</datestamp>
      <setSpec>user-biosyslit</setSpec>
    </header>
    <header>
      <identifier>oai:zenodo.org:246393</identifier>
      <datestamp>2017-01-16T01:34:18Z</datestamp>
      <setSpec>user-biosyslit</setSpec>
    </header>
    <header>
      <identifier>oai:zenodo.org:270347</identifier>
      <datestamp>2017-02-07T23:02:56Z</datestamp>
      <setSpec>user-biosyslit</setSpec>
    </header>
    <header>
      <identifier>oai:zenodo.org:275171</identifier>
      <datestamp>2017-02-08T15:28:40Z</datestamp>
      <setSpec>user-biosyslit</setSpec>
    </header>
    <header>
      <identifier>oai:zenodo.org:249520</identifier>
      <datestamp>2017-01-17T20:52:45Z</datestamp>
      <setSpec>user-biosyslit</setSpec>
    </header>
    <header>
      <identifier>oai:zenodo.org:236161</identifier>
      <datestamp>2017-01-09T19:01:56Z</datestamp>
      <setSpec>user-biosyslit</setSpec>
    </header>
    <header>
      <identifier>oai:zenodo.org:236163</identifier>
      <datestamp>2017-01-09T19:02:05Z</datestamp>
      <setSpec>user-biosyslit</setSpec>
    </header>
    <header>
      <identifier>oai:zenodo.org:275174</identifier>
      <datestamp>2017-02-08T15:28:33Z</datestamp>
      <setSpec>user-biosyslit</setSpec>
    </header>
    <header>
      <identifier>oai:zenodo.org:249540</identifier>
      <datestamp>2017-01-17T20:52:44Z</datestamp>
      <setSpec>user-biosyslit</setSpec>
    </header>
    <header>
      <identifier>oai:zenodo.org:275172</identifier>
      <datestamp>2017-02-08T15:28:29Z</datestamp>
      <setSpec>user-biosyslit</setSpec>
    </header>
    <header>
      <identifier>oai:zenodo.org:275176</identifier>
      <datestamp>2017-02-08T15:28:39Z</datestamp>
      <setSpec>user-biosyslit</setSpec>
    </header>
    <header>
      <identifier>oai:zenodo.org:229938</identifier>
      <datestamp>2017-01-04T16:09:58Z</datestamp>
      <setSpec>user-biosyslit</setSpec>
    </header>
    <header>
      <identifier>oai:zenodo.org:229940</identifier>
      <datestamp>2017-01-04T16:09:42Z</datestamp>
      <setSpec>user-biosyslit</setSpec>
    </header>
    <header>
      <identifier>oai:zenodo.org:229943</identifier>
      <datestamp>2017-01-04T16:09:53Z</datestamp>
      <setSpec>user-biosyslit</setSpec>
    </header>
    <header>
      <identifier>oai:zenodo.org:229941</identifier>
      <datestamp>2017-01-04T16:09:46Z</datestamp>
      <setSpec>user-biosyslit</setSpec>
    </header>
    <header>
      <identifier>oai:zenodo.org:245595</identifier>
      <datestamp>2017-01-15T16:09:46Z</datestamp>
      <setSpec>user-biosyslit</setSpec>
    </header>
    <header>
      <identifier>oai:zenodo.org:245599</identifier>
      <datestamp>2017-01-15T16:09:33Z</datestamp>
      <setSpec>user-biosyslit</setSpec>
    </header>
    <header>
      <identifier>oai:zenodo.org:245600</identifier>
      <datestamp>2017-01-15T16:09:39Z</datestamp>
      <setSpec>user-biosyslit</setSpec>
    </header>
    <header>
      <identifier>oai:zenodo.org:281754</identifier>
      <datestamp>2017-02-09T05:51:14Z</datestamp>
      <setSpec>user-biosyslit</setSpec>
    </header>
    <header>
      <identifier>oai:zenodo.org:278784</identifier>
      <datestamp>2017-02-08T23:52:52Z</datestamp>
      <setSpec>user-biosyslit</setSpec>
    </header>
    <header>
      <identifier>oai:zenodo.org:281751</identifier>
      <datestamp>2017-02-09T05:51:06Z</datestamp>
      <setSpec>user-biosyslit</setSpec>
    </header>
    <header>
      <identifier>oai:zenodo.org:281752</identifier>
      <datestamp>2017-02-09T05:51:08Z</datestamp>
      <setSpec>user-biosyslit</setSpec>
    </header>
    <header>
      <identifier>oai:zenodo.org:245601</identifier>
      <datestamp>2017-01-15T16:09:42Z</datestamp>
      <setSpec>user-biosyslit</setSpec>
    </header>
    <header>
      <identifier>oai:zenodo.org:274233</identifier>
      <datestamp>2017-02-08T12:31:03Z</datestamp>
      <setSpec>user-biosyslit</setSpec>
    </header>
    <header>
      <identifier>oai:zenodo.org:274231</identifier>
      <datestamp>2017-02-08T12:30:56Z</datestamp>
      <setSpec>user-biosyslit</setSpec>
    </header>
    <header>
      <identifier>oai:zenodo.org:274229</identifier>
      <datestamp>2017-02-08T12:30:52Z</datestamp>
      <setSpec>user-biosyslit</setSpec>
    </header>
    <header>
      <identifier>oai:zenodo.org:274602</identifier>
      <datestamp>2017-02-08T13:47:06Z</datestamp>
      <setSpec>user-biosyslit</setSpec>
    </header>
    <header>
      <identifier>oai:zenodo.org:279908</identifier>
      <datestamp>2017-02-09T02:16:07Z</datestamp>
      <setSpec>user-biosyslit</setSpec>
    </header>
    <header>
      <identifier>oai:zenodo.org:288030</identifier>
      <datestamp>2017-02-09T19:51:12Z</datestamp>
      <setSpec>user-biosyslit</setSpec>
    </header>
    <header>
      <identifier>oai:zenodo.org:275445</identifier>
      <datestamp>2017-02-08T16:29:39Z</datestamp>
      <setSpec>user-biosyslit</setSpec>
    </header>
    <header>
      <identifier>oai:zenodo.org:275448</identifier>
      <datestamp>2017-02-08T16:29:31Z</datestamp>
      <setSpec>user-biosyslit</setSpec>
    </header>
    <header>
      <identifier>oai:zenodo.org:275447</identifier>
      <datestamp>2017-02-08T16:29:25Z</datestamp>
      <setSpec>user-biosyslit</setSpec>
    </header>
    <header>
      <identifier>oai:zenodo.org:275446</identifier>
      <datestamp>2017-02-08T16:29:22Z</datestamp>
      <setSpec>user-biosyslit</setSpec>
    </header>
    <header>
      <identifier>oai:zenodo.org:257763</identifier>
      <datestamp>2017-01-23T13:17:45Z</datestamp>
      <setSpec>user-biosyslit</setSpec>
    </header>
    <header>
      <identifier>oai:zenodo.org:257767</identifier>
      <datestamp>2017-01-23T13:17:41Z</datestamp>
      <setSpec>user-biosyslit</setSpec>
    </header>
    <header>
      <identifier>oai:zenodo.org:257768</identifier>
      <datestamp>2017-01-23T13:17:43Z</datestamp>
      <setSpec>user-biosyslit</setSpec>
    </header>
    <header>
      <identifier>oai:zenodo.org:253179</identifier>
      <datestamp>2017-01-20T03:27:28Z</datestamp>
      <setSpec>user-biosyslit</setSpec>
    </header>
    <header>
      <identifier>oai:zenodo.org:253181</identifier>
      <datestamp>2017-01-20T03:26:56Z</datestamp>
      <setSpec>user-biosyslit</setSpec>
    </header>
    <header>
      <identifier>oai:zenodo.org:253180</identifier>
      <datestamp>2017-01-20T03:26:53Z</datestamp>
      <setSpec>user-biosyslit</setSpec>
    </header>
    <header>
      <identifier>oai:zenodo.org:253185</identifier>
      <datestamp>2017-01-20T03:27:08Z</datestamp>
      <setSpec>user-biosyslit</setSpec>
    </header>
    <header>
      <identifier>oai:zenodo.org:253182</identifier>
      <datestamp>2017-01-20T03:26:59Z</datestamp>
      <setSpec>user-biosyslit</setSpec>
    </header>
    <header>
      <identifier>oai:zenodo.org:253189</identifier>
      <datestamp>2017-01-20T03:27:19Z</datestamp>
      <setSpec>user-biosyslit</setSpec>
    </header>
    <header>
      <identifier>oai:zenodo.org:253190</identifier>
      <datestamp>2017-01-20T03:27:21Z</datestamp>
      <setSpec>user-biosyslit</setSpec>
    </header>
    <header>
      <identifier>oai:zenodo.org:253191</identifier>
      <datestamp>2017-01-20T03:27:24Z</datestamp>
      <setSpec>user-biosyslit</setSpec>
    </header>
    <header>
      <identifier>oai:zenodo.org:236976</identifier>
      <datestamp>2017-01-10T09:03:44Z</datestamp>
      <setSpec>user-biosyslit</setSpec>
    </header>
    <header>
      <identifier>oai:zenodo.org:288150</identifier>
      <datestamp>2017-02-09T20:08:39Z</datestamp>
      <setSpec>user-biosyslit</setSpec>
    </header>
    <header>
      <identifier>oai:zenodo.org:236977</identifier>
      <datestamp>2017-01-10T09:03:50Z</datestamp>
      <setSpec>user-biosyslit</setSpec>
    </header>
    <header>
      <identifier>oai:zenodo.org:288160</identifier>
      <datestamp>2017-02-09T20:09:07Z</datestamp>
      <setSpec>user-biosyslit</setSpec>
    </header>
    <header>
      <identifier>oai:zenodo.org:288161</identifier>
      <datestamp>2017-02-09T20:09:10Z</datestamp>
      <setSpec>user-biosyslit</setSpec>
    </header>
    <header>
      <identifier>oai:zenodo.org:288158</identifier>
      <datestamp>2017-02-09T20:09:02Z</datestamp>
      <setSpec>user-biosyslit</setSpec>
    </header>
    <header>
      <identifier>oai:zenodo.org:288153</identifier>
      <datestamp>2017-02-09T20:08:47Z</datestamp>
      <setSpec>user-biosyslit</setSpec>
    </header>
    <header>
      <identifier>oai:zenodo.org:288162</identifier>
      <datestamp>2017-02-09T20:09:12Z</datestamp>
      <setSpec>user-biosyslit</setSpec>
    </header>
    <header>
      <identifier>oai:zenodo.org:288155</identifier>
      <datestamp>2017-02-09T20:08:53Z</datestamp>
      <setSpec>user-biosyslit</setSpec>
    </header>
    <header>
      <identifier>oai:zenodo.org:234553</identifier>
      <datestamp>2017-01-08T21:32:55Z</datestamp>
      <setSpec>user-biosyslit</setSpec>
    </header>
    <header>
      <identifier>oai:zenodo.org:256013</identifier>
      <datestamp>2017-01-22T02:23:17Z</datestamp>
      <setSpec>user-biosyslit</setSpec>
    </header>
    <header>
      <identifier>oai:zenodo.org:264569</identifier>
      <datestamp>2017-01-30T23:30:27Z</datestamp>
      <setSpec>user-biosyslit</setSpec>
    </header>
    <header>
      <identifier>oai:zenodo.org:264571</identifier>
      <datestamp>2017-01-30T23:30:26Z</datestamp>
      <setSpec>user-biosyslit</setSpec>
    </header>
    <header>
      <identifier>oai:zenodo.org:256014</identifier>
      <datestamp>2017-01-22T02:23:11Z</datestamp>
      <setSpec>user-biosyslit</setSpec>
    </header>
    <header>
      <identifier>oai:zenodo.org:234554</identifier>
      <datestamp>2017-01-08T21:32:31Z</datestamp>
      <setSpec>user-biosyslit</setSpec>
    </header>
    <header>
      <identifier>oai:zenodo.org:234559</identifier>
      <datestamp>2017-01-08T21:32:53Z</datestamp>
      <setSpec>user-biosyslit</setSpec>
    </header>
    <resumptionToken expirationDate="2017-08-31T15:47:57Z" cursor="70600" completeListSize="77796">.eJyNyj0LgkAYAOD_8s4S92HeJbSIJg4qdinpEqYi5lnhFelF_72W5pqf5wmqaWqw0YIuTWSuCLcI4xajlgGqGi9SHroPQ7XPZHWWaeln9-2QoZy0LHLVFLo5jXSP4gFrsUnIHvMp7dCc7NJbrrdTRoOHQB4LdTJHp-Dzahr7sjj6V5GeHSlIPcZeMgvsiIJW34f_fPrnc9UaDLiWbQM2Q9yA_lGOrQL7-Xq9AaV6UUo.DInAtQ.KYAQbxvMcqmBqkEmGhBx40Dp4lQ</resumptionToken>
  </ListIdentifiers>
</OAI-PMH>
