<?xml version='1.0' encoding='UTF-8'?>
<?xml-stylesheet type="text/xsl" href="/static/xsl/oai2.v1.0.xsl"?>
<OAI-PMH xmlns="http://www.openarchives.org/OAI/2.0/" xmlns:xsi="http://www.w3.org/2001/XMLSchema-instance" xsi:schemaLocation="http://www.openarchives.org/OAI/2.0/ http://www.openarchives.org/OAI/2.0/OAI-PMH.xsd">
  <responseDate>2017-08-31T15:45:59Z</responseDate>
  <request verb="ListIdentifiers" resumptionToken=".eJyNysEKgjAYAOB3-c8S2zSXQpewxIOKLUW7hE0Rc5q4Ql307nnpXOfve4EsywJstKKEWsbasLC5NrGBNxpIPtyFuNQLA08TwTsR527yPLYJykhFA0dOvpPpgWpQ2GLFDhFJ8WaKazRHp_iRqeOU6N7I0J76KpqDm7e8Qg9dcb66PYu7nWCkGMJ9NDO8Y2edfx_-86mfz5Fb0KDPqxJsiokGzZgPlQT79X5_AKS0UUQ.DInAtw.pfiBe5cGPIeQ1MGqwYLLhxNUTTo">https://zenodo.org/oai2d</request>
  <ListIdentifiers>
    <header>
      <identifier>oai:zenodo.org:274485</identifier>
      <datestamp>2017-02-08T13:29:12Z</datestamp>
      <setSpec>user-biosyslit</setSpec>
    </header>
    <header>
      <identifier>oai:zenodo.org:241085</identifier>
      <datestamp>2017-01-12T19:40:40Z</datestamp>
      <setSpec>user-biosyslit</setSpec>
    </header>
    <header>
      <identifier>oai:zenodo.org:241084</identifier>
      <datestamp>2017-01-12T19:40:34Z</datestamp>
      <setSpec>user-biosyslit</setSpec>
    </header>
    <header>
      <identifier>oai:zenodo.org:277778</identifier>
      <datestamp>2017-02-08T21:47:58Z</datestamp>
      <setSpec>user-biosyslit</setSpec>
    </header>
    <header>
      <identifier>oai:zenodo.org:275240</identifier>
      <datestamp>2017-02-08T15:47:05Z</datestamp>
      <setSpec>user-biosyslit</setSpec>
    </header>
    <header>
      <identifier>oai:zenodo.org:275239</identifier>
      <datestamp>2017-02-08T15:47:07Z</datestamp>
      <setSpec>user-biosyslit</setSpec>
    </header>
    <header>
      <identifier>oai:zenodo.org:235866</identifier>
      <datestamp>2017-01-09T16:13:11Z</datestamp>
      <setSpec>user-biosyslit</setSpec>
    </header>
    <header>
      <identifier>oai:zenodo.org:235867</identifier>
      <datestamp>2017-01-09T16:13:06Z</datestamp>
      <setSpec>user-biosyslit</setSpec>
    </header>
    <header>
      <identifier>oai:zenodo.org:231579</identifier>
      <datestamp>2017-01-06T04:30:58Z</datestamp>
      <setSpec>user-biosyslit</setSpec>
    </header>
    <header>
      <identifier>oai:zenodo.org:399950</identifier>
      <datestamp>2017-03-16T01:40:10Z</datestamp>
      <setSpec>user-biosyslit</setSpec>
    </header>
    <header>
      <identifier>oai:zenodo.org:399947</identifier>
      <datestamp>2017-03-16T01:40:03Z</datestamp>
      <setSpec>user-biosyslit</setSpec>
    </header>
    <header>
      <identifier>oai:zenodo.org:399948</identifier>
      <datestamp>2017-03-16T01:40:05Z</datestamp>
      <setSpec>user-biosyslit</setSpec>
    </header>
    <header>
      <identifier>oai:zenodo.org:399951</identifier>
      <datestamp>2017-03-16T01:40:12Z</datestamp>
      <setSpec>user-biosyslit</setSpec>
    </header>
    <header>
      <identifier>oai:zenodo.org:286051</identifier>
      <datestamp>2017-02-09T15:08:00Z</datestamp>
      <setSpec>user-biosyslit</setSpec>
    </header>
    <header>
      <identifier>oai:zenodo.org:399954</identifier>
      <datestamp>2017-03-16T01:40:19Z</datestamp>
      <setSpec>user-biosyslit</setSpec>
    </header>
    <header>
      <identifier>oai:zenodo.org:399949</identifier>
      <datestamp>2017-03-16T01:40:07Z</datestamp>
      <setSpec>user-biosyslit</setSpec>
    </header>
    <header>
      <identifier>oai:zenodo.org:399955</identifier>
      <datestamp>2017-03-16T01:40:22Z</datestamp>
      <setSpec>user-biosyslit</setSpec>
    </header>
    <header>
      <identifier>oai:zenodo.org:399961</identifier>
      <datestamp>2017-03-16T01:40:39Z</datestamp>
      <setSpec>user-biosyslit</setSpec>
    </header>
    <header>
      <identifier>oai:zenodo.org:399959</identifier>
      <datestamp>2017-03-16T01:40:33Z</datestamp>
      <setSpec>user-biosyslit</setSpec>
    </header>
    <header>
      <identifier>oai:zenodo.org:399958</identifier>
      <datestamp>2017-03-16T01:40:30Z</datestamp>
      <setSpec>user-biosyslit</setSpec>
    </header>
    <header>
      <identifier>oai:zenodo.org:399960</identifier>
      <datestamp>2017-03-16T01:40:36Z</datestamp>
      <setSpec>user-biosyslit</setSpec>
    </header>
    <header>
      <identifier>oai:zenodo.org:399957</identifier>
      <datestamp>2017-03-16T01:40:27Z</datestamp>
      <setSpec>user-biosyslit</setSpec>
    </header>
    <header>
      <identifier>oai:zenodo.org:399962</identifier>
      <datestamp>2017-03-16T01:40:42Z</datestamp>
      <setSpec>user-biosyslit</setSpec>
    </header>
    <header>
      <identifier>oai:zenodo.org:227063</identifier>
      <datestamp>2017-01-01T09:07:30Z</datestamp>
      <setSpec>user-biosyslit</setSpec>
    </header>
    <header>
      <identifier>oai:zenodo.org:244227</identifier>
      <datestamp>2017-01-14T17:48:52Z</datestamp>
      <setSpec>user-biosyslit</setSpec>
    </header>
    <header>
      <identifier>oai:zenodo.org:244231</identifier>
      <datestamp>2017-01-14T17:48:40Z</datestamp>
      <setSpec>user-biosyslit</setSpec>
    </header>
    <header>
      <identifier>oai:zenodo.org:244229</identifier>
      <datestamp>2017-01-14T17:48:34Z</datestamp>
      <setSpec>user-biosyslit</setSpec>
    </header>
    <header>
      <identifier>oai:zenodo.org:241368</identifier>
      <datestamp>2017-01-13T00:26:09Z</datestamp>
      <setSpec>user-biosyslit</setSpec>
    </header>
    <header>
      <identifier>oai:zenodo.org:232608</identifier>
      <datestamp>2017-01-06T20:23:06Z</datestamp>
      <setSpec>user-biosyslit</setSpec>
    </header>
    <header>
      <identifier>oai:zenodo.org:232609</identifier>
      <datestamp>2017-01-06T20:23:11Z</datestamp>
      <setSpec>user-biosyslit</setSpec>
    </header>
    <header>
      <identifier>oai:zenodo.org:241370</identifier>
      <datestamp>2017-01-13T00:26:05Z</datestamp>
      <setSpec>user-biosyslit</setSpec>
    </header>
    <header>
      <identifier>oai:zenodo.org:241371</identifier>
      <datestamp>2017-01-13T00:26:08Z</datestamp>
      <setSpec>user-biosyslit</setSpec>
    </header>
    <header>
      <identifier>oai:zenodo.org:249875</identifier>
      <datestamp>2017-01-18T01:13:21Z</datestamp>
      <setSpec>user-biosyslit</setSpec>
    </header>
    <header>
      <identifier>oai:zenodo.org:232803</identifier>
      <datestamp>2017-01-06T23:19:35Z</datestamp>
      <setSpec>user-biosyslit</setSpec>
    </header>
    <header>
      <identifier>oai:zenodo.org:232807</identifier>
      <datestamp>2017-01-06T23:19:26Z</datestamp>
      <setSpec>user-biosyslit</setSpec>
    </header>
    <header>
      <identifier>oai:zenodo.org:232804</identifier>
      <datestamp>2017-01-06T23:19:13Z</datestamp>
      <setSpec>user-biosyslit</setSpec>
    </header>
    <header>
      <identifier>oai:zenodo.org:232805</identifier>
      <datestamp>2017-01-06T23:19:17Z</datestamp>
      <setSpec>user-biosyslit</setSpec>
    </header>
    <header>
      <identifier>oai:zenodo.org:271460</identifier>
      <datestamp>2017-02-08T01:45:32Z</datestamp>
      <setSpec>user-biosyslit</setSpec>
    </header>
    <header>
      <identifier>oai:zenodo.org:240794</identifier>
      <datestamp>2017-01-12T13:58:33Z</datestamp>
      <setSpec>user-biosyslit</setSpec>
    </header>
    <header>
      <identifier>oai:zenodo.org:240790</identifier>
      <datestamp>2017-01-12T13:58:03Z</datestamp>
      <setSpec>user-biosyslit</setSpec>
    </header>
    <header>
      <identifier>oai:zenodo.org:240784</identifier>
      <datestamp>2017-01-12T13:57:35Z</datestamp>
      <setSpec>user-biosyslit</setSpec>
    </header>
    <header>
      <identifier>oai:zenodo.org:240783</identifier>
      <datestamp>2017-01-12T13:57:30Z</datestamp>
      <setSpec>user-biosyslit</setSpec>
    </header>
    <header>
      <identifier>oai:zenodo.org:240780</identifier>
      <datestamp>2017-01-12T13:57:18Z</datestamp>
      <setSpec>user-biosyslit</setSpec>
    </header>
    <header>
      <identifier>oai:zenodo.org:240792</identifier>
      <datestamp>2017-01-12T13:58:27Z</datestamp>
      <setSpec>user-biosyslit</setSpec>
    </header>
    <header>
      <identifier>oai:zenodo.org:240782</identifier>
      <datestamp>2017-01-12T13:57:27Z</datestamp>
      <setSpec>user-biosyslit</setSpec>
    </header>
    <header>
      <identifier>oai:zenodo.org:280853</identifier>
      <datestamp>2017-02-09T04:13:32Z</datestamp>
      <setSpec>user-biosyslit</setSpec>
    </header>
    <header>
      <identifier>oai:zenodo.org:243669</identifier>
      <datestamp>2017-01-14T08:58:57Z</datestamp>
      <setSpec>user-biosyslit</setSpec>
    </header>
    <header>
      <identifier>oai:zenodo.org:243670</identifier>
      <datestamp>2017-01-14T08:59:01Z</datestamp>
      <setSpec>user-biosyslit</setSpec>
    </header>
    <header>
      <identifier>oai:zenodo.org:287581</identifier>
      <datestamp>2017-02-09T18:40:41Z</datestamp>
      <setSpec>user-biosyslit</setSpec>
    </header>
    <header>
      <identifier>oai:zenodo.org:287579</identifier>
      <datestamp>2017-02-09T18:40:36Z</datestamp>
      <setSpec>user-biosyslit</setSpec>
    </header>
    <header>
      <identifier>oai:zenodo.org:287580</identifier>
      <datestamp>2017-02-09T18:40:39Z</datestamp>
      <setSpec>user-biosyslit</setSpec>
    </header>
    <header>
      <identifier>oai:zenodo.org:242622</identifier>
      <datestamp>2017-01-13T17:50:59Z</datestamp>
      <setSpec>user-biosyslit</setSpec>
    </header>
    <header>
      <identifier>oai:zenodo.org:287588</identifier>
      <datestamp>2017-02-09T18:40:59Z</datestamp>
      <setSpec>user-biosyslit</setSpec>
    </header>
    <header>
      <identifier>oai:zenodo.org:287586</identifier>
      <datestamp>2017-02-09T18:40:55Z</datestamp>
      <setSpec>user-biosyslit</setSpec>
    </header>
    <header>
      <identifier>oai:zenodo.org:287583</identifier>
      <datestamp>2017-02-09T18:40:46Z</datestamp>
      <setSpec>user-biosyslit</setSpec>
    </header>
    <header>
      <identifier>oai:zenodo.org:287584</identifier>
      <datestamp>2017-02-09T18:40:50Z</datestamp>
      <setSpec>user-biosyslit</setSpec>
    </header>
    <header>
      <identifier>oai:zenodo.org:253862</identifier>
      <datestamp>2017-01-20T11:46:33Z</datestamp>
      <setSpec>user-biosyslit</setSpec>
    </header>
    <header>
      <identifier>oai:zenodo.org:253861</identifier>
      <datestamp>2017-01-20T11:46:30Z</datestamp>
      <setSpec>user-biosyslit</setSpec>
    </header>
    <header>
      <identifier>oai:zenodo.org:253851</identifier>
      <datestamp>2017-01-20T11:45:59Z</datestamp>
      <setSpec>user-biosyslit</setSpec>
    </header>
    <header>
      <identifier>oai:zenodo.org:253859</identifier>
      <datestamp>2017-01-20T11:46:25Z</datestamp>
      <setSpec>user-biosyslit</setSpec>
    </header>
    <header>
      <identifier>oai:zenodo.org:253855</identifier>
      <datestamp>2017-01-20T11:46:10Z</datestamp>
      <setSpec>user-biosyslit</setSpec>
    </header>
    <header>
      <identifier>oai:zenodo.org:253853</identifier>
      <datestamp>2017-01-20T11:46:05Z</datestamp>
      <setSpec>user-biosyslit</setSpec>
    </header>
    <header>
      <identifier>oai:zenodo.org:253860</identifier>
      <datestamp>2017-01-20T11:46:28Z</datestamp>
      <setSpec>user-biosyslit</setSpec>
    </header>
    <header>
      <identifier>oai:zenodo.org:253850</identifier>
      <datestamp>2017-01-20T11:45:56Z</datestamp>
      <setSpec>user-biosyslit</setSpec>
    </header>
    <header>
      <identifier>oai:zenodo.org:253858</identifier>
      <datestamp>2017-01-20T11:46:23Z</datestamp>
      <setSpec>user-biosyslit</setSpec>
    </header>
    <header>
      <identifier>oai:zenodo.org:240530</identifier>
      <datestamp>2017-01-12T09:54:39Z</datestamp>
      <setSpec>user-biosyslit</setSpec>
    </header>
    <header>
      <identifier>oai:zenodo.org:240528</identifier>
      <datestamp>2017-01-12T09:54:33Z</datestamp>
      <setSpec>user-biosyslit</setSpec>
    </header>
    <header>
      <identifier>oai:zenodo.org:240527</identifier>
      <datestamp>2017-01-12T09:54:30Z</datestamp>
      <setSpec>user-biosyslit</setSpec>
    </header>
    <header>
      <identifier>oai:zenodo.org:230573</identifier>
      <datestamp>2017-01-05T03:54:21Z</datestamp>
      <setSpec>user-biosyslit</setSpec>
    </header>
    <header>
      <identifier>oai:zenodo.org:230575</identifier>
      <datestamp>2017-01-05T03:54:28Z</datestamp>
      <setSpec>user-biosyslit</setSpec>
    </header>
    <header>
      <identifier>oai:zenodo.org:230572</identifier>
      <datestamp>2017-01-05T03:54:18Z</datestamp>
      <setSpec>user-biosyslit</setSpec>
    </header>
    <header>
      <identifier>oai:zenodo.org:230578</identifier>
      <datestamp>2017-01-05T03:54:37Z</datestamp>
      <setSpec>user-biosyslit</setSpec>
    </header>
    <header>
      <identifier>oai:zenodo.org:281725</identifier>
      <datestamp>2017-02-09T05:49:08Z</datestamp>
      <setSpec>user-biosyslit</setSpec>
    </header>
    <header>
      <identifier>oai:zenodo.org:280222</identifier>
      <datestamp>2017-02-09T03:00:19Z</datestamp>
      <setSpec>user-biosyslit</setSpec>
    </header>
    <header>
      <identifier>oai:zenodo.org:246381</identifier>
      <datestamp>2017-01-16T01:33:33Z</datestamp>
      <setSpec>user-biosyslit</setSpec>
    </header>
    <header>
      <identifier>oai:zenodo.org:246365</identifier>
      <datestamp>2017-01-16T01:32:34Z</datestamp>
      <setSpec>user-biosyslit</setSpec>
    </header>
    <header>
      <identifier>oai:zenodo.org:246380</identifier>
      <datestamp>2017-01-16T01:33:30Z</datestamp>
      <setSpec>user-biosyslit</setSpec>
    </header>
    <header>
      <identifier>oai:zenodo.org:246363</identifier>
      <datestamp>2017-01-16T01:32:27Z</datestamp>
      <setSpec>user-biosyslit</setSpec>
    </header>
    <header>
      <identifier>oai:zenodo.org:246377</identifier>
      <datestamp>2017-01-16T01:33:21Z</datestamp>
      <setSpec>user-biosyslit</setSpec>
    </header>
    <header>
      <identifier>oai:zenodo.org:246379</identifier>
      <datestamp>2017-01-16T01:33:27Z</datestamp>
      <setSpec>user-biosyslit</setSpec>
    </header>
    <header>
      <identifier>oai:zenodo.org:246371</identifier>
      <datestamp>2017-01-16T01:32:57Z</datestamp>
      <setSpec>user-biosyslit</setSpec>
    </header>
    <header>
      <identifier>oai:zenodo.org:246376</identifier>
      <datestamp>2017-01-16T01:33:17Z</datestamp>
      <setSpec>user-biosyslit</setSpec>
    </header>
    <header>
      <identifier>oai:zenodo.org:232555</identifier>
      <datestamp>2017-01-06T19:41:51Z</datestamp>
      <setSpec>user-biosyslit</setSpec>
    </header>
    <header>
      <identifier>oai:zenodo.org:239136</identifier>
      <datestamp>2017-01-11T16:57:20Z</datestamp>
      <setSpec>user-biosyslit</setSpec>
    </header>
    <header>
      <identifier>oai:zenodo.org:239144</identifier>
      <datestamp>2017-01-11T16:57:15Z</datestamp>
      <setSpec>user-biosyslit</setSpec>
    </header>
    <header>
      <identifier>oai:zenodo.org:239141</identifier>
      <datestamp>2017-01-11T16:56:59Z</datestamp>
      <setSpec>user-biosyslit</setSpec>
    </header>
    <header>
      <identifier>oai:zenodo.org:239140</identifier>
      <datestamp>2017-01-11T16:56:52Z</datestamp>
      <setSpec>user-biosyslit</setSpec>
    </header>
    <header>
      <identifier>oai:zenodo.org:239139</identifier>
      <datestamp>2017-01-11T16:56:49Z</datestamp>
      <setSpec>user-biosyslit</setSpec>
    </header>
    <header>
      <identifier>oai:zenodo.org:239145</identifier>
      <datestamp>2017-01-11T16:57:18Z</datestamp>
      <setSpec>user-biosyslit</setSpec>
    </header>
    <header>
      <identifier>oai:zenodo.org:229480</identifier>
      <datestamp>2017-01-03T16:59:17Z</datestamp>
      <setSpec>user-biosyslit</setSpec>
    </header>
    <header>
      <identifier>oai:zenodo.org:241854</identifier>
      <datestamp>2017-01-13T06:56:50Z</datestamp>
      <setSpec>user-biosyslit</setSpec>
    </header>
    <header>
      <identifier>oai:zenodo.org:241852</identifier>
      <datestamp>2017-01-13T06:56:42Z</datestamp>
      <setSpec>user-biosyslit</setSpec>
    </header>
    <header>
      <identifier>oai:zenodo.org:249528</identifier>
      <datestamp>2017-01-17T20:51:44Z</datestamp>
      <setSpec>user-biosyslit</setSpec>
    </header>
    <header>
      <identifier>oai:zenodo.org:249533</identifier>
      <datestamp>2017-01-17T20:52:11Z</datestamp>
      <setSpec>user-biosyslit</setSpec>
    </header>
    <header>
      <identifier>oai:zenodo.org:249539</identifier>
      <datestamp>2017-01-17T20:52:38Z</datestamp>
      <setSpec>user-biosyslit</setSpec>
    </header>
    <header>
      <identifier>oai:zenodo.org:249530</identifier>
      <datestamp>2017-01-17T20:51:54Z</datestamp>
      <setSpec>user-biosyslit</setSpec>
    </header>
    <header>
      <identifier>oai:zenodo.org:249536</identifier>
      <datestamp>2017-01-17T20:52:24Z</datestamp>
      <setSpec>user-biosyslit</setSpec>
    </header>
    <header>
      <identifier>oai:zenodo.org:249538</identifier>
      <datestamp>2017-01-17T20:52:34Z</datestamp>
      <setSpec>user-biosyslit</setSpec>
    </header>
    <header>
      <identifier>oai:zenodo.org:249535</identifier>
      <datestamp>2017-01-17T20:52:19Z</datestamp>
      <setSpec>user-biosyslit</setSpec>
    </header>
    <header>
      <identifier>oai:zenodo.org:249527</identifier>
      <datestamp>2017-01-17T20:51:40Z</datestamp>
      <setSpec>user-biosyslit</setSpec>
    </header>
    <resumptionToken expirationDate="2017-08-31T15:47:59Z" cursor="71100" completeListSize="77796">.eJyNyk0LgjAYAOD_8p4l9mEuhC5hiYcUWxvaJUxFrGnhCnXhf89L5zo_zxt0WRbgogVdOpg6SxvZBNmMYMcCnXd3pc717JAnUuWtEpkvX4dGopRULPT0sPdSGpobihps-C4mCV4NokZjfBTP1BwGSYOeoy3bm3gMr8H8Chr56nTxH1y0G8VJ0UXbeOR4w080_z785zM_n6fXYMEjq0pwGaYW3PqsqzS472n6AMMXUWE.DInAtw.GdRAInkJc9QhaxgBfEkx2GC8Z00</resumptionToken>
  </ListIdentifiers>
</OAI-PMH>
