<?xml version='1.0' encoding='UTF-8'?>
<?xml-stylesheet type="text/xsl" href="/static/xsl/oai2.v1.0.xsl"?>
<OAI-PMH xmlns="http://www.openarchives.org/OAI/2.0/" xmlns:xsi="http://www.w3.org/2001/XMLSchema-instance" xsi:schemaLocation="http://www.openarchives.org/OAI/2.0/ http://www.openarchives.org/OAI/2.0/OAI-PMH.xsd">
  <responseDate>2017-08-31T15:43:41Z</responseDate>
  <request verb="ListIdentifiers" resumptionToken=".eJyNyj0LgkAYAOD_8s4S95GeCi2hiYOKXUq2hKmIeZp4RXrSf6-luebnWUBWVQk2WlmMmDoxENMtw2SYaiCL8SbEufkwFMdUFL1Ici997LsUZaRmoSOnwMloqFoUdVjxXUyO2JySBs3xIblnaj-l1H9y5LJAxXN49T-vpJEnThdv4Em_FZyUY-TGM8dbfqLF9-E_n_r5HLkBDYa8rsBeY6RB-8zHWoK9vF5vqeFRRQ.DInALQ.q_Ym3P4BO-fh-4r-n_bt3IxWl6o">https://zenodo.org/oai2d</request>
  <ListIdentifiers>
    <header>
      <identifier>oai:zenodo.org:269119</identifier>
      <datestamp>2017-02-06T22:47:25Z</datestamp>
      <setSpec>user-biosyslit</setSpec>
    </header>
    <header>
      <identifier>oai:zenodo.org:269070</identifier>
      <datestamp>2017-02-06T22:40:40Z</datestamp>
      <setSpec>user-biosyslit</setSpec>
    </header>
    <header>
      <identifier>oai:zenodo.org:275832</identifier>
      <datestamp>2017-02-08T17:09:21Z</datestamp>
      <setSpec>user-biosyslit</setSpec>
    </header>
    <header>
      <identifier>oai:zenodo.org:275183</identifier>
      <datestamp>2017-02-08T15:35:30Z</datestamp>
      <setSpec>user-biosyslit</setSpec>
    </header>
    <header>
      <identifier>oai:zenodo.org:269336</identifier>
      <datestamp>2017-02-06T23:57:05Z</datestamp>
      <setSpec>user-biosyslit</setSpec>
    </header>
    <header>
      <identifier>oai:zenodo.org:275477</identifier>
      <datestamp>2017-02-08T16:32:20Z</datestamp>
      <setSpec>user-biosyslit</setSpec>
    </header>
    <header>
      <identifier>oai:zenodo.org:276069</identifier>
      <datestamp>2017-02-08T18:02:54Z</datestamp>
      <setSpec>user-biosyslit</setSpec>
    </header>
    <header>
      <identifier>oai:zenodo.org:275792</identifier>
      <datestamp>2017-02-08T17:05:25Z</datestamp>
      <setSpec>user-biosyslit</setSpec>
    </header>
    <header>
      <identifier>oai:zenodo.org:277193</identifier>
      <datestamp>2017-02-08T20:34:32Z</datestamp>
      <setSpec>user-biosyslit</setSpec>
    </header>
    <header>
      <identifier>oai:zenodo.org:276832</identifier>
      <datestamp>2017-02-08T19:46:31Z</datestamp>
      <setSpec>user-biosyslit</setSpec>
    </header>
    <header>
      <identifier>oai:zenodo.org:277944</identifier>
      <datestamp>2017-02-08T22:08:08Z</datestamp>
      <setSpec>user-biosyslit</setSpec>
    </header>
    <header>
      <identifier>oai:zenodo.org:277525</identifier>
      <datestamp>2017-02-08T21:17:37Z</datestamp>
      <setSpec>user-biosyslit</setSpec>
    </header>
    <header>
      <identifier>oai:zenodo.org:278276</identifier>
      <datestamp>2017-02-08T22:46:31Z</datestamp>
      <setSpec>user-biosyslit</setSpec>
    </header>
    <header>
      <identifier>oai:zenodo.org:277584</identifier>
      <datestamp>2017-02-08T21:25:56Z</datestamp>
      <setSpec>user-biosyslit</setSpec>
    </header>
    <header>
      <identifier>oai:zenodo.org:278914</identifier>
      <datestamp>2017-02-09T00:07:32Z</datestamp>
      <setSpec>user-biosyslit</setSpec>
    </header>
    <header>
      <identifier>oai:zenodo.org:278841</identifier>
      <datestamp>2017-02-08T23:59:01Z</datestamp>
      <setSpec>user-biosyslit</setSpec>
    </header>
    <header>
      <identifier>oai:zenodo.org:278865</identifier>
      <datestamp>2017-02-09T00:00:25Z</datestamp>
      <setSpec>user-biosyslit</setSpec>
    </header>
    <header>
      <identifier>oai:zenodo.org:278493</identifier>
      <datestamp>2017-02-08T23:17:11Z</datestamp>
      <setSpec>user-biosyslit</setSpec>
    </header>
    <header>
      <identifier>oai:zenodo.org:279468</identifier>
      <datestamp>2017-02-09T01:25:02Z</datestamp>
      <setSpec>user-biosyslit</setSpec>
    </header>
    <header>
      <identifier>oai:zenodo.org:279101</identifier>
      <datestamp>2017-02-09T00:36:45Z</datestamp>
      <setSpec>user-biosyslit</setSpec>
    </header>
    <header>
      <identifier>oai:zenodo.org:279806</identifier>
      <datestamp>2017-02-09T02:05:20Z</datestamp>
      <setSpec>user-biosyslit</setSpec>
    </header>
    <header>
      <identifier>oai:zenodo.org:281002</identifier>
      <datestamp>2017-02-09T04:32:55Z</datestamp>
      <setSpec>user-biosyslit</setSpec>
    </header>
    <header>
      <identifier>oai:zenodo.org:281004</identifier>
      <datestamp>2017-02-09T04:33:40Z</datestamp>
      <setSpec>user-biosyslit</setSpec>
    </header>
    <header>
      <identifier>oai:zenodo.org:281249</identifier>
      <datestamp>2017-02-09T05:01:02Z</datestamp>
      <setSpec>user-biosyslit</setSpec>
    </header>
    <header>
      <identifier>oai:zenodo.org:281589</identifier>
      <datestamp>2017-02-09T05:34:48Z</datestamp>
      <setSpec>user-biosyslit</setSpec>
    </header>
    <header>
      <identifier>oai:zenodo.org:282390</identifier>
      <datestamp>2017-02-09T06:55:50Z</datestamp>
      <setSpec>user-biosyslit</setSpec>
    </header>
    <header>
      <identifier>oai:zenodo.org:282900</identifier>
      <datestamp>2017-02-09T07:49:12Z</datestamp>
      <setSpec>user-biosyslit</setSpec>
    </header>
    <header>
      <identifier>oai:zenodo.org:282197</identifier>
      <datestamp>2017-02-09T06:36:09Z</datestamp>
      <setSpec>user-biosyslit</setSpec>
    </header>
    <header>
      <identifier>oai:zenodo.org:283308</identifier>
      <datestamp>2017-02-09T08:34:00Z</datestamp>
      <setSpec>user-biosyslit</setSpec>
    </header>
    <header>
      <identifier>oai:zenodo.org:283747</identifier>
      <datestamp>2017-02-09T09:34:53Z</datestamp>
      <setSpec>user-biosyslit</setSpec>
    </header>
    <header>
      <identifier>oai:zenodo.org:283701</identifier>
      <datestamp>2017-02-09T09:28:55Z</datestamp>
      <setSpec>user-biosyslit</setSpec>
    </header>
    <header>
      <identifier>oai:zenodo.org:283542</identifier>
      <datestamp>2017-02-09T09:09:53Z</datestamp>
      <setSpec>user-biosyslit</setSpec>
    </header>
    <header>
      <identifier>oai:zenodo.org:284188</identifier>
      <datestamp>2017-02-09T10:38:14Z</datestamp>
      <setSpec>user-biosyslit</setSpec>
    </header>
    <header>
      <identifier>oai:zenodo.org:284301</identifier>
      <datestamp>2017-02-09T10:54:36Z</datestamp>
      <setSpec>user-biosyslit</setSpec>
    </header>
    <header>
      <identifier>oai:zenodo.org:284572</identifier>
      <datestamp>2017-02-09T11:33:25Z</datestamp>
      <setSpec>user-biosyslit</setSpec>
    </header>
    <header>
      <identifier>oai:zenodo.org:285020</identifier>
      <datestamp>2017-02-09T12:29:57Z</datestamp>
      <setSpec>user-biosyslit</setSpec>
    </header>
    <header>
      <identifier>oai:zenodo.org:285619</identifier>
      <datestamp>2017-02-09T14:00:02Z</datestamp>
      <setSpec>user-biosyslit</setSpec>
    </header>
    <header>
      <identifier>oai:zenodo.org:286418</identifier>
      <datestamp>2017-02-09T15:57:33Z</datestamp>
      <setSpec>user-biosyslit</setSpec>
    </header>
    <header>
      <identifier>oai:zenodo.org:285480</identifier>
      <datestamp>2017-02-09T13:42:08Z</datestamp>
      <setSpec>user-biosyslit</setSpec>
    </header>
    <header>
      <identifier>oai:zenodo.org:285766</identifier>
      <datestamp>2017-02-09T14:26:11Z</datestamp>
      <setSpec>user-biosyslit</setSpec>
    </header>
    <header>
      <identifier>oai:zenodo.org:286012</identifier>
      <datestamp>2017-02-09T15:01:55Z</datestamp>
      <setSpec>user-biosyslit</setSpec>
    </header>
    <header>
      <identifier>oai:zenodo.org:286377</identifier>
      <datestamp>2017-02-09T15:54:21Z</datestamp>
      <setSpec>user-biosyslit</setSpec>
    </header>
    <header>
      <identifier>oai:zenodo.org:286033</identifier>
      <datestamp>2017-02-09T15:05:57Z</datestamp>
      <setSpec>user-biosyslit</setSpec>
    </header>
    <header>
      <identifier>oai:zenodo.org:286288</identifier>
      <datestamp>2017-02-09T15:43:05Z</datestamp>
      <setSpec>user-biosyslit</setSpec>
    </header>
    <header>
      <identifier>oai:zenodo.org:286063</identifier>
      <datestamp>2017-02-09T15:09:19Z</datestamp>
      <setSpec>user-biosyslit</setSpec>
    </header>
    <header>
      <identifier>oai:zenodo.org:286016</identifier>
      <datestamp>2017-02-09T15:04:08Z</datestamp>
      <setSpec>user-biosyslit</setSpec>
    </header>
    <header>
      <identifier>oai:zenodo.org:286201</identifier>
      <datestamp>2017-02-09T15:28:08Z</datestamp>
      <setSpec>user-biosyslit</setSpec>
    </header>
    <header>
      <identifier>oai:zenodo.org:286815</identifier>
      <datestamp>2017-02-09T16:54:20Z</datestamp>
      <setSpec>user-biosyslit</setSpec>
    </header>
    <header>
      <identifier>oai:zenodo.org:286688</identifier>
      <datestamp>2017-02-09T16:33:09Z</datestamp>
      <setSpec>user-biosyslit</setSpec>
    </header>
    <header>
      <identifier>oai:zenodo.org:288181</identifier>
      <datestamp>2017-02-09T20:14:52Z</datestamp>
      <setSpec>user-biosyslit</setSpec>
    </header>
    <header>
      <identifier>oai:zenodo.org:289195</identifier>
      <datestamp>2017-02-09T22:55:56Z</datestamp>
      <setSpec>user-biosyslit</setSpec>
    </header>
    <header>
      <identifier>oai:zenodo.org:289302</identifier>
      <datestamp>2017-02-09T23:11:15Z</datestamp>
      <setSpec>user-biosyslit</setSpec>
    </header>
    <header>
      <identifier>oai:zenodo.org:288786</identifier>
      <datestamp>2017-02-09T21:52:46Z</datestamp>
      <setSpec>user-biosyslit</setSpec>
    </header>
    <header>
      <identifier>oai:zenodo.org:289562</identifier>
      <datestamp>2017-02-09T23:50:25Z</datestamp>
      <setSpec>user-biosyslit</setSpec>
    </header>
    <header>
      <identifier>oai:zenodo.org:289889</identifier>
      <datestamp>2017-02-10T00:45:34Z</datestamp>
      <setSpec>user-biosyslit</setSpec>
    </header>
    <header>
      <identifier>oai:zenodo.org:291484</identifier>
      <datestamp>2017-02-15T16:02:58Z</datestamp>
      <setSpec>openaire</setSpec>
      <setSpec>user-biosyslit</setSpec>
    </header>
    <header>
      <identifier>oai:zenodo.org:292534</identifier>
      <datestamp>2017-02-20T08:19:15Z</datestamp>
      <setSpec>openaire</setSpec>
      <setSpec>user-biosyslit</setSpec>
    </header>
    <header>
      <identifier>oai:zenodo.org:292915</identifier>
      <datestamp>2017-02-16T18:59:53Z</datestamp>
      <setSpec>user-biosyslit</setSpec>
    </header>
    <header>
      <identifier>oai:zenodo.org:294433</identifier>
      <datestamp>2017-02-20T19:38:24Z</datestamp>
      <setSpec>user-biosyslit</setSpec>
    </header>
    <header>
      <identifier>oai:zenodo.org:293910</identifier>
      <datestamp>2017-02-20T18:57:57Z</datestamp>
      <setSpec>user-biosyslit</setSpec>
    </header>
    <header>
      <identifier>oai:zenodo.org:313131</identifier>
      <datestamp>2017-02-21T00:55:24Z</datestamp>
      <setSpec>user-biosyslit</setSpec>
    </header>
    <header>
      <identifier>oai:zenodo.org:241442</identifier>
      <datestamp>2017-01-13T01:34:07Z</datestamp>
      <setSpec>user-biosyslit</setSpec>
    </header>
    <header>
      <identifier>oai:zenodo.org:241218</identifier>
      <datestamp>2017-01-12T22:21:15Z</datestamp>
      <setSpec>user-biosyslit</setSpec>
    </header>
    <header>
      <identifier>oai:zenodo.org:241309</identifier>
      <datestamp>2017-01-12T23:46:55Z</datestamp>
      <setSpec>user-biosyslit</setSpec>
    </header>
    <header>
      <identifier>oai:zenodo.org:271951</identifier>
      <datestamp>2017-02-08T03:09:19Z</datestamp>
      <setSpec>user-biosyslit</setSpec>
    </header>
    <header>
      <identifier>oai:zenodo.org:271543</identifier>
      <datestamp>2017-02-08T01:54:03Z</datestamp>
      <setSpec>user-biosyslit</setSpec>
    </header>
    <header>
      <identifier>oai:zenodo.org:271682</identifier>
      <datestamp>2017-02-08T02:21:12Z</datestamp>
      <setSpec>user-biosyslit</setSpec>
    </header>
    <header>
      <identifier>oai:zenodo.org:271855</identifier>
      <datestamp>2017-02-08T02:45:44Z</datestamp>
      <setSpec>user-biosyslit</setSpec>
    </header>
    <header>
      <identifier>oai:zenodo.org:272020</identifier>
      <datestamp>2017-02-08T03:22:09Z</datestamp>
      <setSpec>user-biosyslit</setSpec>
    </header>
    <header>
      <identifier>oai:zenodo.org:279681</identifier>
      <datestamp>2017-02-09T01:50:59Z</datestamp>
      <setSpec>user-biosyslit</setSpec>
    </header>
    <header>
      <identifier>oai:zenodo.org:241744</identifier>
      <datestamp>2017-01-13T05:31:21Z</datestamp>
      <setSpec>user-biosyslit</setSpec>
    </header>
    <header>
      <identifier>oai:zenodo.org:280560</identifier>
      <datestamp>2017-02-09T03:38:09Z</datestamp>
      <setSpec>user-biosyslit</setSpec>
    </header>
    <header>
      <identifier>oai:zenodo.org:279450</identifier>
      <datestamp>2017-02-09T01:22:15Z</datestamp>
      <setSpec>user-biosyslit</setSpec>
    </header>
    <header>
      <identifier>oai:zenodo.org:241748</identifier>
      <datestamp>2017-01-13T05:31:44Z</datestamp>
      <setSpec>user-biosyslit</setSpec>
    </header>
    <header>
      <identifier>oai:zenodo.org:242301</identifier>
      <datestamp>2017-01-13T13:10:32Z</datestamp>
      <setSpec>user-biosyslit</setSpec>
    </header>
    <header>
      <identifier>oai:zenodo.org:243919</identifier>
      <datestamp>2017-01-14T13:07:58Z</datestamp>
      <setSpec>user-biosyslit</setSpec>
    </header>
    <header>
      <identifier>oai:zenodo.org:244003</identifier>
      <datestamp>2017-01-14T15:11:33Z</datestamp>
      <setSpec>user-biosyslit</setSpec>
    </header>
    <header>
      <identifier>oai:zenodo.org:242495</identifier>
      <datestamp>2017-01-13T15:45:06Z</datestamp>
      <setSpec>user-biosyslit</setSpec>
    </header>
    <header>
      <identifier>oai:zenodo.org:242574</identifier>
      <datestamp>2017-01-13T16:58:07Z</datestamp>
      <setSpec>user-biosyslit</setSpec>
    </header>
    <header>
      <identifier>oai:zenodo.org:242442</identifier>
      <datestamp>2017-01-13T15:21:23Z</datestamp>
      <setSpec>user-biosyslit</setSpec>
    </header>
    <header>
      <identifier>oai:zenodo.org:272325</identifier>
      <datestamp>2017-02-08T04:15:38Z</datestamp>
      <setSpec>user-biosyslit</setSpec>
    </header>
    <header>
      <identifier>oai:zenodo.org:242225</identifier>
      <datestamp>2017-01-13T12:14:19Z</datestamp>
      <setSpec>user-biosyslit</setSpec>
    </header>
    <header>
      <identifier>oai:zenodo.org:243530</identifier>
      <datestamp>2017-01-14T07:03:08Z</datestamp>
      <setSpec>user-biosyslit</setSpec>
    </header>
    <header>
      <identifier>oai:zenodo.org:280617</identifier>
      <datestamp>2017-02-09T03:44:57Z</datestamp>
      <setSpec>user-biosyslit</setSpec>
    </header>
    <header>
      <identifier>oai:zenodo.org:272352</identifier>
      <datestamp>2017-02-08T04:21:34Z</datestamp>
      <setSpec>user-biosyslit</setSpec>
    </header>
    <header>
      <identifier>oai:zenodo.org:243503</identifier>
      <datestamp>2017-01-14T06:42:23Z</datestamp>
      <setSpec>user-biosyslit</setSpec>
    </header>
    <header>
      <identifier>oai:zenodo.org:243675</identifier>
      <datestamp>2017-01-14T09:02:05Z</datestamp>
      <setSpec>user-biosyslit</setSpec>
    </header>
    <header>
      <identifier>oai:zenodo.org:245030</identifier>
      <datestamp>2017-01-15T06:57:09Z</datestamp>
      <setSpec>user-biosyslit</setSpec>
    </header>
    <header>
      <identifier>oai:zenodo.org:272354</identifier>
      <datestamp>2017-02-08T04:21:42Z</datestamp>
      <setSpec>user-biosyslit</setSpec>
    </header>
    <header>
      <identifier>oai:zenodo.org:247016</identifier>
      <datestamp>2017-01-16T10:22:33Z</datestamp>
      <setSpec>user-biosyslit</setSpec>
    </header>
    <header>
      <identifier>oai:zenodo.org:245497</identifier>
      <datestamp>2017-01-15T14:30:58Z</datestamp>
      <setSpec>user-biosyslit</setSpec>
    </header>
    <header>
      <identifier>oai:zenodo.org:245195</identifier>
      <datestamp>2017-01-15T09:41:57Z</datestamp>
      <setSpec>user-biosyslit</setSpec>
    </header>
    <header>
      <identifier>oai:zenodo.org:272319</identifier>
      <datestamp>2017-02-08T04:15:02Z</datestamp>
      <setSpec>user-biosyslit</setSpec>
    </header>
    <header>
      <identifier>oai:zenodo.org:244966</identifier>
      <datestamp>2017-01-15T05:57:26Z</datestamp>
      <setSpec>user-biosyslit</setSpec>
    </header>
    <header>
      <identifier>oai:zenodo.org:245811</identifier>
      <datestamp>2017-01-15T18:55:14Z</datestamp>
      <setSpec>user-biosyslit</setSpec>
    </header>
    <header>
      <identifier>oai:zenodo.org:245619</identifier>
      <datestamp>2017-01-15T16:39:45Z</datestamp>
      <setSpec>user-biosyslit</setSpec>
    </header>
    <header>
      <identifier>oai:zenodo.org:245312</identifier>
      <datestamp>2017-01-15T11:36:42Z</datestamp>
      <setSpec>user-biosyslit</setSpec>
    </header>
    <header>
      <identifier>oai:zenodo.org:245659</identifier>
      <datestamp>2017-01-15T17:13:07Z</datestamp>
      <setSpec>user-biosyslit</setSpec>
    </header>
    <header>
      <identifier>oai:zenodo.org:245776</identifier>
      <datestamp>2017-01-15T18:29:17Z</datestamp>
      <setSpec>user-biosyslit</setSpec>
    </header>
    <header>
      <identifier>oai:zenodo.org:246343</identifier>
      <datestamp>2017-01-16T01:14:53Z</datestamp>
      <setSpec>user-biosyslit</setSpec>
    </header>
    <resumptionToken expirationDate="2017-08-31T15:45:41Z" cursor="40900" completeListSize="77796">.eJyNyk0LgjAYAOD_8p4lNr8VuoQlHlLWmqiXMBUxl4Ur1In_PS-d6_w8M4iqKsFFGxNjR7UdQzd107SRoYAo-gfnl2ZlKJKYFx1nuR-_T_cYpWpthZ4Yj16qhbJF0R1LeiBqgu2RNWgiZ_ZK5WmMtWCgaG8dJZnCW7C-Uot8nl39J2XdjlO17KM9mSje0Uwrvg__-eTP54ktKPDM6wpcHWMF2iHvawHuvCwfpSpRQQ.DInALQ.pa_Wq5oMcUEblS9EFgft7gO6R3I</resumptionToken>
  </ListIdentifiers>
</OAI-PMH>
