<?xml version='1.0' encoding='UTF-8'?>
<?xml-stylesheet type="text/xsl" href="/static/xsl/oai2.v1.0.xsl"?>
<OAI-PMH xmlns="http://www.openarchives.org/OAI/2.0/" xmlns:xsi="http://www.w3.org/2001/XMLSchema-instance" xsi:schemaLocation="http://www.openarchives.org/OAI/2.0/ http://www.openarchives.org/OAI/2.0/OAI-PMH.xsd">
  <responseDate>2017-08-31T15:46:09Z</responseDate>
  <request verb="ListIdentifiers" resumptionToken=".eJyNzz0PQ0AAgOH_crM091HVSroIFQNyrgRLo4ioo-La4MR_r6VzO7_P8i5AlGUBdLhDkKhEVRFUT5igA9orQOTDk_NbvXWQxxHPOx5mdvQO2ggmuNI8U0yumRBPNtBvkWQXimN0nMIazvQavhIZTBFxRgYtzZV09h7O5gri2zy92z0LO4MzXAy-RWeGDJaS_OvQn07-dKY4AwX0WVUCXSPbVTNmQyWAvqzrB751UV8.DInAwQ.7ReXThRLKxsxpbZ5ZVMHWaIj5R0">https://zenodo.org/oai2d</request>
  <ListIdentifiers>
    <header>
      <identifier>oai:zenodo.org:226613</identifier>
      <datestamp>2017-01-01T00:25:21Z</datestamp>
      <setSpec>user-biosyslit</setSpec>
    </header>
    <header>
      <identifier>oai:zenodo.org:226612</identifier>
      <datestamp>2017-01-01T00:25:18Z</datestamp>
      <setSpec>user-biosyslit</setSpec>
    </header>
    <header>
      <identifier>oai:zenodo.org:226621</identifier>
      <datestamp>2017-01-01T00:25:57Z</datestamp>
      <setSpec>user-biosyslit</setSpec>
    </header>
    <header>
      <identifier>oai:zenodo.org:226629</identifier>
      <datestamp>2017-01-01T00:26:22Z</datestamp>
      <setSpec>user-biosyslit</setSpec>
    </header>
    <header>
      <identifier>oai:zenodo.org:226627</identifier>
      <datestamp>2017-01-01T00:26:15Z</datestamp>
      <setSpec>user-biosyslit</setSpec>
    </header>
    <header>
      <identifier>oai:zenodo.org:226625</identifier>
      <datestamp>2017-01-01T00:26:09Z</datestamp>
      <setSpec>user-biosyslit</setSpec>
    </header>
    <header>
      <identifier>oai:zenodo.org:226610</identifier>
      <datestamp>2017-01-01T00:26:24Z</datestamp>
      <setSpec>user-biosyslit</setSpec>
    </header>
    <header>
      <identifier>oai:zenodo.org:285546</identifier>
      <datestamp>2017-02-09T13:49:19Z</datestamp>
      <setSpec>user-biosyslit</setSpec>
    </header>
    <header>
      <identifier>oai:zenodo.org:285543</identifier>
      <datestamp>2017-02-09T13:49:12Z</datestamp>
      <setSpec>user-biosyslit</setSpec>
    </header>
    <header>
      <identifier>oai:zenodo.org:241577</identifier>
      <datestamp>2017-01-13T03:29:06Z</datestamp>
      <setSpec>user-biosyslit</setSpec>
    </header>
    <header>
      <identifier>oai:zenodo.org:241951</identifier>
      <datestamp>2017-01-13T08:17:02Z</datestamp>
      <setSpec>user-biosyslit</setSpec>
    </header>
    <header>
      <identifier>oai:zenodo.org:241948</identifier>
      <datestamp>2017-01-13T08:16:53Z</datestamp>
      <setSpec>user-biosyslit</setSpec>
    </header>
    <header>
      <identifier>oai:zenodo.org:241947</identifier>
      <datestamp>2017-01-13T08:16:50Z</datestamp>
      <setSpec>user-biosyslit</setSpec>
    </header>
    <header>
      <identifier>oai:zenodo.org:229639</identifier>
      <datestamp>2017-01-03T19:40:40Z</datestamp>
      <setSpec>user-biosyslit</setSpec>
    </header>
    <header>
      <identifier>oai:zenodo.org:229640</identifier>
      <datestamp>2017-01-03T19:40:43Z</datestamp>
      <setSpec>user-biosyslit</setSpec>
    </header>
    <header>
      <identifier>oai:zenodo.org:229638</identifier>
      <datestamp>2017-01-03T19:40:44Z</datestamp>
      <setSpec>user-biosyslit</setSpec>
    </header>
    <header>
      <identifier>oai:zenodo.org:233080</identifier>
      <datestamp>2017-01-07T23:57:40Z</datestamp>
      <setSpec>user-biosyslit</setSpec>
    </header>
    <header>
      <identifier>oai:zenodo.org:233079</identifier>
      <datestamp>2017-01-07T23:57:37Z</datestamp>
      <setSpec>user-biosyslit</setSpec>
    </header>
    <header>
      <identifier>oai:zenodo.org:233077</identifier>
      <datestamp>2017-01-07T23:57:31Z</datestamp>
      <setSpec>user-biosyslit</setSpec>
    </header>
    <header>
      <identifier>oai:zenodo.org:258339</identifier>
      <datestamp>2017-01-23T21:14:25Z</datestamp>
      <setSpec>user-biosyslit</setSpec>
    </header>
    <header>
      <identifier>oai:zenodo.org:258341</identifier>
      <datestamp>2017-01-23T21:14:24Z</datestamp>
      <setSpec>user-biosyslit</setSpec>
    </header>
    <header>
      <identifier>oai:zenodo.org:271175</identifier>
      <datestamp>2017-02-08T00:57:04Z</datestamp>
      <setSpec>user-biosyslit</setSpec>
    </header>
    <header>
      <identifier>oai:zenodo.org:271172</identifier>
      <datestamp>2017-02-08T00:56:58Z</datestamp>
      <setSpec>user-biosyslit</setSpec>
    </header>
    <header>
      <identifier>oai:zenodo.org:271173</identifier>
      <datestamp>2017-02-08T00:57:00Z</datestamp>
      <setSpec>user-biosyslit</setSpec>
    </header>
    <header>
      <identifier>oai:zenodo.org:271170</identifier>
      <datestamp>2017-02-08T00:56:52Z</datestamp>
      <setSpec>user-biosyslit</setSpec>
    </header>
    <header>
      <identifier>oai:zenodo.org:250125</identifier>
      <datestamp>2017-01-18T05:15:13Z</datestamp>
      <setSpec>user-biosyslit</setSpec>
    </header>
    <header>
      <identifier>oai:zenodo.org:228568</identifier>
      <datestamp>2017-01-03T01:45:13Z</datestamp>
      <setSpec>user-biosyslit</setSpec>
    </header>
    <header>
      <identifier>oai:zenodo.org:228571</identifier>
      <datestamp>2017-01-03T01:45:12Z</datestamp>
      <setSpec>user-biosyslit</setSpec>
    </header>
    <header>
      <identifier>oai:zenodo.org:250130</identifier>
      <datestamp>2017-01-18T05:15:05Z</datestamp>
      <setSpec>user-biosyslit</setSpec>
    </header>
    <header>
      <identifier>oai:zenodo.org:250131</identifier>
      <datestamp>2017-01-18T05:15:11Z</datestamp>
      <setSpec>user-biosyslit</setSpec>
    </header>
    <header>
      <identifier>oai:zenodo.org:285826</identifier>
      <datestamp>2017-02-09T14:38:10Z</datestamp>
      <setSpec>user-biosyslit</setSpec>
    </header>
    <header>
      <identifier>oai:zenodo.org:236799</identifier>
      <datestamp>2017-01-10T05:47:41Z</datestamp>
      <setSpec>user-biosyslit</setSpec>
    </header>
    <header>
      <identifier>oai:zenodo.org:285832</identifier>
      <datestamp>2017-02-09T14:38:08Z</datestamp>
      <setSpec>user-biosyslit</setSpec>
    </header>
    <header>
      <identifier>oai:zenodo.org:236801</identifier>
      <datestamp>2017-01-10T05:47:36Z</datestamp>
      <setSpec>user-biosyslit</setSpec>
    </header>
    <header>
      <identifier>oai:zenodo.org:236800</identifier>
      <datestamp>2017-01-10T05:47:33Z</datestamp>
      <setSpec>user-biosyslit</setSpec>
    </header>
    <header>
      <identifier>oai:zenodo.org:236802</identifier>
      <datestamp>2017-01-10T05:47:39Z</datestamp>
      <setSpec>user-biosyslit</setSpec>
    </header>
    <header>
      <identifier>oai:zenodo.org:285242</identifier>
      <datestamp>2017-02-09T13:06:15Z</datestamp>
      <setSpec>user-biosyslit</setSpec>
    </header>
    <header>
      <identifier>oai:zenodo.org:270886</identifier>
      <datestamp>2017-02-08T00:09:52Z</datestamp>
      <setSpec>user-biosyslit</setSpec>
    </header>
    <header>
      <identifier>oai:zenodo.org:285257</identifier>
      <datestamp>2017-02-09T13:06:06Z</datestamp>
      <setSpec>user-biosyslit</setSpec>
    </header>
    <header>
      <identifier>oai:zenodo.org:233221</identifier>
      <datestamp>2017-01-08T02:18:06Z</datestamp>
      <setSpec>user-biosyslit</setSpec>
    </header>
    <header>
      <identifier>oai:zenodo.org:270889</identifier>
      <datestamp>2017-02-08T00:09:38Z</datestamp>
      <setSpec>user-biosyslit</setSpec>
    </header>
    <header>
      <identifier>oai:zenodo.org:270891</identifier>
      <datestamp>2017-02-08T00:09:49Z</datestamp>
      <setSpec>user-biosyslit</setSpec>
    </header>
    <header>
      <identifier>oai:zenodo.org:270888</identifier>
      <datestamp>2017-02-08T00:09:34Z</datestamp>
      <setSpec>user-biosyslit</setSpec>
    </header>
    <header>
      <identifier>oai:zenodo.org:285258</identifier>
      <datestamp>2017-02-09T13:06:09Z</datestamp>
      <setSpec>user-biosyslit</setSpec>
    </header>
    <header>
      <identifier>oai:zenodo.org:285259</identifier>
      <datestamp>2017-02-09T13:06:11Z</datestamp>
      <setSpec>user-biosyslit</setSpec>
    </header>
    <header>
      <identifier>oai:zenodo.org:234645</identifier>
      <datestamp>2017-01-08T23:13:59Z</datestamp>
      <setSpec>user-biosyslit</setSpec>
    </header>
    <header>
      <identifier>oai:zenodo.org:285106</identifier>
      <datestamp>2017-02-09T12:38:01Z</datestamp>
      <setSpec>user-biosyslit</setSpec>
    </header>
    <header>
      <identifier>oai:zenodo.org:285108</identifier>
      <datestamp>2017-02-09T12:38:12Z</datestamp>
      <setSpec>user-biosyslit</setSpec>
    </header>
    <header>
      <identifier>oai:zenodo.org:285109</identifier>
      <datestamp>2017-02-09T12:38:14Z</datestamp>
      <setSpec>user-biosyslit</setSpec>
    </header>
    <header>
      <identifier>oai:zenodo.org:285112</identifier>
      <datestamp>2017-02-09T12:38:20Z</datestamp>
      <setSpec>user-biosyslit</setSpec>
    </header>
    <header>
      <identifier>oai:zenodo.org:234647</identifier>
      <datestamp>2017-01-08T23:13:58Z</datestamp>
      <setSpec>user-biosyslit</setSpec>
    </header>
    <header>
      <identifier>oai:zenodo.org:234646</identifier>
      <datestamp>2017-01-08T23:13:55Z</datestamp>
      <setSpec>user-biosyslit</setSpec>
    </header>
    <header>
      <identifier>oai:zenodo.org:245925</identifier>
      <datestamp>2017-01-15T19:31:00Z</datestamp>
      <setSpec>user-biosyslit</setSpec>
    </header>
    <header>
      <identifier>oai:zenodo.org:280000</identifier>
      <datestamp>2017-02-09T02:28:20Z</datestamp>
      <setSpec>user-biosyslit</setSpec>
    </header>
    <header>
      <identifier>oai:zenodo.org:279998</identifier>
      <datestamp>2017-02-09T02:28:21Z</datestamp>
      <setSpec>user-biosyslit</setSpec>
    </header>
    <header>
      <identifier>oai:zenodo.org:293973</identifier>
      <datestamp>2017-02-20T19:04:41Z</datestamp>
      <setSpec>user-biosyslit</setSpec>
    </header>
    <header>
      <identifier>oai:zenodo.org:293974</identifier>
      <datestamp>2017-02-20T19:04:38Z</datestamp>
      <setSpec>user-biosyslit</setSpec>
    </header>
    <header>
      <identifier>oai:zenodo.org:278316</identifier>
      <datestamp>2017-02-08T22:53:15Z</datestamp>
      <setSpec>user-biosyslit</setSpec>
    </header>
    <header>
      <identifier>oai:zenodo.org:278313</identifier>
      <datestamp>2017-02-08T22:53:09Z</datestamp>
      <setSpec>user-biosyslit</setSpec>
    </header>
    <header>
      <identifier>oai:zenodo.org:278315</identifier>
      <datestamp>2017-02-08T22:53:13Z</datestamp>
      <setSpec>user-biosyslit</setSpec>
    </header>
    <header>
      <identifier>oai:zenodo.org:264308</identifier>
      <datestamp>2017-01-30T18:47:45Z</datestamp>
      <setSpec>user-biosyslit</setSpec>
    </header>
    <header>
      <identifier>oai:zenodo.org:264309</identifier>
      <datestamp>2017-01-30T18:47:47Z</datestamp>
      <setSpec>user-biosyslit</setSpec>
    </header>
    <header>
      <identifier>oai:zenodo.org:234110</identifier>
      <datestamp>2017-01-08T15:09:34Z</datestamp>
      <setSpec>user-biosyslit</setSpec>
    </header>
    <header>
      <identifier>oai:zenodo.org:242932</identifier>
      <datestamp>2017-01-13T20:50:25Z</datestamp>
      <setSpec>user-biosyslit</setSpec>
    </header>
    <header>
      <identifier>oai:zenodo.org:242933</identifier>
      <datestamp>2017-01-13T20:50:27Z</datestamp>
      <setSpec>user-biosyslit</setSpec>
    </header>
    <header>
      <identifier>oai:zenodo.org:343781</identifier>
      <datestamp>2017-02-28T08:33:10Z</datestamp>
      <setSpec>user-biosyslit</setSpec>
    </header>
    <header>
      <identifier>oai:zenodo.org:285807</identifier>
      <datestamp>2017-02-09T14:35:06Z</datestamp>
      <setSpec>user-biosyslit</setSpec>
    </header>
    <header>
      <identifier>oai:zenodo.org:272019</identifier>
      <datestamp>2017-02-08T03:20:53Z</datestamp>
      <setSpec>user-biosyslit</setSpec>
    </header>
    <header>
      <identifier>oai:zenodo.org:266401</identifier>
      <datestamp>2017-02-01T07:49:33Z</datestamp>
      <setSpec>user-biosyslit</setSpec>
    </header>
    <header>
      <identifier>oai:zenodo.org:266397</identifier>
      <datestamp>2017-02-01T07:49:22Z</datestamp>
      <setSpec>user-biosyslit</setSpec>
    </header>
    <header>
      <identifier>oai:zenodo.org:266405</identifier>
      <datestamp>2017-02-01T07:49:44Z</datestamp>
      <setSpec>user-biosyslit</setSpec>
    </header>
    <header>
      <identifier>oai:zenodo.org:266400</identifier>
      <datestamp>2017-02-01T07:49:30Z</datestamp>
      <setSpec>user-biosyslit</setSpec>
    </header>
    <header>
      <identifier>oai:zenodo.org:266398</identifier>
      <datestamp>2017-02-01T07:49:26Z</datestamp>
      <setSpec>user-biosyslit</setSpec>
    </header>
    <header>
      <identifier>oai:zenodo.org:266399</identifier>
      <datestamp>2017-02-01T07:49:28Z</datestamp>
      <setSpec>user-biosyslit</setSpec>
    </header>
    <header>
      <identifier>oai:zenodo.org:236886</identifier>
      <datestamp>2017-01-10T07:54:14Z</datestamp>
      <setSpec>user-biosyslit</setSpec>
    </header>
    <header>
      <identifier>oai:zenodo.org:285576</identifier>
      <datestamp>2017-02-09T13:53:29Z</datestamp>
      <setSpec>user-biosyslit</setSpec>
    </header>
    <header>
      <identifier>oai:zenodo.org:279828</identifier>
      <datestamp>2017-02-09T02:07:45Z</datestamp>
      <setSpec>user-biosyslit</setSpec>
    </header>
    <header>
      <identifier>oai:zenodo.org:285579</identifier>
      <datestamp>2017-02-09T13:53:18Z</datestamp>
      <setSpec>user-biosyslit</setSpec>
    </header>
    <header>
      <identifier>oai:zenodo.org:285578</identifier>
      <datestamp>2017-02-09T13:53:16Z</datestamp>
      <setSpec>user-biosyslit</setSpec>
    </header>
    <header>
      <identifier>oai:zenodo.org:236891</identifier>
      <datestamp>2017-01-10T07:54:06Z</datestamp>
      <setSpec>user-biosyslit</setSpec>
    </header>
    <header>
      <identifier>oai:zenodo.org:236890</identifier>
      <datestamp>2017-01-10T07:54:03Z</datestamp>
      <setSpec>user-biosyslit</setSpec>
    </header>
    <header>
      <identifier>oai:zenodo.org:236892</identifier>
      <datestamp>2017-01-10T07:54:10Z</datestamp>
      <setSpec>user-biosyslit</setSpec>
    </header>
    <header>
      <identifier>oai:zenodo.org:285581</identifier>
      <datestamp>2017-02-09T13:53:24Z</datestamp>
      <setSpec>user-biosyslit</setSpec>
    </header>
    <header>
      <identifier>oai:zenodo.org:231121</identifier>
      <datestamp>2017-01-05T14:44:59Z</datestamp>
      <setSpec>user-biosyslit</setSpec>
    </header>
    <header>
      <identifier>oai:zenodo.org:231122</identifier>
      <datestamp>2017-01-05T14:44:54Z</datestamp>
      <setSpec>user-biosyslit</setSpec>
    </header>
    <header>
      <identifier>oai:zenodo.org:266989</identifier>
      <datestamp>2017-02-01T17:49:00Z</datestamp>
      <setSpec>user-biosyslit</setSpec>
    </header>
    <header>
      <identifier>oai:zenodo.org:266988</identifier>
      <datestamp>2017-02-01T17:49:01Z</datestamp>
      <setSpec>user-biosyslit</setSpec>
    </header>
    <header>
      <identifier>oai:zenodo.org:237489</identifier>
      <datestamp>2017-01-10T16:12:40Z</datestamp>
      <setSpec>user-biosyslit</setSpec>
    </header>
    <header>
      <identifier>oai:zenodo.org:270516</identifier>
      <datestamp>2017-02-07T23:23:51Z</datestamp>
      <setSpec>user-biosyslit</setSpec>
    </header>
    <header>
      <identifier>oai:zenodo.org:270515</identifier>
      <datestamp>2017-02-07T23:23:49Z</datestamp>
      <setSpec>user-biosyslit</setSpec>
    </header>
    <header>
      <identifier>oai:zenodo.org:270514</identifier>
      <datestamp>2017-02-07T23:23:47Z</datestamp>
      <setSpec>user-biosyslit</setSpec>
    </header>
    <header>
      <identifier>oai:zenodo.org:237493</identifier>
      <datestamp>2017-01-10T16:12:54Z</datestamp>
      <setSpec>user-biosyslit</setSpec>
    </header>
    <header>
      <identifier>oai:zenodo.org:237491</identifier>
      <datestamp>2017-01-10T16:12:48Z</datestamp>
      <setSpec>user-biosyslit</setSpec>
    </header>
    <header>
      <identifier>oai:zenodo.org:265634</identifier>
      <datestamp>2017-01-31T18:08:59Z</datestamp>
      <setSpec>user-biosyslit</setSpec>
    </header>
    <header>
      <identifier>oai:zenodo.org:276597</identifier>
      <datestamp>2017-02-08T19:17:49Z</datestamp>
      <setSpec>user-biosyslit</setSpec>
    </header>
    <header>
      <identifier>oai:zenodo.org:256233</identifier>
      <datestamp>2017-01-22T07:32:26Z</datestamp>
      <setSpec>user-biosyslit</setSpec>
    </header>
    <header>
      <identifier>oai:zenodo.org:256230</identifier>
      <datestamp>2017-01-22T07:32:19Z</datestamp>
      <setSpec>user-biosyslit</setSpec>
    </header>
    <header>
      <identifier>oai:zenodo.org:280786</identifier>
      <datestamp>2017-02-09T04:05:09Z</datestamp>
      <setSpec>user-biosyslit</setSpec>
    </header>
    <header>
      <identifier>oai:zenodo.org:256229</identifier>
      <datestamp>2017-01-22T07:32:17Z</datestamp>
      <setSpec>user-biosyslit</setSpec>
    </header>
    <header>
      <identifier>oai:zenodo.org:256232</identifier>
      <datestamp>2017-01-22T07:32:23Z</datestamp>
      <setSpec>user-biosyslit</setSpec>
    </header>
    <resumptionToken expirationDate="2017-08-31T15:48:09Z" cursor="73300" completeListSize="77796">.eJyNyssKgkAUANB_uWuJeeQjoY1o0kJFJ0XdhKlIOZo4hTrRv-emda3PeYGo6wpMtNkiYhg7DWm6oaoUEwVEOd45P19XhjJNeNnzuHCTZ9QlKCON7tti9uyM-rJFQYclO4QkxcYcX9ESnuJHJqM5oceJIUf3ZLj4t-P6Khq4PL-4A4t7izNSjYETLgxbLKfl9-E_n_z5bLEHBYaiqcHUqapAOxVjI8B8vd8foE5RRA.DInAwQ.AqEGVUuDOLRMlgFqrQ7MIMkLauA</resumptionToken>
  </ListIdentifiers>
</OAI-PMH>
