<?xml version='1.0' encoding='UTF-8'?>
<?xml-stylesheet type="text/xsl" href="/static/xsl/oai2.v1.0.xsl"?>
<OAI-PMH xmlns="http://www.openarchives.org/OAI/2.0/" xmlns:xsi="http://www.w3.org/2001/XMLSchema-instance" xsi:schemaLocation="http://www.openarchives.org/OAI/2.0/ http://www.openarchives.org/OAI/2.0/OAI-PMH.xsd">
  <responseDate>2017-08-31T15:42:13Z</responseDate>
  <request verb="ListIdentifiers" resumptionToken=".eJyNyj0LgkAYAOD_8s4S94F5CS1hiYOKXkq2hKmIeZp4hXrif8-luebnmUEWRQ4m2uhbqjOD7RjDOjYI0UBm_VOIW7UyZJdYZK2IUjt-h02MElIaniVH10qop2rkN1jxU0AumI1RhabgHL0SFY4xdQaOjoargsl7OOvLqW-L693ueNQeBCd57x-DieMDv9Ls-_CfT_18ltyDBl1aFmBixjSoh7QvJZjzsnwAqq9RUQ.DIm_1Q.DKsf9xIXTW_l4Uwt6dFPUc1vF3c">https://zenodo.org/oai2d</request>
  <ListIdentifiers>
    <header>
      <identifier>oai:zenodo.org:272241</identifier>
      <datestamp>2017-02-08T04:04:30Z</datestamp>
      <setSpec>user-biosyslit</setSpec>
    </header>
    <header>
      <identifier>oai:zenodo.org:271522</identifier>
      <datestamp>2017-02-08T01:53:08Z</datestamp>
      <setSpec>user-biosyslit</setSpec>
    </header>
    <header>
      <identifier>oai:zenodo.org:272143</identifier>
      <datestamp>2017-02-08T03:48:36Z</datestamp>
      <setSpec>user-biosyslit</setSpec>
    </header>
    <header>
      <identifier>oai:zenodo.org:272000</identifier>
      <datestamp>2017-02-08T03:18:54Z</datestamp>
      <setSpec>user-biosyslit</setSpec>
    </header>
    <header>
      <identifier>oai:zenodo.org:241835</identifier>
      <datestamp>2017-01-13T06:46:00Z</datestamp>
      <setSpec>user-biosyslit</setSpec>
    </header>
    <header>
      <identifier>oai:zenodo.org:241688</identifier>
      <datestamp>2017-01-13T05:01:25Z</datestamp>
      <setSpec>user-biosyslit</setSpec>
    </header>
    <header>
      <identifier>oai:zenodo.org:241753</identifier>
      <datestamp>2017-01-13T05:32:01Z</datestamp>
      <setSpec>user-biosyslit</setSpec>
    </header>
    <header>
      <identifier>oai:zenodo.org:241874</identifier>
      <datestamp>2017-01-13T07:06:49Z</datestamp>
      <setSpec>user-biosyslit</setSpec>
    </header>
    <header>
      <identifier>oai:zenodo.org:243065</identifier>
      <datestamp>2017-01-13T22:45:25Z</datestamp>
      <setSpec>user-biosyslit</setSpec>
    </header>
    <header>
      <identifier>oai:zenodo.org:241973</identifier>
      <datestamp>2017-01-13T09:01:33Z</datestamp>
      <setSpec>user-biosyslit</setSpec>
    </header>
    <header>
      <identifier>oai:zenodo.org:241820</identifier>
      <datestamp>2017-01-13T06:35:12Z</datestamp>
      <setSpec>user-biosyslit</setSpec>
    </header>
    <header>
      <identifier>oai:zenodo.org:242323</identifier>
      <datestamp>2017-01-13T13:51:45Z</datestamp>
      <setSpec>user-biosyslit</setSpec>
    </header>
    <header>
      <identifier>oai:zenodo.org:241954</identifier>
      <datestamp>2017-01-13T08:19:39Z</datestamp>
      <setSpec>user-biosyslit</setSpec>
    </header>
    <header>
      <identifier>oai:zenodo.org:241892</identifier>
      <datestamp>2017-01-13T07:24:24Z</datestamp>
      <setSpec>user-biosyslit</setSpec>
    </header>
    <header>
      <identifier>oai:zenodo.org:242712</identifier>
      <datestamp>2017-01-13T18:58:06Z</datestamp>
      <setSpec>user-biosyslit</setSpec>
    </header>
    <header>
      <identifier>oai:zenodo.org:243690</identifier>
      <datestamp>2017-01-14T09:20:12Z</datestamp>
      <setSpec>user-biosyslit</setSpec>
    </header>
    <header>
      <identifier>oai:zenodo.org:271878</identifier>
      <datestamp>2017-02-08T02:53:15Z</datestamp>
      <setSpec>user-biosyslit</setSpec>
    </header>
    <header>
      <identifier>oai:zenodo.org:242419</identifier>
      <datestamp>2017-01-13T15:09:38Z</datestamp>
      <setSpec>user-biosyslit</setSpec>
    </header>
    <header>
      <identifier>oai:zenodo.org:242408</identifier>
      <datestamp>2017-01-13T15:08:56Z</datestamp>
      <setSpec>user-biosyslit</setSpec>
    </header>
    <header>
      <identifier>oai:zenodo.org:272252</identifier>
      <datestamp>2017-02-08T04:04:58Z</datestamp>
      <setSpec>user-biosyslit</setSpec>
    </header>
    <header>
      <identifier>oai:zenodo.org:271901</identifier>
      <datestamp>2017-02-08T02:59:06Z</datestamp>
      <setSpec>user-biosyslit</setSpec>
    </header>
    <header>
      <identifier>oai:zenodo.org:272492</identifier>
      <datestamp>2017-02-08T04:55:47Z</datestamp>
      <setSpec>user-biosyslit</setSpec>
    </header>
    <header>
      <identifier>oai:zenodo.org:242567</identifier>
      <datestamp>2017-01-13T16:57:47Z</datestamp>
      <setSpec>user-biosyslit</setSpec>
    </header>
    <header>
      <identifier>oai:zenodo.org:243412</identifier>
      <datestamp>2017-01-14T05:25:29Z</datestamp>
      <setSpec>user-biosyslit</setSpec>
    </header>
    <header>
      <identifier>oai:zenodo.org:242704</identifier>
      <datestamp>2017-01-13T18:52:51Z</datestamp>
      <setSpec>user-biosyslit</setSpec>
    </header>
    <header>
      <identifier>oai:zenodo.org:242251</identifier>
      <datestamp>2017-01-13T12:29:28Z</datestamp>
      <setSpec>user-biosyslit</setSpec>
    </header>
    <header>
      <identifier>oai:zenodo.org:242224</identifier>
      <datestamp>2017-01-13T12:14:15Z</datestamp>
      <setSpec>user-biosyslit</setSpec>
    </header>
    <header>
      <identifier>oai:zenodo.org:243045</identifier>
      <datestamp>2017-01-13T22:36:35Z</datestamp>
      <setSpec>user-biosyslit</setSpec>
    </header>
    <header>
      <identifier>oai:zenodo.org:242556</identifier>
      <datestamp>2017-01-13T16:57:14Z</datestamp>
      <setSpec>user-biosyslit</setSpec>
    </header>
    <header>
      <identifier>oai:zenodo.org:243685</identifier>
      <datestamp>2017-01-14T09:19:45Z</datestamp>
      <setSpec>user-biosyslit</setSpec>
    </header>
    <header>
      <identifier>oai:zenodo.org:243460</identifier>
      <datestamp>2017-01-14T06:05:44Z</datestamp>
      <setSpec>user-biosyslit</setSpec>
    </header>
    <header>
      <identifier>oai:zenodo.org:242559</identifier>
      <datestamp>2017-01-13T16:57:22Z</datestamp>
      <setSpec>user-biosyslit</setSpec>
    </header>
    <header>
      <identifier>oai:zenodo.org:243451</identifier>
      <datestamp>2017-01-14T05:52:42Z</datestamp>
      <setSpec>user-biosyslit</setSpec>
    </header>
    <header>
      <identifier>oai:zenodo.org:243212</identifier>
      <datestamp>2017-01-14T00:48:32Z</datestamp>
      <setSpec>user-biosyslit</setSpec>
    </header>
    <header>
      <identifier>oai:zenodo.org:272088</identifier>
      <datestamp>2017-02-08T03:39:13Z</datestamp>
      <setSpec>user-biosyslit</setSpec>
    </header>
    <header>
      <identifier>oai:zenodo.org:243525</identifier>
      <datestamp>2017-01-14T07:03:31Z</datestamp>
      <setSpec>user-biosyslit</setSpec>
    </header>
    <header>
      <identifier>oai:zenodo.org:244007</identifier>
      <datestamp>2017-01-14T15:11:24Z</datestamp>
      <setSpec>user-biosyslit</setSpec>
    </header>
    <header>
      <identifier>oai:zenodo.org:244221</identifier>
      <datestamp>2017-01-14T17:39:30Z</datestamp>
      <setSpec>user-biosyslit</setSpec>
    </header>
    <header>
      <identifier>oai:zenodo.org:272090</identifier>
      <datestamp>2017-02-08T03:39:27Z</datestamp>
      <setSpec>user-biosyslit</setSpec>
    </header>
    <header>
      <identifier>oai:zenodo.org:272629</identifier>
      <datestamp>2017-02-08T05:51:30Z</datestamp>
      <setSpec>user-biosyslit</setSpec>
    </header>
    <header>
      <identifier>oai:zenodo.org:244396</identifier>
      <datestamp>2017-01-14T21:14:42Z</datestamp>
      <setSpec>user-biosyslit</setSpec>
    </header>
    <header>
      <identifier>oai:zenodo.org:243697</identifier>
      <datestamp>2017-01-14T09:20:50Z</datestamp>
      <setSpec>user-biosyslit</setSpec>
    </header>
    <header>
      <identifier>oai:zenodo.org:244393</identifier>
      <datestamp>2017-01-14T21:11:05Z</datestamp>
      <setSpec>user-biosyslit</setSpec>
    </header>
    <header>
      <identifier>oai:zenodo.org:272255</identifier>
      <datestamp>2017-02-08T04:05:06Z</datestamp>
      <setSpec>user-biosyslit</setSpec>
    </header>
    <header>
      <identifier>oai:zenodo.org:244681</identifier>
      <datestamp>2017-01-15T01:10:20Z</datestamp>
      <setSpec>user-biosyslit</setSpec>
    </header>
    <header>
      <identifier>oai:zenodo.org:243940</identifier>
      <datestamp>2017-01-14T13:43:08Z</datestamp>
      <setSpec>user-biosyslit</setSpec>
    </header>
    <header>
      <identifier>oai:zenodo.org:243977</identifier>
      <datestamp>2017-01-14T14:45:12Z</datestamp>
      <setSpec>user-biosyslit</setSpec>
    </header>
    <header>
      <identifier>oai:zenodo.org:245829</identifier>
      <datestamp>2017-01-15T19:09:30Z</datestamp>
      <setSpec>user-biosyslit</setSpec>
    </header>
    <header>
      <identifier>oai:zenodo.org:244884</identifier>
      <datestamp>2017-01-15T04:37:05Z</datestamp>
      <setSpec>user-biosyslit</setSpec>
    </header>
    <header>
      <identifier>oai:zenodo.org:245903</identifier>
      <datestamp>2017-01-15T19:21:45Z</datestamp>
      <setSpec>user-biosyslit</setSpec>
    </header>
    <header>
      <identifier>oai:zenodo.org:244720</identifier>
      <datestamp>2017-01-15T01:38:36Z</datestamp>
      <setSpec>user-biosyslit</setSpec>
    </header>
    <header>
      <identifier>oai:zenodo.org:245416</identifier>
      <datestamp>2017-01-15T12:56:38Z</datestamp>
      <setSpec>user-biosyslit</setSpec>
    </header>
    <header>
      <identifier>oai:zenodo.org:272277</identifier>
      <datestamp>2017-02-08T04:09:24Z</datestamp>
      <setSpec>user-biosyslit</setSpec>
    </header>
    <header>
      <identifier>oai:zenodo.org:244876</identifier>
      <datestamp>2017-01-15T04:33:46Z</datestamp>
      <setSpec>user-biosyslit</setSpec>
    </header>
    <header>
      <identifier>oai:zenodo.org:247883</identifier>
      <datestamp>2017-01-16T21:15:28Z</datestamp>
      <setSpec>user-biosyslit</setSpec>
    </header>
    <header>
      <identifier>oai:zenodo.org:244879</identifier>
      <datestamp>2017-01-15T04:34:01Z</datestamp>
      <setSpec>user-biosyslit</setSpec>
    </header>
    <header>
      <identifier>oai:zenodo.org:245196</identifier>
      <datestamp>2017-01-15T09:42:00Z</datestamp>
      <setSpec>user-biosyslit</setSpec>
    </header>
    <header>
      <identifier>oai:zenodo.org:245152</identifier>
      <datestamp>2017-01-15T08:23:38Z</datestamp>
      <setSpec>user-biosyslit</setSpec>
    </header>
    <header>
      <identifier>oai:zenodo.org:245656</identifier>
      <datestamp>2017-01-15T17:14:22Z</datestamp>
      <setSpec>user-biosyslit</setSpec>
    </header>
    <header>
      <identifier>oai:zenodo.org:289187</identifier>
      <datestamp>2017-02-09T22:55:35Z</datestamp>
      <setSpec>user-biosyslit</setSpec>
    </header>
    <header>
      <identifier>oai:zenodo.org:245314</identifier>
      <datestamp>2017-01-15T11:36:41Z</datestamp>
      <setSpec>user-biosyslit</setSpec>
    </header>
    <header>
      <identifier>oai:zenodo.org:288776</identifier>
      <datestamp>2017-02-09T21:52:10Z</datestamp>
      <setSpec>user-biosyslit</setSpec>
    </header>
    <header>
      <identifier>oai:zenodo.org:289560</identifier>
      <datestamp>2017-02-09T23:50:18Z</datestamp>
      <setSpec>user-biosyslit</setSpec>
    </header>
    <header>
      <identifier>oai:zenodo.org:288891</identifier>
      <datestamp>2017-02-09T22:07:52Z</datestamp>
      <setSpec>user-biosyslit</setSpec>
    </header>
    <header>
      <identifier>oai:zenodo.org:289937</identifier>
      <datestamp>2017-02-10T00:50:32Z</datestamp>
      <setSpec>user-biosyslit</setSpec>
    </header>
    <header>
      <identifier>oai:zenodo.org:289522</identifier>
      <datestamp>2017-02-09T23:44:24Z</datestamp>
      <setSpec>user-biosyslit</setSpec>
    </header>
    <header>
      <identifier>oai:zenodo.org:291391</identifier>
      <datestamp>2017-02-14T05:46:09Z</datestamp>
      <setSpec>user-biosyslit</setSpec>
    </header>
    <header>
      <identifier>oai:zenodo.org:289846</identifier>
      <datestamp>2017-02-10T00:40:54Z</datestamp>
      <setSpec>user-biosyslit</setSpec>
    </header>
    <header>
      <identifier>oai:zenodo.org:289722</identifier>
      <datestamp>2017-02-10T00:22:15Z</datestamp>
      <setSpec>user-biosyslit</setSpec>
    </header>
    <header>
      <identifier>oai:zenodo.org:289723</identifier>
      <datestamp>2017-02-10T00:22:18Z</datestamp>
      <setSpec>user-biosyslit</setSpec>
    </header>
    <header>
      <identifier>oai:zenodo.org:289421</identifier>
      <datestamp>2017-02-09T23:27:59Z</datestamp>
      <setSpec>user-biosyslit</setSpec>
    </header>
    <header>
      <identifier>oai:zenodo.org:290023</identifier>
      <datestamp>2017-02-10T01:06:14Z</datestamp>
      <setSpec>user-biosyslit</setSpec>
    </header>
    <header>
      <identifier>oai:zenodo.org:289691</identifier>
      <datestamp>2017-02-10T00:11:09Z</datestamp>
      <setSpec>user-biosyslit</setSpec>
    </header>
    <header>
      <identifier>oai:zenodo.org:289638</identifier>
      <datestamp>2017-02-10T00:01:43Z</datestamp>
      <setSpec>user-biosyslit</setSpec>
    </header>
    <header>
      <identifier>oai:zenodo.org:289645</identifier>
      <datestamp>2017-02-10T00:01:57Z</datestamp>
      <setSpec>user-biosyslit</setSpec>
    </header>
    <header>
      <identifier>oai:zenodo.org:289733</identifier>
      <datestamp>2017-02-10T00:22:46Z</datestamp>
      <setSpec>user-biosyslit</setSpec>
    </header>
    <header>
      <identifier>oai:zenodo.org:289786</identifier>
      <datestamp>2017-02-10T00:30:28Z</datestamp>
      <setSpec>user-biosyslit</setSpec>
    </header>
    <header>
      <identifier>oai:zenodo.org:289884</identifier>
      <datestamp>2017-02-10T00:45:21Z</datestamp>
      <setSpec>user-biosyslit</setSpec>
    </header>
    <header>
      <identifier>oai:zenodo.org:291277</identifier>
      <datestamp>2017-02-13T20:39:00Z</datestamp>
      <setSpec>user-biosyslit</setSpec>
    </header>
    <header>
      <identifier>oai:zenodo.org:289960</identifier>
      <datestamp>2017-02-10T00:51:39Z</datestamp>
      <setSpec>user-biosyslit</setSpec>
    </header>
    <header>
      <identifier>oai:zenodo.org:234593</identifier>
      <datestamp>2017-01-08T22:29:52Z</datestamp>
      <setSpec>user-biosyslit</setSpec>
    </header>
    <header>
      <identifier>oai:zenodo.org:270550</identifier>
      <datestamp>2017-02-07T23:27:01Z</datestamp>
      <setSpec>user-biosyslit</setSpec>
    </header>
    <header>
      <identifier>oai:zenodo.org:235061</identifier>
      <datestamp>2017-01-09T05:15:46Z</datestamp>
      <setSpec>user-biosyslit</setSpec>
    </header>
    <header>
      <identifier>oai:zenodo.org:234338</identifier>
      <datestamp>2017-01-08T18:34:44Z</datestamp>
      <setSpec>user-biosyslit</setSpec>
    </header>
    <header>
      <identifier>oai:zenodo.org:288463</identifier>
      <datestamp>2017-02-09T21:01:42Z</datestamp>
      <setSpec>user-biosyslit</setSpec>
    </header>
    <header>
      <identifier>oai:zenodo.org:236537</identifier>
      <datestamp>2017-01-10T01:21:58Z</datestamp>
      <setSpec>user-biosyslit</setSpec>
    </header>
    <header>
      <identifier>oai:zenodo.org:234688</identifier>
      <datestamp>2017-01-08T23:56:37Z</datestamp>
      <setSpec>user-biosyslit</setSpec>
    </header>
    <header>
      <identifier>oai:zenodo.org:236444</identifier>
      <datestamp>2017-01-10T00:15:37Z</datestamp>
      <setSpec>user-biosyslit</setSpec>
    </header>
    <header>
      <identifier>oai:zenodo.org:235118</identifier>
      <datestamp>2017-01-09T05:44:36Z</datestamp>
      <setSpec>user-biosyslit</setSpec>
    </header>
    <header>
      <identifier>oai:zenodo.org:236067</identifier>
      <datestamp>2017-01-09T18:30:41Z</datestamp>
      <setSpec>user-biosyslit</setSpec>
    </header>
    <header>
      <identifier>oai:zenodo.org:235691</identifier>
      <datestamp>2017-01-09T13:43:37Z</datestamp>
      <setSpec>user-biosyslit</setSpec>
    </header>
    <header>
      <identifier>oai:zenodo.org:235459</identifier>
      <datestamp>2017-01-09T10:12:58Z</datestamp>
      <setSpec>user-biosyslit</setSpec>
    </header>
    <header>
      <identifier>oai:zenodo.org:235626</identifier>
      <datestamp>2017-01-09T13:04:51Z</datestamp>
      <setSpec>user-biosyslit</setSpec>
    </header>
    <header>
      <identifier>oai:zenodo.org:236417</identifier>
      <datestamp>2017-01-09T23:59:46Z</datestamp>
      <setSpec>user-biosyslit</setSpec>
    </header>
    <header>
      <identifier>oai:zenodo.org:289066</identifier>
      <datestamp>2017-02-09T22:33:42Z</datestamp>
      <setSpec>user-biosyslit</setSpec>
    </header>
    <header>
      <identifier>oai:zenodo.org:236007</identifier>
      <datestamp>2017-01-09T17:49:07Z</datestamp>
      <setSpec>user-biosyslit</setSpec>
    </header>
    <header>
      <identifier>oai:zenodo.org:236383</identifier>
      <datestamp>2017-01-09T23:36:20Z</datestamp>
      <setSpec>user-biosyslit</setSpec>
    </header>
    <header>
      <identifier>oai:zenodo.org:236405</identifier>
      <datestamp>2017-01-09T23:49:40Z</datestamp>
      <setSpec>user-biosyslit</setSpec>
    </header>
    <header>
      <identifier>oai:zenodo.org:236554</identifier>
      <datestamp>2017-01-10T01:22:58Z</datestamp>
      <setSpec>user-biosyslit</setSpec>
    </header>
    <header>
      <identifier>oai:zenodo.org:288801</identifier>
      <datestamp>2017-02-09T21:53:33Z</datestamp>
      <setSpec>user-biosyslit</setSpec>
    </header>
    <resumptionToken expirationDate="2017-08-31T15:44:13Z" cursor="18700" completeListSize="77796">.eJyNysEKgjAYAOB3-c8SmzPmhC6hSQcVXYp6CVORapq4Ql347nnpXOfve4Os6wostEGUMUIoJowZiNGtoYEsh4cQ5-vqUKaJKDsRF27yitoEZXpDfVtOnp0RX91R0GLFD6GeYnOKr2gOT_EzU9GUkOPIkUM9Fc7-7bi-igSuyC9uz-NuL7heDYETzhzveU7K78N_PvXz2XIHGvRFU4OFTabBfSyGRoL1XpYP3wFRhg.DIm_1Q.qAe4XwKHnoNGVAurxT2Fs1Yx7_E</resumptionToken>
  </ListIdentifiers>
</OAI-PMH>
