<?xml version='1.0' encoding='UTF-8'?>
<?xml-stylesheet type="text/xsl" href="/static/xsl/oai2.v1.0.xsl"?>
<OAI-PMH xmlns="http://www.openarchives.org/OAI/2.0/" xmlns:xsi="http://www.w3.org/2001/XMLSchema-instance" xsi:schemaLocation="http://www.openarchives.org/OAI/2.0/ http://www.openarchives.org/OAI/2.0/OAI-PMH.xsd">
  <responseDate>2017-08-31T15:44:38Z</responseDate>
  <request verb="ListIdentifiers" resumptionToken=".eJyNyssKgkAUANB_uWuJeRg-oI1o4kJFJ0XdhKlIOZo4hTrSv9emda3P2UA0TQ0m2mHVoIaBdKwSgtQ91hQQ1XTn_Hz9OFRZyquBJ6WbPuM-RTlptcAWi2_nNJAdCnss2TEiGdaX5IrW6JQ8chkvKfVmhhzNl9Ea3LzPq2no8uLijiwZLM5IPYVOtDJssYJW34f_fPLns8UBFBjLtgFzTwwFurmcWgHm9nq9AcyxUXA.DInAZg.Ggtls2Kg35PWgXL3KA5IRjnNo8M">https://zenodo.org/oai2d</request>
  <ListIdentifiers>
    <header>
      <identifier>oai:zenodo.org:256809</identifier>
      <datestamp>2017-01-22T21:17:28Z</datestamp>
      <setSpec>user-biosyslit</setSpec>
    </header>
    <header>
      <identifier>oai:zenodo.org:256783</identifier>
      <datestamp>2017-01-22T20:36:40Z</datestamp>
      <setSpec>user-biosyslit</setSpec>
    </header>
    <header>
      <identifier>oai:zenodo.org:256842</identifier>
      <datestamp>2017-01-22T21:19:08Z</datestamp>
      <setSpec>user-biosyslit</setSpec>
    </header>
    <header>
      <identifier>oai:zenodo.org:257219</identifier>
      <datestamp>2017-01-23T03:40:58Z</datestamp>
      <setSpec>user-biosyslit</setSpec>
    </header>
    <header>
      <identifier>oai:zenodo.org:257597</identifier>
      <datestamp>2017-01-23T10:50:35Z</datestamp>
      <setSpec>user-biosyslit</setSpec>
    </header>
    <header>
      <identifier>oai:zenodo.org:257111</identifier>
      <datestamp>2017-01-23T01:21:01Z</datestamp>
      <setSpec>user-biosyslit</setSpec>
    </header>
    <header>
      <identifier>oai:zenodo.org:258482</identifier>
      <datestamp>2017-01-23T23:36:07Z</datestamp>
      <setSpec>user-biosyslit</setSpec>
    </header>
    <header>
      <identifier>oai:zenodo.org:257338</identifier>
      <datestamp>2017-01-23T05:41:39Z</datestamp>
      <setSpec>user-biosyslit</setSpec>
    </header>
    <header>
      <identifier>oai:zenodo.org:258134</identifier>
      <datestamp>2017-01-23T16:46:17Z</datestamp>
      <setSpec>user-biosyslit</setSpec>
    </header>
    <header>
      <identifier>oai:zenodo.org:258564</identifier>
      <datestamp>2017-01-24T00:30:33Z</datestamp>
      <setSpec>user-biosyslit</setSpec>
    </header>
    <header>
      <identifier>oai:zenodo.org:258147</identifier>
      <datestamp>2017-01-23T16:46:49Z</datestamp>
      <setSpec>user-biosyslit</setSpec>
    </header>
    <header>
      <identifier>oai:zenodo.org:258479</identifier>
      <datestamp>2017-01-23T23:35:50Z</datestamp>
      <setSpec>user-biosyslit</setSpec>
    </header>
    <header>
      <identifier>oai:zenodo.org:257977</identifier>
      <datestamp>2017-01-23T15:04:44Z</datestamp>
      <setSpec>user-biosyslit</setSpec>
    </header>
    <header>
      <identifier>oai:zenodo.org:257622</identifier>
      <datestamp>2017-01-23T11:11:18Z</datestamp>
      <setSpec>user-biosyslit</setSpec>
    </header>
    <header>
      <identifier>oai:zenodo.org:259111</identifier>
      <datestamp>2017-01-24T07:49:39Z</datestamp>
      <setSpec>user-biosyslit</setSpec>
    </header>
    <header>
      <identifier>oai:zenodo.org:258306</identifier>
      <datestamp>2017-01-23T20:34:28Z</datestamp>
      <setSpec>user-biosyslit</setSpec>
    </header>
    <header>
      <identifier>oai:zenodo.org:257927</identifier>
      <datestamp>2017-01-23T14:07:44Z</datestamp>
      <setSpec>user-biosyslit</setSpec>
    </header>
    <header>
      <identifier>oai:zenodo.org:257940</identifier>
      <datestamp>2017-01-23T14:11:39Z</datestamp>
      <setSpec>user-biosyslit</setSpec>
    </header>
    <header>
      <identifier>oai:zenodo.org:258054</identifier>
      <datestamp>2017-01-23T15:42:59Z</datestamp>
      <setSpec>user-biosyslit</setSpec>
    </header>
    <header>
      <identifier>oai:zenodo.org:258551</identifier>
      <datestamp>2017-01-24T00:05:31Z</datestamp>
      <setSpec>user-biosyslit</setSpec>
    </header>
    <header>
      <identifier>oai:zenodo.org:258126</identifier>
      <datestamp>2017-01-23T16:46:00Z</datestamp>
      <setSpec>user-biosyslit</setSpec>
    </header>
    <header>
      <identifier>oai:zenodo.org:259653</identifier>
      <datestamp>2017-01-25T14:43:24Z</datestamp>
      <setSpec>user-biosyslit</setSpec>
    </header>
    <header>
      <identifier>oai:zenodo.org:258770</identifier>
      <datestamp>2017-01-24T04:53:50Z</datestamp>
      <setSpec>user-biosyslit</setSpec>
    </header>
    <header>
      <identifier>oai:zenodo.org:258814</identifier>
      <datestamp>2017-01-24T04:56:19Z</datestamp>
      <setSpec>user-biosyslit</setSpec>
    </header>
    <header>
      <identifier>oai:zenodo.org:259079</identifier>
      <datestamp>2017-01-24T07:42:28Z</datestamp>
      <setSpec>user-biosyslit</setSpec>
    </header>
    <header>
      <identifier>oai:zenodo.org:259294</identifier>
      <datestamp>2017-01-24T09:50:07Z</datestamp>
      <setSpec>user-biosyslit</setSpec>
    </header>
    <header>
      <identifier>oai:zenodo.org:259282</identifier>
      <datestamp>2017-01-24T09:49:36Z</datestamp>
      <setSpec>user-biosyslit</setSpec>
    </header>
    <header>
      <identifier>oai:zenodo.org:258945</identifier>
      <datestamp>2017-01-24T06:37:00Z</datestamp>
      <setSpec>user-biosyslit</setSpec>
    </header>
    <header>
      <identifier>oai:zenodo.org:259086</identifier>
      <datestamp>2017-01-24T07:46:52Z</datestamp>
      <setSpec>user-biosyslit</setSpec>
    </header>
    <header>
      <identifier>oai:zenodo.org:259780</identifier>
      <datestamp>2017-01-25T16:05:28Z</datestamp>
      <setSpec>user-biosyslit</setSpec>
    </header>
    <header>
      <identifier>oai:zenodo.org:259046</identifier>
      <datestamp>2017-01-24T07:31:52Z</datestamp>
      <setSpec>user-biosyslit</setSpec>
    </header>
    <header>
      <identifier>oai:zenodo.org:259830</identifier>
      <datestamp>2017-01-25T16:44:32Z</datestamp>
      <setSpec>user-biosyslit</setSpec>
    </header>
    <header>
      <identifier>oai:zenodo.org:259628</identifier>
      <datestamp>2017-01-25T14:27:19Z</datestamp>
      <setSpec>user-biosyslit</setSpec>
    </header>
    <header>
      <identifier>oai:zenodo.org:261237</identifier>
      <datestamp>2017-01-28T07:03:28Z</datestamp>
      <setSpec>user-biosyslit</setSpec>
    </header>
    <header>
      <identifier>oai:zenodo.org:259807</identifier>
      <datestamp>2017-01-25T16:26:36Z</datestamp>
      <setSpec>user-biosyslit</setSpec>
    </header>
    <header>
      <identifier>oai:zenodo.org:261370</identifier>
      <datestamp>2017-01-28T08:29:49Z</datestamp>
      <setSpec>user-biosyslit</setSpec>
    </header>
    <header>
      <identifier>oai:zenodo.org:260597</identifier>
      <datestamp>2017-01-27T22:16:23Z</datestamp>
      <setSpec>user-biosyslit</setSpec>
    </header>
    <header>
      <identifier>oai:zenodo.org:259757</identifier>
      <datestamp>2017-01-26T08:56:01Z</datestamp>
      <setSpec>openaire</setSpec>
      <setSpec>user-biosyslit</setSpec>
    </header>
    <header>
      <identifier>oai:zenodo.org:260764</identifier>
      <datestamp>2017-01-28T00:52:00Z</datestamp>
      <setSpec>user-biosyslit</setSpec>
    </header>
    <header>
      <identifier>oai:zenodo.org:255824</identifier>
      <datestamp>2017-01-21T22:40:25Z</datestamp>
      <setSpec>user-biosyslit</setSpec>
    </header>
    <header>
      <identifier>oai:zenodo.org:255389</identifier>
      <datestamp>2017-01-21T12:47:27Z</datestamp>
      <setSpec>user-biosyslit</setSpec>
    </header>
    <header>
      <identifier>oai:zenodo.org:256433</identifier>
      <datestamp>2017-01-22T14:37:12Z</datestamp>
      <setSpec>user-biosyslit</setSpec>
    </header>
    <header>
      <identifier>oai:zenodo.org:256536</identifier>
      <datestamp>2017-01-22T17:10:25Z</datestamp>
      <setSpec>user-biosyslit</setSpec>
    </header>
    <header>
      <identifier>oai:zenodo.org:255563</identifier>
      <datestamp>2017-01-21T15:57:40Z</datestamp>
      <setSpec>user-biosyslit</setSpec>
    </header>
    <header>
      <identifier>oai:zenodo.org:255654</identifier>
      <datestamp>2017-01-21T18:03:49Z</datestamp>
      <setSpec>user-biosyslit</setSpec>
    </header>
    <header>
      <identifier>oai:zenodo.org:273038</identifier>
      <datestamp>2017-02-08T06:59:26Z</datestamp>
      <setSpec>user-biosyslit</setSpec>
    </header>
    <header>
      <identifier>oai:zenodo.org:273287</identifier>
      <datestamp>2017-02-08T08:52:37Z</datestamp>
      <setSpec>user-biosyslit</setSpec>
    </header>
    <header>
      <identifier>oai:zenodo.org:276096</identifier>
      <datestamp>2017-02-08T18:07:29Z</datestamp>
      <setSpec>user-biosyslit</setSpec>
    </header>
    <header>
      <identifier>oai:zenodo.org:276071</identifier>
      <datestamp>2017-02-08T18:02:59Z</datestamp>
      <setSpec>user-biosyslit</setSpec>
    </header>
    <header>
      <identifier>oai:zenodo.org:275887</identifier>
      <datestamp>2017-02-08T17:19:05Z</datestamp>
      <setSpec>user-biosyslit</setSpec>
    </header>
    <header>
      <identifier>oai:zenodo.org:276282</identifier>
      <datestamp>2017-02-08T18:34:40Z</datestamp>
      <setSpec>user-biosyslit</setSpec>
    </header>
    <header>
      <identifier>oai:zenodo.org:276315</identifier>
      <datestamp>2017-02-08T18:37:19Z</datestamp>
      <setSpec>user-biosyslit</setSpec>
    </header>
    <header>
      <identifier>oai:zenodo.org:252257</identifier>
      <datestamp>2017-01-19T11:15:12Z</datestamp>
      <setSpec>user-biosyslit</setSpec>
    </header>
    <header>
      <identifier>oai:zenodo.org:252197</identifier>
      <datestamp>2017-01-19T10:30:06Z</datestamp>
      <setSpec>user-biosyslit</setSpec>
    </header>
    <header>
      <identifier>oai:zenodo.org:252082</identifier>
      <datestamp>2017-01-19T08:55:37Z</datestamp>
      <setSpec>user-biosyslit</setSpec>
    </header>
    <header>
      <identifier>oai:zenodo.org:253550</identifier>
      <datestamp>2017-01-20T08:24:37Z</datestamp>
      <setSpec>user-biosyslit</setSpec>
    </header>
    <header>
      <identifier>oai:zenodo.org:252196</identifier>
      <datestamp>2017-01-19T10:30:02Z</datestamp>
      <setSpec>user-biosyslit</setSpec>
    </header>
    <header>
      <identifier>oai:zenodo.org:252018</identifier>
      <datestamp>2017-01-19T07:22:11Z</datestamp>
      <setSpec>user-biosyslit</setSpec>
    </header>
    <header>
      <identifier>oai:zenodo.org:252079</identifier>
      <datestamp>2017-01-19T08:56:01Z</datestamp>
      <setSpec>user-biosyslit</setSpec>
    </header>
    <header>
      <identifier>oai:zenodo.org:252325</identifier>
      <datestamp>2017-01-19T11:56:57Z</datestamp>
      <setSpec>user-biosyslit</setSpec>
    </header>
    <header>
      <identifier>oai:zenodo.org:252135</identifier>
      <datestamp>2017-01-19T09:41:04Z</datestamp>
      <setSpec>user-biosyslit</setSpec>
    </header>
    <header>
      <identifier>oai:zenodo.org:252760</identifier>
      <datestamp>2017-01-19T19:33:41Z</datestamp>
      <setSpec>user-biosyslit</setSpec>
    </header>
    <header>
      <identifier>oai:zenodo.org:252920</identifier>
      <datestamp>2017-01-19T23:01:08Z</datestamp>
      <setSpec>user-biosyslit</setSpec>
    </header>
    <header>
      <identifier>oai:zenodo.org:253047</identifier>
      <datestamp>2017-01-20T01:55:56Z</datestamp>
      <setSpec>user-biosyslit</setSpec>
    </header>
    <header>
      <identifier>oai:zenodo.org:252637</identifier>
      <datestamp>2017-01-19T17:48:41Z</datestamp>
      <setSpec>user-biosyslit</setSpec>
    </header>
    <header>
      <identifier>oai:zenodo.org:252640</identifier>
      <datestamp>2017-01-19T17:48:48Z</datestamp>
      <setSpec>user-biosyslit</setSpec>
    </header>
    <header>
      <identifier>oai:zenodo.org:253208</identifier>
      <datestamp>2017-01-20T04:00:43Z</datestamp>
      <setSpec>user-biosyslit</setSpec>
    </header>
    <header>
      <identifier>oai:zenodo.org:252939</identifier>
      <datestamp>2017-01-19T23:37:50Z</datestamp>
      <setSpec>user-biosyslit</setSpec>
    </header>
    <header>
      <identifier>oai:zenodo.org:253658</identifier>
      <datestamp>2017-01-20T09:31:50Z</datestamp>
      <setSpec>user-biosyslit</setSpec>
    </header>
    <header>
      <identifier>oai:zenodo.org:253541</identifier>
      <datestamp>2017-01-20T08:24:10Z</datestamp>
      <setSpec>user-biosyslit</setSpec>
    </header>
    <header>
      <identifier>oai:zenodo.org:253161</identifier>
      <datestamp>2017-01-20T03:14:40Z</datestamp>
      <setSpec>user-biosyslit</setSpec>
    </header>
    <header>
      <identifier>oai:zenodo.org:253560</identifier>
      <datestamp>2017-01-20T08:25:05Z</datestamp>
      <setSpec>user-biosyslit</setSpec>
    </header>
    <header>
      <identifier>oai:zenodo.org:253818</identifier>
      <datestamp>2017-01-20T11:27:57Z</datestamp>
      <setSpec>user-biosyslit</setSpec>
    </header>
    <header>
      <identifier>oai:zenodo.org:254026</identifier>
      <datestamp>2017-01-20T13:39:33Z</datestamp>
      <setSpec>user-biosyslit</setSpec>
    </header>
    <header>
      <identifier>oai:zenodo.org:255227</identifier>
      <datestamp>2017-01-21T10:00:20Z</datestamp>
      <setSpec>user-biosyslit</setSpec>
    </header>
    <header>
      <identifier>oai:zenodo.org:255566</identifier>
      <datestamp>2017-01-21T15:57:46Z</datestamp>
      <setSpec>user-biosyslit</setSpec>
    </header>
    <header>
      <identifier>oai:zenodo.org:254847</identifier>
      <datestamp>2017-01-21T03:59:38Z</datestamp>
      <setSpec>user-biosyslit</setSpec>
    </header>
    <header>
      <identifier>oai:zenodo.org:254449</identifier>
      <datestamp>2017-01-20T18:49:59Z</datestamp>
      <setSpec>user-biosyslit</setSpec>
    </header>
    <header>
      <identifier>oai:zenodo.org:254749</identifier>
      <datestamp>2017-01-21T02:17:15Z</datestamp>
      <setSpec>user-biosyslit</setSpec>
    </header>
    <header>
      <identifier>oai:zenodo.org:255862</identifier>
      <datestamp>2017-01-21T23:07:05Z</datestamp>
      <setSpec>user-biosyslit</setSpec>
    </header>
    <header>
      <identifier>oai:zenodo.org:254663</identifier>
      <datestamp>2017-01-21T01:09:05Z</datestamp>
      <setSpec>user-biosyslit</setSpec>
    </header>
    <header>
      <identifier>oai:zenodo.org:254770</identifier>
      <datestamp>2017-01-21T02:43:41Z</datestamp>
      <setSpec>user-biosyslit</setSpec>
    </header>
    <header>
      <identifier>oai:zenodo.org:255359</identifier>
      <datestamp>2017-01-21T12:31:38Z</datestamp>
      <setSpec>user-biosyslit</setSpec>
    </header>
    <header>
      <identifier>oai:zenodo.org:256237</identifier>
      <datestamp>2017-01-22T07:56:09Z</datestamp>
      <setSpec>user-biosyslit</setSpec>
    </header>
    <header>
      <identifier>oai:zenodo.org:256287</identifier>
      <datestamp>2017-01-22T10:34:55Z</datestamp>
      <setSpec>user-biosyslit</setSpec>
    </header>
    <header>
      <identifier>oai:zenodo.org:255071</identifier>
      <datestamp>2017-01-21T07:27:22Z</datestamp>
      <setSpec>user-biosyslit</setSpec>
    </header>
    <header>
      <identifier>oai:zenodo.org:255053</identifier>
      <datestamp>2017-01-21T07:11:05Z</datestamp>
      <setSpec>user-biosyslit</setSpec>
    </header>
    <header>
      <identifier>oai:zenodo.org:255167</identifier>
      <datestamp>2017-01-21T08:39:43Z</datestamp>
      <setSpec>user-biosyslit</setSpec>
    </header>
    <header>
      <identifier>oai:zenodo.org:255396</identifier>
      <datestamp>2017-01-21T12:52:44Z</datestamp>
      <setSpec>user-biosyslit</setSpec>
    </header>
    <header>
      <identifier>oai:zenodo.org:255682</identifier>
      <datestamp>2017-01-21T18:20:12Z</datestamp>
      <setSpec>user-biosyslit</setSpec>
    </header>
    <header>
      <identifier>oai:zenodo.org:255458</identifier>
      <datestamp>2017-01-21T13:32:52Z</datestamp>
      <setSpec>user-biosyslit</setSpec>
    </header>
    <header>
      <identifier>oai:zenodo.org:255215</identifier>
      <datestamp>2017-01-21T10:01:17Z</datestamp>
      <setSpec>user-biosyslit</setSpec>
    </header>
    <header>
      <identifier>oai:zenodo.org:251328</identifier>
      <datestamp>2017-01-18T21:21:41Z</datestamp>
      <setSpec>user-biosyslit</setSpec>
    </header>
    <header>
      <identifier>oai:zenodo.org:275525</identifier>
      <datestamp>2017-02-08T16:37:33Z</datestamp>
      <setSpec>user-biosyslit</setSpec>
    </header>
    <header>
      <identifier>oai:zenodo.org:251103</identifier>
      <datestamp>2017-01-18T18:44:25Z</datestamp>
      <setSpec>user-biosyslit</setSpec>
    </header>
    <header>
      <identifier>oai:zenodo.org:251333</identifier>
      <datestamp>2017-01-18T21:21:59Z</datestamp>
      <setSpec>user-biosyslit</setSpec>
    </header>
    <header>
      <identifier>oai:zenodo.org:272785</identifier>
      <datestamp>2017-02-08T06:27:22Z</datestamp>
      <setSpec>user-biosyslit</setSpec>
    </header>
    <header>
      <identifier>oai:zenodo.org:251215</identifier>
      <datestamp>2017-01-18T20:00:58Z</datestamp>
      <setSpec>user-biosyslit</setSpec>
    </header>
    <header>
      <identifier>oai:zenodo.org:273217</identifier>
      <datestamp>2017-02-08T08:33:00Z</datestamp>
      <setSpec>user-biosyslit</setSpec>
    </header>
    <header>
      <identifier>oai:zenodo.org:251593</identifier>
      <datestamp>2017-01-19T02:45:22Z</datestamp>
      <setSpec>user-biosyslit</setSpec>
    </header>
    <resumptionToken expirationDate="2017-08-31T15:46:38Z" cursor="52800" completeListSize="77796">.eJyNz00PQzAcgPHv8j_L0qphkl2EicMIHcFlsRIx3Ut0Cyq--1x23s7P7_LMIOq6AgttNNPAuoZ3OlK3BBGiKyBY_-D83K4dWJZydudJ6aXv-JaiXG2MwBHj0clJIDsU3rCkh0jNsDkmLZqiU_LKZTymxB8oco2jjKbg6q-uIqHHi4v3pMnd5lSt-tCNJoptWhD2dfhPJ386R-xBgWfZ1GCtYwp0Q9k3Aqx5WT7LZVFn.DInAZg.lq_-lZOiIqqJ2OFptScxxpe3FpM</resumptionToken>
  </ListIdentifiers>
</OAI-PMH>
