<?xml version='1.0' encoding='UTF-8'?>
<?xml-stylesheet type="text/xsl" href="/static/xsl/oai2.v1.0.xsl"?>
<OAI-PMH xmlns="http://www.openarchives.org/OAI/2.0/" xmlns:xsi="http://www.w3.org/2001/XMLSchema-instance" xsi:schemaLocation="http://www.openarchives.org/OAI/2.0/ http://www.openarchives.org/OAI/2.0/OAI-PMH.xsd">
  <responseDate>2017-08-31T15:41:15Z</responseDate>
  <request verb="ListIdentifiers" resumptionToken=".eJyNz8EOQzAAgOF36VmWVkNNsoswcUDoCC6LIWLKRLeg4t1nh5238_9d_hXwqiqBDg-KqhKsEk1FR0IUrEiAF-ODsWuzZ1AkMSt6FuV2_Aq7GKZyTTyTz66ZYk-00O-QoOdATpA2Rw1cgkv0TEU4x9iZKLSIK4LFuzu7K7Fvs-xmDzTqDUblcvStYKHIoBkuvg796cRPZ_ITkMCQ1xXQP1PtlI81B_q6bW9gblEe.DIm_mw.HtZd_26DJmYtoDzQhKps36yH8CM">https://zenodo.org/oai2d</request>
  <ListIdentifiers>
    <header>
      <identifier>oai:zenodo.org:255827</identifier>
      <datestamp>2017-01-21T22:44:49Z</datestamp>
      <setSpec>user-biosyslit</setSpec>
    </header>
    <header>
      <identifier>oai:zenodo.org:256932</identifier>
      <datestamp>2017-01-22T23:04:51Z</datestamp>
      <setSpec>user-biosyslit</setSpec>
    </header>
    <header>
      <identifier>oai:zenodo.org:257062</identifier>
      <datestamp>2017-01-23T00:41:23Z</datestamp>
      <setSpec>user-biosyslit</setSpec>
    </header>
    <header>
      <identifier>oai:zenodo.org:256905</identifier>
      <datestamp>2017-01-22T22:31:27Z</datestamp>
      <setSpec>user-biosyslit</setSpec>
    </header>
    <header>
      <identifier>oai:zenodo.org:256862</identifier>
      <datestamp>2017-01-22T21:43:01Z</datestamp>
      <setSpec>user-biosyslit</setSpec>
    </header>
    <header>
      <identifier>oai:zenodo.org:258866</identifier>
      <datestamp>2017-01-24T05:42:41Z</datestamp>
      <setSpec>user-biosyslit</setSpec>
    </header>
    <header>
      <identifier>oai:zenodo.org:257443</identifier>
      <datestamp>2017-01-23T06:58:01Z</datestamp>
      <setSpec>user-biosyslit</setSpec>
    </header>
    <header>
      <identifier>oai:zenodo.org:257244</identifier>
      <datestamp>2017-01-23T04:03:56Z</datestamp>
      <setSpec>user-biosyslit</setSpec>
    </header>
    <header>
      <identifier>oai:zenodo.org:257379</identifier>
      <datestamp>2017-01-23T06:13:37Z</datestamp>
      <setSpec>user-biosyslit</setSpec>
    </header>
    <header>
      <identifier>oai:zenodo.org:257328</identifier>
      <datestamp>2017-01-23T05:41:11Z</datestamp>
      <setSpec>user-biosyslit</setSpec>
    </header>
    <header>
      <identifier>oai:zenodo.org:257364</identifier>
      <datestamp>2017-01-23T05:42:49Z</datestamp>
      <setSpec>user-biosyslit</setSpec>
    </header>
    <header>
      <identifier>oai:zenodo.org:257647</identifier>
      <datestamp>2017-01-23T11:45:05Z</datestamp>
      <setSpec>user-biosyslit</setSpec>
    </header>
    <header>
      <identifier>oai:zenodo.org:258067</identifier>
      <datestamp>2017-01-23T15:43:28Z</datestamp>
      <setSpec>user-biosyslit</setSpec>
    </header>
    <header>
      <identifier>oai:zenodo.org:258017</identifier>
      <datestamp>2017-01-23T15:13:10Z</datestamp>
      <setSpec>user-biosyslit</setSpec>
    </header>
    <header>
      <identifier>oai:zenodo.org:259153</identifier>
      <datestamp>2017-01-24T08:14:49Z</datestamp>
      <setSpec>user-biosyslit</setSpec>
    </header>
    <header>
      <identifier>oai:zenodo.org:257936</identifier>
      <datestamp>2017-01-23T14:08:10Z</datestamp>
      <setSpec>user-biosyslit</setSpec>
    </header>
    <header>
      <identifier>oai:zenodo.org:258376</identifier>
      <datestamp>2017-01-23T21:41:57Z</datestamp>
      <setSpec>user-biosyslit</setSpec>
    </header>
    <header>
      <identifier>oai:zenodo.org:258763</identifier>
      <datestamp>2017-01-24T04:28:06Z</datestamp>
      <setSpec>user-biosyslit</setSpec>
    </header>
    <header>
      <identifier>oai:zenodo.org:258796</identifier>
      <datestamp>2017-01-24T04:55:26Z</datestamp>
      <setSpec>user-biosyslit</setSpec>
    </header>
    <header>
      <identifier>oai:zenodo.org:259157</identifier>
      <datestamp>2017-01-24T08:21:07Z</datestamp>
      <setSpec>user-biosyslit</setSpec>
    </header>
    <header>
      <identifier>oai:zenodo.org:259145</identifier>
      <datestamp>2017-01-24T08:10:33Z</datestamp>
      <setSpec>user-biosyslit</setSpec>
    </header>
    <header>
      <identifier>oai:zenodo.org:261023</identifier>
      <datestamp>2017-01-28T03:54:30Z</datestamp>
      <setSpec>user-biosyslit</setSpec>
    </header>
    <header>
      <identifier>oai:zenodo.org:279630</identifier>
      <datestamp>2017-02-09T01:48:08Z</datestamp>
      <setSpec>user-biosyslit</setSpec>
    </header>
    <header>
      <identifier>oai:zenodo.org:276280</identifier>
      <datestamp>2017-02-08T18:34:35Z</datestamp>
      <setSpec>user-biosyslit</setSpec>
    </header>
    <header>
      <identifier>oai:zenodo.org:261869</identifier>
      <datestamp>2017-01-28T16:17:38Z</datestamp>
      <setSpec>user-biosyslit</setSpec>
    </header>
    <header>
      <identifier>oai:zenodo.org:260736</identifier>
      <datestamp>2017-01-28T00:01:06Z</datestamp>
      <setSpec>user-biosyslit</setSpec>
    </header>
    <header>
      <identifier>oai:zenodo.org:260946</identifier>
      <datestamp>2017-01-28T03:03:08Z</datestamp>
      <setSpec>user-biosyslit</setSpec>
    </header>
    <header>
      <identifier>oai:zenodo.org:261484</identifier>
      <datestamp>2017-01-28T09:40:02Z</datestamp>
      <setSpec>user-biosyslit</setSpec>
    </header>
    <header>
      <identifier>oai:zenodo.org:261197</identifier>
      <datestamp>2017-01-28T06:29:25Z</datestamp>
      <setSpec>user-biosyslit</setSpec>
    </header>
    <header>
      <identifier>oai:zenodo.org:262291</identifier>
      <datestamp>2017-01-29T01:56:43Z</datestamp>
      <setSpec>user-biosyslit</setSpec>
    </header>
    <header>
      <identifier>oai:zenodo.org:280992</identifier>
      <datestamp>2017-02-09T04:32:56Z</datestamp>
      <setSpec>user-biosyslit</setSpec>
    </header>
    <header>
      <identifier>oai:zenodo.org:274261</identifier>
      <datestamp>2017-02-08T12:41:37Z</datestamp>
      <setSpec>user-biosyslit</setSpec>
    </header>
    <header>
      <identifier>oai:zenodo.org:260913</identifier>
      <datestamp>2017-01-28T02:27:54Z</datestamp>
      <setSpec>user-biosyslit</setSpec>
    </header>
    <header>
      <identifier>oai:zenodo.org:260725</identifier>
      <datestamp>2017-01-28T00:00:26Z</datestamp>
      <setSpec>user-biosyslit</setSpec>
    </header>
    <header>
      <identifier>oai:zenodo.org:261904</identifier>
      <datestamp>2017-01-28T17:20:34Z</datestamp>
      <setSpec>user-biosyslit</setSpec>
    </header>
    <header>
      <identifier>oai:zenodo.org:261302</identifier>
      <datestamp>2017-01-28T07:50:16Z</datestamp>
      <setSpec>user-biosyslit</setSpec>
    </header>
    <header>
      <identifier>oai:zenodo.org:262344</identifier>
      <datestamp>2017-01-29T01:59:57Z</datestamp>
      <setSpec>user-biosyslit</setSpec>
    </header>
    <header>
      <identifier>oai:zenodo.org:261356</identifier>
      <datestamp>2017-01-28T08:17:17Z</datestamp>
      <setSpec>user-biosyslit</setSpec>
    </header>
    <header>
      <identifier>oai:zenodo.org:262026</identifier>
      <datestamp>2017-01-28T19:34:24Z</datestamp>
      <setSpec>user-biosyslit</setSpec>
    </header>
    <header>
      <identifier>oai:zenodo.org:273645</identifier>
      <datestamp>2017-02-08T10:08:35Z</datestamp>
      <setSpec>user-biosyslit</setSpec>
    </header>
    <header>
      <identifier>oai:zenodo.org:261774</identifier>
      <datestamp>2017-01-28T14:22:09Z</datestamp>
      <setSpec>user-biosyslit</setSpec>
    </header>
    <header>
      <identifier>oai:zenodo.org:262213</identifier>
      <datestamp>2017-01-28T23:45:04Z</datestamp>
      <setSpec>user-biosyslit</setSpec>
    </header>
    <header>
      <identifier>oai:zenodo.org:273626</identifier>
      <datestamp>2017-02-08T10:05:05Z</datestamp>
      <setSpec>user-biosyslit</setSpec>
    </header>
    <header>
      <identifier>oai:zenodo.org:274316</identifier>
      <datestamp>2017-02-08T12:51:10Z</datestamp>
      <setSpec>user-biosyslit</setSpec>
    </header>
    <header>
      <identifier>oai:zenodo.org:274089</identifier>
      <datestamp>2017-02-08T12:07:28Z</datestamp>
      <setSpec>user-biosyslit</setSpec>
    </header>
    <header>
      <identifier>oai:zenodo.org:262269</identifier>
      <datestamp>2017-01-29T01:27:05Z</datestamp>
      <setSpec>user-biosyslit</setSpec>
    </header>
    <header>
      <identifier>oai:zenodo.org:276359</identifier>
      <datestamp>2017-02-08T18:42:09Z</datestamp>
      <setSpec>user-biosyslit</setSpec>
    </header>
    <header>
      <identifier>oai:zenodo.org:273866</identifier>
      <datestamp>2017-02-08T11:01:35Z</datestamp>
      <setSpec>user-biosyslit</setSpec>
    </header>
    <header>
      <identifier>oai:zenodo.org:273950</identifier>
      <datestamp>2017-02-08T11:31:42Z</datestamp>
      <setSpec>user-biosyslit</setSpec>
    </header>
    <header>
      <identifier>oai:zenodo.org:273948</identifier>
      <datestamp>2017-02-08T11:31:46Z</datestamp>
      <setSpec>user-biosyslit</setSpec>
    </header>
    <header>
      <identifier>oai:zenodo.org:275320</identifier>
      <datestamp>2017-02-08T16:05:37Z</datestamp>
      <setSpec>user-biosyslit</setSpec>
    </header>
    <header>
      <identifier>oai:zenodo.org:262504</identifier>
      <datestamp>2017-01-29T04:56:36Z</datestamp>
      <setSpec>user-biosyslit</setSpec>
    </header>
    <header>
      <identifier>oai:zenodo.org:263084</identifier>
      <datestamp>2017-01-29T16:39:09Z</datestamp>
      <setSpec>user-biosyslit</setSpec>
    </header>
    <header>
      <identifier>oai:zenodo.org:263207</identifier>
      <datestamp>2017-01-29T18:48:30Z</datestamp>
      <setSpec>user-biosyslit</setSpec>
    </header>
    <header>
      <identifier>oai:zenodo.org:262871</identifier>
      <datestamp>2017-01-29T10:42:09Z</datestamp>
      <setSpec>user-biosyslit</setSpec>
    </header>
    <header>
      <identifier>oai:zenodo.org:262977</identifier>
      <datestamp>2017-01-29T14:24:34Z</datestamp>
      <setSpec>user-biosyslit</setSpec>
    </header>
    <header>
      <identifier>oai:zenodo.org:263815</identifier>
      <datestamp>2017-01-30T08:30:36Z</datestamp>
      <setSpec>user-biosyslit</setSpec>
    </header>
    <header>
      <identifier>oai:zenodo.org:264373</identifier>
      <datestamp>2017-01-30T20:23:52Z</datestamp>
      <setSpec>user-biosyslit</setSpec>
    </header>
    <header>
      <identifier>oai:zenodo.org:263590</identifier>
      <datestamp>2017-01-30T01:08:25Z</datestamp>
      <setSpec>user-biosyslit</setSpec>
    </header>
    <header>
      <identifier>oai:zenodo.org:265177</identifier>
      <datestamp>2017-01-31T09:37:20Z</datestamp>
      <setSpec>user-biosyslit</setSpec>
    </header>
    <header>
      <identifier>oai:zenodo.org:263172</identifier>
      <datestamp>2017-01-29T17:57:18Z</datestamp>
      <setSpec>user-biosyslit</setSpec>
    </header>
    <header>
      <identifier>oai:zenodo.org:264169</identifier>
      <datestamp>2017-01-30T14:28:59Z</datestamp>
      <setSpec>user-biosyslit</setSpec>
    </header>
    <header>
      <identifier>oai:zenodo.org:264408</identifier>
      <datestamp>2017-01-30T21:06:46Z</datestamp>
      <setSpec>user-biosyslit</setSpec>
    </header>
    <header>
      <identifier>oai:zenodo.org:263197</identifier>
      <datestamp>2017-01-29T18:27:10Z</datestamp>
      <setSpec>user-biosyslit</setSpec>
    </header>
    <header>
      <identifier>oai:zenodo.org:264446</identifier>
      <datestamp>2017-01-30T21:42:03Z</datestamp>
      <setSpec>user-biosyslit</setSpec>
    </header>
    <header>
      <identifier>oai:zenodo.org:264265</identifier>
      <datestamp>2017-01-30T15:45:59Z</datestamp>
      <setSpec>user-biosyslit</setSpec>
    </header>
    <header>
      <identifier>oai:zenodo.org:263986</identifier>
      <datestamp>2017-01-30T11:17:43Z</datestamp>
      <setSpec>user-biosyslit</setSpec>
    </header>
    <header>
      <identifier>oai:zenodo.org:264404</identifier>
      <datestamp>2017-01-30T20:56:54Z</datestamp>
      <setSpec>user-biosyslit</setSpec>
    </header>
    <header>
      <identifier>oai:zenodo.org:264420</identifier>
      <datestamp>2017-01-30T21:17:43Z</datestamp>
      <setSpec>user-biosyslit</setSpec>
    </header>
    <header>
      <identifier>oai:zenodo.org:265550</identifier>
      <datestamp>2017-01-31T16:28:18Z</datestamp>
      <setSpec>user-biosyslit</setSpec>
    </header>
    <header>
      <identifier>oai:zenodo.org:264724</identifier>
      <datestamp>2017-01-31T01:29:37Z</datestamp>
      <setSpec>user-biosyslit</setSpec>
    </header>
    <header>
      <identifier>oai:zenodo.org:265117</identifier>
      <datestamp>2017-01-31T08:14:24Z</datestamp>
      <setSpec>user-biosyslit</setSpec>
    </header>
    <header>
      <identifier>oai:zenodo.org:265320</identifier>
      <datestamp>2017-01-31T12:15:38Z</datestamp>
      <setSpec>user-biosyslit</setSpec>
    </header>
    <header>
      <identifier>oai:zenodo.org:265086</identifier>
      <datestamp>2017-01-31T07:40:53Z</datestamp>
      <setSpec>user-biosyslit</setSpec>
    </header>
    <header>
      <identifier>oai:zenodo.org:265601</identifier>
      <datestamp>2017-01-31T17:31:05Z</datestamp>
      <setSpec>user-biosyslit</setSpec>
    </header>
    <header>
      <identifier>oai:zenodo.org:265452</identifier>
      <datestamp>2017-01-31T14:06:48Z</datestamp>
      <setSpec>user-biosyslit</setSpec>
    </header>
    <header>
      <identifier>oai:zenodo.org:266125</identifier>
      <datestamp>2017-02-01T00:55:58Z</datestamp>
      <setSpec>user-biosyslit</setSpec>
    </header>
    <header>
      <identifier>oai:zenodo.org:266367</identifier>
      <datestamp>2017-02-01T07:13:47Z</datestamp>
      <setSpec>user-biosyslit</setSpec>
    </header>
    <header>
      <identifier>oai:zenodo.org:265757</identifier>
      <datestamp>2017-01-31T19:55:25Z</datestamp>
      <setSpec>user-biosyslit</setSpec>
    </header>
    <header>
      <identifier>oai:zenodo.org:267641</identifier>
      <datestamp>2017-02-02T05:14:53Z</datestamp>
      <setSpec>user-biosyslit</setSpec>
    </header>
    <header>
      <identifier>oai:zenodo.org:267413</identifier>
      <datestamp>2017-02-02T01:42:41Z</datestamp>
      <setSpec>user-biosyslit</setSpec>
    </header>
    <header>
      <identifier>oai:zenodo.org:266876</identifier>
      <datestamp>2017-02-01T15:56:51Z</datestamp>
      <setSpec>user-biosyslit</setSpec>
    </header>
    <header>
      <identifier>oai:zenodo.org:266653</identifier>
      <datestamp>2017-02-01T13:01:38Z</datestamp>
      <setSpec>user-biosyslit</setSpec>
    </header>
    <header>
      <identifier>oai:zenodo.org:266665</identifier>
      <datestamp>2017-02-01T13:29:10Z</datestamp>
      <setSpec>user-biosyslit</setSpec>
    </header>
    <header>
      <identifier>oai:zenodo.org:267156</identifier>
      <datestamp>2017-02-01T20:15:20Z</datestamp>
      <setSpec>user-biosyslit</setSpec>
    </header>
    <header>
      <identifier>oai:zenodo.org:267677</identifier>
      <datestamp>2017-02-02T05:38:05Z</datestamp>
      <setSpec>user-biosyslit</setSpec>
    </header>
    <header>
      <identifier>oai:zenodo.org:266867</identifier>
      <datestamp>2017-02-01T15:56:21Z</datestamp>
      <setSpec>user-biosyslit</setSpec>
    </header>
    <header>
      <identifier>oai:zenodo.org:267610</identifier>
      <datestamp>2017-02-02T04:49:16Z</datestamp>
      <setSpec>user-biosyslit</setSpec>
    </header>
    <header>
      <identifier>oai:zenodo.org:267562</identifier>
      <datestamp>2017-02-02T03:46:20Z</datestamp>
      <setSpec>user-biosyslit</setSpec>
    </header>
    <header>
      <identifier>oai:zenodo.org:267173</identifier>
      <datestamp>2017-02-01T20:33:09Z</datestamp>
      <setSpec>user-biosyslit</setSpec>
    </header>
    <header>
      <identifier>oai:zenodo.org:267190</identifier>
      <datestamp>2017-02-01T21:55:21Z</datestamp>
      <setSpec>user-biosyslit</setSpec>
    </header>
    <header>
      <identifier>oai:zenodo.org:267499</identifier>
      <datestamp>2017-02-02T03:07:57Z</datestamp>
      <setSpec>user-biosyslit</setSpec>
    </header>
    <header>
      <identifier>oai:zenodo.org:268136</identifier>
      <datestamp>2017-02-03T02:54:59Z</datestamp>
      <setSpec>user-biosyslit</setSpec>
    </header>
    <header>
      <identifier>oai:zenodo.org:267686</identifier>
      <datestamp>2017-02-02T05:45:18Z</datestamp>
      <setSpec>user-biosyslit</setSpec>
    </header>
    <header>
      <identifier>oai:zenodo.org:275190</identifier>
      <datestamp>2017-02-08T15:36:08Z</datestamp>
      <setSpec>user-biosyslit</setSpec>
    </header>
    <header>
      <identifier>oai:zenodo.org:267919</identifier>
      <datestamp>2017-02-02T10:12:31Z</datestamp>
      <setSpec>user-biosyslit</setSpec>
    </header>
    <header>
      <identifier>oai:zenodo.org:269175</identifier>
      <datestamp>2017-02-06T22:54:54Z</datestamp>
      <setSpec>user-biosyslit</setSpec>
    </header>
    <header>
      <identifier>oai:zenodo.org:274563</identifier>
      <datestamp>2017-02-08T13:41:19Z</datestamp>
      <setSpec>user-biosyslit</setSpec>
    </header>
    <header>
      <identifier>oai:zenodo.org:269575</identifier>
      <datestamp>2017-02-07T01:01:36Z</datestamp>
      <setSpec>user-biosyslit</setSpec>
    </header>
    <header>
      <identifier>oai:zenodo.org:269250</identifier>
      <datestamp>2017-02-06T23:41:39Z</datestamp>
      <setSpec>user-biosyslit</setSpec>
    </header>
    <resumptionToken expirationDate="2017-08-31T15:43:15Z" cursor="3400" completeListSize="77796">.eJyNyj0LgkAYAOD_8s4S92FaQoto4pByXYq6hJ0i5mXhFelF_z2X5pqf5wWqritw0IIuMTbN1dqyqEkQIdQAJYarlMd2dhBZKkUvkzJIH_tLinLS2JGnxp2X00h3KL5gzbeMZHg1Ji2a2CG553o_pjR8cuTbO82m6BzOr6JxIItTcONJ70pOqiH22cSxywsqvg__-fTP56kNGHArmxocahnQPcuhUeC83u8Pd5pRMw.DIm_mw.Ny_ZHTZMSVAf9tIVPLakv9dXFFg</resumptionToken>
  </ListIdentifiers>
</OAI-PMH>
