<?xml version='1.0' encoding='UTF-8'?>
<?xml-stylesheet type="text/xsl" href="/static/xsl/oai2.v1.0.xsl"?>
<OAI-PMH xmlns="http://www.openarchives.org/OAI/2.0/" xmlns:xsi="http://www.w3.org/2001/XMLSchema-instance" xsi:schemaLocation="http://www.openarchives.org/OAI/2.0/ http://www.openarchives.org/OAI/2.0/OAI-PMH.xsd">
  <responseDate>2017-08-31T15:41:59Z</responseDate>
  <request verb="ListIdentifiers" resumptionToken=".eJyNyj0LgkAYAOD_8s4S92FdCi2hiYOKXUq2hJ0i5WniFepJ_72W5pqfZwZVlgXYaGESizJimevVklFmEQOU6O9Snq8fBnFMpWhlknvpc9-kKCMVCx01Bk5GQ12jqMGa72JyxOsxuaIpPiSPTO_HlPoDRy4LdDyFN__zChp58nTxOp60W8lJ0UduPHG85Scqvg__-fTP56gNGNDlVQk2XmID6iHvKwX2_Hq9AauYUUk.DIm_xw.1WsbztW8ZqiJJwbfgLEk5aBznGA">https://zenodo.org/oai2d</request>
  <ListIdentifiers>
    <header>
      <identifier>oai:zenodo.org:230173</identifier>
      <datestamp>2017-01-04T20:44:39Z</datestamp>
      <setSpec>user-biosyslit</setSpec>
    </header>
    <header>
      <identifier>oai:zenodo.org:230092</identifier>
      <datestamp>2017-01-04T19:11:47Z</datestamp>
      <setSpec>user-biosyslit</setSpec>
    </header>
    <header>
      <identifier>oai:zenodo.org:230539</identifier>
      <datestamp>2017-01-05T03:02:33Z</datestamp>
      <setSpec>user-biosyslit</setSpec>
    </header>
    <header>
      <identifier>oai:zenodo.org:229896</identifier>
      <datestamp>2017-01-06T11:06:00Z</datestamp>
      <setSpec>openaire</setSpec>
      <setSpec>user-biosyslit</setSpec>
    </header>
    <header>
      <identifier>oai:zenodo.org:230480</identifier>
      <datestamp>2017-01-05T01:54:14Z</datestamp>
      <setSpec>user-biosyslit</setSpec>
    </header>
    <header>
      <identifier>oai:zenodo.org:232001</identifier>
      <datestamp>2017-01-06T10:07:46Z</datestamp>
      <setSpec>user-biosyslit</setSpec>
    </header>
    <header>
      <identifier>oai:zenodo.org:230832</identifier>
      <datestamp>2017-01-05T08:58:17Z</datestamp>
      <setSpec>user-biosyslit</setSpec>
    </header>
    <header>
      <identifier>oai:zenodo.org:230538</identifier>
      <datestamp>2017-01-05T02:59:26Z</datestamp>
      <setSpec>user-biosyslit</setSpec>
    </header>
    <header>
      <identifier>oai:zenodo.org:231566</identifier>
      <datestamp>2017-01-06T04:11:53Z</datestamp>
      <setSpec>user-biosyslit</setSpec>
    </header>
    <header>
      <identifier>oai:zenodo.org:229918</identifier>
      <datestamp>2017-01-04T16:01:47Z</datestamp>
      <setSpec>user-biosyslit</setSpec>
    </header>
    <header>
      <identifier>oai:zenodo.org:269760</identifier>
      <datestamp>2017-02-07T20:17:32Z</datestamp>
      <setSpec>user-biosyslit</setSpec>
    </header>
    <header>
      <identifier>oai:zenodo.org:230353</identifier>
      <datestamp>2017-01-04T23:10:21Z</datestamp>
      <setSpec>user-biosyslit</setSpec>
    </header>
    <header>
      <identifier>oai:zenodo.org:269964</identifier>
      <datestamp>2017-02-07T21:54:22Z</datestamp>
      <setSpec>user-biosyslit</setSpec>
    </header>
    <header>
      <identifier>oai:zenodo.org:230782</identifier>
      <datestamp>2017-01-05T08:12:01Z</datestamp>
      <setSpec>user-biosyslit</setSpec>
    </header>
    <header>
      <identifier>oai:zenodo.org:230952</identifier>
      <datestamp>2017-01-05T11:40:56Z</datestamp>
      <setSpec>user-biosyslit</setSpec>
    </header>
    <header>
      <identifier>oai:zenodo.org:231013</identifier>
      <datestamp>2017-01-05T12:18:46Z</datestamp>
      <setSpec>user-biosyslit</setSpec>
    </header>
    <header>
      <identifier>oai:zenodo.org:288741</identifier>
      <datestamp>2017-02-09T21:50:07Z</datestamp>
      <setSpec>user-biosyslit</setSpec>
    </header>
    <header>
      <identifier>oai:zenodo.org:269902</identifier>
      <datestamp>2017-02-07T20:42:10Z</datestamp>
      <setSpec>user-biosyslit</setSpec>
    </header>
    <header>
      <identifier>oai:zenodo.org:269797</identifier>
      <datestamp>2017-02-07T20:19:23Z</datestamp>
      <setSpec>user-biosyslit</setSpec>
    </header>
    <header>
      <identifier>oai:zenodo.org:231458</identifier>
      <datestamp>2017-01-06T02:14:11Z</datestamp>
      <setSpec>user-biosyslit</setSpec>
    </header>
    <header>
      <identifier>oai:zenodo.org:231837</identifier>
      <datestamp>2017-01-06T07:48:42Z</datestamp>
      <setSpec>user-biosyslit</setSpec>
    </header>
    <header>
      <identifier>oai:zenodo.org:231281</identifier>
      <datestamp>2017-01-05T18:21:58Z</datestamp>
      <setSpec>user-biosyslit</setSpec>
    </header>
    <header>
      <identifier>oai:zenodo.org:233365</identifier>
      <datestamp>2017-01-08T04:02:13Z</datestamp>
      <setSpec>user-biosyslit</setSpec>
    </header>
    <header>
      <identifier>oai:zenodo.org:270149</identifier>
      <datestamp>2017-02-07T22:26:52Z</datestamp>
      <setSpec>user-biosyslit</setSpec>
    </header>
    <header>
      <identifier>oai:zenodo.org:231931</identifier>
      <datestamp>2017-01-06T08:50:15Z</datestamp>
      <setSpec>user-biosyslit</setSpec>
    </header>
    <header>
      <identifier>oai:zenodo.org:232212</identifier>
      <datestamp>2017-01-06T12:58:10Z</datestamp>
      <setSpec>user-biosyslit</setSpec>
    </header>
    <header>
      <identifier>oai:zenodo.org:288354</identifier>
      <datestamp>2017-02-09T20:42:15Z</datestamp>
      <setSpec>user-biosyslit</setSpec>
    </header>
    <header>
      <identifier>oai:zenodo.org:231876</identifier>
      <datestamp>2017-01-06T08:11:27Z</datestamp>
      <setSpec>user-biosyslit</setSpec>
    </header>
    <header>
      <identifier>oai:zenodo.org:272006</identifier>
      <datestamp>2017-02-08T03:19:10Z</datestamp>
      <setSpec>user-biosyslit</setSpec>
    </header>
    <header>
      <identifier>oai:zenodo.org:232896</identifier>
      <datestamp>2017-01-07T01:08:33Z</datestamp>
      <setSpec>user-biosyslit</setSpec>
    </header>
    <header>
      <identifier>oai:zenodo.org:232059</identifier>
      <datestamp>2017-01-06T10:47:59Z</datestamp>
      <setSpec>user-biosyslit</setSpec>
    </header>
    <header>
      <identifier>oai:zenodo.org:232474</identifier>
      <datestamp>2017-01-06T18:21:10Z</datestamp>
      <setSpec>user-biosyslit</setSpec>
    </header>
    <header>
      <identifier>oai:zenodo.org:232515</identifier>
      <datestamp>2017-01-06T18:56:05Z</datestamp>
      <setSpec>user-biosyslit</setSpec>
    </header>
    <header>
      <identifier>oai:zenodo.org:232366</identifier>
      <datestamp>2017-01-06T16:35:40Z</datestamp>
      <setSpec>user-biosyslit</setSpec>
    </header>
    <header>
      <identifier>oai:zenodo.org:271156</identifier>
      <datestamp>2017-02-08T00:55:40Z</datestamp>
      <setSpec>user-biosyslit</setSpec>
    </header>
    <header>
      <identifier>oai:zenodo.org:232688</identifier>
      <datestamp>2017-01-06T21:37:56Z</datestamp>
      <setSpec>user-biosyslit</setSpec>
    </header>
    <header>
      <identifier>oai:zenodo.org:233381</identifier>
      <datestamp>2017-01-08T04:03:17Z</datestamp>
      <setSpec>user-biosyslit</setSpec>
    </header>
    <header>
      <identifier>oai:zenodo.org:233211</identifier>
      <datestamp>2017-01-08T02:12:43Z</datestamp>
      <setSpec>user-biosyslit</setSpec>
    </header>
    <header>
      <identifier>oai:zenodo.org:233733</identifier>
      <datestamp>2017-01-08T11:08:49Z</datestamp>
      <setSpec>user-biosyslit</setSpec>
    </header>
    <header>
      <identifier>oai:zenodo.org:233366</identifier>
      <datestamp>2017-01-08T04:02:17Z</datestamp>
      <setSpec>user-biosyslit</setSpec>
    </header>
    <header>
      <identifier>oai:zenodo.org:232676</identifier>
      <datestamp>2017-01-06T21:31:26Z</datestamp>
      <setSpec>user-biosyslit</setSpec>
    </header>
    <header>
      <identifier>oai:zenodo.org:287857</identifier>
      <datestamp>2017-02-09T19:26:39Z</datestamp>
      <setSpec>user-biosyslit</setSpec>
    </header>
    <header>
      <identifier>oai:zenodo.org:286934</identifier>
      <datestamp>2017-02-09T17:05:47Z</datestamp>
      <setSpec>user-biosyslit</setSpec>
    </header>
    <header>
      <identifier>oai:zenodo.org:286771</identifier>
      <datestamp>2017-02-09T16:46:09Z</datestamp>
      <setSpec>user-biosyslit</setSpec>
    </header>
    <header>
      <identifier>oai:zenodo.org:495012</identifier>
      <datestamp>2017-04-05T07:10:20Z</datestamp>
      <setSpec>user-biosyslit</setSpec>
    </header>
    <header>
      <identifier>oai:zenodo.org:287271</identifier>
      <datestamp>2017-02-09T17:56:39Z</datestamp>
      <setSpec>user-biosyslit</setSpec>
    </header>
    <header>
      <identifier>oai:zenodo.org:287389</identifier>
      <datestamp>2017-02-09T18:12:17Z</datestamp>
      <setSpec>user-biosyslit</setSpec>
    </header>
    <header>
      <identifier>oai:zenodo.org:287049</identifier>
      <datestamp>2017-02-09T17:20:21Z</datestamp>
      <setSpec>user-biosyslit</setSpec>
    </header>
    <header>
      <identifier>oai:zenodo.org:288459</identifier>
      <datestamp>2017-02-09T21:01:33Z</datestamp>
      <setSpec>user-biosyslit</setSpec>
    </header>
    <header>
      <identifier>oai:zenodo.org:287658</identifier>
      <datestamp>2017-02-09T18:52:10Z</datestamp>
      <setSpec>user-biosyslit</setSpec>
    </header>
    <header>
      <identifier>oai:zenodo.org:495036</identifier>
      <datestamp>2017-04-05T07:23:47Z</datestamp>
      <setSpec>user-biosyslit</setSpec>
    </header>
    <header>
      <identifier>oai:zenodo.org:287249</identifier>
      <datestamp>2017-02-09T17:53:49Z</datestamp>
      <setSpec>user-biosyslit</setSpec>
    </header>
    <header>
      <identifier>oai:zenodo.org:287798</identifier>
      <datestamp>2017-02-09T19:20:55Z</datestamp>
      <setSpec>user-biosyslit</setSpec>
    </header>
    <header>
      <identifier>oai:zenodo.org:288001</identifier>
      <datestamp>2017-02-09T19:44:22Z</datestamp>
      <setSpec>user-biosyslit</setSpec>
    </header>
    <header>
      <identifier>oai:zenodo.org:287444</identifier>
      <datestamp>2017-02-09T18:19:59Z</datestamp>
      <setSpec>user-biosyslit</setSpec>
    </header>
    <header>
      <identifier>oai:zenodo.org:288537</identifier>
      <datestamp>2017-02-09T21:06:06Z</datestamp>
      <setSpec>user-biosyslit</setSpec>
    </header>
    <header>
      <identifier>oai:zenodo.org:287827</identifier>
      <datestamp>2017-02-09T19:23:54Z</datestamp>
      <setSpec>user-biosyslit</setSpec>
    </header>
    <header>
      <identifier>oai:zenodo.org:287486</identifier>
      <datestamp>2017-02-09T18:27:09Z</datestamp>
      <setSpec>user-biosyslit</setSpec>
    </header>
    <header>
      <identifier>oai:zenodo.org:287951</identifier>
      <datestamp>2017-02-09T19:40:14Z</datestamp>
      <setSpec>user-biosyslit</setSpec>
    </header>
    <header>
      <identifier>oai:zenodo.org:288010</identifier>
      <datestamp>2017-02-09T19:50:07Z</datestamp>
      <setSpec>user-biosyslit</setSpec>
    </header>
    <header>
      <identifier>oai:zenodo.org:287941</identifier>
      <datestamp>2017-02-09T19:38:53Z</datestamp>
      <setSpec>user-biosyslit</setSpec>
    </header>
    <header>
      <identifier>oai:zenodo.org:287812</identifier>
      <datestamp>2017-02-09T19:21:36Z</datestamp>
      <setSpec>user-biosyslit</setSpec>
    </header>
    <header>
      <identifier>oai:zenodo.org:495047</identifier>
      <datestamp>2017-04-05T07:24:19Z</datestamp>
      <setSpec>user-biosyslit</setSpec>
    </header>
    <header>
      <identifier>oai:zenodo.org:495019</identifier>
      <datestamp>2017-04-05T07:15:05Z</datestamp>
      <setSpec>user-biosyslit</setSpec>
    </header>
    <header>
      <identifier>oai:zenodo.org:287746</identifier>
      <datestamp>2017-02-09T19:10:37Z</datestamp>
      <setSpec>user-biosyslit</setSpec>
    </header>
    <header>
      <identifier>oai:zenodo.org:288194</identifier>
      <datestamp>2017-02-09T20:16:19Z</datestamp>
      <setSpec>user-biosyslit</setSpec>
    </header>
    <header>
      <identifier>oai:zenodo.org:288226</identifier>
      <datestamp>2017-02-09T20:20:59Z</datestamp>
      <setSpec>user-biosyslit</setSpec>
    </header>
    <header>
      <identifier>oai:zenodo.org:287835</identifier>
      <datestamp>2017-02-09T19:25:00Z</datestamp>
      <setSpec>user-biosyslit</setSpec>
    </header>
    <header>
      <identifier>oai:zenodo.org:288789</identifier>
      <datestamp>2017-02-09T21:52:58Z</datestamp>
      <setSpec>user-biosyslit</setSpec>
    </header>
    <header>
      <identifier>oai:zenodo.org:288735</identifier>
      <datestamp>2017-02-09T21:49:48Z</datestamp>
      <setSpec>user-biosyslit</setSpec>
    </header>
    <header>
      <identifier>oai:zenodo.org:227142</identifier>
      <datestamp>2017-01-01T17:27:54Z</datestamp>
      <setSpec>user-biosyslit</setSpec>
    </header>
    <header>
      <identifier>oai:zenodo.org:227530</identifier>
      <datestamp>2017-01-01T23:19:43Z</datestamp>
      <setSpec>user-biosyslit</setSpec>
    </header>
    <header>
      <identifier>oai:zenodo.org:227612</identifier>
      <datestamp>2017-01-02T00:54:04Z</datestamp>
      <setSpec>user-biosyslit</setSpec>
    </header>
    <header>
      <identifier>oai:zenodo.org:227438</identifier>
      <datestamp>2017-01-01T21:23:10Z</datestamp>
      <setSpec>user-biosyslit</setSpec>
    </header>
    <header>
      <identifier>oai:zenodo.org:227613</identifier>
      <datestamp>2017-01-02T00:54:09Z</datestamp>
      <setSpec>user-biosyslit</setSpec>
    </header>
    <header>
      <identifier>oai:zenodo.org:230175</identifier>
      <datestamp>2017-01-04T20:44:48Z</datestamp>
      <setSpec>user-biosyslit</setSpec>
    </header>
    <header>
      <identifier>oai:zenodo.org:228767</identifier>
      <datestamp>2017-01-03T04:37:54Z</datestamp>
      <setSpec>user-biosyslit</setSpec>
    </header>
    <header>
      <identifier>oai:zenodo.org:228398</identifier>
      <datestamp>2017-01-02T23:27:14Z</datestamp>
      <setSpec>user-biosyslit</setSpec>
    </header>
    <header>
      <identifier>oai:zenodo.org:495862</identifier>
      <datestamp>2017-04-10T07:55:52Z</datestamp>
      <setSpec>user-biosyslit</setSpec>
    </header>
    <header>
      <identifier>oai:zenodo.org:495325</identifier>
      <datestamp>2017-04-06T07:54:01Z</datestamp>
      <setSpec>user-biosyslit</setSpec>
    </header>
    <header>
      <identifier>oai:zenodo.org:230102</identifier>
      <datestamp>2017-01-04T19:22:44Z</datestamp>
      <setSpec>user-biosyslit</setSpec>
    </header>
    <header>
      <identifier>oai:zenodo.org:288720</identifier>
      <datestamp>2017-02-09T21:49:05Z</datestamp>
      <setSpec>user-biosyslit</setSpec>
    </header>
    <header>
      <identifier>oai:zenodo.org:228099</identifier>
      <datestamp>2017-01-02T10:19:01Z</datestamp>
      <setSpec>user-biosyslit</setSpec>
    </header>
    <header>
      <identifier>oai:zenodo.org:495848</identifier>
      <datestamp>2017-04-10T07:27:08Z</datestamp>
      <setSpec>user-biosyslit</setSpec>
    </header>
    <header>
      <identifier>oai:zenodo.org:289069</identifier>
      <datestamp>2017-02-09T22:33:50Z</datestamp>
      <setSpec>user-biosyslit</setSpec>
    </header>
    <header>
      <identifier>oai:zenodo.org:228823</identifier>
      <datestamp>2017-01-03T05:22:46Z</datestamp>
      <setSpec>user-biosyslit</setSpec>
    </header>
    <header>
      <identifier>oai:zenodo.org:227948</identifier>
      <datestamp>2017-01-02T07:30:26Z</datestamp>
      <setSpec>user-biosyslit</setSpec>
    </header>
    <header>
      <identifier>oai:zenodo.org:228802</identifier>
      <datestamp>2017-01-03T05:07:59Z</datestamp>
      <setSpec>user-biosyslit</setSpec>
    </header>
    <header>
      <identifier>oai:zenodo.org:227812</identifier>
      <datestamp>2017-01-02T05:27:47Z</datestamp>
      <setSpec>user-biosyslit</setSpec>
    </header>
    <header>
      <identifier>oai:zenodo.org:495834</identifier>
      <datestamp>2017-04-10T07:21:08Z</datestamp>
      <setSpec>user-biosyslit</setSpec>
    </header>
    <header>
      <identifier>oai:zenodo.org:229951</identifier>
      <datestamp>2017-01-04T16:13:42Z</datestamp>
      <setSpec>user-biosyslit</setSpec>
    </header>
    <header>
      <identifier>oai:zenodo.org:228126</identifier>
      <datestamp>2017-01-02T10:58:26Z</datestamp>
      <setSpec>user-biosyslit</setSpec>
    </header>
    <header>
      <identifier>oai:zenodo.org:227928</identifier>
      <datestamp>2017-01-02T06:52:07Z</datestamp>
      <setSpec>user-biosyslit</setSpec>
    </header>
    <header>
      <identifier>oai:zenodo.org:289448</identifier>
      <datestamp>2017-02-09T23:32:52Z</datestamp>
      <setSpec>user-biosyslit</setSpec>
    </header>
    <header>
      <identifier>oai:zenodo.org:227819</identifier>
      <datestamp>2017-01-02T05:31:14Z</datestamp>
      <setSpec>user-biosyslit</setSpec>
    </header>
    <header>
      <identifier>oai:zenodo.org:228785</identifier>
      <datestamp>2017-01-03T04:54:34Z</datestamp>
      <setSpec>user-biosyslit</setSpec>
    </header>
    <header>
      <identifier>oai:zenodo.org:229200</identifier>
      <datestamp>2017-01-03T12:20:22Z</datestamp>
      <setSpec>user-biosyslit</setSpec>
    </header>
    <header>
      <identifier>oai:zenodo.org:228089</identifier>
      <datestamp>2017-01-02T10:08:41Z</datestamp>
      <setSpec>user-biosyslit</setSpec>
    </header>
    <header>
      <identifier>oai:zenodo.org:228588</identifier>
      <datestamp>2017-01-03T02:04:05Z</datestamp>
      <setSpec>user-biosyslit</setSpec>
    </header>
    <header>
      <identifier>oai:zenodo.org:230315</identifier>
      <datestamp>2017-01-04T22:41:11Z</datestamp>
      <setSpec>user-biosyslit</setSpec>
    </header>
    <resumptionToken expirationDate="2017-08-31T15:43:59Z" cursor="15000" completeListSize="77796">.eJyNyj0LgkAYAOD_8s4S96F5CS2hiYOKXkq2hKmIdZp4hXrSf6-luebnWUBWVQkWWiHGECOM6Lqhk_VmTTWQxXAX4tx8HIpjKopOJLmbPuM2RRmpzcCWk29nNFA3FLZY8X1EjphNSYPm6JA8MhVPKfVGjhzTV9EcXL3PK2noitPF7XnS7QQn5RA60czxjp9o8X34z6d-PltuQYM-ryuwsEE0uI35UEuwltfrDdUrUXI.DIm_xw.2xu2-xKKU8bn6x_AQ5teHSdXvGM</resumptionToken>
  </ListIdentifiers>
</OAI-PMH>
