<?xml version='1.0' encoding='UTF-8'?>
<?xml-stylesheet type="text/xsl" href="/static/xsl/oai2.v1.0.xsl"?>
<OAI-PMH xmlns="http://www.openarchives.org/OAI/2.0/" xmlns:xsi="http://www.w3.org/2001/XMLSchema-instance" xsi:schemaLocation="http://www.openarchives.org/OAI/2.0/ http://www.openarchives.org/OAI/2.0/OAI-PMH.xsd">
  <responseDate>2017-08-31T15:43:39Z</responseDate>
  <request verb="ListIdentifiers" resumptionToken=".eJyNyj0LgkAYAOD_8s4S91F3JrSEJQ0qeinqEqYi1WniFepF_z2X5pqf5wWqqkqw0AIxzkzGOTKXmBFqrg1QRX-X8nSZHYoklkUro9yJn2ETo5TU3LPV6Nop9fQN-Q3WYh-QBJtjdEFTcIweqQ7HmB4GgXbc1cHkXQ_zK6nvyOzsdCJqt1KQsvd3wSTwVmS0-D7859M_n602YECX1xVYS7Qy4Dbkfa3Aer3fH92QUXw.DInAKw.w-xVi2XTZEOt3_MeM7G88alUvys">https://zenodo.org/oai2d</request>
  <ListIdentifiers>
    <header>
      <identifier>oai:zenodo.org:376407</identifier>
      <datestamp>2017-03-10T08:53:53Z</datestamp>
      <setSpec>user-biosyslit</setSpec>
    </header>
    <header>
      <identifier>oai:zenodo.org:375759</identifier>
      <datestamp>2017-03-08T08:34:58Z</datestamp>
      <setSpec>user-biosyslit</setSpec>
    </header>
    <header>
      <identifier>oai:zenodo.org:282039</identifier>
      <datestamp>2017-02-09T06:22:15Z</datestamp>
      <setSpec>user-biosyslit</setSpec>
    </header>
    <header>
      <identifier>oai:zenodo.org:376088</identifier>
      <datestamp>2017-03-09T09:50:45Z</datestamp>
      <setSpec>user-biosyslit</setSpec>
    </header>
    <header>
      <identifier>oai:zenodo.org:583184</identifier>
      <datestamp>2017-05-25T07:18:44Z</datestamp>
      <setSpec>user-biosyslit</setSpec>
    </header>
    <header>
      <identifier>oai:zenodo.org:376674</identifier>
      <datestamp>2017-03-11T00:03:37Z</datestamp>
      <setSpec>user-biosyslit</setSpec>
    </header>
    <header>
      <identifier>oai:zenodo.org:376739</identifier>
      <datestamp>2017-03-11T00:06:25Z</datestamp>
      <setSpec>user-biosyslit</setSpec>
    </header>
    <header>
      <identifier>oai:zenodo.org:376901</identifier>
      <datestamp>2017-03-13T08:16:18Z</datestamp>
      <setSpec>user-biosyslit</setSpec>
    </header>
    <header>
      <identifier>oai:zenodo.org:583348</identifier>
      <datestamp>2017-05-26T07:19:54Z</datestamp>
      <setSpec>user-biosyslit</setSpec>
    </header>
    <header>
      <identifier>oai:zenodo.org:282432</identifier>
      <datestamp>2017-02-09T06:59:42Z</datestamp>
      <setSpec>user-biosyslit</setSpec>
    </header>
    <header>
      <identifier>oai:zenodo.org:583361</identifier>
      <datestamp>2017-05-26T07:20:56Z</datestamp>
      <setSpec>user-biosyslit</setSpec>
    </header>
    <header>
      <identifier>oai:zenodo.org:282397</identifier>
      <datestamp>2017-02-09T06:56:04Z</datestamp>
      <setSpec>user-biosyslit</setSpec>
    </header>
    <header>
      <identifier>oai:zenodo.org:583861</identifier>
      <datestamp>2017-05-29T07:53:53Z</datestamp>
      <setSpec>user-biosyslit</setSpec>
    </header>
    <header>
      <identifier>oai:zenodo.org:282545</identifier>
      <datestamp>2017-02-09T07:12:11Z</datestamp>
      <setSpec>user-biosyslit</setSpec>
    </header>
    <header>
      <identifier>oai:zenodo.org:283009</identifier>
      <datestamp>2017-02-09T08:00:56Z</datestamp>
      <setSpec>user-biosyslit</setSpec>
    </header>
    <header>
      <identifier>oai:zenodo.org:283401</identifier>
      <datestamp>2017-02-09T08:50:21Z</datestamp>
      <setSpec>user-biosyslit</setSpec>
    </header>
    <header>
      <identifier>oai:zenodo.org:283588</identifier>
      <datestamp>2017-02-09T09:15:16Z</datestamp>
      <setSpec>user-biosyslit</setSpec>
    </header>
    <header>
      <identifier>oai:zenodo.org:282932</identifier>
      <datestamp>2017-02-09T07:51:37Z</datestamp>
      <setSpec>user-biosyslit</setSpec>
    </header>
    <header>
      <identifier>oai:zenodo.org:376044</identifier>
      <datestamp>2017-03-09T09:05:30Z</datestamp>
      <setSpec>user-biosyslit</setSpec>
    </header>
    <header>
      <identifier>oai:zenodo.org:582492</identifier>
      <datestamp>2017-05-23T08:53:48Z</datestamp>
      <setSpec>user-biosyslit</setSpec>
    </header>
    <header>
      <identifier>oai:zenodo.org:582499</identifier>
      <datestamp>2017-05-23T09:02:03Z</datestamp>
      <setSpec>user-biosyslit</setSpec>
    </header>
    <header>
      <identifier>oai:zenodo.org:375702</identifier>
      <datestamp>2017-03-08T01:27:28Z</datestamp>
      <setSpec>user-biosyslit</setSpec>
    </header>
    <header>
      <identifier>oai:zenodo.org:375746</identifier>
      <datestamp>2017-03-08T08:21:24Z</datestamp>
      <setSpec>user-biosyslit</setSpec>
    </header>
    <header>
      <identifier>oai:zenodo.org:376448</identifier>
      <datestamp>2017-03-10T09:27:47Z</datestamp>
      <setSpec>user-biosyslit</setSpec>
    </header>
    <header>
      <identifier>oai:zenodo.org:281874</identifier>
      <datestamp>2017-02-09T06:05:54Z</datestamp>
      <setSpec>user-biosyslit</setSpec>
    </header>
    <header>
      <identifier>oai:zenodo.org:375783</identifier>
      <datestamp>2017-03-08T08:34:33Z</datestamp>
      <setSpec>user-biosyslit</setSpec>
    </header>
    <header>
      <identifier>oai:zenodo.org:282221</identifier>
      <datestamp>2017-02-09T06:38:20Z</datestamp>
      <setSpec>user-biosyslit</setSpec>
    </header>
    <header>
      <identifier>oai:zenodo.org:376024</identifier>
      <datestamp>2017-03-09T08:51:19Z</datestamp>
      <setSpec>user-biosyslit</setSpec>
    </header>
    <header>
      <identifier>oai:zenodo.org:282249</identifier>
      <datestamp>2017-02-09T06:42:42Z</datestamp>
      <setSpec>user-biosyslit</setSpec>
    </header>
    <header>
      <identifier>oai:zenodo.org:376204</identifier>
      <datestamp>2017-03-09T14:31:26Z</datestamp>
      <setSpec>user-biosyslit</setSpec>
    </header>
    <header>
      <identifier>oai:zenodo.org:282500</identifier>
      <datestamp>2017-02-09T07:08:23Z</datestamp>
      <setSpec>user-biosyslit</setSpec>
    </header>
    <header>
      <identifier>oai:zenodo.org:376697</identifier>
      <datestamp>2017-03-11T00:04:33Z</datestamp>
      <setSpec>user-biosyslit</setSpec>
    </header>
    <header>
      <identifier>oai:zenodo.org:376908</identifier>
      <datestamp>2017-03-13T08:24:29Z</datestamp>
      <setSpec>user-biosyslit</setSpec>
    </header>
    <header>
      <identifier>oai:zenodo.org:281997</identifier>
      <datestamp>2017-02-09T06:17:31Z</datestamp>
      <setSpec>user-biosyslit</setSpec>
    </header>
    <header>
      <identifier>oai:zenodo.org:282151</identifier>
      <datestamp>2017-02-09T06:31:43Z</datestamp>
      <setSpec>user-biosyslit</setSpec>
    </header>
    <header>
      <identifier>oai:zenodo.org:581321</identifier>
      <datestamp>2017-05-19T09:51:20Z</datestamp>
      <setSpec>user-biosyslit</setSpec>
    </header>
    <header>
      <identifier>oai:zenodo.org:283081</identifier>
      <datestamp>2017-02-09T08:07:30Z</datestamp>
      <setSpec>user-biosyslit</setSpec>
    </header>
    <header>
      <identifier>oai:zenodo.org:581991</identifier>
      <datestamp>2017-05-22T07:20:04Z</datestamp>
      <setSpec>user-biosyslit</setSpec>
    </header>
    <header>
      <identifier>oai:zenodo.org:582233</identifier>
      <datestamp>2017-05-23T13:26:50Z</datestamp>
      <setSpec>openaire</setSpec>
      <setSpec>user-biosyslit</setSpec>
    </header>
    <header>
      <identifier>oai:zenodo.org:582021</identifier>
      <datestamp>2017-05-22T07:59:06Z</datestamp>
      <setSpec>user-biosyslit</setSpec>
    </header>
    <header>
      <identifier>oai:zenodo.org:260699</identifier>
      <datestamp>2017-01-27T23:34:11Z</datestamp>
      <setSpec>user-biosyslit</setSpec>
    </header>
    <header>
      <identifier>oai:zenodo.org:261257</identifier>
      <datestamp>2017-01-28T07:21:08Z</datestamp>
      <setSpec>user-biosyslit</setSpec>
    </header>
    <header>
      <identifier>oai:zenodo.org:259896</identifier>
      <datestamp>2017-01-25T17:11:49Z</datestamp>
      <setSpec>user-biosyslit</setSpec>
    </header>
    <header>
      <identifier>oai:zenodo.org:273470</identifier>
      <datestamp>2017-02-08T09:25:26Z</datestamp>
      <setSpec>user-biosyslit</setSpec>
    </header>
    <header>
      <identifier>oai:zenodo.org:279741</identifier>
      <datestamp>2017-02-09T01:58:33Z</datestamp>
      <setSpec>user-biosyslit</setSpec>
    </header>
    <header>
      <identifier>oai:zenodo.org:261108</identifier>
      <datestamp>2017-01-28T05:13:35Z</datestamp>
      <setSpec>user-biosyslit</setSpec>
    </header>
    <header>
      <identifier>oai:zenodo.org:261098</identifier>
      <datestamp>2017-01-28T04:53:51Z</datestamp>
      <setSpec>user-biosyslit</setSpec>
    </header>
    <header>
      <identifier>oai:zenodo.org:261635</identifier>
      <datestamp>2017-01-28T12:13:29Z</datestamp>
      <setSpec>user-biosyslit</setSpec>
    </header>
    <header>
      <identifier>oai:zenodo.org:260639</identifier>
      <datestamp>2017-01-27T22:54:16Z</datestamp>
      <setSpec>user-biosyslit</setSpec>
    </header>
    <header>
      <identifier>oai:zenodo.org:273593</identifier>
      <datestamp>2017-02-08T10:01:48Z</datestamp>
      <setSpec>user-biosyslit</setSpec>
    </header>
    <header>
      <identifier>oai:zenodo.org:261444</identifier>
      <datestamp>2017-01-28T08:46:17Z</datestamp>
      <setSpec>user-biosyslit</setSpec>
    </header>
    <header>
      <identifier>oai:zenodo.org:261717</identifier>
      <datestamp>2017-01-28T13:33:50Z</datestamp>
      <setSpec>user-biosyslit</setSpec>
    </header>
    <header>
      <identifier>oai:zenodo.org:261900</identifier>
      <datestamp>2017-01-28T17:21:09Z</datestamp>
      <setSpec>user-biosyslit</setSpec>
    </header>
    <header>
      <identifier>oai:zenodo.org:261319</identifier>
      <datestamp>2017-01-28T07:51:13Z</datestamp>
      <setSpec>user-biosyslit</setSpec>
    </header>
    <header>
      <identifier>oai:zenodo.org:261346</identifier>
      <datestamp>2017-01-28T08:11:46Z</datestamp>
      <setSpec>user-biosyslit</setSpec>
    </header>
    <header>
      <identifier>oai:zenodo.org:261289</identifier>
      <datestamp>2017-01-28T07:37:12Z</datestamp>
      <setSpec>user-biosyslit</setSpec>
    </header>
    <header>
      <identifier>oai:zenodo.org:273749</identifier>
      <datestamp>2017-02-08T10:39:22Z</datestamp>
      <setSpec>user-biosyslit</setSpec>
    </header>
    <header>
      <identifier>oai:zenodo.org:261881</identifier>
      <datestamp>2017-01-28T16:27:37Z</datestamp>
      <setSpec>user-biosyslit</setSpec>
    </header>
    <header>
      <identifier>oai:zenodo.org:262105</identifier>
      <datestamp>2017-01-28T20:47:11Z</datestamp>
      <setSpec>user-biosyslit</setSpec>
    </header>
    <header>
      <identifier>oai:zenodo.org:261928</identifier>
      <datestamp>2017-01-28T18:04:02Z</datestamp>
      <setSpec>user-biosyslit</setSpec>
    </header>
    <header>
      <identifier>oai:zenodo.org:261977</identifier>
      <datestamp>2017-01-28T18:40:39Z</datestamp>
      <setSpec>user-biosyslit</setSpec>
    </header>
    <header>
      <identifier>oai:zenodo.org:261661</identifier>
      <datestamp>2017-01-28T12:14:54Z</datestamp>
      <setSpec>user-biosyslit</setSpec>
    </header>
    <header>
      <identifier>oai:zenodo.org:262491</identifier>
      <datestamp>2017-01-29T04:46:18Z</datestamp>
      <setSpec>user-biosyslit</setSpec>
    </header>
    <header>
      <identifier>oai:zenodo.org:274820</identifier>
      <datestamp>2017-02-08T14:30:22Z</datestamp>
      <setSpec>user-biosyslit</setSpec>
    </header>
    <header>
      <identifier>oai:zenodo.org:273642</identifier>
      <datestamp>2017-02-08T10:07:40Z</datestamp>
      <setSpec>user-biosyslit</setSpec>
    </header>
    <header>
      <identifier>oai:zenodo.org:274019</identifier>
      <datestamp>2017-02-08T11:49:52Z</datestamp>
      <setSpec>user-biosyslit</setSpec>
    </header>
    <header>
      <identifier>oai:zenodo.org:262254</identifier>
      <datestamp>2017-01-29T00:29:53Z</datestamp>
      <setSpec>user-biosyslit</setSpec>
    </header>
    <header>
      <identifier>oai:zenodo.org:274022</identifier>
      <datestamp>2017-02-08T11:49:59Z</datestamp>
      <setSpec>user-biosyslit</setSpec>
    </header>
    <header>
      <identifier>oai:zenodo.org:262586</identifier>
      <datestamp>2017-01-29T06:01:42Z</datestamp>
      <setSpec>user-biosyslit</setSpec>
    </header>
    <header>
      <identifier>oai:zenodo.org:262569</identifier>
      <datestamp>2017-01-29T05:43:11Z</datestamp>
      <setSpec>user-biosyslit</setSpec>
    </header>
    <header>
      <identifier>oai:zenodo.org:262835</identifier>
      <datestamp>2017-01-29T09:56:26Z</datestamp>
      <setSpec>user-biosyslit</setSpec>
    </header>
    <header>
      <identifier>oai:zenodo.org:263282</identifier>
      <datestamp>2017-01-29T20:29:58Z</datestamp>
      <setSpec>user-biosyslit</setSpec>
    </header>
    <header>
      <identifier>oai:zenodo.org:263291</identifier>
      <datestamp>2017-01-29T20:43:42Z</datestamp>
      <setSpec>user-biosyslit</setSpec>
    </header>
    <header>
      <identifier>oai:zenodo.org:264200</identifier>
      <datestamp>2017-01-30T14:45:37Z</datestamp>
      <setSpec>user-biosyslit</setSpec>
    </header>
    <header>
      <identifier>oai:zenodo.org:263713</identifier>
      <datestamp>2017-01-30T07:02:49Z</datestamp>
      <setSpec>user-biosyslit</setSpec>
    </header>
    <header>
      <identifier>oai:zenodo.org:264912</identifier>
      <datestamp>2017-01-31T04:36:02Z</datestamp>
      <setSpec>user-biosyslit</setSpec>
    </header>
    <header>
      <identifier>oai:zenodo.org:263814</identifier>
      <datestamp>2017-01-30T08:30:34Z</datestamp>
      <setSpec>user-biosyslit</setSpec>
    </header>
    <header>
      <identifier>oai:zenodo.org:263577</identifier>
      <datestamp>2017-01-30T00:50:55Z</datestamp>
      <setSpec>user-biosyslit</setSpec>
    </header>
    <header>
      <identifier>oai:zenodo.org:265218</identifier>
      <datestamp>2017-01-31T10:05:56Z</datestamp>
      <setSpec>user-biosyslit</setSpec>
    </header>
    <header>
      <identifier>oai:zenodo.org:264359</identifier>
      <datestamp>2017-01-30T19:45:57Z</datestamp>
      <setSpec>user-biosyslit</setSpec>
    </header>
    <header>
      <identifier>oai:zenodo.org:263464</identifier>
      <datestamp>2017-01-29T22:34:45Z</datestamp>
      <setSpec>user-biosyslit</setSpec>
    </header>
    <header>
      <identifier>oai:zenodo.org:263658</identifier>
      <datestamp>2017-01-30T02:28:38Z</datestamp>
      <setSpec>user-biosyslit</setSpec>
    </header>
    <header>
      <identifier>oai:zenodo.org:264800</identifier>
      <datestamp>2017-01-31T02:47:05Z</datestamp>
      <setSpec>user-biosyslit</setSpec>
    </header>
    <header>
      <identifier>oai:zenodo.org:279398</identifier>
      <datestamp>2017-02-09T01:14:53Z</datestamp>
      <setSpec>user-biosyslit</setSpec>
    </header>
    <header>
      <identifier>oai:zenodo.org:263712</identifier>
      <datestamp>2017-01-30T07:02:46Z</datestamp>
      <setSpec>user-biosyslit</setSpec>
    </header>
    <header>
      <identifier>oai:zenodo.org:263633</identifier>
      <datestamp>2017-01-30T01:51:14Z</datestamp>
      <setSpec>user-biosyslit</setSpec>
    </header>
    <header>
      <identifier>oai:zenodo.org:264371</identifier>
      <datestamp>2017-01-30T20:23:46Z</datestamp>
      <setSpec>user-biosyslit</setSpec>
    </header>
    <header>
      <identifier>oai:zenodo.org:265668</identifier>
      <datestamp>2017-01-31T18:41:18Z</datestamp>
      <setSpec>user-biosyslit</setSpec>
    </header>
    <header>
      <identifier>oai:zenodo.org:265732</identifier>
      <datestamp>2017-01-31T19:54:15Z</datestamp>
      <setSpec>user-biosyslit</setSpec>
    </header>
    <header>
      <identifier>oai:zenodo.org:264289</identifier>
      <datestamp>2017-01-30T18:19:08Z</datestamp>
      <setSpec>user-biosyslit</setSpec>
    </header>
    <header>
      <identifier>oai:zenodo.org:265111</identifier>
      <datestamp>2017-01-31T07:56:02Z</datestamp>
      <setSpec>user-biosyslit</setSpec>
    </header>
    <header>
      <identifier>oai:zenodo.org:265392</identifier>
      <datestamp>2017-01-31T13:14:26Z</datestamp>
      <setSpec>user-biosyslit</setSpec>
    </header>
    <header>
      <identifier>oai:zenodo.org:265129</identifier>
      <datestamp>2017-01-31T08:33:23Z</datestamp>
      <setSpec>user-biosyslit</setSpec>
    </header>
    <header>
      <identifier>oai:zenodo.org:264817</identifier>
      <datestamp>2017-01-31T03:02:29Z</datestamp>
      <setSpec>user-biosyslit</setSpec>
    </header>
    <header>
      <identifier>oai:zenodo.org:265623</identifier>
      <datestamp>2017-01-31T17:52:21Z</datestamp>
      <setSpec>user-biosyslit</setSpec>
    </header>
    <header>
      <identifier>oai:zenodo.org:266652</identifier>
      <datestamp>2017-02-01T13:01:35Z</datestamp>
      <setSpec>user-biosyslit</setSpec>
    </header>
    <header>
      <identifier>oai:zenodo.org:266225</identifier>
      <datestamp>2017-02-01T03:03:19Z</datestamp>
      <setSpec>user-biosyslit</setSpec>
    </header>
    <header>
      <identifier>oai:zenodo.org:266147</identifier>
      <datestamp>2017-02-01T01:17:22Z</datestamp>
      <setSpec>user-biosyslit</setSpec>
    </header>
    <header>
      <identifier>oai:zenodo.org:266569</identifier>
      <datestamp>2017-02-01T12:03:50Z</datestamp>
      <setSpec>user-biosyslit</setSpec>
    </header>
    <header>
      <identifier>oai:zenodo.org:267466</identifier>
      <datestamp>2017-02-02T02:42:57Z</datestamp>
      <setSpec>user-biosyslit</setSpec>
    </header>
    <resumptionToken expirationDate="2017-08-31T15:45:39Z" cursor="40400" completeListSize="77796">.eJyNyrsOgjAUANB_uTMxtxQBSVwIShiEYIUIi8FCCFofoRqghH-XxVnnc0aQVVWCgwvTttBc2WiQ5ZJQtDSQvH0IcWpmBn5MBb-LpPDT9_6WYqbXVujJfudlNFRXjG5EsW2sH4ndJw0O8SF5ZWrfpzToGG6snYqH8BLMr6SRL_Kz_2TJ3RVML9toEw-MuCyn_PvIn0_9fJ5cgwbPoq7AMdDU4NoVbS3BGafpA5yMUTs.DInAKw.4leYvDWlGRgw1AplRHRsjD25bJE</resumptionToken>
  </ListIdentifiers>
</OAI-PMH>
