<?xml version='1.0' encoding='UTF-8'?>
<?xml-stylesheet type="text/xsl" href="/static/xsl/oai2.v1.0.xsl"?>
<OAI-PMH xmlns="http://www.openarchives.org/OAI/2.0/" xmlns:xsi="http://www.w3.org/2001/XMLSchema-instance" xsi:schemaLocation="http://www.openarchives.org/OAI/2.0/ http://www.openarchives.org/OAI/2.0/OAI-PMH.xsd">
  <responseDate>2017-08-31T15:41:25Z</responseDate>
  <request verb="ListIdentifiers" resumptionToken=".eJyNyj0LgkAYAOD_8s4S92GaQotY4pByXR7pEqYi5WXiFemF_z2X5pqf5w2qqkpw0YJSB5uWQ1aObS6JhU0DVNHfpTxdZofiKGTRyiQPxHN_EygltR35atj5KY10g-Ib1nzLyBGvhuSCRnZIHqneD4KGL4429k6zMbqG8ytpHMjsHHQ8aT3JSdnHGzZy7PGMFt-H_3z65_PVGgzo8roC1yIGNK-8rxW472n6AInUUUY.DIm_pQ.OVZ1gAfm2er2mHLgCNWUVTKyIqQ">https://zenodo.org/oai2d</request>
  <ListIdentifiers>
    <header>
      <identifier>oai:zenodo.org:266577</identifier>
      <datestamp>2017-02-01T12:04:15Z</datestamp>
      <setSpec>user-biosyslit</setSpec>
    </header>
    <header>
      <identifier>oai:zenodo.org:274216</identifier>
      <datestamp>2017-02-08T12:28:29Z</datestamp>
      <setSpec>user-biosyslit</setSpec>
    </header>
    <header>
      <identifier>oai:zenodo.org:267287</identifier>
      <datestamp>2017-02-01T23:50:37Z</datestamp>
      <setSpec>user-biosyslit</setSpec>
    </header>
    <header>
      <identifier>oai:zenodo.org:265820</identifier>
      <datestamp>2017-01-31T21:48:17Z</datestamp>
      <setSpec>user-biosyslit</setSpec>
    </header>
    <header>
      <identifier>oai:zenodo.org:266306</identifier>
      <datestamp>2017-02-01T05:53:36Z</datestamp>
      <setSpec>user-biosyslit</setSpec>
    </header>
    <header>
      <identifier>oai:zenodo.org:265835</identifier>
      <datestamp>2017-01-31T21:49:02Z</datestamp>
      <setSpec>user-biosyslit</setSpec>
    </header>
    <header>
      <identifier>oai:zenodo.org:265888</identifier>
      <datestamp>2017-01-31T23:02:50Z</datestamp>
      <setSpec>user-biosyslit</setSpec>
    </header>
    <header>
      <identifier>oai:zenodo.org:265914</identifier>
      <datestamp>2017-01-31T23:15:52Z</datestamp>
      <setSpec>user-biosyslit</setSpec>
    </header>
    <header>
      <identifier>oai:zenodo.org:265924</identifier>
      <datestamp>2017-01-31T23:16:27Z</datestamp>
      <setSpec>user-biosyslit</setSpec>
    </header>
    <header>
      <identifier>oai:zenodo.org:266530</identifier>
      <datestamp>2017-02-01T11:43:43Z</datestamp>
      <setSpec>user-biosyslit</setSpec>
    </header>
    <header>
      <identifier>oai:zenodo.org:266162</identifier>
      <datestamp>2017-02-01T01:32:18Z</datestamp>
      <setSpec>user-biosyslit</setSpec>
    </header>
    <header>
      <identifier>oai:zenodo.org:267233</identifier>
      <datestamp>2017-02-01T23:15:09Z</datestamp>
      <setSpec>user-biosyslit</setSpec>
    </header>
    <header>
      <identifier>oai:zenodo.org:274350</identifier>
      <datestamp>2017-02-08T13:00:21Z</datestamp>
      <setSpec>user-biosyslit</setSpec>
    </header>
    <header>
      <identifier>oai:zenodo.org:266550</identifier>
      <datestamp>2017-02-01T12:02:33Z</datestamp>
      <setSpec>user-biosyslit</setSpec>
    </header>
    <header>
      <identifier>oai:zenodo.org:266357</identifier>
      <datestamp>2017-02-01T06:49:23Z</datestamp>
      <setSpec>user-biosyslit</setSpec>
    </header>
    <header>
      <identifier>oai:zenodo.org:266548</identifier>
      <datestamp>2017-02-01T12:02:28Z</datestamp>
      <setSpec>user-biosyslit</setSpec>
    </header>
    <header>
      <identifier>oai:zenodo.org:266422</identifier>
      <datestamp>2017-02-01T08:32:58Z</datestamp>
      <setSpec>user-biosyslit</setSpec>
    </header>
    <header>
      <identifier>oai:zenodo.org:266593</identifier>
      <datestamp>2017-02-01T12:19:27Z</datestamp>
      <setSpec>user-biosyslit</setSpec>
    </header>
    <header>
      <identifier>oai:zenodo.org:267599</identifier>
      <datestamp>2017-02-02T04:48:38Z</datestamp>
      <setSpec>user-biosyslit</setSpec>
    </header>
    <header>
      <identifier>oai:zenodo.org:267196</identifier>
      <datestamp>2017-02-01T22:27:45Z</datestamp>
      <setSpec>user-biosyslit</setSpec>
    </header>
    <header>
      <identifier>oai:zenodo.org:267409</identifier>
      <datestamp>2017-02-02T01:42:28Z</datestamp>
      <setSpec>user-biosyslit</setSpec>
    </header>
    <header>
      <identifier>oai:zenodo.org:266843</identifier>
      <datestamp>2017-02-01T15:55:17Z</datestamp>
      <setSpec>user-biosyslit</setSpec>
    </header>
    <header>
      <identifier>oai:zenodo.org:267188</identifier>
      <datestamp>2017-02-01T21:55:14Z</datestamp>
      <setSpec>user-biosyslit</setSpec>
    </header>
    <header>
      <identifier>oai:zenodo.org:267416</identifier>
      <datestamp>2017-02-02T01:42:49Z</datestamp>
      <setSpec>user-biosyslit</setSpec>
    </header>
    <header>
      <identifier>oai:zenodo.org:267207</identifier>
      <datestamp>2017-02-01T22:28:14Z</datestamp>
      <setSpec>user-biosyslit</setSpec>
    </header>
    <header>
      <identifier>oai:zenodo.org:267230</identifier>
      <datestamp>2017-02-01T23:15:00Z</datestamp>
      <setSpec>user-biosyslit</setSpec>
    </header>
    <header>
      <identifier>oai:zenodo.org:267008</identifier>
      <datestamp>2017-02-01T18:10:23Z</datestamp>
      <setSpec>user-biosyslit</setSpec>
    </header>
    <header>
      <identifier>oai:zenodo.org:266949</identifier>
      <datestamp>2017-02-01T17:22:24Z</datestamp>
      <setSpec>user-biosyslit</setSpec>
    </header>
    <header>
      <identifier>oai:zenodo.org:267222</identifier>
      <datestamp>2017-02-01T23:00:11Z</datestamp>
      <setSpec>user-biosyslit</setSpec>
    </header>
    <header>
      <identifier>oai:zenodo.org:267498</identifier>
      <datestamp>2017-02-02T03:07:54Z</datestamp>
      <setSpec>user-biosyslit</setSpec>
    </header>
    <header>
      <identifier>oai:zenodo.org:267740</identifier>
      <datestamp>2017-02-02T06:35:33Z</datestamp>
      <setSpec>user-biosyslit</setSpec>
    </header>
    <header>
      <identifier>oai:zenodo.org:267735</identifier>
      <datestamp>2017-02-02T06:31:01Z</datestamp>
      <setSpec>user-biosyslit</setSpec>
    </header>
    <header>
      <identifier>oai:zenodo.org:267589</identifier>
      <datestamp>2017-02-02T04:30:13Z</datestamp>
      <setSpec>user-biosyslit</setSpec>
    </header>
    <header>
      <identifier>oai:zenodo.org:274590</identifier>
      <datestamp>2017-02-08T13:45:17Z</datestamp>
      <setSpec>user-biosyslit</setSpec>
    </header>
    <header>
      <identifier>oai:zenodo.org:267859</identifier>
      <datestamp>2017-02-02T08:24:17Z</datestamp>
      <setSpec>user-biosyslit</setSpec>
    </header>
    <header>
      <identifier>oai:zenodo.org:275605</identifier>
      <datestamp>2017-02-08T16:47:21Z</datestamp>
      <setSpec>user-biosyslit</setSpec>
    </header>
    <header>
      <identifier>oai:zenodo.org:267716</identifier>
      <datestamp>2017-02-02T06:16:14Z</datestamp>
      <setSpec>user-biosyslit</setSpec>
    </header>
    <header>
      <identifier>oai:zenodo.org:227244</identifier>
      <datestamp>2017-01-01T18:41:29Z</datestamp>
      <setSpec>user-biosyslit</setSpec>
    </header>
    <header>
      <identifier>oai:zenodo.org:227151</identifier>
      <datestamp>2017-01-01T17:32:26Z</datestamp>
      <setSpec>user-biosyslit</setSpec>
    </header>
    <header>
      <identifier>oai:zenodo.org:227631</identifier>
      <datestamp>2017-01-02T01:06:44Z</datestamp>
      <setSpec>user-biosyslit</setSpec>
    </header>
    <header>
      <identifier>oai:zenodo.org:227059</identifier>
      <datestamp>2017-01-01T09:00:15Z</datestamp>
      <setSpec>user-biosyslit</setSpec>
    </header>
    <header>
      <identifier>oai:zenodo.org:269620</identifier>
      <datestamp>2017-03-08T12:01:05Z</datestamp>
      <setSpec>openaire</setSpec>
      <setSpec>user-biosyslit</setSpec>
    </header>
    <header>
      <identifier>oai:zenodo.org:227689</identifier>
      <datestamp>2017-01-02T02:17:09Z</datestamp>
      <setSpec>user-biosyslit</setSpec>
    </header>
    <header>
      <identifier>oai:zenodo.org:227718</identifier>
      <datestamp>2017-01-02T02:37:39Z</datestamp>
      <setSpec>user-biosyslit</setSpec>
    </header>
    <header>
      <identifier>oai:zenodo.org:229357</identifier>
      <datestamp>2017-01-03T14:55:38Z</datestamp>
      <setSpec>user-biosyslit</setSpec>
    </header>
    <header>
      <identifier>oai:zenodo.org:274671</identifier>
      <datestamp>2017-02-08T13:57:44Z</datestamp>
      <setSpec>user-biosyslit</setSpec>
    </header>
    <header>
      <identifier>oai:zenodo.org:229658</identifier>
      <datestamp>2017-01-03T20:05:39Z</datestamp>
      <setSpec>user-biosyslit</setSpec>
    </header>
    <header>
      <identifier>oai:zenodo.org:229380</identifier>
      <datestamp>2017-01-03T15:08:04Z</datestamp>
      <setSpec>user-biosyslit</setSpec>
    </header>
    <header>
      <identifier>oai:zenodo.org:268348</identifier>
      <datestamp>2017-02-03T12:05:56Z</datestamp>
      <setSpec>user-biosyslit</setSpec>
    </header>
    <header>
      <identifier>oai:zenodo.org:229216</identifier>
      <datestamp>2017-01-03T12:34:42Z</datestamp>
      <setSpec>user-biosyslit</setSpec>
    </header>
    <header>
      <identifier>oai:zenodo.org:228770</identifier>
      <datestamp>2017-01-03T04:38:01Z</datestamp>
      <setSpec>user-biosyslit</setSpec>
    </header>
    <header>
      <identifier>oai:zenodo.org:268102</identifier>
      <datestamp>2017-02-03T01:33:20Z</datestamp>
      <setSpec>user-biosyslit</setSpec>
    </header>
    <header>
      <identifier>oai:zenodo.org:269373</identifier>
      <datestamp>2017-02-06T23:59:11Z</datestamp>
      <setSpec>user-biosyslit</setSpec>
    </header>
    <header>
      <identifier>oai:zenodo.org:268215</identifier>
      <datestamp>2017-02-03T04:15:24Z</datestamp>
      <setSpec>user-biosyslit</setSpec>
    </header>
    <header>
      <identifier>oai:zenodo.org:228475</identifier>
      <datestamp>2017-01-03T00:22:05Z</datestamp>
      <setSpec>user-biosyslit</setSpec>
    </header>
    <header>
      <identifier>oai:zenodo.org:268247</identifier>
      <datestamp>2017-02-03T04:35:34Z</datestamp>
      <setSpec>user-biosyslit</setSpec>
    </header>
    <header>
      <identifier>oai:zenodo.org:229500</identifier>
      <datestamp>2017-01-03T17:12:00Z</datestamp>
      <setSpec>user-biosyslit</setSpec>
    </header>
    <header>
      <identifier>oai:zenodo.org:269047</identifier>
      <datestamp>2017-02-06T22:36:18Z</datestamp>
      <setSpec>user-biosyslit</setSpec>
    </header>
    <header>
      <identifier>oai:zenodo.org:269874</identifier>
      <datestamp>2017-02-07T20:37:50Z</datestamp>
      <setSpec>user-biosyslit</setSpec>
    </header>
    <header>
      <identifier>oai:zenodo.org:229417</identifier>
      <datestamp>2017-01-03T15:31:18Z</datestamp>
      <setSpec>user-biosyslit</setSpec>
    </header>
    <header>
      <identifier>oai:zenodo.org:229630</identifier>
      <datestamp>2017-01-03T19:35:46Z</datestamp>
      <setSpec>user-biosyslit</setSpec>
    </header>
    <header>
      <identifier>oai:zenodo.org:229621</identifier>
      <datestamp>2017-01-03T19:28:00Z</datestamp>
      <setSpec>user-biosyslit</setSpec>
    </header>
    <header>
      <identifier>oai:zenodo.org:269310</identifier>
      <datestamp>2017-02-06T23:52:17Z</datestamp>
      <setSpec>user-biosyslit</setSpec>
    </header>
    <header>
      <identifier>oai:zenodo.org:274778</identifier>
      <datestamp>2017-02-08T14:20:35Z</datestamp>
      <setSpec>user-biosyslit</setSpec>
    </header>
    <header>
      <identifier>oai:zenodo.org:230755</identifier>
      <datestamp>2017-01-05T07:47:26Z</datestamp>
      <setSpec>user-biosyslit</setSpec>
    </header>
    <header>
      <identifier>oai:zenodo.org:269034</identifier>
      <datestamp>2017-02-06T22:35:46Z</datestamp>
      <setSpec>user-biosyslit</setSpec>
    </header>
    <header>
      <identifier>oai:zenodo.org:269290</identifier>
      <datestamp>2017-02-06T23:48:31Z</datestamp>
      <setSpec>user-biosyslit</setSpec>
    </header>
    <header>
      <identifier>oai:zenodo.org:269042</identifier>
      <datestamp>2017-02-06T22:36:08Z</datestamp>
      <setSpec>user-biosyslit</setSpec>
    </header>
    <header>
      <identifier>oai:zenodo.org:274819</identifier>
      <datestamp>2017-02-08T14:30:19Z</datestamp>
      <setSpec>user-biosyslit</setSpec>
    </header>
    <header>
      <identifier>oai:zenodo.org:230425</identifier>
      <datestamp>2017-01-05T01:17:00Z</datestamp>
      <setSpec>user-biosyslit</setSpec>
    </header>
    <header>
      <identifier>oai:zenodo.org:269216</identifier>
      <datestamp>2017-02-06T23:30:30Z</datestamp>
      <setSpec>user-biosyslit</setSpec>
    </header>
    <header>
      <identifier>oai:zenodo.org:230097</identifier>
      <datestamp>2017-01-04T19:16:07Z</datestamp>
      <setSpec>user-biosyslit</setSpec>
    </header>
    <header>
      <identifier>oai:zenodo.org:270181</identifier>
      <datestamp>2017-02-07T22:29:50Z</datestamp>
      <setSpec>user-biosyslit</setSpec>
    </header>
    <header>
      <identifier>oai:zenodo.org:269827</identifier>
      <datestamp>2017-02-07T20:30:23Z</datestamp>
      <setSpec>user-biosyslit</setSpec>
    </header>
    <header>
      <identifier>oai:zenodo.org:230707</identifier>
      <datestamp>2017-01-05T07:00:15Z</datestamp>
      <setSpec>user-biosyslit</setSpec>
    </header>
    <header>
      <identifier>oai:zenodo.org:269380</identifier>
      <datestamp>2017-02-06T23:59:40Z</datestamp>
      <setSpec>user-biosyslit</setSpec>
    </header>
    <header>
      <identifier>oai:zenodo.org:270404</identifier>
      <datestamp>2017-02-07T23:10:28Z</datestamp>
      <setSpec>user-biosyslit</setSpec>
    </header>
    <header>
      <identifier>oai:zenodo.org:231033</identifier>
      <datestamp>2017-01-05T12:32:58Z</datestamp>
      <setSpec>user-biosyslit</setSpec>
    </header>
    <header>
      <identifier>oai:zenodo.org:269163</identifier>
      <datestamp>2017-02-06T22:54:28Z</datestamp>
      <setSpec>user-biosyslit</setSpec>
    </header>
    <header>
      <identifier>oai:zenodo.org:231183</identifier>
      <datestamp>2017-01-05T17:02:28Z</datestamp>
      <setSpec>user-biosyslit</setSpec>
    </header>
    <header>
      <identifier>oai:zenodo.org:269312</identifier>
      <datestamp>2017-02-06T23:52:23Z</datestamp>
      <setSpec>user-biosyslit</setSpec>
    </header>
    <header>
      <identifier>oai:zenodo.org:231764</identifier>
      <datestamp>2017-01-06T07:13:27Z</datestamp>
      <setSpec>user-biosyslit</setSpec>
    </header>
    <header>
      <identifier>oai:zenodo.org:270103</identifier>
      <datestamp>2017-02-07T22:21:48Z</datestamp>
      <setSpec>user-biosyslit</setSpec>
    </header>
    <header>
      <identifier>oai:zenodo.org:231840</identifier>
      <datestamp>2017-01-06T07:48:57Z</datestamp>
      <setSpec>user-biosyslit</setSpec>
    </header>
    <header>
      <identifier>oai:zenodo.org:231839</identifier>
      <datestamp>2017-01-06T07:48:53Z</datestamp>
      <setSpec>user-biosyslit</setSpec>
    </header>
    <header>
      <identifier>oai:zenodo.org:269190</identifier>
      <datestamp>2017-02-06T23:03:16Z</datestamp>
      <setSpec>user-biosyslit</setSpec>
    </header>
    <header>
      <identifier>oai:zenodo.org:275802</identifier>
      <datestamp>2017-02-08T17:05:49Z</datestamp>
      <setSpec>user-biosyslit</setSpec>
    </header>
    <header>
      <identifier>oai:zenodo.org:275862</identifier>
      <datestamp>2017-02-08T17:14:29Z</datestamp>
      <setSpec>user-biosyslit</setSpec>
    </header>
    <header>
      <identifier>oai:zenodo.org:269331</identifier>
      <datestamp>2017-02-06T23:55:44Z</datestamp>
      <setSpec>user-biosyslit</setSpec>
    </header>
    <header>
      <identifier>oai:zenodo.org:270250</identifier>
      <datestamp>2017-02-07T22:53:30Z</datestamp>
      <setSpec>user-biosyslit</setSpec>
    </header>
    <header>
      <identifier>oai:zenodo.org:270432</identifier>
      <datestamp>2017-02-07T23:17:57Z</datestamp>
      <setSpec>user-biosyslit</setSpec>
    </header>
    <header>
      <identifier>oai:zenodo.org:270463</identifier>
      <datestamp>2017-02-07T23:16:40Z</datestamp>
      <setSpec>user-biosyslit</setSpec>
    </header>
    <header>
      <identifier>oai:zenodo.org:270636</identifier>
      <datestamp>2017-02-07T23:40:46Z</datestamp>
      <setSpec>user-biosyslit</setSpec>
    </header>
    <header>
      <identifier>oai:zenodo.org:270152</identifier>
      <datestamp>2017-02-07T22:27:08Z</datestamp>
      <setSpec>user-biosyslit</setSpec>
    </header>
    <header>
      <identifier>oai:zenodo.org:270985</identifier>
      <datestamp>2017-02-08T00:25:09Z</datestamp>
      <setSpec>user-biosyslit</setSpec>
    </header>
    <header>
      <identifier>oai:zenodo.org:275808</identifier>
      <datestamp>2017-02-08T17:07:17Z</datestamp>
      <setSpec>user-biosyslit</setSpec>
    </header>
    <header>
      <identifier>oai:zenodo.org:232339</identifier>
      <datestamp>2017-01-06T16:02:44Z</datestamp>
      <setSpec>user-biosyslit</setSpec>
    </header>
    <header>
      <identifier>oai:zenodo.org:232192</identifier>
      <datestamp>2017-01-06T12:57:15Z</datestamp>
      <setSpec>user-biosyslit</setSpec>
    </header>
    <header>
      <identifier>oai:zenodo.org:232475</identifier>
      <datestamp>2017-01-06T18:21:13Z</datestamp>
      <setSpec>user-biosyslit</setSpec>
    </header>
    <header>
      <identifier>oai:zenodo.org:232238</identifier>
      <datestamp>2017-01-06T14:05:43Z</datestamp>
      <setSpec>user-biosyslit</setSpec>
    </header>
    <resumptionToken expirationDate="2017-08-31T15:43:25Z" cursor="6100" completeListSize="77796">.eJyNyssOQ0AYQOF3-dfSzJjULemmoWKBMCXYNIqIGiqmDUa8e226bpcn51uBV1UJBjocVU3WiI4RQrqyhwS8GJ-M3Zp9Q5HErOhZlNvxO-xilMq16pl8ds2UeKJFfocFvQRygrU5atASXKNXKsI5Js5EkaW6Ili8h7O7kvg2y-72QKP-zKhcjr4VLBSfaUaKr8N_OvHTmfwEEgx5XYGhEAnaKR9rDsa6bR9Ug1ES.DIm_pQ.jf7sArLUBzIc_0LDfQKSoYiemmE</resumptionToken>
  </ListIdentifiers>
</OAI-PMH>
