<?xml version='1.0' encoding='UTF-8'?>
<?xml-stylesheet type="text/xsl" href="/static/xsl/oai2.v1.0.xsl"?>
<OAI-PMH xmlns="http://www.openarchives.org/OAI/2.0/" xmlns:xsi="http://www.w3.org/2001/XMLSchema-instance" xsi:schemaLocation="http://www.openarchives.org/OAI/2.0/ http://www.openarchives.org/OAI/2.0/OAI-PMH.xsd">
  <responseDate>2017-08-31T15:41:36Z</responseDate>
  <request verb="ListIdentifiers" resumptionToken=".eJyNyj0LgkAYAOD_8s4Sd57f0CKaOKjYpaRLmIqYp4VXqCf-91qaa36eFXhdV2ChnaKpmqmpBsGGjhSCJeDleGfs0n4YynPKyoElhZe-jn2KMrnRQ4fPgZORUHQo6rGgh1g-Y2NOWrTEp-SZieOcEn-iyNUDES_hzf-8ikQey6_egyaDzahcjZEbLxTbNCfl9-E_n_j5HL4HCR5FU4NlyhJ0UzE2HKx1295TKFES.DIm_sA.ZXa9LGmOdvCdUs8pgfTEvORGAt4">https://zenodo.org/oai2d</request>
  <ListIdentifiers>
    <header>
      <identifier>oai:zenodo.org:275791</identifier>
      <datestamp>2017-02-08T17:05:22Z</datestamp>
      <setSpec>user-biosyslit</setSpec>
    </header>
    <header>
      <identifier>oai:zenodo.org:275786</identifier>
      <datestamp>2017-02-08T17:05:08Z</datestamp>
      <setSpec>user-biosyslit</setSpec>
    </header>
    <header>
      <identifier>oai:zenodo.org:276306</identifier>
      <datestamp>2017-02-08T18:36:20Z</datestamp>
      <setSpec>user-biosyslit</setSpec>
    </header>
    <header>
      <identifier>oai:zenodo.org:252345</identifier>
      <datestamp>2017-01-19T12:23:22Z</datestamp>
      <setSpec>user-biosyslit</setSpec>
    </header>
    <header>
      <identifier>oai:zenodo.org:252923</identifier>
      <datestamp>2017-01-19T23:01:17Z</datestamp>
      <setSpec>user-biosyslit</setSpec>
    </header>
    <header>
      <identifier>oai:zenodo.org:252304</identifier>
      <datestamp>2017-01-19T11:55:45Z</datestamp>
      <setSpec>user-biosyslit</setSpec>
    </header>
    <header>
      <identifier>oai:zenodo.org:252422</identifier>
      <datestamp>2017-01-19T14:27:48Z</datestamp>
      <setSpec>user-biosyslit</setSpec>
    </header>
    <header>
      <identifier>oai:zenodo.org:252380</identifier>
      <datestamp>2017-01-19T13:20:29Z</datestamp>
      <setSpec>user-biosyslit</setSpec>
    </header>
    <header>
      <identifier>oai:zenodo.org:252148</identifier>
      <datestamp>2017-01-19T09:49:36Z</datestamp>
      <setSpec>user-biosyslit</setSpec>
    </header>
    <header>
      <identifier>oai:zenodo.org:252508</identifier>
      <datestamp>2017-01-19T15:25:23Z</datestamp>
      <setSpec>user-biosyslit</setSpec>
    </header>
    <header>
      <identifier>oai:zenodo.org:252707</identifier>
      <datestamp>2017-01-19T18:47:19Z</datestamp>
      <setSpec>user-biosyslit</setSpec>
    </header>
    <header>
      <identifier>oai:zenodo.org:252808</identifier>
      <datestamp>2017-01-19T20:12:39Z</datestamp>
      <setSpec>user-biosyslit</setSpec>
    </header>
    <header>
      <identifier>oai:zenodo.org:252890</identifier>
      <datestamp>2017-01-19T22:39:12Z</datestamp>
      <setSpec>user-biosyslit</setSpec>
    </header>
    <header>
      <identifier>oai:zenodo.org:252810</identifier>
      <datestamp>2017-01-19T20:12:47Z</datestamp>
      <setSpec>user-biosyslit</setSpec>
    </header>
    <header>
      <identifier>oai:zenodo.org:253089</identifier>
      <datestamp>2017-01-20T02:32:33Z</datestamp>
      <setSpec>user-biosyslit</setSpec>
    </header>
    <header>
      <identifier>oai:zenodo.org:252940</identifier>
      <datestamp>2017-01-19T23:37:53Z</datestamp>
      <setSpec>user-biosyslit</setSpec>
    </header>
    <header>
      <identifier>oai:zenodo.org:253563</identifier>
      <datestamp>2017-01-20T08:25:16Z</datestamp>
      <setSpec>user-biosyslit</setSpec>
    </header>
    <header>
      <identifier>oai:zenodo.org:253108</identifier>
      <datestamp>2017-01-20T02:33:52Z</datestamp>
      <setSpec>user-biosyslit</setSpec>
    </header>
    <header>
      <identifier>oai:zenodo.org:254924</identifier>
      <datestamp>2017-01-21T05:05:11Z</datestamp>
      <setSpec>user-biosyslit</setSpec>
    </header>
    <header>
      <identifier>oai:zenodo.org:254046</identifier>
      <datestamp>2017-01-20T13:40:29Z</datestamp>
      <setSpec>user-biosyslit</setSpec>
    </header>
    <header>
      <identifier>oai:zenodo.org:253813</identifier>
      <datestamp>2017-01-20T11:27:45Z</datestamp>
      <setSpec>user-biosyslit</setSpec>
    </header>
    <header>
      <identifier>oai:zenodo.org:254031</identifier>
      <datestamp>2017-01-20T13:39:49Z</datestamp>
      <setSpec>user-biosyslit</setSpec>
    </header>
    <header>
      <identifier>oai:zenodo.org:273429</identifier>
      <datestamp>2017-02-08T09:19:54Z</datestamp>
      <setSpec>user-biosyslit</setSpec>
    </header>
    <header>
      <identifier>oai:zenodo.org:254036</identifier>
      <datestamp>2017-01-20T13:40:03Z</datestamp>
      <setSpec>user-biosyslit</setSpec>
    </header>
    <header>
      <identifier>oai:zenodo.org:253566</identifier>
      <datestamp>2017-01-20T08:25:25Z</datestamp>
      <setSpec>user-biosyslit</setSpec>
    </header>
    <header>
      <identifier>oai:zenodo.org:254507</identifier>
      <datestamp>2017-01-20T19:47:31Z</datestamp>
      <setSpec>user-biosyslit</setSpec>
    </header>
    <header>
      <identifier>oai:zenodo.org:253690</identifier>
      <datestamp>2017-01-20T09:59:20Z</datestamp>
      <setSpec>user-biosyslit</setSpec>
    </header>
    <header>
      <identifier>oai:zenodo.org:255629</identifier>
      <datestamp>2017-01-21T17:31:14Z</datestamp>
      <setSpec>user-biosyslit</setSpec>
    </header>
    <header>
      <identifier>oai:zenodo.org:254007</identifier>
      <datestamp>2017-01-20T13:23:55Z</datestamp>
      <setSpec>user-biosyslit</setSpec>
    </header>
    <header>
      <identifier>oai:zenodo.org:254439</identifier>
      <datestamp>2017-01-20T18:49:30Z</datestamp>
      <setSpec>user-biosyslit</setSpec>
    </header>
    <header>
      <identifier>oai:zenodo.org:254799</identifier>
      <datestamp>2017-01-21T03:03:22Z</datestamp>
      <setSpec>user-biosyslit</setSpec>
    </header>
    <header>
      <identifier>oai:zenodo.org:254853</identifier>
      <datestamp>2017-01-21T03:59:53Z</datestamp>
      <setSpec>user-biosyslit</setSpec>
    </header>
    <header>
      <identifier>oai:zenodo.org:226992</identifier>
      <datestamp>2017-01-01T07:47:30Z</datestamp>
      <setSpec>user-biosyslit</setSpec>
    </header>
    <header>
      <identifier>oai:zenodo.org:254810</identifier>
      <datestamp>2017-01-21T03:22:30Z</datestamp>
      <setSpec>user-biosyslit</setSpec>
    </header>
    <header>
      <identifier>oai:zenodo.org:251644</identifier>
      <datestamp>2017-01-19T02:48:44Z</datestamp>
      <setSpec>user-biosyslit</setSpec>
    </header>
    <header>
      <identifier>oai:zenodo.org:272905</identifier>
      <datestamp>2017-02-08T06:33:22Z</datestamp>
      <setSpec>user-biosyslit</setSpec>
    </header>
    <header>
      <identifier>oai:zenodo.org:273198</identifier>
      <datestamp>2017-02-08T08:27:11Z</datestamp>
      <setSpec>user-biosyslit</setSpec>
    </header>
    <header>
      <identifier>oai:zenodo.org:272980</identifier>
      <datestamp>2017-02-08T06:56:38Z</datestamp>
      <setSpec>user-biosyslit</setSpec>
    </header>
    <header>
      <identifier>oai:zenodo.org:273123</identifier>
      <datestamp>2017-02-08T07:19:59Z</datestamp>
      <setSpec>user-biosyslit</setSpec>
    </header>
    <header>
      <identifier>oai:zenodo.org:276382</identifier>
      <datestamp>2017-02-08T18:44:34Z</datestamp>
      <setSpec>user-biosyslit</setSpec>
    </header>
    <header>
      <identifier>oai:zenodo.org:273070</identifier>
      <datestamp>2017-02-08T07:00:54Z</datestamp>
      <setSpec>user-biosyslit</setSpec>
    </header>
    <header>
      <identifier>oai:zenodo.org:276323</identifier>
      <datestamp>2017-02-08T18:38:05Z</datestamp>
      <setSpec>user-biosyslit</setSpec>
    </header>
    <header>
      <identifier>oai:zenodo.org:276365</identifier>
      <datestamp>2017-02-08T18:42:27Z</datestamp>
      <setSpec>user-biosyslit</setSpec>
    </header>
    <header>
      <identifier>oai:zenodo.org:252671</identifier>
      <datestamp>2017-01-19T18:16:11Z</datestamp>
      <setSpec>user-biosyslit</setSpec>
    </header>
    <header>
      <identifier>oai:zenodo.org:252106</identifier>
      <datestamp>2017-01-19T09:21:29Z</datestamp>
      <setSpec>user-biosyslit</setSpec>
    </header>
    <header>
      <identifier>oai:zenodo.org:252710</identifier>
      <datestamp>2017-01-19T18:47:28Z</datestamp>
      <setSpec>user-biosyslit</setSpec>
    </header>
    <header>
      <identifier>oai:zenodo.org:252450</identifier>
      <datestamp>2017-01-19T14:41:50Z</datestamp>
      <setSpec>user-biosyslit</setSpec>
    </header>
    <header>
      <identifier>oai:zenodo.org:253267</identifier>
      <datestamp>2017-01-20T04:55:23Z</datestamp>
      <setSpec>user-biosyslit</setSpec>
    </header>
    <header>
      <identifier>oai:zenodo.org:252982</identifier>
      <datestamp>2017-01-20T01:02:42Z</datestamp>
      <setSpec>user-biosyslit</setSpec>
    </header>
    <header>
      <identifier>oai:zenodo.org:252910</identifier>
      <datestamp>2017-01-19T23:01:21Z</datestamp>
      <setSpec>user-biosyslit</setSpec>
    </header>
    <header>
      <identifier>oai:zenodo.org:253691</identifier>
      <datestamp>2017-01-20T09:58:56Z</datestamp>
      <setSpec>user-biosyslit</setSpec>
    </header>
    <header>
      <identifier>oai:zenodo.org:252967</identifier>
      <datestamp>2017-01-20T00:59:59Z</datestamp>
      <setSpec>user-biosyslit</setSpec>
    </header>
    <header>
      <identifier>oai:zenodo.org:253264</identifier>
      <datestamp>2017-01-20T04:55:14Z</datestamp>
      <setSpec>user-biosyslit</setSpec>
    </header>
    <header>
      <identifier>oai:zenodo.org:253076</identifier>
      <datestamp>2017-01-20T02:09:47Z</datestamp>
      <setSpec>user-biosyslit</setSpec>
    </header>
    <header>
      <identifier>oai:zenodo.org:254779</identifier>
      <datestamp>2017-01-21T02:44:08Z</datestamp>
      <setSpec>user-biosyslit</setSpec>
    </header>
    <header>
      <identifier>oai:zenodo.org:253322</identifier>
      <datestamp>2017-01-20T05:31:33Z</datestamp>
      <setSpec>user-biosyslit</setSpec>
    </header>
    <header>
      <identifier>oai:zenodo.org:253795</identifier>
      <datestamp>2017-01-20T11:19:41Z</datestamp>
      <setSpec>user-biosyslit</setSpec>
    </header>
    <header>
      <identifier>oai:zenodo.org:254210</identifier>
      <datestamp>2017-01-20T16:46:33Z</datestamp>
      <setSpec>user-biosyslit</setSpec>
    </header>
    <header>
      <identifier>oai:zenodo.org:253527</identifier>
      <datestamp>2017-01-20T08:22:10Z</datestamp>
      <setSpec>user-biosyslit</setSpec>
    </header>
    <header>
      <identifier>oai:zenodo.org:253571</identifier>
      <datestamp>2017-01-20T08:25:39Z</datestamp>
      <setSpec>user-biosyslit</setSpec>
    </header>
    <header>
      <identifier>oai:zenodo.org:254586</identifier>
      <datestamp>2017-01-20T22:36:50Z</datestamp>
      <setSpec>user-biosyslit</setSpec>
    </header>
    <header>
      <identifier>oai:zenodo.org:255107</identifier>
      <datestamp>2017-01-21T08:04:21Z</datestamp>
      <setSpec>user-biosyslit</setSpec>
    </header>
    <header>
      <identifier>oai:zenodo.org:256347</identifier>
      <datestamp>2017-01-22T13:01:20Z</datestamp>
      <setSpec>user-biosyslit</setSpec>
    </header>
    <header>
      <identifier>oai:zenodo.org:254685</identifier>
      <datestamp>2017-01-21T01:34:27Z</datestamp>
      <setSpec>user-biosyslit</setSpec>
    </header>
    <header>
      <identifier>oai:zenodo.org:254446</identifier>
      <datestamp>2017-01-20T18:49:49Z</datestamp>
      <setSpec>user-biosyslit</setSpec>
    </header>
    <header>
      <identifier>oai:zenodo.org:276483</identifier>
      <datestamp>2017-02-08T18:57:27Z</datestamp>
      <setSpec>user-biosyslit</setSpec>
    </header>
    <header>
      <identifier>oai:zenodo.org:254987</identifier>
      <datestamp>2017-01-21T06:14:45Z</datestamp>
      <setSpec>user-biosyslit</setSpec>
    </header>
    <header>
      <identifier>oai:zenodo.org:255352</identifier>
      <datestamp>2017-01-21T12:23:25Z</datestamp>
      <setSpec>user-biosyslit</setSpec>
    </header>
    <header>
      <identifier>oai:zenodo.org:254923</identifier>
      <datestamp>2017-01-21T04:54:04Z</datestamp>
      <setSpec>user-biosyslit</setSpec>
    </header>
    <header>
      <identifier>oai:zenodo.org:254834</identifier>
      <datestamp>2017-01-21T03:46:14Z</datestamp>
      <setSpec>user-biosyslit</setSpec>
    </header>
    <header>
      <identifier>oai:zenodo.org:254726</identifier>
      <datestamp>2017-01-21T02:15:53Z</datestamp>
      <setSpec>user-biosyslit</setSpec>
    </header>
    <header>
      <identifier>oai:zenodo.org:272914</identifier>
      <datestamp>2017-02-08T06:33:48Z</datestamp>
      <setSpec>user-biosyslit</setSpec>
    </header>
    <header>
      <identifier>oai:zenodo.org:273102</identifier>
      <datestamp>2017-02-08T07:09:50Z</datestamp>
      <setSpec>user-biosyslit</setSpec>
    </header>
    <header>
      <identifier>oai:zenodo.org:251552</identifier>
      <datestamp>2017-01-19T01:58:37Z</datestamp>
      <setSpec>user-biosyslit</setSpec>
    </header>
    <header>
      <identifier>oai:zenodo.org:272866</identifier>
      <datestamp>2017-02-08T06:31:16Z</datestamp>
      <setSpec>user-biosyslit</setSpec>
    </header>
    <header>
      <identifier>oai:zenodo.org:251624</identifier>
      <datestamp>2017-01-19T02:47:25Z</datestamp>
      <setSpec>user-biosyslit</setSpec>
    </header>
    <header>
      <identifier>oai:zenodo.org:273199</identifier>
      <datestamp>2017-02-08T08:27:13Z</datestamp>
      <setSpec>user-biosyslit</setSpec>
    </header>
    <header>
      <identifier>oai:zenodo.org:273182</identifier>
      <datestamp>2017-02-08T08:15:11Z</datestamp>
      <setSpec>user-biosyslit</setSpec>
    </header>
    <header>
      <identifier>oai:zenodo.org:273011</identifier>
      <datestamp>2017-02-08T06:58:18Z</datestamp>
      <setSpec>user-biosyslit</setSpec>
    </header>
    <header>
      <identifier>oai:zenodo.org:272996</identifier>
      <datestamp>2017-02-08T06:57:30Z</datestamp>
      <setSpec>user-biosyslit</setSpec>
    </header>
    <header>
      <identifier>oai:zenodo.org:251759</identifier>
      <datestamp>2017-01-19T04:22:05Z</datestamp>
      <setSpec>user-biosyslit</setSpec>
    </header>
    <header>
      <identifier>oai:zenodo.org:251780</identifier>
      <datestamp>2017-01-19T04:30:36Z</datestamp>
      <setSpec>user-biosyslit</setSpec>
    </header>
    <header>
      <identifier>oai:zenodo.org:276190</identifier>
      <datestamp>2017-02-08T18:22:10Z</datestamp>
      <setSpec>user-biosyslit</setSpec>
    </header>
    <header>
      <identifier>oai:zenodo.org:276394</identifier>
      <datestamp>2017-02-08T18:46:07Z</datestamp>
      <setSpec>user-biosyslit</setSpec>
    </header>
    <header>
      <identifier>oai:zenodo.org:273169</identifier>
      <datestamp>2017-02-08T08:14:45Z</datestamp>
      <setSpec>user-biosyslit</setSpec>
    </header>
    <header>
      <identifier>oai:zenodo.org:276291</identifier>
      <datestamp>2017-02-08T18:35:02Z</datestamp>
      <setSpec>user-biosyslit</setSpec>
    </header>
    <header>
      <identifier>oai:zenodo.org:276300</identifier>
      <datestamp>2017-02-08T18:36:08Z</datestamp>
      <setSpec>user-biosyslit</setSpec>
    </header>
    <header>
      <identifier>oai:zenodo.org:276376</identifier>
      <datestamp>2017-02-08T18:43:42Z</datestamp>
      <setSpec>user-biosyslit</setSpec>
    </header>
    <header>
      <identifier>oai:zenodo.org:252152</identifier>
      <datestamp>2017-01-19T09:49:50Z</datestamp>
      <setSpec>user-biosyslit</setSpec>
    </header>
    <header>
      <identifier>oai:zenodo.org:252014</identifier>
      <datestamp>2017-01-19T07:22:01Z</datestamp>
      <setSpec>user-biosyslit</setSpec>
    </header>
    <header>
      <identifier>oai:zenodo.org:252971</identifier>
      <datestamp>2017-01-20T01:00:34Z</datestamp>
      <setSpec>user-biosyslit</setSpec>
    </header>
    <header>
      <identifier>oai:zenodo.org:252322</identifier>
      <datestamp>2017-01-19T11:56:46Z</datestamp>
      <setSpec>user-biosyslit</setSpec>
    </header>
    <header>
      <identifier>oai:zenodo.org:252436</identifier>
      <datestamp>2017-01-19T14:35:59Z</datestamp>
      <setSpec>user-biosyslit</setSpec>
    </header>
    <header>
      <identifier>oai:zenodo.org:252944</identifier>
      <datestamp>2017-01-20T00:20:09Z</datestamp>
      <setSpec>user-biosyslit</setSpec>
    </header>
    <header>
      <identifier>oai:zenodo.org:252832</identifier>
      <datestamp>2017-01-19T20:55:20Z</datestamp>
      <setSpec>user-biosyslit</setSpec>
    </header>
    <header>
      <identifier>oai:zenodo.org:252387</identifier>
      <datestamp>2017-01-19T13:20:50Z</datestamp>
      <setSpec>user-biosyslit</setSpec>
    </header>
    <header>
      <identifier>oai:zenodo.org:252255</identifier>
      <datestamp>2017-01-19T11:15:07Z</datestamp>
      <setSpec>user-biosyslit</setSpec>
    </header>
    <header>
      <identifier>oai:zenodo.org:273307</identifier>
      <datestamp>2017-02-08T08:57:46Z</datestamp>
      <setSpec>user-biosyslit</setSpec>
    </header>
    <header>
      <identifier>oai:zenodo.org:252876</identifier>
      <datestamp>2017-01-19T22:27:23Z</datestamp>
      <setSpec>user-biosyslit</setSpec>
    </header>
    <header>
      <identifier>oai:zenodo.org:252970</identifier>
      <datestamp>2017-01-20T01:00:30Z</datestamp>
      <setSpec>user-biosyslit</setSpec>
    </header>
    <resumptionToken expirationDate="2017-08-31T15:43:36Z" cursor="9100" completeListSize="77796">.eJyNyssKgkAUANB_uWuJeeQT2oQmLlRsUrJNmIqYo4lTpCP-e25a1_qcGURZFmChjUpMrGvIICrZaphoCoh8eHB-rVeG_JzwvONx5iavY5uglFR6YIvRt1MayAaFLZbsEJEzNsa4RlN0ip-pPI4J9d4MObovoym4e-sraOjyy83tWdztOSPFEDrRxPCeXWj-ffjPJ38-W-xAgT6rSrBMqkDzzoZKgDUvywdJ1lEJ.DIm_sA.1k148y6POc4h6fvHxm8IQqP-Rsc</resumptionToken>
  </ListIdentifiers>
</OAI-PMH>
