<?xml version='1.0' encoding='UTF-8'?>
<?xml-stylesheet type="text/xsl" href="/static/xsl/oai2.v1.0.xsl"?>
<OAI-PMH xmlns="http://www.openarchives.org/OAI/2.0/" xmlns:xsi="http://www.w3.org/2001/XMLSchema-instance" xsi:schemaLocation="http://www.openarchives.org/OAI/2.0/ http://www.openarchives.org/OAI/2.0/OAI-PMH.xsd">
  <responseDate>2017-08-31T15:41:18Z</responseDate>
  <request verb="ListIdentifiers" resumptionToken=".eJyNyj0LgkAYAOD_8s4S92GmQoto4qBi10m6hKmIeVZ4hXrSf6-luebnWUDWdQU2WlnURNgyDUsnlm6sNZDlcBPi1H4UymMqyqvghZ8-932KMtJsIldOoZvRSHUo7rFiu4QcsTnxFs3JgT8ytZ9SGowMeZtQJXN0CT6vorEv8rN_Z_zqCEaqIfaSmWGH5bT8PvznUz-fK7egwb1oarB1qkE3FkMjwV5erzcofVDl.DIm_ng.SrD58Jm3_JdC1W8AJS5ocxxeNOE">https://zenodo.org/oai2d</request>
  <ListIdentifiers>
    <header>
      <identifier>oai:zenodo.org:277054</identifier>
      <datestamp>2017-02-08T20:16:53Z</datestamp>
      <setSpec>user-biosyslit</setSpec>
    </header>
    <header>
      <identifier>oai:zenodo.org:277486</identifier>
      <datestamp>2017-02-08T21:13:37Z</datestamp>
      <setSpec>user-biosyslit</setSpec>
    </header>
    <header>
      <identifier>oai:zenodo.org:277955</identifier>
      <datestamp>2017-02-08T22:09:09Z</datestamp>
      <setSpec>user-biosyslit</setSpec>
    </header>
    <header>
      <identifier>oai:zenodo.org:278250</identifier>
      <datestamp>2017-02-08T22:44:20Z</datestamp>
      <setSpec>user-biosyslit</setSpec>
    </header>
    <header>
      <identifier>oai:zenodo.org:279149</identifier>
      <datestamp>2017-02-09T00:42:46Z</datestamp>
      <setSpec>user-biosyslit</setSpec>
    </header>
    <header>
      <identifier>oai:zenodo.org:278592</identifier>
      <datestamp>2017-02-08T23:29:11Z</datestamp>
      <setSpec>user-biosyslit</setSpec>
    </header>
    <header>
      <identifier>oai:zenodo.org:278286</identifier>
      <datestamp>2017-02-08T22:46:59Z</datestamp>
      <setSpec>user-biosyslit</setSpec>
    </header>
    <header>
      <identifier>oai:zenodo.org:279474</identifier>
      <datestamp>2017-02-09T01:25:19Z</datestamp>
      <setSpec>user-biosyslit</setSpec>
    </header>
    <header>
      <identifier>oai:zenodo.org:279103</identifier>
      <datestamp>2017-02-09T00:36:50Z</datestamp>
      <setSpec>user-biosyslit</setSpec>
    </header>
    <header>
      <identifier>oai:zenodo.org:278611</identifier>
      <datestamp>2017-02-08T23:30:17Z</datestamp>
      <setSpec>user-biosyslit</setSpec>
    </header>
    <header>
      <identifier>oai:zenodo.org:278710</identifier>
      <datestamp>2017-02-08T23:44:27Z</datestamp>
      <setSpec>user-biosyslit</setSpec>
    </header>
    <header>
      <identifier>oai:zenodo.org:278834</identifier>
      <datestamp>2017-02-08T23:57:58Z</datestamp>
      <setSpec>user-biosyslit</setSpec>
    </header>
    <header>
      <identifier>oai:zenodo.org:280552</identifier>
      <datestamp>2017-02-09T03:37:39Z</datestamp>
      <setSpec>user-biosyslit</setSpec>
    </header>
    <header>
      <identifier>oai:zenodo.org:280275</identifier>
      <datestamp>2017-02-09T03:06:10Z</datestamp>
      <setSpec>user-biosyslit</setSpec>
    </header>
    <header>
      <identifier>oai:zenodo.org:280402</identifier>
      <datestamp>2017-02-09T03:20:33Z</datestamp>
      <setSpec>user-biosyslit</setSpec>
    </header>
    <header>
      <identifier>oai:zenodo.org:281205</identifier>
      <datestamp>2017-02-09T04:55:23Z</datestamp>
      <setSpec>user-biosyslit</setSpec>
    </header>
    <header>
      <identifier>oai:zenodo.org:281454</identifier>
      <datestamp>2017-02-09T05:19:41Z</datestamp>
      <setSpec>user-biosyslit</setSpec>
    </header>
    <header>
      <identifier>oai:zenodo.org:281031</identifier>
      <datestamp>2017-02-09T04:34:55Z</datestamp>
      <setSpec>user-biosyslit</setSpec>
    </header>
    <header>
      <identifier>oai:zenodo.org:280998</identifier>
      <datestamp>2017-02-09T04:32:45Z</datestamp>
      <setSpec>user-biosyslit</setSpec>
    </header>
    <header>
      <identifier>oai:zenodo.org:281591</identifier>
      <datestamp>2017-02-09T05:34:53Z</datestamp>
      <setSpec>user-biosyslit</setSpec>
    </header>
    <header>
      <identifier>oai:zenodo.org:282295</identifier>
      <datestamp>2017-02-09T06:46:42Z</datestamp>
      <setSpec>user-biosyslit</setSpec>
    </header>
    <header>
      <identifier>oai:zenodo.org:282934</identifier>
      <datestamp>2017-02-09T07:51:41Z</datestamp>
      <setSpec>user-biosyslit</setSpec>
    </header>
    <header>
      <identifier>oai:zenodo.org:283229</identifier>
      <datestamp>2017-02-09T21:06:30Z</datestamp>
      <setSpec>openaire</setSpec>
      <setSpec>user-biosyslit</setSpec>
    </header>
    <header>
      <identifier>oai:zenodo.org:253499</identifier>
      <datestamp>2017-01-20T07:50:03Z</datestamp>
      <setSpec>user-biosyslit</setSpec>
    </header>
    <header>
      <identifier>oai:zenodo.org:255025</identifier>
      <datestamp>2017-01-21T06:45:03Z</datestamp>
      <setSpec>user-biosyslit</setSpec>
    </header>
    <header>
      <identifier>oai:zenodo.org:254033</identifier>
      <datestamp>2017-01-20T13:39:55Z</datestamp>
      <setSpec>user-biosyslit</setSpec>
    </header>
    <header>
      <identifier>oai:zenodo.org:256106</identifier>
      <datestamp>2017-01-22T04:17:41Z</datestamp>
      <setSpec>user-biosyslit</setSpec>
    </header>
    <header>
      <identifier>oai:zenodo.org:254503</identifier>
      <datestamp>2017-01-20T19:34:43Z</datestamp>
      <setSpec>user-biosyslit</setSpec>
    </header>
    <header>
      <identifier>oai:zenodo.org:254801</identifier>
      <datestamp>2017-01-21T03:03:27Z</datestamp>
      <setSpec>user-biosyslit</setSpec>
    </header>
    <header>
      <identifier>oai:zenodo.org:255814</identifier>
      <datestamp>2017-01-21T22:30:56Z</datestamp>
      <setSpec>user-biosyslit</setSpec>
    </header>
    <header>
      <identifier>oai:zenodo.org:256387</identifier>
      <datestamp>2017-01-22T13:51:50Z</datestamp>
      <setSpec>user-biosyslit</setSpec>
    </header>
    <header>
      <identifier>oai:zenodo.org:255022</identifier>
      <datestamp>2017-01-21T06:44:32Z</datestamp>
      <setSpec>user-biosyslit</setSpec>
    </header>
    <header>
      <identifier>oai:zenodo.org:255231</identifier>
      <datestamp>2017-01-21T10:00:34Z</datestamp>
      <setSpec>user-biosyslit</setSpec>
    </header>
    <header>
      <identifier>oai:zenodo.org:256885</identifier>
      <datestamp>2017-01-22T21:58:32Z</datestamp>
      <setSpec>user-biosyslit</setSpec>
    </header>
    <header>
      <identifier>oai:zenodo.org:256246</identifier>
      <datestamp>2017-01-22T08:05:11Z</datestamp>
      <setSpec>user-biosyslit</setSpec>
    </header>
    <header>
      <identifier>oai:zenodo.org:255638</identifier>
      <datestamp>2017-01-21T17:43:27Z</datestamp>
      <setSpec>user-biosyslit</setSpec>
    </header>
    <header>
      <identifier>oai:zenodo.org:256052</identifier>
      <datestamp>2017-01-22T03:07:20Z</datestamp>
      <setSpec>user-biosyslit</setSpec>
    </header>
    <header>
      <identifier>oai:zenodo.org:255851</identifier>
      <datestamp>2017-01-21T23:08:01Z</datestamp>
      <setSpec>user-biosyslit</setSpec>
    </header>
    <header>
      <identifier>oai:zenodo.org:257649</identifier>
      <datestamp>2017-01-23T11:45:03Z</datestamp>
      <setSpec>user-biosyslit</setSpec>
    </header>
    <header>
      <identifier>oai:zenodo.org:257160</identifier>
      <datestamp>2017-01-23T03:01:53Z</datestamp>
      <setSpec>user-biosyslit</setSpec>
    </header>
    <header>
      <identifier>oai:zenodo.org:256855</identifier>
      <datestamp>2017-01-22T21:35:35Z</datestamp>
      <setSpec>user-biosyslit</setSpec>
    </header>
    <header>
      <identifier>oai:zenodo.org:257215</identifier>
      <datestamp>2017-01-23T03:40:49Z</datestamp>
      <setSpec>user-biosyslit</setSpec>
    </header>
    <header>
      <identifier>oai:zenodo.org:256861</identifier>
      <datestamp>2017-01-22T21:42:58Z</datestamp>
      <setSpec>user-biosyslit</setSpec>
    </header>
    <header>
      <identifier>oai:zenodo.org:257264</identifier>
      <datestamp>2017-01-23T04:20:11Z</datestamp>
      <setSpec>user-biosyslit</setSpec>
    </header>
    <header>
      <identifier>oai:zenodo.org:257675</identifier>
      <datestamp>2017-01-23T12:18:02Z</datestamp>
      <setSpec>user-biosyslit</setSpec>
    </header>
    <header>
      <identifier>oai:zenodo.org:257458</identifier>
      <datestamp>2017-01-23T07:07:23Z</datestamp>
      <setSpec>user-biosyslit</setSpec>
    </header>
    <header>
      <identifier>oai:zenodo.org:257613</identifier>
      <datestamp>2017-01-23T11:10:44Z</datestamp>
      <setSpec>user-biosyslit</setSpec>
    </header>
    <header>
      <identifier>oai:zenodo.org:258146</identifier>
      <datestamp>2017-01-23T16:46:47Z</datestamp>
      <setSpec>user-biosyslit</setSpec>
    </header>
    <header>
      <identifier>oai:zenodo.org:257471</identifier>
      <datestamp>2017-01-23T07:18:47Z</datestamp>
      <setSpec>user-biosyslit</setSpec>
    </header>
    <header>
      <identifier>oai:zenodo.org:257784</identifier>
      <datestamp>2017-01-23T13:29:04Z</datestamp>
      <setSpec>user-biosyslit</setSpec>
    </header>
    <header>
      <identifier>oai:zenodo.org:259190</identifier>
      <datestamp>2017-01-24T08:40:14Z</datestamp>
      <setSpec>user-biosyslit</setSpec>
    </header>
    <header>
      <identifier>oai:zenodo.org:257464</identifier>
      <datestamp>2017-01-23T07:14:18Z</datestamp>
      <setSpec>user-biosyslit</setSpec>
    </header>
    <header>
      <identifier>oai:zenodo.org:258142</identifier>
      <datestamp>2017-01-23T16:46:39Z</datestamp>
      <setSpec>user-biosyslit</setSpec>
    </header>
    <header>
      <identifier>oai:zenodo.org:257618</identifier>
      <datestamp>2017-01-23T11:11:04Z</datestamp>
      <setSpec>user-biosyslit</setSpec>
    </header>
    <header>
      <identifier>oai:zenodo.org:258111</identifier>
      <datestamp>2017-01-23T16:46:58Z</datestamp>
      <setSpec>user-biosyslit</setSpec>
    </header>
    <header>
      <identifier>oai:zenodo.org:258846</identifier>
      <datestamp>2017-01-24T05:41:28Z</datestamp>
      <setSpec>user-biosyslit</setSpec>
    </header>
    <header>
      <identifier>oai:zenodo.org:258379</identifier>
      <datestamp>2017-01-23T21:47:44Z</datestamp>
      <setSpec>user-biosyslit</setSpec>
    </header>
    <header>
      <identifier>oai:zenodo.org:258356</identifier>
      <datestamp>2017-01-23T21:29:58Z</datestamp>
      <setSpec>user-biosyslit</setSpec>
    </header>
    <header>
      <identifier>oai:zenodo.org:258596</identifier>
      <datestamp>2017-01-24T02:09:09Z</datestamp>
      <setSpec>user-biosyslit</setSpec>
    </header>
    <header>
      <identifier>oai:zenodo.org:259806</identifier>
      <datestamp>2017-01-25T16:26:33Z</datestamp>
      <setSpec>user-biosyslit</setSpec>
    </header>
    <header>
      <identifier>oai:zenodo.org:273637</identifier>
      <datestamp>2017-02-08T10:06:57Z</datestamp>
      <setSpec>user-biosyslit</setSpec>
    </header>
    <header>
      <identifier>oai:zenodo.org:260623</identifier>
      <datestamp>2017-01-27T22:38:39Z</datestamp>
      <setSpec>user-biosyslit</setSpec>
    </header>
    <header>
      <identifier>oai:zenodo.org:260868</identifier>
      <datestamp>2017-01-28T01:48:08Z</datestamp>
      <setSpec>user-biosyslit</setSpec>
    </header>
    <header>
      <identifier>oai:zenodo.org:260480</identifier>
      <datestamp>2017-01-27T20:46:59Z</datestamp>
      <setSpec>user-biosyslit</setSpec>
    </header>
    <header>
      <identifier>oai:zenodo.org:259887</identifier>
      <datestamp>2017-01-25T17:11:23Z</datestamp>
      <setSpec>user-biosyslit</setSpec>
    </header>
    <header>
      <identifier>oai:zenodo.org:260962</identifier>
      <datestamp>2017-01-28T03:08:07Z</datestamp>
      <setSpec>user-biosyslit</setSpec>
    </header>
    <header>
      <identifier>oai:zenodo.org:259713</identifier>
      <datestamp>2017-01-25T15:27:27Z</datestamp>
      <setSpec>user-biosyslit</setSpec>
    </header>
    <header>
      <identifier>oai:zenodo.org:261395</identifier>
      <datestamp>2017-01-28T08:44:15Z</datestamp>
      <setSpec>user-biosyslit</setSpec>
    </header>
    <header>
      <identifier>oai:zenodo.org:259735</identifier>
      <datestamp>2017-01-25T15:39:13Z</datestamp>
      <setSpec>user-biosyslit</setSpec>
    </header>
    <header>
      <identifier>oai:zenodo.org:273839</identifier>
      <datestamp>2017-02-08T10:59:19Z</datestamp>
      <setSpec>user-biosyslit</setSpec>
    </header>
    <header>
      <identifier>oai:zenodo.org:273585</identifier>
      <datestamp>2017-02-08T09:55:22Z</datestamp>
      <setSpec>user-biosyslit</setSpec>
    </header>
    <header>
      <identifier>oai:zenodo.org:261296</identifier>
      <datestamp>2017-01-28T07:43:26Z</datestamp>
      <setSpec>user-biosyslit</setSpec>
    </header>
    <header>
      <identifier>oai:zenodo.org:261182</identifier>
      <datestamp>2017-01-28T06:18:40Z</datestamp>
      <setSpec>user-biosyslit</setSpec>
    </header>
    <header>
      <identifier>oai:zenodo.org:261613</identifier>
      <datestamp>2017-01-28T11:30:11Z</datestamp>
      <setSpec>user-biosyslit</setSpec>
    </header>
    <header>
      <identifier>oai:zenodo.org:261317</identifier>
      <datestamp>2017-01-28T07:51:08Z</datestamp>
      <setSpec>user-biosyslit</setSpec>
    </header>
    <header>
      <identifier>oai:zenodo.org:261551</identifier>
      <datestamp>2017-01-28T10:49:22Z</datestamp>
      <setSpec>user-biosyslit</setSpec>
    </header>
    <header>
      <identifier>oai:zenodo.org:260813</identifier>
      <datestamp>2017-01-28T01:12:08Z</datestamp>
      <setSpec>user-biosyslit</setSpec>
    </header>
    <header>
      <identifier>oai:zenodo.org:261183</identifier>
      <datestamp>2017-01-28T06:18:52Z</datestamp>
      <setSpec>user-biosyslit</setSpec>
    </header>
    <header>
      <identifier>oai:zenodo.org:261407</identifier>
      <datestamp>2017-01-28T08:44:46Z</datestamp>
      <setSpec>user-biosyslit</setSpec>
    </header>
    <header>
      <identifier>oai:zenodo.org:261645</identifier>
      <datestamp>2017-01-28T12:14:04Z</datestamp>
      <setSpec>user-biosyslit</setSpec>
    </header>
    <header>
      <identifier>oai:zenodo.org:261218</identifier>
      <datestamp>2017-01-28T06:42:15Z</datestamp>
      <setSpec>user-biosyslit</setSpec>
    </header>
    <header>
      <identifier>oai:zenodo.org:262089</identifier>
      <datestamp>2017-01-28T20:07:40Z</datestamp>
      <setSpec>user-biosyslit</setSpec>
    </header>
    <header>
      <identifier>oai:zenodo.org:261343</identifier>
      <datestamp>2017-01-28T08:12:02Z</datestamp>
      <setSpec>user-biosyslit</setSpec>
    </header>
    <header>
      <identifier>oai:zenodo.org:261783</identifier>
      <datestamp>2017-01-28T15:00:30Z</datestamp>
      <setSpec>user-biosyslit</setSpec>
    </header>
    <header>
      <identifier>oai:zenodo.org:261968</identifier>
      <datestamp>2017-01-28T18:27:23Z</datestamp>
      <setSpec>user-biosyslit</setSpec>
    </header>
    <header>
      <identifier>oai:zenodo.org:261861</identifier>
      <datestamp>2017-01-28T16:10:33Z</datestamp>
      <setSpec>user-biosyslit</setSpec>
    </header>
    <header>
      <identifier>oai:zenodo.org:262066</identifier>
      <datestamp>2017-01-28T19:59:01Z</datestamp>
      <setSpec>user-biosyslit</setSpec>
    </header>
    <header>
      <identifier>oai:zenodo.org:262039</identifier>
      <datestamp>2017-01-28T19:42:22Z</datestamp>
      <setSpec>user-biosyslit</setSpec>
    </header>
    <header>
      <identifier>oai:zenodo.org:274270</identifier>
      <datestamp>2017-02-08T12:43:28Z</datestamp>
      <setSpec>user-biosyslit</setSpec>
    </header>
    <header>
      <identifier>oai:zenodo.org:262275</identifier>
      <datestamp>2017-01-29T01:55:50Z</datestamp>
      <setSpec>user-biosyslit</setSpec>
    </header>
    <header>
      <identifier>oai:zenodo.org:262148</identifier>
      <datestamp>2017-01-28T22:03:06Z</datestamp>
      <setSpec>user-biosyslit</setSpec>
    </header>
    <header>
      <identifier>oai:zenodo.org:274585</identifier>
      <datestamp>2017-02-08T13:44:29Z</datestamp>
      <setSpec>user-biosyslit</setSpec>
    </header>
    <header>
      <identifier>oai:zenodo.org:274010</identifier>
      <datestamp>2017-02-08T11:47:27Z</datestamp>
      <setSpec>user-biosyslit</setSpec>
    </header>
    <header>
      <identifier>oai:zenodo.org:262517</identifier>
      <datestamp>2017-01-29T05:04:35Z</datestamp>
      <setSpec>user-biosyslit</setSpec>
    </header>
    <header>
      <identifier>oai:zenodo.org:263246</identifier>
      <datestamp>2017-01-29T19:46:06Z</datestamp>
      <setSpec>user-biosyslit</setSpec>
    </header>
    <header>
      <identifier>oai:zenodo.org:264075</identifier>
      <datestamp>2017-01-30T12:36:33Z</datestamp>
      <setSpec>user-biosyslit</setSpec>
    </header>
    <header>
      <identifier>oai:zenodo.org:263162</identifier>
      <datestamp>2017-01-29T17:56:44Z</datestamp>
      <setSpec>user-biosyslit</setSpec>
    </header>
    <header>
      <identifier>oai:zenodo.org:274249</identifier>
      <datestamp>2017-02-08T12:32:57Z</datestamp>
      <setSpec>user-biosyslit</setSpec>
    </header>
    <header>
      <identifier>oai:zenodo.org:264402</identifier>
      <datestamp>2017-01-30T20:56:47Z</datestamp>
      <setSpec>user-biosyslit</setSpec>
    </header>
    <header>
      <identifier>oai:zenodo.org:263320</identifier>
      <datestamp>2017-01-29T22:24:12Z</datestamp>
      <setSpec>user-biosyslit</setSpec>
    </header>
    <resumptionToken expirationDate="2017-08-31T15:43:18Z" cursor="4200" completeListSize="77796">.eJyNyrEKgkAYAOB3-WeJO3_TElpEEwcVvZR0CVOR8jTxCvWid6-luebve4Ko6wpMsqJ0i0hQXxN9jdRAXQFRjjfOT5ePQ3lMednzpHDTR9ylJFMbI7DF7NsZBrIlYUcl20fqkW7m5EKW6JDcMxnPKXoTI47hy2gJrt7nVRi6PD-7A0t6izO1GkMnWhi1WI7l99E_n_z5bLEDBYaiqcHUNAXaqRgbAebz9XoDdkpRMQ.DIm_ng.GHkLRFfRwTDkIW3tP0TEpK-xW24</resumptionToken>
  </ListIdentifiers>
</OAI-PMH>
