<?xml version='1.0' encoding='UTF-8'?>
<?xml-stylesheet type="text/xsl" href="/static/xsl/oai2.v1.0.xsl"?>
<OAI-PMH xmlns="http://www.openarchives.org/OAI/2.0/" xmlns:xsi="http://www.w3.org/2001/XMLSchema-instance" xsi:schemaLocation="http://www.openarchives.org/OAI/2.0/ http://www.openarchives.org/OAI/2.0/OAI-PMH.xsd">
  <responseDate>2017-08-31T15:42:53Z</responseDate>
  <request verb="ListIdentifiers" resumptionToken=".eJyNysEKgjAYAOB3-c8Sm0s2hS6hiQcVXUp6CVMRc5W4Qp347nXpXOfvW0DWdQUW2lDGTEQxMyg2yZYZGshyeAhxbj8M5SkV5V0khZu-4luKMr2hgS0n385IoDoU3rDih0g_YTYlLZqjY_LMVDylxBs5cqivojm4ep9XkdAV-cXteXLfC65XQ-hEM8d7npPy-_CfT_18ttyBBn3R1GDpJtagG4uhkWAt6_oGrudRUQ.DIm__Q.nDfxQQ7WoGwKvtnk_LQt-WPqmRo">https://zenodo.org/oai2d</request>
  <ListIdentifiers>
    <header>
      <identifier>oai:zenodo.org:278636</identifier>
      <datestamp>2017-02-08T23:34:38Z</datestamp>
      <setSpec>user-biosyslit</setSpec>
    </header>
    <header>
      <identifier>oai:zenodo.org:275713</identifier>
      <datestamp>2017-02-08T16:57:40Z</datestamp>
      <setSpec>user-biosyslit</setSpec>
    </header>
    <header>
      <identifier>oai:zenodo.org:275715</identifier>
      <datestamp>2017-02-08T16:57:42Z</datestamp>
      <setSpec>user-biosyslit</setSpec>
    </header>
    <header>
      <identifier>oai:zenodo.org:275716</identifier>
      <datestamp>2017-02-08T16:57:45Z</datestamp>
      <setSpec>user-biosyslit</setSpec>
    </header>
    <header>
      <identifier>oai:zenodo.org:275718</identifier>
      <datestamp>2017-02-08T16:57:49Z</datestamp>
      <setSpec>user-biosyslit</setSpec>
    </header>
    <header>
      <identifier>oai:zenodo.org:267754</identifier>
      <datestamp>2017-02-02T06:47:04Z</datestamp>
      <setSpec>user-biosyslit</setSpec>
    </header>
    <header>
      <identifier>oai:zenodo.org:277110</identifier>
      <datestamp>2017-02-08T20:25:24Z</datestamp>
      <setSpec>user-biosyslit</setSpec>
    </header>
    <header>
      <identifier>oai:zenodo.org:267756</identifier>
      <datestamp>2017-02-02T06:47:10Z</datestamp>
      <setSpec>user-biosyslit</setSpec>
    </header>
    <header>
      <identifier>oai:zenodo.org:280207</identifier>
      <datestamp>2017-02-09T02:58:19Z</datestamp>
      <setSpec>user-biosyslit</setSpec>
    </header>
    <header>
      <identifier>oai:zenodo.org:274939</identifier>
      <datestamp>2017-02-08T14:52:51Z</datestamp>
      <setSpec>user-biosyslit</setSpec>
    </header>
    <header>
      <identifier>oai:zenodo.org:274937</identifier>
      <datestamp>2017-02-08T14:52:46Z</datestamp>
      <setSpec>user-biosyslit</setSpec>
    </header>
    <header>
      <identifier>oai:zenodo.org:274936</identifier>
      <datestamp>2017-02-08T14:52:44Z</datestamp>
      <setSpec>user-biosyslit</setSpec>
    </header>
    <header>
      <identifier>oai:zenodo.org:274942</identifier>
      <datestamp>2017-02-08T14:52:58Z</datestamp>
      <setSpec>user-biosyslit</setSpec>
    </header>
    <header>
      <identifier>oai:zenodo.org:274938</identifier>
      <datestamp>2017-02-08T14:52:49Z</datestamp>
      <setSpec>user-biosyslit</setSpec>
    </header>
    <header>
      <identifier>oai:zenodo.org:274934</identifier>
      <datestamp>2017-02-08T14:52:39Z</datestamp>
      <setSpec>user-biosyslit</setSpec>
    </header>
    <header>
      <identifier>oai:zenodo.org:280637</identifier>
      <datestamp>2017-02-09T03:46:34Z</datestamp>
      <setSpec>user-biosyslit</setSpec>
    </header>
    <header>
      <identifier>oai:zenodo.org:280627</identifier>
      <datestamp>2017-02-09T03:46:05Z</datestamp>
      <setSpec>user-biosyslit</setSpec>
    </header>
    <header>
      <identifier>oai:zenodo.org:280639</identifier>
      <datestamp>2017-02-09T03:46:41Z</datestamp>
      <setSpec>user-biosyslit</setSpec>
    </header>
    <header>
      <identifier>oai:zenodo.org:280630</identifier>
      <datestamp>2017-02-09T03:46:14Z</datestamp>
      <setSpec>user-biosyslit</setSpec>
    </header>
    <header>
      <identifier>oai:zenodo.org:280636</identifier>
      <datestamp>2017-02-09T03:46:31Z</datestamp>
      <setSpec>user-biosyslit</setSpec>
    </header>
    <header>
      <identifier>oai:zenodo.org:280632</identifier>
      <datestamp>2017-02-09T03:46:20Z</datestamp>
      <setSpec>user-biosyslit</setSpec>
    </header>
    <header>
      <identifier>oai:zenodo.org:280631</identifier>
      <datestamp>2017-02-09T03:46:17Z</datestamp>
      <setSpec>user-biosyslit</setSpec>
    </header>
    <header>
      <identifier>oai:zenodo.org:280640</identifier>
      <datestamp>2017-02-09T03:46:43Z</datestamp>
      <setSpec>user-biosyslit</setSpec>
    </header>
    <header>
      <identifier>oai:zenodo.org:280641</identifier>
      <datestamp>2017-02-09T03:46:46Z</datestamp>
      <setSpec>user-biosyslit</setSpec>
    </header>
    <header>
      <identifier>oai:zenodo.org:249924</identifier>
      <datestamp>2017-01-18T01:56:41Z</datestamp>
      <setSpec>user-biosyslit</setSpec>
    </header>
    <header>
      <identifier>oai:zenodo.org:249926</identifier>
      <datestamp>2017-01-18T01:56:51Z</datestamp>
      <setSpec>user-biosyslit</setSpec>
    </header>
    <header>
      <identifier>oai:zenodo.org:249930</identifier>
      <datestamp>2017-01-18T01:57:08Z</datestamp>
      <setSpec>user-biosyslit</setSpec>
    </header>
    <header>
      <identifier>oai:zenodo.org:249929</identifier>
      <datestamp>2017-01-18T01:57:04Z</datestamp>
      <setSpec>user-biosyslit</setSpec>
    </header>
    <header>
      <identifier>oai:zenodo.org:249931</identifier>
      <datestamp>2017-01-18T01:57:12Z</datestamp>
      <setSpec>user-biosyslit</setSpec>
    </header>
    <header>
      <identifier>oai:zenodo.org:249925</identifier>
      <datestamp>2017-01-18T01:56:45Z</datestamp>
      <setSpec>user-biosyslit</setSpec>
    </header>
    <header>
      <identifier>oai:zenodo.org:238360</identifier>
      <datestamp>2017-01-11T04:51:15Z</datestamp>
      <setSpec>user-biosyslit</setSpec>
    </header>
    <header>
      <identifier>oai:zenodo.org:238365</identifier>
      <datestamp>2017-01-11T04:51:03Z</datestamp>
      <setSpec>user-biosyslit</setSpec>
    </header>
    <header>
      <identifier>oai:zenodo.org:238369</identifier>
      <datestamp>2017-01-11T04:51:13Z</datestamp>
      <setSpec>user-biosyslit</setSpec>
    </header>
    <header>
      <identifier>oai:zenodo.org:238367</identifier>
      <datestamp>2017-01-11T04:51:07Z</datestamp>
      <setSpec>user-biosyslit</setSpec>
    </header>
    <header>
      <identifier>oai:zenodo.org:286117</identifier>
      <datestamp>2017-02-09T15:16:02Z</datestamp>
      <setSpec>user-biosyslit</setSpec>
    </header>
    <header>
      <identifier>oai:zenodo.org:238368</identifier>
      <datestamp>2017-01-11T04:51:09Z</datestamp>
      <setSpec>user-biosyslit</setSpec>
    </header>
    <header>
      <identifier>oai:zenodo.org:238361</identifier>
      <datestamp>2017-01-11T04:50:47Z</datestamp>
      <setSpec>user-biosyslit</setSpec>
    </header>
    <header>
      <identifier>oai:zenodo.org:251831</identifier>
      <datestamp>2017-01-19T05:08:44Z</datestamp>
      <setSpec>user-biosyslit</setSpec>
    </header>
    <header>
      <identifier>oai:zenodo.org:251830</identifier>
      <datestamp>2017-01-19T05:08:41Z</datestamp>
      <setSpec>user-biosyslit</setSpec>
    </header>
    <header>
      <identifier>oai:zenodo.org:229687</identifier>
      <datestamp>2017-01-03T20:38:39Z</datestamp>
      <setSpec>user-biosyslit</setSpec>
    </header>
    <header>
      <identifier>oai:zenodo.org:248027</identifier>
      <datestamp>2017-01-16T23:00:32Z</datestamp>
      <setSpec>user-biosyslit</setSpec>
    </header>
    <header>
      <identifier>oai:zenodo.org:248031</identifier>
      <datestamp>2017-01-16T23:00:49Z</datestamp>
      <setSpec>user-biosyslit</setSpec>
    </header>
    <header>
      <identifier>oai:zenodo.org:248030</identifier>
      <datestamp>2017-01-16T23:00:44Z</datestamp>
      <setSpec>user-biosyslit</setSpec>
    </header>
    <header>
      <identifier>oai:zenodo.org:278779</identifier>
      <datestamp>2017-02-08T23:52:33Z</datestamp>
      <setSpec>user-biosyslit</setSpec>
    </header>
    <header>
      <identifier>oai:zenodo.org:236209</identifier>
      <datestamp>2017-01-09T19:27:51Z</datestamp>
      <setSpec>user-biosyslit</setSpec>
    </header>
    <header>
      <identifier>oai:zenodo.org:236212</identifier>
      <datestamp>2017-01-09T19:28:00Z</datestamp>
      <setSpec>user-biosyslit</setSpec>
    </header>
    <header>
      <identifier>oai:zenodo.org:236208</identifier>
      <datestamp>2017-01-09T19:27:49Z</datestamp>
      <setSpec>user-biosyslit</setSpec>
    </header>
    <header>
      <identifier>oai:zenodo.org:278780</identifier>
      <datestamp>2017-02-08T23:52:26Z</datestamp>
      <setSpec>user-biosyslit</setSpec>
    </header>
    <header>
      <identifier>oai:zenodo.org:236211</identifier>
      <datestamp>2017-01-09T19:27:57Z</datestamp>
      <setSpec>user-biosyslit</setSpec>
    </header>
    <header>
      <identifier>oai:zenodo.org:244176</identifier>
      <datestamp>2017-01-14T17:16:36Z</datestamp>
      <setSpec>user-biosyslit</setSpec>
    </header>
    <header>
      <identifier>oai:zenodo.org:236370</identifier>
      <datestamp>2017-01-09T23:22:43Z</datestamp>
      <setSpec>user-biosyslit</setSpec>
    </header>
    <header>
      <identifier>oai:zenodo.org:236367</identifier>
      <datestamp>2017-01-09T23:22:32Z</datestamp>
      <setSpec>user-biosyslit</setSpec>
    </header>
    <header>
      <identifier>oai:zenodo.org:236368</identifier>
      <datestamp>2017-01-09T23:22:36Z</datestamp>
      <setSpec>user-biosyslit</setSpec>
    </header>
    <header>
      <identifier>oai:zenodo.org:274761</identifier>
      <datestamp>2017-02-08T14:13:25Z</datestamp>
      <setSpec>user-biosyslit</setSpec>
    </header>
    <header>
      <identifier>oai:zenodo.org:279252</identifier>
      <datestamp>2017-02-09T00:54:32Z</datestamp>
      <setSpec>user-biosyslit</setSpec>
    </header>
    <header>
      <identifier>oai:zenodo.org:274760</identifier>
      <datestamp>2017-02-08T14:13:23Z</datestamp>
      <setSpec>user-biosyslit</setSpec>
    </header>
    <header>
      <identifier>oai:zenodo.org:274759</identifier>
      <datestamp>2017-02-08T14:13:21Z</datestamp>
      <setSpec>user-biosyslit</setSpec>
    </header>
    <header>
      <identifier>oai:zenodo.org:238607</identifier>
      <datestamp>2017-01-11T08:05:49Z</datestamp>
      <setSpec>user-biosyslit</setSpec>
    </header>
    <header>
      <identifier>oai:zenodo.org:238602</identifier>
      <datestamp>2017-01-11T08:05:25Z</datestamp>
      <setSpec>user-biosyslit</setSpec>
    </header>
    <header>
      <identifier>oai:zenodo.org:238604</identifier>
      <datestamp>2017-01-11T08:05:34Z</datestamp>
      <setSpec>user-biosyslit</setSpec>
    </header>
    <header>
      <identifier>oai:zenodo.org:238603</identifier>
      <datestamp>2017-01-11T08:05:29Z</datestamp>
      <setSpec>user-biosyslit</setSpec>
    </header>
    <header>
      <identifier>oai:zenodo.org:238601</identifier>
      <datestamp>2017-01-11T08:05:19Z</datestamp>
      <setSpec>user-biosyslit</setSpec>
    </header>
    <header>
      <identifier>oai:zenodo.org:231515</identifier>
      <datestamp>2017-01-06T03:18:59Z</datestamp>
      <setSpec>user-biosyslit</setSpec>
    </header>
    <header>
      <identifier>oai:zenodo.org:243802</identifier>
      <datestamp>2017-01-14T11:16:18Z</datestamp>
      <setSpec>user-biosyslit</setSpec>
    </header>
    <header>
      <identifier>oai:zenodo.org:243804</identifier>
      <datestamp>2017-01-14T11:16:28Z</datestamp>
      <setSpec>user-biosyslit</setSpec>
    </header>
    <header>
      <identifier>oai:zenodo.org:243810</identifier>
      <datestamp>2017-01-14T11:16:51Z</datestamp>
      <setSpec>user-biosyslit</setSpec>
    </header>
    <header>
      <identifier>oai:zenodo.org:243806</identifier>
      <datestamp>2017-01-14T11:16:37Z</datestamp>
      <setSpec>user-biosyslit</setSpec>
    </header>
    <header>
      <identifier>oai:zenodo.org:243809</identifier>
      <datestamp>2017-01-14T11:16:47Z</datestamp>
      <setSpec>user-biosyslit</setSpec>
    </header>
    <header>
      <identifier>oai:zenodo.org:243822</identifier>
      <datestamp>2017-01-14T11:17:34Z</datestamp>
      <setSpec>user-biosyslit</setSpec>
    </header>
    <header>
      <identifier>oai:zenodo.org:243821</identifier>
      <datestamp>2017-01-14T11:17:29Z</datestamp>
      <setSpec>user-biosyslit</setSpec>
    </header>
    <header>
      <identifier>oai:zenodo.org:243814</identifier>
      <datestamp>2017-01-14T11:17:03Z</datestamp>
      <setSpec>user-biosyslit</setSpec>
    </header>
    <header>
      <identifier>oai:zenodo.org:281568</identifier>
      <datestamp>2017-02-09T05:33:05Z</datestamp>
      <setSpec>user-biosyslit</setSpec>
    </header>
    <header>
      <identifier>oai:zenodo.org:281572</identifier>
      <datestamp>2017-02-09T05:32:59Z</datestamp>
      <setSpec>user-biosyslit</setSpec>
    </header>
    <header>
      <identifier>oai:zenodo.org:243798</identifier>
      <datestamp>2017-01-14T11:16:02Z</datestamp>
      <setSpec>user-biosyslit</setSpec>
    </header>
    <header>
      <identifier>oai:zenodo.org:243801</identifier>
      <datestamp>2017-01-14T11:16:14Z</datestamp>
      <setSpec>user-biosyslit</setSpec>
    </header>
    <header>
      <identifier>oai:zenodo.org:264769</identifier>
      <datestamp>2017-01-31T02:25:22Z</datestamp>
      <setSpec>user-biosyslit</setSpec>
    </header>
    <header>
      <identifier>oai:zenodo.org:264770</identifier>
      <datestamp>2017-01-31T02:25:25Z</datestamp>
      <setSpec>user-biosyslit</setSpec>
    </header>
    <header>
      <identifier>oai:zenodo.org:264771</identifier>
      <datestamp>2017-01-31T02:25:29Z</datestamp>
      <setSpec>user-biosyslit</setSpec>
    </header>
    <header>
      <identifier>oai:zenodo.org:264768</identifier>
      <datestamp>2017-01-31T02:25:18Z</datestamp>
      <setSpec>user-biosyslit</setSpec>
    </header>
    <header>
      <identifier>oai:zenodo.org:285294</identifier>
      <datestamp>2017-02-09T13:14:50Z</datestamp>
      <setSpec>user-biosyslit</setSpec>
    </header>
    <header>
      <identifier>oai:zenodo.org:238646</identifier>
      <datestamp>2017-01-11T08:36:41Z</datestamp>
      <setSpec>user-biosyslit</setSpec>
    </header>
    <header>
      <identifier>oai:zenodo.org:238648</identifier>
      <datestamp>2017-01-11T08:36:49Z</datestamp>
      <setSpec>user-biosyslit</setSpec>
    </header>
    <header>
      <identifier>oai:zenodo.org:285303</identifier>
      <datestamp>2017-02-09T13:14:40Z</datestamp>
      <setSpec>user-biosyslit</setSpec>
    </header>
    <header>
      <identifier>oai:zenodo.org:285304</identifier>
      <datestamp>2017-02-09T13:14:43Z</datestamp>
      <setSpec>user-biosyslit</setSpec>
    </header>
    <header>
      <identifier>oai:zenodo.org:273889</identifier>
      <datestamp>2017-02-08T11:08:26Z</datestamp>
      <setSpec>user-biosyslit</setSpec>
    </header>
    <header>
      <identifier>oai:zenodo.org:265522</identifier>
      <datestamp>2017-01-31T15:38:36Z</datestamp>
      <setSpec>user-biosyslit</setSpec>
    </header>
    <header>
      <identifier>oai:zenodo.org:265523</identifier>
      <datestamp>2017-01-31T15:38:39Z</datestamp>
      <setSpec>user-biosyslit</setSpec>
    </header>
    <header>
      <identifier>oai:zenodo.org:265514</identifier>
      <datestamp>2017-01-31T15:38:11Z</datestamp>
      <setSpec>user-biosyslit</setSpec>
    </header>
    <header>
      <identifier>oai:zenodo.org:265516</identifier>
      <datestamp>2017-01-31T15:38:19Z</datestamp>
      <setSpec>user-biosyslit</setSpec>
    </header>
    <header>
      <identifier>oai:zenodo.org:265521</identifier>
      <datestamp>2017-01-31T15:38:33Z</datestamp>
      <setSpec>user-biosyslit</setSpec>
    </header>
    <header>
      <identifier>oai:zenodo.org:265515</identifier>
      <datestamp>2017-01-31T15:38:15Z</datestamp>
      <setSpec>user-biosyslit</setSpec>
    </header>
    <header>
      <identifier>oai:zenodo.org:265525</identifier>
      <datestamp>2017-01-31T15:38:45Z</datestamp>
      <setSpec>user-biosyslit</setSpec>
    </header>
    <header>
      <identifier>oai:zenodo.org:265524</identifier>
      <datestamp>2017-01-31T15:38:42Z</datestamp>
      <setSpec>user-biosyslit</setSpec>
    </header>
    <header>
      <identifier>oai:zenodo.org:265519</identifier>
      <datestamp>2017-01-31T15:38:27Z</datestamp>
      <setSpec>user-biosyslit</setSpec>
    </header>
    <header>
      <identifier>oai:zenodo.org:234757</identifier>
      <datestamp>2017-01-09T01:52:56Z</datestamp>
      <setSpec>user-biosyslit</setSpec>
    </header>
    <header>
      <identifier>oai:zenodo.org:271759</identifier>
      <datestamp>2017-02-08T02:34:12Z</datestamp>
      <setSpec>user-biosyslit</setSpec>
    </header>
    <header>
      <identifier>oai:zenodo.org:271760</identifier>
      <datestamp>2017-02-08T02:34:15Z</datestamp>
      <setSpec>user-biosyslit</setSpec>
    </header>
    <header>
      <identifier>oai:zenodo.org:234758</identifier>
      <datestamp>2017-01-09T01:52:47Z</datestamp>
      <setSpec>user-biosyslit</setSpec>
    </header>
    <header>
      <identifier>oai:zenodo.org:270323</identifier>
      <datestamp>2017-02-07T23:00:52Z</datestamp>
      <setSpec>user-biosyslit</setSpec>
    </header>
    <header>
      <identifier>oai:zenodo.org:270326</identifier>
      <datestamp>2017-02-07T23:00:47Z</datestamp>
      <setSpec>user-biosyslit</setSpec>
    </header>
    <resumptionToken expirationDate="2017-08-31T15:44:53Z" cursor="29000" completeListSize="77796">.eJyNz00PQzAAgOH_0rMsbc1nsoswcUDoKuOyGCKmTHQLKv77XHbezu9zeVfAq6oEJjzoUFc1RTUMRVWOGGMJ8GJ8MnZr9gyKa8KKntHcTd5xl8AU11pg89m3UzkQLQw7JMg5wlekz7SBS3Shr1TEcyJ7E4GO5otoCR7e7ko5dFl2dwdCe4sRXI6hEy0EWSSTi69Dfzrx09n8BCQw5HUFTGzsV-2UjzUH5rptH6mYUUw.DIm__Q.mChD4oF5yziixgbMYj24IJEznDA</resumptionToken>
  </ListIdentifiers>
</OAI-PMH>
