<?xml version='1.0' encoding='UTF-8'?>
<?xml-stylesheet type="text/xsl" href="/static/xsl/oai2.v1.0.xsl"?>
<OAI-PMH xmlns="http://www.openarchives.org/OAI/2.0/" xmlns:xsi="http://www.w3.org/2001/XMLSchema-instance" xsi:schemaLocation="http://www.openarchives.org/OAI/2.0/ http://www.openarchives.org/OAI/2.0/OAI-PMH.xsd">
  <responseDate>2017-08-31T15:42:41Z</responseDate>
  <request verb="ListIdentifiers" resumptionToken=".eJyNyj0LgkAYAOD_8s4S91F5Ci1hiUPKeSnpEqYi5lniFepJ_72W5pqfZwZVlgXYaLFklFlktTapZTHTWhqg8v4u5bn-MOSnWOY3GWVu_AzbGCWkMn1HjQcnob5uUNBiLfacnDAboxpN_Bg9Eh2OMfUGgXbmQfPJv3qfV9DAlenF7UR020pBij7Y8UngrUhp_n34z6d_PkdtwIAuq0qwyYoZ0AxZXymw59frDbjYUV8.DIm_8Q.UUHc17An_A6CTF8WYtgcMWag0gM">https://zenodo.org/oai2d</request>
  <ListIdentifiers>
    <header>
      <identifier>oai:zenodo.org:242789</identifier>
      <datestamp>2017-01-13T19:32:26Z</datestamp>
      <setSpec>user-biosyslit</setSpec>
    </header>
    <header>
      <identifier>oai:zenodo.org:242788</identifier>
      <datestamp>2017-01-13T19:32:24Z</datestamp>
      <setSpec>user-biosyslit</setSpec>
    </header>
    <header>
      <identifier>oai:zenodo.org:242774</identifier>
      <datestamp>2017-01-13T19:31:42Z</datestamp>
      <setSpec>user-biosyslit</setSpec>
    </header>
    <header>
      <identifier>oai:zenodo.org:242818</identifier>
      <datestamp>2017-01-13T19:34:00Z</datestamp>
      <setSpec>user-biosyslit</setSpec>
    </header>
    <header>
      <identifier>oai:zenodo.org:242836</identifier>
      <datestamp>2017-01-13T19:35:04Z</datestamp>
      <setSpec>user-biosyslit</setSpec>
    </header>
    <header>
      <identifier>oai:zenodo.org:242819</identifier>
      <datestamp>2017-01-13T19:34:05Z</datestamp>
      <setSpec>user-biosyslit</setSpec>
    </header>
    <header>
      <identifier>oai:zenodo.org:242834</identifier>
      <datestamp>2017-01-13T19:34:59Z</datestamp>
      <setSpec>user-biosyslit</setSpec>
    </header>
    <header>
      <identifier>oai:zenodo.org:242838</identifier>
      <datestamp>2017-01-13T19:35:10Z</datestamp>
      <setSpec>user-biosyslit</setSpec>
    </header>
    <header>
      <identifier>oai:zenodo.org:242833</identifier>
      <datestamp>2017-01-13T19:34:56Z</datestamp>
      <setSpec>user-biosyslit</setSpec>
    </header>
    <header>
      <identifier>oai:zenodo.org:242830</identifier>
      <datestamp>2017-01-13T19:34:36Z</datestamp>
      <setSpec>user-biosyslit</setSpec>
    </header>
    <header>
      <identifier>oai:zenodo.org:242829</identifier>
      <datestamp>2017-01-13T19:34:34Z</datestamp>
      <setSpec>user-biosyslit</setSpec>
    </header>
    <header>
      <identifier>oai:zenodo.org:242827</identifier>
      <datestamp>2017-01-13T19:34:29Z</datestamp>
      <setSpec>user-biosyslit</setSpec>
    </header>
    <header>
      <identifier>oai:zenodo.org:259923</identifier>
      <datestamp>2017-01-25T17:32:14Z</datestamp>
      <setSpec>user-biosyslit</setSpec>
    </header>
    <header>
      <identifier>oai:zenodo.org:259914</identifier>
      <datestamp>2017-01-25T17:32:32Z</datestamp>
      <setSpec>user-biosyslit</setSpec>
    </header>
    <header>
      <identifier>oai:zenodo.org:278935</identifier>
      <datestamp>2017-02-09T00:12:16Z</datestamp>
      <setSpec>user-biosyslit</setSpec>
    </header>
    <header>
      <identifier>oai:zenodo.org:259928</identifier>
      <datestamp>2017-01-25T17:32:31Z</datestamp>
      <setSpec>user-biosyslit</setSpec>
    </header>
    <header>
      <identifier>oai:zenodo.org:259916</identifier>
      <datestamp>2017-01-25T17:31:43Z</datestamp>
      <setSpec>user-biosyslit</setSpec>
    </header>
    <header>
      <identifier>oai:zenodo.org:259920</identifier>
      <datestamp>2017-01-25T17:32:01Z</datestamp>
      <setSpec>user-biosyslit</setSpec>
    </header>
    <header>
      <identifier>oai:zenodo.org:259917</identifier>
      <datestamp>2017-01-25T17:31:47Z</datestamp>
      <setSpec>user-biosyslit</setSpec>
    </header>
    <header>
      <identifier>oai:zenodo.org:259919</identifier>
      <datestamp>2017-01-25T17:31:55Z</datestamp>
      <setSpec>user-biosyslit</setSpec>
    </header>
    <header>
      <identifier>oai:zenodo.org:278934</identifier>
      <datestamp>2017-02-09T00:12:14Z</datestamp>
      <setSpec>user-biosyslit</setSpec>
    </header>
    <header>
      <identifier>oai:zenodo.org:278942</identifier>
      <datestamp>2017-02-09T00:12:34Z</datestamp>
      <setSpec>user-biosyslit</setSpec>
    </header>
    <header>
      <identifier>oai:zenodo.org:278932</identifier>
      <datestamp>2017-02-09T00:12:07Z</datestamp>
      <setSpec>user-biosyslit</setSpec>
    </header>
    <header>
      <identifier>oai:zenodo.org:289176</identifier>
      <datestamp>2017-02-09T22:53:51Z</datestamp>
      <setSpec>user-biosyslit</setSpec>
    </header>
    <header>
      <identifier>oai:zenodo.org:289181</identifier>
      <datestamp>2017-02-09T22:53:42Z</datestamp>
      <setSpec>user-biosyslit</setSpec>
    </header>
    <header>
      <identifier>oai:zenodo.org:289184</identifier>
      <datestamp>2017-02-09T22:53:50Z</datestamp>
      <setSpec>user-biosyslit</setSpec>
    </header>
    <header>
      <identifier>oai:zenodo.org:289178</identifier>
      <datestamp>2017-02-09T22:53:34Z</datestamp>
      <setSpec>user-biosyslit</setSpec>
    </header>
    <header>
      <identifier>oai:zenodo.org:243334</identifier>
      <datestamp>2017-01-14T02:48:16Z</datestamp>
      <setSpec>user-biosyslit</setSpec>
    </header>
    <header>
      <identifier>oai:zenodo.org:243335</identifier>
      <datestamp>2017-01-14T02:48:19Z</datestamp>
      <setSpec>user-biosyslit</setSpec>
    </header>
    <header>
      <identifier>oai:zenodo.org:243332</identifier>
      <datestamp>2017-01-14T02:48:36Z</datestamp>
      <setSpec>user-biosyslit</setSpec>
    </header>
    <header>
      <identifier>oai:zenodo.org:243333</identifier>
      <datestamp>2017-01-14T02:48:13Z</datestamp>
      <setSpec>user-biosyslit</setSpec>
    </header>
    <header>
      <identifier>oai:zenodo.org:400299</identifier>
      <datestamp>2017-03-16T19:00:49Z</datestamp>
      <setSpec>user-biosyslit</setSpec>
    </header>
    <header>
      <identifier>oai:zenodo.org:243339</identifier>
      <datestamp>2017-01-14T02:48:32Z</datestamp>
      <setSpec>user-biosyslit</setSpec>
    </header>
    <header>
      <identifier>oai:zenodo.org:244485</identifier>
      <datestamp>2017-01-14T22:42:33Z</datestamp>
      <setSpec>user-biosyslit</setSpec>
    </header>
    <header>
      <identifier>oai:zenodo.org:244488</identifier>
      <datestamp>2017-01-14T22:42:51Z</datestamp>
      <setSpec>user-biosyslit</setSpec>
    </header>
    <header>
      <identifier>oai:zenodo.org:244486</identifier>
      <datestamp>2017-01-14T22:42:39Z</datestamp>
      <setSpec>user-biosyslit</setSpec>
    </header>
    <header>
      <identifier>oai:zenodo.org:244490</identifier>
      <datestamp>2017-01-14T22:42:58Z</datestamp>
      <setSpec>user-biosyslit</setSpec>
    </header>
    <header>
      <identifier>oai:zenodo.org:244487</identifier>
      <datestamp>2017-01-14T22:42:46Z</datestamp>
      <setSpec>user-biosyslit</setSpec>
    </header>
    <header>
      <identifier>oai:zenodo.org:244492</identifier>
      <datestamp>2017-01-14T22:43:05Z</datestamp>
      <setSpec>user-biosyslit</setSpec>
    </header>
    <header>
      <identifier>oai:zenodo.org:252727</identifier>
      <datestamp>2017-01-19T19:11:59Z</datestamp>
      <setSpec>user-biosyslit</setSpec>
    </header>
    <header>
      <identifier>oai:zenodo.org:252735</identifier>
      <datestamp>2017-01-19T19:11:43Z</datestamp>
      <setSpec>user-biosyslit</setSpec>
    </header>
    <header>
      <identifier>oai:zenodo.org:252731</identifier>
      <datestamp>2017-01-19T19:11:34Z</datestamp>
      <setSpec>user-biosyslit</setSpec>
    </header>
    <header>
      <identifier>oai:zenodo.org:252737</identifier>
      <datestamp>2017-01-19T19:11:47Z</datestamp>
      <setSpec>user-biosyslit</setSpec>
    </header>
    <header>
      <identifier>oai:zenodo.org:252738</identifier>
      <datestamp>2017-01-19T19:11:49Z</datestamp>
      <setSpec>user-biosyslit</setSpec>
    </header>
    <header>
      <identifier>oai:zenodo.org:252730</identifier>
      <datestamp>2017-01-19T19:11:31Z</datestamp>
      <setSpec>user-biosyslit</setSpec>
    </header>
    <header>
      <identifier>oai:zenodo.org:252736</identifier>
      <datestamp>2017-01-19T19:11:45Z</datestamp>
      <setSpec>user-biosyslit</setSpec>
    </header>
    <header>
      <identifier>oai:zenodo.org:810611</identifier>
      <datestamp>2017-06-19T07:20:35Z</datestamp>
      <setSpec>user-biosyslit</setSpec>
    </header>
    <header>
      <identifier>oai:zenodo.org:810607</identifier>
      <datestamp>2017-06-19T07:20:29Z</datestamp>
      <setSpec>user-biosyslit</setSpec>
    </header>
    <header>
      <identifier>oai:zenodo.org:810683</identifier>
      <datestamp>2017-06-19T07:27:52Z</datestamp>
      <setSpec>user-biosyslit</setSpec>
    </header>
    <header>
      <identifier>oai:zenodo.org:810669</identifier>
      <datestamp>2017-06-19T07:22:01Z</datestamp>
      <setSpec>user-biosyslit</setSpec>
    </header>
    <header>
      <identifier>oai:zenodo.org:810657</identifier>
      <datestamp>2017-06-19T07:21:42Z</datestamp>
      <setSpec>user-biosyslit</setSpec>
    </header>
    <header>
      <identifier>oai:zenodo.org:810681</identifier>
      <datestamp>2017-06-19T07:27:48Z</datestamp>
      <setSpec>user-biosyslit</setSpec>
    </header>
    <header>
      <identifier>oai:zenodo.org:810663</identifier>
      <datestamp>2017-06-19T07:21:52Z</datestamp>
      <setSpec>user-biosyslit</setSpec>
    </header>
    <header>
      <identifier>oai:zenodo.org:810661</identifier>
      <datestamp>2017-06-19T07:21:49Z</datestamp>
      <setSpec>user-biosyslit</setSpec>
    </header>
    <header>
      <identifier>oai:zenodo.org:810749</identifier>
      <datestamp>2017-06-19T08:07:51Z</datestamp>
      <setSpec>user-biosyslit</setSpec>
    </header>
    <header>
      <identifier>oai:zenodo.org:810755</identifier>
      <datestamp>2017-06-19T08:07:44Z</datestamp>
      <setSpec>user-biosyslit</setSpec>
    </header>
    <header>
      <identifier>oai:zenodo.org:810769</identifier>
      <datestamp>2017-06-19T08:12:27Z</datestamp>
      <setSpec>user-biosyslit</setSpec>
    </header>
    <header>
      <identifier>oai:zenodo.org:810767</identifier>
      <datestamp>2017-06-19T08:12:24Z</datestamp>
      <setSpec>user-biosyslit</setSpec>
    </header>
    <header>
      <identifier>oai:zenodo.org:288682</identifier>
      <datestamp>2017-02-09T21:42:44Z</datestamp>
      <setSpec>user-biosyslit</setSpec>
    </header>
    <header>
      <identifier>oai:zenodo.org:231721</identifier>
      <datestamp>2017-01-06T06:23:16Z</datestamp>
      <setSpec>user-biosyslit</setSpec>
    </header>
    <header>
      <identifier>oai:zenodo.org:231720</identifier>
      <datestamp>2017-01-06T06:23:13Z</datestamp>
      <setSpec>user-biosyslit</setSpec>
    </header>
    <header>
      <identifier>oai:zenodo.org:288683</identifier>
      <datestamp>2017-02-09T21:42:46Z</datestamp>
      <setSpec>user-biosyslit</setSpec>
    </header>
    <header>
      <identifier>oai:zenodo.org:288687</identifier>
      <datestamp>2017-02-09T21:42:57Z</datestamp>
      <setSpec>user-biosyslit</setSpec>
    </header>
    <header>
      <identifier>oai:zenodo.org:288688</identifier>
      <datestamp>2017-02-09T21:42:59Z</datestamp>
      <setSpec>user-biosyslit</setSpec>
    </header>
    <header>
      <identifier>oai:zenodo.org:288686</identifier>
      <datestamp>2017-02-09T21:42:55Z</datestamp>
      <setSpec>user-biosyslit</setSpec>
    </header>
    <header>
      <identifier>oai:zenodo.org:245082</identifier>
      <datestamp>2017-01-15T07:25:29Z</datestamp>
      <setSpec>user-biosyslit</setSpec>
    </header>
    <header>
      <identifier>oai:zenodo.org:245081</identifier>
      <datestamp>2017-01-15T07:25:24Z</datestamp>
      <setSpec>user-biosyslit</setSpec>
    </header>
    <header>
      <identifier>oai:zenodo.org:245080</identifier>
      <datestamp>2017-01-15T07:25:20Z</datestamp>
      <setSpec>user-biosyslit</setSpec>
    </header>
    <header>
      <identifier>oai:zenodo.org:245084</identifier>
      <datestamp>2017-01-15T07:25:37Z</datestamp>
      <setSpec>user-biosyslit</setSpec>
    </header>
    <header>
      <identifier>oai:zenodo.org:235725</identifier>
      <datestamp>2017-01-09T14:06:19Z</datestamp>
      <setSpec>user-biosyslit</setSpec>
    </header>
    <header>
      <identifier>oai:zenodo.org:242468</identifier>
      <datestamp>2017-01-13T15:29:59Z</datestamp>
      <setSpec>user-biosyslit</setSpec>
    </header>
    <header>
      <identifier>oai:zenodo.org:249020</identifier>
      <datestamp>2017-01-17T15:17:13Z</datestamp>
      <setSpec>user-biosyslit</setSpec>
    </header>
    <header>
      <identifier>oai:zenodo.org:265072</identifier>
      <datestamp>2017-01-31T07:21:23Z</datestamp>
      <setSpec>user-biosyslit</setSpec>
    </header>
    <header>
      <identifier>oai:zenodo.org:265075</identifier>
      <datestamp>2017-01-31T07:21:33Z</datestamp>
      <setSpec>user-biosyslit</setSpec>
    </header>
    <header>
      <identifier>oai:zenodo.org:262655</identifier>
      <datestamp>2017-01-29T07:00:41Z</datestamp>
      <setSpec>user-biosyslit</setSpec>
    </header>
    <header>
      <identifier>oai:zenodo.org:262682</identifier>
      <datestamp>2017-01-29T07:00:40Z</datestamp>
      <setSpec>user-biosyslit</setSpec>
    </header>
    <header>
      <identifier>oai:zenodo.org:262680</identifier>
      <datestamp>2017-01-29T07:00:35Z</datestamp>
      <setSpec>user-biosyslit</setSpec>
    </header>
    <header>
      <identifier>oai:zenodo.org:237104</identifier>
      <datestamp>2017-01-10T10:47:49Z</datestamp>
      <setSpec>user-biosyslit</setSpec>
    </header>
    <header>
      <identifier>oai:zenodo.org:231903</identifier>
      <datestamp>2017-01-06T08:30:29Z</datestamp>
      <setSpec>user-biosyslit</setSpec>
    </header>
    <header>
      <identifier>oai:zenodo.org:231904</identifier>
      <datestamp>2017-01-06T08:30:31Z</datestamp>
      <setSpec>user-biosyslit</setSpec>
    </header>
    <header>
      <identifier>oai:zenodo.org:231902</identifier>
      <datestamp>2017-01-06T08:30:26Z</datestamp>
      <setSpec>user-biosyslit</setSpec>
    </header>
    <header>
      <identifier>oai:zenodo.org:288837</identifier>
      <datestamp>2017-02-09T22:01:13Z</datestamp>
      <setSpec>user-biosyslit</setSpec>
    </header>
    <header>
      <identifier>oai:zenodo.org:288831</identifier>
      <datestamp>2017-02-09T22:00:58Z</datestamp>
      <setSpec>user-biosyslit</setSpec>
    </header>
    <header>
      <identifier>oai:zenodo.org:288833</identifier>
      <datestamp>2017-02-09T22:01:02Z</datestamp>
      <setSpec>user-biosyslit</setSpec>
    </header>
    <header>
      <identifier>oai:zenodo.org:288836</identifier>
      <datestamp>2017-02-09T22:01:10Z</datestamp>
      <setSpec>user-biosyslit</setSpec>
    </header>
    <header>
      <identifier>oai:zenodo.org:288839</identifier>
      <datestamp>2017-02-09T22:01:20Z</datestamp>
      <setSpec>user-biosyslit</setSpec>
    </header>
    <header>
      <identifier>oai:zenodo.org:288842</identifier>
      <datestamp>2017-02-09T22:01:28Z</datestamp>
      <setSpec>user-biosyslit</setSpec>
    </header>
    <header>
      <identifier>oai:zenodo.org:288841</identifier>
      <datestamp>2017-02-09T22:01:25Z</datestamp>
      <setSpec>user-biosyslit</setSpec>
    </header>
    <header>
      <identifier>oai:zenodo.org:288840</identifier>
      <datestamp>2017-02-09T22:01:22Z</datestamp>
      <setSpec>user-biosyslit</setSpec>
    </header>
    <header>
      <identifier>oai:zenodo.org:288830</identifier>
      <datestamp>2017-02-09T22:00:56Z</datestamp>
      <setSpec>user-biosyslit</setSpec>
    </header>
    <header>
      <identifier>oai:zenodo.org:288848</identifier>
      <datestamp>2017-02-09T22:01:44Z</datestamp>
      <setSpec>user-biosyslit</setSpec>
    </header>
    <header>
      <identifier>oai:zenodo.org:288858</identifier>
      <datestamp>2017-02-09T22:02:07Z</datestamp>
      <setSpec>user-biosyslit</setSpec>
    </header>
    <header>
      <identifier>oai:zenodo.org:288849</identifier>
      <datestamp>2017-02-09T22:01:46Z</datestamp>
      <setSpec>user-biosyslit</setSpec>
    </header>
    <header>
      <identifier>oai:zenodo.org:288856</identifier>
      <datestamp>2017-02-09T22:02:03Z</datestamp>
      <setSpec>user-biosyslit</setSpec>
    </header>
    <header>
      <identifier>oai:zenodo.org:288847</identifier>
      <datestamp>2017-02-09T22:01:41Z</datestamp>
      <setSpec>user-biosyslit</setSpec>
    </header>
    <header>
      <identifier>oai:zenodo.org:288857</identifier>
      <datestamp>2017-02-09T22:02:05Z</datestamp>
      <setSpec>user-biosyslit</setSpec>
    </header>
    <header>
      <identifier>oai:zenodo.org:288844</identifier>
      <datestamp>2017-02-09T22:01:35Z</datestamp>
      <setSpec>user-biosyslit</setSpec>
    </header>
    <header>
      <identifier>oai:zenodo.org:288855</identifier>
      <datestamp>2017-02-09T22:02:00Z</datestamp>
      <setSpec>user-biosyslit</setSpec>
    </header>
    <header>
      <identifier>oai:zenodo.org:288850</identifier>
      <datestamp>2017-02-09T22:01:50Z</datestamp>
      <setSpec>user-biosyslit</setSpec>
    </header>
    <header>
      <identifier>oai:zenodo.org:282357</identifier>
      <datestamp>2017-02-09T06:52:21Z</datestamp>
      <setSpec>user-biosyslit</setSpec>
    </header>
    <resumptionToken expirationDate="2017-08-31T15:44:41Z" cursor="25700" completeListSize="77796">.eJyNysEKgjAYAOB3-c8S235SE7qIJR1S1lLUS5iKWMvEFenCd89L5zp_3xtUVZXgkAXaJqJlo0Vtxigy0wBV9HcpT83sUCSxLFoZ5X78PNxikrLaCjw17L0UA30l4Y1qseUsofYQNWTkx-iR6sMQ4-4lyMbaaz4Gl938Sgx9mZ39TkStKwUr-3DDR0FdkWHxffTPp38-T63BgC6vK3DYcmXA9ZX3tQLnPU0f0HBRdA.DIm_8Q.nZrRDGDeEK8BcG01klADUFP0Rt0</resumptionToken>
  </ListIdentifiers>
</OAI-PMH>
