<?xml version='1.0' encoding='UTF-8'?>
<?xml-stylesheet type="text/xsl" href="/static/xsl/oai2.v1.0.xsl"?>
<OAI-PMH xmlns="http://www.openarchives.org/OAI/2.0/" xmlns:xsi="http://www.w3.org/2001/XMLSchema-instance" xsi:schemaLocation="http://www.openarchives.org/OAI/2.0/ http://www.openarchives.org/OAI/2.0/OAI-PMH.xsd">
  <responseDate>2017-08-31T15:44:41Z</responseDate>
  <request verb="ListIdentifiers" resumptionToken=".eJyNyssKgkAUANB_uWuJeZQvaBOWuFDRSVE3YSpijhVOoY7477lpXetzZhBVVYKJNgbSiI6wsVUpIRqlCoiif3B-aVaGIol5cedRbsfvsItRSmrNs8ToWin1ZIv8Dkt2CkiC9TFq0BSco1cqwzGmzsDQUXNlMHk3Z30l9W2eXe0ni-4HzkjZ-8dgYvjAMlp8H_7zyZ_PEntQ4JnXFZg7qirQDnlfCzDnZfkAmOlROw.DInAaQ.4nGaQPX2XWq-BDJApqSPT0qxIpg">https://zenodo.org/oai2d</request>
  <ListIdentifiers>
    <header>
      <identifier>oai:zenodo.org:275259</identifier>
      <datestamp>2017-02-08T15:50:08Z</datestamp>
      <setSpec>user-biosyslit</setSpec>
    </header>
    <header>
      <identifier>oai:zenodo.org:226936</identifier>
      <datestamp>2017-01-01T06:59:58Z</datestamp>
      <setSpec>user-biosyslit</setSpec>
    </header>
    <header>
      <identifier>oai:zenodo.org:262533</identifier>
      <datestamp>2017-01-29T05:18:12Z</datestamp>
      <setSpec>user-biosyslit</setSpec>
    </header>
    <header>
      <identifier>oai:zenodo.org:263036</identifier>
      <datestamp>2017-01-29T15:04:53Z</datestamp>
      <setSpec>user-biosyslit</setSpec>
    </header>
    <header>
      <identifier>oai:zenodo.org:262539</identifier>
      <datestamp>2017-01-29T05:22:52Z</datestamp>
      <setSpec>user-biosyslit</setSpec>
    </header>
    <header>
      <identifier>oai:zenodo.org:262853</identifier>
      <datestamp>2017-01-29T10:07:44Z</datestamp>
      <setSpec>user-biosyslit</setSpec>
    </header>
    <header>
      <identifier>oai:zenodo.org:262910</identifier>
      <datestamp>2017-01-29T11:09:11Z</datestamp>
      <setSpec>user-biosyslit</setSpec>
    </header>
    <header>
      <identifier>oai:zenodo.org:262829</identifier>
      <datestamp>2017-01-29T09:56:03Z</datestamp>
      <setSpec>user-biosyslit</setSpec>
    </header>
    <header>
      <identifier>oai:zenodo.org:259181</identifier>
      <datestamp>2017-01-24T08:34:37Z</datestamp>
      <setSpec>user-biosyslit</setSpec>
    </header>
    <header>
      <identifier>oai:zenodo.org:259231</identifier>
      <datestamp>2017-01-24T09:07:26Z</datestamp>
      <setSpec>user-biosyslit</setSpec>
    </header>
    <header>
      <identifier>oai:zenodo.org:259164</identifier>
      <datestamp>2017-01-24T08:20:55Z</datestamp>
      <setSpec>user-biosyslit</setSpec>
    </header>
    <header>
      <identifier>oai:zenodo.org:259172</identifier>
      <datestamp>2017-01-24T08:26:33Z</datestamp>
      <setSpec>user-biosyslit</setSpec>
    </header>
    <header>
      <identifier>oai:zenodo.org:276060</identifier>
      <datestamp>2017-02-08T18:02:28Z</datestamp>
      <setSpec>user-biosyslit</setSpec>
    </header>
    <header>
      <identifier>oai:zenodo.org:274011</identifier>
      <datestamp>2017-02-08T11:47:30Z</datestamp>
      <setSpec>user-biosyslit</setSpec>
    </header>
    <header>
      <identifier>oai:zenodo.org:260769</identifier>
      <datestamp>2017-01-28T00:52:16Z</datestamp>
      <setSpec>user-biosyslit</setSpec>
    </header>
    <header>
      <identifier>oai:zenodo.org:259755</identifier>
      <datestamp>2017-01-25T15:45:01Z</datestamp>
      <setSpec>user-biosyslit</setSpec>
    </header>
    <header>
      <identifier>oai:zenodo.org:273535</identifier>
      <datestamp>2017-02-08T09:36:17Z</datestamp>
      <setSpec>user-biosyslit</setSpec>
    </header>
    <header>
      <identifier>oai:zenodo.org:260571</identifier>
      <datestamp>2017-01-27T22:07:01Z</datestamp>
      <setSpec>user-biosyslit</setSpec>
    </header>
    <header>
      <identifier>oai:zenodo.org:259694</identifier>
      <datestamp>2017-01-25T15:15:28Z</datestamp>
      <setSpec>user-biosyslit</setSpec>
    </header>
    <header>
      <identifier>oai:zenodo.org:259719</identifier>
      <datestamp>2017-01-25T15:32:11Z</datestamp>
      <setSpec>user-biosyslit</setSpec>
    </header>
    <header>
      <identifier>oai:zenodo.org:259789</identifier>
      <datestamp>2017-01-25T16:09:50Z</datestamp>
      <setSpec>user-biosyslit</setSpec>
    </header>
    <header>
      <identifier>oai:zenodo.org:259698</identifier>
      <datestamp>2017-01-25T15:15:27Z</datestamp>
      <setSpec>user-biosyslit</setSpec>
    </header>
    <header>
      <identifier>oai:zenodo.org:273620</identifier>
      <datestamp>2017-02-08T10:04:53Z</datestamp>
      <setSpec>user-biosyslit</setSpec>
    </header>
    <header>
      <identifier>oai:zenodo.org:260568</identifier>
      <datestamp>2017-01-27T22:06:55Z</datestamp>
      <setSpec>user-biosyslit</setSpec>
    </header>
    <header>
      <identifier>oai:zenodo.org:259935</identifier>
      <datestamp>2017-01-25T17:46:23Z</datestamp>
      <setSpec>user-biosyslit</setSpec>
    </header>
    <header>
      <identifier>oai:zenodo.org:260826</identifier>
      <datestamp>2017-01-28T01:12:43Z</datestamp>
      <setSpec>user-biosyslit</setSpec>
    </header>
    <header>
      <identifier>oai:zenodo.org:261070</identifier>
      <datestamp>2017-01-28T04:39:18Z</datestamp>
      <setSpec>user-biosyslit</setSpec>
    </header>
    <header>
      <identifier>oai:zenodo.org:260542</identifier>
      <datestamp>2017-01-27T21:34:08Z</datestamp>
      <setSpec>user-biosyslit</setSpec>
    </header>
    <header>
      <identifier>oai:zenodo.org:259942</identifier>
      <datestamp>2017-01-25T17:46:43Z</datestamp>
      <setSpec>user-biosyslit</setSpec>
    </header>
    <header>
      <identifier>oai:zenodo.org:261084</identifier>
      <datestamp>2017-01-28T04:46:28Z</datestamp>
      <setSpec>user-biosyslit</setSpec>
    </header>
    <header>
      <identifier>oai:zenodo.org:260464</identifier>
      <datestamp>2017-01-27T20:46:22Z</datestamp>
      <setSpec>user-biosyslit</setSpec>
    </header>
    <header>
      <identifier>oai:zenodo.org:273603</identifier>
      <datestamp>2017-02-08T10:02:33Z</datestamp>
      <setSpec>user-biosyslit</setSpec>
    </header>
    <header>
      <identifier>oai:zenodo.org:261337</identifier>
      <datestamp>2017-01-28T08:01:55Z</datestamp>
      <setSpec>user-biosyslit</setSpec>
    </header>
    <header>
      <identifier>oai:zenodo.org:260957</identifier>
      <datestamp>2017-01-28T03:07:55Z</datestamp>
      <setSpec>user-biosyslit</setSpec>
    </header>
    <header>
      <identifier>oai:zenodo.org:261399</identifier>
      <datestamp>2017-01-28T08:44:26Z</datestamp>
      <setSpec>user-biosyslit</setSpec>
    </header>
    <header>
      <identifier>oai:zenodo.org:260985</identifier>
      <datestamp>2017-01-28T03:36:22Z</datestamp>
      <setSpec>user-biosyslit</setSpec>
    </header>
    <header>
      <identifier>oai:zenodo.org:260424</identifier>
      <datestamp>2017-01-27T19:41:39Z</datestamp>
      <setSpec>user-biosyslit</setSpec>
    </header>
    <header>
      <identifier>oai:zenodo.org:274039</identifier>
      <datestamp>2017-02-08T11:57:19Z</datestamp>
      <setSpec>user-biosyslit</setSpec>
    </header>
    <header>
      <identifier>oai:zenodo.org:261313</identifier>
      <datestamp>2017-01-28T07:50:51Z</datestamp>
      <setSpec>user-biosyslit</setSpec>
    </header>
    <header>
      <identifier>oai:zenodo.org:260534</identifier>
      <datestamp>2017-01-27T21:33:33Z</datestamp>
      <setSpec>user-biosyslit</setSpec>
    </header>
    <header>
      <identifier>oai:zenodo.org:260483</identifier>
      <datestamp>2017-01-27T20:47:06Z</datestamp>
      <setSpec>user-biosyslit</setSpec>
    </header>
    <header>
      <identifier>oai:zenodo.org:260950</identifier>
      <datestamp>2017-01-28T03:07:38Z</datestamp>
      <setSpec>user-biosyslit</setSpec>
    </header>
    <header>
      <identifier>oai:zenodo.org:261914</identifier>
      <datestamp>2017-01-28T17:21:01Z</datestamp>
      <setSpec>user-biosyslit</setSpec>
    </header>
    <header>
      <identifier>oai:zenodo.org:261301</identifier>
      <datestamp>2017-01-28T07:50:13Z</datestamp>
      <setSpec>user-biosyslit</setSpec>
    </header>
    <header>
      <identifier>oai:zenodo.org:261786</identifier>
      <datestamp>2017-01-28T15:10:21Z</datestamp>
      <setSpec>user-biosyslit</setSpec>
    </header>
    <header>
      <identifier>oai:zenodo.org:273699</identifier>
      <datestamp>2017-02-08T10:22:42Z</datestamp>
      <setSpec>user-biosyslit</setSpec>
    </header>
    <header>
      <identifier>oai:zenodo.org:261217</identifier>
      <datestamp>2017-01-28T06:42:11Z</datestamp>
      <setSpec>user-biosyslit</setSpec>
    </header>
    <header>
      <identifier>oai:zenodo.org:261071</identifier>
      <datestamp>2017-01-28T04:39:23Z</datestamp>
      <setSpec>user-biosyslit</setSpec>
    </header>
    <header>
      <identifier>oai:zenodo.org:261483</identifier>
      <datestamp>2017-01-28T09:35:47Z</datestamp>
      <setSpec>user-biosyslit</setSpec>
    </header>
    <header>
      <identifier>oai:zenodo.org:260827</identifier>
      <datestamp>2017-01-28T01:12:47Z</datestamp>
      <setSpec>user-biosyslit</setSpec>
    </header>
    <header>
      <identifier>oai:zenodo.org:261409</identifier>
      <datestamp>2017-01-28T08:44:51Z</datestamp>
      <setSpec>user-biosyslit</setSpec>
    </header>
    <header>
      <identifier>oai:zenodo.org:262181</identifier>
      <datestamp>2017-01-28T22:30:14Z</datestamp>
      <setSpec>user-biosyslit</setSpec>
    </header>
    <header>
      <identifier>oai:zenodo.org:260845</identifier>
      <datestamp>2017-01-28T01:30:35Z</datestamp>
      <setSpec>user-biosyslit</setSpec>
    </header>
    <header>
      <identifier>oai:zenodo.org:261741</identifier>
      <datestamp>2017-01-28T13:52:34Z</datestamp>
      <setSpec>user-biosyslit</setSpec>
    </header>
    <header>
      <identifier>oai:zenodo.org:273528</identifier>
      <datestamp>2017-02-08T09:35:57Z</datestamp>
      <setSpec>user-biosyslit</setSpec>
    </header>
    <header>
      <identifier>oai:zenodo.org:274829</identifier>
      <datestamp>2017-02-08T14:32:06Z</datestamp>
      <setSpec>user-biosyslit</setSpec>
    </header>
    <header>
      <identifier>oai:zenodo.org:261465</identifier>
      <datestamp>2017-01-28T09:23:37Z</datestamp>
      <setSpec>user-biosyslit</setSpec>
    </header>
    <header>
      <identifier>oai:zenodo.org:261920</identifier>
      <datestamp>2017-01-28T17:55:46Z</datestamp>
      <setSpec>user-biosyslit</setSpec>
    </header>
    <header>
      <identifier>oai:zenodo.org:261424</identifier>
      <datestamp>2017-01-28T08:45:27Z</datestamp>
      <setSpec>user-biosyslit</setSpec>
    </header>
    <header>
      <identifier>oai:zenodo.org:261868</identifier>
      <datestamp>2017-01-28T16:10:56Z</datestamp>
      <setSpec>user-biosyslit</setSpec>
    </header>
    <header>
      <identifier>oai:zenodo.org:273534</identifier>
      <datestamp>2017-02-08T09:36:18Z</datestamp>
      <setSpec>user-biosyslit</setSpec>
    </header>
    <header>
      <identifier>oai:zenodo.org:262385</identifier>
      <datestamp>2017-01-29T03:25:50Z</datestamp>
      <setSpec>user-biosyslit</setSpec>
    </header>
    <header>
      <identifier>oai:zenodo.org:261877</identifier>
      <datestamp>2017-01-28T16:20:56Z</datestamp>
      <setSpec>user-biosyslit</setSpec>
    </header>
    <header>
      <identifier>oai:zenodo.org:262475</identifier>
      <datestamp>2017-01-29T04:41:35Z</datestamp>
      <setSpec>user-biosyslit</setSpec>
    </header>
    <header>
      <identifier>oai:zenodo.org:273471</identifier>
      <datestamp>2017-02-08T09:25:28Z</datestamp>
      <setSpec>user-biosyslit</setSpec>
    </header>
    <header>
      <identifier>oai:zenodo.org:262262</identifier>
      <datestamp>2017-01-29T01:13:52Z</datestamp>
      <setSpec>user-biosyslit</setSpec>
    </header>
    <header>
      <identifier>oai:zenodo.org:261806</identifier>
      <datestamp>2017-01-28T15:10:19Z</datestamp>
      <setSpec>user-biosyslit</setSpec>
    </header>
    <header>
      <identifier>oai:zenodo.org:261871</identifier>
      <datestamp>2017-01-28T16:17:32Z</datestamp>
      <setSpec>user-biosyslit</setSpec>
    </header>
    <header>
      <identifier>oai:zenodo.org:276089</identifier>
      <datestamp>2017-02-08T18:07:02Z</datestamp>
      <setSpec>user-biosyslit</setSpec>
    </header>
    <header>
      <identifier>oai:zenodo.org:262045</identifier>
      <datestamp>2017-01-28T19:46:06Z</datestamp>
      <setSpec>user-biosyslit</setSpec>
    </header>
    <header>
      <identifier>oai:zenodo.org:262303</identifier>
      <datestamp>2017-01-29T01:57:21Z</datestamp>
      <setSpec>user-biosyslit</setSpec>
    </header>
    <header>
      <identifier>oai:zenodo.org:262091</identifier>
      <datestamp>2017-01-28T20:10:44Z</datestamp>
      <setSpec>user-biosyslit</setSpec>
    </header>
    <header>
      <identifier>oai:zenodo.org:262372</identifier>
      <datestamp>2017-01-29T02:48:18Z</datestamp>
      <setSpec>user-biosyslit</setSpec>
    </header>
    <header>
      <identifier>oai:zenodo.org:262249</identifier>
      <datestamp>2017-01-29T00:29:36Z</datestamp>
      <setSpec>user-biosyslit</setSpec>
    </header>
    <header>
      <identifier>oai:zenodo.org:274804</identifier>
      <datestamp>2017-02-08T14:28:03Z</datestamp>
      <setSpec>user-biosyslit</setSpec>
    </header>
    <header>
      <identifier>oai:zenodo.org:262380</identifier>
      <datestamp>2017-01-29T03:21:24Z</datestamp>
      <setSpec>user-biosyslit</setSpec>
    </header>
    <header>
      <identifier>oai:zenodo.org:262780</identifier>
      <datestamp>2017-01-29T08:36:12Z</datestamp>
      <setSpec>user-biosyslit</setSpec>
    </header>
    <header>
      <identifier>oai:zenodo.org:226716</identifier>
      <datestamp>2017-01-01T02:32:14Z</datestamp>
      <setSpec>user-biosyslit</setSpec>
    </header>
    <header>
      <identifier>oai:zenodo.org:262573</identifier>
      <datestamp>2017-01-29T05:43:23Z</datestamp>
      <setSpec>user-biosyslit</setSpec>
    </header>
    <header>
      <identifier>oai:zenodo.org:262776</identifier>
      <datestamp>2017-01-29T08:35:59Z</datestamp>
      <setSpec>user-biosyslit</setSpec>
    </header>
    <header>
      <identifier>oai:zenodo.org:226904</identifier>
      <datestamp>2017-01-01T06:03:01Z</datestamp>
      <setSpec>user-biosyslit</setSpec>
    </header>
    <header>
      <identifier>oai:zenodo.org:226779</identifier>
      <datestamp>2017-01-01T03:09:19Z</datestamp>
      <setSpec>user-biosyslit</setSpec>
    </header>
    <header>
      <identifier>oai:zenodo.org:262768</identifier>
      <datestamp>2017-01-29T08:20:38Z</datestamp>
      <setSpec>user-biosyslit</setSpec>
    </header>
    <header>
      <identifier>oai:zenodo.org:262779</identifier>
      <datestamp>2017-01-29T08:36:09Z</datestamp>
      <setSpec>user-biosyslit</setSpec>
    </header>
    <header>
      <identifier>oai:zenodo.org:262813</identifier>
      <datestamp>2017-01-29T09:17:21Z</datestamp>
      <setSpec>user-biosyslit</setSpec>
    </header>
    <header>
      <identifier>oai:zenodo.org:262564</identifier>
      <datestamp>2017-01-29T05:43:44Z</datestamp>
      <setSpec>user-biosyslit</setSpec>
    </header>
    <header>
      <identifier>oai:zenodo.org:262738</identifier>
      <datestamp>2017-01-29T07:53:26Z</datestamp>
      <setSpec>user-biosyslit</setSpec>
    </header>
    <header>
      <identifier>oai:zenodo.org:262650</identifier>
      <datestamp>2017-01-29T06:49:09Z</datestamp>
      <setSpec>user-biosyslit</setSpec>
    </header>
    <header>
      <identifier>oai:zenodo.org:262568</identifier>
      <datestamp>2017-01-29T05:43:08Z</datestamp>
      <setSpec>user-biosyslit</setSpec>
    </header>
    <header>
      <identifier>oai:zenodo.org:262709</identifier>
      <datestamp>2017-01-29T07:31:29Z</datestamp>
      <setSpec>user-biosyslit</setSpec>
    </header>
    <header>
      <identifier>oai:zenodo.org:263090</identifier>
      <datestamp>2017-01-29T16:39:30Z</datestamp>
      <setSpec>user-biosyslit</setSpec>
    </header>
    <header>
      <identifier>oai:zenodo.org:263242</identifier>
      <datestamp>2017-01-29T19:40:18Z</datestamp>
      <setSpec>user-biosyslit</setSpec>
    </header>
    <header>
      <identifier>oai:zenodo.org:262844</identifier>
      <datestamp>2017-01-29T10:07:18Z</datestamp>
      <setSpec>user-biosyslit</setSpec>
    </header>
    <header>
      <identifier>oai:zenodo.org:263153</identifier>
      <datestamp>2017-01-29T17:46:04Z</datestamp>
      <setSpec>user-biosyslit</setSpec>
    </header>
    <header>
      <identifier>oai:zenodo.org:262993</identifier>
      <datestamp>2017-01-29T14:32:50Z</datestamp>
      <setSpec>user-biosyslit</setSpec>
    </header>
    <header>
      <identifier>oai:zenodo.org:259722</identifier>
      <datestamp>2017-01-25T15:39:55Z</datestamp>
      <setSpec>user-biosyslit</setSpec>
    </header>
    <header>
      <identifier>oai:zenodo.org:260619</identifier>
      <datestamp>2017-01-27T22:38:29Z</datestamp>
      <setSpec>user-biosyslit</setSpec>
    </header>
    <header>
      <identifier>oai:zenodo.org:259860</identifier>
      <datestamp>2017-01-25T17:00:29Z</datestamp>
      <setSpec>user-biosyslit</setSpec>
    </header>
    <header>
      <identifier>oai:zenodo.org:259709</identifier>
      <datestamp>2017-01-25T15:27:16Z</datestamp>
      <setSpec>user-biosyslit</setSpec>
    </header>
    <header>
      <identifier>oai:zenodo.org:260713</identifier>
      <datestamp>2017-01-27T23:59:44Z</datestamp>
      <setSpec>user-biosyslit</setSpec>
    </header>
    <resumptionToken expirationDate="2017-08-31T15:46:41Z" cursor="53500" completeListSize="77796">.eJyNyj0LgkAYAOD_8s4S92FeCC2hiYPKdSnqEqYi5WniFelF_z2X5pqf5wWqriuw0cpiFiHUpAxtTAuZ1ABVjjcpT5eFoUwTWfYyLrzkcegSlJGGhY6aAiejoW5R1GEt9pykeDPFFzTzY3zP9GFKqP8UyGWB5nN49ZdX0ciT-dkbRNzvpCDVGLl8Fngnclp-H_7z6Z_PUVswYCiaGuw1ZQa0z2JsFNiv9_sDmBNROw.DInAaQ.PgzImcM7gk04ZQus2nDm4i0L8eE</resumptionToken>
  </ListIdentifiers>
</OAI-PMH>
