<?xml version='1.0' encoding='UTF-8'?>
<?xml-stylesheet type="text/xsl" href="/static/xsl/oai2.v1.0.xsl"?>
<OAI-PMH xmlns="http://www.openarchives.org/OAI/2.0/" xmlns:xsi="http://www.w3.org/2001/XMLSchema-instance" xsi:schemaLocation="http://www.openarchives.org/OAI/2.0/ http://www.openarchives.org/OAI/2.0/OAI-PMH.xsd">
  <responseDate>2017-08-31T15:41:13Z</responseDate>
  <request verb="ListIdentifiers" resumptionToken=".eJyNyrEKgkAYAOB3-WeJO3_TElrEkgYVvZR0CVOR6jTxCvXEd8-luebvm0CUZQEmWeGWGDrVUDNQRdTpWgGRd0_OL7fFIT_HPG94lDnxO6xjkqiV4dlicO0EPfkgfk0lOwTqmW6G6EbG4BS9EhkOMR57RvaGK4PRux-XV6Dv8PTqtCxqLM7UovP3wcioxVLMv4_--eTPZ4sdKNBmVQkmEgUefdZVAsxpnj966FEx.DIm_mQ.2zf84MPWW0m7HzugtG9d5HThk38">https://zenodo.org/oai2d</request>
  <ListIdentifiers>
    <header>
      <identifier>oai:zenodo.org:267819</identifier>
      <datestamp>2017-02-02T07:28:56Z</datestamp>
      <setSpec>user-biosyslit</setSpec>
    </header>
    <header>
      <identifier>oai:zenodo.org:275365</identifier>
      <datestamp>2017-02-08T16:09:59Z</datestamp>
      <setSpec>user-biosyslit</setSpec>
    </header>
    <header>
      <identifier>oai:zenodo.org:269489</identifier>
      <datestamp>2017-02-07T00:42:58Z</datestamp>
      <setSpec>user-biosyslit</setSpec>
    </header>
    <header>
      <identifier>oai:zenodo.org:275050</identifier>
      <datestamp>2017-02-08T15:08:58Z</datestamp>
      <setSpec>user-biosyslit</setSpec>
    </header>
    <header>
      <identifier>oai:zenodo.org:274979</identifier>
      <datestamp>2017-02-08T14:57:34Z</datestamp>
      <setSpec>user-biosyslit</setSpec>
    </header>
    <header>
      <identifier>oai:zenodo.org:274796</identifier>
      <datestamp>2017-02-08T14:27:03Z</datestamp>
      <setSpec>user-biosyslit</setSpec>
    </header>
    <header>
      <identifier>oai:zenodo.org:275614</identifier>
      <datestamp>2017-02-08T16:48:10Z</datestamp>
      <setSpec>user-biosyslit</setSpec>
    </header>
    <header>
      <identifier>oai:zenodo.org:275503</identifier>
      <datestamp>2017-02-08T16:35:21Z</datestamp>
      <setSpec>user-biosyslit</setSpec>
    </header>
    <header>
      <identifier>oai:zenodo.org:275777</identifier>
      <datestamp>2017-02-08T17:04:20Z</datestamp>
      <setSpec>user-biosyslit</setSpec>
    </header>
    <header>
      <identifier>oai:zenodo.org:275931</identifier>
      <datestamp>2017-02-08T17:23:38Z</datestamp>
      <setSpec>user-biosyslit</setSpec>
    </header>
    <header>
      <identifier>oai:zenodo.org:278010</identifier>
      <datestamp>2017-02-08T22:16:16Z</datestamp>
      <setSpec>user-biosyslit</setSpec>
    </header>
    <header>
      <identifier>oai:zenodo.org:277875</identifier>
      <datestamp>2017-02-08T22:00:16Z</datestamp>
      <setSpec>user-biosyslit</setSpec>
    </header>
    <header>
      <identifier>oai:zenodo.org:278027</identifier>
      <datestamp>2017-02-08T22:18:16Z</datestamp>
      <setSpec>user-biosyslit</setSpec>
    </header>
    <header>
      <identifier>oai:zenodo.org:276581</identifier>
      <datestamp>2017-02-08T19:16:03Z</datestamp>
      <setSpec>user-biosyslit</setSpec>
    </header>
    <header>
      <identifier>oai:zenodo.org:279683</identifier>
      <datestamp>2017-02-09T01:51:03Z</datestamp>
      <setSpec>user-biosyslit</setSpec>
    </header>
    <header>
      <identifier>oai:zenodo.org:277329</identifier>
      <datestamp>2017-02-08T20:54:27Z</datestamp>
      <setSpec>user-biosyslit</setSpec>
    </header>
    <header>
      <identifier>oai:zenodo.org:277892</identifier>
      <datestamp>2017-02-08T22:01:51Z</datestamp>
      <setSpec>user-biosyslit</setSpec>
    </header>
    <header>
      <identifier>oai:zenodo.org:277557</identifier>
      <datestamp>2017-02-08T21:22:30Z</datestamp>
      <setSpec>user-biosyslit</setSpec>
    </header>
    <header>
      <identifier>oai:zenodo.org:277197</identifier>
      <datestamp>2017-02-08T20:34:43Z</datestamp>
      <setSpec>user-biosyslit</setSpec>
    </header>
    <header>
      <identifier>oai:zenodo.org:278031</identifier>
      <datestamp>2017-02-08T22:18:55Z</datestamp>
      <setSpec>user-biosyslit</setSpec>
    </header>
    <header>
      <identifier>oai:zenodo.org:277817</identifier>
      <datestamp>2017-02-08T21:52:22Z</datestamp>
      <setSpec>user-biosyslit</setSpec>
    </header>
    <header>
      <identifier>oai:zenodo.org:278600</identifier>
      <datestamp>2017-02-08T23:29:37Z</datestamp>
      <setSpec>user-biosyslit</setSpec>
    </header>
    <header>
      <identifier>oai:zenodo.org:278270</identifier>
      <datestamp>2017-02-08T22:46:11Z</datestamp>
      <setSpec>user-biosyslit</setSpec>
    </header>
    <header>
      <identifier>oai:zenodo.org:278603</identifier>
      <datestamp>2017-02-08T23:29:50Z</datestamp>
      <setSpec>user-biosyslit</setSpec>
    </header>
    <header>
      <identifier>oai:zenodo.org:279053</identifier>
      <datestamp>2017-02-09T00:30:32Z</datestamp>
      <setSpec>user-biosyslit</setSpec>
    </header>
    <header>
      <identifier>oai:zenodo.org:280503</identifier>
      <datestamp>2017-02-09T03:31:49Z</datestamp>
      <setSpec>user-biosyslit</setSpec>
    </header>
    <header>
      <identifier>oai:zenodo.org:279094</identifier>
      <datestamp>2017-02-09T00:36:06Z</datestamp>
      <setSpec>user-biosyslit</setSpec>
    </header>
    <header>
      <identifier>oai:zenodo.org:280355</identifier>
      <datestamp>2017-02-09T03:15:38Z</datestamp>
      <setSpec>user-biosyslit</setSpec>
    </header>
    <header>
      <identifier>oai:zenodo.org:279440</identifier>
      <datestamp>2017-02-09T01:21:47Z</datestamp>
      <setSpec>user-biosyslit</setSpec>
    </header>
    <header>
      <identifier>oai:zenodo.org:280456</identifier>
      <datestamp>2017-02-09T03:26:49Z</datestamp>
      <setSpec>user-biosyslit</setSpec>
    </header>
    <header>
      <identifier>oai:zenodo.org:280870</identifier>
      <datestamp>2017-02-09T04:15:53Z</datestamp>
      <setSpec>user-biosyslit</setSpec>
    </header>
    <header>
      <identifier>oai:zenodo.org:281152</identifier>
      <datestamp>2017-02-09T04:49:20Z</datestamp>
      <setSpec>user-biosyslit</setSpec>
    </header>
    <header>
      <identifier>oai:zenodo.org:281177</identifier>
      <datestamp>2017-02-09T04:52:13Z</datestamp>
      <setSpec>user-biosyslit</setSpec>
    </header>
    <header>
      <identifier>oai:zenodo.org:282849</identifier>
      <datestamp>2017-02-09T07:43:26Z</datestamp>
      <setSpec>user-biosyslit</setSpec>
    </header>
    <header>
      <identifier>oai:zenodo.org:282542</identifier>
      <datestamp>2017-02-09T07:12:04Z</datestamp>
      <setSpec>user-biosyslit</setSpec>
    </header>
    <header>
      <identifier>oai:zenodo.org:283094</identifier>
      <datestamp>2017-02-09T08:08:08Z</datestamp>
      <setSpec>user-biosyslit</setSpec>
    </header>
    <header>
      <identifier>oai:zenodo.org:283673</identifier>
      <datestamp>2017-02-09T09:23:24Z</datestamp>
      <setSpec>user-biosyslit</setSpec>
    </header>
    <header>
      <identifier>oai:zenodo.org:284488</identifier>
      <datestamp>2017-02-09T11:21:36Z</datestamp>
      <setSpec>user-biosyslit</setSpec>
    </header>
    <header>
      <identifier>oai:zenodo.org:283830</identifier>
      <datestamp>2017-02-09T09:53:03Z</datestamp>
      <setSpec>user-biosyslit</setSpec>
    </header>
    <header>
      <identifier>oai:zenodo.org:284386</identifier>
      <datestamp>2017-02-09T11:09:55Z</datestamp>
      <setSpec>user-biosyslit</setSpec>
    </header>
    <header>
      <identifier>oai:zenodo.org:284247</identifier>
      <datestamp>2017-02-09T10:46:03Z</datestamp>
      <setSpec>user-biosyslit</setSpec>
    </header>
    <header>
      <identifier>oai:zenodo.org:284487</identifier>
      <datestamp>2017-02-09T11:21:33Z</datestamp>
      <setSpec>user-biosyslit</setSpec>
    </header>
    <header>
      <identifier>oai:zenodo.org:284585</identifier>
      <datestamp>2017-02-09T11:34:04Z</datestamp>
      <setSpec>user-biosyslit</setSpec>
    </header>
    <header>
      <identifier>oai:zenodo.org:285027</identifier>
      <datestamp>2017-02-09T12:30:15Z</datestamp>
      <setSpec>user-biosyslit</setSpec>
    </header>
    <header>
      <identifier>oai:zenodo.org:285278</identifier>
      <datestamp>2017-02-09T13:10:37Z</datestamp>
      <setSpec>user-biosyslit</setSpec>
    </header>
    <header>
      <identifier>oai:zenodo.org:285654</identifier>
      <datestamp>2017-02-09T14:05:07Z</datestamp>
      <setSpec>user-biosyslit</setSpec>
    </header>
    <header>
      <identifier>oai:zenodo.org:285661</identifier>
      <datestamp>2017-02-09T14:05:35Z</datestamp>
      <setSpec>user-biosyslit</setSpec>
    </header>
    <header>
      <identifier>oai:zenodo.org:286724</identifier>
      <datestamp>2017-02-09T16:39:53Z</datestamp>
      <setSpec>user-biosyslit</setSpec>
    </header>
    <header>
      <identifier>oai:zenodo.org:285430</identifier>
      <datestamp>2017-02-09T13:35:14Z</datestamp>
      <setSpec>user-biosyslit</setSpec>
    </header>
    <header>
      <identifier>oai:zenodo.org:286599</identifier>
      <datestamp>2017-02-09T16:24:27Z</datestamp>
      <setSpec>user-biosyslit</setSpec>
    </header>
    <header>
      <identifier>oai:zenodo.org:286587</identifier>
      <datestamp>2017-02-09T16:23:49Z</datestamp>
      <setSpec>user-biosyslit</setSpec>
    </header>
    <header>
      <identifier>oai:zenodo.org:287338</identifier>
      <datestamp>2017-02-09T18:04:42Z</datestamp>
      <setSpec>user-biosyslit</setSpec>
    </header>
    <header>
      <identifier>oai:zenodo.org:286556</identifier>
      <datestamp>2017-02-09T16:18:59Z</datestamp>
      <setSpec>user-biosyslit</setSpec>
    </header>
    <header>
      <identifier>oai:zenodo.org:286558</identifier>
      <datestamp>2017-02-09T16:18:41Z</datestamp>
      <setSpec>user-biosyslit</setSpec>
    </header>
    <header>
      <identifier>oai:zenodo.org:279677</identifier>
      <datestamp>2017-02-09T01:48:07Z</datestamp>
      <setSpec>user-biosyslit</setSpec>
    </header>
    <header>
      <identifier>oai:zenodo.org:575327</identifier>
      <datestamp>2017-05-12T08:06:40Z</datestamp>
      <setSpec>user-biosyslit</setSpec>
    </header>
    <header>
      <identifier>oai:zenodo.org:344540</identifier>
      <datestamp>2017-02-28T21:44:15Z</datestamp>
      <setSpec>user-biosyslit</setSpec>
    </header>
    <header>
      <identifier>oai:zenodo.org:344316</identifier>
      <datestamp>2017-02-28T23:41:56Z</datestamp>
      <setSpec>user-biosyslit</setSpec>
    </header>
    <header>
      <identifier>oai:zenodo.org:344612</identifier>
      <datestamp>2017-03-01T00:13:07Z</datestamp>
      <setSpec>user-biosyslit</setSpec>
    </header>
    <header>
      <identifier>oai:zenodo.org:344765</identifier>
      <datestamp>2017-03-01T08:52:58Z</datestamp>
      <setSpec>user-biosyslit</setSpec>
    </header>
    <header>
      <identifier>oai:zenodo.org:344783</identifier>
      <datestamp>2017-03-01T09:10:25Z</datestamp>
      <setSpec>user-biosyslit</setSpec>
    </header>
    <header>
      <identifier>oai:zenodo.org:344607</identifier>
      <datestamp>2017-03-01T08:00:58Z</datestamp>
      <setSpec>openaire</setSpec>
      <setSpec>user-biosyslit</setSpec>
    </header>
    <header>
      <identifier>oai:zenodo.org:345217</identifier>
      <datestamp>2017-03-03T08:19:30Z</datestamp>
      <setSpec>user-biosyslit</setSpec>
    </header>
    <header>
      <identifier>oai:zenodo.org:344665</identifier>
      <datestamp>2017-03-01T08:05:46Z</datestamp>
      <setSpec>user-biosyslit</setSpec>
    </header>
    <header>
      <identifier>oai:zenodo.org:345235</identifier>
      <datestamp>2017-03-03T08:36:34Z</datestamp>
      <setSpec>user-biosyslit</setSpec>
    </header>
    <header>
      <identifier>oai:zenodo.org:280556</identifier>
      <datestamp>2017-02-09T03:37:34Z</datestamp>
      <setSpec>user-biosyslit</setSpec>
    </header>
    <header>
      <identifier>oai:zenodo.org:345785</identifier>
      <datestamp>2017-03-06T08:27:24Z</datestamp>
      <setSpec>user-biosyslit</setSpec>
    </header>
    <header>
      <identifier>oai:zenodo.org:155157</identifier>
      <datestamp>2017-02-20T22:44:23Z</datestamp>
      <setSpec>user-biosyslit</setSpec>
    </header>
    <header>
      <identifier>oai:zenodo.org:279920</identifier>
      <datestamp>2017-02-09T02:17:07Z</datestamp>
      <setSpec>user-biosyslit</setSpec>
    </header>
    <header>
      <identifier>oai:zenodo.org:280506</identifier>
      <datestamp>2017-02-09T03:32:58Z</datestamp>
      <setSpec>user-biosyslit</setSpec>
    </header>
    <header>
      <identifier>oai:zenodo.org:280459</identifier>
      <datestamp>2017-02-09T03:27:08Z</datestamp>
      <setSpec>user-biosyslit</setSpec>
    </header>
    <header>
      <identifier>oai:zenodo.org:281181</identifier>
      <datestamp>2017-02-09T04:52:40Z</datestamp>
      <setSpec>user-biosyslit</setSpec>
    </header>
    <header>
      <identifier>oai:zenodo.org:280336</identifier>
      <datestamp>2017-02-09T03:12:51Z</datestamp>
      <setSpec>user-biosyslit</setSpec>
    </header>
    <header>
      <identifier>oai:zenodo.org:281455</identifier>
      <datestamp>2017-02-09T05:19:43Z</datestamp>
      <setSpec>user-biosyslit</setSpec>
    </header>
    <header>
      <identifier>oai:zenodo.org:579382</identifier>
      <datestamp>2017-05-18T07:01:42Z</datestamp>
      <setSpec>openaire</setSpec>
      <setSpec>user-biosyslit</setSpec>
    </header>
    <header>
      <identifier>oai:zenodo.org:579389</identifier>
      <datestamp>2017-05-18T07:01:22Z</datestamp>
      <setSpec>openaire</setSpec>
      <setSpec>user-biosyslit</setSpec>
    </header>
    <header>
      <identifier>oai:zenodo.org:579329</identifier>
      <datestamp>2017-05-18T07:02:57Z</datestamp>
      <setSpec>openaire</setSpec>
      <setSpec>user-biosyslit</setSpec>
    </header>
    <header>
      <identifier>oai:zenodo.org:280469</identifier>
      <datestamp>2017-02-09T03:27:32Z</datestamp>
      <setSpec>user-biosyslit</setSpec>
    </header>
    <header>
      <identifier>oai:zenodo.org:579299</identifier>
      <datestamp>2017-05-18T07:03:43Z</datestamp>
      <setSpec>openaire</setSpec>
      <setSpec>user-biosyslit</setSpec>
    </header>
    <header>
      <identifier>oai:zenodo.org:580548</identifier>
      <datestamp>2017-05-17T08:50:40Z</datestamp>
      <setSpec>user-biosyslit</setSpec>
    </header>
    <header>
      <identifier>oai:zenodo.org:579279</identifier>
      <datestamp>2017-05-18T07:04:07Z</datestamp>
      <setSpec>openaire</setSpec>
      <setSpec>user-biosyslit</setSpec>
    </header>
    <header>
      <identifier>oai:zenodo.org:579374</identifier>
      <datestamp>2017-05-18T07:01:53Z</datestamp>
      <setSpec>openaire</setSpec>
      <setSpec>user-biosyslit</setSpec>
    </header>
    <header>
      <identifier>oai:zenodo.org:579522</identifier>
      <datestamp>2017-05-18T06:55:07Z</datestamp>
      <setSpec>openaire</setSpec>
      <setSpec>user-biosyslit</setSpec>
    </header>
    <header>
      <identifier>oai:zenodo.org:580927</identifier>
      <datestamp>2017-05-18T08:14:56Z</datestamp>
      <setSpec>user-biosyslit</setSpec>
    </header>
    <header>
      <identifier>oai:zenodo.org:579529</identifier>
      <datestamp>2017-05-18T06:54:49Z</datestamp>
      <setSpec>openaire</setSpec>
      <setSpec>user-biosyslit</setSpec>
    </header>
    <header>
      <identifier>oai:zenodo.org:280887</identifier>
      <datestamp>2017-02-09T04:16:47Z</datestamp>
      <setSpec>user-biosyslit</setSpec>
    </header>
    <header>
      <identifier>oai:zenodo.org:580493</identifier>
      <datestamp>2017-05-17T08:08:06Z</datestamp>
      <setSpec>user-biosyslit</setSpec>
    </header>
    <header>
      <identifier>oai:zenodo.org:281252</identifier>
      <datestamp>2017-02-09T05:01:12Z</datestamp>
      <setSpec>user-biosyslit</setSpec>
    </header>
    <header>
      <identifier>oai:zenodo.org:281606</identifier>
      <datestamp>2017-02-09T05:36:28Z</datestamp>
      <setSpec>user-biosyslit</setSpec>
    </header>
    <header>
      <identifier>oai:zenodo.org:281255</identifier>
      <datestamp>2017-02-09T05:01:20Z</datestamp>
      <setSpec>user-biosyslit</setSpec>
    </header>
    <header>
      <identifier>oai:zenodo.org:281158</identifier>
      <datestamp>2017-02-09T04:49:40Z</datestamp>
      <setSpec>user-biosyslit</setSpec>
    </header>
    <header>
      <identifier>oai:zenodo.org:580458</identifier>
      <datestamp>2017-05-17T07:16:06Z</datestamp>
      <setSpec>user-biosyslit</setSpec>
    </header>
    <header>
      <identifier>oai:zenodo.org:281044</identifier>
      <datestamp>2017-02-09T04:37:27Z</datestamp>
      <setSpec>user-biosyslit</setSpec>
    </header>
    <header>
      <identifier>oai:zenodo.org:574376</identifier>
      <datestamp>2017-05-17T07:21:30Z</datestamp>
      <setSpec>openaire</setSpec>
      <setSpec>user-biosyslit</setSpec>
    </header>
    <header>
      <identifier>oai:zenodo.org:279764</identifier>
      <datestamp>2017-02-09T02:00:34Z</datestamp>
      <setSpec>user-biosyslit</setSpec>
    </header>
    <header>
      <identifier>oai:zenodo.org:575349</identifier>
      <datestamp>2017-05-12T08:07:15Z</datestamp>
      <setSpec>user-biosyslit</setSpec>
    </header>
    <header>
      <identifier>oai:zenodo.org:575378</identifier>
      <datestamp>2017-05-12T08:07:59Z</datestamp>
      <setSpec>user-biosyslit</setSpec>
    </header>
    <header>
      <identifier>oai:zenodo.org:343853</identifier>
      <datestamp>2017-02-28T09:35:56Z</datestamp>
      <setSpec>user-biosyslit</setSpec>
    </header>
    <header>
      <identifier>oai:zenodo.org:279640</identifier>
      <datestamp>2017-02-09T01:46:15Z</datestamp>
      <setSpec>user-biosyslit</setSpec>
    </header>
    <header>
      <identifier>oai:zenodo.org:279802</identifier>
      <datestamp>2017-02-09T02:05:09Z</datestamp>
      <setSpec>user-biosyslit</setSpec>
    </header>
    <resumptionToken expirationDate="2017-08-31T15:43:13Z" cursor="2900" completeListSize="77796">.eJyNzzEPQ0AYgOH_crM037k2StKloWJAuBIsjR4RdVRcG5z477V0buf3Wd4FibIskAE7IFjbgw4AuqYTfMAKEmx4cn6rt45YEnPW8Si343fYxpCqleaZYnLNlHiyAb_Fkl4CNcHHKaphDq7RK5XhFBNnpGBprgxm7-FsriC-zbO73dOoO3OqFoNvBTPFZ5oR9nX4Tyd_OlOckIL6vCqRQbapZsyHSiBjWdcPc1RRKg.DIm_mQ.IqDgpp13am30lL0lPSDa5kdGk4A</resumptionToken>
  </ListIdentifiers>
</OAI-PMH>
