<?xml version='1.0' encoding='UTF-8'?>
<?xml-stylesheet type="text/xsl" href="/static/xsl/oai2.v1.0.xsl"?>
<OAI-PMH xmlns="http://www.openarchives.org/OAI/2.0/" xmlns:xsi="http://www.w3.org/2001/XMLSchema-instance" xsi:schemaLocation="http://www.openarchives.org/OAI/2.0/ http://www.openarchives.org/OAI/2.0/OAI-PMH.xsd">
  <responseDate>2017-08-31T15:43:45Z</responseDate>
  <request verb="ListIdentifiers" resumptionToken=".eJyNyk0LgjAcgPHv8j9L7MVQhC6iSYeUtSbpJWyKWNPCFeqk756XznV5Ls9vBl1VJXhotbZd20F0CUEuXWMLtOzvSp2bZYM8pUp2ShRR-jq0KcpI7cSBHvdBRmNzQ0mLDd8ycsLuKBo0saN4ZuYwpnQ3cBQ6e8Om-LpbXEmTSOWX6MFF5ytOyj4J2cSxz3Mqvw7_6cxPF-gNWPAo6go8myALbkPR1xq8-f3-AJtHUTY.DInAMQ.Gwuj20y-5c3sNiw8Vf6_fFGP_fo">https://zenodo.org/oai2d</request>
  <ListIdentifiers>
    <header>
      <identifier>oai:zenodo.org:581285</identifier>
      <datestamp>2017-05-19T08:51:59Z</datestamp>
      <setSpec>user-biosyslit</setSpec>
    </header>
    <header>
      <identifier>oai:zenodo.org:581334</identifier>
      <datestamp>2017-05-19T10:03:10Z</datestamp>
      <setSpec>user-biosyslit</setSpec>
    </header>
    <header>
      <identifier>oai:zenodo.org:283082</identifier>
      <datestamp>2017-02-09T08:07:24Z</datestamp>
      <setSpec>user-biosyslit</setSpec>
    </header>
    <header>
      <identifier>oai:zenodo.org:282367</identifier>
      <datestamp>2017-02-09T06:53:18Z</datestamp>
      <setSpec>user-biosyslit</setSpec>
    </header>
    <header>
      <identifier>oai:zenodo.org:581319</identifier>
      <datestamp>2017-05-19T09:51:15Z</datestamp>
      <setSpec>user-biosyslit</setSpec>
    </header>
    <header>
      <identifier>oai:zenodo.org:283059</identifier>
      <datestamp>2017-02-09T08:05:13Z</datestamp>
      <setSpec>user-biosyslit</setSpec>
    </header>
    <header>
      <identifier>oai:zenodo.org:582240</identifier>
      <datestamp>2017-05-23T13:26:37Z</datestamp>
      <setSpec>openaire</setSpec>
      <setSpec>user-biosyslit</setSpec>
    </header>
    <header>
      <identifier>oai:zenodo.org:582047</identifier>
      <datestamp>2017-05-22T08:28:58Z</datestamp>
      <setSpec>user-biosyslit</setSpec>
    </header>
    <header>
      <identifier>oai:zenodo.org:375484</identifier>
      <datestamp>2017-03-07T08:21:20Z</datestamp>
      <setSpec>user-biosyslit</setSpec>
    </header>
    <header>
      <identifier>oai:zenodo.org:375987</identifier>
      <datestamp>2017-03-09T08:14:58Z</datestamp>
      <setSpec>user-biosyslit</setSpec>
    </header>
    <header>
      <identifier>oai:zenodo.org:376054</identifier>
      <datestamp>2017-03-09T09:16:27Z</datestamp>
      <setSpec>user-biosyslit</setSpec>
    </header>
    <header>
      <identifier>oai:zenodo.org:375678</identifier>
      <datestamp>2017-03-08T01:16:05Z</datestamp>
      <setSpec>user-biosyslit</setSpec>
    </header>
    <header>
      <identifier>oai:zenodo.org:582469</identifier>
      <datestamp>2017-05-23T08:02:42Z</datestamp>
      <setSpec>user-biosyslit</setSpec>
    </header>
    <header>
      <identifier>oai:zenodo.org:282026</identifier>
      <datestamp>2017-02-09T06:20:06Z</datestamp>
      <setSpec>user-biosyslit</setSpec>
    </header>
    <header>
      <identifier>oai:zenodo.org:582503</identifier>
      <datestamp>2017-05-23T09:02:15Z</datestamp>
      <setSpec>user-biosyslit</setSpec>
    </header>
    <header>
      <identifier>oai:zenodo.org:375706</identifier>
      <datestamp>2017-03-08T01:27:50Z</datestamp>
      <setSpec>user-biosyslit</setSpec>
    </header>
    <header>
      <identifier>oai:zenodo.org:375461</identifier>
      <datestamp>2017-03-07T08:14:16Z</datestamp>
      <setSpec>user-biosyslit</setSpec>
    </header>
    <header>
      <identifier>oai:zenodo.org:376063</identifier>
      <datestamp>2017-03-09T09:17:03Z</datestamp>
      <setSpec>user-biosyslit</setSpec>
    </header>
    <header>
      <identifier>oai:zenodo.org:282025</identifier>
      <datestamp>2017-02-09T06:20:04Z</datestamp>
      <setSpec>user-biosyslit</setSpec>
    </header>
    <header>
      <identifier>oai:zenodo.org:161516</identifier>
      <datestamp>2017-03-17T14:01:17Z</datestamp>
      <setSpec>openaire</setSpec>
      <setSpec>user-biosyslit</setSpec>
    </header>
    <header>
      <identifier>oai:zenodo.org:282617</identifier>
      <datestamp>2017-02-09T07:19:20Z</datestamp>
      <setSpec>user-biosyslit</setSpec>
    </header>
    <header>
      <identifier>oai:zenodo.org:376226</identifier>
      <datestamp>2017-03-09T14:32:23Z</datestamp>
      <setSpec>user-biosyslit</setSpec>
    </header>
    <header>
      <identifier>oai:zenodo.org:375757</identifier>
      <datestamp>2017-03-08T08:21:55Z</datestamp>
      <setSpec>user-biosyslit</setSpec>
    </header>
    <header>
      <identifier>oai:zenodo.org:376170</identifier>
      <datestamp>2017-03-09T13:23:55Z</datestamp>
      <setSpec>user-biosyslit</setSpec>
    </header>
    <header>
      <identifier>oai:zenodo.org:281801</identifier>
      <datestamp>2017-02-09T05:56:53Z</datestamp>
      <setSpec>user-biosyslit</setSpec>
    </header>
    <header>
      <identifier>oai:zenodo.org:281448</identifier>
      <datestamp>2017-02-09T05:19:24Z</datestamp>
      <setSpec>user-biosyslit</setSpec>
    </header>
    <header>
      <identifier>oai:zenodo.org:282040</identifier>
      <datestamp>2017-02-09T06:22:17Z</datestamp>
      <setSpec>user-biosyslit</setSpec>
    </header>
    <header>
      <identifier>oai:zenodo.org:282755</identifier>
      <datestamp>2017-02-09T07:34:44Z</datestamp>
      <setSpec>user-biosyslit</setSpec>
    </header>
    <header>
      <identifier>oai:zenodo.org:281447</identifier>
      <datestamp>2017-02-09T05:19:21Z</datestamp>
      <setSpec>user-biosyslit</setSpec>
    </header>
    <header>
      <identifier>oai:zenodo.org:580982</identifier>
      <datestamp>2017-05-18T08:57:15Z</datestamp>
      <setSpec>user-biosyslit</setSpec>
    </header>
    <header>
      <identifier>oai:zenodo.org:282405</identifier>
      <datestamp>2017-02-09T06:56:56Z</datestamp>
      <setSpec>user-biosyslit</setSpec>
    </header>
    <header>
      <identifier>oai:zenodo.org:283169</identifier>
      <datestamp>2017-02-09T08:16:37Z</datestamp>
      <setSpec>user-biosyslit</setSpec>
    </header>
    <header>
      <identifier>oai:zenodo.org:281922</identifier>
      <datestamp>2017-02-09T06:11:02Z</datestamp>
      <setSpec>user-biosyslit</setSpec>
    </header>
    <header>
      <identifier>oai:zenodo.org:282824</identifier>
      <datestamp>2017-02-09T07:41:06Z</datestamp>
      <setSpec>user-biosyslit</setSpec>
    </header>
    <header>
      <identifier>oai:zenodo.org:282908</identifier>
      <datestamp>2017-02-09T07:49:32Z</datestamp>
      <setSpec>user-biosyslit</setSpec>
    </header>
    <header>
      <identifier>oai:zenodo.org:281794</identifier>
      <datestamp>2017-02-09T05:55:57Z</datestamp>
      <setSpec>user-biosyslit</setSpec>
    </header>
    <header>
      <identifier>oai:zenodo.org:376032</identifier>
      <datestamp>2017-03-09T09:05:39Z</datestamp>
      <setSpec>user-biosyslit</setSpec>
    </header>
    <header>
      <identifier>oai:zenodo.org:282048</identifier>
      <datestamp>2017-02-09T06:23:00Z</datestamp>
      <setSpec>user-biosyslit</setSpec>
    </header>
    <header>
      <identifier>oai:zenodo.org:582793</identifier>
      <datestamp>2017-05-24T08:40:41Z</datestamp>
      <setSpec>user-biosyslit</setSpec>
    </header>
    <header>
      <identifier>oai:zenodo.org:375787</identifier>
      <datestamp>2017-03-08T08:34:42Z</datestamp>
      <setSpec>user-biosyslit</setSpec>
    </header>
    <header>
      <identifier>oai:zenodo.org:582814</identifier>
      <datestamp>2017-05-24T09:08:22Z</datestamp>
      <setSpec>user-biosyslit</setSpec>
    </header>
    <header>
      <identifier>oai:zenodo.org:376071</identifier>
      <datestamp>2017-03-09T09:23:13Z</datestamp>
      <setSpec>user-biosyslit</setSpec>
    </header>
    <header>
      <identifier>oai:zenodo.org:376089</identifier>
      <datestamp>2017-03-09T09:50:36Z</datestamp>
      <setSpec>user-biosyslit</setSpec>
    </header>
    <header>
      <identifier>oai:zenodo.org:376376</identifier>
      <datestamp>2017-03-10T08:28:16Z</datestamp>
      <setSpec>user-biosyslit</setSpec>
    </header>
    <header>
      <identifier>oai:zenodo.org:281086</identifier>
      <datestamp>2017-02-09T04:42:11Z</datestamp>
      <setSpec>user-biosyslit</setSpec>
    </header>
    <header>
      <identifier>oai:zenodo.org:281272</identifier>
      <datestamp>2017-02-09T05:03:06Z</datestamp>
      <setSpec>user-biosyslit</setSpec>
    </header>
    <header>
      <identifier>oai:zenodo.org:281549</identifier>
      <datestamp>2017-02-09T05:30:49Z</datestamp>
      <setSpec>user-biosyslit</setSpec>
    </header>
    <header>
      <identifier>oai:zenodo.org:281917</identifier>
      <datestamp>2017-02-09T06:10:14Z</datestamp>
      <setSpec>user-biosyslit</setSpec>
    </header>
    <header>
      <identifier>oai:zenodo.org:580997</identifier>
      <datestamp>2017-05-18T09:13:52Z</datestamp>
      <setSpec>user-biosyslit</setSpec>
    </header>
    <header>
      <identifier>oai:zenodo.org:281585</identifier>
      <datestamp>2017-02-09T05:34:56Z</datestamp>
      <setSpec>user-biosyslit</setSpec>
    </header>
    <header>
      <identifier>oai:zenodo.org:281462</identifier>
      <datestamp>2017-02-09T05:19:57Z</datestamp>
      <setSpec>user-biosyslit</setSpec>
    </header>
    <header>
      <identifier>oai:zenodo.org:281999</identifier>
      <datestamp>2017-02-09T06:17:35Z</datestamp>
      <setSpec>user-biosyslit</setSpec>
    </header>
    <header>
      <identifier>oai:zenodo.org:283431</identifier>
      <datestamp>2017-02-09T08:54:36Z</datestamp>
      <setSpec>user-biosyslit</setSpec>
    </header>
    <header>
      <identifier>oai:zenodo.org:282519</identifier>
      <datestamp>2017-02-09T07:10:33Z</datestamp>
      <setSpec>user-biosyslit</setSpec>
    </header>
    <header>
      <identifier>oai:zenodo.org:281921</identifier>
      <datestamp>2017-02-09T06:10:25Z</datestamp>
      <setSpec>user-biosyslit</setSpec>
    </header>
    <header>
      <identifier>oai:zenodo.org:581264</identifier>
      <datestamp>2017-05-19T08:39:31Z</datestamp>
      <setSpec>user-biosyslit</setSpec>
    </header>
    <header>
      <identifier>oai:zenodo.org:581335</identifier>
      <datestamp>2017-05-19T10:03:14Z</datestamp>
      <setSpec>user-biosyslit</setSpec>
    </header>
    <header>
      <identifier>oai:zenodo.org:582033</identifier>
      <datestamp>2017-05-22T08:13:42Z</datestamp>
      <setSpec>user-biosyslit</setSpec>
    </header>
    <header>
      <identifier>oai:zenodo.org:281890</identifier>
      <datestamp>2017-02-09T06:07:32Z</datestamp>
      <setSpec>user-biosyslit</setSpec>
    </header>
    <header>
      <identifier>oai:zenodo.org:282395</identifier>
      <datestamp>2017-02-09T06:56:00Z</datestamp>
      <setSpec>user-biosyslit</setSpec>
    </header>
    <header>
      <identifier>oai:zenodo.org:282412</identifier>
      <datestamp>2017-02-09T06:57:38Z</datestamp>
      <setSpec>user-biosyslit</setSpec>
    </header>
    <header>
      <identifier>oai:zenodo.org:581342</identifier>
      <datestamp>2017-05-19T10:16:44Z</datestamp>
      <setSpec>user-biosyslit</setSpec>
    </header>
    <header>
      <identifier>oai:zenodo.org:281887</identifier>
      <datestamp>2017-02-09T06:07:25Z</datestamp>
      <setSpec>user-biosyslit</setSpec>
    </header>
    <header>
      <identifier>oai:zenodo.org:159548</identifier>
      <datestamp>2017-05-16T12:56:39Z</datestamp>
      <setSpec>openaire</setSpec>
      <setSpec>user-biosyslit</setSpec>
    </header>
    <header>
      <identifier>oai:zenodo.org:281350</identifier>
      <datestamp>2017-02-09T05:10:33Z</datestamp>
      <setSpec>user-biosyslit</setSpec>
    </header>
    <header>
      <identifier>oai:zenodo.org:283092</identifier>
      <datestamp>2017-02-09T08:08:03Z</datestamp>
      <setSpec>user-biosyslit</setSpec>
    </header>
    <header>
      <identifier>oai:zenodo.org:581273</identifier>
      <datestamp>2017-05-19T08:40:03Z</datestamp>
      <setSpec>user-biosyslit</setSpec>
    </header>
    <header>
      <identifier>oai:zenodo.org:581328</identifier>
      <datestamp>2017-05-19T09:51:39Z</datestamp>
      <setSpec>user-biosyslit</setSpec>
    </header>
    <header>
      <identifier>oai:zenodo.org:582007</identifier>
      <datestamp>2017-05-22T07:45:31Z</datestamp>
      <setSpec>user-biosyslit</setSpec>
    </header>
    <header>
      <identifier>oai:zenodo.org:375460</identifier>
      <datestamp>2017-03-07T08:14:14Z</datestamp>
      <setSpec>user-biosyslit</setSpec>
    </header>
    <header>
      <identifier>oai:zenodo.org:376064</identifier>
      <datestamp>2017-03-09T09:17:08Z</datestamp>
      <setSpec>user-biosyslit</setSpec>
    </header>
    <header>
      <identifier>oai:zenodo.org:282501</identifier>
      <datestamp>2017-02-09T07:08:26Z</datestamp>
      <setSpec>user-biosyslit</setSpec>
    </header>
    <header>
      <identifier>oai:zenodo.org:376065</identifier>
      <datestamp>2017-03-09T09:17:11Z</datestamp>
      <setSpec>user-biosyslit</setSpec>
    </header>
    <header>
      <identifier>oai:zenodo.org:375471</identifier>
      <datestamp>2017-03-07T08:14:47Z</datestamp>
      <setSpec>user-biosyslit</setSpec>
    </header>
    <header>
      <identifier>oai:zenodo.org:162103</identifier>
      <datestamp>2017-05-16T12:56:36Z</datestamp>
      <setSpec>openaire</setSpec>
      <setSpec>user-biosyslit</setSpec>
    </header>
    <header>
      <identifier>oai:zenodo.org:282021</identifier>
      <datestamp>2017-02-09T06:19:55Z</datestamp>
      <setSpec>user-biosyslit</setSpec>
    </header>
    <header>
      <identifier>oai:zenodo.org:375871</identifier>
      <datestamp>2017-03-08T13:23:55Z</datestamp>
      <setSpec>user-biosyslit</setSpec>
    </header>
    <header>
      <identifier>oai:zenodo.org:375996</identifier>
      <datestamp>2017-03-09T08:25:30Z</datestamp>
      <setSpec>user-biosyslit</setSpec>
    </header>
    <header>
      <identifier>oai:zenodo.org:286592</identifier>
      <datestamp>2017-02-09T16:24:12Z</datestamp>
      <setSpec>user-biosyslit</setSpec>
    </header>
    <header>
      <identifier>oai:zenodo.org:287803</identifier>
      <datestamp>2017-02-09T19:21:06Z</datestamp>
      <setSpec>user-biosyslit</setSpec>
    </header>
    <header>
      <identifier>oai:zenodo.org:287489</identifier>
      <datestamp>2017-02-09T18:27:41Z</datestamp>
      <setSpec>user-biosyslit</setSpec>
    </header>
    <header>
      <identifier>oai:zenodo.org:288187</identifier>
      <datestamp>2017-02-09T20:16:01Z</datestamp>
      <setSpec>user-biosyslit</setSpec>
    </header>
    <header>
      <identifier>oai:zenodo.org:288713</identifier>
      <datestamp>2017-02-09T21:48:44Z</datestamp>
      <setSpec>user-biosyslit</setSpec>
    </header>
    <header>
      <identifier>oai:zenodo.org:288490</identifier>
      <datestamp>2017-02-09T21:03:59Z</datestamp>
      <setSpec>user-biosyslit</setSpec>
    </header>
    <header>
      <identifier>oai:zenodo.org:288190</identifier>
      <datestamp>2017-02-09T20:16:09Z</datestamp>
      <setSpec>user-biosyslit</setSpec>
    </header>
    <header>
      <identifier>oai:zenodo.org:289082</identifier>
      <datestamp>2017-02-09T22:36:16Z</datestamp>
      <setSpec>user-biosyslit</setSpec>
    </header>
    <header>
      <identifier>oai:zenodo.org:289113</identifier>
      <datestamp>2017-02-09T22:45:41Z</datestamp>
      <setSpec>user-biosyslit</setSpec>
    </header>
    <header>
      <identifier>oai:zenodo.org:290416</identifier>
      <datestamp>2017-02-13T10:00:38Z</datestamp>
      <setSpec>openaire</setSpec>
      <setSpec>user-biosyslit</setSpec>
    </header>
    <header>
      <identifier>oai:zenodo.org:289461</identifier>
      <datestamp>2017-02-09T23:32:51Z</datestamp>
      <setSpec>user-biosyslit</setSpec>
    </header>
    <header>
      <identifier>oai:zenodo.org:289688</identifier>
      <datestamp>2017-02-10T00:11:02Z</datestamp>
      <setSpec>user-biosyslit</setSpec>
    </header>
    <header>
      <identifier>oai:zenodo.org:289972</identifier>
      <datestamp>2017-02-10T00:53:58Z</datestamp>
      <setSpec>user-biosyslit</setSpec>
    </header>
    <header>
      <identifier>oai:zenodo.org:280092</identifier>
      <datestamp>2017-02-09T02:38:10Z</datestamp>
      <setSpec>user-biosyslit</setSpec>
    </header>
    <header>
      <identifier>oai:zenodo.org:294216</identifier>
      <datestamp>2017-02-20T19:29:42Z</datestamp>
      <setSpec>user-biosyslit</setSpec>
    </header>
    <header>
      <identifier>oai:zenodo.org:312457</identifier>
      <datestamp>2017-02-21T00:44:11Z</datestamp>
      <setSpec>user-biosyslit</setSpec>
    </header>
    <header>
      <identifier>oai:zenodo.org:322167</identifier>
      <datestamp>2017-02-24T07:36:00Z</datestamp>
      <setSpec>user-biosyslit</setSpec>
    </header>
    <header>
      <identifier>oai:zenodo.org:322122</identifier>
      <datestamp>2017-02-24T07:33:57Z</datestamp>
      <setSpec>user-biosyslit</setSpec>
    </header>
    <header>
      <identifier>oai:zenodo.org:322220</identifier>
      <datestamp>2017-02-24T07:38:13Z</datestamp>
      <setSpec>user-biosyslit</setSpec>
    </header>
    <header>
      <identifier>oai:zenodo.org:322729</identifier>
      <datestamp>2017-02-27T09:56:16Z</datestamp>
      <setSpec>user-biosyslit</setSpec>
    </header>
    <header>
      <identifier>oai:zenodo.org:573671</identifier>
      <datestamp>2017-05-10T08:45:35Z</datestamp>
      <setSpec>user-biosyslit</setSpec>
    </header>
    <header>
      <identifier>oai:zenodo.org:343778</identifier>
      <datestamp>2017-02-28T08:26:39Z</datestamp>
      <setSpec>user-biosyslit</setSpec>
    </header>
    <resumptionToken expirationDate="2017-08-31T15:45:45Z" cursor="41900" completeListSize="77796">.eJyNyk0LgjAYAOD_8p4l9mFNhC6hiYeUuSbpJUxFrGniinTRf69L5zo_zxN0XVfgogVFzpI6K2YTh2F7SSzQ5XhV6th-GMpDqspeySJI70mXoow0LPL0tPMyGpkLijtsxJaTA3Ym2aKZ7-UtM8mU0vAhkM92hs_ROfy8isaByk_BIGS_UYJUY-zzWeCNyGn5ffjPZ34-T6_BgqFoanBtgi24PIqx0eA-X683nttROw.DInAMQ.uXHYo46a1HcoRGWjCJT1aoGCazc</resumptionToken>
  </ListIdentifiers>
</OAI-PMH>
