<?xml version='1.0' encoding='UTF-8'?>
<?xml-stylesheet type="text/xsl" href="/static/xsl/oai2.v1.0.xsl"?>
<OAI-PMH xmlns="http://www.openarchives.org/OAI/2.0/" xmlns:xsi="http://www.w3.org/2001/XMLSchema-instance" xsi:schemaLocation="http://www.openarchives.org/OAI/2.0/ http://www.openarchives.org/OAI/2.0/OAI-PMH.xsd">
  <responseDate>2017-08-31T15:42:10Z</responseDate>
  <request verb="ListIdentifiers" resumptionToken=".eJyNyj0LgkAYAOD_8s4S95VXQoto4pBil5IuYSpinhVekZ7432tprvl5JlBVVYKFFsTEnLK1yRjmfImZaYAq-puUp-bjUBwTWVxlnHvJc98lKCU1Dxw17JyUBrpFYYe12EbkiFdD3KAxOsSPVO-HhPovgVy-09EYXPzPK2noyezs3UV8taUgZR-60SiwLTJafB_-8-mfz1EbMOCe1xVYeIUMaF95Xyuwpnl-A9NtUXE.DIm_0g.Acy9jsRge33RjPyG8QMPeMONhkU">https://zenodo.org/oai2d</request>
  <ListIdentifiers>
    <header>
      <identifier>oai:zenodo.org:292670</identifier>
      <datestamp>2017-02-16T18:27:00Z</datestamp>
      <setSpec>user-biosyslit</setSpec>
    </header>
    <header>
      <identifier>oai:zenodo.org:292347</identifier>
      <datestamp>2017-02-20T08:29:32Z</datestamp>
      <setSpec>user-biosyslit</setSpec>
    </header>
    <header>
      <identifier>oai:zenodo.org:292506</identifier>
      <datestamp>2017-02-20T08:18:52Z</datestamp>
      <setSpec>user-biosyslit</setSpec>
    </header>
    <header>
      <identifier>oai:zenodo.org:292352</identifier>
      <datestamp>2017-02-20T08:29:25Z</datestamp>
      <setSpec>user-biosyslit</setSpec>
    </header>
    <header>
      <identifier>oai:zenodo.org:292645</identifier>
      <datestamp>2017-02-16T18:24:24Z</datestamp>
      <setSpec>user-biosyslit</setSpec>
    </header>
    <header>
      <identifier>oai:zenodo.org:292809</identifier>
      <datestamp>2017-02-16T18:42:31Z</datestamp>
      <setSpec>user-biosyslit</setSpec>
    </header>
    <header>
      <identifier>oai:zenodo.org:293454</identifier>
      <datestamp>2017-02-19T13:43:04Z</datestamp>
      <setSpec>user-biosyslit</setSpec>
    </header>
    <header>
      <identifier>oai:zenodo.org:293570</identifier>
      <datestamp>2017-02-19T13:47:39Z</datestamp>
      <setSpec>user-biosyslit</setSpec>
    </header>
    <header>
      <identifier>oai:zenodo.org:292701</identifier>
      <datestamp>2017-02-16T18:30:51Z</datestamp>
      <setSpec>user-biosyslit</setSpec>
    </header>
    <header>
      <identifier>oai:zenodo.org:293913</identifier>
      <datestamp>2017-02-20T18:58:31Z</datestamp>
      <setSpec>user-biosyslit</setSpec>
    </header>
    <header>
      <identifier>oai:zenodo.org:293869</identifier>
      <datestamp>2017-02-20T18:53:00Z</datestamp>
      <setSpec>user-biosyslit</setSpec>
    </header>
    <header>
      <identifier>oai:zenodo.org:293930</identifier>
      <datestamp>2017-02-20T18:59:59Z</datestamp>
      <setSpec>user-biosyslit</setSpec>
    </header>
    <header>
      <identifier>oai:zenodo.org:293178</identifier>
      <datestamp>2017-02-18T20:10:49Z</datestamp>
      <setSpec>user-biosyslit</setSpec>
    </header>
    <header>
      <identifier>oai:zenodo.org:293677</identifier>
      <datestamp>2017-02-19T13:59:00Z</datestamp>
      <setSpec>user-biosyslit</setSpec>
    </header>
    <header>
      <identifier>oai:zenodo.org:293520</identifier>
      <datestamp>2017-02-19T13:46:21Z</datestamp>
      <setSpec>user-biosyslit</setSpec>
    </header>
    <header>
      <identifier>oai:zenodo.org:293912</identifier>
      <datestamp>2017-02-20T18:58:34Z</datestamp>
      <setSpec>user-biosyslit</setSpec>
    </header>
    <header>
      <identifier>oai:zenodo.org:293607</identifier>
      <datestamp>2017-02-19T13:53:21Z</datestamp>
      <setSpec>user-biosyslit</setSpec>
    </header>
    <header>
      <identifier>oai:zenodo.org:293935</identifier>
      <datestamp>2017-02-20T19:00:51Z</datestamp>
      <setSpec>user-biosyslit</setSpec>
    </header>
    <header>
      <identifier>oai:zenodo.org:293856</identifier>
      <datestamp>2017-02-20T18:51:50Z</datestamp>
      <setSpec>user-biosyslit</setSpec>
    </header>
    <header>
      <identifier>oai:zenodo.org:293878</identifier>
      <datestamp>2017-02-20T18:53:48Z</datestamp>
      <setSpec>user-biosyslit</setSpec>
    </header>
    <header>
      <identifier>oai:zenodo.org:302159</identifier>
      <datestamp>2017-02-20T21:46:35Z</datestamp>
      <setSpec>user-biosyslit</setSpec>
    </header>
    <header>
      <identifier>oai:zenodo.org:294172</identifier>
      <datestamp>2017-02-20T19:24:03Z</datestamp>
      <setSpec>user-biosyslit</setSpec>
    </header>
    <header>
      <identifier>oai:zenodo.org:294217</identifier>
      <datestamp>2017-02-20T19:29:46Z</datestamp>
      <setSpec>user-biosyslit</setSpec>
    </header>
    <header>
      <identifier>oai:zenodo.org:301085</identifier>
      <datestamp>2017-02-20T21:29:04Z</datestamp>
      <setSpec>user-biosyslit</setSpec>
    </header>
    <header>
      <identifier>oai:zenodo.org:294257</identifier>
      <datestamp>2017-02-20T19:34:28Z</datestamp>
      <setSpec>user-biosyslit</setSpec>
    </header>
    <header>
      <identifier>oai:zenodo.org:306185</identifier>
      <datestamp>2017-02-20T22:52:10Z</datestamp>
      <setSpec>user-biosyslit</setSpec>
    </header>
    <header>
      <identifier>oai:zenodo.org:294468</identifier>
      <datestamp>2017-02-20T19:39:09Z</datestamp>
      <setSpec>user-biosyslit</setSpec>
    </header>
    <header>
      <identifier>oai:zenodo.org:301207</identifier>
      <datestamp>2017-02-21T14:04:27Z</datestamp>
      <setSpec>openaire</setSpec>
      <setSpec>user-neilreichia</setSpec>
      <setSpec>user-biosyslit</setSpec>
    </header>
    <header>
      <identifier>oai:zenodo.org:305377</identifier>
      <datestamp>2017-02-20T22:39:06Z</datestamp>
      <setSpec>user-biosyslit</setSpec>
    </header>
    <header>
      <identifier>oai:zenodo.org:302135</identifier>
      <datestamp>2017-02-20T21:46:13Z</datestamp>
      <setSpec>user-biosyslit</setSpec>
    </header>
    <header>
      <identifier>oai:zenodo.org:294193</identifier>
      <datestamp>2017-02-20T19:27:28Z</datestamp>
      <setSpec>user-biosyslit</setSpec>
    </header>
    <header>
      <identifier>oai:zenodo.org:306011</identifier>
      <datestamp>2017-02-20T22:49:35Z</datestamp>
      <setSpec>user-biosyslit</setSpec>
    </header>
    <header>
      <identifier>oai:zenodo.org:306809</identifier>
      <datestamp>2017-02-20T23:02:29Z</datestamp>
      <setSpec>user-biosyslit</setSpec>
    </header>
    <header>
      <identifier>oai:zenodo.org:312149</identifier>
      <datestamp>2017-02-21T00:38:01Z</datestamp>
      <setSpec>user-biosyslit</setSpec>
    </header>
    <header>
      <identifier>oai:zenodo.org:306152</identifier>
      <datestamp>2017-02-20T22:51:47Z</datestamp>
      <setSpec>user-biosyslit</setSpec>
    </header>
    <header>
      <identifier>oai:zenodo.org:311118</identifier>
      <datestamp>2017-02-21T00:16:32Z</datestamp>
      <setSpec>user-biosyslit</setSpec>
    </header>
    <header>
      <identifier>oai:zenodo.org:311477</identifier>
      <datestamp>2017-02-21T00:23:14Z</datestamp>
      <setSpec>user-biosyslit</setSpec>
    </header>
    <header>
      <identifier>oai:zenodo.org:305701</identifier>
      <datestamp>2017-02-20T22:44:15Z</datestamp>
      <setSpec>user-biosyslit</setSpec>
    </header>
    <header>
      <identifier>oai:zenodo.org:313158</identifier>
      <datestamp>2017-02-21T00:55:44Z</datestamp>
      <setSpec>user-biosyslit</setSpec>
    </header>
    <header>
      <identifier>oai:zenodo.org:311793</identifier>
      <datestamp>2017-02-21T00:29:34Z</datestamp>
      <setSpec>user-biosyslit</setSpec>
    </header>
    <header>
      <identifier>oai:zenodo.org:321315</identifier>
      <datestamp>2017-02-21T12:16:48Z</datestamp>
      <setSpec>user-biosyslit</setSpec>
    </header>
    <header>
      <identifier>oai:zenodo.org:313185</identifier>
      <datestamp>2017-02-21T00:56:09Z</datestamp>
      <setSpec>user-biosyslit</setSpec>
    </header>
    <header>
      <identifier>oai:zenodo.org:311168</identifier>
      <datestamp>2017-02-21T00:17:14Z</datestamp>
      <setSpec>user-biosyslit</setSpec>
    </header>
    <header>
      <identifier>oai:zenodo.org:311134</identifier>
      <datestamp>2017-02-21T00:16:42Z</datestamp>
      <setSpec>user-biosyslit</setSpec>
    </header>
    <header>
      <identifier>oai:zenodo.org:312985</identifier>
      <datestamp>2017-02-21T00:53:25Z</datestamp>
      <setSpec>user-biosyslit</setSpec>
    </header>
    <header>
      <identifier>oai:zenodo.org:322015</identifier>
      <datestamp>2017-02-24T07:24:29Z</datestamp>
      <setSpec>user-biosyslit</setSpec>
    </header>
    <header>
      <identifier>oai:zenodo.org:322059</identifier>
      <datestamp>2017-02-24T07:27:38Z</datestamp>
      <setSpec>user-biosyslit</setSpec>
    </header>
    <header>
      <identifier>oai:zenodo.org:321258</identifier>
      <datestamp>2017-02-21T09:20:22Z</datestamp>
      <setSpec>user-biosyslit</setSpec>
    </header>
    <header>
      <identifier>oai:zenodo.org:321768</identifier>
      <datestamp>2017-02-23T08:31:35Z</datestamp>
      <setSpec>user-biosyslit</setSpec>
    </header>
    <header>
      <identifier>oai:zenodo.org:321270</identifier>
      <datestamp>2017-02-21T09:21:55Z</datestamp>
      <setSpec>user-biosyslit</setSpec>
    </header>
    <header>
      <identifier>oai:zenodo.org:321990</identifier>
      <datestamp>2017-02-24T07:21:55Z</datestamp>
      <setSpec>user-biosyslit</setSpec>
    </header>
    <header>
      <identifier>oai:zenodo.org:322195</identifier>
      <datestamp>2017-02-24T07:37:13Z</datestamp>
      <setSpec>user-biosyslit</setSpec>
    </header>
    <header>
      <identifier>oai:zenodo.org:321415</identifier>
      <datestamp>2017-02-22T10:00:49Z</datestamp>
      <setSpec>openaire</setSpec>
      <setSpec>user-biosyslit</setSpec>
      <setSpec>user-neilreichia</setSpec>
    </header>
    <header>
      <identifier>oai:zenodo.org:322014</identifier>
      <datestamp>2017-02-24T07:24:57Z</datestamp>
      <setSpec>user-biosyslit</setSpec>
    </header>
    <header>
      <identifier>oai:zenodo.org:322183</identifier>
      <datestamp>2017-02-24T07:36:44Z</datestamp>
      <setSpec>user-biosyslit</setSpec>
    </header>
    <header>
      <identifier>oai:zenodo.org:322292</identifier>
      <datestamp>2017-02-24T08:59:17Z</datestamp>
      <setSpec>user-biosyslit</setSpec>
    </header>
    <header>
      <identifier>oai:zenodo.org:322130</identifier>
      <datestamp>2017-02-24T07:34:24Z</datestamp>
      <setSpec>user-biosyslit</setSpec>
    </header>
    <header>
      <identifier>oai:zenodo.org:322091</identifier>
      <datestamp>2017-02-24T07:30:04Z</datestamp>
      <setSpec>user-biosyslit</setSpec>
    </header>
    <header>
      <identifier>oai:zenodo.org:322391</identifier>
      <datestamp>2017-02-24T15:53:51Z</datestamp>
      <setSpec>user-biosyslit</setSpec>
    </header>
    <header>
      <identifier>oai:zenodo.org:322040</identifier>
      <datestamp>2017-02-24T07:26:12Z</datestamp>
      <setSpec>user-biosyslit</setSpec>
    </header>
    <header>
      <identifier>oai:zenodo.org:322508</identifier>
      <datestamp>2017-02-25T15:17:29Z</datestamp>
      <setSpec>user-biosyslit</setSpec>
    </header>
    <header>
      <identifier>oai:zenodo.org:574216</identifier>
      <datestamp>2017-05-11T07:23:36Z</datestamp>
      <setSpec>user-biosyslit</setSpec>
    </header>
    <header>
      <identifier>oai:zenodo.org:574251</identifier>
      <datestamp>2017-05-11T07:25:07Z</datestamp>
      <setSpec>user-biosyslit</setSpec>
    </header>
    <header>
      <identifier>oai:zenodo.org:573635</identifier>
      <datestamp>2017-05-10T07:35:56Z</datestamp>
      <setSpec>user-biosyslit</setSpec>
    </header>
    <header>
      <identifier>oai:zenodo.org:573615</identifier>
      <datestamp>2017-05-10T07:26:48Z</datestamp>
      <setSpec>user-biosyslit</setSpec>
    </header>
    <header>
      <identifier>oai:zenodo.org:573695</identifier>
      <datestamp>2017-05-10T09:18:04Z</datestamp>
      <setSpec>user-biosyslit</setSpec>
    </header>
    <header>
      <identifier>oai:zenodo.org:573694</identifier>
      <datestamp>2017-05-10T09:18:02Z</datestamp>
      <setSpec>user-biosyslit</setSpec>
    </header>
    <header>
      <identifier>oai:zenodo.org:343760</identifier>
      <datestamp>2017-02-28T08:25:56Z</datestamp>
      <setSpec>user-biosyslit</setSpec>
    </header>
    <header>
      <identifier>oai:zenodo.org:575382</identifier>
      <datestamp>2017-05-12T08:08:04Z</datestamp>
      <setSpec>user-biosyslit</setSpec>
    </header>
    <header>
      <identifier>oai:zenodo.org:545702</identifier>
      <datestamp>2017-04-12T07:16:57Z</datestamp>
      <setSpec>user-biosyslit</setSpec>
    </header>
    <header>
      <identifier>oai:zenodo.org:344315</identifier>
      <datestamp>2017-02-28T23:41:56Z</datestamp>
      <setSpec>user-biosyslit</setSpec>
    </header>
    <header>
      <identifier>oai:zenodo.org:344284</identifier>
      <datestamp>2017-02-28T23:42:32Z</datestamp>
      <setSpec>user-biosyslit</setSpec>
    </header>
    <header>
      <identifier>oai:zenodo.org:344362</identifier>
      <datestamp>2017-02-28T23:40:47Z</datestamp>
      <setSpec>user-biosyslit</setSpec>
    </header>
    <header>
      <identifier>oai:zenodo.org:344363</identifier>
      <datestamp>2017-02-28T23:40:46Z</datestamp>
      <setSpec>user-biosyslit</setSpec>
    </header>
    <header>
      <identifier>oai:zenodo.org:344551</identifier>
      <datestamp>2017-02-28T22:59:56Z</datestamp>
      <setSpec>user-biosyslit</setSpec>
    </header>
    <header>
      <identifier>oai:zenodo.org:344429</identifier>
      <datestamp>2017-02-28T23:26:13Z</datestamp>
      <setSpec>openaire_data</setSpec>
      <setSpec>user-biosyslit</setSpec>
    </header>
    <header>
      <identifier>oai:zenodo.org:344468</identifier>
      <datestamp>2017-02-28T23:24:41Z</datestamp>
      <setSpec>user-biosyslit</setSpec>
    </header>
    <header>
      <identifier>oai:zenodo.org:344649</identifier>
      <datestamp>2017-03-01T08:06:07Z</datestamp>
      <setSpec>user-biosyslit</setSpec>
    </header>
    <header>
      <identifier>oai:zenodo.org:344657</identifier>
      <datestamp>2017-03-01T08:05:58Z</datestamp>
      <setSpec>user-biosyslit</setSpec>
    </header>
    <header>
      <identifier>oai:zenodo.org:344661</identifier>
      <datestamp>2017-03-01T08:05:50Z</datestamp>
      <setSpec>user-biosyslit</setSpec>
    </header>
    <header>
      <identifier>oai:zenodo.org:345072</identifier>
      <datestamp>2017-03-02T09:31:11Z</datestamp>
      <setSpec>user-biosyslit</setSpec>
    </header>
    <header>
      <identifier>oai:zenodo.org:345249</identifier>
      <datestamp>2017-03-03T08:37:14Z</datestamp>
      <setSpec>user-biosyslit</setSpec>
    </header>
    <header>
      <identifier>oai:zenodo.org:345804</identifier>
      <datestamp>2017-03-06T08:45:34Z</datestamp>
      <setSpec>user-biosyslit</setSpec>
    </header>
    <header>
      <identifier>oai:zenodo.org:345759</identifier>
      <datestamp>2017-03-06T08:12:10Z</datestamp>
      <setSpec>user-biosyslit</setSpec>
    </header>
    <header>
      <identifier>oai:zenodo.org:241816</identifier>
      <datestamp>2017-01-13T06:34:55Z</datestamp>
      <setSpec>user-biosyslit</setSpec>
    </header>
    <header>
      <identifier>oai:zenodo.org:272146</identifier>
      <datestamp>2017-02-08T03:49:48Z</datestamp>
      <setSpec>user-biosyslit</setSpec>
    </header>
    <header>
      <identifier>oai:zenodo.org:272342</identifier>
      <datestamp>2017-02-08T04:20:04Z</datestamp>
      <setSpec>user-biosyslit</setSpec>
    </header>
    <header>
      <identifier>oai:zenodo.org:242221</identifier>
      <datestamp>2017-01-13T12:14:03Z</datestamp>
      <setSpec>user-biosyslit</setSpec>
    </header>
    <header>
      <identifier>oai:zenodo.org:241969</identifier>
      <datestamp>2017-01-13T08:54:57Z</datestamp>
      <setSpec>user-biosyslit</setSpec>
    </header>
    <header>
      <identifier>oai:zenodo.org:271918</identifier>
      <datestamp>2017-02-08T03:04:24Z</datestamp>
      <setSpec>user-biosyslit</setSpec>
    </header>
    <header>
      <identifier>oai:zenodo.org:242270</identifier>
      <datestamp>2017-01-13T12:40:59Z</datestamp>
      <setSpec>user-biosyslit</setSpec>
    </header>
    <header>
      <identifier>oai:zenodo.org:242620</identifier>
      <datestamp>2017-01-13T17:48:56Z</datestamp>
      <setSpec>user-biosyslit</setSpec>
    </header>
    <header>
      <identifier>oai:zenodo.org:242087</identifier>
      <datestamp>2017-01-13T10:22:58Z</datestamp>
      <setSpec>user-biosyslit</setSpec>
    </header>
    <header>
      <identifier>oai:zenodo.org:272104</identifier>
      <datestamp>2017-02-08T03:45:07Z</datestamp>
      <setSpec>user-biosyslit</setSpec>
    </header>
    <header>
      <identifier>oai:zenodo.org:243513</identifier>
      <datestamp>2017-01-14T06:48:55Z</datestamp>
      <setSpec>user-biosyslit</setSpec>
    </header>
    <header>
      <identifier>oai:zenodo.org:243427</identifier>
      <datestamp>2017-01-14T05:36:12Z</datestamp>
      <setSpec>user-biosyslit</setSpec>
    </header>
    <header>
      <identifier>oai:zenodo.org:243047</identifier>
      <datestamp>2017-01-13T22:36:43Z</datestamp>
      <setSpec>user-biosyslit</setSpec>
    </header>
    <header>
      <identifier>oai:zenodo.org:243543</identifier>
      <datestamp>2017-01-14T07:13:57Z</datestamp>
      <setSpec>user-biosyslit</setSpec>
    </header>
    <header>
      <identifier>oai:zenodo.org:242884</identifier>
      <datestamp>2017-01-13T20:22:24Z</datestamp>
      <setSpec>user-biosyslit</setSpec>
    </header>
    <header>
      <identifier>oai:zenodo.org:242885</identifier>
      <datestamp>2017-01-13T20:22:26Z</datestamp>
      <setSpec>user-biosyslit</setSpec>
    </header>
    <resumptionToken expirationDate="2017-08-31T15:44:10Z" cursor="17900" completeListSize="77796">.eJyNyssKgkAUANB_uWuJeaCjQpuwxEWKTiPZJkxFzOmBU6gj_ntuWtf6nAlUVZXgohWzmElM6lgWI9h2LANU0T2kPDcLQ3FMZXGXIvfTd3JLUUZqFnpq2HsZDXWLohvWfBeTI7YH0aAxPohXppMhpUHP0ZbtdTyG12B5JY18ebr4Ty7uG8lJ2UXbeOR4w0-0-D7859M_n6fWYMAzrytwsY0NaPu8qxW40zx_AK2tUU4.DIm_0g.wvXCPD8gufN7CcORFuCLhD5QY44</resumptionToken>
  </ListIdentifiers>
</OAI-PMH>
