<?xml version='1.0' encoding='UTF-8'?>
<?xml-stylesheet type="text/xsl" href="/static/xsl/oai2.v1.0.xsl"?>
<OAI-PMH xmlns="http://www.openarchives.org/OAI/2.0/" xmlns:xsi="http://www.w3.org/2001/XMLSchema-instance" xsi:schemaLocation="http://www.openarchives.org/OAI/2.0/ http://www.openarchives.org/OAI/2.0/OAI-PMH.xsd">
  <responseDate>2017-08-31T15:46:00Z</responseDate>
  <request verb="ListIdentifiers" resumptionToken=".eJyNyk0LgjAYAOD_8p4lNufHErqIJh5SbCnpJUxFzFnhCnXif89L5zo_zwyiqkqw0EbHW2rqhq5plFBqEAVE0T84vzQrQ3FOeHHnce4l72OXoFStzcAR48FJSSBbFHZYsn2knjEd4wZN0Sl-pfI4JsQfGHLNg4ym4OavryShx7Or92Tx3eZMLfvQjSaGbZaR4vvwn0_-fI7YgQLPvK7AMrGmQDvkfS3AmpflA66_UVE.DInAuA.bN3edVqASZoOdP6doHCZTt5yICY">https://zenodo.org/oai2d</request>
  <ListIdentifiers>
    <header>
      <identifier>oai:zenodo.org:285208</identifier>
      <datestamp>2017-02-09T13:00:56Z</datestamp>
      <setSpec>user-biosyslit</setSpec>
    </header>
    <header>
      <identifier>oai:zenodo.org:285207</identifier>
      <datestamp>2017-02-09T13:00:53Z</datestamp>
      <setSpec>user-biosyslit</setSpec>
    </header>
    <header>
      <identifier>oai:zenodo.org:285212</identifier>
      <datestamp>2017-02-09T13:01:09Z</datestamp>
      <setSpec>user-biosyslit</setSpec>
    </header>
    <header>
      <identifier>oai:zenodo.org:285206</identifier>
      <datestamp>2017-02-09T13:00:48Z</datestamp>
      <setSpec>user-biosyslit</setSpec>
    </header>
    <header>
      <identifier>oai:zenodo.org:259193</identifier>
      <datestamp>2017-01-24T08:49:31Z</datestamp>
      <setSpec>user-biosyslit</setSpec>
    </header>
    <header>
      <identifier>oai:zenodo.org:259206</identifier>
      <datestamp>2017-01-24T08:49:20Z</datestamp>
      <setSpec>user-biosyslit</setSpec>
    </header>
    <header>
      <identifier>oai:zenodo.org:259210</identifier>
      <datestamp>2017-01-24T08:49:30Z</datestamp>
      <setSpec>user-biosyslit</setSpec>
    </header>
    <header>
      <identifier>oai:zenodo.org:259209</identifier>
      <datestamp>2017-01-24T08:49:27Z</datestamp>
      <setSpec>user-biosyslit</setSpec>
    </header>
    <header>
      <identifier>oai:zenodo.org:259208</identifier>
      <datestamp>2017-01-24T08:49:25Z</datestamp>
      <setSpec>user-biosyslit</setSpec>
    </header>
    <header>
      <identifier>oai:zenodo.org:283459</identifier>
      <datestamp>2017-02-09T08:57:03Z</datestamp>
      <setSpec>user-biosyslit</setSpec>
    </header>
    <header>
      <identifier>oai:zenodo.org:283451</identifier>
      <datestamp>2017-02-09T08:56:44Z</datestamp>
      <setSpec>user-biosyslit</setSpec>
    </header>
    <header>
      <identifier>oai:zenodo.org:283464</identifier>
      <datestamp>2017-02-09T08:57:17Z</datestamp>
      <setSpec>user-biosyslit</setSpec>
    </header>
    <header>
      <identifier>oai:zenodo.org:283456</identifier>
      <datestamp>2017-02-09T08:56:56Z</datestamp>
      <setSpec>user-biosyslit</setSpec>
    </header>
    <header>
      <identifier>oai:zenodo.org:283460</identifier>
      <datestamp>2017-02-09T08:57:07Z</datestamp>
      <setSpec>user-biosyslit</setSpec>
    </header>
    <header>
      <identifier>oai:zenodo.org:283455</identifier>
      <datestamp>2017-02-09T08:56:54Z</datestamp>
      <setSpec>user-biosyslit</setSpec>
    </header>
    <header>
      <identifier>oai:zenodo.org:253502</identifier>
      <datestamp>2017-01-20T07:55:46Z</datestamp>
      <setSpec>user-biosyslit</setSpec>
    </header>
    <header>
      <identifier>oai:zenodo.org:250186</identifier>
      <datestamp>2017-01-18T05:58:34Z</datestamp>
      <setSpec>user-biosyslit</setSpec>
    </header>
    <header>
      <identifier>oai:zenodo.org:250185</identifier>
      <datestamp>2017-01-18T05:58:31Z</datestamp>
      <setSpec>user-biosyslit</setSpec>
    </header>
    <header>
      <identifier>oai:zenodo.org:250182</identifier>
      <datestamp>2017-01-18T05:58:18Z</datestamp>
      <setSpec>user-biosyslit</setSpec>
    </header>
    <header>
      <identifier>oai:zenodo.org:250183</identifier>
      <datestamp>2017-01-18T05:58:22Z</datestamp>
      <setSpec>user-biosyslit</setSpec>
    </header>
    <header>
      <identifier>oai:zenodo.org:250184</identifier>
      <datestamp>2017-01-18T05:58:26Z</datestamp>
      <setSpec>user-biosyslit</setSpec>
    </header>
    <header>
      <identifier>oai:zenodo.org:250188</identifier>
      <datestamp>2017-01-18T05:58:41Z</datestamp>
      <setSpec>user-biosyslit</setSpec>
    </header>
    <header>
      <identifier>oai:zenodo.org:253513</identifier>
      <datestamp>2017-01-20T07:55:45Z</datestamp>
      <setSpec>user-biosyslit</setSpec>
    </header>
    <header>
      <identifier>oai:zenodo.org:250187</identifier>
      <datestamp>2017-01-18T05:58:37Z</datestamp>
      <setSpec>user-biosyslit</setSpec>
    </header>
    <header>
      <identifier>oai:zenodo.org:281893</identifier>
      <datestamp>2017-02-09T06:08:15Z</datestamp>
      <setSpec>user-biosyslit</setSpec>
    </header>
    <header>
      <identifier>oai:zenodo.org:286082</identifier>
      <datestamp>2017-02-09T15:11:00Z</datestamp>
      <setSpec>user-biosyslit</setSpec>
    </header>
    <header>
      <identifier>oai:zenodo.org:281897</identifier>
      <datestamp>2017-02-09T06:08:11Z</datestamp>
      <setSpec>user-biosyslit</setSpec>
    </header>
    <header>
      <identifier>oai:zenodo.org:281896</identifier>
      <datestamp>2017-02-09T06:08:09Z</datestamp>
      <setSpec>user-biosyslit</setSpec>
    </header>
    <header>
      <identifier>oai:zenodo.org:286079</identifier>
      <datestamp>2017-02-09T15:10:54Z</datestamp>
      <setSpec>user-biosyslit</setSpec>
    </header>
    <header>
      <identifier>oai:zenodo.org:278922</identifier>
      <datestamp>2017-02-09T00:10:21Z</datestamp>
      <setSpec>user-biosyslit</setSpec>
    </header>
    <header>
      <identifier>oai:zenodo.org:278923</identifier>
      <datestamp>2017-02-09T00:10:25Z</datestamp>
      <setSpec>user-biosyslit</setSpec>
    </header>
    <header>
      <identifier>oai:zenodo.org:234574</identifier>
      <datestamp>2017-01-08T22:00:08Z</datestamp>
      <setSpec>user-biosyslit</setSpec>
    </header>
    <header>
      <identifier>oai:zenodo.org:239450</identifier>
      <datestamp>2017-01-11T20:52:55Z</datestamp>
      <setSpec>user-biosyslit</setSpec>
    </header>
    <header>
      <identifier>oai:zenodo.org:234785</identifier>
      <datestamp>2017-01-09T02:12:27Z</datestamp>
      <setSpec>user-biosyslit</setSpec>
    </header>
    <header>
      <identifier>oai:zenodo.org:234792</identifier>
      <datestamp>2017-01-09T02:12:54Z</datestamp>
      <setSpec>user-biosyslit</setSpec>
    </header>
    <header>
      <identifier>oai:zenodo.org:234786</identifier>
      <datestamp>2017-01-09T02:12:32Z</datestamp>
      <setSpec>user-biosyslit</setSpec>
    </header>
    <header>
      <identifier>oai:zenodo.org:234790</identifier>
      <datestamp>2017-01-09T02:12:48Z</datestamp>
      <setSpec>user-biosyslit</setSpec>
    </header>
    <header>
      <identifier>oai:zenodo.org:265860</identifier>
      <datestamp>2017-01-31T22:24:11Z</datestamp>
      <setSpec>user-biosyslit</setSpec>
    </header>
    <header>
      <identifier>oai:zenodo.org:265866</identifier>
      <datestamp>2017-01-31T22:24:26Z</datestamp>
      <setSpec>user-biosyslit</setSpec>
    </header>
    <header>
      <identifier>oai:zenodo.org:265861</identifier>
      <datestamp>2017-01-31T22:24:14Z</datestamp>
      <setSpec>user-biosyslit</setSpec>
    </header>
    <header>
      <identifier>oai:zenodo.org:265864</identifier>
      <datestamp>2017-01-31T22:24:21Z</datestamp>
      <setSpec>user-biosyslit</setSpec>
    </header>
    <header>
      <identifier>oai:zenodo.org:226793</identifier>
      <datestamp>2017-01-01T03:26:23Z</datestamp>
      <setSpec>user-biosyslit</setSpec>
    </header>
    <header>
      <identifier>oai:zenodo.org:236849</identifier>
      <datestamp>2017-01-10T06:25:33Z</datestamp>
      <setSpec>user-biosyslit</setSpec>
    </header>
    <header>
      <identifier>oai:zenodo.org:285528</identifier>
      <datestamp>2017-02-09T13:47:51Z</datestamp>
      <setSpec>user-biosyslit</setSpec>
    </header>
    <header>
      <identifier>oai:zenodo.org:285530</identifier>
      <datestamp>2017-02-09T13:47:56Z</datestamp>
      <setSpec>user-biosyslit</setSpec>
    </header>
    <header>
      <identifier>oai:zenodo.org:285536</identifier>
      <datestamp>2017-02-09T13:48:10Z</datestamp>
      <setSpec>user-biosyslit</setSpec>
    </header>
    <header>
      <identifier>oai:zenodo.org:285537</identifier>
      <datestamp>2017-02-09T13:48:13Z</datestamp>
      <setSpec>user-biosyslit</setSpec>
    </header>
    <header>
      <identifier>oai:zenodo.org:285533</identifier>
      <datestamp>2017-02-09T13:48:03Z</datestamp>
      <setSpec>user-biosyslit</setSpec>
    </header>
    <header>
      <identifier>oai:zenodo.org:285531</identifier>
      <datestamp>2017-02-09T13:47:58Z</datestamp>
      <setSpec>user-biosyslit</setSpec>
    </header>
    <header>
      <identifier>oai:zenodo.org:285535</identifier>
      <datestamp>2017-02-09T13:48:07Z</datestamp>
      <setSpec>user-biosyslit</setSpec>
    </header>
    <header>
      <identifier>oai:zenodo.org:285527</identifier>
      <datestamp>2017-02-09T13:47:49Z</datestamp>
      <setSpec>user-biosyslit</setSpec>
    </header>
    <header>
      <identifier>oai:zenodo.org:254293</identifier>
      <datestamp>2017-01-20T17:54:25Z</datestamp>
      <setSpec>user-biosyslit</setSpec>
    </header>
    <header>
      <identifier>oai:zenodo.org:254351</identifier>
      <datestamp>2017-01-20T17:54:23Z</datestamp>
      <setSpec>user-biosyslit</setSpec>
    </header>
    <header>
      <identifier>oai:zenodo.org:236784</identifier>
      <datestamp>2017-01-10T05:30:27Z</datestamp>
      <setSpec>user-biosyslit</setSpec>
    </header>
    <header>
      <identifier>oai:zenodo.org:236787</identifier>
      <datestamp>2017-01-10T05:30:36Z</datestamp>
      <setSpec>user-biosyslit</setSpec>
    </header>
    <header>
      <identifier>oai:zenodo.org:276044</identifier>
      <datestamp>2017-02-08T18:00:31Z</datestamp>
      <setSpec>user-biosyslit</setSpec>
    </header>
    <header>
      <identifier>oai:zenodo.org:276047</identifier>
      <datestamp>2017-02-08T18:00:40Z</datestamp>
      <setSpec>user-biosyslit</setSpec>
    </header>
    <header>
      <identifier>oai:zenodo.org:276042</identifier>
      <datestamp>2017-02-08T18:00:24Z</datestamp>
      <setSpec>user-biosyslit</setSpec>
    </header>
    <header>
      <identifier>oai:zenodo.org:254348</identifier>
      <datestamp>2017-01-20T17:54:14Z</datestamp>
      <setSpec>user-biosyslit</setSpec>
    </header>
    <header>
      <identifier>oai:zenodo.org:254349</identifier>
      <datestamp>2017-01-20T17:54:17Z</datestamp>
      <setSpec>user-biosyslit</setSpec>
    </header>
    <header>
      <identifier>oai:zenodo.org:264573</identifier>
      <datestamp>2017-01-30T23:32:34Z</datestamp>
      <setSpec>user-biosyslit</setSpec>
    </header>
    <header>
      <identifier>oai:zenodo.org:264574</identifier>
      <datestamp>2017-01-30T23:32:37Z</datestamp>
      <setSpec>user-biosyslit</setSpec>
    </header>
    <header>
      <identifier>oai:zenodo.org:283176</identifier>
      <datestamp>2017-02-09T08:17:25Z</datestamp>
      <setSpec>user-biosyslit</setSpec>
    </header>
    <header>
      <identifier>oai:zenodo.org:283175</identifier>
      <datestamp>2017-02-09T08:17:30Z</datestamp>
      <setSpec>user-biosyslit</setSpec>
    </header>
    <header>
      <identifier>oai:zenodo.org:249693</identifier>
      <datestamp>2017-01-17T22:40:31Z</datestamp>
      <setSpec>user-biosyslit</setSpec>
    </header>
    <header>
      <identifier>oai:zenodo.org:249692</identifier>
      <datestamp>2017-01-17T22:40:28Z</datestamp>
      <setSpec>user-biosyslit</setSpec>
    </header>
    <header>
      <identifier>oai:zenodo.org:281945</identifier>
      <datestamp>2017-02-09T06:12:02Z</datestamp>
      <setSpec>user-biosyslit</setSpec>
    </header>
    <header>
      <identifier>oai:zenodo.org:281929</identifier>
      <datestamp>2017-02-09T06:11:27Z</datestamp>
      <setSpec>user-biosyslit</setSpec>
    </header>
    <header>
      <identifier>oai:zenodo.org:281933</identifier>
      <datestamp>2017-02-09T06:11:36Z</datestamp>
      <setSpec>user-biosyslit</setSpec>
    </header>
    <header>
      <identifier>oai:zenodo.org:281944</identifier>
      <datestamp>2017-02-09T06:12:00Z</datestamp>
      <setSpec>user-biosyslit</setSpec>
    </header>
    <header>
      <identifier>oai:zenodo.org:281938</identifier>
      <datestamp>2017-02-09T06:11:47Z</datestamp>
      <setSpec>user-biosyslit</setSpec>
    </header>
    <header>
      <identifier>oai:zenodo.org:281948</identifier>
      <datestamp>2017-02-09T06:12:08Z</datestamp>
      <setSpec>user-biosyslit</setSpec>
    </header>
    <header>
      <identifier>oai:zenodo.org:281949</identifier>
      <datestamp>2017-02-09T06:12:10Z</datestamp>
      <setSpec>user-biosyslit</setSpec>
    </header>
    <header>
      <identifier>oai:zenodo.org:236399</identifier>
      <datestamp>2017-01-09T23:42:31Z</datestamp>
      <setSpec>user-biosyslit</setSpec>
    </header>
    <header>
      <identifier>oai:zenodo.org:256000</identifier>
      <datestamp>2017-01-22T01:41:48Z</datestamp>
      <setSpec>user-biosyslit</setSpec>
    </header>
    <header>
      <identifier>oai:zenodo.org:255991</identifier>
      <datestamp>2017-01-22T01:41:16Z</datestamp>
      <setSpec>user-biosyslit</setSpec>
    </header>
    <header>
      <identifier>oai:zenodo.org:255995</identifier>
      <datestamp>2017-01-22T01:41:32Z</datestamp>
      <setSpec>user-biosyslit</setSpec>
    </header>
    <header>
      <identifier>oai:zenodo.org:255998</identifier>
      <datestamp>2017-01-22T01:41:42Z</datestamp>
      <setSpec>user-biosyslit</setSpec>
    </header>
    <header>
      <identifier>oai:zenodo.org:255992</identifier>
      <datestamp>2017-01-22T01:41:19Z</datestamp>
      <setSpec>user-biosyslit</setSpec>
    </header>
    <header>
      <identifier>oai:zenodo.org:255996</identifier>
      <datestamp>2017-01-22T01:41:35Z</datestamp>
      <setSpec>user-biosyslit</setSpec>
    </header>
    <header>
      <identifier>oai:zenodo.org:230995</identifier>
      <datestamp>2017-01-05T12:04:54Z</datestamp>
      <setSpec>user-biosyslit</setSpec>
    </header>
    <header>
      <identifier>oai:zenodo.org:242056</identifier>
      <datestamp>2017-01-13T09:54:54Z</datestamp>
      <setSpec>user-biosyslit</setSpec>
    </header>
    <header>
      <identifier>oai:zenodo.org:242057</identifier>
      <datestamp>2017-01-13T09:54:59Z</datestamp>
      <setSpec>user-biosyslit</setSpec>
    </header>
    <header>
      <identifier>oai:zenodo.org:230996</identifier>
      <datestamp>2017-01-05T12:04:49Z</datestamp>
      <setSpec>user-biosyslit</setSpec>
    </header>
    <header>
      <identifier>oai:zenodo.org:233683</identifier>
      <datestamp>2017-01-08T09:55:24Z</datestamp>
      <setSpec>user-biosyslit</setSpec>
    </header>
    <header>
      <identifier>oai:zenodo.org:233691</identifier>
      <datestamp>2017-01-08T09:55:22Z</datestamp>
      <setSpec>user-biosyslit</setSpec>
    </header>
    <header>
      <identifier>oai:zenodo.org:233690</identifier>
      <datestamp>2017-01-08T09:55:19Z</datestamp>
      <setSpec>user-biosyslit</setSpec>
    </header>
    <header>
      <identifier>oai:zenodo.org:233689</identifier>
      <datestamp>2017-01-08T09:55:17Z</datestamp>
      <setSpec>user-biosyslit</setSpec>
    </header>
    <header>
      <identifier>oai:zenodo.org:233688</identifier>
      <datestamp>2017-01-08T09:55:14Z</datestamp>
      <setSpec>user-biosyslit</setSpec>
    </header>
    <header>
      <identifier>oai:zenodo.org:232869</identifier>
      <datestamp>2017-01-07T00:47:52Z</datestamp>
      <setSpec>user-biosyslit</setSpec>
    </header>
    <header>
      <identifier>oai:zenodo.org:232877</identifier>
      <datestamp>2017-01-07T00:47:22Z</datestamp>
      <setSpec>user-biosyslit</setSpec>
    </header>
    <header>
      <identifier>oai:zenodo.org:232871</identifier>
      <datestamp>2017-01-07T00:46:05Z</datestamp>
      <setSpec>user-biosyslit</setSpec>
    </header>
    <header>
      <identifier>oai:zenodo.org:232873</identifier>
      <datestamp>2017-01-07T00:46:13Z</datestamp>
      <setSpec>user-biosyslit</setSpec>
    </header>
    <header>
      <identifier>oai:zenodo.org:232878</identifier>
      <datestamp>2017-01-07T00:47:42Z</datestamp>
      <setSpec>user-biosyslit</setSpec>
    </header>
    <header>
      <identifier>oai:zenodo.org:233746</identifier>
      <datestamp>2017-01-08T11:17:33Z</datestamp>
      <setSpec>user-biosyslit</setSpec>
    </header>
    <header>
      <identifier>oai:zenodo.org:232876</identifier>
      <datestamp>2017-01-07T00:47:07Z</datestamp>
      <setSpec>user-biosyslit</setSpec>
    </header>
    <header>
      <identifier>oai:zenodo.org:233745</identifier>
      <datestamp>2017-01-08T11:17:30Z</datestamp>
      <setSpec>user-biosyslit</setSpec>
    </header>
    <header>
      <identifier>oai:zenodo.org:233744</identifier>
      <datestamp>2017-01-08T11:17:34Z</datestamp>
      <setSpec>user-biosyslit</setSpec>
    </header>
    <header>
      <identifier>oai:zenodo.org:230402</identifier>
      <datestamp>2017-01-05T00:48:40Z</datestamp>
      <setSpec>user-biosyslit</setSpec>
    </header>
    <header>
      <identifier>oai:zenodo.org:230407</identifier>
      <datestamp>2017-01-05T00:48:20Z</datestamp>
      <setSpec>user-biosyslit</setSpec>
    </header>
    <resumptionToken expirationDate="2017-08-31T15:48:00Z" cursor="71300" completeListSize="77796">.eJyNz7EOgjAUQNF_6UxMHxUqJC4EJAxAsEKExSAQghQ1VCOU8O_i4KzzPcudkKiqEpl4hSnV1sQAA3TQdQBNQaLob5yfmqWj4pjw4srj3E2e-y7BqVrTwBaDb6ckkC0OO5BsF6lH2Axxg8foED9SuR8S4r0YdqgvozG4eIsrSejy7OzeWXy1OFPLPnSikYHFMlJ8Hfzp5E9niy1S0D2vK2TSz1X7yvtaIHOa5zfPQlFw.DInAuA.4mdq_D7Wy8Rf3TuUuWuw60ImIPU</resumptionToken>
  </ListIdentifiers>
</OAI-PMH>
