<?xml version='1.0' encoding='UTF-8'?>
<?xml-stylesheet type="text/xsl" href="/static/xsl/oai2.v1.0.xsl"?>
<OAI-PMH xmlns="http://www.openarchives.org/OAI/2.0/" xmlns:xsi="http://www.w3.org/2001/XMLSchema-instance" xsi:schemaLocation="http://www.openarchives.org/OAI/2.0/ http://www.openarchives.org/OAI/2.0/OAI-PMH.xsd">
  <responseDate>2017-08-31T15:44:49Z</responseDate>
  <request verb="ListIdentifiers" resumptionToken=".eJyNysEKgjAYAOB3-c8Sm5uaQhfRxIOKLSW9hKmIOStckU5897x0rvP3zSDqugILbahBNYKJbupUoybGVAFRDnfOz-3qUJ5SXt54Unjp69CnKFMbI3TEGDgZCWWHoh5Lto_VE96OSYum-Jg8M3kYU-K_GXKNQMZTePXXV5HI4_nFe7DkZnOmVkPkxhPDNstJ-X34zyd_PkfsQIFH0dRgaRpRoHsXQyPAmpflA9LjUXQ.DInAcQ.OE9q6bCO9Ijr96dfntKrK-cfCzc">https://zenodo.org/oai2d</request>
  <ListIdentifiers>
    <header>
      <identifier>oai:zenodo.org:272577</identifier>
      <datestamp>2017-02-08T05:10:03Z</datestamp>
      <setSpec>user-biosyslit</setSpec>
    </header>
    <header>
      <identifier>oai:zenodo.org:247255</identifier>
      <datestamp>2017-01-16T13:30:15Z</datestamp>
      <setSpec>user-biosyslit</setSpec>
    </header>
    <header>
      <identifier>oai:zenodo.org:247440</identifier>
      <datestamp>2017-01-16T15:29:32Z</datestamp>
      <setSpec>user-biosyslit</setSpec>
    </header>
    <header>
      <identifier>oai:zenodo.org:246916</identifier>
      <datestamp>2017-01-16T10:04:53Z</datestamp>
      <setSpec>user-biosyslit</setSpec>
    </header>
    <header>
      <identifier>oai:zenodo.org:247425</identifier>
      <datestamp>2017-01-16T15:28:26Z</datestamp>
      <setSpec>user-biosyslit</setSpec>
    </header>
    <header>
      <identifier>oai:zenodo.org:246832</identifier>
      <datestamp>2017-01-16T09:09:13Z</datestamp>
      <setSpec>user-biosyslit</setSpec>
    </header>
    <header>
      <identifier>oai:zenodo.org:246958</identifier>
      <datestamp>2017-01-16T10:07:18Z</datestamp>
      <setSpec>user-biosyslit</setSpec>
    </header>
    <header>
      <identifier>oai:zenodo.org:246791</identifier>
      <datestamp>2017-01-16T08:20:01Z</datestamp>
      <setSpec>user-biosyslit</setSpec>
    </header>
    <header>
      <identifier>oai:zenodo.org:246977</identifier>
      <datestamp>2017-01-16T10:08:30Z</datestamp>
      <setSpec>user-biosyslit</setSpec>
    </header>
    <header>
      <identifier>oai:zenodo.org:247426</identifier>
      <datestamp>2017-01-16T15:28:29Z</datestamp>
      <setSpec>user-biosyslit</setSpec>
    </header>
    <header>
      <identifier>oai:zenodo.org:246912</identifier>
      <datestamp>2017-01-16T10:04:39Z</datestamp>
      <setSpec>user-biosyslit</setSpec>
    </header>
    <header>
      <identifier>oai:zenodo.org:247258</identifier>
      <datestamp>2017-01-16T13:30:28Z</datestamp>
      <setSpec>user-biosyslit</setSpec>
    </header>
    <header>
      <identifier>oai:zenodo.org:247316</identifier>
      <datestamp>2017-01-16T14:07:53Z</datestamp>
      <setSpec>user-biosyslit</setSpec>
    </header>
    <header>
      <identifier>oai:zenodo.org:246733</identifier>
      <datestamp>2017-01-16T07:16:53Z</datestamp>
      <setSpec>user-biosyslit</setSpec>
    </header>
    <header>
      <identifier>oai:zenodo.org:246952</identifier>
      <datestamp>2017-01-16T10:06:56Z</datestamp>
      <setSpec>user-biosyslit</setSpec>
    </header>
    <header>
      <identifier>oai:zenodo.org:246994</identifier>
      <datestamp>2017-01-16T10:09:29Z</datestamp>
      <setSpec>user-biosyslit</setSpec>
    </header>
    <header>
      <identifier>oai:zenodo.org:246978</identifier>
      <datestamp>2017-01-16T10:08:36Z</datestamp>
      <setSpec>user-biosyslit</setSpec>
    </header>
    <header>
      <identifier>oai:zenodo.org:248148</identifier>
      <datestamp>2017-01-17T00:27:05Z</datestamp>
      <setSpec>user-biosyslit</setSpec>
    </header>
    <header>
      <identifier>oai:zenodo.org:246709</identifier>
      <datestamp>2017-01-16T06:59:54Z</datestamp>
      <setSpec>user-biosyslit</setSpec>
    </header>
    <header>
      <identifier>oai:zenodo.org:246967</identifier>
      <datestamp>2017-01-16T10:07:54Z</datestamp>
      <setSpec>user-biosyslit</setSpec>
    </header>
    <header>
      <identifier>oai:zenodo.org:247354</identifier>
      <datestamp>2017-01-16T14:30:46Z</datestamp>
      <setSpec>user-biosyslit</setSpec>
    </header>
    <header>
      <identifier>oai:zenodo.org:272405</identifier>
      <datestamp>2017-02-08T04:33:26Z</datestamp>
      <setSpec>user-biosyslit</setSpec>
    </header>
    <header>
      <identifier>oai:zenodo.org:247227</identifier>
      <datestamp>2017-01-16T12:54:21Z</datestamp>
      <setSpec>user-biosyslit</setSpec>
    </header>
    <header>
      <identifier>oai:zenodo.org:246975</identifier>
      <datestamp>2017-01-16T10:08:24Z</datestamp>
      <setSpec>user-biosyslit</setSpec>
    </header>
    <header>
      <identifier>oai:zenodo.org:246847</identifier>
      <datestamp>2017-01-16T09:21:03Z</datestamp>
      <setSpec>user-biosyslit</setSpec>
    </header>
    <header>
      <identifier>oai:zenodo.org:247298</identifier>
      <datestamp>2017-01-16T13:53:32Z</datestamp>
      <setSpec>user-biosyslit</setSpec>
    </header>
    <header>
      <identifier>oai:zenodo.org:246846</identifier>
      <datestamp>2017-01-16T09:22:24Z</datestamp>
      <setSpec>user-biosyslit</setSpec>
    </header>
    <header>
      <identifier>oai:zenodo.org:246895</identifier>
      <datestamp>2017-01-16T10:03:43Z</datestamp>
      <setSpec>user-biosyslit</setSpec>
    </header>
    <header>
      <identifier>oai:zenodo.org:247847</identifier>
      <datestamp>2017-01-16T20:47:52Z</datestamp>
      <setSpec>user-biosyslit</setSpec>
    </header>
    <header>
      <identifier>oai:zenodo.org:247306</identifier>
      <datestamp>2017-01-16T14:07:13Z</datestamp>
      <setSpec>user-biosyslit</setSpec>
    </header>
    <header>
      <identifier>oai:zenodo.org:272672</identifier>
      <datestamp>2017-02-08T06:13:03Z</datestamp>
      <setSpec>user-biosyslit</setSpec>
    </header>
    <header>
      <identifier>oai:zenodo.org:247125</identifier>
      <datestamp>2017-01-16T11:39:36Z</datestamp>
      <setSpec>user-biosyslit</setSpec>
    </header>
    <header>
      <identifier>oai:zenodo.org:246675</identifier>
      <datestamp>2017-01-16T06:58:14Z</datestamp>
      <setSpec>user-biosyslit</setSpec>
    </header>
    <header>
      <identifier>oai:zenodo.org:247072</identifier>
      <datestamp>2017-01-16T11:09:05Z</datestamp>
      <setSpec>user-biosyslit</setSpec>
    </header>
    <header>
      <identifier>oai:zenodo.org:247005</identifier>
      <datestamp>2017-01-16T10:10:11Z</datestamp>
      <setSpec>user-biosyslit</setSpec>
    </header>
    <header>
      <identifier>oai:zenodo.org:247013</identifier>
      <datestamp>2017-01-16T10:22:20Z</datestamp>
      <setSpec>user-biosyslit</setSpec>
    </header>
    <header>
      <identifier>oai:zenodo.org:246830</identifier>
      <datestamp>2017-01-16T09:09:06Z</datestamp>
      <setSpec>user-biosyslit</setSpec>
    </header>
    <header>
      <identifier>oai:zenodo.org:247603</identifier>
      <datestamp>2017-01-16T17:23:16Z</datestamp>
      <setSpec>user-biosyslit</setSpec>
    </header>
    <header>
      <identifier>oai:zenodo.org:247856</identifier>
      <datestamp>2017-01-16T20:48:23Z</datestamp>
      <setSpec>user-biosyslit</setSpec>
    </header>
    <header>
      <identifier>oai:zenodo.org:246750</identifier>
      <datestamp>2017-01-16T07:17:36Z</datestamp>
      <setSpec>user-biosyslit</setSpec>
    </header>
    <header>
      <identifier>oai:zenodo.org:247095</identifier>
      <datestamp>2017-01-16T11:27:21Z</datestamp>
      <setSpec>user-biosyslit</setSpec>
    </header>
    <header>
      <identifier>oai:zenodo.org:272789</identifier>
      <datestamp>2017-02-08T06:27:32Z</datestamp>
      <setSpec>user-biosyslit</setSpec>
    </header>
    <header>
      <identifier>oai:zenodo.org:61827</identifier>
      <datestamp>2017-05-16T12:55:34Z</datestamp>
      <setSpec>openaire</setSpec>
      <setSpec>user-biosyslit</setSpec>
    </header>
    <header>
      <identifier>oai:zenodo.org:272418</identifier>
      <datestamp>2017-02-08T04:34:45Z</datestamp>
      <setSpec>user-biosyslit</setSpec>
    </header>
    <header>
      <identifier>oai:zenodo.org:247598</identifier>
      <datestamp>2017-01-16T17:22:26Z</datestamp>
      <setSpec>user-biosyslit</setSpec>
    </header>
    <header>
      <identifier>oai:zenodo.org:246899</identifier>
      <datestamp>2017-01-16T10:04:00Z</datestamp>
      <setSpec>user-biosyslit</setSpec>
    </header>
    <header>
      <identifier>oai:zenodo.org:246770</identifier>
      <datestamp>2017-01-16T07:53:37Z</datestamp>
      <setSpec>user-biosyslit</setSpec>
    </header>
    <header>
      <identifier>oai:zenodo.org:246892</identifier>
      <datestamp>2017-01-16T10:03:33Z</datestamp>
      <setSpec>user-biosyslit</setSpec>
    </header>
    <header>
      <identifier>oai:zenodo.org:60951</identifier>
      <datestamp>2017-05-16T12:55:41Z</datestamp>
      <setSpec>openaire</setSpec>
      <setSpec>user-biosyslit</setSpec>
    </header>
    <header>
      <identifier>oai:zenodo.org:247130</identifier>
      <datestamp>2017-01-16T11:39:51Z</datestamp>
      <setSpec>user-biosyslit</setSpec>
    </header>
    <header>
      <identifier>oai:zenodo.org:246664</identifier>
      <datestamp>2017-01-16T06:57:45Z</datestamp>
      <setSpec>user-biosyslit</setSpec>
    </header>
    <header>
      <identifier>oai:zenodo.org:272702</identifier>
      <datestamp>2017-02-08T06:14:36Z</datestamp>
      <setSpec>user-biosyslit</setSpec>
    </header>
    <header>
      <identifier>oai:zenodo.org:247120</identifier>
      <datestamp>2017-01-16T11:39:20Z</datestamp>
      <setSpec>user-biosyslit</setSpec>
    </header>
    <header>
      <identifier>oai:zenodo.org:272742</identifier>
      <datestamp>2017-02-08T06:16:17Z</datestamp>
      <setSpec>user-biosyslit</setSpec>
    </header>
    <header>
      <identifier>oai:zenodo.org:247236</identifier>
      <datestamp>2017-01-16T12:54:44Z</datestamp>
      <setSpec>user-biosyslit</setSpec>
    </header>
    <header>
      <identifier>oai:zenodo.org:246685</identifier>
      <datestamp>2017-01-16T06:58:42Z</datestamp>
      <setSpec>user-biosyslit</setSpec>
    </header>
    <header>
      <identifier>oai:zenodo.org:247102</identifier>
      <datestamp>2017-01-16T11:27:57Z</datestamp>
      <setSpec>user-biosyslit</setSpec>
    </header>
    <header>
      <identifier>oai:zenodo.org:247232</identifier>
      <datestamp>2017-01-16T12:54:34Z</datestamp>
      <setSpec>user-biosyslit</setSpec>
    </header>
    <header>
      <identifier>oai:zenodo.org:246893</identifier>
      <datestamp>2017-01-16T10:03:36Z</datestamp>
      <setSpec>user-biosyslit</setSpec>
    </header>
    <header>
      <identifier>oai:zenodo.org:247402</identifier>
      <datestamp>2017-01-16T15:26:48Z</datestamp>
      <setSpec>user-biosyslit</setSpec>
    </header>
    <header>
      <identifier>oai:zenodo.org:246999</identifier>
      <datestamp>2017-01-16T10:09:47Z</datestamp>
      <setSpec>user-biosyslit</setSpec>
    </header>
    <header>
      <identifier>oai:zenodo.org:247114</identifier>
      <datestamp>2017-01-16T11:38:44Z</datestamp>
      <setSpec>user-biosyslit</setSpec>
    </header>
    <header>
      <identifier>oai:zenodo.org:246757</identifier>
      <datestamp>2017-01-16T07:24:04Z</datestamp>
      <setSpec>user-biosyslit</setSpec>
    </header>
    <header>
      <identifier>oai:zenodo.org:247577</identifier>
      <datestamp>2017-01-16T17:13:12Z</datestamp>
      <setSpec>user-biosyslit</setSpec>
    </header>
    <header>
      <identifier>oai:zenodo.org:272700</identifier>
      <datestamp>2017-02-08T06:14:30Z</datestamp>
      <setSpec>user-biosyslit</setSpec>
    </header>
    <header>
      <identifier>oai:zenodo.org:247012</identifier>
      <datestamp>2017-01-16T10:22:16Z</datestamp>
      <setSpec>user-biosyslit</setSpec>
    </header>
    <header>
      <identifier>oai:zenodo.org:247211</identifier>
      <datestamp>2017-01-16T12:53:23Z</datestamp>
      <setSpec>user-biosyslit</setSpec>
    </header>
    <header>
      <identifier>oai:zenodo.org:272757</identifier>
      <datestamp>2017-02-08T06:26:04Z</datestamp>
      <setSpec>user-biosyslit</setSpec>
    </header>
    <header>
      <identifier>oai:zenodo.org:272432</identifier>
      <datestamp>2017-02-08T04:39:12Z</datestamp>
      <setSpec>user-biosyslit</setSpec>
    </header>
    <header>
      <identifier>oai:zenodo.org:246811</identifier>
      <datestamp>2017-01-16T08:55:30Z</datestamp>
      <setSpec>user-biosyslit</setSpec>
    </header>
    <header>
      <identifier>oai:zenodo.org:247843</identifier>
      <datestamp>2017-01-16T20:48:24Z</datestamp>
      <setSpec>user-biosyslit</setSpec>
    </header>
    <header>
      <identifier>oai:zenodo.org:247254</identifier>
      <datestamp>2017-01-16T13:30:12Z</datestamp>
      <setSpec>user-biosyslit</setSpec>
    </header>
    <header>
      <identifier>oai:zenodo.org:247445</identifier>
      <datestamp>2017-01-16T15:29:54Z</datestamp>
      <setSpec>user-biosyslit</setSpec>
    </header>
    <header>
      <identifier>oai:zenodo.org:247104</identifier>
      <datestamp>2017-01-16T11:28:07Z</datestamp>
      <setSpec>user-biosyslit</setSpec>
    </header>
    <header>
      <identifier>oai:zenodo.org:247241</identifier>
      <datestamp>2017-01-16T12:54:56Z</datestamp>
      <setSpec>user-biosyslit</setSpec>
    </header>
    <header>
      <identifier>oai:zenodo.org:246706</identifier>
      <datestamp>2017-01-16T06:59:40Z</datestamp>
      <setSpec>user-biosyslit</setSpec>
    </header>
    <header>
      <identifier>oai:zenodo.org:272376</identifier>
      <datestamp>2017-02-08T04:22:52Z</datestamp>
      <setSpec>user-biosyslit</setSpec>
    </header>
    <header>
      <identifier>oai:zenodo.org:272770</identifier>
      <datestamp>2017-02-08T06:26:40Z</datestamp>
      <setSpec>user-biosyslit</setSpec>
    </header>
    <header>
      <identifier>oai:zenodo.org:246696</identifier>
      <datestamp>2017-01-16T06:59:11Z</datestamp>
      <setSpec>user-biosyslit</setSpec>
    </header>
    <header>
      <identifier>oai:zenodo.org:246678</identifier>
      <datestamp>2017-01-16T06:58:23Z</datestamp>
      <setSpec>user-biosyslit</setSpec>
    </header>
    <header>
      <identifier>oai:zenodo.org:272783</identifier>
      <datestamp>2017-02-08T06:27:16Z</datestamp>
      <setSpec>user-biosyslit</setSpec>
    </header>
    <header>
      <identifier>oai:zenodo.org:246670</identifier>
      <datestamp>2017-01-16T06:58:01Z</datestamp>
      <setSpec>user-biosyslit</setSpec>
    </header>
    <header>
      <identifier>oai:zenodo.org:247466</identifier>
      <datestamp>2017-01-16T15:31:21Z</datestamp>
      <setSpec>user-biosyslit</setSpec>
    </header>
    <header>
      <identifier>oai:zenodo.org:246945</identifier>
      <datestamp>2017-01-16T10:06:32Z</datestamp>
      <setSpec>user-biosyslit</setSpec>
    </header>
    <header>
      <identifier>oai:zenodo.org:247305</identifier>
      <datestamp>2017-01-16T14:07:09Z</datestamp>
      <setSpec>user-biosyslit</setSpec>
    </header>
    <header>
      <identifier>oai:zenodo.org:247567</identifier>
      <datestamp>2017-01-16T17:12:44Z</datestamp>
      <setSpec>user-biosyslit</setSpec>
    </header>
    <header>
      <identifier>oai:zenodo.org:247234</identifier>
      <datestamp>2017-01-16T12:54:39Z</datestamp>
      <setSpec>user-biosyslit</setSpec>
    </header>
    <header>
      <identifier>oai:zenodo.org:247632</identifier>
      <datestamp>2017-01-16T17:41:33Z</datestamp>
      <setSpec>user-biosyslit</setSpec>
    </header>
    <header>
      <identifier>oai:zenodo.org:247540</identifier>
      <datestamp>2017-01-16T16:48:10Z</datestamp>
      <setSpec>user-biosyslit</setSpec>
    </header>
    <header>
      <identifier>oai:zenodo.org:273040</identifier>
      <datestamp>2017-02-08T06:59:31Z</datestamp>
      <setSpec>user-biosyslit</setSpec>
    </header>
    <header>
      <identifier>oai:zenodo.org:247852</identifier>
      <datestamp>2017-01-16T20:48:11Z</datestamp>
      <setSpec>user-biosyslit</setSpec>
    </header>
    <header>
      <identifier>oai:zenodo.org:246601</identifier>
      <datestamp>2017-01-16T04:42:15Z</datestamp>
      <setSpec>user-biosyslit</setSpec>
    </header>
    <header>
      <identifier>oai:zenodo.org:272631</identifier>
      <datestamp>2017-02-08T05:53:37Z</datestamp>
      <setSpec>user-biosyslit</setSpec>
    </header>
    <header>
      <identifier>oai:zenodo.org:272773</identifier>
      <datestamp>2017-02-08T06:26:47Z</datestamp>
      <setSpec>user-biosyslit</setSpec>
    </header>
    <header>
      <identifier>oai:zenodo.org:247121</identifier>
      <datestamp>2017-01-16T11:39:24Z</datestamp>
      <setSpec>user-biosyslit</setSpec>
    </header>
    <header>
      <identifier>oai:zenodo.org:272423</identifier>
      <datestamp>2017-02-08T04:34:59Z</datestamp>
      <setSpec>user-biosyslit</setSpec>
    </header>
    <header>
      <identifier>oai:zenodo.org:247103</identifier>
      <datestamp>2017-01-16T11:28:01Z</datestamp>
      <setSpec>user-biosyslit</setSpec>
    </header>
    <header>
      <identifier>oai:zenodo.org:273067</identifier>
      <datestamp>2017-02-08T07:00:46Z</datestamp>
      <setSpec>user-biosyslit</setSpec>
    </header>
    <header>
      <identifier>oai:zenodo.org:272526</identifier>
      <datestamp>2017-02-08T05:00:27Z</datestamp>
      <setSpec>user-biosyslit</setSpec>
    </header>
    <header>
      <identifier>oai:zenodo.org:246760</identifier>
      <datestamp>2017-01-16T07:44:48Z</datestamp>
      <setSpec>user-biosyslit</setSpec>
    </header>
    <resumptionToken expirationDate="2017-08-31T15:46:49Z" cursor="55200" completeListSize="77796">.eJyNyj0PQ0AYAOD_8s7S3PkolXQRKgaEK8HSKCLqqLg2OPHfa-nczs-zAquqEnR0kE-yhmSkqFjFRwULwIrxSemt2RWKJKZFT6Pcjt9hF6NUrFXPZLNrppLHW-R3mJNLICZYm6MGLcE1eqU8nGPJmQiyVJcHi_dw9ldKvk2zuz2QqDcoEcvRt4KFYINkUvF9-M_Hfz6TnUGAIa8r0BVFFqCd8rFmoK_b9gFknFEH.DInAcQ.a0QOBBBvIJz99OnoiUwtU9-we70</resumptionToken>
  </ListIdentifiers>
</OAI-PMH>
