<?xml version='1.0' encoding='UTF-8'?>
<?xml-stylesheet type="text/xsl" href="/static/xsl/oai2.v1.0.xsl"?>
<OAI-PMH xmlns="http://www.openarchives.org/OAI/2.0/" xmlns:xsi="http://www.w3.org/2001/XMLSchema-instance" xsi:schemaLocation="http://www.openarchives.org/OAI/2.0/ http://www.openarchives.org/OAI/2.0/OAI-PMH.xsd">
  <responseDate>2017-08-31T15:45:32Z</responseDate>
  <request verb="ListIdentifiers" resumptionToken=".eJyNysEKgjAYAOB3-c8Sc9NmQhfRpIOKLiW9hKmINU1coS5897x0rvP3vUFUVQkm2mgY7QxMKdJ3mkGJrisgiuHB-aVZHYpzwouOx7mbvKI2QSmuqW-LybNT4ss7ClpVskOIz6oxxQ2aw1P8TGU0JeQ4MuRQT4azfzuurySBy7Or27O4szjD5RA44cxUi2Wk-D71zyd_PlvsQYE-ryswt7qmwH3Mh1qA-V6WD9sKUX8.DInAnA.VxxEETmPuQbBcUZPguIMERx5ctU">https://zenodo.org/oai2d</request>
  <ListIdentifiers>
    <header>
      <identifier>oai:zenodo.org:285322</identifier>
      <datestamp>2017-02-09T13:18:09Z</datestamp>
      <setSpec>user-biosyslit</setSpec>
    </header>
    <header>
      <identifier>oai:zenodo.org:285327</identifier>
      <datestamp>2017-02-09T13:18:40Z</datestamp>
      <setSpec>user-biosyslit</setSpec>
    </header>
    <header>
      <identifier>oai:zenodo.org:285323</identifier>
      <datestamp>2017-02-09T13:18:12Z</datestamp>
      <setSpec>user-biosyslit</setSpec>
    </header>
    <header>
      <identifier>oai:zenodo.org:285324</identifier>
      <datestamp>2017-02-09T13:18:14Z</datestamp>
      <setSpec>user-biosyslit</setSpec>
    </header>
    <header>
      <identifier>oai:zenodo.org:285328</identifier>
      <datestamp>2017-02-09T13:18:42Z</datestamp>
      <setSpec>user-biosyslit</setSpec>
    </header>
    <header>
      <identifier>oai:zenodo.org:262060</identifier>
      <datestamp>2017-01-28T19:55:06Z</datestamp>
      <setSpec>user-biosyslit</setSpec>
    </header>
    <header>
      <identifier>oai:zenodo.org:230246</identifier>
      <datestamp>2017-01-04T21:40:24Z</datestamp>
      <setSpec>user-biosyslit</setSpec>
    </header>
    <header>
      <identifier>oai:zenodo.org:230248</identifier>
      <datestamp>2017-01-04T21:40:15Z</datestamp>
      <setSpec>user-biosyslit</setSpec>
    </header>
    <header>
      <identifier>oai:zenodo.org:230247</identifier>
      <datestamp>2017-01-04T21:40:10Z</datestamp>
      <setSpec>user-biosyslit</setSpec>
    </header>
    <header>
      <identifier>oai:zenodo.org:241213</identifier>
      <datestamp>2017-01-12T22:12:08Z</datestamp>
      <setSpec>user-biosyslit</setSpec>
    </header>
    <header>
      <identifier>oai:zenodo.org:241211</identifier>
      <datestamp>2017-01-12T22:12:01Z</datestamp>
      <setSpec>user-biosyslit</setSpec>
    </header>
    <header>
      <identifier>oai:zenodo.org:241210</identifier>
      <datestamp>2017-01-12T22:11:56Z</datestamp>
      <setSpec>user-biosyslit</setSpec>
    </header>
    <header>
      <identifier>oai:zenodo.org:241209</identifier>
      <datestamp>2017-01-12T22:12:10Z</datestamp>
      <setSpec>user-biosyslit</setSpec>
    </header>
    <header>
      <identifier>oai:zenodo.org:274921</identifier>
      <datestamp>2017-02-08T14:51:46Z</datestamp>
      <setSpec>user-biosyslit</setSpec>
    </header>
    <header>
      <identifier>oai:zenodo.org:253270</identifier>
      <datestamp>2017-01-20T05:02:54Z</datestamp>
      <setSpec>user-biosyslit</setSpec>
    </header>
    <header>
      <identifier>oai:zenodo.org:276642</identifier>
      <datestamp>2017-02-08T19:22:57Z</datestamp>
      <setSpec>user-biosyslit</setSpec>
    </header>
    <header>
      <identifier>oai:zenodo.org:253277</identifier>
      <datestamp>2017-01-20T05:03:17Z</datestamp>
      <setSpec>user-biosyslit</setSpec>
    </header>
    <header>
      <identifier>oai:zenodo.org:276647</identifier>
      <datestamp>2017-02-08T19:23:14Z</datestamp>
      <setSpec>user-biosyslit</setSpec>
    </header>
    <header>
      <identifier>oai:zenodo.org:276641</identifier>
      <datestamp>2017-02-08T19:22:53Z</datestamp>
      <setSpec>user-biosyslit</setSpec>
    </header>
    <header>
      <identifier>oai:zenodo.org:276644</identifier>
      <datestamp>2017-02-08T19:23:04Z</datestamp>
      <setSpec>user-biosyslit</setSpec>
    </header>
    <header>
      <identifier>oai:zenodo.org:276640</identifier>
      <datestamp>2017-02-08T19:22:50Z</datestamp>
      <setSpec>user-biosyslit</setSpec>
    </header>
    <header>
      <identifier>oai:zenodo.org:276643</identifier>
      <datestamp>2017-02-08T19:23:00Z</datestamp>
      <setSpec>user-biosyslit</setSpec>
    </header>
    <header>
      <identifier>oai:zenodo.org:276639</identifier>
      <datestamp>2017-02-08T19:22:45Z</datestamp>
      <setSpec>user-biosyslit</setSpec>
    </header>
    <header>
      <identifier>oai:zenodo.org:227082</identifier>
      <datestamp>2017-01-01T09:24:05Z</datestamp>
      <setSpec>user-biosyslit</setSpec>
    </header>
    <header>
      <identifier>oai:zenodo.org:227085</identifier>
      <datestamp>2017-01-01T09:24:00Z</datestamp>
      <setSpec>user-biosyslit</setSpec>
    </header>
    <header>
      <identifier>oai:zenodo.org:227083</identifier>
      <datestamp>2017-01-01T09:23:52Z</datestamp>
      <setSpec>user-biosyslit</setSpec>
    </header>
    <header>
      <identifier>oai:zenodo.org:227086</identifier>
      <datestamp>2017-01-01T09:24:03Z</datestamp>
      <setSpec>user-biosyslit</setSpec>
    </header>
    <header>
      <identifier>oai:zenodo.org:275003</identifier>
      <datestamp>2017-02-08T15:01:41Z</datestamp>
      <setSpec>user-biosyslit</setSpec>
    </header>
    <header>
      <identifier>oai:zenodo.org:245176</identifier>
      <datestamp>2017-01-15T09:20:21Z</datestamp>
      <setSpec>user-biosyslit</setSpec>
    </header>
    <header>
      <identifier>oai:zenodo.org:282826</identifier>
      <datestamp>2017-02-09T07:41:24Z</datestamp>
      <setSpec>user-biosyslit</setSpec>
    </header>
    <header>
      <identifier>oai:zenodo.org:245179</identifier>
      <datestamp>2017-01-15T09:20:20Z</datestamp>
      <setSpec>user-biosyslit</setSpec>
    </header>
    <header>
      <identifier>oai:zenodo.org:245177</identifier>
      <datestamp>2017-01-15T09:20:15Z</datestamp>
      <setSpec>user-biosyslit</setSpec>
    </header>
    <header>
      <identifier>oai:zenodo.org:227453</identifier>
      <datestamp>2017-01-01T21:40:06Z</datestamp>
      <setSpec>user-biosyslit</setSpec>
    </header>
    <header>
      <identifier>oai:zenodo.org:282827</identifier>
      <datestamp>2017-02-09T07:41:26Z</datestamp>
      <setSpec>user-biosyslit</setSpec>
    </header>
    <header>
      <identifier>oai:zenodo.org:282828</identifier>
      <datestamp>2017-02-09T07:41:28Z</datestamp>
      <setSpec>user-biosyslit</setSpec>
    </header>
    <header>
      <identifier>oai:zenodo.org:227454</identifier>
      <datestamp>2017-01-01T21:39:55Z</datestamp>
      <setSpec>user-biosyslit</setSpec>
    </header>
    <header>
      <identifier>oai:zenodo.org:230546</identifier>
      <datestamp>2017-01-05T03:05:41Z</datestamp>
      <setSpec>user-biosyslit</setSpec>
    </header>
    <header>
      <identifier>oai:zenodo.org:230545</identifier>
      <datestamp>2017-01-05T03:05:38Z</datestamp>
      <setSpec>user-biosyslit</setSpec>
    </header>
    <header>
      <identifier>oai:zenodo.org:242667</identifier>
      <datestamp>2017-01-13T18:26:57Z</datestamp>
      <setSpec>user-biosyslit</setSpec>
    </header>
    <header>
      <identifier>oai:zenodo.org:242672</identifier>
      <datestamp>2017-01-13T18:26:56Z</datestamp>
      <setSpec>user-biosyslit</setSpec>
    </header>
    <header>
      <identifier>oai:zenodo.org:240393</identifier>
      <datestamp>2017-01-12T08:08:17Z</datestamp>
      <setSpec>user-biosyslit</setSpec>
    </header>
    <header>
      <identifier>oai:zenodo.org:242671</identifier>
      <datestamp>2017-01-13T18:26:52Z</datestamp>
      <setSpec>user-biosyslit</setSpec>
    </header>
    <header>
      <identifier>oai:zenodo.org:230550</identifier>
      <datestamp>2017-01-05T03:05:59Z</datestamp>
      <setSpec>user-biosyslit</setSpec>
    </header>
    <header>
      <identifier>oai:zenodo.org:230548</identifier>
      <datestamp>2017-01-05T03:05:46Z</datestamp>
      <setSpec>user-biosyslit</setSpec>
    </header>
    <header>
      <identifier>oai:zenodo.org:230549</identifier>
      <datestamp>2017-01-05T03:05:49Z</datestamp>
      <setSpec>user-biosyslit</setSpec>
    </header>
    <header>
      <identifier>oai:zenodo.org:240395</identifier>
      <datestamp>2017-01-12T08:08:22Z</datestamp>
      <setSpec>user-biosyslit</setSpec>
    </header>
    <header>
      <identifier>oai:zenodo.org:240396</identifier>
      <datestamp>2017-01-12T08:08:24Z</datestamp>
      <setSpec>user-biosyslit</setSpec>
    </header>
    <header>
      <identifier>oai:zenodo.org:279957</identifier>
      <datestamp>2017-02-09T02:22:42Z</datestamp>
      <setSpec>user-biosyslit</setSpec>
    </header>
    <header>
      <identifier>oai:zenodo.org:279960</identifier>
      <datestamp>2017-02-09T02:22:40Z</datestamp>
      <setSpec>user-biosyslit</setSpec>
    </header>
    <header>
      <identifier>oai:zenodo.org:240407</identifier>
      <datestamp>2017-01-12T08:08:58Z</datestamp>
      <setSpec>user-biosyslit</setSpec>
    </header>
    <header>
      <identifier>oai:zenodo.org:240401</identifier>
      <datestamp>2017-01-12T08:08:42Z</datestamp>
      <setSpec>user-biosyslit</setSpec>
    </header>
    <header>
      <identifier>oai:zenodo.org:240399</identifier>
      <datestamp>2017-01-12T08:08:36Z</datestamp>
      <setSpec>user-biosyslit</setSpec>
    </header>
    <header>
      <identifier>oai:zenodo.org:240404</identifier>
      <datestamp>2017-01-12T08:08:49Z</datestamp>
      <setSpec>user-biosyslit</setSpec>
    </header>
    <header>
      <identifier>oai:zenodo.org:240400</identifier>
      <datestamp>2017-01-12T08:08:39Z</datestamp>
      <setSpec>user-biosyslit</setSpec>
    </header>
    <header>
      <identifier>oai:zenodo.org:240398</identifier>
      <datestamp>2017-01-12T08:08:31Z</datestamp>
      <setSpec>user-biosyslit</setSpec>
    </header>
    <header>
      <identifier>oai:zenodo.org:227550</identifier>
      <datestamp>2017-01-01T23:42:24Z</datestamp>
      <setSpec>user-biosyslit</setSpec>
    </header>
    <header>
      <identifier>oai:zenodo.org:227551</identifier>
      <datestamp>2017-01-01T23:42:16Z</datestamp>
      <setSpec>user-biosyslit</setSpec>
    </header>
    <header>
      <identifier>oai:zenodo.org:246029</identifier>
      <datestamp>2017-01-15T21:13:54Z</datestamp>
      <setSpec>user-biosyslit</setSpec>
    </header>
    <header>
      <identifier>oai:zenodo.org:275621</identifier>
      <datestamp>2017-02-08T16:49:06Z</datestamp>
      <setSpec>user-biosyslit</setSpec>
    </header>
    <header>
      <identifier>oai:zenodo.org:240243</identifier>
      <datestamp>2017-01-12T06:25:58Z</datestamp>
      <setSpec>user-biosyslit</setSpec>
    </header>
    <header>
      <identifier>oai:zenodo.org:240241</identifier>
      <datestamp>2017-01-12T06:25:51Z</datestamp>
      <setSpec>user-biosyslit</setSpec>
    </header>
    <header>
      <identifier>oai:zenodo.org:270975</identifier>
      <datestamp>2017-02-08T00:23:54Z</datestamp>
      <setSpec>user-biosyslit</setSpec>
    </header>
    <header>
      <identifier>oai:zenodo.org:275622</identifier>
      <datestamp>2017-02-08T16:49:08Z</datestamp>
      <setSpec>user-biosyslit</setSpec>
    </header>
    <header>
      <identifier>oai:zenodo.org:240246</identifier>
      <datestamp>2017-01-12T06:26:08Z</datestamp>
      <setSpec>user-biosyslit</setSpec>
    </header>
    <header>
      <identifier>oai:zenodo.org:275623</identifier>
      <datestamp>2017-02-08T16:49:11Z</datestamp>
      <setSpec>user-biosyslit</setSpec>
    </header>
    <header>
      <identifier>oai:zenodo.org:254191</identifier>
      <datestamp>2017-01-20T16:35:22Z</datestamp>
      <setSpec>user-biosyslit</setSpec>
    </header>
    <header>
      <identifier>oai:zenodo.org:254201</identifier>
      <datestamp>2017-01-20T16:35:12Z</datestamp>
      <setSpec>user-biosyslit</setSpec>
    </header>
    <header>
      <identifier>oai:zenodo.org:254202</identifier>
      <datestamp>2017-01-20T16:35:16Z</datestamp>
      <setSpec>user-biosyslit</setSpec>
    </header>
    <header>
      <identifier>oai:zenodo.org:254196</identifier>
      <datestamp>2017-01-20T16:34:51Z</datestamp>
      <setSpec>user-biosyslit</setSpec>
    </header>
    <header>
      <identifier>oai:zenodo.org:254194</identifier>
      <datestamp>2017-01-20T16:34:45Z</datestamp>
      <setSpec>user-biosyslit</setSpec>
    </header>
    <header>
      <identifier>oai:zenodo.org:254193</identifier>
      <datestamp>2017-01-20T16:34:42Z</datestamp>
      <setSpec>user-biosyslit</setSpec>
    </header>
    <header>
      <identifier>oai:zenodo.org:239575</identifier>
      <datestamp>2017-01-11T22:24:49Z</datestamp>
      <setSpec>user-biosyslit</setSpec>
    </header>
    <header>
      <identifier>oai:zenodo.org:239576</identifier>
      <datestamp>2017-01-11T22:24:53Z</datestamp>
      <setSpec>user-biosyslit</setSpec>
    </header>
    <header>
      <identifier>oai:zenodo.org:239583</identifier>
      <datestamp>2017-01-11T22:25:21Z</datestamp>
      <setSpec>user-biosyslit</setSpec>
    </header>
    <header>
      <identifier>oai:zenodo.org:239581</identifier>
      <datestamp>2017-01-11T22:25:12Z</datestamp>
      <setSpec>user-biosyslit</setSpec>
    </header>
    <header>
      <identifier>oai:zenodo.org:251079</identifier>
      <datestamp>2017-01-18T18:35:41Z</datestamp>
      <setSpec>user-biosyslit</setSpec>
    </header>
    <header>
      <identifier>oai:zenodo.org:251075</identifier>
      <datestamp>2017-01-18T18:35:30Z</datestamp>
      <setSpec>user-biosyslit</setSpec>
    </header>
    <header>
      <identifier>oai:zenodo.org:239577</identifier>
      <datestamp>2017-01-11T22:24:59Z</datestamp>
      <setSpec>user-biosyslit</setSpec>
    </header>
    <header>
      <identifier>oai:zenodo.org:251074</identifier>
      <datestamp>2017-01-18T18:35:27Z</datestamp>
      <setSpec>user-biosyslit</setSpec>
    </header>
    <header>
      <identifier>oai:zenodo.org:251073</identifier>
      <datestamp>2017-01-18T18:36:17Z</datestamp>
      <setSpec>user-biosyslit</setSpec>
    </header>
    <header>
      <identifier>oai:zenodo.org:234346</identifier>
      <datestamp>2017-01-08T18:40:01Z</datestamp>
      <setSpec>user-biosyslit</setSpec>
    </header>
    <header>
      <identifier>oai:zenodo.org:251087</identifier>
      <datestamp>2017-01-18T18:36:13Z</datestamp>
      <setSpec>user-biosyslit</setSpec>
    </header>
    <header>
      <identifier>oai:zenodo.org:251086</identifier>
      <datestamp>2017-01-18T18:36:09Z</datestamp>
      <setSpec>user-biosyslit</setSpec>
    </header>
    <header>
      <identifier>oai:zenodo.org:251080</identifier>
      <datestamp>2017-01-18T18:35:45Z</datestamp>
      <setSpec>user-biosyslit</setSpec>
    </header>
    <header>
      <identifier>oai:zenodo.org:234351</identifier>
      <datestamp>2017-01-08T18:39:59Z</datestamp>
      <setSpec>user-biosyslit</setSpec>
    </header>
    <header>
      <identifier>oai:zenodo.org:251084</identifier>
      <datestamp>2017-01-18T18:36:03Z</datestamp>
      <setSpec>user-biosyslit</setSpec>
    </header>
    <header>
      <identifier>oai:zenodo.org:234347</identifier>
      <datestamp>2017-01-08T18:39:44Z</datestamp>
      <setSpec>user-biosyslit</setSpec>
    </header>
    <header>
      <identifier>oai:zenodo.org:251085</identifier>
      <datestamp>2017-01-18T18:36:06Z</datestamp>
      <setSpec>user-biosyslit</setSpec>
    </header>
    <header>
      <identifier>oai:zenodo.org:277804</identifier>
      <datestamp>2017-02-08T21:51:11Z</datestamp>
      <setSpec>user-biosyslit</setSpec>
    </header>
    <header>
      <identifier>oai:zenodo.org:277809</identifier>
      <datestamp>2017-02-08T21:51:21Z</datestamp>
      <setSpec>user-biosyslit</setSpec>
    </header>
    <header>
      <identifier>oai:zenodo.org:283811</identifier>
      <datestamp>2017-02-09T09:51:21Z</datestamp>
      <setSpec>user-biosyslit</setSpec>
    </header>
    <header>
      <identifier>oai:zenodo.org:283808</identifier>
      <datestamp>2017-02-09T09:51:15Z</datestamp>
      <setSpec>user-biosyslit</setSpec>
    </header>
    <header>
      <identifier>oai:zenodo.org:283810</identifier>
      <datestamp>2017-02-09T09:51:19Z</datestamp>
      <setSpec>user-biosyslit</setSpec>
    </header>
    <header>
      <identifier>oai:zenodo.org:283809</identifier>
      <datestamp>2017-02-09T09:51:17Z</datestamp>
      <setSpec>user-biosyslit</setSpec>
    </header>
    <header>
      <identifier>oai:zenodo.org:283807</identifier>
      <datestamp>2017-02-09T09:51:13Z</datestamp>
      <setSpec>user-biosyslit</setSpec>
    </header>
    <header>
      <identifier>oai:zenodo.org:267812</identifier>
      <datestamp>2017-02-02T07:24:26Z</datestamp>
      <setSpec>user-biosyslit</setSpec>
    </header>
    <header>
      <identifier>oai:zenodo.org:267815</identifier>
      <datestamp>2017-02-02T07:24:15Z</datestamp>
      <setSpec>user-biosyslit</setSpec>
    </header>
    <header>
      <identifier>oai:zenodo.org:283812</identifier>
      <datestamp>2017-02-09T09:51:23Z</datestamp>
      <setSpec>user-biosyslit</setSpec>
    </header>
    <header>
      <identifier>oai:zenodo.org:283813</identifier>
      <datestamp>2017-02-09T09:51:25Z</datestamp>
      <setSpec>user-biosyslit</setSpec>
    </header>
    <header>
      <identifier>oai:zenodo.org:281719</identifier>
      <datestamp>2017-02-09T05:48:24Z</datestamp>
      <setSpec>user-biosyslit</setSpec>
    </header>
    <resumptionToken expirationDate="2017-08-31T15:47:32Z" cursor="65300" completeListSize="77796">.eJyNys8PQlAcAPD_5Xu29n6Q2LoYmQOmF4tLE2byyLxaPPO_16VznT-fBURVlWCijWoYKlF1hKmKDawTBUQx3jm_NB-G4pzwoudx7ibPY5eglNR6YIvJt1MayBaFHZbsEJEz3k1xg-boFD9SeZwS6r0YcnRfRnNw8z6vpKHLs6s7sLi3OCPlGDrRzLDFMlp8H_7zyZ_PFntQYMjrCsytpinQvvKxFmAu6_oGmg1RPg.DInAnA.r5QDc3EQ5d306DkbK7jWOuK4jug</resumptionToken>
  </ListIdentifiers>
</OAI-PMH>
