<?xml version='1.0' encoding='UTF-8'?>
<?xml-stylesheet type="text/xsl" href="/static/xsl/oai2.v1.0.xsl"?>
<OAI-PMH xmlns="http://www.openarchives.org/OAI/2.0/" xmlns:xsi="http://www.w3.org/2001/XMLSchema-instance" xsi:schemaLocation="http://www.openarchives.org/OAI/2.0/ http://www.openarchives.org/OAI/2.0/OAI-PMH.xsd">
  <responseDate>2017-08-31T15:42:36Z</responseDate>
  <request verb="ListIdentifiers" resumptionToken=".eJyNysEKgjAYAOB3-c8Sm0t0QhexpIPKXIp6CVORclq4Ql347nnpXOfve4Os6wpstKHUtMgWUctAFBuIaCDL4S7E-boylGkiyl7EhZe8oi5Bmd6YgSsn381IoFoUdljxA9NTbE3xFc3sFD8zFU0JOY4c7U1fsTm4HddXkdAT-cV78Lh3BNerIdyzmWOH56T8PvznUz-fK3egwaNoarD1raFBOxZDI8F-L8sHpflRRg.DIm_7A.1N4Yms9_66vkB0cOmJVM8hoBtNI">https://zenodo.org/oai2d</request>
  <ListIdentifiers>
    <header>
      <identifier>oai:zenodo.org:282720</identifier>
      <datestamp>2017-02-09T07:30:18Z</datestamp>
      <setSpec>user-biosyslit</setSpec>
    </header>
    <header>
      <identifier>oai:zenodo.org:261359</identifier>
      <datestamp>2017-01-28T08:20:59Z</datestamp>
      <setSpec>user-biosyslit</setSpec>
    </header>
    <header>
      <identifier>oai:zenodo.org:265881</identifier>
      <datestamp>2017-01-31T22:58:23Z</datestamp>
      <setSpec>user-biosyslit</setSpec>
    </header>
    <header>
      <identifier>oai:zenodo.org:261363</identifier>
      <datestamp>2017-01-28T08:20:58Z</datestamp>
      <setSpec>user-biosyslit</setSpec>
    </header>
    <header>
      <identifier>oai:zenodo.org:261361</identifier>
      <datestamp>2017-01-28T08:20:49Z</datestamp>
      <setSpec>user-biosyslit</setSpec>
    </header>
    <header>
      <identifier>oai:zenodo.org:261360</identifier>
      <datestamp>2017-01-28T08:20:46Z</datestamp>
      <setSpec>user-biosyslit</setSpec>
    </header>
    <header>
      <identifier>oai:zenodo.org:265883</identifier>
      <datestamp>2017-01-31T22:58:17Z</datestamp>
      <setSpec>user-biosyslit</setSpec>
    </header>
    <header>
      <identifier>oai:zenodo.org:261362</identifier>
      <datestamp>2017-01-28T08:20:53Z</datestamp>
      <setSpec>user-biosyslit</setSpec>
    </header>
    <header>
      <identifier>oai:zenodo.org:248229</identifier>
      <datestamp>2017-01-17T01:21:02Z</datestamp>
      <setSpec>user-biosyslit</setSpec>
    </header>
    <header>
      <identifier>oai:zenodo.org:248230</identifier>
      <datestamp>2017-01-17T01:21:05Z</datestamp>
      <setSpec>user-biosyslit</setSpec>
    </header>
    <header>
      <identifier>oai:zenodo.org:241397</identifier>
      <datestamp>2017-01-13T00:42:08Z</datestamp>
      <setSpec>user-biosyslit</setSpec>
    </header>
    <header>
      <identifier>oai:zenodo.org:241396</identifier>
      <datestamp>2017-01-13T00:42:05Z</datestamp>
      <setSpec>user-biosyslit</setSpec>
    </header>
    <header>
      <identifier>oai:zenodo.org:241398</identifier>
      <datestamp>2017-01-13T00:42:10Z</datestamp>
      <setSpec>user-biosyslit</setSpec>
    </header>
    <header>
      <identifier>oai:zenodo.org:241399</identifier>
      <datestamp>2017-01-13T00:42:13Z</datestamp>
      <setSpec>user-biosyslit</setSpec>
    </header>
    <header>
      <identifier>oai:zenodo.org:241395</identifier>
      <datestamp>2017-01-13T00:42:02Z</datestamp>
      <setSpec>user-biosyslit</setSpec>
    </header>
    <header>
      <identifier>oai:zenodo.org:241388</identifier>
      <datestamp>2017-01-13T00:41:37Z</datestamp>
      <setSpec>user-biosyslit</setSpec>
    </header>
    <header>
      <identifier>oai:zenodo.org:241393</identifier>
      <datestamp>2017-01-13T00:41:56Z</datestamp>
      <setSpec>user-biosyslit</setSpec>
    </header>
    <header>
      <identifier>oai:zenodo.org:241389</identifier>
      <datestamp>2017-01-13T00:41:41Z</datestamp>
      <setSpec>user-biosyslit</setSpec>
    </header>
    <header>
      <identifier>oai:zenodo.org:241394</identifier>
      <datestamp>2017-01-13T00:41:59Z</datestamp>
      <setSpec>user-biosyslit</setSpec>
    </header>
    <header>
      <identifier>oai:zenodo.org:247062</identifier>
      <datestamp>2017-01-16T10:56:01Z</datestamp>
      <setSpec>user-biosyslit</setSpec>
    </header>
    <header>
      <identifier>oai:zenodo.org:247050</identifier>
      <datestamp>2017-01-16T10:54:38Z</datestamp>
      <setSpec>user-biosyslit</setSpec>
    </header>
    <header>
      <identifier>oai:zenodo.org:247063</identifier>
      <datestamp>2017-01-16T10:56:05Z</datestamp>
      <setSpec>user-biosyslit</setSpec>
    </header>
    <header>
      <identifier>oai:zenodo.org:247061</identifier>
      <datestamp>2017-01-16T10:55:33Z</datestamp>
      <setSpec>user-biosyslit</setSpec>
    </header>
    <header>
      <identifier>oai:zenodo.org:247051</identifier>
      <datestamp>2017-01-16T10:54:43Z</datestamp>
      <setSpec>user-biosyslit</setSpec>
    </header>
    <header>
      <identifier>oai:zenodo.org:247056</identifier>
      <datestamp>2017-01-16T10:55:06Z</datestamp>
      <setSpec>user-biosyslit</setSpec>
    </header>
    <header>
      <identifier>oai:zenodo.org:247052</identifier>
      <datestamp>2017-01-16T10:54:49Z</datestamp>
      <setSpec>user-biosyslit</setSpec>
    </header>
    <header>
      <identifier>oai:zenodo.org:247055</identifier>
      <datestamp>2017-01-16T10:55:02Z</datestamp>
      <setSpec>user-biosyslit</setSpec>
    </header>
    <header>
      <identifier>oai:zenodo.org:247058</identifier>
      <datestamp>2017-01-16T10:55:15Z</datestamp>
      <setSpec>user-biosyslit</setSpec>
    </header>
    <header>
      <identifier>oai:zenodo.org:281625</identifier>
      <datestamp>2017-02-09T05:37:46Z</datestamp>
      <setSpec>user-biosyslit</setSpec>
    </header>
    <header>
      <identifier>oai:zenodo.org:281626</identifier>
      <datestamp>2017-02-09T05:37:48Z</datestamp>
      <setSpec>user-biosyslit</setSpec>
    </header>
    <header>
      <identifier>oai:zenodo.org:281621</identifier>
      <datestamp>2017-02-09T05:37:38Z</datestamp>
      <setSpec>user-biosyslit</setSpec>
    </header>
    <header>
      <identifier>oai:zenodo.org:281624</identifier>
      <datestamp>2017-02-09T05:37:44Z</datestamp>
      <setSpec>user-biosyslit</setSpec>
    </header>
    <header>
      <identifier>oai:zenodo.org:231442</identifier>
      <datestamp>2017-01-06T02:00:01Z</datestamp>
      <setSpec>user-biosyslit</setSpec>
    </header>
    <header>
      <identifier>oai:zenodo.org:286119</identifier>
      <datestamp>2017-02-09T15:16:50Z</datestamp>
      <setSpec>user-biosyslit</setSpec>
    </header>
    <header>
      <identifier>oai:zenodo.org:286120</identifier>
      <datestamp>2017-02-09T15:16:31Z</datestamp>
      <setSpec>user-biosyslit</setSpec>
    </header>
    <header>
      <identifier>oai:zenodo.org:231447</identifier>
      <datestamp>2017-01-06T02:00:00Z</datestamp>
      <setSpec>user-biosyslit</setSpec>
    </header>
    <header>
      <identifier>oai:zenodo.org:286123</identifier>
      <datestamp>2017-02-09T15:16:43Z</datestamp>
      <setSpec>user-biosyslit</setSpec>
    </header>
    <header>
      <identifier>oai:zenodo.org:231445</identifier>
      <datestamp>2017-01-06T01:59:54Z</datestamp>
      <setSpec>user-biosyslit</setSpec>
    </header>
    <header>
      <identifier>oai:zenodo.org:246067</identifier>
      <datestamp>2017-01-15T21:38:22Z</datestamp>
      <setSpec>user-biosyslit</setSpec>
    </header>
    <header>
      <identifier>oai:zenodo.org:246068</identifier>
      <datestamp>2017-01-15T21:38:21Z</datestamp>
      <setSpec>user-biosyslit</setSpec>
    </header>
    <header>
      <identifier>oai:zenodo.org:280319</identifier>
      <datestamp>2017-02-09T03:10:55Z</datestamp>
      <setSpec>user-biosyslit</setSpec>
    </header>
    <header>
      <identifier>oai:zenodo.org:287676</identifier>
      <datestamp>2017-02-09T18:53:32Z</datestamp>
      <setSpec>user-biosyslit</setSpec>
    </header>
    <header>
      <identifier>oai:zenodo.org:280318</identifier>
      <datestamp>2017-02-09T03:10:52Z</datestamp>
      <setSpec>user-biosyslit</setSpec>
    </header>
    <header>
      <identifier>oai:zenodo.org:280321</identifier>
      <datestamp>2017-02-09T03:11:01Z</datestamp>
      <setSpec>user-biosyslit</setSpec>
    </header>
    <header>
      <identifier>oai:zenodo.org:280317</identifier>
      <datestamp>2017-02-09T03:10:49Z</datestamp>
      <setSpec>user-biosyslit</setSpec>
    </header>
    <header>
      <identifier>oai:zenodo.org:282833</identifier>
      <datestamp>2017-02-09T07:41:52Z</datestamp>
      <setSpec>user-biosyslit</setSpec>
    </header>
    <header>
      <identifier>oai:zenodo.org:282834</identifier>
      <datestamp>2017-02-09T07:41:54Z</datestamp>
      <setSpec>user-biosyslit</setSpec>
    </header>
    <header>
      <identifier>oai:zenodo.org:241064</identifier>
      <datestamp>2017-01-12T19:26:11Z</datestamp>
      <setSpec>user-biosyslit</setSpec>
    </header>
    <header>
      <identifier>oai:zenodo.org:241057</identifier>
      <datestamp>2017-01-12T19:25:44Z</datestamp>
      <setSpec>user-biosyslit</setSpec>
    </header>
    <header>
      <identifier>oai:zenodo.org:241059</identifier>
      <datestamp>2017-01-12T19:25:51Z</datestamp>
      <setSpec>user-biosyslit</setSpec>
    </header>
    <header>
      <identifier>oai:zenodo.org:241061</identifier>
      <datestamp>2017-01-12T19:25:59Z</datestamp>
      <setSpec>user-biosyslit</setSpec>
    </header>
    <header>
      <identifier>oai:zenodo.org:238676</identifier>
      <datestamp>2017-01-11T09:11:11Z</datestamp>
      <setSpec>user-biosyslit</setSpec>
    </header>
    <header>
      <identifier>oai:zenodo.org:238677</identifier>
      <datestamp>2017-01-11T09:11:15Z</datestamp>
      <setSpec>user-biosyslit</setSpec>
    </header>
    <header>
      <identifier>oai:zenodo.org:238678</identifier>
      <datestamp>2017-01-11T09:11:22Z</datestamp>
      <setSpec>user-biosyslit</setSpec>
    </header>
    <header>
      <identifier>oai:zenodo.org:239105</identifier>
      <datestamp>2017-01-11T16:35:12Z</datestamp>
      <setSpec>user-biosyslit</setSpec>
    </header>
    <header>
      <identifier>oai:zenodo.org:239108</identifier>
      <datestamp>2017-01-11T16:34:57Z</datestamp>
      <setSpec>user-biosyslit</setSpec>
    </header>
    <header>
      <identifier>oai:zenodo.org:235986</identifier>
      <datestamp>2017-01-09T17:41:11Z</datestamp>
      <setSpec>user-biosyslit</setSpec>
    </header>
    <header>
      <identifier>oai:zenodo.org:235988</identifier>
      <datestamp>2017-01-09T17:41:17Z</datestamp>
      <setSpec>user-biosyslit</setSpec>
    </header>
    <header>
      <identifier>oai:zenodo.org:239110</identifier>
      <datestamp>2017-01-11T16:35:07Z</datestamp>
      <setSpec>user-biosyslit</setSpec>
    </header>
    <header>
      <identifier>oai:zenodo.org:275457</identifier>
      <datestamp>2017-02-08T16:31:25Z</datestamp>
      <setSpec>user-biosyslit</setSpec>
    </header>
    <header>
      <identifier>oai:zenodo.org:243146</identifier>
      <datestamp>2017-01-13T23:56:59Z</datestamp>
      <setSpec>user-biosyslit</setSpec>
    </header>
    <header>
      <identifier>oai:zenodo.org:243149</identifier>
      <datestamp>2017-01-13T23:56:39Z</datestamp>
      <setSpec>user-biosyslit</setSpec>
    </header>
    <header>
      <identifier>oai:zenodo.org:243153</identifier>
      <datestamp>2017-01-13T23:56:54Z</datestamp>
      <setSpec>user-biosyslit</setSpec>
    </header>
    <header>
      <identifier>oai:zenodo.org:243154</identifier>
      <datestamp>2017-01-13T23:56:57Z</datestamp>
      <setSpec>user-biosyslit</setSpec>
    </header>
    <header>
      <identifier>oai:zenodo.org:253457</identifier>
      <datestamp>2017-01-20T07:10:33Z</datestamp>
      <setSpec>user-biosyslit</setSpec>
    </header>
    <header>
      <identifier>oai:zenodo.org:253453</identifier>
      <datestamp>2017-01-20T07:10:23Z</datestamp>
      <setSpec>user-biosyslit</setSpec>
    </header>
    <header>
      <identifier>oai:zenodo.org:253452</identifier>
      <datestamp>2017-01-20T07:10:21Z</datestamp>
      <setSpec>user-biosyslit</setSpec>
    </header>
    <header>
      <identifier>oai:zenodo.org:253451</identifier>
      <datestamp>2017-01-20T07:10:19Z</datestamp>
      <setSpec>user-biosyslit</setSpec>
    </header>
    <header>
      <identifier>oai:zenodo.org:253455</identifier>
      <datestamp>2017-01-20T07:10:28Z</datestamp>
      <setSpec>user-biosyslit</setSpec>
    </header>
    <header>
      <identifier>oai:zenodo.org:245716</identifier>
      <datestamp>2017-01-15T17:50:17Z</datestamp>
      <setSpec>user-biosyslit</setSpec>
    </header>
    <header>
      <identifier>oai:zenodo.org:245717</identifier>
      <datestamp>2017-01-15T17:50:21Z</datestamp>
      <setSpec>user-biosyslit</setSpec>
    </header>
    <header>
      <identifier>oai:zenodo.org:245720</identifier>
      <datestamp>2017-01-15T17:50:30Z</datestamp>
      <setSpec>user-biosyslit</setSpec>
    </header>
    <header>
      <identifier>oai:zenodo.org:236345</identifier>
      <datestamp>2017-01-09T22:59:20Z</datestamp>
      <setSpec>user-biosyslit</setSpec>
    </header>
    <header>
      <identifier>oai:zenodo.org:230937</identifier>
      <datestamp>2017-01-05T11:29:31Z</datestamp>
      <setSpec>user-biosyslit</setSpec>
    </header>
    <header>
      <identifier>oai:zenodo.org:236348</identifier>
      <datestamp>2017-01-09T22:59:35Z</datestamp>
      <setSpec>user-biosyslit</setSpec>
    </header>
    <header>
      <identifier>oai:zenodo.org:236349</identifier>
      <datestamp>2017-01-09T22:59:39Z</datestamp>
      <setSpec>user-biosyslit</setSpec>
    </header>
    <header>
      <identifier>oai:zenodo.org:236344</identifier>
      <datestamp>2017-01-09T22:59:15Z</datestamp>
      <setSpec>user-biosyslit</setSpec>
    </header>
    <header>
      <identifier>oai:zenodo.org:230934</identifier>
      <datestamp>2017-01-05T11:29:19Z</datestamp>
      <setSpec>user-biosyslit</setSpec>
    </header>
    <header>
      <identifier>oai:zenodo.org:288693</identifier>
      <datestamp>2017-02-09T21:43:46Z</datestamp>
      <setSpec>user-biosyslit</setSpec>
    </header>
    <header>
      <identifier>oai:zenodo.org:288697</identifier>
      <datestamp>2017-02-09T21:43:55Z</datestamp>
      <setSpec>user-biosyslit</setSpec>
    </header>
    <header>
      <identifier>oai:zenodo.org:304558</identifier>
      <datestamp>2017-02-20T22:25:04Z</datestamp>
      <setSpec>user-biosyslit</setSpec>
    </header>
    <header>
      <identifier>oai:zenodo.org:288695</identifier>
      <datestamp>2017-02-09T21:43:50Z</datestamp>
      <setSpec>user-biosyslit</setSpec>
    </header>
    <header>
      <identifier>oai:zenodo.org:304537</identifier>
      <datestamp>2017-02-20T22:24:46Z</datestamp>
      <setSpec>user-biosyslit</setSpec>
    </header>
    <header>
      <identifier>oai:zenodo.org:304559</identifier>
      <datestamp>2017-02-20T22:25:07Z</datestamp>
      <setSpec>user-biosyslit</setSpec>
    </header>
    <header>
      <identifier>oai:zenodo.org:304547</identifier>
      <datestamp>2017-02-20T22:24:56Z</datestamp>
      <setSpec>user-biosyslit</setSpec>
    </header>
    <header>
      <identifier>oai:zenodo.org:283857</identifier>
      <datestamp>2017-02-09T09:56:52Z</datestamp>
      <setSpec>user-biosyslit</setSpec>
    </header>
    <header>
      <identifier>oai:zenodo.org:283856</identifier>
      <datestamp>2017-02-09T09:56:50Z</datestamp>
      <setSpec>user-biosyslit</setSpec>
    </header>
    <header>
      <identifier>oai:zenodo.org:280262</identifier>
      <datestamp>2017-02-09T03:05:27Z</datestamp>
      <setSpec>user-biosyslit</setSpec>
    </header>
    <header>
      <identifier>oai:zenodo.org:280268</identifier>
      <datestamp>2017-02-09T03:05:12Z</datestamp>
      <setSpec>user-biosyslit</setSpec>
    </header>
    <header>
      <identifier>oai:zenodo.org:281427</identifier>
      <datestamp>2017-02-09T05:17:51Z</datestamp>
      <setSpec>user-biosyslit</setSpec>
    </header>
    <header>
      <identifier>oai:zenodo.org:281426</identifier>
      <datestamp>2017-02-09T05:17:49Z</datestamp>
      <setSpec>user-biosyslit</setSpec>
    </header>
    <header>
      <identifier>oai:zenodo.org:280271</identifier>
      <datestamp>2017-02-09T03:05:22Z</datestamp>
      <setSpec>user-biosyslit</setSpec>
    </header>
    <header>
      <identifier>oai:zenodo.org:280267</identifier>
      <datestamp>2017-02-09T03:05:09Z</datestamp>
      <setSpec>user-biosyslit</setSpec>
    </header>
    <header>
      <identifier>oai:zenodo.org:280263</identifier>
      <datestamp>2017-02-09T03:05:00Z</datestamp>
      <setSpec>user-biosyslit</setSpec>
    </header>
    <header>
      <identifier>oai:zenodo.org:281425</identifier>
      <datestamp>2017-02-09T05:17:47Z</datestamp>
      <setSpec>user-biosyslit</setSpec>
    </header>
    <header>
      <identifier>oai:zenodo.org:280272</identifier>
      <datestamp>2017-02-09T03:05:26Z</datestamp>
      <setSpec>user-biosyslit</setSpec>
    </header>
    <header>
      <identifier>oai:zenodo.org:241779</identifier>
      <datestamp>2017-01-13T05:43:58Z</datestamp>
      <setSpec>user-biosyslit</setSpec>
    </header>
    <header>
      <identifier>oai:zenodo.org:241782</identifier>
      <datestamp>2017-01-13T05:44:09Z</datestamp>
      <setSpec>user-biosyslit</setSpec>
    </header>
    <header>
      <identifier>oai:zenodo.org:234112</identifier>
      <datestamp>2017-01-08T15:11:42Z</datestamp>
      <setSpec>user-biosyslit</setSpec>
    </header>
    <header>
      <identifier>oai:zenodo.org:241783</identifier>
      <datestamp>2017-01-13T05:44:12Z</datestamp>
      <setSpec>user-biosyslit</setSpec>
    </header>
    <resumptionToken expirationDate="2017-08-31T15:44:36Z" cursor="24400" completeListSize="77796">.eJyNysEKgjAYAOB3-c8S_zYtEbqEJh5SdCnpJUxFrGnhCnXiu9elc52_bwZZVSVYuCI6QTQYIjXR0A1qaCCL_i7Eufk4FKdEFJ2Iczd5RW2CKa03vi3Hg50yX90waIni-5CeiDnGDU7hMX6mKhoT5g0cnc1BhZN_9T6vZIErsov74HG3E5yWfeCEEyc7nrHi-8ifT_18ttyCBo-8rsCi-lqD25D3tQRrXpY3tdVRVA.DIm_7A.dYh_waOO10BhrP2e5J3fxI_puPs</resumptionToken>
  </ListIdentifiers>
</OAI-PMH>
