<?xml version='1.0' encoding='UTF-8'?>
<?xml-stylesheet type="text/xsl" href="/static/xsl/oai2.v1.0.xsl"?>
<OAI-PMH xmlns="http://www.openarchives.org/OAI/2.0/" xmlns:xsi="http://www.w3.org/2001/XMLSchema-instance" xsi:schemaLocation="http://www.openarchives.org/OAI/2.0/ http://www.openarchives.org/OAI/2.0/OAI-PMH.xsd">
  <responseDate>2017-08-31T15:44:58Z</responseDate>
  <request verb="ListIdentifiers" resumptionToken=".eJyNysEKgjAYAOB3-c8Sm0tnQhexpIOKLiW9hKmINU1coU5897x0rvP3zSDKsgATbQxMdUp2W32rUqIhXQGR90_Or_XKkF9inrc8ypz4HTYxStSKerYYXTshnnwgv8GSHQP1go0xqtEUnKNXIsMxJqeBoQN1ZTB599P6CuI7PL05HYtaizO16P1DMDFssZTk34f_fPLns8UeFOiyqgRTo1SBx5D1lQBzXpYPpFJRTA.DInAeg.1WAnaStmKP83VkGvIGjOTo0GeMs">https://zenodo.org/oai2d</request>
  <ListIdentifiers>
    <header>
      <identifier>oai:zenodo.org:574371</identifier>
      <datestamp>2017-05-17T07:21:35Z</datestamp>
      <setSpec>openaire</setSpec>
      <setSpec>user-biosyslit</setSpec>
    </header>
    <header>
      <identifier>oai:zenodo.org:545692</identifier>
      <datestamp>2017-04-12T07:15:23Z</datestamp>
      <setSpec>user-biosyslit</setSpec>
    </header>
    <header>
      <identifier>oai:zenodo.org:343995</identifier>
      <datestamp>2017-02-28T23:49:48Z</datestamp>
      <setSpec>user-biosyslit</setSpec>
    </header>
    <header>
      <identifier>oai:zenodo.org:579532</identifier>
      <datestamp>2017-05-18T06:54:46Z</datestamp>
      <setSpec>openaire</setSpec>
      <setSpec>user-biosyslit</setSpec>
    </header>
    <header>
      <identifier>oai:zenodo.org:344103</identifier>
      <datestamp>2017-02-28T23:48:00Z</datestamp>
      <setSpec>user-biosyslit</setSpec>
    </header>
    <header>
      <identifier>oai:zenodo.org:343953</identifier>
      <datestamp>2017-02-28T23:50:36Z</datestamp>
      <setSpec>user-biosyslit</setSpec>
    </header>
    <header>
      <identifier>oai:zenodo.org:344097</identifier>
      <datestamp>2017-02-28T23:48:19Z</datestamp>
      <setSpec>user-biosyslit</setSpec>
    </header>
    <header>
      <identifier>oai:zenodo.org:575653</identifier>
      <datestamp>2017-05-12T08:29:33Z</datestamp>
      <setSpec>user-biosyslit</setSpec>
    </header>
    <header>
      <identifier>oai:zenodo.org:344122</identifier>
      <datestamp>2017-02-28T23:47:40Z</datestamp>
      <setSpec>user-biosyslit</setSpec>
    </header>
    <header>
      <identifier>oai:zenodo.org:344618</identifier>
      <datestamp>2017-03-01T00:58:09Z</datestamp>
      <setSpec>user-biosyslit</setSpec>
    </header>
    <header>
      <identifier>oai:zenodo.org:344419</identifier>
      <datestamp>2017-02-28T23:39:30Z</datestamp>
      <setSpec>user-biosyslit</setSpec>
    </header>
    <header>
      <identifier>oai:zenodo.org:344140</identifier>
      <datestamp>2017-02-28T23:43:10Z</datestamp>
      <setSpec>user-biosyslit</setSpec>
    </header>
    <header>
      <identifier>oai:zenodo.org:545668</identifier>
      <datestamp>2017-04-28T10:54:11Z</datestamp>
      <setSpec>openaire</setSpec>
      <setSpec>user-modphytomorphol</setSpec>
      <setSpec>user-biosyslit</setSpec>
    </header>
    <header>
      <identifier>oai:zenodo.org:344259</identifier>
      <datestamp>2017-02-28T23:42:47Z</datestamp>
      <setSpec>user-biosyslit</setSpec>
    </header>
    <header>
      <identifier>oai:zenodo.org:344462</identifier>
      <datestamp>2017-02-28T23:24:56Z</datestamp>
      <setSpec>user-biosyslit</setSpec>
    </header>
    <header>
      <identifier>oai:zenodo.org:344246</identifier>
      <datestamp>2017-02-28T23:43:00Z</datestamp>
      <setSpec>user-biosyslit</setSpec>
    </header>
    <header>
      <identifier>oai:zenodo.org:344724</identifier>
      <datestamp>2017-03-01T08:18:45Z</datestamp>
      <setSpec>user-biosyslit</setSpec>
    </header>
    <header>
      <identifier>oai:zenodo.org:545918</identifier>
      <datestamp>2017-04-13T08:11:46Z</datestamp>
      <setSpec>user-biosyslit</setSpec>
    </header>
    <header>
      <identifier>oai:zenodo.org:344648</identifier>
      <datestamp>2017-03-01T08:06:09Z</datestamp>
      <setSpec>user-biosyslit</setSpec>
    </header>
    <header>
      <identifier>oai:zenodo.org:344711</identifier>
      <datestamp>2017-03-01T08:18:09Z</datestamp>
      <setSpec>user-biosyslit</setSpec>
    </header>
    <header>
      <identifier>oai:zenodo.org:344748</identifier>
      <datestamp>2017-03-01T08:42:36Z</datestamp>
      <setSpec>user-biosyslit</setSpec>
    </header>
    <header>
      <identifier>oai:zenodo.org:345054</identifier>
      <datestamp>2017-03-02T09:09:41Z</datestamp>
      <setSpec>user-biosyslit</setSpec>
    </header>
    <header>
      <identifier>oai:zenodo.org:345009</identifier>
      <datestamp>2017-03-02T08:26:45Z</datestamp>
      <setSpec>user-biosyslit</setSpec>
    </header>
    <header>
      <identifier>oai:zenodo.org:582006</identifier>
      <datestamp>2017-05-22T07:45:27Z</datestamp>
      <setSpec>user-biosyslit</setSpec>
    </header>
    <header>
      <identifier>oai:zenodo.org:375687</identifier>
      <datestamp>2017-03-08T01:16:33Z</datestamp>
      <setSpec>user-biosyslit</setSpec>
    </header>
    <header>
      <identifier>oai:zenodo.org:582755</identifier>
      <datestamp>2017-05-24T07:55:44Z</datestamp>
      <setSpec>user-biosyslit</setSpec>
    </header>
    <header>
      <identifier>oai:zenodo.org:582739</identifier>
      <datestamp>2017-05-24T07:38:15Z</datestamp>
      <setSpec>user-biosyslit</setSpec>
    </header>
    <header>
      <identifier>oai:zenodo.org:375675</identifier>
      <datestamp>2017-03-08T01:17:27Z</datestamp>
      <setSpec>user-biosyslit</setSpec>
    </header>
    <header>
      <identifier>oai:zenodo.org:375865</identifier>
      <datestamp>2017-03-08T13:23:25Z</datestamp>
      <setSpec>user-biosyslit</setSpec>
    </header>
    <header>
      <identifier>oai:zenodo.org:376224</identifier>
      <datestamp>2017-03-09T14:32:17Z</datestamp>
      <setSpec>user-biosyslit</setSpec>
    </header>
    <header>
      <identifier>oai:zenodo.org:375984</identifier>
      <datestamp>2017-03-09T08:14:52Z</datestamp>
      <setSpec>user-biosyslit</setSpec>
    </header>
    <header>
      <identifier>oai:zenodo.org:376083</identifier>
      <datestamp>2017-03-09T09:44:40Z</datestamp>
      <setSpec>user-biosyslit</setSpec>
    </header>
    <header>
      <identifier>oai:zenodo.org:376209</identifier>
      <datestamp>2017-03-09T14:31:39Z</datestamp>
      <setSpec>user-biosyslit</setSpec>
    </header>
    <header>
      <identifier>oai:zenodo.org:375688</identifier>
      <datestamp>2017-03-08T01:16:36Z</datestamp>
      <setSpec>user-biosyslit</setSpec>
    </header>
    <header>
      <identifier>oai:zenodo.org:376154</identifier>
      <datestamp>2017-03-09T12:54:05Z</datestamp>
      <setSpec>user-biosyslit</setSpec>
    </header>
    <header>
      <identifier>oai:zenodo.org:376707</identifier>
      <datestamp>2017-03-11T00:04:57Z</datestamp>
      <setSpec>user-biosyslit</setSpec>
    </header>
    <header>
      <identifier>oai:zenodo.org:376943</identifier>
      <datestamp>2017-03-13T08:54:45Z</datestamp>
      <setSpec>user-biosyslit</setSpec>
    </header>
    <header>
      <identifier>oai:zenodo.org:376734</identifier>
      <datestamp>2017-03-11T00:06:14Z</datestamp>
      <setSpec>user-biosyslit</setSpec>
    </header>
    <header>
      <identifier>oai:zenodo.org:376736</identifier>
      <datestamp>2017-03-11T00:06:18Z</datestamp>
      <setSpec>user-biosyslit</setSpec>
    </header>
    <header>
      <identifier>oai:zenodo.org:583891</identifier>
      <datestamp>2017-05-29T08:16:24Z</datestamp>
      <setSpec>user-biosyslit</setSpec>
    </header>
    <header>
      <identifier>oai:zenodo.org:398723</identifier>
      <datestamp>2017-03-14T08:59:55Z</datestamp>
      <setSpec>user-biosyslit</setSpec>
    </header>
    <header>
      <identifier>oai:zenodo.org:583860</identifier>
      <datestamp>2017-05-29T07:53:51Z</datestamp>
      <setSpec>user-biosyslit</setSpec>
    </header>
    <header>
      <identifier>oai:zenodo.org:398879</identifier>
      <datestamp>2017-03-14T21:01:57Z</datestamp>
      <setSpec>user-biosyslit</setSpec>
    </header>
    <header>
      <identifier>oai:zenodo.org:398966</identifier>
      <datestamp>2017-03-14T21:10:27Z</datestamp>
      <setSpec>user-biosyslit</setSpec>
    </header>
    <header>
      <identifier>oai:zenodo.org:398933</identifier>
      <datestamp>2017-03-14T21:07:02Z</datestamp>
      <setSpec>user-biosyslit</setSpec>
    </header>
    <header>
      <identifier>oai:zenodo.org:399865</identifier>
      <datestamp>2017-03-16T01:29:40Z</datestamp>
      <setSpec>user-biosyslit</setSpec>
    </header>
    <header>
      <identifier>oai:zenodo.org:400180</identifier>
      <datestamp>2017-03-16T09:22:26Z</datestamp>
      <setSpec>user-biosyslit</setSpec>
    </header>
    <header>
      <identifier>oai:zenodo.org:400135</identifier>
      <datestamp>2017-03-16T08:49:24Z</datestamp>
      <setSpec>user-biosyslit</setSpec>
    </header>
    <header>
      <identifier>oai:zenodo.org:556084</identifier>
      <datestamp>2017-04-19T08:58:05Z</datestamp>
      <setSpec>user-biosyslit</setSpec>
    </header>
    <header>
      <identifier>oai:zenodo.org:399382</identifier>
      <datestamp>2017-03-15T20:26:25Z</datestamp>
      <setSpec>user-biosyslit</setSpec>
    </header>
    <header>
      <identifier>oai:zenodo.org:398788</identifier>
      <datestamp>2017-03-14T10:06:48Z</datestamp>
      <setSpec>user-biosyslit</setSpec>
    </header>
    <header>
      <identifier>oai:zenodo.org:399550</identifier>
      <datestamp>2017-03-15T22:43:20Z</datestamp>
      <setSpec>user-biosyslit</setSpec>
    </header>
    <header>
      <identifier>oai:zenodo.org:399612</identifier>
      <datestamp>2017-03-15T22:59:24Z</datestamp>
      <setSpec>user-biosyslit</setSpec>
    </header>
    <header>
      <identifier>oai:zenodo.org:399100</identifier>
      <datestamp>2017-03-15T08:25:54Z</datestamp>
      <setSpec>user-biosyslit</setSpec>
    </header>
    <header>
      <identifier>oai:zenodo.org:399138</identifier>
      <datestamp>2017-03-15T08:36:21Z</datestamp>
      <setSpec>user-biosyslit</setSpec>
    </header>
    <header>
      <identifier>oai:zenodo.org:400042</identifier>
      <datestamp>2017-03-16T07:31:15Z</datestamp>
      <setSpec>user-biosyslit</setSpec>
    </header>
    <header>
      <identifier>oai:zenodo.org:399167</identifier>
      <datestamp>2017-03-15T09:00:40Z</datestamp>
      <setSpec>user-biosyslit</setSpec>
    </header>
    <header>
      <identifier>oai:zenodo.org:556049</identifier>
      <datestamp>2017-04-19T07:37:24Z</datestamp>
      <setSpec>user-biosyslit</setSpec>
    </header>
    <header>
      <identifier>oai:zenodo.org:399687</identifier>
      <datestamp>2017-03-15T23:24:57Z</datestamp>
      <setSpec>user-biosyslit</setSpec>
    </header>
    <header>
      <identifier>oai:zenodo.org:400460</identifier>
      <datestamp>2017-03-17T09:05:42Z</datestamp>
      <setSpec>user-biosyslit</setSpec>
    </header>
    <header>
      <identifier>oai:zenodo.org:400413</identifier>
      <datestamp>2017-03-17T08:14:16Z</datestamp>
      <setSpec>user-biosyslit</setSpec>
    </header>
    <header>
      <identifier>oai:zenodo.org:400030</identifier>
      <datestamp>2017-03-16T07:30:15Z</datestamp>
      <setSpec>user-biosyslit</setSpec>
    </header>
    <header>
      <identifier>oai:zenodo.org:429885</identifier>
      <datestamp>2017-03-21T09:03:25Z</datestamp>
      <setSpec>user-biosyslit</setSpec>
    </header>
    <header>
      <identifier>oai:zenodo.org:432128</identifier>
      <datestamp>2017-03-21T09:32:08Z</datestamp>
      <setSpec>user-biosyslit</setSpec>
    </header>
    <header>
      <identifier>oai:zenodo.org:437546</identifier>
      <datestamp>2017-03-23T14:48:53Z</datestamp>
      <setSpec>openaire</setSpec>
      <setSpec>user-modphytomorphol</setSpec>
      <setSpec>user-biosyslit</setSpec>
    </header>
    <header>
      <identifier>oai:zenodo.org:437945</identifier>
      <datestamp>2017-03-24T08:24:36Z</datestamp>
      <setSpec>user-biosyslit</setSpec>
    </header>
    <header>
      <identifier>oai:zenodo.org:437236</identifier>
      <datestamp>2017-03-22T08:24:05Z</datestamp>
      <setSpec>user-biosyslit</setSpec>
    </header>
    <header>
      <identifier>oai:zenodo.org:437673</identifier>
      <datestamp>2017-03-23T10:10:59Z</datestamp>
      <setSpec>user-biosyslit</setSpec>
    </header>
    <header>
      <identifier>oai:zenodo.org:437988</identifier>
      <datestamp>2017-03-24T08:55:09Z</datestamp>
      <setSpec>user-biosyslit</setSpec>
    </header>
    <header>
      <identifier>oai:zenodo.org:437682</identifier>
      <datestamp>2017-03-23T10:11:20Z</datestamp>
      <setSpec>user-biosyslit</setSpec>
    </header>
    <header>
      <identifier>oai:zenodo.org:438520</identifier>
      <datestamp>2017-03-28T07:13:45Z</datestamp>
      <setSpec>user-biosyslit</setSpec>
    </header>
    <header>
      <identifier>oai:zenodo.org:439633</identifier>
      <datestamp>2017-04-01T11:05:31Z</datestamp>
      <setSpec>user-biosyslit</setSpec>
    </header>
    <header>
      <identifier>oai:zenodo.org:375906</identifier>
      <datestamp>2017-03-08T13:25:28Z</datestamp>
      <setSpec>user-biosyslit</setSpec>
    </header>
    <header>
      <identifier>oai:zenodo.org:375685</identifier>
      <datestamp>2017-03-08T01:16:26Z</datestamp>
      <setSpec>user-biosyslit</setSpec>
    </header>
    <header>
      <identifier>oai:zenodo.org:376041</identifier>
      <datestamp>2017-03-09T09:05:22Z</datestamp>
      <setSpec>user-biosyslit</setSpec>
    </header>
    <header>
      <identifier>oai:zenodo.org:375684</identifier>
      <datestamp>2017-03-08T01:16:23Z</datestamp>
      <setSpec>user-biosyslit</setSpec>
    </header>
    <header>
      <identifier>oai:zenodo.org:582419</identifier>
      <datestamp>2017-05-23T07:31:32Z</datestamp>
      <setSpec>user-biosyslit</setSpec>
    </header>
    <header>
      <identifier>oai:zenodo.org:375771</identifier>
      <datestamp>2017-03-08T08:34:03Z</datestamp>
      <setSpec>user-biosyslit</setSpec>
    </header>
    <header>
      <identifier>oai:zenodo.org:375885</identifier>
      <datestamp>2017-03-08T13:24:36Z</datestamp>
      <setSpec>user-biosyslit</setSpec>
    </header>
    <header>
      <identifier>oai:zenodo.org:376022</identifier>
      <datestamp>2017-03-09T08:41:18Z</datestamp>
      <setSpec>user-biosyslit</setSpec>
    </header>
    <header>
      <identifier>oai:zenodo.org:375875</identifier>
      <datestamp>2017-03-08T13:24:06Z</datestamp>
      <setSpec>user-biosyslit</setSpec>
    </header>
    <header>
      <identifier>oai:zenodo.org:376401</identifier>
      <datestamp>2017-03-10T08:45:56Z</datestamp>
      <setSpec>user-biosyslit</setSpec>
    </header>
    <header>
      <identifier>oai:zenodo.org:375488</identifier>
      <datestamp>2017-03-07T08:21:00Z</datestamp>
      <setSpec>user-biosyslit</setSpec>
    </header>
    <header>
      <identifier>oai:zenodo.org:375749</identifier>
      <datestamp>2017-03-08T08:21:35Z</datestamp>
      <setSpec>user-biosyslit</setSpec>
    </header>
    <header>
      <identifier>oai:zenodo.org:375864</identifier>
      <datestamp>2017-03-08T13:23:22Z</datestamp>
      <setSpec>user-biosyslit</setSpec>
    </header>
    <header>
      <identifier>oai:zenodo.org:376685</identifier>
      <datestamp>2017-03-11T00:04:04Z</datestamp>
      <setSpec>user-biosyslit</setSpec>
    </header>
    <header>
      <identifier>oai:zenodo.org:375899</identifier>
      <datestamp>2017-03-08T13:25:12Z</datestamp>
      <setSpec>user-biosyslit</setSpec>
    </header>
    <header>
      <identifier>oai:zenodo.org:376408</identifier>
      <datestamp>2017-03-10T08:53:55Z</datestamp>
      <setSpec>user-biosyslit</setSpec>
    </header>
    <header>
      <identifier>oai:zenodo.org:376046</identifier>
      <datestamp>2017-03-09T09:05:35Z</datestamp>
      <setSpec>user-biosyslit</setSpec>
    </header>
    <header>
      <identifier>oai:zenodo.org:376690</identifier>
      <datestamp>2017-03-11T00:04:16Z</datestamp>
      <setSpec>user-biosyslit</setSpec>
    </header>
    <header>
      <identifier>oai:zenodo.org:376880</identifier>
      <datestamp>2017-03-15T11:36:01Z</datestamp>
      <setSpec>openaire</setSpec>
      <setSpec>user-biosyslit</setSpec>
    </header>
    <header>
      <identifier>oai:zenodo.org:376693</identifier>
      <datestamp>2017-03-11T00:04:22Z</datestamp>
      <setSpec>user-biosyslit</setSpec>
    </header>
    <header>
      <identifier>oai:zenodo.org:376986</identifier>
      <datestamp>2017-03-13T09:47:42Z</datestamp>
      <setSpec>user-biosyslit</setSpec>
    </header>
    <header>
      <identifier>oai:zenodo.org:583384</identifier>
      <datestamp>2017-05-26T07:43:28Z</datestamp>
      <setSpec>user-biosyslit</setSpec>
    </header>
    <header>
      <identifier>oai:zenodo.org:583857</identifier>
      <datestamp>2017-05-29T07:53:43Z</datestamp>
      <setSpec>user-biosyslit</setSpec>
    </header>
    <header>
      <identifier>oai:zenodo.org:583416</identifier>
      <datestamp>2017-05-26T08:20:51Z</datestamp>
      <setSpec>user-biosyslit</setSpec>
    </header>
    <header>
      <identifier>oai:zenodo.org:399664</identifier>
      <datestamp>2017-03-15T23:07:50Z</datestamp>
      <setSpec>user-biosyslit</setSpec>
    </header>
    <header>
      <identifier>oai:zenodo.org:399017</identifier>
      <datestamp>2017-03-14T23:48:49Z</datestamp>
      <setSpec>user-biosyslit</setSpec>
    </header>
    <header>
      <identifier>oai:zenodo.org:399437</identifier>
      <datestamp>2017-03-15T20:55:59Z</datestamp>
      <setSpec>user-biosyslit</setSpec>
    </header>
    <header>
      <identifier>oai:zenodo.org:400169</identifier>
      <datestamp>2017-03-16T09:16:56Z</datestamp>
      <setSpec>user-biosyslit</setSpec>
    </header>
    <resumptionToken expirationDate="2017-08-31T15:46:58Z" cursor="57600" completeListSize="77796">.eJyNyssKgkAUANB_uWuJefhIoY1o0kLFJiXdhI0i5WjiFOpE_16b1rU-5wmyritw0AojXSemYdsGprpJNJB8vAlxunwU-DETvBdpGWSPfZehnDRW5Mk59HIaqRbFHVZsm5AjXs_pBS3JIb3naj9ndDcx5FuhSpbouvu8isaBKM7BwNLeFYxUY-wnC8MuKyj_PvznUz-fJzegwVA2NTiGtdagncqxkeA8X683Y7hRDA.DInAeg.4AbmMfGL38tVvleAuZRXPdg7pCc</resumptionToken>
  </ListIdentifiers>
</OAI-PMH>
