<?xml version='1.0' encoding='UTF-8'?>
<?xml-stylesheet type="text/xsl" href="/static/xsl/oai2.v1.0.xsl"?>
<OAI-PMH xmlns="http://www.openarchives.org/OAI/2.0/" xmlns:xsi="http://www.w3.org/2001/XMLSchema-instance" xsi:schemaLocation="http://www.openarchives.org/OAI/2.0/ http://www.openarchives.org/OAI/2.0/OAI-PMH.xsd">
  <responseDate>2017-08-31T15:44:08Z</responseDate>
  <request verb="ListIdentifiers" resumptionToken=".eJyNyj0LgkAYAOD_8s4S9yF2Ci2iSYOKXifqEqYi1VnhFepJ_72W5pqfZwHVtg04aMUQI6bJmGVZmNrEAFUPNykPp49CnWeyvkpRBdkz7TNUkG4deWoKvYJG-oLiHmu-TUiO2SROaE724lHodMrobuTIX4c6maPz7vMaGgeyPAZ3Lq6u5KQZYj-ZOXZ5Sevvw38-_fN5agMG3KuuBce0bAMuYzV0Cpzl9XoDcLBRGQ.DInARg.02xWU8_BQNctYUyPB9W_bJrx6Zs">https://zenodo.org/oai2d</request>
  <ListIdentifiers>
    <header>
      <identifier>oai:zenodo.org:238815</identifier>
      <datestamp>2017-01-11T11:25:24Z</datestamp>
      <setSpec>user-biosyslit</setSpec>
    </header>
    <header>
      <identifier>oai:zenodo.org:239490</identifier>
      <datestamp>2017-01-11T21:22:00Z</datestamp>
      <setSpec>user-biosyslit</setSpec>
    </header>
    <header>
      <identifier>oai:zenodo.org:271654</identifier>
      <datestamp>2017-02-08T02:06:58Z</datestamp>
      <setSpec>user-biosyslit</setSpec>
    </header>
    <header>
      <identifier>oai:zenodo.org:238105</identifier>
      <datestamp>2017-01-11T01:06:08Z</datestamp>
      <setSpec>user-biosyslit</setSpec>
    </header>
    <header>
      <identifier>oai:zenodo.org:238555</identifier>
      <datestamp>2017-01-11T07:26:00Z</datestamp>
      <setSpec>user-biosyslit</setSpec>
    </header>
    <header>
      <identifier>oai:zenodo.org:237949</identifier>
      <datestamp>2017-01-10T22:50:25Z</datestamp>
      <setSpec>user-biosyslit</setSpec>
    </header>
    <header>
      <identifier>oai:zenodo.org:238804</identifier>
      <datestamp>2017-01-11T11:12:42Z</datestamp>
      <setSpec>user-biosyslit</setSpec>
    </header>
    <header>
      <identifier>oai:zenodo.org:239251</identifier>
      <datestamp>2017-01-11T18:46:33Z</datestamp>
      <setSpec>user-biosyslit</setSpec>
    </header>
    <header>
      <identifier>oai:zenodo.org:239522</identifier>
      <datestamp>2017-01-11T21:47:37Z</datestamp>
      <setSpec>user-biosyslit</setSpec>
    </header>
    <header>
      <identifier>oai:zenodo.org:238824</identifier>
      <datestamp>2017-01-11T11:24:36Z</datestamp>
      <setSpec>user-biosyslit</setSpec>
    </header>
    <header>
      <identifier>oai:zenodo.org:238714</identifier>
      <datestamp>2017-01-11T10:49:29Z</datestamp>
      <setSpec>user-biosyslit</setSpec>
    </header>
    <header>
      <identifier>oai:zenodo.org:238476</identifier>
      <datestamp>2017-01-11T06:03:50Z</datestamp>
      <setSpec>user-biosyslit</setSpec>
    </header>
    <header>
      <identifier>oai:zenodo.org:271795</identifier>
      <datestamp>2017-02-08T02:41:22Z</datestamp>
      <setSpec>user-biosyslit</setSpec>
    </header>
    <header>
      <identifier>oai:zenodo.org:238588</identifier>
      <datestamp>2017-01-11T07:57:57Z</datestamp>
      <setSpec>user-biosyslit</setSpec>
    </header>
    <header>
      <identifier>oai:zenodo.org:271295</identifier>
      <datestamp>2017-02-08T01:15:56Z</datestamp>
      <setSpec>user-biosyslit</setSpec>
    </header>
    <header>
      <identifier>oai:zenodo.org:239396</identifier>
      <datestamp>2017-01-11T19:57:11Z</datestamp>
      <setSpec>user-biosyslit</setSpec>
    </header>
    <header>
      <identifier>oai:zenodo.org:239040</identifier>
      <datestamp>2017-01-11T15:45:32Z</datestamp>
      <setSpec>user-biosyslit</setSpec>
    </header>
    <header>
      <identifier>oai:zenodo.org:238997</identifier>
      <datestamp>2017-01-11T14:36:45Z</datestamp>
      <setSpec>user-biosyslit</setSpec>
    </header>
    <header>
      <identifier>oai:zenodo.org:239268</identifier>
      <datestamp>2017-01-11T18:47:33Z</datestamp>
      <setSpec>user-biosyslit</setSpec>
    </header>
    <header>
      <identifier>oai:zenodo.org:239475</identifier>
      <datestamp>2017-01-11T21:07:12Z</datestamp>
      <setSpec>user-biosyslit</setSpec>
    </header>
    <header>
      <identifier>oai:zenodo.org:289772</identifier>
      <datestamp>2017-02-10T00:27:22Z</datestamp>
      <setSpec>user-biosyslit</setSpec>
    </header>
    <header>
      <identifier>oai:zenodo.org:239400</identifier>
      <datestamp>2017-01-11T20:06:23Z</datestamp>
      <setSpec>user-biosyslit</setSpec>
    </header>
    <header>
      <identifier>oai:zenodo.org:239783</identifier>
      <datestamp>2017-01-12T00:46:13Z</datestamp>
      <setSpec>user-biosyslit</setSpec>
    </header>
    <header>
      <identifier>oai:zenodo.org:240862</identifier>
      <datestamp>2017-01-12T14:59:32Z</datestamp>
      <setSpec>user-biosyslit</setSpec>
    </header>
    <header>
      <identifier>oai:zenodo.org:240691</identifier>
      <datestamp>2017-01-12T12:43:24Z</datestamp>
      <setSpec>user-biosyslit</setSpec>
    </header>
    <header>
      <identifier>oai:zenodo.org:239765</identifier>
      <datestamp>2017-01-12T00:46:25Z</datestamp>
      <setSpec>user-biosyslit</setSpec>
    </header>
    <header>
      <identifier>oai:zenodo.org:239395</identifier>
      <datestamp>2017-01-11T19:57:08Z</datestamp>
      <setSpec>user-biosyslit</setSpec>
    </header>
    <header>
      <identifier>oai:zenodo.org:239626</identifier>
      <datestamp>2017-01-11T22:51:50Z</datestamp>
      <setSpec>user-biosyslit</setSpec>
    </header>
    <header>
      <identifier>oai:zenodo.org:240059</identifier>
      <datestamp>2017-01-12T04:15:28Z</datestamp>
      <setSpec>user-biosyslit</setSpec>
    </header>
    <header>
      <identifier>oai:zenodo.org:240800</identifier>
      <datestamp>2017-01-12T14:04:47Z</datestamp>
      <setSpec>user-biosyslit</setSpec>
    </header>
    <header>
      <identifier>oai:zenodo.org:240469</identifier>
      <datestamp>2017-01-12T09:04:43Z</datestamp>
      <setSpec>user-biosyslit</setSpec>
    </header>
    <header>
      <identifier>oai:zenodo.org:240283</identifier>
      <datestamp>2017-01-12T06:54:10Z</datestamp>
      <setSpec>user-biosyslit</setSpec>
    </header>
    <header>
      <identifier>oai:zenodo.org:271167</identifier>
      <datestamp>2017-02-08T00:56:29Z</datestamp>
      <setSpec>user-biosyslit</setSpec>
    </header>
    <header>
      <identifier>oai:zenodo.org:240084</identifier>
      <datestamp>2017-01-12T04:33:50Z</datestamp>
      <setSpec>user-biosyslit</setSpec>
    </header>
    <header>
      <identifier>oai:zenodo.org:241640</identifier>
      <datestamp>2017-01-13T04:12:12Z</datestamp>
      <setSpec>user-biosyslit</setSpec>
    </header>
    <header>
      <identifier>oai:zenodo.org:271737</identifier>
      <datestamp>2017-02-08T02:29:09Z</datestamp>
      <setSpec>user-biosyslit</setSpec>
    </header>
    <header>
      <identifier>oai:zenodo.org:271619</identifier>
      <datestamp>2017-02-08T02:04:59Z</datestamp>
      <setSpec>user-biosyslit</setSpec>
    </header>
    <header>
      <identifier>oai:zenodo.org:240465</identifier>
      <datestamp>2017-01-12T09:04:33Z</datestamp>
      <setSpec>user-biosyslit</setSpec>
    </header>
    <header>
      <identifier>oai:zenodo.org:241225</identifier>
      <datestamp>2017-01-12T22:31:26Z</datestamp>
      <setSpec>user-biosyslit</setSpec>
    </header>
    <header>
      <identifier>oai:zenodo.org:272574</identifier>
      <datestamp>2017-02-08T05:09:51Z</datestamp>
      <setSpec>user-biosyslit</setSpec>
    </header>
    <header>
      <identifier>oai:zenodo.org:271819</identifier>
      <datestamp>2017-02-08T02:43:54Z</datestamp>
      <setSpec>user-biosyslit</setSpec>
    </header>
    <header>
      <identifier>oai:zenodo.org:271358</identifier>
      <datestamp>2017-02-08T01:31:02Z</datestamp>
      <setSpec>user-biosyslit</setSpec>
    </header>
    <header>
      <identifier>oai:zenodo.org:241450</identifier>
      <datestamp>2017-01-13T01:37:17Z</datestamp>
      <setSpec>user-biosyslit</setSpec>
    </header>
    <header>
      <identifier>oai:zenodo.org:272220</identifier>
      <datestamp>2017-02-08T04:01:56Z</datestamp>
      <setSpec>user-biosyslit</setSpec>
    </header>
    <header>
      <identifier>oai:zenodo.org:241498</identifier>
      <datestamp>2017-01-13T02:17:40Z</datestamp>
      <setSpec>user-biosyslit</setSpec>
    </header>
    <header>
      <identifier>oai:zenodo.org:272154</identifier>
      <datestamp>2017-02-08T03:50:51Z</datestamp>
      <setSpec>user-biosyslit</setSpec>
    </header>
    <header>
      <identifier>oai:zenodo.org:271620</identifier>
      <datestamp>2017-02-08T02:05:02Z</datestamp>
      <setSpec>user-biosyslit</setSpec>
    </header>
    <header>
      <identifier>oai:zenodo.org:241373</identifier>
      <datestamp>2017-01-13T00:28:08Z</datestamp>
      <setSpec>user-biosyslit</setSpec>
    </header>
    <header>
      <identifier>oai:zenodo.org:271699</identifier>
      <datestamp>2017-02-08T02:23:54Z</datestamp>
      <setSpec>user-biosyslit</setSpec>
    </header>
    <header>
      <identifier>oai:zenodo.org:272256</identifier>
      <datestamp>2017-02-08T04:05:08Z</datestamp>
      <setSpec>user-biosyslit</setSpec>
    </header>
    <header>
      <identifier>oai:zenodo.org:241527</identifier>
      <datestamp>2017-01-13T02:57:46Z</datestamp>
      <setSpec>user-biosyslit</setSpec>
    </header>
    <header>
      <identifier>oai:zenodo.org:271671</identifier>
      <datestamp>2017-02-08T02:10:46Z</datestamp>
      <setSpec>user-biosyslit</setSpec>
    </header>
    <header>
      <identifier>oai:zenodo.org:271924</identifier>
      <datestamp>2017-02-08T03:04:44Z</datestamp>
      <setSpec>user-biosyslit</setSpec>
    </header>
    <header>
      <identifier>oai:zenodo.org:271969</identifier>
      <datestamp>2017-02-08T03:10:50Z</datestamp>
      <setSpec>user-biosyslit</setSpec>
    </header>
    <header>
      <identifier>oai:zenodo.org:242214</identifier>
      <datestamp>2017-01-13T12:07:54Z</datestamp>
      <setSpec>user-biosyslit</setSpec>
    </header>
    <header>
      <identifier>oai:zenodo.org:241700</identifier>
      <datestamp>2017-01-13T05:09:45Z</datestamp>
      <setSpec>user-biosyslit</setSpec>
    </header>
    <header>
      <identifier>oai:zenodo.org:243013</identifier>
      <datestamp>2017-01-13T22:09:26Z</datestamp>
      <setSpec>user-biosyslit</setSpec>
    </header>
    <header>
      <identifier>oai:zenodo.org:241895</identifier>
      <datestamp>2017-01-13T07:24:22Z</datestamp>
      <setSpec>user-biosyslit</setSpec>
    </header>
    <header>
      <identifier>oai:zenodo.org:241686</identifier>
      <datestamp>2017-01-13T04:53:38Z</datestamp>
      <setSpec>user-biosyslit</setSpec>
    </header>
    <header>
      <identifier>oai:zenodo.org:241870</identifier>
      <datestamp>2017-01-13T07:06:33Z</datestamp>
      <setSpec>user-biosyslit</setSpec>
    </header>
    <header>
      <identifier>oai:zenodo.org:241765</identifier>
      <datestamp>2017-01-13T05:36:41Z</datestamp>
      <setSpec>user-biosyslit</setSpec>
    </header>
    <header>
      <identifier>oai:zenodo.org:242477</identifier>
      <datestamp>2017-01-13T15:40:07Z</datestamp>
      <setSpec>user-biosyslit</setSpec>
    </header>
    <header>
      <identifier>oai:zenodo.org:271892</identifier>
      <datestamp>2017-02-08T02:54:48Z</datestamp>
      <setSpec>user-biosyslit</setSpec>
    </header>
    <header>
      <identifier>oai:zenodo.org:243655</identifier>
      <datestamp>2017-01-14T08:49:52Z</datestamp>
      <setSpec>user-biosyslit</setSpec>
    </header>
    <header>
      <identifier>oai:zenodo.org:272650</identifier>
      <datestamp>2017-02-08T06:12:07Z</datestamp>
      <setSpec>user-biosyslit</setSpec>
    </header>
    <header>
      <identifier>oai:zenodo.org:242195</identifier>
      <datestamp>2017-01-13T12:01:30Z</datestamp>
      <setSpec>user-biosyslit</setSpec>
    </header>
    <header>
      <identifier>oai:zenodo.org:242118</identifier>
      <datestamp>2017-01-13T10:39:22Z</datestamp>
      <setSpec>user-biosyslit</setSpec>
    </header>
    <header>
      <identifier>oai:zenodo.org:242415</identifier>
      <datestamp>2017-01-13T15:09:24Z</datestamp>
      <setSpec>user-biosyslit</setSpec>
    </header>
    <header>
      <identifier>oai:zenodo.org:272165</identifier>
      <datestamp>2017-02-08T03:53:25Z</datestamp>
      <setSpec>user-biosyslit</setSpec>
    </header>
    <header>
      <identifier>oai:zenodo.org:242536</identifier>
      <datestamp>2017-01-13T16:25:53Z</datestamp>
      <setSpec>user-biosyslit</setSpec>
    </header>
    <header>
      <identifier>oai:zenodo.org:242708</identifier>
      <datestamp>2017-01-13T18:53:04Z</datestamp>
      <setSpec>user-biosyslit</setSpec>
    </header>
    <header>
      <identifier>oai:zenodo.org:271987</identifier>
      <datestamp>2017-02-08T03:13:50Z</datestamp>
      <setSpec>user-biosyslit</setSpec>
    </header>
    <header>
      <identifier>oai:zenodo.org:271905</identifier>
      <datestamp>2017-02-08T03:00:12Z</datestamp>
      <setSpec>user-biosyslit</setSpec>
    </header>
    <header>
      <identifier>oai:zenodo.org:272194</identifier>
      <datestamp>2017-02-08T03:58:35Z</datestamp>
      <setSpec>user-biosyslit</setSpec>
    </header>
    <header>
      <identifier>oai:zenodo.org:272076</identifier>
      <datestamp>2017-02-08T03:29:25Z</datestamp>
      <setSpec>user-biosyslit</setSpec>
    </header>
    <header>
      <identifier>oai:zenodo.org:271018</identifier>
      <datestamp>2017-02-08T00:36:28Z</datestamp>
      <setSpec>user-biosyslit</setSpec>
    </header>
    <header>
      <identifier>oai:zenodo.org:234887</identifier>
      <datestamp>2017-01-09T03:09:12Z</datestamp>
      <setSpec>user-biosyslit</setSpec>
    </header>
    <header>
      <identifier>oai:zenodo.org:234005</identifier>
      <datestamp>2017-01-08T13:59:12Z</datestamp>
      <setSpec>user-biosyslit</setSpec>
    </header>
    <header>
      <identifier>oai:zenodo.org:234881</identifier>
      <datestamp>2017-01-09T02:58:39Z</datestamp>
      <setSpec>user-biosyslit</setSpec>
    </header>
    <header>
      <identifier>oai:zenodo.org:234815</identifier>
      <datestamp>2017-01-09T02:22:02Z</datestamp>
      <setSpec>user-biosyslit</setSpec>
    </header>
    <header>
      <identifier>oai:zenodo.org:234798</identifier>
      <datestamp>2017-01-09T02:15:45Z</datestamp>
      <setSpec>user-biosyslit</setSpec>
    </header>
    <header>
      <identifier>oai:zenodo.org:234895</identifier>
      <datestamp>2017-01-09T03:13:39Z</datestamp>
      <setSpec>user-biosyslit</setSpec>
    </header>
    <header>
      <identifier>oai:zenodo.org:234824</identifier>
      <datestamp>2017-01-09T02:30:05Z</datestamp>
      <setSpec>user-biosyslit</setSpec>
    </header>
    <header>
      <identifier>oai:zenodo.org:235695</identifier>
      <datestamp>2017-01-09T13:43:50Z</datestamp>
      <setSpec>user-biosyslit</setSpec>
    </header>
    <header>
      <identifier>oai:zenodo.org:234985</identifier>
      <datestamp>2017-01-09T04:27:46Z</datestamp>
      <setSpec>user-biosyslit</setSpec>
    </header>
    <header>
      <identifier>oai:zenodo.org:235417</identifier>
      <datestamp>2017-01-09T09:58:28Z</datestamp>
      <setSpec>user-biosyslit</setSpec>
    </header>
    <header>
      <identifier>oai:zenodo.org:236003</identifier>
      <datestamp>2017-01-09T17:48:57Z</datestamp>
      <setSpec>user-biosyslit</setSpec>
    </header>
    <header>
      <identifier>oai:zenodo.org:236386</identifier>
      <datestamp>2017-01-09T23:36:30Z</datestamp>
      <setSpec>user-biosyslit</setSpec>
    </header>
    <header>
      <identifier>oai:zenodo.org:235373</identifier>
      <datestamp>2017-01-09T09:31:26Z</datestamp>
      <setSpec>user-biosyslit</setSpec>
    </header>
    <header>
      <identifier>oai:zenodo.org:236243</identifier>
      <datestamp>2017-01-09T20:20:29Z</datestamp>
      <setSpec>user-biosyslit</setSpec>
    </header>
    <header>
      <identifier>oai:zenodo.org:237570</identifier>
      <datestamp>2017-01-10T17:12:10Z</datestamp>
      <setSpec>user-biosyslit</setSpec>
    </header>
    <header>
      <identifier>oai:zenodo.org:235586</identifier>
      <datestamp>2017-01-09T12:31:00Z</datestamp>
      <setSpec>user-biosyslit</setSpec>
    </header>
    <header>
      <identifier>oai:zenodo.org:236555</identifier>
      <datestamp>2017-01-10T01:23:00Z</datestamp>
      <setSpec>user-biosyslit</setSpec>
    </header>
    <header>
      <identifier>oai:zenodo.org:237052</identifier>
      <datestamp>2017-01-10T10:21:44Z</datestamp>
      <setSpec>user-biosyslit</setSpec>
    </header>
    <header>
      <identifier>oai:zenodo.org:236429</identifier>
      <datestamp>2017-01-10T00:06:44Z</datestamp>
      <setSpec>user-biosyslit</setSpec>
    </header>
    <header>
      <identifier>oai:zenodo.org:237798</identifier>
      <datestamp>2017-01-10T20:50:35Z</datestamp>
      <setSpec>user-biosyslit</setSpec>
    </header>
    <header>
      <identifier>oai:zenodo.org:239467</identifier>
      <datestamp>2017-01-11T21:04:29Z</datestamp>
      <setSpec>user-biosyslit</setSpec>
    </header>
    <header>
      <identifier>oai:zenodo.org:237236</identifier>
      <datestamp>2017-01-10T12:51:20Z</datestamp>
      <setSpec>user-biosyslit</setSpec>
    </header>
    <header>
      <identifier>oai:zenodo.org:236672</identifier>
      <datestamp>2017-01-10T02:44:54Z</datestamp>
      <setSpec>user-biosyslit</setSpec>
    </header>
    <header>
      <identifier>oai:zenodo.org:238036</identifier>
      <datestamp>2017-01-11T00:17:30Z</datestamp>
      <setSpec>user-biosyslit</setSpec>
    </header>
    <resumptionToken expirationDate="2017-08-31T15:46:08Z" cursor="46800" completeListSize="77796">.eJyNyj0LgkAYAOD_8s4S91GdCS1iSYOKXkq6hKlIeZp4hXrif8-luebnmUAWRQ4GWu0IwUTfbBjRKdoyXQOZdU8hrveFIbtEImtEmNrRO6gjFJOSuZYcHCumrqqQV2PFjz65YH0I72j0z-ErVsEQ0VPP0YE5yh_dx2l5OfVskdzsloeNKTjJO-_gjxybPKHZ9-E_n_r5LLkHDdq0LMBYM6RB1addKcGY5vkDoLxRQQ.DInASA.PaY5Z8z8bQgZ4GuxbzLdvT3eoso</resumptionToken>
  </ListIdentifiers>
</OAI-PMH>
