<?xml version='1.0' encoding='UTF-8'?>
<?xml-stylesheet type="text/xsl" href="/static/xsl/oai2.v1.0.xsl"?>
<OAI-PMH xmlns="http://www.openarchives.org/OAI/2.0/" xmlns:xsi="http://www.w3.org/2001/XMLSchema-instance" xsi:schemaLocation="http://www.openarchives.org/OAI/2.0/ http://www.openarchives.org/OAI/2.0/OAI-PMH.xsd">
  <responseDate>2017-08-31T15:42:44Z</responseDate>
  <request verb="ListIdentifiers" resumptionToken=".eJyNz8EOQzAAgOF36VmWtiiR7CJMHBA6gstiiJgy0S2oePe57Lyd_-_yb4DXdQUMeCKqohIdI0QUSJCuSYCX05OxW3tkUKYJKwcWF07yjvoEZrjRfIsvnpXJvuhg0CNBLyFOkb7ELVzDa_zKRLQksjtTaGueCFf_4R6ukgOH5XdnpPFgMoqrKbDDlSKT5nL5dehPJ346i5-BBMaiqYGByXHVzcXUcGBs-_4BnIpRQA.DIm_9A.Cs9HIpN-pf4qCnSyTFW-xc9Cn9A">https://zenodo.org/oai2d</request>
  <ListIdentifiers>
    <header>
      <identifier>oai:zenodo.org:240032</identifier>
      <datestamp>2017-01-12T03:58:49Z</datestamp>
      <setSpec>user-biosyslit</setSpec>
    </header>
    <header>
      <identifier>oai:zenodo.org:281985</identifier>
      <datestamp>2017-02-09T06:15:54Z</datestamp>
      <setSpec>user-biosyslit</setSpec>
    </header>
    <header>
      <identifier>oai:zenodo.org:281983</identifier>
      <datestamp>2017-02-09T06:15:50Z</datestamp>
      <setSpec>user-biosyslit</setSpec>
    </header>
    <header>
      <identifier>oai:zenodo.org:281986</identifier>
      <datestamp>2017-02-09T06:15:56Z</datestamp>
      <setSpec>user-biosyslit</setSpec>
    </header>
    <header>
      <identifier>oai:zenodo.org:281982</identifier>
      <datestamp>2017-02-09T06:15:48Z</datestamp>
      <setSpec>user-biosyslit</setSpec>
    </header>
    <header>
      <identifier>oai:zenodo.org:281993</identifier>
      <datestamp>2017-02-09T06:16:10Z</datestamp>
      <setSpec>user-biosyslit</setSpec>
    </header>
    <header>
      <identifier>oai:zenodo.org:281990</identifier>
      <datestamp>2017-02-09T06:16:05Z</datestamp>
      <setSpec>user-biosyslit</setSpec>
    </header>
    <header>
      <identifier>oai:zenodo.org:240038</identifier>
      <datestamp>2017-01-12T03:59:11Z</datestamp>
      <setSpec>user-biosyslit</setSpec>
    </header>
    <header>
      <identifier>oai:zenodo.org:240036</identifier>
      <datestamp>2017-01-12T03:59:06Z</datestamp>
      <setSpec>user-biosyslit</setSpec>
    </header>
    <header>
      <identifier>oai:zenodo.org:240039</identifier>
      <datestamp>2017-01-12T03:59:14Z</datestamp>
      <setSpec>user-biosyslit</setSpec>
    </header>
    <header>
      <identifier>oai:zenodo.org:240035</identifier>
      <datestamp>2017-01-12T03:59:03Z</datestamp>
      <setSpec>user-biosyslit</setSpec>
    </header>
    <header>
      <identifier>oai:zenodo.org:247897</identifier>
      <datestamp>2017-01-16T21:23:21Z</datestamp>
      <setSpec>user-biosyslit</setSpec>
    </header>
    <header>
      <identifier>oai:zenodo.org:247902</identifier>
      <datestamp>2017-01-16T21:23:42Z</datestamp>
      <setSpec>user-biosyslit</setSpec>
    </header>
    <header>
      <identifier>oai:zenodo.org:247900</identifier>
      <datestamp>2017-01-16T21:23:33Z</datestamp>
      <setSpec>user-biosyslit</setSpec>
    </header>
    <header>
      <identifier>oai:zenodo.org:244859</identifier>
      <datestamp>2017-01-15T04:13:51Z</datestamp>
      <setSpec>user-biosyslit</setSpec>
    </header>
    <header>
      <identifier>oai:zenodo.org:244858</identifier>
      <datestamp>2017-01-15T04:13:46Z</datestamp>
      <setSpec>user-biosyslit</setSpec>
    </header>
    <header>
      <identifier>oai:zenodo.org:244860</identifier>
      <datestamp>2017-01-15T04:13:58Z</datestamp>
      <setSpec>user-biosyslit</setSpec>
    </header>
    <header>
      <identifier>oai:zenodo.org:227293</identifier>
      <datestamp>2017-01-01T19:08:43Z</datestamp>
      <setSpec>user-biosyslit</setSpec>
    </header>
    <header>
      <identifier>oai:zenodo.org:227295</identifier>
      <datestamp>2017-01-01T19:08:32Z</datestamp>
      <setSpec>user-biosyslit</setSpec>
    </header>
    <header>
      <identifier>oai:zenodo.org:227298</identifier>
      <datestamp>2017-01-01T19:08:42Z</datestamp>
      <setSpec>user-biosyslit</setSpec>
    </header>
    <header>
      <identifier>oai:zenodo.org:255040</identifier>
      <datestamp>2017-01-21T06:58:25Z</datestamp>
      <setSpec>user-biosyslit</setSpec>
    </header>
    <header>
      <identifier>oai:zenodo.org:243145</identifier>
      <datestamp>2017-01-13T23:53:43Z</datestamp>
      <setSpec>user-biosyslit</setSpec>
    </header>
    <header>
      <identifier>oai:zenodo.org:233353</identifier>
      <datestamp>2017-01-08T03:47:41Z</datestamp>
      <setSpec>user-biosyslit</setSpec>
    </header>
    <header>
      <identifier>oai:zenodo.org:233352</identifier>
      <datestamp>2017-01-08T03:48:05Z</datestamp>
      <setSpec>user-biosyslit</setSpec>
    </header>
    <header>
      <identifier>oai:zenodo.org:233357</identifier>
      <datestamp>2017-01-08T03:47:56Z</datestamp>
      <setSpec>user-biosyslit</setSpec>
    </header>
    <header>
      <identifier>oai:zenodo.org:245696</identifier>
      <datestamp>2017-01-15T17:34:28Z</datestamp>
      <setSpec>user-biosyslit</setSpec>
    </header>
    <header>
      <identifier>oai:zenodo.org:233355</identifier>
      <datestamp>2017-01-08T03:47:47Z</datestamp>
      <setSpec>user-biosyslit</setSpec>
    </header>
    <header>
      <identifier>oai:zenodo.org:245698</identifier>
      <datestamp>2017-01-15T17:34:27Z</datestamp>
      <setSpec>user-biosyslit</setSpec>
    </header>
    <header>
      <identifier>oai:zenodo.org:233359</identifier>
      <datestamp>2017-01-08T03:48:04Z</datestamp>
      <setSpec>user-biosyslit</setSpec>
    </header>
    <header>
      <identifier>oai:zenodo.org:273573</identifier>
      <datestamp>2017-02-08T09:54:08Z</datestamp>
      <setSpec>user-biosyslit</setSpec>
    </header>
    <header>
      <identifier>oai:zenodo.org:273572</identifier>
      <datestamp>2017-02-08T09:54:06Z</datestamp>
      <setSpec>user-biosyslit</setSpec>
    </header>
    <header>
      <identifier>oai:zenodo.org:273569</identifier>
      <datestamp>2017-02-08T09:54:33Z</datestamp>
      <setSpec>user-biosyslit</setSpec>
    </header>
    <header>
      <identifier>oai:zenodo.org:239496</identifier>
      <datestamp>2017-01-11T21:25:42Z</datestamp>
      <setSpec>user-biosyslit</setSpec>
    </header>
    <header>
      <identifier>oai:zenodo.org:273575</identifier>
      <datestamp>2017-02-08T09:54:12Z</datestamp>
      <setSpec>user-biosyslit</setSpec>
    </header>
    <header>
      <identifier>oai:zenodo.org:273574</identifier>
      <datestamp>2017-02-08T09:54:10Z</datestamp>
      <setSpec>user-biosyslit</setSpec>
    </header>
    <header>
      <identifier>oai:zenodo.org:273577</identifier>
      <datestamp>2017-02-08T09:54:16Z</datestamp>
      <setSpec>user-biosyslit</setSpec>
    </header>
    <header>
      <identifier>oai:zenodo.org:273580</identifier>
      <datestamp>2017-02-08T09:54:23Z</datestamp>
      <setSpec>user-biosyslit</setSpec>
    </header>
    <header>
      <identifier>oai:zenodo.org:230039</identifier>
      <datestamp>2017-01-04T18:20:41Z</datestamp>
      <setSpec>user-biosyslit</setSpec>
    </header>
    <header>
      <identifier>oai:zenodo.org:230041</identifier>
      <datestamp>2017-01-04T18:20:49Z</datestamp>
      <setSpec>user-biosyslit</setSpec>
    </header>
    <header>
      <identifier>oai:zenodo.org:230042</identifier>
      <datestamp>2017-01-04T18:20:52Z</datestamp>
      <setSpec>user-biosyslit</setSpec>
    </header>
    <header>
      <identifier>oai:zenodo.org:230036</identifier>
      <datestamp>2017-01-04T18:21:02Z</datestamp>
      <setSpec>user-biosyslit</setSpec>
    </header>
    <header>
      <identifier>oai:zenodo.org:277660</identifier>
      <datestamp>2017-02-08T21:35:22Z</datestamp>
      <setSpec>user-biosyslit</setSpec>
    </header>
    <header>
      <identifier>oai:zenodo.org:277661</identifier>
      <datestamp>2017-02-08T21:35:18Z</datestamp>
      <setSpec>user-biosyslit</setSpec>
    </header>
    <header>
      <identifier>oai:zenodo.org:239900</identifier>
      <datestamp>2017-01-12T02:29:06Z</datestamp>
      <setSpec>user-biosyslit</setSpec>
    </header>
    <header>
      <identifier>oai:zenodo.org:239901</identifier>
      <datestamp>2017-01-12T02:29:10Z</datestamp>
      <setSpec>user-biosyslit</setSpec>
    </header>
    <header>
      <identifier>oai:zenodo.org:239904</identifier>
      <datestamp>2017-01-12T02:29:21Z</datestamp>
      <setSpec>user-biosyslit</setSpec>
    </header>
    <header>
      <identifier>oai:zenodo.org:239902</identifier>
      <datestamp>2017-01-12T02:29:12Z</datestamp>
      <setSpec>user-biosyslit</setSpec>
    </header>
    <header>
      <identifier>oai:zenodo.org:239903</identifier>
      <datestamp>2017-01-12T02:29:17Z</datestamp>
      <setSpec>user-biosyslit</setSpec>
    </header>
    <header>
      <identifier>oai:zenodo.org:239920</identifier>
      <datestamp>2017-01-12T02:30:12Z</datestamp>
      <setSpec>user-biosyslit</setSpec>
    </header>
    <header>
      <identifier>oai:zenodo.org:239909</identifier>
      <datestamp>2017-01-12T02:29:37Z</datestamp>
      <setSpec>user-biosyslit</setSpec>
    </header>
    <header>
      <identifier>oai:zenodo.org:239905</identifier>
      <datestamp>2017-01-12T02:29:23Z</datestamp>
      <setSpec>user-biosyslit</setSpec>
    </header>
    <header>
      <identifier>oai:zenodo.org:239907</identifier>
      <datestamp>2017-01-12T02:29:30Z</datestamp>
      <setSpec>user-biosyslit</setSpec>
    </header>
    <header>
      <identifier>oai:zenodo.org:239906</identifier>
      <datestamp>2017-01-12T02:29:27Z</datestamp>
      <setSpec>user-biosyslit</setSpec>
    </header>
    <header>
      <identifier>oai:zenodo.org:239919</identifier>
      <datestamp>2017-01-12T02:30:08Z</datestamp>
      <setSpec>user-biosyslit</setSpec>
    </header>
    <header>
      <identifier>oai:zenodo.org:239913</identifier>
      <datestamp>2017-01-12T02:29:51Z</datestamp>
      <setSpec>user-biosyslit</setSpec>
    </header>
    <header>
      <identifier>oai:zenodo.org:239918</identifier>
      <datestamp>2017-01-12T02:30:06Z</datestamp>
      <setSpec>user-biosyslit</setSpec>
    </header>
    <header>
      <identifier>oai:zenodo.org:239916</identifier>
      <datestamp>2017-01-12T02:30:01Z</datestamp>
      <setSpec>user-biosyslit</setSpec>
    </header>
    <header>
      <identifier>oai:zenodo.org:239925</identifier>
      <datestamp>2017-01-12T02:30:30Z</datestamp>
      <setSpec>user-biosyslit</setSpec>
    </header>
    <header>
      <identifier>oai:zenodo.org:239931</identifier>
      <datestamp>2017-01-12T02:30:52Z</datestamp>
      <setSpec>user-biosyslit</setSpec>
    </header>
    <header>
      <identifier>oai:zenodo.org:239929</identifier>
      <datestamp>2017-01-12T02:30:46Z</datestamp>
      <setSpec>user-biosyslit</setSpec>
    </header>
    <header>
      <identifier>oai:zenodo.org:239921</identifier>
      <datestamp>2017-01-12T02:30:15Z</datestamp>
      <setSpec>user-biosyslit</setSpec>
    </header>
    <header>
      <identifier>oai:zenodo.org:239926</identifier>
      <datestamp>2017-01-12T02:30:33Z</datestamp>
      <setSpec>user-biosyslit</setSpec>
    </header>
    <header>
      <identifier>oai:zenodo.org:239935</identifier>
      <datestamp>2017-01-12T02:31:06Z</datestamp>
      <setSpec>user-biosyslit</setSpec>
    </header>
    <header>
      <identifier>oai:zenodo.org:239933</identifier>
      <datestamp>2017-01-12T02:30:58Z</datestamp>
      <setSpec>user-biosyslit</setSpec>
    </header>
    <header>
      <identifier>oai:zenodo.org:239927</identifier>
      <datestamp>2017-01-12T02:30:40Z</datestamp>
      <setSpec>user-biosyslit</setSpec>
    </header>
    <header>
      <identifier>oai:zenodo.org:282240</identifier>
      <datestamp>2017-02-09T06:41:56Z</datestamp>
      <setSpec>user-biosyslit</setSpec>
    </header>
    <header>
      <identifier>oai:zenodo.org:282241</identifier>
      <datestamp>2017-02-09T06:41:59Z</datestamp>
      <setSpec>user-biosyslit</setSpec>
    </header>
    <header>
      <identifier>oai:zenodo.org:282243</identifier>
      <datestamp>2017-02-09T06:42:04Z</datestamp>
      <setSpec>user-biosyslit</setSpec>
    </header>
    <header>
      <identifier>oai:zenodo.org:282242</identifier>
      <datestamp>2017-02-09T06:42:02Z</datestamp>
      <setSpec>user-biosyslit</setSpec>
    </header>
    <header>
      <identifier>oai:zenodo.org:282244</identifier>
      <datestamp>2017-02-09T06:42:06Z</datestamp>
      <setSpec>user-biosyslit</setSpec>
    </header>
    <header>
      <identifier>oai:zenodo.org:282245</identifier>
      <datestamp>2017-02-09T06:42:08Z</datestamp>
      <setSpec>user-biosyslit</setSpec>
    </header>
    <header>
      <identifier>oai:zenodo.org:245457</identifier>
      <datestamp>2017-01-15T13:38:57Z</datestamp>
      <setSpec>user-biosyslit</setSpec>
    </header>
    <header>
      <identifier>oai:zenodo.org:245462</identifier>
      <datestamp>2017-01-15T13:39:10Z</datestamp>
      <setSpec>user-biosyslit</setSpec>
    </header>
    <header>
      <identifier>oai:zenodo.org:245460</identifier>
      <datestamp>2017-01-15T13:39:05Z</datestamp>
      <setSpec>user-biosyslit</setSpec>
    </header>
    <header>
      <identifier>oai:zenodo.org:245464</identifier>
      <datestamp>2017-01-15T13:39:15Z</datestamp>
      <setSpec>user-biosyslit</setSpec>
    </header>
    <header>
      <identifier>oai:zenodo.org:245459</identifier>
      <datestamp>2017-01-15T13:39:03Z</datestamp>
      <setSpec>user-biosyslit</setSpec>
    </header>
    <header>
      <identifier>oai:zenodo.org:245454</identifier>
      <datestamp>2017-01-15T13:38:48Z</datestamp>
      <setSpec>user-biosyslit</setSpec>
    </header>
    <header>
      <identifier>oai:zenodo.org:245463</identifier>
      <datestamp>2017-01-15T13:39:12Z</datestamp>
      <setSpec>user-biosyslit</setSpec>
    </header>
    <header>
      <identifier>oai:zenodo.org:245469</identifier>
      <datestamp>2017-01-15T13:39:29Z</datestamp>
      <setSpec>user-biosyslit</setSpec>
    </header>
    <header>
      <identifier>oai:zenodo.org:245456</identifier>
      <datestamp>2017-01-15T13:38:54Z</datestamp>
      <setSpec>user-biosyslit</setSpec>
    </header>
    <header>
      <identifier>oai:zenodo.org:287074</identifier>
      <datestamp>2017-02-09T17:26:46Z</datestamp>
      <setSpec>user-biosyslit</setSpec>
    </header>
    <header>
      <identifier>oai:zenodo.org:234460</identifier>
      <datestamp>2017-01-08T20:26:59Z</datestamp>
      <setSpec>user-biosyslit</setSpec>
    </header>
    <header>
      <identifier>oai:zenodo.org:234468</identifier>
      <datestamp>2017-01-08T20:26:48Z</datestamp>
      <setSpec>user-biosyslit</setSpec>
    </header>
    <header>
      <identifier>oai:zenodo.org:234470</identifier>
      <datestamp>2017-01-08T20:26:54Z</datestamp>
      <setSpec>user-biosyslit</setSpec>
    </header>
    <header>
      <identifier>oai:zenodo.org:234471</identifier>
      <datestamp>2017-01-08T20:26:57Z</datestamp>
      <setSpec>user-biosyslit</setSpec>
    </header>
    <header>
      <identifier>oai:zenodo.org:234465</identifier>
      <datestamp>2017-01-08T20:26:37Z</datestamp>
      <setSpec>user-biosyslit</setSpec>
    </header>
    <header>
      <identifier>oai:zenodo.org:234467</identifier>
      <datestamp>2017-01-08T20:26:44Z</datestamp>
      <setSpec>user-biosyslit</setSpec>
    </header>
    <header>
      <identifier>oai:zenodo.org:234462</identifier>
      <datestamp>2017-01-08T20:26:28Z</datestamp>
      <setSpec>user-biosyslit</setSpec>
    </header>
    <header>
      <identifier>oai:zenodo.org:234461</identifier>
      <datestamp>2017-01-08T20:26:24Z</datestamp>
      <setSpec>user-biosyslit</setSpec>
    </header>
    <header>
      <identifier>oai:zenodo.org:253711</identifier>
      <datestamp>2017-01-20T10:18:48Z</datestamp>
      <setSpec>user-biosyslit</setSpec>
    </header>
    <header>
      <identifier>oai:zenodo.org:240018</identifier>
      <datestamp>2017-01-12T03:44:17Z</datestamp>
      <setSpec>user-biosyslit</setSpec>
    </header>
    <header>
      <identifier>oai:zenodo.org:240019</identifier>
      <datestamp>2017-01-12T03:44:21Z</datestamp>
      <setSpec>user-biosyslit</setSpec>
    </header>
    <header>
      <identifier>oai:zenodo.org:240021</identifier>
      <datestamp>2017-01-12T03:44:28Z</datestamp>
      <setSpec>user-biosyslit</setSpec>
    </header>
    <header>
      <identifier>oai:zenodo.org:240020</identifier>
      <datestamp>2017-01-12T03:44:24Z</datestamp>
      <setSpec>user-biosyslit</setSpec>
    </header>
    <header>
      <identifier>oai:zenodo.org:253723</identifier>
      <datestamp>2017-01-20T10:19:19Z</datestamp>
      <setSpec>user-biosyslit</setSpec>
    </header>
    <header>
      <identifier>oai:zenodo.org:253718</identifier>
      <datestamp>2017-01-20T10:19:08Z</datestamp>
      <setSpec>user-biosyslit</setSpec>
    </header>
    <header>
      <identifier>oai:zenodo.org:253728</identifier>
      <datestamp>2017-01-20T10:19:30Z</datestamp>
      <setSpec>user-biosyslit</setSpec>
    </header>
    <header>
      <identifier>oai:zenodo.org:253722</identifier>
      <datestamp>2017-01-20T10:19:17Z</datestamp>
      <setSpec>user-biosyslit</setSpec>
    </header>
    <header>
      <identifier>oai:zenodo.org:253725</identifier>
      <datestamp>2017-01-20T10:19:23Z</datestamp>
      <setSpec>user-biosyslit</setSpec>
    </header>
    <header>
      <identifier>oai:zenodo.org:253717</identifier>
      <datestamp>2017-01-20T10:19:05Z</datestamp>
      <setSpec>user-biosyslit</setSpec>
    </header>
    <resumptionToken expirationDate="2017-08-31T15:44:44Z" cursor="26600" completeListSize="77796">.eJyNyrsOgjAUANB_uTMxfcgzcTEocRBSK0RYDBZC0KKGaoAS_l0WZ53PGUGVZQEeWixtl1imS4mLbOqYxAAl2oeU53pmEKdEiruM8yB5H5oEpaSyQ1_1ez-lob6hqMGabxk5YaePazSwY_xK9aFP6K7jaGPvNRvC625-BY0CmV2CJ4_va8lJ0UYbNnC85hkV34f_fPrn89UKDHjmVQkesRwDbl3eVgq8cZo-ptNRTA.DIm_9A.xh5DSr5fFJu7t8IMbd1oYleJ3mU</resumptionToken>
  </ListIdentifiers>
</OAI-PMH>
