<?xml version='1.0' encoding='UTF-8'?>
<?xml-stylesheet type="text/xsl" href="/static/xsl/oai2.v1.0.xsl"?>
<OAI-PMH xmlns="http://www.openarchives.org/OAI/2.0/" xmlns:xsi="http://www.w3.org/2001/XMLSchema-instance" xsi:schemaLocation="http://www.openarchives.org/OAI/2.0/ http://www.openarchives.org/OAI/2.0/OAI-PMH.xsd">
  <responseDate>2017-08-31T15:45:03Z</responseDate>
  <request verb="ListIdentifiers" resumptionToken=".eJyNz7sOgjAAQNF_6UxMHyKFxMWgxAEIVAiwGCyEKAUJ1QAl_Lsszjrfs9wZyLIsgAU3FENdR1tq6sSgeGdqQPL-KcT1vmbAk1jwVkS5E7_DJoYprgzPlqNrp8RTNfQbpNgpwAmiY3SHU3CJXqkKx5icBwaPhquCyXucV1cQ3xHZzelY1B4Ew0XvH4OJoQPLCP869KdTP50t90ADXV6VwNLpelUPeV9JYM3L8gGnrFFT.DInAfw.qfsDDui1Pbge-IBSkG1sZi2HAEc">https://zenodo.org/oai2d</request>
  <ListIdentifiers>
    <header>
      <identifier>oai:zenodo.org:573095</identifier>
      <datestamp>2017-05-29T13:54:14Z</datestamp>
      <setSpec>user-biosyslit</setSpec>
    </header>
    <header>
      <identifier>oai:zenodo.org:437268</identifier>
      <datestamp>2017-03-22T08:56:30Z</datestamp>
      <setSpec>user-biosyslit</setSpec>
    </header>
    <header>
      <identifier>oai:zenodo.org:437680</identifier>
      <datestamp>2017-03-23T10:11:15Z</datestamp>
      <setSpec>user-biosyslit</setSpec>
    </header>
    <header>
      <identifier>oai:zenodo.org:437936</identifier>
      <datestamp>2017-03-24T08:16:01Z</datestamp>
      <setSpec>user-biosyslit</setSpec>
    </header>
    <header>
      <identifier>oai:zenodo.org:437661</identifier>
      <datestamp>2017-03-23T10:10:36Z</datestamp>
      <setSpec>user-biosyslit</setSpec>
    </header>
    <header>
      <identifier>oai:zenodo.org:556312</identifier>
      <datestamp>2017-04-20T08:06:38Z</datestamp>
      <setSpec>user-biosyslit</setSpec>
    </header>
    <header>
      <identifier>oai:zenodo.org:437217</identifier>
      <datestamp>2017-03-22T08:13:00Z</datestamp>
      <setSpec>user-biosyslit</setSpec>
    </header>
    <header>
      <identifier>oai:zenodo.org:437637</identifier>
      <datestamp>2017-03-23T10:09:46Z</datestamp>
      <setSpec>user-biosyslit</setSpec>
    </header>
    <header>
      <identifier>oai:zenodo.org:437277</identifier>
      <datestamp>2017-03-22T09:03:42Z</datestamp>
      <setSpec>user-biosyslit</setSpec>
    </header>
    <header>
      <identifier>oai:zenodo.org:437659</identifier>
      <datestamp>2017-03-23T10:10:32Z</datestamp>
      <setSpec>user-biosyslit</setSpec>
    </header>
    <header>
      <identifier>oai:zenodo.org:438546</identifier>
      <datestamp>2017-03-28T07:22:53Z</datestamp>
      <setSpec>user-biosyslit</setSpec>
    </header>
    <header>
      <identifier>oai:zenodo.org:438874</identifier>
      <datestamp>2017-03-29T07:57:10Z</datestamp>
      <setSpec>user-biosyslit</setSpec>
    </header>
    <header>
      <identifier>oai:zenodo.org:438298</identifier>
      <datestamp>2017-03-28T14:01:27Z</datestamp>
      <setSpec>openaire</setSpec>
      <setSpec>user-biosyslit</setSpec>
    </header>
    <header>
      <identifier>oai:zenodo.org:322673</identifier>
      <datestamp>2017-04-03T10:01:35Z</datestamp>
      <setSpec>openaire</setSpec>
      <setSpec>user-biosyslit</setSpec>
    </header>
    <header>
      <identifier>oai:zenodo.org:438869</identifier>
      <datestamp>2017-03-29T07:37:03Z</datestamp>
      <setSpec>user-biosyslit</setSpec>
    </header>
    <header>
      <identifier>oai:zenodo.org:438572</identifier>
      <datestamp>2017-03-28T07:32:56Z</datestamp>
      <setSpec>user-biosyslit</setSpec>
    </header>
    <header>
      <identifier>oai:zenodo.org:495553</identifier>
      <datestamp>2017-04-07T07:51:39Z</datestamp>
      <setSpec>user-biosyslit</setSpec>
    </header>
    <header>
      <identifier>oai:zenodo.org:546798</identifier>
      <datestamp>2017-04-18T07:14:07Z</datestamp>
      <setSpec>user-biosyslit</setSpec>
    </header>
    <header>
      <identifier>oai:zenodo.org:556280</identifier>
      <datestamp>2017-04-20T07:41:50Z</datestamp>
      <setSpec>user-biosyslit</setSpec>
    </header>
    <header>
      <identifier>oai:zenodo.org:569419</identifier>
      <datestamp>2017-04-27T07:33:23Z</datestamp>
      <setSpec>user-biosyslit</setSpec>
    </header>
    <header>
      <identifier>oai:zenodo.org:570116</identifier>
      <datestamp>2017-05-01T07:51:56Z</datestamp>
      <setSpec>user-biosyslit</setSpec>
    </header>
    <header>
      <identifier>oai:zenodo.org:569474</identifier>
      <datestamp>2017-04-27T09:01:06Z</datestamp>
      <setSpec>user-biosyslit</setSpec>
    </header>
    <header>
      <identifier>oai:zenodo.org:570124</identifier>
      <datestamp>2017-05-01T07:59:44Z</datestamp>
      <setSpec>user-biosyslit</setSpec>
    </header>
    <header>
      <identifier>oai:zenodo.org:572594</identifier>
      <datestamp>2017-05-08T10:39:04Z</datestamp>
      <setSpec>user-biosyslit</setSpec>
    </header>
    <header>
      <identifier>oai:zenodo.org:569131</identifier>
      <datestamp>2017-04-26T08:11:35Z</datestamp>
      <setSpec>user-biosyslit</setSpec>
    </header>
    <header>
      <identifier>oai:zenodo.org:571704</identifier>
      <datestamp>2017-05-05T08:35:05Z</datestamp>
      <setSpec>user-biosyslit</setSpec>
    </header>
    <header>
      <identifier>oai:zenodo.org:569731</identifier>
      <datestamp>2017-04-28T07:21:41Z</datestamp>
      <setSpec>user-biosyslit</setSpec>
    </header>
    <header>
      <identifier>oai:zenodo.org:569421</identifier>
      <datestamp>2017-04-27T07:33:01Z</datestamp>
      <setSpec>user-biosyslit</setSpec>
    </header>
    <header>
      <identifier>oai:zenodo.org:569748</identifier>
      <datestamp>2017-04-28T07:35:03Z</datestamp>
      <setSpec>user-biosyslit</setSpec>
    </header>
    <header>
      <identifier>oai:zenodo.org:569438</identifier>
      <datestamp>2017-04-27T08:15:55Z</datestamp>
      <setSpec>user-biosyslit</setSpec>
    </header>
    <header>
      <identifier>oai:zenodo.org:569473</identifier>
      <datestamp>2017-04-27T09:01:03Z</datestamp>
      <setSpec>user-biosyslit</setSpec>
    </header>
    <header>
      <identifier>oai:zenodo.org:570127</identifier>
      <datestamp>2017-05-01T07:59:34Z</datestamp>
      <setSpec>user-biosyslit</setSpec>
    </header>
    <header>
      <identifier>oai:zenodo.org:571017</identifier>
      <datestamp>2017-05-03T07:42:09Z</datestamp>
      <setSpec>user-biosyslit</setSpec>
    </header>
    <header>
      <identifier>oai:zenodo.org:570409</identifier>
      <datestamp>2017-05-02T07:19:16Z</datestamp>
      <setSpec>user-biosyslit</setSpec>
    </header>
    <header>
      <identifier>oai:zenodo.org:571029</identifier>
      <datestamp>2017-05-03T07:54:25Z</datestamp>
      <setSpec>user-biosyslit</setSpec>
    </header>
    <header>
      <identifier>oai:zenodo.org:571719</identifier>
      <datestamp>2017-05-05T08:35:40Z</datestamp>
      <setSpec>user-biosyslit</setSpec>
    </header>
    <header>
      <identifier>oai:zenodo.org:571334</identifier>
      <datestamp>2017-05-04T07:41:40Z</datestamp>
      <setSpec>user-biosyslit</setSpec>
    </header>
    <header>
      <identifier>oai:zenodo.org:571671</identifier>
      <datestamp>2017-05-05T08:12:18Z</datestamp>
      <setSpec>user-biosyslit</setSpec>
    </header>
    <header>
      <identifier>oai:zenodo.org:572567</identifier>
      <datestamp>2017-05-08T08:25:19Z</datestamp>
      <setSpec>user-biosyslit</setSpec>
    </header>
    <header>
      <identifier>oai:zenodo.org:571659</identifier>
      <datestamp>2017-05-05T08:11:50Z</datestamp>
      <setSpec>user-biosyslit</setSpec>
    </header>
    <header>
      <identifier>oai:zenodo.org:572543</identifier>
      <datestamp>2017-05-08T07:35:58Z</datestamp>
      <setSpec>user-biosyslit</setSpec>
    </header>
    <header>
      <identifier>oai:zenodo.org:572569</identifier>
      <datestamp>2017-05-08T08:25:07Z</datestamp>
      <setSpec>user-biosyslit</setSpec>
    </header>
    <header>
      <identifier>oai:zenodo.org:573115</identifier>
      <datestamp>2017-05-09T08:22:31Z</datestamp>
      <setSpec>user-biosyslit</setSpec>
    </header>
    <header>
      <identifier>oai:zenodo.org:573083</identifier>
      <datestamp>2017-05-09T07:46:22Z</datestamp>
      <setSpec>user-biosyslit</setSpec>
    </header>
    <header>
      <identifier>oai:zenodo.org:573060</identifier>
      <datestamp>2017-05-09T07:18:58Z</datestamp>
      <setSpec>user-biosyslit</setSpec>
    </header>
    <header>
      <identifier>oai:zenodo.org:573119</identifier>
      <datestamp>2017-05-09T08:25:17Z</datestamp>
      <setSpec>user-biosyslit</setSpec>
    </header>
    <header>
      <identifier>oai:zenodo.org:573133</identifier>
      <datestamp>2017-05-09T08:31:42Z</datestamp>
      <setSpec>user-biosyslit</setSpec>
    </header>
    <header>
      <identifier>oai:zenodo.org:573102</identifier>
      <datestamp>2017-05-09T08:06:54Z</datestamp>
      <setSpec>user-biosyslit</setSpec>
    </header>
    <header>
      <identifier>oai:zenodo.org:321304</identifier>
      <datestamp>2017-02-21T12:13:16Z</datestamp>
      <setSpec>user-biosyslit</setSpec>
    </header>
    <header>
      <identifier>oai:zenodo.org:321968</identifier>
      <datestamp>2017-02-24T07:19:47Z</datestamp>
      <setSpec>user-biosyslit</setSpec>
    </header>
    <header>
      <identifier>oai:zenodo.org:321722</identifier>
      <datestamp>2017-02-23T08:15:06Z</datestamp>
      <setSpec>user-biosyslit</setSpec>
    </header>
    <header>
      <identifier>oai:zenodo.org:322107</identifier>
      <datestamp>2017-02-24T07:30:40Z</datestamp>
      <setSpec>user-biosyslit</setSpec>
    </header>
    <header>
      <identifier>oai:zenodo.org:322218</identifier>
      <datestamp>2017-02-24T07:38:08Z</datestamp>
      <setSpec>user-biosyslit</setSpec>
    </header>
    <header>
      <identifier>oai:zenodo.org:322058</identifier>
      <datestamp>2017-02-24T07:27:35Z</datestamp>
      <setSpec>user-biosyslit</setSpec>
    </header>
    <header>
      <identifier>oai:zenodo.org:322053</identifier>
      <datestamp>2017-02-24T07:27:24Z</datestamp>
      <setSpec>user-biosyslit</setSpec>
    </header>
    <header>
      <identifier>oai:zenodo.org:321348</identifier>
      <datestamp>2017-02-21T14:24:03Z</datestamp>
      <setSpec>user-biosyslit</setSpec>
    </header>
    <header>
      <identifier>oai:zenodo.org:321758</identifier>
      <datestamp>2017-02-23T08:31:09Z</datestamp>
      <setSpec>user-biosyslit</setSpec>
    </header>
    <header>
      <identifier>oai:zenodo.org:322191</identifier>
      <datestamp>2017-02-24T07:37:03Z</datestamp>
      <setSpec>user-biosyslit</setSpec>
    </header>
    <header>
      <identifier>oai:zenodo.org:322033</identifier>
      <datestamp>2017-02-24T07:25:54Z</datestamp>
      <setSpec>user-biosyslit</setSpec>
    </header>
    <header>
      <identifier>oai:zenodo.org:322010</identifier>
      <datestamp>2017-02-24T07:23:42Z</datestamp>
      <setSpec>user-biosyslit</setSpec>
    </header>
    <header>
      <identifier>oai:zenodo.org:322411</identifier>
      <datestamp>2017-02-24T15:55:52Z</datestamp>
      <setSpec>user-biosyslit</setSpec>
    </header>
    <header>
      <identifier>oai:zenodo.org:574218</identifier>
      <datestamp>2017-05-11T07:23:41Z</datestamp>
      <setSpec>user-biosyslit</setSpec>
    </header>
    <header>
      <identifier>oai:zenodo.org:322711</identifier>
      <datestamp>2017-02-27T09:14:16Z</datestamp>
      <setSpec>user-biosyslit</setSpec>
    </header>
    <header>
      <identifier>oai:zenodo.org:322875</identifier>
      <datestamp>2017-02-28T23:50:58Z</datestamp>
      <setSpec>openaire</setSpec>
      <setSpec>user-biosyslit</setSpec>
    </header>
    <header>
      <identifier>oai:zenodo.org:574219</identifier>
      <datestamp>2017-05-11T07:23:43Z</datestamp>
      <setSpec>user-biosyslit</setSpec>
    </header>
    <header>
      <identifier>oai:zenodo.org:573611</identifier>
      <datestamp>2017-05-10T07:26:39Z</datestamp>
      <setSpec>user-biosyslit</setSpec>
    </header>
    <header>
      <identifier>oai:zenodo.org:573601</identifier>
      <datestamp>2017-05-10T07:26:03Z</datestamp>
      <setSpec>user-biosyslit</setSpec>
    </header>
    <header>
      <identifier>oai:zenodo.org:574368</identifier>
      <datestamp>2017-05-17T07:21:40Z</datestamp>
      <setSpec>openaire</setSpec>
      <setSpec>user-biosyslit</setSpec>
    </header>
    <header>
      <identifier>oai:zenodo.org:344001</identifier>
      <datestamp>2017-02-28T23:49:33Z</datestamp>
      <setSpec>openaire</setSpec>
      <setSpec>user-biosyslit</setSpec>
    </header>
    <header>
      <identifier>oai:zenodo.org:344004</identifier>
      <datestamp>2017-02-28T23:49:30Z</datestamp>
      <setSpec>user-biosyslit</setSpec>
    </header>
    <header>
      <identifier>oai:zenodo.org:343991</identifier>
      <datestamp>2017-02-28T23:49:52Z</datestamp>
      <setSpec>user-biosyslit</setSpec>
    </header>
    <header>
      <identifier>oai:zenodo.org:545878</identifier>
      <datestamp>2017-04-13T07:33:16Z</datestamp>
      <setSpec>user-biosyslit</setSpec>
    </header>
    <header>
      <identifier>oai:zenodo.org:343966</identifier>
      <datestamp>2017-02-28T23:50:19Z</datestamp>
      <setSpec>user-biosyslit</setSpec>
    </header>
    <header>
      <identifier>oai:zenodo.org:545733</identifier>
      <datestamp>2017-04-12T07:55:46Z</datestamp>
      <setSpec>user-biosyslit</setSpec>
    </header>
    <header>
      <identifier>oai:zenodo.org:545719</identifier>
      <datestamp>2017-04-12T07:39:02Z</datestamp>
      <setSpec>user-biosyslit</setSpec>
    </header>
    <header>
      <identifier>oai:zenodo.org:575372</identifier>
      <datestamp>2017-05-12T08:07:50Z</datestamp>
      <setSpec>user-biosyslit</setSpec>
    </header>
    <header>
      <identifier>oai:zenodo.org:344125</identifier>
      <datestamp>2017-02-28T23:47:37Z</datestamp>
      <setSpec>user-biosyslit</setSpec>
    </header>
    <header>
      <identifier>oai:zenodo.org:545705</identifier>
      <datestamp>2017-04-12T07:34:30Z</datestamp>
      <setSpec>user-biosyslit</setSpec>
    </header>
    <header>
      <identifier>oai:zenodo.org:344469</identifier>
      <datestamp>2017-02-28T23:24:39Z</datestamp>
      <setSpec>user-biosyslit</setSpec>
    </header>
    <header>
      <identifier>oai:zenodo.org:344430</identifier>
      <datestamp>2017-02-28T23:26:12Z</datestamp>
      <setSpec>openaire_data</setSpec>
      <setSpec>user-biosyslit</setSpec>
    </header>
    <header>
      <identifier>oai:zenodo.org:344260</identifier>
      <datestamp>2017-02-28T23:42:45Z</datestamp>
      <setSpec>user-biosyslit</setSpec>
    </header>
    <header>
      <identifier>oai:zenodo.org:344371</identifier>
      <datestamp>2017-02-28T23:40:36Z</datestamp>
      <setSpec>user-biosyslit</setSpec>
    </header>
    <header>
      <identifier>oai:zenodo.org:344334</identifier>
      <datestamp>2017-02-28T23:41:25Z</datestamp>
      <setSpec>openaire_data</setSpec>
      <setSpec>user-biosyslit</setSpec>
    </header>
    <header>
      <identifier>oai:zenodo.org:344453</identifier>
      <datestamp>2017-02-28T23:25:07Z</datestamp>
      <setSpec>user-biosyslit</setSpec>
    </header>
    <header>
      <identifier>oai:zenodo.org:344670</identifier>
      <datestamp>2017-03-01T08:05:40Z</datestamp>
      <setSpec>user-biosyslit</setSpec>
    </header>
    <header>
      <identifier>oai:zenodo.org:344864</identifier>
      <datestamp>2017-03-02T07:46:50Z</datestamp>
      <setSpec>user-biosyslit</setSpec>
    </header>
    <header>
      <identifier>oai:zenodo.org:345033</identifier>
      <datestamp>2017-03-02T08:51:43Z</datestamp>
      <setSpec>user-biosyslit</setSpec>
    </header>
    <header>
      <identifier>oai:zenodo.org:345192</identifier>
      <datestamp>2017-03-03T08:20:03Z</datestamp>
      <setSpec>user-biosyslit</setSpec>
    </header>
    <header>
      <identifier>oai:zenodo.org:345062</identifier>
      <datestamp>2017-03-02T09:14:04Z</datestamp>
      <setSpec>user-biosyslit</setSpec>
    </header>
    <header>
      <identifier>oai:zenodo.org:345244</identifier>
      <datestamp>2017-03-03T08:36:59Z</datestamp>
      <setSpec>user-biosyslit</setSpec>
    </header>
    <header>
      <identifier>oai:zenodo.org:545732</identifier>
      <datestamp>2017-04-12T07:55:43Z</datestamp>
      <setSpec>user-biosyslit</setSpec>
    </header>
    <header>
      <identifier>oai:zenodo.org:579274</identifier>
      <datestamp>2017-05-18T07:04:16Z</datestamp>
      <setSpec>openaire</setSpec>
      <setSpec>user-biosyslit</setSpec>
    </header>
    <header>
      <identifier>oai:zenodo.org:579282</identifier>
      <datestamp>2017-05-18T07:04:02Z</datestamp>
      <setSpec>openaire</setSpec>
      <setSpec>user-biosyslit</setSpec>
    </header>
    <header>
      <identifier>oai:zenodo.org:579426</identifier>
      <datestamp>2017-05-18T07:00:02Z</datestamp>
      <setSpec>openaire</setSpec>
      <setSpec>user-biosyslit</setSpec>
    </header>
    <header>
      <identifier>oai:zenodo.org:579222</identifier>
      <datestamp>2017-05-18T07:06:12Z</datestamp>
      <setSpec>openaire</setSpec>
      <setSpec>user-biosyslit</setSpec>
    </header>
    <header>
      <identifier>oai:zenodo.org:579460</identifier>
      <datestamp>2017-05-18T06:59:15Z</datestamp>
      <setSpec>openaire</setSpec>
      <setSpec>user-biosyslit</setSpec>
    </header>
    <header>
      <identifier>oai:zenodo.org:579856</identifier>
      <datestamp>2017-05-15T07:29:09Z</datestamp>
      <setSpec>user-biosyslit</setSpec>
    </header>
    <header>
      <identifier>oai:zenodo.org:546745</identifier>
      <datestamp>2017-04-28T10:54:03Z</datestamp>
      <setSpec>openaire</setSpec>
      <setSpec>user-biosyslit</setSpec>
    </header>
    <header>
      <identifier>oai:zenodo.org:546840</identifier>
      <datestamp>2017-04-18T08:02:30Z</datestamp>
      <setSpec>user-biosyslit</setSpec>
    </header>
    <header>
      <identifier>oai:zenodo.org:580906</identifier>
      <datestamp>2017-05-18T08:00:17Z</datestamp>
      <setSpec>user-biosyslit</setSpec>
    </header>
    <resumptionToken expirationDate="2017-08-31T15:47:03Z" cursor="58800" completeListSize="77796">.eJyNysEKgjAYAOB3-c8S_zZLE7qIJR1UdCnpJUxFqmXiCnXhu-elc33n7w2yqkqwcIGMEIMRqusrXK90iqYGsugeQpwuc4DimIiiEXHuJq_onmBKa8N35OA5KfPVDYM7UXwX0iMxh_iCY3iIn6mKhoTte45bw1Ph6F_38ytZ4Irs7LY8bmzBadkF23DkxOYZK76P_PnUz-fIDWjQ5nUF1nKNGtz6vKslWO9p-gD1ulGW.DInAfw.NilJ0TjLGPdfP_JN8HFQ9ZvXjrA</resumptionToken>
  </ListIdentifiers>
</OAI-PMH>
