<?xml version='1.0' encoding='UTF-8'?>
<?xml-stylesheet type="text/xsl" href="/static/xsl/oai2.v1.0.xsl"?>
<OAI-PMH xmlns="http://www.openarchives.org/OAI/2.0/" xmlns:xsi="http://www.w3.org/2001/XMLSchema-instance" xsi:schemaLocation="http://www.openarchives.org/OAI/2.0/ http://www.openarchives.org/OAI/2.0/OAI-PMH.xsd">
  <responseDate>2017-08-31T14:07:21Z</responseDate>
  <request verb="ListIdentifiers" resumptionToken=".eJwVj11vgjAYRv9Lr93SDyfqnUZmXPbCGBQ_bkxtEZkFGa0BavzvY9fPyXNyHshkmUJz_DqhY-9tyuhkPJsRxtgIGdnctD4Ww4zkLtWy0lys0_t3meI9zb1gZTpY7UmQcBeWxMXvEd2RaccL3EcJt3v33aVs08bY98BFLbichqVi4VofTus65tVSx1Q1oR_1MVnGByY9SBZ0-CPwU1uJLzzQszOkGwtXn3xuActU9eDbZegAwwrGQVJXyl3q7bb75fqjPXBbCXfx4Woj_u9yCw-NUC3yDM3pCF1b0eQGzR9Dtx267iZrXk7FzfRGF3Ygy8wKJaz4arJz0Q3ETRRHJdHz-QcLFmKy.DImpOg.OWa_uhmIp4APRFmqjpxo-J26AGk">https://zenodo.org/oai2d</request>
  <ListIdentifiers>
    <header>
      <identifier>oai:zenodo.org:275611</identifier>
      <datestamp>2017-02-08T16:48:02Z</datestamp>
      <setSpec>user-biosyslit</setSpec>
    </header>
    <header>
      <identifier>oai:zenodo.org:218219</identifier>
      <datestamp>2016-12-22T10:21:57Z</datestamp>
      <setSpec>user-biosyslit</setSpec>
    </header>
    <header>
      <identifier>oai:zenodo.org:227283</identifier>
      <datestamp>2017-01-01T18:56:41Z</datestamp>
      <setSpec>user-biosyslit</setSpec>
    </header>
    <header>
      <identifier>oai:zenodo.org:227266</identifier>
      <datestamp>2017-01-01T18:51:05Z</datestamp>
      <setSpec>user-biosyslit</setSpec>
    </header>
    <header>
      <identifier>oai:zenodo.org:268257</identifier>
      <datestamp>2017-02-03T04:52:52Z</datestamp>
      <setSpec>user-biosyslit</setSpec>
    </header>
    <header>
      <identifier>oai:zenodo.org:274533</identifier>
      <datestamp>2017-02-08T13:37:29Z</datestamp>
      <setSpec>user-biosyslit</setSpec>
    </header>
    <header>
      <identifier>oai:zenodo.org:274837</identifier>
      <datestamp>2017-02-08T14:33:53Z</datestamp>
      <setSpec>user-biosyslit</setSpec>
    </header>
    <header>
      <identifier>oai:zenodo.org:227647</identifier>
      <datestamp>2017-01-02T01:31:47Z</datestamp>
      <setSpec>user-biosyslit</setSpec>
    </header>
    <header>
      <identifier>oai:zenodo.org:227493</identifier>
      <datestamp>2017-01-01T22:13:44Z</datestamp>
      <setSpec>user-biosyslit</setSpec>
    </header>
    <header>
      <identifier>oai:zenodo.org:268280</identifier>
      <datestamp>2017-02-03T05:37:09Z</datestamp>
      <setSpec>user-biosyslit</setSpec>
    </header>
    <header>
      <identifier>oai:zenodo.org:229252</identifier>
      <datestamp>2017-01-03T13:13:50Z</datestamp>
      <setSpec>user-biosyslit</setSpec>
    </header>
    <header>
      <identifier>oai:zenodo.org:269245</identifier>
      <datestamp>2017-02-06T23:40:53Z</datestamp>
      <setSpec>user-biosyslit</setSpec>
    </header>
    <header>
      <identifier>oai:zenodo.org:269550</identifier>
      <datestamp>2017-02-07T00:57:27Z</datestamp>
      <setSpec>user-biosyslit</setSpec>
    </header>
    <header>
      <identifier>oai:zenodo.org:231173</identifier>
      <datestamp>2017-01-05T16:58:28Z</datestamp>
      <setSpec>user-biosyslit</setSpec>
    </header>
    <header>
      <identifier>oai:zenodo.org:268160</identifier>
      <datestamp>2017-02-03T02:55:57Z</datestamp>
      <setSpec>user-biosyslit</setSpec>
    </header>
    <header>
      <identifier>oai:zenodo.org:228769</identifier>
      <datestamp>2017-01-03T04:37:59Z</datestamp>
      <setSpec>user-biosyslit</setSpec>
    </header>
    <header>
      <identifier>oai:zenodo.org:227817</identifier>
      <datestamp>2017-01-02T05:31:05Z</datestamp>
      <setSpec>user-biosyslit</setSpec>
    </header>
    <header>
      <identifier>oai:zenodo.org:269386</identifier>
      <datestamp>2017-02-07T00:07:24Z</datestamp>
      <setSpec>user-biosyslit</setSpec>
    </header>
    <header>
      <identifier>oai:zenodo.org:229048</identifier>
      <datestamp>2017-01-03T08:47:21Z</datestamp>
      <setSpec>user-biosyslit</setSpec>
    </header>
    <header>
      <identifier>oai:zenodo.org:229675</identifier>
      <datestamp>2017-01-03T20:25:33Z</datestamp>
      <setSpec>user-biosyslit</setSpec>
    </header>
    <header>
      <identifier>oai:zenodo.org:269137</identifier>
      <datestamp>2017-02-06T22:53:34Z</datestamp>
      <setSpec>user-biosyslit</setSpec>
    </header>
    <header>
      <identifier>oai:zenodo.org:229726</identifier>
      <datestamp>2017-01-03T21:08:48Z</datestamp>
      <setSpec>user-biosyslit</setSpec>
    </header>
    <header>
      <identifier>oai:zenodo.org:268363</identifier>
      <datestamp>2017-02-03T12:17:54Z</datestamp>
      <setSpec>user-biosyslit</setSpec>
    </header>
    <header>
      <identifier>oai:zenodo.org:268328</identifier>
      <datestamp>2017-02-03T11:18:26Z</datestamp>
      <setSpec>user-biosyslit</setSpec>
    </header>
    <header>
      <identifier>oai:zenodo.org:228701</identifier>
      <datestamp>2017-01-03T03:38:11Z</datestamp>
      <setSpec>user-biosyslit</setSpec>
    </header>
    <header>
      <identifier>oai:zenodo.org:274729</identifier>
      <datestamp>2017-02-08T14:08:01Z</datestamp>
      <setSpec>user-biosyslit</setSpec>
    </header>
    <header>
      <identifier>oai:zenodo.org:274725</identifier>
      <datestamp>2017-02-08T14:08:12Z</datestamp>
      <setSpec>user-biosyslit</setSpec>
    </header>
    <header>
      <identifier>oai:zenodo.org:229310</identifier>
      <datestamp>2017-01-03T14:02:08Z</datestamp>
      <setSpec>user-biosyslit</setSpec>
    </header>
    <header>
      <identifier>oai:zenodo.org:230496</identifier>
      <datestamp>2017-01-05T02:08:34Z</datestamp>
      <setSpec>user-biosyslit</setSpec>
    </header>
    <header>
      <identifier>oai:zenodo.org:229973</identifier>
      <datestamp>2017-01-04T16:39:01Z</datestamp>
      <setSpec>user-biosyslit</setSpec>
    </header>
    <header>
      <identifier>oai:zenodo.org:229423</identifier>
      <datestamp>2017-01-03T15:35:47Z</datestamp>
      <setSpec>user-biosyslit</setSpec>
    </header>
    <header>
      <identifier>oai:zenodo.org:230100</identifier>
      <datestamp>2017-01-04T19:24:08Z</datestamp>
      <setSpec>user-biosyslit</setSpec>
    </header>
    <header>
      <identifier>oai:zenodo.org:230344</identifier>
      <datestamp>2017-01-04T23:03:34Z</datestamp>
      <setSpec>user-biosyslit</setSpec>
    </header>
    <header>
      <identifier>oai:zenodo.org:274699</identifier>
      <datestamp>2017-02-08T14:02:51Z</datestamp>
      <setSpec>user-biosyslit</setSpec>
    </header>
    <header>
      <identifier>oai:zenodo.org:229924</identifier>
      <datestamp>2017-01-04T16:02:08Z</datestamp>
      <setSpec>user-biosyslit</setSpec>
    </header>
    <header>
      <identifier>oai:zenodo.org:210172</identifier>
      <datestamp>2016-12-19T19:13:27Z</datestamp>
      <setSpec>user-biosyslit</setSpec>
    </header>
    <header>
      <identifier>oai:zenodo.org:209529</identifier>
      <datestamp>2016-12-19T15:22:32Z</datestamp>
      <setSpec>user-biosyslit</setSpec>
    </header>
    <header>
      <identifier>oai:zenodo.org:274159</identifier>
      <datestamp>2017-02-08T12:17:03Z</datestamp>
      <setSpec>user-biosyslit</setSpec>
    </header>
    <header>
      <identifier>oai:zenodo.org:263611</identifier>
      <datestamp>2017-01-30T01:23:34Z</datestamp>
      <setSpec>user-biosyslit</setSpec>
    </header>
    <header>
      <identifier>oai:zenodo.org:263869</identifier>
      <datestamp>2017-01-30T09:23:54Z</datestamp>
      <setSpec>user-biosyslit</setSpec>
    </header>
    <header>
      <identifier>oai:zenodo.org:211423</identifier>
      <datestamp>2016-12-20T04:47:05Z</datestamp>
      <setSpec>user-biosyslit</setSpec>
    </header>
    <header>
      <identifier>oai:zenodo.org:264132</identifier>
      <datestamp>2017-01-30T13:29:01Z</datestamp>
      <setSpec>user-biosyslit</setSpec>
    </header>
    <header>
      <identifier>oai:zenodo.org:209826</identifier>
      <datestamp>2016-12-19T17:25:34Z</datestamp>
      <setSpec>user-biosyslit</setSpec>
    </header>
    <header>
      <identifier>oai:zenodo.org:224433</identifier>
      <datestamp>2016-12-29T23:24:12Z</datestamp>
      <setSpec>user-biosyslit</setSpec>
    </header>
    <header>
      <identifier>oai:zenodo.org:210884</identifier>
      <datestamp>2016-12-20T00:22:51Z</datestamp>
      <setSpec>user-biosyslit</setSpec>
    </header>
    <header>
      <identifier>oai:zenodo.org:274113</identifier>
      <datestamp>2017-02-08T12:11:56Z</datestamp>
      <setSpec>user-biosyslit</setSpec>
    </header>
    <header>
      <identifier>oai:zenodo.org:264611</identifier>
      <datestamp>2017-01-31T00:09:12Z</datestamp>
      <setSpec>user-biosyslit</setSpec>
    </header>
    <header>
      <identifier>oai:zenodo.org:264502</identifier>
      <datestamp>2017-01-30T22:54:36Z</datestamp>
      <setSpec>user-biosyslit</setSpec>
    </header>
    <header>
      <identifier>oai:zenodo.org:274406</identifier>
      <datestamp>2017-02-08T13:06:57Z</datestamp>
      <setSpec>user-biosyslit</setSpec>
    </header>
    <header>
      <identifier>oai:zenodo.org:264744</identifier>
      <datestamp>2017-01-31T02:03:33Z</datestamp>
      <setSpec>user-biosyslit</setSpec>
    </header>
    <header>
      <identifier>oai:zenodo.org:264491</identifier>
      <datestamp>2017-01-30T22:41:00Z</datestamp>
      <setSpec>user-biosyslit</setSpec>
    </header>
    <header>
      <identifier>oai:zenodo.org:264348</identifier>
      <datestamp>2017-01-30T19:32:26Z</datestamp>
      <setSpec>user-biosyslit</setSpec>
    </header>
    <header>
      <identifier>oai:zenodo.org:211381</identifier>
      <datestamp>2016-12-20T04:34:43Z</datestamp>
      <setSpec>user-biosyslit</setSpec>
    </header>
    <header>
      <identifier>oai:zenodo.org:211215</identifier>
      <datestamp>2016-12-20T03:13:00Z</datestamp>
      <setSpec>user-biosyslit</setSpec>
    </header>
    <header>
      <identifier>oai:zenodo.org:211631</identifier>
      <datestamp>2016-12-20T06:49:48Z</datestamp>
      <setSpec>user-biosyslit</setSpec>
    </header>
    <header>
      <identifier>oai:zenodo.org:264814</identifier>
      <datestamp>2017-01-31T03:02:19Z</datestamp>
      <setSpec>user-biosyslit</setSpec>
    </header>
    <header>
      <identifier>oai:zenodo.org:266168</identifier>
      <datestamp>2017-02-01T01:36:03Z</datestamp>
      <setSpec>user-biosyslit</setSpec>
    </header>
    <header>
      <identifier>oai:zenodo.org:265052</identifier>
      <datestamp>2017-01-31T07:07:11Z</datestamp>
      <setSpec>user-biosyslit</setSpec>
    </header>
    <header>
      <identifier>oai:zenodo.org:264606</identifier>
      <datestamp>2017-01-31T00:08:46Z</datestamp>
      <setSpec>user-biosyslit</setSpec>
    </header>
    <header>
      <identifier>oai:zenodo.org:265425</identifier>
      <datestamp>2017-01-31T13:49:10Z</datestamp>
      <setSpec>user-biosyslit</setSpec>
    </header>
    <header>
      <identifier>oai:zenodo.org:265801</identifier>
      <datestamp>2017-01-31T21:21:35Z</datestamp>
      <setSpec>user-biosyslit</setSpec>
    </header>
    <header>
      <identifier>oai:zenodo.org:265617</identifier>
      <datestamp>2017-01-31T17:43:58Z</datestamp>
      <setSpec>user-biosyslit</setSpec>
    </header>
    <header>
      <identifier>oai:zenodo.org:265777</identifier>
      <datestamp>2017-01-31T20:51:22Z</datestamp>
      <setSpec>user-biosyslit</setSpec>
    </header>
    <header>
      <identifier>oai:zenodo.org:266522</identifier>
      <datestamp>2017-02-01T11:25:12Z</datestamp>
      <setSpec>user-biosyslit</setSpec>
    </header>
    <header>
      <identifier>oai:zenodo.org:265405</identifier>
      <datestamp>2017-01-31T13:36:09Z</datestamp>
      <setSpec>user-biosyslit</setSpec>
    </header>
    <header>
      <identifier>oai:zenodo.org:213799</identifier>
      <datestamp>2016-12-20T22:17:02Z</datestamp>
      <setSpec>user-biosyslit</setSpec>
    </header>
    <header>
      <identifier>oai:zenodo.org:265624</identifier>
      <datestamp>2017-01-31T17:52:24Z</datestamp>
      <setSpec>user-biosyslit</setSpec>
    </header>
    <header>
      <identifier>oai:zenodo.org:213807</identifier>
      <datestamp>2016-12-20T22:17:27Z</datestamp>
      <setSpec>user-biosyslit</setSpec>
    </header>
    <header>
      <identifier>oai:zenodo.org:265648</identifier>
      <datestamp>2017-01-31T18:20:45Z</datestamp>
      <setSpec>user-biosyslit</setSpec>
    </header>
    <header>
      <identifier>oai:zenodo.org:265494</identifier>
      <datestamp>2017-01-31T14:44:58Z</datestamp>
      <setSpec>user-biosyslit</setSpec>
    </header>
    <header>
      <identifier>oai:zenodo.org:212750</identifier>
      <datestamp>2016-12-20T15:28:48Z</datestamp>
      <setSpec>user-biosyslit</setSpec>
    </header>
    <header>
      <identifier>oai:zenodo.org:265467</identifier>
      <datestamp>2017-01-31T14:24:10Z</datestamp>
      <setSpec>user-biosyslit</setSpec>
    </header>
    <header>
      <identifier>oai:zenodo.org:213823</identifier>
      <datestamp>2016-12-20T22:24:31Z</datestamp>
      <setSpec>user-biosyslit</setSpec>
    </header>
    <header>
      <identifier>oai:zenodo.org:266299</identifier>
      <datestamp>2017-02-01T05:53:13Z</datestamp>
      <setSpec>user-biosyslit</setSpec>
    </header>
    <header>
      <identifier>oai:zenodo.org:266384</identifier>
      <datestamp>2017-02-01T07:23:24Z</datestamp>
      <setSpec>user-biosyslit</setSpec>
    </header>
    <header>
      <identifier>oai:zenodo.org:224972</identifier>
      <datestamp>2016-12-30T08:12:29Z</datestamp>
      <setSpec>user-biosyslit</setSpec>
    </header>
    <header>
      <identifier>oai:zenodo.org:266383</identifier>
      <datestamp>2017-02-01T07:23:21Z</datestamp>
      <setSpec>user-biosyslit</setSpec>
    </header>
    <header>
      <identifier>oai:zenodo.org:267167</identifier>
      <datestamp>2017-02-01T20:25:14Z</datestamp>
      <setSpec>user-biosyslit</setSpec>
    </header>
    <header>
      <identifier>oai:zenodo.org:225080</identifier>
      <datestamp>2016-12-30T08:58:00Z</datestamp>
      <setSpec>user-biosyslit</setSpec>
    </header>
    <header>
      <identifier>oai:zenodo.org:214007</identifier>
      <datestamp>2016-12-21T00:01:21Z</datestamp>
      <setSpec>user-biosyslit</setSpec>
    </header>
    <header>
      <identifier>oai:zenodo.org:265823</identifier>
      <datestamp>2017-01-31T21:48:28Z</datestamp>
      <setSpec>user-biosyslit</setSpec>
    </header>
    <header>
      <identifier>oai:zenodo.org:266298</identifier>
      <datestamp>2017-02-01T05:53:09Z</datestamp>
      <setSpec>user-biosyslit</setSpec>
    </header>
    <header>
      <identifier>oai:zenodo.org:224997</identifier>
      <datestamp>2016-12-30T08:27:31Z</datestamp>
      <setSpec>user-biosyslit</setSpec>
    </header>
    <header>
      <identifier>oai:zenodo.org:225905</identifier>
      <datestamp>2016-12-31T12:42:18Z</datestamp>
      <setSpec>user-biosyslit</setSpec>
    </header>
    <header>
      <identifier>oai:zenodo.org:266315</identifier>
      <datestamp>2017-02-01T06:07:24Z</datestamp>
      <setSpec>user-biosyslit</setSpec>
    </header>
    <header>
      <identifier>oai:zenodo.org:225829</identifier>
      <datestamp>2016-12-31T10:18:48Z</datestamp>
      <setSpec>user-biosyslit</setSpec>
    </header>
    <header>
      <identifier>oai:zenodo.org:225942</identifier>
      <datestamp>2016-12-31T13:33:46Z</datestamp>
      <setSpec>user-biosyslit</setSpec>
    </header>
    <header>
      <identifier>oai:zenodo.org:267251</identifier>
      <datestamp>2017-02-01T23:23:50Z</datestamp>
      <setSpec>user-biosyslit</setSpec>
    </header>
    <header>
      <identifier>oai:zenodo.org:214516</identifier>
      <datestamp>2016-12-21T03:46:08Z</datestamp>
      <setSpec>user-biosyslit</setSpec>
    </header>
    <header>
      <identifier>oai:zenodo.org:267161</identifier>
      <datestamp>2017-02-01T20:24:55Z</datestamp>
      <setSpec>user-biosyslit</setSpec>
    </header>
    <header>
      <identifier>oai:zenodo.org:266814</identifier>
      <datestamp>2017-02-07T08:19:45Z</datestamp>
      <setSpec>openaire</setSpec>
      <setSpec>user-biosyslit</setSpec>
    </header>
    <header>
      <identifier>oai:zenodo.org:215554</identifier>
      <datestamp>2016-12-21T12:32:09Z</datestamp>
      <setSpec>user-biosyslit</setSpec>
    </header>
    <header>
      <identifier>oai:zenodo.org:214557</identifier>
      <datestamp>2016-12-21T03:58:04Z</datestamp>
      <setSpec>user-biosyslit</setSpec>
    </header>
    <header>
      <identifier>oai:zenodo.org:266832</identifier>
      <datestamp>2017-02-01T15:54:45Z</datestamp>
      <setSpec>user-biosyslit</setSpec>
    </header>
    <header>
      <identifier>oai:zenodo.org:267046</identifier>
      <datestamp>2017-02-01T18:38:25Z</datestamp>
      <setSpec>user-biosyslit</setSpec>
    </header>
    <header>
      <identifier>oai:zenodo.org:215885</identifier>
      <datestamp>2016-12-21T15:09:26Z</datestamp>
      <setSpec>user-biosyslit</setSpec>
    </header>
    <header>
      <identifier>oai:zenodo.org:266883</identifier>
      <datestamp>2017-02-01T15:57:09Z</datestamp>
      <setSpec>user-biosyslit</setSpec>
    </header>
    <header>
      <identifier>oai:zenodo.org:266584</identifier>
      <datestamp>2017-02-01T12:04:39Z</datestamp>
      <setSpec>user-biosyslit</setSpec>
    </header>
    <header>
      <identifier>oai:zenodo.org:216317</identifier>
      <datestamp>2016-12-21T19:06:36Z</datestamp>
      <setSpec>user-biosyslit</setSpec>
    </header>
    <header>
      <identifier>oai:zenodo.org:274318</identifier>
      <datestamp>2017-02-08T12:51:09Z</datestamp>
      <setSpec>user-biosyslit</setSpec>
    </header>
    <resumptionToken expirationDate="2017-08-31T14:09:22Z" cursor="100" completeListSize="142507">.eJwVjd1OgzAYQN-l18S0MPm7GwHJjB-ElZbBjUFAmBREqAG67N2ddyc5yTk3tDRNjVz8ZNq2ZZvP2HHMB1gHDS3V_C3E-_WhUXXhohoFK0P-ex44zvXWivxlAz8nUcpUPBBFXxL9QuyNXfGepEzm6rxx47RSHFigkhVUq8dDbcShKD7CibLRE1Sv5zhIdko8WhiVBelRf_QIfE2ywh2LhPMJ_CShD8hbBrji9Q6B9GIFGHw4ROk01qqbsmz7YeJ1LZgcS9UF0MuE_b_U0UIamsq2Qa6hoX4t53ZB7u1-_wM98lH6.DImpmg.O6q2gINt007njwtxd0r0RQSh6zY</resumptionToken>
  </ListIdentifiers>
</OAI-PMH>
