<?xml version='1.0' encoding='UTF-8'?>
<?xml-stylesheet type="text/xsl" href="/static/xsl/oai2.v1.0.xsl"?>
<OAI-PMH xmlns="http://www.openarchives.org/OAI/2.0/" xmlns:xsi="http://www.w3.org/2001/XMLSchema-instance" xsi:schemaLocation="http://www.openarchives.org/OAI/2.0/ http://www.openarchives.org/OAI/2.0/OAI-PMH.xsd">
  <responseDate>2017-08-31T15:43:06Z</responseDate>
  <request verb="ListIdentifiers" resumptionToken=".eJyNyrEKgkAYAOB3-WeJ8z9RE1pCE4cUvRR1CVMR6zTxivSkd8-luebvW0DUdQUW2aBGTYOgjludoqnpqIAoxzvn53Z1KNOElz2PCzd5Rl1CMmwM3xbT0c6oL28k6FTJDiGmqjnFLZnDU_zIZDQl1Hsx4hhHGc7-1VtfRQOX5xd3YHG_5wyrMXDCmal7ltPy-9Q_n_z5bLEDBYaiqcGiSBS4vYqxEWAt7_cH0GpRag.DInACg.nLIti0Um2seobf-CLswGEQpcV8I">https://zenodo.org/oai2d</request>
  <ListIdentifiers>
    <header>
      <identifier>oai:zenodo.org:271573</identifier>
      <datestamp>2017-02-08T01:58:35Z</datestamp>
      <setSpec>user-biosyslit</setSpec>
    </header>
    <header>
      <identifier>oai:zenodo.org:275950</identifier>
      <datestamp>2017-02-08T17:40:02Z</datestamp>
      <setSpec>user-biosyslit</setSpec>
    </header>
    <header>
      <identifier>oai:zenodo.org:275954</identifier>
      <datestamp>2017-02-08T17:40:15Z</datestamp>
      <setSpec>user-biosyslit</setSpec>
    </header>
    <header>
      <identifier>oai:zenodo.org:275955</identifier>
      <datestamp>2017-02-08T17:40:18Z</datestamp>
      <setSpec>user-biosyslit</setSpec>
    </header>
    <header>
      <identifier>oai:zenodo.org:818305</identifier>
      <datestamp>2017-06-26T10:33:54Z</datestamp>
      <setSpec>user-biosyslit</setSpec>
    </header>
    <header>
      <identifier>oai:zenodo.org:275951</identifier>
      <datestamp>2017-02-08T17:40:05Z</datestamp>
      <setSpec>user-biosyslit</setSpec>
    </header>
    <header>
      <identifier>oai:zenodo.org:275953</identifier>
      <datestamp>2017-02-08T17:40:11Z</datestamp>
      <setSpec>user-biosyslit</setSpec>
    </header>
    <header>
      <identifier>oai:zenodo.org:235480</identifier>
      <datestamp>2017-01-09T10:34:05Z</datestamp>
      <setSpec>user-biosyslit</setSpec>
    </header>
    <header>
      <identifier>oai:zenodo.org:275957</identifier>
      <datestamp>2017-02-08T17:40:24Z</datestamp>
      <setSpec>user-biosyslit</setSpec>
    </header>
    <header>
      <identifier>oai:zenodo.org:235484</identifier>
      <datestamp>2017-01-09T10:34:19Z</datestamp>
      <setSpec>user-biosyslit</setSpec>
    </header>
    <header>
      <identifier>oai:zenodo.org:818323</identifier>
      <datestamp>2017-06-26T10:35:14Z</datestamp>
      <setSpec>user-biosyslit</setSpec>
    </header>
    <header>
      <identifier>oai:zenodo.org:818317</identifier>
      <datestamp>2017-06-26T10:34:18Z</datestamp>
      <setSpec>user-biosyslit</setSpec>
    </header>
    <header>
      <identifier>oai:zenodo.org:818331</identifier>
      <datestamp>2017-06-26T10:34:56Z</datestamp>
      <setSpec>user-biosyslit</setSpec>
    </header>
    <header>
      <identifier>oai:zenodo.org:818333</identifier>
      <datestamp>2017-06-26T10:35:01Z</datestamp>
      <setSpec>user-biosyslit</setSpec>
    </header>
    <header>
      <identifier>oai:zenodo.org:818329</identifier>
      <datestamp>2017-06-26T10:34:52Z</datestamp>
      <setSpec>user-biosyslit</setSpec>
    </header>
    <header>
      <identifier>oai:zenodo.org:818319</identifier>
      <datestamp>2017-06-26T10:34:22Z</datestamp>
      <setSpec>user-biosyslit</setSpec>
    </header>
    <header>
      <identifier>oai:zenodo.org:818313</identifier>
      <datestamp>2017-06-26T10:34:15Z</datestamp>
      <setSpec>user-biosyslit</setSpec>
    </header>
    <header>
      <identifier>oai:zenodo.org:818309</identifier>
      <datestamp>2017-06-26T10:34:07Z</datestamp>
      <setSpec>user-biosyslit</setSpec>
    </header>
    <header>
      <identifier>oai:zenodo.org:818325</identifier>
      <datestamp>2017-06-26T10:34:40Z</datestamp>
      <setSpec>user-biosyslit</setSpec>
    </header>
    <header>
      <identifier>oai:zenodo.org:818640</identifier>
      <datestamp>2017-06-26T12:17:41Z</datestamp>
      <setSpec>user-biosyslit</setSpec>
    </header>
    <header>
      <identifier>oai:zenodo.org:818644</identifier>
      <datestamp>2017-06-26T12:17:49Z</datestamp>
      <setSpec>user-biosyslit</setSpec>
    </header>
    <header>
      <identifier>oai:zenodo.org:818626</identifier>
      <datestamp>2017-06-26T11:56:33Z</datestamp>
      <setSpec>user-biosyslit</setSpec>
    </header>
    <header>
      <identifier>oai:zenodo.org:584086</identifier>
      <datestamp>2017-05-29T14:52:30Z</datestamp>
      <setSpec>user-biosyslit</setSpec>
    </header>
    <header>
      <identifier>oai:zenodo.org:273235</identifier>
      <datestamp>2017-02-08T08:41:14Z</datestamp>
      <setSpec>user-biosyslit</setSpec>
    </header>
    <header>
      <identifier>oai:zenodo.org:242939</identifier>
      <datestamp>2017-01-13T20:50:52Z</datestamp>
      <setSpec>user-biosyslit</setSpec>
    </header>
    <header>
      <identifier>oai:zenodo.org:242943</identifier>
      <datestamp>2017-01-13T20:51:08Z</datestamp>
      <setSpec>user-biosyslit</setSpec>
    </header>
    <header>
      <identifier>oai:zenodo.org:242938</identifier>
      <datestamp>2017-01-13T20:50:48Z</datestamp>
      <setSpec>user-biosyslit</setSpec>
    </header>
    <header>
      <identifier>oai:zenodo.org:242935</identifier>
      <datestamp>2017-01-13T20:50:33Z</datestamp>
      <setSpec>user-biosyslit</setSpec>
    </header>
    <header>
      <identifier>oai:zenodo.org:241799</identifier>
      <datestamp>2017-01-13T06:14:37Z</datestamp>
      <setSpec>user-biosyslit</setSpec>
    </header>
    <header>
      <identifier>oai:zenodo.org:241813</identifier>
      <datestamp>2017-01-13T06:14:36Z</datestamp>
      <setSpec>user-biosyslit</setSpec>
    </header>
    <header>
      <identifier>oai:zenodo.org:241810</identifier>
      <datestamp>2017-01-13T06:14:27Z</datestamp>
      <setSpec>user-biosyslit</setSpec>
    </header>
    <header>
      <identifier>oai:zenodo.org:236505</identifier>
      <datestamp>2017-01-10T00:58:47Z</datestamp>
      <setSpec>user-biosyslit</setSpec>
    </header>
    <header>
      <identifier>oai:zenodo.org:232117</identifier>
      <datestamp>2017-01-06T11:16:27Z</datestamp>
      <setSpec>user-biosyslit</setSpec>
    </header>
    <header>
      <identifier>oai:zenodo.org:262185</identifier>
      <datestamp>2017-01-28T22:37:04Z</datestamp>
      <setSpec>user-biosyslit</setSpec>
    </header>
    <header>
      <identifier>oai:zenodo.org:236507</identifier>
      <datestamp>2017-01-10T00:58:35Z</datestamp>
      <setSpec>user-biosyslit</setSpec>
    </header>
    <header>
      <identifier>oai:zenodo.org:227991</identifier>
      <datestamp>2017-01-02T08:11:29Z</datestamp>
      <setSpec>user-biosyslit</setSpec>
    </header>
    <header>
      <identifier>oai:zenodo.org:227992</identifier>
      <datestamp>2017-01-02T08:11:33Z</datestamp>
      <setSpec>user-biosyslit</setSpec>
    </header>
    <header>
      <identifier>oai:zenodo.org:227990</identifier>
      <datestamp>2017-01-02T08:11:38Z</datestamp>
      <setSpec>user-biosyslit</setSpec>
    </header>
    <header>
      <identifier>oai:zenodo.org:227131</identifier>
      <datestamp>2017-01-01T17:21:41Z</datestamp>
      <setSpec>user-biosyslit</setSpec>
    </header>
    <header>
      <identifier>oai:zenodo.org:237530</identifier>
      <datestamp>2017-01-10T16:36:00Z</datestamp>
      <setSpec>user-biosyslit</setSpec>
    </header>
    <header>
      <identifier>oai:zenodo.org:280713</identifier>
      <datestamp>2017-02-09T03:56:09Z</datestamp>
      <setSpec>user-biosyslit</setSpec>
    </header>
    <header>
      <identifier>oai:zenodo.org:227132</identifier>
      <datestamp>2017-01-01T17:21:45Z</datestamp>
      <setSpec>user-biosyslit</setSpec>
    </header>
    <header>
      <identifier>oai:zenodo.org:244886</identifier>
      <datestamp>2017-01-15T04:39:15Z</datestamp>
      <setSpec>user-biosyslit</setSpec>
    </header>
    <header>
      <identifier>oai:zenodo.org:244888</identifier>
      <datestamp>2017-01-15T04:39:20Z</datestamp>
      <setSpec>user-biosyslit</setSpec>
    </header>
    <header>
      <identifier>oai:zenodo.org:280009</identifier>
      <datestamp>2017-02-09T02:29:41Z</datestamp>
      <setSpec>user-biosyslit</setSpec>
    </header>
    <header>
      <identifier>oai:zenodo.org:280010</identifier>
      <datestamp>2017-02-09T02:29:36Z</datestamp>
      <setSpec>user-biosyslit</setSpec>
    </header>
    <header>
      <identifier>oai:zenodo.org:280011</identifier>
      <datestamp>2017-02-09T02:29:40Z</datestamp>
      <setSpec>user-biosyslit</setSpec>
    </header>
    <header>
      <identifier>oai:zenodo.org:229068</identifier>
      <datestamp>2017-01-03T09:08:54Z</datestamp>
      <setSpec>user-biosyslit</setSpec>
    </header>
    <header>
      <identifier>oai:zenodo.org:229071</identifier>
      <datestamp>2017-01-03T09:08:50Z</datestamp>
      <setSpec>user-biosyslit</setSpec>
    </header>
    <header>
      <identifier>oai:zenodo.org:229070</identifier>
      <datestamp>2017-01-03T09:08:47Z</datestamp>
      <setSpec>user-biosyslit</setSpec>
    </header>
    <header>
      <identifier>oai:zenodo.org:229069</identifier>
      <datestamp>2017-01-03T09:08:42Z</datestamp>
      <setSpec>user-biosyslit</setSpec>
    </header>
    <header>
      <identifier>oai:zenodo.org:273230</identifier>
      <datestamp>2017-02-08T08:40:21Z</datestamp>
      <setSpec>user-biosyslit</setSpec>
    </header>
    <header>
      <identifier>oai:zenodo.org:273228</identifier>
      <datestamp>2017-02-08T08:40:16Z</datestamp>
      <setSpec>user-biosyslit</setSpec>
    </header>
    <header>
      <identifier>oai:zenodo.org:277848</identifier>
      <datestamp>2017-02-08T21:56:34Z</datestamp>
      <setSpec>user-biosyslit</setSpec>
    </header>
    <header>
      <identifier>oai:zenodo.org:277853</identifier>
      <datestamp>2017-02-08T21:56:27Z</datestamp>
      <setSpec>user-biosyslit</setSpec>
    </header>
    <header>
      <identifier>oai:zenodo.org:243548</identifier>
      <datestamp>2017-01-14T07:20:11Z</datestamp>
      <setSpec>user-biosyslit</setSpec>
    </header>
    <header>
      <identifier>oai:zenodo.org:227482</identifier>
      <datestamp>2017-01-01T21:58:34Z</datestamp>
      <setSpec>user-biosyslit</setSpec>
    </header>
    <header>
      <identifier>oai:zenodo.org:243550</identifier>
      <datestamp>2017-01-14T07:20:07Z</datestamp>
      <setSpec>user-biosyslit</setSpec>
    </header>
    <header>
      <identifier>oai:zenodo.org:243551</identifier>
      <datestamp>2017-01-14T07:20:09Z</datestamp>
      <setSpec>user-biosyslit</setSpec>
    </header>
    <header>
      <identifier>oai:zenodo.org:243549</identifier>
      <datestamp>2017-01-14T07:20:03Z</datestamp>
      <setSpec>user-biosyslit</setSpec>
    </header>
    <header>
      <identifier>oai:zenodo.org:274898</identifier>
      <datestamp>2017-02-08T14:44:41Z</datestamp>
      <setSpec>user-biosyslit</setSpec>
    </header>
    <header>
      <identifier>oai:zenodo.org:243230</identifier>
      <datestamp>2017-01-14T00:58:16Z</datestamp>
      <setSpec>user-biosyslit</setSpec>
    </header>
    <header>
      <identifier>oai:zenodo.org:243231</identifier>
      <datestamp>2017-01-14T00:58:11Z</datestamp>
      <setSpec>user-biosyslit</setSpec>
    </header>
    <header>
      <identifier>oai:zenodo.org:245558</identifier>
      <datestamp>2017-01-15T15:27:19Z</datestamp>
      <setSpec>user-biosyslit</setSpec>
    </header>
    <header>
      <identifier>oai:zenodo.org:245559</identifier>
      <datestamp>2017-01-15T15:26:47Z</datestamp>
      <setSpec>user-biosyslit</setSpec>
    </header>
    <header>
      <identifier>oai:zenodo.org:245566</identifier>
      <datestamp>2017-01-15T15:27:14Z</datestamp>
      <setSpec>user-biosyslit</setSpec>
    </header>
    <header>
      <identifier>oai:zenodo.org:245564</identifier>
      <datestamp>2017-01-15T15:27:08Z</datestamp>
      <setSpec>user-biosyslit</setSpec>
    </header>
    <header>
      <identifier>oai:zenodo.org:245567</identifier>
      <datestamp>2017-01-15T15:27:17Z</datestamp>
      <setSpec>user-biosyslit</setSpec>
    </header>
    <header>
      <identifier>oai:zenodo.org:262010</identifier>
      <datestamp>2017-01-28T19:21:58Z</datestamp>
      <setSpec>user-biosyslit</setSpec>
    </header>
    <header>
      <identifier>oai:zenodo.org:262008</identifier>
      <datestamp>2017-01-28T19:21:53Z</datestamp>
      <setSpec>user-biosyslit</setSpec>
    </header>
    <header>
      <identifier>oai:zenodo.org:227321</identifier>
      <datestamp>2017-01-01T19:31:08Z</datestamp>
      <setSpec>user-biosyslit</setSpec>
    </header>
    <header>
      <identifier>oai:zenodo.org:279590</identifier>
      <datestamp>2017-02-09T01:41:53Z</datestamp>
      <setSpec>user-biosyslit</setSpec>
    </header>
    <header>
      <identifier>oai:zenodo.org:279593</identifier>
      <datestamp>2017-02-09T01:41:24Z</datestamp>
      <setSpec>user-biosyslit</setSpec>
    </header>
    <header>
      <identifier>oai:zenodo.org:279603</identifier>
      <datestamp>2017-02-09T01:41:52Z</datestamp>
      <setSpec>user-biosyslit</setSpec>
    </header>
    <header>
      <identifier>oai:zenodo.org:279598</identifier>
      <datestamp>2017-02-09T01:41:39Z</datestamp>
      <setSpec>user-biosyslit</setSpec>
    </header>
    <header>
      <identifier>oai:zenodo.org:279599</identifier>
      <datestamp>2017-02-09T01:41:42Z</datestamp>
      <setSpec>user-biosyslit</setSpec>
    </header>
    <header>
      <identifier>oai:zenodo.org:279600</identifier>
      <datestamp>2017-02-09T01:41:44Z</datestamp>
      <setSpec>user-biosyslit</setSpec>
    </header>
    <header>
      <identifier>oai:zenodo.org:280185</identifier>
      <datestamp>2017-02-09T02:55:33Z</datestamp>
      <setSpec>user-biosyslit</setSpec>
    </header>
    <header>
      <identifier>oai:zenodo.org:280184</identifier>
      <datestamp>2017-02-09T02:55:30Z</datestamp>
      <setSpec>user-biosyslit</setSpec>
    </header>
    <header>
      <identifier>oai:zenodo.org:280189</identifier>
      <datestamp>2017-02-09T02:55:44Z</datestamp>
      <setSpec>user-biosyslit</setSpec>
    </header>
    <header>
      <identifier>oai:zenodo.org:280187</identifier>
      <datestamp>2017-02-09T02:55:38Z</datestamp>
      <setSpec>user-biosyslit</setSpec>
    </header>
    <header>
      <identifier>oai:zenodo.org:280194</identifier>
      <datestamp>2017-02-09T02:56:01Z</datestamp>
      <setSpec>user-biosyslit</setSpec>
    </header>
    <header>
      <identifier>oai:zenodo.org:280191</identifier>
      <datestamp>2017-02-09T02:55:50Z</datestamp>
      <setSpec>user-biosyslit</setSpec>
    </header>
    <header>
      <identifier>oai:zenodo.org:280651</identifier>
      <datestamp>2017-02-09T03:48:08Z</datestamp>
      <setSpec>user-biosyslit</setSpec>
    </header>
    <header>
      <identifier>oai:zenodo.org:280646</identifier>
      <datestamp>2017-02-09T03:47:55Z</datestamp>
      <setSpec>user-biosyslit</setSpec>
    </header>
    <header>
      <identifier>oai:zenodo.org:280193</identifier>
      <datestamp>2017-02-09T02:55:59Z</datestamp>
      <setSpec>user-biosyslit</setSpec>
    </header>
    <header>
      <identifier>oai:zenodo.org:280183</identifier>
      <datestamp>2017-02-09T02:56:09Z</datestamp>
      <setSpec>user-biosyslit</setSpec>
    </header>
    <header>
      <identifier>oai:zenodo.org:237962</identifier>
      <datestamp>2017-01-10T23:01:12Z</datestamp>
      <setSpec>user-biosyslit</setSpec>
    </header>
    <header>
      <identifier>oai:zenodo.org:280196</identifier>
      <datestamp>2017-02-09T02:56:07Z</datestamp>
      <setSpec>user-biosyslit</setSpec>
    </header>
    <header>
      <identifier>oai:zenodo.org:280195</identifier>
      <datestamp>2017-02-09T02:56:05Z</datestamp>
      <setSpec>user-biosyslit</setSpec>
    </header>
    <header>
      <identifier>oai:zenodo.org:237960</identifier>
      <datestamp>2017-01-10T23:01:05Z</datestamp>
      <setSpec>user-biosyslit</setSpec>
    </header>
    <header>
      <identifier>oai:zenodo.org:237959</identifier>
      <datestamp>2017-01-10T23:01:01Z</datestamp>
      <setSpec>user-biosyslit</setSpec>
    </header>
    <header>
      <identifier>oai:zenodo.org:237966</identifier>
      <datestamp>2017-01-10T23:01:31Z</datestamp>
      <setSpec>user-biosyslit</setSpec>
    </header>
    <header>
      <identifier>oai:zenodo.org:237964</identifier>
      <datestamp>2017-01-10T23:01:24Z</datestamp>
      <setSpec>user-biosyslit</setSpec>
    </header>
    <header>
      <identifier>oai:zenodo.org:237963</identifier>
      <datestamp>2017-01-10T23:01:18Z</datestamp>
      <setSpec>user-biosyslit</setSpec>
    </header>
    <header>
      <identifier>oai:zenodo.org:241946</identifier>
      <datestamp>2017-01-13T08:16:47Z</datestamp>
      <setSpec>user-biosyslit</setSpec>
    </header>
    <header>
      <identifier>oai:zenodo.org:243782</identifier>
      <datestamp>2017-01-14T10:50:31Z</datestamp>
      <setSpec>user-biosyslit</setSpec>
    </header>
    <header>
      <identifier>oai:zenodo.org:241949</identifier>
      <datestamp>2017-01-13T08:16:55Z</datestamp>
      <setSpec>user-biosyslit</setSpec>
    </header>
    <header>
      <identifier>oai:zenodo.org:241945</identifier>
      <datestamp>2017-01-13T08:16:43Z</datestamp>
      <setSpec>user-biosyslit</setSpec>
    </header>
    <header>
      <identifier>oai:zenodo.org:281184</identifier>
      <datestamp>2017-02-09T04:53:03Z</datestamp>
      <setSpec>user-biosyslit</setSpec>
    </header>
    <resumptionToken expirationDate="2017-08-31T15:45:06Z" cursor="31900" completeListSize="77796">.eJyNyssKgkAUANB_uWuJeZAvaBOWuFDRaUTbhKmIOZU4hTriv-emda3PmUFWVQk22lBEDR1hYm1Ny9KpqYEs-qcQl2ZlKNJEFA_Bczd5x_cEZaQ2AkeOvpPRQLUovGPFjhFJsTnyBk3Rib8yFY8J9QaGDoavoim4eesraeiK89XtGH_sBSNlHx6iieE9O9Pi-_CfT_18jtyBBl1eV2BTgjVoh7yvJdjzsnwAo81RQA.DInACg.ZUwABzOtF-sS3UOsFaHAL8zQ7aQ</resumptionToken>
  </ListIdentifiers>
</OAI-PMH>
