<?xml version='1.0' encoding='UTF-8'?>
<?xml-stylesheet type="text/xsl" href="/static/xsl/oai2.v1.0.xsl"?>
<OAI-PMH xmlns="http://www.openarchives.org/OAI/2.0/" xmlns:xsi="http://www.w3.org/2001/XMLSchema-instance" xsi:schemaLocation="http://www.openarchives.org/OAI/2.0/ http://www.openarchives.org/OAI/2.0/OAI-PMH.xsd">
  <responseDate>2017-08-31T15:42:12Z</responseDate>
  <request verb="ListIdentifiers" resumptionToken=".eJyNyk0LgjAYAOD_8p4lNi03hS6iSYeUuSbpJUxFqvWBK9SJ_z0vnev8PCOouq7ARQu6IjZdIeqYZOlgmxigyvYh5fE8M5SHVJZ3KYowfSe3FGVmQyJf9Ts_syJ9RfENa75h5gHTXpzRwPbilemkT61tx1FAdpoN0WU7v8qKQ5mfwicXd09ys2rjgA0cezy3yu_Dfz798_lqDQY8i6YGF1PbgGtXtI0Cd5ymD7DXUVY.DIm_1A.-41TgePJKPPcC9-lvimfVxyfe00">https://zenodo.org/oai2d</request>
  <ListIdentifiers>
    <header>
      <identifier>oai:zenodo.org:344742</identifier>
      <datestamp>2017-03-01T08:23:24Z</datestamp>
      <setSpec>user-biosyslit</setSpec>
    </header>
    <header>
      <identifier>oai:zenodo.org:546833</identifier>
      <datestamp>2017-04-18T07:40:07Z</datestamp>
      <setSpec>user-biosyslit</setSpec>
    </header>
    <header>
      <identifier>oai:zenodo.org:580512</identifier>
      <datestamp>2017-05-17T08:24:42Z</datestamp>
      <setSpec>user-biosyslit</setSpec>
    </header>
    <header>
      <identifier>oai:zenodo.org:581313</identifier>
      <datestamp>2017-05-19T09:40:40Z</datestamp>
      <setSpec>user-biosyslit</setSpec>
    </header>
    <header>
      <identifier>oai:zenodo.org:272383</identifier>
      <datestamp>2017-02-08T04:23:12Z</datestamp>
      <setSpec>user-biosyslit</setSpec>
    </header>
    <header>
      <identifier>oai:zenodo.org:242959</identifier>
      <datestamp>2017-01-13T21:04:27Z</datestamp>
      <setSpec>user-biosyslit</setSpec>
    </header>
    <header>
      <identifier>oai:zenodo.org:242868</identifier>
      <datestamp>2017-01-13T20:02:15Z</datestamp>
      <setSpec>user-biosyslit</setSpec>
    </header>
    <header>
      <identifier>oai:zenodo.org:242660</identifier>
      <datestamp>2017-01-13T18:16:36Z</datestamp>
      <setSpec>user-biosyslit</setSpec>
    </header>
    <header>
      <identifier>oai:zenodo.org:244027</identifier>
      <datestamp>2017-01-14T15:20:38Z</datestamp>
      <setSpec>user-biosyslit</setSpec>
    </header>
    <header>
      <identifier>oai:zenodo.org:242421</identifier>
      <datestamp>2017-01-13T15:14:34Z</datestamp>
      <setSpec>user-biosyslit</setSpec>
    </header>
    <header>
      <identifier>oai:zenodo.org:243344</identifier>
      <datestamp>2017-01-14T03:00:42Z</datestamp>
      <setSpec>user-biosyslit</setSpec>
    </header>
    <header>
      <identifier>oai:zenodo.org:242673</identifier>
      <datestamp>2017-01-13T18:31:21Z</datestamp>
      <setSpec>user-biosyslit</setSpec>
    </header>
    <header>
      <identifier>oai:zenodo.org:272487</identifier>
      <datestamp>2017-02-08T04:54:17Z</datestamp>
      <setSpec>user-biosyslit</setSpec>
    </header>
    <header>
      <identifier>oai:zenodo.org:243948</identifier>
      <datestamp>2017-01-14T13:43:35Z</datestamp>
      <setSpec>user-biosyslit</setSpec>
    </header>
    <header>
      <identifier>oai:zenodo.org:244147</identifier>
      <datestamp>2017-01-14T16:49:23Z</datestamp>
      <setSpec>user-biosyslit</setSpec>
    </header>
    <header>
      <identifier>oai:zenodo.org:272097</identifier>
      <datestamp>2017-02-08T03:40:02Z</datestamp>
      <setSpec>user-biosyslit</setSpec>
    </header>
    <header>
      <identifier>oai:zenodo.org:243546</identifier>
      <datestamp>2017-01-14T07:14:13Z</datestamp>
      <setSpec>user-biosyslit</setSpec>
    </header>
    <header>
      <identifier>oai:zenodo.org:243355</identifier>
      <datestamp>2017-01-14T03:13:55Z</datestamp>
      <setSpec>user-biosyslit</setSpec>
    </header>
    <header>
      <identifier>oai:zenodo.org:275560</identifier>
      <datestamp>2017-02-08T16:41:54Z</datestamp>
      <setSpec>user-biosyslit</setSpec>
    </header>
    <header>
      <identifier>oai:zenodo.org:272473</identifier>
      <datestamp>2017-02-08T04:48:13Z</datestamp>
      <setSpec>user-biosyslit</setSpec>
    </header>
    <header>
      <identifier>oai:zenodo.org:243939</identifier>
      <datestamp>2017-01-14T13:43:36Z</datestamp>
      <setSpec>user-biosyslit</setSpec>
    </header>
    <header>
      <identifier>oai:zenodo.org:272056</identifier>
      <datestamp>2017-02-08T03:25:53Z</datestamp>
      <setSpec>user-biosyslit</setSpec>
    </header>
    <header>
      <identifier>oai:zenodo.org:244088</identifier>
      <datestamp>2017-01-14T16:08:07Z</datestamp>
      <setSpec>user-biosyslit</setSpec>
    </header>
    <header>
      <identifier>oai:zenodo.org:244343</identifier>
      <datestamp>2017-01-14T20:15:13Z</datestamp>
      <setSpec>user-biosyslit</setSpec>
    </header>
    <header>
      <identifier>oai:zenodo.org:245221</identifier>
      <datestamp>2017-01-15T10:12:03Z</datestamp>
      <setSpec>user-biosyslit</setSpec>
    </header>
    <header>
      <identifier>oai:zenodo.org:244734</identifier>
      <datestamp>2017-01-15T01:49:42Z</datestamp>
      <setSpec>user-biosyslit</setSpec>
    </header>
    <header>
      <identifier>oai:zenodo.org:244653</identifier>
      <datestamp>2017-01-15T00:30:46Z</datestamp>
      <setSpec>user-biosyslit</setSpec>
    </header>
    <header>
      <identifier>oai:zenodo.org:244431</identifier>
      <datestamp>2017-01-14T21:46:11Z</datestamp>
      <setSpec>user-biosyslit</setSpec>
    </header>
    <header>
      <identifier>oai:zenodo.org:244701</identifier>
      <datestamp>2017-01-15T01:28:10Z</datestamp>
      <setSpec>user-biosyslit</setSpec>
    </header>
    <header>
      <identifier>oai:zenodo.org:244816</identifier>
      <datestamp>2017-01-15T03:17:43Z</datestamp>
      <setSpec>user-biosyslit</setSpec>
    </header>
    <header>
      <identifier>oai:zenodo.org:245010</identifier>
      <datestamp>2017-01-15T06:33:11Z</datestamp>
      <setSpec>user-biosyslit</setSpec>
    </header>
    <header>
      <identifier>oai:zenodo.org:244634</identifier>
      <datestamp>2017-01-15T00:18:06Z</datestamp>
      <setSpec>user-biosyslit</setSpec>
    </header>
    <header>
      <identifier>oai:zenodo.org:245847</identifier>
      <datestamp>2017-01-15T19:10:43Z</datestamp>
      <setSpec>user-biosyslit</setSpec>
    </header>
    <header>
      <identifier>oai:zenodo.org:246415</identifier>
      <datestamp>2017-01-16T01:51:20Z</datestamp>
      <setSpec>user-biosyslit</setSpec>
    </header>
    <header>
      <identifier>oai:zenodo.org:245669</identifier>
      <datestamp>2017-01-15T17:13:51Z</datestamp>
      <setSpec>user-biosyslit</setSpec>
    </header>
    <header>
      <identifier>oai:zenodo.org:244831</identifier>
      <datestamp>2017-01-15T03:46:34Z</datestamp>
      <setSpec>user-biosyslit</setSpec>
    </header>
    <header>
      <identifier>oai:zenodo.org:289785</identifier>
      <datestamp>2017-02-10T00:30:25Z</datestamp>
      <setSpec>user-biosyslit</setSpec>
    </header>
    <header>
      <identifier>oai:zenodo.org:272312</identifier>
      <datestamp>2017-02-08T04:13:21Z</datestamp>
      <setSpec>user-biosyslit</setSpec>
    </header>
    <header>
      <identifier>oai:zenodo.org:245375</identifier>
      <datestamp>2017-01-15T12:19:35Z</datestamp>
      <setSpec>user-biosyslit</setSpec>
    </header>
    <header>
      <identifier>oai:zenodo.org:245682</identifier>
      <datestamp>2017-01-15T17:26:48Z</datestamp>
      <setSpec>user-biosyslit</setSpec>
    </header>
    <header>
      <identifier>oai:zenodo.org:245200</identifier>
      <datestamp>2017-01-15T09:42:09Z</datestamp>
      <setSpec>user-biosyslit</setSpec>
    </header>
    <header>
      <identifier>oai:zenodo.org:289057</identifier>
      <datestamp>2017-02-09T22:32:48Z</datestamp>
      <setSpec>user-biosyslit</setSpec>
    </header>
    <header>
      <identifier>oai:zenodo.org:245391</identifier>
      <datestamp>2017-01-15T12:40:50Z</datestamp>
      <setSpec>user-biosyslit</setSpec>
    </header>
    <header>
      <identifier>oai:zenodo.org:289809</identifier>
      <datestamp>2017-02-10T00:31:31Z</datestamp>
      <setSpec>user-biosyslit</setSpec>
    </header>
    <header>
      <identifier>oai:zenodo.org:289246</identifier>
      <datestamp>2017-02-09T23:03:43Z</datestamp>
      <setSpec>user-biosyslit</setSpec>
    </header>
    <header>
      <identifier>oai:zenodo.org:290687</identifier>
      <datestamp>2017-02-15T16:03:03Z</datestamp>
      <setSpec>openaire</setSpec>
      <setSpec>user-biosyslit</setSpec>
    </header>
    <header>
      <identifier>oai:zenodo.org:289779</identifier>
      <datestamp>2017-02-10T00:30:11Z</datestamp>
      <setSpec>user-biosyslit</setSpec>
    </header>
    <header>
      <identifier>oai:zenodo.org:289953</identifier>
      <datestamp>2017-02-10T00:51:22Z</datestamp>
      <setSpec>user-biosyslit</setSpec>
    </header>
    <header>
      <identifier>oai:zenodo.org:289445</identifier>
      <datestamp>2017-02-09T23:30:55Z</datestamp>
      <setSpec>user-biosyslit</setSpec>
    </header>
    <header>
      <identifier>oai:zenodo.org:289920</identifier>
      <datestamp>2017-02-10T00:46:53Z</datestamp>
      <setSpec>user-biosyslit</setSpec>
    </header>
    <header>
      <identifier>oai:zenodo.org:289693</identifier>
      <datestamp>2017-02-10T00:11:19Z</datestamp>
      <setSpec>user-biosyslit</setSpec>
    </header>
    <header>
      <identifier>oai:zenodo.org:289892</identifier>
      <datestamp>2017-02-10T00:45:42Z</datestamp>
      <setSpec>user-biosyslit</setSpec>
    </header>
    <header>
      <identifier>oai:zenodo.org:289683</identifier>
      <datestamp>2017-02-10T00:10:45Z</datestamp>
      <setSpec>user-biosyslit</setSpec>
    </header>
    <header>
      <identifier>oai:zenodo.org:289883</identifier>
      <datestamp>2017-02-10T00:45:18Z</datestamp>
      <setSpec>user-biosyslit</setSpec>
    </header>
    <header>
      <identifier>oai:zenodo.org:289914</identifier>
      <datestamp>2017-02-10T00:46:39Z</datestamp>
      <setSpec>user-biosyslit</setSpec>
    </header>
    <header>
      <identifier>oai:zenodo.org:292592</identifier>
      <datestamp>2017-02-20T08:32:19Z</datestamp>
      <setSpec>user-biosyslit</setSpec>
    </header>
    <header>
      <identifier>oai:zenodo.org:290927</identifier>
      <datestamp>2017-02-13T19:39:52Z</datestamp>
      <setSpec>user-biosyslit</setSpec>
    </header>
    <header>
      <identifier>oai:zenodo.org:291229</identifier>
      <datestamp>2017-02-13T20:34:07Z</datestamp>
      <setSpec>user-biosyslit</setSpec>
    </header>
    <header>
      <identifier>oai:zenodo.org:291339</identifier>
      <datestamp>2017-02-13T20:45:23Z</datestamp>
      <setSpec>user-biosyslit</setSpec>
    </header>
    <header>
      <identifier>oai:zenodo.org:291287</identifier>
      <datestamp>2017-02-13T20:39:55Z</datestamp>
      <setSpec>user-biosyslit</setSpec>
    </header>
    <header>
      <identifier>oai:zenodo.org:292442</identifier>
      <datestamp>2017-02-20T08:28:01Z</datestamp>
      <setSpec>openaire</setSpec>
      <setSpec>user-biosyslit</setSpec>
    </header>
    <header>
      <identifier>oai:zenodo.org:293107</identifier>
      <datestamp>2017-02-18T19:31:59Z</datestamp>
      <setSpec>user-biosyslit</setSpec>
    </header>
    <header>
      <identifier>oai:zenodo.org:292689</identifier>
      <datestamp>2017-02-16T18:28:59Z</datestamp>
      <setSpec>user-biosyslit</setSpec>
    </header>
    <header>
      <identifier>oai:zenodo.org:292504</identifier>
      <datestamp>2017-02-20T08:18:55Z</datestamp>
      <setSpec>user-biosyslit</setSpec>
    </header>
    <header>
      <identifier>oai:zenodo.org:293630</identifier>
      <datestamp>2017-02-19T13:55:13Z</datestamp>
      <setSpec>user-biosyslit</setSpec>
    </header>
    <header>
      <identifier>oai:zenodo.org:293133</identifier>
      <datestamp>2017-02-18T19:41:30Z</datestamp>
      <setSpec>user-biosyslit</setSpec>
    </header>
    <header>
      <identifier>oai:zenodo.org:292441</identifier>
      <datestamp>2017-02-20T08:28:04Z</datestamp>
      <setSpec>openaire</setSpec>
      <setSpec>user-biosyslit</setSpec>
    </header>
    <header>
      <identifier>oai:zenodo.org:292715</identifier>
      <datestamp>2017-02-16T18:31:33Z</datestamp>
      <setSpec>user-biosyslit</setSpec>
    </header>
    <header>
      <identifier>oai:zenodo.org:293467</identifier>
      <datestamp>2017-02-19T13:43:58Z</datestamp>
      <setSpec>user-biosyslit</setSpec>
    </header>
    <header>
      <identifier>oai:zenodo.org:292490</identifier>
      <datestamp>2017-02-20T08:31:56Z</datestamp>
      <setSpec>user-biosyslit</setSpec>
    </header>
    <header>
      <identifier>oai:zenodo.org:292769</identifier>
      <datestamp>2017-02-16T18:38:59Z</datestamp>
      <setSpec>user-biosyslit</setSpec>
    </header>
    <header>
      <identifier>oai:zenodo.org:292449</identifier>
      <datestamp>2017-02-20T08:27:56Z</datestamp>
      <setSpec>user-biosyslit</setSpec>
    </header>
    <header>
      <identifier>oai:zenodo.org:293289</identifier>
      <datestamp>2017-02-19T13:28:15Z</datestamp>
      <setSpec>user-biosyslit</setSpec>
    </header>
    <header>
      <identifier>oai:zenodo.org:292508</identifier>
      <datestamp>2017-02-20T08:19:27Z</datestamp>
      <setSpec>openaire</setSpec>
      <setSpec>user-biosyslit</setSpec>
    </header>
    <header>
      <identifier>oai:zenodo.org:293098</identifier>
      <datestamp>2017-02-18T19:31:05Z</datestamp>
      <setSpec>user-biosyslit</setSpec>
    </header>
    <header>
      <identifier>oai:zenodo.org:292677</identifier>
      <datestamp>2017-02-16T18:28:26Z</datestamp>
      <setSpec>user-biosyslit</setSpec>
    </header>
    <header>
      <identifier>oai:zenodo.org:293143</identifier>
      <datestamp>2017-02-18T19:42:59Z</datestamp>
      <setSpec>user-biosyslit</setSpec>
    </header>
    <header>
      <identifier>oai:zenodo.org:292880</identifier>
      <datestamp>2017-02-16T18:51:21Z</datestamp>
      <setSpec>user-biosyslit</setSpec>
    </header>
    <header>
      <identifier>oai:zenodo.org:293534</identifier>
      <datestamp>2017-02-19T13:46:44Z</datestamp>
      <setSpec>user-biosyslit</setSpec>
    </header>
    <header>
      <identifier>oai:zenodo.org:292894</identifier>
      <datestamp>2017-02-16T18:55:51Z</datestamp>
      <setSpec>user-biosyslit</setSpec>
    </header>
    <header>
      <identifier>oai:zenodo.org:293857</identifier>
      <datestamp>2017-02-20T18:51:53Z</datestamp>
      <setSpec>user-biosyslit</setSpec>
    </header>
    <header>
      <identifier>oai:zenodo.org:293760</identifier>
      <datestamp>2017-02-20T18:00:46Z</datestamp>
      <setSpec>openaire</setSpec>
      <setSpec>user-biosyslit</setSpec>
    </header>
    <header>
      <identifier>oai:zenodo.org:294089</identifier>
      <datestamp>2017-02-20T19:16:50Z</datestamp>
      <setSpec>user-biosyslit</setSpec>
    </header>
    <header>
      <identifier>oai:zenodo.org:293982</identifier>
      <datestamp>2017-02-20T19:05:29Z</datestamp>
      <setSpec>user-biosyslit</setSpec>
    </header>
    <header>
      <identifier>oai:zenodo.org:293585</identifier>
      <datestamp>2017-02-19T13:48:05Z</datestamp>
      <setSpec>user-biosyslit</setSpec>
    </header>
    <header>
      <identifier>oai:zenodo.org:293868</identifier>
      <datestamp>2017-02-20T18:52:57Z</datestamp>
      <setSpec>user-biosyslit</setSpec>
    </header>
    <header>
      <identifier>oai:zenodo.org:293536</identifier>
      <datestamp>2017-02-19T13:46:47Z</datestamp>
      <setSpec>user-biosyslit</setSpec>
    </header>
    <header>
      <identifier>oai:zenodo.org:293883</identifier>
      <datestamp>2017-02-20T18:54:17Z</datestamp>
      <setSpec>user-biosyslit</setSpec>
    </header>
    <header>
      <identifier>oai:zenodo.org:305295</identifier>
      <datestamp>2017-02-20T22:37:51Z</datestamp>
      <setSpec>user-biosyslit</setSpec>
    </header>
    <header>
      <identifier>oai:zenodo.org:294379</identifier>
      <datestamp>2017-02-20T19:37:22Z</datestamp>
      <setSpec>user-biosyslit</setSpec>
    </header>
    <header>
      <identifier>oai:zenodo.org:293936</identifier>
      <datestamp>2017-02-20T19:00:53Z</datestamp>
      <setSpec>user-biosyslit</setSpec>
    </header>
    <header>
      <identifier>oai:zenodo.org:306304</identifier>
      <datestamp>2017-02-20T22:54:16Z</datestamp>
      <setSpec>user-biosyslit</setSpec>
    </header>
    <header>
      <identifier>oai:zenodo.org:312171</identifier>
      <datestamp>2017-02-21T00:38:33Z</datestamp>
      <setSpec>user-biosyslit</setSpec>
    </header>
    <header>
      <identifier>oai:zenodo.org:305341</identifier>
      <datestamp>2017-02-20T22:38:28Z</datestamp>
      <setSpec>user-biosyslit</setSpec>
    </header>
    <header>
      <identifier>oai:zenodo.org:302166</identifier>
      <datestamp>2017-02-20T21:46:40Z</datestamp>
      <setSpec>user-biosyslit</setSpec>
    </header>
    <header>
      <identifier>oai:zenodo.org:295992</identifier>
      <datestamp>2017-02-20T20:05:22Z</datestamp>
      <setSpec>user-biosyslit</setSpec>
    </header>
    <header>
      <identifier>oai:zenodo.org:306656</identifier>
      <datestamp>2017-02-20T22:59:55Z</datestamp>
      <setSpec>user-biosyslit</setSpec>
    </header>
    <header>
      <identifier>oai:zenodo.org:306285</identifier>
      <datestamp>2017-02-20T22:53:42Z</datestamp>
      <setSpec>user-biosyslit</setSpec>
    </header>
    <header>
      <identifier>oai:zenodo.org:306490</identifier>
      <datestamp>2017-02-20T22:57:02Z</datestamp>
      <setSpec>user-biosyslit</setSpec>
    </header>
    <header>
      <identifier>oai:zenodo.org:312180</identifier>
      <datestamp>2017-02-21T00:38:46Z</datestamp>
      <setSpec>user-biosyslit</setSpec>
    </header>
    <resumptionToken expirationDate="2017-08-31T15:44:12Z" cursor="18500" completeListSize="77796">.eJyNyssKgkAUANB_uWuJuTOFD2gTlrhQ0UlJN2EqYo4VTqGO-O-1aV3rc2aQVVWCRVZsQ02mr9FcIzWRogay6O9CnJsPQ3FKRHETce4kr6hLSEpr3bfl6Nkp81VLgg4VP4T0hMYYN2QKj_EzVdGYMHfgZK97Kpz8q_t5JQsckV2cB49vO8Fp2Qf7cOK44xkrvg__fOrns-UWNHjkdQUWGroG7ZD3tQRrXpY3llRROg.DIm_1A.Qk5CWyG9b2faHje-ssthOQdiiT0</resumptionToken>
  </ListIdentifiers>
</OAI-PMH>
