<?xml version='1.0' encoding='UTF-8'?>
<?xml-stylesheet type="text/xsl" href="/static/xsl/oai2.v1.0.xsl"?>
<OAI-PMH xmlns="http://www.openarchives.org/OAI/2.0/" xmlns:xsi="http://www.w3.org/2001/XMLSchema-instance" xsi:schemaLocation="http://www.openarchives.org/OAI/2.0/ http://www.openarchives.org/OAI/2.0/OAI-PMH.xsd">
  <responseDate>2017-08-31T14:27:30Z</responseDate>
  <request verb="ListIdentifiers" resumptionToken=".eJwVzd1OgzAYgOF76TExbSHj52wEJDN-EAaFwYnBgjApiFADdNm9bx6_yfPe0NI0NXLwC7asA6G6bR0Mw9YtqqGFzz9CfFyfGfFLJvgoWBVkf-chwwVtzdBbNvAKEqZMRQNRyWtML8Ta2BXvccpkoc5bpp_WBPsmqHgF1dJoqPUoEOVnMCVsdEVC6zny4z0hblLq3IT0SJ8ege9JctyxUNhfkJ0k9D55zwHzrN7Bl26kAIMHRphOY626Kc-3Xybe1pLJsVKdD72M2f9LHU2koalqG-RQoqF-reZ2Qc7tfn8AdtdSEQ.DImuIA.exdVsQfoMC2B0Ufv0wjHbtxoUW0">https://zenodo.org/oai2d</request>
  <ListIdentifiers>
    <header>
      <identifier>oai:zenodo.org:265760</identifier>
      <datestamp>2017-01-31T19:55:35Z</datestamp>
      <setSpec>user-biosyslit</setSpec>
    </header>
    <header>
      <identifier>oai:zenodo.org:267487</identifier>
      <datestamp>2017-02-02T02:59:19Z</datestamp>
      <setSpec>user-biosyslit</setSpec>
    </header>
    <header>
      <identifier>oai:zenodo.org:267433</identifier>
      <datestamp>2017-02-02T02:04:34Z</datestamp>
      <setSpec>user-biosyslit</setSpec>
    </header>
    <header>
      <identifier>oai:zenodo.org:266604</identifier>
      <datestamp>2017-02-01T12:28:52Z</datestamp>
      <setSpec>user-biosyslit</setSpec>
    </header>
    <header>
      <identifier>oai:zenodo.org:267455</identifier>
      <datestamp>2017-02-02T02:25:03Z</datestamp>
      <setSpec>user-biosyslit</setSpec>
    </header>
    <header>
      <identifier>oai:zenodo.org:268320</identifier>
      <datestamp>2017-02-03T11:04:05Z</datestamp>
      <setSpec>user-biosyslit</setSpec>
    </header>
    <header>
      <identifier>oai:zenodo.org:267439</identifier>
      <datestamp>2017-02-02T02:11:59Z</datestamp>
      <setSpec>user-biosyslit</setSpec>
    </header>
    <header>
      <identifier>oai:zenodo.org:267738</identifier>
      <datestamp>2017-02-02T06:35:21Z</datestamp>
      <setSpec>user-biosyslit</setSpec>
    </header>
    <header>
      <identifier>oai:zenodo.org:267288</identifier>
      <datestamp>2017-02-01T23:50:29Z</datestamp>
      <setSpec>user-biosyslit</setSpec>
    </header>
    <header>
      <identifier>oai:zenodo.org:267186</identifier>
      <datestamp>2017-02-01T21:55:08Z</datestamp>
      <setSpec>user-biosyslit</setSpec>
    </header>
    <header>
      <identifier>oai:zenodo.org:268188</identifier>
      <datestamp>2017-02-03T02:57:11Z</datestamp>
      <setSpec>user-biosyslit</setSpec>
    </header>
    <header>
      <identifier>oai:zenodo.org:268379</identifier>
      <datestamp>2017-02-03T12:39:26Z</datestamp>
      <setSpec>user-biosyslit</setSpec>
    </header>
    <header>
      <identifier>oai:zenodo.org:267583</identifier>
      <datestamp>2017-02-02T04:26:03Z</datestamp>
      <setSpec>user-biosyslit</setSpec>
    </header>
    <header>
      <identifier>oai:zenodo.org:267820</identifier>
      <datestamp>2017-02-02T07:28:59Z</datestamp>
      <setSpec>user-biosyslit</setSpec>
    </header>
    <header>
      <identifier>oai:zenodo.org:268332</identifier>
      <datestamp>2017-02-03T11:18:42Z</datestamp>
      <setSpec>user-biosyslit</setSpec>
    </header>
    <header>
      <identifier>oai:zenodo.org:268284</identifier>
      <datestamp>2017-02-03T05:37:25Z</datestamp>
      <setSpec>user-biosyslit</setSpec>
    </header>
    <header>
      <identifier>oai:zenodo.org:269287</identifier>
      <datestamp>2017-02-06T23:48:55Z</datestamp>
      <setSpec>user-biosyslit</setSpec>
    </header>
    <header>
      <identifier>oai:zenodo.org:268210</identifier>
      <datestamp>2017-02-03T04:15:07Z</datestamp>
      <setSpec>user-biosyslit</setSpec>
    </header>
    <header>
      <identifier>oai:zenodo.org:268158</identifier>
      <datestamp>2017-02-03T02:55:53Z</datestamp>
      <setSpec>user-biosyslit</setSpec>
    </header>
    <header>
      <identifier>oai:zenodo.org:269511</identifier>
      <datestamp>2017-02-07T00:44:10Z</datestamp>
      <setSpec>user-biosyslit</setSpec>
    </header>
    <header>
      <identifier>oai:zenodo.org:269078</identifier>
      <datestamp>2017-02-06T22:41:01Z</datestamp>
      <setSpec>user-biosyslit</setSpec>
    </header>
    <header>
      <identifier>oai:zenodo.org:269022</identifier>
      <datestamp>2017-02-06T22:34:41Z</datestamp>
      <setSpec>user-biosyslit</setSpec>
    </header>
    <header>
      <identifier>oai:zenodo.org:269254</identifier>
      <datestamp>2017-02-06T23:41:48Z</datestamp>
      <setSpec>user-biosyslit</setSpec>
    </header>
    <header>
      <identifier>oai:zenodo.org:269305</identifier>
      <datestamp>2017-02-06T23:50:44Z</datestamp>
      <setSpec>user-biosyslit</setSpec>
    </header>
    <header>
      <identifier>oai:zenodo.org:275809</identifier>
      <datestamp>2017-02-08T17:07:19Z</datestamp>
      <setSpec>user-biosyslit</setSpec>
    </header>
    <header>
      <identifier>oai:zenodo.org:275066</identifier>
      <datestamp>2017-02-08T15:13:57Z</datestamp>
      <setSpec>user-biosyslit</setSpec>
    </header>
    <header>
      <identifier>oai:zenodo.org:275513</identifier>
      <datestamp>2017-02-08T16:36:38Z</datestamp>
      <setSpec>user-biosyslit</setSpec>
    </header>
    <header>
      <identifier>oai:zenodo.org:275558</identifier>
      <datestamp>2017-02-08T16:41:58Z</datestamp>
      <setSpec>user-biosyslit</setSpec>
    </header>
    <header>
      <identifier>oai:zenodo.org:269492</identifier>
      <datestamp>2017-02-07T00:43:09Z</datestamp>
      <setSpec>user-biosyslit</setSpec>
    </header>
    <header>
      <identifier>oai:zenodo.org:277094</identifier>
      <datestamp>2017-02-08T20:23:56Z</datestamp>
      <setSpec>user-biosyslit</setSpec>
    </header>
    <header>
      <identifier>oai:zenodo.org:277282</identifier>
      <datestamp>2017-02-08T20:47:27Z</datestamp>
      <setSpec>user-biosyslit</setSpec>
    </header>
    <header>
      <identifier>oai:zenodo.org:277407</identifier>
      <datestamp>2017-02-08T21:04:39Z</datestamp>
      <setSpec>user-biosyslit</setSpec>
    </header>
    <header>
      <identifier>oai:zenodo.org:277098</identifier>
      <datestamp>2017-02-08T20:24:08Z</datestamp>
      <setSpec>user-biosyslit</setSpec>
    </header>
    <header>
      <identifier>oai:zenodo.org:277331</identifier>
      <datestamp>2017-02-08T20:54:31Z</datestamp>
      <setSpec>user-biosyslit</setSpec>
    </header>
    <header>
      <identifier>oai:zenodo.org:278450</identifier>
      <datestamp>2017-02-08T23:11:46Z</datestamp>
      <setSpec>user-biosyslit</setSpec>
    </header>
    <header>
      <identifier>oai:zenodo.org:278797</identifier>
      <datestamp>2017-02-08T23:54:24Z</datestamp>
      <setSpec>user-biosyslit</setSpec>
    </header>
    <header>
      <identifier>oai:zenodo.org:280566</identifier>
      <datestamp>2017-02-09T03:38:37Z</datestamp>
      <setSpec>user-biosyslit</setSpec>
    </header>
    <header>
      <identifier>oai:zenodo.org:279633</identifier>
      <datestamp>2017-02-09T01:45:53Z</datestamp>
      <setSpec>user-biosyslit</setSpec>
    </header>
    <header>
      <identifier>oai:zenodo.org:279731</identifier>
      <datestamp>2017-02-09T01:58:35Z</datestamp>
      <setSpec>user-biosyslit</setSpec>
    </header>
    <header>
      <identifier>oai:zenodo.org:280095</identifier>
      <datestamp>2017-02-09T02:42:11Z</datestamp>
      <setSpec>user-biosyslit</setSpec>
    </header>
    <header>
      <identifier>oai:zenodo.org:279368</identifier>
      <datestamp>2017-02-09T01:10:17Z</datestamp>
      <setSpec>user-biosyslit</setSpec>
    </header>
    <header>
      <identifier>oai:zenodo.org:282540</identifier>
      <datestamp>2017-02-09T07:11:59Z</datestamp>
      <setSpec>user-biosyslit</setSpec>
    </header>
    <header>
      <identifier>oai:zenodo.org:281218</identifier>
      <datestamp>2017-02-09T04:57:29Z</datestamp>
      <setSpec>user-biosyslit</setSpec>
    </header>
    <header>
      <identifier>oai:zenodo.org:281559</identifier>
      <datestamp>2017-02-09T05:31:48Z</datestamp>
      <setSpec>user-biosyslit</setSpec>
    </header>
    <header>
      <identifier>oai:zenodo.org:282447</identifier>
      <datestamp>2017-02-09T07:00:57Z</datestamp>
      <setSpec>user-biosyslit</setSpec>
    </header>
    <header>
      <identifier>oai:zenodo.org:283437</identifier>
      <datestamp>2017-02-09T08:54:50Z</datestamp>
      <setSpec>user-biosyslit</setSpec>
    </header>
    <header>
      <identifier>oai:zenodo.org:283088</identifier>
      <datestamp>2017-02-09T08:07:54Z</datestamp>
      <setSpec>user-biosyslit</setSpec>
    </header>
    <header>
      <identifier>oai:zenodo.org:283111</identifier>
      <datestamp>2017-02-09T08:10:18Z</datestamp>
      <setSpec>user-biosyslit</setSpec>
    </header>
    <header>
      <identifier>oai:zenodo.org:284156</identifier>
      <datestamp>2017-02-09T10:35:25Z</datestamp>
      <setSpec>user-biosyslit</setSpec>
    </header>
    <header>
      <identifier>oai:zenodo.org:284372</identifier>
      <datestamp>2017-02-09T11:06:30Z</datestamp>
      <setSpec>user-biosyslit</setSpec>
    </header>
    <header>
      <identifier>oai:zenodo.org:284330</identifier>
      <datestamp>2017-02-09T11:04:42Z</datestamp>
      <setSpec>user-biosyslit</setSpec>
    </header>
    <header>
      <identifier>oai:zenodo.org:284412</identifier>
      <datestamp>2017-02-09T11:11:10Z</datestamp>
      <setSpec>user-biosyslit</setSpec>
    </header>
    <header>
      <identifier>oai:zenodo.org:284191</identifier>
      <datestamp>2017-02-09T10:38:21Z</datestamp>
      <setSpec>user-biosyslit</setSpec>
    </header>
    <header>
      <identifier>oai:zenodo.org:284150</identifier>
      <datestamp>2017-02-09T10:34:48Z</datestamp>
      <setSpec>user-biosyslit</setSpec>
    </header>
    <header>
      <identifier>oai:zenodo.org:284327</identifier>
      <datestamp>2017-02-09T11:07:00Z</datestamp>
      <setSpec>user-biosyslit</setSpec>
    </header>
    <header>
      <identifier>oai:zenodo.org:285650</identifier>
      <datestamp>2017-02-09T14:03:46Z</datestamp>
      <setSpec>user-biosyslit</setSpec>
    </header>
    <header>
      <identifier>oai:zenodo.org:286162</identifier>
      <datestamp>2017-02-09T15:24:12Z</datestamp>
      <setSpec>user-biosyslit</setSpec>
    </header>
    <header>
      <identifier>oai:zenodo.org:286575</identifier>
      <datestamp>2017-02-09T16:23:21Z</datestamp>
      <setSpec>user-biosyslit</setSpec>
    </header>
    <header>
      <identifier>oai:zenodo.org:287392</identifier>
      <datestamp>2017-02-09T18:12:28Z</datestamp>
      <setSpec>user-biosyslit</setSpec>
    </header>
    <header>
      <identifier>oai:zenodo.org:285637</identifier>
      <datestamp>2017-02-09T14:03:07Z</datestamp>
      <setSpec>user-biosyslit</setSpec>
    </header>
    <header>
      <identifier>oai:zenodo.org:286298</identifier>
      <datestamp>2017-02-09T15:43:29Z</datestamp>
      <setSpec>user-biosyslit</setSpec>
    </header>
    <header>
      <identifier>oai:zenodo.org:286020</identifier>
      <datestamp>2017-02-09T15:04:21Z</datestamp>
      <setSpec>user-biosyslit</setSpec>
    </header>
    <header>
      <identifier>oai:zenodo.org:286649</identifier>
      <datestamp>2017-02-09T16:31:25Z</datestamp>
      <setSpec>user-biosyslit</setSpec>
    </header>
    <header>
      <identifier>oai:zenodo.org:286668</identifier>
      <datestamp>2017-02-09T16:32:13Z</datestamp>
      <setSpec>user-biosyslit</setSpec>
    </header>
    <header>
      <identifier>oai:zenodo.org:288044</identifier>
      <datestamp>2017-02-09T19:55:00Z</datestamp>
      <setSpec>user-biosyslit</setSpec>
    </header>
    <header>
      <identifier>oai:zenodo.org:287216</identifier>
      <datestamp>2017-02-09T17:47:10Z</datestamp>
      <setSpec>user-biosyslit</setSpec>
    </header>
    <header>
      <identifier>oai:zenodo.org:288122</identifier>
      <datestamp>2017-02-09T20:03:22Z</datestamp>
      <setSpec>user-biosyslit</setSpec>
    </header>
    <header>
      <identifier>oai:zenodo.org:288533</identifier>
      <datestamp>2017-02-09T21:05:52Z</datestamp>
      <setSpec>user-biosyslit</setSpec>
    </header>
    <header>
      <identifier>oai:zenodo.org:288781</identifier>
      <datestamp>2017-02-09T21:52:30Z</datestamp>
      <setSpec>user-biosyslit</setSpec>
    </header>
    <header>
      <identifier>oai:zenodo.org:288182</identifier>
      <datestamp>2017-02-09T20:14:55Z</datestamp>
      <setSpec>user-biosyslit</setSpec>
    </header>
    <header>
      <identifier>oai:zenodo.org:289797</identifier>
      <datestamp>2017-02-10T00:31:00Z</datestamp>
      <setSpec>user-biosyslit</setSpec>
    </header>
    <header>
      <identifier>oai:zenodo.org:289810</identifier>
      <datestamp>2017-02-10T00:33:45Z</datestamp>
      <setSpec>user-biosyslit</setSpec>
    </header>
    <header>
      <identifier>oai:zenodo.org:289682</identifier>
      <datestamp>2017-02-10T00:10:39Z</datestamp>
      <setSpec>user-biosyslit</setSpec>
    </header>
    <header>
      <identifier>oai:zenodo.org:289781</identifier>
      <datestamp>2017-02-10T00:30:16Z</datestamp>
      <setSpec>user-biosyslit</setSpec>
    </header>
    <header>
      <identifier>oai:zenodo.org:292577</identifier>
      <datestamp>2017-02-20T08:32:09Z</datestamp>
      <setSpec>user-biosyslit</setSpec>
    </header>
    <header>
      <identifier>oai:zenodo.org:294035</identifier>
      <datestamp>2017-02-20T19:10:41Z</datestamp>
      <setSpec>user-biosyslit</setSpec>
    </header>
    <header>
      <identifier>oai:zenodo.org:294168</identifier>
      <datestamp>2017-02-20T19:23:53Z</datestamp>
      <setSpec>user-biosyslit</setSpec>
    </header>
    <header>
      <identifier>oai:zenodo.org:294224</identifier>
      <datestamp>2017-02-20T19:30:41Z</datestamp>
      <setSpec>user-biosyslit</setSpec>
    </header>
    <header>
      <identifier>oai:zenodo.org:306307</identifier>
      <datestamp>2017-02-20T22:54:03Z</datestamp>
      <setSpec>user-biosyslit</setSpec>
    </header>
    <header>
      <identifier>oai:zenodo.org:322171</identifier>
      <datestamp>2017-02-24T07:36:13Z</datestamp>
      <setSpec>user-biosyslit</setSpec>
    </header>
    <header>
      <identifier>oai:zenodo.org:320239</identifier>
      <datestamp>2017-02-21T03:29:07Z</datestamp>
      <setSpec>user-biosyslit</setSpec>
    </header>
    <header>
      <identifier>oai:zenodo.org:321977</identifier>
      <datestamp>2017-02-24T07:20:38Z</datestamp>
      <setSpec>user-biosyslit</setSpec>
    </header>
    <header>
      <identifier>oai:zenodo.org:321993</identifier>
      <datestamp>2017-02-24T07:22:02Z</datestamp>
      <setSpec>user-biosyslit</setSpec>
    </header>
    <header>
      <identifier>oai:zenodo.org:321754</identifier>
      <datestamp>2017-02-23T08:30:58Z</datestamp>
      <setSpec>user-biosyslit</setSpec>
    </header>
    <header>
      <identifier>oai:zenodo.org:180118</identifier>
      <datestamp>2016-11-28T23:13:11Z</datestamp>
      <setSpec>user-biosyslit</setSpec>
    </header>
    <header>
      <identifier>oai:zenodo.org:218701</identifier>
      <datestamp>2016-12-22T16:08:43Z</datestamp>
      <setSpec>user-biosyslit</setSpec>
    </header>
    <header>
      <identifier>oai:zenodo.org:218789</identifier>
      <datestamp>2016-12-22T16:38:11Z</datestamp>
      <setSpec>user-biosyslit</setSpec>
    </header>
    <header>
      <identifier>oai:zenodo.org:574223</identifier>
      <datestamp>2017-05-11T07:23:53Z</datestamp>
      <setSpec>user-biosyslit</setSpec>
    </header>
    <header>
      <identifier>oai:zenodo.org:180379</identifier>
      <datestamp>2016-12-20T02:00:16Z</datestamp>
      <setSpec>user-biosyslit</setSpec>
    </header>
    <header>
      <identifier>oai:zenodo.org:197316</identifier>
      <datestamp>2016-12-20T02:01:49Z</datestamp>
      <setSpec>user-biosyslit</setSpec>
    </header>
    <header>
      <identifier>oai:zenodo.org:180169</identifier>
      <datestamp>2016-12-20T02:00:17Z</datestamp>
      <setSpec>user-biosyslit</setSpec>
    </header>
    <header>
      <identifier>oai:zenodo.org:180235</identifier>
      <datestamp>2016-12-20T02:00:11Z</datestamp>
      <setSpec>user-biosyslit</setSpec>
    </header>
    <header>
      <identifier>oai:zenodo.org:218837</identifier>
      <datestamp>2016-12-22T16:50:50Z</datestamp>
      <setSpec>user-biosyslit</setSpec>
    </header>
    <header>
      <identifier>oai:zenodo.org:218767</identifier>
      <datestamp>2016-12-22T16:29:47Z</datestamp>
      <setSpec>user-biosyslit</setSpec>
    </header>
    <header>
      <identifier>oai:zenodo.org:279761</identifier>
      <datestamp>2017-02-09T02:00:26Z</datestamp>
      <setSpec>user-biosyslit</setSpec>
    </header>
    <header>
      <identifier>oai:zenodo.org:182052</identifier>
      <datestamp>2016-11-29T07:56:05Z</datestamp>
      <setSpec>user-biosyslit</setSpec>
    </header>
    <header>
      <identifier>oai:zenodo.org:278709</identifier>
      <datestamp>2017-02-08T23:44:22Z</datestamp>
      <setSpec>user-biosyslit</setSpec>
    </header>
    <header>
      <identifier>oai:zenodo.org:279576</identifier>
      <datestamp>2017-02-09T01:39:29Z</datestamp>
      <setSpec>user-biosyslit</setSpec>
    </header>
    <header>
      <identifier>oai:zenodo.org:281034</identifier>
      <datestamp>2017-02-09T04:36:51Z</datestamp>
      <setSpec>user-biosyslit</setSpec>
    </header>
    <header>
      <identifier>oai:zenodo.org:281230</identifier>
      <datestamp>2017-02-09T04:58:38Z</datestamp>
      <setSpec>user-biosyslit</setSpec>
    </header>
    <resumptionToken expirationDate="2017-08-31T14:29:30Z" cursor="2000" completeListSize="142507">.eJwVzdFOgzAYQOF36TUxpQW7cbcFJDP-EAYtgxuDBWFSEAEDdNm7O69P8p0bmqqqRA5-2lnPlGG6p4zZ1LYtA01y_Fbq_frISF6Ekr3ihS9-z53AGalZ4E4ruJkZJFyHnanjl4hczN3Kr3iLEj5n-rwKelpi7DHQ0QK6JmFX0tBX-Yc_xLw_qpiUY-hFW2we45xKBsmBPDwTvoZZ4oYHav8J4jRD65lvKWApyg28-RhqwOCCFSRDX-pmSNP1h6vXJedzX-jGg3aO-P9LHxgy0FDUFXIIMVC7FGM9Ied2v_8BdTRSEA.DImuUg.5k6AFhhFE2ju30w3RekoWvFHlOA</resumptionToken>
  </ListIdentifiers>
</OAI-PMH>
