<?xml version='1.0' encoding='UTF-8'?>
<?xml-stylesheet type="text/xsl" href="/static/xsl/oai2.v1.0.xsl"?>
<OAI-PMH xmlns="http://www.openarchives.org/OAI/2.0/" xmlns:xsi="http://www.w3.org/2001/XMLSchema-instance" xsi:schemaLocation="http://www.openarchives.org/OAI/2.0/ http://www.openarchives.org/OAI/2.0/OAI-PMH.xsd">
  <responseDate>2017-08-31T14:35:21Z</responseDate>
  <request verb="ListIdentifiers" resumptionToken=".eJwVzdFOgzAYQOF36TUxLZC1cjcCkhl_CIOWwY3BgjApiIABuuzdndcn-c4NzXVdIQc_EUYPls0ItTFmNmMHA81y-lbq_froSF6EkoPiZSB-z73AudnQ0Js38HISplxHPdHJS2xeCNv4Fe9xypdcnzdhndYE-xR0vIJuzKivrChQxUcwJnxwVWJWU-THe0LcpLAkhfRoPjwCX-MicctD9fwJ4rRA55O3DLAU1Q7-4kYaMHhgh-k4VLods2z74ep1LfgylLr1oVti_v_SR4oMNJZNjRwLG6hby6mZkXO73_8AqVVSQw.DImv8g.4kX_ZKGXevraV2ee4V02Y-b8Nao">https://zenodo.org/oai2d</request>
  <ListIdentifiers>
    <header>
      <identifier>oai:zenodo.org:277035</identifier>
      <datestamp>2017-02-08T20:15:02Z</datestamp>
      <setSpec>user-biosyslit</setSpec>
    </header>
    <header>
      <identifier>oai:zenodo.org:277882</identifier>
      <datestamp>2017-02-08T22:00:54Z</datestamp>
      <setSpec>user-biosyslit</setSpec>
    </header>
    <header>
      <identifier>oai:zenodo.org:277556</identifier>
      <datestamp>2017-02-08T21:22:49Z</datestamp>
      <setSpec>user-biosyslit</setSpec>
    </header>
    <header>
      <identifier>oai:zenodo.org:277434</identifier>
      <datestamp>2017-02-08T21:08:28Z</datestamp>
      <setSpec>user-biosyslit</setSpec>
    </header>
    <header>
      <identifier>oai:zenodo.org:277797</identifier>
      <datestamp>2017-02-08T21:50:37Z</datestamp>
      <setSpec>user-biosyslit</setSpec>
    </header>
    <header>
      <identifier>oai:zenodo.org:278153</identifier>
      <datestamp>2017-02-08T22:32:37Z</datestamp>
      <setSpec>user-biosyslit</setSpec>
    </header>
    <header>
      <identifier>oai:zenodo.org:278366</identifier>
      <datestamp>2017-02-08T23:02:44Z</datestamp>
      <setSpec>user-biosyslit</setSpec>
    </header>
    <header>
      <identifier>oai:zenodo.org:279706</identifier>
      <datestamp>2017-02-09T01:53:59Z</datestamp>
      <setSpec>user-biosyslit</setSpec>
    </header>
    <header>
      <identifier>oai:zenodo.org:278627</identifier>
      <datestamp>2017-02-08T23:33:16Z</datestamp>
      <setSpec>user-biosyslit</setSpec>
    </header>
    <header>
      <identifier>oai:zenodo.org:279373</identifier>
      <datestamp>2017-02-09T01:10:16Z</datestamp>
      <setSpec>user-biosyslit</setSpec>
    </header>
    <header>
      <identifier>oai:zenodo.org:278667</identifier>
      <datestamp>2017-02-08T23:38:03Z</datestamp>
      <setSpec>user-biosyslit</setSpec>
    </header>
    <header>
      <identifier>oai:zenodo.org:279658</identifier>
      <datestamp>2017-02-09T01:47:09Z</datestamp>
      <setSpec>user-biosyslit</setSpec>
    </header>
    <header>
      <identifier>oai:zenodo.org:280259</identifier>
      <datestamp>2017-02-09T03:04:25Z</datestamp>
      <setSpec>user-biosyslit</setSpec>
    </header>
    <header>
      <identifier>oai:zenodo.org:280022</identifier>
      <datestamp>2017-02-09T02:31:16Z</datestamp>
      <setSpec>user-biosyslit</setSpec>
    </header>
    <header>
      <identifier>oai:zenodo.org:279705</identifier>
      <datestamp>2017-02-09T01:54:03Z</datestamp>
      <setSpec>user-biosyslit</setSpec>
    </header>
    <header>
      <identifier>oai:zenodo.org:279448</identifier>
      <datestamp>2017-02-09T01:22:10Z</datestamp>
      <setSpec>user-biosyslit</setSpec>
    </header>
    <header>
      <identifier>oai:zenodo.org:280282</identifier>
      <datestamp>2017-02-09T03:06:29Z</datestamp>
      <setSpec>user-biosyslit</setSpec>
    </header>
    <header>
      <identifier>oai:zenodo.org:282052</identifier>
      <datestamp>2017-02-09T06:23:09Z</datestamp>
      <setSpec>user-biosyslit</setSpec>
    </header>
    <header>
      <identifier>oai:zenodo.org:281084</identifier>
      <datestamp>2017-02-09T04:42:07Z</datestamp>
      <setSpec>user-biosyslit</setSpec>
    </header>
    <header>
      <identifier>oai:zenodo.org:282523</identifier>
      <datestamp>2017-02-09T07:10:56Z</datestamp>
      <setSpec>user-biosyslit</setSpec>
    </header>
    <header>
      <identifier>oai:zenodo.org:282392</identifier>
      <datestamp>2017-02-09T06:55:54Z</datestamp>
      <setSpec>user-biosyslit</setSpec>
    </header>
    <header>
      <identifier>oai:zenodo.org:283767</identifier>
      <datestamp>2017-02-09T09:39:34Z</datestamp>
      <setSpec>user-biosyslit</setSpec>
    </header>
    <header>
      <identifier>oai:zenodo.org:283350</identifier>
      <datestamp>2017-02-09T08:37:33Z</datestamp>
      <setSpec>user-biosyslit</setSpec>
    </header>
    <header>
      <identifier>oai:zenodo.org:283335</identifier>
      <datestamp>2017-02-09T08:36:50Z</datestamp>
      <setSpec>user-biosyslit</setSpec>
    </header>
    <header>
      <identifier>oai:zenodo.org:283912</identifier>
      <datestamp>2017-02-09T10:02:53Z</datestamp>
      <setSpec>user-biosyslit</setSpec>
    </header>
    <header>
      <identifier>oai:zenodo.org:283054</identifier>
      <datestamp>2017-02-09T08:04:46Z</datestamp>
      <setSpec>user-biosyslit</setSpec>
    </header>
    <header>
      <identifier>oai:zenodo.org:284484</identifier>
      <datestamp>2017-02-09T11:21:27Z</datestamp>
      <setSpec>user-biosyslit</setSpec>
    </header>
    <header>
      <identifier>oai:zenodo.org:283314</identifier>
      <datestamp>2017-02-09T08:35:13Z</datestamp>
      <setSpec>user-biosyslit</setSpec>
    </header>
    <header>
      <identifier>oai:zenodo.org:284391</identifier>
      <datestamp>2017-02-09T11:10:11Z</datestamp>
      <setSpec>user-biosyslit</setSpec>
    </header>
    <header>
      <identifier>oai:zenodo.org:283861</identifier>
      <datestamp>2017-02-09T09:57:22Z</datestamp>
      <setSpec>user-biosyslit</setSpec>
    </header>
    <header>
      <identifier>oai:zenodo.org:284913</identifier>
      <datestamp>2017-02-09T12:15:22Z</datestamp>
      <setSpec>user-biosyslit</setSpec>
    </header>
    <header>
      <identifier>oai:zenodo.org:284560</identifier>
      <datestamp>2017-02-09T11:32:36Z</datestamp>
      <setSpec>user-biosyslit</setSpec>
    </header>
    <header>
      <identifier>oai:zenodo.org:285442</identifier>
      <datestamp>2017-02-09T13:35:58Z</datestamp>
      <setSpec>user-biosyslit</setSpec>
    </header>
    <header>
      <identifier>oai:zenodo.org:286721</identifier>
      <datestamp>2017-02-09T16:38:11Z</datestamp>
      <setSpec>user-biosyslit</setSpec>
    </header>
    <header>
      <identifier>oai:zenodo.org:286659</identifier>
      <datestamp>2017-02-09T16:31:45Z</datestamp>
      <setSpec>user-biosyslit</setSpec>
    </header>
    <header>
      <identifier>oai:zenodo.org:285477</identifier>
      <datestamp>2017-02-09T13:40:33Z</datestamp>
      <setSpec>user-biosyslit</setSpec>
    </header>
    <header>
      <identifier>oai:zenodo.org:286029</identifier>
      <datestamp>2017-02-09T15:05:44Z</datestamp>
      <setSpec>user-biosyslit</setSpec>
    </header>
    <header>
      <identifier>oai:zenodo.org:287443</identifier>
      <datestamp>2017-02-09T18:19:56Z</datestamp>
      <setSpec>user-biosyslit</setSpec>
    </header>
    <header>
      <identifier>oai:zenodo.org:286449</identifier>
      <datestamp>2017-02-09T16:00:15Z</datestamp>
      <setSpec>user-biosyslit</setSpec>
    </header>
    <header>
      <identifier>oai:zenodo.org:285993</identifier>
      <datestamp>2017-02-09T14:59:59Z</datestamp>
      <setSpec>user-biosyslit</setSpec>
    </header>
    <header>
      <identifier>oai:zenodo.org:285715</identifier>
      <datestamp>2017-02-09T14:11:01Z</datestamp>
      <setSpec>user-biosyslit</setSpec>
    </header>
    <header>
      <identifier>oai:zenodo.org:286039</identifier>
      <datestamp>2017-02-09T15:06:33Z</datestamp>
      <setSpec>user-biosyslit</setSpec>
    </header>
    <header>
      <identifier>oai:zenodo.org:285990</identifier>
      <datestamp>2017-02-09T14:59:51Z</datestamp>
      <setSpec>user-biosyslit</setSpec>
    </header>
    <header>
      <identifier>oai:zenodo.org:286456</identifier>
      <datestamp>2017-02-09T16:00:29Z</datestamp>
      <setSpec>user-biosyslit</setSpec>
    </header>
    <header>
      <identifier>oai:zenodo.org:286852</identifier>
      <datestamp>2017-02-09T16:57:40Z</datestamp>
      <setSpec>user-biosyslit</setSpec>
    </header>
    <header>
      <identifier>oai:zenodo.org:286825</identifier>
      <datestamp>2017-02-09T16:54:59Z</datestamp>
      <setSpec>user-biosyslit</setSpec>
    </header>
    <header>
      <identifier>oai:zenodo.org:288678</identifier>
      <datestamp>2017-02-09T21:40:34Z</datestamp>
      <setSpec>user-biosyslit</setSpec>
    </header>
    <header>
      <identifier>oai:zenodo.org:287742</identifier>
      <datestamp>2017-02-09T19:10:15Z</datestamp>
      <setSpec>user-biosyslit</setSpec>
    </header>
    <header>
      <identifier>oai:zenodo.org:287618</identifier>
      <datestamp>2017-02-09T18:44:59Z</datestamp>
      <setSpec>user-biosyslit</setSpec>
    </header>
    <header>
      <identifier>oai:zenodo.org:289118</identifier>
      <datestamp>2017-02-09T22:45:28Z</datestamp>
      <setSpec>user-biosyslit</setSpec>
    </header>
    <header>
      <identifier>oai:zenodo.org:288812</identifier>
      <datestamp>2017-02-09T21:54:04Z</datestamp>
      <setSpec>user-biosyslit</setSpec>
    </header>
    <header>
      <identifier>oai:zenodo.org:288195</identifier>
      <datestamp>2017-02-09T20:16:22Z</datestamp>
      <setSpec>user-biosyslit</setSpec>
    </header>
    <header>
      <identifier>oai:zenodo.org:288788</identifier>
      <datestamp>2017-02-09T21:52:53Z</datestamp>
      <setSpec>user-biosyslit</setSpec>
    </header>
    <header>
      <identifier>oai:zenodo.org:289861</identifier>
      <datestamp>2017-02-10T00:42:23Z</datestamp>
      <setSpec>user-biosyslit</setSpec>
    </header>
    <header>
      <identifier>oai:zenodo.org:291253</identifier>
      <datestamp>2017-02-13T20:37:12Z</datestamp>
      <setSpec>user-biosyslit</setSpec>
    </header>
    <header>
      <identifier>oai:zenodo.org:293871</identifier>
      <datestamp>2017-02-20T18:53:06Z</datestamp>
      <setSpec>user-biosyslit</setSpec>
    </header>
    <header>
      <identifier>oai:zenodo.org:294037</identifier>
      <datestamp>2017-02-20T19:11:09Z</datestamp>
      <setSpec>user-biosyslit</setSpec>
    </header>
    <header>
      <identifier>oai:zenodo.org:304614</identifier>
      <datestamp>2017-02-20T22:26:02Z</datestamp>
      <setSpec>user-biosyslit</setSpec>
    </header>
    <header>
      <identifier>oai:zenodo.org:306937</identifier>
      <datestamp>2017-02-20T23:04:43Z</datestamp>
      <setSpec>user-biosyslit</setSpec>
    </header>
    <header>
      <identifier>oai:zenodo.org:312516</identifier>
      <datestamp>2017-02-21T00:45:00Z</datestamp>
      <setSpec>user-biosyslit</setSpec>
    </header>
    <header>
      <identifier>oai:zenodo.org:322275</identifier>
      <datestamp>2017-02-24T08:54:34Z</datestamp>
      <setSpec>user-biosyslit</setSpec>
    </header>
    <header>
      <identifier>oai:zenodo.org:321362</identifier>
      <datestamp>2017-02-22T10:00:49Z</datestamp>
      <setSpec>openaire</setSpec>
      <setSpec>user-biosyslit</setSpec>
      <setSpec>user-neilreichia</setSpec>
    </header>
    <header>
      <identifier>oai:zenodo.org:279727</identifier>
      <datestamp>2017-02-09T01:57:26Z</datestamp>
      <setSpec>user-biosyslit</setSpec>
    </header>
    <header>
      <identifier>oai:zenodo.org:280873</identifier>
      <datestamp>2017-02-09T04:15:28Z</datestamp>
      <setSpec>user-biosyslit</setSpec>
    </header>
    <header>
      <identifier>oai:zenodo.org:180270</identifier>
      <datestamp>2016-11-28T23:43:51Z</datestamp>
      <setSpec>user-biosyslit</setSpec>
    </header>
    <header>
      <identifier>oai:zenodo.org:218685</identifier>
      <datestamp>2016-12-22T15:55:34Z</datestamp>
      <setSpec>user-biosyslit</setSpec>
    </header>
    <header>
      <identifier>oai:zenodo.org:180283</identifier>
      <datestamp>2016-12-20T02:00:37Z</datestamp>
      <setSpec>user-biosyslit</setSpec>
    </header>
    <header>
      <identifier>oai:zenodo.org:180144</identifier>
      <datestamp>2016-12-20T02:00:31Z</datestamp>
      <setSpec>user-biosyslit</setSpec>
    </header>
    <header>
      <identifier>oai:zenodo.org:218806</identifier>
      <datestamp>2016-12-22T16:41:49Z</datestamp>
      <setSpec>user-biosyslit</setSpec>
    </header>
    <header>
      <identifier>oai:zenodo.org:218753</identifier>
      <datestamp>2016-12-22T16:26:32Z</datestamp>
      <setSpec>user-biosyslit</setSpec>
    </header>
    <header>
      <identifier>oai:zenodo.org:218809</identifier>
      <datestamp>2016-12-22T16:42:01Z</datestamp>
      <setSpec>user-biosyslit</setSpec>
    </header>
    <header>
      <identifier>oai:zenodo.org:218800</identifier>
      <datestamp>2016-12-22T16:41:29Z</datestamp>
      <setSpec>user-biosyslit</setSpec>
    </header>
    <header>
      <identifier>oai:zenodo.org:219102</identifier>
      <datestamp>2016-12-22T18:12:31Z</datestamp>
      <setSpec>user-biosyslit</setSpec>
    </header>
    <header>
      <identifier>oai:zenodo.org:219054</identifier>
      <datestamp>2016-12-22T18:00:47Z</datestamp>
      <setSpec>user-biosyslit</setSpec>
    </header>
    <header>
      <identifier>oai:zenodo.org:236725</identifier>
      <datestamp>2017-01-10T03:47:14Z</datestamp>
      <setSpec>user-biosyslit</setSpec>
    </header>
    <header>
      <identifier>oai:zenodo.org:237695</identifier>
      <datestamp>2017-01-10T18:46:41Z</datestamp>
      <setSpec>user-biosyslit</setSpec>
    </header>
    <header>
      <identifier>oai:zenodo.org:237112</identifier>
      <datestamp>2017-01-10T10:52:43Z</datestamp>
      <setSpec>user-biosyslit</setSpec>
    </header>
    <header>
      <identifier>oai:zenodo.org:277280</identifier>
      <datestamp>2017-02-08T20:47:20Z</datestamp>
      <setSpec>user-biosyslit</setSpec>
    </header>
    <header>
      <identifier>oai:zenodo.org:237054</identifier>
      <datestamp>2017-01-10T10:22:14Z</datestamp>
      <setSpec>user-biosyslit</setSpec>
    </header>
    <header>
      <identifier>oai:zenodo.org:277897</identifier>
      <datestamp>2017-02-08T22:02:01Z</datestamp>
      <setSpec>user-biosyslit</setSpec>
    </header>
    <header>
      <identifier>oai:zenodo.org:238517</identifier>
      <datestamp>2017-01-11T06:52:36Z</datestamp>
      <setSpec>user-biosyslit</setSpec>
    </header>
    <header>
      <identifier>oai:zenodo.org:237891</identifier>
      <datestamp>2017-01-10T22:06:41Z</datestamp>
      <setSpec>user-biosyslit</setSpec>
    </header>
    <header>
      <identifier>oai:zenodo.org:277703</identifier>
      <datestamp>2017-02-08T21:40:08Z</datestamp>
      <setSpec>user-biosyslit</setSpec>
    </header>
    <header>
      <identifier>oai:zenodo.org:238615</identifier>
      <datestamp>2017-01-11T08:14:20Z</datestamp>
      <setSpec>user-biosyslit</setSpec>
    </header>
    <header>
      <identifier>oai:zenodo.org:277564</identifier>
      <datestamp>2017-02-08T21:23:23Z</datestamp>
      <setSpec>user-biosyslit</setSpec>
    </header>
    <header>
      <identifier>oai:zenodo.org:239127</identifier>
      <datestamp>2017-01-11T16:46:34Z</datestamp>
      <setSpec>user-biosyslit</setSpec>
    </header>
    <header>
      <identifier>oai:zenodo.org:278154</identifier>
      <datestamp>2017-02-08T22:34:42Z</datestamp>
      <setSpec>user-biosyslit</setSpec>
    </header>
    <header>
      <identifier>oai:zenodo.org:270990</identifier>
      <datestamp>2017-02-08T00:33:39Z</datestamp>
      <setSpec>user-biosyslit</setSpec>
    </header>
    <header>
      <identifier>oai:zenodo.org:278080</identifier>
      <datestamp>2017-02-08T22:23:46Z</datestamp>
      <setSpec>user-biosyslit</setSpec>
    </header>
    <header>
      <identifier>oai:zenodo.org:278674</identifier>
      <datestamp>2017-02-08T23:38:22Z</datestamp>
      <setSpec>user-biosyslit</setSpec>
    </header>
    <header>
      <identifier>oai:zenodo.org:278233</identifier>
      <datestamp>2017-02-08T22:42:08Z</datestamp>
      <setSpec>user-biosyslit</setSpec>
    </header>
    <header>
      <identifier>oai:zenodo.org:272016</identifier>
      <datestamp>2017-02-08T03:20:20Z</datestamp>
      <setSpec>user-biosyslit</setSpec>
    </header>
    <header>
      <identifier>oai:zenodo.org:278214</identifier>
      <datestamp>2017-02-08T22:40:21Z</datestamp>
      <setSpec>user-biosyslit</setSpec>
    </header>
    <header>
      <identifier>oai:zenodo.org:240818</identifier>
      <datestamp>2017-01-12T14:19:27Z</datestamp>
      <setSpec>user-biosyslit</setSpec>
    </header>
    <header>
      <identifier>oai:zenodo.org:278189</identifier>
      <datestamp>2017-02-08T22:37:31Z</datestamp>
      <setSpec>user-biosyslit</setSpec>
    </header>
    <header>
      <identifier>oai:zenodo.org:278403</identifier>
      <datestamp>2017-02-08T23:05:47Z</datestamp>
      <setSpec>user-biosyslit</setSpec>
    </header>
    <header>
      <identifier>oai:zenodo.org:278607</identifier>
      <datestamp>2017-02-08T23:30:03Z</datestamp>
      <setSpec>user-biosyslit</setSpec>
    </header>
    <header>
      <identifier>oai:zenodo.org:240618</identifier>
      <datestamp>2017-01-12T10:56:32Z</datestamp>
      <setSpec>user-biosyslit</setSpec>
    </header>
    <header>
      <identifier>oai:zenodo.org:278406</identifier>
      <datestamp>2017-02-08T23:05:54Z</datestamp>
      <setSpec>user-biosyslit</setSpec>
    </header>
    <header>
      <identifier>oai:zenodo.org:241581</identifier>
      <datestamp>2017-01-13T03:32:43Z</datestamp>
      <setSpec>user-biosyslit</setSpec>
    </header>
    <resumptionToken expirationDate="2017-08-31T14:37:21Z" cursor="2900" completeListSize="142507">.eJwVzdFOgzAYQOF36TUxbWGycrcFJDP-EFYKgxuDgDApiFADdNm7O69P8p0bmuu6Qg5-YuaOMWbtrL1FzWfGDDSX07eU79dHRuUlkeUgReEnv-c-wRlt7MCdV3AzEsRChz3R_CWiF7JfxRVvUSxUps9rYp4Wjj0bdLSAbmjYV2boy_zDH7kYjpLTagq9aOPkyHOztCE-0IdH4GtUJW5FINknJCcFnUfeUsBlUm3gqWOoAYMLVhCPQ6XbMU3XHyFfl1yoodCtB52KxP9LH2xkoLFoauSYxEDdUkzNjJzb_f4HhptSIw.DImwKQ.Bur_uaLpAVB3R4yGPHhyxFP9OIc</resumptionToken>
  </ListIdentifiers>
</OAI-PMH>
