<?xml version='1.0' encoding='UTF-8'?>
<?xml-stylesheet type="text/xsl" href="/static/xsl/oai2.v1.0.xsl"?>
<OAI-PMH xmlns="http://www.openarchives.org/OAI/2.0/" xmlns:xsi="http://www.w3.org/2001/XMLSchema-instance" xsi:schemaLocation="http://www.openarchives.org/OAI/2.0/ http://www.openarchives.org/OAI/2.0/OAI-PMH.xsd">
  <responseDate>2017-08-31T15:41:47Z</responseDate>
  <request verb="ListIdentifiers" resumptionToken=".eJyNyj0LgkAYAOD_8s4S95F5CS1iiYOKXYq6hJ0i5lnhFelF_z2X5pqf5wWqriuw0cJkDK3Y0iKULqm5pgYoMVylPLYzg8hSKS4yKb30se9TlJPGCl01Bm5OQ92hqMea72KSYTYmLZriQ3LP9X5Mqf_kaGsFOp7Csz-_ikaeLE7ejScXR3JSDdE2njh2eEHF9-E_n_75XLUBA25lU4ONCTage5ZDo8B-vd8fo19RPQ.DIm_uw.98hCMWpMUnZXDdIxMK9gJBoys00">https://zenodo.org/oai2d</request>
  <ListIdentifiers>
    <header>
      <identifier>oai:zenodo.org:257322</identifier>
      <datestamp>2017-01-23T05:42:57Z</datestamp>
      <setSpec>user-biosyslit</setSpec>
    </header>
    <header>
      <identifier>oai:zenodo.org:257131</identifier>
      <datestamp>2017-01-23T02:34:31Z</datestamp>
      <setSpec>user-biosyslit</setSpec>
    </header>
    <header>
      <identifier>oai:zenodo.org:257064</identifier>
      <datestamp>2017-01-23T00:41:28Z</datestamp>
      <setSpec>user-biosyslit</setSpec>
    </header>
    <header>
      <identifier>oai:zenodo.org:257679</identifier>
      <datestamp>2017-01-23T12:18:16Z</datestamp>
      <setSpec>user-biosyslit</setSpec>
    </header>
    <header>
      <identifier>oai:zenodo.org:257369</identifier>
      <datestamp>2017-01-23T06:05:23Z</datestamp>
      <setSpec>user-biosyslit</setSpec>
    </header>
    <header>
      <identifier>oai:zenodo.org:273357</identifier>
      <datestamp>2017-02-08T09:05:35Z</datestamp>
      <setSpec>user-biosyslit</setSpec>
    </header>
    <header>
      <identifier>oai:zenodo.org:258845</identifier>
      <datestamp>2017-01-24T05:41:25Z</datestamp>
      <setSpec>user-biosyslit</setSpec>
    </header>
    <header>
      <identifier>oai:zenodo.org:257159</identifier>
      <datestamp>2017-01-23T03:01:57Z</datestamp>
      <setSpec>user-biosyslit</setSpec>
    </header>
    <header>
      <identifier>oai:zenodo.org:257376</identifier>
      <datestamp>2017-01-23T06:13:28Z</datestamp>
      <setSpec>user-biosyslit</setSpec>
    </header>
    <header>
      <identifier>oai:zenodo.org:258073</identifier>
      <datestamp>2017-01-23T15:43:44Z</datestamp>
      <setSpec>user-biosyslit</setSpec>
    </header>
    <header>
      <identifier>oai:zenodo.org:257826</identifier>
      <datestamp>2017-01-23T13:31:07Z</datestamp>
      <setSpec>user-biosyslit</setSpec>
    </header>
    <header>
      <identifier>oai:zenodo.org:257412</identifier>
      <datestamp>2017-01-23T06:36:42Z</datestamp>
      <setSpec>user-biosyslit</setSpec>
    </header>
    <header>
      <identifier>oai:zenodo.org:257828</identifier>
      <datestamp>2017-01-23T13:31:15Z</datestamp>
      <setSpec>user-biosyslit</setSpec>
    </header>
    <header>
      <identifier>oai:zenodo.org:257805</identifier>
      <datestamp>2017-01-23T13:30:12Z</datestamp>
      <setSpec>user-biosyslit</setSpec>
    </header>
    <header>
      <identifier>oai:zenodo.org:258686</identifier>
      <datestamp>2017-01-24T03:04:30Z</datestamp>
      <setSpec>user-biosyslit</setSpec>
    </header>
    <header>
      <identifier>oai:zenodo.org:257416</identifier>
      <datestamp>2017-01-23T06:36:54Z</datestamp>
      <setSpec>user-biosyslit</setSpec>
    </header>
    <header>
      <identifier>oai:zenodo.org:257974</identifier>
      <datestamp>2017-01-23T15:04:38Z</datestamp>
      <setSpec>user-biosyslit</setSpec>
    </header>
    <header>
      <identifier>oai:zenodo.org:257542</identifier>
      <datestamp>2017-01-23T09:26:22Z</datestamp>
      <setSpec>user-biosyslit</setSpec>
    </header>
    <header>
      <identifier>oai:zenodo.org:258044</identifier>
      <datestamp>2017-01-23T15:37:21Z</datestamp>
      <setSpec>user-biosyslit</setSpec>
    </header>
    <header>
      <identifier>oai:zenodo.org:258459</identifier>
      <datestamp>2017-01-23T23:19:50Z</datestamp>
      <setSpec>user-biosyslit</setSpec>
    </header>
    <header>
      <identifier>oai:zenodo.org:257823</identifier>
      <datestamp>2017-01-23T13:30:57Z</datestamp>
      <setSpec>user-biosyslit</setSpec>
    </header>
    <header>
      <identifier>oai:zenodo.org:258319</identifier>
      <datestamp>2017-01-23T20:43:58Z</datestamp>
      <setSpec>user-biosyslit</setSpec>
    </header>
    <header>
      <identifier>oai:zenodo.org:258407</identifier>
      <datestamp>2017-01-23T22:05:10Z</datestamp>
      <setSpec>user-biosyslit</setSpec>
    </header>
    <header>
      <identifier>oai:zenodo.org:258122</identifier>
      <datestamp>2017-01-23T16:45:52Z</datestamp>
      <setSpec>user-biosyslit</setSpec>
    </header>
    <header>
      <identifier>oai:zenodo.org:258091</identifier>
      <datestamp>2017-01-23T16:01:44Z</datestamp>
      <setSpec>user-biosyslit</setSpec>
    </header>
    <header>
      <identifier>oai:zenodo.org:258790</identifier>
      <datestamp>2017-01-24T04:55:08Z</datestamp>
      <setSpec>user-biosyslit</setSpec>
    </header>
    <header>
      <identifier>oai:zenodo.org:258235</identifier>
      <datestamp>2017-01-23T18:52:18Z</datestamp>
      <setSpec>user-biosyslit</setSpec>
    </header>
    <header>
      <identifier>oai:zenodo.org:258653</identifier>
      <datestamp>2017-01-24T02:28:23Z</datestamp>
      <setSpec>user-biosyslit</setSpec>
    </header>
    <header>
      <identifier>oai:zenodo.org:258802</identifier>
      <datestamp>2017-01-24T04:55:41Z</datestamp>
      <setSpec>user-biosyslit</setSpec>
    </header>
    <header>
      <identifier>oai:zenodo.org:260614</identifier>
      <datestamp>2017-01-27T22:33:43Z</datestamp>
      <setSpec>user-biosyslit</setSpec>
    </header>
    <header>
      <identifier>oai:zenodo.org:258386</identifier>
      <datestamp>2017-01-23T21:51:26Z</datestamp>
      <setSpec>user-biosyslit</setSpec>
    </header>
    <header>
      <identifier>oai:zenodo.org:258877</identifier>
      <datestamp>2017-01-24T05:43:24Z</datestamp>
      <setSpec>user-biosyslit</setSpec>
    </header>
    <header>
      <identifier>oai:zenodo.org:258978</identifier>
      <datestamp>2017-01-24T07:10:51Z</datestamp>
      <setSpec>user-biosyslit</setSpec>
    </header>
    <header>
      <identifier>oai:zenodo.org:258665</identifier>
      <datestamp>2017-01-24T02:51:30Z</datestamp>
      <setSpec>user-biosyslit</setSpec>
    </header>
    <header>
      <identifier>oai:zenodo.org:258810</identifier>
      <datestamp>2017-01-24T04:56:05Z</datestamp>
      <setSpec>user-biosyslit</setSpec>
    </header>
    <header>
      <identifier>oai:zenodo.org:259004</identifier>
      <datestamp>2017-01-24T07:28:51Z</datestamp>
      <setSpec>user-biosyslit</setSpec>
    </header>
    <header>
      <identifier>oai:zenodo.org:254455</identifier>
      <datestamp>2017-01-20T18:58:29Z</datestamp>
      <setSpec>user-biosyslit</setSpec>
    </header>
    <header>
      <identifier>oai:zenodo.org:254499</identifier>
      <datestamp>2017-01-20T19:34:35Z</datestamp>
      <setSpec>user-biosyslit</setSpec>
    </header>
    <header>
      <identifier>oai:zenodo.org:254041</identifier>
      <datestamp>2017-01-20T13:40:16Z</datestamp>
      <setSpec>user-biosyslit</setSpec>
    </header>
    <header>
      <identifier>oai:zenodo.org:254440</identifier>
      <datestamp>2017-01-20T18:49:33Z</datestamp>
      <setSpec>user-biosyslit</setSpec>
    </header>
    <header>
      <identifier>oai:zenodo.org:254690</identifier>
      <datestamp>2017-01-21T01:40:19Z</datestamp>
      <setSpec>user-biosyslit</setSpec>
    </header>
    <header>
      <identifier>oai:zenodo.org:254114</identifier>
      <datestamp>2017-01-23T04:15:02Z</datestamp>
      <setSpec>openaire</setSpec>
      <setSpec>user-biosyslit</setSpec>
    </header>
    <header>
      <identifier>oai:zenodo.org:255637</identifier>
      <datestamp>2017-01-21T17:43:50Z</datestamp>
      <setSpec>user-biosyslit</setSpec>
    </header>
    <header>
      <identifier>oai:zenodo.org:254454</identifier>
      <datestamp>2017-01-20T18:58:25Z</datestamp>
      <setSpec>user-biosyslit</setSpec>
    </header>
    <header>
      <identifier>oai:zenodo.org:255024</identifier>
      <datestamp>2017-01-21T06:44:46Z</datestamp>
      <setSpec>user-biosyslit</setSpec>
    </header>
    <header>
      <identifier>oai:zenodo.org:255081</identifier>
      <datestamp>2017-01-21T07:42:02Z</datestamp>
      <setSpec>user-biosyslit</setSpec>
    </header>
    <header>
      <identifier>oai:zenodo.org:254845</identifier>
      <datestamp>2017-01-21T03:59:30Z</datestamp>
      <setSpec>user-biosyslit</setSpec>
    </header>
    <header>
      <identifier>oai:zenodo.org:255694</identifier>
      <datestamp>2017-01-21T18:35:25Z</datestamp>
      <setSpec>user-biosyslit</setSpec>
    </header>
    <header>
      <identifier>oai:zenodo.org:255728</identifier>
      <datestamp>2017-01-21T19:30:29Z</datestamp>
      <setSpec>user-biosyslit</setSpec>
    </header>
    <header>
      <identifier>oai:zenodo.org:254698</identifier>
      <datestamp>2017-01-21T01:46:24Z</datestamp>
      <setSpec>user-biosyslit</setSpec>
    </header>
    <header>
      <identifier>oai:zenodo.org:255260</identifier>
      <datestamp>2017-01-21T10:34:22Z</datestamp>
      <setSpec>user-biosyslit</setSpec>
    </header>
    <header>
      <identifier>oai:zenodo.org:255050</identifier>
      <datestamp>2017-01-21T07:10:47Z</datestamp>
      <setSpec>user-biosyslit</setSpec>
    </header>
    <header>
      <identifier>oai:zenodo.org:255934</identifier>
      <datestamp>2017-01-22T00:16:24Z</datestamp>
      <setSpec>user-biosyslit</setSpec>
    </header>
    <header>
      <identifier>oai:zenodo.org:255235</identifier>
      <datestamp>2017-01-21T10:00:50Z</datestamp>
      <setSpec>user-biosyslit</setSpec>
    </header>
    <header>
      <identifier>oai:zenodo.org:254969</identifier>
      <datestamp>2017-01-21T05:54:42Z</datestamp>
      <setSpec>user-biosyslit</setSpec>
    </header>
    <header>
      <identifier>oai:zenodo.org:255600</identifier>
      <datestamp>2017-01-21T15:59:15Z</datestamp>
      <setSpec>user-biosyslit</setSpec>
    </header>
    <header>
      <identifier>oai:zenodo.org:255488</identifier>
      <datestamp>2017-01-21T14:12:19Z</datestamp>
      <setSpec>user-biosyslit</setSpec>
    </header>
    <header>
      <identifier>oai:zenodo.org:255046</identifier>
      <datestamp>2017-01-21T07:00:59Z</datestamp>
      <setSpec>user-biosyslit</setSpec>
    </header>
    <header>
      <identifier>oai:zenodo.org:255072</identifier>
      <datestamp>2017-01-21T07:27:26Z</datestamp>
      <setSpec>user-biosyslit</setSpec>
    </header>
    <header>
      <identifier>oai:zenodo.org:255153</identifier>
      <datestamp>2017-01-21T08:34:07Z</datestamp>
      <setSpec>user-biosyslit</setSpec>
    </header>
    <header>
      <identifier>oai:zenodo.org:255236</identifier>
      <datestamp>2017-01-21T10:00:53Z</datestamp>
      <setSpec>user-biosyslit</setSpec>
    </header>
    <header>
      <identifier>oai:zenodo.org:255848</identifier>
      <datestamp>2017-01-21T22:57:21Z</datestamp>
      <setSpec>user-biosyslit</setSpec>
    </header>
    <header>
      <identifier>oai:zenodo.org:255374</identifier>
      <datestamp>2017-01-21T12:40:11Z</datestamp>
      <setSpec>user-biosyslit</setSpec>
    </header>
    <header>
      <identifier>oai:zenodo.org:256989</identifier>
      <datestamp>2017-01-22T23:39:55Z</datestamp>
      <setSpec>user-biosyslit</setSpec>
    </header>
    <header>
      <identifier>oai:zenodo.org:256423</identifier>
      <datestamp>2017-01-22T14:22:58Z</datestamp>
      <setSpec>user-biosyslit</setSpec>
    </header>
    <header>
      <identifier>oai:zenodo.org:256578</identifier>
      <datestamp>2017-01-22T17:57:35Z</datestamp>
      <setSpec>user-biosyslit</setSpec>
    </header>
    <header>
      <identifier>oai:zenodo.org:255703</identifier>
      <datestamp>2017-01-21T18:47:51Z</datestamp>
      <setSpec>user-biosyslit</setSpec>
    </header>
    <header>
      <identifier>oai:zenodo.org:256062</identifier>
      <datestamp>2017-01-22T03:07:53Z</datestamp>
      <setSpec>user-biosyslit</setSpec>
    </header>
    <header>
      <identifier>oai:zenodo.org:255968</identifier>
      <datestamp>2017-01-22T00:51:05Z</datestamp>
      <setSpec>user-biosyslit</setSpec>
    </header>
    <header>
      <identifier>oai:zenodo.org:256100</identifier>
      <datestamp>2017-01-22T04:02:49Z</datestamp>
      <setSpec>user-biosyslit</setSpec>
    </header>
    <header>
      <identifier>oai:zenodo.org:256522</identifier>
      <datestamp>2017-01-22T16:42:23Z</datestamp>
      <setSpec>user-biosyslit</setSpec>
    </header>
    <header>
      <identifier>oai:zenodo.org:256382</identifier>
      <datestamp>2017-01-22T13:51:20Z</datestamp>
      <setSpec>user-biosyslit</setSpec>
    </header>
    <header>
      <identifier>oai:zenodo.org:256685</identifier>
      <datestamp>2017-01-22T19:17:31Z</datestamp>
      <setSpec>user-biosyslit</setSpec>
    </header>
    <header>
      <identifier>oai:zenodo.org:257277</identifier>
      <datestamp>2017-01-23T04:30:59Z</datestamp>
      <setSpec>user-biosyslit</setSpec>
    </header>
    <header>
      <identifier>oai:zenodo.org:256678</identifier>
      <datestamp>2017-01-22T19:17:13Z</datestamp>
      <setSpec>user-biosyslit</setSpec>
    </header>
    <header>
      <identifier>oai:zenodo.org:257196</identifier>
      <datestamp>2017-01-23T03:41:30Z</datestamp>
      <setSpec>user-biosyslit</setSpec>
    </header>
    <header>
      <identifier>oai:zenodo.org:257257</identifier>
      <datestamp>2017-01-23T04:19:47Z</datestamp>
      <setSpec>user-biosyslit</setSpec>
    </header>
    <header>
      <identifier>oai:zenodo.org:256649</identifier>
      <datestamp>2017-01-22T18:53:34Z</datestamp>
      <setSpec>user-biosyslit</setSpec>
    </header>
    <header>
      <identifier>oai:zenodo.org:256965</identifier>
      <datestamp>2017-01-22T23:38:42Z</datestamp>
      <setSpec>user-biosyslit</setSpec>
    </header>
    <header>
      <identifier>oai:zenodo.org:258002</identifier>
      <datestamp>2017-01-23T15:12:22Z</datestamp>
      <setSpec>user-biosyslit</setSpec>
    </header>
    <header>
      <identifier>oai:zenodo.org:257053</identifier>
      <datestamp>2017-01-23T00:42:47Z</datestamp>
      <setSpec>user-biosyslit</setSpec>
    </header>
    <header>
      <identifier>oai:zenodo.org:257737</identifier>
      <datestamp>2017-01-23T12:56:15Z</datestamp>
      <setSpec>user-biosyslit</setSpec>
    </header>
    <header>
      <identifier>oai:zenodo.org:256690</identifier>
      <datestamp>2017-01-22T19:23:47Z</datestamp>
      <setSpec>user-biosyslit</setSpec>
    </header>
    <header>
      <identifier>oai:zenodo.org:257339</identifier>
      <datestamp>2017-01-23T05:41:41Z</datestamp>
      <setSpec>user-biosyslit</setSpec>
    </header>
    <header>
      <identifier>oai:zenodo.org:257357</identifier>
      <datestamp>2017-01-23T05:42:33Z</datestamp>
      <setSpec>user-biosyslit</setSpec>
    </header>
    <header>
      <identifier>oai:zenodo.org:257528</identifier>
      <datestamp>2017-01-23T08:48:30Z</datestamp>
      <setSpec>user-biosyslit</setSpec>
    </header>
    <header>
      <identifier>oai:zenodo.org:257201</identifier>
      <datestamp>2017-01-23T03:40:14Z</datestamp>
      <setSpec>user-biosyslit</setSpec>
    </header>
    <header>
      <identifier>oai:zenodo.org:257417</identifier>
      <datestamp>2017-01-23T06:36:57Z</datestamp>
      <setSpec>user-biosyslit</setSpec>
    </header>
    <header>
      <identifier>oai:zenodo.org:257255</identifier>
      <datestamp>2017-01-23T04:19:40Z</datestamp>
      <setSpec>user-biosyslit</setSpec>
    </header>
    <header>
      <identifier>oai:zenodo.org:258708</identifier>
      <datestamp>2017-01-24T03:15:13Z</datestamp>
      <setSpec>user-biosyslit</setSpec>
    </header>
    <header>
      <identifier>oai:zenodo.org:257292</identifier>
      <datestamp>2017-01-23T04:54:44Z</datestamp>
      <setSpec>user-biosyslit</setSpec>
    </header>
    <header>
      <identifier>oai:zenodo.org:257677</identifier>
      <datestamp>2017-01-23T12:18:11Z</datestamp>
      <setSpec>user-biosyslit</setSpec>
    </header>
    <header>
      <identifier>oai:zenodo.org:257509</identifier>
      <datestamp>2017-01-23T08:20:12Z</datestamp>
      <setSpec>user-biosyslit</setSpec>
    </header>
    <header>
      <identifier>oai:zenodo.org:258498</identifier>
      <datestamp>2017-01-23T23:48:57Z</datestamp>
      <setSpec>user-biosyslit</setSpec>
    </header>
    <header>
      <identifier>oai:zenodo.org:257719</identifier>
      <datestamp>2017-01-23T12:38:57Z</datestamp>
      <setSpec>user-biosyslit</setSpec>
    </header>
    <header>
      <identifier>oai:zenodo.org:258856</identifier>
      <datestamp>2017-01-24T05:41:51Z</datestamp>
      <setSpec>user-biosyslit</setSpec>
    </header>
    <header>
      <identifier>oai:zenodo.org:258933</identifier>
      <datestamp>2017-01-24T06:28:07Z</datestamp>
      <setSpec>user-biosyslit</setSpec>
    </header>
    <header>
      <identifier>oai:zenodo.org:258254</identifier>
      <datestamp>2017-01-23T18:59:58Z</datestamp>
      <setSpec>user-biosyslit</setSpec>
    </header>
    <header>
      <identifier>oai:zenodo.org:258381</identifier>
      <datestamp>2017-01-23T21:47:49Z</datestamp>
      <setSpec>user-biosyslit</setSpec>
    </header>
    <header>
      <identifier>oai:zenodo.org:258097</identifier>
      <datestamp>2017-01-23T16:02:11Z</datestamp>
      <setSpec>user-biosyslit</setSpec>
    </header>
    <resumptionToken expirationDate="2017-08-31T15:43:47Z" cursor="12000" completeListSize="77796">.eJyNysEKgjAYAOB3-c8S26-iCV3CEg8quibZJUxFzFXiCnXhu-elc52_7w2yqkpwyAotY02QUCQGXaNtmhrIon8IcW4Wh-KYiuIueO6lr-SWkgxrK3TlGLiZHqqWRDeq2D7GI7VH3pApPvBnppIx1f2BkZ0VqHgKr_7ySj3yxOnidYzft4Jh2Ue7eGJ0y0568X30z6d-PlduQIMurytwKKIG7ZD3tQTnPc8fxFdRXQ.DIm_uw.3Fx49DyMV7EGOPbkO8Ut8qXjuEY</resumptionToken>
  </ListIdentifiers>
</OAI-PMH>
