<?xml version='1.0' encoding='UTF-8'?>
<?xml-stylesheet type="text/xsl" href="/static/xsl/oai2.v1.0.xsl"?>
<OAI-PMH xmlns="http://www.openarchives.org/OAI/2.0/" xmlns:xsi="http://www.w3.org/2001/XMLSchema-instance" xsi:schemaLocation="http://www.openarchives.org/OAI/2.0/ http://www.openarchives.org/OAI/2.0/OAI-PMH.xsd">
  <responseDate>2017-08-31T15:44:42Z</responseDate>
  <request verb="ListIdentifiers" resumptionToken=".eJyNykELgjAYgOH_8p0lNpe6hC5iiYcUXUp2CVMRc5m4Qp3437ND5-I9vs8EoihyMNEK0bVGdV2ln7C-IQqIrHtwfqmWD9kp5lnDo9SJX-E9RolaGp4thoOdEE_WyL9jyfaBesJ0iCo0BsfomchwiInbM7QzDjIYvZu7uJz4Dj9fnZZFjcWZmnf-LhgZttiZZF-H_3Typ7PFFhRo07IAUyNUgbpPu1KAOc3zG9weUYE.DInAag.xvxs_Xd6KwopQLp8ao1-HYlYMxI">https://zenodo.org/oai2d</request>
  <ListIdentifiers>
    <header>
      <identifier>oai:zenodo.org:261430</identifier>
      <datestamp>2017-01-28T08:45:41Z</datestamp>
      <setSpec>user-biosyslit</setSpec>
    </header>
    <header>
      <identifier>oai:zenodo.org:262281</identifier>
      <datestamp>2017-01-29T01:56:10Z</datestamp>
      <setSpec>user-biosyslit</setSpec>
    </header>
    <header>
      <identifier>oai:zenodo.org:261751</identifier>
      <datestamp>2017-01-28T14:00:54Z</datestamp>
      <setSpec>user-biosyslit</setSpec>
    </header>
    <header>
      <identifier>oai:zenodo.org:261691</identifier>
      <datestamp>2017-01-28T13:10:48Z</datestamp>
      <setSpec>user-biosyslit</setSpec>
    </header>
    <header>
      <identifier>oai:zenodo.org:261396</identifier>
      <datestamp>2017-01-28T08:44:18Z</datestamp>
      <setSpec>user-biosyslit</setSpec>
    </header>
    <header>
      <identifier>oai:zenodo.org:261105</identifier>
      <datestamp>2017-01-28T05:13:27Z</datestamp>
      <setSpec>user-biosyslit</setSpec>
    </header>
    <header>
      <identifier>oai:zenodo.org:261384</identifier>
      <datestamp>2017-01-28T08:29:38Z</datestamp>
      <setSpec>user-biosyslit</setSpec>
    </header>
    <header>
      <identifier>oai:zenodo.org:261336</identifier>
      <datestamp>2017-01-28T08:01:52Z</datestamp>
      <setSpec>user-biosyslit</setSpec>
    </header>
    <header>
      <identifier>oai:zenodo.org:273505</identifier>
      <datestamp>2017-02-08T09:32:28Z</datestamp>
      <setSpec>user-biosyslit</setSpec>
    </header>
    <header>
      <identifier>oai:zenodo.org:262057</identifier>
      <datestamp>2017-01-28T19:52:37Z</datestamp>
      <setSpec>user-biosyslit</setSpec>
    </header>
    <header>
      <identifier>oai:zenodo.org:273641</identifier>
      <datestamp>2017-02-08T10:07:37Z</datestamp>
      <setSpec>user-biosyslit</setSpec>
    </header>
    <header>
      <identifier>oai:zenodo.org:261812</identifier>
      <datestamp>2017-01-28T15:22:11Z</datestamp>
      <setSpec>user-biosyslit</setSpec>
    </header>
    <header>
      <identifier>oai:zenodo.org:273486</identifier>
      <datestamp>2017-02-08T09:29:43Z</datestamp>
      <setSpec>user-biosyslit</setSpec>
    </header>
    <header>
      <identifier>oai:zenodo.org:273514</identifier>
      <datestamp>2017-02-08T09:33:27Z</datestamp>
      <setSpec>user-biosyslit</setSpec>
    </header>
    <header>
      <identifier>oai:zenodo.org:262487</identifier>
      <datestamp>2017-01-29T04:42:10Z</datestamp>
      <setSpec>user-biosyslit</setSpec>
    </header>
    <header>
      <identifier>oai:zenodo.org:262247</identifier>
      <datestamp>2017-01-29T00:29:30Z</datestamp>
      <setSpec>user-biosyslit</setSpec>
    </header>
    <header>
      <identifier>oai:zenodo.org:274367</identifier>
      <datestamp>2017-02-08T13:02:11Z</datestamp>
      <setSpec>user-biosyslit</setSpec>
    </header>
    <header>
      <identifier>oai:zenodo.org:273503</identifier>
      <datestamp>2017-02-08T09:32:36Z</datestamp>
      <setSpec>user-biosyslit</setSpec>
    </header>
    <header>
      <identifier>oai:zenodo.org:273720</identifier>
      <datestamp>2017-02-08T10:25:11Z</datestamp>
      <setSpec>user-biosyslit</setSpec>
    </header>
    <header>
      <identifier>oai:zenodo.org:273545</identifier>
      <datestamp>2017-02-08T09:40:08Z</datestamp>
      <setSpec>user-biosyslit</setSpec>
    </header>
    <header>
      <identifier>oai:zenodo.org:273856</identifier>
      <datestamp>2017-02-08T11:01:01Z</datestamp>
      <setSpec>user-biosyslit</setSpec>
    </header>
    <header>
      <identifier>oai:zenodo.org:262241</identifier>
      <datestamp>2017-01-29T00:29:06Z</datestamp>
      <setSpec>user-biosyslit</setSpec>
    </header>
    <header>
      <identifier>oai:zenodo.org:262353</identifier>
      <datestamp>2017-01-29T02:23:35Z</datestamp>
      <setSpec>user-biosyslit</setSpec>
    </header>
    <header>
      <identifier>oai:zenodo.org:273760</identifier>
      <datestamp>2017-02-08T10:40:34Z</datestamp>
      <setSpec>user-biosyslit</setSpec>
    </header>
    <header>
      <identifier>oai:zenodo.org:276076</identifier>
      <datestamp>2017-02-08T18:03:13Z</datestamp>
      <setSpec>user-biosyslit</setSpec>
    </header>
    <header>
      <identifier>oai:zenodo.org:274000</identifier>
      <datestamp>2017-02-08T11:46:04Z</datestamp>
      <setSpec>user-biosyslit</setSpec>
    </header>
    <header>
      <identifier>oai:zenodo.org:274523</identifier>
      <datestamp>2017-02-08T13:35:04Z</datestamp>
      <setSpec>user-biosyslit</setSpec>
    </header>
    <header>
      <identifier>oai:zenodo.org:262909</identifier>
      <datestamp>2017-01-29T11:09:09Z</datestamp>
      <setSpec>user-biosyslit</setSpec>
    </header>
    <header>
      <identifier>oai:zenodo.org:262750</identifier>
      <datestamp>2017-01-29T07:53:56Z</datestamp>
      <setSpec>user-biosyslit</setSpec>
    </header>
    <header>
      <identifier>oai:zenodo.org:262687</identifier>
      <datestamp>2017-01-29T07:08:44Z</datestamp>
      <setSpec>user-biosyslit</setSpec>
    </header>
    <header>
      <identifier>oai:zenodo.org:262715</identifier>
      <datestamp>2017-01-29T07:36:58Z</datestamp>
      <setSpec>user-biosyslit</setSpec>
    </header>
    <header>
      <identifier>oai:zenodo.org:262689</identifier>
      <datestamp>2017-01-29T07:11:08Z</datestamp>
      <setSpec>user-biosyslit</setSpec>
    </header>
    <header>
      <identifier>oai:zenodo.org:262854</identifier>
      <datestamp>2017-01-29T10:07:48Z</datestamp>
      <setSpec>user-biosyslit</setSpec>
    </header>
    <header>
      <identifier>oai:zenodo.org:263024</identifier>
      <datestamp>2017-01-29T15:04:13Z</datestamp>
      <setSpec>user-biosyslit</setSpec>
    </header>
    <header>
      <identifier>oai:zenodo.org:262543</identifier>
      <datestamp>2017-01-29T05:26:26Z</datestamp>
      <setSpec>user-biosyslit</setSpec>
    </header>
    <header>
      <identifier>oai:zenodo.org:262712</identifier>
      <datestamp>2017-01-29T07:31:38Z</datestamp>
      <setSpec>user-biosyslit</setSpec>
    </header>
    <header>
      <identifier>oai:zenodo.org:263711</identifier>
      <datestamp>2017-01-30T07:02:44Z</datestamp>
      <setSpec>user-biosyslit</setSpec>
    </header>
    <header>
      <identifier>oai:zenodo.org:262744</identifier>
      <datestamp>2017-01-29T07:53:40Z</datestamp>
      <setSpec>user-biosyslit</setSpec>
    </header>
    <header>
      <identifier>oai:zenodo.org:263335</identifier>
      <datestamp>2017-01-29T22:25:56Z</datestamp>
      <setSpec>user-biosyslit</setSpec>
    </header>
    <header>
      <identifier>oai:zenodo.org:264372</identifier>
      <datestamp>2017-01-30T20:23:49Z</datestamp>
      <setSpec>user-biosyslit</setSpec>
    </header>
    <header>
      <identifier>oai:zenodo.org:262828</identifier>
      <datestamp>2017-01-29T09:55:59Z</datestamp>
      <setSpec>user-biosyslit</setSpec>
    </header>
    <header>
      <identifier>oai:zenodo.org:263154</identifier>
      <datestamp>2017-01-29T17:57:22Z</datestamp>
      <setSpec>user-biosyslit</setSpec>
    </header>
    <header>
      <identifier>oai:zenodo.org:263427</identifier>
      <datestamp>2017-01-29T22:32:22Z</datestamp>
      <setSpec>user-biosyslit</setSpec>
    </header>
    <header>
      <identifier>oai:zenodo.org:263204</identifier>
      <datestamp>2017-01-29T18:42:33Z</datestamp>
      <setSpec>user-biosyslit</setSpec>
    </header>
    <header>
      <identifier>oai:zenodo.org:263475</identifier>
      <datestamp>2017-01-29T22:35:16Z</datestamp>
      <setSpec>user-biosyslit</setSpec>
    </header>
    <header>
      <identifier>oai:zenodo.org:263307</identifier>
      <datestamp>2017-01-29T22:23:29Z</datestamp>
      <setSpec>user-biosyslit</setSpec>
    </header>
    <header>
      <identifier>oai:zenodo.org:263226</identifier>
      <datestamp>2017-01-29T19:12:19Z</datestamp>
      <setSpec>user-biosyslit</setSpec>
    </header>
    <header>
      <identifier>oai:zenodo.org:274070</identifier>
      <datestamp>2017-02-08T12:02:14Z</datestamp>
      <setSpec>user-biosyslit</setSpec>
    </header>
    <header>
      <identifier>oai:zenodo.org:264554</identifier>
      <datestamp>2017-01-30T23:20:44Z</datestamp>
      <setSpec>user-biosyslit</setSpec>
    </header>
    <header>
      <identifier>oai:zenodo.org:259136</identifier>
      <datestamp>2017-01-24T08:03:50Z</datestamp>
      <setSpec>user-biosyslit</setSpec>
    </header>
    <header>
      <identifier>oai:zenodo.org:259891</identifier>
      <datestamp>2017-01-25T17:11:34Z</datestamp>
      <setSpec>user-biosyslit</setSpec>
    </header>
    <header>
      <identifier>oai:zenodo.org:259854</identifier>
      <datestamp>2017-01-25T17:00:13Z</datestamp>
      <setSpec>user-biosyslit</setSpec>
    </header>
    <header>
      <identifier>oai:zenodo.org:259781</identifier>
      <datestamp>2017-01-25T16:05:31Z</datestamp>
      <setSpec>user-biosyslit</setSpec>
    </header>
    <header>
      <identifier>oai:zenodo.org:261381</identifier>
      <datestamp>2017-01-28T08:29:29Z</datestamp>
      <setSpec>user-biosyslit</setSpec>
    </header>
    <header>
      <identifier>oai:zenodo.org:260711</identifier>
      <datestamp>2017-01-27T23:59:35Z</datestamp>
      <setSpec>user-biosyslit</setSpec>
    </header>
    <header>
      <identifier>oai:zenodo.org:273844</identifier>
      <datestamp>2017-02-08T10:59:46Z</datestamp>
      <setSpec>user-biosyslit</setSpec>
    </header>
    <header>
      <identifier>oai:zenodo.org:261103</identifier>
      <datestamp>2017-01-28T05:13:22Z</datestamp>
      <setSpec>user-biosyslit</setSpec>
    </header>
    <header>
      <identifier>oai:zenodo.org:260447</identifier>
      <datestamp>2017-01-27T20:45:43Z</datestamp>
      <setSpec>user-biosyslit</setSpec>
    </header>
    <header>
      <identifier>oai:zenodo.org:261100</identifier>
      <datestamp>2017-01-28T04:53:56Z</datestamp>
      <setSpec>user-biosyslit</setSpec>
    </header>
    <header>
      <identifier>oai:zenodo.org:261102</identifier>
      <datestamp>2017-01-28T05:14:11Z</datestamp>
      <setSpec>user-biosyslit</setSpec>
    </header>
    <header>
      <identifier>oai:zenodo.org:261631</identifier>
      <datestamp>2017-01-28T12:00:04Z</datestamp>
      <setSpec>user-biosyslit</setSpec>
    </header>
    <header>
      <identifier>oai:zenodo.org:261876</identifier>
      <datestamp>2017-01-28T16:20:52Z</datestamp>
      <setSpec>user-biosyslit</setSpec>
    </header>
    <header>
      <identifier>oai:zenodo.org:273680</identifier>
      <datestamp>2017-02-08T10:15:33Z</datestamp>
      <setSpec>user-biosyslit</setSpec>
    </header>
    <header>
      <identifier>oai:zenodo.org:273431</identifier>
      <datestamp>2017-02-08T09:21:09Z</datestamp>
      <setSpec>user-biosyslit</setSpec>
    </header>
    <header>
      <identifier>oai:zenodo.org:260915</identifier>
      <datestamp>2017-01-28T02:28:00Z</datestamp>
      <setSpec>user-biosyslit</setSpec>
    </header>
    <header>
      <identifier>oai:zenodo.org:260574</identifier>
      <datestamp>2017-01-27T22:07:08Z</datestamp>
      <setSpec>user-biosyslit</setSpec>
    </header>
    <header>
      <identifier>oai:zenodo.org:261192</identifier>
      <datestamp>2017-01-28T06:24:20Z</datestamp>
      <setSpec>user-biosyslit</setSpec>
    </header>
    <header>
      <identifier>oai:zenodo.org:261692</identifier>
      <datestamp>2017-01-28T13:10:52Z</datestamp>
      <setSpec>user-biosyslit</setSpec>
    </header>
    <header>
      <identifier>oai:zenodo.org:260472</identifier>
      <datestamp>2017-01-27T20:46:40Z</datestamp>
      <setSpec>user-biosyslit</setSpec>
    </header>
    <header>
      <identifier>oai:zenodo.org:260765</identifier>
      <datestamp>2017-01-28T00:52:04Z</datestamp>
      <setSpec>user-biosyslit</setSpec>
    </header>
    <header>
      <identifier>oai:zenodo.org:273905</identifier>
      <datestamp>2017-02-08T11:10:27Z</datestamp>
      <setSpec>user-biosyslit</setSpec>
    </header>
    <header>
      <identifier>oai:zenodo.org:261107</identifier>
      <datestamp>2017-01-28T05:13:33Z</datestamp>
      <setSpec>user-biosyslit</setSpec>
    </header>
    <header>
      <identifier>oai:zenodo.org:274265</identifier>
      <datestamp>2017-02-08T12:42:10Z</datestamp>
      <setSpec>user-biosyslit</setSpec>
    </header>
    <header>
      <identifier>oai:zenodo.org:260670</identifier>
      <datestamp>2017-01-27T23:20:01Z</datestamp>
      <setSpec>user-biosyslit</setSpec>
    </header>
    <header>
      <identifier>oai:zenodo.org:261143</identifier>
      <datestamp>2017-01-28T05:38:29Z</datestamp>
      <setSpec>user-biosyslit</setSpec>
    </header>
    <header>
      <identifier>oai:zenodo.org:260784</identifier>
      <datestamp>2017-01-28T00:52:53Z</datestamp>
      <setSpec>user-biosyslit</setSpec>
    </header>
    <header>
      <identifier>oai:zenodo.org:260757</identifier>
      <datestamp>2017-01-28T00:33:20Z</datestamp>
      <setSpec>user-biosyslit</setSpec>
    </header>
    <header>
      <identifier>oai:zenodo.org:260820</identifier>
      <datestamp>2017-01-28T01:12:29Z</datestamp>
      <setSpec>user-biosyslit</setSpec>
    </header>
    <header>
      <identifier>oai:zenodo.org:261524</identifier>
      <datestamp>2017-01-28T09:59:14Z</datestamp>
      <setSpec>user-biosyslit</setSpec>
    </header>
    <header>
      <identifier>oai:zenodo.org:273476</identifier>
      <datestamp>2017-02-08T09:26:55Z</datestamp>
      <setSpec>user-biosyslit</setSpec>
    </header>
    <header>
      <identifier>oai:zenodo.org:261080</identifier>
      <datestamp>2017-01-28T04:46:05Z</datestamp>
      <setSpec>user-biosyslit</setSpec>
    </header>
    <header>
      <identifier>oai:zenodo.org:261452</identifier>
      <datestamp>2017-01-28T08:46:38Z</datestamp>
      <setSpec>user-biosyslit</setSpec>
    </header>
    <header>
      <identifier>oai:zenodo.org:261999</identifier>
      <datestamp>2017-01-28T19:15:53Z</datestamp>
      <setSpec>user-biosyslit</setSpec>
    </header>
    <header>
      <identifier>oai:zenodo.org:273793</identifier>
      <datestamp>2017-02-08T10:47:11Z</datestamp>
      <setSpec>user-biosyslit</setSpec>
    </header>
    <header>
      <identifier>oai:zenodo.org:261410</identifier>
      <datestamp>2017-01-28T08:44:54Z</datestamp>
      <setSpec>user-biosyslit</setSpec>
    </header>
    <header>
      <identifier>oai:zenodo.org:262059</identifier>
      <datestamp>2017-01-28T19:52:44Z</datestamp>
      <setSpec>user-biosyslit</setSpec>
    </header>
    <header>
      <identifier>oai:zenodo.org:261550</identifier>
      <datestamp>2017-01-28T10:49:18Z</datestamp>
      <setSpec>user-biosyslit</setSpec>
    </header>
    <header>
      <identifier>oai:zenodo.org:262032</identifier>
      <datestamp>2017-01-28T19:34:11Z</datestamp>
      <setSpec>user-biosyslit</setSpec>
    </header>
    <header>
      <identifier>oai:zenodo.org:261930</identifier>
      <datestamp>2017-01-28T18:04:10Z</datestamp>
      <setSpec>user-biosyslit</setSpec>
    </header>
    <header>
      <identifier>oai:zenodo.org:262138</identifier>
      <datestamp>2017-01-28T21:54:47Z</datestamp>
      <setSpec>user-biosyslit</setSpec>
    </header>
    <header>
      <identifier>oai:zenodo.org:262265</identifier>
      <datestamp>2017-01-29T01:14:00Z</datestamp>
      <setSpec>user-biosyslit</setSpec>
    </header>
    <header>
      <identifier>oai:zenodo.org:273508</identifier>
      <datestamp>2017-02-08T09:32:34Z</datestamp>
      <setSpec>user-biosyslit</setSpec>
    </header>
    <header>
      <identifier>oai:zenodo.org:273935</identifier>
      <datestamp>2017-02-08T11:21:41Z</datestamp>
      <setSpec>user-biosyslit</setSpec>
    </header>
    <header>
      <identifier>oai:zenodo.org:276068</identifier>
      <datestamp>2017-02-08T18:02:52Z</datestamp>
      <setSpec>user-biosyslit</setSpec>
    </header>
    <header>
      <identifier>oai:zenodo.org:276271</identifier>
      <datestamp>2017-02-08T18:33:37Z</datestamp>
      <setSpec>user-biosyslit</setSpec>
    </header>
    <header>
      <identifier>oai:zenodo.org:262408</identifier>
      <datestamp>2017-01-29T03:42:42Z</datestamp>
      <setSpec>user-biosyslit</setSpec>
    </header>
    <header>
      <identifier>oai:zenodo.org:262020</identifier>
      <datestamp>2017-01-28T19:27:21Z</datestamp>
      <setSpec>user-biosyslit</setSpec>
    </header>
    <header>
      <identifier>oai:zenodo.org:273980</identifier>
      <datestamp>2017-02-08T11:43:02Z</datestamp>
      <setSpec>user-biosyslit</setSpec>
    </header>
    <header>
      <identifier>oai:zenodo.org:273559</identifier>
      <datestamp>2017-02-08T09:52:59Z</datestamp>
      <setSpec>user-biosyslit</setSpec>
    </header>
    <header>
      <identifier>oai:zenodo.org:262268</identifier>
      <datestamp>2017-01-29T01:14:39Z</datestamp>
      <setSpec>user-biosyslit</setSpec>
    </header>
    <resumptionToken expirationDate="2017-08-31T15:46:42Z" cursor="53700" completeListSize="77796">.eJyNzz0PQ0AAgOH_crM090GppItQMSBcCZZGEVFHxbXBif9eS-d2fp_lXQGvqhLo8CCTo4IwVKGMkaadJMCL8cnYrdkrKJKYFT2Lcjt-h10MU1yrnsln10yJJ1rod0jQS4ATpM1RA5fgGr1SEc4xcSYKLdUVweI9nN2VxLdZdrcHGvUGo7gcfStYKDJoRoqvQ3868dOZ_AwkMOR1BXSF7FftlI81B_q6bR9ig1EI.DInAag.fZrm95oOeidcBIbjfoUJtlQXmiM</resumptionToken>
  </ListIdentifiers>
</OAI-PMH>
