<?xml version='1.0' encoding='UTF-8'?>
<?xml-stylesheet type="text/xsl" href="/static/xsl/oai2.v1.0.xsl"?>
<OAI-PMH xmlns="http://www.openarchives.org/OAI/2.0/" xmlns:xsi="http://www.w3.org/2001/XMLSchema-instance" xsi:schemaLocation="http://www.openarchives.org/OAI/2.0/ http://www.openarchives.org/OAI/2.0/OAI-PMH.xsd">
  <responseDate>2017-08-31T15:46:30Z</responseDate>
  <request verb="ListIdentifiers" resumptionToken=".eJyNyj0LgkAYAOD_8s4S95FeCi2iSUOKXkq6hKmIdVZ4hXrif8-luebnmUBWVQkWWiFKGDbXOtVNRKjBDA1k0T2EODeLQ3FKRHEXce4l76hNUEpq5jtyODgp9dUNBS1WfBeSE94McYPG8Bi_UhUNCd33HLnsoMLRv-6XV9LAE9nFe_L4bgtOyi5ww5Fjm2e0-D7851M_nyO3oMEzryuwGNtocOvzrpZgTfP8Ac9eUXk.DInA1g.vLU4PLgKeTwXgQ1Rp4DSSPAUad0">https://zenodo.org/oai2d</request>
  <ListIdentifiers>
    <header>
      <identifier>oai:zenodo.org:852774</identifier>
      <datestamp>2017-08-29T06:01:10Z</datestamp>
      <setSpec>user-biosyslit</setSpec>
    </header>
    <header>
      <identifier>oai:zenodo.org:852776</identifier>
      <datestamp>2017-08-29T06:01:13Z</datestamp>
      <setSpec>user-biosyslit</setSpec>
    </header>
    <header>
      <identifier>oai:zenodo.org:852770</identifier>
      <datestamp>2017-08-29T06:01:30Z</datestamp>
      <setSpec>user-biosyslit</setSpec>
    </header>
    <header>
      <identifier>oai:zenodo.org:852788</identifier>
      <datestamp>2017-08-29T06:02:26Z</datestamp>
      <setSpec>user-biosyslit</setSpec>
    </header>
    <header>
      <identifier>oai:zenodo.org:852796</identifier>
      <datestamp>2017-08-29T06:02:23Z</datestamp>
      <setSpec>user-biosyslit</setSpec>
    </header>
    <header>
      <identifier>oai:zenodo.org:852794</identifier>
      <datestamp>2017-08-29T06:02:19Z</datestamp>
      <setSpec>user-biosyslit</setSpec>
    </header>
    <header>
      <identifier>oai:zenodo.org:852800</identifier>
      <datestamp>2017-08-29T06:02:55Z</datestamp>
      <setSpec>user-biosyslit</setSpec>
    </header>
    <header>
      <identifier>oai:zenodo.org:852782</identifier>
      <datestamp>2017-08-29T06:01:21Z</datestamp>
      <setSpec>user-biosyslit</setSpec>
    </header>
    <header>
      <identifier>oai:zenodo.org:162972</identifier>
      <datestamp>2017-08-31T09:59:14Z</datestamp>
      <setSpec>openaire</setSpec>
      <setSpec>user-biosyslit</setSpec>
    </header>
    <header>
      <identifier>oai:zenodo.org:855501</identifier>
      <datestamp>2017-08-31T10:09:03Z</datestamp>
      <setSpec>user-biosyslit</setSpec>
    </header>
    <header>
      <identifier>oai:zenodo.org:855479</identifier>
      <datestamp>2017-08-31T10:08:43Z</datestamp>
      <setSpec>user-biosyslit</setSpec>
    </header>
    <header>
      <identifier>oai:zenodo.org:855475</identifier>
      <datestamp>2017-08-31T10:08:39Z</datestamp>
      <setSpec>user-biosyslit</setSpec>
    </header>
    <header>
      <identifier>oai:zenodo.org:855497</identifier>
      <datestamp>2017-08-31T10:08:59Z</datestamp>
      <setSpec>user-biosyslit</setSpec>
    </header>
    <header>
      <identifier>oai:zenodo.org:855489</identifier>
      <datestamp>2017-08-31T10:08:52Z</datestamp>
      <setSpec>user-biosyslit</setSpec>
    </header>
    <header>
      <identifier>oai:zenodo.org:855427</identifier>
      <datestamp>2017-08-31T10:09:47Z</datestamp>
      <setSpec>user-biosyslit</setSpec>
    </header>
    <header>
      <identifier>oai:zenodo.org:855675</identifier>
      <datestamp>2017-08-31T10:13:31Z</datestamp>
      <setSpec>user-biosyslit</setSpec>
    </header>
    <header>
      <identifier>oai:zenodo.org:855699</identifier>
      <datestamp>2017-08-31T10:13:53Z</datestamp>
      <setSpec>user-biosyslit</setSpec>
    </header>
    <header>
      <identifier>oai:zenodo.org:855705</identifier>
      <datestamp>2017-08-31T10:13:59Z</datestamp>
      <setSpec>user-biosyslit</setSpec>
    </header>
    <header>
      <identifier>oai:zenodo.org:855679</identifier>
      <datestamp>2017-08-31T10:13:22Z</datestamp>
      <setSpec>user-biosyslit</setSpec>
    </header>
    <header>
      <identifier>oai:zenodo.org:855681</identifier>
      <datestamp>2017-08-31T10:13:25Z</datestamp>
      <setSpec>user-biosyslit</setSpec>
    </header>
    <header>
      <identifier>oai:zenodo.org:855685</identifier>
      <datestamp>2017-08-31T10:13:28Z</datestamp>
      <setSpec>user-biosyslit</setSpec>
    </header>
    <header>
      <identifier>oai:zenodo.org:855697</identifier>
      <datestamp>2017-08-31T10:14:05Z</datestamp>
      <setSpec>user-biosyslit</setSpec>
    </header>
    <header>
      <identifier>oai:zenodo.org:855723</identifier>
      <datestamp>2017-08-31T10:14:30Z</datestamp>
      <setSpec>user-biosyslit</setSpec>
    </header>
    <header>
      <identifier>oai:zenodo.org:855775</identifier>
      <datestamp>2017-08-31T10:15:47Z</datestamp>
      <setSpec>user-biosyslit</setSpec>
    </header>
    <header>
      <identifier>oai:zenodo.org:855791</identifier>
      <datestamp>2017-08-31T10:16:00Z</datestamp>
      <setSpec>user-biosyslit</setSpec>
    </header>
    <header>
      <identifier>oai:zenodo.org:855785</identifier>
      <datestamp>2017-08-31T10:15:54Z</datestamp>
      <setSpec>user-biosyslit</setSpec>
    </header>
    <header>
      <identifier>oai:zenodo.org:855829</identifier>
      <datestamp>2017-08-31T10:16:38Z</datestamp>
      <setSpec>user-biosyslit</setSpec>
    </header>
    <header>
      <identifier>oai:zenodo.org:855833</identifier>
      <datestamp>2017-08-31T10:16:41Z</datestamp>
      <setSpec>user-biosyslit</setSpec>
    </header>
    <header>
      <identifier>oai:zenodo.org:855837</identifier>
      <datestamp>2017-08-31T10:16:48Z</datestamp>
      <setSpec>user-biosyslit</setSpec>
    </header>
    <header>
      <identifier>oai:zenodo.org:855845</identifier>
      <datestamp>2017-08-31T10:16:54Z</datestamp>
      <setSpec>user-biosyslit</setSpec>
    </header>
    <header>
      <identifier>oai:zenodo.org:855853</identifier>
      <datestamp>2017-08-31T10:17:01Z</datestamp>
      <setSpec>user-biosyslit</setSpec>
    </header>
    <header>
      <identifier>oai:zenodo.org:855899</identifier>
      <datestamp>2017-08-31T10:19:26Z</datestamp>
      <setSpec>user-biosyslit</setSpec>
    </header>
    <header>
      <identifier>oai:zenodo.org:855949</identifier>
      <datestamp>2017-08-31T10:19:23Z</datestamp>
      <setSpec>user-biosyslit</setSpec>
    </header>
    <header>
      <identifier>oai:zenodo.org:856013</identifier>
      <datestamp>2017-08-31T10:21:44Z</datestamp>
      <setSpec>user-biosyslit</setSpec>
    </header>
    <header>
      <identifier>oai:zenodo.org:856045</identifier>
      <datestamp>2017-08-31T10:21:36Z</datestamp>
      <setSpec>user-biosyslit</setSpec>
    </header>
    <header>
      <identifier>oai:zenodo.org:856041</identifier>
      <datestamp>2017-08-31T10:21:28Z</datestamp>
      <setSpec>user-biosyslit</setSpec>
    </header>
    <header>
      <identifier>oai:zenodo.org:856037</identifier>
      <datestamp>2017-08-31T10:21:26Z</datestamp>
      <setSpec>user-biosyslit</setSpec>
    </header>
    <header>
      <identifier>oai:zenodo.org:858408</identifier>
      <datestamp>2017-08-31T12:47:44Z</datestamp>
      <setSpec>user-biosyslit</setSpec>
    </header>
    <header>
      <identifier>oai:zenodo.org:858410</identifier>
      <datestamp>2017-08-31T12:47:48Z</datestamp>
      <setSpec>user-biosyslit</setSpec>
    </header>
    <header>
      <identifier>oai:zenodo.org:858382</identifier>
      <datestamp>2017-08-31T12:43:00Z</datestamp>
      <setSpec>user-biosyslit</setSpec>
    </header>
    <header>
      <identifier>oai:zenodo.org:858402</identifier>
      <datestamp>2017-08-31T12:47:35Z</datestamp>
      <setSpec>user-biosyslit</setSpec>
    </header>
    <header>
      <identifier>oai:zenodo.org:858380</identifier>
      <datestamp>2017-08-31T12:42:55Z</datestamp>
      <setSpec>user-biosyslit</setSpec>
    </header>
    <header>
      <identifier>oai:zenodo.org:858384</identifier>
      <datestamp>2017-08-31T12:43:05Z</datestamp>
      <setSpec>user-biosyslit</setSpec>
    </header>
    <header>
      <identifier>oai:zenodo.org:858406</identifier>
      <datestamp>2017-08-31T12:47:41Z</datestamp>
      <setSpec>user-biosyslit</setSpec>
    </header>
    <header>
      <identifier>oai:zenodo.org:858404</identifier>
      <datestamp>2017-08-31T12:47:38Z</datestamp>
      <setSpec>user-biosyslit</setSpec>
    </header>
    <header>
      <identifier>oai:zenodo.org:858374</identifier>
      <datestamp>2017-08-31T12:35:36Z</datestamp>
      <setSpec>user-biosyslit</setSpec>
    </header>
    <header>
      <identifier>oai:zenodo.org:858420</identifier>
      <datestamp>2017-08-31T12:49:02Z</datestamp>
      <setSpec>user-biosyslit</setSpec>
    </header>
    <header>
      <identifier>oai:zenodo.org:858424</identifier>
      <datestamp>2017-08-31T12:49:04Z</datestamp>
      <setSpec>user-biosyslit</setSpec>
    </header>
    <header>
      <identifier>oai:zenodo.org:858434</identifier>
      <datestamp>2017-08-31T12:49:20Z</datestamp>
      <setSpec>user-biosyslit</setSpec>
    </header>
    <header>
      <identifier>oai:zenodo.org:858426</identifier>
      <datestamp>2017-08-31T12:49:07Z</datestamp>
      <setSpec>user-biosyslit</setSpec>
    </header>
    <header>
      <identifier>oai:zenodo.org:858430</identifier>
      <datestamp>2017-08-31T12:49:13Z</datestamp>
      <setSpec>user-biosyslit</setSpec>
    </header>
    <header>
      <identifier>oai:zenodo.org:858440</identifier>
      <datestamp>2017-08-31T12:49:34Z</datestamp>
      <setSpec>user-biosyslit</setSpec>
    </header>
    <header>
      <identifier>oai:zenodo.org:858436</identifier>
      <datestamp>2017-08-31T12:49:27Z</datestamp>
      <setSpec>user-biosyslit</setSpec>
    </header>
    <header>
      <identifier>oai:zenodo.org:858455</identifier>
      <datestamp>2017-08-31T12:58:38Z</datestamp>
      <setSpec>user-biosyslit</setSpec>
    </header>
    <header>
      <identifier>oai:zenodo.org:858461</identifier>
      <datestamp>2017-08-31T12:58:59Z</datestamp>
      <setSpec>user-biosyslit</setSpec>
    </header>
    <header>
      <identifier>oai:zenodo.org:858477</identifier>
      <datestamp>2017-08-31T12:59:30Z</datestamp>
      <setSpec>user-biosyslit</setSpec>
    </header>
    <header>
      <identifier>oai:zenodo.org:858479</identifier>
      <datestamp>2017-08-31T12:59:34Z</datestamp>
      <setSpec>user-biosyslit</setSpec>
    </header>
    <header>
      <identifier>oai:zenodo.org:858457</identifier>
      <datestamp>2017-08-31T12:58:51Z</datestamp>
      <setSpec>user-biosyslit</setSpec>
    </header>
    <header>
      <identifier>oai:zenodo.org:858459</identifier>
      <datestamp>2017-08-31T12:58:55Z</datestamp>
      <setSpec>user-biosyslit</setSpec>
    </header>
    <header>
      <identifier>oai:zenodo.org:858491</identifier>
      <datestamp>2017-08-31T12:59:51Z</datestamp>
      <setSpec>user-biosyslit</setSpec>
    </header>
    <header>
      <identifier>oai:zenodo.org:858499</identifier>
      <datestamp>2017-08-31T13:00:00Z</datestamp>
      <setSpec>user-biosyslit</setSpec>
    </header>
    <header>
      <identifier>oai:zenodo.org:858497</identifier>
      <datestamp>2017-08-31T12:59:55Z</datestamp>
      <setSpec>user-biosyslit</setSpec>
    </header>
    <header>
      <identifier>oai:zenodo.org:858515</identifier>
      <datestamp>2017-08-31T13:00:20Z</datestamp>
      <setSpec>user-biosyslit</setSpec>
    </header>
    <header>
      <identifier>oai:zenodo.org:858485</identifier>
      <datestamp>2017-08-31T12:59:47Z</datestamp>
      <setSpec>user-biosyslit</setSpec>
    </header>
    <header>
      <identifier>oai:zenodo.org:858523</identifier>
      <datestamp>2017-08-31T13:00:44Z</datestamp>
      <setSpec>user-biosyslit</setSpec>
    </header>
    <header>
      <identifier>oai:zenodo.org:858519</identifier>
      <datestamp>2017-08-31T13:00:35Z</datestamp>
      <setSpec>user-biosyslit</setSpec>
    </header>
    <header>
      <identifier>oai:zenodo.org:858533</identifier>
      <datestamp>2017-08-31T13:01:07Z</datestamp>
      <setSpec>user-biosyslit</setSpec>
    </header>
    <header>
      <identifier>oai:zenodo.org:858521</identifier>
      <datestamp>2017-08-31T13:00:41Z</datestamp>
      <setSpec>user-biosyslit</setSpec>
    </header>
    <header>
      <identifier>oai:zenodo.org:858517</identifier>
      <datestamp>2017-08-31T13:00:28Z</datestamp>
      <setSpec>user-biosyslit</setSpec>
    </header>
    <header>
      <identifier>oai:zenodo.org:858537</identifier>
      <datestamp>2017-08-31T13:01:15Z</datestamp>
      <setSpec>user-biosyslit</setSpec>
    </header>
    <header>
      <identifier>oai:zenodo.org:858539</identifier>
      <datestamp>2017-08-31T13:01:20Z</datestamp>
      <setSpec>user-biosyslit</setSpec>
    </header>
    <header>
      <identifier>oai:zenodo.org:858541</identifier>
      <datestamp>2017-08-31T13:01:24Z</datestamp>
      <setSpec>user-biosyslit</setSpec>
    </header>
    <header>
      <identifier>oai:zenodo.org:858545</identifier>
      <datestamp>2017-08-31T13:01:31Z</datestamp>
      <setSpec>user-biosyslit</setSpec>
    </header>
    <header>
      <identifier>oai:zenodo.org:858559</identifier>
      <datestamp>2017-08-31T13:02:10Z</datestamp>
      <setSpec>user-biosyslit</setSpec>
    </header>
    <header>
      <identifier>oai:zenodo.org:858553</identifier>
      <datestamp>2017-08-31T13:01:52Z</datestamp>
      <setSpec>user-biosyslit</setSpec>
    </header>
    <header>
      <identifier>oai:zenodo.org:858561</identifier>
      <datestamp>2017-08-31T13:02:15Z</datestamp>
      <setSpec>user-biosyslit</setSpec>
    </header>
    <header>
      <identifier>oai:zenodo.org:858547</identifier>
      <datestamp>2017-08-31T13:01:35Z</datestamp>
      <setSpec>user-biosyslit</setSpec>
    </header>
    <header>
      <identifier>oai:zenodo.org:858549</identifier>
      <datestamp>2017-08-31T13:01:38Z</datestamp>
      <setSpec>user-biosyslit</setSpec>
    </header>
    <header>
      <identifier>oai:zenodo.org:858543</identifier>
      <datestamp>2017-08-31T13:01:28Z</datestamp>
      <setSpec>user-biosyslit</setSpec>
    </header>
    <header>
      <identifier>oai:zenodo.org:858565</identifier>
      <datestamp>2017-08-31T13:02:23Z</datestamp>
      <setSpec>user-biosyslit</setSpec>
    </header>
    <header>
      <identifier>oai:zenodo.org:858589</identifier>
      <datestamp>2017-08-31T13:03:15Z</datestamp>
      <setSpec>user-biosyslit</setSpec>
    </header>
    <header>
      <identifier>oai:zenodo.org:858567</identifier>
      <datestamp>2017-08-31T13:02:27Z</datestamp>
      <setSpec>user-biosyslit</setSpec>
    </header>
    <header>
      <identifier>oai:zenodo.org:858597</identifier>
      <datestamp>2017-08-31T13:03:41Z</datestamp>
      <setSpec>user-biosyslit</setSpec>
    </header>
    <header>
      <identifier>oai:zenodo.org:858591</identifier>
      <datestamp>2017-08-31T13:03:19Z</datestamp>
      <setSpec>user-biosyslit</setSpec>
    </header>
    <header>
      <identifier>oai:zenodo.org:858585</identifier>
      <datestamp>2017-08-31T13:03:08Z</datestamp>
      <setSpec>user-biosyslit</setSpec>
    </header>
    <header>
      <identifier>oai:zenodo.org:858587</identifier>
      <datestamp>2017-08-31T13:03:12Z</datestamp>
      <setSpec>user-biosyslit</setSpec>
    </header>
    <header>
      <identifier>oai:zenodo.org:858583</identifier>
      <datestamp>2017-08-31T13:03:05Z</datestamp>
      <setSpec>user-biosyslit</setSpec>
    </header>
    <header>
      <identifier>oai:zenodo.org:858599</identifier>
      <datestamp>2017-08-31T13:03:53Z</datestamp>
      <setSpec>user-biosyslit</setSpec>
    </header>
    <header>
      <identifier>oai:zenodo.org:858601</identifier>
      <datestamp>2017-08-31T13:03:57Z</datestamp>
      <setSpec>user-biosyslit</setSpec>
    </header>
    <header>
      <identifier>oai:zenodo.org:858609</identifier>
      <datestamp>2017-08-31T13:04:26Z</datestamp>
      <setSpec>user-biosyslit</setSpec>
    </header>
    <header>
      <identifier>oai:zenodo.org:858611</identifier>
      <datestamp>2017-08-31T13:04:29Z</datestamp>
      <setSpec>user-biosyslit</setSpec>
    </header>
    <header>
      <identifier>oai:zenodo.org:858615</identifier>
      <datestamp>2017-08-31T13:04:37Z</datestamp>
      <setSpec>user-biosyslit</setSpec>
    </header>
    <header>
      <identifier>oai:zenodo.org:818662</identifier>
      <datestamp>2017-06-27T12:43:08Z</datestamp>
      <setSpec>user-biosyslit</setSpec>
    </header>
    <header>
      <identifier>oai:zenodo.org:818652</identifier>
      <datestamp>2017-06-27T12:43:49Z</datestamp>
      <setSpec>user-biosyslit</setSpec>
    </header>
    <header>
      <identifier>oai:zenodo.org:818656</identifier>
      <datestamp>2017-06-27T12:43:46Z</datestamp>
      <setSpec>user-biosyslit</setSpec>
    </header>
    <header>
      <identifier>oai:zenodo.org:818654</identifier>
      <datestamp>2017-06-27T12:43:48Z</datestamp>
      <setSpec>user-biosyslit</setSpec>
    </header>
    <resumptionToken expirationDate="2017-08-31T15:48:30Z" cursor="77700" completeListSize="77796"/>
  </ListIdentifiers>
</OAI-PMH>
