<?xml version='1.0' encoding='UTF-8'?>
<?xml-stylesheet type="text/xsl" href="/static/xsl/oai2.v1.0.xsl"?>
<OAI-PMH xmlns="http://www.openarchives.org/OAI/2.0/" xmlns:xsi="http://www.w3.org/2001/XMLSchema-instance" xsi:schemaLocation="http://www.openarchives.org/OAI/2.0/ http://www.openarchives.org/OAI/2.0/OAI-PMH.xsd">
  <responseDate>2017-08-31T15:42:59Z</responseDate>
  <request verb="ListIdentifiers" resumptionToken=".eJyNyssKgkAUANB_uWuJGa_4gjahSYuUaVLSTZiKlJOJU6Qj_ntuWtf6nAlkVZXgkhUapoEm2mg4FB3b0EAW_UOI83VhKE6JKFoR50HyOtwTkuq1FXpy2Hsphqoh0Z0qvmX6idpDfCUjO8bPVB2GBHdvTnxrr9gY3nbLKzEKRHYJOh63G8H1so98NnK64RkW30f_fOrn8-QaNOjyugIXia1B8877WoI7zfMHo3NRRA.DInAAw.2h0Qti8_V1km2gsf7q-53iH03Q4">https://zenodo.org/oai2d</request>
  <ListIdentifiers>
    <header>
      <identifier>oai:zenodo.org:229013</identifier>
      <datestamp>2017-01-03T08:26:14Z</datestamp>
      <setSpec>user-biosyslit</setSpec>
    </header>
    <header>
      <identifier>oai:zenodo.org:239959</identifier>
      <datestamp>2017-01-12T02:54:43Z</datestamp>
      <setSpec>user-biosyslit</setSpec>
    </header>
    <header>
      <identifier>oai:zenodo.org:239961</identifier>
      <datestamp>2017-01-12T02:54:50Z</datestamp>
      <setSpec>user-biosyslit</setSpec>
    </header>
    <header>
      <identifier>oai:zenodo.org:239958</identifier>
      <datestamp>2017-01-12T02:54:39Z</datestamp>
      <setSpec>user-biosyslit</setSpec>
    </header>
    <header>
      <identifier>oai:zenodo.org:239957</identifier>
      <datestamp>2017-01-12T02:54:35Z</datestamp>
      <setSpec>user-biosyslit</setSpec>
    </header>
    <header>
      <identifier>oai:zenodo.org:282825</identifier>
      <datestamp>2017-02-09T07:41:29Z</datestamp>
      <setSpec>user-biosyslit</setSpec>
    </header>
    <header>
      <identifier>oai:zenodo.org:227456</identifier>
      <datestamp>2017-01-01T21:40:04Z</datestamp>
      <setSpec>user-biosyslit</setSpec>
    </header>
    <header>
      <identifier>oai:zenodo.org:245178</identifier>
      <datestamp>2017-01-15T09:20:17Z</datestamp>
      <setSpec>user-biosyslit</setSpec>
    </header>
    <header>
      <identifier>oai:zenodo.org:227455</identifier>
      <datestamp>2017-01-01T21:40:00Z</datestamp>
      <setSpec>user-biosyslit</setSpec>
    </header>
    <header>
      <identifier>oai:zenodo.org:246028</identifier>
      <datestamp>2017-01-15T21:14:11Z</datestamp>
      <setSpec>user-biosyslit</setSpec>
    </header>
    <header>
      <identifier>oai:zenodo.org:246033</identifier>
      <datestamp>2017-01-15T21:14:10Z</datestamp>
      <setSpec>user-biosyslit</setSpec>
    </header>
    <header>
      <identifier>oai:zenodo.org:275618</identifier>
      <datestamp>2017-02-08T16:48:56Z</datestamp>
      <setSpec>user-biosyslit</setSpec>
    </header>
    <header>
      <identifier>oai:zenodo.org:275619</identifier>
      <datestamp>2017-02-08T16:49:00Z</datestamp>
      <setSpec>user-biosyslit</setSpec>
    </header>
    <header>
      <identifier>oai:zenodo.org:275620</identifier>
      <datestamp>2017-02-08T16:49:03Z</datestamp>
      <setSpec>user-biosyslit</setSpec>
    </header>
    <header>
      <identifier>oai:zenodo.org:277803</identifier>
      <datestamp>2017-02-08T21:51:33Z</datestamp>
      <setSpec>user-biosyslit</setSpec>
    </header>
    <header>
      <identifier>oai:zenodo.org:283806</identifier>
      <datestamp>2017-02-09T09:51:26Z</datestamp>
      <setSpec>user-biosyslit</setSpec>
    </header>
    <header>
      <identifier>oai:zenodo.org:277810</identifier>
      <datestamp>2017-02-08T21:51:28Z</datestamp>
      <setSpec>user-biosyslit</setSpec>
    </header>
    <header>
      <identifier>oai:zenodo.org:277807</identifier>
      <datestamp>2017-02-08T21:51:17Z</datestamp>
      <setSpec>user-biosyslit</setSpec>
    </header>
    <header>
      <identifier>oai:zenodo.org:277806</identifier>
      <datestamp>2017-02-08T21:51:15Z</datestamp>
      <setSpec>user-biosyslit</setSpec>
    </header>
    <header>
      <identifier>oai:zenodo.org:277808</identifier>
      <datestamp>2017-02-08T21:51:19Z</datestamp>
      <setSpec>user-biosyslit</setSpec>
    </header>
    <header>
      <identifier>oai:zenodo.org:277811</identifier>
      <datestamp>2017-02-08T21:51:32Z</datestamp>
      <setSpec>user-biosyslit</setSpec>
    </header>
    <header>
      <identifier>oai:zenodo.org:234165</identifier>
      <datestamp>2017-01-08T15:44:24Z</datestamp>
      <setSpec>user-biosyslit</setSpec>
    </header>
    <header>
      <identifier>oai:zenodo.org:249475</identifier>
      <datestamp>2017-01-17T20:10:09Z</datestamp>
      <setSpec>user-biosyslit</setSpec>
    </header>
    <header>
      <identifier>oai:zenodo.org:249477</identifier>
      <datestamp>2017-01-17T20:10:16Z</datestamp>
      <setSpec>user-biosyslit</setSpec>
    </header>
    <header>
      <identifier>oai:zenodo.org:234166</identifier>
      <datestamp>2017-01-08T15:44:27Z</datestamp>
      <setSpec>user-biosyslit</setSpec>
    </header>
    <header>
      <identifier>oai:zenodo.org:242601</identifier>
      <datestamp>2017-01-13T17:41:08Z</datestamp>
      <setSpec>user-biosyslit</setSpec>
    </header>
    <header>
      <identifier>oai:zenodo.org:242602</identifier>
      <datestamp>2017-01-13T17:40:22Z</datestamp>
      <setSpec>user-biosyslit</setSpec>
    </header>
    <header>
      <identifier>oai:zenodo.org:242607</identifier>
      <datestamp>2017-01-13T17:40:43Z</datestamp>
      <setSpec>user-biosyslit</setSpec>
    </header>
    <header>
      <identifier>oai:zenodo.org:239377</identifier>
      <datestamp>2017-01-11T19:47:42Z</datestamp>
      <setSpec>user-biosyslit</setSpec>
    </header>
    <header>
      <identifier>oai:zenodo.org:239387</identifier>
      <datestamp>2017-01-11T19:47:33Z</datestamp>
      <setSpec>user-biosyslit</setSpec>
    </header>
    <header>
      <identifier>oai:zenodo.org:239380</identifier>
      <datestamp>2017-01-11T19:47:01Z</datestamp>
      <setSpec>user-biosyslit</setSpec>
    </header>
    <header>
      <identifier>oai:zenodo.org:239378</identifier>
      <datestamp>2017-01-11T19:46:49Z</datestamp>
      <setSpec>user-biosyslit</setSpec>
    </header>
    <header>
      <identifier>oai:zenodo.org:239388</identifier>
      <datestamp>2017-01-11T19:47:37Z</datestamp>
      <setSpec>user-biosyslit</setSpec>
    </header>
    <header>
      <identifier>oai:zenodo.org:286492</identifier>
      <datestamp>2017-02-09T16:08:13Z</datestamp>
      <setSpec>user-biosyslit</setSpec>
    </header>
    <header>
      <identifier>oai:zenodo.org:286500</identifier>
      <datestamp>2017-02-09T16:08:12Z</datestamp>
      <setSpec>user-biosyslit</setSpec>
    </header>
    <header>
      <identifier>oai:zenodo.org:286497</identifier>
      <datestamp>2017-02-09T16:08:01Z</datestamp>
      <setSpec>user-biosyslit</setSpec>
    </header>
    <header>
      <identifier>oai:zenodo.org:286499</identifier>
      <datestamp>2017-02-09T16:08:08Z</datestamp>
      <setSpec>user-biosyslit</setSpec>
    </header>
    <header>
      <identifier>oai:zenodo.org:286496</identifier>
      <datestamp>2017-02-09T16:07:58Z</datestamp>
      <setSpec>user-biosyslit</setSpec>
    </header>
    <header>
      <identifier>oai:zenodo.org:286493</identifier>
      <datestamp>2017-02-09T16:07:48Z</datestamp>
      <setSpec>user-biosyslit</setSpec>
    </header>
    <header>
      <identifier>oai:zenodo.org:258936</identifier>
      <datestamp>2017-01-24T06:32:57Z</datestamp>
      <setSpec>user-biosyslit</setSpec>
    </header>
    <header>
      <identifier>oai:zenodo.org:271882</identifier>
      <datestamp>2017-02-08T02:54:13Z</datestamp>
      <setSpec>user-biosyslit</setSpec>
    </header>
    <header>
      <identifier>oai:zenodo.org:266748</identifier>
      <datestamp>2017-02-01T14:35:58Z</datestamp>
      <setSpec>user-biosyslit</setSpec>
    </header>
    <header>
      <identifier>oai:zenodo.org:266749</identifier>
      <datestamp>2017-02-01T14:36:00Z</datestamp>
      <setSpec>user-biosyslit</setSpec>
    </header>
    <header>
      <identifier>oai:zenodo.org:271884</identifier>
      <datestamp>2017-02-08T02:54:08Z</datestamp>
      <setSpec>user-biosyslit</setSpec>
    </header>
    <header>
      <identifier>oai:zenodo.org:258938</identifier>
      <datestamp>2017-01-24T06:32:53Z</datestamp>
      <setSpec>user-biosyslit</setSpec>
    </header>
    <header>
      <identifier>oai:zenodo.org:240918</identifier>
      <datestamp>2017-01-12T16:10:51Z</datestamp>
      <setSpec>user-biosyslit</setSpec>
    </header>
    <header>
      <identifier>oai:zenodo.org:240920</identifier>
      <datestamp>2017-01-12T16:10:45Z</datestamp>
      <setSpec>user-biosyslit</setSpec>
    </header>
    <header>
      <identifier>oai:zenodo.org:240919</identifier>
      <datestamp>2017-01-12T16:10:40Z</datestamp>
      <setSpec>user-biosyslit</setSpec>
    </header>
    <header>
      <identifier>oai:zenodo.org:281075</identifier>
      <datestamp>2017-02-09T04:40:52Z</datestamp>
      <setSpec>user-biosyslit</setSpec>
    </header>
    <header>
      <identifier>oai:zenodo.org:262599</identifier>
      <datestamp>2017-01-29T06:12:19Z</datestamp>
      <setSpec>user-biosyslit</setSpec>
    </header>
    <header>
      <identifier>oai:zenodo.org:250464</identifier>
      <datestamp>2017-01-18T10:27:51Z</datestamp>
      <setSpec>user-biosyslit</setSpec>
    </header>
    <header>
      <identifier>oai:zenodo.org:262605</identifier>
      <datestamp>2017-01-29T06:12:11Z</datestamp>
      <setSpec>user-biosyslit</setSpec>
    </header>
    <header>
      <identifier>oai:zenodo.org:262602</identifier>
      <datestamp>2017-01-29T06:12:03Z</datestamp>
      <setSpec>user-biosyslit</setSpec>
    </header>
    <header>
      <identifier>oai:zenodo.org:262604</identifier>
      <datestamp>2017-01-29T06:12:08Z</datestamp>
      <setSpec>user-biosyslit</setSpec>
    </header>
    <header>
      <identifier>oai:zenodo.org:262603</identifier>
      <datestamp>2017-01-29T06:12:05Z</datestamp>
      <setSpec>user-biosyslit</setSpec>
    </header>
    <header>
      <identifier>oai:zenodo.org:262608</identifier>
      <datestamp>2017-01-29T06:12:18Z</datestamp>
      <setSpec>user-biosyslit</setSpec>
    </header>
    <header>
      <identifier>oai:zenodo.org:250465</identifier>
      <datestamp>2017-01-18T10:27:55Z</datestamp>
      <setSpec>user-biosyslit</setSpec>
    </header>
    <header>
      <identifier>oai:zenodo.org:278330</identifier>
      <datestamp>2017-02-08T22:54:49Z</datestamp>
      <setSpec>user-biosyslit</setSpec>
    </header>
    <header>
      <identifier>oai:zenodo.org:278329</identifier>
      <datestamp>2017-02-08T22:54:47Z</datestamp>
      <setSpec>user-biosyslit</setSpec>
    </header>
    <header>
      <identifier>oai:zenodo.org:278328</identifier>
      <datestamp>2017-02-08T22:54:44Z</datestamp>
      <setSpec>user-biosyslit</setSpec>
    </header>
    <header>
      <identifier>oai:zenodo.org:282712</identifier>
      <datestamp>2017-02-09T07:29:40Z</datestamp>
      <setSpec>user-biosyslit</setSpec>
    </header>
    <header>
      <identifier>oai:zenodo.org:282717</identifier>
      <datestamp>2017-02-09T07:29:50Z</datestamp>
      <setSpec>user-biosyslit</setSpec>
    </header>
    <header>
      <identifier>oai:zenodo.org:282716</identifier>
      <datestamp>2017-02-09T07:29:48Z</datestamp>
      <setSpec>user-biosyslit</setSpec>
    </header>
    <header>
      <identifier>oai:zenodo.org:282714</identifier>
      <datestamp>2017-02-09T07:29:44Z</datestamp>
      <setSpec>user-biosyslit</setSpec>
    </header>
    <header>
      <identifier>oai:zenodo.org:294094</identifier>
      <datestamp>2017-02-20T19:17:25Z</datestamp>
      <setSpec>user-biosyslit</setSpec>
    </header>
    <header>
      <identifier>oai:zenodo.org:294096</identifier>
      <datestamp>2017-02-20T19:17:29Z</datestamp>
      <setSpec>user-biosyslit</setSpec>
    </header>
    <header>
      <identifier>oai:zenodo.org:231439</identifier>
      <datestamp>2017-01-06T01:48:14Z</datestamp>
      <setSpec>user-biosyslit</setSpec>
    </header>
    <header>
      <identifier>oai:zenodo.org:231437</identifier>
      <datestamp>2017-01-06T01:48:09Z</datestamp>
      <setSpec>user-biosyslit</setSpec>
    </header>
    <header>
      <identifier>oai:zenodo.org:294093</identifier>
      <datestamp>2017-02-20T19:17:23Z</datestamp>
      <setSpec>user-biosyslit</setSpec>
    </header>
    <header>
      <identifier>oai:zenodo.org:231433</identifier>
      <datestamp>2017-01-06T01:47:58Z</datestamp>
      <setSpec>user-biosyslit</setSpec>
    </header>
    <header>
      <identifier>oai:zenodo.org:231436</identifier>
      <datestamp>2017-01-06T01:48:06Z</datestamp>
      <setSpec>user-biosyslit</setSpec>
    </header>
    <header>
      <identifier>oai:zenodo.org:231434</identifier>
      <datestamp>2017-01-06T01:48:01Z</datestamp>
      <setSpec>user-biosyslit</setSpec>
    </header>
    <header>
      <identifier>oai:zenodo.org:285347</identifier>
      <datestamp>2017-02-09T13:21:04Z</datestamp>
      <setSpec>user-biosyslit</setSpec>
    </header>
    <header>
      <identifier>oai:zenodo.org:234734</identifier>
      <datestamp>2017-01-09T01:38:38Z</datestamp>
      <setSpec>user-biosyslit</setSpec>
    </header>
    <header>
      <identifier>oai:zenodo.org:232598</identifier>
      <datestamp>2017-01-06T20:18:02Z</datestamp>
      <setSpec>user-biosyslit</setSpec>
    </header>
    <header>
      <identifier>oai:zenodo.org:234735</identifier>
      <datestamp>2017-01-09T01:38:33Z</datestamp>
      <setSpec>user-biosyslit</setSpec>
    </header>
    <header>
      <identifier>oai:zenodo.org:234736</identifier>
      <datestamp>2017-01-09T01:38:36Z</datestamp>
      <setSpec>user-biosyslit</setSpec>
    </header>
    <header>
      <identifier>oai:zenodo.org:230494</identifier>
      <datestamp>2017-01-05T02:05:09Z</datestamp>
      <setSpec>user-biosyslit</setSpec>
    </header>
    <header>
      <identifier>oai:zenodo.org:237069</identifier>
      <datestamp>2017-01-10T10:26:51Z</datestamp>
      <setSpec>user-biosyslit</setSpec>
    </header>
    <header>
      <identifier>oai:zenodo.org:282819</identifier>
      <datestamp>2017-02-09T07:40:36Z</datestamp>
      <setSpec>user-biosyslit</setSpec>
    </header>
    <header>
      <identifier>oai:zenodo.org:282817</identifier>
      <datestamp>2017-02-09T07:40:32Z</datestamp>
      <setSpec>user-biosyslit</setSpec>
    </header>
    <header>
      <identifier>oai:zenodo.org:278790</identifier>
      <datestamp>2017-02-08T23:53:49Z</datestamp>
      <setSpec>user-biosyslit</setSpec>
    </header>
    <header>
      <identifier>oai:zenodo.org:231712</identifier>
      <datestamp>2017-01-06T06:19:54Z</datestamp>
      <setSpec>user-biosyslit</setSpec>
    </header>
    <header>
      <identifier>oai:zenodo.org:231716</identifier>
      <datestamp>2017-01-06T06:19:53Z</datestamp>
      <setSpec>user-biosyslit</setSpec>
    </header>
    <header>
      <identifier>oai:zenodo.org:231714</identifier>
      <datestamp>2017-01-06T06:19:46Z</datestamp>
      <setSpec>user-biosyslit</setSpec>
    </header>
    <header>
      <identifier>oai:zenodo.org:231713</identifier>
      <datestamp>2017-01-06T06:19:42Z</datestamp>
      <setSpec>user-biosyslit</setSpec>
    </header>
    <header>
      <identifier>oai:zenodo.org:242846</identifier>
      <datestamp>2017-01-13T19:47:30Z</datestamp>
      <setSpec>user-biosyslit</setSpec>
    </header>
    <header>
      <identifier>oai:zenodo.org:252376</identifier>
      <datestamp>2017-01-19T13:06:10Z</datestamp>
      <setSpec>user-biosyslit</setSpec>
    </header>
    <header>
      <identifier>oai:zenodo.org:240681</identifier>
      <datestamp>2017-01-12T12:37:40Z</datestamp>
      <setSpec>user-biosyslit</setSpec>
    </header>
    <header>
      <identifier>oai:zenodo.org:253503</identifier>
      <datestamp>2017-01-20T07:55:23Z</datestamp>
      <setSpec>user-biosyslit</setSpec>
    </header>
    <header>
      <identifier>oai:zenodo.org:253505</identifier>
      <datestamp>2017-01-20T07:55:28Z</datestamp>
      <setSpec>user-biosyslit</setSpec>
    </header>
    <header>
      <identifier>oai:zenodo.org:240097</identifier>
      <datestamp>2017-01-12T04:38:21Z</datestamp>
      <setSpec>user-biosyslit</setSpec>
    </header>
    <header>
      <identifier>oai:zenodo.org:240098</identifier>
      <datestamp>2017-01-12T04:38:25Z</datestamp>
      <setSpec>user-biosyslit</setSpec>
    </header>
    <header>
      <identifier>oai:zenodo.org:234571</identifier>
      <datestamp>2017-01-08T22:00:20Z</datestamp>
      <setSpec>user-biosyslit</setSpec>
    </header>
    <header>
      <identifier>oai:zenodo.org:234573</identifier>
      <datestamp>2017-01-08T22:00:03Z</datestamp>
      <setSpec>user-biosyslit</setSpec>
    </header>
    <header>
      <identifier>oai:zenodo.org:234576</identifier>
      <datestamp>2017-01-08T22:00:18Z</datestamp>
      <setSpec>user-biosyslit</setSpec>
    </header>
    <header>
      <identifier>oai:zenodo.org:234575</identifier>
      <datestamp>2017-01-08T22:00:14Z</datestamp>
      <setSpec>user-biosyslit</setSpec>
    </header>
    <header>
      <identifier>oai:zenodo.org:239451</identifier>
      <datestamp>2017-01-11T20:52:58Z</datestamp>
      <setSpec>user-biosyslit</setSpec>
    </header>
    <header>
      <identifier>oai:zenodo.org:234788</identifier>
      <datestamp>2017-01-09T02:12:40Z</datestamp>
      <setSpec>user-biosyslit</setSpec>
    </header>
    <header>
      <identifier>oai:zenodo.org:234784</identifier>
      <datestamp>2017-01-09T02:12:23Z</datestamp>
      <setSpec>user-biosyslit</setSpec>
    </header>
    <resumptionToken expirationDate="2017-08-31T15:45:00Z" cursor="30700" completeListSize="77796">.eJyNyrEKgkAYAOB3-WeJ_7zEElpEE4cUvRR1CVMR67TwCvXEd8-luebvm0FUVQkGbjRKcKtpe4qIBImugCj6B-eXZmUokpgXHY9yJ36HbYypWuueJcaTlVJP3tFviWTHQE3IbowanIJz9EplOMbUHRja-kkGk3dz11dS3-HZ1XmyqDM5U8vet4OJEZNltPg-8ueTP58lDqDAM68rMCjuFbgPeV8LMOZl-QCEi1Ej.DInABA.K7382vIsU5cpOvF08Rm1AVhFuDU</resumptionToken>
  </ListIdentifiers>
</OAI-PMH>
