<?xml version='1.0' encoding='UTF-8'?>
<?xml-stylesheet type="text/xsl" href="/static/xsl/oai2.v1.0.xsl"?>
<OAI-PMH xmlns="http://www.openarchives.org/OAI/2.0/" xmlns:xsi="http://www.w3.org/2001/XMLSchema-instance" xsi:schemaLocation="http://www.openarchives.org/OAI/2.0/ http://www.openarchives.org/OAI/2.0/OAI-PMH.xsd">
  <responseDate>2017-08-31T15:44:47Z</responseDate>
  <request verb="ListIdentifiers" resumptionToken=".eJyNysEKgjAYAOB3-c8Sc6uZQhexpIPKWo70EjZFqmniCnXRu9elc52_7wm6qkrw0AwTShEiDlm47pxiii3Qsr8pdTx_HORBKNmqtAjFY9cIlOHaiQM9RkFGYnNFSWMbvmH4YC_H9Iwmtk_vmdmNgmwHjtZOZNgUX7afV5IkVPkp7Hja-orjsk_WbOK2z3Miv8_-85mfL9ArsKAr6gq8xXxpwXUo-lqD93y93tAOUXU.DInAbw.XTtgZ-Xxsv9GJhMtL2ye76ZhkAY">https://zenodo.org/oai2d</request>
  <ListIdentifiers>
    <header>
      <identifier>oai:zenodo.org:257454</identifier>
      <datestamp>2017-01-23T07:07:11Z</datestamp>
      <setSpec>user-biosyslit</setSpec>
    </header>
    <header>
      <identifier>oai:zenodo.org:256980</identifier>
      <datestamp>2017-01-22T23:39:30Z</datestamp>
      <setSpec>user-biosyslit</setSpec>
    </header>
    <header>
      <identifier>oai:zenodo.org:257302</identifier>
      <datestamp>2017-01-23T05:04:29Z</datestamp>
      <setSpec>user-biosyslit</setSpec>
    </header>
    <header>
      <identifier>oai:zenodo.org:257157</identifier>
      <datestamp>2017-01-23T02:57:15Z</datestamp>
      <setSpec>user-biosyslit</setSpec>
    </header>
    <header>
      <identifier>oai:zenodo.org:257177</identifier>
      <datestamp>2017-01-23T03:15:45Z</datestamp>
      <setSpec>user-biosyslit</setSpec>
    </header>
    <header>
      <identifier>oai:zenodo.org:256817</identifier>
      <datestamp>2017-01-22T21:17:53Z</datestamp>
      <setSpec>user-biosyslit</setSpec>
    </header>
    <header>
      <identifier>oai:zenodo.org:257344</identifier>
      <datestamp>2017-01-23T05:41:53Z</datestamp>
      <setSpec>user-biosyslit</setSpec>
    </header>
    <header>
      <identifier>oai:zenodo.org:257176</identifier>
      <datestamp>2017-01-23T03:15:43Z</datestamp>
      <setSpec>user-biosyslit</setSpec>
    </header>
    <header>
      <identifier>oai:zenodo.org:257207</identifier>
      <datestamp>2017-01-23T03:40:28Z</datestamp>
      <setSpec>user-biosyslit</setSpec>
    </header>
    <header>
      <identifier>oai:zenodo.org:256960</identifier>
      <datestamp>2017-01-22T23:38:27Z</datestamp>
      <setSpec>user-biosyslit</setSpec>
    </header>
    <header>
      <identifier>oai:zenodo.org:257163</identifier>
      <datestamp>2017-01-23T03:05:49Z</datestamp>
      <setSpec>user-biosyslit</setSpec>
    </header>
    <header>
      <identifier>oai:zenodo.org:257536</identifier>
      <datestamp>2017-01-23T09:07:16Z</datestamp>
      <setSpec>user-biosyslit</setSpec>
    </header>
    <header>
      <identifier>oai:zenodo.org:258004</identifier>
      <datestamp>2017-01-23T15:12:29Z</datestamp>
      <setSpec>user-biosyslit</setSpec>
    </header>
    <header>
      <identifier>oai:zenodo.org:257086</identifier>
      <datestamp>2017-01-23T01:00:43Z</datestamp>
      <setSpec>user-biosyslit</setSpec>
    </header>
    <header>
      <identifier>oai:zenodo.org:257588</identifier>
      <datestamp>2017-01-23T10:50:14Z</datestamp>
      <setSpec>user-biosyslit</setSpec>
    </header>
    <header>
      <identifier>oai:zenodo.org:257284</identifier>
      <datestamp>2017-01-23T04:42:20Z</datestamp>
      <setSpec>user-biosyslit</setSpec>
    </header>
    <header>
      <identifier>oai:zenodo.org:258508</identifier>
      <datestamp>2017-01-24T00:01:34Z</datestamp>
      <setSpec>user-biosyslit</setSpec>
    </header>
    <header>
      <identifier>oai:zenodo.org:257345</identifier>
      <datestamp>2017-01-23T05:41:58Z</datestamp>
      <setSpec>user-biosyslit</setSpec>
    </header>
    <header>
      <identifier>oai:zenodo.org:257829</identifier>
      <datestamp>2017-01-23T13:31:18Z</datestamp>
      <setSpec>user-biosyslit</setSpec>
    </header>
    <header>
      <identifier>oai:zenodo.org:258251</identifier>
      <datestamp>2017-01-23T18:59:50Z</datestamp>
      <setSpec>user-biosyslit</setSpec>
    </header>
    <header>
      <identifier>oai:zenodo.org:258092</identifier>
      <datestamp>2017-01-23T16:01:48Z</datestamp>
      <setSpec>user-biosyslit</setSpec>
    </header>
    <header>
      <identifier>oai:zenodo.org:257783</identifier>
      <datestamp>2017-01-23T13:29:01Z</datestamp>
      <setSpec>user-biosyslit</setSpec>
    </header>
    <header>
      <identifier>oai:zenodo.org:257686</identifier>
      <datestamp>2017-01-23T12:18:44Z</datestamp>
      <setSpec>user-biosyslit</setSpec>
    </header>
    <header>
      <identifier>oai:zenodo.org:258001</identifier>
      <datestamp>2017-01-23T15:12:19Z</datestamp>
      <setSpec>user-biosyslit</setSpec>
    </header>
    <header>
      <identifier>oai:zenodo.org:257707</identifier>
      <datestamp>2017-01-23T12:38:15Z</datestamp>
      <setSpec>user-biosyslit</setSpec>
    </header>
    <header>
      <identifier>oai:zenodo.org:258123</identifier>
      <datestamp>2017-01-23T16:45:54Z</datestamp>
      <setSpec>user-biosyslit</setSpec>
    </header>
    <header>
      <identifier>oai:zenodo.org:258512</identifier>
      <datestamp>2017-01-24T00:01:43Z</datestamp>
      <setSpec>user-biosyslit</setSpec>
    </header>
    <header>
      <identifier>oai:zenodo.org:257782</identifier>
      <datestamp>2017-01-23T13:28:59Z</datestamp>
      <setSpec>user-biosyslit</setSpec>
    </header>
    <header>
      <identifier>oai:zenodo.org:257964</identifier>
      <datestamp>2017-01-23T14:44:05Z</datestamp>
      <setSpec>user-biosyslit</setSpec>
    </header>
    <header>
      <identifier>oai:zenodo.org:258246</identifier>
      <datestamp>2017-01-23T18:53:56Z</datestamp>
      <setSpec>user-biosyslit</setSpec>
    </header>
    <header>
      <identifier>oai:zenodo.org:258139</identifier>
      <datestamp>2017-01-23T16:46:31Z</datestamp>
      <setSpec>user-biosyslit</setSpec>
    </header>
    <header>
      <identifier>oai:zenodo.org:258367</identifier>
      <datestamp>2017-01-23T21:41:21Z</datestamp>
      <setSpec>user-biosyslit</setSpec>
    </header>
    <header>
      <identifier>oai:zenodo.org:258536</identifier>
      <datestamp>2017-01-24T00:04:41Z</datestamp>
      <setSpec>user-biosyslit</setSpec>
    </header>
    <header>
      <identifier>oai:zenodo.org:258610</identifier>
      <datestamp>2017-01-24T02:19:38Z</datestamp>
      <setSpec>user-biosyslit</setSpec>
    </header>
    <header>
      <identifier>oai:zenodo.org:259081</identifier>
      <datestamp>2017-01-24T07:46:53Z</datestamp>
      <setSpec>user-biosyslit</setSpec>
    </header>
    <header>
      <identifier>oai:zenodo.org:258713</identifier>
      <datestamp>2017-01-24T03:15:37Z</datestamp>
      <setSpec>user-biosyslit</setSpec>
    </header>
    <header>
      <identifier>oai:zenodo.org:258805</identifier>
      <datestamp>2017-01-24T04:55:51Z</datestamp>
      <setSpec>user-biosyslit</setSpec>
    </header>
    <header>
      <identifier>oai:zenodo.org:258830</identifier>
      <datestamp>2017-01-24T05:23:02Z</datestamp>
      <setSpec>user-biosyslit</setSpec>
    </header>
    <header>
      <identifier>oai:zenodo.org:258746</identifier>
      <datestamp>2017-01-24T04:21:14Z</datestamp>
      <setSpec>user-biosyslit</setSpec>
    </header>
    <header>
      <identifier>oai:zenodo.org:259023</identifier>
      <datestamp>2017-01-24T07:30:41Z</datestamp>
      <setSpec>user-biosyslit</setSpec>
    </header>
    <header>
      <identifier>oai:zenodo.org:258908</identifier>
      <datestamp>2017-01-24T06:13:45Z</datestamp>
      <setSpec>user-biosyslit</setSpec>
    </header>
    <header>
      <identifier>oai:zenodo.org:259047</identifier>
      <datestamp>2017-01-24T07:31:54Z</datestamp>
      <setSpec>user-biosyslit</setSpec>
    </header>
    <header>
      <identifier>oai:zenodo.org:259287</identifier>
      <datestamp>2017-01-24T09:49:49Z</datestamp>
      <setSpec>user-biosyslit</setSpec>
    </header>
    <header>
      <identifier>oai:zenodo.org:259275</identifier>
      <datestamp>2017-01-24T09:35:36Z</datestamp>
      <setSpec>user-biosyslit</setSpec>
    </header>
    <header>
      <identifier>oai:zenodo.org:259894</identifier>
      <datestamp>2017-01-25T17:11:42Z</datestamp>
      <setSpec>user-biosyslit</setSpec>
    </header>
    <header>
      <identifier>oai:zenodo.org:258995</identifier>
      <datestamp>2017-01-24T07:21:42Z</datestamp>
      <setSpec>user-biosyslit</setSpec>
    </header>
    <header>
      <identifier>oai:zenodo.org:259635</identifier>
      <datestamp>2017-01-25T14:32:14Z</datestamp>
      <setSpec>user-biosyslit</setSpec>
    </header>
    <header>
      <identifier>oai:zenodo.org:260716</identifier>
      <datestamp>2017-01-27T23:59:55Z</datestamp>
      <setSpec>user-biosyslit</setSpec>
    </header>
    <header>
      <identifier>oai:zenodo.org:258993</identifier>
      <datestamp>2017-01-24T07:21:36Z</datestamp>
      <setSpec>user-biosyslit</setSpec>
    </header>
    <header>
      <identifier>oai:zenodo.org:254714</identifier>
      <datestamp>2017-01-21T02:15:04Z</datestamp>
      <setSpec>user-biosyslit</setSpec>
    </header>
    <header>
      <identifier>oai:zenodo.org:256211</identifier>
      <datestamp>2017-01-22T06:59:49Z</datestamp>
      <setSpec>user-biosyslit</setSpec>
    </header>
    <header>
      <identifier>oai:zenodo.org:255038</identifier>
      <datestamp>2017-01-21T06:50:30Z</datestamp>
      <setSpec>user-biosyslit</setSpec>
    </header>
    <header>
      <identifier>oai:zenodo.org:273332</identifier>
      <datestamp>2017-02-08T09:00:22Z</datestamp>
      <setSpec>user-biosyslit</setSpec>
    </header>
    <header>
      <identifier>oai:zenodo.org:255596</identifier>
      <datestamp>2017-01-21T15:58:51Z</datestamp>
      <setSpec>user-biosyslit</setSpec>
    </header>
    <header>
      <identifier>oai:zenodo.org:255463</identifier>
      <datestamp>2017-01-21T13:35:40Z</datestamp>
      <setSpec>user-biosyslit</setSpec>
    </header>
    <header>
      <identifier>oai:zenodo.org:256550</identifier>
      <datestamp>2017-01-22T17:20:51Z</datestamp>
      <setSpec>user-biosyslit</setSpec>
    </header>
    <header>
      <identifier>oai:zenodo.org:256059</identifier>
      <datestamp>2017-01-22T03:07:43Z</datestamp>
      <setSpec>user-biosyslit</setSpec>
    </header>
    <header>
      <identifier>oai:zenodo.org:255161</identifier>
      <datestamp>2017-01-21T08:33:44Z</datestamp>
      <setSpec>user-biosyslit</setSpec>
    </header>
    <header>
      <identifier>oai:zenodo.org:255216</identifier>
      <datestamp>2017-01-21T09:59:43Z</datestamp>
      <setSpec>user-biosyslit</setSpec>
    </header>
    <header>
      <identifier>oai:zenodo.org:256056</identifier>
      <datestamp>2017-01-22T03:07:34Z</datestamp>
      <setSpec>user-biosyslit</setSpec>
    </header>
    <header>
      <identifier>oai:zenodo.org:255393</identifier>
      <datestamp>2017-01-21T12:47:37Z</datestamp>
      <setSpec>user-biosyslit</setSpec>
    </header>
    <header>
      <identifier>oai:zenodo.org:255635</identifier>
      <datestamp>2017-01-21T17:39:37Z</datestamp>
      <setSpec>user-biosyslit</setSpec>
    </header>
    <header>
      <identifier>oai:zenodo.org:256420</identifier>
      <datestamp>2017-01-22T14:22:51Z</datestamp>
      <setSpec>user-biosyslit</setSpec>
    </header>
    <header>
      <identifier>oai:zenodo.org:256430</identifier>
      <datestamp>2017-01-22T14:23:18Z</datestamp>
      <setSpec>user-biosyslit</setSpec>
    </header>
    <header>
      <identifier>oai:zenodo.org:256463</identifier>
      <datestamp>2017-01-22T14:48:04Z</datestamp>
      <setSpec>user-biosyslit</setSpec>
    </header>
    <header>
      <identifier>oai:zenodo.org:256829</identifier>
      <datestamp>2017-01-22T21:18:30Z</datestamp>
      <setSpec>user-biosyslit</setSpec>
    </header>
    <header>
      <identifier>oai:zenodo.org:257231</identifier>
      <datestamp>2017-01-23T03:41:28Z</datestamp>
      <setSpec>user-biosyslit</setSpec>
    </header>
    <header>
      <identifier>oai:zenodo.org:256547</identifier>
      <datestamp>2017-01-22T17:20:40Z</datestamp>
      <setSpec>user-biosyslit</setSpec>
    </header>
    <header>
      <identifier>oai:zenodo.org:256324</identifier>
      <datestamp>2017-01-22T12:39:10Z</datestamp>
      <setSpec>user-biosyslit</setSpec>
    </header>
    <header>
      <identifier>oai:zenodo.org:256645</identifier>
      <datestamp>2017-01-22T18:53:20Z</datestamp>
      <setSpec>user-biosyslit</setSpec>
    </header>
    <header>
      <identifier>oai:zenodo.org:256361</identifier>
      <datestamp>2017-01-22T13:17:48Z</datestamp>
      <setSpec>user-biosyslit</setSpec>
    </header>
    <header>
      <identifier>oai:zenodo.org:255943</identifier>
      <datestamp>2017-01-22T00:29:53Z</datestamp>
      <setSpec>user-biosyslit</setSpec>
    </header>
    <header>
      <identifier>oai:zenodo.org:256164</identifier>
      <datestamp>2017-01-22T05:53:12Z</datestamp>
      <setSpec>user-biosyslit</setSpec>
    </header>
    <header>
      <identifier>oai:zenodo.org:256343</identifier>
      <datestamp>2017-01-22T13:01:07Z</datestamp>
      <setSpec>user-biosyslit</setSpec>
    </header>
    <header>
      <identifier>oai:zenodo.org:256336</identifier>
      <datestamp>2017-01-22T12:49:07Z</datestamp>
      <setSpec>user-biosyslit</setSpec>
    </header>
    <header>
      <identifier>oai:zenodo.org:256958</identifier>
      <datestamp>2017-01-22T23:38:21Z</datestamp>
      <setSpec>user-biosyslit</setSpec>
    </header>
    <header>
      <identifier>oai:zenodo.org:257587</identifier>
      <datestamp>2017-01-23T10:50:12Z</datestamp>
      <setSpec>user-biosyslit</setSpec>
    </header>
    <header>
      <identifier>oai:zenodo.org:256538</identifier>
      <datestamp>2017-01-22T17:10:31Z</datestamp>
      <setSpec>user-biosyslit</setSpec>
    </header>
    <header>
      <identifier>oai:zenodo.org:256778</identifier>
      <datestamp>2017-01-22T20:36:26Z</datestamp>
      <setSpec>user-biosyslit</setSpec>
    </header>
    <header>
      <identifier>oai:zenodo.org:256341</identifier>
      <datestamp>2017-01-22T13:01:00Z</datestamp>
      <setSpec>user-biosyslit</setSpec>
    </header>
    <header>
      <identifier>oai:zenodo.org:256375</identifier>
      <datestamp>2017-01-22T13:25:24Z</datestamp>
      <setSpec>user-biosyslit</setSpec>
    </header>
    <header>
      <identifier>oai:zenodo.org:256551</identifier>
      <datestamp>2017-01-22T17:20:54Z</datestamp>
      <setSpec>user-biosyslit</setSpec>
    </header>
    <header>
      <identifier>oai:zenodo.org:256457</identifier>
      <datestamp>2017-01-22T14:38:23Z</datestamp>
      <setSpec>user-biosyslit</setSpec>
    </header>
    <header>
      <identifier>oai:zenodo.org:256519</identifier>
      <datestamp>2017-01-22T16:42:14Z</datestamp>
      <setSpec>user-biosyslit</setSpec>
    </header>
    <header>
      <identifier>oai:zenodo.org:256707</identifier>
      <datestamp>2017-01-22T19:43:48Z</datestamp>
      <setSpec>user-biosyslit</setSpec>
    </header>
    <header>
      <identifier>oai:zenodo.org:257860</identifier>
      <datestamp>2017-01-23T13:32:47Z</datestamp>
      <setSpec>user-biosyslit</setSpec>
    </header>
    <header>
      <identifier>oai:zenodo.org:256492</identifier>
      <datestamp>2017-01-22T15:57:28Z</datestamp>
      <setSpec>user-biosyslit</setSpec>
    </header>
    <header>
      <identifier>oai:zenodo.org:256974</identifier>
      <datestamp>2017-01-22T23:39:13Z</datestamp>
      <setSpec>user-biosyslit</setSpec>
    </header>
    <header>
      <identifier>oai:zenodo.org:256772</identifier>
      <datestamp>2017-01-22T20:31:35Z</datestamp>
      <setSpec>user-biosyslit</setSpec>
    </header>
    <header>
      <identifier>oai:zenodo.org:256969</identifier>
      <datestamp>2017-01-22T23:38:53Z</datestamp>
      <setSpec>user-biosyslit</setSpec>
    </header>
    <header>
      <identifier>oai:zenodo.org:257702</identifier>
      <datestamp>2017-01-23T12:30:43Z</datestamp>
      <setSpec>user-biosyslit</setSpec>
    </header>
    <header>
      <identifier>oai:zenodo.org:257162</identifier>
      <datestamp>2017-01-23T03:06:09Z</datestamp>
      <setSpec>user-biosyslit</setSpec>
    </header>
    <header>
      <identifier>oai:zenodo.org:257683</identifier>
      <datestamp>2017-01-23T12:18:34Z</datestamp>
      <setSpec>user-biosyslit</setSpec>
    </header>
    <header>
      <identifier>oai:zenodo.org:257546</identifier>
      <datestamp>2017-01-23T09:26:40Z</datestamp>
      <setSpec>user-biosyslit</setSpec>
    </header>
    <header>
      <identifier>oai:zenodo.org:257598</identifier>
      <datestamp>2017-01-23T10:50:38Z</datestamp>
      <setSpec>user-biosyslit</setSpec>
    </header>
    <header>
      <identifier>oai:zenodo.org:257406</identifier>
      <datestamp>2017-01-23T06:31:20Z</datestamp>
      <setSpec>user-biosyslit</setSpec>
    </header>
    <header>
      <identifier>oai:zenodo.org:258132</identifier>
      <datestamp>2017-01-23T16:46:12Z</datestamp>
      <setSpec>user-biosyslit</setSpec>
    </header>
    <header>
      <identifier>oai:zenodo.org:257430</identifier>
      <datestamp>2017-01-23T06:49:27Z</datestamp>
      <setSpec>user-biosyslit</setSpec>
    </header>
    <header>
      <identifier>oai:zenodo.org:257967</identifier>
      <datestamp>2017-01-23T14:44:15Z</datestamp>
      <setSpec>user-biosyslit</setSpec>
    </header>
    <header>
      <identifier>oai:zenodo.org:258500</identifier>
      <datestamp>2017-01-23T23:50:50Z</datestamp>
      <setSpec>user-biosyslit</setSpec>
    </header>
    <resumptionToken expirationDate="2017-08-31T15:46:47Z" cursor="54700" completeListSize="77796">.eJyNyk0LgjAYAOD_8p4lNjfzA7qIJh1SbE3SS9gUsZaJK9JJ_70unev8PDOouq7AQwuHWoTaFFNnaRLs2gYoMdykPLYfBnHIpOgkL6PssbtmKDcbOw7UuA1yEusLSq5Ys3VqHrAz8hZN6Z7fc70bM7J5MhTaW51O8XnzeRVJIlmcop7xzpfMrIYkTCeGfVYQ8X34z6d_vkCtwIC-bGrwLOoacHmWQ6PAm1-vN6IyUUk.DInAbw.6GouLGrNsWp4gua6luIfuSM7iiM</resumptionToken>
  </ListIdentifiers>
</OAI-PMH>
