<?xml version='1.0' encoding='UTF-8'?>
<?xml-stylesheet type="text/xsl" href="/static/xsl/oai2.v1.0.xsl"?>
<OAI-PMH xmlns="http://www.openarchives.org/OAI/2.0/" xmlns:xsi="http://www.w3.org/2001/XMLSchema-instance" xsi:schemaLocation="http://www.openarchives.org/OAI/2.0/ http://www.openarchives.org/OAI/2.0/OAI-PMH.xsd">
  <responseDate>2017-08-31T15:43:57Z</responseDate>
  <request verb="ListIdentifiers" resumptionToken=".eJyNysEKgjAYAOB3-c8S_1y2ErqIJR5SbCnpJWyKlMvEFenCd89L5zp_3xtUWRZg42y1QqRIFowRy2KmAUp0dylPl0lBHBMpGhnnXvLc3xJMzYoFrup3bkoDXWN4I5pvI_NIln18wSE6xI9U7_uE-i-OG7bT0RBc_ekVNPRkdvZaHjeO5GbRhZto4MThGRXfR_58-udz1RoMaPOqBHtuoQH1K-8qBfZ7HD9kLVEC.DInAPQ.s1LXaKpxG1Dhwv7ZHbmEZdq5Hzo">https://zenodo.org/oai2d</request>
  <ListIdentifiers>
    <header>
      <identifier>oai:zenodo.org:272259</identifier>
      <datestamp>2017-02-08T04:06:17Z</datestamp>
      <setSpec>user-biosyslit</setSpec>
    </header>
    <header>
      <identifier>oai:zenodo.org:245498</identifier>
      <datestamp>2017-01-15T14:31:03Z</datestamp>
      <setSpec>user-biosyslit</setSpec>
    </header>
    <header>
      <identifier>oai:zenodo.org:246074</identifier>
      <datestamp>2017-01-15T21:45:16Z</datestamp>
      <setSpec>user-biosyslit</setSpec>
    </header>
    <header>
      <identifier>oai:zenodo.org:244994</identifier>
      <datestamp>2017-01-15T06:15:26Z</datestamp>
      <setSpec>user-biosyslit</setSpec>
    </header>
    <header>
      <identifier>oai:zenodo.org:245058</identifier>
      <datestamp>2017-01-15T07:11:55Z</datestamp>
      <setSpec>user-biosyslit</setSpec>
    </header>
    <header>
      <identifier>oai:zenodo.org:245553</identifier>
      <datestamp>2017-01-15T15:21:40Z</datestamp>
      <setSpec>user-biosyslit</setSpec>
    </header>
    <header>
      <identifier>oai:zenodo.org:246101</identifier>
      <datestamp>2017-01-15T22:03:10Z</datestamp>
      <setSpec>user-biosyslit</setSpec>
    </header>
    <header>
      <identifier>oai:zenodo.org:289843</identifier>
      <datestamp>2017-02-10T00:41:05Z</datestamp>
      <setSpec>user-biosyslit</setSpec>
    </header>
    <header>
      <identifier>oai:zenodo.org:289509</identifier>
      <datestamp>2017-02-09T23:43:19Z</datestamp>
      <setSpec>user-biosyslit</setSpec>
    </header>
    <header>
      <identifier>oai:zenodo.org:289778</identifier>
      <datestamp>2017-02-10T00:30:08Z</datestamp>
      <setSpec>user-biosyslit</setSpec>
    </header>
    <header>
      <identifier>oai:zenodo.org:289696</identifier>
      <datestamp>2017-02-10T00:11:26Z</datestamp>
      <setSpec>user-biosyslit</setSpec>
    </header>
    <header>
      <identifier>oai:zenodo.org:289926</identifier>
      <datestamp>2017-02-10T00:47:09Z</datestamp>
      <setSpec>user-biosyslit</setSpec>
    </header>
    <header>
      <identifier>oai:zenodo.org:289196</identifier>
      <datestamp>2017-02-09T22:55:59Z</datestamp>
      <setSpec>user-biosyslit</setSpec>
    </header>
    <header>
      <identifier>oai:zenodo.org:289750</identifier>
      <datestamp>2017-02-10T00:25:33Z</datestamp>
      <setSpec>user-biosyslit</setSpec>
    </header>
    <header>
      <identifier>oai:zenodo.org:289524</identifier>
      <datestamp>2017-02-09T23:44:30Z</datestamp>
      <setSpec>user-biosyslit</setSpec>
    </header>
    <header>
      <identifier>oai:zenodo.org:290019</identifier>
      <datestamp>2017-02-10T01:06:05Z</datestamp>
      <setSpec>user-biosyslit</setSpec>
    </header>
    <header>
      <identifier>oai:zenodo.org:289866</identifier>
      <datestamp>2017-02-10T00:42:43Z</datestamp>
      <setSpec>user-biosyslit</setSpec>
    </header>
    <header>
      <identifier>oai:zenodo.org:289641</identifier>
      <datestamp>2017-02-10T00:01:50Z</datestamp>
      <setSpec>user-biosyslit</setSpec>
    </header>
    <header>
      <identifier>oai:zenodo.org:289935</identifier>
      <datestamp>2017-02-10T00:50:28Z</datestamp>
      <setSpec>user-biosyslit</setSpec>
    </header>
    <header>
      <identifier>oai:zenodo.org:290072</identifier>
      <datestamp>2017-02-10T01:13:07Z</datestamp>
      <setSpec>user-biosyslit</setSpec>
    </header>
    <header>
      <identifier>oai:zenodo.org:289855</identifier>
      <datestamp>2017-02-10T00:42:08Z</datestamp>
      <setSpec>user-biosyslit</setSpec>
    </header>
    <header>
      <identifier>oai:zenodo.org:289899</identifier>
      <datestamp>2017-02-10T00:46:01Z</datestamp>
      <setSpec>user-biosyslit</setSpec>
    </header>
    <header>
      <identifier>oai:zenodo.org:291274</identifier>
      <datestamp>2017-02-13T20:38:53Z</datestamp>
      <setSpec>user-biosyslit</setSpec>
    </header>
    <header>
      <identifier>oai:zenodo.org:290100</identifier>
      <datestamp>2017-02-10T01:16:19Z</datestamp>
      <setSpec>user-biosyslit</setSpec>
    </header>
    <header>
      <identifier>oai:zenodo.org:291227</identifier>
      <datestamp>2017-02-13T20:34:00Z</datestamp>
      <setSpec>user-biosyslit</setSpec>
    </header>
    <header>
      <identifier>oai:zenodo.org:291366</identifier>
      <datestamp>2017-02-13T20:50:08Z</datestamp>
      <setSpec>user-biosyslit</setSpec>
    </header>
    <header>
      <identifier>oai:zenodo.org:292493</identifier>
      <datestamp>2017-02-20T08:31:34Z</datestamp>
      <setSpec>user-biosyslit</setSpec>
    </header>
    <header>
      <identifier>oai:zenodo.org:290674</identifier>
      <datestamp>2017-03-02T07:47:35Z</datestamp>
      <setSpec>openaire</setSpec>
      <setSpec>user-biosyslit</setSpec>
    </header>
    <header>
      <identifier>oai:zenodo.org:291330</identifier>
      <datestamp>2017-02-13T20:44:31Z</datestamp>
      <setSpec>user-biosyslit</setSpec>
    </header>
    <header>
      <identifier>oai:zenodo.org:291281</identifier>
      <datestamp>2017-02-13T20:39:37Z</datestamp>
      <setSpec>user-biosyslit</setSpec>
    </header>
    <header>
      <identifier>oai:zenodo.org:292354</identifier>
      <datestamp>2017-02-20T08:29:28Z</datestamp>
      <setSpec>openaire</setSpec>
      <setSpec>user-biosyslit</setSpec>
    </header>
    <header>
      <identifier>oai:zenodo.org:293636</identifier>
      <datestamp>2017-02-19T13:56:12Z</datestamp>
      <setSpec>user-biosyslit</setSpec>
    </header>
    <header>
      <identifier>oai:zenodo.org:292435</identifier>
      <datestamp>2017-02-20T08:28:05Z</datestamp>
      <setSpec>openaire</setSpec>
      <setSpec>user-biosyslit</setSpec>
    </header>
    <header>
      <identifier>oai:zenodo.org:292711</identifier>
      <datestamp>2017-02-16T18:31:20Z</datestamp>
      <setSpec>user-biosyslit</setSpec>
    </header>
    <header>
      <identifier>oai:zenodo.org:292783</identifier>
      <datestamp>2017-02-16T18:38:58Z</datestamp>
      <setSpec>user-biosyslit</setSpec>
    </header>
    <header>
      <identifier>oai:zenodo.org:293766</identifier>
      <datestamp>2017-02-20T18:00:46Z</datestamp>
      <setSpec>openaire</setSpec>
      <setSpec>user-biosyslit</setSpec>
    </header>
    <header>
      <identifier>oai:zenodo.org:293235</identifier>
      <datestamp>2017-02-19T13:11:05Z</datestamp>
      <setSpec>user-biosyslit</setSpec>
    </header>
    <header>
      <identifier>oai:zenodo.org:292456</identifier>
      <datestamp>2017-02-20T08:27:49Z</datestamp>
      <setSpec>openaire</setSpec>
      <setSpec>user-biosyslit</setSpec>
    </header>
    <header>
      <identifier>oai:zenodo.org:292486</identifier>
      <datestamp>2017-02-20T08:31:25Z</datestamp>
      <setSpec>user-biosyslit</setSpec>
    </header>
    <header>
      <identifier>oai:zenodo.org:292466</identifier>
      <datestamp>2017-02-20T08:19:29Z</datestamp>
      <setSpec>user-biosyslit</setSpec>
    </header>
    <header>
      <identifier>oai:zenodo.org:292682</identifier>
      <datestamp>2017-02-16T18:28:42Z</datestamp>
      <setSpec>user-biosyslit</setSpec>
    </header>
    <header>
      <identifier>oai:zenodo.org:292861</identifier>
      <datestamp>2017-02-16T18:49:34Z</datestamp>
      <setSpec>user-biosyslit</setSpec>
    </header>
    <header>
      <identifier>oai:zenodo.org:292843</identifier>
      <datestamp>2017-02-16T18:46:05Z</datestamp>
      <setSpec>user-biosyslit</setSpec>
    </header>
    <header>
      <identifier>oai:zenodo.org:293469</identifier>
      <datestamp>2017-02-19T13:44:01Z</datestamp>
      <setSpec>user-biosyslit</setSpec>
    </header>
    <header>
      <identifier>oai:zenodo.org:293054</identifier>
      <datestamp>2017-02-19T11:35:59Z</datestamp>
      <setSpec>openaire</setSpec>
      <setSpec>user-neilreichia</setSpec>
      <setSpec>user-biosyslit</setSpec>
    </header>
    <header>
      <identifier>oai:zenodo.org:292777</identifier>
      <datestamp>2017-02-16T18:38:34Z</datestamp>
      <setSpec>user-biosyslit</setSpec>
    </header>
    <header>
      <identifier>oai:zenodo.org:293451</identifier>
      <datestamp>2017-02-19T13:42:59Z</datestamp>
      <setSpec>user-biosyslit</setSpec>
    </header>
    <header>
      <identifier>oai:zenodo.org:292867</identifier>
      <datestamp>2017-02-16T18:50:20Z</datestamp>
      <setSpec>user-biosyslit</setSpec>
    </header>
    <header>
      <identifier>oai:zenodo.org:293650</identifier>
      <datestamp>2017-02-19T13:57:01Z</datestamp>
      <setSpec>user-biosyslit</setSpec>
    </header>
    <header>
      <identifier>oai:zenodo.org:293519</identifier>
      <datestamp>2017-02-19T13:46:19Z</datestamp>
      <setSpec>user-biosyslit</setSpec>
    </header>
    <header>
      <identifier>oai:zenodo.org:293168</identifier>
      <datestamp>2017-02-18T19:51:45Z</datestamp>
      <setSpec>user-biosyslit</setSpec>
    </header>
    <header>
      <identifier>oai:zenodo.org:293631</identifier>
      <datestamp>2017-02-19T13:55:15Z</datestamp>
      <setSpec>user-biosyslit</setSpec>
    </header>
    <header>
      <identifier>oai:zenodo.org:293594</identifier>
      <datestamp>2017-02-19T13:51:44Z</datestamp>
      <setSpec>user-biosyslit</setSpec>
    </header>
    <header>
      <identifier>oai:zenodo.org:293341</identifier>
      <datestamp>2017-02-19T13:32:33Z</datestamp>
      <setSpec>user-biosyslit</setSpec>
    </header>
    <header>
      <identifier>oai:zenodo.org:293518</identifier>
      <datestamp>2017-02-19T13:46:17Z</datestamp>
      <setSpec>user-biosyslit</setSpec>
    </header>
    <header>
      <identifier>oai:zenodo.org:293205</identifier>
      <datestamp>2017-02-20T08:16:08Z</datestamp>
      <setSpec>openaire</setSpec>
      <setSpec>user-neilreichia</setSpec>
      <setSpec>user-biosyslit</setSpec>
    </header>
    <header>
      <identifier>oai:zenodo.org:294161</identifier>
      <datestamp>2017-02-20T19:23:35Z</datestamp>
      <setSpec>user-biosyslit</setSpec>
    </header>
    <header>
      <identifier>oai:zenodo.org:305445</identifier>
      <datestamp>2017-02-20T22:40:10Z</datestamp>
      <setSpec>user-biosyslit</setSpec>
    </header>
    <header>
      <identifier>oai:zenodo.org:293907</identifier>
      <datestamp>2017-02-20T18:58:01Z</datestamp>
      <setSpec>user-biosyslit</setSpec>
    </header>
    <header>
      <identifier>oai:zenodo.org:306085</identifier>
      <datestamp>2017-02-20T22:50:40Z</datestamp>
      <setSpec>user-biosyslit</setSpec>
    </header>
    <header>
      <identifier>oai:zenodo.org:295996</identifier>
      <datestamp>2017-02-20T20:05:24Z</datestamp>
      <setSpec>user-biosyslit</setSpec>
    </header>
    <header>
      <identifier>oai:zenodo.org:303117</identifier>
      <datestamp>2017-02-20T22:01:23Z</datestamp>
      <setSpec>user-biosyslit</setSpec>
    </header>
    <header>
      <identifier>oai:zenodo.org:294203</identifier>
      <datestamp>2017-02-20T19:28:37Z</datestamp>
      <setSpec>user-biosyslit</setSpec>
    </header>
    <header>
      <identifier>oai:zenodo.org:311536</identifier>
      <datestamp>2017-02-21T00:24:30Z</datestamp>
      <setSpec>user-biosyslit</setSpec>
    </header>
    <header>
      <identifier>oai:zenodo.org:302122</identifier>
      <datestamp>2017-02-20T21:46:05Z</datestamp>
      <setSpec>user-biosyslit</setSpec>
    </header>
    <header>
      <identifier>oai:zenodo.org:304507</identifier>
      <datestamp>2017-02-20T22:24:05Z</datestamp>
      <setSpec>user-biosyslit</setSpec>
    </header>
    <header>
      <identifier>oai:zenodo.org:311464</identifier>
      <datestamp>2017-02-21T00:23:04Z</datestamp>
      <setSpec>user-biosyslit</setSpec>
    </header>
    <header>
      <identifier>oai:zenodo.org:305433</identifier>
      <datestamp>2017-02-20T22:40:03Z</datestamp>
      <setSpec>user-biosyslit</setSpec>
    </header>
    <header>
      <identifier>oai:zenodo.org:311801</identifier>
      <datestamp>2017-02-21T00:29:32Z</datestamp>
      <setSpec>user-biosyslit</setSpec>
    </header>
    <header>
      <identifier>oai:zenodo.org:306217</identifier>
      <datestamp>2017-02-20T22:52:33Z</datestamp>
      <setSpec>user-biosyslit</setSpec>
    </header>
    <header>
      <identifier>oai:zenodo.org:311088</identifier>
      <datestamp>2017-02-21T00:16:03Z</datestamp>
      <setSpec>user-biosyslit</setSpec>
    </header>
    <header>
      <identifier>oai:zenodo.org:240693</identifier>
      <datestamp>2017-01-12T12:43:29Z</datestamp>
      <setSpec>user-biosyslit</setSpec>
    </header>
    <header>
      <identifier>oai:zenodo.org:271383</identifier>
      <datestamp>2017-02-08T01:34:17Z</datestamp>
      <setSpec>user-biosyslit</setSpec>
    </header>
    <header>
      <identifier>oai:zenodo.org:240857</identifier>
      <datestamp>2017-01-12T14:59:17Z</datestamp>
      <setSpec>user-biosyslit</setSpec>
    </header>
    <header>
      <identifier>oai:zenodo.org:241355</identifier>
      <datestamp>2017-01-13T00:20:45Z</datestamp>
      <setSpec>user-biosyslit</setSpec>
    </header>
    <header>
      <identifier>oai:zenodo.org:271666</identifier>
      <datestamp>2017-02-08T02:10:32Z</datestamp>
      <setSpec>user-biosyslit</setSpec>
    </header>
    <header>
      <identifier>oai:zenodo.org:271917</identifier>
      <datestamp>2017-02-08T03:04:45Z</datestamp>
      <setSpec>user-biosyslit</setSpec>
    </header>
    <header>
      <identifier>oai:zenodo.org:271835</identifier>
      <datestamp>2017-02-08T02:44:45Z</datestamp>
      <setSpec>user-biosyslit</setSpec>
    </header>
    <header>
      <identifier>oai:zenodo.org:272206</identifier>
      <datestamp>2017-02-08T03:59:05Z</datestamp>
      <setSpec>user-biosyslit</setSpec>
    </header>
    <header>
      <identifier>oai:zenodo.org:241456</identifier>
      <datestamp>2017-01-13T01:40:11Z</datestamp>
      <setSpec>user-biosyslit</setSpec>
    </header>
    <header>
      <identifier>oai:zenodo.org:272408</identifier>
      <datestamp>2017-02-08T04:33:33Z</datestamp>
      <setSpec>user-biosyslit</setSpec>
    </header>
    <header>
      <identifier>oai:zenodo.org:272546</identifier>
      <datestamp>2017-02-08T05:06:14Z</datestamp>
      <setSpec>user-biosyslit</setSpec>
    </header>
    <header>
      <identifier>oai:zenodo.org:271898</identifier>
      <datestamp>2017-02-08T02:55:37Z</datestamp>
      <setSpec>user-biosyslit</setSpec>
    </header>
    <header>
      <identifier>oai:zenodo.org:271816</identifier>
      <datestamp>2017-02-08T02:43:43Z</datestamp>
      <setSpec>user-biosyslit</setSpec>
    </header>
    <header>
      <identifier>oai:zenodo.org:272343</identifier>
      <datestamp>2017-02-08T04:20:07Z</datestamp>
      <setSpec>user-biosyslit</setSpec>
    </header>
    <header>
      <identifier>oai:zenodo.org:241582</identifier>
      <datestamp>2017-01-13T03:32:46Z</datestamp>
      <setSpec>user-biosyslit</setSpec>
    </header>
    <header>
      <identifier>oai:zenodo.org:275828</identifier>
      <datestamp>2017-02-08T17:09:11Z</datestamp>
      <setSpec>user-biosyslit</setSpec>
    </header>
    <header>
      <identifier>oai:zenodo.org:271964</identifier>
      <datestamp>2017-02-08T03:10:36Z</datestamp>
      <setSpec>user-biosyslit</setSpec>
    </header>
    <header>
      <identifier>oai:zenodo.org:241747</identifier>
      <datestamp>2017-01-13T05:31:41Z</datestamp>
      <setSpec>user-biosyslit</setSpec>
    </header>
    <header>
      <identifier>oai:zenodo.org:241766</identifier>
      <datestamp>2017-01-13T05:36:43Z</datestamp>
      <setSpec>user-biosyslit</setSpec>
    </header>
    <header>
      <identifier>oai:zenodo.org:242282</identifier>
      <datestamp>2017-01-13T12:51:24Z</datestamp>
      <setSpec>user-biosyslit</setSpec>
    </header>
    <header>
      <identifier>oai:zenodo.org:229619</identifier>
      <datestamp>2017-01-03T19:25:55Z</datestamp>
      <setSpec>user-biosyslit</setSpec>
    </header>
    <header>
      <identifier>oai:zenodo.org:228494</identifier>
      <datestamp>2017-01-03T00:31:45Z</datestamp>
      <setSpec>user-biosyslit</setSpec>
    </header>
    <header>
      <identifier>oai:zenodo.org:228501</identifier>
      <datestamp>2017-01-03T00:39:05Z</datestamp>
      <setSpec>user-biosyslit</setSpec>
    </header>
    <header>
      <identifier>oai:zenodo.org:227893</identifier>
      <datestamp>2017-01-02T06:24:32Z</datestamp>
      <setSpec>user-biosyslit</setSpec>
    </header>
    <header>
      <identifier>oai:zenodo.org:229468</identifier>
      <datestamp>2017-01-03T16:33:35Z</datestamp>
      <setSpec>user-biosyslit</setSpec>
    </header>
    <header>
      <identifier>oai:zenodo.org:229040</identifier>
      <datestamp>2017-01-03T08:42:13Z</datestamp>
      <setSpec>user-biosyslit</setSpec>
    </header>
    <header>
      <identifier>oai:zenodo.org:227927</identifier>
      <datestamp>2017-01-02T06:52:02Z</datestamp>
      <setSpec>user-biosyslit</setSpec>
    </header>
    <header>
      <identifier>oai:zenodo.org:495831</identifier>
      <datestamp>2017-04-10T07:21:00Z</datestamp>
      <setSpec>user-biosyslit</setSpec>
    </header>
    <header>
      <identifier>oai:zenodo.org:230164</identifier>
      <datestamp>2017-01-04T20:36:26Z</datestamp>
      <setSpec>user-biosyslit</setSpec>
    </header>
    <resumptionToken expirationDate="2017-08-31T15:45:58Z" cursor="44900" completeListSize="77796">.eJyNysEKgjAYAOB3-c8S_1yxErqIJh1U1lLUS5iKVNPEFenCd89L5zp_3xtUVZVg4QIZY0s02YYiYUhXzABV9HcpT5fZoUhiWbQyyr34eWhiTM2aBY4afCelgb5h2BAtdtxMyHqILjjyY_RI9WGI6f4l0GW-5mNw3c-vpKEns7PXiai1pTDLPnT5KIgtMlp8H_nz6Z_PUVswoMvrCqzlihhwe-V9rcB6T9MHzDdRag.DInAPg.-ImuRDLFMIJdk-v7imqJuI9w1qw</resumptionToken>
  </ListIdentifiers>
</OAI-PMH>
