<?xml version='1.0' encoding='UTF-8'?>
<?xml-stylesheet type="text/xsl" href="/static/xsl/oai2.v1.0.xsl"?>
<OAI-PMH xmlns="http://www.openarchives.org/OAI/2.0/" xmlns:xsi="http://www.w3.org/2001/XMLSchema-instance" xsi:schemaLocation="http://www.openarchives.org/OAI/2.0/ http://www.openarchives.org/OAI/2.0/OAI-PMH.xsd">
  <responseDate>2017-08-31T15:41:23Z</responseDate>
  <request verb="ListIdentifiers" resumptionToken=".eJyNyj0LgkAYAOD_8s4S91FqQkto4qByXh7ZEqYi5mniFelF_72W5pqf5wmqqkpw0MJc2hhRbCFC19imxABVjFcpT82HoTgIWfQyzX1xTzqBMlJbkaum0M1opFsUd1jzHSMHbE9pg2a2T2-ZTiZBgwdHnhVqNkeX4PNKGvvyePYHnvZbyUk5xh6bOd7yIy2-D__59M_nqg0YMOR1Bc7KNKB95GOtwHm-Xm9CWVEA.DIm_ow.gzHCnj80jbI-Ev3z-NVX2HVBEKw">https://zenodo.org/oai2d</request>
  <ListIdentifiers>
    <header>
      <identifier>oai:zenodo.org:264529</identifier>
      <datestamp>2017-01-30T23:05:53Z</datestamp>
      <setSpec>user-biosyslit</setSpec>
    </header>
    <header>
      <identifier>oai:zenodo.org:264798</identifier>
      <datestamp>2017-01-31T02:43:39Z</datestamp>
      <setSpec>user-biosyslit</setSpec>
    </header>
    <header>
      <identifier>oai:zenodo.org:264829</identifier>
      <datestamp>2017-01-31T03:13:51Z</datestamp>
      <setSpec>user-biosyslit</setSpec>
    </header>
    <header>
      <identifier>oai:zenodo.org:271227</identifier>
      <datestamp>2017-02-08T01:05:53Z</datestamp>
      <setSpec>user-biosyslit</setSpec>
    </header>
    <header>
      <identifier>oai:zenodo.org:278632</identifier>
      <datestamp>2017-02-08T23:33:28Z</datestamp>
      <setSpec>user-biosyslit</setSpec>
    </header>
    <header>
      <identifier>oai:zenodo.org:240024</identifier>
      <datestamp>2017-01-12T03:50:11Z</datestamp>
      <setSpec>user-biosyslit</setSpec>
    </header>
    <header>
      <identifier>oai:zenodo.org:278666</identifier>
      <datestamp>2017-02-08T23:38:34Z</datestamp>
      <setSpec>user-biosyslit</setSpec>
    </header>
    <header>
      <identifier>oai:zenodo.org:278193</identifier>
      <datestamp>2017-02-08T22:37:41Z</datestamp>
      <setSpec>user-biosyslit</setSpec>
    </header>
    <header>
      <identifier>oai:zenodo.org:278451</identifier>
      <datestamp>2017-02-08T23:11:49Z</datestamp>
      <setSpec>user-biosyslit</setSpec>
    </header>
    <header>
      <identifier>oai:zenodo.org:278847</identifier>
      <datestamp>2017-02-08T23:59:34Z</datestamp>
      <setSpec>user-biosyslit</setSpec>
    </header>
    <header>
      <identifier>oai:zenodo.org:240375</identifier>
      <datestamp>2017-01-12T07:58:47Z</datestamp>
      <setSpec>user-biosyslit</setSpec>
    </header>
    <header>
      <identifier>oai:zenodo.org:240109</identifier>
      <datestamp>2017-01-12T04:50:01Z</datestamp>
      <setSpec>user-biosyslit</setSpec>
    </header>
    <header>
      <identifier>oai:zenodo.org:278962</identifier>
      <datestamp>2017-02-09T00:16:47Z</datestamp>
      <setSpec>user-biosyslit</setSpec>
    </header>
    <header>
      <identifier>oai:zenodo.org:271350</identifier>
      <datestamp>2017-02-08T01:31:07Z</datestamp>
      <setSpec>user-biosyslit</setSpec>
    </header>
    <header>
      <identifier>oai:zenodo.org:279434</identifier>
      <datestamp>2017-02-09T01:21:32Z</datestamp>
      <setSpec>user-biosyslit</setSpec>
    </header>
    <header>
      <identifier>oai:zenodo.org:239629</identifier>
      <datestamp>2017-01-11T22:52:02Z</datestamp>
      <setSpec>user-biosyslit</setSpec>
    </header>
    <header>
      <identifier>oai:zenodo.org:278589</identifier>
      <datestamp>2017-02-08T23:30:29Z</datestamp>
      <setSpec>user-biosyslit</setSpec>
    </header>
    <header>
      <identifier>oai:zenodo.org:239771</identifier>
      <datestamp>2017-01-12T00:45:23Z</datestamp>
      <setSpec>user-biosyslit</setSpec>
    </header>
    <header>
      <identifier>oai:zenodo.org:278163</identifier>
      <datestamp>2017-02-08T22:35:28Z</datestamp>
      <setSpec>user-biosyslit</setSpec>
    </header>
    <header>
      <identifier>oai:zenodo.org:239747</identifier>
      <datestamp>2017-01-12T00:18:28Z</datestamp>
      <setSpec>user-biosyslit</setSpec>
    </header>
    <header>
      <identifier>oai:zenodo.org:271116</identifier>
      <datestamp>2017-02-08T00:49:13Z</datestamp>
      <setSpec>user-biosyslit</setSpec>
    </header>
    <header>
      <identifier>oai:zenodo.org:240379</identifier>
      <datestamp>2017-01-12T07:59:00Z</datestamp>
      <setSpec>user-biosyslit</setSpec>
    </header>
    <header>
      <identifier>oai:zenodo.org:240515</identifier>
      <datestamp>2017-01-12T09:49:27Z</datestamp>
      <setSpec>user-biosyslit</setSpec>
    </header>
    <header>
      <identifier>oai:zenodo.org:240479</identifier>
      <datestamp>2017-01-12T09:05:09Z</datestamp>
      <setSpec>user-biosyslit</setSpec>
    </header>
    <header>
      <identifier>oai:zenodo.org:240205</identifier>
      <datestamp>2017-01-12T05:58:53Z</datestamp>
      <setSpec>user-biosyslit</setSpec>
    </header>
    <header>
      <identifier>oai:zenodo.org:278989</identifier>
      <datestamp>2017-02-09T00:21:53Z</datestamp>
      <setSpec>user-biosyslit</setSpec>
    </header>
    <header>
      <identifier>oai:zenodo.org:271159</identifier>
      <datestamp>2017-02-08T00:55:20Z</datestamp>
      <setSpec>user-biosyslit</setSpec>
    </header>
    <header>
      <identifier>oai:zenodo.org:240765</identifier>
      <datestamp>2017-01-12T13:43:37Z</datestamp>
      <setSpec>user-biosyslit</setSpec>
    </header>
    <header>
      <identifier>oai:zenodo.org:278697</identifier>
      <datestamp>2017-02-08T23:43:03Z</datestamp>
      <setSpec>user-biosyslit</setSpec>
    </header>
    <header>
      <identifier>oai:zenodo.org:278608</identifier>
      <datestamp>2017-02-08T23:30:06Z</datestamp>
      <setSpec>user-biosyslit</setSpec>
    </header>
    <header>
      <identifier>oai:zenodo.org:240376</identifier>
      <datestamp>2017-01-12T07:58:51Z</datestamp>
      <setSpec>user-biosyslit</setSpec>
    </header>
    <header>
      <identifier>oai:zenodo.org:241025</identifier>
      <datestamp>2017-01-12T19:06:55Z</datestamp>
      <setSpec>user-biosyslit</setSpec>
    </header>
    <header>
      <identifier>oai:zenodo.org:271812</identifier>
      <datestamp>2017-02-08T02:43:30Z</datestamp>
      <setSpec>user-biosyslit</setSpec>
    </header>
    <header>
      <identifier>oai:zenodo.org:279407</identifier>
      <datestamp>2017-02-09T01:14:51Z</datestamp>
      <setSpec>user-biosyslit</setSpec>
    </header>
    <header>
      <identifier>oai:zenodo.org:272163</identifier>
      <datestamp>2017-02-08T03:53:20Z</datestamp>
      <setSpec>user-biosyslit</setSpec>
    </header>
    <header>
      <identifier>oai:zenodo.org:272465</identifier>
      <datestamp>2017-02-08T04:45:06Z</datestamp>
      <setSpec>user-biosyslit</setSpec>
    </header>
    <header>
      <identifier>oai:zenodo.org:241486</identifier>
      <datestamp>2017-01-13T02:00:40Z</datestamp>
      <setSpec>user-biosyslit</setSpec>
    </header>
    <header>
      <identifier>oai:zenodo.org:272231</identifier>
      <datestamp>2017-02-08T04:03:13Z</datestamp>
      <setSpec>user-biosyslit</setSpec>
    </header>
    <header>
      <identifier>oai:zenodo.org:279044</identifier>
      <datestamp>2017-02-09T00:28:37Z</datestamp>
      <setSpec>user-biosyslit</setSpec>
    </header>
    <header>
      <identifier>oai:zenodo.org:272240</identifier>
      <datestamp>2017-02-08T04:04:28Z</datestamp>
      <setSpec>user-biosyslit</setSpec>
    </header>
    <header>
      <identifier>oai:zenodo.org:278899</identifier>
      <datestamp>2017-02-09T00:05:23Z</datestamp>
      <setSpec>user-biosyslit</setSpec>
    </header>
    <header>
      <identifier>oai:zenodo.org:278952</identifier>
      <datestamp>2017-02-09T00:13:57Z</datestamp>
      <setSpec>user-biosyslit</setSpec>
    </header>
    <header>
      <identifier>oai:zenodo.org:279825</identifier>
      <datestamp>2017-02-09T02:07:03Z</datestamp>
      <setSpec>user-biosyslit</setSpec>
    </header>
    <header>
      <identifier>oai:zenodo.org:243612</identifier>
      <datestamp>2017-01-14T08:12:17Z</datestamp>
      <setSpec>user-biosyslit</setSpec>
    </header>
    <header>
      <identifier>oai:zenodo.org:279642</identifier>
      <datestamp>2017-02-09T01:46:22Z</datestamp>
      <setSpec>user-biosyslit</setSpec>
    </header>
    <header>
      <identifier>oai:zenodo.org:242573</identifier>
      <datestamp>2017-01-13T16:58:03Z</datestamp>
      <setSpec>user-biosyslit</setSpec>
    </header>
    <header>
      <identifier>oai:zenodo.org:242443</identifier>
      <datestamp>2017-01-13T15:20:57Z</datestamp>
      <setSpec>user-biosyslit</setSpec>
    </header>
    <header>
      <identifier>oai:zenodo.org:242412</identifier>
      <datestamp>2017-01-13T15:09:12Z</datestamp>
      <setSpec>user-biosyslit</setSpec>
    </header>
    <header>
      <identifier>oai:zenodo.org:243342</identifier>
      <datestamp>2017-01-14T03:00:37Z</datestamp>
      <setSpec>user-biosyslit</setSpec>
    </header>
    <header>
      <identifier>oai:zenodo.org:242703</identifier>
      <datestamp>2017-01-13T18:53:20Z</datestamp>
      <setSpec>user-biosyslit</setSpec>
    </header>
    <header>
      <identifier>oai:zenodo.org:243177</identifier>
      <datestamp>2017-01-14T00:18:05Z</datestamp>
      <setSpec>user-biosyslit</setSpec>
    </header>
    <header>
      <identifier>oai:zenodo.org:243700</identifier>
      <datestamp>2017-01-14T09:21:04Z</datestamp>
      <setSpec>user-biosyslit</setSpec>
    </header>
    <header>
      <identifier>oai:zenodo.org:243744</identifier>
      <datestamp>2017-01-14T10:08:56Z</datestamp>
      <setSpec>user-biosyslit</setSpec>
    </header>
    <header>
      <identifier>oai:zenodo.org:244795</identifier>
      <datestamp>2017-01-15T02:44:55Z</datestamp>
      <setSpec>user-biosyslit</setSpec>
    </header>
    <header>
      <identifier>oai:zenodo.org:243501</identifier>
      <datestamp>2017-01-14T06:36:07Z</datestamp>
      <setSpec>user-biosyslit</setSpec>
    </header>
    <header>
      <identifier>oai:zenodo.org:244126</identifier>
      <datestamp>2017-01-14T16:31:48Z</datestamp>
      <setSpec>user-biosyslit</setSpec>
    </header>
    <header>
      <identifier>oai:zenodo.org:245211</identifier>
      <datestamp>2017-01-15T10:05:30Z</datestamp>
      <setSpec>user-biosyslit</setSpec>
    </header>
    <header>
      <identifier>oai:zenodo.org:244510</identifier>
      <datestamp>2017-01-14T22:57:04Z</datestamp>
      <setSpec>user-biosyslit</setSpec>
    </header>
    <header>
      <identifier>oai:zenodo.org:244621</identifier>
      <datestamp>2017-01-15T00:09:01Z</datestamp>
      <setSpec>user-biosyslit</setSpec>
    </header>
    <header>
      <identifier>oai:zenodo.org:279782</identifier>
      <datestamp>2017-02-09T02:03:26Z</datestamp>
      <setSpec>user-biosyslit</setSpec>
    </header>
    <header>
      <identifier>oai:zenodo.org:245160</identifier>
      <datestamp>2017-01-15T09:02:02Z</datestamp>
      <setSpec>user-biosyslit</setSpec>
    </header>
    <header>
      <identifier>oai:zenodo.org:244473</identifier>
      <datestamp>2017-01-14T22:28:43Z</datestamp>
      <setSpec>user-biosyslit</setSpec>
    </header>
    <header>
      <identifier>oai:zenodo.org:245409</identifier>
      <datestamp>2017-01-15T12:52:55Z</datestamp>
      <setSpec>user-biosyslit</setSpec>
    </header>
    <header>
      <identifier>oai:zenodo.org:245862</identifier>
      <datestamp>2017-01-15T19:11:38Z</datestamp>
      <setSpec>user-biosyslit</setSpec>
    </header>
    <header>
      <identifier>oai:zenodo.org:245985</identifier>
      <datestamp>2017-01-15T20:25:41Z</datestamp>
      <setSpec>user-biosyslit</setSpec>
    </header>
    <header>
      <identifier>oai:zenodo.org:245153</identifier>
      <datestamp>2017-01-15T08:23:41Z</datestamp>
      <setSpec>user-biosyslit</setSpec>
    </header>
    <header>
      <identifier>oai:zenodo.org:245827</identifier>
      <datestamp>2017-01-15T19:13:09Z</datestamp>
      <setSpec>user-biosyslit</setSpec>
    </header>
    <header>
      <identifier>oai:zenodo.org:272373</identifier>
      <datestamp>2017-02-08T04:22:41Z</datestamp>
      <setSpec>user-biosyslit</setSpec>
    </header>
    <header>
      <identifier>oai:zenodo.org:245694</identifier>
      <datestamp>2017-01-15T17:32:33Z</datestamp>
      <setSpec>user-biosyslit</setSpec>
    </header>
    <header>
      <identifier>oai:zenodo.org:245434</identifier>
      <datestamp>2017-01-15T13:12:29Z</datestamp>
      <setSpec>user-biosyslit</setSpec>
    </header>
    <header>
      <identifier>oai:zenodo.org:245320</identifier>
      <datestamp>2017-01-15T11:43:41Z</datestamp>
      <setSpec>user-biosyslit</setSpec>
    </header>
    <header>
      <identifier>oai:zenodo.org:245695</identifier>
      <datestamp>2017-01-15T17:32:36Z</datestamp>
      <setSpec>user-biosyslit</setSpec>
    </header>
    <header>
      <identifier>oai:zenodo.org:272347</identifier>
      <datestamp>2017-02-08T04:20:19Z</datestamp>
      <setSpec>user-biosyslit</setSpec>
    </header>
    <header>
      <identifier>oai:zenodo.org:247235</identifier>
      <datestamp>2017-01-16T12:54:41Z</datestamp>
      <setSpec>user-biosyslit</setSpec>
    </header>
    <header>
      <identifier>oai:zenodo.org:245709</identifier>
      <datestamp>2017-01-15T17:45:10Z</datestamp>
      <setSpec>user-biosyslit</setSpec>
    </header>
    <header>
      <identifier>oai:zenodo.org:246463</identifier>
      <datestamp>2017-01-16T02:29:13Z</datestamp>
      <setSpec>user-biosyslit</setSpec>
    </header>
    <header>
      <identifier>oai:zenodo.org:246291</identifier>
      <datestamp>2017-01-15T23:47:12Z</datestamp>
      <setSpec>user-biosyslit</setSpec>
    </header>
    <header>
      <identifier>oai:zenodo.org:246703</identifier>
      <datestamp>2017-01-16T06:59:31Z</datestamp>
      <setSpec>user-biosyslit</setSpec>
    </header>
    <header>
      <identifier>oai:zenodo.org:246858</identifier>
      <datestamp>2017-01-16T09:21:45Z</datestamp>
      <setSpec>user-biosyslit</setSpec>
    </header>
    <header>
      <identifier>oai:zenodo.org:247404</identifier>
      <datestamp>2017-01-16T15:26:55Z</datestamp>
      <setSpec>user-biosyslit</setSpec>
    </header>
    <header>
      <identifier>oai:zenodo.org:247545</identifier>
      <datestamp>2017-01-16T16:48:27Z</datestamp>
      <setSpec>user-biosyslit</setSpec>
    </header>
    <header>
      <identifier>oai:zenodo.org:248152</identifier>
      <datestamp>2017-01-17T00:42:24Z</datestamp>
      <setSpec>user-biosyslit</setSpec>
    </header>
    <header>
      <identifier>oai:zenodo.org:247113</identifier>
      <datestamp>2017-01-16T11:38:37Z</datestamp>
      <setSpec>user-biosyslit</setSpec>
    </header>
    <header>
      <identifier>oai:zenodo.org:247565</identifier>
      <datestamp>2017-01-16T17:12:35Z</datestamp>
      <setSpec>user-biosyslit</setSpec>
    </header>
    <header>
      <identifier>oai:zenodo.org:247447</identifier>
      <datestamp>2017-01-16T15:30:02Z</datestamp>
      <setSpec>user-biosyslit</setSpec>
    </header>
    <header>
      <identifier>oai:zenodo.org:272837</identifier>
      <datestamp>2017-02-08T06:29:53Z</datestamp>
      <setSpec>user-biosyslit</setSpec>
    </header>
    <header>
      <identifier>oai:zenodo.org:247296</identifier>
      <datestamp>2017-01-16T13:53:24Z</datestamp>
      <setSpec>user-biosyslit</setSpec>
    </header>
    <header>
      <identifier>oai:zenodo.org:248287</identifier>
      <datestamp>2017-01-17T02:17:22Z</datestamp>
      <setSpec>user-biosyslit</setSpec>
    </header>
    <header>
      <identifier>oai:zenodo.org:248931</identifier>
      <datestamp>2017-01-17T13:54:39Z</datestamp>
      <setSpec>user-biosyslit</setSpec>
    </header>
    <header>
      <identifier>oai:zenodo.org:248165</identifier>
      <datestamp>2017-01-17T00:43:15Z</datestamp>
      <setSpec>user-biosyslit</setSpec>
    </header>
    <header>
      <identifier>oai:zenodo.org:248712</identifier>
      <datestamp>2017-01-17T08:29:02Z</datestamp>
      <setSpec>user-biosyslit</setSpec>
    </header>
    <header>
      <identifier>oai:zenodo.org:249131</identifier>
      <datestamp>2017-01-17T16:38:05Z</datestamp>
      <setSpec>user-biosyslit</setSpec>
    </header>
    <header>
      <identifier>oai:zenodo.org:249046</identifier>
      <datestamp>2017-01-17T15:34:57Z</datestamp>
      <setSpec>user-biosyslit</setSpec>
    </header>
    <header>
      <identifier>oai:zenodo.org:275524</identifier>
      <datestamp>2017-02-08T16:37:31Z</datestamp>
      <setSpec>user-biosyslit</setSpec>
    </header>
    <header>
      <identifier>oai:zenodo.org:250070</identifier>
      <datestamp>2017-01-18T04:23:14Z</datestamp>
      <setSpec>user-biosyslit</setSpec>
    </header>
    <header>
      <identifier>oai:zenodo.org:250926</identifier>
      <datestamp>2017-01-18T16:25:48Z</datestamp>
      <setSpec>user-biosyslit</setSpec>
    </header>
    <header>
      <identifier>oai:zenodo.org:250624</identifier>
      <datestamp>2017-01-18T13:01:59Z</datestamp>
      <setSpec>user-biosyslit</setSpec>
    </header>
    <header>
      <identifier>oai:zenodo.org:272754</identifier>
      <datestamp>2017-02-08T06:25:52Z</datestamp>
      <setSpec>user-biosyslit</setSpec>
    </header>
    <header>
      <identifier>oai:zenodo.org:251135</identifier>
      <datestamp>2017-01-18T19:12:55Z</datestamp>
      <setSpec>user-biosyslit</setSpec>
    </header>
    <header>
      <identifier>oai:zenodo.org:250641</identifier>
      <datestamp>2017-01-18T14:01:02Z</datestamp>
      <setSpec>user-biosyslit</setSpec>
    </header>
    <resumptionToken expirationDate="2017-08-31T15:43:23Z" cursor="5500" completeListSize="77796">.eJyNyrEKgkAYAOB3-WeJ0187EVpCEwcVvZR0CVOR8jTxCvXCd6-luebve4Go6wosstHR0EzUKUGD6mSLqIAoxzvn5-vHoTylvOx5UrjpM-5SkmkNDWwx-3aGgWxJ2KmSHSLtpJpzciVLdEwemYznFL2JEYf6MlqCm_d5FYYuzy_uwJJ-z5lWjaETLUzdsxzL71P_fPLns8UOFBiKpgbLoAq0UzE2AqzXur4Be1tROg.DIm_ow.f4V0T51M517zuOUhbX9PpMb9Bb4</resumptionToken>
  </ListIdentifiers>
</OAI-PMH>
