<?xml version='1.0' encoding='UTF-8'?>
<?xml-stylesheet type="text/xsl" href="/static/xsl/oai2.v1.0.xsl"?>
<OAI-PMH xmlns="http://www.openarchives.org/OAI/2.0/" xmlns:xsi="http://www.w3.org/2001/XMLSchema-instance" xsi:schemaLocation="http://www.openarchives.org/OAI/2.0/ http://www.openarchives.org/OAI/2.0/OAI-PMH.xsd">
  <responseDate>2017-08-31T15:43:24Z</responseDate>
  <request verb="ListIdentifiers" resumptionToken=".eJyNyj0PQ0AYAOD_8s7S3LnUV9KloWJAuBIsjSKijoprgxP_vZbO7fw8K_CqKsFAB03GCOu6jrByVIiuScCL8cnYrdkZiiRmRc-i3I7fYRejVK5Vz-Sza6bEEy3yOyzoJZATrM1Rg5bgGr1SEc4xcSaKLNUVweI9nP2VxLdZdrcHGvVnRuVy9K1gofhMM1J8H_7ziZ_P5CeQYMjrCgyiqBK0Uz7WHIx12z6it1FI.DInAHA.wa0HAINMPYeSgAvNI4NpBkmWFMs">https://zenodo.org/oai2d</request>
  <ListIdentifiers>
    <header>
      <identifier>oai:zenodo.org:844802</identifier>
      <datestamp>2017-08-17T12:50:02Z</datestamp>
      <setSpec>user-biosyslit</setSpec>
    </header>
    <header>
      <identifier>oai:zenodo.org:844798</identifier>
      <datestamp>2017-08-17T12:49:54Z</datestamp>
      <setSpec>user-biosyslit</setSpec>
    </header>
    <header>
      <identifier>oai:zenodo.org:844874</identifier>
      <datestamp>2017-08-17T17:01:39Z</datestamp>
      <setSpec>user-biosyslit</setSpec>
    </header>
    <header>
      <identifier>oai:zenodo.org:844876</identifier>
      <datestamp>2017-08-17T17:01:42Z</datestamp>
      <setSpec>user-biosyslit</setSpec>
    </header>
    <header>
      <identifier>oai:zenodo.org:844878</identifier>
      <datestamp>2017-08-17T17:01:45Z</datestamp>
      <setSpec>user-biosyslit</setSpec>
    </header>
    <header>
      <identifier>oai:zenodo.org:844892</identifier>
      <datestamp>2017-08-17T17:02:10Z</datestamp>
      <setSpec>user-biosyslit</setSpec>
    </header>
    <header>
      <identifier>oai:zenodo.org:844886</identifier>
      <datestamp>2017-08-17T17:02:01Z</datestamp>
      <setSpec>user-biosyslit</setSpec>
    </header>
    <header>
      <identifier>oai:zenodo.org:844880</identifier>
      <datestamp>2017-08-17T17:01:49Z</datestamp>
      <setSpec>user-biosyslit</setSpec>
    </header>
    <header>
      <identifier>oai:zenodo.org:844894</identifier>
      <datestamp>2017-08-17T17:02:14Z</datestamp>
      <setSpec>user-biosyslit</setSpec>
    </header>
    <header>
      <identifier>oai:zenodo.org:842293</identifier>
      <datestamp>2017-08-14T05:12:54Z</datestamp>
      <setSpec>user-biosyslit</setSpec>
    </header>
    <header>
      <identifier>oai:zenodo.org:842297</identifier>
      <datestamp>2017-08-14T05:13:08Z</datestamp>
      <setSpec>user-biosyslit</setSpec>
    </header>
    <header>
      <identifier>oai:zenodo.org:842299</identifier>
      <datestamp>2017-08-14T05:13:11Z</datestamp>
      <setSpec>user-biosyslit</setSpec>
    </header>
    <header>
      <identifier>oai:zenodo.org:842301</identifier>
      <datestamp>2017-08-14T05:13:16Z</datestamp>
      <setSpec>user-biosyslit</setSpec>
    </header>
    <header>
      <identifier>oai:zenodo.org:842315</identifier>
      <datestamp>2017-08-14T05:13:41Z</datestamp>
      <setSpec>user-biosyslit</setSpec>
    </header>
    <header>
      <identifier>oai:zenodo.org:842309</identifier>
      <datestamp>2017-08-14T05:13:29Z</datestamp>
      <setSpec>user-biosyslit</setSpec>
    </header>
    <header>
      <identifier>oai:zenodo.org:842311</identifier>
      <datestamp>2017-08-14T05:13:34Z</datestamp>
      <setSpec>user-biosyslit</setSpec>
    </header>
    <header>
      <identifier>oai:zenodo.org:842321</identifier>
      <datestamp>2017-08-14T05:13:53Z</datestamp>
      <setSpec>user-biosyslit</setSpec>
    </header>
    <header>
      <identifier>oai:zenodo.org:842329</identifier>
      <datestamp>2017-08-14T05:14:08Z</datestamp>
      <setSpec>user-biosyslit</setSpec>
    </header>
    <header>
      <identifier>oai:zenodo.org:842345</identifier>
      <datestamp>2017-08-14T05:14:38Z</datestamp>
      <setSpec>user-biosyslit</setSpec>
    </header>
    <header>
      <identifier>oai:zenodo.org:842333</identifier>
      <datestamp>2017-08-14T05:14:15Z</datestamp>
      <setSpec>user-biosyslit</setSpec>
    </header>
    <header>
      <identifier>oai:zenodo.org:842325</identifier>
      <datestamp>2017-08-14T05:13:59Z</datestamp>
      <setSpec>user-biosyslit</setSpec>
    </header>
    <header>
      <identifier>oai:zenodo.org:842335</identifier>
      <datestamp>2017-08-14T05:14:19Z</datestamp>
      <setSpec>user-biosyslit</setSpec>
    </header>
    <header>
      <identifier>oai:zenodo.org:842341</identifier>
      <datestamp>2017-08-14T05:14:31Z</datestamp>
      <setSpec>user-biosyslit</setSpec>
    </header>
    <header>
      <identifier>oai:zenodo.org:842327</identifier>
      <datestamp>2017-08-14T05:14:04Z</datestamp>
      <setSpec>user-biosyslit</setSpec>
    </header>
    <header>
      <identifier>oai:zenodo.org:842357</identifier>
      <datestamp>2017-08-14T05:15:01Z</datestamp>
      <setSpec>user-biosyslit</setSpec>
    </header>
    <header>
      <identifier>oai:zenodo.org:842347</identifier>
      <datestamp>2017-08-14T05:14:41Z</datestamp>
      <setSpec>user-biosyslit</setSpec>
    </header>
    <header>
      <identifier>oai:zenodo.org:842355</identifier>
      <datestamp>2017-08-14T05:14:57Z</datestamp>
      <setSpec>user-biosyslit</setSpec>
    </header>
    <header>
      <identifier>oai:zenodo.org:842363</identifier>
      <datestamp>2017-08-14T05:15:12Z</datestamp>
      <setSpec>user-biosyslit</setSpec>
    </header>
    <header>
      <identifier>oai:zenodo.org:842359</identifier>
      <datestamp>2017-08-14T05:15:05Z</datestamp>
      <setSpec>user-biosyslit</setSpec>
    </header>
    <header>
      <identifier>oai:zenodo.org:842379</identifier>
      <datestamp>2017-08-14T05:15:46Z</datestamp>
      <setSpec>user-biosyslit</setSpec>
    </header>
    <header>
      <identifier>oai:zenodo.org:842383</identifier>
      <datestamp>2017-08-14T05:15:54Z</datestamp>
      <setSpec>user-biosyslit</setSpec>
    </header>
    <header>
      <identifier>oai:zenodo.org:842377</identifier>
      <datestamp>2017-08-14T05:15:43Z</datestamp>
      <setSpec>user-biosyslit</setSpec>
    </header>
    <header>
      <identifier>oai:zenodo.org:842389</identifier>
      <datestamp>2017-08-14T05:16:05Z</datestamp>
      <setSpec>user-biosyslit</setSpec>
    </header>
    <header>
      <identifier>oai:zenodo.org:842415</identifier>
      <datestamp>2017-08-14T05:16:59Z</datestamp>
      <setSpec>user-biosyslit</setSpec>
    </header>
    <header>
      <identifier>oai:zenodo.org:842397</identifier>
      <datestamp>2017-08-14T05:16:20Z</datestamp>
      <setSpec>user-biosyslit</setSpec>
    </header>
    <header>
      <identifier>oai:zenodo.org:842401</identifier>
      <datestamp>2017-08-14T05:16:27Z</datestamp>
      <setSpec>user-biosyslit</setSpec>
    </header>
    <header>
      <identifier>oai:zenodo.org:842395</identifier>
      <datestamp>2017-08-14T05:16:16Z</datestamp>
      <setSpec>user-biosyslit</setSpec>
    </header>
    <header>
      <identifier>oai:zenodo.org:842411</identifier>
      <datestamp>2017-08-14T05:16:49Z</datestamp>
      <setSpec>user-biosyslit</setSpec>
    </header>
    <header>
      <identifier>oai:zenodo.org:842419</identifier>
      <datestamp>2017-08-14T05:17:05Z</datestamp>
      <setSpec>user-biosyslit</setSpec>
    </header>
    <header>
      <identifier>oai:zenodo.org:842403</identifier>
      <datestamp>2017-08-14T05:16:31Z</datestamp>
      <setSpec>user-biosyslit</setSpec>
    </header>
    <header>
      <identifier>oai:zenodo.org:842409</identifier>
      <datestamp>2017-08-14T05:16:45Z</datestamp>
      <setSpec>user-biosyslit</setSpec>
    </header>
    <header>
      <identifier>oai:zenodo.org:842423</identifier>
      <datestamp>2017-08-14T05:17:13Z</datestamp>
      <setSpec>user-biosyslit</setSpec>
    </header>
    <header>
      <identifier>oai:zenodo.org:842459</identifier>
      <datestamp>2017-08-14T05:18:33Z</datestamp>
      <setSpec>user-biosyslit</setSpec>
    </header>
    <header>
      <identifier>oai:zenodo.org:842433</identifier>
      <datestamp>2017-08-14T05:17:32Z</datestamp>
      <setSpec>user-biosyslit</setSpec>
    </header>
    <header>
      <identifier>oai:zenodo.org:842453</identifier>
      <datestamp>2017-08-14T05:18:13Z</datestamp>
      <setSpec>user-biosyslit</setSpec>
    </header>
    <header>
      <identifier>oai:zenodo.org:842435</identifier>
      <datestamp>2017-08-14T05:17:35Z</datestamp>
      <setSpec>user-biosyslit</setSpec>
    </header>
    <header>
      <identifier>oai:zenodo.org:842431</identifier>
      <datestamp>2017-08-14T05:17:29Z</datestamp>
      <setSpec>user-biosyslit</setSpec>
    </header>
    <header>
      <identifier>oai:zenodo.org:842445</identifier>
      <datestamp>2017-08-14T05:17:54Z</datestamp>
      <setSpec>user-biosyslit</setSpec>
    </header>
    <header>
      <identifier>oai:zenodo.org:842457</identifier>
      <datestamp>2017-08-14T05:18:30Z</datestamp>
      <setSpec>user-biosyslit</setSpec>
    </header>
    <header>
      <identifier>oai:zenodo.org:842443</identifier>
      <datestamp>2017-08-14T05:17:51Z</datestamp>
      <setSpec>user-biosyslit</setSpec>
    </header>
    <header>
      <identifier>oai:zenodo.org:842451</identifier>
      <datestamp>2017-08-14T05:18:09Z</datestamp>
      <setSpec>user-biosyslit</setSpec>
    </header>
    <header>
      <identifier>oai:zenodo.org:842465</identifier>
      <datestamp>2017-08-14T05:18:46Z</datestamp>
      <setSpec>user-biosyslit</setSpec>
    </header>
    <header>
      <identifier>oai:zenodo.org:842493</identifier>
      <datestamp>2017-08-14T05:19:38Z</datestamp>
      <setSpec>user-biosyslit</setSpec>
    </header>
    <header>
      <identifier>oai:zenodo.org:842473</identifier>
      <datestamp>2017-08-14T05:19:01Z</datestamp>
      <setSpec>user-biosyslit</setSpec>
    </header>
    <header>
      <identifier>oai:zenodo.org:842467</identifier>
      <datestamp>2017-08-14T05:18:50Z</datestamp>
      <setSpec>user-biosyslit</setSpec>
    </header>
    <header>
      <identifier>oai:zenodo.org:842477</identifier>
      <datestamp>2017-08-14T05:19:07Z</datestamp>
      <setSpec>user-biosyslit</setSpec>
    </header>
    <header>
      <identifier>oai:zenodo.org:842503</identifier>
      <datestamp>2017-08-14T05:19:55Z</datestamp>
      <setSpec>user-biosyslit</setSpec>
    </header>
    <header>
      <identifier>oai:zenodo.org:842471</identifier>
      <datestamp>2017-08-14T05:18:57Z</datestamp>
      <setSpec>user-biosyslit</setSpec>
    </header>
    <header>
      <identifier>oai:zenodo.org:842499</identifier>
      <datestamp>2017-08-14T05:19:48Z</datestamp>
      <setSpec>user-biosyslit</setSpec>
    </header>
    <header>
      <identifier>oai:zenodo.org:842483</identifier>
      <datestamp>2017-08-14T05:19:18Z</datestamp>
      <setSpec>user-biosyslit</setSpec>
    </header>
    <header>
      <identifier>oai:zenodo.org:842531</identifier>
      <datestamp>2017-08-14T05:20:57Z</datestamp>
      <setSpec>user-biosyslit</setSpec>
    </header>
    <header>
      <identifier>oai:zenodo.org:842511</identifier>
      <datestamp>2017-08-14T05:20:19Z</datestamp>
      <setSpec>user-biosyslit</setSpec>
    </header>
    <header>
      <identifier>oai:zenodo.org:842527</identifier>
      <datestamp>2017-08-14T05:20:51Z</datestamp>
      <setSpec>user-biosyslit</setSpec>
    </header>
    <header>
      <identifier>oai:zenodo.org:842513</identifier>
      <datestamp>2017-08-14T05:20:23Z</datestamp>
      <setSpec>user-biosyslit</setSpec>
    </header>
    <header>
      <identifier>oai:zenodo.org:842529</identifier>
      <datestamp>2017-08-14T05:20:54Z</datestamp>
      <setSpec>user-biosyslit</setSpec>
    </header>
    <header>
      <identifier>oai:zenodo.org:842523</identifier>
      <datestamp>2017-08-14T05:20:42Z</datestamp>
      <setSpec>user-biosyslit</setSpec>
    </header>
    <header>
      <identifier>oai:zenodo.org:842519</identifier>
      <datestamp>2017-08-14T05:20:34Z</datestamp>
      <setSpec>user-biosyslit</setSpec>
    </header>
    <header>
      <identifier>oai:zenodo.org:842521</identifier>
      <datestamp>2017-08-14T05:20:38Z</datestamp>
      <setSpec>user-biosyslit</setSpec>
    </header>
    <header>
      <identifier>oai:zenodo.org:842507</identifier>
      <datestamp>2017-08-14T05:20:04Z</datestamp>
      <setSpec>user-biosyslit</setSpec>
    </header>
    <header>
      <identifier>oai:zenodo.org:842559</identifier>
      <datestamp>2017-08-14T05:21:49Z</datestamp>
      <setSpec>user-biosyslit</setSpec>
    </header>
    <header>
      <identifier>oai:zenodo.org:842561</identifier>
      <datestamp>2017-08-14T05:21:52Z</datestamp>
      <setSpec>user-biosyslit</setSpec>
    </header>
    <header>
      <identifier>oai:zenodo.org:842537</identifier>
      <datestamp>2017-08-14T05:21:09Z</datestamp>
      <setSpec>user-biosyslit</setSpec>
    </header>
    <header>
      <identifier>oai:zenodo.org:842557</identifier>
      <datestamp>2017-08-14T05:21:45Z</datestamp>
      <setSpec>user-biosyslit</setSpec>
    </header>
    <header>
      <identifier>oai:zenodo.org:842545</identifier>
      <datestamp>2017-08-14T05:21:22Z</datestamp>
      <setSpec>user-biosyslit</setSpec>
    </header>
    <header>
      <identifier>oai:zenodo.org:842551</identifier>
      <datestamp>2017-08-14T05:21:32Z</datestamp>
      <setSpec>user-biosyslit</setSpec>
    </header>
    <header>
      <identifier>oai:zenodo.org:842535</identifier>
      <datestamp>2017-08-14T05:21:05Z</datestamp>
      <setSpec>user-biosyslit</setSpec>
    </header>
    <header>
      <identifier>oai:zenodo.org:842553</identifier>
      <datestamp>2017-08-14T05:21:37Z</datestamp>
      <setSpec>user-biosyslit</setSpec>
    </header>
    <header>
      <identifier>oai:zenodo.org:842555</identifier>
      <datestamp>2017-08-14T05:21:41Z</datestamp>
      <setSpec>user-biosyslit</setSpec>
    </header>
    <header>
      <identifier>oai:zenodo.org:842585</identifier>
      <datestamp>2017-08-14T05:22:34Z</datestamp>
      <setSpec>user-biosyslit</setSpec>
    </header>
    <header>
      <identifier>oai:zenodo.org:842563</identifier>
      <datestamp>2017-08-14T05:21:55Z</datestamp>
      <setSpec>user-biosyslit</setSpec>
    </header>
    <header>
      <identifier>oai:zenodo.org:842573</identifier>
      <datestamp>2017-08-14T05:22:15Z</datestamp>
      <setSpec>user-biosyslit</setSpec>
    </header>
    <header>
      <identifier>oai:zenodo.org:844921</identifier>
      <datestamp>2017-08-17T19:06:05Z</datestamp>
      <setSpec>user-biosyslit</setSpec>
    </header>
    <header>
      <identifier>oai:zenodo.org:842575</identifier>
      <datestamp>2017-08-14T05:22:18Z</datestamp>
      <setSpec>user-biosyslit</setSpec>
    </header>
    <header>
      <identifier>oai:zenodo.org:842565</identifier>
      <datestamp>2017-08-14T05:22:00Z</datestamp>
      <setSpec>user-biosyslit</setSpec>
    </header>
    <header>
      <identifier>oai:zenodo.org:842577</identifier>
      <datestamp>2017-08-14T05:22:22Z</datestamp>
      <setSpec>user-biosyslit</setSpec>
    </header>
    <header>
      <identifier>oai:zenodo.org:842581</identifier>
      <datestamp>2017-08-14T05:22:29Z</datestamp>
      <setSpec>user-biosyslit</setSpec>
    </header>
    <header>
      <identifier>oai:zenodo.org:842579</identifier>
      <datestamp>2017-08-14T05:22:26Z</datestamp>
      <setSpec>user-biosyslit</setSpec>
    </header>
    <header>
      <identifier>oai:zenodo.org:842289</identifier>
      <datestamp>2017-08-14T05:22:40Z</datestamp>
      <setSpec>user-biosyslit</setSpec>
    </header>
    <header>
      <identifier>oai:zenodo.org:844923</identifier>
      <datestamp>2017-08-17T19:06:10Z</datestamp>
      <setSpec>user-biosyslit</setSpec>
    </header>
    <header>
      <identifier>oai:zenodo.org:230827</identifier>
      <datestamp>2017-01-05T08:52:03Z</datestamp>
      <setSpec>user-biosyslit</setSpec>
    </header>
    <header>
      <identifier>oai:zenodo.org:230824</identifier>
      <datestamp>2017-01-05T08:51:56Z</datestamp>
      <setSpec>user-biosyslit</setSpec>
    </header>
    <header>
      <identifier>oai:zenodo.org:244266</identifier>
      <datestamp>2017-01-14T18:48:29Z</datestamp>
      <setSpec>user-biosyslit</setSpec>
    </header>
    <header>
      <identifier>oai:zenodo.org:285260</identifier>
      <datestamp>2017-02-09T13:06:13Z</datestamp>
      <setSpec>user-biosyslit</setSpec>
    </header>
    <header>
      <identifier>oai:zenodo.org:285253</identifier>
      <datestamp>2017-02-09T13:05:58Z</datestamp>
      <setSpec>user-biosyslit</setSpec>
    </header>
    <header>
      <identifier>oai:zenodo.org:285256</identifier>
      <datestamp>2017-02-09T13:06:04Z</datestamp>
      <setSpec>user-biosyslit</setSpec>
    </header>
    <header>
      <identifier>oai:zenodo.org:285252</identifier>
      <datestamp>2017-02-09T13:05:55Z</datestamp>
      <setSpec>user-biosyslit</setSpec>
    </header>
    <header>
      <identifier>oai:zenodo.org:270890</identifier>
      <datestamp>2017-02-08T00:09:44Z</datestamp>
      <setSpec>user-biosyslit</setSpec>
    </header>
    <header>
      <identifier>oai:zenodo.org:270887</identifier>
      <datestamp>2017-02-08T00:09:29Z</datestamp>
      <setSpec>user-biosyslit</setSpec>
    </header>
    <header>
      <identifier>oai:zenodo.org:233223</identifier>
      <datestamp>2017-01-08T02:18:17Z</datestamp>
      <setSpec>user-biosyslit</setSpec>
    </header>
    <header>
      <identifier>oai:zenodo.org:233220</identifier>
      <datestamp>2017-01-08T02:17:59Z</datestamp>
      <setSpec>user-biosyslit</setSpec>
    </header>
    <resumptionToken expirationDate="2017-08-31T15:45:24Z" cursor="36600" completeListSize="77796">.eJyNysEKgjAYAOB3-c8Sm4t0QpewxIPKXEp2CVMRc5q4Qp347nnpXOfvm0EWRQ4W2lCEqUFMSgjdYoqxBjLrn0LcqpUhu8Qia0WUOvE7bGKU6KXh23L07IT4qkZBgxU_Mf2CzTGq0MTO0StR4RgTd-DoaHiKTf7DXV9OAkdc707Ho_YguJ73wZFNHB_4lWTfh_986uez5R406NKyAIvsTA3qIe1LCda8LB-jQlFJ.DInAHA.wVq0UE6PPLgmWam4cYeoyUqlt8Y</resumptionToken>
  </ListIdentifiers>
</OAI-PMH>
