<?xml version='1.0' encoding='UTF-8'?>
<?xml-stylesheet type="text/xsl" href="/static/xsl/oai2.v1.0.xsl"?>
<OAI-PMH xmlns="http://www.openarchives.org/OAI/2.0/" xmlns:xsi="http://www.w3.org/2001/XMLSchema-instance" xsi:schemaLocation="http://www.openarchives.org/OAI/2.0/ http://www.openarchives.org/OAI/2.0/OAI-PMH.xsd">
  <responseDate>2017-08-31T15:46:19Z</responseDate>
  <request verb="ListIdentifiers" resumptionToken=".eJyNyj0LgkAYAOD_8s4S92GdCS2iiUOKXYq6hKmIeVZ4RXrif8-luebnmUBWVQkmWuENYpRsja2uM0wMrIEs-rsQ52ZhKJJYFDcR5W78OnYxSknNfFsOBzulvmpR0GHF9yFJsDFEDRrDU_RM1XGIqffmyGEHFY7-1VteSQNXZBf3waObJTgp-8AJR44tntHi-_CfT_18ttyBBo-8rsBka6pB-877WoI5zfMHnldRQg.DInAyw.kyagyoUdi4EkrggfdH-KIfJkd3o">https://zenodo.org/oai2d</request>
  <ListIdentifiers>
    <header>
      <identifier>oai:zenodo.org:236620</identifier>
      <datestamp>2017-01-10T02:07:26Z</datestamp>
      <setSpec>user-biosyslit</setSpec>
    </header>
    <header>
      <identifier>oai:zenodo.org:285188</identifier>
      <datestamp>2017-02-09T12:52:25Z</datestamp>
      <setSpec>user-biosyslit</setSpec>
    </header>
    <header>
      <identifier>oai:zenodo.org:285189</identifier>
      <datestamp>2017-02-09T12:52:27Z</datestamp>
      <setSpec>user-biosyslit</setSpec>
    </header>
    <header>
      <identifier>oai:zenodo.org:226690</identifier>
      <datestamp>2017-01-01T02:00:10Z</datestamp>
      <setSpec>user-biosyslit</setSpec>
    </header>
    <header>
      <identifier>oai:zenodo.org:226702</identifier>
      <datestamp>2017-01-01T02:00:45Z</datestamp>
      <setSpec>user-biosyslit</setSpec>
    </header>
    <header>
      <identifier>oai:zenodo.org:226689</identifier>
      <datestamp>2017-01-01T02:00:07Z</datestamp>
      <setSpec>user-biosyslit</setSpec>
    </header>
    <header>
      <identifier>oai:zenodo.org:226688</identifier>
      <datestamp>2017-01-01T02:00:05Z</datestamp>
      <setSpec>user-biosyslit</setSpec>
    </header>
    <header>
      <identifier>oai:zenodo.org:226692</identifier>
      <datestamp>2017-01-01T02:00:14Z</datestamp>
      <setSpec>user-biosyslit</setSpec>
    </header>
    <header>
      <identifier>oai:zenodo.org:226701</identifier>
      <datestamp>2017-01-01T02:00:42Z</datestamp>
      <setSpec>user-biosyslit</setSpec>
    </header>
    <header>
      <identifier>oai:zenodo.org:226700</identifier>
      <datestamp>2017-01-01T02:00:39Z</datestamp>
      <setSpec>user-biosyslit</setSpec>
    </header>
    <header>
      <identifier>oai:zenodo.org:226696</identifier>
      <datestamp>2017-01-01T02:00:28Z</datestamp>
      <setSpec>user-biosyslit</setSpec>
    </header>
    <header>
      <identifier>oai:zenodo.org:226686</identifier>
      <datestamp>2017-01-01T02:00:00Z</datestamp>
      <setSpec>user-biosyslit</setSpec>
    </header>
    <header>
      <identifier>oai:zenodo.org:227518</identifier>
      <datestamp>2017-01-01T23:00:04Z</datestamp>
      <setSpec>user-biosyslit</setSpec>
    </header>
    <header>
      <identifier>oai:zenodo.org:256036</identifier>
      <datestamp>2017-01-22T02:42:53Z</datestamp>
      <setSpec>user-biosyslit</setSpec>
    </header>
    <header>
      <identifier>oai:zenodo.org:253987</identifier>
      <datestamp>2017-01-20T13:15:16Z</datestamp>
      <setSpec>user-biosyslit</setSpec>
    </header>
    <header>
      <identifier>oai:zenodo.org:243159</identifier>
      <datestamp>2017-01-13T23:59:23Z</datestamp>
      <setSpec>user-biosyslit</setSpec>
    </header>
    <header>
      <identifier>oai:zenodo.org:227521</identifier>
      <datestamp>2017-01-01T22:59:54Z</datestamp>
      <setSpec>user-biosyslit</setSpec>
    </header>
    <header>
      <identifier>oai:zenodo.org:253990</identifier>
      <datestamp>2017-01-20T13:15:26Z</datestamp>
      <setSpec>user-biosyslit</setSpec>
    </header>
    <header>
      <identifier>oai:zenodo.org:253986</identifier>
      <datestamp>2017-01-20T13:15:11Z</datestamp>
      <setSpec>user-biosyslit</setSpec>
    </header>
    <header>
      <identifier>oai:zenodo.org:256039</identifier>
      <datestamp>2017-01-22T02:42:48Z</datestamp>
      <setSpec>user-biosyslit</setSpec>
    </header>
    <header>
      <identifier>oai:zenodo.org:256040</identifier>
      <datestamp>2017-01-22T02:42:51Z</datestamp>
      <setSpec>user-biosyslit</setSpec>
    </header>
    <header>
      <identifier>oai:zenodo.org:277570</identifier>
      <datestamp>2017-02-08T21:23:42Z</datestamp>
      <setSpec>user-biosyslit</setSpec>
    </header>
    <header>
      <identifier>oai:zenodo.org:277569</identifier>
      <datestamp>2017-02-08T21:23:40Z</datestamp>
      <setSpec>user-biosyslit</setSpec>
    </header>
    <header>
      <identifier>oai:zenodo.org:277568</identifier>
      <datestamp>2017-02-08T21:23:37Z</datestamp>
      <setSpec>user-biosyslit</setSpec>
    </header>
    <header>
      <identifier>oai:zenodo.org:257386</identifier>
      <datestamp>2017-01-23T06:24:26Z</datestamp>
      <setSpec>user-biosyslit</setSpec>
    </header>
    <header>
      <identifier>oai:zenodo.org:283290</identifier>
      <datestamp>2017-02-09T08:32:00Z</datestamp>
      <setSpec>user-biosyslit</setSpec>
    </header>
    <header>
      <identifier>oai:zenodo.org:283289</identifier>
      <datestamp>2017-02-09T08:31:57Z</datestamp>
      <setSpec>user-biosyslit</setSpec>
    </header>
    <header>
      <identifier>oai:zenodo.org:257388</identifier>
      <datestamp>2017-01-23T06:24:06Z</datestamp>
      <setSpec>user-biosyslit</setSpec>
    </header>
    <header>
      <identifier>oai:zenodo.org:257393</identifier>
      <datestamp>2017-01-23T06:24:22Z</datestamp>
      <setSpec>user-biosyslit</setSpec>
    </header>
    <header>
      <identifier>oai:zenodo.org:257392</identifier>
      <datestamp>2017-01-23T06:24:18Z</datestamp>
      <setSpec>user-biosyslit</setSpec>
    </header>
    <header>
      <identifier>oai:zenodo.org:257389</identifier>
      <datestamp>2017-01-23T06:24:08Z</datestamp>
      <setSpec>user-biosyslit</setSpec>
    </header>
    <header>
      <identifier>oai:zenodo.org:257394</identifier>
      <datestamp>2017-01-23T06:24:25Z</datestamp>
      <setSpec>user-biosyslit</setSpec>
    </header>
    <header>
      <identifier>oai:zenodo.org:229591</identifier>
      <datestamp>2017-01-03T19:07:22Z</datestamp>
      <setSpec>user-biosyslit</setSpec>
    </header>
    <header>
      <identifier>oai:zenodo.org:262826</identifier>
      <datestamp>2017-01-29T09:45:54Z</datestamp>
      <setSpec>user-biosyslit</setSpec>
    </header>
    <header>
      <identifier>oai:zenodo.org:229596</identifier>
      <datestamp>2017-01-03T19:07:17Z</datestamp>
      <setSpec>user-biosyslit</setSpec>
    </header>
    <header>
      <identifier>oai:zenodo.org:229593</identifier>
      <datestamp>2017-01-03T19:07:06Z</datestamp>
      <setSpec>user-biosyslit</setSpec>
    </header>
    <header>
      <identifier>oai:zenodo.org:226838</identifier>
      <datestamp>2017-01-01T04:21:23Z</datestamp>
      <setSpec>user-biosyslit</setSpec>
    </header>
    <header>
      <identifier>oai:zenodo.org:232506</identifier>
      <datestamp>2017-01-06T18:51:15Z</datestamp>
      <setSpec>user-biosyslit</setSpec>
    </header>
    <header>
      <identifier>oai:zenodo.org:232507</identifier>
      <datestamp>2017-01-06T18:51:18Z</datestamp>
      <setSpec>user-biosyslit</setSpec>
    </header>
    <header>
      <identifier>oai:zenodo.org:226842</identifier>
      <datestamp>2017-01-01T04:21:21Z</datestamp>
      <setSpec>user-biosyslit</setSpec>
    </header>
    <header>
      <identifier>oai:zenodo.org:233518</identifier>
      <datestamp>2017-01-08T07:27:46Z</datestamp>
      <setSpec>user-biosyslit</setSpec>
    </header>
    <header>
      <identifier>oai:zenodo.org:233515</identifier>
      <datestamp>2017-01-08T07:27:28Z</datestamp>
      <setSpec>user-biosyslit</setSpec>
    </header>
    <header>
      <identifier>oai:zenodo.org:233516</identifier>
      <datestamp>2017-01-08T07:27:32Z</datestamp>
      <setSpec>user-biosyslit</setSpec>
    </header>
    <header>
      <identifier>oai:zenodo.org:269224</identifier>
      <datestamp>2017-02-06T23:31:40Z</datestamp>
      <setSpec>user-biosyslit</setSpec>
    </header>
    <header>
      <identifier>oai:zenodo.org:269232</identifier>
      <datestamp>2017-02-06T23:31:57Z</datestamp>
      <setSpec>user-biosyslit</setSpec>
    </header>
    <header>
      <identifier>oai:zenodo.org:269230</identifier>
      <datestamp>2017-02-06T23:31:53Z</datestamp>
      <setSpec>user-biosyslit</setSpec>
    </header>
    <header>
      <identifier>oai:zenodo.org:269226</identifier>
      <datestamp>2017-02-06T23:31:44Z</datestamp>
      <setSpec>user-biosyslit</setSpec>
    </header>
    <header>
      <identifier>oai:zenodo.org:269228</identifier>
      <datestamp>2017-02-06T23:31:49Z</datestamp>
      <setSpec>user-biosyslit</setSpec>
    </header>
    <header>
      <identifier>oai:zenodo.org:244157</identifier>
      <datestamp>2017-01-14T17:01:34Z</datestamp>
      <setSpec>user-biosyslit</setSpec>
    </header>
    <header>
      <identifier>oai:zenodo.org:230332</identifier>
      <datestamp>2017-01-04T22:57:12Z</datestamp>
      <setSpec>user-biosyslit</setSpec>
    </header>
    <header>
      <identifier>oai:zenodo.org:271082</identifier>
      <datestamp>2017-02-08T00:44:22Z</datestamp>
      <setSpec>user-biosyslit</setSpec>
    </header>
    <header>
      <identifier>oai:zenodo.org:234925</identifier>
      <datestamp>2017-01-09T03:39:00Z</datestamp>
      <setSpec>user-biosyslit</setSpec>
    </header>
    <header>
      <identifier>oai:zenodo.org:230336</identifier>
      <datestamp>2017-01-04T22:57:04Z</datestamp>
      <setSpec>user-biosyslit</setSpec>
    </header>
    <header>
      <identifier>oai:zenodo.org:234928</identifier>
      <datestamp>2017-01-09T03:39:09Z</datestamp>
      <setSpec>user-biosyslit</setSpec>
    </header>
    <header>
      <identifier>oai:zenodo.org:234926</identifier>
      <datestamp>2017-01-09T03:39:03Z</datestamp>
      <setSpec>user-biosyslit</setSpec>
    </header>
    <header>
      <identifier>oai:zenodo.org:253736</identifier>
      <datestamp>2017-01-20T10:32:51Z</datestamp>
      <setSpec>user-biosyslit</setSpec>
    </header>
    <header>
      <identifier>oai:zenodo.org:253735</identifier>
      <datestamp>2017-01-20T10:32:47Z</datestamp>
      <setSpec>user-biosyslit</setSpec>
    </header>
    <header>
      <identifier>oai:zenodo.org:253738</identifier>
      <datestamp>2017-01-20T10:32:59Z</datestamp>
      <setSpec>user-biosyslit</setSpec>
    </header>
    <header>
      <identifier>oai:zenodo.org:286048</identifier>
      <datestamp>2017-02-09T15:07:42Z</datestamp>
      <setSpec>user-biosyslit</setSpec>
    </header>
    <header>
      <identifier>oai:zenodo.org:228806</identifier>
      <datestamp>2017-01-03T05:12:15Z</datestamp>
      <setSpec>user-biosyslit</setSpec>
    </header>
    <header>
      <identifier>oai:zenodo.org:234563</identifier>
      <datestamp>2017-01-08T21:41:57Z</datestamp>
      <setSpec>user-biosyslit</setSpec>
    </header>
    <header>
      <identifier>oai:zenodo.org:234562</identifier>
      <datestamp>2017-01-08T21:41:52Z</datestamp>
      <setSpec>user-biosyslit</setSpec>
    </header>
    <header>
      <identifier>oai:zenodo.org:261836</identifier>
      <datestamp>2017-01-28T15:40:17Z</datestamp>
      <setSpec>user-biosyslit</setSpec>
    </header>
    <header>
      <identifier>oai:zenodo.org:261835</identifier>
      <datestamp>2017-01-28T15:40:13Z</datestamp>
      <setSpec>user-biosyslit</setSpec>
    </header>
    <header>
      <identifier>oai:zenodo.org:234566</identifier>
      <datestamp>2017-01-08T21:42:13Z</datestamp>
      <setSpec>user-biosyslit</setSpec>
    </header>
    <header>
      <identifier>oai:zenodo.org:261837</identifier>
      <datestamp>2017-01-28T15:40:21Z</datestamp>
      <setSpec>user-biosyslit</setSpec>
    </header>
    <header>
      <identifier>oai:zenodo.org:242977</identifier>
      <datestamp>2017-01-13T21:25:26Z</datestamp>
      <setSpec>user-biosyslit</setSpec>
    </header>
    <header>
      <identifier>oai:zenodo.org:242990</identifier>
      <datestamp>2017-01-13T21:25:25Z</datestamp>
      <setSpec>user-biosyslit</setSpec>
    </header>
    <header>
      <identifier>oai:zenodo.org:242984</identifier>
      <datestamp>2017-01-13T21:25:08Z</datestamp>
      <setSpec>user-biosyslit</setSpec>
    </header>
    <header>
      <identifier>oai:zenodo.org:242986</identifier>
      <datestamp>2017-01-13T21:25:13Z</datestamp>
      <setSpec>user-biosyslit</setSpec>
    </header>
    <header>
      <identifier>oai:zenodo.org:283238</identifier>
      <datestamp>2017-02-09T08:24:57Z</datestamp>
      <setSpec>user-biosyslit</setSpec>
    </header>
    <header>
      <identifier>oai:zenodo.org:283231</identifier>
      <datestamp>2017-02-09T08:24:41Z</datestamp>
      <setSpec>user-biosyslit</setSpec>
    </header>
    <header>
      <identifier>oai:zenodo.org:283233</identifier>
      <datestamp>2017-02-09T08:24:46Z</datestamp>
      <setSpec>user-biosyslit</setSpec>
    </header>
    <header>
      <identifier>oai:zenodo.org:270676</identifier>
      <datestamp>2017-02-07T23:48:04Z</datestamp>
      <setSpec>user-biosyslit</setSpec>
    </header>
    <header>
      <identifier>oai:zenodo.org:283874</identifier>
      <datestamp>2017-02-09T09:59:06Z</datestamp>
      <setSpec>user-biosyslit</setSpec>
    </header>
    <header>
      <identifier>oai:zenodo.org:270687</identifier>
      <datestamp>2017-02-07T23:47:55Z</datestamp>
      <setSpec>user-biosyslit</setSpec>
    </header>
    <header>
      <identifier>oai:zenodo.org:283875</identifier>
      <datestamp>2017-02-09T09:58:58Z</datestamp>
      <setSpec>user-biosyslit</setSpec>
    </header>
    <header>
      <identifier>oai:zenodo.org:270686</identifier>
      <datestamp>2017-02-07T23:47:52Z</datestamp>
      <setSpec>user-biosyslit</setSpec>
    </header>
    <header>
      <identifier>oai:zenodo.org:270688</identifier>
      <datestamp>2017-02-07T23:47:58Z</datestamp>
      <setSpec>user-biosyslit</setSpec>
    </header>
    <header>
      <identifier>oai:zenodo.org:265901</identifier>
      <datestamp>2017-01-31T23:10:13Z</datestamp>
      <setSpec>user-biosyslit</setSpec>
    </header>
    <header>
      <identifier>oai:zenodo.org:265898</identifier>
      <datestamp>2017-01-31T23:10:00Z</datestamp>
      <setSpec>user-biosyslit</setSpec>
    </header>
    <header>
      <identifier>oai:zenodo.org:265904</identifier>
      <datestamp>2017-01-31T23:10:24Z</datestamp>
      <setSpec>user-biosyslit</setSpec>
    </header>
    <header>
      <identifier>oai:zenodo.org:265905</identifier>
      <datestamp>2017-01-31T23:10:28Z</datestamp>
      <setSpec>user-biosyslit</setSpec>
    </header>
    <header>
      <identifier>oai:zenodo.org:265903</identifier>
      <datestamp>2017-01-31T23:10:20Z</datestamp>
      <setSpec>user-biosyslit</setSpec>
    </header>
    <header>
      <identifier>oai:zenodo.org:246223</identifier>
      <datestamp>2017-01-15T23:16:36Z</datestamp>
      <setSpec>user-biosyslit</setSpec>
    </header>
    <header>
      <identifier>oai:zenodo.org:246222</identifier>
      <datestamp>2017-01-15T23:16:32Z</datestamp>
      <setSpec>user-biosyslit</setSpec>
    </header>
    <header>
      <identifier>oai:zenodo.org:246219</identifier>
      <datestamp>2017-01-15T23:16:22Z</datestamp>
      <setSpec>user-biosyslit</setSpec>
    </header>
    <header>
      <identifier>oai:zenodo.org:246231</identifier>
      <datestamp>2017-01-15T23:17:02Z</datestamp>
      <setSpec>user-biosyslit</setSpec>
    </header>
    <header>
      <identifier>oai:zenodo.org:246230</identifier>
      <datestamp>2017-01-15T23:16:59Z</datestamp>
      <setSpec>user-biosyslit</setSpec>
    </header>
    <header>
      <identifier>oai:zenodo.org:246227</identifier>
      <datestamp>2017-01-15T23:16:50Z</datestamp>
      <setSpec>user-biosyslit</setSpec>
    </header>
    <header>
      <identifier>oai:zenodo.org:246228</identifier>
      <datestamp>2017-01-15T23:16:53Z</datestamp>
      <setSpec>user-biosyslit</setSpec>
    </header>
    <header>
      <identifier>oai:zenodo.org:287467</identifier>
      <datestamp>2017-02-09T18:25:38Z</datestamp>
      <setSpec>user-biosyslit</setSpec>
    </header>
    <header>
      <identifier>oai:zenodo.org:287465</identifier>
      <datestamp>2017-02-09T18:25:31Z</datestamp>
      <setSpec>user-biosyslit</setSpec>
    </header>
    <header>
      <identifier>oai:zenodo.org:287464</identifier>
      <datestamp>2017-02-09T18:25:28Z</datestamp>
      <setSpec>user-biosyslit</setSpec>
    </header>
    <header>
      <identifier>oai:zenodo.org:235713</identifier>
      <datestamp>2017-01-09T13:53:10Z</datestamp>
      <setSpec>user-biosyslit</setSpec>
    </header>
    <header>
      <identifier>oai:zenodo.org:235717</identifier>
      <datestamp>2017-01-09T13:53:23Z</datestamp>
      <setSpec>user-biosyslit</setSpec>
    </header>
    <header>
      <identifier>oai:zenodo.org:235716</identifier>
      <datestamp>2017-01-09T13:53:19Z</datestamp>
      <setSpec>user-biosyslit</setSpec>
    </header>
    <header>
      <identifier>oai:zenodo.org:235715</identifier>
      <datestamp>2017-01-09T13:53:16Z</datestamp>
      <setSpec>user-biosyslit</setSpec>
    </header>
    <header>
      <identifier>oai:zenodo.org:232356</identifier>
      <datestamp>2017-01-06T16:18:14Z</datestamp>
      <setSpec>user-biosyslit</setSpec>
    </header>
    <header>
      <identifier>oai:zenodo.org:241933</identifier>
      <datestamp>2017-01-13T07:48:53Z</datestamp>
      <setSpec>user-biosyslit</setSpec>
    </header>
    <resumptionToken expirationDate="2017-08-31T15:48:19Z" cursor="75200" completeListSize="77796">.eJyNz8EOQzAAgOF36VmWajdFsoswcUDoCC6LIWLKRLeg4t3nsvN2_r_LvwJeVSXQ4UFRFYwh1ggiWIPoKAFejE_Gbs2eQZHErOhZlNvxO-ximKKaeCafXTPFnmih38mCXgKUyOocNXAJrtErFeEcY2ei0CKuCBbv4eyuxL7Nsrs90Kg3GEXl6FvBQmWDZrj4OvlPJ346k5-BBIa8roBOTvtVO-VjzYG-btsHnptRQw.DInAyw.hfbdX9BqBT_nfX2DbVkM-zovZaI</resumptionToken>
  </ListIdentifiers>
</OAI-PMH>
