<?xml version='1.0' encoding='UTF-8'?>
<?xml-stylesheet type="text/xsl" href="/static/xsl/oai2.v1.0.xsl"?>
<OAI-PMH xmlns="http://www.openarchives.org/OAI/2.0/" xmlns:xsi="http://www.w3.org/2001/XMLSchema-instance" xsi:schemaLocation="http://www.openarchives.org/OAI/2.0/ http://www.openarchives.org/OAI/2.0/OAI-PMH.xsd">
  <responseDate>2017-08-31T15:44:12Z</responseDate>
  <request verb="ListIdentifiers" resumptionToken=".eJyNyssKgkAUANB_uWuJeSijQpuwxEWKTiPZJkxFzOmBU6gj_ntuWtf6nAlUVZXgopVDmOVQ06Q2sS2CTQNU0T2kPDcLQ3FMZXGXIvfTd3JLUUZqFnpq2HsZDXWLohvWfBeTI7YH0aAxPohXppMhpUHP0ZbtdTyG12B5JY18ebr4Ty7uG8lJ2UXbeOR4w0-0-D7859M_n6fWYMAzrytwTcYMaPu8qxW40zx_AKJ8UUk.DInASw.GbgCHaIMM3u1VQPRZyoYuZi365o">https://zenodo.org/oai2d</request>
  <ListIdentifiers>
    <header>
      <identifier>oai:zenodo.org:287529</identifier>
      <datestamp>2017-02-09T18:32:35Z</datestamp>
      <setSpec>user-biosyslit</setSpec>
    </header>
    <header>
      <identifier>oai:zenodo.org:287231</identifier>
      <datestamp>2017-02-09T17:49:09Z</datestamp>
      <setSpec>user-biosyslit</setSpec>
    </header>
    <header>
      <identifier>oai:zenodo.org:287210</identifier>
      <datestamp>2017-02-09T17:47:21Z</datestamp>
      <setSpec>user-biosyslit</setSpec>
    </header>
    <header>
      <identifier>oai:zenodo.org:288984</identifier>
      <datestamp>2017-02-09T22:19:02Z</datestamp>
      <setSpec>user-biosyslit</setSpec>
    </header>
    <header>
      <identifier>oai:zenodo.org:287275</identifier>
      <datestamp>2017-02-09T17:56:53Z</datestamp>
      <setSpec>user-biosyslit</setSpec>
    </header>
    <header>
      <identifier>oai:zenodo.org:287530</identifier>
      <datestamp>2017-02-09T18:32:39Z</datestamp>
      <setSpec>user-biosyslit</setSpec>
    </header>
    <header>
      <identifier>oai:zenodo.org:287290</identifier>
      <datestamp>2017-02-09T17:59:55Z</datestamp>
      <setSpec>user-biosyslit</setSpec>
    </header>
    <header>
      <identifier>oai:zenodo.org:287792</identifier>
      <datestamp>2017-02-09T19:20:41Z</datestamp>
      <setSpec>user-biosyslit</setSpec>
    </header>
    <header>
      <identifier>oai:zenodo.org:288015</identifier>
      <datestamp>2017-02-09T19:49:32Z</datestamp>
      <setSpec>user-biosyslit</setSpec>
    </header>
    <header>
      <identifier>oai:zenodo.org:287480</identifier>
      <datestamp>2017-02-09T18:26:55Z</datestamp>
      <setSpec>user-biosyslit</setSpec>
    </header>
    <header>
      <identifier>oai:zenodo.org:495063</identifier>
      <datestamp>2017-04-05T07:36:43Z</datestamp>
      <setSpec>user-biosyslit</setSpec>
    </header>
    <header>
      <identifier>oai:zenodo.org:288223</identifier>
      <datestamp>2017-02-09T20:20:52Z</datestamp>
      <setSpec>user-biosyslit</setSpec>
    </header>
    <header>
      <identifier>oai:zenodo.org:288005</identifier>
      <datestamp>2017-02-09T19:48:32Z</datestamp>
      <setSpec>user-biosyslit</setSpec>
    </header>
    <header>
      <identifier>oai:zenodo.org:285867</identifier>
      <datestamp>2017-02-09T14:43:45Z</datestamp>
      <setSpec>user-biosyslit</setSpec>
    </header>
    <header>
      <identifier>oai:zenodo.org:285665</identifier>
      <datestamp>2017-02-09T14:05:46Z</datestamp>
      <setSpec>user-biosyslit</setSpec>
    </header>
    <header>
      <identifier>oai:zenodo.org:286464</identifier>
      <datestamp>2017-02-09T16:00:49Z</datestamp>
      <setSpec>user-biosyslit</setSpec>
    </header>
    <header>
      <identifier>oai:zenodo.org:286159</identifier>
      <datestamp>2017-02-09T15:23:57Z</datestamp>
      <setSpec>user-biosyslit</setSpec>
    </header>
    <header>
      <identifier>oai:zenodo.org:286011</identifier>
      <datestamp>2017-02-09T15:01:53Z</datestamp>
      <setSpec>user-biosyslit</setSpec>
    </header>
    <header>
      <identifier>oai:zenodo.org:285965</identifier>
      <datestamp>2017-02-09T14:56:02Z</datestamp>
      <setSpec>user-biosyslit</setSpec>
    </header>
    <header>
      <identifier>oai:zenodo.org:286563</identifier>
      <datestamp>2017-02-09T16:22:52Z</datestamp>
      <setSpec>user-biosyslit</setSpec>
    </header>
    <header>
      <identifier>oai:zenodo.org:286064</identifier>
      <datestamp>2017-02-09T15:09:21Z</datestamp>
      <setSpec>user-biosyslit</setSpec>
    </header>
    <header>
      <identifier>oai:zenodo.org:286559</identifier>
      <datestamp>2017-02-09T16:18:53Z</datestamp>
      <setSpec>user-biosyslit</setSpec>
    </header>
    <header>
      <identifier>oai:zenodo.org:285979</identifier>
      <datestamp>2017-02-09T14:56:29Z</datestamp>
      <setSpec>user-biosyslit</setSpec>
    </header>
    <header>
      <identifier>oai:zenodo.org:286838</identifier>
      <datestamp>2017-02-09T16:57:02Z</datestamp>
      <setSpec>user-biosyslit</setSpec>
    </header>
    <header>
      <identifier>oai:zenodo.org:287101</identifier>
      <datestamp>2017-02-09T17:28:05Z</datestamp>
      <setSpec>user-biosyslit</setSpec>
    </header>
    <header>
      <identifier>oai:zenodo.org:287032</identifier>
      <datestamp>2017-02-09T17:19:42Z</datestamp>
      <setSpec>user-biosyslit</setSpec>
    </header>
    <header>
      <identifier>oai:zenodo.org:286614</identifier>
      <datestamp>2017-02-09T16:25:16Z</datestamp>
      <setSpec>user-biosyslit</setSpec>
    </header>
    <header>
      <identifier>oai:zenodo.org:286565</identifier>
      <datestamp>2017-02-09T16:22:57Z</datestamp>
      <setSpec>user-biosyslit</setSpec>
    </header>
    <header>
      <identifier>oai:zenodo.org:287987</identifier>
      <datestamp>2017-02-09T19:43:46Z</datestamp>
      <setSpec>user-biosyslit</setSpec>
    </header>
    <header>
      <identifier>oai:zenodo.org:287311</identifier>
      <datestamp>2017-02-09T18:00:46Z</datestamp>
      <setSpec>user-biosyslit</setSpec>
    </header>
    <header>
      <identifier>oai:zenodo.org:287785</identifier>
      <datestamp>2017-02-09T19:21:54Z</datestamp>
      <setSpec>user-biosyslit</setSpec>
    </header>
    <header>
      <identifier>oai:zenodo.org:287943</identifier>
      <datestamp>2017-02-09T19:38:58Z</datestamp>
      <setSpec>user-biosyslit</setSpec>
    </header>
    <header>
      <identifier>oai:zenodo.org:287368</identifier>
      <datestamp>2017-02-09T18:10:06Z</datestamp>
      <setSpec>user-biosyslit</setSpec>
    </header>
    <header>
      <identifier>oai:zenodo.org:287127</identifier>
      <datestamp>2017-02-09T17:31:06Z</datestamp>
      <setSpec>user-biosyslit</setSpec>
    </header>
    <header>
      <identifier>oai:zenodo.org:287849</identifier>
      <datestamp>2017-02-09T19:26:17Z</datestamp>
      <setSpec>user-biosyslit</setSpec>
    </header>
    <header>
      <identifier>oai:zenodo.org:288351</identifier>
      <datestamp>2017-02-09T20:42:19Z</datestamp>
      <setSpec>user-biosyslit</setSpec>
    </header>
    <header>
      <identifier>oai:zenodo.org:288114</identifier>
      <datestamp>2017-02-09T20:03:02Z</datestamp>
      <setSpec>user-biosyslit</setSpec>
    </header>
    <header>
      <identifier>oai:zenodo.org:287839</identifier>
      <datestamp>2017-02-09T19:25:10Z</datestamp>
      <setSpec>user-biosyslit</setSpec>
    </header>
    <header>
      <identifier>oai:zenodo.org:287291</identifier>
      <datestamp>2017-02-09T17:59:57Z</datestamp>
      <setSpec>user-biosyslit</setSpec>
    </header>
    <header>
      <identifier>oai:zenodo.org:287929</identifier>
      <datestamp>2017-02-09T19:38:59Z</datestamp>
      <setSpec>user-biosyslit</setSpec>
    </header>
    <header>
      <identifier>oai:zenodo.org:288184</identifier>
      <datestamp>2017-02-09T20:14:59Z</datestamp>
      <setSpec>user-biosyslit</setSpec>
    </header>
    <header>
      <identifier>oai:zenodo.org:287337</identifier>
      <datestamp>2017-02-09T18:04:39Z</datestamp>
      <setSpec>user-biosyslit</setSpec>
    </header>
    <header>
      <identifier>oai:zenodo.org:495028</identifier>
      <datestamp>2017-04-05T07:23:26Z</datestamp>
      <setSpec>user-biosyslit</setSpec>
    </header>
    <header>
      <identifier>oai:zenodo.org:285973</identifier>
      <datestamp>2017-02-09T14:56:18Z</datestamp>
      <setSpec>user-biosyslit</setSpec>
    </header>
    <header>
      <identifier>oai:zenodo.org:285833</identifier>
      <datestamp>2017-02-09T14:38:38Z</datestamp>
      <setSpec>user-biosyslit</setSpec>
    </header>
    <header>
      <identifier>oai:zenodo.org:287096</identifier>
      <datestamp>2017-02-09T17:27:51Z</datestamp>
      <setSpec>user-biosyslit</setSpec>
    </header>
    <header>
      <identifier>oai:zenodo.org:286149</identifier>
      <datestamp>2017-02-09T15:23:31Z</datestamp>
      <setSpec>user-biosyslit</setSpec>
    </header>
    <header>
      <identifier>oai:zenodo.org:285995</identifier>
      <datestamp>2017-02-09T15:00:05Z</datestamp>
      <setSpec>user-biosyslit</setSpec>
    </header>
    <header>
      <identifier>oai:zenodo.org:286143</identifier>
      <datestamp>2017-02-09T15:23:17Z</datestamp>
      <setSpec>user-biosyslit</setSpec>
    </header>
    <header>
      <identifier>oai:zenodo.org:286928</identifier>
      <datestamp>2017-02-09T17:05:26Z</datestamp>
      <setSpec>user-biosyslit</setSpec>
    </header>
    <header>
      <identifier>oai:zenodo.org:286002</identifier>
      <datestamp>2017-02-09T15:01:30Z</datestamp>
      <setSpec>user-biosyslit</setSpec>
    </header>
    <header>
      <identifier>oai:zenodo.org:287051</identifier>
      <datestamp>2017-02-09T17:20:26Z</datestamp>
      <setSpec>user-biosyslit</setSpec>
    </header>
    <header>
      <identifier>oai:zenodo.org:287060</identifier>
      <datestamp>2017-02-09T17:23:16Z</datestamp>
      <setSpec>user-biosyslit</setSpec>
    </header>
    <header>
      <identifier>oai:zenodo.org:287438</identifier>
      <datestamp>2017-02-09T18:19:11Z</datestamp>
      <setSpec>user-biosyslit</setSpec>
    </header>
    <header>
      <identifier>oai:zenodo.org:287036</identifier>
      <datestamp>2017-02-09T17:19:50Z</datestamp>
      <setSpec>user-biosyslit</setSpec>
    </header>
    <header>
      <identifier>oai:zenodo.org:287029</identifier>
      <datestamp>2017-02-09T17:19:36Z</datestamp>
      <setSpec>user-biosyslit</setSpec>
    </header>
    <header>
      <identifier>oai:zenodo.org:286941</identifier>
      <datestamp>2017-02-09T17:06:04Z</datestamp>
      <setSpec>user-biosyslit</setSpec>
    </header>
    <header>
      <identifier>oai:zenodo.org:287120</identifier>
      <datestamp>2017-02-09T17:30:46Z</datestamp>
      <setSpec>user-biosyslit</setSpec>
    </header>
    <header>
      <identifier>oai:zenodo.org:287296</identifier>
      <datestamp>2017-02-09T18:00:11Z</datestamp>
      <setSpec>user-biosyslit</setSpec>
    </header>
    <header>
      <identifier>oai:zenodo.org:287221</identifier>
      <datestamp>2017-02-09T17:48:11Z</datestamp>
      <setSpec>user-biosyslit</setSpec>
    </header>
    <header>
      <identifier>oai:zenodo.org:288505</identifier>
      <datestamp>2017-02-09T21:04:45Z</datestamp>
      <setSpec>user-biosyslit</setSpec>
    </header>
    <header>
      <identifier>oai:zenodo.org:287377</identifier>
      <datestamp>2017-02-09T18:10:50Z</datestamp>
      <setSpec>user-biosyslit</setSpec>
    </header>
    <header>
      <identifier>oai:zenodo.org:287992</identifier>
      <datestamp>2017-02-09T19:43:59Z</datestamp>
      <setSpec>user-biosyslit</setSpec>
    </header>
    <header>
      <identifier>oai:zenodo.org:288214</identifier>
      <datestamp>2017-02-09T20:20:27Z</datestamp>
      <setSpec>user-biosyslit</setSpec>
    </header>
    <header>
      <identifier>oai:zenodo.org:288628</identifier>
      <datestamp>2017-02-09T21:35:29Z</datestamp>
      <setSpec>user-biosyslit</setSpec>
    </header>
    <header>
      <identifier>oai:zenodo.org:287317</identifier>
      <datestamp>2017-02-09T18:00:59Z</datestamp>
      <setSpec>user-biosyslit</setSpec>
    </header>
    <header>
      <identifier>oai:zenodo.org:287299</identifier>
      <datestamp>2017-02-09T18:00:19Z</datestamp>
      <setSpec>user-biosyslit</setSpec>
    </header>
    <header>
      <identifier>oai:zenodo.org:287113</identifier>
      <datestamp>2017-02-09T17:30:27Z</datestamp>
      <setSpec>user-biosyslit</setSpec>
    </header>
    <header>
      <identifier>oai:zenodo.org:288345</identifier>
      <datestamp>2017-02-09T20:41:24Z</datestamp>
      <setSpec>user-biosyslit</setSpec>
    </header>
    <header>
      <identifier>oai:zenodo.org:286925</identifier>
      <datestamp>2017-02-09T17:05:18Z</datestamp>
      <setSpec>user-biosyslit</setSpec>
    </header>
    <header>
      <identifier>oai:zenodo.org:287055</identifier>
      <datestamp>2017-02-09T17:20:34Z</datestamp>
      <setSpec>user-biosyslit</setSpec>
    </header>
    <header>
      <identifier>oai:zenodo.org:287681</identifier>
      <datestamp>2017-02-09T18:57:41Z</datestamp>
      <setSpec>user-biosyslit</setSpec>
    </header>
    <header>
      <identifier>oai:zenodo.org:287373</identifier>
      <datestamp>2017-02-09T18:10:40Z</datestamp>
      <setSpec>user-biosyslit</setSpec>
    </header>
    <header>
      <identifier>oai:zenodo.org:288215</identifier>
      <datestamp>2017-02-09T20:20:29Z</datestamp>
      <setSpec>user-biosyslit</setSpec>
    </header>
    <header>
      <identifier>oai:zenodo.org:288617</identifier>
      <datestamp>2017-02-09T21:34:54Z</datestamp>
      <setSpec>user-biosyslit</setSpec>
    </header>
    <header>
      <identifier>oai:zenodo.org:287305</identifier>
      <datestamp>2017-02-09T18:00:33Z</datestamp>
      <setSpec>user-biosyslit</setSpec>
    </header>
    <header>
      <identifier>oai:zenodo.org:289094</identifier>
      <datestamp>2017-02-09T22:37:42Z</datestamp>
      <setSpec>user-biosyslit</setSpec>
    </header>
    <header>
      <identifier>oai:zenodo.org:287622</identifier>
      <datestamp>2017-02-09T18:45:10Z</datestamp>
      <setSpec>user-biosyslit</setSpec>
    </header>
    <header>
      <identifier>oai:zenodo.org:288202</identifier>
      <datestamp>2017-02-09T20:16:40Z</datestamp>
      <setSpec>user-biosyslit</setSpec>
    </header>
    <header>
      <identifier>oai:zenodo.org:288462</identifier>
      <datestamp>2017-02-09T21:01:40Z</datestamp>
      <setSpec>user-biosyslit</setSpec>
    </header>
    <header>
      <identifier>oai:zenodo.org:288615</identifier>
      <datestamp>2017-02-09T21:35:47Z</datestamp>
      <setSpec>user-biosyslit</setSpec>
    </header>
    <header>
      <identifier>oai:zenodo.org:288813</identifier>
      <datestamp>2017-02-09T21:54:07Z</datestamp>
      <setSpec>user-biosyslit</setSpec>
    </header>
    <header>
      <identifier>oai:zenodo.org:226844</identifier>
      <datestamp>2017-01-01T04:25:44Z</datestamp>
      <setSpec>user-biosyslit</setSpec>
    </header>
    <header>
      <identifier>oai:zenodo.org:227148</identifier>
      <datestamp>2017-01-01T17:30:35Z</datestamp>
      <setSpec>user-biosyslit</setSpec>
    </header>
    <header>
      <identifier>oai:zenodo.org:227439</identifier>
      <datestamp>2017-01-01T21:23:13Z</datestamp>
      <setSpec>user-biosyslit</setSpec>
    </header>
    <header>
      <identifier>oai:zenodo.org:227644</identifier>
      <datestamp>2017-01-02T01:31:22Z</datestamp>
      <setSpec>user-biosyslit</setSpec>
    </header>
    <header>
      <identifier>oai:zenodo.org:227261</identifier>
      <datestamp>2017-01-01T18:50:46Z</datestamp>
      <setSpec>user-biosyslit</setSpec>
    </header>
    <header>
      <identifier>oai:zenodo.org:227222</identifier>
      <datestamp>2017-01-01T18:22:43Z</datestamp>
      <setSpec>user-biosyslit</setSpec>
    </header>
    <header>
      <identifier>oai:zenodo.org:286005</identifier>
      <datestamp>2017-02-09T15:01:37Z</datestamp>
      <setSpec>user-biosyslit</setSpec>
    </header>
    <header>
      <identifier>oai:zenodo.org:285981</identifier>
      <datestamp>2017-02-09T15:00:08Z</datestamp>
      <setSpec>user-biosyslit</setSpec>
    </header>
    <header>
      <identifier>oai:zenodo.org:286167</identifier>
      <datestamp>2017-02-09T15:24:22Z</datestamp>
      <setSpec>user-biosyslit</setSpec>
    </header>
    <header>
      <identifier>oai:zenodo.org:288623</identifier>
      <datestamp>2017-02-09T21:35:12Z</datestamp>
      <setSpec>user-biosyslit</setSpec>
    </header>
    <header>
      <identifier>oai:zenodo.org:285984</identifier>
      <datestamp>2017-02-09T14:59:34Z</datestamp>
      <setSpec>user-biosyslit</setSpec>
    </header>
    <header>
      <identifier>oai:zenodo.org:286620</identifier>
      <datestamp>2017-02-09T16:25:30Z</datestamp>
      <setSpec>user-biosyslit</setSpec>
    </header>
    <header>
      <identifier>oai:zenodo.org:285930</identifier>
      <datestamp>2017-02-09T14:51:44Z</datestamp>
      <setSpec>user-biosyslit</setSpec>
    </header>
    <header>
      <identifier>oai:zenodo.org:286262</identifier>
      <datestamp>2017-02-09T15:38:46Z</datestamp>
      <setSpec>user-biosyslit</setSpec>
    </header>
    <header>
      <identifier>oai:zenodo.org:286361</identifier>
      <datestamp>2017-02-09T15:50:01Z</datestamp>
      <setSpec>user-biosyslit</setSpec>
    </header>
    <header>
      <identifier>oai:zenodo.org:286689</identifier>
      <datestamp>2017-02-09T16:33:12Z</datestamp>
      <setSpec>user-biosyslit</setSpec>
    </header>
    <header>
      <identifier>oai:zenodo.org:286926</identifier>
      <datestamp>2017-02-09T17:05:20Z</datestamp>
      <setSpec>user-biosyslit</setSpec>
    </header>
    <header>
      <identifier>oai:zenodo.org:286169</identifier>
      <datestamp>2017-02-09T15:24:26Z</datestamp>
      <setSpec>user-biosyslit</setSpec>
    </header>
    <resumptionToken expirationDate="2017-08-31T15:46:12Z" cursor="47600" completeListSize="77796">.eJyNyj0PQ0AYAOD_8s7S3DlflXQRKgaEKylLo4ioo-LalGv891o6t_PzvIHXdQUm2mmKig2MVUPB2l6XiQS8nO6MXdqNoTynrBxYUrjpM-5TlMmNHth89u2MBKJDYY8FPUbyGRtz0qIlOiWPTMRzSrwXRY7ui2gJbt72KhK6LL-6I00Gi1G5mkInWii2aE7K78N_PvHz2fwAEoxFU4Op6IYE3auYGg7me10_nZ5RRQ.DInATA.kXKStE6Mmw4rb4inTkijUYfnPuU</resumptionToken>
  </ListIdentifiers>
</OAI-PMH>
