<?xml version='1.0' encoding='UTF-8'?>
<?xml-stylesheet type="text/xsl" href="/static/xsl/oai2.v1.0.xsl"?>
<OAI-PMH xmlns="http://www.openarchives.org/OAI/2.0/" xmlns:xsi="http://www.w3.org/2001/XMLSchema-instance" xsi:schemaLocation="http://www.openarchives.org/OAI/2.0/ http://www.openarchives.org/OAI/2.0/OAI-PMH.xsd">
  <responseDate>2017-08-31T15:41:39Z</responseDate>
  <request verb="ListIdentifiers" resumptionToken=".eJyNyk0LgjAYAOD_8p4l3m3lQugSmnhQ0aWklzAVMdcHrlAn_fe6dK7z88yg6roCCxcM-ZpyZJTTpbky0TRAlf1NymP7cSgPqSyvMinc9BlfUsxowwNbjb6dsUB3GF6IFruIHsh6TFqcon3yyHQ8pswbBDrc19EUnL3Pq1joyvzk3kVy3UpBqz50okmQrchZ-X3kz6d_PlttwIB70dRgEUQDuqHoGwXW_Hq9AcqmUWA.DIm_sw.kREmWNAQWhJ0ekbh2T-6ZHG5kQg">https://zenodo.org/oai2d</request>
  <ListIdentifiers>
    <header>
      <identifier>oai:zenodo.org:247136</identifier>
      <datestamp>2017-01-16T11:40:09Z</datestamp>
      <setSpec>user-biosyslit</setSpec>
    </header>
    <header>
      <identifier>oai:zenodo.org:246979</identifier>
      <datestamp>2017-01-16T10:08:40Z</datestamp>
      <setSpec>user-biosyslit</setSpec>
    </header>
    <header>
      <identifier>oai:zenodo.org:247617</identifier>
      <datestamp>2017-01-16T17:39:30Z</datestamp>
      <setSpec>user-biosyslit</setSpec>
    </header>
    <header>
      <identifier>oai:zenodo.org:247413</identifier>
      <datestamp>2017-01-16T15:27:42Z</datestamp>
      <setSpec>user-biosyslit</setSpec>
    </header>
    <header>
      <identifier>oai:zenodo.org:247502</identifier>
      <datestamp>2017-01-16T16:28:11Z</datestamp>
      <setSpec>user-biosyslit</setSpec>
    </header>
    <header>
      <identifier>oai:zenodo.org:247501</identifier>
      <datestamp>2017-01-16T16:28:07Z</datestamp>
      <setSpec>user-biosyslit</setSpec>
    </header>
    <header>
      <identifier>oai:zenodo.org:248633</identifier>
      <datestamp>2017-01-17T07:38:24Z</datestamp>
      <setSpec>user-biosyslit</setSpec>
    </header>
    <header>
      <identifier>oai:zenodo.org:246935</identifier>
      <datestamp>2017-01-16T10:05:56Z</datestamp>
      <setSpec>user-biosyslit</setSpec>
    </header>
    <header>
      <identifier>oai:zenodo.org:247128</identifier>
      <datestamp>2017-01-16T11:39:45Z</datestamp>
      <setSpec>user-biosyslit</setSpec>
    </header>
    <header>
      <identifier>oai:zenodo.org:272627</identifier>
      <datestamp>2017-02-08T05:47:54Z</datestamp>
      <setSpec>user-biosyslit</setSpec>
    </header>
    <header>
      <identifier>oai:zenodo.org:247351</identifier>
      <datestamp>2017-01-16T14:30:36Z</datestamp>
      <setSpec>user-biosyslit</setSpec>
    </header>
    <header>
      <identifier>oai:zenodo.org:246775</identifier>
      <datestamp>2017-01-16T08:01:16Z</datestamp>
      <setSpec>user-biosyslit</setSpec>
    </header>
    <header>
      <identifier>oai:zenodo.org:247604</identifier>
      <datestamp>2017-01-16T17:23:23Z</datestamp>
      <setSpec>user-biosyslit</setSpec>
    </header>
    <header>
      <identifier>oai:zenodo.org:246925</identifier>
      <datestamp>2017-01-16T10:05:21Z</datestamp>
      <setSpec>user-biosyslit</setSpec>
    </header>
    <header>
      <identifier>oai:zenodo.org:247209</identifier>
      <datestamp>2017-01-16T12:53:18Z</datestamp>
      <setSpec>user-biosyslit</setSpec>
    </header>
    <header>
      <identifier>oai:zenodo.org:246763</identifier>
      <datestamp>2017-01-16T07:44:57Z</datestamp>
      <setSpec>user-biosyslit</setSpec>
    </header>
    <header>
      <identifier>oai:zenodo.org:246842</identifier>
      <datestamp>2017-01-16T09:09:50Z</datestamp>
      <setSpec>user-biosyslit</setSpec>
    </header>
    <header>
      <identifier>oai:zenodo.org:246684</identifier>
      <datestamp>2017-01-16T06:58:39Z</datestamp>
      <setSpec>user-biosyslit</setSpec>
    </header>
    <header>
      <identifier>oai:zenodo.org:273028</identifier>
      <datestamp>2017-02-08T06:58:59Z</datestamp>
      <setSpec>user-biosyslit</setSpec>
    </header>
    <header>
      <identifier>oai:zenodo.org:247572</identifier>
      <datestamp>2017-01-16T17:12:58Z</datestamp>
      <setSpec>user-biosyslit</setSpec>
    </header>
    <header>
      <identifier>oai:zenodo.org:247418</identifier>
      <datestamp>2017-01-16T15:28:01Z</datestamp>
      <setSpec>user-biosyslit</setSpec>
    </header>
    <header>
      <identifier>oai:zenodo.org:247238</identifier>
      <datestamp>2017-01-16T12:54:49Z</datestamp>
      <setSpec>user-biosyslit</setSpec>
    </header>
    <header>
      <identifier>oai:zenodo.org:247455</identifier>
      <datestamp>2017-01-16T15:30:32Z</datestamp>
      <setSpec>user-biosyslit</setSpec>
    </header>
    <header>
      <identifier>oai:zenodo.org:247533</identifier>
      <datestamp>2017-01-16T16:47:44Z</datestamp>
      <setSpec>user-biosyslit</setSpec>
    </header>
    <header>
      <identifier>oai:zenodo.org:272737</identifier>
      <datestamp>2017-02-08T06:16:05Z</datestamp>
      <setSpec>user-biosyslit</setSpec>
    </header>
    <header>
      <identifier>oai:zenodo.org:246769</identifier>
      <datestamp>2017-01-16T07:53:48Z</datestamp>
      <setSpec>user-biosyslit</setSpec>
    </header>
    <header>
      <identifier>oai:zenodo.org:246976</identifier>
      <datestamp>2017-01-16T10:08:27Z</datestamp>
      <setSpec>user-biosyslit</setSpec>
    </header>
    <header>
      <identifier>oai:zenodo.org:247346</identifier>
      <datestamp>2017-01-16T14:30:21Z</datestamp>
      <setSpec>user-biosyslit</setSpec>
    </header>
    <header>
      <identifier>oai:zenodo.org:247362</identifier>
      <datestamp>2017-01-16T14:31:11Z</datestamp>
      <setSpec>user-biosyslit</setSpec>
    </header>
    <header>
      <identifier>oai:zenodo.org:247101</identifier>
      <datestamp>2017-01-16T11:27:54Z</datestamp>
      <setSpec>user-biosyslit</setSpec>
    </header>
    <header>
      <identifier>oai:zenodo.org:247119</identifier>
      <datestamp>2017-01-16T11:39:16Z</datestamp>
      <setSpec>user-biosyslit</setSpec>
    </header>
    <header>
      <identifier>oai:zenodo.org:272576</identifier>
      <datestamp>2017-02-08T05:10:01Z</datestamp>
      <setSpec>user-biosyslit</setSpec>
    </header>
    <header>
      <identifier>oai:zenodo.org:247509</identifier>
      <datestamp>2017-01-16T16:28:35Z</datestamp>
      <setSpec>user-biosyslit</setSpec>
    </header>
    <header>
      <identifier>oai:zenodo.org:247510</identifier>
      <datestamp>2017-01-16T16:28:38Z</datestamp>
      <setSpec>user-biosyslit</setSpec>
    </header>
    <header>
      <identifier>oai:zenodo.org:247630</identifier>
      <datestamp>2017-01-16T17:41:26Z</datestamp>
      <setSpec>user-biosyslit</setSpec>
    </header>
    <header>
      <identifier>oai:zenodo.org:248007</identifier>
      <datestamp>2017-01-16T22:34:54Z</datestamp>
      <setSpec>user-biosyslit</setSpec>
    </header>
    <header>
      <identifier>oai:zenodo.org:246419</identifier>
      <datestamp>2017-01-16T01:51:35Z</datestamp>
      <setSpec>user-biosyslit</setSpec>
    </header>
    <header>
      <identifier>oai:zenodo.org:247600</identifier>
      <datestamp>2017-01-16T17:22:37Z</datestamp>
      <setSpec>user-biosyslit</setSpec>
    </header>
    <header>
      <identifier>oai:zenodo.org:246818</identifier>
      <datestamp>2017-01-16T08:55:52Z</datestamp>
      <setSpec>user-biosyslit</setSpec>
    </header>
    <header>
      <identifier>oai:zenodo.org:246807</identifier>
      <datestamp>2017-01-16T08:55:17Z</datestamp>
      <setSpec>user-biosyslit</setSpec>
    </header>
    <header>
      <identifier>oai:zenodo.org:273077</identifier>
      <datestamp>2017-02-08T07:01:13Z</datestamp>
      <setSpec>user-biosyslit</setSpec>
    </header>
    <header>
      <identifier>oai:zenodo.org:272505</identifier>
      <datestamp>2017-02-08T04:58:03Z</datestamp>
      <setSpec>user-biosyslit</setSpec>
    </header>
    <header>
      <identifier>oai:zenodo.org:246683</identifier>
      <datestamp>2017-01-16T06:58:36Z</datestamp>
      <setSpec>user-biosyslit</setSpec>
    </header>
    <header>
      <identifier>oai:zenodo.org:247133</identifier>
      <datestamp>2017-01-16T11:40:00Z</datestamp>
      <setSpec>user-biosyslit</setSpec>
    </header>
    <header>
      <identifier>oai:zenodo.org:246898</identifier>
      <datestamp>2017-01-16T10:03:57Z</datestamp>
      <setSpec>user-biosyslit</setSpec>
    </header>
    <header>
      <identifier>oai:zenodo.org:247111</identifier>
      <datestamp>2017-01-16T11:40:10Z</datestamp>
      <setSpec>user-biosyslit</setSpec>
    </header>
    <header>
      <identifier>oai:zenodo.org:246783</identifier>
      <datestamp>2017-01-16T08:06:53Z</datestamp>
      <setSpec>user-biosyslit</setSpec>
    </header>
    <header>
      <identifier>oai:zenodo.org:247009</identifier>
      <datestamp>2017-01-16T10:22:01Z</datestamp>
      <setSpec>user-biosyslit</setSpec>
    </header>
    <header>
      <identifier>oai:zenodo.org:247353</identifier>
      <datestamp>2017-01-16T14:30:43Z</datestamp>
      <setSpec>user-biosyslit</setSpec>
    </header>
    <header>
      <identifier>oai:zenodo.org:247260</identifier>
      <datestamp>2017-01-16T13:30:35Z</datestamp>
      <setSpec>user-biosyslit</setSpec>
    </header>
    <header>
      <identifier>oai:zenodo.org:247953</identifier>
      <datestamp>2017-01-16T22:07:35Z</datestamp>
      <setSpec>user-biosyslit</setSpec>
    </header>
    <header>
      <identifier>oai:zenodo.org:247073</identifier>
      <datestamp>2017-01-16T11:09:09Z</datestamp>
      <setSpec>user-biosyslit</setSpec>
    </header>
    <header>
      <identifier>oai:zenodo.org:246831</identifier>
      <datestamp>2017-01-16T09:09:10Z</datestamp>
      <setSpec>user-biosyslit</setSpec>
    </header>
    <header>
      <identifier>oai:zenodo.org:247343</identifier>
      <datestamp>2017-01-16T14:30:11Z</datestamp>
      <setSpec>user-biosyslit</setSpec>
    </header>
    <header>
      <identifier>oai:zenodo.org:272698</identifier>
      <datestamp>2017-02-08T06:14:24Z</datestamp>
      <setSpec>user-biosyslit</setSpec>
    </header>
    <header>
      <identifier>oai:zenodo.org:272720</identifier>
      <datestamp>2017-02-08T06:15:20Z</datestamp>
      <setSpec>user-biosyslit</setSpec>
    </header>
    <header>
      <identifier>oai:zenodo.org:246986</identifier>
      <datestamp>2017-01-16T10:09:02Z</datestamp>
      <setSpec>user-biosyslit</setSpec>
    </header>
    <header>
      <identifier>oai:zenodo.org:246955</identifier>
      <datestamp>2017-01-16T10:07:07Z</datestamp>
      <setSpec>user-biosyslit</setSpec>
    </header>
    <header>
      <identifier>oai:zenodo.org:246794</identifier>
      <datestamp>2017-01-16T08:22:35Z</datestamp>
      <setSpec>user-biosyslit</setSpec>
    </header>
    <header>
      <identifier>oai:zenodo.org:59192</identifier>
      <datestamp>2017-05-16T12:55:46Z</datestamp>
      <setSpec>openaire</setSpec>
      <setSpec>user-biosyslit</setSpec>
    </header>
    <header>
      <identifier>oai:zenodo.org:246963</identifier>
      <datestamp>2017-01-16T10:07:36Z</datestamp>
      <setSpec>user-biosyslit</setSpec>
    </header>
    <header>
      <identifier>oai:zenodo.org:247542</identifier>
      <datestamp>2017-01-16T16:48:18Z</datestamp>
      <setSpec>user-biosyslit</setSpec>
    </header>
    <header>
      <identifier>oai:zenodo.org:248210</identifier>
      <datestamp>2017-01-17T01:09:56Z</datestamp>
      <setSpec>user-biosyslit</setSpec>
    </header>
    <header>
      <identifier>oai:zenodo.org:247242</identifier>
      <datestamp>2017-01-16T12:54:59Z</datestamp>
      <setSpec>user-biosyslit</setSpec>
    </header>
    <header>
      <identifier>oai:zenodo.org:247081</identifier>
      <datestamp>2017-01-16T11:09:45Z</datestamp>
      <setSpec>user-biosyslit</setSpec>
    </header>
    <header>
      <identifier>oai:zenodo.org:247430</identifier>
      <datestamp>2017-01-16T15:28:45Z</datestamp>
      <setSpec>user-biosyslit</setSpec>
    </header>
    <header>
      <identifier>oai:zenodo.org:247882</identifier>
      <datestamp>2017-01-16T21:15:25Z</datestamp>
      <setSpec>user-biosyslit</setSpec>
    </header>
    <header>
      <identifier>oai:zenodo.org:247892</identifier>
      <datestamp>2017-01-16T21:15:57Z</datestamp>
      <setSpec>user-biosyslit</setSpec>
    </header>
    <header>
      <identifier>oai:zenodo.org:248253</identifier>
      <datestamp>2017-01-17T01:43:33Z</datestamp>
      <setSpec>user-biosyslit</setSpec>
    </header>
    <header>
      <identifier>oai:zenodo.org:247620</identifier>
      <datestamp>2017-01-16T17:39:39Z</datestamp>
      <setSpec>user-biosyslit</setSpec>
    </header>
    <header>
      <identifier>oai:zenodo.org:248618</identifier>
      <datestamp>2017-01-17T07:16:33Z</datestamp>
      <setSpec>user-biosyslit</setSpec>
    </header>
    <header>
      <identifier>oai:zenodo.org:246938</identifier>
      <datestamp>2017-01-16T10:06:07Z</datestamp>
      <setSpec>user-biosyslit</setSpec>
    </header>
    <header>
      <identifier>oai:zenodo.org:246762</identifier>
      <datestamp>2017-01-16T07:44:54Z</datestamp>
      <setSpec>user-biosyslit</setSpec>
    </header>
    <header>
      <identifier>oai:zenodo.org:247240</identifier>
      <datestamp>2017-01-16T12:54:54Z</datestamp>
      <setSpec>user-biosyslit</setSpec>
    </header>
    <header>
      <identifier>oai:zenodo.org:60440</identifier>
      <datestamp>2017-05-16T12:55:42Z</datestamp>
      <setSpec>openaire</setSpec>
      <setSpec>user-biosyslit</setSpec>
    </header>
    <header>
      <identifier>oai:zenodo.org:246996</identifier>
      <datestamp>2017-01-16T10:09:35Z</datestamp>
      <setSpec>user-biosyslit</setSpec>
    </header>
    <header>
      <identifier>oai:zenodo.org:247000</identifier>
      <datestamp>2017-01-16T10:09:51Z</datestamp>
      <setSpec>user-biosyslit</setSpec>
    </header>
    <header>
      <identifier>oai:zenodo.org:247363</identifier>
      <datestamp>2017-01-16T14:31:14Z</datestamp>
      <setSpec>user-biosyslit</setSpec>
    </header>
    <header>
      <identifier>oai:zenodo.org:248151</identifier>
      <datestamp>2017-01-17T00:42:20Z</datestamp>
      <setSpec>user-biosyslit</setSpec>
    </header>
    <header>
      <identifier>oai:zenodo.org:247818</identifier>
      <datestamp>2017-01-16T20:13:54Z</datestamp>
      <setSpec>user-biosyslit</setSpec>
    </header>
    <header>
      <identifier>oai:zenodo.org:247249</identifier>
      <datestamp>2017-01-16T13:29:54Z</datestamp>
      <setSpec>user-biosyslit</setSpec>
    </header>
    <header>
      <identifier>oai:zenodo.org:272953</identifier>
      <datestamp>2017-02-08T06:55:09Z</datestamp>
      <setSpec>user-biosyslit</setSpec>
    </header>
    <header>
      <identifier>oai:zenodo.org:251295</identifier>
      <datestamp>2017-01-18T21:19:44Z</datestamp>
      <setSpec>user-biosyslit</setSpec>
    </header>
    <header>
      <identifier>oai:zenodo.org:273091</identifier>
      <datestamp>2017-02-08T07:09:17Z</datestamp>
      <setSpec>user-biosyslit</setSpec>
    </header>
    <header>
      <identifier>oai:zenodo.org:272810</identifier>
      <datestamp>2017-02-08T06:28:31Z</datestamp>
      <setSpec>user-biosyslit</setSpec>
    </header>
    <header>
      <identifier>oai:zenodo.org:251554</identifier>
      <datestamp>2017-01-19T01:58:43Z</datestamp>
      <setSpec>user-biosyslit</setSpec>
    </header>
    <header>
      <identifier>oai:zenodo.org:251322</identifier>
      <datestamp>2017-01-18T21:21:21Z</datestamp>
      <setSpec>user-biosyslit</setSpec>
    </header>
    <header>
      <identifier>oai:zenodo.org:273109</identifier>
      <datestamp>2017-02-08T07:10:14Z</datestamp>
      <setSpec>user-biosyslit</setSpec>
    </header>
    <header>
      <identifier>oai:zenodo.org:272847</identifier>
      <datestamp>2017-02-08T06:30:20Z</datestamp>
      <setSpec>user-biosyslit</setSpec>
    </header>
    <header>
      <identifier>oai:zenodo.org:272744</identifier>
      <datestamp>2017-02-08T06:16:24Z</datestamp>
      <setSpec>user-biosyslit</setSpec>
    </header>
    <header>
      <identifier>oai:zenodo.org:272758</identifier>
      <datestamp>2017-02-08T06:26:06Z</datestamp>
      <setSpec>user-biosyslit</setSpec>
    </header>
    <header>
      <identifier>oai:zenodo.org:251628</identifier>
      <datestamp>2017-01-19T02:47:42Z</datestamp>
      <setSpec>user-biosyslit</setSpec>
    </header>
    <header>
      <identifier>oai:zenodo.org:251589</identifier>
      <datestamp>2017-01-19T02:45:08Z</datestamp>
      <setSpec>user-biosyslit</setSpec>
    </header>
    <header>
      <identifier>oai:zenodo.org:251562</identifier>
      <datestamp>2017-01-19T01:59:04Z</datestamp>
      <setSpec>user-biosyslit</setSpec>
    </header>
    <header>
      <identifier>oai:zenodo.org:273089</identifier>
      <datestamp>2017-02-08T07:09:10Z</datestamp>
      <setSpec>user-biosyslit</setSpec>
    </header>
    <header>
      <identifier>oai:zenodo.org:272983</identifier>
      <datestamp>2017-02-08T06:56:50Z</datestamp>
      <setSpec>user-biosyslit</setSpec>
    </header>
    <header>
      <identifier>oai:zenodo.org:273163</identifier>
      <datestamp>2017-02-08T08:14:28Z</datestamp>
      <setSpec>user-biosyslit</setSpec>
    </header>
    <header>
      <identifier>oai:zenodo.org:273051</identifier>
      <datestamp>2017-02-08T07:00:02Z</datestamp>
      <setSpec>user-biosyslit</setSpec>
    </header>
    <header>
      <identifier>oai:zenodo.org:273042</identifier>
      <datestamp>2017-02-08T06:59:38Z</datestamp>
      <setSpec>user-biosyslit</setSpec>
    </header>
    <header>
      <identifier>oai:zenodo.org:276100</identifier>
      <datestamp>2017-02-08T18:07:40Z</datestamp>
      <setSpec>user-biosyslit</setSpec>
    </header>
    <resumptionToken expirationDate="2017-08-31T15:43:39Z" cursor="9900" completeListSize="77796">.eJyNysEKgjAYAOB3-c8S_5xpCl3Ekg4qtpT0EjZFymniinTSu9elc52_bwZZVSU4uCBLEy2b2JZBDdNAXGog-XAT4nT5OPBjKngnksJPH_s2xUyvrdCTY-BlNFQNRi1RbBvrR7IakwtO8SG5Z2o_pnT3ZLixAhVP4XX3eSWNfJGf_Z4lnSuYXg7RJp4YcVlO-feRP5_6-Ty5Bg36oq7AIUg0aJ7FUEtw5tfrDc2xUWQ.DIm_sw.5zgydgb_DndEBbEgq6jzLWMqgEk</resumptionToken>
  </ListIdentifiers>
</OAI-PMH>
