<?xml version='1.0' encoding='UTF-8'?>
<?xml-stylesheet type="text/xsl" href="/static/xsl/oai2.v1.0.xsl"?>
<OAI-PMH xmlns="http://www.openarchives.org/OAI/2.0/" xmlns:xsi="http://www.w3.org/2001/XMLSchema-instance" xsi:schemaLocation="http://www.openarchives.org/OAI/2.0/ http://www.openarchives.org/OAI/2.0/OAI-PMH.xsd">
  <responseDate>2017-08-31T15:43:52Z</responseDate>
  <request verb="ListIdentifiers" resumptionToken=".eJyNysEKgjAYAOB3-c8Sm0tnQhexpIOKLiW9hKlIOU1coU5897x0rvP3zSDKsgATbQyq6USjVCOGvtXwTgGR90_Or_eVIb_EPG95lDnxO2xilKgV9WwxunZCPFkjv8GSHQP1go0xuqMpOEevRIZjTE4DQwfqymDyHqf1FcR3eHpzOha1Fmdq0fuHYGLYYinJvw__-eTPZ4s9KNBlVQnmlugK1EPWVwLMeVk-rf1RUQ.DInAOA.XunzukSMdBe9qgq1rpLGeMMrAy8">https://zenodo.org/oai2d</request>
  <ListIdentifiers>
    <header>
      <identifier>oai:zenodo.org:263173</identifier>
      <datestamp>2017-01-29T17:57:20Z</datestamp>
      <setSpec>user-biosyslit</setSpec>
    </header>
    <header>
      <identifier>oai:zenodo.org:263352</identifier>
      <datestamp>2017-01-29T22:26:58Z</datestamp>
      <setSpec>user-biosyslit</setSpec>
    </header>
    <header>
      <identifier>oai:zenodo.org:263423</identifier>
      <datestamp>2017-01-29T22:32:10Z</datestamp>
      <setSpec>user-biosyslit</setSpec>
    </header>
    <header>
      <identifier>oai:zenodo.org:264723</identifier>
      <datestamp>2017-01-31T01:29:34Z</datestamp>
      <setSpec>user-biosyslit</setSpec>
    </header>
    <header>
      <identifier>oai:zenodo.org:263355</identifier>
      <datestamp>2017-01-29T22:27:07Z</datestamp>
      <setSpec>user-biosyslit</setSpec>
    </header>
    <header>
      <identifier>oai:zenodo.org:264357</identifier>
      <datestamp>2017-01-30T19:45:49Z</datestamp>
      <setSpec>user-biosyslit</setSpec>
    </header>
    <header>
      <identifier>oai:zenodo.org:263617</identifier>
      <datestamp>2017-01-30T01:30:11Z</datestamp>
      <setSpec>user-biosyslit</setSpec>
    </header>
    <header>
      <identifier>oai:zenodo.org:263770</identifier>
      <datestamp>2017-01-30T07:49:01Z</datestamp>
      <setSpec>user-biosyslit</setSpec>
    </header>
    <header>
      <identifier>oai:zenodo.org:264175</identifier>
      <datestamp>2017-01-30T14:29:17Z</datestamp>
      <setSpec>user-biosyslit</setSpec>
    </header>
    <header>
      <identifier>oai:zenodo.org:263887</identifier>
      <datestamp>2017-01-30T09:48:26Z</datestamp>
      <setSpec>user-biosyslit</setSpec>
    </header>
    <header>
      <identifier>oai:zenodo.org:264184</identifier>
      <datestamp>2017-01-30T14:34:17Z</datestamp>
      <setSpec>user-biosyslit</setSpec>
    </header>
    <header>
      <identifier>oai:zenodo.org:274817</identifier>
      <datestamp>2017-02-08T14:30:14Z</datestamp>
      <setSpec>user-biosyslit</setSpec>
    </header>
    <header>
      <identifier>oai:zenodo.org:265293</identifier>
      <datestamp>2017-01-31T11:25:24Z</datestamp>
      <setSpec>user-biosyslit</setSpec>
    </header>
    <header>
      <identifier>oai:zenodo.org:265140</identifier>
      <datestamp>2017-01-31T08:40:10Z</datestamp>
      <setSpec>user-biosyslit</setSpec>
    </header>
    <header>
      <identifier>oai:zenodo.org:264504</identifier>
      <datestamp>2017-01-30T22:54:50Z</datestamp>
      <setSpec>user-biosyslit</setSpec>
    </header>
    <header>
      <identifier>oai:zenodo.org:264987</identifier>
      <datestamp>2017-01-31T05:36:47Z</datestamp>
      <setSpec>user-biosyslit</setSpec>
    </header>
    <header>
      <identifier>oai:zenodo.org:265417</identifier>
      <datestamp>2017-01-31T13:45:30Z</datestamp>
      <setSpec>user-biosyslit</setSpec>
    </header>
    <header>
      <identifier>oai:zenodo.org:265407</identifier>
      <datestamp>2017-01-31T13:36:13Z</datestamp>
      <setSpec>user-biosyslit</setSpec>
    </header>
    <header>
      <identifier>oai:zenodo.org:264988</identifier>
      <datestamp>2017-01-31T05:42:32Z</datestamp>
      <setSpec>user-biosyslit</setSpec>
    </header>
    <header>
      <identifier>oai:zenodo.org:265010</identifier>
      <datestamp>2017-01-31T06:20:33Z</datestamp>
      <setSpec>user-biosyslit</setSpec>
    </header>
    <header>
      <identifier>oai:zenodo.org:265625</identifier>
      <datestamp>2017-01-31T17:52:29Z</datestamp>
      <setSpec>user-biosyslit</setSpec>
    </header>
    <header>
      <identifier>oai:zenodo.org:274745</identifier>
      <datestamp>2017-02-08T14:09:30Z</datestamp>
      <setSpec>user-biosyslit</setSpec>
    </header>
    <header>
      <identifier>oai:zenodo.org:266379</identifier>
      <datestamp>2017-02-01T07:14:20Z</datestamp>
      <setSpec>user-biosyslit</setSpec>
    </header>
    <header>
      <identifier>oai:zenodo.org:265800</identifier>
      <datestamp>2017-01-31T21:12:20Z</datestamp>
      <setSpec>user-biosyslit</setSpec>
    </header>
    <header>
      <identifier>oai:zenodo.org:267062</identifier>
      <datestamp>2017-02-01T18:48:27Z</datestamp>
      <setSpec>user-biosyslit</setSpec>
    </header>
    <header>
      <identifier>oai:zenodo.org:274677</identifier>
      <datestamp>2017-02-08T13:59:12Z</datestamp>
      <setSpec>user-biosyslit</setSpec>
    </header>
    <header>
      <identifier>oai:zenodo.org:266505</identifier>
      <datestamp>2017-02-01T11:17:37Z</datestamp>
      <setSpec>user-biosyslit</setSpec>
    </header>
    <header>
      <identifier>oai:zenodo.org:274272</identifier>
      <datestamp>2017-02-08T12:43:04Z</datestamp>
      <setSpec>user-biosyslit</setSpec>
    </header>
    <header>
      <identifier>oai:zenodo.org:267014</identifier>
      <datestamp>2017-02-01T18:16:33Z</datestamp>
      <setSpec>user-biosyslit</setSpec>
    </header>
    <header>
      <identifier>oai:zenodo.org:268114</identifier>
      <datestamp>2017-02-03T01:33:48Z</datestamp>
      <setSpec>user-biosyslit</setSpec>
    </header>
    <header>
      <identifier>oai:zenodo.org:266899</identifier>
      <datestamp>2017-02-01T16:26:20Z</datestamp>
      <setSpec>user-biosyslit</setSpec>
    </header>
    <header>
      <identifier>oai:zenodo.org:279787</identifier>
      <datestamp>2017-02-09T02:03:25Z</datestamp>
      <setSpec>user-biosyslit</setSpec>
    </header>
    <header>
      <identifier>oai:zenodo.org:267985</identifier>
      <datestamp>2017-02-07T08:19:44Z</datestamp>
      <setSpec>openaire</setSpec>
      <setSpec>user-biosyslit</setSpec>
    </header>
    <header>
      <identifier>oai:zenodo.org:268209</identifier>
      <datestamp>2017-02-03T04:15:26Z</datestamp>
      <setSpec>user-biosyslit</setSpec>
    </header>
    <header>
      <identifier>oai:zenodo.org:267831</identifier>
      <datestamp>2017-02-02T07:50:39Z</datestamp>
      <setSpec>user-biosyslit</setSpec>
    </header>
    <header>
      <identifier>oai:zenodo.org:269240</identifier>
      <datestamp>2017-02-06T23:37:54Z</datestamp>
      <setSpec>user-biosyslit</setSpec>
    </header>
    <header>
      <identifier>oai:zenodo.org:274686</identifier>
      <datestamp>2017-02-08T14:00:44Z</datestamp>
      <setSpec>user-biosyslit</setSpec>
    </header>
    <header>
      <identifier>oai:zenodo.org:269548</identifier>
      <datestamp>2017-02-07T00:57:22Z</datestamp>
      <setSpec>user-biosyslit</setSpec>
    </header>
    <header>
      <identifier>oai:zenodo.org:269502</identifier>
      <datestamp>2017-02-07T00:43:38Z</datestamp>
      <setSpec>user-biosyslit</setSpec>
    </header>
    <header>
      <identifier>oai:zenodo.org:276079</identifier>
      <datestamp>2017-02-08T18:03:23Z</datestamp>
      <setSpec>user-biosyslit</setSpec>
    </header>
    <header>
      <identifier>oai:zenodo.org:276232</identifier>
      <datestamp>2017-02-08T18:27:20Z</datestamp>
      <setSpec>user-biosyslit</setSpec>
    </header>
    <header>
      <identifier>oai:zenodo.org:277001</identifier>
      <datestamp>2017-02-08T20:10:00Z</datestamp>
      <setSpec>user-biosyslit</setSpec>
    </header>
    <header>
      <identifier>oai:zenodo.org:277673</identifier>
      <datestamp>2017-02-08T21:36:08Z</datestamp>
      <setSpec>user-biosyslit</setSpec>
    </header>
    <header>
      <identifier>oai:zenodo.org:277328</identifier>
      <datestamp>2017-02-08T20:54:24Z</datestamp>
      <setSpec>user-biosyslit</setSpec>
    </header>
    <header>
      <identifier>oai:zenodo.org:279438</identifier>
      <datestamp>2017-02-09T01:21:42Z</datestamp>
      <setSpec>user-biosyslit</setSpec>
    </header>
    <header>
      <identifier>oai:zenodo.org:278910</identifier>
      <datestamp>2017-02-09T00:05:56Z</datestamp>
      <setSpec>user-biosyslit</setSpec>
    </header>
    <header>
      <identifier>oai:zenodo.org:278902</identifier>
      <datestamp>2017-02-09T00:05:32Z</datestamp>
      <setSpec>user-biosyslit</setSpec>
    </header>
    <header>
      <identifier>oai:zenodo.org:278208</identifier>
      <datestamp>2017-02-08T22:40:03Z</datestamp>
      <setSpec>user-biosyslit</setSpec>
    </header>
    <header>
      <identifier>oai:zenodo.org:278897</identifier>
      <datestamp>2017-02-09T00:05:18Z</datestamp>
      <setSpec>user-biosyslit</setSpec>
    </header>
    <header>
      <identifier>oai:zenodo.org:279337</identifier>
      <datestamp>2017-02-09T01:06:27Z</datestamp>
      <setSpec>user-biosyslit</setSpec>
    </header>
    <header>
      <identifier>oai:zenodo.org:278994</identifier>
      <datestamp>2017-02-09T00:22:09Z</datestamp>
      <setSpec>user-biosyslit</setSpec>
    </header>
    <header>
      <identifier>oai:zenodo.org:278711</identifier>
      <datestamp>2017-02-08T23:44:31Z</datestamp>
      <setSpec>user-biosyslit</setSpec>
    </header>
    <header>
      <identifier>oai:zenodo.org:279370</identifier>
      <datestamp>2017-02-09T01:10:03Z</datestamp>
      <setSpec>user-biosyslit</setSpec>
    </header>
    <header>
      <identifier>oai:zenodo.org:279447</identifier>
      <datestamp>2017-02-09T01:22:07Z</datestamp>
      <setSpec>user-biosyslit</setSpec>
    </header>
    <header>
      <identifier>oai:zenodo.org:280153</identifier>
      <datestamp>2017-02-09T02:48:33Z</datestamp>
      <setSpec>user-biosyslit</setSpec>
    </header>
    <header>
      <identifier>oai:zenodo.org:239271</identifier>
      <datestamp>2017-01-11T18:47:58Z</datestamp>
      <setSpec>user-biosyslit</setSpec>
    </header>
    <header>
      <identifier>oai:zenodo.org:279214</identifier>
      <datestamp>2017-02-09T00:48:58Z</datestamp>
      <setSpec>user-biosyslit</setSpec>
    </header>
    <header>
      <identifier>oai:zenodo.org:278488</identifier>
      <datestamp>2017-02-08T23:16:56Z</datestamp>
      <setSpec>user-biosyslit</setSpec>
    </header>
    <header>
      <identifier>oai:zenodo.org:278602</identifier>
      <datestamp>2017-02-08T23:29:47Z</datestamp>
      <setSpec>user-biosyslit</setSpec>
    </header>
    <header>
      <identifier>oai:zenodo.org:271628</identifier>
      <datestamp>2017-02-08T02:05:44Z</datestamp>
      <setSpec>user-biosyslit</setSpec>
    </header>
    <header>
      <identifier>oai:zenodo.org:278418</identifier>
      <datestamp>2017-02-08T23:08:10Z</datestamp>
      <setSpec>user-biosyslit</setSpec>
    </header>
    <header>
      <identifier>oai:zenodo.org:278454</identifier>
      <datestamp>2017-02-08T23:11:57Z</datestamp>
      <setSpec>user-biosyslit</setSpec>
    </header>
    <header>
      <identifier>oai:zenodo.org:278800</identifier>
      <datestamp>2017-02-08T23:54:31Z</datestamp>
      <setSpec>user-biosyslit</setSpec>
    </header>
    <header>
      <identifier>oai:zenodo.org:278950</identifier>
      <datestamp>2017-02-09T00:13:46Z</datestamp>
      <setSpec>user-biosyslit</setSpec>
    </header>
    <header>
      <identifier>oai:zenodo.org:278696</identifier>
      <datestamp>2017-02-08T23:41:12Z</datestamp>
      <setSpec>user-biosyslit</setSpec>
    </header>
    <header>
      <identifier>oai:zenodo.org:240806</identifier>
      <datestamp>2017-01-12T14:18:28Z</datestamp>
      <setSpec>user-biosyslit</setSpec>
    </header>
    <header>
      <identifier>oai:zenodo.org:279222</identifier>
      <datestamp>2017-02-09T00:50:29Z</datestamp>
      <setSpec>user-biosyslit</setSpec>
    </header>
    <header>
      <identifier>oai:zenodo.org:241364</identifier>
      <datestamp>2017-01-13T00:21:18Z</datestamp>
      <setSpec>user-biosyslit</setSpec>
    </header>
    <header>
      <identifier>oai:zenodo.org:241353</identifier>
      <datestamp>2017-01-13T00:20:38Z</datestamp>
      <setSpec>user-biosyslit</setSpec>
    </header>
    <header>
      <identifier>oai:zenodo.org:279040</identifier>
      <datestamp>2017-02-09T00:28:26Z</datestamp>
      <setSpec>user-biosyslit</setSpec>
    </header>
    <header>
      <identifier>oai:zenodo.org:272275</identifier>
      <datestamp>2017-02-08T04:09:17Z</datestamp>
      <setSpec>user-biosyslit</setSpec>
    </header>
    <header>
      <identifier>oai:zenodo.org:278966</identifier>
      <datestamp>2017-02-09T00:19:43Z</datestamp>
      <setSpec>user-biosyslit</setSpec>
    </header>
    <header>
      <identifier>oai:zenodo.org:272128</identifier>
      <datestamp>2017-02-08T03:47:49Z</datestamp>
      <setSpec>user-biosyslit</setSpec>
    </header>
    <header>
      <identifier>oai:zenodo.org:272514</identifier>
      <datestamp>2017-02-08T04:59:00Z</datestamp>
      <setSpec>user-biosyslit</setSpec>
    </header>
    <header>
      <identifier>oai:zenodo.org:271876</identifier>
      <datestamp>2017-02-08T02:47:29Z</datestamp>
      <setSpec>user-biosyslit</setSpec>
    </header>
    <header>
      <identifier>oai:zenodo.org:275410</identifier>
      <datestamp>2017-02-08T16:16:52Z</datestamp>
      <setSpec>user-biosyslit</setSpec>
    </header>
    <header>
      <identifier>oai:zenodo.org:241982</identifier>
      <datestamp>2017-01-13T09:01:28Z</datestamp>
      <setSpec>user-biosyslit</setSpec>
    </header>
    <header>
      <identifier>oai:zenodo.org:242078</identifier>
      <datestamp>2017-01-13T10:16:14Z</datestamp>
      <setSpec>user-biosyslit</setSpec>
    </header>
    <header>
      <identifier>oai:zenodo.org:242262</identifier>
      <datestamp>2017-01-13T12:37:13Z</datestamp>
      <setSpec>user-biosyslit</setSpec>
    </header>
    <header>
      <identifier>oai:zenodo.org:272310</identifier>
      <datestamp>2017-02-08T04:13:28Z</datestamp>
      <setSpec>user-biosyslit</setSpec>
    </header>
    <header>
      <identifier>oai:zenodo.org:272230</identifier>
      <datestamp>2017-02-08T04:03:24Z</datestamp>
      <setSpec>user-biosyslit</setSpec>
    </header>
    <header>
      <identifier>oai:zenodo.org:243434</identifier>
      <datestamp>2017-01-14T05:36:38Z</datestamp>
      <setSpec>user-biosyslit</setSpec>
    </header>
    <header>
      <identifier>oai:zenodo.org:243105</identifier>
      <datestamp>2017-01-13T23:28:03Z</datestamp>
      <setSpec>user-biosyslit</setSpec>
    </header>
    <header>
      <identifier>oai:zenodo.org:243718</identifier>
      <datestamp>2017-01-14T09:53:24Z</datestamp>
      <setSpec>user-biosyslit</setSpec>
    </header>
    <header>
      <identifier>oai:zenodo.org:243348</identifier>
      <datestamp>2017-01-14T03:00:54Z</datestamp>
      <setSpec>user-biosyslit</setSpec>
    </header>
    <header>
      <identifier>oai:zenodo.org:244341</identifier>
      <datestamp>2017-01-14T20:15:06Z</datestamp>
      <setSpec>user-biosyslit</setSpec>
    </header>
    <header>
      <identifier>oai:zenodo.org:272271</identifier>
      <datestamp>2017-02-08T04:08:49Z</datestamp>
      <setSpec>user-biosyslit</setSpec>
    </header>
    <header>
      <identifier>oai:zenodo.org:244584</identifier>
      <datestamp>2017-01-14T23:42:39Z</datestamp>
      <setSpec>user-biosyslit</setSpec>
    </header>
    <header>
      <identifier>oai:zenodo.org:244313</identifier>
      <datestamp>2017-01-14T19:50:21Z</datestamp>
      <setSpec>user-biosyslit</setSpec>
    </header>
    <header>
      <identifier>oai:zenodo.org:247257</identifier>
      <datestamp>2017-01-16T13:30:23Z</datestamp>
      <setSpec>user-biosyslit</setSpec>
    </header>
    <header>
      <identifier>oai:zenodo.org:244585</identifier>
      <datestamp>2017-01-14T23:42:42Z</datestamp>
      <setSpec>user-biosyslit</setSpec>
    </header>
    <header>
      <identifier>oai:zenodo.org:244819</identifier>
      <datestamp>2017-01-15T03:17:51Z</datestamp>
      <setSpec>user-biosyslit</setSpec>
    </header>
    <header>
      <identifier>oai:zenodo.org:244708</identifier>
      <datestamp>2017-01-15T01:28:40Z</datestamp>
      <setSpec>user-biosyslit</setSpec>
    </header>
    <header>
      <identifier>oai:zenodo.org:244705</identifier>
      <datestamp>2017-01-15T01:28:26Z</datestamp>
      <setSpec>user-biosyslit</setSpec>
    </header>
    <header>
      <identifier>oai:zenodo.org:245728</identifier>
      <datestamp>2017-01-15T17:59:52Z</datestamp>
      <setSpec>user-biosyslit</setSpec>
    </header>
    <header>
      <identifier>oai:zenodo.org:245009</identifier>
      <datestamp>2017-01-15T06:32:59Z</datestamp>
      <setSpec>user-biosyslit</setSpec>
    </header>
    <header>
      <identifier>oai:zenodo.org:247094</identifier>
      <datestamp>2017-01-16T11:27:15Z</datestamp>
      <setSpec>user-biosyslit</setSpec>
    </header>
    <header>
      <identifier>oai:zenodo.org:272378</identifier>
      <datestamp>2017-02-08T04:22:58Z</datestamp>
      <setSpec>user-biosyslit</setSpec>
    </header>
    <header>
      <identifier>oai:zenodo.org:247233</identifier>
      <datestamp>2017-01-16T12:54:36Z</datestamp>
      <setSpec>user-biosyslit</setSpec>
    </header>
    <header>
      <identifier>oai:zenodo.org:245830</identifier>
      <datestamp>2017-01-15T19:09:33Z</datestamp>
      <setSpec>user-biosyslit</setSpec>
    </header>
    <resumptionToken expirationDate="2017-08-31T15:45:52Z" cursor="43500" completeListSize="77796">.eJyNysEKgjAYAOB3-c8Sm1NnQpewxEOKLiW9hE0Rc5m4Il347nnpXOfve4OsqhIctEKmoa9NZBKbWga1kKGB5MNdiHOzOPBTKngnksJLn_EtRZle08CV48HNSKBaFN6wYvtIP2F7TBo0Rcfkkal4TIn_YmhHDyqagqu_vJKEnsgvXs-SbiuYXg7hLpoY3rKc8O_Dfz7187lyAxr0RV2BYxCqQfsqhlqC857nD9HJUXQ.DInAOA.yzr1ZZuSnG632anUwKf15v3405g</resumptionToken>
  </ListIdentifiers>
</OAI-PMH>
