<?xml version='1.0' encoding='UTF-8'?>
<?xml-stylesheet type="text/xsl" href="/static/xsl/oai2.v1.0.xsl"?>
<OAI-PMH xmlns="http://www.openarchives.org/OAI/2.0/" xmlns:xsi="http://www.w3.org/2001/XMLSchema-instance" xsi:schemaLocation="http://www.openarchives.org/OAI/2.0/ http://www.openarchives.org/OAI/2.0/OAI-PMH.xsd">
  <responseDate>2017-08-31T15:45:15Z</responseDate>
  <request verb="ListIdentifiers" resumptionToken=".eJyNyssKgkAYQOF3-dcSc0HHhDZhiQsVnRRtE6Yi5mjiFOmE756b1rU7cL43yKoqwUIbZDK21YmO1kAGI1QDWYx3IS7N-qFIE1H0Is6d5Bl1CcpIzXxbTp6dUV-1KOiw4seQpNic4gbN4Sl-ZCqaEuq-ODowT4Wzf3NXV9LAEeerM_C43wtOyjE4hDPHe36mxdfhP5366Wy5Aw2GvK7AMrChQfvKx1qC9V6WD9L5UXQ.DInAiw.fXk0dj9Zr0otl0LdAmO_kZGP-G0">https://zenodo.org/oai2d</request>
  <ListIdentifiers>
    <header>
      <identifier>oai:zenodo.org:263775</identifier>
      <datestamp>2017-01-30T07:54:09Z</datestamp>
      <setSpec>user-biosyslit</setSpec>
    </header>
    <header>
      <identifier>oai:zenodo.org:289618</identifier>
      <datestamp>2017-02-09T23:57:40Z</datestamp>
      <setSpec>user-biosyslit</setSpec>
    </header>
    <header>
      <identifier>oai:zenodo.org:289616</identifier>
      <datestamp>2017-02-09T23:57:36Z</datestamp>
      <setSpec>user-biosyslit</setSpec>
    </header>
    <header>
      <identifier>oai:zenodo.org:289612</identifier>
      <datestamp>2017-02-09T23:57:23Z</datestamp>
      <setSpec>user-biosyslit</setSpec>
    </header>
    <header>
      <identifier>oai:zenodo.org:289615</identifier>
      <datestamp>2017-02-09T23:57:33Z</datestamp>
      <setSpec>user-biosyslit</setSpec>
    </header>
    <header>
      <identifier>oai:zenodo.org:289611</identifier>
      <datestamp>2017-02-09T23:57:21Z</datestamp>
      <setSpec>user-biosyslit</setSpec>
    </header>
    <header>
      <identifier>oai:zenodo.org:289609</identifier>
      <datestamp>2017-02-09T23:57:16Z</datestamp>
      <setSpec>user-biosyslit</setSpec>
    </header>
    <header>
      <identifier>oai:zenodo.org:289613</identifier>
      <datestamp>2017-02-09T23:57:26Z</datestamp>
      <setSpec>user-biosyslit</setSpec>
    </header>
    <header>
      <identifier>oai:zenodo.org:289620</identifier>
      <datestamp>2017-02-09T23:57:51Z</datestamp>
      <setSpec>user-biosyslit</setSpec>
    </header>
    <header>
      <identifier>oai:zenodo.org:285050</identifier>
      <datestamp>2017-02-09T12:32:09Z</datestamp>
      <setSpec>user-biosyslit</setSpec>
    </header>
    <header>
      <identifier>oai:zenodo.org:285057</identifier>
      <datestamp>2017-02-09T12:32:33Z</datestamp>
      <setSpec>user-biosyslit</setSpec>
    </header>
    <header>
      <identifier>oai:zenodo.org:285049</identifier>
      <datestamp>2017-02-09T12:32:07Z</datestamp>
      <setSpec>user-biosyslit</setSpec>
    </header>
    <header>
      <identifier>oai:zenodo.org:285056</identifier>
      <datestamp>2017-02-09T12:32:31Z</datestamp>
      <setSpec>user-biosyslit</setSpec>
    </header>
    <header>
      <identifier>oai:zenodo.org:285052</identifier>
      <datestamp>2017-02-09T12:32:14Z</datestamp>
      <setSpec>user-biosyslit</setSpec>
    </header>
    <header>
      <identifier>oai:zenodo.org:285062</identifier>
      <datestamp>2017-02-09T12:32:45Z</datestamp>
      <setSpec>user-biosyslit</setSpec>
    </header>
    <header>
      <identifier>oai:zenodo.org:285063</identifier>
      <datestamp>2017-02-09T12:32:48Z</datestamp>
      <setSpec>user-biosyslit</setSpec>
    </header>
    <header>
      <identifier>oai:zenodo.org:285058</identifier>
      <datestamp>2017-02-09T12:32:36Z</datestamp>
      <setSpec>user-biosyslit</setSpec>
    </header>
    <header>
      <identifier>oai:zenodo.org:285055</identifier>
      <datestamp>2017-02-09T12:32:29Z</datestamp>
      <setSpec>user-biosyslit</setSpec>
    </header>
    <header>
      <identifier>oai:zenodo.org:284677</identifier>
      <datestamp>2017-02-09T11:49:16Z</datestamp>
      <setSpec>user-biosyslit</setSpec>
    </header>
    <header>
      <identifier>oai:zenodo.org:284679</identifier>
      <datestamp>2017-02-09T11:49:20Z</datestamp>
      <setSpec>user-biosyslit</setSpec>
    </header>
    <header>
      <identifier>oai:zenodo.org:284678</identifier>
      <datestamp>2017-02-09T11:49:17Z</datestamp>
      <setSpec>user-biosyslit</setSpec>
    </header>
    <header>
      <identifier>oai:zenodo.org:288323</identifier>
      <datestamp>2017-02-09T20:35:41Z</datestamp>
      <setSpec>user-biosyslit</setSpec>
    </header>
    <header>
      <identifier>oai:zenodo.org:245185</identifier>
      <datestamp>2017-01-15T09:27:33Z</datestamp>
      <setSpec>user-biosyslit</setSpec>
    </header>
    <header>
      <identifier>oai:zenodo.org:245187</identifier>
      <datestamp>2017-01-15T09:27:26Z</datestamp>
      <setSpec>user-biosyslit</setSpec>
    </header>
    <header>
      <identifier>oai:zenodo.org:282597</identifier>
      <datestamp>2017-02-09T07:17:26Z</datestamp>
      <setSpec>user-biosyslit</setSpec>
    </header>
    <header>
      <identifier>oai:zenodo.org:284116</identifier>
      <datestamp>2017-02-09T10:29:48Z</datestamp>
      <setSpec>user-biosyslit</setSpec>
    </header>
    <header>
      <identifier>oai:zenodo.org:227208</identifier>
      <datestamp>2017-01-01T18:13:52Z</datestamp>
      <setSpec>user-biosyslit</setSpec>
    </header>
    <header>
      <identifier>oai:zenodo.org:227210</identifier>
      <datestamp>2017-01-01T18:14:02Z</datestamp>
      <setSpec>user-biosyslit</setSpec>
    </header>
    <header>
      <identifier>oai:zenodo.org:284132</identifier>
      <datestamp>2017-02-09T10:29:45Z</datestamp>
      <setSpec>user-biosyslit</setSpec>
    </header>
    <header>
      <identifier>oai:zenodo.org:284130</identifier>
      <datestamp>2017-02-09T10:29:39Z</datestamp>
      <setSpec>user-biosyslit</setSpec>
    </header>
    <header>
      <identifier>oai:zenodo.org:284131</identifier>
      <datestamp>2017-02-09T10:29:42Z</datestamp>
      <setSpec>user-biosyslit</setSpec>
    </header>
    <header>
      <identifier>oai:zenodo.org:227212</identifier>
      <datestamp>2017-01-01T18:14:13Z</datestamp>
      <setSpec>user-biosyslit</setSpec>
    </header>
    <header>
      <identifier>oai:zenodo.org:284127</identifier>
      <datestamp>2017-02-09T10:29:31Z</datestamp>
      <setSpec>user-biosyslit</setSpec>
    </header>
    <header>
      <identifier>oai:zenodo.org:283352</identifier>
      <datestamp>2017-02-09T08:41:23Z</datestamp>
      <setSpec>user-biosyslit</setSpec>
    </header>
    <header>
      <identifier>oai:zenodo.org:283361</identifier>
      <datestamp>2017-02-09T08:41:19Z</datestamp>
      <setSpec>user-biosyslit</setSpec>
    </header>
    <header>
      <identifier>oai:zenodo.org:239807</identifier>
      <datestamp>2017-01-12T01:11:17Z</datestamp>
      <setSpec>user-biosyslit</setSpec>
    </header>
    <header>
      <identifier>oai:zenodo.org:228404</identifier>
      <datestamp>2017-01-02T23:34:14Z</datestamp>
      <setSpec>user-biosyslit</setSpec>
    </header>
    <header>
      <identifier>oai:zenodo.org:230946</identifier>
      <datestamp>2017-01-05T11:38:43Z</datestamp>
      <setSpec>user-biosyslit</setSpec>
    </header>
    <header>
      <identifier>oai:zenodo.org:228407</identifier>
      <datestamp>2017-01-02T23:33:49Z</datestamp>
      <setSpec>user-biosyslit</setSpec>
    </header>
    <header>
      <identifier>oai:zenodo.org:228406</identifier>
      <datestamp>2017-01-02T23:33:45Z</datestamp>
      <setSpec>user-biosyslit</setSpec>
    </header>
    <header>
      <identifier>oai:zenodo.org:228415</identifier>
      <datestamp>2017-01-02T23:34:12Z</datestamp>
      <setSpec>user-biosyslit</setSpec>
    </header>
    <header>
      <identifier>oai:zenodo.org:228414</identifier>
      <datestamp>2017-01-02T23:34:09Z</datestamp>
      <setSpec>user-biosyslit</setSpec>
    </header>
    <header>
      <identifier>oai:zenodo.org:228411</identifier>
      <datestamp>2017-01-02T23:34:00Z</datestamp>
      <setSpec>user-biosyslit</setSpec>
    </header>
    <header>
      <identifier>oai:zenodo.org:228405</identifier>
      <datestamp>2017-01-02T23:33:41Z</datestamp>
      <setSpec>user-biosyslit</setSpec>
    </header>
    <header>
      <identifier>oai:zenodo.org:399994</identifier>
      <datestamp>2017-03-16T01:58:33Z</datestamp>
      <setSpec>user-biosyslit</setSpec>
    </header>
    <header>
      <identifier>oai:zenodo.org:399985</identifier>
      <datestamp>2017-03-16T01:58:09Z</datestamp>
      <setSpec>user-biosyslit</setSpec>
    </header>
    <header>
      <identifier>oai:zenodo.org:399978</identifier>
      <datestamp>2017-03-16T01:57:43Z</datestamp>
      <setSpec>user-biosyslit</setSpec>
    </header>
    <header>
      <identifier>oai:zenodo.org:399982</identifier>
      <datestamp>2017-03-16T01:58:00Z</datestamp>
      <setSpec>user-biosyslit</setSpec>
    </header>
    <header>
      <identifier>oai:zenodo.org:399991</identifier>
      <datestamp>2017-03-16T01:58:26Z</datestamp>
      <setSpec>user-biosyslit</setSpec>
    </header>
    <header>
      <identifier>oai:zenodo.org:399977</identifier>
      <datestamp>2017-03-16T01:57:39Z</datestamp>
      <setSpec>user-biosyslit</setSpec>
    </header>
    <header>
      <identifier>oai:zenodo.org:399990</identifier>
      <datestamp>2017-03-16T01:58:23Z</datestamp>
      <setSpec>user-biosyslit</setSpec>
    </header>
    <header>
      <identifier>oai:zenodo.org:399989</identifier>
      <datestamp>2017-03-16T01:58:20Z</datestamp>
      <setSpec>user-biosyslit</setSpec>
    </header>
    <header>
      <identifier>oai:zenodo.org:399979</identifier>
      <datestamp>2017-03-16T01:57:47Z</datestamp>
      <setSpec>user-biosyslit</setSpec>
    </header>
    <header>
      <identifier>oai:zenodo.org:280498</identifier>
      <datestamp>2017-02-09T03:30:58Z</datestamp>
      <setSpec>user-biosyslit</setSpec>
    </header>
    <header>
      <identifier>oai:zenodo.org:279954</identifier>
      <datestamp>2017-02-09T02:21:41Z</datestamp>
      <setSpec>user-biosyslit</setSpec>
    </header>
    <header>
      <identifier>oai:zenodo.org:279951</identifier>
      <datestamp>2017-02-09T02:21:31Z</datestamp>
      <setSpec>user-biosyslit</setSpec>
    </header>
    <header>
      <identifier>oai:zenodo.org:279950</identifier>
      <datestamp>2017-02-09T02:21:28Z</datestamp>
      <setSpec>user-biosyslit</setSpec>
    </header>
    <header>
      <identifier>oai:zenodo.org:279955</identifier>
      <datestamp>2017-02-09T02:21:44Z</datestamp>
      <setSpec>user-biosyslit</setSpec>
    </header>
    <header>
      <identifier>oai:zenodo.org:279952</identifier>
      <datestamp>2017-02-09T02:21:34Z</datestamp>
      <setSpec>user-biosyslit</setSpec>
    </header>
    <header>
      <identifier>oai:zenodo.org:252291</identifier>
      <datestamp>2017-01-19T11:37:24Z</datestamp>
      <setSpec>user-biosyslit</setSpec>
    </header>
    <header>
      <identifier>oai:zenodo.org:252292</identifier>
      <datestamp>2017-01-19T11:37:27Z</datestamp>
      <setSpec>user-biosyslit</setSpec>
    </header>
    <header>
      <identifier>oai:zenodo.org:252287</identifier>
      <datestamp>2017-01-19T11:37:10Z</datestamp>
      <setSpec>user-biosyslit</setSpec>
    </header>
    <header>
      <identifier>oai:zenodo.org:252286</identifier>
      <datestamp>2017-01-19T11:37:07Z</datestamp>
      <setSpec>user-biosyslit</setSpec>
    </header>
    <header>
      <identifier>oai:zenodo.org:252294</identifier>
      <datestamp>2017-01-19T11:37:29Z</datestamp>
      <setSpec>user-biosyslit</setSpec>
    </header>
    <header>
      <identifier>oai:zenodo.org:252290</identifier>
      <datestamp>2017-01-19T11:37:20Z</datestamp>
      <setSpec>user-biosyslit</setSpec>
    </header>
    <header>
      <identifier>oai:zenodo.org:264878</identifier>
      <datestamp>2017-01-31T03:55:09Z</datestamp>
      <setSpec>user-biosyslit</setSpec>
    </header>
    <header>
      <identifier>oai:zenodo.org:285719</identifier>
      <datestamp>2017-02-09T14:11:32Z</datestamp>
      <setSpec>user-biosyslit</setSpec>
    </header>
    <header>
      <identifier>oai:zenodo.org:285723</identifier>
      <datestamp>2017-02-09T14:11:42Z</datestamp>
      <setSpec>user-biosyslit</setSpec>
    </header>
    <header>
      <identifier>oai:zenodo.org:243523</identifier>
      <datestamp>2017-01-14T06:58:15Z</datestamp>
      <setSpec>user-biosyslit</setSpec>
    </header>
    <header>
      <identifier>oai:zenodo.org:285721</identifier>
      <datestamp>2017-02-09T14:11:36Z</datestamp>
      <setSpec>user-biosyslit</setSpec>
    </header>
    <header>
      <identifier>oai:zenodo.org:285722</identifier>
      <datestamp>2017-02-09T14:11:39Z</datestamp>
      <setSpec>user-biosyslit</setSpec>
    </header>
    <header>
      <identifier>oai:zenodo.org:285724</identifier>
      <datestamp>2017-02-09T14:11:44Z</datestamp>
      <setSpec>user-biosyslit</setSpec>
    </header>
    <header>
      <identifier>oai:zenodo.org:264888</identifier>
      <datestamp>2017-01-31T03:55:04Z</datestamp>
      <setSpec>user-biosyslit</setSpec>
    </header>
    <header>
      <identifier>oai:zenodo.org:264889</identifier>
      <datestamp>2017-01-31T03:55:08Z</datestamp>
      <setSpec>user-biosyslit</setSpec>
    </header>
    <header>
      <identifier>oai:zenodo.org:237173</identifier>
      <datestamp>2017-01-10T11:44:09Z</datestamp>
      <setSpec>user-biosyslit</setSpec>
    </header>
    <header>
      <identifier>oai:zenodo.org:237175</identifier>
      <datestamp>2017-01-10T11:44:15Z</datestamp>
      <setSpec>user-biosyslit</setSpec>
    </header>
    <header>
      <identifier>oai:zenodo.org:237176</identifier>
      <datestamp>2017-01-10T11:44:18Z</datestamp>
      <setSpec>user-biosyslit</setSpec>
    </header>
    <header>
      <identifier>oai:zenodo.org:236042</identifier>
      <datestamp>2017-01-09T18:10:47Z</datestamp>
      <setSpec>user-biosyslit</setSpec>
    </header>
    <header>
      <identifier>oai:zenodo.org:236043</identifier>
      <datestamp>2017-01-09T18:10:50Z</datestamp>
      <setSpec>user-biosyslit</setSpec>
    </header>
    <header>
      <identifier>oai:zenodo.org:236040</identifier>
      <datestamp>2017-01-09T18:10:41Z</datestamp>
      <setSpec>user-biosyslit</setSpec>
    </header>
    <header>
      <identifier>oai:zenodo.org:280911</identifier>
      <datestamp>2017-02-09T04:19:03Z</datestamp>
      <setSpec>user-biosyslit</setSpec>
    </header>
    <header>
      <identifier>oai:zenodo.org:280912</identifier>
      <datestamp>2017-02-09T04:19:06Z</datestamp>
      <setSpec>user-biosyslit</setSpec>
    </header>
    <header>
      <identifier>oai:zenodo.org:280913</identifier>
      <datestamp>2017-02-09T04:19:08Z</datestamp>
      <setSpec>user-biosyslit</setSpec>
    </header>
    <header>
      <identifier>oai:zenodo.org:276012</identifier>
      <datestamp>2017-02-08T17:51:40Z</datestamp>
      <setSpec>user-biosyslit</setSpec>
    </header>
    <header>
      <identifier>oai:zenodo.org:276016</identifier>
      <datestamp>2017-02-08T17:51:52Z</datestamp>
      <setSpec>user-biosyslit</setSpec>
    </header>
    <header>
      <identifier>oai:zenodo.org:276020</identifier>
      <datestamp>2017-02-08T17:52:03Z</datestamp>
      <setSpec>user-biosyslit</setSpec>
    </header>
    <header>
      <identifier>oai:zenodo.org:276015</identifier>
      <datestamp>2017-02-08T17:51:49Z</datestamp>
      <setSpec>user-biosyslit</setSpec>
    </header>
    <header>
      <identifier>oai:zenodo.org:276013</identifier>
      <datestamp>2017-02-08T17:51:43Z</datestamp>
      <setSpec>user-biosyslit</setSpec>
    </header>
    <header>
      <identifier>oai:zenodo.org:276019</identifier>
      <datestamp>2017-02-08T17:52:00Z</datestamp>
      <setSpec>user-biosyslit</setSpec>
    </header>
    <header>
      <identifier>oai:zenodo.org:276009</identifier>
      <datestamp>2017-02-08T17:51:31Z</datestamp>
      <setSpec>user-biosyslit</setSpec>
    </header>
    <header>
      <identifier>oai:zenodo.org:276021</identifier>
      <datestamp>2017-02-08T17:52:05Z</datestamp>
      <setSpec>user-biosyslit</setSpec>
    </header>
    <header>
      <identifier>oai:zenodo.org:276011</identifier>
      <datestamp>2017-02-08T17:51:37Z</datestamp>
      <setSpec>user-biosyslit</setSpec>
    </header>
    <header>
      <identifier>oai:zenodo.org:281385</identifier>
      <datestamp>2017-02-09T05:14:35Z</datestamp>
      <setSpec>user-biosyslit</setSpec>
    </header>
    <header>
      <identifier>oai:zenodo.org:281386</identifier>
      <datestamp>2017-02-09T05:14:04Z</datestamp>
      <setSpec>user-biosyslit</setSpec>
    </header>
    <header>
      <identifier>oai:zenodo.org:281389</identifier>
      <datestamp>2017-02-09T05:14:10Z</datestamp>
      <setSpec>user-biosyslit</setSpec>
    </header>
    <header>
      <identifier>oai:zenodo.org:281390</identifier>
      <datestamp>2017-02-09T05:14:12Z</datestamp>
      <setSpec>user-biosyslit</setSpec>
    </header>
    <header>
      <identifier>oai:zenodo.org:281399</identifier>
      <datestamp>2017-02-09T05:14:32Z</datestamp>
      <setSpec>user-biosyslit</setSpec>
    </header>
    <header>
      <identifier>oai:zenodo.org:265229</identifier>
      <datestamp>2017-01-31T10:33:00Z</datestamp>
      <setSpec>user-biosyslit</setSpec>
    </header>
    <header>
      <identifier>oai:zenodo.org:265231</identifier>
      <datestamp>2017-01-31T10:32:40Z</datestamp>
      <setSpec>user-biosyslit</setSpec>
    </header>
    <header>
      <identifier>oai:zenodo.org:265235</identifier>
      <datestamp>2017-01-31T10:32:54Z</datestamp>
      <setSpec>user-biosyslit</setSpec>
    </header>
    <resumptionToken expirationDate="2017-08-31T15:47:15Z" cursor="61500" completeListSize="77796">.eJyNysEKgjAYAOB3-c8Smz81FbqEJh1SdE3US5iKVNPEFemid89L5zp_3wtUXVfgkIWNK6SIps0YRQuXBqhyuEl5PM8MZZrIspOi8JNH3CYkMxsWuGrcuxkG-krClmq-jcyUWqM4kyk6iHum4zHB3ZMTj-11NAWX3fwqDH2Zn_yei24juVkNoRdNnG54juX30T-f_vlctQYD-qKpwVlRZsD1WQyNAuf1fn8AnzdRQg.DInAiw.fpMs7RTldlqkpjY8W79m9e9RIyo</resumptionToken>
  </ListIdentifiers>
</OAI-PMH>
