<?xml version='1.0' encoding='UTF-8'?>
<?xml-stylesheet type="text/xsl" href="/static/xsl/oai2.v1.0.xsl"?>
<OAI-PMH xmlns="http://www.openarchives.org/OAI/2.0/" xmlns:xsi="http://www.w3.org/2001/XMLSchema-instance" xsi:schemaLocation="http://www.openarchives.org/OAI/2.0/ http://www.openarchives.org/OAI/2.0/OAI-PMH.xsd">
  <responseDate>2017-08-31T15:44:11Z</responseDate>
  <request verb="ListIdentifiers" resumptionToken=".eJyNysEKgjAYAOB3-c8Sm1OXQpewpIPKXEp6CZsi5axwhTrp3evSuc7fN4Oq6wo8tKAEU9exbcc1LUosYoAS_U3K4_nDIA6ZFFeZlkH2TLoM5WZDI1-NoZ-TSLco7rDmW2Ye8HJMz2hi-_SR62TMyG7gaENDzabosvu8isSBLE7BnafXteRm1ccbNnG85gUR34f_fPrn89UKDLiXTQ2eRW0D2qHsGwXe_Hq9AabTUUw.DInASw.LhLUssH9KMS1zjmf-mmCPaiLaSc">https://zenodo.org/oai2d</request>
  <ListIdentifiers>
    <header>
      <identifier>oai:zenodo.org:227580</identifier>
      <datestamp>2017-01-02T00:05:21Z</datestamp>
      <setSpec>user-biosyslit</setSpec>
    </header>
    <header>
      <identifier>oai:zenodo.org:229210</identifier>
      <datestamp>2017-01-03T12:25:34Z</datestamp>
      <setSpec>user-biosyslit</setSpec>
    </header>
    <header>
      <identifier>oai:zenodo.org:229094</identifier>
      <datestamp>2017-01-03T09:28:28Z</datestamp>
      <setSpec>user-biosyslit</setSpec>
    </header>
    <header>
      <identifier>oai:zenodo.org:229558</identifier>
      <datestamp>2017-01-03T18:05:33Z</datestamp>
      <setSpec>user-biosyslit</setSpec>
    </header>
    <header>
      <identifier>oai:zenodo.org:495561</identifier>
      <datestamp>2017-04-07T08:02:47Z</datestamp>
      <setSpec>user-biosyslit</setSpec>
    </header>
    <header>
      <identifier>oai:zenodo.org:229220</identifier>
      <datestamp>2017-01-03T12:38:11Z</datestamp>
      <setSpec>user-biosyslit</setSpec>
    </header>
    <header>
      <identifier>oai:zenodo.org:228353</identifier>
      <datestamp>2017-01-02T22:43:53Z</datestamp>
      <setSpec>user-biosyslit</setSpec>
    </header>
    <header>
      <identifier>oai:zenodo.org:227934</identifier>
      <datestamp>2017-01-02T07:03:05Z</datestamp>
      <setSpec>user-biosyslit</setSpec>
    </header>
    <header>
      <identifier>oai:zenodo.org:275399</identifier>
      <datestamp>2017-02-08T16:13:09Z</datestamp>
      <setSpec>user-biosyslit</setSpec>
    </header>
    <header>
      <identifier>oai:zenodo.org:228316</identifier>
      <datestamp>2017-01-02T21:51:46Z</datestamp>
      <setSpec>user-biosyslit</setSpec>
    </header>
    <header>
      <identifier>oai:zenodo.org:228120</identifier>
      <datestamp>2017-01-02T10:58:09Z</datestamp>
      <setSpec>user-biosyslit</setSpec>
    </header>
    <header>
      <identifier>oai:zenodo.org:228492</identifier>
      <datestamp>2017-01-03T00:31:35Z</datestamp>
      <setSpec>user-biosyslit</setSpec>
    </header>
    <header>
      <identifier>oai:zenodo.org:496969</identifier>
      <datestamp>2017-04-11T07:48:02Z</datestamp>
      <setSpec>user-biosyslit</setSpec>
    </header>
    <header>
      <identifier>oai:zenodo.org:228294</identifier>
      <datestamp>2017-01-02T21:25:48Z</datestamp>
      <setSpec>user-biosyslit</setSpec>
    </header>
    <header>
      <identifier>oai:zenodo.org:227985</identifier>
      <datestamp>2017-01-02T08:09:24Z</datestamp>
      <setSpec>user-biosyslit</setSpec>
    </header>
    <header>
      <identifier>oai:zenodo.org:229034</identifier>
      <datestamp>2017-01-03T08:37:59Z</datestamp>
      <setSpec>user-biosyslit</setSpec>
    </header>
    <header>
      <identifier>oai:zenodo.org:229795</identifier>
      <datestamp>2017-01-04T07:21:46Z</datestamp>
      <setSpec>user-biosyslit</setSpec>
    </header>
    <header>
      <identifier>oai:zenodo.org:270445</identifier>
      <datestamp>2017-02-07T23:15:48Z</datestamp>
      <setSpec>user-biosyslit</setSpec>
    </header>
    <header>
      <identifier>oai:zenodo.org:227896</identifier>
      <datestamp>2017-01-02T06:24:31Z</datestamp>
      <setSpec>user-biosyslit</setSpec>
    </header>
    <header>
      <identifier>oai:zenodo.org:287188</identifier>
      <datestamp>2017-02-09T17:38:00Z</datestamp>
      <setSpec>user-biosyslit</setSpec>
    </header>
    <header>
      <identifier>oai:zenodo.org:495065</identifier>
      <datestamp>2017-04-05T07:36:47Z</datestamp>
      <setSpec>user-biosyslit</setSpec>
    </header>
    <header>
      <identifier>oai:zenodo.org:287319</identifier>
      <datestamp>2017-02-09T18:01:02Z</datestamp>
      <setSpec>user-biosyslit</setSpec>
    </header>
    <header>
      <identifier>oai:zenodo.org:495013</identifier>
      <datestamp>2017-04-05T07:10:24Z</datestamp>
      <setSpec>user-biosyslit</setSpec>
    </header>
    <header>
      <identifier>oai:zenodo.org:287272</identifier>
      <datestamp>2017-02-09T17:56:43Z</datestamp>
      <setSpec>user-biosyslit</setSpec>
    </header>
    <header>
      <identifier>oai:zenodo.org:288049</identifier>
      <datestamp>2017-02-09T19:55:13Z</datestamp>
      <setSpec>user-biosyslit</setSpec>
    </header>
    <header>
      <identifier>oai:zenodo.org:287662</identifier>
      <datestamp>2017-02-09T18:52:19Z</datestamp>
      <setSpec>user-biosyslit</setSpec>
    </header>
    <header>
      <identifier>oai:zenodo.org:495046</identifier>
      <datestamp>2017-04-05T07:24:15Z</datestamp>
      <setSpec>user-biosyslit</setSpec>
    </header>
    <header>
      <identifier>oai:zenodo.org:287764</identifier>
      <datestamp>2017-02-09T19:14:34Z</datestamp>
      <setSpec>user-biosyslit</setSpec>
    </header>
    <header>
      <identifier>oai:zenodo.org:287765</identifier>
      <datestamp>2017-02-09T19:14:18Z</datestamp>
      <setSpec>user-biosyslit</setSpec>
    </header>
    <header>
      <identifier>oai:zenodo.org:287740</identifier>
      <datestamp>2017-02-09T19:10:16Z</datestamp>
      <setSpec>user-biosyslit</setSpec>
    </header>
    <header>
      <identifier>oai:zenodo.org:287981</identifier>
      <datestamp>2017-02-09T19:43:32Z</datestamp>
      <setSpec>user-biosyslit</setSpec>
    </header>
    <header>
      <identifier>oai:zenodo.org:287919</identifier>
      <datestamp>2017-02-09T19:36:16Z</datestamp>
      <setSpec>user-biosyslit</setSpec>
    </header>
    <header>
      <identifier>oai:zenodo.org:287927</identifier>
      <datestamp>2017-02-09T19:37:32Z</datestamp>
      <setSpec>user-biosyslit</setSpec>
    </header>
    <header>
      <identifier>oai:zenodo.org:288775</identifier>
      <datestamp>2017-02-09T21:52:07Z</datestamp>
      <setSpec>user-biosyslit</setSpec>
    </header>
    <header>
      <identifier>oai:zenodo.org:227275</identifier>
      <datestamp>2017-01-01T18:51:37Z</datestamp>
      <setSpec>user-biosyslit</setSpec>
    </header>
    <header>
      <identifier>oai:zenodo.org:227215</identifier>
      <datestamp>2017-01-01T18:23:00Z</datestamp>
      <setSpec>user-biosyslit</setSpec>
    </header>
    <header>
      <identifier>oai:zenodo.org:495016</identifier>
      <datestamp>2017-04-05T07:10:31Z</datestamp>
      <setSpec>user-biosyslit</setSpec>
    </header>
    <header>
      <identifier>oai:zenodo.org:227289</identifier>
      <datestamp>2017-01-01T19:05:53Z</datestamp>
      <setSpec>user-biosyslit</setSpec>
    </header>
    <header>
      <identifier>oai:zenodo.org:227016</identifier>
      <datestamp>2017-01-01T08:09:43Z</datestamp>
      <setSpec>user-biosyslit</setSpec>
    </header>
    <header>
      <identifier>oai:zenodo.org:227639</identifier>
      <datestamp>2017-01-02T01:15:36Z</datestamp>
      <setSpec>user-biosyslit</setSpec>
    </header>
    <header>
      <identifier>oai:zenodo.org:227567</identifier>
      <datestamp>2017-01-01T23:55:06Z</datestamp>
      <setSpec>user-biosyslit</setSpec>
    </header>
    <header>
      <identifier>oai:zenodo.org:495043</identifier>
      <datestamp>2017-04-05T07:24:08Z</datestamp>
      <setSpec>user-biosyslit</setSpec>
    </header>
    <header>
      <identifier>oai:zenodo.org:227627</identifier>
      <datestamp>2017-01-02T01:06:32Z</datestamp>
      <setSpec>user-biosyslit</setSpec>
    </header>
    <header>
      <identifier>oai:zenodo.org:227637</identifier>
      <datestamp>2017-01-02T01:11:52Z</datestamp>
      <setSpec>user-biosyslit</setSpec>
    </header>
    <header>
      <identifier>oai:zenodo.org:229590</identifier>
      <datestamp>2017-01-03T19:02:44Z</datestamp>
      <setSpec>user-biosyslit</setSpec>
    </header>
    <header>
      <identifier>oai:zenodo.org:227638</identifier>
      <datestamp>2017-01-02T01:15:58Z</datestamp>
      <setSpec>user-biosyslit</setSpec>
    </header>
    <header>
      <identifier>oai:zenodo.org:288346</identifier>
      <datestamp>2017-02-09T20:41:27Z</datestamp>
      <setSpec>user-biosyslit</setSpec>
    </header>
    <header>
      <identifier>oai:zenodo.org:228262</identifier>
      <datestamp>2017-01-02T20:42:23Z</datestamp>
      <setSpec>user-biosyslit</setSpec>
    </header>
    <header>
      <identifier>oai:zenodo.org:495318</identifier>
      <datestamp>2017-04-06T07:46:59Z</datestamp>
      <setSpec>user-biosyslit</setSpec>
    </header>
    <header>
      <identifier>oai:zenodo.org:228396</identifier>
      <datestamp>2017-01-02T23:27:07Z</datestamp>
      <setSpec>user-biosyslit</setSpec>
    </header>
    <header>
      <identifier>oai:zenodo.org:495296</identifier>
      <datestamp>2017-04-06T07:28:51Z</datestamp>
      <setSpec>user-biosyslit</setSpec>
    </header>
    <header>
      <identifier>oai:zenodo.org:495281</identifier>
      <datestamp>2017-04-06T07:16:35Z</datestamp>
      <setSpec>user-biosyslit</setSpec>
    </header>
    <header>
      <identifier>oai:zenodo.org:227982</identifier>
      <datestamp>2017-01-02T08:04:50Z</datestamp>
      <setSpec>user-biosyslit</setSpec>
    </header>
    <header>
      <identifier>oai:zenodo.org:495280</identifier>
      <datestamp>2017-04-06T07:16:27Z</datestamp>
      <setSpec>user-biosyslit</setSpec>
    </header>
    <header>
      <identifier>oai:zenodo.org:227767</identifier>
      <datestamp>2017-01-02T04:24:30Z</datestamp>
      <setSpec>user-biosyslit</setSpec>
    </header>
    <header>
      <identifier>oai:zenodo.org:275548</identifier>
      <datestamp>2017-02-08T16:40:20Z</datestamp>
      <setSpec>user-biosyslit</setSpec>
    </header>
    <header>
      <identifier>oai:zenodo.org:287938</identifier>
      <datestamp>2017-02-09T19:38:44Z</datestamp>
      <setSpec>user-biosyslit</setSpec>
    </header>
    <header>
      <identifier>oai:zenodo.org:287482</identifier>
      <datestamp>2017-02-09T18:27:00Z</datestamp>
      <setSpec>user-biosyslit</setSpec>
    </header>
    <header>
      <identifier>oai:zenodo.org:288675</identifier>
      <datestamp>2017-02-09T21:40:25Z</datestamp>
      <setSpec>user-biosyslit</setSpec>
    </header>
    <header>
      <identifier>oai:zenodo.org:288753</identifier>
      <datestamp>2017-02-09T21:50:44Z</datestamp>
      <setSpec>user-biosyslit</setSpec>
    </header>
    <header>
      <identifier>oai:zenodo.org:287949</identifier>
      <datestamp>2017-02-09T19:40:09Z</datestamp>
      <setSpec>user-biosyslit</setSpec>
    </header>
    <header>
      <identifier>oai:zenodo.org:288732</identifier>
      <datestamp>2017-02-09T21:49:39Z</datestamp>
      <setSpec>user-biosyslit</setSpec>
    </header>
    <header>
      <identifier>oai:zenodo.org:288137</identifier>
      <datestamp>2017-02-09T20:05:07Z</datestamp>
      <setSpec>user-biosyslit</setSpec>
    </header>
    <header>
      <identifier>oai:zenodo.org:288621</identifier>
      <datestamp>2017-02-09T21:35:07Z</datestamp>
      <setSpec>user-biosyslit</setSpec>
    </header>
    <header>
      <identifier>oai:zenodo.org:288763</identifier>
      <datestamp>2017-02-09T21:51:24Z</datestamp>
      <setSpec>user-biosyslit</setSpec>
    </header>
    <header>
      <identifier>oai:zenodo.org:288373</identifier>
      <datestamp>2017-02-09T20:45:39Z</datestamp>
      <setSpec>user-biosyslit</setSpec>
    </header>
    <header>
      <identifier>oai:zenodo.org:288012</identifier>
      <datestamp>2017-02-09T19:49:22Z</datestamp>
      <setSpec>user-biosyslit</setSpec>
    </header>
    <header>
      <identifier>oai:zenodo.org:288019</identifier>
      <datestamp>2017-02-09T19:49:42Z</datestamp>
      <setSpec>user-biosyslit</setSpec>
    </header>
    <header>
      <identifier>oai:zenodo.org:227626</identifier>
      <datestamp>2017-01-02T01:06:28Z</datestamp>
      <setSpec>user-biosyslit</setSpec>
    </header>
    <header>
      <identifier>oai:zenodo.org:288479</identifier>
      <datestamp>2017-02-09T21:03:28Z</datestamp>
      <setSpec>user-biosyslit</setSpec>
    </header>
    <header>
      <identifier>oai:zenodo.org:227427</identifier>
      <datestamp>2017-01-01T21:17:18Z</datestamp>
      <setSpec>user-biosyslit</setSpec>
    </header>
    <header>
      <identifier>oai:zenodo.org:227526</identifier>
      <datestamp>2017-01-01T23:07:39Z</datestamp>
      <setSpec>user-biosyslit</setSpec>
    </header>
    <header>
      <identifier>oai:zenodo.org:227409</identifier>
      <datestamp>2017-01-01T20:44:50Z</datestamp>
      <setSpec>user-biosyslit</setSpec>
    </header>
    <header>
      <identifier>oai:zenodo.org:227014</identifier>
      <datestamp>2017-01-01T08:06:58Z</datestamp>
      <setSpec>user-biosyslit</setSpec>
    </header>
    <header>
      <identifier>oai:zenodo.org:227690</identifier>
      <datestamp>2017-01-02T02:17:13Z</datestamp>
      <setSpec>user-biosyslit</setSpec>
    </header>
    <header>
      <identifier>oai:zenodo.org:227143</identifier>
      <datestamp>2017-01-01T17:27:58Z</datestamp>
      <setSpec>user-biosyslit</setSpec>
    </header>
    <header>
      <identifier>oai:zenodo.org:227642</identifier>
      <datestamp>2017-01-02T01:31:48Z</datestamp>
      <setSpec>user-biosyslit</setSpec>
    </header>
    <header>
      <identifier>oai:zenodo.org:228688</identifier>
      <datestamp>2017-01-03T03:28:40Z</datestamp>
      <setSpec>user-biosyslit</setSpec>
    </header>
    <header>
      <identifier>oai:zenodo.org:227450</identifier>
      <datestamp>2017-01-01T21:32:15Z</datestamp>
      <setSpec>user-biosyslit</setSpec>
    </header>
    <header>
      <identifier>oai:zenodo.org:227721</identifier>
      <datestamp>2017-01-02T02:37:27Z</datestamp>
      <setSpec>user-biosyslit</setSpec>
    </header>
    <header>
      <identifier>oai:zenodo.org:227258</identifier>
      <datestamp>2017-01-01T18:50:34Z</datestamp>
      <setSpec>user-biosyslit</setSpec>
    </header>
    <header>
      <identifier>oai:zenodo.org:228859</identifier>
      <datestamp>2017-01-03T06:12:51Z</datestamp>
      <setSpec>user-biosyslit</setSpec>
    </header>
    <header>
      <identifier>oai:zenodo.org:288342</identifier>
      <datestamp>2017-02-09T20:40:54Z</datestamp>
      <setSpec>user-biosyslit</setSpec>
    </header>
    <header>
      <identifier>oai:zenodo.org:230180</identifier>
      <datestamp>2017-01-04T20:45:07Z</datestamp>
      <setSpec>user-biosyslit</setSpec>
    </header>
    <header>
      <identifier>oai:zenodo.org:227988</identifier>
      <datestamp>2017-01-02T08:09:38Z</datestamp>
      <setSpec>user-biosyslit</setSpec>
    </header>
    <header>
      <identifier>oai:zenodo.org:227768</identifier>
      <datestamp>2017-01-02T04:24:06Z</datestamp>
      <setSpec>user-biosyslit</setSpec>
    </header>
    <header>
      <identifier>oai:zenodo.org:495860</identifier>
      <datestamp>2017-04-10T07:55:46Z</datestamp>
      <setSpec>user-biosyslit</setSpec>
    </header>
    <header>
      <identifier>oai:zenodo.org:229236</identifier>
      <datestamp>2017-01-03T13:13:06Z</datestamp>
      <setSpec>user-biosyslit</setSpec>
    </header>
    <header>
      <identifier>oai:zenodo.org:227995</identifier>
      <datestamp>2017-01-02T08:15:49Z</datestamp>
      <setSpec>user-biosyslit</setSpec>
    </header>
    <header>
      <identifier>oai:zenodo.org:229805</identifier>
      <datestamp>2017-01-04T07:22:45Z</datestamp>
      <setSpec>user-biosyslit</setSpec>
    </header>
    <header>
      <identifier>oai:zenodo.org:228230</identifier>
      <datestamp>2017-01-02T20:05:25Z</datestamp>
      <setSpec>user-biosyslit</setSpec>
    </header>
    <header>
      <identifier>oai:zenodo.org:227787</identifier>
      <datestamp>2017-01-02T04:33:41Z</datestamp>
      <setSpec>user-biosyslit</setSpec>
    </header>
    <header>
      <identifier>oai:zenodo.org:228229</identifier>
      <datestamp>2017-01-02T20:05:21Z</datestamp>
      <setSpec>user-biosyslit</setSpec>
    </header>
    <header>
      <identifier>oai:zenodo.org:230015</identifier>
      <datestamp>2017-01-04T17:37:37Z</datestamp>
      <setSpec>user-biosyslit</setSpec>
    </header>
    <header>
      <identifier>oai:zenodo.org:229207</identifier>
      <datestamp>2017-01-03T12:25:26Z</datestamp>
      <setSpec>user-biosyslit</setSpec>
    </header>
    <header>
      <identifier>oai:zenodo.org:228086</identifier>
      <datestamp>2017-01-02T10:08:27Z</datestamp>
      <setSpec>user-biosyslit</setSpec>
    </header>
    <header>
      <identifier>oai:zenodo.org:228543</identifier>
      <datestamp>2017-01-03T01:14:56Z</datestamp>
      <setSpec>user-biosyslit</setSpec>
    </header>
    <header>
      <identifier>oai:zenodo.org:227986</identifier>
      <datestamp>2017-01-02T08:09:27Z</datestamp>
      <setSpec>user-biosyslit</setSpec>
    </header>
    <header>
      <identifier>oai:zenodo.org:269936</identifier>
      <datestamp>2017-02-07T20:46:13Z</datestamp>
      <setSpec>user-biosyslit</setSpec>
    </header>
    <header>
      <identifier>oai:zenodo.org:497045</identifier>
      <datestamp>2017-04-11T07:48:45Z</datestamp>
      <setSpec>user-biosyslit</setSpec>
    </header>
    <resumptionToken expirationDate="2017-08-31T15:46:11Z" cursor="47400" completeListSize="77796">.eJyNysEOQzAYAOB3-c-yVMsqkl0WJg4IHcFlMURMt4luQcW7z2Xn7fx9C4i6rsBEO6JRw8CE6phgQ0O6AqIcnpxf2o2hTBNePnhcOMk7uicoww31LTF5VkZ82aHgrkp2CnGqGlPcojk8x69MRlNC3JEhm3oynP2bu72KBA7Pr07P4seRM1wNgR3OTD2ynJTfp_755M9niQMo0BdNDaZG9wp0YzE0AsxlXT-dvVFD.DInASw.MIMpWHgsgwi3cBjGyXYRMDF366I</resumptionToken>
  </ListIdentifiers>
</OAI-PMH>
