<?xml version='1.0' encoding='UTF-8'?>
<?xml-stylesheet type="text/xsl" href="/static/xsl/oai2.v1.0.xsl"?>
<OAI-PMH xmlns="http://www.openarchives.org/OAI/2.0/" xmlns:xsi="http://www.w3.org/2001/XMLSchema-instance" xsi:schemaLocation="http://www.openarchives.org/OAI/2.0/ http://www.openarchives.org/OAI/2.0/OAI-PMH.xsd">
  <responseDate>2017-08-31T15:43:32Z</responseDate>
  <request verb="ListIdentifiers" resumptionToken=".eJyNyssKgkAUANB_uWuJGW8-ENqEJi1UdFLUTZiKVKOJU6gT_ntuWtf6nDeIuq7AIhuKVKdb3UBdQ9Q0qoAohwfn5-vKUKYJLzseF27yitqEZGpj-LaYPDtDX95J0FLJDqGaUnOKr2QOT_Ezk9GU4HFkxDE8Gc7-7bi-CgOX5xe3Z3G350ythsAJZ0b3LMfy--ifT_58ttiBAn3R1GChaShwH4uhEWC9l-UDk15ROQ.DInAIw.nH_4PhMtdwE3Hp0JVoGJC6wwHDA">https://zenodo.org/oai2d</request>
  <ListIdentifiers>
    <header>
      <identifier>oai:zenodo.org:851561</identifier>
      <datestamp>2017-08-27T17:59:09Z</datestamp>
      <setSpec>openaire</setSpec>
      <setSpec>user-biosyslit</setSpec>
    </header>
    <header>
      <identifier>oai:zenodo.org:851770</identifier>
      <datestamp>2017-08-28T07:28:00Z</datestamp>
      <setSpec>user-biosyslit</setSpec>
    </header>
    <header>
      <identifier>oai:zenodo.org:851772</identifier>
      <datestamp>2017-08-28T07:28:03Z</datestamp>
      <setSpec>user-biosyslit</setSpec>
    </header>
    <header>
      <identifier>oai:zenodo.org:851886</identifier>
      <datestamp>2017-08-28T08:06:29Z</datestamp>
      <setSpec>user-biosyslit</setSpec>
    </header>
    <header>
      <identifier>oai:zenodo.org:851382</identifier>
      <datestamp>2017-08-27T12:09:16Z</datestamp>
      <setSpec>user-biosyslit</setSpec>
    </header>
    <header>
      <identifier>oai:zenodo.org:852018</identifier>
      <datestamp>2017-08-28T09:01:25Z</datestamp>
      <setSpec>user-biosyslit</setSpec>
    </header>
    <header>
      <identifier>oai:zenodo.org:852020</identifier>
      <datestamp>2017-08-28T09:01:28Z</datestamp>
      <setSpec>user-biosyslit</setSpec>
    </header>
    <header>
      <identifier>oai:zenodo.org:852900</identifier>
      <datestamp>2017-08-29T06:09:33Z</datestamp>
      <setSpec>user-biosyslit</setSpec>
    </header>
    <header>
      <identifier>oai:zenodo.org:852908</identifier>
      <datestamp>2017-08-29T06:09:22Z</datestamp>
      <setSpec>user-biosyslit</setSpec>
    </header>
    <header>
      <identifier>oai:zenodo.org:852912</identifier>
      <datestamp>2017-08-29T06:09:30Z</datestamp>
      <setSpec>user-biosyslit</setSpec>
    </header>
    <header>
      <identifier>oai:zenodo.org:852918</identifier>
      <datestamp>2017-08-29T06:10:09Z</datestamp>
      <setSpec>user-biosyslit</setSpec>
    </header>
    <header>
      <identifier>oai:zenodo.org:852910</identifier>
      <datestamp>2017-08-29T06:09:26Z</datestamp>
      <setSpec>user-biosyslit</setSpec>
    </header>
    <header>
      <identifier>oai:zenodo.org:852920</identifier>
      <datestamp>2017-08-29T06:10:13Z</datestamp>
      <setSpec>user-biosyslit</setSpec>
    </header>
    <header>
      <identifier>oai:zenodo.org:852922</identifier>
      <datestamp>2017-08-29T06:10:17Z</datestamp>
      <setSpec>user-biosyslit</setSpec>
    </header>
    <header>
      <identifier>oai:zenodo.org:852926</identifier>
      <datestamp>2017-08-29T06:10:24Z</datestamp>
      <setSpec>user-biosyslit</setSpec>
    </header>
    <header>
      <identifier>oai:zenodo.org:852916</identifier>
      <datestamp>2017-08-29T06:10:06Z</datestamp>
      <setSpec>user-biosyslit</setSpec>
    </header>
    <header>
      <identifier>oai:zenodo.org:852798</identifier>
      <datestamp>2017-08-29T06:03:18Z</datestamp>
      <setSpec>user-biosyslit</setSpec>
    </header>
    <header>
      <identifier>oai:zenodo.org:852802</identifier>
      <datestamp>2017-08-29T06:02:58Z</datestamp>
      <setSpec>user-biosyslit</setSpec>
    </header>
    <header>
      <identifier>oai:zenodo.org:852804</identifier>
      <datestamp>2017-08-29T06:03:02Z</datestamp>
      <setSpec>user-biosyslit</setSpec>
    </header>
    <header>
      <identifier>oai:zenodo.org:852806</identifier>
      <datestamp>2017-08-29T06:03:06Z</datestamp>
      <setSpec>user-biosyslit</setSpec>
    </header>
    <header>
      <identifier>oai:zenodo.org:852808</identifier>
      <datestamp>2017-08-29T06:03:09Z</datestamp>
      <setSpec>user-biosyslit</setSpec>
    </header>
    <header>
      <identifier>oai:zenodo.org:852792</identifier>
      <datestamp>2017-08-29T06:02:15Z</datestamp>
      <setSpec>user-biosyslit</setSpec>
    </header>
    <header>
      <identifier>oai:zenodo.org:852790</identifier>
      <datestamp>2017-08-29T06:02:12Z</datestamp>
      <setSpec>user-biosyslit</setSpec>
    </header>
    <header>
      <identifier>oai:zenodo.org:852810</identifier>
      <datestamp>2017-08-29T06:03:13Z</datestamp>
      <setSpec>user-biosyslit</setSpec>
    </header>
    <header>
      <identifier>oai:zenodo.org:852894</identifier>
      <datestamp>2017-08-29T06:08:36Z</datestamp>
      <setSpec>user-biosyslit</setSpec>
    </header>
    <header>
      <identifier>oai:zenodo.org:852892</identifier>
      <datestamp>2017-08-29T06:08:33Z</datestamp>
      <setSpec>user-biosyslit</setSpec>
    </header>
    <header>
      <identifier>oai:zenodo.org:852870</identifier>
      <datestamp>2017-08-29T06:07:08Z</datestamp>
      <setSpec>user-biosyslit</setSpec>
    </header>
    <header>
      <identifier>oai:zenodo.org:852872</identifier>
      <datestamp>2017-08-29T06:07:11Z</datestamp>
      <setSpec>user-biosyslit</setSpec>
    </header>
    <header>
      <identifier>oai:zenodo.org:852902</identifier>
      <datestamp>2017-08-29T06:09:15Z</datestamp>
      <setSpec>user-biosyslit</setSpec>
    </header>
    <header>
      <identifier>oai:zenodo.org:852876</identifier>
      <datestamp>2017-08-29T06:07:18Z</datestamp>
      <setSpec>user-biosyslit</setSpec>
    </header>
    <header>
      <identifier>oai:zenodo.org:852878</identifier>
      <datestamp>2017-08-29T06:07:22Z</datestamp>
      <setSpec>user-biosyslit</setSpec>
    </header>
    <header>
      <identifier>oai:zenodo.org:852886</identifier>
      <datestamp>2017-08-29T06:07:35Z</datestamp>
      <setSpec>user-biosyslit</setSpec>
    </header>
    <header>
      <identifier>oai:zenodo.org:852898</identifier>
      <datestamp>2017-08-29T06:08:44Z</datestamp>
      <setSpec>user-biosyslit</setSpec>
    </header>
    <header>
      <identifier>oai:zenodo.org:852768</identifier>
      <datestamp>2017-08-29T06:00:31Z</datestamp>
      <setSpec>user-biosyslit</setSpec>
    </header>
    <header>
      <identifier>oai:zenodo.org:852772</identifier>
      <datestamp>2017-08-29T06:01:05Z</datestamp>
      <setSpec>user-biosyslit</setSpec>
    </header>
    <header>
      <identifier>oai:zenodo.org:852758</identifier>
      <datestamp>2017-08-29T05:59:28Z</datestamp>
      <setSpec>user-biosyslit</setSpec>
    </header>
    <header>
      <identifier>oai:zenodo.org:852756</identifier>
      <datestamp>2017-08-29T05:59:25Z</datestamp>
      <setSpec>user-biosyslit</setSpec>
    </header>
    <header>
      <identifier>oai:zenodo.org:852744</identifier>
      <datestamp>2017-08-29T05:59:07Z</datestamp>
      <setSpec>user-biosyslit</setSpec>
    </header>
    <header>
      <identifier>oai:zenodo.org:852780</identifier>
      <datestamp>2017-08-29T06:01:18Z</datestamp>
      <setSpec>user-biosyslit</setSpec>
    </header>
    <header>
      <identifier>oai:zenodo.org:852784</identifier>
      <datestamp>2017-08-29T06:01:24Z</datestamp>
      <setSpec>user-biosyslit</setSpec>
    </header>
    <header>
      <identifier>oai:zenodo.org:852816</identifier>
      <datestamp>2017-08-29T06:03:56Z</datestamp>
      <setSpec>user-biosyslit</setSpec>
    </header>
    <header>
      <identifier>oai:zenodo.org:852818</identifier>
      <datestamp>2017-08-29T06:03:59Z</datestamp>
      <setSpec>user-biosyslit</setSpec>
    </header>
    <header>
      <identifier>oai:zenodo.org:852830</identifier>
      <datestamp>2017-08-29T06:04:15Z</datestamp>
      <setSpec>user-biosyslit</setSpec>
    </header>
    <header>
      <identifier>oai:zenodo.org:852828</identifier>
      <datestamp>2017-08-29T06:04:12Z</datestamp>
      <setSpec>user-biosyslit</setSpec>
    </header>
    <header>
      <identifier>oai:zenodo.org:852826</identifier>
      <datestamp>2017-08-29T06:04:09Z</datestamp>
      <setSpec>user-biosyslit</setSpec>
    </header>
    <header>
      <identifier>oai:zenodo.org:852832</identifier>
      <datestamp>2017-08-29T06:04:17Z</datestamp>
      <setSpec>user-biosyslit</setSpec>
    </header>
    <header>
      <identifier>oai:zenodo.org:852834</identifier>
      <datestamp>2017-08-29T06:04:20Z</datestamp>
      <setSpec>user-biosyslit</setSpec>
    </header>
    <header>
      <identifier>oai:zenodo.org:852822</identifier>
      <datestamp>2017-08-29T06:04:04Z</datestamp>
      <setSpec>user-biosyslit</setSpec>
    </header>
    <header>
      <identifier>oai:zenodo.org:852846</identifier>
      <datestamp>2017-08-29T06:06:13Z</datestamp>
      <setSpec>user-biosyslit</setSpec>
    </header>
    <header>
      <identifier>oai:zenodo.org:852852</identifier>
      <datestamp>2017-08-29T06:05:41Z</datestamp>
      <setSpec>user-biosyslit</setSpec>
    </header>
    <header>
      <identifier>oai:zenodo.org:852842</identifier>
      <datestamp>2017-08-29T06:04:31Z</datestamp>
      <setSpec>user-biosyslit</setSpec>
    </header>
    <header>
      <identifier>oai:zenodo.org:852856</identifier>
      <datestamp>2017-08-29T06:05:48Z</datestamp>
      <setSpec>user-biosyslit</setSpec>
    </header>
    <header>
      <identifier>oai:zenodo.org:852848</identifier>
      <datestamp>2017-08-29T06:05:35Z</datestamp>
      <setSpec>user-biosyslit</setSpec>
    </header>
    <header>
      <identifier>oai:zenodo.org:852838</identifier>
      <datestamp>2017-08-29T06:04:25Z</datestamp>
      <setSpec>user-biosyslit</setSpec>
    </header>
    <header>
      <identifier>oai:zenodo.org:852850</identifier>
      <datestamp>2017-08-29T06:05:38Z</datestamp>
      <setSpec>user-biosyslit</setSpec>
    </header>
    <header>
      <identifier>oai:zenodo.org:852862</identifier>
      <datestamp>2017-08-29T06:06:06Z</datestamp>
      <setSpec>user-biosyslit</setSpec>
    </header>
    <header>
      <identifier>oai:zenodo.org:852844</identifier>
      <datestamp>2017-08-29T06:04:35Z</datestamp>
      <setSpec>user-biosyslit</setSpec>
    </header>
    <header>
      <identifier>oai:zenodo.org:852914</identifier>
      <datestamp>2017-08-29T06:10:30Z</datestamp>
      <setSpec>user-biosyslit</setSpec>
    </header>
    <header>
      <identifier>oai:zenodo.org:852928</identifier>
      <datestamp>2017-08-29T06:10:27Z</datestamp>
      <setSpec>user-biosyslit</setSpec>
    </header>
    <header>
      <identifier>oai:zenodo.org:852934</identifier>
      <datestamp>2017-08-29T06:11:10Z</datestamp>
      <setSpec>user-biosyslit</setSpec>
    </header>
    <header>
      <identifier>oai:zenodo.org:852038</identifier>
      <datestamp>2017-08-28T09:02:01Z</datestamp>
      <setSpec>user-biosyslit</setSpec>
    </header>
    <header>
      <identifier>oai:zenodo.org:852080</identifier>
      <datestamp>2017-08-28T09:05:27Z</datestamp>
      <setSpec>user-biosyslit</setSpec>
    </header>
    <header>
      <identifier>oai:zenodo.org:852082</identifier>
      <datestamp>2017-08-28T09:05:31Z</datestamp>
      <setSpec>user-biosyslit</setSpec>
    </header>
    <header>
      <identifier>oai:zenodo.org:852078</identifier>
      <datestamp>2017-08-28T09:05:23Z</datestamp>
      <setSpec>user-biosyslit</setSpec>
    </header>
    <header>
      <identifier>oai:zenodo.org:852072</identifier>
      <datestamp>2017-08-28T09:05:10Z</datestamp>
      <setSpec>user-biosyslit</setSpec>
    </header>
    <header>
      <identifier>oai:zenodo.org:852058</identifier>
      <datestamp>2017-08-28T09:04:21Z</datestamp>
      <setSpec>user-biosyslit</setSpec>
    </header>
    <header>
      <identifier>oai:zenodo.org:852030</identifier>
      <datestamp>2017-08-28T09:01:48Z</datestamp>
      <setSpec>user-biosyslit</setSpec>
    </header>
    <header>
      <identifier>oai:zenodo.org:852044</identifier>
      <datestamp>2017-08-28T09:02:12Z</datestamp>
      <setSpec>user-biosyslit</setSpec>
    </header>
    <header>
      <identifier>oai:zenodo.org:852032</identifier>
      <datestamp>2017-08-28T09:01:51Z</datestamp>
      <setSpec>user-biosyslit</setSpec>
    </header>
    <header>
      <identifier>oai:zenodo.org:852076</identifier>
      <datestamp>2017-08-28T09:05:19Z</datestamp>
      <setSpec>user-biosyslit</setSpec>
    </header>
    <header>
      <identifier>oai:zenodo.org:852086</identifier>
      <datestamp>2017-08-28T09:07:23Z</datestamp>
      <setSpec>user-biosyslit</setSpec>
    </header>
    <header>
      <identifier>oai:zenodo.org:850369</identifier>
      <datestamp>2017-08-28T15:01:41Z</datestamp>
      <setSpec>openaire_data</setSpec>
      <setSpec>user-biosyslit</setSpec>
    </header>
    <header>
      <identifier>oai:zenodo.org:850299</identifier>
      <datestamp>2017-08-28T15:01:35Z</datestamp>
      <setSpec>openaire_data</setSpec>
      <setSpec>user-biosyslit</setSpec>
    </header>
    <header>
      <identifier>oai:zenodo.org:851611</identifier>
      <datestamp>2017-08-28T15:01:42Z</datestamp>
      <setSpec>openaire_data</setSpec>
      <setSpec>user-biosyslit</setSpec>
    </header>
    <header>
      <identifier>oai:zenodo.org:848858</identifier>
      <datestamp>2017-08-28T15:01:33Z</datestamp>
      <setSpec>openaire_data</setSpec>
      <setSpec>user-biosyslit</setSpec>
    </header>
    <header>
      <identifier>oai:zenodo.org:850341</identifier>
      <datestamp>2017-08-28T15:01:40Z</datestamp>
      <setSpec>openaire_data</setSpec>
      <setSpec>user-biosyslit</setSpec>
    </header>
    <header>
      <identifier>oai:zenodo.org:851410</identifier>
      <datestamp>2017-08-27T12:06:27Z</datestamp>
      <setSpec>user-biosyslit</setSpec>
    </header>
    <header>
      <identifier>oai:zenodo.org:851404</identifier>
      <datestamp>2017-08-27T12:06:18Z</datestamp>
      <setSpec>user-biosyslit</setSpec>
    </header>
    <header>
      <identifier>oai:zenodo.org:851402</identifier>
      <datestamp>2017-08-27T12:06:15Z</datestamp>
      <setSpec>user-biosyslit</setSpec>
    </header>
    <header>
      <identifier>oai:zenodo.org:851418</identifier>
      <datestamp>2017-08-27T12:06:41Z</datestamp>
      <setSpec>user-biosyslit</setSpec>
    </header>
    <header>
      <identifier>oai:zenodo.org:851408</identifier>
      <datestamp>2017-08-27T12:06:24Z</datestamp>
      <setSpec>user-biosyslit</setSpec>
    </header>
    <header>
      <identifier>oai:zenodo.org:851412</identifier>
      <datestamp>2017-08-27T12:06:32Z</datestamp>
      <setSpec>user-biosyslit</setSpec>
    </header>
    <header>
      <identifier>oai:zenodo.org:851396</identifier>
      <datestamp>2017-08-27T12:06:04Z</datestamp>
      <setSpec>user-biosyslit</setSpec>
    </header>
    <header>
      <identifier>oai:zenodo.org:851426</identifier>
      <datestamp>2017-08-27T12:06:54Z</datestamp>
      <setSpec>user-biosyslit</setSpec>
    </header>
    <header>
      <identifier>oai:zenodo.org:851440</identifier>
      <datestamp>2017-08-27T12:07:20Z</datestamp>
      <setSpec>user-biosyslit</setSpec>
    </header>
    <header>
      <identifier>oai:zenodo.org:851432</identifier>
      <datestamp>2017-08-27T12:07:08Z</datestamp>
      <setSpec>user-biosyslit</setSpec>
    </header>
    <header>
      <identifier>oai:zenodo.org:851442</identifier>
      <datestamp>2017-08-27T12:07:23Z</datestamp>
      <setSpec>user-biosyslit</setSpec>
    </header>
    <header>
      <identifier>oai:zenodo.org:851420</identifier>
      <datestamp>2017-08-27T12:06:46Z</datestamp>
      <setSpec>user-biosyslit</setSpec>
    </header>
    <header>
      <identifier>oai:zenodo.org:851444</identifier>
      <datestamp>2017-08-27T12:07:26Z</datestamp>
      <setSpec>user-biosyslit</setSpec>
    </header>
    <header>
      <identifier>oai:zenodo.org:851456</identifier>
      <datestamp>2017-08-27T12:07:44Z</datestamp>
      <setSpec>user-biosyslit</setSpec>
    </header>
    <header>
      <identifier>oai:zenodo.org:851454</identifier>
      <datestamp>2017-08-27T12:07:41Z</datestamp>
      <setSpec>user-biosyslit</setSpec>
    </header>
    <header>
      <identifier>oai:zenodo.org:851436</identifier>
      <datestamp>2017-08-27T12:07:14Z</datestamp>
      <setSpec>user-biosyslit</setSpec>
    </header>
    <header>
      <identifier>oai:zenodo.org:851424</identifier>
      <datestamp>2017-08-27T12:06:52Z</datestamp>
      <setSpec>user-biosyslit</setSpec>
    </header>
    <header>
      <identifier>oai:zenodo.org:851400</identifier>
      <datestamp>2017-08-27T12:06:10Z</datestamp>
      <setSpec>user-biosyslit</setSpec>
    </header>
    <header>
      <identifier>oai:zenodo.org:851414</identifier>
      <datestamp>2017-08-27T12:06:35Z</datestamp>
      <setSpec>user-biosyslit</setSpec>
    </header>
    <header>
      <identifier>oai:zenodo.org:851468</identifier>
      <datestamp>2017-08-27T12:08:02Z</datestamp>
      <setSpec>user-biosyslit</setSpec>
    </header>
    <header>
      <identifier>oai:zenodo.org:851464</identifier>
      <datestamp>2017-08-27T12:07:55Z</datestamp>
      <setSpec>user-biosyslit</setSpec>
    </header>
    <header>
      <identifier>oai:zenodo.org:851458</identifier>
      <datestamp>2017-08-27T12:07:48Z</datestamp>
      <setSpec>user-biosyslit</setSpec>
    </header>
    <header>
      <identifier>oai:zenodo.org:851494</identifier>
      <datestamp>2017-08-27T12:08:45Z</datestamp>
      <setSpec>user-biosyslit</setSpec>
    </header>
    <header>
      <identifier>oai:zenodo.org:851492</identifier>
      <datestamp>2017-08-27T12:08:42Z</datestamp>
      <setSpec>user-biosyslit</setSpec>
    </header>
    <resumptionToken expirationDate="2017-08-31T15:45:32Z" cursor="38600" completeListSize="77796">.eJyNyk0LgjAYAOD_8p4lptO2hC6iiYcUXY70EqYi5vrAFerE_16XznV-nhlkXVdgo9XaIoRYG2xhSjAxTQ1k2d-FOLUfhvLIRXkTaeHzV3LlKDMaErpy3LsZDlWHoquu2C42jjod0xZN8SF9ZioZOQ4GhjyyV_EUXoLPq3Dki_zsP1h6cwQzqj7y4onpDstx-X36n0_9fK7cggaPoqnBxpRq0A1F30iw52V5A69KUVg.DInAJA.J3U2WSA8LAVAT469Os4TiG15w5c</resumptionToken>
  </ListIdentifiers>
</OAI-PMH>
