<?xml version='1.0' encoding='UTF-8'?>
<?xml-stylesheet type="text/xsl" href="/static/xsl/oai2.v1.0.xsl"?>
<OAI-PMH xmlns="http://www.openarchives.org/OAI/2.0/" xmlns:xsi="http://www.w3.org/2001/XMLSchema-instance" xsi:schemaLocation="http://www.openarchives.org/OAI/2.0/ http://www.openarchives.org/OAI/2.0/OAI-PMH.xsd">
  <responseDate>2017-08-31T15:42:58Z</responseDate>
  <request verb="ListIdentifiers" resumptionToken=".eJyNz8EOQzAAgOF36VmWaidKssvCxAGhq-CyGCKmTHQLKt59Ljtv5_-7_CsQVVUCEx4QQfBICDGgQTQdG5oCRDE-Ob81ewdFEvOi5yx34nfUxTBFte5bYvasFPuyhUGnSnoJUaKSmTVwCa_slcpojrE7UWjrngwX_-HursSBw7O7M1DWnzlF5RjY4ULVM81w8XXqn07-dJY4AQUMeV0BE8P9qp3ysRbAXLftA-O8UYI.DInAAg.vyh218KetCpX8j0dSyhiJBCtAEI">https://zenodo.org/oai2d</request>
  <ListIdentifiers>
    <header>
      <identifier>oai:zenodo.org:276814</identifier>
      <datestamp>2017-02-08T19:43:44Z</datestamp>
      <setSpec>user-biosyslit</setSpec>
    </header>
    <header>
      <identifier>oai:zenodo.org:230501</identifier>
      <datestamp>2017-01-05T02:13:48Z</datestamp>
      <setSpec>user-biosyslit</setSpec>
    </header>
    <header>
      <identifier>oai:zenodo.org:257030</identifier>
      <datestamp>2017-01-23T00:14:26Z</datestamp>
      <setSpec>user-biosyslit</setSpec>
    </header>
    <header>
      <identifier>oai:zenodo.org:240872</identifier>
      <datestamp>2017-01-12T15:10:31Z</datestamp>
      <setSpec>user-biosyslit</setSpec>
    </header>
    <header>
      <identifier>oai:zenodo.org:257032</identifier>
      <datestamp>2017-01-23T00:14:04Z</datestamp>
      <setSpec>user-biosyslit</setSpec>
    </header>
    <header>
      <identifier>oai:zenodo.org:257035</identifier>
      <datestamp>2017-01-23T00:14:14Z</datestamp>
      <setSpec>user-biosyslit</setSpec>
    </header>
    <header>
      <identifier>oai:zenodo.org:257036</identifier>
      <datestamp>2017-01-23T00:14:17Z</datestamp>
      <setSpec>user-biosyslit</setSpec>
    </header>
    <header>
      <identifier>oai:zenodo.org:257031</identifier>
      <datestamp>2017-01-23T00:13:59Z</datestamp>
      <setSpec>user-biosyslit</setSpec>
    </header>
    <header>
      <identifier>oai:zenodo.org:269056</identifier>
      <datestamp>2017-02-06T22:38:23Z</datestamp>
      <setSpec>user-biosyslit</setSpec>
    </header>
    <header>
      <identifier>oai:zenodo.org:282318</identifier>
      <datestamp>2017-02-09T06:48:52Z</datestamp>
      <setSpec>user-biosyslit</setSpec>
    </header>
    <header>
      <identifier>oai:zenodo.org:269058</identifier>
      <datestamp>2017-02-06T22:38:27Z</datestamp>
      <setSpec>user-biosyslit</setSpec>
    </header>
    <header>
      <identifier>oai:zenodo.org:269055</identifier>
      <datestamp>2017-02-06T22:38:20Z</datestamp>
      <setSpec>user-biosyslit</setSpec>
    </header>
    <header>
      <identifier>oai:zenodo.org:269059</identifier>
      <datestamp>2017-02-06T22:38:30Z</datestamp>
      <setSpec>user-biosyslit</setSpec>
    </header>
    <header>
      <identifier>oai:zenodo.org:280538</identifier>
      <datestamp>2017-02-09T03:35:34Z</datestamp>
      <setSpec>user-biosyslit</setSpec>
    </header>
    <header>
      <identifier>oai:zenodo.org:280536</identifier>
      <datestamp>2017-02-09T03:35:29Z</datestamp>
      <setSpec>user-biosyslit</setSpec>
    </header>
    <header>
      <identifier>oai:zenodo.org:280537</identifier>
      <datestamp>2017-02-09T03:35:31Z</datestamp>
      <setSpec>user-biosyslit</setSpec>
    </header>
    <header>
      <identifier>oai:zenodo.org:242004</identifier>
      <datestamp>2017-01-13T09:16:07Z</datestamp>
      <setSpec>user-biosyslit</setSpec>
    </header>
    <header>
      <identifier>oai:zenodo.org:242003</identifier>
      <datestamp>2017-01-13T09:16:04Z</datestamp>
      <setSpec>user-biosyslit</setSpec>
    </header>
    <header>
      <identifier>oai:zenodo.org:242001</identifier>
      <datestamp>2017-01-13T09:15:57Z</datestamp>
      <setSpec>user-biosyslit</setSpec>
    </header>
    <header>
      <identifier>oai:zenodo.org:242002</identifier>
      <datestamp>2017-01-13T09:16:00Z</datestamp>
      <setSpec>user-biosyslit</setSpec>
    </header>
    <header>
      <identifier>oai:zenodo.org:242007</identifier>
      <datestamp>2017-01-13T09:16:15Z</datestamp>
      <setSpec>user-biosyslit</setSpec>
    </header>
    <header>
      <identifier>oai:zenodo.org:242006</identifier>
      <datestamp>2017-01-13T09:16:13Z</datestamp>
      <setSpec>user-biosyslit</setSpec>
    </header>
    <header>
      <identifier>oai:zenodo.org:241996</identifier>
      <datestamp>2017-01-13T09:15:42Z</datestamp>
      <setSpec>user-biosyslit</setSpec>
    </header>
    <header>
      <identifier>oai:zenodo.org:241998</identifier>
      <datestamp>2017-01-13T09:15:47Z</datestamp>
      <setSpec>user-biosyslit</setSpec>
    </header>
    <header>
      <identifier>oai:zenodo.org:241992</identifier>
      <datestamp>2017-01-13T09:15:31Z</datestamp>
      <setSpec>user-biosyslit</setSpec>
    </header>
    <header>
      <identifier>oai:zenodo.org:256790</identifier>
      <datestamp>2017-01-22T20:42:24Z</datestamp>
      <setSpec>user-biosyslit</setSpec>
    </header>
    <header>
      <identifier>oai:zenodo.org:263959</identifier>
      <datestamp>2017-01-30T10:44:31Z</datestamp>
      <setSpec>user-biosyslit</setSpec>
    </header>
    <header>
      <identifier>oai:zenodo.org:256792</identifier>
      <datestamp>2017-01-22T20:42:12Z</datestamp>
      <setSpec>user-biosyslit</setSpec>
    </header>
    <header>
      <identifier>oai:zenodo.org:263961</identifier>
      <datestamp>2017-01-30T10:44:35Z</datestamp>
      <setSpec>user-biosyslit</setSpec>
    </header>
    <header>
      <identifier>oai:zenodo.org:263960</identifier>
      <datestamp>2017-01-30T10:44:33Z</datestamp>
      <setSpec>user-biosyslit</setSpec>
    </header>
    <header>
      <identifier>oai:zenodo.org:259125</identifier>
      <datestamp>2017-01-24T07:56:54Z</datestamp>
      <setSpec>user-biosyslit</setSpec>
    </header>
    <header>
      <identifier>oai:zenodo.org:263962</identifier>
      <datestamp>2017-01-30T10:44:38Z</datestamp>
      <setSpec>user-biosyslit</setSpec>
    </header>
    <header>
      <identifier>oai:zenodo.org:263958</identifier>
      <datestamp>2017-01-30T10:44:27Z</datestamp>
      <setSpec>user-biosyslit</setSpec>
    </header>
    <header>
      <identifier>oai:zenodo.org:256791</identifier>
      <datestamp>2017-01-22T20:42:10Z</datestamp>
      <setSpec>user-biosyslit</setSpec>
    </header>
    <header>
      <identifier>oai:zenodo.org:230927</identifier>
      <datestamp>2017-01-05T11:25:27Z</datestamp>
      <setSpec>user-biosyslit</setSpec>
    </header>
    <header>
      <identifier>oai:zenodo.org:233873</identifier>
      <datestamp>2017-01-08T12:48:28Z</datestamp>
      <setSpec>user-biosyslit</setSpec>
    </header>
    <header>
      <identifier>oai:zenodo.org:233878</identifier>
      <datestamp>2017-01-08T12:48:47Z</datestamp>
      <setSpec>user-biosyslit</setSpec>
    </header>
    <header>
      <identifier>oai:zenodo.org:233875</identifier>
      <datestamp>2017-01-08T12:48:35Z</datestamp>
      <setSpec>user-biosyslit</setSpec>
    </header>
    <header>
      <identifier>oai:zenodo.org:233872</identifier>
      <datestamp>2017-01-08T12:48:25Z</datestamp>
      <setSpec>user-biosyslit</setSpec>
    </header>
    <header>
      <identifier>oai:zenodo.org:233881</identifier>
      <datestamp>2017-01-08T12:48:56Z</datestamp>
      <setSpec>user-biosyslit</setSpec>
    </header>
    <header>
      <identifier>oai:zenodo.org:233870</identifier>
      <datestamp>2017-01-08T12:48:17Z</datestamp>
      <setSpec>user-biosyslit</setSpec>
    </header>
    <header>
      <identifier>oai:zenodo.org:233876</identifier>
      <datestamp>2017-01-08T12:48:40Z</datestamp>
      <setSpec>user-biosyslit</setSpec>
    </header>
    <header>
      <identifier>oai:zenodo.org:233880</identifier>
      <datestamp>2017-01-08T12:48:52Z</datestamp>
      <setSpec>user-biosyslit</setSpec>
    </header>
    <header>
      <identifier>oai:zenodo.org:233879</identifier>
      <datestamp>2017-01-08T12:48:49Z</datestamp>
      <setSpec>user-biosyslit</setSpec>
    </header>
    <header>
      <identifier>oai:zenodo.org:244781</identifier>
      <datestamp>2017-01-15T02:28:15Z</datestamp>
      <setSpec>user-biosyslit</setSpec>
    </header>
    <header>
      <identifier>oai:zenodo.org:241908</identifier>
      <datestamp>2017-01-13T07:35:09Z</datestamp>
      <setSpec>user-biosyslit</setSpec>
    </header>
    <header>
      <identifier>oai:zenodo.org:241909</identifier>
      <datestamp>2017-01-13T07:35:13Z</datestamp>
      <setSpec>user-biosyslit</setSpec>
    </header>
    <header>
      <identifier>oai:zenodo.org:241912</identifier>
      <datestamp>2017-01-13T07:35:32Z</datestamp>
      <setSpec>user-biosyslit</setSpec>
    </header>
    <header>
      <identifier>oai:zenodo.org:265250</identifier>
      <datestamp>2017-01-31T10:46:28Z</datestamp>
      <setSpec>user-biosyslit</setSpec>
    </header>
    <header>
      <identifier>oai:zenodo.org:265251</identifier>
      <datestamp>2017-01-31T10:46:32Z</datestamp>
      <setSpec>user-biosyslit</setSpec>
    </header>
    <header>
      <identifier>oai:zenodo.org:280078</identifier>
      <datestamp>2017-02-09T02:37:17Z</datestamp>
      <setSpec>user-biosyslit</setSpec>
    </header>
    <header>
      <identifier>oai:zenodo.org:280076</identifier>
      <datestamp>2017-02-09T02:37:19Z</datestamp>
      <setSpec>user-biosyslit</setSpec>
    </header>
    <header>
      <identifier>oai:zenodo.org:251498</identifier>
      <datestamp>2017-01-19T01:07:22Z</datestamp>
      <setSpec>user-biosyslit</setSpec>
    </header>
    <header>
      <identifier>oai:zenodo.org:251500</identifier>
      <datestamp>2017-01-19T01:07:33Z</datestamp>
      <setSpec>user-biosyslit</setSpec>
    </header>
    <header>
      <identifier>oai:zenodo.org:251504</identifier>
      <datestamp>2017-01-19T01:07:50Z</datestamp>
      <setSpec>user-biosyslit</setSpec>
    </header>
    <header>
      <identifier>oai:zenodo.org:251499</identifier>
      <datestamp>2017-01-19T01:07:28Z</datestamp>
      <setSpec>user-biosyslit</setSpec>
    </header>
    <header>
      <identifier>oai:zenodo.org:251502</identifier>
      <datestamp>2017-01-19T01:07:42Z</datestamp>
      <setSpec>user-biosyslit</setSpec>
    </header>
    <header>
      <identifier>oai:zenodo.org:251501</identifier>
      <datestamp>2017-01-19T01:07:37Z</datestamp>
      <setSpec>user-biosyslit</setSpec>
    </header>
    <header>
      <identifier>oai:zenodo.org:251505</identifier>
      <datestamp>2017-01-19T01:07:55Z</datestamp>
      <setSpec>user-biosyslit</setSpec>
    </header>
    <header>
      <identifier>oai:zenodo.org:228526</identifier>
      <datestamp>2017-01-03T00:59:34Z</datestamp>
      <setSpec>user-biosyslit</setSpec>
    </header>
    <header>
      <identifier>oai:zenodo.org:228528</identifier>
      <datestamp>2017-01-03T00:59:29Z</datestamp>
      <setSpec>user-biosyslit</setSpec>
    </header>
    <header>
      <identifier>oai:zenodo.org:228530</identifier>
      <datestamp>2017-01-03T01:05:44Z</datestamp>
      <setSpec>user-biosyslit</setSpec>
    </header>
    <header>
      <identifier>oai:zenodo.org:228529</identifier>
      <datestamp>2017-01-03T00:59:32Z</datestamp>
      <setSpec>user-biosyslit</setSpec>
    </header>
    <header>
      <identifier>oai:zenodo.org:228532</identifier>
      <datestamp>2017-01-03T01:05:32Z</datestamp>
      <setSpec>user-biosyslit</setSpec>
    </header>
    <header>
      <identifier>oai:zenodo.org:240151</identifier>
      <datestamp>2017-01-12T05:15:52Z</datestamp>
      <setSpec>user-biosyslit</setSpec>
    </header>
    <header>
      <identifier>oai:zenodo.org:240150</identifier>
      <datestamp>2017-01-12T05:15:57Z</datestamp>
      <setSpec>user-biosyslit</setSpec>
    </header>
    <header>
      <identifier>oai:zenodo.org:277534</identifier>
      <datestamp>2017-02-08T21:20:00Z</datestamp>
      <setSpec>user-biosyslit</setSpec>
    </header>
    <header>
      <identifier>oai:zenodo.org:277536</identifier>
      <datestamp>2017-02-08T21:19:59Z</datestamp>
      <setSpec>user-biosyslit</setSpec>
    </header>
    <header>
      <identifier>oai:zenodo.org:261054</identifier>
      <datestamp>2017-01-28T04:30:49Z</datestamp>
      <setSpec>user-biosyslit</setSpec>
    </header>
    <header>
      <identifier>oai:zenodo.org:261055</identifier>
      <datestamp>2017-01-28T04:30:52Z</datestamp>
      <setSpec>user-biosyslit</setSpec>
    </header>
    <header>
      <identifier>oai:zenodo.org:231518</identifier>
      <datestamp>2017-01-06T03:26:32Z</datestamp>
      <setSpec>user-biosyslit</setSpec>
    </header>
    <header>
      <identifier>oai:zenodo.org:273877</identifier>
      <datestamp>2017-02-08T11:04:27Z</datestamp>
      <setSpec>user-biosyslit</setSpec>
    </header>
    <header>
      <identifier>oai:zenodo.org:256302</identifier>
      <datestamp>2017-01-22T11:49:19Z</datestamp>
      <setSpec>user-biosyslit</setSpec>
    </header>
    <header>
      <identifier>oai:zenodo.org:273878</identifier>
      <datestamp>2017-02-08T11:04:23Z</datestamp>
      <setSpec>user-biosyslit</setSpec>
    </header>
    <header>
      <identifier>oai:zenodo.org:256310</identifier>
      <datestamp>2017-01-22T11:49:17Z</datestamp>
      <setSpec>user-biosyslit</setSpec>
    </header>
    <header>
      <identifier>oai:zenodo.org:228948</identifier>
      <datestamp>2017-01-03T07:32:13Z</datestamp>
      <setSpec>user-biosyslit</setSpec>
    </header>
    <header>
      <identifier>oai:zenodo.org:256307</identifier>
      <datestamp>2017-01-22T11:49:07Z</datestamp>
      <setSpec>user-biosyslit</setSpec>
    </header>
    <header>
      <identifier>oai:zenodo.org:228947</identifier>
      <datestamp>2017-01-03T07:32:08Z</datestamp>
      <setSpec>user-biosyslit</setSpec>
    </header>
    <header>
      <identifier>oai:zenodo.org:279132</identifier>
      <datestamp>2017-02-09T00:40:37Z</datestamp>
      <setSpec>user-biosyslit</setSpec>
    </header>
    <header>
      <identifier>oai:zenodo.org:279128</identifier>
      <datestamp>2017-02-09T00:40:39Z</datestamp>
      <setSpec>user-biosyslit</setSpec>
    </header>
    <header>
      <identifier>oai:zenodo.org:279131</identifier>
      <datestamp>2017-02-09T00:40:35Z</datestamp>
      <setSpec>user-biosyslit</setSpec>
    </header>
    <header>
      <identifier>oai:zenodo.org:279129</identifier>
      <datestamp>2017-02-09T00:40:28Z</datestamp>
      <setSpec>user-biosyslit</setSpec>
    </header>
    <header>
      <identifier>oai:zenodo.org:256124</identifier>
      <datestamp>2017-01-22T04:37:57Z</datestamp>
      <setSpec>user-biosyslit</setSpec>
    </header>
    <header>
      <identifier>oai:zenodo.org:256133</identifier>
      <datestamp>2017-01-22T04:37:49Z</datestamp>
      <setSpec>user-biosyslit</setSpec>
    </header>
    <header>
      <identifier>oai:zenodo.org:256129</identifier>
      <datestamp>2017-01-22T04:37:39Z</datestamp>
      <setSpec>user-biosyslit</setSpec>
    </header>
    <header>
      <identifier>oai:zenodo.org:256135</identifier>
      <datestamp>2017-01-22T04:37:53Z</datestamp>
      <setSpec>user-biosyslit</setSpec>
    </header>
    <header>
      <identifier>oai:zenodo.org:256132</identifier>
      <datestamp>2017-01-22T04:37:47Z</datestamp>
      <setSpec>user-biosyslit</setSpec>
    </header>
    <header>
      <identifier>oai:zenodo.org:256128</identifier>
      <datestamp>2017-01-22T04:37:37Z</datestamp>
      <setSpec>user-biosyslit</setSpec>
    </header>
    <header>
      <identifier>oai:zenodo.org:256131</identifier>
      <datestamp>2017-01-22T04:37:44Z</datestamp>
      <setSpec>user-biosyslit</setSpec>
    </header>
    <header>
      <identifier>oai:zenodo.org:294131</identifier>
      <datestamp>2017-02-20T19:21:28Z</datestamp>
      <setSpec>user-biosyslit</setSpec>
    </header>
    <header>
      <identifier>oai:zenodo.org:294133</identifier>
      <datestamp>2017-02-20T19:21:34Z</datestamp>
      <setSpec>user-biosyslit</setSpec>
    </header>
    <header>
      <identifier>oai:zenodo.org:294132</identifier>
      <datestamp>2017-02-20T19:21:32Z</datestamp>
      <setSpec>user-biosyslit</setSpec>
    </header>
    <header>
      <identifier>oai:zenodo.org:294134</identifier>
      <datestamp>2017-02-20T19:21:37Z</datestamp>
      <setSpec>user-biosyslit</setSpec>
    </header>
    <header>
      <identifier>oai:zenodo.org:276399</identifier>
      <datestamp>2017-02-08T18:47:49Z</datestamp>
      <setSpec>user-biosyslit</setSpec>
    </header>
    <header>
      <identifier>oai:zenodo.org:276416</identifier>
      <datestamp>2017-02-08T18:47:38Z</datestamp>
      <setSpec>user-biosyslit</setSpec>
    </header>
    <header>
      <identifier>oai:zenodo.org:276403</identifier>
      <datestamp>2017-02-08T18:47:05Z</datestamp>
      <setSpec>user-biosyslit</setSpec>
    </header>
    <header>
      <identifier>oai:zenodo.org:276414</identifier>
      <datestamp>2017-02-08T18:47:34Z</datestamp>
      <setSpec>user-biosyslit</setSpec>
    </header>
    <header>
      <identifier>oai:zenodo.org:276411</identifier>
      <datestamp>2017-02-08T18:47:27Z</datestamp>
      <setSpec>user-biosyslit</setSpec>
    </header>
    <header>
      <identifier>oai:zenodo.org:276406</identifier>
      <datestamp>2017-02-08T18:47:13Z</datestamp>
      <setSpec>user-biosyslit</setSpec>
    </header>
    <header>
      <identifier>oai:zenodo.org:276413</identifier>
      <datestamp>2017-02-08T18:47:32Z</datestamp>
      <setSpec>user-biosyslit</setSpec>
    </header>
    <resumptionToken expirationDate="2017-08-31T15:44:58Z" cursor="30400" completeListSize="77796">.eJyNyj0LgkAYAOD_8s4S91FeCi2iSYPKdSnpEqYi1WniFemF_z2X5pqf5w2qqkqw0YIRa2WuzRVeMmZRixqgiv4u5ekyMxTHRBatjHM_ee6bBKWkZqGrhsBNaahvKGqwFltOjng9xBc08kP8SPV-SOjuJZDHAs3H8LqbX0kjX2ZnvxNx60hByj7y-CiwIzJafB_-8-mfz1UbMKDL6wpsikwDbq-8rxXY72n6AK99UU8.DInAAg.IjwikO9ZrbPyOsXOYvYvv1oqGJ0</resumptionToken>
  </ListIdentifiers>
</OAI-PMH>
