<?xml version='1.0' encoding='UTF-8'?>
<?xml-stylesheet type="text/xsl" href="/static/xsl/oai2.v1.0.xsl"?>
<OAI-PMH xmlns="http://www.openarchives.org/OAI/2.0/" xmlns:xsi="http://www.w3.org/2001/XMLSchema-instance" xsi:schemaLocation="http://www.openarchives.org/OAI/2.0/ http://www.openarchives.org/OAI/2.0/OAI-PMH.xsd">
  <responseDate>2017-08-31T15:44:29Z</responseDate>
  <request verb="ListIdentifiers" resumptionToken=".eJyNysEKgjAYAOB3-c8Sm1OXQhfRxIOKLiW9hKmIOU1ckS5697p0rvP3PUE0TQ0W2piaaWKDGkijBtGpqoCo5ivnp-7DUB0zXo08Lb3sngwZytWWho5YAicnoexRNGDJ9rF6xNsl7dAaH9JbLpMlI_6DIZcGMl7Di_95NYk8Xpy9iaWjzZlaz5EbrwzbrCDV9-E_n_z5HLEDBaaybcDSkalA_yjnVoD1fL3eqoRRTg.DInAXQ.NnrtAcB5xavp_kecC-T2RdkH65s">https://zenodo.org/oai2d</request>
  <ListIdentifiers>
    <header>
      <identifier>oai:zenodo.org:264052</identifier>
      <datestamp>2017-01-30T12:25:51Z</datestamp>
      <setSpec>user-biosyslit</setSpec>
    </header>
    <header>
      <identifier>oai:zenodo.org:264679</identifier>
      <datestamp>2017-01-31T00:57:34Z</datestamp>
      <setSpec>user-biosyslit</setSpec>
    </header>
    <header>
      <identifier>oai:zenodo.org:264835</identifier>
      <datestamp>2017-01-31T03:14:18Z</datestamp>
      <setSpec>user-biosyslit</setSpec>
    </header>
    <header>
      <identifier>oai:zenodo.org:264827</identifier>
      <datestamp>2017-01-31T03:13:42Z</datestamp>
      <setSpec>user-biosyslit</setSpec>
    </header>
    <header>
      <identifier>oai:zenodo.org:264524</identifier>
      <datestamp>2017-01-30T22:59:36Z</datestamp>
      <setSpec>user-biosyslit</setSpec>
    </header>
    <header>
      <identifier>oai:zenodo.org:265091</identifier>
      <datestamp>2017-01-31T07:54:18Z</datestamp>
      <setSpec>user-biosyslit</setSpec>
    </header>
    <header>
      <identifier>oai:zenodo.org:264904</identifier>
      <datestamp>2017-01-31T04:14:23Z</datestamp>
      <setSpec>user-biosyslit</setSpec>
    </header>
    <header>
      <identifier>oai:zenodo.org:264544</identifier>
      <datestamp>2017-01-30T23:14:04Z</datestamp>
      <setSpec>user-biosyslit</setSpec>
    </header>
    <header>
      <identifier>oai:zenodo.org:265133</identifier>
      <datestamp>2017-01-31T08:33:37Z</datestamp>
      <setSpec>user-biosyslit</setSpec>
    </header>
    <header>
      <identifier>oai:zenodo.org:264600</identifier>
      <datestamp>2017-01-31T00:08:28Z</datestamp>
      <setSpec>user-biosyslit</setSpec>
    </header>
    <header>
      <identifier>oai:zenodo.org:264786</identifier>
      <datestamp>2017-01-31T02:37:58Z</datestamp>
      <setSpec>user-biosyslit</setSpec>
    </header>
    <header>
      <identifier>oai:zenodo.org:265549</identifier>
      <datestamp>2017-01-31T16:28:16Z</datestamp>
      <setSpec>user-biosyslit</setSpec>
    </header>
    <header>
      <identifier>oai:zenodo.org:265195</identifier>
      <datestamp>2017-01-31T09:58:54Z</datestamp>
      <setSpec>user-biosyslit</setSpec>
    </header>
    <header>
      <identifier>oai:zenodo.org:266165</identifier>
      <datestamp>2017-02-01T01:35:52Z</datestamp>
      <setSpec>user-biosyslit</setSpec>
    </header>
    <header>
      <identifier>oai:zenodo.org:264869</identifier>
      <datestamp>2017-01-31T03:45:12Z</datestamp>
      <setSpec>user-biosyslit</setSpec>
    </header>
    <header>
      <identifier>oai:zenodo.org:265146</identifier>
      <datestamp>2017-01-31T08:40:47Z</datestamp>
      <setSpec>user-biosyslit</setSpec>
    </header>
    <header>
      <identifier>oai:zenodo.org:265212</identifier>
      <datestamp>2017-01-31T10:05:34Z</datestamp>
      <setSpec>user-biosyslit</setSpec>
    </header>
    <header>
      <identifier>oai:zenodo.org:265057</identifier>
      <datestamp>2017-01-31T07:07:02Z</datestamp>
      <setSpec>user-biosyslit</setSpec>
    </header>
    <header>
      <identifier>oai:zenodo.org:265153</identifier>
      <datestamp>2017-01-31T08:44:17Z</datestamp>
      <setSpec>user-biosyslit</setSpec>
    </header>
    <header>
      <identifier>oai:zenodo.org:265541</identifier>
      <datestamp>2017-01-31T15:56:16Z</datestamp>
      <setSpec>user-biosyslit</setSpec>
    </header>
    <header>
      <identifier>oai:zenodo.org:265652</identifier>
      <datestamp>2017-01-31T18:20:56Z</datestamp>
      <setSpec>user-biosyslit</setSpec>
    </header>
    <header>
      <identifier>oai:zenodo.org:265466</identifier>
      <datestamp>2017-01-31T14:24:06Z</datestamp>
      <setSpec>user-biosyslit</setSpec>
    </header>
    <header>
      <identifier>oai:zenodo.org:265693</identifier>
      <datestamp>2017-01-31T19:13:28Z</datestamp>
      <setSpec>user-biosyslit</setSpec>
    </header>
    <header>
      <identifier>oai:zenodo.org:265923</identifier>
      <datestamp>2017-01-31T23:16:24Z</datestamp>
      <setSpec>user-biosyslit</setSpec>
    </header>
    <header>
      <identifier>oai:zenodo.org:267669</identifier>
      <datestamp>2017-02-02T05:37:40Z</datestamp>
      <setSpec>user-biosyslit</setSpec>
    </header>
    <header>
      <identifier>oai:zenodo.org:265534</identifier>
      <datestamp>2017-01-31T15:49:48Z</datestamp>
      <setSpec>user-biosyslit</setSpec>
    </header>
    <header>
      <identifier>oai:zenodo.org:267444</identifier>
      <datestamp>2017-02-02T02:18:19Z</datestamp>
      <setSpec>user-biosyslit</setSpec>
    </header>
    <header>
      <identifier>oai:zenodo.org:266451</identifier>
      <datestamp>2017-02-01T10:12:36Z</datestamp>
      <setSpec>user-biosyslit</setSpec>
    </header>
    <header>
      <identifier>oai:zenodo.org:274613</identifier>
      <datestamp>2017-02-08T13:49:08Z</datestamp>
      <setSpec>user-biosyslit</setSpec>
    </header>
    <header>
      <identifier>oai:zenodo.org:266606</identifier>
      <datestamp>2017-02-01T12:29:03Z</datestamp>
      <setSpec>user-biosyslit</setSpec>
    </header>
    <header>
      <identifier>oai:zenodo.org:266312</identifier>
      <datestamp>2017-02-01T06:07:16Z</datestamp>
      <setSpec>user-biosyslit</setSpec>
    </header>
    <header>
      <identifier>oai:zenodo.org:266316</identifier>
      <datestamp>2017-02-01T06:07:27Z</datestamp>
      <setSpec>user-biosyslit</setSpec>
    </header>
    <header>
      <identifier>oai:zenodo.org:266390</identifier>
      <datestamp>2017-02-01T07:42:59Z</datestamp>
      <setSpec>user-biosyslit</setSpec>
    </header>
    <header>
      <identifier>oai:zenodo.org:267322</identifier>
      <datestamp>2017-02-02T00:17:10Z</datestamp>
      <setSpec>user-biosyslit</setSpec>
    </header>
    <header>
      <identifier>oai:zenodo.org:267320</identifier>
      <datestamp>2017-02-02T00:17:11Z</datestamp>
      <setSpec>user-biosyslit</setSpec>
    </header>
    <header>
      <identifier>oai:zenodo.org:267261</identifier>
      <datestamp>2017-02-01T23:36:43Z</datestamp>
      <setSpec>user-biosyslit</setSpec>
    </header>
    <header>
      <identifier>oai:zenodo.org:267151</identifier>
      <datestamp>2017-02-01T20:15:06Z</datestamp>
      <setSpec>user-biosyslit</setSpec>
    </header>
    <header>
      <identifier>oai:zenodo.org:267135</identifier>
      <datestamp>2017-02-01T20:02:48Z</datestamp>
      <setSpec>user-biosyslit</setSpec>
    </header>
    <header>
      <identifier>oai:zenodo.org:267737</identifier>
      <datestamp>2017-02-02T06:35:17Z</datestamp>
      <setSpec>user-biosyslit</setSpec>
    </header>
    <header>
      <identifier>oai:zenodo.org:267389</identifier>
      <datestamp>2017-02-02T01:20:16Z</datestamp>
      <setSpec>user-biosyslit</setSpec>
    </header>
    <header>
      <identifier>oai:zenodo.org:267009</identifier>
      <datestamp>2017-02-01T18:10:27Z</datestamp>
      <setSpec>user-biosyslit</setSpec>
    </header>
    <header>
      <identifier>oai:zenodo.org:267380</identifier>
      <datestamp>2017-02-02T01:00:53Z</datestamp>
      <setSpec>user-biosyslit</setSpec>
    </header>
    <header>
      <identifier>oai:zenodo.org:267060</identifier>
      <datestamp>2017-02-01T18:48:22Z</datestamp>
      <setSpec>user-biosyslit</setSpec>
    </header>
    <header>
      <identifier>oai:zenodo.org:267250</identifier>
      <datestamp>2017-02-01T23:23:47Z</datestamp>
      <setSpec>user-biosyslit</setSpec>
    </header>
    <header>
      <identifier>oai:zenodo.org:267539</identifier>
      <datestamp>2017-02-02T03:44:33Z</datestamp>
      <setSpec>user-biosyslit</setSpec>
    </header>
    <header>
      <identifier>oai:zenodo.org:267370</identifier>
      <datestamp>2017-02-02T00:51:23Z</datestamp>
      <setSpec>user-biosyslit</setSpec>
    </header>
    <header>
      <identifier>oai:zenodo.org:227646</identifier>
      <datestamp>2017-01-02T01:31:43Z</datestamp>
      <setSpec>user-biosyslit</setSpec>
    </header>
    <header>
      <identifier>oai:zenodo.org:267856</identifier>
      <datestamp>2017-02-02T08:16:45Z</datestamp>
      <setSpec>user-biosyslit</setSpec>
    </header>
    <header>
      <identifier>oai:zenodo.org:227568</identifier>
      <datestamp>2017-01-01T23:55:09Z</datestamp>
      <setSpec>user-biosyslit</setSpec>
    </header>
    <header>
      <identifier>oai:zenodo.org:268134</identifier>
      <datestamp>2017-02-03T02:54:55Z</datestamp>
      <setSpec>user-biosyslit</setSpec>
    </header>
    <header>
      <identifier>oai:zenodo.org:268145</identifier>
      <datestamp>2017-02-03T02:55:20Z</datestamp>
      <setSpec>user-biosyslit</setSpec>
    </header>
    <header>
      <identifier>oai:zenodo.org:230274</identifier>
      <datestamp>2017-01-04T22:03:27Z</datestamp>
      <setSpec>user-biosyslit</setSpec>
    </header>
    <header>
      <identifier>oai:zenodo.org:229047</identifier>
      <datestamp>2017-01-03T08:47:18Z</datestamp>
      <setSpec>user-biosyslit</setSpec>
    </header>
    <header>
      <identifier>oai:zenodo.org:229154</identifier>
      <datestamp>2017-01-03T11:06:04Z</datestamp>
      <setSpec>user-biosyslit</setSpec>
    </header>
    <header>
      <identifier>oai:zenodo.org:268251</identifier>
      <datestamp>2017-02-03T04:47:22Z</datestamp>
      <setSpec>user-biosyslit</setSpec>
    </header>
    <header>
      <identifier>oai:zenodo.org:229212</identifier>
      <datestamp>2017-01-03T12:25:42Z</datestamp>
      <setSpec>user-biosyslit</setSpec>
    </header>
    <header>
      <identifier>oai:zenodo.org:274949</identifier>
      <datestamp>2017-02-08T14:54:30Z</datestamp>
      <setSpec>user-biosyslit</setSpec>
    </header>
    <header>
      <identifier>oai:zenodo.org:227925</identifier>
      <datestamp>2017-01-02T06:51:54Z</datestamp>
      <setSpec>user-biosyslit</setSpec>
    </header>
    <header>
      <identifier>oai:zenodo.org:229219</identifier>
      <datestamp>2017-01-03T12:38:32Z</datestamp>
      <setSpec>user-biosyslit</setSpec>
    </header>
    <header>
      <identifier>oai:zenodo.org:229278</identifier>
      <datestamp>2017-01-03T13:35:19Z</datestamp>
      <setSpec>user-biosyslit</setSpec>
    </header>
    <header>
      <identifier>oai:zenodo.org:228783</identifier>
      <datestamp>2017-01-03T04:54:26Z</datestamp>
      <setSpec>user-biosyslit</setSpec>
    </header>
    <header>
      <identifier>oai:zenodo.org:268096</identifier>
      <datestamp>2017-02-03T01:33:07Z</datestamp>
      <setSpec>user-biosyslit</setSpec>
    </header>
    <header>
      <identifier>oai:zenodo.org:229029</identifier>
      <datestamp>2017-01-03T08:37:42Z</datestamp>
      <setSpec>user-biosyslit</setSpec>
    </header>
    <header>
      <identifier>oai:zenodo.org:228624</identifier>
      <datestamp>2017-01-03T02:36:29Z</datestamp>
      <setSpec>user-biosyslit</setSpec>
    </header>
    <header>
      <identifier>oai:zenodo.org:228953</identifier>
      <datestamp>2017-01-03T07:38:59Z</datestamp>
      <setSpec>user-biosyslit</setSpec>
    </header>
    <header>
      <identifier>oai:zenodo.org:228837</identifier>
      <datestamp>2017-01-03T05:47:11Z</datestamp>
      <setSpec>user-biosyslit</setSpec>
    </header>
    <header>
      <identifier>oai:zenodo.org:269371</identifier>
      <datestamp>2017-02-06T23:59:02Z</datestamp>
      <setSpec>user-biosyslit</setSpec>
    </header>
    <header>
      <identifier>oai:zenodo.org:269061</identifier>
      <datestamp>2017-02-06T22:39:36Z</datestamp>
      <setSpec>user-biosyslit</setSpec>
    </header>
    <header>
      <identifier>oai:zenodo.org:269199</identifier>
      <datestamp>2017-02-06T23:03:41Z</datestamp>
      <setSpec>user-biosyslit</setSpec>
    </header>
    <header>
      <identifier>oai:zenodo.org:269892</identifier>
      <datestamp>2017-02-07T20:39:43Z</datestamp>
      <setSpec>user-biosyslit</setSpec>
    </header>
    <header>
      <identifier>oai:zenodo.org:229984</identifier>
      <datestamp>2017-01-04T16:46:18Z</datestamp>
      <setSpec>user-biosyslit</setSpec>
    </header>
    <header>
      <identifier>oai:zenodo.org:229560</identifier>
      <datestamp>2017-01-03T18:05:41Z</datestamp>
      <setSpec>user-biosyslit</setSpec>
    </header>
    <header>
      <identifier>oai:zenodo.org:230276</identifier>
      <datestamp>2017-01-04T22:03:35Z</datestamp>
      <setSpec>user-biosyslit</setSpec>
    </header>
    <header>
      <identifier>oai:zenodo.org:270415</identifier>
      <datestamp>2017-02-07T23:13:03Z</datestamp>
      <setSpec>user-biosyslit</setSpec>
    </header>
    <header>
      <identifier>oai:zenodo.org:229727</identifier>
      <datestamp>2017-01-03T21:08:53Z</datestamp>
      <setSpec>user-biosyslit</setSpec>
    </header>
    <header>
      <identifier>oai:zenodo.org:230779</identifier>
      <datestamp>2017-01-05T08:06:14Z</datestamp>
      <setSpec>user-biosyslit</setSpec>
    </header>
    <header>
      <identifier>oai:zenodo.org:231171</identifier>
      <datestamp>2017-01-05T16:58:24Z</datestamp>
      <setSpec>user-biosyslit</setSpec>
    </header>
    <header>
      <identifier>oai:zenodo.org:269003</identifier>
      <datestamp>2017-02-06T20:10:43Z</datestamp>
      <setSpec>user-biosyslit</setSpec>
    </header>
    <header>
      <identifier>oai:zenodo.org:275031</identifier>
      <datestamp>2017-02-08T15:08:11Z</datestamp>
      <setSpec>user-biosyslit</setSpec>
    </header>
    <header>
      <identifier>oai:zenodo.org:230732</identifier>
      <datestamp>2017-01-05T07:36:49Z</datestamp>
      <setSpec>user-biosyslit</setSpec>
    </header>
    <header>
      <identifier>oai:zenodo.org:231200</identifier>
      <datestamp>2017-01-05T17:13:03Z</datestamp>
      <setSpec>user-biosyslit</setSpec>
    </header>
    <header>
      <identifier>oai:zenodo.org:262929</identifier>
      <datestamp>2017-01-29T11:10:21Z</datestamp>
      <setSpec>user-biosyslit</setSpec>
    </header>
    <header>
      <identifier>oai:zenodo.org:263812</identifier>
      <datestamp>2017-01-30T08:30:29Z</datestamp>
      <setSpec>user-biosyslit</setSpec>
    </header>
    <header>
      <identifier>oai:zenodo.org:263421</identifier>
      <datestamp>2017-01-29T22:32:04Z</datestamp>
      <setSpec>user-biosyslit</setSpec>
    </header>
    <header>
      <identifier>oai:zenodo.org:263854</identifier>
      <datestamp>2017-01-30T09:06:28Z</datestamp>
      <setSpec>user-biosyslit</setSpec>
    </header>
    <header>
      <identifier>oai:zenodo.org:262979</identifier>
      <datestamp>2017-01-29T14:24:39Z</datestamp>
      <setSpec>user-biosyslit</setSpec>
    </header>
    <header>
      <identifier>oai:zenodo.org:263533</identifier>
      <datestamp>2017-01-30T00:01:08Z</datestamp>
      <setSpec>user-biosyslit</setSpec>
    </header>
    <header>
      <identifier>oai:zenodo.org:263104</identifier>
      <datestamp>2017-01-29T16:40:15Z</datestamp>
      <setSpec>user-biosyslit</setSpec>
    </header>
    <header>
      <identifier>oai:zenodo.org:263315</identifier>
      <datestamp>2017-01-29T22:23:57Z</datestamp>
      <setSpec>user-biosyslit</setSpec>
    </header>
    <header>
      <identifier>oai:zenodo.org:263373</identifier>
      <datestamp>2017-01-29T22:28:42Z</datestamp>
      <setSpec>user-biosyslit</setSpec>
    </header>
    <header>
      <identifier>oai:zenodo.org:264272</identifier>
      <datestamp>2017-01-30T15:46:28Z</datestamp>
      <setSpec>user-biosyslit</setSpec>
    </header>
    <header>
      <identifier>oai:zenodo.org:263484</identifier>
      <datestamp>2017-01-29T22:35:56Z</datestamp>
      <setSpec>user-biosyslit</setSpec>
    </header>
    <header>
      <identifier>oai:zenodo.org:264801</identifier>
      <datestamp>2017-01-31T02:47:10Z</datestamp>
      <setSpec>user-biosyslit</setSpec>
    </header>
    <header>
      <identifier>oai:zenodo.org:264469</identifier>
      <datestamp>2017-01-30T22:12:21Z</datestamp>
      <setSpec>user-biosyslit</setSpec>
    </header>
    <header>
      <identifier>oai:zenodo.org:264049</identifier>
      <datestamp>2017-01-30T12:25:38Z</datestamp>
      <setSpec>user-biosyslit</setSpec>
    </header>
    <header>
      <identifier>oai:zenodo.org:264228</identifier>
      <datestamp>2017-01-30T15:01:42Z</datestamp>
      <setSpec>user-biosyslit</setSpec>
    </header>
    <header>
      <identifier>oai:zenodo.org:265744</identifier>
      <datestamp>2017-01-31T19:54:49Z</datestamp>
      <setSpec>user-biosyslit</setSpec>
    </header>
    <header>
      <identifier>oai:zenodo.org:264696</identifier>
      <datestamp>2017-01-31T00:58:34Z</datestamp>
      <setSpec>user-biosyslit</setSpec>
    </header>
    <header>
      <identifier>oai:zenodo.org:265612</identifier>
      <datestamp>2017-01-31T17:43:44Z</datestamp>
      <setSpec>user-biosyslit</setSpec>
    </header>
    <header>
      <identifier>oai:zenodo.org:264826</identifier>
      <datestamp>2017-01-31T03:13:38Z</datestamp>
      <setSpec>user-biosyslit</setSpec>
    </header>
    <resumptionToken expirationDate="2017-08-31T15:46:29Z" cursor="50800" completeListSize="77796">.eJyNyj0PQ0AYAOD_8s7S3J2qj6SLUDEgXAmWRhHRXlVcG5z477V0bufnWYDXdQUG2h2QpiuahvaEYFXRiQS8HJ6MXdqNoUwTVnYsLpzkHT0SlJFG9S0-eVYm--KOggcW9BSSFGtT3KI5PMevTERTIrsjRbbqiXD2b-72KjlwWH51ehp3JqOkGgI7nCk2aS6X34f_fOLns_gRJOiLpgZDwUiC-1gMDQdjWdcPoalRPQ.DInAXQ.aYv4PSeVmxI6NPjLKMRjoypResg</resumptionToken>
  </ListIdentifiers>
</OAI-PMH>
