<?xml version='1.0' encoding='UTF-8'?>
<?xml-stylesheet type="text/xsl" href="/static/xsl/oai2.v1.0.xsl"?>
<OAI-PMH xmlns="http://www.openarchives.org/OAI/2.0/" xmlns:xsi="http://www.w3.org/2001/XMLSchema-instance" xsi:schemaLocation="http://www.openarchives.org/OAI/2.0/ http://www.openarchives.org/OAI/2.0/OAI-PMH.xsd">
  <responseDate>2017-08-31T15:40:38Z</responseDate>
  <request verb="ListIdentifiers" resumptionToken=".eJwNzN1ugjAAQOF36TVZWsr4S7yQAA5CS5DSATcLK8jE6oxlQWt893F9vpwnUMPQAx--YRt6yHYs23Otd9fBBlDi9ivl13HNQNRciousuh3_2585bMzRoaHSNExQzk52i4XVcak6mZZix7PWVNY-TLMqTi-9VncSNphq8cjPSJdxYdbIvVdH-ChYNTd6f-c4WUoYOYRtzdVhwq6zgD8Vld6B8GQmpwhlnwQK3j9INAe5jhY6ifW5tb9rmvCwPdQ6LjOWBrREE_2IazEFWcHUki-bDTDAtRsH4GNkgNPS3UYF_Ofr9Q-SglJM.DIm_dg.MRSiAYbke5tDel9_fdkS7pFPo7s">https://zenodo.org/oai2d</request>
  <ListIdentifiers>
    <header>
      <identifier>oai:zenodo.org:278867</identifier>
      <datestamp>2017-02-09T00:00:33Z</datestamp>
      <setSpec>user-biosyslit</setSpec>
    </header>
    <header>
      <identifier>oai:zenodo.org:241535</identifier>
      <datestamp>2017-01-13T02:58:13Z</datestamp>
      <setSpec>user-biosyslit</setSpec>
    </header>
    <header>
      <identifier>oai:zenodo.org:241504</identifier>
      <datestamp>2017-01-13T02:18:05Z</datestamp>
      <setSpec>user-biosyslit</setSpec>
    </header>
    <header>
      <identifier>oai:zenodo.org:278991</identifier>
      <datestamp>2017-02-09T00:22:00Z</datestamp>
      <setSpec>user-biosyslit</setSpec>
    </header>
    <header>
      <identifier>oai:zenodo.org:241633</identifier>
      <datestamp>2017-01-13T04:11:51Z</datestamp>
      <setSpec>user-biosyslit</setSpec>
    </header>
    <header>
      <identifier>oai:zenodo.org:272269</identifier>
      <datestamp>2017-02-08T04:08:26Z</datestamp>
      <setSpec>user-biosyslit</setSpec>
    </header>
    <header>
      <identifier>oai:zenodo.org:272442</identifier>
      <datestamp>2017-02-08T04:39:36Z</datestamp>
      <setSpec>user-biosyslit</setSpec>
    </header>
    <header>
      <identifier>oai:zenodo.org:272072</identifier>
      <datestamp>2017-02-08T03:27:39Z</datestamp>
      <setSpec>user-biosyslit</setSpec>
    </header>
    <header>
      <identifier>oai:zenodo.org:272732</identifier>
      <datestamp>2017-02-08T06:15:51Z</datestamp>
      <setSpec>user-biosyslit</setSpec>
    </header>
    <header>
      <identifier>oai:zenodo.org:279308</identifier>
      <datestamp>2017-02-09T01:02:17Z</datestamp>
      <setSpec>user-biosyslit</setSpec>
    </header>
    <header>
      <identifier>oai:zenodo.org:241860</identifier>
      <datestamp>2017-01-13T07:05:56Z</datestamp>
      <setSpec>user-biosyslit</setSpec>
    </header>
    <header>
      <identifier>oai:zenodo.org:280401</identifier>
      <datestamp>2017-02-09T03:20:30Z</datestamp>
      <setSpec>user-biosyslit</setSpec>
    </header>
    <header>
      <identifier>oai:zenodo.org:242209</identifier>
      <datestamp>2017-01-13T12:02:40Z</datestamp>
      <setSpec>user-biosyslit</setSpec>
    </header>
    <header>
      <identifier>oai:zenodo.org:279098</identifier>
      <datestamp>2017-02-09T00:36:15Z</datestamp>
      <setSpec>user-biosyslit</setSpec>
    </header>
    <header>
      <identifier>oai:zenodo.org:242304</identifier>
      <datestamp>2017-01-13T13:10:42Z</datestamp>
      <setSpec>user-biosyslit</setSpec>
    </header>
    <header>
      <identifier>oai:zenodo.org:244090</identifier>
      <datestamp>2017-01-14T16:08:14Z</datestamp>
      <setSpec>user-biosyslit</setSpec>
    </header>
    <header>
      <identifier>oai:zenodo.org:243737</identifier>
      <datestamp>2017-01-14T10:08:32Z</datestamp>
      <setSpec>user-biosyslit</setSpec>
    </header>
    <header>
      <identifier>oai:zenodo.org:243173</identifier>
      <datestamp>2017-01-14T00:17:48Z</datestamp>
      <setSpec>user-biosyslit</setSpec>
    </header>
    <header>
      <identifier>oai:zenodo.org:243253</identifier>
      <datestamp>2017-01-14T01:40:19Z</datestamp>
      <setSpec>user-biosyslit</setSpec>
    </header>
    <header>
      <identifier>oai:zenodo.org:244008</identifier>
      <datestamp>2017-01-14T15:11:27Z</datestamp>
      <setSpec>user-biosyslit</setSpec>
    </header>
    <header>
      <identifier>oai:zenodo.org:272212</identifier>
      <datestamp>2017-02-08T04:01:14Z</datestamp>
      <setSpec>user-biosyslit</setSpec>
    </header>
    <header>
      <identifier>oai:zenodo.org:246314</identifier>
      <datestamp>2017-01-16T00:43:38Z</datestamp>
      <setSpec>user-biosyslit</setSpec>
    </header>
    <header>
      <identifier>oai:zenodo.org:272457</identifier>
      <datestamp>2017-02-08T04:42:09Z</datestamp>
      <setSpec>user-biosyslit</setSpec>
    </header>
    <header>
      <identifier>oai:zenodo.org:244651</identifier>
      <datestamp>2017-01-15T00:30:35Z</datestamp>
      <setSpec>user-biosyslit</setSpec>
    </header>
    <header>
      <identifier>oai:zenodo.org:272422</identifier>
      <datestamp>2017-02-08T04:34:56Z</datestamp>
      <setSpec>user-biosyslit</setSpec>
    </header>
    <header>
      <identifier>oai:zenodo.org:245278</identifier>
      <datestamp>2017-01-15T11:15:36Z</datestamp>
      <setSpec>user-biosyslit</setSpec>
    </header>
    <header>
      <identifier>oai:zenodo.org:244996</identifier>
      <datestamp>2017-01-15T06:15:06Z</datestamp>
      <setSpec>user-biosyslit</setSpec>
    </header>
    <header>
      <identifier>oai:zenodo.org:245412</identifier>
      <datestamp>2017-01-15T12:53:04Z</datestamp>
      <setSpec>user-biosyslit</setSpec>
    </header>
    <header>
      <identifier>oai:zenodo.org:245420</identifier>
      <datestamp>2017-01-15T12:56:50Z</datestamp>
      <setSpec>user-biosyslit</setSpec>
    </header>
    <header>
      <identifier>oai:zenodo.org:246344</identifier>
      <datestamp>2017-01-16T01:14:56Z</datestamp>
      <setSpec>user-biosyslit</setSpec>
    </header>
    <header>
      <identifier>oai:zenodo.org:246751</identifier>
      <datestamp>2017-01-16T07:17:38Z</datestamp>
      <setSpec>user-biosyslit</setSpec>
    </header>
    <header>
      <identifier>oai:zenodo.org:246464</identifier>
      <datestamp>2017-01-16T02:29:17Z</datestamp>
      <setSpec>user-biosyslit</setSpec>
    </header>
    <header>
      <identifier>oai:zenodo.org:245986</identifier>
      <datestamp>2017-01-15T20:25:44Z</datestamp>
      <setSpec>user-biosyslit</setSpec>
    </header>
    <header>
      <identifier>oai:zenodo.org:246746</identifier>
      <datestamp>2017-01-16T07:17:25Z</datestamp>
      <setSpec>user-biosyslit</setSpec>
    </header>
    <header>
      <identifier>oai:zenodo.org:247415</identifier>
      <datestamp>2017-01-16T15:27:49Z</datestamp>
      <setSpec>user-biosyslit</setSpec>
    </header>
    <header>
      <identifier>oai:zenodo.org:247575</identifier>
      <datestamp>2017-01-16T17:13:07Z</datestamp>
      <setSpec>user-biosyslit</setSpec>
    </header>
    <header>
      <identifier>oai:zenodo.org:248177</identifier>
      <datestamp>2017-01-17T00:43:50Z</datestamp>
      <setSpec>user-biosyslit</setSpec>
    </header>
    <header>
      <identifier>oai:zenodo.org:249015</identifier>
      <datestamp>2017-01-23T04:15:37Z</datestamp>
      <setSpec>openaire</setSpec>
      <setSpec>user-biosyslit</setSpec>
    </header>
    <header>
      <identifier>oai:zenodo.org:248768</identifier>
      <datestamp>2017-01-17T10:47:46Z</datestamp>
      <setSpec>user-biosyslit</setSpec>
    </header>
    <header>
      <identifier>oai:zenodo.org:248683</identifier>
      <datestamp>2017-01-17T08:12:42Z</datestamp>
      <setSpec>user-biosyslit</setSpec>
    </header>
    <header>
      <identifier>oai:zenodo.org:249992</identifier>
      <datestamp>2017-01-18T03:29:55Z</datestamp>
      <setSpec>user-biosyslit</setSpec>
    </header>
    <header>
      <identifier>oai:zenodo.org:249652</identifier>
      <datestamp>2017-01-17T22:09:10Z</datestamp>
      <setSpec>user-biosyslit</setSpec>
    </header>
    <header>
      <identifier>oai:zenodo.org:249096</identifier>
      <datestamp>2017-01-17T16:15:10Z</datestamp>
      <setSpec>user-biosyslit</setSpec>
    </header>
    <header>
      <identifier>oai:zenodo.org:249325</identifier>
      <datestamp>2017-01-17T18:43:29Z</datestamp>
      <setSpec>user-biosyslit</setSpec>
    </header>
    <header>
      <identifier>oai:zenodo.org:250144</identifier>
      <datestamp>2017-01-18T05:28:23Z</datestamp>
      <setSpec>user-biosyslit</setSpec>
    </header>
    <header>
      <identifier>oai:zenodo.org:272686</identifier>
      <datestamp>2017-02-08T06:13:44Z</datestamp>
      <setSpec>user-biosyslit</setSpec>
    </header>
    <header>
      <identifier>oai:zenodo.org:250040</identifier>
      <datestamp>2017-01-18T04:11:33Z</datestamp>
      <setSpec>user-biosyslit</setSpec>
    </header>
    <header>
      <identifier>oai:zenodo.org:249635</identifier>
      <datestamp>2017-01-17T22:01:39Z</datestamp>
      <setSpec>user-biosyslit</setSpec>
    </header>
    <header>
      <identifier>oai:zenodo.org:251604</identifier>
      <datestamp>2017-01-19T02:46:14Z</datestamp>
      <setSpec>user-biosyslit</setSpec>
    </header>
    <header>
      <identifier>oai:zenodo.org:251109</identifier>
      <datestamp>2017-01-18T18:44:41Z</datestamp>
      <setSpec>user-biosyslit</setSpec>
    </header>
    <header>
      <identifier>oai:zenodo.org:272743</identifier>
      <datestamp>2017-02-08T06:16:19Z</datestamp>
      <setSpec>user-biosyslit</setSpec>
    </header>
    <header>
      <identifier>oai:zenodo.org:275831</identifier>
      <datestamp>2017-02-08T17:09:18Z</datestamp>
      <setSpec>user-biosyslit</setSpec>
    </header>
    <header>
      <identifier>oai:zenodo.org:251750</identifier>
      <datestamp>2017-01-19T04:21:41Z</datestamp>
      <setSpec>user-biosyslit</setSpec>
    </header>
    <header>
      <identifier>oai:zenodo.org:276328</identifier>
      <datestamp>2017-02-08T18:38:18Z</datestamp>
      <setSpec>user-biosyslit</setSpec>
    </header>
    <header>
      <identifier>oai:zenodo.org:276480</identifier>
      <datestamp>2017-02-08T18:55:52Z</datestamp>
      <setSpec>user-biosyslit</setSpec>
    </header>
    <header>
      <identifier>oai:zenodo.org:276466</identifier>
      <datestamp>2017-02-08T18:53:45Z</datestamp>
      <setSpec>user-biosyslit</setSpec>
    </header>
    <header>
      <identifier>oai:zenodo.org:252205</identifier>
      <datestamp>2017-01-19T10:30:32Z</datestamp>
      <setSpec>user-biosyslit</setSpec>
    </header>
    <header>
      <identifier>oai:zenodo.org:252424</identifier>
      <datestamp>2017-01-19T14:27:08Z</datestamp>
      <setSpec>user-biosyslit</setSpec>
    </header>
    <header>
      <identifier>oai:zenodo.org:252329</identifier>
      <datestamp>2017-01-19T12:13:56Z</datestamp>
      <setSpec>user-biosyslit</setSpec>
    </header>
    <header>
      <identifier>oai:zenodo.org:252830</identifier>
      <datestamp>2017-01-19T20:55:15Z</datestamp>
      <setSpec>user-biosyslit</setSpec>
    </header>
    <header>
      <identifier>oai:zenodo.org:280083</identifier>
      <datestamp>2017-02-09T02:37:44Z</datestamp>
      <setSpec>user-biosyslit</setSpec>
    </header>
    <header>
      <identifier>oai:zenodo.org:253748</identifier>
      <datestamp>2017-01-20T10:41:14Z</datestamp>
      <setSpec>user-biosyslit</setSpec>
    </header>
    <header>
      <identifier>oai:zenodo.org:239052</identifier>
      <datestamp>2017-01-11T15:53:11Z</datestamp>
      <setSpec>user-biosyslit</setSpec>
    </header>
    <header>
      <identifier>oai:zenodo.org:239275</identifier>
      <datestamp>2017-01-11T18:48:13Z</datestamp>
      <setSpec>user-biosyslit</setSpec>
    </header>
    <header>
      <identifier>oai:zenodo.org:240201</identifier>
      <datestamp>2017-01-12T05:58:40Z</datestamp>
      <setSpec>user-biosyslit</setSpec>
    </header>
    <header>
      <identifier>oai:zenodo.org:278547</identifier>
      <datestamp>2017-02-08T23:22:37Z</datestamp>
      <setSpec>user-biosyslit</setSpec>
    </header>
    <header>
      <identifier>oai:zenodo.org:278508</identifier>
      <datestamp>2017-02-08T23:17:50Z</datestamp>
      <setSpec>user-biosyslit</setSpec>
    </header>
    <header>
      <identifier>oai:zenodo.org:239247</identifier>
      <datestamp>2017-01-11T18:46:20Z</datestamp>
      <setSpec>user-biosyslit</setSpec>
    </header>
    <header>
      <identifier>oai:zenodo.org:278194</identifier>
      <datestamp>2017-02-08T22:37:44Z</datestamp>
      <setSpec>user-biosyslit</setSpec>
    </header>
    <header>
      <identifier>oai:zenodo.org:271374</identifier>
      <datestamp>2017-02-08T01:34:32Z</datestamp>
      <setSpec>user-biosyslit</setSpec>
    </header>
    <header>
      <identifier>oai:zenodo.org:239514</identifier>
      <datestamp>2017-01-11T21:47:14Z</datestamp>
      <setSpec>user-biosyslit</setSpec>
    </header>
    <header>
      <identifier>oai:zenodo.org:239955</identifier>
      <datestamp>2017-01-12T02:49:16Z</datestamp>
      <setSpec>user-biosyslit</setSpec>
    </header>
    <header>
      <identifier>oai:zenodo.org:239833</identifier>
      <datestamp>2017-01-12T01:30:25Z</datestamp>
      <setSpec>user-biosyslit</setSpec>
    </header>
    <header>
      <identifier>oai:zenodo.org:241564</identifier>
      <datestamp>2017-01-13T03:21:21Z</datestamp>
      <setSpec>user-biosyslit</setSpec>
    </header>
    <header>
      <identifier>oai:zenodo.org:239748</identifier>
      <datestamp>2017-01-12T00:18:21Z</datestamp>
      <setSpec>user-biosyslit</setSpec>
    </header>
    <header>
      <identifier>oai:zenodo.org:240520</identifier>
      <datestamp>2017-01-12T09:49:44Z</datestamp>
      <setSpec>user-biosyslit</setSpec>
    </header>
    <header>
      <identifier>oai:zenodo.org:241457</identifier>
      <datestamp>2017-01-13T01:40:15Z</datestamp>
      <setSpec>user-biosyslit</setSpec>
    </header>
    <header>
      <identifier>oai:zenodo.org:240474</identifier>
      <datestamp>2017-01-12T09:04:55Z</datestamp>
      <setSpec>user-biosyslit</setSpec>
    </header>
    <header>
      <identifier>oai:zenodo.org:241303</identifier>
      <datestamp>2017-01-12T23:46:30Z</datestamp>
      <setSpec>user-biosyslit</setSpec>
    </header>
    <header>
      <identifier>oai:zenodo.org:278837</identifier>
      <datestamp>2017-02-08T23:58:38Z</datestamp>
      <setSpec>user-biosyslit</setSpec>
    </header>
    <header>
      <identifier>oai:zenodo.org:240820</identifier>
      <datestamp>2017-01-12T14:19:34Z</datestamp>
      <setSpec>user-biosyslit</setSpec>
    </header>
    <header>
      <identifier>oai:zenodo.org:278444</identifier>
      <datestamp>2017-02-08T23:11:30Z</datestamp>
      <setSpec>user-biosyslit</setSpec>
    </header>
    <header>
      <identifier>oai:zenodo.org:278499</identifier>
      <datestamp>2017-02-08T23:17:27Z</datestamp>
      <setSpec>user-biosyslit</setSpec>
    </header>
    <header>
      <identifier>oai:zenodo.org:278371</identifier>
      <datestamp>2017-02-08T23:03:04Z</datestamp>
      <setSpec>user-biosyslit</setSpec>
    </header>
    <header>
      <identifier>oai:zenodo.org:240695</identifier>
      <datestamp>2017-01-12T12:43:34Z</datestamp>
      <setSpec>user-biosyslit</setSpec>
    </header>
    <header>
      <identifier>oai:zenodo.org:240440</identifier>
      <datestamp>2017-01-12T08:37:24Z</datestamp>
      <setSpec>user-biosyslit</setSpec>
    </header>
    <header>
      <identifier>oai:zenodo.org:278537</identifier>
      <datestamp>2017-02-08T23:22:02Z</datestamp>
      <setSpec>user-biosyslit</setSpec>
    </header>
    <header>
      <identifier>oai:zenodo.org:240472</identifier>
      <datestamp>2017-01-12T09:04:50Z</datestamp>
      <setSpec>user-biosyslit</setSpec>
    </header>
    <header>
      <identifier>oai:zenodo.org:241344</identifier>
      <datestamp>2017-01-13T00:12:02Z</datestamp>
      <setSpec>user-biosyslit</setSpec>
    </header>
    <header>
      <identifier>oai:zenodo.org:279179</identifier>
      <datestamp>2017-02-09T00:45:47Z</datestamp>
      <setSpec>user-biosyslit</setSpec>
    </header>
    <header>
      <identifier>oai:zenodo.org:279914</identifier>
      <datestamp>2017-02-09T02:16:54Z</datestamp>
      <setSpec>user-biosyslit</setSpec>
    </header>
    <header>
      <identifier>oai:zenodo.org:272562</identifier>
      <datestamp>2017-02-08T05:08:53Z</datestamp>
      <setSpec>user-biosyslit</setSpec>
    </header>
    <header>
      <identifier>oai:zenodo.org:278846</identifier>
      <datestamp>2017-02-08T23:59:31Z</datestamp>
      <setSpec>user-biosyslit</setSpec>
    </header>
    <header>
      <identifier>oai:zenodo.org:241526</identifier>
      <datestamp>2017-01-13T02:57:42Z</datestamp>
      <setSpec>user-biosyslit</setSpec>
    </header>
    <header>
      <identifier>oai:zenodo.org:241624</identifier>
      <datestamp>2017-01-13T04:11:25Z</datestamp>
      <setSpec>user-biosyslit</setSpec>
    </header>
    <header>
      <identifier>oai:zenodo.org:272508</identifier>
      <datestamp>2017-02-08T04:58:13Z</datestamp>
      <setSpec>user-biosyslit</setSpec>
    </header>
    <header>
      <identifier>oai:zenodo.org:271701</identifier>
      <datestamp>2017-02-08T02:24:40Z</datestamp>
      <setSpec>user-biosyslit</setSpec>
    </header>
    <header>
      <identifier>oai:zenodo.org:271839</identifier>
      <datestamp>2017-02-08T02:44:57Z</datestamp>
      <setSpec>user-biosyslit</setSpec>
    </header>
    <header>
      <identifier>oai:zenodo.org:278840</identifier>
      <datestamp>2017-02-08T23:58:59Z</datestamp>
      <setSpec>user-biosyslit</setSpec>
    </header>
    <header>
      <identifier>oai:zenodo.org:271877</identifier>
      <datestamp>2017-02-08T02:53:25Z</datestamp>
      <setSpec>user-biosyslit</setSpec>
    </header>
    <resumptionToken expirationDate="2017-08-31T15:42:38Z" cursor="3000" completeListSize="142507">.eJwNj9FqgzAARf8lz2UkplMr9KGidoqJqDFTX4aL1lXTrjQObUr_fb5dOIcD9wlU17XAgW-WvbPfDds0EbbMdW2AEvdfKb_OKwai5FJcZdEc-V924bAyeot6SlMvRAkbzRqLbcOlamSUiyOPa0NtMy-KiyC6tlotxKsw1eKRXJDOg9Qokb0UZ_hIWTFVOls4Ducc-hZhB2P1MGG3ScCfgsrdifBwIqOP4k8CBW8fxJ_cRPszHcTaPJjfJQ25V59KHeQxi1yao4F-BKUY3Dhlak7m_R5swK3pO-Dg9dg4N_deAef5ev0Dl7VSUg.DIm_dg.RACenjgmvTAsTuVX8S8tmdUhA0c</resumptionToken>
  </ListIdentifiers>
</OAI-PMH>
