<?xml version='1.0' encoding='UTF-8'?>
<?xml-stylesheet type="text/xsl" href="/static/xsl/oai2.v1.0.xsl"?>
<OAI-PMH xmlns="http://www.openarchives.org/OAI/2.0/" xmlns:xsi="http://www.w3.org/2001/XMLSchema-instance" xsi:schemaLocation="http://www.openarchives.org/OAI/2.0/ http://www.openarchives.org/OAI/2.0/OAI-PMH.xsd">
  <responseDate>2017-08-31T15:42:08Z</responseDate>
  <request verb="ListIdentifiers" resumptionToken=".eJyNyk0LgjAYAOD_8p4l9lHNhC5iiYeUtZT0EjZFzFnhinThf89L5zo_zxt0WRbgoJlN0ILaK4TnZMkwphZo2d2UOtUTgzwmSl5VnPvJc98mKCUVCz3d77yUhqZBUYuN2HJyxHYf12jgh_iRmn2f0OAl0IbtDB_CSzC9gka-ys7-XcRXVwlSdNGGDwK7IqPy-_Cfz_x8nl6DBfe8KsHBbGFB88q7SoPzHscPk1lRNA.DIm_0A.UrZId8UYQ0gM84oG3NvFeUmsxAU">https://zenodo.org/oai2d</request>
  <ListIdentifiers>
    <header>
      <identifier>oai:zenodo.org:400910</identifier>
      <datestamp>2017-03-20T09:57:41Z</datestamp>
      <setSpec>user-biosyslit</setSpec>
    </header>
    <header>
      <identifier>oai:zenodo.org:400884</identifier>
      <datestamp>2017-03-20T09:03:55Z</datestamp>
      <setSpec>user-biosyslit</setSpec>
    </header>
    <header>
      <identifier>oai:zenodo.org:399446</identifier>
      <datestamp>2017-03-15T20:56:24Z</datestamp>
      <setSpec>user-biosyslit</setSpec>
    </header>
    <header>
      <identifier>oai:zenodo.org:400729</identifier>
      <datestamp>2017-03-19T12:05:39Z</datestamp>
      <setSpec>user-biosyslit</setSpec>
    </header>
    <header>
      <identifier>oai:zenodo.org:400406</identifier>
      <datestamp>2017-03-17T08:13:30Z</datestamp>
      <setSpec>user-biosyslit</setSpec>
    </header>
    <header>
      <identifier>oai:zenodo.org:399659</identifier>
      <datestamp>2017-03-15T23:07:32Z</datestamp>
      <setSpec>user-biosyslit</setSpec>
    </header>
    <header>
      <identifier>oai:zenodo.org:400214</identifier>
      <datestamp>2017-03-16T09:54:04Z</datestamp>
      <setSpec>user-biosyslit</setSpec>
    </header>
    <header>
      <identifier>oai:zenodo.org:432655</identifier>
      <datestamp>2017-03-21T09:38:59Z</datestamp>
      <setSpec>user-biosyslit</setSpec>
    </header>
    <header>
      <identifier>oai:zenodo.org:437224</identifier>
      <datestamp>2017-03-22T08:13:24Z</datestamp>
      <setSpec>user-biosyslit</setSpec>
    </header>
    <header>
      <identifier>oai:zenodo.org:434793</identifier>
      <datestamp>2017-03-23T14:48:54Z</datestamp>
      <setSpec>openaire</setSpec>
      <setSpec>user-biosyslit</setSpec>
    </header>
    <header>
      <identifier>oai:zenodo.org:437954</identifier>
      <datestamp>2017-03-24T08:30:48Z</datestamp>
      <setSpec>user-biosyslit</setSpec>
    </header>
    <header>
      <identifier>oai:zenodo.org:556481</identifier>
      <datestamp>2017-04-21T08:45:04Z</datestamp>
      <setSpec>user-biosyslit</setSpec>
    </header>
    <header>
      <identifier>oai:zenodo.org:437647</identifier>
      <datestamp>2017-03-23T10:10:08Z</datestamp>
      <setSpec>user-biosyslit</setSpec>
    </header>
    <header>
      <identifier>oai:zenodo.org:437947</identifier>
      <datestamp>2017-03-24T08:24:40Z</datestamp>
      <setSpec>user-biosyslit</setSpec>
    </header>
    <header>
      <identifier>oai:zenodo.org:437940</identifier>
      <datestamp>2017-03-24T08:15:58Z</datestamp>
      <setSpec>user-biosyslit</setSpec>
    </header>
    <header>
      <identifier>oai:zenodo.org:438564</identifier>
      <datestamp>2017-03-28T07:23:54Z</datestamp>
      <setSpec>user-biosyslit</setSpec>
    </header>
    <header>
      <identifier>oai:zenodo.org:438558</identifier>
      <datestamp>2017-03-28T07:23:26Z</datestamp>
      <setSpec>user-biosyslit</setSpec>
    </header>
    <header>
      <identifier>oai:zenodo.org:438207</identifier>
      <datestamp>2017-03-27T07:11:33Z</datestamp>
      <setSpec>user-biosyslit</setSpec>
    </header>
    <header>
      <identifier>oai:zenodo.org:438582</identifier>
      <datestamp>2017-03-28T07:34:09Z</datestamp>
      <setSpec>user-biosyslit</setSpec>
    </header>
    <header>
      <identifier>oai:zenodo.org:438214</identifier>
      <datestamp>2017-03-27T07:17:42Z</datestamp>
      <setSpec>user-biosyslit</setSpec>
    </header>
    <header>
      <identifier>oai:zenodo.org:438217</identifier>
      <datestamp>2017-03-27T07:30:41Z</datestamp>
      <setSpec>user-biosyslit</setSpec>
    </header>
    <header>
      <identifier>oai:zenodo.org:556889</identifier>
      <datestamp>2017-04-24T08:06:40Z</datestamp>
      <setSpec>user-biosyslit</setSpec>
    </header>
    <header>
      <identifier>oai:zenodo.org:557186</identifier>
      <datestamp>2017-04-25T09:18:03Z</datestamp>
      <setSpec>user-biosyslit</setSpec>
    </header>
    <header>
      <identifier>oai:zenodo.org:438565</identifier>
      <datestamp>2017-03-28T07:23:57Z</datestamp>
      <setSpec>user-biosyslit</setSpec>
    </header>
    <header>
      <identifier>oai:zenodo.org:438887</identifier>
      <datestamp>2017-03-29T08:04:08Z</datestamp>
      <setSpec>user-biosyslit</setSpec>
    </header>
    <header>
      <identifier>oai:zenodo.org:557170</identifier>
      <datestamp>2017-04-25T09:17:07Z</datestamp>
      <setSpec>user-biosyslit</setSpec>
    </header>
    <header>
      <identifier>oai:zenodo.org:438609</identifier>
      <datestamp>2017-03-28T08:02:42Z</datestamp>
      <setSpec>user-biosyslit</setSpec>
    </header>
    <header>
      <identifier>oai:zenodo.org:322663</identifier>
      <datestamp>2017-04-03T10:01:37Z</datestamp>
      <setSpec>openaire</setSpec>
      <setSpec>user-biosyslit</setSpec>
    </header>
    <header>
      <identifier>oai:zenodo.org:439812</identifier>
      <datestamp>2017-04-03T08:05:35Z</datestamp>
      <setSpec>user-biosyslit</setSpec>
    </header>
    <header>
      <identifier>oai:zenodo.org:439803</identifier>
      <datestamp>2017-04-03T07:51:40Z</datestamp>
      <setSpec>user-biosyslit</setSpec>
    </header>
    <header>
      <identifier>oai:zenodo.org:439747</identifier>
      <datestamp>2017-04-02T21:15:53Z</datestamp>
      <setSpec>user-biosyslit</setSpec>
    </header>
    <header>
      <identifier>oai:zenodo.org:451015</identifier>
      <datestamp>2017-04-04T07:17:16Z</datestamp>
      <setSpec>user-biosyslit</setSpec>
    </header>
    <header>
      <identifier>oai:zenodo.org:495274</identifier>
      <datestamp>2017-04-06T07:09:05Z</datestamp>
      <setSpec>user-biosyslit</setSpec>
    </header>
    <header>
      <identifier>oai:zenodo.org:495562</identifier>
      <datestamp>2017-04-07T08:02:43Z</datestamp>
      <setSpec>user-biosyslit</setSpec>
    </header>
    <header>
      <identifier>oai:zenodo.org:495283</identifier>
      <datestamp>2017-04-06T07:16:42Z</datestamp>
      <setSpec>user-biosyslit</setSpec>
    </header>
    <header>
      <identifier>oai:zenodo.org:546829</identifier>
      <datestamp>2017-04-18T07:39:55Z</datestamp>
      <setSpec>user-biosyslit</setSpec>
    </header>
    <header>
      <identifier>oai:zenodo.org:546802</identifier>
      <datestamp>2017-04-18T07:13:50Z</datestamp>
      <setSpec>user-biosyslit</setSpec>
    </header>
    <header>
      <identifier>oai:zenodo.org:556285</identifier>
      <datestamp>2017-04-20T07:42:03Z</datestamp>
      <setSpec>user-biosyslit</setSpec>
    </header>
    <header>
      <identifier>oai:zenodo.org:556290</identifier>
      <datestamp>2017-04-20T07:49:39Z</datestamp>
      <setSpec>user-biosyslit</setSpec>
    </header>
    <header>
      <identifier>oai:zenodo.org:556272</identifier>
      <datestamp>2017-04-20T07:25:49Z</datestamp>
      <setSpec>user-biosyslit</setSpec>
    </header>
    <header>
      <identifier>oai:zenodo.org:556304</identifier>
      <datestamp>2017-04-20T08:01:15Z</datestamp>
      <setSpec>user-biosyslit</setSpec>
    </header>
    <header>
      <identifier>oai:zenodo.org:556888</identifier>
      <datestamp>2017-04-24T08:06:37Z</datestamp>
      <setSpec>user-biosyslit</setSpec>
    </header>
    <header>
      <identifier>oai:zenodo.org:439164</identifier>
      <datestamp>2017-03-30T07:33:04Z</datestamp>
      <setSpec>user-biosyslit</setSpec>
    </header>
    <header>
      <identifier>oai:zenodo.org:495024</identifier>
      <datestamp>2017-04-05T07:15:03Z</datestamp>
      <setSpec>user-biosyslit</setSpec>
    </header>
    <header>
      <identifier>oai:zenodo.org:439871</identifier>
      <datestamp>2017-04-03T10:36:24Z</datestamp>
      <setSpec>user-biosyslit</setSpec>
    </header>
    <header>
      <identifier>oai:zenodo.org:495526</identifier>
      <datestamp>2017-04-07T07:30:52Z</datestamp>
      <setSpec>user-biosyslit</setSpec>
    </header>
    <header>
      <identifier>oai:zenodo.org:495300</identifier>
      <datestamp>2017-04-06T07:35:17Z</datestamp>
      <setSpec>user-biosyslit</setSpec>
    </header>
    <header>
      <identifier>oai:zenodo.org:495284</identifier>
      <datestamp>2017-04-06T07:16:45Z</datestamp>
      <setSpec>user-biosyslit</setSpec>
    </header>
    <header>
      <identifier>oai:zenodo.org:495303</identifier>
      <datestamp>2017-04-06T07:35:26Z</datestamp>
      <setSpec>user-biosyslit</setSpec>
    </header>
    <header>
      <identifier>oai:zenodo.org:495317</identifier>
      <datestamp>2017-04-06T07:46:56Z</datestamp>
      <setSpec>user-biosyslit</setSpec>
    </header>
    <header>
      <identifier>oai:zenodo.org:495536</identifier>
      <datestamp>2017-04-07T07:38:04Z</datestamp>
      <setSpec>user-biosyslit</setSpec>
    </header>
    <header>
      <identifier>oai:zenodo.org:495898</identifier>
      <datestamp>2017-04-28T10:57:58Z</datestamp>
      <setSpec>openaire</setSpec>
      <setSpec>user-biosyslit</setSpec>
    </header>
    <header>
      <identifier>oai:zenodo.org:556309</identifier>
      <datestamp>2017-04-20T08:04:25Z</datestamp>
      <setSpec>user-biosyslit</setSpec>
    </header>
    <header>
      <identifier>oai:zenodo.org:556490</identifier>
      <datestamp>2017-04-21T08:45:48Z</datestamp>
      <setSpec>user-biosyslit</setSpec>
    </header>
    <header>
      <identifier>oai:zenodo.org:556268</identifier>
      <datestamp>2017-04-20T07:12:24Z</datestamp>
      <setSpec>user-biosyslit</setSpec>
    </header>
    <header>
      <identifier>oai:zenodo.org:556898</identifier>
      <datestamp>2017-04-24T08:07:07Z</datestamp>
      <setSpec>user-biosyslit</setSpec>
    </header>
    <header>
      <identifier>oai:zenodo.org:557165</identifier>
      <datestamp>2017-04-25T09:16:53Z</datestamp>
      <setSpec>user-biosyslit</setSpec>
    </header>
    <header>
      <identifier>oai:zenodo.org:569190</identifier>
      <datestamp>2017-04-26T09:00:25Z</datestamp>
      <setSpec>user-biosyslit</setSpec>
    </header>
    <header>
      <identifier>oai:zenodo.org:569174</identifier>
      <datestamp>2017-04-26T08:43:28Z</datestamp>
      <setSpec>user-biosyslit</setSpec>
    </header>
    <header>
      <identifier>oai:zenodo.org:569171</identifier>
      <datestamp>2017-04-26T08:43:20Z</datestamp>
      <setSpec>user-biosyslit</setSpec>
    </header>
    <header>
      <identifier>oai:zenodo.org:569151</identifier>
      <datestamp>2017-04-26T08:28:34Z</datestamp>
      <setSpec>user-biosyslit</setSpec>
    </header>
    <header>
      <identifier>oai:zenodo.org:569778</identifier>
      <datestamp>2017-04-28T08:15:41Z</datestamp>
      <setSpec>user-biosyslit</setSpec>
    </header>
    <header>
      <identifier>oai:zenodo.org:570084</identifier>
      <datestamp>2017-05-01T07:13:47Z</datestamp>
      <setSpec>user-biosyslit</setSpec>
    </header>
    <header>
      <identifier>oai:zenodo.org:569426</identifier>
      <datestamp>2017-04-27T07:33:22Z</datestamp>
      <setSpec>user-biosyslit</setSpec>
    </header>
    <header>
      <identifier>oai:zenodo.org:569735</identifier>
      <datestamp>2017-04-28T07:21:52Z</datestamp>
      <setSpec>user-biosyslit</setSpec>
    </header>
    <header>
      <identifier>oai:zenodo.org:241648</identifier>
      <datestamp>2017-01-13T04:12:37Z</datestamp>
      <setSpec>user-biosyslit</setSpec>
    </header>
    <header>
      <identifier>oai:zenodo.org:242299</identifier>
      <datestamp>2017-01-13T13:10:52Z</datestamp>
      <setSpec>user-biosyslit</setSpec>
    </header>
    <header>
      <identifier>oai:zenodo.org:241863</identifier>
      <datestamp>2017-01-13T07:06:08Z</datestamp>
      <setSpec>user-biosyslit</setSpec>
    </header>
    <header>
      <identifier>oai:zenodo.org:272491</identifier>
      <datestamp>2017-02-08T04:56:21Z</datestamp>
      <setSpec>user-biosyslit</setSpec>
    </header>
    <header>
      <identifier>oai:zenodo.org:241819</identifier>
      <datestamp>2017-01-13T06:35:09Z</datestamp>
      <setSpec>user-biosyslit</setSpec>
    </header>
    <header>
      <identifier>oai:zenodo.org:241732</identifier>
      <datestamp>2017-01-13T05:23:48Z</datestamp>
      <setSpec>user-biosyslit</setSpec>
    </header>
    <header>
      <identifier>oai:zenodo.org:241764</identifier>
      <datestamp>2017-01-13T05:36:38Z</datestamp>
      <setSpec>user-biosyslit</setSpec>
    </header>
    <header>
      <identifier>oai:zenodo.org:241743</identifier>
      <datestamp>2017-01-13T05:31:17Z</datestamp>
      <setSpec>user-biosyslit</setSpec>
    </header>
    <header>
      <identifier>oai:zenodo.org:241702</identifier>
      <datestamp>2017-01-13T05:09:52Z</datestamp>
      <setSpec>user-biosyslit</setSpec>
    </header>
    <header>
      <identifier>oai:zenodo.org:241883</identifier>
      <datestamp>2017-01-13T07:17:32Z</datestamp>
      <setSpec>user-biosyslit</setSpec>
    </header>
    <header>
      <identifier>oai:zenodo.org:241858</identifier>
      <datestamp>2017-01-13T07:05:48Z</datestamp>
      <setSpec>user-biosyslit</setSpec>
    </header>
    <header>
      <identifier>oai:zenodo.org:241970</identifier>
      <datestamp>2017-01-13T08:54:52Z</datestamp>
      <setSpec>user-biosyslit</setSpec>
    </header>
    <header>
      <identifier>oai:zenodo.org:242553</identifier>
      <datestamp>2017-01-13T16:57:06Z</datestamp>
      <setSpec>user-biosyslit</setSpec>
    </header>
    <header>
      <identifier>oai:zenodo.org:243497</identifier>
      <datestamp>2017-01-14T06:35:50Z</datestamp>
      <setSpec>user-biosyslit</setSpec>
    </header>
    <header>
      <identifier>oai:zenodo.org:242267</identifier>
      <datestamp>2017-01-13T12:40:42Z</datestamp>
      <setSpec>user-biosyslit</setSpec>
    </header>
    <header>
      <identifier>oai:zenodo.org:242658</identifier>
      <datestamp>2017-01-13T18:16:30Z</datestamp>
      <setSpec>user-biosyslit</setSpec>
    </header>
    <header>
      <identifier>oai:zenodo.org:242252</identifier>
      <datestamp>2017-01-13T12:29:31Z</datestamp>
      <setSpec>user-biosyslit</setSpec>
    </header>
    <header>
      <identifier>oai:zenodo.org:242726</identifier>
      <datestamp>2017-01-13T19:07:39Z</datestamp>
      <setSpec>user-biosyslit</setSpec>
    </header>
    <header>
      <identifier>oai:zenodo.org:272559</identifier>
      <datestamp>2017-02-08T05:08:40Z</datestamp>
      <setSpec>user-biosyslit</setSpec>
    </header>
    <header>
      <identifier>oai:zenodo.org:242416</identifier>
      <datestamp>2017-01-13T15:09:29Z</datestamp>
      <setSpec>user-biosyslit</setSpec>
    </header>
    <header>
      <identifier>oai:zenodo.org:242223</identifier>
      <datestamp>2017-01-13T12:14:11Z</datestamp>
      <setSpec>user-biosyslit</setSpec>
    </header>
    <header>
      <identifier>oai:zenodo.org:243553</identifier>
      <datestamp>2017-01-14T07:24:58Z</datestamp>
      <setSpec>user-biosyslit</setSpec>
    </header>
    <header>
      <identifier>oai:zenodo.org:243351</identifier>
      <datestamp>2017-01-14T03:13:16Z</datestamp>
      <setSpec>user-biosyslit</setSpec>
    </header>
    <header>
      <identifier>oai:zenodo.org:272087</identifier>
      <datestamp>2017-02-08T03:39:06Z</datestamp>
      <setSpec>user-biosyslit</setSpec>
    </header>
    <header>
      <identifier>oai:zenodo.org:242705</identifier>
      <datestamp>2017-01-13T18:52:54Z</datestamp>
      <setSpec>user-biosyslit</setSpec>
    </header>
    <header>
      <identifier>oai:zenodo.org:243343</identifier>
      <datestamp>2017-01-14T03:00:40Z</datestamp>
      <setSpec>user-biosyslit</setSpec>
    </header>
    <header>
      <identifier>oai:zenodo.org:243101</identifier>
      <datestamp>2017-01-13T23:28:21Z</datestamp>
      <setSpec>user-biosyslit</setSpec>
    </header>
    <header>
      <identifier>oai:zenodo.org:243657</identifier>
      <datestamp>2017-01-14T08:53:04Z</datestamp>
      <setSpec>user-biosyslit</setSpec>
    </header>
    <header>
      <identifier>oai:zenodo.org:244711</identifier>
      <datestamp>2017-01-15T01:28:52Z</datestamp>
      <setSpec>user-biosyslit</setSpec>
    </header>
    <header>
      <identifier>oai:zenodo.org:245003</identifier>
      <datestamp>2017-01-15T06:33:42Z</datestamp>
      <setSpec>user-biosyslit</setSpec>
    </header>
    <header>
      <identifier>oai:zenodo.org:245035</identifier>
      <datestamp>2017-01-15T06:57:25Z</datestamp>
      <setSpec>user-biosyslit</setSpec>
    </header>
    <header>
      <identifier>oai:zenodo.org:272025</identifier>
      <datestamp>2017-02-08T03:21:42Z</datestamp>
      <setSpec>user-biosyslit</setSpec>
    </header>
    <header>
      <identifier>oai:zenodo.org:244314</identifier>
      <datestamp>2017-01-14T19:50:24Z</datestamp>
      <setSpec>user-biosyslit</setSpec>
    </header>
    <header>
      <identifier>oai:zenodo.org:244005</identifier>
      <datestamp>2017-01-14T15:11:17Z</datestamp>
      <setSpec>user-biosyslit</setSpec>
    </header>
    <header>
      <identifier>oai:zenodo.org:243698</identifier>
      <datestamp>2017-01-14T09:20:55Z</datestamp>
      <setSpec>user-biosyslit</setSpec>
    </header>
    <resumptionToken expirationDate="2017-08-31T15:44:08Z" cursor="17400" completeListSize="77796">.eJyNyk0LgjAYAOD_8p4l9mEuhC6hSQeVtRzqJUxFqlnhCnXhf89L5zo_zxt0XVfgogUjzKF0SWybMOasLNBld1fqeJ4VylSq8qaSIpCvfStRRhoWeXoIvYxG5oriFhux5STFqyE5o5Efkmdm9oOku14gn4WGj9FlN7-KxoHKT8FDJLeNEqTqYp-PAm9ETsvvw38-8_N5eg0WPIqmBhczx4JrX3SNBvc9TR9uZVES.DIm_0A.QS64O-t_UFI4pdLWo3mvwe0_eDU</resumptionToken>
  </ListIdentifiers>
</OAI-PMH>
