<?xml version='1.0' encoding='UTF-8'?>
<?xml-stylesheet type="text/xsl" href="/static/xsl/oai2.v1.0.xsl"?>
<OAI-PMH xmlns="http://www.openarchives.org/OAI/2.0/" xmlns:xsi="http://www.w3.org/2001/XMLSchema-instance" xsi:schemaLocation="http://www.openarchives.org/OAI/2.0/ http://www.openarchives.org/OAI/2.0/OAI-PMH.xsd">
  <responseDate>2017-08-31T15:43:38Z</responseDate>
  <request verb="ListIdentifiers" resumptionToken=".eJyNyj0LgkAYAOD_8s4S96WJ0BKWOKjopWRL2ClinhVeoV7433Nprvl53qCqqgQHrTCzTWwTYlomo8yklgFK9Hcpz83iII6ZFDeZFl72SroM5aReh64aAzenoW5R1GHN9zE5YntMGzTFh_SZ62TMqD9wtFsHOp7Cq7-8kkaePF28B09vW8lJ2Ue7eOJ4y09UfB_-8-mfz1UbMOBR1BU4DBED2qHoawXOe54_zqRRaQ.DInAKg.t9tzjH4KHtXnvYeWpO5IWQBeF7c">https://zenodo.org/oai2d</request>
  <ListIdentifiers>
    <header>
      <identifier>oai:zenodo.org:262596</identifier>
      <datestamp>2017-01-29T06:02:15Z</datestamp>
      <setSpec>user-biosyslit</setSpec>
    </header>
    <header>
      <identifier>oai:zenodo.org:262959</identifier>
      <datestamp>2017-01-29T14:03:04Z</datestamp>
      <setSpec>user-biosyslit</setSpec>
    </header>
    <header>
      <identifier>oai:zenodo.org:264480</identifier>
      <datestamp>2017-01-30T22:31:37Z</datestamp>
      <setSpec>user-biosyslit</setSpec>
    </header>
    <header>
      <identifier>oai:zenodo.org:262863</identifier>
      <datestamp>2017-01-29T10:27:54Z</datestamp>
      <setSpec>user-biosyslit</setSpec>
    </header>
    <header>
      <identifier>oai:zenodo.org:262864</identifier>
      <datestamp>2017-01-29T10:33:37Z</datestamp>
      <setSpec>user-biosyslit</setSpec>
    </header>
    <header>
      <identifier>oai:zenodo.org:263975</identifier>
      <datestamp>2017-01-30T11:04:12Z</datestamp>
      <setSpec>user-biosyslit</setSpec>
    </header>
    <header>
      <identifier>oai:zenodo.org:262907</identifier>
      <datestamp>2017-01-29T11:09:02Z</datestamp>
      <setSpec>user-biosyslit</setSpec>
    </header>
    <header>
      <identifier>oai:zenodo.org:263640</identifier>
      <datestamp>2017-01-30T02:04:58Z</datestamp>
      <setSpec>user-biosyslit</setSpec>
    </header>
    <header>
      <identifier>oai:zenodo.org:264268</identifier>
      <datestamp>2017-01-30T15:46:16Z</datestamp>
      <setSpec>user-biosyslit</setSpec>
    </header>
    <header>
      <identifier>oai:zenodo.org:263345</identifier>
      <datestamp>2017-01-29T22:26:23Z</datestamp>
      <setSpec>user-biosyslit</setSpec>
    </header>
    <header>
      <identifier>oai:zenodo.org:263326</identifier>
      <datestamp>2017-01-29T22:24:37Z</datestamp>
      <setSpec>user-biosyslit</setSpec>
    </header>
    <header>
      <identifier>oai:zenodo.org:263303</identifier>
      <datestamp>2017-01-29T22:23:08Z</datestamp>
      <setSpec>user-biosyslit</setSpec>
    </header>
    <header>
      <identifier>oai:zenodo.org:265243</identifier>
      <datestamp>2017-01-31T10:40:41Z</datestamp>
      <setSpec>user-biosyslit</setSpec>
    </header>
    <header>
      <identifier>oai:zenodo.org:263145</identifier>
      <datestamp>2017-01-29T17:39:28Z</datestamp>
      <setSpec>user-biosyslit</setSpec>
    </header>
    <header>
      <identifier>oai:zenodo.org:263706</identifier>
      <datestamp>2017-01-30T06:56:57Z</datestamp>
      <setSpec>user-biosyslit</setSpec>
    </header>
    <header>
      <identifier>oai:zenodo.org:263058</identifier>
      <datestamp>2017-01-29T15:36:06Z</datestamp>
      <setSpec>user-biosyslit</setSpec>
    </header>
    <header>
      <identifier>oai:zenodo.org:264191</identifier>
      <datestamp>2017-01-30T14:36:36Z</datestamp>
      <setSpec>user-biosyslit</setSpec>
    </header>
    <header>
      <identifier>oai:zenodo.org:263991</identifier>
      <datestamp>2017-01-30T11:17:19Z</datestamp>
      <setSpec>user-biosyslit</setSpec>
    </header>
    <header>
      <identifier>oai:zenodo.org:265311</identifier>
      <datestamp>2017-01-31T11:58:31Z</datestamp>
      <setSpec>user-biosyslit</setSpec>
    </header>
    <header>
      <identifier>oai:zenodo.org:263837</identifier>
      <datestamp>2017-01-30T09:01:47Z</datestamp>
      <setSpec>user-biosyslit</setSpec>
    </header>
    <header>
      <identifier>oai:zenodo.org:264830</identifier>
      <datestamp>2017-01-31T03:14:01Z</datestamp>
      <setSpec>user-biosyslit</setSpec>
    </header>
    <header>
      <identifier>oai:zenodo.org:264753</identifier>
      <datestamp>2017-01-31T02:14:26Z</datestamp>
      <setSpec>user-biosyslit</setSpec>
    </header>
    <header>
      <identifier>oai:zenodo.org:264749</identifier>
      <datestamp>2017-01-31T02:08:18Z</datestamp>
      <setSpec>user-biosyslit</setSpec>
    </header>
    <header>
      <identifier>oai:zenodo.org:265885</identifier>
      <datestamp>2017-01-31T23:03:13Z</datestamp>
      <setSpec>user-biosyslit</setSpec>
    </header>
    <header>
      <identifier>oai:zenodo.org:274632</identifier>
      <datestamp>2017-02-08T13:50:47Z</datestamp>
      <setSpec>user-biosyslit</setSpec>
    </header>
    <header>
      <identifier>oai:zenodo.org:264783</identifier>
      <datestamp>2017-01-31T02:38:14Z</datestamp>
      <setSpec>user-biosyslit</setSpec>
    </header>
    <header>
      <identifier>oai:zenodo.org:265474</identifier>
      <datestamp>2017-01-31T14:24:33Z</datestamp>
      <setSpec>user-biosyslit</setSpec>
    </header>
    <header>
      <identifier>oai:zenodo.org:279436</identifier>
      <datestamp>2017-02-09T01:21:36Z</datestamp>
      <setSpec>user-biosyslit</setSpec>
    </header>
    <header>
      <identifier>oai:zenodo.org:265294</identifier>
      <datestamp>2017-01-31T11:25:26Z</datestamp>
      <setSpec>user-biosyslit</setSpec>
    </header>
    <header>
      <identifier>oai:zenodo.org:266700</identifier>
      <datestamp>2017-02-01T14:03:42Z</datestamp>
      <setSpec>user-biosyslit</setSpec>
    </header>
    <header>
      <identifier>oai:zenodo.org:265597</identifier>
      <datestamp>2017-01-31T17:31:16Z</datestamp>
      <setSpec>user-biosyslit</setSpec>
    </header>
    <header>
      <identifier>oai:zenodo.org:266881</identifier>
      <datestamp>2017-02-01T15:57:04Z</datestamp>
      <setSpec>user-biosyslit</setSpec>
    </header>
    <header>
      <identifier>oai:zenodo.org:274728</identifier>
      <datestamp>2017-02-08T14:07:59Z</datestamp>
      <setSpec>user-biosyslit</setSpec>
    </header>
    <header>
      <identifier>oai:zenodo.org:267220</identifier>
      <datestamp>2017-02-01T23:00:06Z</datestamp>
      <setSpec>user-biosyslit</setSpec>
    </header>
    <header>
      <identifier>oai:zenodo.org:266415</identifier>
      <datestamp>2017-02-01T08:31:42Z</datestamp>
      <setSpec>user-biosyslit</setSpec>
    </header>
    <header>
      <identifier>oai:zenodo.org:266565</identifier>
      <datestamp>2017-02-01T12:03:13Z</datestamp>
      <setSpec>user-biosyslit</setSpec>
    </header>
    <header>
      <identifier>oai:zenodo.org:266953</identifier>
      <datestamp>2017-02-01T17:28:03Z</datestamp>
      <setSpec>user-biosyslit</setSpec>
    </header>
    <header>
      <identifier>oai:zenodo.org:267608</identifier>
      <datestamp>2017-02-02T04:49:10Z</datestamp>
      <setSpec>user-biosyslit</setSpec>
    </header>
    <header>
      <identifier>oai:zenodo.org:267484</identifier>
      <datestamp>2017-02-02T02:59:43Z</datestamp>
      <setSpec>user-biosyslit</setSpec>
    </header>
    <header>
      <identifier>oai:zenodo.org:267664</identifier>
      <datestamp>2017-02-02T05:30:39Z</datestamp>
      <setSpec>user-biosyslit</setSpec>
    </header>
    <header>
      <identifier>oai:zenodo.org:267075</identifier>
      <datestamp>2017-02-01T18:57:49Z</datestamp>
      <setSpec>user-biosyslit</setSpec>
    </header>
    <header>
      <identifier>oai:zenodo.org:268084</identifier>
      <datestamp>2017-02-03T01:32:38Z</datestamp>
      <setSpec>user-biosyslit</setSpec>
    </header>
    <header>
      <identifier>oai:zenodo.org:267573</identifier>
      <datestamp>2017-02-02T04:05:29Z</datestamp>
      <setSpec>user-biosyslit</setSpec>
    </header>
    <header>
      <identifier>oai:zenodo.org:268243</identifier>
      <datestamp>2017-02-03T04:35:16Z</datestamp>
      <setSpec>user-biosyslit</setSpec>
    </header>
    <header>
      <identifier>oai:zenodo.org:268333</identifier>
      <datestamp>2017-02-03T11:18:44Z</datestamp>
      <setSpec>user-biosyslit</setSpec>
    </header>
    <header>
      <identifier>oai:zenodo.org:268187</identifier>
      <datestamp>2017-02-03T02:57:09Z</datestamp>
      <setSpec>user-biosyslit</setSpec>
    </header>
    <header>
      <identifier>oai:zenodo.org:269080</identifier>
      <datestamp>2017-02-06T22:41:06Z</datestamp>
      <setSpec>user-biosyslit</setSpec>
    </header>
    <header>
      <identifier>oai:zenodo.org:269249</identifier>
      <datestamp>2017-02-06T23:41:36Z</datestamp>
      <setSpec>user-biosyslit</setSpec>
    </header>
    <header>
      <identifier>oai:zenodo.org:269274</identifier>
      <datestamp>2017-02-06T23:46:02Z</datestamp>
      <setSpec>user-biosyslit</setSpec>
    </header>
    <header>
      <identifier>oai:zenodo.org:269283</identifier>
      <datestamp>2017-02-06T23:47:18Z</datestamp>
      <setSpec>user-biosyslit</setSpec>
    </header>
    <header>
      <identifier>oai:zenodo.org:269479</identifier>
      <datestamp>2017-02-07T00:42:34Z</datestamp>
      <setSpec>user-biosyslit</setSpec>
    </header>
    <header>
      <identifier>oai:zenodo.org:269582</identifier>
      <datestamp>2017-02-07T01:03:11Z</datestamp>
      <setSpec>user-biosyslit</setSpec>
    </header>
    <header>
      <identifier>oai:zenodo.org:275260</identifier>
      <datestamp>2017-02-08T15:50:04Z</datestamp>
      <setSpec>user-biosyslit</setSpec>
    </header>
    <header>
      <identifier>oai:zenodo.org:269679</identifier>
      <datestamp>2017-02-10T16:20:32Z</datestamp>
      <setSpec>openaire</setSpec>
      <setSpec>user-biosyslit</setSpec>
    </header>
    <header>
      <identifier>oai:zenodo.org:269515</identifier>
      <datestamp>2017-02-07T00:44:21Z</datestamp>
      <setSpec>user-biosyslit</setSpec>
    </header>
    <header>
      <identifier>oai:zenodo.org:275299</identifier>
      <datestamp>2017-02-08T16:03:07Z</datestamp>
      <setSpec>user-biosyslit</setSpec>
    </header>
    <header>
      <identifier>oai:zenodo.org:275562</identifier>
      <datestamp>2017-02-08T16:42:28Z</datestamp>
      <setSpec>user-biosyslit</setSpec>
    </header>
    <header>
      <identifier>oai:zenodo.org:275910</identifier>
      <datestamp>2017-02-08T17:22:00Z</datestamp>
      <setSpec>user-biosyslit</setSpec>
    </header>
    <header>
      <identifier>oai:zenodo.org:275453</identifier>
      <datestamp>2017-02-08T16:30:13Z</datestamp>
      <setSpec>user-biosyslit</setSpec>
    </header>
    <header>
      <identifier>oai:zenodo.org:276326</identifier>
      <datestamp>2017-02-08T18:38:13Z</datestamp>
      <setSpec>user-biosyslit</setSpec>
    </header>
    <header>
      <identifier>oai:zenodo.org:277398</identifier>
      <datestamp>2017-02-08T21:05:10Z</datestamp>
      <setSpec>user-biosyslit</setSpec>
    </header>
    <header>
      <identifier>oai:zenodo.org:278293</identifier>
      <datestamp>2017-02-08T22:47:28Z</datestamp>
      <setSpec>user-biosyslit</setSpec>
    </header>
    <header>
      <identifier>oai:zenodo.org:277676</identifier>
      <datestamp>2017-02-08T21:36:14Z</datestamp>
      <setSpec>user-biosyslit</setSpec>
    </header>
    <header>
      <identifier>oai:zenodo.org:277583</identifier>
      <datestamp>2017-02-08T21:25:54Z</datestamp>
      <setSpec>user-biosyslit</setSpec>
    </header>
    <header>
      <identifier>oai:zenodo.org:278586</identifier>
      <datestamp>2017-02-08T23:28:34Z</datestamp>
      <setSpec>user-biosyslit</setSpec>
    </header>
    <header>
      <identifier>oai:zenodo.org:278071</identifier>
      <datestamp>2017-02-08T22:23:51Z</datestamp>
      <setSpec>user-biosyslit</setSpec>
    </header>
    <header>
      <identifier>oai:zenodo.org:276970</identifier>
      <datestamp>2017-02-08T20:06:19Z</datestamp>
      <setSpec>user-biosyslit</setSpec>
    </header>
    <header>
      <identifier>oai:zenodo.org:277233</identifier>
      <datestamp>2017-02-08T20:40:04Z</datestamp>
      <setSpec>user-biosyslit</setSpec>
    </header>
    <header>
      <identifier>oai:zenodo.org:277421</identifier>
      <datestamp>2017-02-08T21:07:00Z</datestamp>
      <setSpec>user-biosyslit</setSpec>
    </header>
    <header>
      <identifier>oai:zenodo.org:277523</identifier>
      <datestamp>2017-02-08T21:17:29Z</datestamp>
      <setSpec>user-biosyslit</setSpec>
    </header>
    <header>
      <identifier>oai:zenodo.org:278291</identifier>
      <datestamp>2017-02-08T22:47:20Z</datestamp>
      <setSpec>user-biosyslit</setSpec>
    </header>
    <header>
      <identifier>oai:zenodo.org:278695</identifier>
      <datestamp>2017-02-08T23:41:10Z</datestamp>
      <setSpec>user-biosyslit</setSpec>
    </header>
    <header>
      <identifier>oai:zenodo.org:279812</identifier>
      <datestamp>2017-02-09T02:05:37Z</datestamp>
      <setSpec>user-biosyslit</setSpec>
    </header>
    <header>
      <identifier>oai:zenodo.org:280397</identifier>
      <datestamp>2017-02-09T03:20:02Z</datestamp>
      <setSpec>user-biosyslit</setSpec>
    </header>
    <header>
      <identifier>oai:zenodo.org:282891</identifier>
      <datestamp>2017-02-09T07:48:31Z</datestamp>
      <setSpec>user-biosyslit</setSpec>
    </header>
    <header>
      <identifier>oai:zenodo.org:280967</identifier>
      <datestamp>2017-02-09T04:29:17Z</datestamp>
      <setSpec>user-biosyslit</setSpec>
    </header>
    <header>
      <identifier>oai:zenodo.org:282550</identifier>
      <datestamp>2017-02-09T07:12:21Z</datestamp>
      <setSpec>user-biosyslit</setSpec>
    </header>
    <header>
      <identifier>oai:zenodo.org:282019</identifier>
      <datestamp>2017-02-09T06:19:51Z</datestamp>
      <setSpec>user-biosyslit</setSpec>
    </header>
    <header>
      <identifier>oai:zenodo.org:283507</identifier>
      <datestamp>2017-02-09T09:06:17Z</datestamp>
      <setSpec>user-biosyslit</setSpec>
    </header>
    <header>
      <identifier>oai:zenodo.org:283848</identifier>
      <datestamp>2017-02-09T09:56:17Z</datestamp>
      <setSpec>user-biosyslit</setSpec>
    </header>
    <header>
      <identifier>oai:zenodo.org:283557</identifier>
      <datestamp>2017-02-09T09:11:05Z</datestamp>
      <setSpec>user-biosyslit</setSpec>
    </header>
    <header>
      <identifier>oai:zenodo.org:283778</identifier>
      <datestamp>2017-02-09T09:41:51Z</datestamp>
      <setSpec>user-biosyslit</setSpec>
    </header>
    <header>
      <identifier>oai:zenodo.org:284242</identifier>
      <datestamp>2017-02-09T10:45:47Z</datestamp>
      <setSpec>user-biosyslit</setSpec>
    </header>
    <header>
      <identifier>oai:zenodo.org:283658</identifier>
      <datestamp>2017-02-09T09:22:10Z</datestamp>
      <setSpec>user-biosyslit</setSpec>
    </header>
    <header>
      <identifier>oai:zenodo.org:283689</identifier>
      <datestamp>2017-02-09T09:27:55Z</datestamp>
      <setSpec>user-biosyslit</setSpec>
    </header>
    <header>
      <identifier>oai:zenodo.org:283744</identifier>
      <datestamp>2017-02-09T09:34:42Z</datestamp>
      <setSpec>user-biosyslit</setSpec>
    </header>
    <header>
      <identifier>oai:zenodo.org:284142</identifier>
      <datestamp>2017-02-09T10:33:00Z</datestamp>
      <setSpec>user-biosyslit</setSpec>
    </header>
    <header>
      <identifier>oai:zenodo.org:284072</identifier>
      <datestamp>2017-02-09T10:20:14Z</datestamp>
      <setSpec>user-biosyslit</setSpec>
    </header>
    <header>
      <identifier>oai:zenodo.org:284407</identifier>
      <datestamp>2017-02-09T11:10:57Z</datestamp>
      <setSpec>user-biosyslit</setSpec>
    </header>
    <header>
      <identifier>oai:zenodo.org:284389</identifier>
      <datestamp>2017-02-09T11:10:02Z</datestamp>
      <setSpec>user-biosyslit</setSpec>
    </header>
    <header>
      <identifier>oai:zenodo.org:286227</identifier>
      <datestamp>2017-02-09T15:33:38Z</datestamp>
      <setSpec>user-biosyslit</setSpec>
    </header>
    <header>
      <identifier>oai:zenodo.org:285567</identifier>
      <datestamp>2017-02-09T13:52:04Z</datestamp>
      <setSpec>user-biosyslit</setSpec>
    </header>
    <header>
      <identifier>oai:zenodo.org:285238</identifier>
      <datestamp>2017-02-09T13:04:47Z</datestamp>
      <setSpec>user-biosyslit</setSpec>
    </header>
    <header>
      <identifier>oai:zenodo.org:286823</identifier>
      <datestamp>2017-02-09T16:55:12Z</datestamp>
      <setSpec>user-biosyslit</setSpec>
    </header>
    <header>
      <identifier>oai:zenodo.org:285716</identifier>
      <datestamp>2017-02-09T14:11:03Z</datestamp>
      <setSpec>user-biosyslit</setSpec>
    </header>
    <header>
      <identifier>oai:zenodo.org:285770</identifier>
      <datestamp>2017-02-09T14:26:27Z</datestamp>
      <setSpec>user-biosyslit</setSpec>
    </header>
    <header>
      <identifier>oai:zenodo.org:285985</identifier>
      <datestamp>2017-02-09T14:59:37Z</datestamp>
      <setSpec>user-biosyslit</setSpec>
    </header>
    <header>
      <identifier>oai:zenodo.org:288220</identifier>
      <datestamp>2017-02-09T20:20:45Z</datestamp>
      <setSpec>user-biosyslit</setSpec>
    </header>
    <header>
      <identifier>oai:zenodo.org:286686</identifier>
      <datestamp>2017-02-09T16:33:03Z</datestamp>
      <setSpec>user-biosyslit</setSpec>
    </header>
    <header>
      <identifier>oai:zenodo.org:286658</identifier>
      <datestamp>2017-02-09T16:31:43Z</datestamp>
      <setSpec>user-biosyslit</setSpec>
    </header>
    <resumptionToken expirationDate="2017-08-31T15:45:38Z" cursor="40100" completeListSize="77796">.eJyNyssKgkAUANB_uWuJO44vhDZhiQsVnZRsE6Yi5mjhFOqE_56b1rU-5w2iqkqwcUN0w9KohpaGpo4GUUAUw53zS7MyFKeUFz1Pcjd9xV2KmVqbgSMm38loIFsMOyLZIVJPxJqSBufomDwzGU8p9UaGe9OX0RzcvPWVNHT5-eo-WNLvOFPLIdxHMyM7dqbF95E_n_z5HLEFBR55XYGtIVWgHfOhFmC_l-UDlNNRMA.DInAKg.3wfo9VpcmxQGuzTEkILRbeqCfGs</resumptionToken>
  </ListIdentifiers>
</OAI-PMH>
