<?xml version='1.0' encoding='UTF-8'?>
<?xml-stylesheet type="text/xsl" href="/static/xsl/oai2.v1.0.xsl"?>
<OAI-PMH xmlns="http://www.openarchives.org/OAI/2.0/" xmlns:xsi="http://www.w3.org/2001/XMLSchema-instance" xsi:schemaLocation="http://www.openarchives.org/OAI/2.0/ http://www.openarchives.org/OAI/2.0/OAI-PMH.xsd">
  <responseDate>2017-08-31T15:41:31Z</responseDate>
  <request verb="ListIdentifiers" resumptionToken=".eJyNysEKgjAYAOB3-c8Sv86cCl3CEg8qtibZJUxFzGniinTRu9elc52_7wmyqkpwcbFE0zTRttCh1FlajgayGK9CnJoPQ3FIRdELnvvpfdelmBk1jTw5hV5GItVi3OmKbRPjoNsTb3BO9vyWqd2UkuDBcENDlczRJfi8ksS-OJ79gfF-LZhRjvEmmZm-ZkdSfJ_-51M_nydXoMGQ1xW41NagfeRjLcF9vl5vWPdRHQ.DIm_qw.kp_UDCMnH8nIN_Un1QKCyrIgvPM">https://zenodo.org/oai2d</request>
  <ListIdentifiers>
    <header>
      <identifier>oai:zenodo.org:399166</identifier>
      <datestamp>2017-03-15T09:00:46Z</datestamp>
      <setSpec>user-biosyslit</setSpec>
    </header>
    <header>
      <identifier>oai:zenodo.org:281793</identifier>
      <datestamp>2017-02-09T05:55:53Z</datestamp>
      <setSpec>user-biosyslit</setSpec>
    </header>
    <header>
      <identifier>oai:zenodo.org:281778</identifier>
      <datestamp>2017-02-09T05:54:12Z</datestamp>
      <setSpec>user-biosyslit</setSpec>
    </header>
    <header>
      <identifier>oai:zenodo.org:376151</identifier>
      <datestamp>2017-03-09T12:31:12Z</datestamp>
      <setSpec>user-biosyslit</setSpec>
    </header>
    <header>
      <identifier>oai:zenodo.org:161132</identifier>
      <datestamp>2017-03-15T16:01:15Z</datestamp>
      <setSpec>openaire</setSpec>
      <setSpec>user-biosyslit</setSpec>
    </header>
    <header>
      <identifier>oai:zenodo.org:375455</identifier>
      <datestamp>2017-03-07T08:14:02Z</datestamp>
      <setSpec>user-biosyslit</setSpec>
    </header>
    <header>
      <identifier>oai:zenodo.org:375758</identifier>
      <datestamp>2017-03-08T08:22:00Z</datestamp>
      <setSpec>user-biosyslit</setSpec>
    </header>
    <header>
      <identifier>oai:zenodo.org:376052</identifier>
      <datestamp>2017-03-09T09:17:14Z</datestamp>
      <setSpec>user-biosyslit</setSpec>
    </header>
    <header>
      <identifier>oai:zenodo.org:376467</identifier>
      <datestamp>2017-03-10T09:40:13Z</datestamp>
      <setSpec>user-biosyslit</setSpec>
    </header>
    <header>
      <identifier>oai:zenodo.org:376023</identifier>
      <datestamp>2017-03-09T08:51:44Z</datestamp>
      <setSpec>user-biosyslit</setSpec>
    </header>
    <header>
      <identifier>oai:zenodo.org:582792</identifier>
      <datestamp>2017-05-24T08:40:38Z</datestamp>
      <setSpec>user-biosyslit</setSpec>
    </header>
    <header>
      <identifier>oai:zenodo.org:283342</identifier>
      <datestamp>2017-02-09T08:37:11Z</datestamp>
      <setSpec>user-biosyslit</setSpec>
    </header>
    <header>
      <identifier>oai:zenodo.org:375485</identifier>
      <datestamp>2017-03-07T08:20:54Z</datestamp>
      <setSpec>user-biosyslit</setSpec>
    </header>
    <header>
      <identifier>oai:zenodo.org:375883</identifier>
      <datestamp>2017-03-08T13:24:31Z</datestamp>
      <setSpec>user-biosyslit</setSpec>
    </header>
    <header>
      <identifier>oai:zenodo.org:376896</identifier>
      <datestamp>2017-03-13T08:16:05Z</datestamp>
      <setSpec>user-biosyslit</setSpec>
    </header>
    <header>
      <identifier>oai:zenodo.org:583360</identifier>
      <datestamp>2017-05-26T07:20:52Z</datestamp>
      <setSpec>user-biosyslit</setSpec>
    </header>
    <header>
      <identifier>oai:zenodo.org:282384</identifier>
      <datestamp>2017-02-09T06:55:04Z</datestamp>
      <setSpec>user-biosyslit</setSpec>
    </header>
    <header>
      <identifier>oai:zenodo.org:584057</identifier>
      <datestamp>2017-05-29T13:54:08Z</datestamp>
      <setSpec>user-biosyslit</setSpec>
    </header>
    <header>
      <identifier>oai:zenodo.org:282844</identifier>
      <datestamp>2017-02-09T07:42:45Z</datestamp>
      <setSpec>user-biosyslit</setSpec>
    </header>
    <header>
      <identifier>oai:zenodo.org:282896</identifier>
      <datestamp>2017-02-09T07:48:26Z</datestamp>
      <setSpec>user-biosyslit</setSpec>
    </header>
    <header>
      <identifier>oai:zenodo.org:283447</identifier>
      <datestamp>2017-02-09T08:55:08Z</datestamp>
      <setSpec>user-biosyslit</setSpec>
    </header>
    <header>
      <identifier>oai:zenodo.org:283659</identifier>
      <datestamp>2017-02-09T09:22:12Z</datestamp>
      <setSpec>user-biosyslit</setSpec>
    </header>
    <header>
      <identifier>oai:zenodo.org:226991</identifier>
      <datestamp>2017-01-01T07:47:27Z</datestamp>
      <setSpec>user-biosyslit</setSpec>
    </header>
    <header>
      <identifier>oai:zenodo.org:398949</identifier>
      <datestamp>2017-03-14T21:07:39Z</datestamp>
      <setSpec>user-biosyslit</setSpec>
    </header>
    <header>
      <identifier>oai:zenodo.org:399427</identifier>
      <datestamp>2017-03-15T20:55:33Z</datestamp>
      <setSpec>user-biosyslit</setSpec>
    </header>
    <header>
      <identifier>oai:zenodo.org:399580</identifier>
      <datestamp>2017-03-15T22:57:46Z</datestamp>
      <setSpec>user-biosyslit</setSpec>
    </header>
    <header>
      <identifier>oai:zenodo.org:398884</identifier>
      <datestamp>2017-03-14T21:02:09Z</datestamp>
      <setSpec>user-biosyslit</setSpec>
    </header>
    <header>
      <identifier>oai:zenodo.org:399846</identifier>
      <datestamp>2017-03-16T01:28:38Z</datestamp>
      <setSpec>user-biosyslit</setSpec>
    </header>
    <header>
      <identifier>oai:zenodo.org:399616</identifier>
      <datestamp>2017-03-15T22:59:49Z</datestamp>
      <setSpec>user-biosyslit</setSpec>
    </header>
    <header>
      <identifier>oai:zenodo.org:399967</identifier>
      <datestamp>2017-03-16T01:42:07Z</datestamp>
      <setSpec>user-biosyslit</setSpec>
    </header>
    <header>
      <identifier>oai:zenodo.org:399635</identifier>
      <datestamp>2017-03-15T23:04:56Z</datestamp>
      <setSpec>user-biosyslit</setSpec>
    </header>
    <header>
      <identifier>oai:zenodo.org:399847</identifier>
      <datestamp>2017-03-16T01:28:40Z</datestamp>
      <setSpec>user-biosyslit</setSpec>
    </header>
    <header>
      <identifier>oai:zenodo.org:400728</identifier>
      <datestamp>2017-03-19T12:05:53Z</datestamp>
      <setSpec>user-biosyslit</setSpec>
    </header>
    <header>
      <identifier>oai:zenodo.org:400043</identifier>
      <datestamp>2017-03-16T07:31:17Z</datestamp>
      <setSpec>user-biosyslit</setSpec>
    </header>
    <header>
      <identifier>oai:zenodo.org:283738</identifier>
      <datestamp>2017-02-09T09:34:05Z</datestamp>
      <setSpec>user-biosyslit</setSpec>
    </header>
    <header>
      <identifier>oai:zenodo.org:400142</identifier>
      <datestamp>2017-03-16T08:49:42Z</datestamp>
      <setSpec>user-biosyslit</setSpec>
    </header>
    <header>
      <identifier>oai:zenodo.org:400444</identifier>
      <datestamp>2017-03-17T08:35:41Z</datestamp>
      <setSpec>user-biosyslit</setSpec>
    </header>
    <header>
      <identifier>oai:zenodo.org:283047</identifier>
      <datestamp>2017-02-09T08:04:13Z</datestamp>
      <setSpec>user-biosyslit</setSpec>
    </header>
    <header>
      <identifier>oai:zenodo.org:399586</identifier>
      <datestamp>2017-03-15T22:58:10Z</datestamp>
      <setSpec>user-biosyslit</setSpec>
    </header>
    <header>
      <identifier>oai:zenodo.org:282948</identifier>
      <datestamp>2017-02-09T07:54:38Z</datestamp>
      <setSpec>user-biosyslit</setSpec>
    </header>
    <header>
      <identifier>oai:zenodo.org:399399</identifier>
      <datestamp>2017-03-15T20:52:11Z</datestamp>
      <setSpec>user-biosyslit</setSpec>
    </header>
    <header>
      <identifier>oai:zenodo.org:398737</identifier>
      <datestamp>2017-03-14T09:00:29Z</datestamp>
      <setSpec>user-biosyslit</setSpec>
    </header>
    <header>
      <identifier>oai:zenodo.org:399444</identifier>
      <datestamp>2017-03-15T20:56:19Z</datestamp>
      <setSpec>user-biosyslit</setSpec>
    </header>
    <header>
      <identifier>oai:zenodo.org:399597</identifier>
      <datestamp>2017-03-15T22:58:42Z</datestamp>
      <setSpec>user-biosyslit</setSpec>
    </header>
    <header>
      <identifier>oai:zenodo.org:399464</identifier>
      <datestamp>2017-03-15T21:06:24Z</datestamp>
      <setSpec>user-biosyslit</setSpec>
    </header>
    <header>
      <identifier>oai:zenodo.org:399732</identifier>
      <datestamp>2017-03-15T23:27:02Z</datestamp>
      <setSpec>user-biosyslit</setSpec>
    </header>
    <header>
      <identifier>oai:zenodo.org:400449</identifier>
      <datestamp>2017-03-17T08:53:31Z</datestamp>
      <setSpec>user-biosyslit</setSpec>
    </header>
    <header>
      <identifier>oai:zenodo.org:400479</identifier>
      <datestamp>2017-03-17T09:17:13Z</datestamp>
      <setSpec>user-biosyslit</setSpec>
    </header>
    <header>
      <identifier>oai:zenodo.org:399435</identifier>
      <datestamp>2017-03-15T20:55:53Z</datestamp>
      <setSpec>user-biosyslit</setSpec>
    </header>
    <header>
      <identifier>oai:zenodo.org:400125</identifier>
      <datestamp>2017-03-16T08:48:57Z</datestamp>
      <setSpec>user-biosyslit</setSpec>
    </header>
    <header>
      <identifier>oai:zenodo.org:399677</identifier>
      <datestamp>2017-03-15T23:15:28Z</datestamp>
      <setSpec>user-biosyslit</setSpec>
    </header>
    <header>
      <identifier>oai:zenodo.org:399920</identifier>
      <datestamp>2017-03-16T01:32:24Z</datestamp>
      <setSpec>user-biosyslit</setSpec>
    </header>
    <header>
      <identifier>oai:zenodo.org:400331</identifier>
      <datestamp>2017-03-16T19:13:40Z</datestamp>
      <setSpec>user-biosyslit</setSpec>
    </header>
    <header>
      <identifier>oai:zenodo.org:400653</identifier>
      <datestamp>2017-03-18T17:19:26Z</datestamp>
      <setSpec>user-biosyslit</setSpec>
    </header>
    <header>
      <identifier>oai:zenodo.org:400895</identifier>
      <datestamp>2017-03-20T09:35:45Z</datestamp>
      <setSpec>user-biosyslit</setSpec>
    </header>
    <header>
      <identifier>oai:zenodo.org:400874</identifier>
      <datestamp>2017-03-20T08:47:10Z</datestamp>
      <setSpec>user-biosyslit</setSpec>
    </header>
    <header>
      <identifier>oai:zenodo.org:283699</identifier>
      <datestamp>2017-02-09T09:28:50Z</datestamp>
      <setSpec>user-biosyslit</setSpec>
    </header>
    <header>
      <identifier>oai:zenodo.org:283751</identifier>
      <datestamp>2017-02-09T09:35:01Z</datestamp>
      <setSpec>user-biosyslit</setSpec>
    </header>
    <header>
      <identifier>oai:zenodo.org:284347</identifier>
      <datestamp>2017-02-09T11:05:21Z</datestamp>
      <setSpec>user-biosyslit</setSpec>
    </header>
    <header>
      <identifier>oai:zenodo.org:400045</identifier>
      <datestamp>2017-03-16T07:31:21Z</datestamp>
      <setSpec>user-biosyslit</setSpec>
    </header>
    <header>
      <identifier>oai:zenodo.org:399430</identifier>
      <datestamp>2017-03-15T20:55:41Z</datestamp>
      <setSpec>user-biosyslit</setSpec>
    </header>
    <header>
      <identifier>oai:zenodo.org:400188</identifier>
      <datestamp>2017-03-16T09:22:47Z</datestamp>
      <setSpec>user-biosyslit</setSpec>
    </header>
    <header>
      <identifier>oai:zenodo.org:400216</identifier>
      <datestamp>2017-03-16T09:54:09Z</datestamp>
      <setSpec>user-biosyslit</setSpec>
    </header>
    <header>
      <identifier>oai:zenodo.org:399799</identifier>
      <datestamp>2017-03-15T23:58:09Z</datestamp>
      <setSpec>user-biosyslit</setSpec>
    </header>
    <header>
      <identifier>oai:zenodo.org:400474</identifier>
      <datestamp>2017-03-17T09:17:04Z</datestamp>
      <setSpec>user-biosyslit</setSpec>
    </header>
    <header>
      <identifier>oai:zenodo.org:399116</identifier>
      <datestamp>2017-03-15T08:26:34Z</datestamp>
      <setSpec>user-biosyslit</setSpec>
    </header>
    <header>
      <identifier>oai:zenodo.org:399424</identifier>
      <datestamp>2017-03-15T20:55:27Z</datestamp>
      <setSpec>user-biosyslit</setSpec>
    </header>
    <header>
      <identifier>oai:zenodo.org:400450</identifier>
      <datestamp>2017-03-17T08:53:34Z</datestamp>
      <setSpec>user-biosyslit</setSpec>
    </header>
    <header>
      <identifier>oai:zenodo.org:399790</identifier>
      <datestamp>2017-03-15T23:57:47Z</datestamp>
      <setSpec>user-biosyslit</setSpec>
    </header>
    <header>
      <identifier>oai:zenodo.org:400050</identifier>
      <datestamp>2017-03-16T07:31:32Z</datestamp>
      <setSpec>user-biosyslit</setSpec>
    </header>
    <header>
      <identifier>oai:zenodo.org:400361</identifier>
      <datestamp>2017-03-16T22:03:14Z</datestamp>
      <setSpec>user-biosyslit</setSpec>
    </header>
    <header>
      <identifier>oai:zenodo.org:400873</identifier>
      <datestamp>2017-03-20T08:47:06Z</datestamp>
      <setSpec>user-biosyslit</setSpec>
    </header>
    <header>
      <identifier>oai:zenodo.org:283204</identifier>
      <datestamp>2017-02-09T08:21:40Z</datestamp>
      <setSpec>user-biosyslit</setSpec>
    </header>
    <header>
      <identifier>oai:zenodo.org:283979</identifier>
      <datestamp>2017-02-09T10:09:08Z</datestamp>
      <setSpec>user-biosyslit</setSpec>
    </header>
    <header>
      <identifier>oai:zenodo.org:283313</identifier>
      <datestamp>2017-02-09T08:35:11Z</datestamp>
      <setSpec>user-biosyslit</setSpec>
    </header>
    <header>
      <identifier>oai:zenodo.org:400148</identifier>
      <datestamp>2017-03-16T08:49:59Z</datestamp>
      <setSpec>user-biosyslit</setSpec>
    </header>
    <header>
      <identifier>oai:zenodo.org:399357</identifier>
      <datestamp>2017-03-15T20:01:47Z</datestamp>
      <setSpec>user-biosyslit</setSpec>
    </header>
    <header>
      <identifier>oai:zenodo.org:400051</identifier>
      <datestamp>2017-03-16T07:31:35Z</datestamp>
      <setSpec>user-biosyslit</setSpec>
    </header>
    <header>
      <identifier>oai:zenodo.org:399541</identifier>
      <datestamp>2017-03-15T22:42:58Z</datestamp>
      <setSpec>user-biosyslit</setSpec>
    </header>
    <header>
      <identifier>oai:zenodo.org:400127</identifier>
      <datestamp>2017-03-16T08:49:03Z</datestamp>
      <setSpec>user-biosyslit</setSpec>
    </header>
    <header>
      <identifier>oai:zenodo.org:400054</identifier>
      <datestamp>2017-03-16T07:31:46Z</datestamp>
      <setSpec>user-biosyslit</setSpec>
    </header>
    <header>
      <identifier>oai:zenodo.org:399716</identifier>
      <datestamp>2017-03-15T23:26:13Z</datestamp>
      <setSpec>user-biosyslit</setSpec>
    </header>
    <header>
      <identifier>oai:zenodo.org:400907</identifier>
      <datestamp>2017-03-20T09:53:40Z</datestamp>
      <setSpec>user-biosyslit</setSpec>
    </header>
    <header>
      <identifier>oai:zenodo.org:399927</identifier>
      <datestamp>2017-03-16T01:32:45Z</datestamp>
      <setSpec>user-biosyslit</setSpec>
    </header>
    <header>
      <identifier>oai:zenodo.org:400161</identifier>
      <datestamp>2017-03-16T09:17:16Z</datestamp>
      <setSpec>user-biosyslit</setSpec>
    </header>
    <header>
      <identifier>oai:zenodo.org:400727</identifier>
      <datestamp>2017-03-19T11:23:33Z</datestamp>
      <setSpec>user-biosyslit</setSpec>
    </header>
    <header>
      <identifier>oai:zenodo.org:400354</identifier>
      <datestamp>2017-03-16T20:39:43Z</datestamp>
      <setSpec>user-biosyslit</setSpec>
    </header>
    <header>
      <identifier>oai:zenodo.org:283899</identifier>
      <datestamp>2017-02-09T10:01:42Z</datestamp>
      <setSpec>user-biosyslit</setSpec>
    </header>
    <header>
      <identifier>oai:zenodo.org:283413</identifier>
      <datestamp>2017-02-09T08:51:39Z</datestamp>
      <setSpec>user-biosyslit</setSpec>
    </header>
    <header>
      <identifier>oai:zenodo.org:283052</identifier>
      <datestamp>2017-02-09T08:04:42Z</datestamp>
      <setSpec>user-biosyslit</setSpec>
    </header>
    <header>
      <identifier>oai:zenodo.org:284008</identifier>
      <datestamp>2017-02-09T10:10:30Z</datestamp>
      <setSpec>user-biosyslit</setSpec>
    </header>
    <header>
      <identifier>oai:zenodo.org:399686</identifier>
      <datestamp>2017-03-15T23:24:55Z</datestamp>
      <setSpec>user-biosyslit</setSpec>
    </header>
    <header>
      <identifier>oai:zenodo.org:399615</identifier>
      <datestamp>2017-03-15T22:59:46Z</datestamp>
      <setSpec>user-biosyslit</setSpec>
    </header>
    <header>
      <identifier>oai:zenodo.org:398707</identifier>
      <datestamp>2017-03-14T08:46:41Z</datestamp>
      <setSpec>user-biosyslit</setSpec>
    </header>
    <header>
      <identifier>oai:zenodo.org:399379</identifier>
      <datestamp>2017-03-15T20:26:15Z</datestamp>
      <setSpec>user-biosyslit</setSpec>
    </header>
    <header>
      <identifier>oai:zenodo.org:400104</identifier>
      <datestamp>2017-03-16T08:22:34Z</datestamp>
      <setSpec>user-biosyslit</setSpec>
    </header>
    <header>
      <identifier>oai:zenodo.org:400177</identifier>
      <datestamp>2017-03-16T09:22:11Z</datestamp>
      <setSpec>user-biosyslit</setSpec>
    </header>
    <header>
      <identifier>oai:zenodo.org:284351</identifier>
      <datestamp>2017-02-09T11:05:34Z</datestamp>
      <setSpec>user-biosyslit</setSpec>
    </header>
    <header>
      <identifier>oai:zenodo.org:283784</identifier>
      <datestamp>2017-02-09T09:42:53Z</datestamp>
      <setSpec>user-biosyslit</setSpec>
    </header>
    <header>
      <identifier>oai:zenodo.org:400401</identifier>
      <datestamp>2017-03-17T08:12:56Z</datestamp>
      <setSpec>user-biosyslit</setSpec>
    </header>
    <resumptionToken expirationDate="2017-08-31T15:43:31Z" cursor="7700" completeListSize="77796">.eJyNyj0LgkAYAOD_8s4S96FdCi2iiUOKXUq6hKmIeVZ4RXrif8-luebnmUBWVQkWWhnYZLq-IYxQA9O1BrLo70Kcm0WhOCWiuIk495LXoUtQSmoWOHLYOykNVIvCDiu-i8gJb4a4QWN0jJ-pOgwJ9d8cuWyvojG4-ssraeiJ7OI9eHyzBSdlH7rRyLHNM1p8H_7zqZ_PkVvQ4JHXFVjM1KB9530twZrm-QMag1De.DIm_qw.SNc9QuTZGjxjRw7vrNOoxmaNccg</resumptionToken>
  </ListIdentifiers>
</OAI-PMH>
