<?xml version='1.0' encoding='UTF-8'?>
<?xml-stylesheet type="text/xsl" href="/static/xsl/oai2.v1.0.xsl"?>
<OAI-PMH xmlns="http://www.openarchives.org/OAI/2.0/" xmlns:xsi="http://www.w3.org/2001/XMLSchema-instance" xsi:schemaLocation="http://www.openarchives.org/OAI/2.0/ http://www.openarchives.org/OAI/2.0/OAI-PMH.xsd">
  <responseDate>2017-08-31T15:44:16Z</responseDate>
  <request verb="ListIdentifiers" resumptionToken=".eJyNyj0PQ0AYAOD_8s7S3PmOpItQMSBcCZZGEVFHxbXBif9eS-d2fp4NWF1XYKCTjDRNUTASZVVFGAvAyulJ6a09FMo0oeVA48JJ3lGfoExsNN9ii2dlks87FPSYk0soplhf4hat4TV-ZTxaEsmdCbI1j4er_3CPV0mBQ_O7M5J4MCkRqymww5Vgk-RS-X34z8d_PoudQYCxaGowZF0RoJuLqWFgbPv-AVjjUP0.DInAUA.mnCBI9SpURAXF3C5BzEn91ODbx4">https://zenodo.org/oai2d</request>
  <ListIdentifiers>
    <header>
      <identifier>oai:zenodo.org:232156</identifier>
      <datestamp>2017-01-06T11:45:13Z</datestamp>
      <setSpec>user-biosyslit</setSpec>
    </header>
    <header>
      <identifier>oai:zenodo.org:232514</identifier>
      <datestamp>2017-01-06T18:56:02Z</datestamp>
      <setSpec>user-biosyslit</setSpec>
    </header>
    <header>
      <identifier>oai:zenodo.org:232174</identifier>
      <datestamp>2017-01-06T12:56:14Z</datestamp>
      <setSpec>user-biosyslit</setSpec>
    </header>
    <header>
      <identifier>oai:zenodo.org:232258</identifier>
      <datestamp>2017-01-06T14:49:36Z</datestamp>
      <setSpec>user-biosyslit</setSpec>
    </header>
    <header>
      <identifier>oai:zenodo.org:232829</identifier>
      <datestamp>2017-01-06T23:42:08Z</datestamp>
      <setSpec>user-biosyslit</setSpec>
    </header>
    <header>
      <identifier>oai:zenodo.org:232199</identifier>
      <datestamp>2017-01-06T12:57:35Z</datestamp>
      <setSpec>user-biosyslit</setSpec>
    </header>
    <header>
      <identifier>oai:zenodo.org:270469</identifier>
      <datestamp>2017-02-07T23:16:57Z</datestamp>
      <setSpec>user-biosyslit</setSpec>
    </header>
    <header>
      <identifier>oai:zenodo.org:232363</identifier>
      <datestamp>2017-01-06T16:36:18Z</datestamp>
      <setSpec>user-biosyslit</setSpec>
    </header>
    <header>
      <identifier>oai:zenodo.org:232571</identifier>
      <datestamp>2017-01-06T19:58:08Z</datestamp>
      <setSpec>user-biosyslit</setSpec>
    </header>
    <header>
      <identifier>oai:zenodo.org:234340</identifier>
      <datestamp>2017-01-08T18:34:53Z</datestamp>
      <setSpec>user-biosyslit</setSpec>
    </header>
    <header>
      <identifier>oai:zenodo.org:232691</identifier>
      <datestamp>2017-01-06T21:38:06Z</datestamp>
      <setSpec>user-biosyslit</setSpec>
    </header>
    <header>
      <identifier>oai:zenodo.org:232654</identifier>
      <datestamp>2017-01-06T21:08:15Z</datestamp>
      <setSpec>user-biosyslit</setSpec>
    </header>
    <header>
      <identifier>oai:zenodo.org:233831</identifier>
      <datestamp>2017-01-08T12:23:08Z</datestamp>
      <setSpec>user-biosyslit</setSpec>
    </header>
    <header>
      <identifier>oai:zenodo.org:232712</identifier>
      <datestamp>2017-01-06T21:55:45Z</datestamp>
      <setSpec>user-biosyslit</setSpec>
    </header>
    <header>
      <identifier>oai:zenodo.org:233368</identifier>
      <datestamp>2017-01-08T04:02:23Z</datestamp>
      <setSpec>user-biosyslit</setSpec>
    </header>
    <header>
      <identifier>oai:zenodo.org:234345</identifier>
      <datestamp>2017-01-08T18:35:11Z</datestamp>
      <setSpec>user-biosyslit</setSpec>
    </header>
    <header>
      <identifier>oai:zenodo.org:233174</identifier>
      <datestamp>2017-01-08T01:39:42Z</datestamp>
      <setSpec>user-biosyslit</setSpec>
    </header>
    <header>
      <identifier>oai:zenodo.org:234021</identifier>
      <datestamp>2017-01-08T14:04:37Z</datestamp>
      <setSpec>user-biosyslit</setSpec>
    </header>
    <header>
      <identifier>oai:zenodo.org:233210</identifier>
      <datestamp>2017-01-08T02:12:40Z</datestamp>
      <setSpec>user-biosyslit</setSpec>
    </header>
    <header>
      <identifier>oai:zenodo.org:234685</identifier>
      <datestamp>2017-01-08T23:56:27Z</datestamp>
      <setSpec>user-biosyslit</setSpec>
    </header>
    <header>
      <identifier>oai:zenodo.org:234743</identifier>
      <datestamp>2017-01-09T01:42:52Z</datestamp>
      <setSpec>user-biosyslit</setSpec>
    </header>
    <header>
      <identifier>oai:zenodo.org:270518</identifier>
      <datestamp>2017-02-07T23:24:22Z</datestamp>
      <setSpec>user-biosyslit</setSpec>
    </header>
    <header>
      <identifier>oai:zenodo.org:233760</identifier>
      <datestamp>2017-01-08T11:28:38Z</datestamp>
      <setSpec>user-biosyslit</setSpec>
    </header>
    <header>
      <identifier>oai:zenodo.org:270991</identifier>
      <datestamp>2017-02-08T00:33:42Z</datestamp>
      <setSpec>user-biosyslit</setSpec>
    </header>
    <header>
      <identifier>oai:zenodo.org:234838</identifier>
      <datestamp>2017-01-09T02:40:12Z</datestamp>
      <setSpec>user-biosyslit</setSpec>
    </header>
    <header>
      <identifier>oai:zenodo.org:233800</identifier>
      <datestamp>2017-01-08T11:53:52Z</datestamp>
      <setSpec>user-biosyslit</setSpec>
    </header>
    <header>
      <identifier>oai:zenodo.org:234845</identifier>
      <datestamp>2017-01-09T02:40:34Z</datestamp>
      <setSpec>user-biosyslit</setSpec>
    </header>
    <header>
      <identifier>oai:zenodo.org:234472</identifier>
      <datestamp>2017-01-08T20:30:26Z</datestamp>
      <setSpec>user-biosyslit</setSpec>
    </header>
    <header>
      <identifier>oai:zenodo.org:270567</identifier>
      <datestamp>2017-02-07T23:30:33Z</datestamp>
      <setSpec>user-biosyslit</setSpec>
    </header>
    <header>
      <identifier>oai:zenodo.org:270652</identifier>
      <datestamp>2017-02-07T23:41:47Z</datestamp>
      <setSpec>user-biosyslit</setSpec>
    </header>
    <header>
      <identifier>oai:zenodo.org:235330</identifier>
      <datestamp>2017-01-09T08:50:26Z</datestamp>
      <setSpec>user-biosyslit</setSpec>
    </header>
    <header>
      <identifier>oai:zenodo.org:235924</identifier>
      <datestamp>2017-01-09T16:56:04Z</datestamp>
      <setSpec>user-biosyslit</setSpec>
    </header>
    <header>
      <identifier>oai:zenodo.org:236229</identifier>
      <datestamp>2017-01-09T20:00:23Z</datestamp>
      <setSpec>user-biosyslit</setSpec>
    </header>
    <header>
      <identifier>oai:zenodo.org:237142</identifier>
      <datestamp>2017-01-10T11:24:57Z</datestamp>
      <setSpec>user-biosyslit</setSpec>
    </header>
    <header>
      <identifier>oai:zenodo.org:234857</identifier>
      <datestamp>2017-01-09T02:57:00Z</datestamp>
      <setSpec>user-biosyslit</setSpec>
    </header>
    <header>
      <identifier>oai:zenodo.org:236341</identifier>
      <datestamp>2017-01-09T22:53:34Z</datestamp>
      <setSpec>user-biosyslit</setSpec>
    </header>
    <header>
      <identifier>oai:zenodo.org:270792</identifier>
      <datestamp>2017-02-07T23:56:24Z</datestamp>
      <setSpec>user-biosyslit</setSpec>
    </header>
    <header>
      <identifier>oai:zenodo.org:235533</identifier>
      <datestamp>2017-01-09T11:33:52Z</datestamp>
      <setSpec>user-biosyslit</setSpec>
    </header>
    <header>
      <identifier>oai:zenodo.org:235791</identifier>
      <datestamp>2017-01-09T15:05:14Z</datestamp>
      <setSpec>user-biosyslit</setSpec>
    </header>
    <header>
      <identifier>oai:zenodo.org:235738</identifier>
      <datestamp>2017-01-09T14:16:53Z</datestamp>
      <setSpec>user-biosyslit</setSpec>
    </header>
    <header>
      <identifier>oai:zenodo.org:235001</identifier>
      <datestamp>2017-01-09T04:28:47Z</datestamp>
      <setSpec>user-biosyslit</setSpec>
    </header>
    <header>
      <identifier>oai:zenodo.org:236673</identifier>
      <datestamp>2017-01-10T02:44:59Z</datestamp>
      <setSpec>user-biosyslit</setSpec>
    </header>
    <header>
      <identifier>oai:zenodo.org:236012</identifier>
      <datestamp>2017-01-09T17:49:28Z</datestamp>
      <setSpec>user-biosyslit</setSpec>
    </header>
    <header>
      <identifier>oai:zenodo.org:236458</identifier>
      <datestamp>2017-01-10T00:26:12Z</datestamp>
      <setSpec>user-biosyslit</setSpec>
    </header>
    <header>
      <identifier>oai:zenodo.org:236641</identifier>
      <datestamp>2017-01-10T02:23:38Z</datestamp>
      <setSpec>user-biosyslit</setSpec>
    </header>
    <header>
      <identifier>oai:zenodo.org:237138</identifier>
      <datestamp>2017-01-10T11:24:42Z</datestamp>
      <setSpec>user-biosyslit</setSpec>
    </header>
    <header>
      <identifier>oai:zenodo.org:236407</identifier>
      <datestamp>2017-01-09T23:49:48Z</datestamp>
      <setSpec>user-biosyslit</setSpec>
    </header>
    <header>
      <identifier>oai:zenodo.org:236812</identifier>
      <datestamp>2017-01-10T05:59:14Z</datestamp>
      <setSpec>user-biosyslit</setSpec>
    </header>
    <header>
      <identifier>oai:zenodo.org:235937</identifier>
      <datestamp>2017-01-09T16:56:36Z</datestamp>
      <setSpec>user-biosyslit</setSpec>
    </header>
    <header>
      <identifier>oai:zenodo.org:237136</identifier>
      <datestamp>2017-01-10T11:24:37Z</datestamp>
      <setSpec>user-biosyslit</setSpec>
    </header>
    <header>
      <identifier>oai:zenodo.org:237216</identifier>
      <datestamp>2017-01-10T12:08:42Z</datestamp>
      <setSpec>user-biosyslit</setSpec>
    </header>
    <header>
      <identifier>oai:zenodo.org:236686</identifier>
      <datestamp>2017-01-10T02:53:04Z</datestamp>
      <setSpec>user-biosyslit</setSpec>
    </header>
    <header>
      <identifier>oai:zenodo.org:237564</identifier>
      <datestamp>2017-01-10T17:06:15Z</datestamp>
      <setSpec>user-biosyslit</setSpec>
    </header>
    <header>
      <identifier>oai:zenodo.org:237881</identifier>
      <datestamp>2017-01-10T22:06:04Z</datestamp>
      <setSpec>user-biosyslit</setSpec>
    </header>
    <header>
      <identifier>oai:zenodo.org:237485</identifier>
      <datestamp>2017-01-10T16:05:22Z</datestamp>
      <setSpec>user-biosyslit</setSpec>
    </header>
    <header>
      <identifier>oai:zenodo.org:237346</identifier>
      <datestamp>2017-01-10T14:34:05Z</datestamp>
      <setSpec>user-biosyslit</setSpec>
    </header>
    <header>
      <identifier>oai:zenodo.org:238346</identifier>
      <datestamp>2017-01-11T04:33:19Z</datestamp>
      <setSpec>user-biosyslit</setSpec>
    </header>
    <header>
      <identifier>oai:zenodo.org:237549</identifier>
      <datestamp>2017-01-10T16:57:12Z</datestamp>
      <setSpec>user-biosyslit</setSpec>
    </header>
    <header>
      <identifier>oai:zenodo.org:237792</identifier>
      <datestamp>2017-01-10T20:48:44Z</datestamp>
      <setSpec>user-biosyslit</setSpec>
    </header>
    <header>
      <identifier>oai:zenodo.org:237331</identifier>
      <datestamp>2017-01-10T14:23:52Z</datestamp>
      <setSpec>user-biosyslit</setSpec>
    </header>
    <header>
      <identifier>oai:zenodo.org:237479</identifier>
      <datestamp>2017-01-10T16:05:23Z</datestamp>
      <setSpec>user-biosyslit</setSpec>
    </header>
    <header>
      <identifier>oai:zenodo.org:237875</identifier>
      <datestamp>2017-01-10T22:05:31Z</datestamp>
      <setSpec>user-biosyslit</setSpec>
    </header>
    <header>
      <identifier>oai:zenodo.org:237273</identifier>
      <datestamp>2017-01-10T13:51:20Z</datestamp>
      <setSpec>user-biosyslit</setSpec>
    </header>
    <header>
      <identifier>oai:zenodo.org:237836</identifier>
      <datestamp>2017-01-10T21:21:27Z</datestamp>
      <setSpec>user-biosyslit</setSpec>
    </header>
    <header>
      <identifier>oai:zenodo.org:239663</identifier>
      <datestamp>2017-01-11T23:27:39Z</datestamp>
      <setSpec>user-biosyslit</setSpec>
    </header>
    <header>
      <identifier>oai:zenodo.org:239258</identifier>
      <datestamp>2017-01-11T18:46:57Z</datestamp>
      <setSpec>user-biosyslit</setSpec>
    </header>
    <header>
      <identifier>oai:zenodo.org:230303</identifier>
      <datestamp>2017-01-04T22:32:34Z</datestamp>
      <setSpec>user-biosyslit</setSpec>
    </header>
    <header>
      <identifier>oai:zenodo.org:229934</identifier>
      <datestamp>2017-01-06T11:05:42Z</datestamp>
      <setSpec>openaire</setSpec>
      <setSpec>user-biosyslit</setSpec>
    </header>
    <header>
      <identifier>oai:zenodo.org:230400</identifier>
      <datestamp>2017-01-05T00:17:22Z</datestamp>
      <setSpec>user-biosyslit</setSpec>
    </header>
    <header>
      <identifier>oai:zenodo.org:230972</identifier>
      <datestamp>2017-01-05T11:48:37Z</datestamp>
      <setSpec>user-biosyslit</setSpec>
    </header>
    <header>
      <identifier>oai:zenodo.org:270803</identifier>
      <datestamp>2017-02-07T23:56:51Z</datestamp>
      <setSpec>user-biosyslit</setSpec>
    </header>
    <header>
      <identifier>oai:zenodo.org:230988</identifier>
      <datestamp>2017-01-05T12:00:36Z</datestamp>
      <setSpec>user-biosyslit</setSpec>
    </header>
    <header>
      <identifier>oai:zenodo.org:229881</identifier>
      <datestamp>2017-01-06T11:06:05Z</datestamp>
      <setSpec>openaire</setSpec>
      <setSpec>user-biosyslit</setSpec>
    </header>
    <header>
      <identifier>oai:zenodo.org:230219</identifier>
      <datestamp>2017-01-04T21:16:39Z</datestamp>
      <setSpec>user-biosyslit</setSpec>
    </header>
    <header>
      <identifier>oai:zenodo.org:230971</identifier>
      <datestamp>2017-01-05T11:48:32Z</datestamp>
      <setSpec>user-biosyslit</setSpec>
    </header>
    <header>
      <identifier>oai:zenodo.org:229915</identifier>
      <datestamp>2017-01-04T16:02:09Z</datestamp>
      <setSpec>user-biosyslit</setSpec>
    </header>
    <header>
      <identifier>oai:zenodo.org:231020</identifier>
      <datestamp>2017-01-05T12:23:06Z</datestamp>
      <setSpec>user-biosyslit</setSpec>
    </header>
    <header>
      <identifier>oai:zenodo.org:231219</identifier>
      <datestamp>2017-01-05T17:24:05Z</datestamp>
      <setSpec>user-biosyslit</setSpec>
    </header>
    <header>
      <identifier>oai:zenodo.org:230718</identifier>
      <datestamp>2017-01-05T07:35:06Z</datestamp>
      <setSpec>user-biosyslit</setSpec>
    </header>
    <header>
      <identifier>oai:zenodo.org:230616</identifier>
      <datestamp>2017-01-05T05:02:37Z</datestamp>
      <setSpec>user-biosyslit</setSpec>
    </header>
    <header>
      <identifier>oai:zenodo.org:269833</identifier>
      <datestamp>2017-02-07T20:30:20Z</datestamp>
      <setSpec>user-biosyslit</setSpec>
    </header>
    <header>
      <identifier>oai:zenodo.org:231838</identifier>
      <datestamp>2017-01-06T07:48:47Z</datestamp>
      <setSpec>user-biosyslit</setSpec>
    </header>
    <header>
      <identifier>oai:zenodo.org:230354</identifier>
      <datestamp>2017-01-04T23:10:24Z</datestamp>
      <setSpec>user-biosyslit</setSpec>
    </header>
    <header>
      <identifier>oai:zenodo.org:269769</identifier>
      <datestamp>2017-02-07T20:17:56Z</datestamp>
      <setSpec>user-biosyslit</setSpec>
    </header>
    <header>
      <identifier>oai:zenodo.org:230861</identifier>
      <datestamp>2017-01-05T09:20:03Z</datestamp>
      <setSpec>user-biosyslit</setSpec>
    </header>
    <header>
      <identifier>oai:zenodo.org:230744</identifier>
      <datestamp>2017-01-05T07:38:11Z</datestamp>
      <setSpec>user-biosyslit</setSpec>
    </header>
    <header>
      <identifier>oai:zenodo.org:270024</identifier>
      <datestamp>2017-02-07T22:08:59Z</datestamp>
      <setSpec>user-biosyslit</setSpec>
    </header>
    <header>
      <identifier>oai:zenodo.org:269847</identifier>
      <datestamp>2017-02-07T20:32:32Z</datestamp>
      <setSpec>user-biosyslit</setSpec>
    </header>
    <header>
      <identifier>oai:zenodo.org:227980</identifier>
      <datestamp>2017-01-02T08:04:42Z</datestamp>
      <setSpec>user-biosyslit</setSpec>
    </header>
    <header>
      <identifier>oai:zenodo.org:229377</identifier>
      <datestamp>2017-01-03T15:03:30Z</datestamp>
      <setSpec>user-biosyslit</setSpec>
    </header>
    <header>
      <identifier>oai:zenodo.org:230111</identifier>
      <datestamp>2017-01-04T19:23:10Z</datestamp>
      <setSpec>user-biosyslit</setSpec>
    </header>
    <header>
      <identifier>oai:zenodo.org:229248</identifier>
      <datestamp>2017-01-03T13:13:40Z</datestamp>
      <setSpec>user-biosyslit</setSpec>
    </header>
    <header>
      <identifier>oai:zenodo.org:230350</identifier>
      <datestamp>2017-01-04T23:10:12Z</datestamp>
      <setSpec>user-biosyslit</setSpec>
    </header>
    <header>
      <identifier>oai:zenodo.org:229946</identifier>
      <datestamp>2017-01-04T16:13:43Z</datestamp>
      <setSpec>user-biosyslit</setSpec>
    </header>
    <header>
      <identifier>oai:zenodo.org:230585</identifier>
      <datestamp>2017-01-05T04:07:56Z</datestamp>
      <setSpec>user-biosyslit</setSpec>
    </header>
    <header>
      <identifier>oai:zenodo.org:234190</identifier>
      <datestamp>2017-01-08T16:04:53Z</datestamp>
      <setSpec>user-biosyslit</setSpec>
    </header>
    <header>
      <identifier>oai:zenodo.org:232685</identifier>
      <datestamp>2017-01-06T21:37:45Z</datestamp>
      <setSpec>user-biosyslit</setSpec>
    </header>
    <header>
      <identifier>oai:zenodo.org:270645</identifier>
      <datestamp>2017-02-07T23:41:26Z</datestamp>
      <setSpec>user-biosyslit</setSpec>
    </header>
    <header>
      <identifier>oai:zenodo.org:233152</identifier>
      <datestamp>2017-01-08T01:27:30Z</datestamp>
      <setSpec>user-biosyslit</setSpec>
    </header>
    <header>
      <identifier>oai:zenodo.org:233073</identifier>
      <datestamp>2017-01-07T23:49:51Z</datestamp>
      <setSpec>user-biosyslit</setSpec>
    </header>
    <resumptionToken expirationDate="2017-08-31T15:46:16Z" cursor="48400" completeListSize="77796">.eJyNyssKgkAUANB_uWuJeUg-oE1o4kJFJ0XdhKmIOZo4RTrSv-emda3PWUHUdQUm2hkIqaqmE0yxYajEUECU053zS7sxlGnCy4HHhZM8oz5BGWk03xKzZ2XUlx0KeizZKSQp1ue4RUt4jh-ZjOaEui-GbM2T4eLf3O1VNHB4fnVGFg9Hzkg1BXa4MHxkOS2_D__55M9niQMoMBZNDaaq7xXoXsXUCDDX9_sDnlNRRQ.DInAUA.1GlRq43pC-tGJkRqymwwMN4Y960</resumptionToken>
  </ListIdentifiers>
</OAI-PMH>
