<?xml version='1.0' encoding='UTF-8'?>
<?xml-stylesheet type="text/xsl" href="/static/xsl/oai2.v1.0.xsl"?>
<OAI-PMH xmlns="http://www.openarchives.org/OAI/2.0/" xmlns:xsi="http://www.w3.org/2001/XMLSchema-instance" xsi:schemaLocation="http://www.openarchives.org/OAI/2.0/ http://www.openarchives.org/OAI/2.0/OAI-PMH.xsd">
  <responseDate>2017-08-31T15:45:46Z</responseDate>
  <request verb="ListIdentifiers" resumptionToken=".eJyNz00PQzAAgOH_0rMs1fpoJLsIEweEjuCyGCKmTHQLKv77XHbezu9zeTfA67oCBjwpuqIgFWKFqIRoKpIAL6cnY7f2yKBME1YOLC6c5B31CcxQo_sWXzwrw77oYNDLgl5ClMpkiVu4htf4lYloSbA7U2jrnghX_-EersKBw_K7M9J4MBlF1RTY4Uplk-a4_Dr5Tyd-OoufgQTGoqmBoZHjqpuLqeHA2Pb9A6EPUUY.DInAqQ.nSAf1Rsx4WvKpU-TzatvUq9-Q0s">https://zenodo.org/oai2d</request>
  <ListIdentifiers>
    <header>
      <identifier>oai:zenodo.org:252580</identifier>
      <datestamp>2017-01-19T17:10:32Z</datestamp>
      <setSpec>user-biosyslit</setSpec>
    </header>
    <header>
      <identifier>oai:zenodo.org:252601</identifier>
      <datestamp>2017-01-19T17:10:00Z</datestamp>
      <setSpec>user-biosyslit</setSpec>
    </header>
    <header>
      <identifier>oai:zenodo.org:252599</identifier>
      <datestamp>2017-01-19T17:09:55Z</datestamp>
      <setSpec>user-biosyslit</setSpec>
    </header>
    <header>
      <identifier>oai:zenodo.org:252595</identifier>
      <datestamp>2017-01-19T17:09:34Z</datestamp>
      <setSpec>user-biosyslit</setSpec>
    </header>
    <header>
      <identifier>oai:zenodo.org:252596</identifier>
      <datestamp>2017-01-19T17:09:37Z</datestamp>
      <setSpec>user-biosyslit</setSpec>
    </header>
    <header>
      <identifier>oai:zenodo.org:254903</identifier>
      <datestamp>2017-01-21T04:46:05Z</datestamp>
      <setSpec>user-biosyslit</setSpec>
    </header>
    <header>
      <identifier>oai:zenodo.org:254904</identifier>
      <datestamp>2017-01-21T04:46:08Z</datestamp>
      <setSpec>user-biosyslit</setSpec>
    </header>
    <header>
      <identifier>oai:zenodo.org:252604</identifier>
      <datestamp>2017-01-19T17:10:09Z</datestamp>
      <setSpec>user-biosyslit</setSpec>
    </header>
    <header>
      <identifier>oai:zenodo.org:252593</identifier>
      <datestamp>2017-01-19T17:09:26Z</datestamp>
      <setSpec>user-biosyslit</setSpec>
    </header>
    <header>
      <identifier>oai:zenodo.org:278159</identifier>
      <datestamp>2017-02-08T22:35:10Z</datestamp>
      <setSpec>user-biosyslit</setSpec>
    </header>
    <header>
      <identifier>oai:zenodo.org:271242</identifier>
      <datestamp>2017-02-08T01:09:25Z</datestamp>
      <setSpec>user-biosyslit</setSpec>
    </header>
    <header>
      <identifier>oai:zenodo.org:271235</identifier>
      <datestamp>2017-02-08T01:09:01Z</datestamp>
      <setSpec>user-biosyslit</setSpec>
    </header>
    <header>
      <identifier>oai:zenodo.org:271244</identifier>
      <datestamp>2017-02-08T01:09:31Z</datestamp>
      <setSpec>user-biosyslit</setSpec>
    </header>
    <header>
      <identifier>oai:zenodo.org:271236</identifier>
      <datestamp>2017-02-08T01:09:05Z</datestamp>
      <setSpec>user-biosyslit</setSpec>
    </header>
    <header>
      <identifier>oai:zenodo.org:271249</identifier>
      <datestamp>2017-02-08T01:09:50Z</datestamp>
      <setSpec>user-biosyslit</setSpec>
    </header>
    <header>
      <identifier>oai:zenodo.org:271252</identifier>
      <datestamp>2017-02-08T01:10:03Z</datestamp>
      <setSpec>user-biosyslit</setSpec>
    </header>
    <header>
      <identifier>oai:zenodo.org:271241</identifier>
      <datestamp>2017-02-08T01:09:22Z</datestamp>
      <setSpec>user-biosyslit</setSpec>
    </header>
    <header>
      <identifier>oai:zenodo.org:271239</identifier>
      <datestamp>2017-02-08T01:09:16Z</datestamp>
      <setSpec>user-biosyslit</setSpec>
    </header>
    <header>
      <identifier>oai:zenodo.org:271245</identifier>
      <datestamp>2017-02-08T01:09:35Z</datestamp>
      <setSpec>user-biosyslit</setSpec>
    </header>
    <header>
      <identifier>oai:zenodo.org:255326</identifier>
      <datestamp>2017-01-21T11:44:57Z</datestamp>
      <setSpec>user-biosyslit</setSpec>
    </header>
    <header>
      <identifier>oai:zenodo.org:250821</identifier>
      <datestamp>2017-01-18T15:18:16Z</datestamp>
      <setSpec>user-biosyslit</setSpec>
    </header>
    <header>
      <identifier>oai:zenodo.org:250825</identifier>
      <datestamp>2017-01-18T15:18:27Z</datestamp>
      <setSpec>user-biosyslit</setSpec>
    </header>
    <header>
      <identifier>oai:zenodo.org:250832</identifier>
      <datestamp>2017-01-18T15:18:48Z</datestamp>
      <setSpec>user-biosyslit</setSpec>
    </header>
    <header>
      <identifier>oai:zenodo.org:250829</identifier>
      <datestamp>2017-01-18T15:18:40Z</datestamp>
      <setSpec>user-biosyslit</setSpec>
    </header>
    <header>
      <identifier>oai:zenodo.org:250833</identifier>
      <datestamp>2017-01-18T15:18:51Z</datestamp>
      <setSpec>user-biosyslit</setSpec>
    </header>
    <header>
      <identifier>oai:zenodo.org:276707</identifier>
      <datestamp>2017-02-08T19:29:51Z</datestamp>
      <setSpec>user-biosyslit</setSpec>
    </header>
    <header>
      <identifier>oai:zenodo.org:276712</identifier>
      <datestamp>2017-02-08T19:30:05Z</datestamp>
      <setSpec>user-biosyslit</setSpec>
    </header>
    <header>
      <identifier>oai:zenodo.org:276709</identifier>
      <datestamp>2017-02-08T19:29:57Z</datestamp>
      <setSpec>user-biosyslit</setSpec>
    </header>
    <header>
      <identifier>oai:zenodo.org:276708</identifier>
      <datestamp>2017-02-08T19:29:54Z</datestamp>
      <setSpec>user-biosyslit</setSpec>
    </header>
    <header>
      <identifier>oai:zenodo.org:276711</identifier>
      <datestamp>2017-02-08T19:30:02Z</datestamp>
      <setSpec>user-biosyslit</setSpec>
    </header>
    <header>
      <identifier>oai:zenodo.org:276713</identifier>
      <datestamp>2017-02-08T19:30:06Z</datestamp>
      <setSpec>user-biosyslit</setSpec>
    </header>
    <header>
      <identifier>oai:zenodo.org:276714</identifier>
      <datestamp>2017-02-08T19:30:08Z</datestamp>
      <setSpec>user-biosyslit</setSpec>
    </header>
    <header>
      <identifier>oai:zenodo.org:254092</identifier>
      <datestamp>2017-01-20T14:37:23Z</datestamp>
      <setSpec>user-biosyslit</setSpec>
    </header>
    <header>
      <identifier>oai:zenodo.org:254098</identifier>
      <datestamp>2017-01-20T14:36:57Z</datestamp>
      <setSpec>user-biosyslit</setSpec>
    </header>
    <header>
      <identifier>oai:zenodo.org:254096</identifier>
      <datestamp>2017-01-20T14:36:52Z</datestamp>
      <setSpec>user-biosyslit</setSpec>
    </header>
    <header>
      <identifier>oai:zenodo.org:254100</identifier>
      <datestamp>2017-01-20T14:37:02Z</datestamp>
      <setSpec>user-biosyslit</setSpec>
    </header>
    <header>
      <identifier>oai:zenodo.org:254099</identifier>
      <datestamp>2017-01-20T14:37:00Z</datestamp>
      <setSpec>user-biosyslit</setSpec>
    </header>
    <header>
      <identifier>oai:zenodo.org:254095</identifier>
      <datestamp>2017-01-20T14:36:50Z</datestamp>
      <setSpec>user-biosyslit</setSpec>
    </header>
    <header>
      <identifier>oai:zenodo.org:254106</identifier>
      <datestamp>2017-01-20T14:37:22Z</datestamp>
      <setSpec>user-biosyslit</setSpec>
    </header>
    <header>
      <identifier>oai:zenodo.org:254105</identifier>
      <datestamp>2017-01-20T14:37:19Z</datestamp>
      <setSpec>user-biosyslit</setSpec>
    </header>
    <header>
      <identifier>oai:zenodo.org:254093</identifier>
      <datestamp>2017-01-20T14:36:43Z</datestamp>
      <setSpec>user-biosyslit</setSpec>
    </header>
    <header>
      <identifier>oai:zenodo.org:286715</identifier>
      <datestamp>2017-02-09T16:36:54Z</datestamp>
      <setSpec>user-biosyslit</setSpec>
    </header>
    <header>
      <identifier>oai:zenodo.org:286714</identifier>
      <datestamp>2017-02-09T16:36:52Z</datestamp>
      <setSpec>user-biosyslit</setSpec>
    </header>
    <header>
      <identifier>oai:zenodo.org:286713</identifier>
      <datestamp>2017-02-09T16:36:49Z</datestamp>
      <setSpec>user-biosyslit</setSpec>
    </header>
    <header>
      <identifier>oai:zenodo.org:262190</identifier>
      <datestamp>2017-01-28T22:54:53Z</datestamp>
      <setSpec>user-biosyslit</setSpec>
    </header>
    <header>
      <identifier>oai:zenodo.org:271152</identifier>
      <datestamp>2017-02-08T00:54:00Z</datestamp>
      <setSpec>user-biosyslit</setSpec>
    </header>
    <header>
      <identifier>oai:zenodo.org:271153</identifier>
      <datestamp>2017-02-08T00:54:02Z</datestamp>
      <setSpec>user-biosyslit</setSpec>
    </header>
    <header>
      <identifier>oai:zenodo.org:271155</identifier>
      <datestamp>2017-02-08T00:54:08Z</datestamp>
      <setSpec>user-biosyslit</setSpec>
    </header>
    <header>
      <identifier>oai:zenodo.org:262194</identifier>
      <datestamp>2017-01-28T22:54:49Z</datestamp>
      <setSpec>user-biosyslit</setSpec>
    </header>
    <header>
      <identifier>oai:zenodo.org:262192</identifier>
      <datestamp>2017-01-28T22:54:43Z</datestamp>
      <setSpec>user-biosyslit</setSpec>
    </header>
    <header>
      <identifier>oai:zenodo.org:237100</identifier>
      <datestamp>2017-01-10T10:42:35Z</datestamp>
      <setSpec>user-biosyslit</setSpec>
    </header>
    <header>
      <identifier>oai:zenodo.org:237101</identifier>
      <datestamp>2017-01-10T10:42:39Z</datestamp>
      <setSpec>user-biosyslit</setSpec>
    </header>
    <header>
      <identifier>oai:zenodo.org:237102</identifier>
      <datestamp>2017-01-10T10:42:42Z</datestamp>
      <setSpec>user-biosyslit</setSpec>
    </header>
    <header>
      <identifier>oai:zenodo.org:243445</identifier>
      <datestamp>2017-01-14T05:49:49Z</datestamp>
      <setSpec>user-biosyslit</setSpec>
    </header>
    <header>
      <identifier>oai:zenodo.org:243444</identifier>
      <datestamp>2017-01-14T05:49:46Z</datestamp>
      <setSpec>user-biosyslit</setSpec>
    </header>
    <header>
      <identifier>oai:zenodo.org:287966</identifier>
      <datestamp>2017-02-09T19:42:29Z</datestamp>
      <setSpec>user-biosyslit</setSpec>
    </header>
    <header>
      <identifier>oai:zenodo.org:290612</identifier>
      <datestamp>2017-02-12T22:17:27Z</datestamp>
      <setSpec>user-biosyslit</setSpec>
    </header>
    <header>
      <identifier>oai:zenodo.org:287977</identifier>
      <datestamp>2017-02-09T19:42:28Z</datestamp>
      <setSpec>user-biosyslit</setSpec>
    </header>
    <header>
      <identifier>oai:zenodo.org:287969</identifier>
      <datestamp>2017-02-09T19:42:07Z</datestamp>
      <setSpec>user-biosyslit</setSpec>
    </header>
    <header>
      <identifier>oai:zenodo.org:232069</identifier>
      <datestamp>2017-01-06T10:55:24Z</datestamp>
      <setSpec>user-biosyslit</setSpec>
    </header>
    <header>
      <identifier>oai:zenodo.org:232067</identifier>
      <datestamp>2017-01-06T10:55:16Z</datestamp>
      <setSpec>user-biosyslit</setSpec>
    </header>
    <header>
      <identifier>oai:zenodo.org:238769</identifier>
      <datestamp>2017-01-11T11:06:47Z</datestamp>
      <setSpec>user-biosyslit</setSpec>
    </header>
    <header>
      <identifier>oai:zenodo.org:238771</identifier>
      <datestamp>2017-01-11T11:06:56Z</datestamp>
      <setSpec>user-biosyslit</setSpec>
    </header>
    <header>
      <identifier>oai:zenodo.org:238768</identifier>
      <datestamp>2017-01-11T11:06:42Z</datestamp>
      <setSpec>user-biosyslit</setSpec>
    </header>
    <header>
      <identifier>oai:zenodo.org:238765</identifier>
      <datestamp>2017-01-11T11:06:28Z</datestamp>
      <setSpec>user-biosyslit</setSpec>
    </header>
    <header>
      <identifier>oai:zenodo.org:288886</identifier>
      <datestamp>2017-02-09T22:05:51Z</datestamp>
      <setSpec>user-biosyslit</setSpec>
    </header>
    <header>
      <identifier>oai:zenodo.org:232095</identifier>
      <datestamp>2017-01-06T11:06:58Z</datestamp>
      <setSpec>user-biosyslit</setSpec>
    </header>
    <header>
      <identifier>oai:zenodo.org:288885</identifier>
      <datestamp>2017-02-09T22:05:46Z</datestamp>
      <setSpec>user-biosyslit</setSpec>
    </header>
    <header>
      <identifier>oai:zenodo.org:288884</identifier>
      <datestamp>2017-02-09T22:05:43Z</datestamp>
      <setSpec>user-biosyslit</setSpec>
    </header>
    <header>
      <identifier>oai:zenodo.org:232097</identifier>
      <datestamp>2017-01-06T11:07:05Z</datestamp>
      <setSpec>user-biosyslit</setSpec>
    </header>
    <header>
      <identifier>oai:zenodo.org:267901</identifier>
      <datestamp>2017-02-02T09:12:55Z</datestamp>
      <setSpec>user-biosyslit</setSpec>
    </header>
    <header>
      <identifier>oai:zenodo.org:243182</identifier>
      <datestamp>2017-01-14T00:26:49Z</datestamp>
      <setSpec>user-biosyslit</setSpec>
    </header>
    <header>
      <identifier>oai:zenodo.org:243183</identifier>
      <datestamp>2017-01-14T00:26:53Z</datestamp>
      <setSpec>user-biosyslit</setSpec>
    </header>
    <header>
      <identifier>oai:zenodo.org:243188</identifier>
      <datestamp>2017-01-14T00:27:15Z</datestamp>
      <setSpec>user-biosyslit</setSpec>
    </header>
    <header>
      <identifier>oai:zenodo.org:243185</identifier>
      <datestamp>2017-01-14T00:27:01Z</datestamp>
      <setSpec>user-biosyslit</setSpec>
    </header>
    <header>
      <identifier>oai:zenodo.org:243193</identifier>
      <datestamp>2017-01-14T00:27:34Z</datestamp>
      <setSpec>user-biosyslit</setSpec>
    </header>
    <header>
      <identifier>oai:zenodo.org:243190</identifier>
      <datestamp>2017-01-14T00:27:22Z</datestamp>
      <setSpec>user-biosyslit</setSpec>
    </header>
    <header>
      <identifier>oai:zenodo.org:243194</identifier>
      <datestamp>2017-01-14T00:27:38Z</datestamp>
      <setSpec>user-biosyslit</setSpec>
    </header>
    <header>
      <identifier>oai:zenodo.org:238198</identifier>
      <datestamp>2017-01-11T02:05:59Z</datestamp>
      <setSpec>user-biosyslit</setSpec>
    </header>
    <header>
      <identifier>oai:zenodo.org:243191</identifier>
      <datestamp>2017-01-14T00:27:25Z</datestamp>
      <setSpec>user-biosyslit</setSpec>
    </header>
    <header>
      <identifier>oai:zenodo.org:243186</identifier>
      <datestamp>2017-01-14T00:27:03Z</datestamp>
      <setSpec>user-biosyslit</setSpec>
    </header>
    <header>
      <identifier>oai:zenodo.org:285870</identifier>
      <datestamp>2017-02-09T14:44:08Z</datestamp>
      <setSpec>user-biosyslit</setSpec>
    </header>
    <header>
      <identifier>oai:zenodo.org:285871</identifier>
      <datestamp>2017-02-09T14:44:11Z</datestamp>
      <setSpec>user-biosyslit</setSpec>
    </header>
    <header>
      <identifier>oai:zenodo.org:285872</identifier>
      <datestamp>2017-02-09T14:44:13Z</datestamp>
      <setSpec>user-biosyslit</setSpec>
    </header>
    <header>
      <identifier>oai:zenodo.org:229293</identifier>
      <datestamp>2017-01-03T13:59:24Z</datestamp>
      <setSpec>user-biosyslit</setSpec>
    </header>
    <header>
      <identifier>oai:zenodo.org:285167</identifier>
      <datestamp>2017-02-09T12:50:07Z</datestamp>
      <setSpec>user-biosyslit</setSpec>
    </header>
    <header>
      <identifier>oai:zenodo.org:285169</identifier>
      <datestamp>2017-02-09T12:50:11Z</datestamp>
      <setSpec>user-biosyslit</setSpec>
    </header>
    <header>
      <identifier>oai:zenodo.org:285168</identifier>
      <datestamp>2017-02-09T12:50:10Z</datestamp>
      <setSpec>user-biosyslit</setSpec>
    </header>
    <header>
      <identifier>oai:zenodo.org:278556</identifier>
      <datestamp>2017-02-08T23:24:31Z</datestamp>
      <setSpec>user-biosyslit</setSpec>
    </header>
    <header>
      <identifier>oai:zenodo.org:278557</identifier>
      <datestamp>2017-02-08T23:24:35Z</datestamp>
      <setSpec>user-biosyslit</setSpec>
    </header>
    <header>
      <identifier>oai:zenodo.org:278559</identifier>
      <datestamp>2017-02-08T23:24:40Z</datestamp>
      <setSpec>user-biosyslit</setSpec>
    </header>
    <header>
      <identifier>oai:zenodo.org:278553</identifier>
      <datestamp>2017-02-08T23:24:22Z</datestamp>
      <setSpec>user-biosyslit</setSpec>
    </header>
    <header>
      <identifier>oai:zenodo.org:286528</identifier>
      <datestamp>2017-02-09T16:12:50Z</datestamp>
      <setSpec>user-biosyslit</setSpec>
    </header>
    <header>
      <identifier>oai:zenodo.org:286522</identifier>
      <datestamp>2017-02-09T16:12:35Z</datestamp>
      <setSpec>user-biosyslit</setSpec>
    </header>
    <header>
      <identifier>oai:zenodo.org:286527</identifier>
      <datestamp>2017-02-09T16:12:47Z</datestamp>
      <setSpec>user-biosyslit</setSpec>
    </header>
    <header>
      <identifier>oai:zenodo.org:286529</identifier>
      <datestamp>2017-02-09T16:12:53Z</datestamp>
      <setSpec>user-biosyslit</setSpec>
    </header>
    <header>
      <identifier>oai:zenodo.org:286517</identifier>
      <datestamp>2017-02-09T16:12:21Z</datestamp>
      <setSpec>user-biosyslit</setSpec>
    </header>
    <header>
      <identifier>oai:zenodo.org:286519</identifier>
      <datestamp>2017-02-09T16:12:25Z</datestamp>
      <setSpec>user-biosyslit</setSpec>
    </header>
    <header>
      <identifier>oai:zenodo.org:286520</identifier>
      <datestamp>2017-02-09T16:12:29Z</datestamp>
      <setSpec>user-biosyslit</setSpec>
    </header>
    <header>
      <identifier>oai:zenodo.org:286526</identifier>
      <datestamp>2017-02-09T16:12:44Z</datestamp>
      <setSpec>user-biosyslit</setSpec>
    </header>
    <resumptionToken expirationDate="2017-08-31T15:47:46Z" cursor="68100" completeListSize="77796">.eJyNysEOQzAYAOB3-c-ytLoikl2EiQNCR3BZDJFNmegWVPbu22Xn7fx9G4imqcFEO4opwlSjxl5T6Z4YCohqunN-vn4Yqizl1cCT0k2fcZ-iXG31wBaLb-ckkB0KeyzZMVIzbCzJFa3RKXnkMl5S4s0MObovozW4eZ9Xk9DlxcUdWTJYnKn1FDrRyrDFClJ9H_7zyZ_PFgdQYCzbBkzNIAp0czm1Aszt9XoDmpZRQA.DInAqg.BajzYF1cQyCMJYPO8RyrWHFAmLY</resumptionToken>
  </ListIdentifiers>
</OAI-PMH>
