<?xml version='1.0' encoding='UTF-8'?>
<?xml-stylesheet type="text/xsl" href="/static/xsl/oai2.v1.0.xsl"?>
<OAI-PMH xmlns="http://www.openarchives.org/OAI/2.0/" xmlns:xsi="http://www.w3.org/2001/XMLSchema-instance" xsi:schemaLocation="http://www.openarchives.org/OAI/2.0/ http://www.openarchives.org/OAI/2.0/OAI-PMH.xsd">
  <responseDate>2017-08-31T14:33:35Z</responseDate>
  <request verb="ListIdentifiers" resumptionToken=".eJwVzdFuREAYQOF3mWtpZkax3K1Q2aY_scxYbhodytZQRYPZ7Lt3e32S79zQXNcVcvCTYZqWQW1bNwgxqGFqaBbTt5Tv10dG4sKlGCQrA_577jnOaWOF3ryBl5MwZSrqiUpeYnohh41d8R6nbMnVeeP6aU2wb4GKV1ANjfpKjwJZfARjwgZXJrSaIj_eE-ImhS4sSI_04RH4GheBWxZK-xP4aYHOJ28ZYMGrHfzFjRRg8OA5TMehUu2YZdsPk69rwZahVK0P3RKz_5c6WkhDY9nUyKEHDXVrOTUzcm73-x9z21IU.DImvjg.SFThWebq9S2UKDWOKF_3Yf_DvHc">https://zenodo.org/oai2d</request>
  <ListIdentifiers>
    <header>
      <identifier>oai:zenodo.org:278257</identifier>
      <datestamp>2017-02-08T22:44:46Z</datestamp>
      <setSpec>user-biosyslit</setSpec>
    </header>
    <header>
      <identifier>oai:zenodo.org:278995</identifier>
      <datestamp>2017-02-09T00:22:13Z</datestamp>
      <setSpec>user-biosyslit</setSpec>
    </header>
    <header>
      <identifier>oai:zenodo.org:278838</identifier>
      <datestamp>2017-02-08T23:58:37Z</datestamp>
      <setSpec>user-biosyslit</setSpec>
    </header>
    <header>
      <identifier>oai:zenodo.org:279082</identifier>
      <datestamp>2017-02-09T00:35:03Z</datestamp>
      <setSpec>user-biosyslit</setSpec>
    </header>
    <header>
      <identifier>oai:zenodo.org:279433</identifier>
      <datestamp>2017-02-09T01:21:30Z</datestamp>
      <setSpec>user-biosyslit</setSpec>
    </header>
    <header>
      <identifier>oai:zenodo.org:279443</identifier>
      <datestamp>2017-02-09T01:21:55Z</datestamp>
      <setSpec>user-biosyslit</setSpec>
    </header>
    <header>
      <identifier>oai:zenodo.org:281856</identifier>
      <datestamp>2017-02-09T06:03:09Z</datestamp>
      <setSpec>user-biosyslit</setSpec>
    </header>
    <header>
      <identifier>oai:zenodo.org:281033</identifier>
      <datestamp>2017-02-09T04:35:01Z</datestamp>
      <setSpec>user-biosyslit</setSpec>
    </header>
    <header>
      <identifier>oai:zenodo.org:282503</identifier>
      <datestamp>2017-02-09T07:08:30Z</datestamp>
      <setSpec>user-biosyslit</setSpec>
    </header>
    <header>
      <identifier>oai:zenodo.org:282010</identifier>
      <datestamp>2017-02-09T06:20:11Z</datestamp>
      <setSpec>user-biosyslit</setSpec>
    </header>
    <header>
      <identifier>oai:zenodo.org:282744</identifier>
      <datestamp>2017-02-09T07:33:14Z</datestamp>
      <setSpec>user-biosyslit</setSpec>
    </header>
    <header>
      <identifier>oai:zenodo.org:282622</identifier>
      <datestamp>2017-02-09T07:19:45Z</datestamp>
      <setSpec>user-biosyslit</setSpec>
    </header>
    <header>
      <identifier>oai:zenodo.org:283428</identifier>
      <datestamp>2017-02-09T08:54:29Z</datestamp>
      <setSpec>user-biosyslit</setSpec>
    </header>
    <header>
      <identifier>oai:zenodo.org:282530</identifier>
      <datestamp>2017-02-09T07:11:32Z</datestamp>
      <setSpec>user-biosyslit</setSpec>
    </header>
    <header>
      <identifier>oai:zenodo.org:283341</identifier>
      <datestamp>2017-02-09T08:37:08Z</datestamp>
      <setSpec>user-biosyslit</setSpec>
    </header>
    <header>
      <identifier>oai:zenodo.org:283275</identifier>
      <datestamp>2017-02-09T08:28:47Z</datestamp>
      <setSpec>user-biosyslit</setSpec>
    </header>
    <header>
      <identifier>oai:zenodo.org:284367</identifier>
      <datestamp>2017-02-09T11:06:18Z</datestamp>
      <setSpec>user-biosyslit</setSpec>
    </header>
    <header>
      <identifier>oai:zenodo.org:284578</identifier>
      <datestamp>2017-02-09T11:33:44Z</datestamp>
      <setSpec>user-biosyslit</setSpec>
    </header>
    <header>
      <identifier>oai:zenodo.org:283414</identifier>
      <datestamp>2017-02-09T08:51:17Z</datestamp>
      <setSpec>user-biosyslit</setSpec>
    </header>
    <header>
      <identifier>oai:zenodo.org:284075</identifier>
      <datestamp>2017-02-09T10:20:22Z</datestamp>
      <setSpec>user-biosyslit</setSpec>
    </header>
    <header>
      <identifier>oai:zenodo.org:284198</identifier>
      <datestamp>2017-02-09T10:38:37Z</datestamp>
      <setSpec>user-biosyslit</setSpec>
    </header>
    <header>
      <identifier>oai:zenodo.org:284370</identifier>
      <datestamp>2017-02-09T11:06:26Z</datestamp>
      <setSpec>user-biosyslit</setSpec>
    </header>
    <header>
      <identifier>oai:zenodo.org:284354</identifier>
      <datestamp>2017-02-09T11:05:40Z</datestamp>
      <setSpec>user-biosyslit</setSpec>
    </header>
    <header>
      <identifier>oai:zenodo.org:284569</identifier>
      <datestamp>2017-02-09T11:35:25Z</datestamp>
      <setSpec>user-biosyslit</setSpec>
    </header>
    <header>
      <identifier>oai:zenodo.org:284598</identifier>
      <datestamp>2017-02-09T11:34:50Z</datestamp>
      <setSpec>user-biosyslit</setSpec>
    </header>
    <header>
      <identifier>oai:zenodo.org:285135</identifier>
      <datestamp>2017-02-09T12:43:20Z</datestamp>
      <setSpec>user-biosyslit</setSpec>
    </header>
    <header>
      <identifier>oai:zenodo.org:285777</identifier>
      <datestamp>2017-02-09T14:31:44Z</datestamp>
      <setSpec>user-biosyslit</setSpec>
    </header>
    <header>
      <identifier>oai:zenodo.org:286678</identifier>
      <datestamp>2017-02-09T16:32:37Z</datestamp>
      <setSpec>user-biosyslit</setSpec>
    </header>
    <header>
      <identifier>oai:zenodo.org:286656</identifier>
      <datestamp>2017-02-09T16:31:39Z</datestamp>
      <setSpec>user-biosyslit</setSpec>
    </header>
    <header>
      <identifier>oai:zenodo.org:286607</identifier>
      <datestamp>2017-02-09T16:24:54Z</datestamp>
      <setSpec>user-biosyslit</setSpec>
    </header>
    <header>
      <identifier>oai:zenodo.org:286388</identifier>
      <datestamp>2017-02-09T15:54:45Z</datestamp>
      <setSpec>user-biosyslit</setSpec>
    </header>
    <header>
      <identifier>oai:zenodo.org:285751</identifier>
      <datestamp>2017-02-09T14:25:33Z</datestamp>
      <setSpec>user-biosyslit</setSpec>
    </header>
    <header>
      <identifier>oai:zenodo.org:286365</identifier>
      <datestamp>2017-02-09T15:50:10Z</datestamp>
      <setSpec>user-biosyslit</setSpec>
    </header>
    <header>
      <identifier>oai:zenodo.org:287391</identifier>
      <datestamp>2017-02-09T18:12:26Z</datestamp>
      <setSpec>user-biosyslit</setSpec>
    </header>
    <header>
      <identifier>oai:zenodo.org:287268</identifier>
      <datestamp>2017-02-09T17:56:24Z</datestamp>
      <setSpec>user-biosyslit</setSpec>
    </header>
    <header>
      <identifier>oai:zenodo.org:287491</identifier>
      <datestamp>2017-02-09T18:27:45Z</datestamp>
      <setSpec>user-biosyslit</setSpec>
    </header>
    <header>
      <identifier>oai:zenodo.org:287816</identifier>
      <datestamp>2017-02-09T19:21:45Z</datestamp>
      <setSpec>user-biosyslit</setSpec>
    </header>
    <header>
      <identifier>oai:zenodo.org:288466</identifier>
      <datestamp>2017-02-09T21:01:48Z</datestamp>
      <setSpec>user-biosyslit</setSpec>
    </header>
    <header>
      <identifier>oai:zenodo.org:287837</identifier>
      <datestamp>2017-02-09T19:25:05Z</datestamp>
      <setSpec>user-biosyslit</setSpec>
    </header>
    <header>
      <identifier>oai:zenodo.org:288350</identifier>
      <datestamp>2017-02-09T20:41:39Z</datestamp>
      <setSpec>user-biosyslit</setSpec>
    </header>
    <header>
      <identifier>oai:zenodo.org:288186</identifier>
      <datestamp>2017-02-09T20:16:43Z</datestamp>
      <setSpec>user-biosyslit</setSpec>
    </header>
    <header>
      <identifier>oai:zenodo.org:289971</identifier>
      <datestamp>2017-02-10T00:53:54Z</datestamp>
      <setSpec>user-biosyslit</setSpec>
    </header>
    <header>
      <identifier>oai:zenodo.org:289648</identifier>
      <datestamp>2017-02-10T00:02:04Z</datestamp>
      <setSpec>user-biosyslit</setSpec>
    </header>
    <header>
      <identifier>oai:zenodo.org:289553</identifier>
      <datestamp>2017-02-09T23:49:54Z</datestamp>
      <setSpec>user-biosyslit</setSpec>
    </header>
    <header>
      <identifier>oai:zenodo.org:290977</identifier>
      <datestamp>2017-02-13T19:40:43Z</datestamp>
      <setSpec>user-biosyslit</setSpec>
    </header>
    <header>
      <identifier>oai:zenodo.org:289756</identifier>
      <datestamp>2017-02-10T00:25:46Z</datestamp>
      <setSpec>user-biosyslit</setSpec>
    </header>
    <header>
      <identifier>oai:zenodo.org:289531</identifier>
      <datestamp>2017-02-09T23:48:23Z</datestamp>
      <setSpec>user-biosyslit</setSpec>
    </header>
    <header>
      <identifier>oai:zenodo.org:292314</identifier>
      <datestamp>2017-02-20T08:29:58Z</datestamp>
      <setSpec>user-biosyslit</setSpec>
    </header>
    <header>
      <identifier>oai:zenodo.org:293882</identifier>
      <datestamp>2017-02-20T18:54:14Z</datestamp>
      <setSpec>user-biosyslit</setSpec>
    </header>
    <header>
      <identifier>oai:zenodo.org:322190</identifier>
      <datestamp>2017-02-24T07:37:01Z</datestamp>
      <setSpec>user-biosyslit</setSpec>
    </header>
    <header>
      <identifier>oai:zenodo.org:322074</identifier>
      <datestamp>2017-02-24T07:29:22Z</datestamp>
      <setSpec>user-biosyslit</setSpec>
    </header>
    <header>
      <identifier>oai:zenodo.org:322222</identifier>
      <datestamp>2017-02-24T07:38:19Z</datestamp>
      <setSpec>user-biosyslit</setSpec>
    </header>
    <header>
      <identifier>oai:zenodo.org:322213</identifier>
      <datestamp>2017-02-24T07:37:56Z</datestamp>
      <setSpec>user-biosyslit</setSpec>
    </header>
    <header>
      <identifier>oai:zenodo.org:322062</identifier>
      <datestamp>2017-02-24T07:31:05Z</datestamp>
      <setSpec>user-biosyslit</setSpec>
    </header>
    <header>
      <identifier>oai:zenodo.org:322402</identifier>
      <datestamp>2017-02-24T15:54:22Z</datestamp>
      <setSpec>user-biosyslit</setSpec>
    </header>
    <header>
      <identifier>oai:zenodo.org:322703</identifier>
      <datestamp>2017-02-27T08:55:22Z</datestamp>
      <setSpec>user-biosyslit</setSpec>
    </header>
    <header>
      <identifier>oai:zenodo.org:322873</identifier>
      <datestamp>2017-02-28T23:51:00Z</datestamp>
      <setSpec>openaire</setSpec>
      <setSpec>user-biosyslit</setSpec>
    </header>
    <header>
      <identifier>oai:zenodo.org:260875</identifier>
      <datestamp>2017-01-28T01:53:13Z</datestamp>
      <setSpec>user-biosyslit</setSpec>
    </header>
    <header>
      <identifier>oai:zenodo.org:261508</identifier>
      <datestamp>2017-01-28T09:58:27Z</datestamp>
      <setSpec>user-biosyslit</setSpec>
    </header>
    <header>
      <identifier>oai:zenodo.org:261787</identifier>
      <datestamp>2017-01-28T15:09:15Z</datestamp>
      <setSpec>user-biosyslit</setSpec>
    </header>
    <header>
      <identifier>oai:zenodo.org:261318</identifier>
      <datestamp>2017-01-28T07:51:10Z</datestamp>
      <setSpec>user-biosyslit</setSpec>
    </header>
    <header>
      <identifier>oai:zenodo.org:261233</identifier>
      <datestamp>2017-01-28T07:03:14Z</datestamp>
      <setSpec>user-biosyslit</setSpec>
    </header>
    <header>
      <identifier>oai:zenodo.org:261755</identifier>
      <datestamp>2017-01-28T14:01:08Z</datestamp>
      <setSpec>user-biosyslit</setSpec>
    </header>
    <header>
      <identifier>oai:zenodo.org:261523</identifier>
      <datestamp>2017-01-28T09:59:10Z</datestamp>
      <setSpec>user-biosyslit</setSpec>
    </header>
    <header>
      <identifier>oai:zenodo.org:273487</identifier>
      <datestamp>2017-02-08T09:29:45Z</datestamp>
      <setSpec>user-biosyslit</setSpec>
    </header>
    <header>
      <identifier>oai:zenodo.org:262316</identifier>
      <datestamp>2017-01-29T01:58:20Z</datestamp>
      <setSpec>user-biosyslit</setSpec>
    </header>
    <header>
      <identifier>oai:zenodo.org:261973</identifier>
      <datestamp>2017-01-28T18:33:52Z</datestamp>
      <setSpec>user-biosyslit</setSpec>
    </header>
    <header>
      <identifier>oai:zenodo.org:262342</identifier>
      <datestamp>2017-01-29T01:59:51Z</datestamp>
      <setSpec>user-biosyslit</setSpec>
    </header>
    <header>
      <identifier>oai:zenodo.org:273848</identifier>
      <datestamp>2017-02-08T11:00:13Z</datestamp>
      <setSpec>user-biosyslit</setSpec>
    </header>
    <header>
      <identifier>oai:zenodo.org:262515</identifier>
      <datestamp>2017-01-29T05:04:26Z</datestamp>
      <setSpec>user-biosyslit</setSpec>
    </header>
    <header>
      <identifier>oai:zenodo.org:262529</identifier>
      <datestamp>2017-01-29T05:13:22Z</datestamp>
      <setSpec>user-biosyslit</setSpec>
    </header>
    <header>
      <identifier>oai:zenodo.org:263231</identifier>
      <datestamp>2017-01-29T19:12:18Z</datestamp>
      <setSpec>user-biosyslit</setSpec>
    </header>
    <header>
      <identifier>oai:zenodo.org:264229</identifier>
      <datestamp>2017-01-30T15:01:44Z</datestamp>
      <setSpec>user-biosyslit</setSpec>
    </header>
    <header>
      <identifier>oai:zenodo.org:262921</identifier>
      <datestamp>2017-01-29T11:09:54Z</datestamp>
      <setSpec>user-biosyslit</setSpec>
    </header>
    <header>
      <identifier>oai:zenodo.org:274064</identifier>
      <datestamp>2017-02-08T12:02:28Z</datestamp>
      <setSpec>user-biosyslit</setSpec>
    </header>
    <header>
      <identifier>oai:zenodo.org:263292</identifier>
      <datestamp>2017-01-29T20:43:45Z</datestamp>
      <setSpec>user-biosyslit</setSpec>
    </header>
    <header>
      <identifier>oai:zenodo.org:264792</identifier>
      <datestamp>2017-01-31T02:43:40Z</datestamp>
      <setSpec>user-biosyslit</setSpec>
    </header>
    <header>
      <identifier>oai:zenodo.org:274058</identifier>
      <datestamp>2017-02-08T12:00:09Z</datestamp>
      <setSpec>user-biosyslit</setSpec>
    </header>
    <header>
      <identifier>oai:zenodo.org:263272</identifier>
      <datestamp>2017-01-29T20:21:10Z</datestamp>
      <setSpec>user-biosyslit</setSpec>
    </header>
    <header>
      <identifier>oai:zenodo.org:265028</identifier>
      <datestamp>2017-01-31T06:41:02Z</datestamp>
      <setSpec>user-biosyslit</setSpec>
    </header>
    <header>
      <identifier>oai:zenodo.org:264115</identifier>
      <datestamp>2017-01-30T13:06:59Z</datestamp>
      <setSpec>user-biosyslit</setSpec>
    </header>
    <header>
      <identifier>oai:zenodo.org:264678</identifier>
      <datestamp>2017-01-31T00:57:27Z</datestamp>
      <setSpec>user-biosyslit</setSpec>
    </header>
    <header>
      <identifier>oai:zenodo.org:264575</identifier>
      <datestamp>2017-01-30T23:35:03Z</datestamp>
      <setSpec>user-biosyslit</setSpec>
    </header>
    <header>
      <identifier>oai:zenodo.org:265054</identifier>
      <datestamp>2017-01-31T07:06:52Z</datestamp>
      <setSpec>user-biosyslit</setSpec>
    </header>
    <header>
      <identifier>oai:zenodo.org:265458</identifier>
      <datestamp>2017-01-31T14:23:38Z</datestamp>
      <setSpec>user-biosyslit</setSpec>
    </header>
    <header>
      <identifier>oai:zenodo.org:274161</identifier>
      <datestamp>2017-02-08T12:17:10Z</datestamp>
      <setSpec>user-biosyslit</setSpec>
    </header>
    <header>
      <identifier>oai:zenodo.org:264905</identifier>
      <datestamp>2017-01-31T04:14:25Z</datestamp>
      <setSpec>user-biosyslit</setSpec>
    </header>
    <header>
      <identifier>oai:zenodo.org:265067</identifier>
      <datestamp>2017-01-31T07:19:15Z</datestamp>
      <setSpec>user-biosyslit</setSpec>
    </header>
    <header>
      <identifier>oai:zenodo.org:265722</identifier>
      <datestamp>2017-01-31T19:38:12Z</datestamp>
      <setSpec>user-biosyslit</setSpec>
    </header>
    <header>
      <identifier>oai:zenodo.org:266141</identifier>
      <datestamp>2017-02-01T01:10:53Z</datestamp>
      <setSpec>user-biosyslit</setSpec>
    </header>
    <header>
      <identifier>oai:zenodo.org:265438</identifier>
      <datestamp>2017-01-31T13:56:56Z</datestamp>
      <setSpec>user-biosyslit</setSpec>
    </header>
    <header>
      <identifier>oai:zenodo.org:265772</identifier>
      <datestamp>2017-01-31T20:29:41Z</datestamp>
      <setSpec>user-biosyslit</setSpec>
    </header>
    <header>
      <identifier>oai:zenodo.org:265402</identifier>
      <datestamp>2017-01-31T13:36:01Z</datestamp>
      <setSpec>user-biosyslit</setSpec>
    </header>
    <header>
      <identifier>oai:zenodo.org:268119</identifier>
      <datestamp>2017-02-03T01:39:13Z</datestamp>
      <setSpec>user-biosyslit</setSpec>
    </header>
    <header>
      <identifier>oai:zenodo.org:266127</identifier>
      <datestamp>2017-02-01T00:56:04Z</datestamp>
      <setSpec>user-biosyslit</setSpec>
    </header>
    <header>
      <identifier>oai:zenodo.org:265890</identifier>
      <datestamp>2017-01-31T23:02:57Z</datestamp>
      <setSpec>user-biosyslit</setSpec>
    </header>
    <header>
      <identifier>oai:zenodo.org:266154</identifier>
      <datestamp>2017-02-01T01:28:39Z</datestamp>
      <setSpec>user-biosyslit</setSpec>
    </header>
    <header>
      <identifier>oai:zenodo.org:266099</identifier>
      <datestamp>2017-02-01T00:25:09Z</datestamp>
      <setSpec>user-biosyslit</setSpec>
    </header>
    <header>
      <identifier>oai:zenodo.org:266319</identifier>
      <datestamp>2017-02-01T06:16:54Z</datestamp>
      <setSpec>user-biosyslit</setSpec>
    </header>
    <header>
      <identifier>oai:zenodo.org:266525</identifier>
      <datestamp>2017-02-01T11:32:37Z</datestamp>
      <setSpec>user-biosyslit</setSpec>
    </header>
    <resumptionToken expirationDate="2017-08-31T14:35:36Z" cursor="2700" completeListSize="142507">.eJwVzdFuREAYQOF3mWtpZsbG4G6Fyjb9iWVYbhodytZQRYPZ7Lvv9v7kOzc013WFbPyCdZNZ1DoQbBLDYKZx0NAsph8pP67PAIlLKsUgeemnf-c-xTltWODOG7g5CRKuwp6o-DWiF2Ju_Ir3KOFLrs5bqp_WGHsMVLSCamjYV3roy-LTH2M-ODKm1RR60R4TJy50wSA50qdH4HtcBG55IK0vSE8LdB55zwCLtNrBW5xQAQYXDkEyDpVqxyzbfrl8Wwu-DKVqPeiWiP-_1JEhDY1lUyObWhrq1nJqZmTf7vcH4CBSgQ.DImvwA.pcNd3StgXNM85RCD1qcugOq2Xqk</resumptionToken>
  </ListIdentifiers>
</OAI-PMH>
