<?xml version='1.0' encoding='UTF-8'?>
<?xml-stylesheet type="text/xsl" href="/static/xsl/oai2.v1.0.xsl"?>
<OAI-PMH xmlns="http://www.openarchives.org/OAI/2.0/" xmlns:xsi="http://www.w3.org/2001/XMLSchema-instance" xsi:schemaLocation="http://www.openarchives.org/OAI/2.0/ http://www.openarchives.org/OAI/2.0/OAI-PMH.xsd">
  <responseDate>2017-08-31T15:42:47Z</responseDate>
  <request verb="ListIdentifiers" resumptionToken=".eJyNyj0LgkAYAOD_8s4S95HoCS2hiYOKXoq6hKmIeZV4RXrSf8-luebnWUA2TQ0W2piMbDHDlGFTZ4wQDWQ13oU4dStDlaWiuomkdNNnfE1RTlojsOXk2zkNVI_CK1b8EJEMm1PSoTk6Jo9cxVNKvRdHjuGraA4u3vpqGrqiOLsDT257wUk9hk40c7znBa2-D__51M9nyx1oMJRtAxYxdA36Vzm2Eqzl_f4Ap4xRSw.DIm_9w.iLsZmMonXzwfUQ7apFgQ-n2tXME">https://zenodo.org/oai2d</request>
  <ListIdentifiers>
    <header>
      <identifier>oai:zenodo.org:258179</identifier>
      <datestamp>2017-01-23T17:39:24Z</datestamp>
      <setSpec>user-biosyslit</setSpec>
    </header>
    <header>
      <identifier>oai:zenodo.org:231617</identifier>
      <datestamp>2017-01-06T05:02:23Z</datestamp>
      <setSpec>user-biosyslit</setSpec>
    </header>
    <header>
      <identifier>oai:zenodo.org:231619</identifier>
      <datestamp>2017-01-06T05:02:31Z</datestamp>
      <setSpec>user-biosyslit</setSpec>
    </header>
    <header>
      <identifier>oai:zenodo.org:231620</identifier>
      <datestamp>2017-01-06T05:02:34Z</datestamp>
      <setSpec>user-biosyslit</setSpec>
    </header>
    <header>
      <identifier>oai:zenodo.org:288438</identifier>
      <datestamp>2017-02-09T20:57:44Z</datestamp>
      <setSpec>user-biosyslit</setSpec>
    </header>
    <header>
      <identifier>oai:zenodo.org:288445</identifier>
      <datestamp>2017-02-09T20:57:29Z</datestamp>
      <setSpec>user-biosyslit</setSpec>
    </header>
    <header>
      <identifier>oai:zenodo.org:287878</identifier>
      <datestamp>2017-02-09T19:31:57Z</datestamp>
      <setSpec>user-biosyslit</setSpec>
    </header>
    <header>
      <identifier>oai:zenodo.org:287879</identifier>
      <datestamp>2017-02-09T19:31:59Z</datestamp>
      <setSpec>user-biosyslit</setSpec>
    </header>
    <header>
      <identifier>oai:zenodo.org:244694</identifier>
      <datestamp>2017-01-15T01:17:55Z</datestamp>
      <setSpec>user-biosyslit</setSpec>
    </header>
    <header>
      <identifier>oai:zenodo.org:287880</identifier>
      <datestamp>2017-02-09T19:32:01Z</datestamp>
      <setSpec>user-biosyslit</setSpec>
    </header>
    <header>
      <identifier>oai:zenodo.org:287877</identifier>
      <datestamp>2017-02-09T19:31:55Z</datestamp>
      <setSpec>user-biosyslit</setSpec>
    </header>
    <header>
      <identifier>oai:zenodo.org:244692</identifier>
      <datestamp>2017-01-15T01:17:46Z</datestamp>
      <setSpec>user-biosyslit</setSpec>
    </header>
    <header>
      <identifier>oai:zenodo.org:244689</identifier>
      <datestamp>2017-01-15T01:17:36Z</datestamp>
      <setSpec>user-biosyslit</setSpec>
    </header>
    <header>
      <identifier>oai:zenodo.org:237697</identifier>
      <datestamp>2017-01-10T18:53:20Z</datestamp>
      <setSpec>user-biosyslit</setSpec>
    </header>
    <header>
      <identifier>oai:zenodo.org:237699</identifier>
      <datestamp>2017-01-10T18:52:59Z</datestamp>
      <setSpec>user-biosyslit</setSpec>
    </header>
    <header>
      <identifier>oai:zenodo.org:237702</identifier>
      <datestamp>2017-01-10T18:53:15Z</datestamp>
      <setSpec>user-biosyslit</setSpec>
    </header>
    <header>
      <identifier>oai:zenodo.org:237698</identifier>
      <datestamp>2017-01-10T18:52:53Z</datestamp>
      <setSpec>user-biosyslit</setSpec>
    </header>
    <header>
      <identifier>oai:zenodo.org:237700</identifier>
      <datestamp>2017-01-10T18:53:05Z</datestamp>
      <setSpec>user-biosyslit</setSpec>
    </header>
    <header>
      <identifier>oai:zenodo.org:229641</identifier>
      <datestamp>2017-01-03T19:44:07Z</datestamp>
      <setSpec>user-biosyslit</setSpec>
    </header>
    <header>
      <identifier>oai:zenodo.org:229643</identifier>
      <datestamp>2017-01-03T19:44:03Z</datestamp>
      <setSpec>user-biosyslit</setSpec>
    </header>
    <header>
      <identifier>oai:zenodo.org:240357</identifier>
      <datestamp>2017-01-12T07:48:11Z</datestamp>
      <setSpec>user-biosyslit</setSpec>
    </header>
    <header>
      <identifier>oai:zenodo.org:246549</identifier>
      <datestamp>2017-01-16T03:38:38Z</datestamp>
      <setSpec>user-biosyslit</setSpec>
    </header>
    <header>
      <identifier>oai:zenodo.org:246545</identifier>
      <datestamp>2017-01-16T03:38:22Z</datestamp>
      <setSpec>user-biosyslit</setSpec>
    </header>
    <header>
      <identifier>oai:zenodo.org:246546</identifier>
      <datestamp>2017-01-16T03:38:26Z</datestamp>
      <setSpec>user-biosyslit</setSpec>
    </header>
    <header>
      <identifier>oai:zenodo.org:246547</identifier>
      <datestamp>2017-01-16T03:38:30Z</datestamp>
      <setSpec>user-biosyslit</setSpec>
    </header>
    <header>
      <identifier>oai:zenodo.org:230872</identifier>
      <datestamp>2017-01-05T09:42:30Z</datestamp>
      <setSpec>user-biosyslit</setSpec>
    </header>
    <header>
      <identifier>oai:zenodo.org:230873</identifier>
      <datestamp>2017-01-05T09:42:35Z</datestamp>
      <setSpec>user-biosyslit</setSpec>
    </header>
    <header>
      <identifier>oai:zenodo.org:229706</identifier>
      <datestamp>2017-01-03T20:47:57Z</datestamp>
      <setSpec>user-biosyslit</setSpec>
    </header>
    <header>
      <identifier>oai:zenodo.org:239743</identifier>
      <datestamp>2017-01-12T00:11:35Z</datestamp>
      <setSpec>user-biosyslit</setSpec>
    </header>
    <header>
      <identifier>oai:zenodo.org:247975</identifier>
      <datestamp>2017-01-16T22:17:36Z</datestamp>
      <setSpec>user-biosyslit</setSpec>
    </header>
    <header>
      <identifier>oai:zenodo.org:247976</identifier>
      <datestamp>2017-01-16T22:17:40Z</datestamp>
      <setSpec>user-biosyslit</setSpec>
    </header>
    <header>
      <identifier>oai:zenodo.org:399331</identifier>
      <datestamp>2017-03-15T19:40:41Z</datestamp>
      <setSpec>user-biosyslit</setSpec>
    </header>
    <header>
      <identifier>oai:zenodo.org:399335</identifier>
      <datestamp>2017-03-15T19:40:52Z</datestamp>
      <setSpec>user-biosyslit</setSpec>
    </header>
    <header>
      <identifier>oai:zenodo.org:399342</identifier>
      <datestamp>2017-03-15T19:41:09Z</datestamp>
      <setSpec>user-biosyslit</setSpec>
    </header>
    <header>
      <identifier>oai:zenodo.org:399340</identifier>
      <datestamp>2017-03-15T19:41:04Z</datestamp>
      <setSpec>user-biosyslit</setSpec>
    </header>
    <header>
      <identifier>oai:zenodo.org:399336</identifier>
      <datestamp>2017-03-15T19:40:55Z</datestamp>
      <setSpec>user-biosyslit</setSpec>
    </header>
    <header>
      <identifier>oai:zenodo.org:284508</identifier>
      <datestamp>2017-02-09T11:25:13Z</datestamp>
      <setSpec>user-biosyslit</setSpec>
    </header>
    <header>
      <identifier>oai:zenodo.org:284512</identifier>
      <datestamp>2017-02-09T11:25:22Z</datestamp>
      <setSpec>user-biosyslit</setSpec>
    </header>
    <header>
      <identifier>oai:zenodo.org:284516</identifier>
      <datestamp>2017-02-09T11:25:31Z</datestamp>
      <setSpec>user-biosyslit</setSpec>
    </header>
    <header>
      <identifier>oai:zenodo.org:284509</identifier>
      <datestamp>2017-02-09T11:25:16Z</datestamp>
      <setSpec>user-biosyslit</setSpec>
    </header>
    <header>
      <identifier>oai:zenodo.org:284513</identifier>
      <datestamp>2017-02-09T11:25:24Z</datestamp>
      <setSpec>user-biosyslit</setSpec>
    </header>
    <header>
      <identifier>oai:zenodo.org:284518</identifier>
      <datestamp>2017-02-09T11:25:35Z</datestamp>
      <setSpec>user-biosyslit</setSpec>
    </header>
    <header>
      <identifier>oai:zenodo.org:284510</identifier>
      <datestamp>2017-02-09T11:25:18Z</datestamp>
      <setSpec>user-biosyslit</setSpec>
    </header>
    <header>
      <identifier>oai:zenodo.org:289411</identifier>
      <datestamp>2017-02-09T23:26:42Z</datestamp>
      <setSpec>user-biosyslit</setSpec>
    </header>
    <header>
      <identifier>oai:zenodo.org:260609</identifier>
      <datestamp>2017-01-27T22:28:22Z</datestamp>
      <setSpec>user-biosyslit</setSpec>
    </header>
    <header>
      <identifier>oai:zenodo.org:260611</identifier>
      <datestamp>2017-01-27T22:28:27Z</datestamp>
      <setSpec>user-biosyslit</setSpec>
    </header>
    <header>
      <identifier>oai:zenodo.org:280899</identifier>
      <datestamp>2017-02-09T04:17:56Z</datestamp>
      <setSpec>user-biosyslit</setSpec>
    </header>
    <header>
      <identifier>oai:zenodo.org:260610</identifier>
      <datestamp>2017-01-27T22:28:25Z</datestamp>
      <setSpec>user-biosyslit</setSpec>
    </header>
    <header>
      <identifier>oai:zenodo.org:282629</identifier>
      <datestamp>2017-02-09T07:20:22Z</datestamp>
      <setSpec>user-biosyslit</setSpec>
    </header>
    <header>
      <identifier>oai:zenodo.org:280894</identifier>
      <datestamp>2017-02-09T04:17:41Z</datestamp>
      <setSpec>user-biosyslit</setSpec>
    </header>
    <header>
      <identifier>oai:zenodo.org:282633</identifier>
      <datestamp>2017-02-09T07:20:30Z</datestamp>
      <setSpec>user-biosyslit</setSpec>
    </header>
    <header>
      <identifier>oai:zenodo.org:282631</identifier>
      <datestamp>2017-02-09T07:20:26Z</datestamp>
      <setSpec>user-biosyslit</setSpec>
    </header>
    <header>
      <identifier>oai:zenodo.org:245379</identifier>
      <datestamp>2017-01-15T12:31:44Z</datestamp>
      <setSpec>user-biosyslit</setSpec>
    </header>
    <header>
      <identifier>oai:zenodo.org:245381</identifier>
      <datestamp>2017-01-15T12:31:21Z</datestamp>
      <setSpec>user-biosyslit</setSpec>
    </header>
    <header>
      <identifier>oai:zenodo.org:245382</identifier>
      <datestamp>2017-01-15T12:31:25Z</datestamp>
      <setSpec>user-biosyslit</setSpec>
    </header>
    <header>
      <identifier>oai:zenodo.org:245380</identifier>
      <datestamp>2017-01-15T12:31:15Z</datestamp>
      <setSpec>user-biosyslit</setSpec>
    </header>
    <header>
      <identifier>oai:zenodo.org:245383</identifier>
      <datestamp>2017-01-15T12:31:30Z</datestamp>
      <setSpec>user-biosyslit</setSpec>
    </header>
    <header>
      <identifier>oai:zenodo.org:245385</identifier>
      <datestamp>2017-01-15T12:31:38Z</datestamp>
      <setSpec>user-biosyslit</setSpec>
    </header>
    <header>
      <identifier>oai:zenodo.org:270017</identifier>
      <datestamp>2017-02-07T22:06:36Z</datestamp>
      <setSpec>user-biosyslit</setSpec>
    </header>
    <header>
      <identifier>oai:zenodo.org:229445</identifier>
      <datestamp>2017-01-03T15:55:00Z</datestamp>
      <setSpec>user-biosyslit</setSpec>
    </header>
    <header>
      <identifier>oai:zenodo.org:229447</identifier>
      <datestamp>2017-01-03T15:55:06Z</datestamp>
      <setSpec>user-biosyslit</setSpec>
    </header>
    <header>
      <identifier>oai:zenodo.org:229438</identifier>
      <datestamp>2017-01-03T15:54:41Z</datestamp>
      <setSpec>user-biosyslit</setSpec>
    </header>
    <header>
      <identifier>oai:zenodo.org:229449</identifier>
      <datestamp>2017-01-03T15:55:10Z</datestamp>
      <setSpec>user-biosyslit</setSpec>
    </header>
    <header>
      <identifier>oai:zenodo.org:229440</identifier>
      <datestamp>2017-01-03T15:54:47Z</datestamp>
      <setSpec>user-biosyslit</setSpec>
    </header>
    <header>
      <identifier>oai:zenodo.org:229436</identifier>
      <datestamp>2017-01-03T15:54:35Z</datestamp>
      <setSpec>user-biosyslit</setSpec>
    </header>
    <header>
      <identifier>oai:zenodo.org:234444</identifier>
      <datestamp>2017-01-08T20:03:02Z</datestamp>
      <setSpec>user-biosyslit</setSpec>
    </header>
    <header>
      <identifier>oai:zenodo.org:234452</identifier>
      <datestamp>2017-01-08T20:03:27Z</datestamp>
      <setSpec>user-biosyslit</setSpec>
    </header>
    <header>
      <identifier>oai:zenodo.org:234448</identifier>
      <datestamp>2017-01-08T20:03:14Z</datestamp>
      <setSpec>user-biosyslit</setSpec>
    </header>
    <header>
      <identifier>oai:zenodo.org:234445</identifier>
      <datestamp>2017-01-08T20:03:06Z</datestamp>
      <setSpec>user-biosyslit</setSpec>
    </header>
    <header>
      <identifier>oai:zenodo.org:234447</identifier>
      <datestamp>2017-01-08T20:03:12Z</datestamp>
      <setSpec>user-biosyslit</setSpec>
    </header>
    <header>
      <identifier>oai:zenodo.org:234450</identifier>
      <datestamp>2017-01-08T20:03:21Z</datestamp>
      <setSpec>user-biosyslit</setSpec>
    </header>
    <header>
      <identifier>oai:zenodo.org:254562</identifier>
      <datestamp>2017-01-20T21:41:35Z</datestamp>
      <setSpec>user-biosyslit</setSpec>
    </header>
    <header>
      <identifier>oai:zenodo.org:254561</identifier>
      <datestamp>2017-01-20T21:41:32Z</datestamp>
      <setSpec>user-biosyslit</setSpec>
    </header>
    <header>
      <identifier>oai:zenodo.org:238956</identifier>
      <datestamp>2017-01-11T13:52:44Z</datestamp>
      <setSpec>user-biosyslit</setSpec>
    </header>
    <header>
      <identifier>oai:zenodo.org:238132</identifier>
      <datestamp>2017-01-11T01:28:04Z</datestamp>
      <setSpec>user-biosyslit</setSpec>
    </header>
    <header>
      <identifier>oai:zenodo.org:238957</identifier>
      <datestamp>2017-01-11T13:52:12Z</datestamp>
      <setSpec>user-biosyslit</setSpec>
    </header>
    <header>
      <identifier>oai:zenodo.org:238958</identifier>
      <datestamp>2017-01-11T13:52:17Z</datestamp>
      <setSpec>user-biosyslit</setSpec>
    </header>
    <header>
      <identifier>oai:zenodo.org:238963</identifier>
      <datestamp>2017-01-11T13:52:34Z</datestamp>
      <setSpec>user-biosyslit</setSpec>
    </header>
    <header>
      <identifier>oai:zenodo.org:238135</identifier>
      <datestamp>2017-01-11T01:27:54Z</datestamp>
      <setSpec>user-biosyslit</setSpec>
    </header>
    <header>
      <identifier>oai:zenodo.org:231309</identifier>
      <datestamp>2017-01-05T19:35:17Z</datestamp>
      <setSpec>user-biosyslit</setSpec>
    </header>
    <header>
      <identifier>oai:zenodo.org:231312</identifier>
      <datestamp>2017-01-05T19:35:29Z</datestamp>
      <setSpec>user-biosyslit</setSpec>
    </header>
    <header>
      <identifier>oai:zenodo.org:231310</identifier>
      <datestamp>2017-01-05T19:35:22Z</datestamp>
      <setSpec>user-biosyslit</setSpec>
    </header>
    <header>
      <identifier>oai:zenodo.org:285265</identifier>
      <datestamp>2017-02-09T13:09:09Z</datestamp>
      <setSpec>user-biosyslit</setSpec>
    </header>
    <header>
      <identifier>oai:zenodo.org:285267</identifier>
      <datestamp>2017-02-09T13:09:14Z</datestamp>
      <setSpec>user-biosyslit</setSpec>
    </header>
    <header>
      <identifier>oai:zenodo.org:285266</identifier>
      <datestamp>2017-02-09T13:09:11Z</datestamp>
      <setSpec>user-biosyslit</setSpec>
    </header>
    <header>
      <identifier>oai:zenodo.org:285268</identifier>
      <datestamp>2017-02-09T13:09:17Z</datestamp>
      <setSpec>user-biosyslit</setSpec>
    </header>
    <header>
      <identifier>oai:zenodo.org:283934</identifier>
      <datestamp>2017-02-09T10:05:04Z</datestamp>
      <setSpec>user-biosyslit</setSpec>
    </header>
    <header>
      <identifier>oai:zenodo.org:250543</identifier>
      <datestamp>2017-01-18T11:40:13Z</datestamp>
      <setSpec>user-biosyslit</setSpec>
    </header>
    <header>
      <identifier>oai:zenodo.org:283936</identifier>
      <datestamp>2017-02-09T10:05:08Z</datestamp>
      <setSpec>user-biosyslit</setSpec>
    </header>
    <header>
      <identifier>oai:zenodo.org:250544</identifier>
      <datestamp>2017-01-18T11:40:19Z</datestamp>
      <setSpec>user-biosyslit</setSpec>
    </header>
    <header>
      <identifier>oai:zenodo.org:250533</identifier>
      <datestamp>2017-01-18T11:39:30Z</datestamp>
      <setSpec>user-biosyslit</setSpec>
    </header>
    <header>
      <identifier>oai:zenodo.org:250542</identifier>
      <datestamp>2017-01-18T11:40:08Z</datestamp>
      <setSpec>user-biosyslit</setSpec>
    </header>
    <header>
      <identifier>oai:zenodo.org:250535</identifier>
      <datestamp>2017-01-18T11:39:38Z</datestamp>
      <setSpec>user-biosyslit</setSpec>
    </header>
    <header>
      <identifier>oai:zenodo.org:250532</identifier>
      <datestamp>2017-01-18T11:39:25Z</datestamp>
      <setSpec>user-biosyslit</setSpec>
    </header>
    <header>
      <identifier>oai:zenodo.org:250536</identifier>
      <datestamp>2017-01-18T11:39:41Z</datestamp>
      <setSpec>user-biosyslit</setSpec>
    </header>
    <header>
      <identifier>oai:zenodo.org:248891</identifier>
      <datestamp>2017-01-17T13:31:20Z</datestamp>
      <setSpec>user-biosyslit</setSpec>
    </header>
    <header>
      <identifier>oai:zenodo.org:248886</identifier>
      <datestamp>2017-01-17T13:30:59Z</datestamp>
      <setSpec>user-biosyslit</setSpec>
    </header>
    <header>
      <identifier>oai:zenodo.org:248887</identifier>
      <datestamp>2017-01-17T13:31:04Z</datestamp>
      <setSpec>user-biosyslit</setSpec>
    </header>
    <header>
      <identifier>oai:zenodo.org:248888</identifier>
      <datestamp>2017-01-17T13:31:08Z</datestamp>
      <setSpec>user-biosyslit</setSpec>
    </header>
    <header>
      <identifier>oai:zenodo.org:248898</identifier>
      <datestamp>2017-01-17T13:31:53Z</datestamp>
      <setSpec>user-biosyslit</setSpec>
    </header>
    <resumptionToken expirationDate="2017-08-31T15:44:47Z" cursor="27400" completeListSize="77796">.eJyNyssKgkAUANB_uWuJeeQT2ogmLlJ0UtJNmIqYk4lTpBP-e25a1_qcN4i6rsBCG6IaFJsYq6amm-qWKCDK8c75uV0ZylPKy54nhZc-41uKMtLogSOmg5PRQHYovGHJ9hE5YWNKWjRHx-SRyXhKqf9iyNUPMpqDq7--ioYezy_ewJLe5oxUY-hGM8M2y2n5ffjPJ38-R-xAgaFoarCIrinQvYqxEWC9l-UDotJRRw.DIm_9w.hYADbvtAnwieBvAUGbt2QwhDo-M</resumptionToken>
  </ListIdentifiers>
</OAI-PMH>
