<?xml version='1.0' encoding='UTF-8'?>
<?xml-stylesheet type="text/xsl" href="/static/xsl/oai2.v1.0.xsl"?>
<OAI-PMH xmlns="http://www.openarchives.org/OAI/2.0/" xmlns:xsi="http://www.w3.org/2001/XMLSchema-instance" xsi:schemaLocation="http://www.openarchives.org/OAI/2.0/ http://www.openarchives.org/OAI/2.0/OAI-PMH.xsd">
  <responseDate>2017-08-31T15:44:39Z</responseDate>
  <request verb="ListIdentifiers" resumptionToken=".eJyNysEKgjAYAOB3-c8Sm1u4hC6hiQcVXUp6CZsi5axwhbrw3fPSuc7f9wZV1xXYaMUIMTeYWpRhRhmhBijR36U8XRYGccykuMm09LJX0mUoNxsrdNQYODkJdYuiDmu-j80jZmN6QVN8SJ-5TsaM-ANHrhXoeAqv_vIqEnmyOHsPnt52kptVH7nxxPGOF0R8H_7z6Z_PUVsw4FE2Ndhrgg1oh7JvFNjvef4AophRQQ.DInAZw.jcKp91iDnyi2k_yJJMhF7v8kcwA">https://zenodo.org/oai2d</request>
  <ListIdentifiers>
    <header>
      <identifier>oai:zenodo.org:256780</identifier>
      <datestamp>2017-01-22T20:36:32Z</datestamp>
      <setSpec>user-biosyslit</setSpec>
    </header>
    <header>
      <identifier>oai:zenodo.org:256975</identifier>
      <datestamp>2017-01-22T23:39:16Z</datestamp>
      <setSpec>user-biosyslit</setSpec>
    </header>
    <header>
      <identifier>oai:zenodo.org:257006</identifier>
      <datestamp>2017-01-22T23:40:52Z</datestamp>
      <setSpec>user-biosyslit</setSpec>
    </header>
    <header>
      <identifier>oai:zenodo.org:257667</identifier>
      <datestamp>2017-01-23T12:16:40Z</datestamp>
      <setSpec>user-biosyslit</setSpec>
    </header>
    <header>
      <identifier>oai:zenodo.org:256825</identifier>
      <datestamp>2017-01-22T21:18:19Z</datestamp>
      <setSpec>user-biosyslit</setSpec>
    </header>
    <header>
      <identifier>oai:zenodo.org:257243</identifier>
      <datestamp>2017-01-23T04:04:00Z</datestamp>
      <setSpec>user-biosyslit</setSpec>
    </header>
    <header>
      <identifier>oai:zenodo.org:258114</identifier>
      <datestamp>2017-01-23T16:45:29Z</datestamp>
      <setSpec>user-biosyslit</setSpec>
    </header>
    <header>
      <identifier>oai:zenodo.org:256786</identifier>
      <datestamp>2017-01-22T20:36:52Z</datestamp>
      <setSpec>user-biosyslit</setSpec>
    </header>
    <header>
      <identifier>oai:zenodo.org:256985</identifier>
      <datestamp>2017-01-22T23:39:45Z</datestamp>
      <setSpec>user-biosyslit</setSpec>
    </header>
    <header>
      <identifier>oai:zenodo.org:256845</identifier>
      <datestamp>2017-01-22T21:19:16Z</datestamp>
      <setSpec>user-biosyslit</setSpec>
    </header>
    <header>
      <identifier>oai:zenodo.org:257374</identifier>
      <datestamp>2017-01-23T06:13:24Z</datestamp>
      <setSpec>user-biosyslit</setSpec>
    </header>
    <header>
      <identifier>oai:zenodo.org:257286</identifier>
      <datestamp>2017-01-23T04:55:07Z</datestamp>
      <setSpec>user-biosyslit</setSpec>
    </header>
    <header>
      <identifier>oai:zenodo.org:253806</identifier>
      <datestamp>2017-01-20T11:20:12Z</datestamp>
      <setSpec>user-biosyslit</setSpec>
    </header>
    <header>
      <identifier>oai:zenodo.org:254728</identifier>
      <datestamp>2017-01-21T02:15:59Z</datestamp>
      <setSpec>user-biosyslit</setSpec>
    </header>
    <header>
      <identifier>oai:zenodo.org:254776</identifier>
      <datestamp>2017-01-21T02:43:59Z</datestamp>
      <setSpec>user-biosyslit</setSpec>
    </header>
    <header>
      <identifier>oai:zenodo.org:255065</identifier>
      <datestamp>2017-01-21T07:27:02Z</datestamp>
      <setSpec>user-biosyslit</setSpec>
    </header>
    <header>
      <identifier>oai:zenodo.org:255088</identifier>
      <datestamp>2017-01-21T07:45:06Z</datestamp>
      <setSpec>user-biosyslit</setSpec>
    </header>
    <header>
      <identifier>oai:zenodo.org:255540</identifier>
      <datestamp>2017-01-21T15:56:46Z</datestamp>
      <setSpec>user-biosyslit</setSpec>
    </header>
    <header>
      <identifier>oai:zenodo.org:255083</identifier>
      <datestamp>2017-01-21T07:41:51Z</datestamp>
      <setSpec>user-biosyslit</setSpec>
    </header>
    <header>
      <identifier>oai:zenodo.org:254997</identifier>
      <datestamp>2017-01-21T06:30:05Z</datestamp>
      <setSpec>user-biosyslit</setSpec>
    </header>
    <header>
      <identifier>oai:zenodo.org:254637</identifier>
      <datestamp>2017-01-21T00:48:27Z</datestamp>
      <setSpec>user-biosyslit</setSpec>
    </header>
    <header>
      <identifier>oai:zenodo.org:254670</identifier>
      <datestamp>2017-01-21T01:21:56Z</datestamp>
      <setSpec>user-biosyslit</setSpec>
    </header>
    <header>
      <identifier>oai:zenodo.org:255057</identifier>
      <datestamp>2017-01-21T07:11:23Z</datestamp>
      <setSpec>user-biosyslit</setSpec>
    </header>
    <header>
      <identifier>oai:zenodo.org:255541</identifier>
      <datestamp>2017-01-21T15:56:48Z</datestamp>
      <setSpec>user-biosyslit</setSpec>
    </header>
    <header>
      <identifier>oai:zenodo.org:255519</identifier>
      <datestamp>2017-01-21T14:32:45Z</datestamp>
      <setSpec>user-biosyslit</setSpec>
    </header>
    <header>
      <identifier>oai:zenodo.org:256121</identifier>
      <datestamp>2017-01-22T04:31:09Z</datestamp>
      <setSpec>user-biosyslit</setSpec>
    </header>
    <header>
      <identifier>oai:zenodo.org:256445</identifier>
      <datestamp>2017-01-22T14:37:48Z</datestamp>
      <setSpec>user-biosyslit</setSpec>
    </header>
    <header>
      <identifier>oai:zenodo.org:254898</identifier>
      <datestamp>2017-01-21T04:37:26Z</datestamp>
      <setSpec>user-biosyslit</setSpec>
    </header>
    <header>
      <identifier>oai:zenodo.org:255049</identifier>
      <datestamp>2017-01-21T07:10:44Z</datestamp>
      <setSpec>user-biosyslit</setSpec>
    </header>
    <header>
      <identifier>oai:zenodo.org:254881</identifier>
      <datestamp>2017-01-21T04:25:56Z</datestamp>
      <setSpec>user-biosyslit</setSpec>
    </header>
    <header>
      <identifier>oai:zenodo.org:255353</identifier>
      <datestamp>2017-01-21T12:23:27Z</datestamp>
      <setSpec>user-biosyslit</setSpec>
    </header>
    <header>
      <identifier>oai:zenodo.org:255828</identifier>
      <datestamp>2017-01-21T22:44:42Z</datestamp>
      <setSpec>user-biosyslit</setSpec>
    </header>
    <header>
      <identifier>oai:zenodo.org:255456</identifier>
      <datestamp>2017-01-21T13:28:52Z</datestamp>
      <setSpec>user-biosyslit</setSpec>
    </header>
    <header>
      <identifier>oai:zenodo.org:255168</identifier>
      <datestamp>2017-01-21T08:39:47Z</datestamp>
      <setSpec>user-biosyslit</setSpec>
    </header>
    <header>
      <identifier>oai:zenodo.org:255223</identifier>
      <datestamp>2017-01-21T10:00:07Z</datestamp>
      <setSpec>user-biosyslit</setSpec>
    </header>
    <header>
      <identifier>oai:zenodo.org:255482</identifier>
      <datestamp>2017-01-21T14:11:27Z</datestamp>
      <setSpec>user-biosyslit</setSpec>
    </header>
    <header>
      <identifier>oai:zenodo.org:256152</identifier>
      <datestamp>2017-01-22T05:10:28Z</datestamp>
      <setSpec>user-biosyslit</setSpec>
    </header>
    <header>
      <identifier>oai:zenodo.org:256340</identifier>
      <datestamp>2017-01-22T13:01:32Z</datestamp>
      <setSpec>user-biosyslit</setSpec>
    </header>
    <header>
      <identifier>oai:zenodo.org:255162</identifier>
      <datestamp>2017-01-21T08:33:49Z</datestamp>
      <setSpec>user-biosyslit</setSpec>
    </header>
    <header>
      <identifier>oai:zenodo.org:255826</identifier>
      <datestamp>2017-01-21T22:40:32Z</datestamp>
      <setSpec>user-biosyslit</setSpec>
    </header>
    <header>
      <identifier>oai:zenodo.org:256170</identifier>
      <datestamp>2017-01-22T06:04:10Z</datestamp>
      <setSpec>user-biosyslit</setSpec>
    </header>
    <header>
      <identifier>oai:zenodo.org:255709</identifier>
      <datestamp>2017-01-21T18:48:07Z</datestamp>
      <setSpec>user-biosyslit</setSpec>
    </header>
    <header>
      <identifier>oai:zenodo.org:255900</identifier>
      <datestamp>2017-01-21T23:25:29Z</datestamp>
      <setSpec>user-biosyslit</setSpec>
    </header>
    <header>
      <identifier>oai:zenodo.org:255972</identifier>
      <datestamp>2017-01-22T00:51:17Z</datestamp>
      <setSpec>user-biosyslit</setSpec>
    </header>
    <header>
      <identifier>oai:zenodo.org:256086</identifier>
      <datestamp>2017-01-22T03:54:12Z</datestamp>
      <setSpec>user-biosyslit</setSpec>
    </header>
    <header>
      <identifier>oai:zenodo.org:255628</identifier>
      <datestamp>2017-01-21T17:31:11Z</datestamp>
      <setSpec>user-biosyslit</setSpec>
    </header>
    <header>
      <identifier>oai:zenodo.org:256093</identifier>
      <datestamp>2017-01-22T04:03:02Z</datestamp>
      <setSpec>user-biosyslit</setSpec>
    </header>
    <header>
      <identifier>oai:zenodo.org:256245</identifier>
      <datestamp>2017-01-22T08:05:08Z</datestamp>
      <setSpec>user-biosyslit</setSpec>
    </header>
    <header>
      <identifier>oai:zenodo.org:255902</identifier>
      <datestamp>2017-01-21T23:25:35Z</datestamp>
      <setSpec>user-biosyslit</setSpec>
    </header>
    <header>
      <identifier>oai:zenodo.org:256590</identifier>
      <datestamp>2017-01-22T18:13:23Z</datestamp>
      <setSpec>user-biosyslit</setSpec>
    </header>
    <header>
      <identifier>oai:zenodo.org:256098</identifier>
      <datestamp>2017-01-22T04:02:43Z</datestamp>
      <setSpec>user-biosyslit</setSpec>
    </header>
    <header>
      <identifier>oai:zenodo.org:257609</identifier>
      <datestamp>2017-01-23T11:10:31Z</datestamp>
      <setSpec>user-biosyslit</setSpec>
    </header>
    <header>
      <identifier>oai:zenodo.org:256090</identifier>
      <datestamp>2017-01-22T03:54:24Z</datestamp>
      <setSpec>user-biosyslit</setSpec>
    </header>
    <header>
      <identifier>oai:zenodo.org:256507</identifier>
      <datestamp>2017-01-22T16:15:00Z</datestamp>
      <setSpec>user-biosyslit</setSpec>
    </header>
    <header>
      <identifier>oai:zenodo.org:256766</identifier>
      <datestamp>2017-01-22T20:24:27Z</datestamp>
      <setSpec>user-biosyslit</setSpec>
    </header>
    <header>
      <identifier>oai:zenodo.org:257237</identifier>
      <datestamp>2017-01-23T04:00:24Z</datestamp>
      <setSpec>user-biosyslit</setSpec>
    </header>
    <header>
      <identifier>oai:zenodo.org:257089</identifier>
      <datestamp>2017-01-23T01:00:39Z</datestamp>
      <setSpec>user-biosyslit</setSpec>
    </header>
    <header>
      <identifier>oai:zenodo.org:257076</identifier>
      <datestamp>2017-01-23T00:42:14Z</datestamp>
      <setSpec>user-biosyslit</setSpec>
    </header>
    <header>
      <identifier>oai:zenodo.org:257470</identifier>
      <datestamp>2017-01-23T07:18:44Z</datestamp>
      <setSpec>user-biosyslit</setSpec>
    </header>
    <header>
      <identifier>oai:zenodo.org:256641</identifier>
      <datestamp>2017-01-22T18:53:35Z</datestamp>
      <setSpec>user-biosyslit</setSpec>
    </header>
    <header>
      <identifier>oai:zenodo.org:257313</identifier>
      <datestamp>2017-01-23T05:10:46Z</datestamp>
      <setSpec>user-biosyslit</setSpec>
    </header>
    <header>
      <identifier>oai:zenodo.org:256828</identifier>
      <datestamp>2017-01-22T21:18:27Z</datestamp>
      <setSpec>user-biosyslit</setSpec>
    </header>
    <header>
      <identifier>oai:zenodo.org:256775</identifier>
      <datestamp>2017-01-22T20:31:34Z</datestamp>
      <setSpec>user-biosyslit</setSpec>
    </header>
    <header>
      <identifier>oai:zenodo.org:258061</identifier>
      <datestamp>2017-01-23T15:43:17Z</datestamp>
      <setSpec>user-biosyslit</setSpec>
    </header>
    <header>
      <identifier>oai:zenodo.org:273351</identifier>
      <datestamp>2017-02-08T09:05:14Z</datestamp>
      <setSpec>user-biosyslit</setSpec>
    </header>
    <header>
      <identifier>oai:zenodo.org:256930</identifier>
      <datestamp>2017-01-22T23:04:43Z</datestamp>
      <setSpec>user-biosyslit</setSpec>
    </header>
    <header>
      <identifier>oai:zenodo.org:257114</identifier>
      <datestamp>2017-01-23T01:21:12Z</datestamp>
      <setSpec>user-biosyslit</setSpec>
    </header>
    <header>
      <identifier>oai:zenodo.org:256718</identifier>
      <datestamp>2017-01-22T19:43:43Z</datestamp>
      <setSpec>user-biosyslit</setSpec>
    </header>
    <header>
      <identifier>oai:zenodo.org:258347</identifier>
      <datestamp>2017-01-23T21:18:18Z</datestamp>
      <setSpec>user-biosyslit</setSpec>
    </header>
    <header>
      <identifier>oai:zenodo.org:256886</identifier>
      <datestamp>2017-01-22T21:58:34Z</datestamp>
      <setSpec>user-biosyslit</setSpec>
    </header>
    <header>
      <identifier>oai:zenodo.org:257281</identifier>
      <datestamp>2017-01-23T04:42:10Z</datestamp>
      <setSpec>user-biosyslit</setSpec>
    </header>
    <header>
      <identifier>oai:zenodo.org:257857</identifier>
      <datestamp>2017-01-23T13:32:37Z</datestamp>
      <setSpec>user-biosyslit</setSpec>
    </header>
    <header>
      <identifier>oai:zenodo.org:257000</identifier>
      <datestamp>2017-01-22T23:40:34Z</datestamp>
      <setSpec>user-biosyslit</setSpec>
    </header>
    <header>
      <identifier>oai:zenodo.org:257294</identifier>
      <datestamp>2017-01-23T04:54:51Z</datestamp>
      <setSpec>user-biosyslit</setSpec>
    </header>
    <header>
      <identifier>oai:zenodo.org:258561</identifier>
      <datestamp>2017-01-24T00:30:47Z</datestamp>
      <setSpec>user-biosyslit</setSpec>
    </header>
    <header>
      <identifier>oai:zenodo.org:257779</identifier>
      <datestamp>2017-01-23T13:28:52Z</datestamp>
      <setSpec>user-biosyslit</setSpec>
    </header>
    <header>
      <identifier>oai:zenodo.org:257414</identifier>
      <datestamp>2017-01-23T06:36:50Z</datestamp>
      <setSpec>user-biosyslit</setSpec>
    </header>
    <header>
      <identifier>oai:zenodo.org:257839</identifier>
      <datestamp>2017-01-23T13:31:48Z</datestamp>
      <setSpec>user-biosyslit</setSpec>
    </header>
    <header>
      <identifier>oai:zenodo.org:257931</identifier>
      <datestamp>2017-01-23T14:07:55Z</datestamp>
      <setSpec>user-biosyslit</setSpec>
    </header>
    <header>
      <identifier>oai:zenodo.org:257395</identifier>
      <datestamp>2017-01-23T06:31:29Z</datestamp>
      <setSpec>user-biosyslit</setSpec>
    </header>
    <header>
      <identifier>oai:zenodo.org:257661</identifier>
      <datestamp>2017-01-23T11:57:00Z</datestamp>
      <setSpec>user-biosyslit</setSpec>
    </header>
    <header>
      <identifier>oai:zenodo.org:257664</identifier>
      <datestamp>2017-01-23T11:57:13Z</datestamp>
      <setSpec>user-biosyslit</setSpec>
    </header>
    <header>
      <identifier>oai:zenodo.org:259288</identifier>
      <datestamp>2017-01-24T09:49:52Z</datestamp>
      <setSpec>user-biosyslit</setSpec>
    </header>
    <header>
      <identifier>oai:zenodo.org:257953</identifier>
      <datestamp>2017-01-23T14:43:23Z</datestamp>
      <setSpec>user-biosyslit</setSpec>
    </header>
    <header>
      <identifier>oai:zenodo.org:257746</identifier>
      <datestamp>2017-01-23T12:56:41Z</datestamp>
      <setSpec>user-biosyslit</setSpec>
    </header>
    <header>
      <identifier>oai:zenodo.org:257802</identifier>
      <datestamp>2017-01-23T13:29:55Z</datestamp>
      <setSpec>user-biosyslit</setSpec>
    </header>
    <header>
      <identifier>oai:zenodo.org:257808</identifier>
      <datestamp>2017-01-23T13:30:19Z</datestamp>
      <setSpec>user-biosyslit</setSpec>
    </header>
    <header>
      <identifier>oai:zenodo.org:258170</identifier>
      <datestamp>2017-01-23T17:34:51Z</datestamp>
      <setSpec>user-biosyslit</setSpec>
    </header>
    <header>
      <identifier>oai:zenodo.org:257978</identifier>
      <datestamp>2017-01-23T15:04:46Z</datestamp>
      <setSpec>user-biosyslit</setSpec>
    </header>
    <header>
      <identifier>oai:zenodo.org:258294</identifier>
      <datestamp>2017-01-23T20:23:19Z</datestamp>
      <setSpec>user-biosyslit</setSpec>
    </header>
    <header>
      <identifier>oai:zenodo.org:257774</identifier>
      <datestamp>2017-01-23T13:28:13Z</datestamp>
      <setSpec>user-biosyslit</setSpec>
    </header>
    <header>
      <identifier>oai:zenodo.org:257952</identifier>
      <datestamp>2017-01-23T14:43:20Z</datestamp>
      <setSpec>user-biosyslit</setSpec>
    </header>
    <header>
      <identifier>oai:zenodo.org:258570</identifier>
      <datestamp>2017-01-24T00:49:36Z</datestamp>
      <setSpec>user-biosyslit</setSpec>
    </header>
    <header>
      <identifier>oai:zenodo.org:258511</identifier>
      <datestamp>2017-01-24T00:01:41Z</datestamp>
      <setSpec>user-biosyslit</setSpec>
    </header>
    <header>
      <identifier>oai:zenodo.org:258354</identifier>
      <datestamp>2017-01-23T21:23:01Z</datestamp>
      <setSpec>user-biosyslit</setSpec>
    </header>
    <header>
      <identifier>oai:zenodo.org:258389</identifier>
      <datestamp>2017-01-23T21:54:45Z</datestamp>
      <setSpec>user-biosyslit</setSpec>
    </header>
    <header>
      <identifier>oai:zenodo.org:258360</identifier>
      <datestamp>2017-01-23T21:29:53Z</datestamp>
      <setSpec>user-biosyslit</setSpec>
    </header>
    <header>
      <identifier>oai:zenodo.org:273248</identifier>
      <datestamp>2017-02-08T08:45:21Z</datestamp>
      <setSpec>user-biosyslit</setSpec>
    </header>
    <header>
      <identifier>oai:zenodo.org:273255</identifier>
      <datestamp>2017-02-08T08:48:51Z</datestamp>
      <setSpec>user-biosyslit</setSpec>
    </header>
    <header>
      <identifier>oai:zenodo.org:251951</identifier>
      <datestamp>2017-01-19T06:28:09Z</datestamp>
      <setSpec>user-biosyslit</setSpec>
    </header>
    <resumptionToken expirationDate="2017-08-31T15:46:39Z" cursor="53000" completeListSize="77796">.eJyNyj0LgkAYAOD_8s4S91FeCi1hSYOKXUq2hJ0i5WniFeqJ_z2X5pqfZwSV5xnYaIFNZJnYwusVJowtLWaAEu1Tyut9dhDnWIpaRqkbv49VjBJSMN9Rveck1NclCiqs-T4kZ7zuozsawlP0SvSxj-mh42jHPB0O_uMwv4wGrrzc3IZH9VZykrXBLhw43vILFd-H_3z653PUBgxo0iIHe0WJAWWXtoUCe5ymD9jHUXg.DInAZw.fCXpRL2uR1UfTZM6B1UswweT47E</resumptionToken>
  </ListIdentifiers>
</OAI-PMH>
