<?xml version='1.0' encoding='UTF-8'?>
<?xml-stylesheet type="text/xsl" href="/static/xsl/oai2.v1.0.xsl"?>
<OAI-PMH xmlns="http://www.openarchives.org/OAI/2.0/" xmlns:xsi="http://www.w3.org/2001/XMLSchema-instance" xsi:schemaLocation="http://www.openarchives.org/OAI/2.0/ http://www.openarchives.org/OAI/2.0/OAI-PMH.xsd">
  <responseDate>2017-08-31T15:43:18Z</responseDate>
  <request verb="ListIdentifiers" resumptionToken=".eJyNysEOQzAYAOB3-c-ytGpjkl2EiQNCR8ZlMURMmegWVLz7XHbezt-3AC_LAnS0UxV0UDQNyUglBB81CXg-PBm71RtDfo1Z3rEos-N32MYokSvVM_nkmgnxRIP8Fgt6DuQr1qaoRnNwiV6JCKeYOCNFluqKYPYezvYK4tssvds9jTqDUbkYfCuYKTZoSvLvw38-8fOZ_AQS9FlVgk72WIJmzIaKg76s6wecHlE6.DInAFg.hRm7veaZLYq1bnB6f6yGw949xWk">https://zenodo.org/oai2d</request>
  <ListIdentifiers>
    <header>
      <identifier>oai:zenodo.org:276428</identifier>
      <datestamp>2017-02-08T18:49:19Z</datestamp>
      <setSpec>user-biosyslit</setSpec>
    </header>
    <header>
      <identifier>oai:zenodo.org:279113</identifier>
      <datestamp>2017-02-09T00:38:40Z</datestamp>
      <setSpec>user-biosyslit</setSpec>
    </header>
    <header>
      <identifier>oai:zenodo.org:235006</identifier>
      <datestamp>2017-01-09T04:39:10Z</datestamp>
      <setSpec>user-biosyslit</setSpec>
    </header>
    <header>
      <identifier>oai:zenodo.org:226925</identifier>
      <datestamp>2017-01-01T06:41:17Z</datestamp>
      <setSpec>user-biosyslit</setSpec>
    </header>
    <header>
      <identifier>oai:zenodo.org:226924</identifier>
      <datestamp>2017-01-01T06:41:12Z</datestamp>
      <setSpec>user-biosyslit</setSpec>
    </header>
    <header>
      <identifier>oai:zenodo.org:275266</identifier>
      <datestamp>2017-02-08T15:54:30Z</datestamp>
      <setSpec>user-biosyslit</setSpec>
    </header>
    <header>
      <identifier>oai:zenodo.org:246018</identifier>
      <datestamp>2017-01-15T21:06:06Z</datestamp>
      <setSpec>user-biosyslit</setSpec>
    </header>
    <header>
      <identifier>oai:zenodo.org:244506</identifier>
      <datestamp>2017-01-14T22:52:57Z</datestamp>
      <setSpec>user-biosyslit</setSpec>
    </header>
    <header>
      <identifier>oai:zenodo.org:273207</identifier>
      <datestamp>2017-02-08T08:28:02Z</datestamp>
      <setSpec>user-biosyslit</setSpec>
    </header>
    <header>
      <identifier>oai:zenodo.org:246019</identifier>
      <datestamp>2017-01-15T21:06:02Z</datestamp>
      <setSpec>user-biosyslit</setSpec>
    </header>
    <header>
      <identifier>oai:zenodo.org:237768</identifier>
      <datestamp>2017-01-10T19:57:23Z</datestamp>
      <setSpec>user-biosyslit</setSpec>
    </header>
    <header>
      <identifier>oai:zenodo.org:294118</identifier>
      <datestamp>2017-02-20T19:20:21Z</datestamp>
      <setSpec>user-biosyslit</setSpec>
    </header>
    <header>
      <identifier>oai:zenodo.org:237760</identifier>
      <datestamp>2017-01-10T19:56:53Z</datestamp>
      <setSpec>user-biosyslit</setSpec>
    </header>
    <header>
      <identifier>oai:zenodo.org:237764</identifier>
      <datestamp>2017-01-10T19:57:07Z</datestamp>
      <setSpec>user-biosyslit</setSpec>
    </header>
    <header>
      <identifier>oai:zenodo.org:237763</identifier>
      <datestamp>2017-01-10T19:57:04Z</datestamp>
      <setSpec>user-biosyslit</setSpec>
    </header>
    <header>
      <identifier>oai:zenodo.org:237765</identifier>
      <datestamp>2017-01-10T19:57:11Z</datestamp>
      <setSpec>user-biosyslit</setSpec>
    </header>
    <header>
      <identifier>oai:zenodo.org:294117</identifier>
      <datestamp>2017-02-20T19:20:19Z</datestamp>
      <setSpec>user-biosyslit</setSpec>
    </header>
    <header>
      <identifier>oai:zenodo.org:237769</identifier>
      <datestamp>2017-01-10T19:57:27Z</datestamp>
      <setSpec>user-biosyslit</setSpec>
    </header>
    <header>
      <identifier>oai:zenodo.org:237766</identifier>
      <datestamp>2017-01-10T19:57:16Z</datestamp>
      <setSpec>user-biosyslit</setSpec>
    </header>
    <header>
      <identifier>oai:zenodo.org:294114</identifier>
      <datestamp>2017-02-20T19:20:29Z</datestamp>
      <setSpec>user-biosyslit</setSpec>
    </header>
    <header>
      <identifier>oai:zenodo.org:276978</identifier>
      <datestamp>2017-02-08T20:07:44Z</datestamp>
      <setSpec>user-biosyslit</setSpec>
    </header>
    <header>
      <identifier>oai:zenodo.org:276982</identifier>
      <datestamp>2017-02-08T20:07:54Z</datestamp>
      <setSpec>user-biosyslit</setSpec>
    </header>
    <header>
      <identifier>oai:zenodo.org:294120</identifier>
      <datestamp>2017-02-20T19:20:25Z</datestamp>
      <setSpec>user-biosyslit</setSpec>
    </header>
    <header>
      <identifier>oai:zenodo.org:276977</identifier>
      <datestamp>2017-02-08T20:07:41Z</datestamp>
      <setSpec>user-biosyslit</setSpec>
    </header>
    <header>
      <identifier>oai:zenodo.org:278317</identifier>
      <datestamp>2017-02-08T22:54:00Z</datestamp>
      <setSpec>user-biosyslit</setSpec>
    </header>
    <header>
      <identifier>oai:zenodo.org:276676</identifier>
      <datestamp>2017-02-08T19:27:05Z</datestamp>
      <setSpec>user-biosyslit</setSpec>
    </header>
    <header>
      <identifier>oai:zenodo.org:276677</identifier>
      <datestamp>2017-02-08T19:27:08Z</datestamp>
      <setSpec>user-biosyslit</setSpec>
    </header>
    <header>
      <identifier>oai:zenodo.org:278321</identifier>
      <datestamp>2017-02-08T22:53:58Z</datestamp>
      <setSpec>user-biosyslit</setSpec>
    </header>
    <header>
      <identifier>oai:zenodo.org:276621</identifier>
      <datestamp>2017-02-08T19:21:32Z</datestamp>
      <setSpec>user-biosyslit</setSpec>
    </header>
    <header>
      <identifier>oai:zenodo.org:276634</identifier>
      <datestamp>2017-02-08T19:21:20Z</datestamp>
      <setSpec>user-biosyslit</setSpec>
    </header>
    <header>
      <identifier>oai:zenodo.org:276636</identifier>
      <datestamp>2017-02-08T19:21:27Z</datestamp>
      <setSpec>user-biosyslit</setSpec>
    </header>
    <header>
      <identifier>oai:zenodo.org:276626</identifier>
      <datestamp>2017-02-08T19:20:53Z</datestamp>
      <setSpec>user-biosyslit</setSpec>
    </header>
    <header>
      <identifier>oai:zenodo.org:288386</identifier>
      <datestamp>2017-02-09T20:47:28Z</datestamp>
      <setSpec>user-biosyslit</setSpec>
    </header>
    <header>
      <identifier>oai:zenodo.org:278681</identifier>
      <datestamp>2017-02-08T23:39:34Z</datestamp>
      <setSpec>user-biosyslit</setSpec>
    </header>
    <header>
      <identifier>oai:zenodo.org:278684</identifier>
      <datestamp>2017-02-08T23:39:46Z</datestamp>
      <setSpec>user-biosyslit</setSpec>
    </header>
    <header>
      <identifier>oai:zenodo.org:278686</identifier>
      <datestamp>2017-02-08T23:39:53Z</datestamp>
      <setSpec>user-biosyslit</setSpec>
    </header>
    <header>
      <identifier>oai:zenodo.org:239699</identifier>
      <datestamp>2017-01-11T23:51:21Z</datestamp>
      <setSpec>user-biosyslit</setSpec>
    </header>
    <header>
      <identifier>oai:zenodo.org:236415</identifier>
      <datestamp>2017-01-09T23:58:04Z</datestamp>
      <setSpec>user-biosyslit</setSpec>
    </header>
    <header>
      <identifier>oai:zenodo.org:239701</identifier>
      <datestamp>2017-01-11T23:51:28Z</datestamp>
      <setSpec>user-biosyslit</setSpec>
    </header>
    <header>
      <identifier>oai:zenodo.org:227883</identifier>
      <datestamp>2017-01-02T06:15:11Z</datestamp>
      <setSpec>user-biosyslit</setSpec>
    </header>
    <header>
      <identifier>oai:zenodo.org:236414</identifier>
      <datestamp>2017-01-09T23:58:05Z</datestamp>
      <setSpec>user-biosyslit</setSpec>
    </header>
    <header>
      <identifier>oai:zenodo.org:231607</identifier>
      <datestamp>2017-01-06T04:50:41Z</datestamp>
      <setSpec>user-biosyslit</setSpec>
    </header>
    <header>
      <identifier>oai:zenodo.org:231608</identifier>
      <datestamp>2017-01-06T04:50:43Z</datestamp>
      <setSpec>user-biosyslit</setSpec>
    </header>
    <header>
      <identifier>oai:zenodo.org:231606</identifier>
      <datestamp>2017-01-06T04:50:38Z</datestamp>
      <setSpec>user-biosyslit</setSpec>
    </header>
    <header>
      <identifier>oai:zenodo.org:274423</identifier>
      <datestamp>2017-02-08T13:09:17Z</datestamp>
      <setSpec>user-biosyslit</setSpec>
    </header>
    <header>
      <identifier>oai:zenodo.org:274418</identifier>
      <datestamp>2017-02-08T13:09:03Z</datestamp>
      <setSpec>user-biosyslit</setSpec>
    </header>
    <header>
      <identifier>oai:zenodo.org:274420</identifier>
      <datestamp>2017-02-08T13:09:09Z</datestamp>
      <setSpec>user-biosyslit</setSpec>
    </header>
    <header>
      <identifier>oai:zenodo.org:274424</identifier>
      <datestamp>2017-02-08T13:09:19Z</datestamp>
      <setSpec>user-biosyslit</setSpec>
    </header>
    <header>
      <identifier>oai:zenodo.org:274421</identifier>
      <datestamp>2017-02-08T13:09:12Z</datestamp>
      <setSpec>user-biosyslit</setSpec>
    </header>
    <header>
      <identifier>oai:zenodo.org:274422</identifier>
      <datestamp>2017-02-08T13:09:14Z</datestamp>
      <setSpec>user-biosyslit</setSpec>
    </header>
    <header>
      <identifier>oai:zenodo.org:274415</identifier>
      <datestamp>2017-02-08T13:09:24Z</datestamp>
      <setSpec>user-biosyslit</setSpec>
    </header>
    <header>
      <identifier>oai:zenodo.org:274425</identifier>
      <datestamp>2017-02-08T13:09:23Z</datestamp>
      <setSpec>user-biosyslit</setSpec>
    </header>
    <header>
      <identifier>oai:zenodo.org:271691</identifier>
      <datestamp>2017-02-08T02:22:42Z</datestamp>
      <setSpec>user-biosyslit</setSpec>
    </header>
    <header>
      <identifier>oai:zenodo.org:271692</identifier>
      <datestamp>2017-02-08T02:22:33Z</datestamp>
      <setSpec>user-biosyslit</setSpec>
    </header>
    <header>
      <identifier>oai:zenodo.org:271695</identifier>
      <datestamp>2017-02-08T02:22:41Z</datestamp>
      <setSpec>user-biosyslit</setSpec>
    </header>
    <header>
      <identifier>oai:zenodo.org:271693</identifier>
      <datestamp>2017-02-08T02:22:35Z</datestamp>
      <setSpec>user-biosyslit</setSpec>
    </header>
    <header>
      <identifier>oai:zenodo.org:239738</identifier>
      <datestamp>2017-01-12T00:06:17Z</datestamp>
      <setSpec>user-biosyslit</setSpec>
    </header>
    <header>
      <identifier>oai:zenodo.org:239735</identifier>
      <datestamp>2017-01-12T00:06:09Z</datestamp>
      <setSpec>user-biosyslit</setSpec>
    </header>
    <header>
      <identifier>oai:zenodo.org:239736</identifier>
      <datestamp>2017-01-12T00:06:12Z</datestamp>
      <setSpec>user-biosyslit</setSpec>
    </header>
    <header>
      <identifier>oai:zenodo.org:231656</identifier>
      <datestamp>2017-01-06T05:23:54Z</datestamp>
      <setSpec>user-biosyslit</setSpec>
    </header>
    <header>
      <identifier>oai:zenodo.org:231655</identifier>
      <datestamp>2017-01-06T05:23:50Z</datestamp>
      <setSpec>user-biosyslit</setSpec>
    </header>
    <header>
      <identifier>oai:zenodo.org:231658</identifier>
      <datestamp>2017-01-06T05:24:05Z</datestamp>
      <setSpec>user-biosyslit</setSpec>
    </header>
    <header>
      <identifier>oai:zenodo.org:239733</identifier>
      <datestamp>2017-01-12T00:06:03Z</datestamp>
      <setSpec>user-biosyslit</setSpec>
    </header>
    <header>
      <identifier>oai:zenodo.org:231649</identifier>
      <datestamp>2017-01-06T05:15:51Z</datestamp>
      <setSpec>user-biosyslit</setSpec>
    </header>
    <header>
      <identifier>oai:zenodo.org:231645</identifier>
      <datestamp>2017-01-06T05:15:39Z</datestamp>
      <setSpec>user-biosyslit</setSpec>
    </header>
    <header>
      <identifier>oai:zenodo.org:231648</identifier>
      <datestamp>2017-01-06T05:15:48Z</datestamp>
      <setSpec>user-biosyslit</setSpec>
    </header>
    <header>
      <identifier>oai:zenodo.org:231646</identifier>
      <datestamp>2017-01-06T05:15:43Z</datestamp>
      <setSpec>user-biosyslit</setSpec>
    </header>
    <header>
      <identifier>oai:zenodo.org:231650</identifier>
      <datestamp>2017-01-06T05:15:55Z</datestamp>
      <setSpec>user-biosyslit</setSpec>
    </header>
    <header>
      <identifier>oai:zenodo.org:275675</identifier>
      <datestamp>2017-02-08T16:53:48Z</datestamp>
      <setSpec>user-biosyslit</setSpec>
    </header>
    <header>
      <identifier>oai:zenodo.org:275678</identifier>
      <datestamp>2017-02-08T16:54:04Z</datestamp>
      <setSpec>user-biosyslit</setSpec>
    </header>
    <header>
      <identifier>oai:zenodo.org:275679</identifier>
      <datestamp>2017-02-08T16:54:06Z</datestamp>
      <setSpec>user-biosyslit</setSpec>
    </header>
    <header>
      <identifier>oai:zenodo.org:275674</identifier>
      <datestamp>2017-02-08T16:53:46Z</datestamp>
      <setSpec>user-biosyslit</setSpec>
    </header>
    <header>
      <identifier>oai:zenodo.org:289677</identifier>
      <datestamp>2017-02-10T00:04:37Z</datestamp>
      <setSpec>user-biosyslit</setSpec>
    </header>
    <header>
      <identifier>oai:zenodo.org:275671</identifier>
      <datestamp>2017-02-08T16:53:38Z</datestamp>
      <setSpec>user-biosyslit</setSpec>
    </header>
    <header>
      <identifier>oai:zenodo.org:275672</identifier>
      <datestamp>2017-02-08T16:53:41Z</datestamp>
      <setSpec>user-biosyslit</setSpec>
    </header>
    <header>
      <identifier>oai:zenodo.org:275677</identifier>
      <datestamp>2017-02-08T16:54:01Z</datestamp>
      <setSpec>user-biosyslit</setSpec>
    </header>
    <header>
      <identifier>oai:zenodo.org:275673</identifier>
      <datestamp>2017-02-08T16:53:43Z</datestamp>
      <setSpec>user-biosyslit</setSpec>
    </header>
    <header>
      <identifier>oai:zenodo.org:262683</identifier>
      <datestamp>2017-01-29T07:06:25Z</datestamp>
      <setSpec>user-biosyslit</setSpec>
    </header>
    <header>
      <identifier>oai:zenodo.org:262684</identifier>
      <datestamp>2017-01-29T07:06:20Z</datestamp>
      <setSpec>user-biosyslit</setSpec>
    </header>
    <header>
      <identifier>oai:zenodo.org:262685</identifier>
      <datestamp>2017-01-29T07:06:23Z</datestamp>
      <setSpec>user-biosyslit</setSpec>
    </header>
    <header>
      <identifier>oai:zenodo.org:267621</identifier>
      <datestamp>2017-02-02T05:07:20Z</datestamp>
      <setSpec>user-biosyslit</setSpec>
    </header>
    <header>
      <identifier>oai:zenodo.org:267635</identifier>
      <datestamp>2017-02-02T05:07:01Z</datestamp>
      <setSpec>user-biosyslit</setSpec>
    </header>
    <header>
      <identifier>oai:zenodo.org:267639</identifier>
      <datestamp>2017-02-02T05:07:15Z</datestamp>
      <setSpec>user-biosyslit</setSpec>
    </header>
    <header>
      <identifier>oai:zenodo.org:267632</identifier>
      <datestamp>2017-02-02T05:06:53Z</datestamp>
      <setSpec>user-biosyslit</setSpec>
    </header>
    <header>
      <identifier>oai:zenodo.org:267634</identifier>
      <datestamp>2017-02-02T05:06:59Z</datestamp>
      <setSpec>user-biosyslit</setSpec>
    </header>
    <header>
      <identifier>oai:zenodo.org:274993</identifier>
      <datestamp>2017-02-08T14:59:16Z</datestamp>
      <setSpec>user-biosyslit</setSpec>
    </header>
    <header>
      <identifier>oai:zenodo.org:293386</identifier>
      <datestamp>2017-02-19T13:36:03Z</datestamp>
      <setSpec>user-biosyslit</setSpec>
    </header>
    <header>
      <identifier>oai:zenodo.org:231708</identifier>
      <datestamp>2017-01-06T06:17:27Z</datestamp>
      <setSpec>user-biosyslit</setSpec>
    </header>
    <header>
      <identifier>oai:zenodo.org:294097</identifier>
      <datestamp>2017-02-20T19:18:09Z</datestamp>
      <setSpec>user-biosyslit</setSpec>
    </header>
    <header>
      <identifier>oai:zenodo.org:293389</identifier>
      <datestamp>2017-02-19T13:35:58Z</datestamp>
      <setSpec>user-biosyslit</setSpec>
    </header>
    <header>
      <identifier>oai:zenodo.org:293387</identifier>
      <datestamp>2017-02-19T13:35:54Z</datestamp>
      <setSpec>user-biosyslit</setSpec>
    </header>
    <header>
      <identifier>oai:zenodo.org:293391</identifier>
      <datestamp>2017-02-19T13:36:02Z</datestamp>
      <setSpec>user-biosyslit</setSpec>
    </header>
    <header>
      <identifier>oai:zenodo.org:231711</identifier>
      <datestamp>2017-01-06T06:17:25Z</datestamp>
      <setSpec>user-biosyslit</setSpec>
    </header>
    <header>
      <identifier>oai:zenodo.org:282705</identifier>
      <datestamp>2017-02-09T07:29:19Z</datestamp>
      <setSpec>user-biosyslit</setSpec>
    </header>
    <header>
      <identifier>oai:zenodo.org:230508</identifier>
      <datestamp>2017-01-05T02:18:50Z</datestamp>
      <setSpec>user-biosyslit</setSpec>
    </header>
    <header>
      <identifier>oai:zenodo.org:282706</identifier>
      <datestamp>2017-02-09T07:29:11Z</datestamp>
      <setSpec>user-biosyslit</setSpec>
    </header>
    <header>
      <identifier>oai:zenodo.org:282708</identifier>
      <datestamp>2017-02-09T07:29:15Z</datestamp>
      <setSpec>user-biosyslit</setSpec>
    </header>
    <header>
      <identifier>oai:zenodo.org:282707</identifier>
      <datestamp>2017-02-09T07:29:13Z</datestamp>
      <setSpec>user-biosyslit</setSpec>
    </header>
    <header>
      <identifier>oai:zenodo.org:282709</identifier>
      <datestamp>2017-02-09T07:29:18Z</datestamp>
      <setSpec>user-biosyslit</setSpec>
    </header>
    <header>
      <identifier>oai:zenodo.org:226983</identifier>
      <datestamp>2017-01-01T07:43:45Z</datestamp>
      <setSpec>user-biosyslit</setSpec>
    </header>
    <resumptionToken expirationDate="2017-08-31T15:45:18Z" cursor="35000" completeListSize="77796">.eJyNyj0PQ0AYAOD_8s7SHJerj6RLQ8WAcCVYGkVEHRXXBif-ey2d2_l5VuBVVYKBDjoiBGuEHLGqY6JrEvBifDJ2a3aGIolZ0bMot-N32MUoVWrVM_nsmin2RIv8Thb0EiiJrM1Rg5bgGr1SEc4xdiaKLNUVweI9nP2V2LdZdrcHGvVnRpVy9K1gofKZZrj4PvnPJ34-k59AgiGvKzAwUSRop3ysORjrtn0ArmdRTw.DInAFg.ArQxWlNLwKeYb-VUI181MlrSAOk</resumptionToken>
  </ListIdentifiers>
</OAI-PMH>
