<?xml version='1.0' encoding='UTF-8'?>
<?xml-stylesheet type="text/xsl" href="/static/xsl/oai2.v1.0.xsl"?>
<OAI-PMH xmlns="http://www.openarchives.org/OAI/2.0/" xmlns:xsi="http://www.w3.org/2001/XMLSchema-instance" xsi:schemaLocation="http://www.openarchives.org/OAI/2.0/ http://www.openarchives.org/OAI/2.0/OAI-PMH.xsd">
  <responseDate>2017-08-31T15:46:15Z</responseDate>
  <request verb="ListIdentifiers" resumptionToken=".eJyNysEKgjAYAOB3-c8S_zZLEbqIJh5S1lLUS5iKlMvEFemid69L5zp_3xNU09Tg4IKiZdqIzF4iQcpWBqhqvEp5OH0YqiyVVS-TMkjvu0uKOW2tyFPT1stZpDuML0SLDacZsafkhDPfJ7dc76aUhQ-BvrXVfI7O4efVLA5kcQwGkfSuFLQeY5_PgriiYNX3kT-f_vk8tQYDhrJtwLFM04DuUY6tAuf5er0BiUFRKw.DInAxw.rAVLI3Oy4IVOMC1AR9h9OpV9AfQ">https://zenodo.org/oai2d</request>
  <ListIdentifiers>
    <header>
      <identifier>oai:zenodo.org:228369</identifier>
      <datestamp>2017-01-02T23:09:39Z</datestamp>
      <setSpec>user-biosyslit</setSpec>
    </header>
    <header>
      <identifier>oai:zenodo.org:228371</identifier>
      <datestamp>2017-01-02T23:09:37Z</datestamp>
      <setSpec>user-biosyslit</setSpec>
    </header>
    <header>
      <identifier>oai:zenodo.org:282912</identifier>
      <datestamp>2017-02-09T07:50:17Z</datestamp>
      <setSpec>user-biosyslit</setSpec>
    </header>
    <header>
      <identifier>oai:zenodo.org:283158</identifier>
      <datestamp>2017-02-09T08:15:08Z</datestamp>
      <setSpec>user-biosyslit</setSpec>
    </header>
    <header>
      <identifier>oai:zenodo.org:275643</identifier>
      <datestamp>2017-02-08T16:51:10Z</datestamp>
      <setSpec>user-biosyslit</setSpec>
    </header>
    <header>
      <identifier>oai:zenodo.org:280053</identifier>
      <datestamp>2017-02-09T02:35:15Z</datestamp>
      <setSpec>user-biosyslit</setSpec>
    </header>
    <header>
      <identifier>oai:zenodo.org:275424</identifier>
      <datestamp>2017-02-08T16:19:34Z</datestamp>
      <setSpec>user-biosyslit</setSpec>
    </header>
    <header>
      <identifier>oai:zenodo.org:280056</identifier>
      <datestamp>2017-02-09T02:35:14Z</datestamp>
      <setSpec>user-biosyslit</setSpec>
    </header>
    <header>
      <identifier>oai:zenodo.org:275423</identifier>
      <datestamp>2017-02-08T16:19:38Z</datestamp>
      <setSpec>user-biosyslit</setSpec>
    </header>
    <header>
      <identifier>oai:zenodo.org:276329</identifier>
      <datestamp>2017-02-08T18:39:48Z</datestamp>
      <setSpec>user-biosyslit</setSpec>
    </header>
    <header>
      <identifier>oai:zenodo.org:276335</identifier>
      <datestamp>2017-02-08T18:39:19Z</datestamp>
      <setSpec>user-biosyslit</setSpec>
    </header>
    <header>
      <identifier>oai:zenodo.org:276336</identifier>
      <datestamp>2017-02-08T18:39:21Z</datestamp>
      <setSpec>user-biosyslit</setSpec>
    </header>
    <header>
      <identifier>oai:zenodo.org:276340</identifier>
      <datestamp>2017-02-08T18:39:30Z</datestamp>
      <setSpec>user-biosyslit</setSpec>
    </header>
    <header>
      <identifier>oai:zenodo.org:276341</identifier>
      <datestamp>2017-02-08T18:39:35Z</datestamp>
      <setSpec>user-biosyslit</setSpec>
    </header>
    <header>
      <identifier>oai:zenodo.org:276346</identifier>
      <datestamp>2017-02-08T18:39:47Z</datestamp>
      <setSpec>user-biosyslit</setSpec>
    </header>
    <header>
      <identifier>oai:zenodo.org:276343</identifier>
      <datestamp>2017-02-08T18:39:40Z</datestamp>
      <setSpec>user-biosyslit</setSpec>
    </header>
    <header>
      <identifier>oai:zenodo.org:283161</identifier>
      <datestamp>2017-02-09T08:16:01Z</datestamp>
      <setSpec>user-biosyslit</setSpec>
    </header>
    <header>
      <identifier>oai:zenodo.org:283162</identifier>
      <datestamp>2017-02-09T08:16:04Z</datestamp>
      <setSpec>user-biosyslit</setSpec>
    </header>
    <header>
      <identifier>oai:zenodo.org:283163</identifier>
      <datestamp>2017-02-09T08:16:06Z</datestamp>
      <setSpec>user-biosyslit</setSpec>
    </header>
    <header>
      <identifier>oai:zenodo.org:258910</identifier>
      <datestamp>2017-01-24T06:17:50Z</datestamp>
      <setSpec>user-biosyslit</setSpec>
    </header>
    <header>
      <identifier>oai:zenodo.org:258912</identifier>
      <datestamp>2017-01-24T06:17:56Z</datestamp>
      <setSpec>user-biosyslit</setSpec>
    </header>
    <header>
      <identifier>oai:zenodo.org:276085</identifier>
      <datestamp>2017-02-08T18:05:26Z</datestamp>
      <setSpec>user-biosyslit</setSpec>
    </header>
    <header>
      <identifier>oai:zenodo.org:276086</identifier>
      <datestamp>2017-02-08T18:05:29Z</datestamp>
      <setSpec>user-biosyslit</setSpec>
    </header>
    <header>
      <identifier>oai:zenodo.org:284317</identifier>
      <datestamp>2017-02-09T11:00:43Z</datestamp>
      <setSpec>user-biosyslit</setSpec>
    </header>
    <header>
      <identifier>oai:zenodo.org:239614</identifier>
      <datestamp>2017-01-11T22:44:55Z</datestamp>
      <setSpec>user-biosyslit</setSpec>
    </header>
    <header>
      <identifier>oai:zenodo.org:239612</identifier>
      <datestamp>2017-01-11T22:44:48Z</datestamp>
      <setSpec>user-biosyslit</setSpec>
    </header>
    <header>
      <identifier>oai:zenodo.org:239611</identifier>
      <datestamp>2017-01-11T22:44:45Z</datestamp>
      <setSpec>user-biosyslit</setSpec>
    </header>
    <header>
      <identifier>oai:zenodo.org:239613</identifier>
      <datestamp>2017-01-11T22:44:51Z</datestamp>
      <setSpec>user-biosyslit</setSpec>
    </header>
    <header>
      <identifier>oai:zenodo.org:286243</identifier>
      <datestamp>2017-02-09T15:37:18Z</datestamp>
      <setSpec>user-biosyslit</setSpec>
    </header>
    <header>
      <identifier>oai:zenodo.org:286245</identifier>
      <datestamp>2017-02-09T15:37:22Z</datestamp>
      <setSpec>user-biosyslit</setSpec>
    </header>
    <header>
      <identifier>oai:zenodo.org:286250</identifier>
      <datestamp>2017-02-09T15:37:33Z</datestamp>
      <setSpec>user-biosyslit</setSpec>
    </header>
    <header>
      <identifier>oai:zenodo.org:286252</identifier>
      <datestamp>2017-02-09T15:37:38Z</datestamp>
      <setSpec>user-biosyslit</setSpec>
    </header>
    <header>
      <identifier>oai:zenodo.org:286248</identifier>
      <datestamp>2017-02-09T15:37:29Z</datestamp>
      <setSpec>user-biosyslit</setSpec>
    </header>
    <header>
      <identifier>oai:zenodo.org:286251</identifier>
      <datestamp>2017-02-09T15:37:36Z</datestamp>
      <setSpec>user-biosyslit</setSpec>
    </header>
    <header>
      <identifier>oai:zenodo.org:286249</identifier>
      <datestamp>2017-02-09T15:37:31Z</datestamp>
      <setSpec>user-biosyslit</setSpec>
    </header>
    <header>
      <identifier>oai:zenodo.org:286242</identifier>
      <datestamp>2017-02-09T15:37:16Z</datestamp>
      <setSpec>user-biosyslit</setSpec>
    </header>
    <header>
      <identifier>oai:zenodo.org:286247</identifier>
      <datestamp>2017-02-09T15:37:27Z</datestamp>
      <setSpec>user-biosyslit</setSpec>
    </header>
    <header>
      <identifier>oai:zenodo.org:230756</identifier>
      <datestamp>2017-01-05T07:49:30Z</datestamp>
      <setSpec>user-biosyslit</setSpec>
    </header>
    <header>
      <identifier>oai:zenodo.org:240051</identifier>
      <datestamp>2017-01-12T04:09:45Z</datestamp>
      <setSpec>user-biosyslit</setSpec>
    </header>
    <header>
      <identifier>oai:zenodo.org:240054</identifier>
      <datestamp>2017-01-12T04:09:33Z</datestamp>
      <setSpec>user-biosyslit</setSpec>
    </header>
    <header>
      <identifier>oai:zenodo.org:240056</identifier>
      <datestamp>2017-01-12T04:09:41Z</datestamp>
      <setSpec>user-biosyslit</setSpec>
    </header>
    <header>
      <identifier>oai:zenodo.org:240052</identifier>
      <datestamp>2017-01-12T04:09:26Z</datestamp>
      <setSpec>user-biosyslit</setSpec>
    </header>
    <header>
      <identifier>oai:zenodo.org:251027</identifier>
      <datestamp>2017-01-18T17:52:46Z</datestamp>
      <setSpec>user-biosyslit</setSpec>
    </header>
    <header>
      <identifier>oai:zenodo.org:241590</identifier>
      <datestamp>2017-01-13T03:38:35Z</datestamp>
      <setSpec>user-biosyslit</setSpec>
    </header>
    <header>
      <identifier>oai:zenodo.org:241592</identifier>
      <datestamp>2017-01-13T03:38:45Z</datestamp>
      <setSpec>user-biosyslit</setSpec>
    </header>
    <header>
      <identifier>oai:zenodo.org:241587</identifier>
      <datestamp>2017-01-13T03:38:20Z</datestamp>
      <setSpec>user-biosyslit</setSpec>
    </header>
    <header>
      <identifier>oai:zenodo.org:241586</identifier>
      <datestamp>2017-01-13T03:38:16Z</datestamp>
      <setSpec>user-biosyslit</setSpec>
    </header>
    <header>
      <identifier>oai:zenodo.org:251040</identifier>
      <datestamp>2017-01-18T17:52:45Z</datestamp>
      <setSpec>user-biosyslit</setSpec>
    </header>
    <header>
      <identifier>oai:zenodo.org:274550</identifier>
      <datestamp>2017-02-08T13:39:11Z</datestamp>
      <setSpec>user-biosyslit</setSpec>
    </header>
    <header>
      <identifier>oai:zenodo.org:277554</identifier>
      <datestamp>2017-02-08T21:21:22Z</datestamp>
      <setSpec>user-biosyslit</setSpec>
    </header>
    <header>
      <identifier>oai:zenodo.org:231759</identifier>
      <datestamp>2017-01-06T06:54:50Z</datestamp>
      <setSpec>user-biosyslit</setSpec>
    </header>
    <header>
      <identifier>oai:zenodo.org:231758</identifier>
      <datestamp>2017-01-06T06:54:46Z</datestamp>
      <setSpec>user-biosyslit</setSpec>
    </header>
    <header>
      <identifier>oai:zenodo.org:270601</identifier>
      <datestamp>2017-02-07T23:34:35Z</datestamp>
      <setSpec>user-biosyslit</setSpec>
    </header>
    <header>
      <identifier>oai:zenodo.org:270597</identifier>
      <datestamp>2017-02-07T23:34:24Z</datestamp>
      <setSpec>user-biosyslit</setSpec>
    </header>
    <header>
      <identifier>oai:zenodo.org:270600</identifier>
      <datestamp>2017-02-07T23:34:31Z</datestamp>
      <setSpec>user-biosyslit</setSpec>
    </header>
    <header>
      <identifier>oai:zenodo.org:236475</identifier>
      <datestamp>2017-01-10T00:43:16Z</datestamp>
      <setSpec>user-biosyslit</setSpec>
    </header>
    <header>
      <identifier>oai:zenodo.org:236490</identifier>
      <datestamp>2017-01-10T00:43:15Z</datestamp>
      <setSpec>user-biosyslit</setSpec>
    </header>
    <header>
      <identifier>oai:zenodo.org:260905</identifier>
      <datestamp>2017-01-28T02:15:02Z</datestamp>
      <setSpec>user-biosyslit</setSpec>
    </header>
    <header>
      <identifier>oai:zenodo.org:260904</identifier>
      <datestamp>2017-01-28T02:15:00Z</datestamp>
      <setSpec>user-biosyslit</setSpec>
    </header>
    <header>
      <identifier>oai:zenodo.org:260903</identifier>
      <datestamp>2017-01-28T02:14:56Z</datestamp>
      <setSpec>user-biosyslit</setSpec>
    </header>
    <header>
      <identifier>oai:zenodo.org:263547</identifier>
      <datestamp>2017-01-30T00:20:14Z</datestamp>
      <setSpec>user-biosyslit</setSpec>
    </header>
    <header>
      <identifier>oai:zenodo.org:263549</identifier>
      <datestamp>2017-01-30T00:20:25Z</datestamp>
      <setSpec>user-biosyslit</setSpec>
    </header>
    <header>
      <identifier>oai:zenodo.org:263552</identifier>
      <datestamp>2017-01-30T00:20:39Z</datestamp>
      <setSpec>user-biosyslit</setSpec>
    </header>
    <header>
      <identifier>oai:zenodo.org:263548</identifier>
      <datestamp>2017-01-30T00:20:18Z</datestamp>
      <setSpec>user-biosyslit</setSpec>
    </header>
    <header>
      <identifier>oai:zenodo.org:231419</identifier>
      <datestamp>2017-01-06T01:34:02Z</datestamp>
      <setSpec>user-biosyslit</setSpec>
    </header>
    <header>
      <identifier>oai:zenodo.org:231412</identifier>
      <datestamp>2017-01-06T01:33:35Z</datestamp>
      <setSpec>user-biosyslit</setSpec>
    </header>
    <header>
      <identifier>oai:zenodo.org:231410</identifier>
      <datestamp>2017-01-06T01:33:26Z</datestamp>
      <setSpec>user-biosyslit</setSpec>
    </header>
    <header>
      <identifier>oai:zenodo.org:231416</identifier>
      <datestamp>2017-01-06T01:33:49Z</datestamp>
      <setSpec>user-biosyslit</setSpec>
    </header>
    <header>
      <identifier>oai:zenodo.org:231413</identifier>
      <datestamp>2017-01-06T01:33:39Z</datestamp>
      <setSpec>user-biosyslit</setSpec>
    </header>
    <header>
      <identifier>oai:zenodo.org:231414</identifier>
      <datestamp>2017-01-06T01:33:42Z</datestamp>
      <setSpec>user-biosyslit</setSpec>
    </header>
    <header>
      <identifier>oai:zenodo.org:231411</identifier>
      <datestamp>2017-01-06T01:33:32Z</datestamp>
      <setSpec>user-biosyslit</setSpec>
    </header>
    <header>
      <identifier>oai:zenodo.org:231415</identifier>
      <datestamp>2017-01-06T01:33:46Z</datestamp>
      <setSpec>user-biosyslit</setSpec>
    </header>
    <header>
      <identifier>oai:zenodo.org:231417</identifier>
      <datestamp>2017-01-06T01:33:53Z</datestamp>
      <setSpec>user-biosyslit</setSpec>
    </header>
    <header>
      <identifier>oai:zenodo.org:227535</identifier>
      <datestamp>2017-01-01T23:27:39Z</datestamp>
      <setSpec>user-biosyslit</setSpec>
    </header>
    <header>
      <identifier>oai:zenodo.org:234708</identifier>
      <datestamp>2017-01-09T00:53:02Z</datestamp>
      <setSpec>user-biosyslit</setSpec>
    </header>
    <header>
      <identifier>oai:zenodo.org:234724</identifier>
      <datestamp>2017-01-09T00:52:53Z</datestamp>
      <setSpec>user-biosyslit</setSpec>
    </header>
    <header>
      <identifier>oai:zenodo.org:234723</identifier>
      <datestamp>2017-01-09T00:52:50Z</datestamp>
      <setSpec>user-biosyslit</setSpec>
    </header>
    <header>
      <identifier>oai:zenodo.org:234725</identifier>
      <datestamp>2017-01-09T00:52:57Z</datestamp>
      <setSpec>user-biosyslit</setSpec>
    </header>
    <header>
      <identifier>oai:zenodo.org:234720</identifier>
      <datestamp>2017-01-09T00:52:37Z</datestamp>
      <setSpec>user-biosyslit</setSpec>
    </header>
    <header>
      <identifier>oai:zenodo.org:282239</identifier>
      <datestamp>2017-02-09T06:42:13Z</datestamp>
      <setSpec>user-biosyslit</setSpec>
    </header>
    <header>
      <identifier>oai:zenodo.org:245455</identifier>
      <datestamp>2017-01-15T13:38:52Z</datestamp>
      <setSpec>user-biosyslit</setSpec>
    </header>
    <header>
      <identifier>oai:zenodo.org:245453</identifier>
      <datestamp>2017-01-15T13:38:46Z</datestamp>
      <setSpec>user-biosyslit</setSpec>
    </header>
    <header>
      <identifier>oai:zenodo.org:245449</identifier>
      <datestamp>2017-01-15T13:38:34Z</datestamp>
      <setSpec>user-biosyslit</setSpec>
    </header>
    <header>
      <identifier>oai:zenodo.org:245458</identifier>
      <datestamp>2017-01-15T13:38:59Z</datestamp>
      <setSpec>user-biosyslit</setSpec>
    </header>
    <header>
      <identifier>oai:zenodo.org:245461</identifier>
      <datestamp>2017-01-15T13:39:08Z</datestamp>
      <setSpec>user-biosyslit</setSpec>
    </header>
    <header>
      <identifier>oai:zenodo.org:245450</identifier>
      <datestamp>2017-01-15T13:38:36Z</datestamp>
      <setSpec>user-biosyslit</setSpec>
    </header>
    <header>
      <identifier>oai:zenodo.org:245448</identifier>
      <datestamp>2017-01-15T13:38:29Z</datestamp>
      <setSpec>user-biosyslit</setSpec>
    </header>
    <header>
      <identifier>oai:zenodo.org:287076</identifier>
      <datestamp>2017-02-09T17:26:06Z</datestamp>
      <setSpec>user-biosyslit</setSpec>
    </header>
    <header>
      <identifier>oai:zenodo.org:287075</identifier>
      <datestamp>2017-02-09T17:26:02Z</datestamp>
      <setSpec>user-biosyslit</setSpec>
    </header>
    <header>
      <identifier>oai:zenodo.org:240015</identifier>
      <datestamp>2017-01-12T03:44:29Z</datestamp>
      <setSpec>user-biosyslit</setSpec>
    </header>
    <header>
      <identifier>oai:zenodo.org:240017</identifier>
      <datestamp>2017-01-12T03:44:14Z</datestamp>
      <setSpec>user-biosyslit</setSpec>
    </header>
    <header>
      <identifier>oai:zenodo.org:253715</identifier>
      <datestamp>2017-01-20T10:19:01Z</datestamp>
      <setSpec>user-biosyslit</setSpec>
    </header>
    <header>
      <identifier>oai:zenodo.org:253712</identifier>
      <datestamp>2017-01-20T10:18:52Z</datestamp>
      <setSpec>user-biosyslit</setSpec>
    </header>
    <header>
      <identifier>oai:zenodo.org:253713</identifier>
      <datestamp>2017-01-20T10:18:55Z</datestamp>
      <setSpec>user-biosyslit</setSpec>
    </header>
    <header>
      <identifier>oai:zenodo.org:253719</identifier>
      <datestamp>2017-01-20T10:19:10Z</datestamp>
      <setSpec>user-biosyslit</setSpec>
    </header>
    <header>
      <identifier>oai:zenodo.org:253716</identifier>
      <datestamp>2017-01-20T10:19:03Z</datestamp>
      <setSpec>user-biosyslit</setSpec>
    </header>
    <header>
      <identifier>oai:zenodo.org:253721</identifier>
      <datestamp>2017-01-20T10:19:15Z</datestamp>
      <setSpec>user-biosyslit</setSpec>
    </header>
    <header>
      <identifier>oai:zenodo.org:253714</identifier>
      <datestamp>2017-01-20T10:18:59Z</datestamp>
      <setSpec>user-biosyslit</setSpec>
    </header>
    <header>
      <identifier>oai:zenodo.org:265702</identifier>
      <datestamp>2017-01-31T19:28:35Z</datestamp>
      <setSpec>user-biosyslit</setSpec>
    </header>
    <header>
      <identifier>oai:zenodo.org:265710</identifier>
      <datestamp>2017-01-31T19:28:25Z</datestamp>
      <setSpec>user-biosyslit</setSpec>
    </header>
    <resumptionToken expirationDate="2017-08-31T15:48:15Z" cursor="74300" completeListSize="77796">.eJyNysEKgjAYAOB3-c8SmzNdQhexpIOKLiW9hKlIOU1coU5897x0rvP3zSDKsgATbSg26FbfURXrlOgaVUDk_ZPz631lyC8xz1seZU78DpsYJWpleLYYXTshnqyR32DJjoF6wXSM7mgKztErkeEYk9PA0MFwZTB5j9P6CuI7PL05HYtaizO16P1DMDFssZTk34f_fPLns8UeFOiyqgTT0LYK1EPWVwLMeVk-rwlRVQ.DInAxw.ZSVVBPv4fWrB-XdWsKTrvZkS2vk</resumptionToken>
  </ListIdentifiers>
</OAI-PMH>
