<?xml version='1.0' encoding='UTF-8'?>
<?xml-stylesheet type="text/xsl" href="/static/xsl/oai2.v1.0.xsl"?>
<OAI-PMH xmlns="http://www.openarchives.org/OAI/2.0/" xmlns:xsi="http://www.w3.org/2001/XMLSchema-instance" xsi:schemaLocation="http://www.openarchives.org/OAI/2.0/ http://www.openarchives.org/OAI/2.0/OAI-PMH.xsd">
  <responseDate>2017-08-31T15:45:34Z</responseDate>
  <request verb="ListIdentifiers" resumptionToken=".eJyNyj0LgkAYAOD_8s4S96GeCC1iiUPKeSnqEqYi1VXiFepJ_72W5pqfZwHVtg24aIWZSS1qOhYzTZtYjBig6uEu5eH0cajzTNY3mVZB9kyuGSpIxyJfTTu_oJG-oPiKtdhykmNnSk9o5vv0Uehkymg4CrRhO83n6Bx-XkPjQJbHoBfpzZOCNEO84bPAnihp_X34z6d_Pl-twYC-6lpwbcsx4DJWQ6fAXV6vN9QAUXs.DInAng.4X3spc1zVGkrL7Lm0FBO-X08EIQ">https://zenodo.org/oai2d</request>
  <ListIdentifiers>
    <header>
      <identifier>oai:zenodo.org:814901</identifier>
      <datestamp>2017-06-20T15:49:16Z</datestamp>
      <setSpec>openaire</setSpec>
      <setSpec>user-biosyslit</setSpec>
    </header>
    <header>
      <identifier>oai:zenodo.org:814924</identifier>
      <datestamp>2017-06-20T15:49:16Z</datestamp>
      <setSpec>openaire</setSpec>
      <setSpec>user-biosyslit</setSpec>
    </header>
    <header>
      <identifier>oai:zenodo.org:814939</identifier>
      <datestamp>2017-06-20T15:39:01Z</datestamp>
      <setSpec>user-biosyslit</setSpec>
    </header>
    <header>
      <identifier>oai:zenodo.org:235270</identifier>
      <datestamp>2017-01-09T07:48:34Z</datestamp>
      <setSpec>user-biosyslit</setSpec>
    </header>
    <header>
      <identifier>oai:zenodo.org:235267</identifier>
      <datestamp>2017-01-09T07:48:21Z</datestamp>
      <setSpec>user-biosyslit</setSpec>
    </header>
    <header>
      <identifier>oai:zenodo.org:235269</identifier>
      <datestamp>2017-01-09T07:48:29Z</datestamp>
      <setSpec>user-biosyslit</setSpec>
    </header>
    <header>
      <identifier>oai:zenodo.org:235268</identifier>
      <datestamp>2017-01-09T07:48:25Z</datestamp>
      <setSpec>user-biosyslit</setSpec>
    </header>
    <header>
      <identifier>oai:zenodo.org:235265</identifier>
      <datestamp>2017-01-09T07:48:14Z</datestamp>
      <setSpec>user-biosyslit</setSpec>
    </header>
    <header>
      <identifier>oai:zenodo.org:233502</identifier>
      <datestamp>2017-01-08T07:18:28Z</datestamp>
      <setSpec>user-biosyslit</setSpec>
    </header>
    <header>
      <identifier>oai:zenodo.org:233498</identifier>
      <datestamp>2017-01-08T07:18:12Z</datestamp>
      <setSpec>user-biosyslit</setSpec>
    </header>
    <header>
      <identifier>oai:zenodo.org:233506</identifier>
      <datestamp>2017-01-08T07:18:46Z</datestamp>
      <setSpec>user-biosyslit</setSpec>
    </header>
    <header>
      <identifier>oai:zenodo.org:233505</identifier>
      <datestamp>2017-01-08T07:18:41Z</datestamp>
      <setSpec>user-biosyslit</setSpec>
    </header>
    <header>
      <identifier>oai:zenodo.org:233503</identifier>
      <datestamp>2017-01-08T07:18:33Z</datestamp>
      <setSpec>user-biosyslit</setSpec>
    </header>
    <header>
      <identifier>oai:zenodo.org:233504</identifier>
      <datestamp>2017-01-08T07:18:37Z</datestamp>
      <setSpec>user-biosyslit</setSpec>
    </header>
    <header>
      <identifier>oai:zenodo.org:233271</identifier>
      <datestamp>2017-01-08T02:45:22Z</datestamp>
      <setSpec>user-biosyslit</setSpec>
    </header>
    <header>
      <identifier>oai:zenodo.org:233270</identifier>
      <datestamp>2017-01-08T02:45:20Z</datestamp>
      <setSpec>user-biosyslit</setSpec>
    </header>
    <header>
      <identifier>oai:zenodo.org:233273</identifier>
      <datestamp>2017-01-08T02:45:27Z</datestamp>
      <setSpec>user-biosyslit</setSpec>
    </header>
    <header>
      <identifier>oai:zenodo.org:278893</identifier>
      <datestamp>2017-02-09T00:03:06Z</datestamp>
      <setSpec>user-biosyslit</setSpec>
    </header>
    <header>
      <identifier>oai:zenodo.org:233274</identifier>
      <datestamp>2017-01-08T02:45:31Z</datestamp>
      <setSpec>user-biosyslit</setSpec>
    </header>
    <header>
      <identifier>oai:zenodo.org:278891</identifier>
      <datestamp>2017-02-09T00:03:00Z</datestamp>
      <setSpec>user-biosyslit</setSpec>
    </header>
    <header>
      <identifier>oai:zenodo.org:278887</identifier>
      <datestamp>2017-02-09T00:02:47Z</datestamp>
      <setSpec>user-biosyslit</setSpec>
    </header>
    <header>
      <identifier>oai:zenodo.org:233265</identifier>
      <datestamp>2017-01-08T02:45:05Z</datestamp>
      <setSpec>user-biosyslit</setSpec>
    </header>
    <header>
      <identifier>oai:zenodo.org:233263</identifier>
      <datestamp>2017-01-08T02:44:59Z</datestamp>
      <setSpec>user-biosyslit</setSpec>
    </header>
    <header>
      <identifier>oai:zenodo.org:288290</identifier>
      <datestamp>2017-02-09T20:33:44Z</datestamp>
      <setSpec>user-biosyslit</setSpec>
    </header>
    <header>
      <identifier>oai:zenodo.org:344583</identifier>
      <datestamp>2017-02-28T23:40:47Z</datestamp>
      <setSpec>user-biosyslit</setSpec>
    </header>
    <header>
      <identifier>oai:zenodo.org:228244</identifier>
      <datestamp>2017-01-02T20:31:53Z</datestamp>
      <setSpec>user-biosyslit</setSpec>
    </header>
    <header>
      <identifier>oai:zenodo.org:228246</identifier>
      <datestamp>2017-01-02T20:31:10Z</datestamp>
      <setSpec>user-biosyslit</setSpec>
    </header>
    <header>
      <identifier>oai:zenodo.org:228258</identifier>
      <datestamp>2017-01-02T20:31:46Z</datestamp>
      <setSpec>user-biosyslit</setSpec>
    </header>
    <header>
      <identifier>oai:zenodo.org:228255</identifier>
      <datestamp>2017-01-02T20:31:38Z</datestamp>
      <setSpec>user-biosyslit</setSpec>
    </header>
    <header>
      <identifier>oai:zenodo.org:228251</identifier>
      <datestamp>2017-01-02T20:31:27Z</datestamp>
      <setSpec>user-biosyslit</setSpec>
    </header>
    <header>
      <identifier>oai:zenodo.org:228254</identifier>
      <datestamp>2017-01-02T20:31:36Z</datestamp>
      <setSpec>user-biosyslit</setSpec>
    </header>
    <header>
      <identifier>oai:zenodo.org:228245</identifier>
      <datestamp>2017-01-02T20:31:08Z</datestamp>
      <setSpec>user-biosyslit</setSpec>
    </header>
    <header>
      <identifier>oai:zenodo.org:228250</identifier>
      <datestamp>2017-01-02T20:31:24Z</datestamp>
      <setSpec>user-biosyslit</setSpec>
    </header>
    <header>
      <identifier>oai:zenodo.org:233418</identifier>
      <datestamp>2017-01-08T04:45:02Z</datestamp>
      <setSpec>user-biosyslit</setSpec>
    </header>
    <header>
      <identifier>oai:zenodo.org:233420</identifier>
      <datestamp>2017-01-08T04:45:08Z</datestamp>
      <setSpec>user-biosyslit</setSpec>
    </header>
    <header>
      <identifier>oai:zenodo.org:263755</identifier>
      <datestamp>2017-01-30T07:32:09Z</datestamp>
      <setSpec>user-biosyslit</setSpec>
    </header>
    <header>
      <identifier>oai:zenodo.org:263756</identifier>
      <datestamp>2017-01-30T07:32:12Z</datestamp>
      <setSpec>user-biosyslit</setSpec>
    </header>
    <header>
      <identifier>oai:zenodo.org:263759</identifier>
      <datestamp>2017-01-30T07:32:21Z</datestamp>
      <setSpec>user-biosyslit</setSpec>
    </header>
    <header>
      <identifier>oai:zenodo.org:263764</identifier>
      <datestamp>2017-01-30T07:32:35Z</datestamp>
      <setSpec>user-biosyslit</setSpec>
    </header>
    <header>
      <identifier>oai:zenodo.org:263762</identifier>
      <datestamp>2017-01-30T07:32:30Z</datestamp>
      <setSpec>user-biosyslit</setSpec>
    </header>
    <header>
      <identifier>oai:zenodo.org:263760</identifier>
      <datestamp>2017-01-30T07:32:24Z</datestamp>
      <setSpec>user-biosyslit</setSpec>
    </header>
    <header>
      <identifier>oai:zenodo.org:263766</identifier>
      <datestamp>2017-01-30T07:32:41Z</datestamp>
      <setSpec>user-biosyslit</setSpec>
    </header>
    <header>
      <identifier>oai:zenodo.org:263765</identifier>
      <datestamp>2017-01-30T07:32:38Z</datestamp>
      <setSpec>user-biosyslit</setSpec>
    </header>
    <header>
      <identifier>oai:zenodo.org:281406</identifier>
      <datestamp>2017-02-09T05:15:50Z</datestamp>
      <setSpec>user-biosyslit</setSpec>
    </header>
    <header>
      <identifier>oai:zenodo.org:226971</identifier>
      <datestamp>2017-01-01T07:32:56Z</datestamp>
      <setSpec>user-biosyslit</setSpec>
    </header>
    <header>
      <identifier>oai:zenodo.org:226970</identifier>
      <datestamp>2017-01-01T07:32:53Z</datestamp>
      <setSpec>user-biosyslit</setSpec>
    </header>
    <header>
      <identifier>oai:zenodo.org:248560</identifier>
      <datestamp>2017-01-17T05:37:40Z</datestamp>
      <setSpec>user-biosyslit</setSpec>
    </header>
    <header>
      <identifier>oai:zenodo.org:248556</identifier>
      <datestamp>2017-01-17T05:37:25Z</datestamp>
      <setSpec>user-biosyslit</setSpec>
    </header>
    <header>
      <identifier>oai:zenodo.org:248558</identifier>
      <datestamp>2017-01-17T05:37:31Z</datestamp>
      <setSpec>user-biosyslit</setSpec>
    </header>
    <header>
      <identifier>oai:zenodo.org:248550</identifier>
      <datestamp>2017-01-17T05:36:50Z</datestamp>
      <setSpec>user-biosyslit</setSpec>
    </header>
    <header>
      <identifier>oai:zenodo.org:248555</identifier>
      <datestamp>2017-01-17T05:37:20Z</datestamp>
      <setSpec>user-biosyslit</setSpec>
    </header>
    <header>
      <identifier>oai:zenodo.org:248559</identifier>
      <datestamp>2017-01-17T05:37:35Z</datestamp>
      <setSpec>user-biosyslit</setSpec>
    </header>
    <header>
      <identifier>oai:zenodo.org:245534</identifier>
      <datestamp>2017-01-15T15:03:47Z</datestamp>
      <setSpec>user-biosyslit</setSpec>
    </header>
    <header>
      <identifier>oai:zenodo.org:246274</identifier>
      <datestamp>2017-01-15T23:37:20Z</datestamp>
      <setSpec>user-biosyslit</setSpec>
    </header>
    <header>
      <identifier>oai:zenodo.org:245533</identifier>
      <datestamp>2017-01-15T15:03:45Z</datestamp>
      <setSpec>user-biosyslit</setSpec>
    </header>
    <header>
      <identifier>oai:zenodo.org:245535</identifier>
      <datestamp>2017-01-15T15:03:50Z</datestamp>
      <setSpec>user-biosyslit</setSpec>
    </header>
    <header>
      <identifier>oai:zenodo.org:245536</identifier>
      <datestamp>2017-01-15T15:03:53Z</datestamp>
      <setSpec>user-biosyslit</setSpec>
    </header>
    <header>
      <identifier>oai:zenodo.org:246275</identifier>
      <datestamp>2017-01-15T23:37:24Z</datestamp>
      <setSpec>user-biosyslit</setSpec>
    </header>
    <header>
      <identifier>oai:zenodo.org:245538</identifier>
      <datestamp>2017-01-15T15:04:02Z</datestamp>
      <setSpec>user-biosyslit</setSpec>
    </header>
    <header>
      <identifier>oai:zenodo.org:245530</identifier>
      <datestamp>2017-01-15T15:03:37Z</datestamp>
      <setSpec>user-biosyslit</setSpec>
    </header>
    <header>
      <identifier>oai:zenodo.org:245540</identifier>
      <datestamp>2017-01-15T15:04:09Z</datestamp>
      <setSpec>user-biosyslit</setSpec>
    </header>
    <header>
      <identifier>oai:zenodo.org:249140</identifier>
      <datestamp>2017-01-17T16:50:45Z</datestamp>
      <setSpec>user-biosyslit</setSpec>
    </header>
    <header>
      <identifier>oai:zenodo.org:280935</identifier>
      <datestamp>2017-02-09T04:22:36Z</datestamp>
      <setSpec>user-biosyslit</setSpec>
    </header>
    <header>
      <identifier>oai:zenodo.org:234202</identifier>
      <datestamp>2017-01-08T16:17:14Z</datestamp>
      <setSpec>user-biosyslit</setSpec>
    </header>
    <header>
      <identifier>oai:zenodo.org:234203</identifier>
      <datestamp>2017-01-08T16:17:18Z</datestamp>
      <setSpec>user-biosyslit</setSpec>
    </header>
    <header>
      <identifier>oai:zenodo.org:234206</identifier>
      <datestamp>2017-01-08T16:17:30Z</datestamp>
      <setSpec>user-biosyslit</setSpec>
    </header>
    <header>
      <identifier>oai:zenodo.org:234207</identifier>
      <datestamp>2017-01-08T16:17:33Z</datestamp>
      <setSpec>user-biosyslit</setSpec>
    </header>
    <header>
      <identifier>oai:zenodo.org:234205</identifier>
      <datestamp>2017-01-08T16:17:26Z</datestamp>
      <setSpec>user-biosyslit</setSpec>
    </header>
    <header>
      <identifier>oai:zenodo.org:249155</identifier>
      <datestamp>2017-01-17T16:50:40Z</datestamp>
      <setSpec>user-biosyslit</setSpec>
    </header>
    <header>
      <identifier>oai:zenodo.org:244554</identifier>
      <datestamp>2017-01-14T23:28:43Z</datestamp>
      <setSpec>user-biosyslit</setSpec>
    </header>
    <header>
      <identifier>oai:zenodo.org:244565</identifier>
      <datestamp>2017-01-14T23:29:17Z</datestamp>
      <setSpec>user-biosyslit</setSpec>
    </header>
    <header>
      <identifier>oai:zenodo.org:244557</identifier>
      <datestamp>2017-01-14T23:28:52Z</datestamp>
      <setSpec>user-biosyslit</setSpec>
    </header>
    <header>
      <identifier>oai:zenodo.org:244561</identifier>
      <datestamp>2017-01-14T23:29:06Z</datestamp>
      <setSpec>user-biosyslit</setSpec>
    </header>
    <header>
      <identifier>oai:zenodo.org:244556</identifier>
      <datestamp>2017-01-14T23:28:48Z</datestamp>
      <setSpec>user-biosyslit</setSpec>
    </header>
    <header>
      <identifier>oai:zenodo.org:244558</identifier>
      <datestamp>2017-01-14T23:28:54Z</datestamp>
      <setSpec>user-biosyslit</setSpec>
    </header>
    <header>
      <identifier>oai:zenodo.org:244562</identifier>
      <datestamp>2017-01-14T23:29:08Z</datestamp>
      <setSpec>user-biosyslit</setSpec>
    </header>
    <header>
      <identifier>oai:zenodo.org:248520</identifier>
      <datestamp>2017-01-17T04:56:26Z</datestamp>
      <setSpec>user-biosyslit</setSpec>
    </header>
    <header>
      <identifier>oai:zenodo.org:248518</identifier>
      <datestamp>2017-01-17T04:56:21Z</datestamp>
      <setSpec>user-biosyslit</setSpec>
    </header>
    <header>
      <identifier>oai:zenodo.org:248515</identifier>
      <datestamp>2017-01-17T04:56:12Z</datestamp>
      <setSpec>user-biosyslit</setSpec>
    </header>
    <header>
      <identifier>oai:zenodo.org:235280</identifier>
      <datestamp>2017-01-09T07:49:15Z</datestamp>
      <setSpec>user-biosyslit</setSpec>
    </header>
    <header>
      <identifier>oai:zenodo.org:235273</identifier>
      <datestamp>2017-01-09T07:48:45Z</datestamp>
      <setSpec>user-biosyslit</setSpec>
    </header>
    <header>
      <identifier>oai:zenodo.org:235283</identifier>
      <datestamp>2017-01-09T07:49:28Z</datestamp>
      <setSpec>user-biosyslit</setSpec>
    </header>
    <header>
      <identifier>oai:zenodo.org:235284</identifier>
      <datestamp>2017-01-09T07:49:32Z</datestamp>
      <setSpec>user-biosyslit</setSpec>
    </header>
    <header>
      <identifier>oai:zenodo.org:235278</identifier>
      <datestamp>2017-01-09T07:49:07Z</datestamp>
      <setSpec>user-biosyslit</setSpec>
    </header>
    <header>
      <identifier>oai:zenodo.org:235272</identifier>
      <datestamp>2017-01-09T07:48:41Z</datestamp>
      <setSpec>user-biosyslit</setSpec>
    </header>
    <header>
      <identifier>oai:zenodo.org:235282</identifier>
      <datestamp>2017-01-09T07:49:23Z</datestamp>
      <setSpec>user-biosyslit</setSpec>
    </header>
    <header>
      <identifier>oai:zenodo.org:235277</identifier>
      <datestamp>2017-01-09T07:49:02Z</datestamp>
      <setSpec>user-biosyslit</setSpec>
    </header>
    <header>
      <identifier>oai:zenodo.org:286814</identifier>
      <datestamp>2017-02-09T16:52:01Z</datestamp>
      <setSpec>user-biosyslit</setSpec>
    </header>
    <header>
      <identifier>oai:zenodo.org:286811</identifier>
      <datestamp>2017-02-09T16:51:53Z</datestamp>
      <setSpec>user-biosyslit</setSpec>
    </header>
    <header>
      <identifier>oai:zenodo.org:286797</identifier>
      <datestamp>2017-02-09T16:51:16Z</datestamp>
      <setSpec>user-biosyslit</setSpec>
    </header>
    <header>
      <identifier>oai:zenodo.org:286798</identifier>
      <datestamp>2017-02-09T16:51:19Z</datestamp>
      <setSpec>user-biosyslit</setSpec>
    </header>
    <header>
      <identifier>oai:zenodo.org:286807</identifier>
      <datestamp>2017-02-09T16:51:44Z</datestamp>
      <setSpec>user-biosyslit</setSpec>
    </header>
    <header>
      <identifier>oai:zenodo.org:286801</identifier>
      <datestamp>2017-02-09T16:51:26Z</datestamp>
      <setSpec>user-biosyslit</setSpec>
    </header>
    <header>
      <identifier>oai:zenodo.org:286813</identifier>
      <datestamp>2017-02-09T16:51:58Z</datestamp>
      <setSpec>user-biosyslit</setSpec>
    </header>
    <header>
      <identifier>oai:zenodo.org:286805</identifier>
      <datestamp>2017-02-09T16:51:37Z</datestamp>
      <setSpec>user-biosyslit</setSpec>
    </header>
    <header>
      <identifier>oai:zenodo.org:231039</identifier>
      <datestamp>2017-01-05T12:39:10Z</datestamp>
      <setSpec>user-biosyslit</setSpec>
    </header>
    <header>
      <identifier>oai:zenodo.org:227620</identifier>
      <datestamp>2017-01-02T01:01:44Z</datestamp>
      <setSpec>user-biosyslit</setSpec>
    </header>
    <header>
      <identifier>oai:zenodo.org:244288</identifier>
      <datestamp>2017-01-14T19:02:04Z</datestamp>
      <setSpec>user-biosyslit</setSpec>
    </header>
    <header>
      <identifier>oai:zenodo.org:244291</identifier>
      <datestamp>2017-01-14T19:02:03Z</datestamp>
      <setSpec>user-biosyslit</setSpec>
    </header>
    <header>
      <identifier>oai:zenodo.org:244290</identifier>
      <datestamp>2017-01-14T19:01:59Z</datestamp>
      <setSpec>user-biosyslit</setSpec>
    </header>
    <resumptionToken expirationDate="2017-08-31T15:47:34Z" cursor="65700" completeListSize="77796">.eJyNysEOQzAYAOB3-c-yVBtqkl3EJg4IHWGXxRAxZaJb0MW7z2Xn7fx9bxBVVYKJdphouk72FBkGophQqoAoxgfn12ZzKNKEFz2Pcyd5RV2CMlxT3xazZ2fEly0KOlWyU4hT1ZjjBi3hOX5mMpoT4k4MHaknw8W_u9srSeDwy80ZWNxbnOFyDI7hwlSLXUjxfeqfT_58tjiAAkNeV2Dq2l6BdsrHWoD5XtcP2YdRgg.DInAng.Jxn52PCrn8xy_wN1XoIAWTw2zyI</resumptionToken>
  </ListIdentifiers>
</OAI-PMH>
