<?xml version='1.0' encoding='UTF-8'?>
<?xml-stylesheet type="text/xsl" href="/static/xsl/oai2.v1.0.xsl"?>
<OAI-PMH xmlns="http://www.openarchives.org/OAI/2.0/" xmlns:xsi="http://www.w3.org/2001/XMLSchema-instance" xsi:schemaLocation="http://www.openarchives.org/OAI/2.0/ http://www.openarchives.org/OAI/2.0/OAI-PMH.xsd">
  <responseDate>2017-08-31T15:46:21Z</responseDate>
  <request verb="ListIdentifiers" resumptionToken=".eJyNyrEOQ0AYAOB3-WdpDoeSdBEqBoQrKUujiKij4trgxLvX0rmdv28FVlUlGOiAdawqClYkjFWMdVUAVoxPSm_NzlBcE1r0NM6d5B11CUqlWvMtNntWKvu8RUEncnIOpat4nOMGLeElfqU8mhPZnQiyNY-Hi_9w91fKgUOzuzOQuDcpkcoxsMOFiCbJ5OL7xD8f__ksdgIBhryuwNAUTYB2yseagbFu2wem2lFP.DInAzQ.P6WOwigHqNwC_esByURE1Z-rttg">https://zenodo.org/oai2d</request>
  <ListIdentifiers>
    <header>
      <identifier>oai:zenodo.org:842643</identifier>
      <datestamp>2017-08-14T05:35:17Z</datestamp>
      <setSpec>user-biosyslit</setSpec>
    </header>
    <header>
      <identifier>oai:zenodo.org:842639</identifier>
      <datestamp>2017-08-14T05:35:10Z</datestamp>
      <setSpec>user-biosyslit</setSpec>
    </header>
    <header>
      <identifier>oai:zenodo.org:842635</identifier>
      <datestamp>2017-08-14T05:35:03Z</datestamp>
      <setSpec>user-biosyslit</setSpec>
    </header>
    <header>
      <identifier>oai:zenodo.org:842619</identifier>
      <datestamp>2017-08-14T05:34:30Z</datestamp>
      <setSpec>user-biosyslit</setSpec>
    </header>
    <header>
      <identifier>oai:zenodo.org:842621</identifier>
      <datestamp>2017-08-14T05:34:35Z</datestamp>
      <setSpec>user-biosyslit</setSpec>
    </header>
    <header>
      <identifier>oai:zenodo.org:842589</identifier>
      <datestamp>2017-08-14T05:33:29Z</datestamp>
      <setSpec>user-biosyslit</setSpec>
    </header>
    <header>
      <identifier>oai:zenodo.org:842595</identifier>
      <datestamp>2017-08-14T05:33:45Z</datestamp>
      <setSpec>user-biosyslit</setSpec>
    </header>
    <header>
      <identifier>oai:zenodo.org:842633</identifier>
      <datestamp>2017-08-14T05:34:58Z</datestamp>
      <setSpec>user-biosyslit</setSpec>
    </header>
    <header>
      <identifier>oai:zenodo.org:842627</identifier>
      <datestamp>2017-08-14T05:34:47Z</datestamp>
      <setSpec>user-biosyslit</setSpec>
    </header>
    <header>
      <identifier>oai:zenodo.org:842617</identifier>
      <datestamp>2017-08-14T05:34:26Z</datestamp>
      <setSpec>user-biosyslit</setSpec>
    </header>
    <header>
      <identifier>oai:zenodo.org:842613</identifier>
      <datestamp>2017-08-14T05:34:18Z</datestamp>
      <setSpec>user-biosyslit</setSpec>
    </header>
    <header>
      <identifier>oai:zenodo.org:844780</identifier>
      <datestamp>2017-08-17T12:41:09Z</datestamp>
      <setSpec>user-biosyslit</setSpec>
    </header>
    <header>
      <identifier>oai:zenodo.org:844782</identifier>
      <datestamp>2017-08-17T12:41:13Z</datestamp>
      <setSpec>user-biosyslit</setSpec>
    </header>
    <header>
      <identifier>oai:zenodo.org:844784</identifier>
      <datestamp>2017-08-17T12:41:18Z</datestamp>
      <setSpec>user-biosyslit</setSpec>
    </header>
    <header>
      <identifier>oai:zenodo.org:844776</identifier>
      <datestamp>2017-08-17T12:41:01Z</datestamp>
      <setSpec>user-biosyslit</setSpec>
    </header>
    <header>
      <identifier>oai:zenodo.org:844778</identifier>
      <datestamp>2017-08-17T12:41:05Z</datestamp>
      <setSpec>user-biosyslit</setSpec>
    </header>
    <header>
      <identifier>oai:zenodo.org:844800</identifier>
      <datestamp>2017-08-17T12:49:58Z</datestamp>
      <setSpec>user-biosyslit</setSpec>
    </header>
    <header>
      <identifier>oai:zenodo.org:844790</identifier>
      <datestamp>2017-08-17T12:49:36Z</datestamp>
      <setSpec>user-biosyslit</setSpec>
    </header>
    <header>
      <identifier>oai:zenodo.org:843075</identifier>
      <datestamp>2017-08-15T07:37:11Z</datestamp>
      <setSpec>user-biosyslit</setSpec>
    </header>
    <header>
      <identifier>oai:zenodo.org:843041</identifier>
      <datestamp>2017-08-15T07:36:16Z</datestamp>
      <setSpec>user-biosyslit</setSpec>
    </header>
    <header>
      <identifier>oai:zenodo.org:843043</identifier>
      <datestamp>2017-08-15T07:36:19Z</datestamp>
      <setSpec>user-biosyslit</setSpec>
    </header>
    <header>
      <identifier>oai:zenodo.org:843069</identifier>
      <datestamp>2017-08-15T07:37:00Z</datestamp>
      <setSpec>user-biosyslit</setSpec>
    </header>
    <header>
      <identifier>oai:zenodo.org:843063</identifier>
      <datestamp>2017-08-15T07:36:50Z</datestamp>
      <setSpec>user-biosyslit</setSpec>
    </header>
    <header>
      <identifier>oai:zenodo.org:843059</identifier>
      <datestamp>2017-08-15T07:36:43Z</datestamp>
      <setSpec>user-biosyslit</setSpec>
    </header>
    <header>
      <identifier>oai:zenodo.org:843035</identifier>
      <datestamp>2017-08-15T07:36:06Z</datestamp>
      <setSpec>user-biosyslit</setSpec>
    </header>
    <header>
      <identifier>oai:zenodo.org:843039</identifier>
      <datestamp>2017-08-15T07:36:13Z</datestamp>
      <setSpec>user-biosyslit</setSpec>
    </header>
    <header>
      <identifier>oai:zenodo.org:843037</identifier>
      <datestamp>2017-08-15T07:36:09Z</datestamp>
      <setSpec>user-biosyslit</setSpec>
    </header>
    <header>
      <identifier>oai:zenodo.org:843027</identifier>
      <datestamp>2017-08-15T07:37:15Z</datestamp>
      <setSpec>user-biosyslit</setSpec>
    </header>
    <header>
      <identifier>oai:zenodo.org:843089</identifier>
      <datestamp>2017-08-15T07:40:06Z</datestamp>
      <setSpec>user-biosyslit</setSpec>
    </header>
    <header>
      <identifier>oai:zenodo.org:843081</identifier>
      <datestamp>2017-08-15T07:39:33Z</datestamp>
      <setSpec>user-biosyslit</setSpec>
    </header>
    <header>
      <identifier>oai:zenodo.org:843109</identifier>
      <datestamp>2017-08-15T07:41:56Z</datestamp>
      <setSpec>user-biosyslit</setSpec>
    </header>
    <header>
      <identifier>oai:zenodo.org:843113</identifier>
      <datestamp>2017-08-15T07:42:03Z</datestamp>
      <setSpec>user-biosyslit</setSpec>
    </header>
    <header>
      <identifier>oai:zenodo.org:843103</identifier>
      <datestamp>2017-08-15T07:41:44Z</datestamp>
      <setSpec>user-biosyslit</setSpec>
    </header>
    <header>
      <identifier>oai:zenodo.org:843079</identifier>
      <datestamp>2017-08-15T07:38:56Z</datestamp>
      <setSpec>user-biosyslit</setSpec>
    </header>
    <header>
      <identifier>oai:zenodo.org:843127</identifier>
      <datestamp>2017-08-15T07:42:29Z</datestamp>
      <setSpec>user-biosyslit</setSpec>
    </header>
    <header>
      <identifier>oai:zenodo.org:843123</identifier>
      <datestamp>2017-08-15T07:42:21Z</datestamp>
      <setSpec>user-biosyslit</setSpec>
    </header>
    <header>
      <identifier>oai:zenodo.org:843125</identifier>
      <datestamp>2017-08-15T07:42:25Z</datestamp>
      <setSpec>user-biosyslit</setSpec>
    </header>
    <header>
      <identifier>oai:zenodo.org:843115</identifier>
      <datestamp>2017-08-15T07:42:06Z</datestamp>
      <setSpec>user-biosyslit</setSpec>
    </header>
    <header>
      <identifier>oai:zenodo.org:843131</identifier>
      <datestamp>2017-08-15T07:42:37Z</datestamp>
      <setSpec>user-biosyslit</setSpec>
    </header>
    <header>
      <identifier>oai:zenodo.org:843129</identifier>
      <datestamp>2017-08-15T07:42:33Z</datestamp>
      <setSpec>user-biosyslit</setSpec>
    </header>
    <header>
      <identifier>oai:zenodo.org:843139</identifier>
      <datestamp>2017-08-15T07:56:44Z</datestamp>
      <setSpec>user-biosyslit</setSpec>
    </header>
    <header>
      <identifier>oai:zenodo.org:843143</identifier>
      <datestamp>2017-08-15T07:56:50Z</datestamp>
      <setSpec>user-biosyslit</setSpec>
    </header>
    <header>
      <identifier>oai:zenodo.org:843133</identifier>
      <datestamp>2017-08-15T07:57:05Z</datestamp>
      <setSpec>user-biosyslit</setSpec>
    </header>
    <header>
      <identifier>oai:zenodo.org:843163</identifier>
      <datestamp>2017-08-15T08:03:23Z</datestamp>
      <setSpec>user-biosyslit</setSpec>
    </header>
    <header>
      <identifier>oai:zenodo.org:843169</identifier>
      <datestamp>2017-08-15T08:03:16Z</datestamp>
      <setSpec>user-biosyslit</setSpec>
    </header>
    <header>
      <identifier>oai:zenodo.org:843145</identifier>
      <datestamp>2017-08-15T07:56:56Z</datestamp>
      <setSpec>user-biosyslit</setSpec>
    </header>
    <header>
      <identifier>oai:zenodo.org:843157</identifier>
      <datestamp>2017-08-15T07:59:45Z</datestamp>
      <setSpec>user-biosyslit</setSpec>
    </header>
    <header>
      <identifier>oai:zenodo.org:843159</identifier>
      <datestamp>2017-08-15T07:59:49Z</datestamp>
      <setSpec>user-biosyslit</setSpec>
    </header>
    <header>
      <identifier>oai:zenodo.org:843147</identifier>
      <datestamp>2017-08-15T07:56:59Z</datestamp>
      <setSpec>user-biosyslit</setSpec>
    </header>
    <header>
      <identifier>oai:zenodo.org:843177</identifier>
      <datestamp>2017-08-15T08:11:17Z</datestamp>
      <setSpec>user-biosyslit</setSpec>
    </header>
    <header>
      <identifier>oai:zenodo.org:843161</identifier>
      <datestamp>2017-08-15T07:59:52Z</datestamp>
      <setSpec>user-biosyslit</setSpec>
    </header>
    <header>
      <identifier>oai:zenodo.org:843209</identifier>
      <datestamp>2017-08-15T08:24:02Z</datestamp>
      <setSpec>user-biosyslit</setSpec>
    </header>
    <header>
      <identifier>oai:zenodo.org:843199</identifier>
      <datestamp>2017-08-15T08:23:41Z</datestamp>
      <setSpec>user-biosyslit</setSpec>
    </header>
    <header>
      <identifier>oai:zenodo.org:843187</identifier>
      <datestamp>2017-08-15T08:11:30Z</datestamp>
      <setSpec>user-biosyslit</setSpec>
    </header>
    <header>
      <identifier>oai:zenodo.org:843179</identifier>
      <datestamp>2017-08-15T08:11:21Z</datestamp>
      <setSpec>user-biosyslit</setSpec>
    </header>
    <header>
      <identifier>oai:zenodo.org:843189</identifier>
      <datestamp>2017-08-15T08:11:33Z</datestamp>
      <setSpec>user-biosyslit</setSpec>
    </header>
    <header>
      <identifier>oai:zenodo.org:843243</identifier>
      <datestamp>2017-08-15T09:07:16Z</datestamp>
      <setSpec>user-biosyslit</setSpec>
    </header>
    <header>
      <identifier>oai:zenodo.org:843255</identifier>
      <datestamp>2017-08-15T09:07:40Z</datestamp>
      <setSpec>user-biosyslit</setSpec>
    </header>
    <header>
      <identifier>oai:zenodo.org:843253</identifier>
      <datestamp>2017-08-15T09:07:36Z</datestamp>
      <setSpec>user-biosyslit</setSpec>
    </header>
    <header>
      <identifier>oai:zenodo.org:843301</identifier>
      <datestamp>2017-08-15T09:12:25Z</datestamp>
      <setSpec>user-biosyslit</setSpec>
    </header>
    <header>
      <identifier>oai:zenodo.org:843283</identifier>
      <datestamp>2017-08-15T09:11:44Z</datestamp>
      <setSpec>user-biosyslit</setSpec>
    </header>
    <header>
      <identifier>oai:zenodo.org:843297</identifier>
      <datestamp>2017-08-15T09:12:11Z</datestamp>
      <setSpec>user-biosyslit</setSpec>
    </header>
    <header>
      <identifier>oai:zenodo.org:843307</identifier>
      <datestamp>2017-08-15T09:12:36Z</datestamp>
      <setSpec>user-biosyslit</setSpec>
    </header>
    <header>
      <identifier>oai:zenodo.org:843289</identifier>
      <datestamp>2017-08-15T09:11:52Z</datestamp>
      <setSpec>user-biosyslit</setSpec>
    </header>
    <header>
      <identifier>oai:zenodo.org:843291</identifier>
      <datestamp>2017-08-15T09:11:58Z</datestamp>
      <setSpec>user-biosyslit</setSpec>
    </header>
    <header>
      <identifier>oai:zenodo.org:843267</identifier>
      <datestamp>2017-08-15T09:08:01Z</datestamp>
      <setSpec>user-biosyslit</setSpec>
    </header>
    <header>
      <identifier>oai:zenodo.org:843293</identifier>
      <datestamp>2017-08-15T09:12:04Z</datestamp>
      <setSpec>user-biosyslit</setSpec>
    </header>
    <header>
      <identifier>oai:zenodo.org:843261</identifier>
      <datestamp>2017-08-15T09:07:51Z</datestamp>
      <setSpec>user-biosyslit</setSpec>
    </header>
    <header>
      <identifier>oai:zenodo.org:843271</identifier>
      <datestamp>2017-08-15T09:12:40Z</datestamp>
      <setSpec>user-biosyslit</setSpec>
    </header>
    <header>
      <identifier>oai:zenodo.org:843329</identifier>
      <datestamp>2017-08-15T09:49:56Z</datestamp>
      <setSpec>user-biosyslit</setSpec>
    </header>
    <header>
      <identifier>oai:zenodo.org:843331</identifier>
      <datestamp>2017-08-15T09:50:00Z</datestamp>
      <setSpec>user-biosyslit</setSpec>
    </header>
    <header>
      <identifier>oai:zenodo.org:843327</identifier>
      <datestamp>2017-08-15T09:49:52Z</datestamp>
      <setSpec>user-biosyslit</setSpec>
    </header>
    <header>
      <identifier>oai:zenodo.org:843335</identifier>
      <datestamp>2017-08-15T09:50:08Z</datestamp>
      <setSpec>user-biosyslit</setSpec>
    </header>
    <header>
      <identifier>oai:zenodo.org:843345</identifier>
      <datestamp>2017-08-15T09:50:23Z</datestamp>
      <setSpec>user-biosyslit</setSpec>
    </header>
    <header>
      <identifier>oai:zenodo.org:843351</identifier>
      <datestamp>2017-08-15T09:50:32Z</datestamp>
      <setSpec>user-biosyslit</setSpec>
    </header>
    <header>
      <identifier>oai:zenodo.org:843349</identifier>
      <datestamp>2017-08-15T09:50:29Z</datestamp>
      <setSpec>user-biosyslit</setSpec>
    </header>
    <header>
      <identifier>oai:zenodo.org:843355</identifier>
      <datestamp>2017-08-15T09:50:39Z</datestamp>
      <setSpec>user-biosyslit</setSpec>
    </header>
    <header>
      <identifier>oai:zenodo.org:843365</identifier>
      <datestamp>2017-08-15T09:50:57Z</datestamp>
      <setSpec>user-biosyslit</setSpec>
    </header>
    <header>
      <identifier>oai:zenodo.org:843369</identifier>
      <datestamp>2017-08-15T09:51:06Z</datestamp>
      <setSpec>user-biosyslit</setSpec>
    </header>
    <header>
      <identifier>oai:zenodo.org:843371</identifier>
      <datestamp>2017-08-15T09:51:10Z</datestamp>
      <setSpec>user-biosyslit</setSpec>
    </header>
    <header>
      <identifier>oai:zenodo.org:843375</identifier>
      <datestamp>2017-08-15T09:51:16Z</datestamp>
      <setSpec>user-biosyslit</setSpec>
    </header>
    <header>
      <identifier>oai:zenodo.org:843377</identifier>
      <datestamp>2017-08-15T09:51:19Z</datestamp>
      <setSpec>user-biosyslit</setSpec>
    </header>
    <header>
      <identifier>oai:zenodo.org:843379</identifier>
      <datestamp>2017-08-15T09:51:23Z</datestamp>
      <setSpec>user-biosyslit</setSpec>
    </header>
    <header>
      <identifier>oai:zenodo.org:843385</identifier>
      <datestamp>2017-08-15T09:51:37Z</datestamp>
      <setSpec>user-biosyslit</setSpec>
    </header>
    <header>
      <identifier>oai:zenodo.org:843381</identifier>
      <datestamp>2017-08-15T09:51:28Z</datestamp>
      <setSpec>user-biosyslit</setSpec>
    </header>
    <header>
      <identifier>oai:zenodo.org:843389</identifier>
      <datestamp>2017-08-15T09:51:43Z</datestamp>
      <setSpec>user-biosyslit</setSpec>
    </header>
    <header>
      <identifier>oai:zenodo.org:843399</identifier>
      <datestamp>2017-08-15T09:52:00Z</datestamp>
      <setSpec>user-biosyslit</setSpec>
    </header>
    <header>
      <identifier>oai:zenodo.org:843391</identifier>
      <datestamp>2017-08-15T09:51:47Z</datestamp>
      <setSpec>user-biosyslit</setSpec>
    </header>
    <header>
      <identifier>oai:zenodo.org:843405</identifier>
      <datestamp>2017-08-15T09:52:11Z</datestamp>
      <setSpec>user-biosyslit</setSpec>
    </header>
    <header>
      <identifier>oai:zenodo.org:843403</identifier>
      <datestamp>2017-08-15T09:52:08Z</datestamp>
      <setSpec>user-biosyslit</setSpec>
    </header>
    <header>
      <identifier>oai:zenodo.org:843409</identifier>
      <datestamp>2017-08-15T09:52:17Z</datestamp>
      <setSpec>user-biosyslit</setSpec>
    </header>
    <header>
      <identifier>oai:zenodo.org:843700</identifier>
      <datestamp>2017-08-16T06:43:06Z</datestamp>
      <setSpec>user-biosyslit</setSpec>
    </header>
    <header>
      <identifier>oai:zenodo.org:843686</identifier>
      <datestamp>2017-08-16T06:42:39Z</datestamp>
      <setSpec>user-biosyslit</setSpec>
    </header>
    <header>
      <identifier>oai:zenodo.org:843702</identifier>
      <datestamp>2017-08-16T06:43:09Z</datestamp>
      <setSpec>user-biosyslit</setSpec>
    </header>
    <header>
      <identifier>oai:zenodo.org:843678</identifier>
      <datestamp>2017-08-16T06:42:26Z</datestamp>
      <setSpec>user-biosyslit</setSpec>
    </header>
    <header>
      <identifier>oai:zenodo.org:843706</identifier>
      <datestamp>2017-08-16T06:43:14Z</datestamp>
      <setSpec>user-biosyslit</setSpec>
    </header>
    <header>
      <identifier>oai:zenodo.org:843696</identifier>
      <datestamp>2017-08-16T06:43:00Z</datestamp>
      <setSpec>user-biosyslit</setSpec>
    </header>
    <header>
      <identifier>oai:zenodo.org:843676</identifier>
      <datestamp>2017-08-16T06:42:23Z</datestamp>
      <setSpec>user-biosyslit</setSpec>
    </header>
    <header>
      <identifier>oai:zenodo.org:843668</identifier>
      <datestamp>2017-08-16T06:42:09Z</datestamp>
      <setSpec>user-biosyslit</setSpec>
    </header>
    <header>
      <identifier>oai:zenodo.org:843672</identifier>
      <datestamp>2017-08-16T06:42:15Z</datestamp>
      <setSpec>user-biosyslit</setSpec>
    </header>
    <resumptionToken expirationDate="2017-08-31T15:48:21Z" cursor="75600" completeListSize="77796">.eJyNyssKgkAUANB_uWuJeVQ-oI1o4kJFJ0XdhKmIOZk4hTrRv-emda3PeYGo6woMtKGIEH1PCNW2CGtI3ysgyvHO-bldHco04WXP48JJntEtQRlpVN8Ss2dl1JcdCm5YsmNIUqzNcYuW8BQ_MhnNCXUnhmzVk-HiX931VTRweH5xBhb3JmekGgM7XBg2WU7L78N_PvnzWeIACgxFU4Oh7jQFuqkYGwHG6_3-AMjOUXA.DInAzQ._WXD0Q7JFuzH0EKmdN912nfy5R4</resumptionToken>
  </ListIdentifiers>
</OAI-PMH>
