<?xml version='1.0' encoding='UTF-8'?>
<?xml-stylesheet type="text/xsl" href="/static/xsl/oai2.v1.0.xsl"?>
<OAI-PMH xmlns="http://www.openarchives.org/OAI/2.0/" xmlns:xsi="http://www.w3.org/2001/XMLSchema-instance" xsi:schemaLocation="http://www.openarchives.org/OAI/2.0/ http://www.openarchives.org/OAI/2.0/OAI-PMH.xsd">
  <responseDate>2017-08-31T14:30:11Z</responseDate>
  <request verb="ListIdentifiers" resumptionToken=".eJwVj9FqgzAYRt8l12UkUXB6V9FJx37FxsTqTXHqtDM6pxlqSt999rs9cA7fHc11XSEHv1AbE9umlkksbD53QHM5_Uh5ve0clRchy0HyIhB_517gjDZW6M0reBkJE66jnmj2FtMLeV35DW9xwlWmz6swTgvDvgU6XkA3NOorIwpk_hmMjA-uZLSaIj_eGHFZbpQWJEe6-wh8j6rELQ-l_QXipKDzyUcKuBTVBr5yIw0YPDDDZBwq3Y5puv5y-b7kXA2Fbn3oVMyfLX200AGNRVMjh-6nuqWYmhk598fjH56wUjo.DImuuA.d6akrLcGdZpCcjwoNaLmjxCYc6U">https://zenodo.org/oai2d</request>
  <ListIdentifiers>
    <header>
      <identifier>oai:zenodo.org:264160</identifier>
      <datestamp>2017-01-30T14:18:55Z</datestamp>
      <setSpec>user-biosyslit</setSpec>
    </header>
    <header>
      <identifier>oai:zenodo.org:264395</identifier>
      <datestamp>2017-01-30T20:52:07Z</datestamp>
      <setSpec>user-biosyslit</setSpec>
    </header>
    <header>
      <identifier>oai:zenodo.org:264512</identifier>
      <datestamp>2017-01-30T22:55:16Z</datestamp>
      <setSpec>user-biosyslit</setSpec>
    </header>
    <header>
      <identifier>oai:zenodo.org:264044</identifier>
      <datestamp>2017-01-30T12:23:52Z</datestamp>
      <setSpec>user-biosyslit</setSpec>
    </header>
    <header>
      <identifier>oai:zenodo.org:265291</identifier>
      <datestamp>2017-01-31T11:25:18Z</datestamp>
      <setSpec>user-biosyslit</setSpec>
    </header>
    <header>
      <identifier>oai:zenodo.org:264964</identifier>
      <datestamp>2017-01-31T05:16:32Z</datestamp>
      <setSpec>user-biosyslit</setSpec>
    </header>
    <header>
      <identifier>oai:zenodo.org:265657</identifier>
      <datestamp>2017-01-31T18:26:57Z</datestamp>
      <setSpec>user-biosyslit</setSpec>
    </header>
    <header>
      <identifier>oai:zenodo.org:265030</identifier>
      <datestamp>2017-01-31T06:41:07Z</datestamp>
      <setSpec>user-biosyslit</setSpec>
    </header>
    <header>
      <identifier>oai:zenodo.org:264805</identifier>
      <datestamp>2017-01-31T02:53:09Z</datestamp>
      <setSpec>user-biosyslit</setSpec>
    </header>
    <header>
      <identifier>oai:zenodo.org:265729</identifier>
      <datestamp>2017-01-31T19:54:04Z</datestamp>
      <setSpec>user-biosyslit</setSpec>
    </header>
    <header>
      <identifier>oai:zenodo.org:266307</identifier>
      <datestamp>2017-02-01T05:53:39Z</datestamp>
      <setSpec>user-biosyslit</setSpec>
    </header>
    <header>
      <identifier>oai:zenodo.org:265031</identifier>
      <datestamp>2017-01-31T06:41:09Z</datestamp>
      <setSpec>user-biosyslit</setSpec>
    </header>
    <header>
      <identifier>oai:zenodo.org:265684</identifier>
      <datestamp>2017-01-31T18:54:32Z</datestamp>
      <setSpec>user-biosyslit</setSpec>
    </header>
    <header>
      <identifier>oai:zenodo.org:265629</identifier>
      <datestamp>2017-01-31T17:52:42Z</datestamp>
      <setSpec>user-biosyslit</setSpec>
    </header>
    <header>
      <identifier>oai:zenodo.org:265313</identifier>
      <datestamp>2017-01-31T12:00:15Z</datestamp>
      <setSpec>user-biosyslit</setSpec>
    </header>
    <header>
      <identifier>oai:zenodo.org:267609</identifier>
      <datestamp>2017-02-02T04:49:13Z</datestamp>
      <setSpec>user-biosyslit</setSpec>
    </header>
    <header>
      <identifier>oai:zenodo.org:266219</identifier>
      <datestamp>2017-02-01T03:03:00Z</datestamp>
      <setSpec>user-biosyslit</setSpec>
    </header>
    <header>
      <identifier>oai:zenodo.org:266835</identifier>
      <datestamp>2017-02-01T15:54:56Z</datestamp>
      <setSpec>user-biosyslit</setSpec>
    </header>
    <header>
      <identifier>oai:zenodo.org:265857</identifier>
      <datestamp>2017-01-31T22:19:49Z</datestamp>
      <setSpec>user-biosyslit</setSpec>
    </header>
    <header>
      <identifier>oai:zenodo.org:267402</identifier>
      <datestamp>2017-02-02T01:42:08Z</datestamp>
      <setSpec>user-biosyslit</setSpec>
    </header>
    <header>
      <identifier>oai:zenodo.org:267053</identifier>
      <datestamp>2017-02-01T18:48:01Z</datestamp>
      <setSpec>user-biosyslit</setSpec>
    </header>
    <header>
      <identifier>oai:zenodo.org:266468</identifier>
      <datestamp>2017-02-01T10:13:22Z</datestamp>
      <setSpec>user-biosyslit</setSpec>
    </header>
    <header>
      <identifier>oai:zenodo.org:267429</identifier>
      <datestamp>2017-02-02T02:04:20Z</datestamp>
      <setSpec>user-biosyslit</setSpec>
    </header>
    <header>
      <identifier>oai:zenodo.org:267007</identifier>
      <datestamp>2017-02-01T18:10:19Z</datestamp>
      <setSpec>user-biosyslit</setSpec>
    </header>
    <header>
      <identifier>oai:zenodo.org:267119</identifier>
      <datestamp>2017-02-01T19:38:29Z</datestamp>
      <setSpec>user-biosyslit</setSpec>
    </header>
    <header>
      <identifier>oai:zenodo.org:267744</identifier>
      <datestamp>2017-02-02T06:35:51Z</datestamp>
      <setSpec>user-biosyslit</setSpec>
    </header>
    <header>
      <identifier>oai:zenodo.org:267550</identifier>
      <datestamp>2017-02-02T03:45:16Z</datestamp>
      <setSpec>user-biosyslit</setSpec>
    </header>
    <header>
      <identifier>oai:zenodo.org:267247</identifier>
      <datestamp>2017-02-01T23:19:09Z</datestamp>
      <setSpec>user-biosyslit</setSpec>
    </header>
    <header>
      <identifier>oai:zenodo.org:268152</identifier>
      <datestamp>2017-02-03T02:55:38Z</datestamp>
      <setSpec>user-biosyslit</setSpec>
    </header>
    <header>
      <identifier>oai:zenodo.org:267558</identifier>
      <datestamp>2017-02-02T03:46:06Z</datestamp>
      <setSpec>user-biosyslit</setSpec>
    </header>
    <header>
      <identifier>oai:zenodo.org:267731</identifier>
      <datestamp>2017-02-02T06:23:29Z</datestamp>
      <setSpec>user-biosyslit</setSpec>
    </header>
    <header>
      <identifier>oai:zenodo.org:268169</identifier>
      <datestamp>2017-02-03T02:56:24Z</datestamp>
      <setSpec>user-biosyslit</setSpec>
    </header>
    <header>
      <identifier>oai:zenodo.org:269431</identifier>
      <datestamp>2017-02-07T00:29:38Z</datestamp>
      <setSpec>user-biosyslit</setSpec>
    </header>
    <header>
      <identifier>oai:zenodo.org:269025</identifier>
      <datestamp>2017-02-06T22:34:32Z</datestamp>
      <setSpec>user-biosyslit</setSpec>
    </header>
    <header>
      <identifier>oai:zenodo.org:269468</identifier>
      <datestamp>2017-02-07T00:42:08Z</datestamp>
      <setSpec>user-biosyslit</setSpec>
    </header>
    <header>
      <identifier>oai:zenodo.org:269328</identifier>
      <datestamp>2017-02-06T23:55:09Z</datestamp>
      <setSpec>user-biosyslit</setSpec>
    </header>
    <header>
      <identifier>oai:zenodo.org:278032</identifier>
      <datestamp>2017-02-08T22:18:57Z</datestamp>
      <setSpec>user-biosyslit</setSpec>
    </header>
    <header>
      <identifier>oai:zenodo.org:276911</identifier>
      <datestamp>2017-02-08T19:57:41Z</datestamp>
      <setSpec>user-biosyslit</setSpec>
    </header>
    <header>
      <identifier>oai:zenodo.org:277236</identifier>
      <datestamp>2017-02-08T20:40:13Z</datestamp>
      <setSpec>user-biosyslit</setSpec>
    </header>
    <header>
      <identifier>oai:zenodo.org:276727</identifier>
      <datestamp>2017-02-08T19:33:16Z</datestamp>
      <setSpec>user-biosyslit</setSpec>
    </header>
    <header>
      <identifier>oai:zenodo.org:278035</identifier>
      <datestamp>2017-02-08T22:19:05Z</datestamp>
      <setSpec>user-biosyslit</setSpec>
    </header>
    <header>
      <identifier>oai:zenodo.org:278850</identifier>
      <datestamp>2017-02-08T23:59:41Z</datestamp>
      <setSpec>user-biosyslit</setSpec>
    </header>
    <header>
      <identifier>oai:zenodo.org:278724</identifier>
      <datestamp>2017-02-08T23:46:53Z</datestamp>
      <setSpec>user-biosyslit</setSpec>
    </header>
    <header>
      <identifier>oai:zenodo.org:278162</identifier>
      <datestamp>2017-02-08T22:35:25Z</datestamp>
      <setSpec>user-biosyslit</setSpec>
    </header>
    <header>
      <identifier>oai:zenodo.org:278898</identifier>
      <datestamp>2017-02-09T00:05:21Z</datestamp>
      <setSpec>user-biosyslit</setSpec>
    </header>
    <header>
      <identifier>oai:zenodo.org:278988</identifier>
      <datestamp>2017-02-09T00:21:50Z</datestamp>
      <setSpec>user-biosyslit</setSpec>
    </header>
    <header>
      <identifier>oai:zenodo.org:278968</identifier>
      <datestamp>2017-02-09T00:22:14Z</datestamp>
      <setSpec>user-biosyslit</setSpec>
    </header>
    <header>
      <identifier>oai:zenodo.org:280684</identifier>
      <datestamp>2017-02-09T03:51:41Z</datestamp>
      <setSpec>user-biosyslit</setSpec>
    </header>
    <header>
      <identifier>oai:zenodo.org:281587</identifier>
      <datestamp>2017-02-09T05:34:42Z</datestamp>
      <setSpec>user-biosyslit</setSpec>
    </header>
    <header>
      <identifier>oai:zenodo.org:281877</identifier>
      <datestamp>2017-02-09T06:06:01Z</datestamp>
      <setSpec>user-biosyslit</setSpec>
    </header>
    <header>
      <identifier>oai:zenodo.org:282552</identifier>
      <datestamp>2017-02-09T07:12:29Z</datestamp>
      <setSpec>user-biosyslit</setSpec>
    </header>
    <header>
      <identifier>oai:zenodo.org:283527</identifier>
      <datestamp>2017-02-09T09:08:14Z</datestamp>
      <setSpec>user-biosyslit</setSpec>
    </header>
    <header>
      <identifier>oai:zenodo.org:282474</identifier>
      <datestamp>2017-02-09T07:03:55Z</datestamp>
      <setSpec>user-biosyslit</setSpec>
    </header>
    <header>
      <identifier>oai:zenodo.org:282408</identifier>
      <datestamp>2017-02-09T06:57:29Z</datestamp>
      <setSpec>user-biosyslit</setSpec>
    </header>
    <header>
      <identifier>oai:zenodo.org:284037</identifier>
      <datestamp>2017-02-09T10:16:07Z</datestamp>
      <setSpec>user-biosyslit</setSpec>
    </header>
    <header>
      <identifier>oai:zenodo.org:283622</identifier>
      <datestamp>2017-02-09T09:18:50Z</datestamp>
      <setSpec>user-biosyslit</setSpec>
    </header>
    <header>
      <identifier>oai:zenodo.org:283619</identifier>
      <datestamp>2017-02-09T09:18:41Z</datestamp>
      <setSpec>user-biosyslit</setSpec>
    </header>
    <header>
      <identifier>oai:zenodo.org:283823</identifier>
      <datestamp>2017-02-09T09:52:29Z</datestamp>
      <setSpec>user-biosyslit</setSpec>
    </header>
    <header>
      <identifier>oai:zenodo.org:283927</identifier>
      <datestamp>2017-02-09T10:04:13Z</datestamp>
      <setSpec>user-biosyslit</setSpec>
    </header>
    <header>
      <identifier>oai:zenodo.org:284563</identifier>
      <datestamp>2017-02-09T11:32:23Z</datestamp>
      <setSpec>user-biosyslit</setSpec>
    </header>
    <header>
      <identifier>oai:zenodo.org:285668</identifier>
      <datestamp>2017-02-09T14:05:58Z</datestamp>
      <setSpec>user-biosyslit</setSpec>
    </header>
    <header>
      <identifier>oai:zenodo.org:285651</identifier>
      <datestamp>2017-02-09T14:03:49Z</datestamp>
      <setSpec>user-biosyslit</setSpec>
    </header>
    <header>
      <identifier>oai:zenodo.org:285998</identifier>
      <datestamp>2017-02-09T15:01:18Z</datestamp>
      <setSpec>user-biosyslit</setSpec>
    </header>
    <header>
      <identifier>oai:zenodo.org:287043</identifier>
      <datestamp>2017-02-09T17:20:08Z</datestamp>
      <setSpec>user-biosyslit</setSpec>
    </header>
    <header>
      <identifier>oai:zenodo.org:287301</identifier>
      <datestamp>2017-02-09T18:00:23Z</datestamp>
      <setSpec>user-biosyslit</setSpec>
    </header>
    <header>
      <identifier>oai:zenodo.org:287119</identifier>
      <datestamp>2017-02-09T17:30:43Z</datestamp>
      <setSpec>user-biosyslit</setSpec>
    </header>
    <header>
      <identifier>oai:zenodo.org:286617</identifier>
      <datestamp>2017-02-09T16:25:23Z</datestamp>
      <setSpec>user-biosyslit</setSpec>
    </header>
    <header>
      <identifier>oai:zenodo.org:287065</identifier>
      <datestamp>2017-02-09T17:23:10Z</datestamp>
      <setSpec>user-biosyslit</setSpec>
    </header>
    <header>
      <identifier>oai:zenodo.org:287255</identifier>
      <datestamp>2017-02-09T17:54:36Z</datestamp>
      <setSpec>user-biosyslit</setSpec>
    </header>
    <header>
      <identifier>oai:zenodo.org:288007</identifier>
      <datestamp>2017-02-09T19:48:37Z</datestamp>
      <setSpec>user-biosyslit</setSpec>
    </header>
    <header>
      <identifier>oai:zenodo.org:288724</identifier>
      <datestamp>2017-02-09T21:49:18Z</datestamp>
      <setSpec>user-biosyslit</setSpec>
    </header>
    <header>
      <identifier>oai:zenodo.org:288794</identifier>
      <datestamp>2017-02-09T21:53:12Z</datestamp>
      <setSpec>user-biosyslit</setSpec>
    </header>
    <header>
      <identifier>oai:zenodo.org:287953</identifier>
      <datestamp>2017-02-09T19:40:20Z</datestamp>
      <setSpec>user-biosyslit</setSpec>
    </header>
    <header>
      <identifier>oai:zenodo.org:288904</identifier>
      <datestamp>2017-02-09T22:07:48Z</datestamp>
      <setSpec>user-biosyslit</setSpec>
    </header>
    <header>
      <identifier>oai:zenodo.org:289289</identifier>
      <datestamp>2017-02-09T23:09:47Z</datestamp>
      <setSpec>user-biosyslit</setSpec>
    </header>
    <header>
      <identifier>oai:zenodo.org:288900</identifier>
      <datestamp>2017-02-09T22:07:38Z</datestamp>
      <setSpec>user-biosyslit</setSpec>
    </header>
    <header>
      <identifier>oai:zenodo.org:289995</identifier>
      <datestamp>2017-02-10T01:03:39Z</datestamp>
      <setSpec>user-biosyslit</setSpec>
    </header>
    <header>
      <identifier>oai:zenodo.org:290095</identifier>
      <datestamp>2017-02-10T01:15:45Z</datestamp>
      <setSpec>user-biosyslit</setSpec>
    </header>
    <header>
      <identifier>oai:zenodo.org:279459</identifier>
      <datestamp>2017-02-09T01:22:40Z</datestamp>
      <setSpec>user-biosyslit</setSpec>
    </header>
    <header>
      <identifier>oai:zenodo.org:294209</identifier>
      <datestamp>2017-02-20T19:29:24Z</datestamp>
      <setSpec>user-biosyslit</setSpec>
    </header>
    <header>
      <identifier>oai:zenodo.org:306904</identifier>
      <datestamp>2017-02-20T23:03:58Z</datestamp>
      <setSpec>user-biosyslit</setSpec>
    </header>
    <header>
      <identifier>oai:zenodo.org:311830</identifier>
      <datestamp>2017-02-21T00:29:58Z</datestamp>
      <setSpec>user-biosyslit</setSpec>
    </header>
    <header>
      <identifier>oai:zenodo.org:321795</identifier>
      <datestamp>2017-02-23T09:09:12Z</datestamp>
      <setSpec>user-biosyslit</setSpec>
    </header>
    <header>
      <identifier>oai:zenodo.org:321301</identifier>
      <datestamp>2017-02-21T12:13:10Z</datestamp>
      <setSpec>user-biosyslit</setSpec>
    </header>
    <header>
      <identifier>oai:zenodo.org:322174</identifier>
      <datestamp>2017-02-24T07:36:22Z</datestamp>
      <setSpec>user-biosyslit</setSpec>
    </header>
    <header>
      <identifier>oai:zenodo.org:321753</identifier>
      <datestamp>2017-02-23T08:30:54Z</datestamp>
      <setSpec>user-biosyslit</setSpec>
    </header>
    <header>
      <identifier>oai:zenodo.org:322168</identifier>
      <datestamp>2017-02-24T07:36:03Z</datestamp>
      <setSpec>user-biosyslit</setSpec>
    </header>
    <header>
      <identifier>oai:zenodo.org:322722</identifier>
      <datestamp>2017-02-27T09:56:30Z</datestamp>
      <setSpec>user-biosyslit</setSpec>
    </header>
    <header>
      <identifier>oai:zenodo.org:279578</identifier>
      <datestamp>2017-02-09T01:39:35Z</datestamp>
      <setSpec>user-biosyslit</setSpec>
    </header>
    <header>
      <identifier>oai:zenodo.org:281560</identifier>
      <datestamp>2017-02-09T05:31:51Z</datestamp>
      <setSpec>user-biosyslit</setSpec>
    </header>
    <header>
      <identifier>oai:zenodo.org:281884</identifier>
      <datestamp>2017-02-09T06:06:49Z</datestamp>
      <setSpec>user-biosyslit</setSpec>
    </header>
    <header>
      <identifier>oai:zenodo.org:283349</identifier>
      <datestamp>2017-02-09T08:37:31Z</datestamp>
      <setSpec>user-biosyslit</setSpec>
    </header>
    <header>
      <identifier>oai:zenodo.org:283306</identifier>
      <datestamp>2017-02-09T08:34:01Z</datestamp>
      <setSpec>user-biosyslit</setSpec>
    </header>
    <header>
      <identifier>oai:zenodo.org:283129</identifier>
      <datestamp>2017-02-09T08:12:22Z</datestamp>
      <setSpec>user-biosyslit</setSpec>
    </header>
    <header>
      <identifier>oai:zenodo.org:283142</identifier>
      <datestamp>2017-02-09T08:12:53Z</datestamp>
      <setSpec>user-biosyslit</setSpec>
    </header>
    <header>
      <identifier>oai:zenodo.org:283444</identifier>
      <datestamp>2017-02-09T08:55:02Z</datestamp>
      <setSpec>user-biosyslit</setSpec>
    </header>
    <header>
      <identifier>oai:zenodo.org:283745</identifier>
      <datestamp>2017-02-09T09:34:45Z</datestamp>
      <setSpec>user-biosyslit</setSpec>
    </header>
    <header>
      <identifier>oai:zenodo.org:284027</identifier>
      <datestamp>2017-02-09T10:11:22Z</datestamp>
      <setSpec>user-biosyslit</setSpec>
    </header>
    <header>
      <identifier>oai:zenodo.org:284136</identifier>
      <datestamp>2017-02-09T10:32:48Z</datestamp>
      <setSpec>user-biosyslit</setSpec>
    </header>
    <header>
      <identifier>oai:zenodo.org:283746</identifier>
      <datestamp>2017-02-09T09:34:51Z</datestamp>
      <setSpec>user-biosyslit</setSpec>
    </header>
    <resumptionToken expirationDate="2017-08-31T14:32:11Z" cursor="2300" completeListSize="142507">.eJwVzdFuREAYQOF3mWtpZoZF3a1Q2aY_sQzLTaND2RqqTIPZ7Lt3e32S79zQ0jQ1cvCTQayDbVqmrZtUtw1DQwufv4V4vz4y4pdM8FGwKsh-z0OGC9paobds4BUkTJmKBqKSl5heiL2xK97jlMlCnbdMP60J9i1Q8QqqpdFQ61Egyo9gStjoioTWc-THe0LcpNS5BemRPjwCX5PkuGOheP6E7CSh98lbDphn9Q6-dCMFGDwwwnQaa9VNeb79MPG6lkyOlep86GXM_l_qaCENTVXbIIceNNSv1dwuyLnd7394GFIW.DImu8w.552t3q4dJegvWoUOXOeHesTxtyw</resumptionToken>
  </ListIdentifiers>
</OAI-PMH>
