<?xml version='1.0' encoding='UTF-8'?>
<?xml-stylesheet type="text/xsl" href="/static/xsl/oai2.v1.0.xsl"?>
<OAI-PMH xmlns="http://www.openarchives.org/OAI/2.0/" xmlns:xsi="http://www.w3.org/2001/XMLSchema-instance" xsi:schemaLocation="http://www.openarchives.org/OAI/2.0/ http://www.openarchives.org/OAI/2.0/OAI-PMH.xsd">
  <responseDate>2017-08-31T15:43:22Z</responseDate>
  <request verb="ListIdentifiers" resumptionToken=".eJyNyrsOgjAUANB_uTMxba_KI3EhKGEQghUCLAaBEKU-QjVACf8ui7PO54wgq6oEiywINRANZGjqJlmS1VoDWbQPIU6X2aFIYlHcRZS78ftwi0nKat13ZL93UvRVQ4IbVXwXsoQafXQhQ3iMXqk69DF6HSdbfa_Cwb968ysxcEV2dp88utuCs7INtuHAqc0zLL6P_vnUz-fIDWjwzOsKLFwzDZoub2sJ1jhNH83rUW0.DInAGg.T1Y2WtRNIIuleViClJ8AtmfU5Q0">https://zenodo.org/oai2d</request>
  <ListIdentifiers>
    <header>
      <identifier>oai:zenodo.org:293989</identifier>
      <datestamp>2017-02-20T19:06:44Z</datestamp>
      <setSpec>user-biosyslit</setSpec>
    </header>
    <header>
      <identifier>oai:zenodo.org:235580</identifier>
      <datestamp>2017-01-09T12:25:13Z</datestamp>
      <setSpec>user-biosyslit</setSpec>
    </header>
    <header>
      <identifier>oai:zenodo.org:281289</identifier>
      <datestamp>2017-02-09T05:04:53Z</datestamp>
      <setSpec>user-biosyslit</setSpec>
    </header>
    <header>
      <identifier>oai:zenodo.org:235578</identifier>
      <datestamp>2017-01-09T12:25:04Z</datestamp>
      <setSpec>user-biosyslit</setSpec>
    </header>
    <header>
      <identifier>oai:zenodo.org:235577</identifier>
      <datestamp>2017-01-09T12:25:00Z</datestamp>
      <setSpec>user-biosyslit</setSpec>
    </header>
    <header>
      <identifier>oai:zenodo.org:235581</identifier>
      <datestamp>2017-01-09T12:25:19Z</datestamp>
      <setSpec>user-biosyslit</setSpec>
    </header>
    <header>
      <identifier>oai:zenodo.org:293994</identifier>
      <datestamp>2017-02-20T19:06:35Z</datestamp>
      <setSpec>user-biosyslit</setSpec>
    </header>
    <header>
      <identifier>oai:zenodo.org:293995</identifier>
      <datestamp>2017-02-20T19:06:38Z</datestamp>
      <setSpec>user-biosyslit</setSpec>
    </header>
    <header>
      <identifier>oai:zenodo.org:293300</identifier>
      <datestamp>2017-02-19T13:29:16Z</datestamp>
      <setSpec>user-biosyslit</setSpec>
    </header>
    <header>
      <identifier>oai:zenodo.org:238376</identifier>
      <datestamp>2017-01-11T04:56:59Z</datestamp>
      <setSpec>user-biosyslit</setSpec>
    </header>
    <header>
      <identifier>oai:zenodo.org:293301</identifier>
      <datestamp>2017-02-19T13:29:08Z</datestamp>
      <setSpec>user-biosyslit</setSpec>
    </header>
    <header>
      <identifier>oai:zenodo.org:294143</identifier>
      <datestamp>2017-02-20T19:22:41Z</datestamp>
      <setSpec>user-biosyslit</setSpec>
    </header>
    <header>
      <identifier>oai:zenodo.org:294142</identifier>
      <datestamp>2017-02-20T19:22:39Z</datestamp>
      <setSpec>user-biosyslit</setSpec>
    </header>
    <header>
      <identifier>oai:zenodo.org:275076</identifier>
      <datestamp>2017-02-08T15:15:15Z</datestamp>
      <setSpec>user-biosyslit</setSpec>
    </header>
    <header>
      <identifier>oai:zenodo.org:275085</identifier>
      <datestamp>2017-02-08T15:15:11Z</datestamp>
      <setSpec>user-biosyslit</setSpec>
    </header>
    <header>
      <identifier>oai:zenodo.org:243264</identifier>
      <datestamp>2017-01-14T01:49:11Z</datestamp>
      <setSpec>user-biosyslit</setSpec>
    </header>
    <header>
      <identifier>oai:zenodo.org:243265</identifier>
      <datestamp>2017-01-14T01:49:14Z</datestamp>
      <setSpec>user-biosyslit</setSpec>
    </header>
    <header>
      <identifier>oai:zenodo.org:243262</identifier>
      <datestamp>2017-01-14T01:49:06Z</datestamp>
      <setSpec>user-biosyslit</setSpec>
    </header>
    <header>
      <identifier>oai:zenodo.org:275082</identifier>
      <datestamp>2017-02-08T15:15:04Z</datestamp>
      <setSpec>user-biosyslit</setSpec>
    </header>
    <header>
      <identifier>oai:zenodo.org:243263</identifier>
      <datestamp>2017-01-14T01:49:08Z</datestamp>
      <setSpec>user-biosyslit</setSpec>
    </header>
    <header>
      <identifier>oai:zenodo.org:243267</identifier>
      <datestamp>2017-01-14T01:49:22Z</datestamp>
      <setSpec>user-biosyslit</setSpec>
    </header>
    <header>
      <identifier>oai:zenodo.org:275086</identifier>
      <datestamp>2017-02-08T15:15:14Z</datestamp>
      <setSpec>user-biosyslit</setSpec>
    </header>
    <header>
      <identifier>oai:zenodo.org:282414</identifier>
      <datestamp>2017-02-09T06:58:20Z</datestamp>
      <setSpec>user-biosyslit</setSpec>
    </header>
    <header>
      <identifier>oai:zenodo.org:282415</identifier>
      <datestamp>2017-02-09T06:58:08Z</datestamp>
      <setSpec>user-biosyslit</setSpec>
    </header>
    <header>
      <identifier>oai:zenodo.org:239875</identifier>
      <datestamp>2017-01-12T02:07:11Z</datestamp>
      <setSpec>user-biosyslit</setSpec>
    </header>
    <header>
      <identifier>oai:zenodo.org:239874</identifier>
      <datestamp>2017-01-12T02:07:05Z</datestamp>
      <setSpec>user-biosyslit</setSpec>
    </header>
    <header>
      <identifier>oai:zenodo.org:274846</identifier>
      <datestamp>2017-02-08T14:35:46Z</datestamp>
      <setSpec>user-biosyslit</setSpec>
    </header>
    <header>
      <identifier>oai:zenodo.org:229717</identifier>
      <datestamp>2017-01-03T20:53:28Z</datestamp>
      <setSpec>user-biosyslit</setSpec>
    </header>
    <header>
      <identifier>oai:zenodo.org:235068</identifier>
      <datestamp>2017-01-09T05:19:22Z</datestamp>
      <setSpec>user-biosyslit</setSpec>
    </header>
    <header>
      <identifier>oai:zenodo.org:235067</identifier>
      <datestamp>2017-01-09T05:19:17Z</datestamp>
      <setSpec>user-biosyslit</setSpec>
    </header>
    <header>
      <identifier>oai:zenodo.org:229721</identifier>
      <datestamp>2017-01-03T20:53:27Z</datestamp>
      <setSpec>user-biosyslit</setSpec>
    </header>
    <header>
      <identifier>oai:zenodo.org:229718</identifier>
      <datestamp>2017-01-03T20:53:18Z</datestamp>
      <setSpec>user-biosyslit</setSpec>
    </header>
    <header>
      <identifier>oai:zenodo.org:235069</identifier>
      <datestamp>2017-01-09T05:19:25Z</datestamp>
      <setSpec>user-biosyslit</setSpec>
    </header>
    <header>
      <identifier>oai:zenodo.org:243754</identifier>
      <datestamp>2017-01-14T10:23:51Z</datestamp>
      <setSpec>user-biosyslit</setSpec>
    </header>
    <header>
      <identifier>oai:zenodo.org:243756</identifier>
      <datestamp>2017-01-14T10:24:15Z</datestamp>
      <setSpec>user-biosyslit</setSpec>
    </header>
    <header>
      <identifier>oai:zenodo.org:243759</identifier>
      <datestamp>2017-01-14T10:24:31Z</datestamp>
      <setSpec>user-biosyslit</setSpec>
    </header>
    <header>
      <identifier>oai:zenodo.org:243752</identifier>
      <datestamp>2017-01-14T10:24:41Z</datestamp>
      <setSpec>user-biosyslit</setSpec>
    </header>
    <header>
      <identifier>oai:zenodo.org:243760</identifier>
      <datestamp>2017-01-14T10:24:34Z</datestamp>
      <setSpec>user-biosyslit</setSpec>
    </header>
    <header>
      <identifier>oai:zenodo.org:252541</identifier>
      <datestamp>2017-01-19T15:59:42Z</datestamp>
      <setSpec>user-biosyslit</setSpec>
    </header>
    <header>
      <identifier>oai:zenodo.org:252540</identifier>
      <datestamp>2017-01-19T15:59:39Z</datestamp>
      <setSpec>user-biosyslit</setSpec>
    </header>
    <header>
      <identifier>oai:zenodo.org:252545</identifier>
      <datestamp>2017-01-19T15:59:55Z</datestamp>
      <setSpec>user-biosyslit</setSpec>
    </header>
    <header>
      <identifier>oai:zenodo.org:252544</identifier>
      <datestamp>2017-01-19T15:59:52Z</datestamp>
      <setSpec>user-biosyslit</setSpec>
    </header>
    <header>
      <identifier>oai:zenodo.org:252537</identifier>
      <datestamp>2017-01-19T15:59:30Z</datestamp>
      <setSpec>user-biosyslit</setSpec>
    </header>
    <header>
      <identifier>oai:zenodo.org:252543</identifier>
      <datestamp>2017-01-19T15:59:49Z</datestamp>
      <setSpec>user-biosyslit</setSpec>
    </header>
    <header>
      <identifier>oai:zenodo.org:252538</identifier>
      <datestamp>2017-01-19T15:59:33Z</datestamp>
      <setSpec>user-biosyslit</setSpec>
    </header>
    <header>
      <identifier>oai:zenodo.org:252542</identifier>
      <datestamp>2017-01-19T15:59:45Z</datestamp>
      <setSpec>user-biosyslit</setSpec>
    </header>
    <header>
      <identifier>oai:zenodo.org:261539</identifier>
      <datestamp>2017-01-28T10:34:34Z</datestamp>
      <setSpec>user-biosyslit</setSpec>
    </header>
    <header>
      <identifier>oai:zenodo.org:263542</identifier>
      <datestamp>2017-01-30T00:16:11Z</datestamp>
      <setSpec>user-biosyslit</setSpec>
    </header>
    <header>
      <identifier>oai:zenodo.org:261537</identifier>
      <datestamp>2017-01-28T10:34:35Z</datestamp>
      <setSpec>user-biosyslit</setSpec>
    </header>
    <header>
      <identifier>oai:zenodo.org:263543</identifier>
      <datestamp>2017-01-30T00:15:57Z</datestamp>
      <setSpec>user-biosyslit</setSpec>
    </header>
    <header>
      <identifier>oai:zenodo.org:263544</identifier>
      <datestamp>2017-01-30T00:16:03Z</datestamp>
      <setSpec>user-biosyslit</setSpec>
    </header>
    <header>
      <identifier>oai:zenodo.org:283593</identifier>
      <datestamp>2017-02-09T09:15:40Z</datestamp>
      <setSpec>user-biosyslit</setSpec>
    </header>
    <header>
      <identifier>oai:zenodo.org:274488</identifier>
      <datestamp>2017-02-08T13:30:10Z</datestamp>
      <setSpec>user-biosyslit</setSpec>
    </header>
    <header>
      <identifier>oai:zenodo.org:274487</identifier>
      <datestamp>2017-02-08T13:30:07Z</datestamp>
      <setSpec>user-biosyslit</setSpec>
    </header>
    <header>
      <identifier>oai:zenodo.org:278002</identifier>
      <datestamp>2017-02-08T22:15:03Z</datestamp>
      <setSpec>user-biosyslit</setSpec>
    </header>
    <header>
      <identifier>oai:zenodo.org:274486</identifier>
      <datestamp>2017-02-08T13:30:11Z</datestamp>
      <setSpec>user-biosyslit</setSpec>
    </header>
    <header>
      <identifier>oai:zenodo.org:278004</identifier>
      <datestamp>2017-02-08T22:15:01Z</datestamp>
      <setSpec>user-biosyslit</setSpec>
    </header>
    <header>
      <identifier>oai:zenodo.org:274107</identifier>
      <datestamp>2017-02-08T12:10:09Z</datestamp>
      <setSpec>user-biosyslit</setSpec>
    </header>
    <header>
      <identifier>oai:zenodo.org:274110</identifier>
      <datestamp>2017-02-08T12:10:07Z</datestamp>
      <setSpec>user-biosyslit</setSpec>
    </header>
    <header>
      <identifier>oai:zenodo.org:262631</identifier>
      <datestamp>2017-01-29T06:29:31Z</datestamp>
      <setSpec>user-biosyslit</setSpec>
    </header>
    <header>
      <identifier>oai:zenodo.org:262632</identifier>
      <datestamp>2017-01-29T06:29:19Z</datestamp>
      <setSpec>user-biosyslit</setSpec>
    </header>
    <header>
      <identifier>oai:zenodo.org:262636</identifier>
      <datestamp>2017-01-29T06:29:30Z</datestamp>
      <setSpec>user-biosyslit</setSpec>
    </header>
    <header>
      <identifier>oai:zenodo.org:264996</identifier>
      <datestamp>2017-01-31T05:47:57Z</datestamp>
      <setSpec>user-biosyslit</setSpec>
    </header>
    <header>
      <identifier>oai:zenodo.org:265001</identifier>
      <datestamp>2017-01-31T05:48:25Z</datestamp>
      <setSpec>user-biosyslit</setSpec>
    </header>
    <header>
      <identifier>oai:zenodo.org:264999</identifier>
      <datestamp>2017-01-31T05:48:19Z</datestamp>
      <setSpec>user-biosyslit</setSpec>
    </header>
    <header>
      <identifier>oai:zenodo.org:264998</identifier>
      <datestamp>2017-01-31T05:48:04Z</datestamp>
      <setSpec>user-biosyslit</setSpec>
    </header>
    <header>
      <identifier>oai:zenodo.org:234171</identifier>
      <datestamp>2017-01-08T15:47:34Z</datestamp>
      <setSpec>user-biosyslit</setSpec>
    </header>
    <header>
      <identifier>oai:zenodo.org:274479</identifier>
      <datestamp>2017-02-08T13:28:38Z</datestamp>
      <setSpec>user-biosyslit</setSpec>
    </header>
    <header>
      <identifier>oai:zenodo.org:249498</identifier>
      <datestamp>2017-01-17T20:35:55Z</datestamp>
      <setSpec>user-biosyslit</setSpec>
    </header>
    <header>
      <identifier>oai:zenodo.org:249512</identifier>
      <datestamp>2017-01-17T20:35:27Z</datestamp>
      <setSpec>user-biosyslit</setSpec>
    </header>
    <header>
      <identifier>oai:zenodo.org:249515</identifier>
      <datestamp>2017-01-17T20:35:43Z</datestamp>
      <setSpec>user-biosyslit</setSpec>
    </header>
    <header>
      <identifier>oai:zenodo.org:249511</identifier>
      <datestamp>2017-01-17T20:35:23Z</datestamp>
      <setSpec>user-biosyslit</setSpec>
    </header>
    <header>
      <identifier>oai:zenodo.org:249276</identifier>
      <datestamp>2017-01-17T18:16:48Z</datestamp>
      <setSpec>user-biosyslit</setSpec>
    </header>
    <header>
      <identifier>oai:zenodo.org:249282</identifier>
      <datestamp>2017-01-17T18:17:14Z</datestamp>
      <setSpec>user-biosyslit</setSpec>
    </header>
    <header>
      <identifier>oai:zenodo.org:233133</identifier>
      <datestamp>2017-01-08T00:50:53Z</datestamp>
      <setSpec>user-biosyslit</setSpec>
    </header>
    <header>
      <identifier>oai:zenodo.org:233134</identifier>
      <datestamp>2017-01-08T00:50:57Z</datestamp>
      <setSpec>user-biosyslit</setSpec>
    </header>
    <header>
      <identifier>oai:zenodo.org:240309</identifier>
      <datestamp>2017-01-12T07:05:19Z</datestamp>
      <setSpec>user-biosyslit</setSpec>
    </header>
    <header>
      <identifier>oai:zenodo.org:240305</identifier>
      <datestamp>2017-01-12T07:05:00Z</datestamp>
      <setSpec>user-biosyslit</setSpec>
    </header>
    <header>
      <identifier>oai:zenodo.org:233131</identifier>
      <datestamp>2017-01-08T00:50:43Z</datestamp>
      <setSpec>user-biosyslit</setSpec>
    </header>
    <header>
      <identifier>oai:zenodo.org:240307</identifier>
      <datestamp>2017-01-12T07:05:08Z</datestamp>
      <setSpec>user-biosyslit</setSpec>
    </header>
    <header>
      <identifier>oai:zenodo.org:240306</identifier>
      <datestamp>2017-01-12T07:05:04Z</datestamp>
      <setSpec>user-biosyslit</setSpec>
    </header>
    <header>
      <identifier>oai:zenodo.org:244415</identifier>
      <datestamp>2017-01-14T21:35:43Z</datestamp>
      <setSpec>user-biosyslit</setSpec>
    </header>
    <header>
      <identifier>oai:zenodo.org:284655</identifier>
      <datestamp>2017-02-09T11:46:10Z</datestamp>
      <setSpec>user-biosyslit</setSpec>
    </header>
    <header>
      <identifier>oai:zenodo.org:284657</identifier>
      <datestamp>2017-02-09T11:46:01Z</datestamp>
      <setSpec>user-biosyslit</setSpec>
    </header>
    <header>
      <identifier>oai:zenodo.org:284659</identifier>
      <datestamp>2017-02-09T11:46:08Z</datestamp>
      <setSpec>user-biosyslit</setSpec>
    </header>
    <header>
      <identifier>oai:zenodo.org:254354</identifier>
      <datestamp>2017-01-20T18:09:45Z</datestamp>
      <setSpec>user-biosyslit</setSpec>
    </header>
    <header>
      <identifier>oai:zenodo.org:254355</identifier>
      <datestamp>2017-01-20T18:09:49Z</datestamp>
      <setSpec>user-biosyslit</setSpec>
    </header>
    <header>
      <identifier>oai:zenodo.org:284656</identifier>
      <datestamp>2017-02-09T11:45:57Z</datestamp>
      <setSpec>user-biosyslit</setSpec>
    </header>
    <header>
      <identifier>oai:zenodo.org:236702</identifier>
      <datestamp>2017-01-10T03:19:48Z</datestamp>
      <setSpec>user-biosyslit</setSpec>
    </header>
    <header>
      <identifier>oai:zenodo.org:236701</identifier>
      <datestamp>2017-01-10T03:19:44Z</datestamp>
      <setSpec>user-biosyslit</setSpec>
    </header>
    <header>
      <identifier>oai:zenodo.org:236703</identifier>
      <datestamp>2017-01-10T03:19:54Z</datestamp>
      <setSpec>user-biosyslit</setSpec>
    </header>
    <header>
      <identifier>oai:zenodo.org:254374</identifier>
      <datestamp>2017-01-20T18:10:43Z</datestamp>
      <setSpec>user-biosyslit</setSpec>
    </header>
    <header>
      <identifier>oai:zenodo.org:254372</identifier>
      <datestamp>2017-01-20T18:10:38Z</datestamp>
      <setSpec>user-biosyslit</setSpec>
    </header>
    <header>
      <identifier>oai:zenodo.org:232614</identifier>
      <datestamp>2017-01-06T20:30:06Z</datestamp>
      <setSpec>user-biosyslit</setSpec>
    </header>
    <header>
      <identifier>oai:zenodo.org:252071</identifier>
      <datestamp>2017-01-19T08:45:42Z</datestamp>
      <setSpec>user-biosyslit</setSpec>
    </header>
    <header>
      <identifier>oai:zenodo.org:252075</identifier>
      <datestamp>2017-01-19T08:45:59Z</datestamp>
      <setSpec>user-biosyslit</setSpec>
    </header>
    <header>
      <identifier>oai:zenodo.org:252069</identifier>
      <datestamp>2017-01-19T08:45:31Z</datestamp>
      <setSpec>user-biosyslit</setSpec>
    </header>
    <header>
      <identifier>oai:zenodo.org:252072</identifier>
      <datestamp>2017-01-19T08:45:46Z</datestamp>
      <setSpec>user-biosyslit</setSpec>
    </header>
    <header>
      <identifier>oai:zenodo.org:252077</identifier>
      <datestamp>2017-01-19T08:46:07Z</datestamp>
      <setSpec>user-biosyslit</setSpec>
    </header>
    <header>
      <identifier>oai:zenodo.org:252070</identifier>
      <datestamp>2017-01-19T08:45:37Z</datestamp>
      <setSpec>user-biosyslit</setSpec>
    </header>
    <resumptionToken expirationDate="2017-08-31T15:45:22Z" cursor="36100" completeListSize="77796">.eJyNyrsOgjAUANB_uTMxfVgREhcCEgYhWCHAYrAQgtZHqEYo4d9lcdb5nBFUXVdgowWhhDFirZHJlsyi2DJAie4u5bGdHUSWSnGTSemnr_01RTlpzNBV_c7NaagvKLpizbcxyfC6T1o0xIfkmet9n9LgzZFn7nQ8hOdgfhWNfFmc_AdPbo7kpOoiLx44dnhBxffhP5_--Vy1AQMeZVODTVfUgMu77BoF9jhNH9U_UXY.DInAGg.HFMT6iMycnymjnfmOOuBhL3iQJk</resumptionToken>
  </ListIdentifiers>
</OAI-PMH>
