<?xml version='1.0' encoding='UTF-8'?>
<?xml-stylesheet type="text/xsl" href="/static/xsl/oai2.v1.0.xsl"?>
<OAI-PMH xmlns="http://www.openarchives.org/OAI/2.0/" xmlns:xsi="http://www.w3.org/2001/XMLSchema-instance" xsi:schemaLocation="http://www.openarchives.org/OAI/2.0/ http://www.openarchives.org/OAI/2.0/OAI-PMH.xsd">
  <responseDate>2017-08-31T15:43:37Z</responseDate>
  <request verb="ListIdentifiers" resumptionToken=".eJyNyk0LgjAYAOD_8p4l5lZ-QZfQxIOKLUW7hE0Rc5q4Ip343_PSuc7PM4MoywIstDEM09C0nU40jAk2TQUEGx6cX-uVgaUJZx2Pczd5ndoEZbjSA1uMvp2RQDYobFVJjxFOVWOMazRF5_iZydOYEO9NkaP7MpqCu7e-goQuv9zcnsbdgVNcDKETTVQ90Ath36f--eTPZ4s9KNDnVQnWFiEFmnc-VAKseVk-sVRRTA.DInAKQ.eo8XXDyHdjczltovN-MBlRfrmBs">https://zenodo.org/oai2d</request>
  <ListIdentifiers>
    <header>
      <identifier>oai:zenodo.org:264211</identifier>
      <datestamp>2017-01-30T14:53:44Z</datestamp>
      <setSpec>user-biosyslit</setSpec>
    </header>
    <header>
      <identifier>oai:zenodo.org:264077</identifier>
      <datestamp>2017-01-30T12:36:41Z</datestamp>
      <setSpec>user-biosyslit</setSpec>
    </header>
    <header>
      <identifier>oai:zenodo.org:265664</identifier>
      <datestamp>2017-01-31T18:41:19Z</datestamp>
      <setSpec>user-biosyslit</setSpec>
    </header>
    <header>
      <identifier>oai:zenodo.org:266210</identifier>
      <datestamp>2017-02-01T02:38:08Z</datestamp>
      <setSpec>user-biosyslit</setSpec>
    </header>
    <header>
      <identifier>oai:zenodo.org:264908</identifier>
      <datestamp>2017-01-31T04:35:46Z</datestamp>
      <setSpec>user-biosyslit</setSpec>
    </header>
    <header>
      <identifier>oai:zenodo.org:265106</identifier>
      <datestamp>2017-01-31T07:55:33Z</datestamp>
      <setSpec>user-biosyslit</setSpec>
    </header>
    <header>
      <identifier>oai:zenodo.org:265002</identifier>
      <datestamp>2017-01-31T05:58:25Z</datestamp>
      <setSpec>user-biosyslit</setSpec>
    </header>
    <header>
      <identifier>oai:zenodo.org:264663</identifier>
      <datestamp>2017-01-31T00:56:28Z</datestamp>
      <setSpec>user-biosyslit</setSpec>
    </header>
    <header>
      <identifier>oai:zenodo.org:264624</identifier>
      <datestamp>2017-01-31T00:10:14Z</datestamp>
      <setSpec>user-biosyslit</setSpec>
    </header>
    <header>
      <identifier>oai:zenodo.org:266318</identifier>
      <datestamp>2017-02-01T06:15:03Z</datestamp>
      <setSpec>user-biosyslit</setSpec>
    </header>
    <header>
      <identifier>oai:zenodo.org:265413</identifier>
      <datestamp>2017-01-31T13:41:30Z</datestamp>
      <setSpec>user-biosyslit</setSpec>
    </header>
    <header>
      <identifier>oai:zenodo.org:265443</identifier>
      <datestamp>2017-01-31T13:57:09Z</datestamp>
      <setSpec>user-biosyslit</setSpec>
    </header>
    <header>
      <identifier>oai:zenodo.org:265858</identifier>
      <datestamp>2017-01-31T22:19:52Z</datestamp>
      <setSpec>user-biosyslit</setSpec>
    </header>
    <header>
      <identifier>oai:zenodo.org:266848</identifier>
      <datestamp>2017-02-01T15:55:31Z</datestamp>
      <setSpec>user-biosyslit</setSpec>
    </header>
    <header>
      <identifier>oai:zenodo.org:266308</identifier>
      <datestamp>2017-02-01T05:53:42Z</datestamp>
      <setSpec>user-biosyslit</setSpec>
    </header>
    <header>
      <identifier>oai:zenodo.org:266205</identifier>
      <datestamp>2017-02-01T02:37:24Z</datestamp>
      <setSpec>user-biosyslit</setSpec>
    </header>
    <header>
      <identifier>oai:zenodo.org:265838</identifier>
      <datestamp>2017-01-31T21:49:09Z</datestamp>
      <setSpec>user-biosyslit</setSpec>
    </header>
    <header>
      <identifier>oai:zenodo.org:266197</identifier>
      <datestamp>2017-02-01T02:02:27Z</datestamp>
      <setSpec>user-biosyslit</setSpec>
    </header>
    <header>
      <identifier>oai:zenodo.org:265887</identifier>
      <datestamp>2017-01-31T23:02:46Z</datestamp>
      <setSpec>user-biosyslit</setSpec>
    </header>
    <header>
      <identifier>oai:zenodo.org:274520</identifier>
      <datestamp>2017-02-08T13:34:57Z</datestamp>
      <setSpec>user-biosyslit</setSpec>
    </header>
    <header>
      <identifier>oai:zenodo.org:266692</identifier>
      <datestamp>2017-02-01T13:54:16Z</datestamp>
      <setSpec>user-biosyslit</setSpec>
    </header>
    <header>
      <identifier>oai:zenodo.org:266576</identifier>
      <datestamp>2017-02-01T12:04:13Z</datestamp>
      <setSpec>user-biosyslit</setSpec>
    </header>
    <header>
      <identifier>oai:zenodo.org:267187</identifier>
      <datestamp>2017-02-01T21:55:12Z</datestamp>
      <setSpec>user-biosyslit</setSpec>
    </header>
    <header>
      <identifier>oai:zenodo.org:268143</identifier>
      <datestamp>2017-02-03T02:55:15Z</datestamp>
      <setSpec>user-biosyslit</setSpec>
    </header>
    <header>
      <identifier>oai:zenodo.org:267674</identifier>
      <datestamp>2017-02-02T05:37:56Z</datestamp>
      <setSpec>user-biosyslit</setSpec>
    </header>
    <header>
      <identifier>oai:zenodo.org:267366</identifier>
      <datestamp>2017-02-02T00:51:12Z</datestamp>
      <setSpec>user-biosyslit</setSpec>
    </header>
    <header>
      <identifier>oai:zenodo.org:267189</identifier>
      <datestamp>2017-02-01T21:55:17Z</datestamp>
      <setSpec>user-biosyslit</setSpec>
    </header>
    <header>
      <identifier>oai:zenodo.org:267408</identifier>
      <datestamp>2017-02-02T01:42:25Z</datestamp>
      <setSpec>user-biosyslit</setSpec>
    </header>
    <header>
      <identifier>oai:zenodo.org:269186</identifier>
      <datestamp>2017-02-06T23:03:04Z</datestamp>
      <setSpec>user-biosyslit</setSpec>
    </header>
    <header>
      <identifier>oai:zenodo.org:268173</identifier>
      <datestamp>2017-02-03T02:56:33Z</datestamp>
      <setSpec>user-biosyslit</setSpec>
    </header>
    <header>
      <identifier>oai:zenodo.org:275753</identifier>
      <datestamp>2017-02-08T17:01:47Z</datestamp>
      <setSpec>user-biosyslit</setSpec>
    </header>
    <header>
      <identifier>oai:zenodo.org:268315</identifier>
      <datestamp>2017-02-03T11:03:48Z</datestamp>
      <setSpec>user-biosyslit</setSpec>
    </header>
    <header>
      <identifier>oai:zenodo.org:269272</identifier>
      <datestamp>2017-02-06T23:45:55Z</datestamp>
      <setSpec>user-biosyslit</setSpec>
    </header>
    <header>
      <identifier>oai:zenodo.org:269132</identifier>
      <datestamp>2017-02-06T22:51:50Z</datestamp>
      <setSpec>user-biosyslit</setSpec>
    </header>
    <header>
      <identifier>oai:zenodo.org:269561</identifier>
      <datestamp>2017-02-07T00:58:04Z</datestamp>
      <setSpec>user-biosyslit</setSpec>
    </header>
    <header>
      <identifier>oai:zenodo.org:269350</identifier>
      <datestamp>2017-02-06T23:57:53Z</datestamp>
      <setSpec>user-biosyslit</setSpec>
    </header>
    <header>
      <identifier>oai:zenodo.org:274695</identifier>
      <datestamp>2017-02-08T14:02:41Z</datestamp>
      <setSpec>user-biosyslit</setSpec>
    </header>
    <header>
      <identifier>oai:zenodo.org:275615</identifier>
      <datestamp>2017-02-08T16:48:13Z</datestamp>
      <setSpec>user-biosyslit</setSpec>
    </header>
    <header>
      <identifier>oai:zenodo.org:269531</identifier>
      <datestamp>2017-02-07T00:45:20Z</datestamp>
      <setSpec>user-biosyslit</setSpec>
    </header>
    <header>
      <identifier>oai:zenodo.org:275914</identifier>
      <datestamp>2017-02-08T17:22:08Z</datestamp>
      <setSpec>user-biosyslit</setSpec>
    </header>
    <header>
      <identifier>oai:zenodo.org:276791</identifier>
      <datestamp>2017-02-08T19:40:35Z</datestamp>
      <setSpec>user-biosyslit</setSpec>
    </header>
    <header>
      <identifier>oai:zenodo.org:277408</identifier>
      <datestamp>2017-02-08T21:04:42Z</datestamp>
      <setSpec>user-biosyslit</setSpec>
    </header>
    <header>
      <identifier>oai:zenodo.org:277563</identifier>
      <datestamp>2017-02-08T21:22:47Z</datestamp>
      <setSpec>user-biosyslit</setSpec>
    </header>
    <header>
      <identifier>oai:zenodo.org:277942</identifier>
      <datestamp>2017-02-08T22:08:02Z</datestamp>
      <setSpec>user-biosyslit</setSpec>
    </header>
    <header>
      <identifier>oai:zenodo.org:278948</identifier>
      <datestamp>2017-02-09T00:14:17Z</datestamp>
      <setSpec>user-biosyslit</setSpec>
    </header>
    <header>
      <identifier>oai:zenodo.org:279613</identifier>
      <datestamp>2017-02-09T01:43:39Z</datestamp>
      <setSpec>user-biosyslit</setSpec>
    </header>
    <header>
      <identifier>oai:zenodo.org:279915</identifier>
      <datestamp>2017-02-09T02:16:56Z</datestamp>
      <setSpec>user-biosyslit</setSpec>
    </header>
    <header>
      <identifier>oai:zenodo.org:280350</identifier>
      <datestamp>2017-02-09T03:14:33Z</datestamp>
      <setSpec>user-biosyslit</setSpec>
    </header>
    <header>
      <identifier>oai:zenodo.org:279446</identifier>
      <datestamp>2017-02-09T01:22:04Z</datestamp>
      <setSpec>user-biosyslit</setSpec>
    </header>
    <header>
      <identifier>oai:zenodo.org:280036</identifier>
      <datestamp>2017-02-09T02:32:55Z</datestamp>
      <setSpec>user-biosyslit</setSpec>
    </header>
    <header>
      <identifier>oai:zenodo.org:279402</identifier>
      <datestamp>2017-02-09T01:14:36Z</datestamp>
      <setSpec>user-biosyslit</setSpec>
    </header>
    <header>
      <identifier>oai:zenodo.org:281011</identifier>
      <datestamp>2017-02-09T04:34:00Z</datestamp>
      <setSpec>user-biosyslit</setSpec>
    </header>
    <header>
      <identifier>oai:zenodo.org:279580</identifier>
      <datestamp>2017-02-09T01:39:40Z</datestamp>
      <setSpec>user-biosyslit</setSpec>
    </header>
    <header>
      <identifier>oai:zenodo.org:282910</identifier>
      <datestamp>2017-02-09T07:49:37Z</datestamp>
      <setSpec>user-biosyslit</setSpec>
    </header>
    <header>
      <identifier>oai:zenodo.org:281222</identifier>
      <datestamp>2017-02-09T04:57:28Z</datestamp>
      <setSpec>user-biosyslit</setSpec>
    </header>
    <header>
      <identifier>oai:zenodo.org:281298</identifier>
      <datestamp>2017-02-09T05:05:51Z</datestamp>
      <setSpec>user-biosyslit</setSpec>
    </header>
    <header>
      <identifier>oai:zenodo.org:282042</identifier>
      <datestamp>2017-02-09T06:22:21Z</datestamp>
      <setSpec>user-biosyslit</setSpec>
    </header>
    <header>
      <identifier>oai:zenodo.org:282539</identifier>
      <datestamp>2017-02-09T07:11:56Z</datestamp>
      <setSpec>user-biosyslit</setSpec>
    </header>
    <header>
      <identifier>oai:zenodo.org:283127</identifier>
      <datestamp>2017-02-09T08:12:18Z</datestamp>
      <setSpec>user-biosyslit</setSpec>
    </header>
    <header>
      <identifier>oai:zenodo.org:282848</identifier>
      <datestamp>2017-02-09T07:43:23Z</datestamp>
      <setSpec>user-biosyslit</setSpec>
    </header>
    <header>
      <identifier>oai:zenodo.org:283143</identifier>
      <datestamp>2017-02-09T08:12:57Z</datestamp>
      <setSpec>user-biosyslit</setSpec>
    </header>
    <header>
      <identifier>oai:zenodo.org:282931</identifier>
      <datestamp>2017-02-09T07:51:35Z</datestamp>
      <setSpec>user-biosyslit</setSpec>
    </header>
    <header>
      <identifier>oai:zenodo.org:283564</identifier>
      <datestamp>2017-02-09T09:11:26Z</datestamp>
      <setSpec>user-biosyslit</setSpec>
    </header>
    <header>
      <identifier>oai:zenodo.org:284026</identifier>
      <datestamp>2017-02-09T10:11:21Z</datestamp>
      <setSpec>user-biosyslit</setSpec>
    </header>
    <header>
      <identifier>oai:zenodo.org:284329</identifier>
      <datestamp>2017-02-09T11:04:40Z</datestamp>
      <setSpec>user-biosyslit</setSpec>
    </header>
    <header>
      <identifier>oai:zenodo.org:284955</identifier>
      <datestamp>2017-02-09T12:21:15Z</datestamp>
      <setSpec>user-biosyslit</setSpec>
    </header>
    <header>
      <identifier>oai:zenodo.org:285174</identifier>
      <datestamp>2017-02-09T12:50:42Z</datestamp>
      <setSpec>user-biosyslit</setSpec>
    </header>
    <header>
      <identifier>oai:zenodo.org:286357</identifier>
      <datestamp>2017-02-09T15:50:11Z</datestamp>
      <setSpec>user-biosyslit</setSpec>
    </header>
    <header>
      <identifier>oai:zenodo.org:286278</identifier>
      <datestamp>2017-02-09T15:42:36Z</datestamp>
      <setSpec>user-biosyslit</setSpec>
    </header>
    <header>
      <identifier>oai:zenodo.org:285498</identifier>
      <datestamp>2017-02-09T13:43:24Z</datestamp>
      <setSpec>user-biosyslit</setSpec>
    </header>
    <header>
      <identifier>oai:zenodo.org:287503</identifier>
      <datestamp>2017-02-09T18:29:57Z</datestamp>
      <setSpec>user-biosyslit</setSpec>
    </header>
    <header>
      <identifier>oai:zenodo.org:285756</identifier>
      <datestamp>2017-02-09T14:25:46Z</datestamp>
      <setSpec>user-biosyslit</setSpec>
    </header>
    <header>
      <identifier>oai:zenodo.org:286927</identifier>
      <datestamp>2017-02-09T17:05:23Z</datestamp>
      <setSpec>user-biosyslit</setSpec>
    </header>
    <header>
      <identifier>oai:zenodo.org:285776</identifier>
      <datestamp>2017-02-09T14:31:42Z</datestamp>
      <setSpec>user-biosyslit</setSpec>
    </header>
    <header>
      <identifier>oai:zenodo.org:285989</identifier>
      <datestamp>2017-02-09T14:59:49Z</datestamp>
      <setSpec>user-biosyslit</setSpec>
    </header>
    <header>
      <identifier>oai:zenodo.org:288178</identifier>
      <datestamp>2017-02-09T20:15:01Z</datestamp>
      <setSpec>user-biosyslit</setSpec>
    </header>
    <header>
      <identifier>oai:zenodo.org:287793</identifier>
      <datestamp>2017-02-09T19:20:44Z</datestamp>
      <setSpec>user-biosyslit</setSpec>
    </header>
    <header>
      <identifier>oai:zenodo.org:286417</identifier>
      <datestamp>2017-02-09T15:57:31Z</datestamp>
      <setSpec>user-biosyslit</setSpec>
    </header>
    <header>
      <identifier>oai:zenodo.org:286859</identifier>
      <datestamp>2017-02-09T16:57:55Z</datestamp>
      <setSpec>user-biosyslit</setSpec>
    </header>
    <header>
      <identifier>oai:zenodo.org:287274</identifier>
      <datestamp>2017-02-09T17:56:50Z</datestamp>
      <setSpec>user-biosyslit</setSpec>
    </header>
    <header>
      <identifier>oai:zenodo.org:289873</identifier>
      <datestamp>2017-02-10T00:43:01Z</datestamp>
      <setSpec>user-biosyslit</setSpec>
    </header>
    <header>
      <identifier>oai:zenodo.org:288809</identifier>
      <datestamp>2017-02-09T21:53:55Z</datestamp>
      <setSpec>user-biosyslit</setSpec>
    </header>
    <header>
      <identifier>oai:zenodo.org:288897</identifier>
      <datestamp>2017-02-09T22:07:32Z</datestamp>
      <setSpec>user-biosyslit</setSpec>
    </header>
    <header>
      <identifier>oai:zenodo.org:574220</identifier>
      <datestamp>2017-05-11T07:23:45Z</datestamp>
      <setSpec>user-biosyslit</setSpec>
    </header>
    <header>
      <identifier>oai:zenodo.org:574380</identifier>
      <datestamp>2017-05-17T07:21:22Z</datestamp>
      <setSpec>openaire</setSpec>
      <setSpec>user-biosyslit</setSpec>
    </header>
    <header>
      <identifier>oai:zenodo.org:280127</identifier>
      <datestamp>2017-02-09T02:45:53Z</datestamp>
      <setSpec>user-biosyslit</setSpec>
    </header>
    <header>
      <identifier>oai:zenodo.org:280081</identifier>
      <datestamp>2017-02-09T02:37:38Z</datestamp>
      <setSpec>user-biosyslit</setSpec>
    </header>
    <header>
      <identifier>oai:zenodo.org:279748</identifier>
      <datestamp>2017-02-09T02:00:47Z</datestamp>
      <setSpec>user-biosyslit</setSpec>
    </header>
    <header>
      <identifier>oai:zenodo.org:344351</identifier>
      <datestamp>2017-02-28T23:41:00Z</datestamp>
      <setSpec>user-biosyslit</setSpec>
    </header>
    <header>
      <identifier>oai:zenodo.org:344733</identifier>
      <datestamp>2017-03-01T08:19:08Z</datestamp>
      <setSpec>user-biosyslit</setSpec>
    </header>
    <header>
      <identifier>oai:zenodo.org:344376</identifier>
      <datestamp>2017-02-28T23:40:30Z</datestamp>
      <setSpec>user-biosyslit</setSpec>
    </header>
    <header>
      <identifier>oai:zenodo.org:344708</identifier>
      <datestamp>2017-03-01T08:18:01Z</datestamp>
      <setSpec>user-biosyslit</setSpec>
    </header>
    <header>
      <identifier>oai:zenodo.org:345270</identifier>
      <datestamp>2017-03-03T09:05:03Z</datestamp>
      <setSpec>user-biosyslit</setSpec>
    </header>
    <header>
      <identifier>oai:zenodo.org:345074</identifier>
      <datestamp>2017-03-02T09:31:17Z</datestamp>
      <setSpec>user-biosyslit</setSpec>
    </header>
    <header>
      <identifier>oai:zenodo.org:280331</identifier>
      <datestamp>2017-02-09T03:12:38Z</datestamp>
      <setSpec>user-biosyslit</setSpec>
    </header>
    <header>
      <identifier>oai:zenodo.org:345255</identifier>
      <datestamp>2017-03-03T08:43:27Z</datestamp>
      <setSpec>user-biosyslit</setSpec>
    </header>
    <header>
      <identifier>oai:zenodo.org:345809</identifier>
      <datestamp>2017-03-06T08:50:29Z</datestamp>
      <setSpec>user-biosyslit</setSpec>
    </header>
    <header>
      <identifier>oai:zenodo.org:279979</identifier>
      <datestamp>2017-02-09T02:24:40Z</datestamp>
      <setSpec>user-biosyslit</setSpec>
    </header>
    <header>
      <identifier>oai:zenodo.org:281063</identifier>
      <datestamp>2017-02-09T04:40:12Z</datestamp>
      <setSpec>user-biosyslit</setSpec>
    </header>
    <header>
      <identifier>oai:zenodo.org:280443</identifier>
      <datestamp>2017-02-09T03:24:56Z</datestamp>
      <setSpec>user-biosyslit</setSpec>
    </header>
    <resumptionToken expirationDate="2017-08-31T15:45:37Z" cursor="39900" completeListSize="77796">.eJyNyj0LgkAYAOD_8s4S92EaQkto4qBi14m6hKmIeVZ4hXrif8-luebnmUFWVQkW2hhbpOs7gk1sUKITqoEs-ocQl2ZlKJJYFHfBczd-n7oYpaQ2A1uOvp3SQLUo7LBix4gkeDfyBk3Rmb9SdRpj6g0MOaavoim4eesraeiK7Oo-Gb8fBCNlHzrRxPCBZbT4PvznUz-fLfegwTOvK7B0hDVoh7yvJVjzsnwAkQxRKg.DInAKQ.gHsv0DlZBYa3gHf_zSLZHHX3nAo</resumptionToken>
  </ListIdentifiers>
</OAI-PMH>
