<?xml version='1.0' encoding='UTF-8'?>
<?xml-stylesheet type="text/xsl" href="/static/xsl/oai2.v1.0.xsl"?>
<OAI-PMH xmlns="http://www.openarchives.org/OAI/2.0/" xmlns:xsi="http://www.w3.org/2001/XMLSchema-instance" xsi:schemaLocation="http://www.openarchives.org/OAI/2.0/ http://www.openarchives.org/OAI/2.0/OAI-PMH.xsd">
  <responseDate>2017-08-31T15:41:19Z</responseDate>
  <request verb="ListIdentifiers" resumptionToken=".eJyNyk0LgjAYAOD_8p4lNudXQpewxIOKLiW9hE0Rc5q4Il343_PSuc7P8wZRVSXYaGMipJkW1jXL0C20JQoINt45vzQrAzunnPU8Kdz0GXcpytTaDBwx-U5GAtmisMOSHiP1jK0padAcnZJHJuMpJd6LooPpy2gObt76ShK6PL-6A036PadqOYaHaKZ4T3PCvg__-eTP54gdKDAUdQW2ZijQvoqxFmC_l-UDUalREA.DIm_nw.dWyEuxeFqcG6qYKuGDWy_Gy1_oo">https://zenodo.org/oai2d</request>
  <ListIdentifiers>
    <header>
      <identifier>oai:zenodo.org:247887</identifier>
      <datestamp>2017-01-16T21:15:42Z</datestamp>
      <setSpec>user-biosyslit</setSpec>
    </header>
    <header>
      <identifier>oai:zenodo.org:249009</identifier>
      <datestamp>2017-01-17T14:59:29Z</datestamp>
      <setSpec>user-biosyslit</setSpec>
    </header>
    <header>
      <identifier>oai:zenodo.org:248623</identifier>
      <datestamp>2017-01-17T07:27:32Z</datestamp>
      <setSpec>user-biosyslit</setSpec>
    </header>
    <header>
      <identifier>oai:zenodo.org:249838</identifier>
      <datestamp>2017-01-18T00:39:55Z</datestamp>
      <setSpec>user-biosyslit</setSpec>
    </header>
    <header>
      <identifier>oai:zenodo.org:249843</identifier>
      <datestamp>2017-01-18T00:40:19Z</datestamp>
      <setSpec>user-biosyslit</setSpec>
    </header>
    <header>
      <identifier>oai:zenodo.org:250273</identifier>
      <datestamp>2017-01-18T07:53:20Z</datestamp>
      <setSpec>user-biosyslit</setSpec>
    </header>
    <header>
      <identifier>oai:zenodo.org:250504</identifier>
      <datestamp>2017-01-18T11:06:22Z</datestamp>
      <setSpec>user-biosyslit</setSpec>
    </header>
    <header>
      <identifier>oai:zenodo.org:250678</identifier>
      <datestamp>2017-01-18T14:03:15Z</datestamp>
      <setSpec>user-biosyslit</setSpec>
    </header>
    <header>
      <identifier>oai:zenodo.org:250674</identifier>
      <datestamp>2017-01-18T14:03:01Z</datestamp>
      <setSpec>user-biosyslit</setSpec>
    </header>
    <header>
      <identifier>oai:zenodo.org:250555</identifier>
      <datestamp>2017-01-18T11:56:45Z</datestamp>
      <setSpec>user-biosyslit</setSpec>
    </header>
    <header>
      <identifier>oai:zenodo.org:250894</identifier>
      <datestamp>2017-01-18T16:11:37Z</datestamp>
      <setSpec>user-biosyslit</setSpec>
    </header>
    <header>
      <identifier>oai:zenodo.org:250623</identifier>
      <datestamp>2017-01-18T13:01:55Z</datestamp>
      <setSpec>user-biosyslit</setSpec>
    </header>
    <header>
      <identifier>oai:zenodo.org:272731</identifier>
      <datestamp>2017-02-08T06:15:48Z</datestamp>
      <setSpec>user-biosyslit</setSpec>
    </header>
    <header>
      <identifier>oai:zenodo.org:250648</identifier>
      <datestamp>2017-01-18T14:01:32Z</datestamp>
      <setSpec>user-biosyslit</setSpec>
    </header>
    <header>
      <identifier>oai:zenodo.org:251267</identifier>
      <datestamp>2017-01-18T20:43:28Z</datestamp>
      <setSpec>user-biosyslit</setSpec>
    </header>
    <header>
      <identifier>oai:zenodo.org:273046</identifier>
      <datestamp>2017-02-08T06:59:50Z</datestamp>
      <setSpec>user-biosyslit</setSpec>
    </header>
    <header>
      <identifier>oai:zenodo.org:272648</identifier>
      <datestamp>2017-02-08T06:12:03Z</datestamp>
      <setSpec>user-biosyslit</setSpec>
    </header>
    <header>
      <identifier>oai:zenodo.org:272779</identifier>
      <datestamp>2017-02-08T06:27:04Z</datestamp>
      <setSpec>user-biosyslit</setSpec>
    </header>
    <header>
      <identifier>oai:zenodo.org:272995</identifier>
      <datestamp>2017-02-08T06:57:27Z</datestamp>
      <setSpec>user-biosyslit</setSpec>
    </header>
    <header>
      <identifier>oai:zenodo.org:276202</identifier>
      <datestamp>2017-02-08T18:23:13Z</datestamp>
      <setSpec>user-biosyslit</setSpec>
    </header>
    <header>
      <identifier>oai:zenodo.org:276223</identifier>
      <datestamp>2017-02-08T18:26:49Z</datestamp>
      <setSpec>user-biosyslit</setSpec>
    </header>
    <header>
      <identifier>oai:zenodo.org:275888</identifier>
      <datestamp>2017-02-08T17:19:07Z</datestamp>
      <setSpec>user-biosyslit</setSpec>
    </header>
    <header>
      <identifier>oai:zenodo.org:276379</identifier>
      <datestamp>2017-02-08T18:44:25Z</datestamp>
      <setSpec>user-biosyslit</setSpec>
    </header>
    <header>
      <identifier>oai:zenodo.org:253099</identifier>
      <datestamp>2017-01-20T02:33:16Z</datestamp>
      <setSpec>user-biosyslit</setSpec>
    </header>
    <header>
      <identifier>oai:zenodo.org:252204</identifier>
      <datestamp>2017-01-19T10:30:28Z</datestamp>
      <setSpec>user-biosyslit</setSpec>
    </header>
    <header>
      <identifier>oai:zenodo.org:252668</identifier>
      <datestamp>2017-01-19T18:16:02Z</datestamp>
      <setSpec>user-biosyslit</setSpec>
    </header>
    <header>
      <identifier>oai:zenodo.org:252827</identifier>
      <datestamp>2017-01-19T20:55:07Z</datestamp>
      <setSpec>user-biosyslit</setSpec>
    </header>
    <header>
      <identifier>oai:zenodo.org:253145</identifier>
      <datestamp>2017-01-20T02:36:01Z</datestamp>
      <setSpec>user-biosyslit</setSpec>
    </header>
    <header>
      <identifier>oai:zenodo.org:252767</identifier>
      <datestamp>2017-01-19T19:34:01Z</datestamp>
      <setSpec>user-biosyslit</setSpec>
    </header>
    <header>
      <identifier>oai:zenodo.org:253207</identifier>
      <datestamp>2017-01-20T04:00:39Z</datestamp>
      <setSpec>user-biosyslit</setSpec>
    </header>
    <header>
      <identifier>oai:zenodo.org:253546</identifier>
      <datestamp>2017-01-20T08:24:24Z</datestamp>
      <setSpec>user-biosyslit</setSpec>
    </header>
    <header>
      <identifier>oai:zenodo.org:253116</identifier>
      <datestamp>2017-01-20T02:34:31Z</datestamp>
      <setSpec>user-biosyslit</setSpec>
    </header>
    <header>
      <identifier>oai:zenodo.org:254653</identifier>
      <datestamp>2017-01-21T01:08:30Z</datestamp>
      <setSpec>user-biosyslit</setSpec>
    </header>
    <header>
      <identifier>oai:zenodo.org:253703</identifier>
      <datestamp>2017-01-20T10:05:11Z</datestamp>
      <setSpec>user-biosyslit</setSpec>
    </header>
    <header>
      <identifier>oai:zenodo.org:253796</identifier>
      <datestamp>2017-01-20T11:19:43Z</datestamp>
      <setSpec>user-biosyslit</setSpec>
    </header>
    <header>
      <identifier>oai:zenodo.org:253671</identifier>
      <datestamp>2017-01-20T09:40:13Z</datestamp>
      <setSpec>user-biosyslit</setSpec>
    </header>
    <header>
      <identifier>oai:zenodo.org:254022</identifier>
      <datestamp>2017-01-20T13:39:24Z</datestamp>
      <setSpec>user-biosyslit</setSpec>
    </header>
    <header>
      <identifier>oai:zenodo.org:254034</identifier>
      <datestamp>2017-01-20T13:39:58Z</datestamp>
      <setSpec>user-biosyslit</setSpec>
    </header>
    <header>
      <identifier>oai:zenodo.org:253834</identifier>
      <datestamp>2017-01-20T11:35:24Z</datestamp>
      <setSpec>user-biosyslit</setSpec>
    </header>
    <header>
      <identifier>oai:zenodo.org:254746</identifier>
      <datestamp>2017-01-21T02:17:04Z</datestamp>
      <setSpec>user-biosyslit</setSpec>
    </header>
    <header>
      <identifier>oai:zenodo.org:254287</identifier>
      <datestamp>2017-01-20T17:33:37Z</datestamp>
      <setSpec>user-biosyslit</setSpec>
    </header>
    <header>
      <identifier>oai:zenodo.org:255697</identifier>
      <datestamp>2017-01-21T18:38:54Z</datestamp>
      <setSpec>user-biosyslit</setSpec>
    </header>
    <header>
      <identifier>oai:zenodo.org:255494</identifier>
      <datestamp>2017-01-21T14:16:20Z</datestamp>
      <setSpec>user-biosyslit</setSpec>
    </header>
    <header>
      <identifier>oai:zenodo.org:254741</identifier>
      <datestamp>2017-01-21T02:16:46Z</datestamp>
      <setSpec>user-biosyslit</setSpec>
    </header>
    <header>
      <identifier>oai:zenodo.org:255205</identifier>
      <datestamp>2017-01-21T09:29:24Z</datestamp>
      <setSpec>user-biosyslit</setSpec>
    </header>
    <header>
      <identifier>oai:zenodo.org:254817</identifier>
      <datestamp>2017-01-21T03:22:52Z</datestamp>
      <setSpec>user-biosyslit</setSpec>
    </header>
    <header>
      <identifier>oai:zenodo.org:255486</identifier>
      <datestamp>2017-01-21T14:12:21Z</datestamp>
      <setSpec>user-biosyslit</setSpec>
    </header>
    <header>
      <identifier>oai:zenodo.org:255791</identifier>
      <datestamp>2017-01-21T22:10:29Z</datestamp>
      <setSpec>user-biosyslit</setSpec>
    </header>
    <header>
      <identifier>oai:zenodo.org:255554</identifier>
      <datestamp>2017-01-21T15:57:20Z</datestamp>
      <setSpec>user-biosyslit</setSpec>
    </header>
    <header>
      <identifier>oai:zenodo.org:256089</identifier>
      <datestamp>2017-01-22T03:54:21Z</datestamp>
      <setSpec>user-biosyslit</setSpec>
    </header>
    <header>
      <identifier>oai:zenodo.org:256168</identifier>
      <datestamp>2017-01-22T06:04:06Z</datestamp>
      <setSpec>user-biosyslit</setSpec>
    </header>
    <header>
      <identifier>oai:zenodo.org:256239</identifier>
      <datestamp>2017-01-22T07:56:17Z</datestamp>
      <setSpec>user-biosyslit</setSpec>
    </header>
    <header>
      <identifier>oai:zenodo.org:256670</identifier>
      <datestamp>2017-01-22T19:17:41Z</datestamp>
      <setSpec>user-biosyslit</setSpec>
    </header>
    <header>
      <identifier>oai:zenodo.org:256123</identifier>
      <datestamp>2017-01-22T04:31:17Z</datestamp>
      <setSpec>user-biosyslit</setSpec>
    </header>
    <header>
      <identifier>oai:zenodo.org:256187</identifier>
      <datestamp>2017-01-22T06:36:10Z</datestamp>
      <setSpec>user-biosyslit</setSpec>
    </header>
    <header>
      <identifier>oai:zenodo.org:257058</identifier>
      <datestamp>2017-01-23T00:41:10Z</datestamp>
      <setSpec>user-biosyslit</setSpec>
    </header>
    <header>
      <identifier>oai:zenodo.org:256364</identifier>
      <datestamp>2017-01-22T13:17:55Z</datestamp>
      <setSpec>user-biosyslit</setSpec>
    </header>
    <header>
      <identifier>oai:zenodo.org:256406</identifier>
      <datestamp>2017-01-22T13:54:14Z</datestamp>
      <setSpec>user-biosyslit</setSpec>
    </header>
    <header>
      <identifier>oai:zenodo.org:256992</identifier>
      <datestamp>2017-01-22T23:40:02Z</datestamp>
      <setSpec>user-biosyslit</setSpec>
    </header>
    <header>
      <identifier>oai:zenodo.org:257251</identifier>
      <datestamp>2017-01-23T04:14:13Z</datestamp>
      <setSpec>user-biosyslit</setSpec>
    </header>
    <header>
      <identifier>oai:zenodo.org:257519</identifier>
      <datestamp>2017-01-23T08:48:34Z</datestamp>
      <setSpec>user-biosyslit</setSpec>
    </header>
    <header>
      <identifier>oai:zenodo.org:257928</identifier>
      <datestamp>2017-01-23T14:07:47Z</datestamp>
      <setSpec>user-biosyslit</setSpec>
    </header>
    <header>
      <identifier>oai:zenodo.org:258705</identifier>
      <datestamp>2017-01-24T03:15:02Z</datestamp>
      <setSpec>user-biosyslit</setSpec>
    </header>
    <header>
      <identifier>oai:zenodo.org:258642</identifier>
      <datestamp>2017-01-24T02:23:18Z</datestamp>
      <setSpec>user-biosyslit</setSpec>
    </header>
    <header>
      <identifier>oai:zenodo.org:257965</identifier>
      <datestamp>2017-01-23T14:44:09Z</datestamp>
      <setSpec>user-biosyslit</setSpec>
    </header>
    <header>
      <identifier>oai:zenodo.org:258819</identifier>
      <datestamp>2017-01-24T04:56:37Z</datestamp>
      <setSpec>user-biosyslit</setSpec>
    </header>
    <header>
      <identifier>oai:zenodo.org:258734</identifier>
      <datestamp>2017-01-24T04:11:34Z</datestamp>
      <setSpec>user-biosyslit</setSpec>
    </header>
    <header>
      <identifier>oai:zenodo.org:259139</identifier>
      <datestamp>2017-01-24T08:04:01Z</datestamp>
      <setSpec>user-biosyslit</setSpec>
    </header>
    <header>
      <identifier>oai:zenodo.org:258896</identifier>
      <datestamp>2017-01-24T06:00:17Z</datestamp>
      <setSpec>user-biosyslit</setSpec>
    </header>
    <header>
      <identifier>oai:zenodo.org:259094</identifier>
      <datestamp>2017-01-24T07:48:53Z</datestamp>
      <setSpec>user-biosyslit</setSpec>
    </header>
    <header>
      <identifier>oai:zenodo.org:274314</identifier>
      <datestamp>2017-02-08T12:49:13Z</datestamp>
      <setSpec>user-biosyslit</setSpec>
    </header>
    <header>
      <identifier>oai:zenodo.org:261271</identifier>
      <datestamp>2017-01-28T07:29:51Z</datestamp>
      <setSpec>user-biosyslit</setSpec>
    </header>
    <header>
      <identifier>oai:zenodo.org:259725</identifier>
      <datestamp>2017-01-25T15:38:47Z</datestamp>
      <setSpec>user-biosyslit</setSpec>
    </header>
    <header>
      <identifier>oai:zenodo.org:274448</identifier>
      <datestamp>2017-02-08T13:16:40Z</datestamp>
      <setSpec>user-biosyslit</setSpec>
    </header>
    <header>
      <identifier>oai:zenodo.org:248711</identifier>
      <datestamp>2017-01-17T08:28:58Z</datestamp>
      <setSpec>user-biosyslit</setSpec>
    </header>
    <header>
      <identifier>oai:zenodo.org:249967</identifier>
      <datestamp>2017-01-18T02:42:03Z</datestamp>
      <setSpec>user-biosyslit</setSpec>
    </header>
    <header>
      <identifier>oai:zenodo.org:275512</identifier>
      <datestamp>2017-02-08T16:36:35Z</datestamp>
      <setSpec>user-biosyslit</setSpec>
    </header>
    <header>
      <identifier>oai:zenodo.org:250049</identifier>
      <datestamp>2017-01-18T04:12:10Z</datestamp>
      <setSpec>user-biosyslit</setSpec>
    </header>
    <header>
      <identifier>oai:zenodo.org:249842</identifier>
      <datestamp>2017-01-18T00:40:15Z</datestamp>
      <setSpec>user-biosyslit</setSpec>
    </header>
    <header>
      <identifier>oai:zenodo.org:250336</identifier>
      <datestamp>2017-01-18T08:35:38Z</datestamp>
      <setSpec>user-biosyslit</setSpec>
    </header>
    <header>
      <identifier>oai:zenodo.org:250219</identifier>
      <datestamp>2017-01-18T07:16:56Z</datestamp>
      <setSpec>user-biosyslit</setSpec>
    </header>
    <header>
      <identifier>oai:zenodo.org:272579</identifier>
      <datestamp>2017-02-08T05:10:23Z</datestamp>
      <setSpec>user-biosyslit</setSpec>
    </header>
    <header>
      <identifier>oai:zenodo.org:272986</identifier>
      <datestamp>2017-02-08T06:56:57Z</datestamp>
      <setSpec>user-biosyslit</setSpec>
    </header>
    <header>
      <identifier>oai:zenodo.org:273134</identifier>
      <datestamp>2017-02-08T07:25:04Z</datestamp>
      <setSpec>user-biosyslit</setSpec>
    </header>
    <header>
      <identifier>oai:zenodo.org:272768</identifier>
      <datestamp>2017-02-08T06:26:35Z</datestamp>
      <setSpec>user-biosyslit</setSpec>
    </header>
    <header>
      <identifier>oai:zenodo.org:276358</identifier>
      <datestamp>2017-02-08T18:42:29Z</datestamp>
      <setSpec>user-biosyslit</setSpec>
    </header>
    <header>
      <identifier>oai:zenodo.org:276091</identifier>
      <datestamp>2017-02-08T18:07:07Z</datestamp>
      <setSpec>user-biosyslit</setSpec>
    </header>
    <header>
      <identifier>oai:zenodo.org:251844</identifier>
      <datestamp>2017-01-19T05:22:00Z</datestamp>
      <setSpec>user-biosyslit</setSpec>
    </header>
    <header>
      <identifier>oai:zenodo.org:251952</identifier>
      <datestamp>2017-01-19T06:28:12Z</datestamp>
      <setSpec>user-biosyslit</setSpec>
    </header>
    <header>
      <identifier>oai:zenodo.org:253060</identifier>
      <datestamp>2017-01-20T01:56:42Z</datestamp>
      <setSpec>user-biosyslit</setSpec>
    </header>
    <header>
      <identifier>oai:zenodo.org:252627</identifier>
      <datestamp>2017-01-19T17:48:13Z</datestamp>
      <setSpec>user-biosyslit</setSpec>
    </header>
    <header>
      <identifier>oai:zenodo.org:252663</identifier>
      <datestamp>2017-01-19T18:15:49Z</datestamp>
      <setSpec>user-biosyslit</setSpec>
    </header>
    <header>
      <identifier>oai:zenodo.org:253078</identifier>
      <datestamp>2017-01-20T02:09:52Z</datestamp>
      <setSpec>user-biosyslit</setSpec>
    </header>
    <header>
      <identifier>oai:zenodo.org:252984</identifier>
      <datestamp>2017-01-20T01:03:14Z</datestamp>
      <setSpec>user-biosyslit</setSpec>
    </header>
    <header>
      <identifier>oai:zenodo.org:253198</identifier>
      <datestamp>2017-01-20T04:00:13Z</datestamp>
      <setSpec>user-biosyslit</setSpec>
    </header>
    <header>
      <identifier>oai:zenodo.org:253164</identifier>
      <datestamp>2017-01-20T03:14:53Z</datestamp>
      <setSpec>user-biosyslit</setSpec>
    </header>
    <header>
      <identifier>oai:zenodo.org:254753</identifier>
      <datestamp>2017-01-21T02:17:29Z</datestamp>
      <setSpec>user-biosyslit</setSpec>
    </header>
    <header>
      <identifier>oai:zenodo.org:254002</identifier>
      <datestamp>2017-01-20T13:23:39Z</datestamp>
      <setSpec>user-biosyslit</setSpec>
    </header>
    <header>
      <identifier>oai:zenodo.org:255000</identifier>
      <datestamp>2017-01-21T06:30:13Z</datestamp>
      <setSpec>user-biosyslit</setSpec>
    </header>
    <header>
      <identifier>oai:zenodo.org:255062</identifier>
      <datestamp>2017-01-21T07:27:38Z</datestamp>
      <setSpec>user-biosyslit</setSpec>
    </header>
    <resumptionToken expirationDate="2017-08-31T15:43:19Z" cursor="4500" completeListSize="77796">.eJyNysEKgjAYAOB3-c8Sm6tcQhfRxIOKLiW9hKmIOU1coU5897p0rvP3LSDKsgAdbQ5Uo5TuqIooxmRPFRD58OD8Wn8Y8kvM845HmR2_wjZGiVppnikm10yIJxvkt1iyU6BeMJ2iGs3BOXomMpxi4owMWZorg9m7O59XEN_m6c3uWdQZnKnF4FvBzLDBUpJ_H_7zyZ_PFEdQoM-qEvStpkAzZkMlQF_W9Q1gDlEg.DIm_nw.isvYAsfrq3zmO-Lj2kRB04F9Bss</resumptionToken>
  </ListIdentifiers>
</OAI-PMH>
