<?xml version='1.0' encoding='UTF-8'?>
<?xml-stylesheet type="text/xsl" href="/static/xsl/oai2.v1.0.xsl"?>
<OAI-PMH xmlns="http://www.openarchives.org/OAI/2.0/" xmlns:xsi="http://www.w3.org/2001/XMLSchema-instance" xsi:schemaLocation="http://www.openarchives.org/OAI/2.0/ http://www.openarchives.org/OAI/2.0/OAI-PMH.xsd">
  <responseDate>2017-08-31T15:42:56Z</responseDate>
  <request verb="ListIdentifiers" resumptionToken=".eJyNyj0PQ0AYAOD_8s7S3Lm2PpIuQsWAcCVlaRQRdVRcG5z477V0bufnWYCXZQE62hFNPmK8JweiYkVDWAKeD0_GbvXGkF9jlncsyuz4HbYxSuRK8Uw-uWZCPNEgv8WCngP5itUpqtEcXKJXIsIpJs5IkaW4Ipi9h7O9gvg2S-92T6POYFQuBt8KZooNmpL8-_CfT_x8Jj-BBH1WlaAThCRoxmyoOOjLun4AlXFRLQ.DInAAA.WDJcA92yWVdbmqrBDi6Ae9_aRjA">https://zenodo.org/oai2d</request>
  <ListIdentifiers>
    <header>
      <identifier>oai:zenodo.org:226914</identifier>
      <datestamp>2017-01-01T06:21:20Z</datestamp>
      <setSpec>user-biosyslit</setSpec>
    </header>
    <header>
      <identifier>oai:zenodo.org:285011</identifier>
      <datestamp>2017-02-09T12:27:54Z</datestamp>
      <setSpec>user-biosyslit</setSpec>
    </header>
    <header>
      <identifier>oai:zenodo.org:285003</identifier>
      <datestamp>2017-02-09T12:27:36Z</datestamp>
      <setSpec>user-biosyslit</setSpec>
    </header>
    <header>
      <identifier>oai:zenodo.org:285000</identifier>
      <datestamp>2017-02-09T12:27:28Z</datestamp>
      <setSpec>user-biosyslit</setSpec>
    </header>
    <header>
      <identifier>oai:zenodo.org:285009</identifier>
      <datestamp>2017-02-09T12:27:50Z</datestamp>
      <setSpec>user-biosyslit</setSpec>
    </header>
    <header>
      <identifier>oai:zenodo.org:285001</identifier>
      <datestamp>2017-02-09T12:27:31Z</datestamp>
      <setSpec>user-biosyslit</setSpec>
    </header>
    <header>
      <identifier>oai:zenodo.org:277384</identifier>
      <datestamp>2017-02-08T21:01:28Z</datestamp>
      <setSpec>user-biosyslit</setSpec>
    </header>
    <header>
      <identifier>oai:zenodo.org:229057</identifier>
      <datestamp>2017-01-03T08:55:30Z</datestamp>
      <setSpec>user-biosyslit</setSpec>
    </header>
    <header>
      <identifier>oai:zenodo.org:241071</identifier>
      <datestamp>2017-01-12T19:30:22Z</datestamp>
      <setSpec>user-biosyslit</setSpec>
    </header>
    <header>
      <identifier>oai:zenodo.org:241070</identifier>
      <datestamp>2017-01-12T19:30:18Z</datestamp>
      <setSpec>user-biosyslit</setSpec>
    </header>
    <header>
      <identifier>oai:zenodo.org:229055</identifier>
      <datestamp>2017-01-03T08:55:31Z</datestamp>
      <setSpec>user-biosyslit</setSpec>
    </header>
    <header>
      <identifier>oai:zenodo.org:241067</identifier>
      <datestamp>2017-01-12T19:30:09Z</datestamp>
      <setSpec>user-biosyslit</setSpec>
    </header>
    <header>
      <identifier>oai:zenodo.org:241066</identifier>
      <datestamp>2017-01-12T19:30:05Z</datestamp>
      <setSpec>user-biosyslit</setSpec>
    </header>
    <header>
      <identifier>oai:zenodo.org:263555</identifier>
      <datestamp>2017-01-30T00:25:23Z</datestamp>
      <setSpec>user-biosyslit</setSpec>
    </header>
    <header>
      <identifier>oai:zenodo.org:280001</identifier>
      <datestamp>2017-02-09T02:29:02Z</datestamp>
      <setSpec>user-biosyslit</setSpec>
    </header>
    <header>
      <identifier>oai:zenodo.org:280007</identifier>
      <datestamp>2017-02-09T02:28:58Z</datestamp>
      <setSpec>user-biosyslit</setSpec>
    </header>
    <header>
      <identifier>oai:zenodo.org:280002</identifier>
      <datestamp>2017-02-09T02:28:43Z</datestamp>
      <setSpec>user-biosyslit</setSpec>
    </header>
    <header>
      <identifier>oai:zenodo.org:280006</identifier>
      <datestamp>2017-02-09T02:28:55Z</datestamp>
      <setSpec>user-biosyslit</setSpec>
    </header>
    <header>
      <identifier>oai:zenodo.org:256275</identifier>
      <datestamp>2017-01-22T10:07:36Z</datestamp>
      <setSpec>user-biosyslit</setSpec>
    </header>
    <header>
      <identifier>oai:zenodo.org:239990</identifier>
      <datestamp>2017-01-12T03:17:21Z</datestamp>
      <setSpec>user-biosyslit</setSpec>
    </header>
    <header>
      <identifier>oai:zenodo.org:256266</identifier>
      <datestamp>2017-01-22T10:07:09Z</datestamp>
      <setSpec>user-biosyslit</setSpec>
    </header>
    <header>
      <identifier>oai:zenodo.org:256269</identifier>
      <datestamp>2017-01-22T10:07:21Z</datestamp>
      <setSpec>user-biosyslit</setSpec>
    </header>
    <header>
      <identifier>oai:zenodo.org:239374</identifier>
      <datestamp>2017-01-11T19:40:35Z</datestamp>
      <setSpec>user-biosyslit</setSpec>
    </header>
    <header>
      <identifier>oai:zenodo.org:227887</identifier>
      <datestamp>2017-01-02T06:18:31Z</datestamp>
      <setSpec>user-biosyslit</setSpec>
    </header>
    <header>
      <identifier>oai:zenodo.org:227886</identifier>
      <datestamp>2017-01-02T06:18:28Z</datestamp>
      <setSpec>user-biosyslit</setSpec>
    </header>
    <header>
      <identifier>oai:zenodo.org:243924</identifier>
      <datestamp>2017-01-14T13:11:56Z</datestamp>
      <setSpec>user-biosyslit</setSpec>
    </header>
    <header>
      <identifier>oai:zenodo.org:243926</identifier>
      <datestamp>2017-01-14T13:12:03Z</datestamp>
      <setSpec>user-biosyslit</setSpec>
    </header>
    <header>
      <identifier>oai:zenodo.org:243925</identifier>
      <datestamp>2017-01-14T13:11:59Z</datestamp>
      <setSpec>user-biosyslit</setSpec>
    </header>
    <header>
      <identifier>oai:zenodo.org:281783</identifier>
      <datestamp>2017-02-09T05:54:51Z</datestamp>
      <setSpec>user-biosyslit</setSpec>
    </header>
    <header>
      <identifier>oai:zenodo.org:230428</identifier>
      <datestamp>2017-01-05T01:19:15Z</datestamp>
      <setSpec>user-biosyslit</setSpec>
    </header>
    <header>
      <identifier>oai:zenodo.org:230429</identifier>
      <datestamp>2017-01-05T01:18:57Z</datestamp>
      <setSpec>user-biosyslit</setSpec>
    </header>
    <header>
      <identifier>oai:zenodo.org:278069</identifier>
      <datestamp>2017-02-08T22:22:55Z</datestamp>
      <setSpec>user-biosyslit</setSpec>
    </header>
    <header>
      <identifier>oai:zenodo.org:294100</identifier>
      <datestamp>2017-02-20T19:18:48Z</datestamp>
      <setSpec>user-biosyslit</setSpec>
    </header>
    <header>
      <identifier>oai:zenodo.org:276400</identifier>
      <datestamp>2017-02-08T18:46:58Z</datestamp>
      <setSpec>user-biosyslit</setSpec>
    </header>
    <header>
      <identifier>oai:zenodo.org:273691</identifier>
      <datestamp>2017-02-08T10:21:44Z</datestamp>
      <setSpec>user-biosyslit</setSpec>
    </header>
    <header>
      <identifier>oai:zenodo.org:273692</identifier>
      <datestamp>2017-02-08T10:21:43Z</datestamp>
      <setSpec>user-biosyslit</setSpec>
    </header>
    <header>
      <identifier>oai:zenodo.org:280243</identifier>
      <datestamp>2017-02-09T03:02:50Z</datestamp>
      <setSpec>user-biosyslit</setSpec>
    </header>
    <header>
      <identifier>oai:zenodo.org:280244</identifier>
      <datestamp>2017-02-09T03:02:53Z</datestamp>
      <setSpec>user-biosyslit</setSpec>
    </header>
    <header>
      <identifier>oai:zenodo.org:280245</identifier>
      <datestamp>2017-02-09T03:02:55Z</datestamp>
      <setSpec>user-biosyslit</setSpec>
    </header>
    <header>
      <identifier>oai:zenodo.org:270849</identifier>
      <datestamp>2017-02-08T00:03:10Z</datestamp>
      <setSpec>user-biosyslit</setSpec>
    </header>
    <header>
      <identifier>oai:zenodo.org:270846</identifier>
      <datestamp>2017-02-08T00:03:01Z</datestamp>
      <setSpec>user-biosyslit</setSpec>
    </header>
    <header>
      <identifier>oai:zenodo.org:275002</identifier>
      <datestamp>2017-02-08T15:01:42Z</datestamp>
      <setSpec>user-biosyslit</setSpec>
    </header>
    <header>
      <identifier>oai:zenodo.org:246031</identifier>
      <datestamp>2017-01-15T21:14:02Z</datestamp>
      <setSpec>user-biosyslit</setSpec>
    </header>
    <header>
      <identifier>oai:zenodo.org:246030</identifier>
      <datestamp>2017-01-15T21:13:58Z</datestamp>
      <setSpec>user-biosyslit</setSpec>
    </header>
    <header>
      <identifier>oai:zenodo.org:246032</identifier>
      <datestamp>2017-01-15T21:14:06Z</datestamp>
      <setSpec>user-biosyslit</setSpec>
    </header>
    <header>
      <identifier>oai:zenodo.org:234348</identifier>
      <datestamp>2017-01-08T18:39:48Z</datestamp>
      <setSpec>user-biosyslit</setSpec>
    </header>
    <header>
      <identifier>oai:zenodo.org:251083</identifier>
      <datestamp>2017-01-18T18:35:56Z</datestamp>
      <setSpec>user-biosyslit</setSpec>
    </header>
    <header>
      <identifier>oai:zenodo.org:234349</identifier>
      <datestamp>2017-01-08T18:39:53Z</datestamp>
      <setSpec>user-biosyslit</setSpec>
    </header>
    <header>
      <identifier>oai:zenodo.org:277805</identifier>
      <datestamp>2017-02-08T21:51:13Z</datestamp>
      <setSpec>user-biosyslit</setSpec>
    </header>
    <header>
      <identifier>oai:zenodo.org:251088</identifier>
      <datestamp>2017-01-18T18:36:16Z</datestamp>
      <setSpec>user-biosyslit</setSpec>
    </header>
    <header>
      <identifier>oai:zenodo.org:234350</identifier>
      <datestamp>2017-01-08T18:39:56Z</datestamp>
      <setSpec>user-biosyslit</setSpec>
    </header>
    <header>
      <identifier>oai:zenodo.org:251081</identifier>
      <datestamp>2017-01-18T18:35:48Z</datestamp>
      <setSpec>user-biosyslit</setSpec>
    </header>
    <header>
      <identifier>oai:zenodo.org:251078</identifier>
      <datestamp>2017-01-18T18:35:39Z</datestamp>
      <setSpec>user-biosyslit</setSpec>
    </header>
    <header>
      <identifier>oai:zenodo.org:251082</identifier>
      <datestamp>2017-01-18T18:35:51Z</datestamp>
      <setSpec>user-biosyslit</setSpec>
    </header>
    <header>
      <identifier>oai:zenodo.org:254621</identifier>
      <datestamp>2017-01-21T00:27:03Z</datestamp>
      <setSpec>user-biosyslit</setSpec>
    </header>
    <header>
      <identifier>oai:zenodo.org:254622</identifier>
      <datestamp>2017-01-21T00:27:05Z</datestamp>
      <setSpec>user-biosyslit</setSpec>
    </header>
    <header>
      <identifier>oai:zenodo.org:254623</identifier>
      <datestamp>2017-01-21T00:27:09Z</datestamp>
      <setSpec>user-biosyslit</setSpec>
    </header>
    <header>
      <identifier>oai:zenodo.org:231085</identifier>
      <datestamp>2017-01-05T14:06:50Z</datestamp>
      <setSpec>user-biosyslit</setSpec>
    </header>
    <header>
      <identifier>oai:zenodo.org:234164</identifier>
      <datestamp>2017-01-08T15:44:40Z</datestamp>
      <setSpec>user-biosyslit</setSpec>
    </header>
    <header>
      <identifier>oai:zenodo.org:234167</identifier>
      <datestamp>2017-01-08T15:44:29Z</datestamp>
      <setSpec>user-biosyslit</setSpec>
    </header>
    <header>
      <identifier>oai:zenodo.org:234168</identifier>
      <datestamp>2017-01-08T15:44:33Z</datestamp>
      <setSpec>user-biosyslit</setSpec>
    </header>
    <header>
      <identifier>oai:zenodo.org:234170</identifier>
      <datestamp>2017-01-08T15:44:38Z</datestamp>
      <setSpec>user-biosyslit</setSpec>
    </header>
    <header>
      <identifier>oai:zenodo.org:270221</identifier>
      <datestamp>2017-02-07T22:42:18Z</datestamp>
      <setSpec>user-biosyslit</setSpec>
    </header>
    <header>
      <identifier>oai:zenodo.org:270224</identifier>
      <datestamp>2017-02-07T22:42:24Z</datestamp>
      <setSpec>user-biosyslit</setSpec>
    </header>
    <header>
      <identifier>oai:zenodo.org:270220</identifier>
      <datestamp>2017-02-07T22:42:14Z</datestamp>
      <setSpec>user-biosyslit</setSpec>
    </header>
    <header>
      <identifier>oai:zenodo.org:270222</identifier>
      <datestamp>2017-02-07T22:42:20Z</datestamp>
      <setSpec>user-biosyslit</setSpec>
    </header>
    <header>
      <identifier>oai:zenodo.org:270216</identifier>
      <datestamp>2017-02-07T22:42:03Z</datestamp>
      <setSpec>user-biosyslit</setSpec>
    </header>
    <header>
      <identifier>oai:zenodo.org:270215</identifier>
      <datestamp>2017-02-07T22:42:01Z</datestamp>
      <setSpec>user-biosyslit</setSpec>
    </header>
    <header>
      <identifier>oai:zenodo.org:238170</identifier>
      <datestamp>2017-01-11T01:53:00Z</datestamp>
      <setSpec>user-biosyslit</setSpec>
    </header>
    <header>
      <identifier>oai:zenodo.org:280012</identifier>
      <datestamp>2017-02-09T02:30:30Z</datestamp>
      <setSpec>user-biosyslit</setSpec>
    </header>
    <header>
      <identifier>oai:zenodo.org:265797</identifier>
      <datestamp>2017-01-31T21:09:05Z</datestamp>
      <setSpec>user-biosyslit</setSpec>
    </header>
    <header>
      <identifier>oai:zenodo.org:265796</identifier>
      <datestamp>2017-01-31T21:09:01Z</datestamp>
      <setSpec>user-biosyslit</setSpec>
    </header>
    <header>
      <identifier>oai:zenodo.org:238172</identifier>
      <datestamp>2017-01-11T01:52:50Z</datestamp>
      <setSpec>user-biosyslit</setSpec>
    </header>
    <header>
      <identifier>oai:zenodo.org:228921</identifier>
      <datestamp>2017-01-03T07:06:00Z</datestamp>
      <setSpec>user-biosyslit</setSpec>
    </header>
    <header>
      <identifier>oai:zenodo.org:228916</identifier>
      <datestamp>2017-01-03T07:05:40Z</datestamp>
      <setSpec>user-biosyslit</setSpec>
    </header>
    <header>
      <identifier>oai:zenodo.org:228914</identifier>
      <datestamp>2017-01-03T07:05:32Z</datestamp>
      <setSpec>user-biosyslit</setSpec>
    </header>
    <header>
      <identifier>oai:zenodo.org:228919</identifier>
      <datestamp>2017-01-03T07:05:53Z</datestamp>
      <setSpec>user-biosyslit</setSpec>
    </header>
    <header>
      <identifier>oai:zenodo.org:228918</identifier>
      <datestamp>2017-01-03T07:05:48Z</datestamp>
      <setSpec>user-biosyslit</setSpec>
    </header>
    <header>
      <identifier>oai:zenodo.org:228920</identifier>
      <datestamp>2017-01-03T07:05:57Z</datestamp>
      <setSpec>user-biosyslit</setSpec>
    </header>
    <header>
      <identifier>oai:zenodo.org:227423</identifier>
      <datestamp>2017-01-01T21:15:30Z</datestamp>
      <setSpec>user-biosyslit</setSpec>
    </header>
    <header>
      <identifier>oai:zenodo.org:237991</identifier>
      <datestamp>2017-01-10T23:25:55Z</datestamp>
      <setSpec>user-biosyslit</setSpec>
    </header>
    <header>
      <identifier>oai:zenodo.org:237992</identifier>
      <datestamp>2017-01-10T23:25:34Z</datestamp>
      <setSpec>user-biosyslit</setSpec>
    </header>
    <header>
      <identifier>oai:zenodo.org:229434</identifier>
      <datestamp>2017-01-03T15:44:21Z</datestamp>
      <setSpec>user-biosyslit</setSpec>
    </header>
    <header>
      <identifier>oai:zenodo.org:229431</identifier>
      <datestamp>2017-01-03T15:44:08Z</datestamp>
      <setSpec>user-biosyslit</setSpec>
    </header>
    <header>
      <identifier>oai:zenodo.org:229430</identifier>
      <datestamp>2017-01-03T15:44:05Z</datestamp>
      <setSpec>user-biosyslit</setSpec>
    </header>
    <header>
      <identifier>oai:zenodo.org:237997</identifier>
      <datestamp>2017-01-10T23:25:53Z</datestamp>
      <setSpec>user-biosyslit</setSpec>
    </header>
    <header>
      <identifier>oai:zenodo.org:229429</identifier>
      <datestamp>2017-01-03T15:44:01Z</datestamp>
      <setSpec>user-biosyslit</setSpec>
    </header>
    <header>
      <identifier>oai:zenodo.org:237996</identifier>
      <datestamp>2017-01-10T23:25:49Z</datestamp>
      <setSpec>user-biosyslit</setSpec>
    </header>
    <header>
      <identifier>oai:zenodo.org:229433</identifier>
      <datestamp>2017-01-03T15:44:18Z</datestamp>
      <setSpec>user-biosyslit</setSpec>
    </header>
    <header>
      <identifier>oai:zenodo.org:270386</identifier>
      <datestamp>2017-02-07T23:08:11Z</datestamp>
      <setSpec>user-biosyslit</setSpec>
    </header>
    <header>
      <identifier>oai:zenodo.org:270384</identifier>
      <datestamp>2017-02-07T23:08:07Z</datestamp>
      <setSpec>user-biosyslit</setSpec>
    </header>
    <header>
      <identifier>oai:zenodo.org:250447</identifier>
      <datestamp>2017-01-18T10:26:52Z</datestamp>
      <setSpec>user-biosyslit</setSpec>
    </header>
    <header>
      <identifier>oai:zenodo.org:250450</identifier>
      <datestamp>2017-01-18T10:27:03Z</datestamp>
      <setSpec>user-biosyslit</setSpec>
    </header>
    <header>
      <identifier>oai:zenodo.org:250451</identifier>
      <datestamp>2017-01-18T10:27:06Z</datestamp>
      <setSpec>user-biosyslit</setSpec>
    </header>
    <header>
      <identifier>oai:zenodo.org:250456</identifier>
      <datestamp>2017-01-18T10:27:24Z</datestamp>
      <setSpec>user-biosyslit</setSpec>
    </header>
    <header>
      <identifier>oai:zenodo.org:250457</identifier>
      <datestamp>2017-01-18T10:27:27Z</datestamp>
      <setSpec>user-biosyslit</setSpec>
    </header>
    <header>
      <identifier>oai:zenodo.org:250460</identifier>
      <datestamp>2017-01-18T10:27:38Z</datestamp>
      <setSpec>user-biosyslit</setSpec>
    </header>
    <header>
      <identifier>oai:zenodo.org:250461</identifier>
      <datestamp>2017-01-18T10:27:41Z</datestamp>
      <setSpec>user-biosyslit</setSpec>
    </header>
    <header>
      <identifier>oai:zenodo.org:250459</identifier>
      <datestamp>2017-01-18T10:27:35Z</datestamp>
      <setSpec>user-biosyslit</setSpec>
    </header>
    <header>
      <identifier>oai:zenodo.org:250454</identifier>
      <datestamp>2017-01-18T10:27:16Z</datestamp>
      <setSpec>user-biosyslit</setSpec>
    </header>
    <resumptionToken expirationDate="2017-08-31T15:44:56Z" cursor="29900" completeListSize="77796">.eJyNysEOQzAYAOB3-c-ytCodkl2EiQNiHcFlMURsZaJbRsW7z2Xn7fx9C4i6rsBEO11HlBrU0DRKqI6pAqIcH5xf2o2hTBNe9jwu3OR16hKUqc0-sMXk2xkJ5B2FHZbsGKkp1qe4RXN0jp-ZPE0J8d4MOXtfRnNw87ZXkdDl-dUdWNxbnKnVGDrRzLDFclJ-H_7zyZ_PFgdQYCiaGkyCsAL3dzE2AsxlXT-ucFFJ.DInAAA.K1Hf4vO74trI2l_ACXENU11zE7M</resumptionToken>
  </ListIdentifiers>
</OAI-PMH>
