<?xml version='1.0' encoding='UTF-8'?>
<?xml-stylesheet type="text/xsl" href="/static/xsl/oai2.v1.0.xsl"?>
<OAI-PMH xmlns="http://www.openarchives.org/OAI/2.0/" xmlns:xsi="http://www.w3.org/2001/XMLSchema-instance" xsi:schemaLocation="http://www.openarchives.org/OAI/2.0/ http://www.openarchives.org/OAI/2.0/OAI-PMH.xsd">
  <responseDate>2017-08-31T15:43:46Z</responseDate>
  <request verb="ListIdentifiers" resumptionToken=".eJyNyj0PQ0AYAOD_8s7S3Dn1lXQRKgaEKylLo4io0zauDU7891o6t_PzLMDrugIT7bChqRgre4MQXVdUokvAy-HB2KXdHMpzyso7Swo3fcd9ijK50QKbT76dkUB0KOyxoMdIPmN9Slo0R6fklYl4Sok3UuRovojm4OZtryKhy_Kr-6TJ3WJUrobQiWaKLZqT8vvwn0_8fDY_gATPoqnBVGQiQTcWQ8PBXNb1A9udUXo.DInAMg.sUBPiRD_ASZH5p0cXk4DhFNSkgI">https://zenodo.org/oai2d</request>
  <ListIdentifiers>
    <header>
      <identifier>oai:zenodo.org:287063</identifier>
      <datestamp>2017-02-09T17:23:04Z</datestamp>
      <setSpec>user-biosyslit</setSpec>
    </header>
    <header>
      <identifier>oai:zenodo.org:286667</identifier>
      <datestamp>2017-02-09T16:32:09Z</datestamp>
      <setSpec>user-biosyslit</setSpec>
    </header>
    <header>
      <identifier>oai:zenodo.org:287614</identifier>
      <datestamp>2017-02-09T18:43:59Z</datestamp>
      <setSpec>user-biosyslit</setSpec>
    </header>
    <header>
      <identifier>oai:zenodo.org:287057</identifier>
      <datestamp>2017-02-09T17:20:38Z</datestamp>
      <setSpec>user-biosyslit</setSpec>
    </header>
    <header>
      <identifier>oai:zenodo.org:288903</identifier>
      <datestamp>2017-02-09T22:07:46Z</datestamp>
      <setSpec>user-biosyslit</setSpec>
    </header>
    <header>
      <identifier>oai:zenodo.org:287842</identifier>
      <datestamp>2017-02-09T19:25:17Z</datestamp>
      <setSpec>user-biosyslit</setSpec>
    </header>
    <header>
      <identifier>oai:zenodo.org:287809</identifier>
      <datestamp>2017-02-09T19:21:25Z</datestamp>
      <setSpec>user-biosyslit</setSpec>
    </header>
    <header>
      <identifier>oai:zenodo.org:288547</identifier>
      <datestamp>2017-02-09T21:16:01Z</datestamp>
      <setSpec>user-biosyslit</setSpec>
    </header>
    <header>
      <identifier>oai:zenodo.org:289771</identifier>
      <datestamp>2017-02-10T00:27:19Z</datestamp>
      <setSpec>user-biosyslit</setSpec>
    </header>
    <header>
      <identifier>oai:zenodo.org:289517</identifier>
      <datestamp>2017-02-09T23:43:52Z</datestamp>
      <setSpec>user-biosyslit</setSpec>
    </header>
    <header>
      <identifier>oai:zenodo.org:288669</identifier>
      <datestamp>2017-02-09T21:40:04Z</datestamp>
      <setSpec>user-biosyslit</setSpec>
    </header>
    <header>
      <identifier>oai:zenodo.org:289501</identifier>
      <datestamp>2017-02-09T23:42:40Z</datestamp>
      <setSpec>user-biosyslit</setSpec>
    </header>
    <header>
      <identifier>oai:zenodo.org:288787</identifier>
      <datestamp>2017-02-09T21:52:49Z</datestamp>
      <setSpec>user-biosyslit</setSpec>
    </header>
    <header>
      <identifier>oai:zenodo.org:289742</identifier>
      <datestamp>2017-02-10T00:23:12Z</datestamp>
      <setSpec>user-biosyslit</setSpec>
    </header>
    <header>
      <identifier>oai:zenodo.org:288742</identifier>
      <datestamp>2017-02-09T21:50:09Z</datestamp>
      <setSpec>user-biosyslit</setSpec>
    </header>
    <header>
      <identifier>oai:zenodo.org:289554</identifier>
      <datestamp>2017-02-09T23:49:58Z</datestamp>
      <setSpec>user-biosyslit</setSpec>
    </header>
    <header>
      <identifier>oai:zenodo.org:289514</identifier>
      <datestamp>2017-02-09T23:43:40Z</datestamp>
      <setSpec>user-biosyslit</setSpec>
    </header>
    <header>
      <identifier>oai:zenodo.org:289805</identifier>
      <datestamp>2017-02-10T00:31:21Z</datestamp>
      <setSpec>user-biosyslit</setSpec>
    </header>
    <header>
      <identifier>oai:zenodo.org:281297</identifier>
      <datestamp>2017-02-09T05:06:22Z</datestamp>
      <setSpec>user-biosyslit</setSpec>
    </header>
    <header>
      <identifier>oai:zenodo.org:279573</identifier>
      <datestamp>2017-02-09T01:39:45Z</datestamp>
      <setSpec>user-biosyslit</setSpec>
    </header>
    <header>
      <identifier>oai:zenodo.org:294042</identifier>
      <datestamp>2017-02-20T19:11:31Z</datestamp>
      <setSpec>user-biosyslit</setSpec>
    </header>
    <header>
      <identifier>oai:zenodo.org:294157</identifier>
      <datestamp>2017-02-20T19:23:26Z</datestamp>
      <setSpec>user-biosyslit</setSpec>
    </header>
    <header>
      <identifier>oai:zenodo.org:311665</identifier>
      <datestamp>2017-02-21T00:27:04Z</datestamp>
      <setSpec>user-biosyslit</setSpec>
    </header>
    <header>
      <identifier>oai:zenodo.org:322060</identifier>
      <datestamp>2017-02-24T07:27:41Z</datestamp>
      <setSpec>user-biosyslit</setSpec>
    </header>
    <header>
      <identifier>oai:zenodo.org:321299</identifier>
      <datestamp>2017-02-21T12:13:06Z</datestamp>
      <setSpec>user-biosyslit</setSpec>
    </header>
    <header>
      <identifier>oai:zenodo.org:322067</identifier>
      <datestamp>2017-02-24T07:29:02Z</datestamp>
      <setSpec>user-biosyslit</setSpec>
    </header>
    <header>
      <identifier>oai:zenodo.org:322057</identifier>
      <datestamp>2017-02-24T07:27:33Z</datestamp>
      <setSpec>user-biosyslit</setSpec>
    </header>
    <header>
      <identifier>oai:zenodo.org:322210</identifier>
      <datestamp>2017-02-24T07:37:49Z</datestamp>
      <setSpec>user-biosyslit</setSpec>
    </header>
    <header>
      <identifier>oai:zenodo.org:321962</identifier>
      <datestamp>2017-02-24T07:19:10Z</datestamp>
      <setSpec>user-biosyslit</setSpec>
    </header>
    <header>
      <identifier>oai:zenodo.org:574230</identifier>
      <datestamp>2017-05-11T07:24:09Z</datestamp>
      <setSpec>user-biosyslit</setSpec>
    </header>
    <header>
      <identifier>oai:zenodo.org:269674</identifier>
      <datestamp>2017-02-10T16:20:33Z</datestamp>
      <setSpec>openaire</setSpec>
      <setSpec>user-biosyslit</setSpec>
    </header>
    <header>
      <identifier>oai:zenodo.org:275284</identifier>
      <datestamp>2017-02-08T15:58:27Z</datestamp>
      <setSpec>user-biosyslit</setSpec>
    </header>
    <header>
      <identifier>oai:zenodo.org:275366</identifier>
      <datestamp>2017-02-08T16:10:01Z</datestamp>
      <setSpec>user-biosyslit</setSpec>
    </header>
    <header>
      <identifier>oai:zenodo.org:276167</identifier>
      <datestamp>2017-02-08T18:16:34Z</datestamp>
      <setSpec>user-biosyslit</setSpec>
    </header>
    <header>
      <identifier>oai:zenodo.org:275099</identifier>
      <datestamp>2017-02-08T15:17:34Z</datestamp>
      <setSpec>user-biosyslit</setSpec>
    </header>
    <header>
      <identifier>oai:zenodo.org:277791</identifier>
      <datestamp>2017-02-08T21:49:52Z</datestamp>
      <setSpec>user-biosyslit</setSpec>
    </header>
    <header>
      <identifier>oai:zenodo.org:277180</identifier>
      <datestamp>2017-02-08T20:33:53Z</datestamp>
      <setSpec>user-biosyslit</setSpec>
    </header>
    <header>
      <identifier>oai:zenodo.org:278183</identifier>
      <datestamp>2017-02-08T22:37:13Z</datestamp>
      <setSpec>user-biosyslit</setSpec>
    </header>
    <header>
      <identifier>oai:zenodo.org:277633</identifier>
      <datestamp>2017-02-08T21:30:43Z</datestamp>
      <setSpec>user-biosyslit</setSpec>
    </header>
    <header>
      <identifier>oai:zenodo.org:278596</identifier>
      <datestamp>2017-02-08T23:29:26Z</datestamp>
      <setSpec>user-biosyslit</setSpec>
    </header>
    <header>
      <identifier>oai:zenodo.org:278376</identifier>
      <datestamp>2017-02-08T23:03:16Z</datestamp>
      <setSpec>user-biosyslit</setSpec>
    </header>
    <header>
      <identifier>oai:zenodo.org:279643</identifier>
      <datestamp>2017-02-09T01:46:24Z</datestamp>
      <setSpec>user-biosyslit</setSpec>
    </header>
    <header>
      <identifier>oai:zenodo.org:279609</identifier>
      <datestamp>2017-02-09T01:43:40Z</datestamp>
      <setSpec>user-biosyslit</setSpec>
    </header>
    <header>
      <identifier>oai:zenodo.org:279575</identifier>
      <datestamp>2017-02-09T01:39:25Z</datestamp>
      <setSpec>user-biosyslit</setSpec>
    </header>
    <header>
      <identifier>oai:zenodo.org:279641</identifier>
      <datestamp>2017-02-09T01:46:17Z</datestamp>
      <setSpec>user-biosyslit</setSpec>
    </header>
    <header>
      <identifier>oai:zenodo.org:279399</identifier>
      <datestamp>2017-02-09T01:14:27Z</datestamp>
      <setSpec>user-biosyslit</setSpec>
    </header>
    <header>
      <identifier>oai:zenodo.org:280330</identifier>
      <datestamp>2017-02-09T03:12:36Z</datestamp>
      <setSpec>user-biosyslit</setSpec>
    </header>
    <header>
      <identifier>oai:zenodo.org:279917</identifier>
      <datestamp>2017-02-09T02:17:01Z</datestamp>
      <setSpec>user-biosyslit</setSpec>
    </header>
    <header>
      <identifier>oai:zenodo.org:279736</identifier>
      <datestamp>2017-02-09T01:58:19Z</datestamp>
      <setSpec>user-biosyslit</setSpec>
    </header>
    <header>
      <identifier>oai:zenodo.org:279783</identifier>
      <datestamp>2017-02-09T02:03:16Z</datestamp>
      <setSpec>user-biosyslit</setSpec>
    </header>
    <header>
      <identifier>oai:zenodo.org:281153</identifier>
      <datestamp>2017-02-09T04:49:23Z</datestamp>
      <setSpec>user-biosyslit</setSpec>
    </header>
    <header>
      <identifier>oai:zenodo.org:281731</identifier>
      <datestamp>2017-02-09T05:49:26Z</datestamp>
      <setSpec>user-biosyslit</setSpec>
    </header>
    <header>
      <identifier>oai:zenodo.org:281880</identifier>
      <datestamp>2017-02-09T06:06:51Z</datestamp>
      <setSpec>user-biosyslit</setSpec>
    </header>
    <header>
      <identifier>oai:zenodo.org:281889</identifier>
      <datestamp>2017-02-09T06:07:29Z</datestamp>
      <setSpec>user-biosyslit</setSpec>
    </header>
    <header>
      <identifier>oai:zenodo.org:282936</identifier>
      <datestamp>2017-02-09T07:51:47Z</datestamp>
      <setSpec>user-biosyslit</setSpec>
    </header>
    <header>
      <identifier>oai:zenodo.org:282796</identifier>
      <datestamp>2017-02-09T07:38:32Z</datestamp>
      <setSpec>user-biosyslit</setSpec>
    </header>
    <header>
      <identifier>oai:zenodo.org:281883</identifier>
      <datestamp>2017-02-09T06:06:47Z</datestamp>
      <setSpec>user-biosyslit</setSpec>
    </header>
    <header>
      <identifier>oai:zenodo.org:282016</identifier>
      <datestamp>2017-02-09T06:19:44Z</datestamp>
      <setSpec>user-biosyslit</setSpec>
    </header>
    <header>
      <identifier>oai:zenodo.org:283147</identifier>
      <datestamp>2017-02-09T08:13:06Z</datestamp>
      <setSpec>user-biosyslit</setSpec>
    </header>
    <header>
      <identifier>oai:zenodo.org:283137</identifier>
      <datestamp>2017-02-09T08:12:43Z</datestamp>
      <setSpec>user-biosyslit</setSpec>
    </header>
    <header>
      <identifier>oai:zenodo.org:283109</identifier>
      <datestamp>2017-02-09T08:10:14Z</datestamp>
      <setSpec>user-biosyslit</setSpec>
    </header>
    <header>
      <identifier>oai:zenodo.org:284481</identifier>
      <datestamp>2017-02-09T11:21:21Z</datestamp>
      <setSpec>user-biosyslit</setSpec>
    </header>
    <header>
      <identifier>oai:zenodo.org:283929</identifier>
      <datestamp>2017-02-09T10:04:46Z</datestamp>
      <setSpec>user-biosyslit</setSpec>
    </header>
    <header>
      <identifier>oai:zenodo.org:283862</identifier>
      <datestamp>2017-02-09T09:57:25Z</datestamp>
      <setSpec>user-biosyslit</setSpec>
    </header>
    <header>
      <identifier>oai:zenodo.org:284366</identifier>
      <datestamp>2017-02-09T11:06:13Z</datestamp>
      <setSpec>user-biosyslit</setSpec>
    </header>
    <header>
      <identifier>oai:zenodo.org:285429</identifier>
      <datestamp>2017-02-09T13:36:19Z</datestamp>
      <setSpec>user-biosyslit</setSpec>
    </header>
    <header>
      <identifier>oai:zenodo.org:287042</identifier>
      <datestamp>2017-02-09T17:20:06Z</datestamp>
      <setSpec>user-biosyslit</setSpec>
    </header>
    <header>
      <identifier>oai:zenodo.org:285768</identifier>
      <datestamp>2017-02-09T14:26:16Z</datestamp>
      <setSpec>user-biosyslit</setSpec>
    </header>
    <header>
      <identifier>oai:zenodo.org:286491</identifier>
      <datestamp>2017-02-09T16:07:20Z</datestamp>
      <setSpec>user-biosyslit</setSpec>
    </header>
    <header>
      <identifier>oai:zenodo.org:286749</identifier>
      <datestamp>2017-02-09T16:45:18Z</datestamp>
      <setSpec>user-biosyslit</setSpec>
    </header>
    <header>
      <identifier>oai:zenodo.org:286753</identifier>
      <datestamp>2017-02-09T16:45:28Z</datestamp>
      <setSpec>user-biosyslit</setSpec>
    </header>
    <header>
      <identifier>oai:zenodo.org:286406</identifier>
      <datestamp>2017-02-09T15:56:59Z</datestamp>
      <setSpec>user-biosyslit</setSpec>
    </header>
    <header>
      <identifier>oai:zenodo.org:287190</identifier>
      <datestamp>2017-02-09T17:38:05Z</datestamp>
      <setSpec>user-biosyslit</setSpec>
    </header>
    <header>
      <identifier>oai:zenodo.org:286280</identifier>
      <datestamp>2017-02-09T15:42:41Z</datestamp>
      <setSpec>user-biosyslit</setSpec>
    </header>
    <header>
      <identifier>oai:zenodo.org:286382</identifier>
      <datestamp>2017-02-09T15:54:32Z</datestamp>
      <setSpec>user-biosyslit</setSpec>
    </header>
    <header>
      <identifier>oai:zenodo.org:287252</identifier>
      <datestamp>2017-02-09T17:53:58Z</datestamp>
      <setSpec>user-biosyslit</setSpec>
    </header>
    <header>
      <identifier>oai:zenodo.org:288309</identifier>
      <datestamp>2017-02-09T20:33:27Z</datestamp>
      <setSpec>user-biosyslit</setSpec>
    </header>
    <header>
      <identifier>oai:zenodo.org:287730</identifier>
      <datestamp>2017-02-09T19:09:23Z</datestamp>
      <setSpec>user-biosyslit</setSpec>
    </header>
    <header>
      <identifier>oai:zenodo.org:289099</identifier>
      <datestamp>2017-02-09T22:37:54Z</datestamp>
      <setSpec>user-biosyslit</setSpec>
    </header>
    <header>
      <identifier>oai:zenodo.org:289452</identifier>
      <datestamp>2017-02-09T23:32:24Z</datestamp>
      <setSpec>user-biosyslit</setSpec>
    </header>
    <header>
      <identifier>oai:zenodo.org:287984</identifier>
      <datestamp>2017-02-09T19:43:39Z</datestamp>
      <setSpec>user-biosyslit</setSpec>
    </header>
    <header>
      <identifier>oai:zenodo.org:287821</identifier>
      <datestamp>2017-02-09T19:23:39Z</datestamp>
      <setSpec>user-biosyslit</setSpec>
    </header>
    <header>
      <identifier>oai:zenodo.org:288896</identifier>
      <datestamp>2017-02-09T22:07:29Z</datestamp>
      <setSpec>user-biosyslit</setSpec>
    </header>
    <header>
      <identifier>oai:zenodo.org:289012</identifier>
      <datestamp>2017-02-09T22:24:37Z</datestamp>
      <setSpec>user-biosyslit</setSpec>
    </header>
    <header>
      <identifier>oai:zenodo.org:289058</identifier>
      <datestamp>2017-02-09T22:32:50Z</datestamp>
      <setSpec>user-biosyslit</setSpec>
    </header>
    <header>
      <identifier>oai:zenodo.org:290061</identifier>
      <datestamp>2017-02-10T01:12:36Z</datestamp>
      <setSpec>user-biosyslit</setSpec>
    </header>
    <header>
      <identifier>oai:zenodo.org:291280</identifier>
      <datestamp>2017-02-13T20:39:34Z</datestamp>
      <setSpec>user-biosyslit</setSpec>
    </header>
    <header>
      <identifier>oai:zenodo.org:294198</identifier>
      <datestamp>2017-02-20T19:28:08Z</datestamp>
      <setSpec>user-biosyslit</setSpec>
    </header>
    <header>
      <identifier>oai:zenodo.org:294197</identifier>
      <datestamp>2017-02-20T19:28:06Z</datestamp>
      <setSpec>user-biosyslit</setSpec>
    </header>
    <header>
      <identifier>oai:zenodo.org:311037</identifier>
      <datestamp>2017-02-21T00:14:46Z</datestamp>
      <setSpec>user-biosyslit</setSpec>
    </header>
    <header>
      <identifier>oai:zenodo.org:322278</identifier>
      <datestamp>2017-02-24T08:54:41Z</datestamp>
      <setSpec>user-biosyslit</setSpec>
    </header>
    <header>
      <identifier>oai:zenodo.org:322104</identifier>
      <datestamp>2017-02-24T07:30:33Z</datestamp>
      <setSpec>user-biosyslit</setSpec>
    </header>
    <header>
      <identifier>oai:zenodo.org:321777</identifier>
      <datestamp>2017-02-23T08:49:43Z</datestamp>
      <setSpec>user-biosyslit</setSpec>
    </header>
    <header>
      <identifier>oai:zenodo.org:322064</identifier>
      <datestamp>2017-02-24T07:28:53Z</datestamp>
      <setSpec>user-biosyslit</setSpec>
    </header>
    <header>
      <identifier>oai:zenodo.org:322413</identifier>
      <datestamp>2017-02-24T15:55:57Z</datestamp>
      <setSpec>user-biosyslit</setSpec>
    </header>
    <header>
      <identifier>oai:zenodo.org:280278</identifier>
      <datestamp>2017-02-09T03:06:18Z</datestamp>
      <setSpec>user-biosyslit</setSpec>
    </header>
    <header>
      <identifier>oai:zenodo.org:280399</identifier>
      <datestamp>2017-02-09T03:20:37Z</datestamp>
      <setSpec>user-biosyslit</setSpec>
    </header>
    <header>
      <identifier>oai:zenodo.org:574235</identifier>
      <datestamp>2017-05-11T07:24:21Z</datestamp>
      <setSpec>user-biosyslit</setSpec>
    </header>
    <header>
      <identifier>oai:zenodo.org:274538</identifier>
      <datestamp>2017-02-08T13:37:50Z</datestamp>
      <setSpec>user-biosyslit</setSpec>
    </header>
    <header>
      <identifier>oai:zenodo.org:266374</identifier>
      <datestamp>2017-02-01T07:14:04Z</datestamp>
      <setSpec>user-biosyslit</setSpec>
    </header>
    <resumptionToken expirationDate="2017-08-31T15:45:46Z" cursor="42200" completeListSize="77796">.eJyNyk0LgjAYAOD_8p4lNjf8gi5hiQcVXUp2CVMRc5q4Qp343_PSuc7Ps4AoywIstCOaiahJMaWGqRFkKCDy4cn5rd4Y8kvC847HmZO8ozZBqVrpvi0mz06JLxsUtFiyU6hesDHFNZrDc_xKZTQlxB0ZOuqeDGf_4W6vIIHDr3enZ3F34EwthuAYzgwf2JXk34f_fPLns8UeFOizqgSLqlSBZsyGSoC1rOsHo41RQw.DInAMg.6P9z5kCz2oW50qgs6wEr231SwhQ</resumptionToken>
  </ListIdentifiers>
</OAI-PMH>
