<?xml version='1.0' encoding='UTF-8'?>
<?xml-stylesheet type="text/xsl" href="/static/xsl/oai2.v1.0.xsl"?>
<OAI-PMH xmlns="http://www.openarchives.org/OAI/2.0/" xmlns:xsi="http://www.w3.org/2001/XMLSchema-instance" xsi:schemaLocation="http://www.openarchives.org/OAI/2.0/ http://www.openarchives.org/OAI/2.0/OAI-PMH.xsd">
  <responseDate>2017-08-31T15:43:09Z</responseDate>
  <request verb="ListIdentifiers" resumptionToken=".eJyNz8EOQzAAgOF36VmWallNsoswcUDoCC6LIWLKRLeg4t3nsvN2_r_LvwJeVSXQ4YGQo0ZUdMIaURRVIxLgxfhk7NbsGRRJzIqeRbkdv8MuhimqiWfy2TVT7IkW-p0s6CVAiazNUQOX4Bq9UhHOMXYmCi3iimDxHs7uSuzbLLvbA416g1FUjr4VLFQ2aIaLr5P_dOKnM_kZSGDI6wroGO1X7ZSPNQf6um0ftTtRWA.DInADQ.AjzZnIFpfVo5G6yW9bKmfX8gt3k">https://zenodo.org/oai2d</request>
  <ListIdentifiers>
    <header>
      <identifier>oai:zenodo.org:242071</identifier>
      <datestamp>2017-01-13T10:08:20Z</datestamp>
      <setSpec>user-biosyslit</setSpec>
    </header>
    <header>
      <identifier>oai:zenodo.org:242066</identifier>
      <datestamp>2017-01-13T10:08:05Z</datestamp>
      <setSpec>user-biosyslit</setSpec>
    </header>
    <header>
      <identifier>oai:zenodo.org:242064</identifier>
      <datestamp>2017-01-13T10:07:58Z</datestamp>
      <setSpec>user-biosyslit</setSpec>
    </header>
    <header>
      <identifier>oai:zenodo.org:242068</identifier>
      <datestamp>2017-01-13T10:08:11Z</datestamp>
      <setSpec>user-biosyslit</setSpec>
    </header>
    <header>
      <identifier>oai:zenodo.org:242070</identifier>
      <datestamp>2017-01-13T10:08:17Z</datestamp>
      <setSpec>user-biosyslit</setSpec>
    </header>
    <header>
      <identifier>oai:zenodo.org:230117</identifier>
      <datestamp>2017-01-04T19:27:32Z</datestamp>
      <setSpec>user-biosyslit</setSpec>
    </header>
    <header>
      <identifier>oai:zenodo.org:282694</identifier>
      <datestamp>2017-02-09T07:27:58Z</datestamp>
      <setSpec>user-biosyslit</setSpec>
    </header>
    <header>
      <identifier>oai:zenodo.org:282696</identifier>
      <datestamp>2017-02-09T07:28:02Z</datestamp>
      <setSpec>user-biosyslit</setSpec>
    </header>
    <header>
      <identifier>oai:zenodo.org:282690</identifier>
      <datestamp>2017-02-09T07:27:49Z</datestamp>
      <setSpec>user-biosyslit</setSpec>
    </header>
    <header>
      <identifier>oai:zenodo.org:282693</identifier>
      <datestamp>2017-02-09T07:27:55Z</datestamp>
      <setSpec>user-biosyslit</setSpec>
    </header>
    <header>
      <identifier>oai:zenodo.org:282695</identifier>
      <datestamp>2017-02-09T07:28:00Z</datestamp>
      <setSpec>user-biosyslit</setSpec>
    </header>
    <header>
      <identifier>oai:zenodo.org:230529</identifier>
      <datestamp>2017-01-05T02:47:01Z</datestamp>
      <setSpec>user-biosyslit</setSpec>
    </header>
    <header>
      <identifier>oai:zenodo.org:232308</identifier>
      <datestamp>2017-01-06T15:42:30Z</datestamp>
      <setSpec>user-biosyslit</setSpec>
    </header>
    <header>
      <identifier>oai:zenodo.org:232310</identifier>
      <datestamp>2017-01-06T15:42:38Z</datestamp>
      <setSpec>user-biosyslit</setSpec>
    </header>
    <header>
      <identifier>oai:zenodo.org:232311</identifier>
      <datestamp>2017-01-06T15:42:41Z</datestamp>
      <setSpec>user-biosyslit</setSpec>
    </header>
    <header>
      <identifier>oai:zenodo.org:232312</identifier>
      <datestamp>2017-01-06T15:42:44Z</datestamp>
      <setSpec>user-biosyslit</setSpec>
    </header>
    <header>
      <identifier>oai:zenodo.org:232313</identifier>
      <datestamp>2017-01-06T15:42:47Z</datestamp>
      <setSpec>user-biosyslit</setSpec>
    </header>
    <header>
      <identifier>oai:zenodo.org:232316</identifier>
      <datestamp>2017-01-06T15:42:57Z</datestamp>
      <setSpec>user-biosyslit</setSpec>
    </header>
    <header>
      <identifier>oai:zenodo.org:232314</identifier>
      <datestamp>2017-01-06T15:42:49Z</datestamp>
      <setSpec>user-biosyslit</setSpec>
    </header>
    <header>
      <identifier>oai:zenodo.org:245733</identifier>
      <datestamp>2017-01-15T18:02:27Z</datestamp>
      <setSpec>user-biosyslit</setSpec>
    </header>
    <header>
      <identifier>oai:zenodo.org:245735</identifier>
      <datestamp>2017-01-15T18:02:26Z</datestamp>
      <setSpec>user-biosyslit</setSpec>
    </header>
    <header>
      <identifier>oai:zenodo.org:245734</identifier>
      <datestamp>2017-01-15T18:02:23Z</datestamp>
      <setSpec>user-biosyslit</setSpec>
    </header>
    <header>
      <identifier>oai:zenodo.org:287568</identifier>
      <datestamp>2017-02-09T18:36:51Z</datestamp>
      <setSpec>user-biosyslit</setSpec>
    </header>
    <header>
      <identifier>oai:zenodo.org:287566</identifier>
      <datestamp>2017-02-09T18:36:47Z</datestamp>
      <setSpec>user-biosyslit</setSpec>
    </header>
    <header>
      <identifier>oai:zenodo.org:287569</identifier>
      <datestamp>2017-02-09T18:36:54Z</datestamp>
      <setSpec>user-biosyslit</setSpec>
    </header>
    <header>
      <identifier>oai:zenodo.org:287559</identifier>
      <datestamp>2017-02-09T18:36:30Z</datestamp>
      <setSpec>user-biosyslit</setSpec>
    </header>
    <header>
      <identifier>oai:zenodo.org:287571</identifier>
      <datestamp>2017-02-09T18:36:58Z</datestamp>
      <setSpec>user-biosyslit</setSpec>
    </header>
    <header>
      <identifier>oai:zenodo.org:287560</identifier>
      <datestamp>2017-02-09T18:36:33Z</datestamp>
      <setSpec>user-biosyslit</setSpec>
    </header>
    <header>
      <identifier>oai:zenodo.org:287563</identifier>
      <datestamp>2017-02-09T18:36:40Z</datestamp>
      <setSpec>user-biosyslit</setSpec>
    </header>
    <header>
      <identifier>oai:zenodo.org:287562</identifier>
      <datestamp>2017-02-09T18:36:38Z</datestamp>
      <setSpec>user-biosyslit</setSpec>
    </header>
    <header>
      <identifier>oai:zenodo.org:287570</identifier>
      <datestamp>2017-02-09T18:36:56Z</datestamp>
      <setSpec>user-biosyslit</setSpec>
    </header>
    <header>
      <identifier>oai:zenodo.org:262419</identifier>
      <datestamp>2017-01-29T04:10:00Z</datestamp>
      <setSpec>user-biosyslit</setSpec>
    </header>
    <header>
      <identifier>oai:zenodo.org:262420</identifier>
      <datestamp>2017-01-29T04:10:04Z</datestamp>
      <setSpec>user-biosyslit</setSpec>
    </header>
    <header>
      <identifier>oai:zenodo.org:262422</identifier>
      <datestamp>2017-01-29T04:10:09Z</datestamp>
      <setSpec>user-biosyslit</setSpec>
    </header>
    <header>
      <identifier>oai:zenodo.org:262426</identifier>
      <datestamp>2017-01-29T04:10:39Z</datestamp>
      <setSpec>user-biosyslit</setSpec>
    </header>
    <header>
      <identifier>oai:zenodo.org:262430</identifier>
      <datestamp>2017-01-29T04:10:51Z</datestamp>
      <setSpec>user-biosyslit</setSpec>
    </header>
    <header>
      <identifier>oai:zenodo.org:262425</identifier>
      <datestamp>2017-01-29T04:10:34Z</datestamp>
      <setSpec>user-biosyslit</setSpec>
    </header>
    <header>
      <identifier>oai:zenodo.org:262431</identifier>
      <datestamp>2017-01-29T04:10:54Z</datestamp>
      <setSpec>user-biosyslit</setSpec>
    </header>
    <header>
      <identifier>oai:zenodo.org:262421</identifier>
      <datestamp>2017-01-29T04:10:07Z</datestamp>
      <setSpec>user-biosyslit</setSpec>
    </header>
    <header>
      <identifier>oai:zenodo.org:262427</identifier>
      <datestamp>2017-01-29T04:10:43Z</datestamp>
      <setSpec>user-biosyslit</setSpec>
    </header>
    <header>
      <identifier>oai:zenodo.org:248979</identifier>
      <datestamp>2017-01-17T14:29:28Z</datestamp>
      <setSpec>user-biosyslit</setSpec>
    </header>
    <header>
      <identifier>oai:zenodo.org:248989</identifier>
      <datestamp>2017-01-17T14:29:17Z</datestamp>
      <setSpec>user-biosyslit</setSpec>
    </header>
    <header>
      <identifier>oai:zenodo.org:248987</identifier>
      <datestamp>2017-01-17T14:29:10Z</datestamp>
      <setSpec>user-biosyslit</setSpec>
    </header>
    <header>
      <identifier>oai:zenodo.org:238853</identifier>
      <datestamp>2017-01-11T11:42:14Z</datestamp>
      <setSpec>user-biosyslit</setSpec>
    </header>
    <header>
      <identifier>oai:zenodo.org:238849</identifier>
      <datestamp>2017-01-11T11:42:15Z</datestamp>
      <setSpec>user-biosyslit</setSpec>
    </header>
    <header>
      <identifier>oai:zenodo.org:238850</identifier>
      <datestamp>2017-01-11T11:42:04Z</datestamp>
      <setSpec>user-biosyslit</setSpec>
    </header>
    <header>
      <identifier>oai:zenodo.org:294004</identifier>
      <datestamp>2017-02-20T19:07:46Z</datestamp>
      <setSpec>user-biosyslit</setSpec>
    </header>
    <header>
      <identifier>oai:zenodo.org:238852</identifier>
      <datestamp>2017-01-11T11:42:11Z</datestamp>
      <setSpec>user-biosyslit</setSpec>
    </header>
    <header>
      <identifier>oai:zenodo.org:238851</identifier>
      <datestamp>2017-01-11T11:42:08Z</datestamp>
      <setSpec>user-biosyslit</setSpec>
    </header>
    <header>
      <identifier>oai:zenodo.org:294003</identifier>
      <datestamp>2017-02-20T19:07:52Z</datestamp>
      <setSpec>user-biosyslit</setSpec>
    </header>
    <header>
      <identifier>oai:zenodo.org:231208</identifier>
      <datestamp>2017-01-05T17:17:13Z</datestamp>
      <setSpec>user-biosyslit</setSpec>
    </header>
    <header>
      <identifier>oai:zenodo.org:294006</identifier>
      <datestamp>2017-02-20T19:07:51Z</datestamp>
      <setSpec>user-biosyslit</setSpec>
    </header>
    <header>
      <identifier>oai:zenodo.org:294005</identifier>
      <datestamp>2017-02-20T19:07:49Z</datestamp>
      <setSpec>user-biosyslit</setSpec>
    </header>
    <header>
      <identifier>oai:zenodo.org:231210</identifier>
      <datestamp>2017-01-05T17:17:12Z</datestamp>
      <setSpec>user-biosyslit</setSpec>
    </header>
    <header>
      <identifier>oai:zenodo.org:285412</identifier>
      <datestamp>2017-02-09T13:32:45Z</datestamp>
      <setSpec>user-biosyslit</setSpec>
    </header>
    <header>
      <identifier>oai:zenodo.org:285409</identifier>
      <datestamp>2017-02-09T13:32:38Z</datestamp>
      <setSpec>user-biosyslit</setSpec>
    </header>
    <header>
      <identifier>oai:zenodo.org:285413</identifier>
      <datestamp>2017-02-09T13:32:47Z</datestamp>
      <setSpec>user-biosyslit</setSpec>
    </header>
    <header>
      <identifier>oai:zenodo.org:285408</identifier>
      <datestamp>2017-02-09T13:32:35Z</datestamp>
      <setSpec>user-biosyslit</setSpec>
    </header>
    <header>
      <identifier>oai:zenodo.org:285410</identifier>
      <datestamp>2017-02-09T13:32:40Z</datestamp>
      <setSpec>user-biosyslit</setSpec>
    </header>
    <header>
      <identifier>oai:zenodo.org:238291</identifier>
      <datestamp>2017-01-11T03:29:07Z</datestamp>
      <setSpec>user-biosyslit</setSpec>
    </header>
    <header>
      <identifier>oai:zenodo.org:238293</identifier>
      <datestamp>2017-01-11T03:29:06Z</datestamp>
      <setSpec>user-biosyslit</setSpec>
    </header>
    <header>
      <identifier>oai:zenodo.org:238292</identifier>
      <datestamp>2017-01-11T03:29:01Z</datestamp>
      <setSpec>user-biosyslit</setSpec>
    </header>
    <header>
      <identifier>oai:zenodo.org:293356</identifier>
      <datestamp>2017-02-19T13:33:30Z</datestamp>
      <setSpec>user-biosyslit</setSpec>
    </header>
    <header>
      <identifier>oai:zenodo.org:293952</identifier>
      <datestamp>2017-02-20T19:02:37Z</datestamp>
      <setSpec>user-biosyslit</setSpec>
    </header>
    <header>
      <identifier>oai:zenodo.org:273597</identifier>
      <datestamp>2017-02-08T10:02:11Z</datestamp>
      <setSpec>user-biosyslit</setSpec>
    </header>
    <header>
      <identifier>oai:zenodo.org:273598</identifier>
      <datestamp>2017-02-08T10:02:03Z</datestamp>
      <setSpec>user-biosyslit</setSpec>
    </header>
    <header>
      <identifier>oai:zenodo.org:273600</identifier>
      <datestamp>2017-02-08T10:02:09Z</datestamp>
      <setSpec>user-biosyslit</setSpec>
    </header>
    <header>
      <identifier>oai:zenodo.org:273599</identifier>
      <datestamp>2017-02-08T10:02:05Z</datestamp>
      <setSpec>user-biosyslit</setSpec>
    </header>
    <header>
      <identifier>oai:zenodo.org:239706</identifier>
      <datestamp>2017-01-11T23:55:25Z</datestamp>
      <setSpec>user-biosyslit</setSpec>
    </header>
    <header>
      <identifier>oai:zenodo.org:243372</identifier>
      <datestamp>2017-01-14T03:25:53Z</datestamp>
      <setSpec>user-biosyslit</setSpec>
    </header>
    <header>
      <identifier>oai:zenodo.org:239709</identifier>
      <datestamp>2017-01-11T23:55:10Z</datestamp>
      <setSpec>user-biosyslit</setSpec>
    </header>
    <header>
      <identifier>oai:zenodo.org:243375</identifier>
      <datestamp>2017-01-14T03:26:03Z</datestamp>
      <setSpec>user-biosyslit</setSpec>
    </header>
    <header>
      <identifier>oai:zenodo.org:243376</identifier>
      <datestamp>2017-01-14T03:26:06Z</datestamp>
      <setSpec>user-biosyslit</setSpec>
    </header>
    <header>
      <identifier>oai:zenodo.org:243379</identifier>
      <datestamp>2017-01-14T03:26:15Z</datestamp>
      <setSpec>user-biosyslit</setSpec>
    </header>
    <header>
      <identifier>oai:zenodo.org:239710</identifier>
      <datestamp>2017-01-11T23:55:13Z</datestamp>
      <setSpec>user-biosyslit</setSpec>
    </header>
    <header>
      <identifier>oai:zenodo.org:243378</identifier>
      <datestamp>2017-01-14T03:26:11Z</datestamp>
      <setSpec>user-biosyslit</setSpec>
    </header>
    <header>
      <identifier>oai:zenodo.org:239713</identifier>
      <datestamp>2017-01-11T23:55:24Z</datestamp>
      <setSpec>user-biosyslit</setSpec>
    </header>
    <header>
      <identifier>oai:zenodo.org:245516</identifier>
      <datestamp>2017-01-15T14:43:19Z</datestamp>
      <setSpec>user-biosyslit</setSpec>
    </header>
    <header>
      <identifier>oai:zenodo.org:245524</identifier>
      <datestamp>2017-01-15T14:43:18Z</datestamp>
      <setSpec>user-biosyslit</setSpec>
    </header>
    <header>
      <identifier>oai:zenodo.org:232043</identifier>
      <datestamp>2017-01-06T10:39:22Z</datestamp>
      <setSpec>user-biosyslit</setSpec>
    </header>
    <header>
      <identifier>oai:zenodo.org:279876</identifier>
      <datestamp>2017-02-09T02:12:12Z</datestamp>
      <setSpec>user-biosyslit</setSpec>
    </header>
    <header>
      <identifier>oai:zenodo.org:279869</identifier>
      <datestamp>2017-02-09T02:11:54Z</datestamp>
      <setSpec>user-biosyslit</setSpec>
    </header>
    <header>
      <identifier>oai:zenodo.org:279867</identifier>
      <datestamp>2017-02-09T02:11:48Z</datestamp>
      <setSpec>user-biosyslit</setSpec>
    </header>
    <header>
      <identifier>oai:zenodo.org:279871</identifier>
      <datestamp>2017-02-09T02:11:59Z</datestamp>
      <setSpec>user-biosyslit</setSpec>
    </header>
    <header>
      <identifier>oai:zenodo.org:273890</identifier>
      <datestamp>2017-02-08T11:09:38Z</datestamp>
      <setSpec>user-biosyslit</setSpec>
    </header>
    <header>
      <identifier>oai:zenodo.org:273893</identifier>
      <datestamp>2017-02-08T11:09:25Z</datestamp>
      <setSpec>user-biosyslit</setSpec>
    </header>
    <header>
      <identifier>oai:zenodo.org:273891</identifier>
      <datestamp>2017-02-08T11:09:18Z</datestamp>
      <setSpec>user-biosyslit</setSpec>
    </header>
    <header>
      <identifier>oai:zenodo.org:273896</identifier>
      <datestamp>2017-02-08T11:09:32Z</datestamp>
      <setSpec>user-biosyslit</setSpec>
    </header>
    <header>
      <identifier>oai:zenodo.org:245139</identifier>
      <datestamp>2017-01-15T08:19:09Z</datestamp>
      <setSpec>user-biosyslit</setSpec>
    </header>
    <header>
      <identifier>oai:zenodo.org:274218</identifier>
      <datestamp>2017-02-08T12:29:50Z</datestamp>
      <setSpec>user-biosyslit</setSpec>
    </header>
    <header>
      <identifier>oai:zenodo.org:277918</identifier>
      <datestamp>2017-02-08T22:04:18Z</datestamp>
      <setSpec>user-biosyslit</setSpec>
    </header>
    <header>
      <identifier>oai:zenodo.org:274219</identifier>
      <datestamp>2017-02-08T12:29:46Z</datestamp>
      <setSpec>user-biosyslit</setSpec>
    </header>
    <header>
      <identifier>oai:zenodo.org:277916</identifier>
      <datestamp>2017-02-08T22:04:24Z</datestamp>
      <setSpec>user-biosyslit</setSpec>
    </header>
    <header>
      <identifier>oai:zenodo.org:286992</identifier>
      <datestamp>2017-02-09T17:14:23Z</datestamp>
      <setSpec>user-biosyslit</setSpec>
    </header>
    <header>
      <identifier>oai:zenodo.org:227503</identifier>
      <datestamp>2017-01-01T22:31:07Z</datestamp>
      <setSpec>user-biosyslit</setSpec>
    </header>
    <header>
      <identifier>oai:zenodo.org:286988</identifier>
      <datestamp>2017-02-09T17:14:13Z</datestamp>
      <setSpec>user-biosyslit</setSpec>
    </header>
    <header>
      <identifier>oai:zenodo.org:286987</identifier>
      <datestamp>2017-02-09T17:14:11Z</datestamp>
      <setSpec>user-biosyslit</setSpec>
    </header>
    <header>
      <identifier>oai:zenodo.org:283567</identifier>
      <datestamp>2017-02-09T09:12:25Z</datestamp>
      <setSpec>user-biosyslit</setSpec>
    </header>
    <header>
      <identifier>oai:zenodo.org:283566</identifier>
      <datestamp>2017-02-09T09:12:23Z</datestamp>
      <setSpec>user-biosyslit</setSpec>
    </header>
    <header>
      <identifier>oai:zenodo.org:283568</identifier>
      <datestamp>2017-02-09T09:12:27Z</datestamp>
      <setSpec>user-biosyslit</setSpec>
    </header>
    <resumptionToken expirationDate="2017-08-31T15:45:09Z" cursor="32600" completeListSize="77796">.eJyNyj0LgkAYAOD_8s4S96GcCC2iSYOKXoq6hKlIeVZ4hXrif8-luebnWUA2TQ0W2umUmQbDJjUoxpgRXQNZDQ8hztfNocpSUd1FUnrpO-5TlJOWBY6cfCengepQ2GPFDxHJsDklVzRHp-SVq3hK6XHkyGW-iubgdtxeTUNPFBfvyZO7LTiph9CNZo5tXtDq-_CfT_18jtyDBs-ybcCixNSgG8uhlWAt6_oBzYlRbg.DInADQ.SfZZp400QSieBWr67ZdIsPt35XA</resumptionToken>
  </ListIdentifiers>
</OAI-PMH>
