<?xml version='1.0' encoding='UTF-8'?>
<?xml-stylesheet type="text/xsl" href="/static/xsl/oai2.v1.0.xsl"?>
<OAI-PMH xmlns="http://www.openarchives.org/OAI/2.0/" xmlns:xsi="http://www.w3.org/2001/XMLSchema-instance" xsi:schemaLocation="http://www.openarchives.org/OAI/2.0/ http://www.openarchives.org/OAI/2.0/OAI-PMH.xsd">
  <responseDate>2017-08-31T15:43:56Z</responseDate>
  <request verb="ListIdentifiers" resumptionToken=".eJyNysEOQzAYAOB3-c-ylFaMZJeFiQNCR3BZDBFTJroFFe8-l5238_etwKuqBAMdCCJEVXUF6SohBKsS8GJ8MnZrdoYiiVnRsyi343fYxShVas0z-eyaKfZEi_xOFvQSKIl8nKMGLcE1eqUinGPsTBRZmiuCxXs4-yuxb7Psbg806s-MKuXoW8FC5TPNcPF98p9P_HwmP4EEQ15XYBCiSdBO-VhzMNZt-wCZqVE9.DInAPA.xVzfje-dPe3qG7nfPLM98jCv1NE">https://zenodo.org/oai2d</request>
  <ListIdentifiers>
    <header>
      <identifier>oai:zenodo.org:272440</identifier>
      <datestamp>2017-02-08T04:39:31Z</datestamp>
      <setSpec>user-biosyslit</setSpec>
    </header>
    <header>
      <identifier>oai:zenodo.org:243495</identifier>
      <datestamp>2017-01-14T06:36:08Z</datestamp>
      <setSpec>user-biosyslit</setSpec>
    </header>
    <header>
      <identifier>oai:zenodo.org:275613</identifier>
      <datestamp>2017-02-08T16:48:06Z</datestamp>
      <setSpec>user-biosyslit</setSpec>
    </header>
    <header>
      <identifier>oai:zenodo.org:272150</identifier>
      <datestamp>2017-02-08T03:50:01Z</datestamp>
      <setSpec>user-biosyslit</setSpec>
    </header>
    <header>
      <identifier>oai:zenodo.org:243672</identifier>
      <datestamp>2017-01-14T09:02:21Z</datestamp>
      <setSpec>user-biosyslit</setSpec>
    </header>
    <header>
      <identifier>oai:zenodo.org:243673</identifier>
      <datestamp>2017-01-14T09:01:58Z</datestamp>
      <setSpec>user-biosyslit</setSpec>
    </header>
    <header>
      <identifier>oai:zenodo.org:243688</identifier>
      <datestamp>2017-01-14T09:20:00Z</datestamp>
      <setSpec>user-biosyslit</setSpec>
    </header>
    <header>
      <identifier>oai:zenodo.org:243751</identifier>
      <datestamp>2017-01-14T10:20:30Z</datestamp>
      <setSpec>user-biosyslit</setSpec>
    </header>
    <header>
      <identifier>oai:zenodo.org:244098</identifier>
      <datestamp>2017-01-14T16:14:12Z</datestamp>
      <setSpec>user-biosyslit</setSpec>
    </header>
    <header>
      <identifier>oai:zenodo.org:272084</identifier>
      <datestamp>2017-02-08T03:40:10Z</datestamp>
      <setSpec>user-biosyslit</setSpec>
    </header>
    <header>
      <identifier>oai:zenodo.org:243714</identifier>
      <datestamp>2017-01-14T09:53:46Z</datestamp>
      <setSpec>user-biosyslit</setSpec>
    </header>
    <header>
      <identifier>oai:zenodo.org:244269</identifier>
      <datestamp>2017-01-14T18:52:05Z</datestamp>
      <setSpec>user-biosyslit</setSpec>
    </header>
    <header>
      <identifier>oai:zenodo.org:244449</identifier>
      <datestamp>2017-01-14T22:13:06Z</datestamp>
      <setSpec>user-biosyslit</setSpec>
    </header>
    <header>
      <identifier>oai:zenodo.org:245209</identifier>
      <datestamp>2017-01-15T10:05:25Z</datestamp>
      <setSpec>user-biosyslit</setSpec>
    </header>
    <header>
      <identifier>oai:zenodo.org:244610</identifier>
      <datestamp>2017-01-15T00:04:53Z</datestamp>
      <setSpec>user-biosyslit</setSpec>
    </header>
    <header>
      <identifier>oai:zenodo.org:244865</identifier>
      <datestamp>2017-01-15T04:24:28Z</datestamp>
      <setSpec>user-biosyslit</setSpec>
    </header>
    <header>
      <identifier>oai:zenodo.org:245841</identifier>
      <datestamp>2017-01-15T19:10:23Z</datestamp>
      <setSpec>user-biosyslit</setSpec>
    </header>
    <header>
      <identifier>oai:zenodo.org:244513</identifier>
      <datestamp>2017-01-14T22:57:15Z</datestamp>
      <setSpec>user-biosyslit</setSpec>
    </header>
    <header>
      <identifier>oai:zenodo.org:245775</identifier>
      <datestamp>2017-01-15T18:29:11Z</datestamp>
      <setSpec>user-biosyslit</setSpec>
    </header>
    <header>
      <identifier>oai:zenodo.org:244861</identifier>
      <datestamp>2017-01-15T04:19:52Z</datestamp>
      <setSpec>user-biosyslit</setSpec>
    </header>
    <header>
      <identifier>oai:zenodo.org:245020</identifier>
      <datestamp>2017-01-15T06:33:38Z</datestamp>
      <setSpec>user-biosyslit</setSpec>
    </header>
    <header>
      <identifier>oai:zenodo.org:245006</identifier>
      <datestamp>2017-01-15T06:32:50Z</datestamp>
      <setSpec>user-biosyslit</setSpec>
    </header>
    <header>
      <identifier>oai:zenodo.org:244586</identifier>
      <datestamp>2017-01-14T23:42:45Z</datestamp>
      <setSpec>user-biosyslit</setSpec>
    </header>
    <header>
      <identifier>oai:zenodo.org:245922</identifier>
      <datestamp>2017-01-15T19:26:56Z</datestamp>
      <setSpec>user-biosyslit</setSpec>
    </header>
    <header>
      <identifier>oai:zenodo.org:245438</identifier>
      <datestamp>2017-01-15T13:12:44Z</datestamp>
      <setSpec>user-biosyslit</setSpec>
    </header>
    <header>
      <identifier>oai:zenodo.org:245977</identifier>
      <datestamp>2017-01-15T20:25:17Z</datestamp>
      <setSpec>user-biosyslit</setSpec>
    </header>
    <header>
      <identifier>oai:zenodo.org:246108</identifier>
      <datestamp>2017-01-15T22:09:15Z</datestamp>
      <setSpec>user-biosyslit</setSpec>
    </header>
    <header>
      <identifier>oai:zenodo.org:245780</identifier>
      <datestamp>2017-01-15T18:34:45Z</datestamp>
      <setSpec>user-biosyslit</setSpec>
    </header>
    <header>
      <identifier>oai:zenodo.org:245423</identifier>
      <datestamp>2017-01-15T13:00:54Z</datestamp>
      <setSpec>user-biosyslit</setSpec>
    </header>
    <header>
      <identifier>oai:zenodo.org:245021</identifier>
      <datestamp>2017-01-15T06:33:41Z</datestamp>
      <setSpec>user-biosyslit</setSpec>
    </header>
    <header>
      <identifier>oai:zenodo.org:289427</identifier>
      <datestamp>2017-02-09T23:30:06Z</datestamp>
      <setSpec>user-biosyslit</setSpec>
    </header>
    <header>
      <identifier>oai:zenodo.org:289474</identifier>
      <datestamp>2017-02-09T23:39:20Z</datestamp>
      <setSpec>user-biosyslit</setSpec>
    </header>
    <header>
      <identifier>oai:zenodo.org:288807</identifier>
      <datestamp>2017-02-09T21:53:49Z</datestamp>
      <setSpec>user-biosyslit</setSpec>
    </header>
    <header>
      <identifier>oai:zenodo.org:289551</identifier>
      <datestamp>2017-02-09T23:49:46Z</datestamp>
      <setSpec>user-biosyslit</setSpec>
    </header>
    <header>
      <identifier>oai:zenodo.org:289730</identifier>
      <datestamp>2017-02-10T00:22:36Z</datestamp>
      <setSpec>user-biosyslit</setSpec>
    </header>
    <header>
      <identifier>oai:zenodo.org:289519</identifier>
      <datestamp>2017-02-09T23:44:05Z</datestamp>
      <setSpec>user-biosyslit</setSpec>
    </header>
    <header>
      <identifier>oai:zenodo.org:289279</identifier>
      <datestamp>2017-02-09T23:09:21Z</datestamp>
      <setSpec>user-biosyslit</setSpec>
    </header>
    <header>
      <identifier>oai:zenodo.org:289271</identifier>
      <datestamp>2017-02-09T23:07:11Z</datestamp>
      <setSpec>user-biosyslit</setSpec>
    </header>
    <header>
      <identifier>oai:zenodo.org:289521</identifier>
      <datestamp>2017-02-09T23:44:19Z</datestamp>
      <setSpec>user-biosyslit</setSpec>
    </header>
    <header>
      <identifier>oai:zenodo.org:289093</identifier>
      <datestamp>2017-02-09T22:38:02Z</datestamp>
      <setSpec>user-biosyslit</setSpec>
    </header>
    <header>
      <identifier>oai:zenodo.org:289422</identifier>
      <datestamp>2017-02-09T23:28:02Z</datestamp>
      <setSpec>user-biosyslit</setSpec>
    </header>
    <header>
      <identifier>oai:zenodo.org:289728</identifier>
      <datestamp>2017-02-10T00:22:31Z</datestamp>
      <setSpec>user-biosyslit</setSpec>
    </header>
    <header>
      <identifier>oai:zenodo.org:289847</identifier>
      <datestamp>2017-02-10T00:40:57Z</datestamp>
      <setSpec>user-biosyslit</setSpec>
    </header>
    <header>
      <identifier>oai:zenodo.org:289655</identifier>
      <datestamp>2017-02-10T00:02:22Z</datestamp>
      <setSpec>user-biosyslit</setSpec>
    </header>
    <header>
      <identifier>oai:zenodo.org:289853</identifier>
      <datestamp>2017-02-10T00:42:01Z</datestamp>
      <setSpec>user-biosyslit</setSpec>
    </header>
    <header>
      <identifier>oai:zenodo.org:291984</identifier>
      <datestamp>2017-02-20T08:30:28Z</datestamp>
      <setSpec>openaire</setSpec>
      <setSpec>user-neilreichia</setSpec>
      <setSpec>user-biosyslit</setSpec>
    </header>
    <header>
      <identifier>oai:zenodo.org:291282</identifier>
      <datestamp>2017-02-13T20:39:40Z</datestamp>
      <setSpec>user-biosyslit</setSpec>
    </header>
    <header>
      <identifier>oai:zenodo.org:291317</identifier>
      <datestamp>2017-02-13T20:43:17Z</datestamp>
      <setSpec>user-biosyslit</setSpec>
    </header>
    <header>
      <identifier>oai:zenodo.org:291363</identifier>
      <datestamp>2017-02-13T20:47:38Z</datestamp>
      <setSpec>user-biosyslit</setSpec>
    </header>
    <header>
      <identifier>oai:zenodo.org:291239</identifier>
      <datestamp>2017-02-13T20:35:16Z</datestamp>
      <setSpec>user-biosyslit</setSpec>
    </header>
    <header>
      <identifier>oai:zenodo.org:291328</identifier>
      <datestamp>2017-02-13T20:44:27Z</datestamp>
      <setSpec>user-biosyslit</setSpec>
    </header>
    <header>
      <identifier>oai:zenodo.org:291333</identifier>
      <datestamp>2017-02-13T20:45:36Z</datestamp>
      <setSpec>user-biosyslit</setSpec>
    </header>
    <header>
      <identifier>oai:zenodo.org:293385</identifier>
      <datestamp>2017-02-19T13:35:34Z</datestamp>
      <setSpec>user-biosyslit</setSpec>
    </header>
    <header>
      <identifier>oai:zenodo.org:272132</identifier>
      <datestamp>2017-02-08T03:48:02Z</datestamp>
      <setSpec>user-biosyslit</setSpec>
    </header>
    <header>
      <identifier>oai:zenodo.org:272078</identifier>
      <datestamp>2017-02-08T03:29:34Z</datestamp>
      <setSpec>user-biosyslit</setSpec>
    </header>
    <header>
      <identifier>oai:zenodo.org:271796</identifier>
      <datestamp>2017-02-08T02:41:25Z</datestamp>
      <setSpec>user-biosyslit</setSpec>
    </header>
    <header>
      <identifier>oai:zenodo.org:242637</identifier>
      <datestamp>2017-01-13T18:01:45Z</datestamp>
      <setSpec>user-biosyslit</setSpec>
    </header>
    <header>
      <identifier>oai:zenodo.org:241761</identifier>
      <datestamp>2017-01-13T05:32:29Z</datestamp>
      <setSpec>user-biosyslit</setSpec>
    </header>
    <header>
      <identifier>oai:zenodo.org:241865</identifier>
      <datestamp>2017-01-13T07:06:16Z</datestamp>
      <setSpec>user-biosyslit</setSpec>
    </header>
    <header>
      <identifier>oai:zenodo.org:242662</identifier>
      <datestamp>2017-01-13T18:16:45Z</datestamp>
      <setSpec>user-biosyslit</setSpec>
    </header>
    <header>
      <identifier>oai:zenodo.org:242555</identifier>
      <datestamp>2017-01-13T16:57:11Z</datestamp>
      <setSpec>user-biosyslit</setSpec>
    </header>
    <header>
      <identifier>oai:zenodo.org:242655</identifier>
      <datestamp>2017-01-13T18:16:20Z</datestamp>
      <setSpec>user-biosyslit</setSpec>
    </header>
    <header>
      <identifier>oai:zenodo.org:242332</identifier>
      <datestamp>2017-01-13T13:52:24Z</datestamp>
      <setSpec>user-biosyslit</setSpec>
    </header>
    <header>
      <identifier>oai:zenodo.org:242331</identifier>
      <datestamp>2017-01-13T13:52:18Z</datestamp>
      <setSpec>user-biosyslit</setSpec>
    </header>
    <header>
      <identifier>oai:zenodo.org:271865</identifier>
      <datestamp>2017-02-08T02:46:30Z</datestamp>
      <setSpec>user-biosyslit</setSpec>
    </header>
    <header>
      <identifier>oai:zenodo.org:242964</identifier>
      <datestamp>2017-01-13T21:07:46Z</datestamp>
      <setSpec>user-biosyslit</setSpec>
    </header>
    <header>
      <identifier>oai:zenodo.org:271860</identifier>
      <datestamp>2017-02-08T02:46:09Z</datestamp>
      <setSpec>user-biosyslit</setSpec>
    </header>
    <header>
      <identifier>oai:zenodo.org:243881</identifier>
      <datestamp>2017-01-14T12:42:49Z</datestamp>
      <setSpec>user-biosyslit</setSpec>
    </header>
    <header>
      <identifier>oai:zenodo.org:242965</identifier>
      <datestamp>2017-01-13T21:07:50Z</datestamp>
      <setSpec>user-biosyslit</setSpec>
    </header>
    <header>
      <identifier>oai:zenodo.org:243053</identifier>
      <datestamp>2017-01-13T22:44:46Z</datestamp>
      <setSpec>user-biosyslit</setSpec>
    </header>
    <header>
      <identifier>oai:zenodo.org:243512</identifier>
      <datestamp>2017-01-14T06:48:51Z</datestamp>
      <setSpec>user-biosyslit</setSpec>
    </header>
    <header>
      <identifier>oai:zenodo.org:243166</identifier>
      <datestamp>2017-01-14T00:03:43Z</datestamp>
      <setSpec>user-biosyslit</setSpec>
    </header>
    <header>
      <identifier>oai:zenodo.org:243441</identifier>
      <datestamp>2017-01-14T05:46:35Z</datestamp>
      <setSpec>user-biosyslit</setSpec>
    </header>
    <header>
      <identifier>oai:zenodo.org:243213</identifier>
      <datestamp>2017-01-14T00:47:47Z</datestamp>
      <setSpec>user-biosyslit</setSpec>
    </header>
    <header>
      <identifier>oai:zenodo.org:244732</identifier>
      <datestamp>2017-01-15T01:49:35Z</datestamp>
      <setSpec>user-biosyslit</setSpec>
    </header>
    <header>
      <identifier>oai:zenodo.org:243856</identifier>
      <datestamp>2017-01-14T11:49:23Z</datestamp>
      <setSpec>user-biosyslit</setSpec>
    </header>
    <header>
      <identifier>oai:zenodo.org:272147</identifier>
      <datestamp>2017-02-08T03:49:51Z</datestamp>
      <setSpec>user-biosyslit</setSpec>
    </header>
    <header>
      <identifier>oai:zenodo.org:275779</identifier>
      <datestamp>2017-02-08T17:04:44Z</datestamp>
      <setSpec>user-biosyslit</setSpec>
    </header>
    <header>
      <identifier>oai:zenodo.org:243527</identifier>
      <datestamp>2017-01-14T07:02:49Z</datestamp>
      <setSpec>user-biosyslit</setSpec>
    </header>
    <header>
      <identifier>oai:zenodo.org:244648</identifier>
      <datestamp>2017-01-15T00:30:20Z</datestamp>
      <setSpec>user-biosyslit</setSpec>
    </header>
    <header>
      <identifier>oai:zenodo.org:243639</identifier>
      <datestamp>2017-01-14T08:30:29Z</datestamp>
      <setSpec>user-biosyslit</setSpec>
    </header>
    <header>
      <identifier>oai:zenodo.org:244443</identifier>
      <datestamp>2017-01-14T22:12:44Z</datestamp>
      <setSpec>user-biosyslit</setSpec>
    </header>
    <header>
      <identifier>oai:zenodo.org:244323</identifier>
      <datestamp>2017-01-14T19:50:50Z</datestamp>
      <setSpec>user-biosyslit</setSpec>
    </header>
    <header>
      <identifier>oai:zenodo.org:272129</identifier>
      <datestamp>2017-02-08T03:47:52Z</datestamp>
      <setSpec>user-biosyslit</setSpec>
    </header>
    <header>
      <identifier>oai:zenodo.org:244241</identifier>
      <datestamp>2017-01-14T18:17:18Z</datestamp>
      <setSpec>user-biosyslit</setSpec>
    </header>
    <header>
      <identifier>oai:zenodo.org:244866</identifier>
      <datestamp>2017-01-15T04:24:25Z</datestamp>
      <setSpec>user-biosyslit</setSpec>
    </header>
    <header>
      <identifier>oai:zenodo.org:246603</identifier>
      <datestamp>2017-01-16T04:42:22Z</datestamp>
      <setSpec>user-biosyslit</setSpec>
    </header>
    <header>
      <identifier>oai:zenodo.org:244944</identifier>
      <datestamp>2017-01-15T05:40:49Z</datestamp>
      <setSpec>user-biosyslit</setSpec>
    </header>
    <header>
      <identifier>oai:zenodo.org:245842</identifier>
      <datestamp>2017-01-15T19:10:27Z</datestamp>
      <setSpec>user-biosyslit</setSpec>
    </header>
    <header>
      <identifier>oai:zenodo.org:245395</identifier>
      <datestamp>2017-01-15T12:41:06Z</datestamp>
      <setSpec>user-biosyslit</setSpec>
    </header>
    <header>
      <identifier>oai:zenodo.org:244958</identifier>
      <datestamp>2017-01-15T05:56:52Z</datestamp>
      <setSpec>user-biosyslit</setSpec>
    </header>
    <header>
      <identifier>oai:zenodo.org:245948</identifier>
      <datestamp>2017-01-15T19:40:46Z</datestamp>
      <setSpec>user-biosyslit</setSpec>
    </header>
    <header>
      <identifier>oai:zenodo.org:289538</identifier>
      <datestamp>2017-02-09T23:48:49Z</datestamp>
      <setSpec>user-biosyslit</setSpec>
    </header>
    <header>
      <identifier>oai:zenodo.org:289572</identifier>
      <datestamp>2017-02-09T23:50:59Z</datestamp>
      <setSpec>user-biosyslit</setSpec>
    </header>
    <header>
      <identifier>oai:zenodo.org:289429</identifier>
      <datestamp>2017-02-09T23:30:11Z</datestamp>
      <setSpec>user-biosyslit</setSpec>
    </header>
    <header>
      <identifier>oai:zenodo.org:289096</identifier>
      <datestamp>2017-02-09T22:37:47Z</datestamp>
      <setSpec>user-biosyslit</setSpec>
    </header>
    <header>
      <identifier>oai:zenodo.org:289191</identifier>
      <datestamp>2017-02-09T22:55:46Z</datestamp>
      <setSpec>user-biosyslit</setSpec>
    </header>
    <header>
      <identifier>oai:zenodo.org:291340</identifier>
      <datestamp>2017-02-13T20:45:25Z</datestamp>
      <setSpec>user-biosyslit</setSpec>
    </header>
    <header>
      <identifier>oai:zenodo.org:289921</identifier>
      <datestamp>2017-02-10T00:46:57Z</datestamp>
      <setSpec>user-biosyslit</setSpec>
    </header>
    <header>
      <identifier>oai:zenodo.org:291257</identifier>
      <datestamp>2017-02-13T20:37:00Z</datestamp>
      <setSpec>user-biosyslit</setSpec>
    </header>
    <resumptionToken expirationDate="2017-08-31T15:45:56Z" cursor="44600" completeListSize="77796">.eJyNysEKgjAYAOB3-c8Sm8u2hC5hiQcVW0p6CZsi5bJwhTrx3fPSuc7fN4IqywJstKCUWWtGCbZWFFlsZYAS7UPK83VmEKdEikbGuZu8D_cEpWZFA0f1vpOSQNcovGPN95F5wqyPr2iIjvEr1Yc-IV7H0Y76OhqCmze_goSuzC7uk8fNVnKzaMNdNHC85RkR34f_fPrnc9QGDHjmVQn2cskMqLu8rRTY4zR9ALEFUVc.DInAPA.PBN7BC8NCQwJiqSY7Hru5rZUrxw</resumptionToken>
  </ListIdentifiers>
</OAI-PMH>
