<?xml version='1.0' encoding='UTF-8'?>
<?xml-stylesheet type="text/xsl" href="/static/xsl/oai2.v1.0.xsl"?>
<OAI-PMH xmlns="http://www.openarchives.org/OAI/2.0/" xmlns:xsi="http://www.w3.org/2001/XMLSchema-instance" xsi:schemaLocation="http://www.openarchives.org/OAI/2.0/ http://www.openarchives.org/OAI/2.0/OAI-PMH.xsd">
  <responseDate>2017-08-31T15:46:07Z</responseDate>
  <request verb="ListIdentifiers" resumptionToken=".eJyNyk0LgjAYAOD_8p4l9qFMhC6iSQcVWxvqJUxFqvWBK9KJ_z0vnev8PBPotm3AQyvCsONg5NqUMOIybFug6_6u1OG0ONS5VPVNiSqSr91VooJ0LAn0EAcFTcwFpVds-CYjOXYHcUJjthfPwuwGSbdvjkIWm2xMztvlNTSNVHmMHlzcfMVJ06dhNnLs85LW34f_fObnC_QaLHhUXQseo8iCy7vqOw3eNM8fyjtRaA.DInAvg.xQ3Bqin93tIc7_ZFm3Ms4Xhp74U">https://zenodo.org/oai2d</request>
  <ListIdentifiers>
    <header>
      <identifier>oai:zenodo.org:257916</identifier>
      <datestamp>2017-01-23T13:57:36Z</datestamp>
      <setSpec>user-biosyslit</setSpec>
    </header>
    <header>
      <identifier>oai:zenodo.org:257915</identifier>
      <datestamp>2017-01-23T13:57:33Z</datestamp>
      <setSpec>user-biosyslit</setSpec>
    </header>
    <header>
      <identifier>oai:zenodo.org:249158</identifier>
      <datestamp>2017-01-17T17:04:45Z</datestamp>
      <setSpec>user-biosyslit</setSpec>
    </header>
    <header>
      <identifier>oai:zenodo.org:249163</identifier>
      <datestamp>2017-01-17T17:05:00Z</datestamp>
      <setSpec>user-biosyslit</setSpec>
    </header>
    <header>
      <identifier>oai:zenodo.org:249165</identifier>
      <datestamp>2017-01-17T17:05:05Z</datestamp>
      <setSpec>user-biosyslit</setSpec>
    </header>
    <header>
      <identifier>oai:zenodo.org:249169</identifier>
      <datestamp>2017-01-17T17:05:17Z</datestamp>
      <setSpec>user-biosyslit</setSpec>
    </header>
    <header>
      <identifier>oai:zenodo.org:249167</identifier>
      <datestamp>2017-01-17T17:05:11Z</datestamp>
      <setSpec>user-biosyslit</setSpec>
    </header>
    <header>
      <identifier>oai:zenodo.org:249171</identifier>
      <datestamp>2017-01-17T17:05:21Z</datestamp>
      <setSpec>user-biosyslit</setSpec>
    </header>
    <header>
      <identifier>oai:zenodo.org:249170</identifier>
      <datestamp>2017-01-17T17:05:19Z</datestamp>
      <setSpec>user-biosyslit</setSpec>
    </header>
    <header>
      <identifier>oai:zenodo.org:249160</identifier>
      <datestamp>2017-01-17T17:04:52Z</datestamp>
      <setSpec>user-biosyslit</setSpec>
    </header>
    <header>
      <identifier>oai:zenodo.org:282199</identifier>
      <datestamp>2017-02-09T06:37:21Z</datestamp>
      <setSpec>user-biosyslit</setSpec>
    </header>
    <header>
      <identifier>oai:zenodo.org:282218</identifier>
      <datestamp>2017-02-09T06:37:16Z</datestamp>
      <setSpec>user-biosyslit</setSpec>
    </header>
    <header>
      <identifier>oai:zenodo.org:282208</identifier>
      <datestamp>2017-02-09T06:36:51Z</datestamp>
      <setSpec>user-biosyslit</setSpec>
    </header>
    <header>
      <identifier>oai:zenodo.org:282206</identifier>
      <datestamp>2017-02-09T06:36:47Z</datestamp>
      <setSpec>user-biosyslit</setSpec>
    </header>
    <header>
      <identifier>oai:zenodo.org:282210</identifier>
      <datestamp>2017-02-09T06:36:56Z</datestamp>
      <setSpec>user-biosyslit</setSpec>
    </header>
    <header>
      <identifier>oai:zenodo.org:282212</identifier>
      <datestamp>2017-02-09T06:37:00Z</datestamp>
      <setSpec>user-biosyslit</setSpec>
    </header>
    <header>
      <identifier>oai:zenodo.org:282215</identifier>
      <datestamp>2017-02-09T06:37:07Z</datestamp>
      <setSpec>user-biosyslit</setSpec>
    </header>
    <header>
      <identifier>oai:zenodo.org:282217</identifier>
      <datestamp>2017-02-09T06:37:13Z</datestamp>
      <setSpec>user-biosyslit</setSpec>
    </header>
    <header>
      <identifier>oai:zenodo.org:274598</identifier>
      <datestamp>2017-02-08T13:46:45Z</datestamp>
      <setSpec>user-biosyslit</setSpec>
    </header>
    <header>
      <identifier>oai:zenodo.org:274600</identifier>
      <datestamp>2017-02-08T13:46:44Z</datestamp>
      <setSpec>user-biosyslit</setSpec>
    </header>
    <header>
      <identifier>oai:zenodo.org:235361</identifier>
      <datestamp>2017-01-09T09:24:13Z</datestamp>
      <setSpec>user-biosyslit</setSpec>
    </header>
    <header>
      <identifier>oai:zenodo.org:271940</identifier>
      <datestamp>2017-02-08T03:07:58Z</datestamp>
      <setSpec>user-biosyslit</setSpec>
    </header>
    <header>
      <identifier>oai:zenodo.org:235362</identifier>
      <datestamp>2017-01-09T09:24:15Z</datestamp>
      <setSpec>user-biosyslit</setSpec>
    </header>
    <header>
      <identifier>oai:zenodo.org:235360</identifier>
      <datestamp>2017-01-09T09:24:10Z</datestamp>
      <setSpec>user-biosyslit</setSpec>
    </header>
    <header>
      <identifier>oai:zenodo.org:271944</identifier>
      <datestamp>2017-02-08T03:08:11Z</datestamp>
      <setSpec>user-biosyslit</setSpec>
    </header>
    <header>
      <identifier>oai:zenodo.org:271945</identifier>
      <datestamp>2017-02-08T03:08:14Z</datestamp>
      <setSpec>user-biosyslit</setSpec>
    </header>
    <header>
      <identifier>oai:zenodo.org:271941</identifier>
      <datestamp>2017-02-08T03:08:02Z</datestamp>
      <setSpec>user-biosyslit</setSpec>
    </header>
    <header>
      <identifier>oai:zenodo.org:271942</identifier>
      <datestamp>2017-02-08T03:08:05Z</datestamp>
      <setSpec>user-biosyslit</setSpec>
    </header>
    <header>
      <identifier>oai:zenodo.org:271937</identifier>
      <datestamp>2017-02-08T03:08:23Z</datestamp>
      <setSpec>user-biosyslit</setSpec>
    </header>
    <header>
      <identifier>oai:zenodo.org:283644</identifier>
      <datestamp>2017-02-09T09:21:03Z</datestamp>
      <setSpec>user-biosyslit</setSpec>
    </header>
    <header>
      <identifier>oai:zenodo.org:271946</identifier>
      <datestamp>2017-02-08T03:08:16Z</datestamp>
      <setSpec>user-biosyslit</setSpec>
    </header>
    <header>
      <identifier>oai:zenodo.org:271947</identifier>
      <datestamp>2017-02-08T03:08:19Z</datestamp>
      <setSpec>user-biosyslit</setSpec>
    </header>
    <header>
      <identifier>oai:zenodo.org:399479</identifier>
      <datestamp>2017-03-15T21:49:24Z</datestamp>
      <setSpec>user-biosyslit</setSpec>
    </header>
    <header>
      <identifier>oai:zenodo.org:399482</identifier>
      <datestamp>2017-03-15T21:49:34Z</datestamp>
      <setSpec>user-biosyslit</setSpec>
    </header>
    <header>
      <identifier>oai:zenodo.org:399490</identifier>
      <datestamp>2017-03-15T21:49:57Z</datestamp>
      <setSpec>user-biosyslit</setSpec>
    </header>
    <header>
      <identifier>oai:zenodo.org:399483</identifier>
      <datestamp>2017-03-15T21:49:37Z</datestamp>
      <setSpec>user-biosyslit</setSpec>
    </header>
    <header>
      <identifier>oai:zenodo.org:399485</identifier>
      <datestamp>2017-03-15T21:49:43Z</datestamp>
      <setSpec>user-biosyslit</setSpec>
    </header>
    <header>
      <identifier>oai:zenodo.org:399489</identifier>
      <datestamp>2017-03-15T21:49:54Z</datestamp>
      <setSpec>user-biosyslit</setSpec>
    </header>
    <header>
      <identifier>oai:zenodo.org:399493</identifier>
      <datestamp>2017-03-15T21:50:06Z</datestamp>
      <setSpec>user-biosyslit</setSpec>
    </header>
    <header>
      <identifier>oai:zenodo.org:399484</identifier>
      <datestamp>2017-03-15T21:49:40Z</datestamp>
      <setSpec>user-biosyslit</setSpec>
    </header>
    <header>
      <identifier>oai:zenodo.org:240234</identifier>
      <datestamp>2017-01-12T06:17:07Z</datestamp>
      <setSpec>user-biosyslit</setSpec>
    </header>
    <header>
      <identifier>oai:zenodo.org:240239</identifier>
      <datestamp>2017-01-12T06:17:06Z</datestamp>
      <setSpec>user-biosyslit</setSpec>
    </header>
    <header>
      <identifier>oai:zenodo.org:261586</identifier>
      <datestamp>2017-01-28T11:12:32Z</datestamp>
      <setSpec>user-biosyslit</setSpec>
    </header>
    <header>
      <identifier>oai:zenodo.org:261591</identifier>
      <datestamp>2017-01-28T11:12:46Z</datestamp>
      <setSpec>user-biosyslit</setSpec>
    </header>
    <header>
      <identifier>oai:zenodo.org:261581</identifier>
      <datestamp>2017-01-28T11:12:19Z</datestamp>
      <setSpec>user-biosyslit</setSpec>
    </header>
    <header>
      <identifier>oai:zenodo.org:261580</identifier>
      <datestamp>2017-01-28T11:12:16Z</datestamp>
      <setSpec>user-biosyslit</setSpec>
    </header>
    <header>
      <identifier>oai:zenodo.org:261584</identifier>
      <datestamp>2017-01-28T11:12:27Z</datestamp>
      <setSpec>user-biosyslit</setSpec>
    </header>
    <header>
      <identifier>oai:zenodo.org:261583</identifier>
      <datestamp>2017-01-28T11:12:25Z</datestamp>
      <setSpec>user-biosyslit</setSpec>
    </header>
    <header>
      <identifier>oai:zenodo.org:261582</identifier>
      <datestamp>2017-01-28T11:12:22Z</datestamp>
      <setSpec>user-biosyslit</setSpec>
    </header>
    <header>
      <identifier>oai:zenodo.org:261585</identifier>
      <datestamp>2017-01-28T11:12:30Z</datestamp>
      <setSpec>user-biosyslit</setSpec>
    </header>
    <header>
      <identifier>oai:zenodo.org:261593</identifier>
      <datestamp>2017-01-28T11:12:52Z</datestamp>
      <setSpec>user-biosyslit</setSpec>
    </header>
    <header>
      <identifier>oai:zenodo.org:280841</identifier>
      <datestamp>2017-02-09T04:10:45Z</datestamp>
      <setSpec>user-biosyslit</setSpec>
    </header>
    <header>
      <identifier>oai:zenodo.org:261599</identifier>
      <datestamp>2017-01-28T11:13:10Z</datestamp>
      <setSpec>user-biosyslit</setSpec>
    </header>
    <header>
      <identifier>oai:zenodo.org:280843</identifier>
      <datestamp>2017-02-09T04:10:50Z</datestamp>
      <setSpec>user-biosyslit</setSpec>
    </header>
    <header>
      <identifier>oai:zenodo.org:261598</identifier>
      <datestamp>2017-01-28T11:13:07Z</datestamp>
      <setSpec>user-biosyslit</setSpec>
    </header>
    <header>
      <identifier>oai:zenodo.org:280842</identifier>
      <datestamp>2017-02-09T04:10:48Z</datestamp>
      <setSpec>user-biosyslit</setSpec>
    </header>
    <header>
      <identifier>oai:zenodo.org:253777</identifier>
      <datestamp>2017-01-20T11:10:29Z</datestamp>
      <setSpec>user-biosyslit</setSpec>
    </header>
    <header>
      <identifier>oai:zenodo.org:253786</identifier>
      <datestamp>2017-01-20T11:10:15Z</datestamp>
      <setSpec>user-biosyslit</setSpec>
    </header>
    <header>
      <identifier>oai:zenodo.org:253783</identifier>
      <datestamp>2017-01-20T11:10:03Z</datestamp>
      <setSpec>user-biosyslit</setSpec>
    </header>
    <header>
      <identifier>oai:zenodo.org:250368</identifier>
      <datestamp>2017-01-18T09:08:05Z</datestamp>
      <setSpec>user-biosyslit</setSpec>
    </header>
    <header>
      <identifier>oai:zenodo.org:250366</identifier>
      <datestamp>2017-01-18T09:07:53Z</datestamp>
      <setSpec>user-biosyslit</setSpec>
    </header>
    <header>
      <identifier>oai:zenodo.org:253785</identifier>
      <datestamp>2017-01-20T11:10:11Z</datestamp>
      <setSpec>user-biosyslit</setSpec>
    </header>
    <header>
      <identifier>oai:zenodo.org:250365</identifier>
      <datestamp>2017-01-18T09:07:41Z</datestamp>
      <setSpec>user-biosyslit</setSpec>
    </header>
    <header>
      <identifier>oai:zenodo.org:250369</identifier>
      <datestamp>2017-01-18T09:08:11Z</datestamp>
      <setSpec>user-biosyslit</setSpec>
    </header>
    <header>
      <identifier>oai:zenodo.org:250364</identifier>
      <datestamp>2017-01-18T09:07:35Z</datestamp>
      <setSpec>user-biosyslit</setSpec>
    </header>
    <header>
      <identifier>oai:zenodo.org:250363</identifier>
      <datestamp>2017-01-18T09:09:11Z</datestamp>
      <setSpec>user-biosyslit</setSpec>
    </header>
    <header>
      <identifier>oai:zenodo.org:250379</identifier>
      <datestamp>2017-01-18T09:09:06Z</datestamp>
      <setSpec>user-biosyslit</setSpec>
    </header>
    <header>
      <identifier>oai:zenodo.org:250373</identifier>
      <datestamp>2017-01-18T09:08:30Z</datestamp>
      <setSpec>user-biosyslit</setSpec>
    </header>
    <header>
      <identifier>oai:zenodo.org:250375</identifier>
      <datestamp>2017-01-18T09:08:40Z</datestamp>
      <setSpec>user-biosyslit</setSpec>
    </header>
    <header>
      <identifier>oai:zenodo.org:250377</identifier>
      <datestamp>2017-01-18T09:08:54Z</datestamp>
      <setSpec>user-biosyslit</setSpec>
    </header>
    <header>
      <identifier>oai:zenodo.org:250372</identifier>
      <datestamp>2017-01-18T09:08:26Z</datestamp>
      <setSpec>user-biosyslit</setSpec>
    </header>
    <header>
      <identifier>oai:zenodo.org:290104</identifier>
      <datestamp>2017-02-10T01:21:10Z</datestamp>
      <setSpec>user-biosyslit</setSpec>
    </header>
    <header>
      <identifier>oai:zenodo.org:250378</identifier>
      <datestamp>2017-01-18T09:09:02Z</datestamp>
      <setSpec>user-biosyslit</setSpec>
    </header>
    <header>
      <identifier>oai:zenodo.org:250380</identifier>
      <datestamp>2017-01-18T09:09:10Z</datestamp>
      <setSpec>user-biosyslit</setSpec>
    </header>
    <header>
      <identifier>oai:zenodo.org:288245</identifier>
      <datestamp>2017-02-09T20:27:44Z</datestamp>
      <setSpec>user-biosyslit</setSpec>
    </header>
    <header>
      <identifier>oai:zenodo.org:288247</identifier>
      <datestamp>2017-02-09T20:27:50Z</datestamp>
      <setSpec>user-biosyslit</setSpec>
    </header>
    <header>
      <identifier>oai:zenodo.org:288253</identifier>
      <datestamp>2017-02-09T20:28:05Z</datestamp>
      <setSpec>user-biosyslit</setSpec>
    </header>
    <header>
      <identifier>oai:zenodo.org:288262</identifier>
      <datestamp>2017-02-09T20:28:31Z</datestamp>
      <setSpec>user-biosyslit</setSpec>
    </header>
    <header>
      <identifier>oai:zenodo.org:288248</identifier>
      <datestamp>2017-02-09T20:27:52Z</datestamp>
      <setSpec>user-biosyslit</setSpec>
    </header>
    <header>
      <identifier>oai:zenodo.org:288263</identifier>
      <datestamp>2017-02-09T20:28:33Z</datestamp>
      <setSpec>user-biosyslit</setSpec>
    </header>
    <header>
      <identifier>oai:zenodo.org:288249</identifier>
      <datestamp>2017-02-09T20:27:54Z</datestamp>
      <setSpec>user-biosyslit</setSpec>
    </header>
    <header>
      <identifier>oai:zenodo.org:288257</identifier>
      <datestamp>2017-02-09T20:28:16Z</datestamp>
      <setSpec>user-biosyslit</setSpec>
    </header>
    <header>
      <identifier>oai:zenodo.org:288251</identifier>
      <datestamp>2017-02-09T20:28:00Z</datestamp>
      <setSpec>user-biosyslit</setSpec>
    </header>
    <header>
      <identifier>oai:zenodo.org:288265</identifier>
      <datestamp>2017-02-09T20:28:37Z</datestamp>
      <setSpec>user-biosyslit</setSpec>
    </header>
    <header>
      <identifier>oai:zenodo.org:288267</identifier>
      <datestamp>2017-02-09T20:28:42Z</datestamp>
      <setSpec>user-biosyslit</setSpec>
    </header>
    <header>
      <identifier>oai:zenodo.org:288276</identifier>
      <datestamp>2017-02-09T20:29:03Z</datestamp>
      <setSpec>user-biosyslit</setSpec>
    </header>
    <header>
      <identifier>oai:zenodo.org:288268</identifier>
      <datestamp>2017-02-09T20:28:44Z</datestamp>
      <setSpec>user-biosyslit</setSpec>
    </header>
    <header>
      <identifier>oai:zenodo.org:288279</identifier>
      <datestamp>2017-02-09T20:29:11Z</datestamp>
      <setSpec>user-biosyslit</setSpec>
    </header>
    <header>
      <identifier>oai:zenodo.org:288272</identifier>
      <datestamp>2017-02-09T20:28:54Z</datestamp>
      <setSpec>user-biosyslit</setSpec>
    </header>
    <header>
      <identifier>oai:zenodo.org:288274</identifier>
      <datestamp>2017-02-09T20:28:59Z</datestamp>
      <setSpec>user-biosyslit</setSpec>
    </header>
    <header>
      <identifier>oai:zenodo.org:288269</identifier>
      <datestamp>2017-02-09T20:28:47Z</datestamp>
      <setSpec>user-biosyslit</setSpec>
    </header>
    <header>
      <identifier>oai:zenodo.org:288273</identifier>
      <datestamp>2017-02-09T20:28:56Z</datestamp>
      <setSpec>user-biosyslit</setSpec>
    </header>
    <header>
      <identifier>oai:zenodo.org:277122</identifier>
      <datestamp>2017-02-08T20:27:29Z</datestamp>
      <setSpec>user-biosyslit</setSpec>
    </header>
    <header>
      <identifier>oai:zenodo.org:267033</identifier>
      <datestamp>2017-02-01T18:30:39Z</datestamp>
      <setSpec>user-biosyslit</setSpec>
    </header>
    <header>
      <identifier>oai:zenodo.org:239977</identifier>
      <datestamp>2017-01-12T03:06:18Z</datestamp>
      <setSpec>user-biosyslit</setSpec>
    </header>
    <header>
      <identifier>oai:zenodo.org:239976</identifier>
      <datestamp>2017-01-12T03:06:13Z</datestamp>
      <setSpec>user-biosyslit</setSpec>
    </header>
    <header>
      <identifier>oai:zenodo.org:239972</identifier>
      <datestamp>2017-01-12T03:05:56Z</datestamp>
      <setSpec>user-biosyslit</setSpec>
    </header>
    <header>
      <identifier>oai:zenodo.org:267028</identifier>
      <datestamp>2017-02-01T18:30:26Z</datestamp>
      <setSpec>user-biosyslit</setSpec>
    </header>
    <header>
      <identifier>oai:zenodo.org:267024</identifier>
      <datestamp>2017-02-01T18:30:14Z</datestamp>
      <setSpec>user-biosyslit</setSpec>
    </header>
    <header>
      <identifier>oai:zenodo.org:239970</identifier>
      <datestamp>2017-01-12T03:05:48Z</datestamp>
      <setSpec>user-biosyslit</setSpec>
    </header>
    <resumptionToken expirationDate="2017-08-31T15:48:07Z" cursor="72900" completeListSize="77796">.eJyNykELgjAYgOH_8p0lNmfOhC5iSQcVW4p6CZsi5TRxRbrwv-elcx1f3ucNsqpKsNHK2JjUXG-osabUspbSQPLhLsT5unzgaSJ4J-LCS57HNkGZXtPAlaPvZiRQDQpbrNg-0lNsjfEVTdEpfmTqOCbk8GJoR30VTcHtsLiShJ7IL17P4s4RTC-HcBdNDDssJ_zr8J9O_XSu3IIGfVFXYFOCNWhexVBLsN_z_AHy5lGV.DInAvw.bJT0drNonMXiTZlu_IF0n0kN3wI</resumptionToken>
  </ListIdentifiers>
</OAI-PMH>
