<?xml version='1.0' encoding='UTF-8'?>
<?xml-stylesheet type="text/xsl" href="/static/xsl/oai2.v1.0.xsl"?>
<OAI-PMH xmlns="http://www.openarchives.org/OAI/2.0/" xmlns:xsi="http://www.w3.org/2001/XMLSchema-instance" xsi:schemaLocation="http://www.openarchives.org/OAI/2.0/ http://www.openarchives.org/OAI/2.0/OAI-PMH.xsd">
  <responseDate>2017-08-31T15:45:39Z</responseDate>
  <request verb="ListIdentifiers" resumptionToken=".eJyNyj0LgkAYAOD_8s4S9xFeCi1iSYOKXifaEqYi1WniFeqF_z2X5pqf5w2qqkqw0WptWdikjFhrzAhDG2qAKvqHlOfr4lCkiSxaKXIvecVNgjJSs8BVo-9mNNB3FDZY831EUrwZxRVN0VE8Mx2PCT0MHO2Yr6MpuB2WV9LQk6eL13HROpKTsg930cSxw0-0-D7859M_n6u2YECX1xXYpmkZcB_yvlZgv-f5A9j9UYI.DInAow.Rj5oePjXZ1A_cz0C5MgEUsX53yI">https://zenodo.org/oai2d</request>
  <ListIdentifiers>
    <header>
      <identifier>oai:zenodo.org:282642</identifier>
      <datestamp>2017-02-09T07:21:12Z</datestamp>
      <setSpec>user-biosyslit</setSpec>
    </header>
    <header>
      <identifier>oai:zenodo.org:282638</identifier>
      <datestamp>2017-02-09T07:21:04Z</datestamp>
      <setSpec>user-biosyslit</setSpec>
    </header>
    <header>
      <identifier>oai:zenodo.org:282635</identifier>
      <datestamp>2017-02-09T07:20:57Z</datestamp>
      <setSpec>user-biosyslit</setSpec>
    </header>
    <header>
      <identifier>oai:zenodo.org:238717</identifier>
      <datestamp>2017-01-11T10:50:58Z</datestamp>
      <setSpec>user-biosyslit</setSpec>
    </header>
    <header>
      <identifier>oai:zenodo.org:289106</identifier>
      <datestamp>2017-02-09T22:41:35Z</datestamp>
      <setSpec>user-biosyslit</setSpec>
    </header>
    <header>
      <identifier>oai:zenodo.org:240040</identifier>
      <datestamp>2017-01-12T04:04:30Z</datestamp>
      <setSpec>user-biosyslit</setSpec>
    </header>
    <header>
      <identifier>oai:zenodo.org:280634</identifier>
      <datestamp>2017-02-09T03:46:25Z</datestamp>
      <setSpec>user-biosyslit</setSpec>
    </header>
    <header>
      <identifier>oai:zenodo.org:280635</identifier>
      <datestamp>2017-02-09T03:46:28Z</datestamp>
      <setSpec>user-biosyslit</setSpec>
    </header>
    <header>
      <identifier>oai:zenodo.org:280638</identifier>
      <datestamp>2017-02-09T03:46:38Z</datestamp>
      <setSpec>user-biosyslit</setSpec>
    </header>
    <header>
      <identifier>oai:zenodo.org:240046</identifier>
      <datestamp>2017-01-12T04:04:24Z</datestamp>
      <setSpec>user-biosyslit</setSpec>
    </header>
    <header>
      <identifier>oai:zenodo.org:240044</identifier>
      <datestamp>2017-01-12T04:04:15Z</datestamp>
      <setSpec>user-biosyslit</setSpec>
    </header>
    <header>
      <identifier>oai:zenodo.org:240042</identifier>
      <datestamp>2017-01-12T04:04:06Z</datestamp>
      <setSpec>user-biosyslit</setSpec>
    </header>
    <header>
      <identifier>oai:zenodo.org:240043</identifier>
      <datestamp>2017-01-12T04:04:09Z</datestamp>
      <setSpec>user-biosyslit</setSpec>
    </header>
    <header>
      <identifier>oai:zenodo.org:240047</identifier>
      <datestamp>2017-01-12T04:04:29Z</datestamp>
      <setSpec>user-biosyslit</setSpec>
    </header>
    <header>
      <identifier>oai:zenodo.org:249922</identifier>
      <datestamp>2017-01-18T01:57:54Z</datestamp>
      <setSpec>user-biosyslit</setSpec>
    </header>
    <header>
      <identifier>oai:zenodo.org:286112</identifier>
      <datestamp>2017-02-09T15:16:06Z</datestamp>
      <setSpec>user-biosyslit</setSpec>
    </header>
    <header>
      <identifier>oai:zenodo.org:284202</identifier>
      <datestamp>2017-02-09T10:42:21Z</datestamp>
      <setSpec>user-biosyslit</setSpec>
    </header>
    <header>
      <identifier>oai:zenodo.org:286118</identifier>
      <datestamp>2017-02-09T15:16:05Z</datestamp>
      <setSpec>user-biosyslit</setSpec>
    </header>
    <header>
      <identifier>oai:zenodo.org:251832</identifier>
      <datestamp>2017-01-19T05:08:48Z</datestamp>
      <setSpec>user-biosyslit</setSpec>
    </header>
    <header>
      <identifier>oai:zenodo.org:251835</identifier>
      <datestamp>2017-01-19T05:08:58Z</datestamp>
      <setSpec>user-biosyslit</setSpec>
    </header>
    <header>
      <identifier>oai:zenodo.org:251839</identifier>
      <datestamp>2017-01-19T05:09:11Z</datestamp>
      <setSpec>user-biosyslit</setSpec>
    </header>
    <header>
      <identifier>oai:zenodo.org:251838</identifier>
      <datestamp>2017-01-19T05:09:08Z</datestamp>
      <setSpec>user-biosyslit</setSpec>
    </header>
    <header>
      <identifier>oai:zenodo.org:251837</identifier>
      <datestamp>2017-01-19T05:09:04Z</datestamp>
      <setSpec>user-biosyslit</setSpec>
    </header>
    <header>
      <identifier>oai:zenodo.org:251843</identifier>
      <datestamp>2017-01-19T05:09:24Z</datestamp>
      <setSpec>user-biosyslit</setSpec>
    </header>
    <header>
      <identifier>oai:zenodo.org:229696</identifier>
      <datestamp>2017-01-03T20:39:08Z</datestamp>
      <setSpec>user-biosyslit</setSpec>
    </header>
    <header>
      <identifier>oai:zenodo.org:235152</identifier>
      <datestamp>2017-01-09T06:09:13Z</datestamp>
      <setSpec>user-biosyslit</setSpec>
    </header>
    <header>
      <identifier>oai:zenodo.org:235161</identifier>
      <datestamp>2017-01-09T06:09:00Z</datestamp>
      <setSpec>user-biosyslit</setSpec>
    </header>
    <header>
      <identifier>oai:zenodo.org:235164</identifier>
      <datestamp>2017-01-09T06:09:12Z</datestamp>
      <setSpec>user-biosyslit</setSpec>
    </header>
    <header>
      <identifier>oai:zenodo.org:279546</identifier>
      <datestamp>2017-02-09T01:36:37Z</datestamp>
      <setSpec>user-biosyslit</setSpec>
    </header>
    <header>
      <identifier>oai:zenodo.org:279545</identifier>
      <datestamp>2017-02-09T01:36:34Z</datestamp>
      <setSpec>user-biosyslit</setSpec>
    </header>
    <header>
      <identifier>oai:zenodo.org:279548</identifier>
      <datestamp>2017-02-09T01:36:41Z</datestamp>
      <setSpec>user-biosyslit</setSpec>
    </header>
    <header>
      <identifier>oai:zenodo.org:238280</identifier>
      <datestamp>2017-01-11T03:17:53Z</datestamp>
      <setSpec>user-biosyslit</setSpec>
    </header>
    <header>
      <identifier>oai:zenodo.org:238281</identifier>
      <datestamp>2017-01-11T03:17:56Z</datestamp>
      <setSpec>user-biosyslit</setSpec>
    </header>
    <header>
      <identifier>oai:zenodo.org:238279</identifier>
      <datestamp>2017-01-11T03:17:51Z</datestamp>
      <setSpec>user-biosyslit</setSpec>
    </header>
    <header>
      <identifier>oai:zenodo.org:279551</identifier>
      <datestamp>2017-02-09T01:36:48Z</datestamp>
      <setSpec>user-biosyslit</setSpec>
    </header>
    <header>
      <identifier>oai:zenodo.org:279549</identifier>
      <datestamp>2017-02-09T01:36:44Z</datestamp>
      <setSpec>user-biosyslit</setSpec>
    </header>
    <header>
      <identifier>oai:zenodo.org:279554</identifier>
      <datestamp>2017-02-09T01:36:53Z</datestamp>
      <setSpec>user-biosyslit</setSpec>
    </header>
    <header>
      <identifier>oai:zenodo.org:264237</identifier>
      <datestamp>2017-01-30T15:16:13Z</datestamp>
      <setSpec>user-biosyslit</setSpec>
    </header>
    <header>
      <identifier>oai:zenodo.org:264240</identifier>
      <datestamp>2017-01-30T15:16:19Z</datestamp>
      <setSpec>user-biosyslit</setSpec>
    </header>
    <header>
      <identifier>oai:zenodo.org:264233</identifier>
      <datestamp>2017-01-30T15:16:41Z</datestamp>
      <setSpec>user-biosyslit</setSpec>
    </header>
    <header>
      <identifier>oai:zenodo.org:233636</identifier>
      <datestamp>2017-01-08T09:09:11Z</datestamp>
      <setSpec>user-biosyslit</setSpec>
    </header>
    <header>
      <identifier>oai:zenodo.org:264242</identifier>
      <datestamp>2017-01-30T15:16:25Z</datestamp>
      <setSpec>user-biosyslit</setSpec>
    </header>
    <header>
      <identifier>oai:zenodo.org:264248</identifier>
      <datestamp>2017-01-30T15:16:37Z</datestamp>
      <setSpec>user-biosyslit</setSpec>
    </header>
    <header>
      <identifier>oai:zenodo.org:264243</identifier>
      <datestamp>2017-01-30T15:16:27Z</datestamp>
      <setSpec>user-biosyslit</setSpec>
    </header>
    <header>
      <identifier>oai:zenodo.org:264247</identifier>
      <datestamp>2017-01-30T15:16:35Z</datestamp>
      <setSpec>user-biosyslit</setSpec>
    </header>
    <header>
      <identifier>oai:zenodo.org:264249</identifier>
      <datestamp>2017-01-30T15:16:39Z</datestamp>
      <setSpec>user-biosyslit</setSpec>
    </header>
    <header>
      <identifier>oai:zenodo.org:284643</identifier>
      <datestamp>2017-02-09T11:41:35Z</datestamp>
      <setSpec>user-biosyslit</setSpec>
    </header>
    <header>
      <identifier>oai:zenodo.org:284641</identifier>
      <datestamp>2017-02-09T11:41:20Z</datestamp>
      <setSpec>user-biosyslit</setSpec>
    </header>
    <header>
      <identifier>oai:zenodo.org:284642</identifier>
      <datestamp>2017-02-09T11:41:22Z</datestamp>
      <setSpec>user-biosyslit</setSpec>
    </header>
    <header>
      <identifier>oai:zenodo.org:284644</identifier>
      <datestamp>2017-02-09T11:41:38Z</datestamp>
      <setSpec>user-biosyslit</setSpec>
    </header>
    <header>
      <identifier>oai:zenodo.org:284648</identifier>
      <datestamp>2017-02-09T11:41:49Z</datestamp>
      <setSpec>user-biosyslit</setSpec>
    </header>
    <header>
      <identifier>oai:zenodo.org:284645</identifier>
      <datestamp>2017-02-09T11:41:41Z</datestamp>
      <setSpec>user-biosyslit</setSpec>
    </header>
    <header>
      <identifier>oai:zenodo.org:284647</identifier>
      <datestamp>2017-02-09T11:41:45Z</datestamp>
      <setSpec>user-biosyslit</setSpec>
    </header>
    <header>
      <identifier>oai:zenodo.org:284639</identifier>
      <datestamp>2017-02-09T11:42:00Z</datestamp>
      <setSpec>user-biosyslit</setSpec>
    </header>
    <header>
      <identifier>oai:zenodo.org:284649</identifier>
      <datestamp>2017-02-09T11:41:53Z</datestamp>
      <setSpec>user-biosyslit</setSpec>
    </header>
    <header>
      <identifier>oai:zenodo.org:284651</identifier>
      <datestamp>2017-02-09T11:41:58Z</datestamp>
      <setSpec>user-biosyslit</setSpec>
    </header>
    <header>
      <identifier>oai:zenodo.org:275841</identifier>
      <datestamp>2017-02-08T17:13:24Z</datestamp>
      <setSpec>user-biosyslit</setSpec>
    </header>
    <header>
      <identifier>oai:zenodo.org:275856</identifier>
      <datestamp>2017-02-08T17:13:14Z</datestamp>
      <setSpec>user-biosyslit</setSpec>
    </header>
    <header>
      <identifier>oai:zenodo.org:275843</identifier>
      <datestamp>2017-02-08T17:12:43Z</datestamp>
      <setSpec>user-biosyslit</setSpec>
    </header>
    <header>
      <identifier>oai:zenodo.org:275853</identifier>
      <datestamp>2017-02-08T17:13:06Z</datestamp>
      <setSpec>user-biosyslit</setSpec>
    </header>
    <header>
      <identifier>oai:zenodo.org:275844</identifier>
      <datestamp>2017-02-08T17:12:46Z</datestamp>
      <setSpec>user-biosyslit</setSpec>
    </header>
    <header>
      <identifier>oai:zenodo.org:275859</identifier>
      <datestamp>2017-02-08T17:13:19Z</datestamp>
      <setSpec>user-biosyslit</setSpec>
    </header>
    <header>
      <identifier>oai:zenodo.org:238162</identifier>
      <datestamp>2017-01-11T01:48:36Z</datestamp>
      <setSpec>user-biosyslit</setSpec>
    </header>
    <header>
      <identifier>oai:zenodo.org:238163</identifier>
      <datestamp>2017-01-11T01:48:40Z</datestamp>
      <setSpec>user-biosyslit</setSpec>
    </header>
    <header>
      <identifier>oai:zenodo.org:238161</identifier>
      <datestamp>2017-01-11T01:49:02Z</datestamp>
      <setSpec>user-biosyslit</setSpec>
    </header>
    <header>
      <identifier>oai:zenodo.org:289978</identifier>
      <datestamp>2017-02-10T00:59:11Z</datestamp>
      <setSpec>user-biosyslit</setSpec>
    </header>
    <header>
      <identifier>oai:zenodo.org:238166</identifier>
      <datestamp>2017-01-11T01:48:52Z</datestamp>
      <setSpec>user-biosyslit</setSpec>
    </header>
    <header>
      <identifier>oai:zenodo.org:289981</identifier>
      <datestamp>2017-02-10T00:59:20Z</datestamp>
      <setSpec>user-biosyslit</setSpec>
    </header>
    <header>
      <identifier>oai:zenodo.org:289980</identifier>
      <datestamp>2017-02-10T00:59:17Z</datestamp>
      <setSpec>user-biosyslit</setSpec>
    </header>
    <header>
      <identifier>oai:zenodo.org:238169</identifier>
      <datestamp>2017-01-11T01:49:00Z</datestamp>
      <setSpec>user-biosyslit</setSpec>
    </header>
    <header>
      <identifier>oai:zenodo.org:289979</identifier>
      <datestamp>2017-02-10T00:59:13Z</datestamp>
      <setSpec>user-biosyslit</setSpec>
    </header>
    <header>
      <identifier>oai:zenodo.org:289977</identifier>
      <datestamp>2017-02-10T00:59:07Z</datestamp>
      <setSpec>user-biosyslit</setSpec>
    </header>
    <header>
      <identifier>oai:zenodo.org:238168</identifier>
      <datestamp>2017-01-11T01:48:57Z</datestamp>
      <setSpec>user-biosyslit</setSpec>
    </header>
    <header>
      <identifier>oai:zenodo.org:289973</identifier>
      <datestamp>2017-02-10T00:59:30Z</datestamp>
      <setSpec>user-biosyslit</setSpec>
    </header>
    <header>
      <identifier>oai:zenodo.org:233204</identifier>
      <datestamp>2017-01-08T02:08:48Z</datestamp>
      <setSpec>user-biosyslit</setSpec>
    </header>
    <header>
      <identifier>oai:zenodo.org:255289</identifier>
      <datestamp>2017-01-21T10:58:46Z</datestamp>
      <setSpec>user-biosyslit</setSpec>
    </header>
    <header>
      <identifier>oai:zenodo.org:237854</identifier>
      <datestamp>2017-01-10T21:33:01Z</datestamp>
      <setSpec>user-biosyslit</setSpec>
    </header>
    <header>
      <identifier>oai:zenodo.org:255291</identifier>
      <datestamp>2017-01-21T10:58:34Z</datestamp>
      <setSpec>user-biosyslit</setSpec>
    </header>
    <header>
      <identifier>oai:zenodo.org:255293</identifier>
      <datestamp>2017-01-21T10:58:40Z</datestamp>
      <setSpec>user-biosyslit</setSpec>
    </header>
    <header>
      <identifier>oai:zenodo.org:237853</identifier>
      <datestamp>2017-01-10T21:33:09Z</datestamp>
      <setSpec>user-biosyslit</setSpec>
    </header>
    <header>
      <identifier>oai:zenodo.org:236303</identifier>
      <datestamp>2017-01-09T21:52:37Z</datestamp>
      <setSpec>user-biosyslit</setSpec>
    </header>
    <header>
      <identifier>oai:zenodo.org:285180</identifier>
      <datestamp>2017-02-09T12:51:18Z</datestamp>
      <setSpec>user-biosyslit</setSpec>
    </header>
    <header>
      <identifier>oai:zenodo.org:285181</identifier>
      <datestamp>2017-02-09T12:51:21Z</datestamp>
      <setSpec>user-biosyslit</setSpec>
    </header>
    <header>
      <identifier>oai:zenodo.org:285177</identifier>
      <datestamp>2017-02-09T12:51:11Z</datestamp>
      <setSpec>user-biosyslit</setSpec>
    </header>
    <header>
      <identifier>oai:zenodo.org:236302</identifier>
      <datestamp>2017-01-09T21:53:17Z</datestamp>
      <setSpec>user-biosyslit</setSpec>
    </header>
    <header>
      <identifier>oai:zenodo.org:236306</identifier>
      <datestamp>2017-01-09T21:52:48Z</datestamp>
      <setSpec>user-biosyslit</setSpec>
    </header>
    <header>
      <identifier>oai:zenodo.org:236315</identifier>
      <datestamp>2017-01-09T21:53:13Z</datestamp>
      <setSpec>user-biosyslit</setSpec>
    </header>
    <header>
      <identifier>oai:zenodo.org:236313</identifier>
      <datestamp>2017-01-09T21:53:07Z</datestamp>
      <setSpec>user-biosyslit</setSpec>
    </header>
    <header>
      <identifier>oai:zenodo.org:236307</identifier>
      <datestamp>2017-01-09T21:52:51Z</datestamp>
      <setSpec>user-biosyslit</setSpec>
    </header>
    <header>
      <identifier>oai:zenodo.org:398969</identifier>
      <datestamp>2017-03-14T21:11:31Z</datestamp>
      <setSpec>user-biosyslit</setSpec>
    </header>
    <header>
      <identifier>oai:zenodo.org:398968</identifier>
      <datestamp>2017-03-14T21:11:27Z</datestamp>
      <setSpec>user-biosyslit</setSpec>
    </header>
    <header>
      <identifier>oai:zenodo.org:240162</identifier>
      <datestamp>2017-01-12T05:24:26Z</datestamp>
      <setSpec>user-biosyslit</setSpec>
    </header>
    <header>
      <identifier>oai:zenodo.org:240166</identifier>
      <datestamp>2017-01-12T05:24:37Z</datestamp>
      <setSpec>user-biosyslit</setSpec>
    </header>
    <header>
      <identifier>oai:zenodo.org:240170</identifier>
      <datestamp>2017-01-12T05:24:51Z</datestamp>
      <setSpec>user-biosyslit</setSpec>
    </header>
    <header>
      <identifier>oai:zenodo.org:240171</identifier>
      <datestamp>2017-01-12T05:24:54Z</datestamp>
      <setSpec>user-biosyslit</setSpec>
    </header>
    <header>
      <identifier>oai:zenodo.org:240169</identifier>
      <datestamp>2017-01-12T05:24:45Z</datestamp>
      <setSpec>user-biosyslit</setSpec>
    </header>
    <header>
      <identifier>oai:zenodo.org:240167</identifier>
      <datestamp>2017-01-12T05:24:39Z</datestamp>
      <setSpec>user-biosyslit</setSpec>
    </header>
    <header>
      <identifier>oai:zenodo.org:240172</identifier>
      <datestamp>2017-01-12T05:24:57Z</datestamp>
      <setSpec>user-biosyslit</setSpec>
    </header>
    <header>
      <identifier>oai:zenodo.org:398972</identifier>
      <datestamp>2017-03-14T21:11:39Z</datestamp>
      <setSpec>user-biosyslit</setSpec>
    </header>
    <header>
      <identifier>oai:zenodo.org:240165</identifier>
      <datestamp>2017-01-12T05:24:34Z</datestamp>
      <setSpec>user-biosyslit</setSpec>
    </header>
    <resumptionToken expirationDate="2017-08-31T15:47:39Z" cursor="66800" completeListSize="77796">.eJyNysEKgjAYAOB3-c8Sm-aWQhexpIOKLkW9hKlINU1coU5897x0rvP3zSCqqgQTbQjVdUNFW0owMQyiKyCK_sn55bYyFEnMi5ZHuRO_wyZGqVpTzxaja6eaJx_Ib7Bkx0BN8G6MbmgKztErleEYa6eBoQN1ZTB599P6Ss13eHZ1Oha1Fmdq2fuHYGLYYplWfB_-88mfzxZ7UKDL6wpMQpECjyHvawHmvCwfq_lRTw.DInAow.ncoew8fak2ZqTtUyWZ1cMAacrvA</resumptionToken>
  </ListIdentifiers>
</OAI-PMH>
