<?xml version='1.0' encoding='UTF-8'?>
<?xml-stylesheet type="text/xsl" href="/static/xsl/oai2.v1.0.xsl"?>
<OAI-PMH xmlns="http://www.openarchives.org/OAI/2.0/" xmlns:xsi="http://www.w3.org/2001/XMLSchema-instance" xsi:schemaLocation="http://www.openarchives.org/OAI/2.0/ http://www.openarchives.org/OAI/2.0/OAI-PMH.xsd">
  <responseDate>2017-08-31T15:43:11Z</responseDate>
  <request verb="ListIdentifiers" resumptionToken=".eJyNyj0LgkAcgPHv8p8l7qW0hBaxxEFFLyVdwk4R8zTxCvWi755Lc03P8PxeIMuyABOtdmtM9LVhILpBS3QNJB_uQlzqZQM_J4J3Is6d5Bm1CUpJZfi2nDw7pb5qUNBixY4hOePtFNdoDk_xI1XRlFB3ZOhgeCqc_Zu7uIIGjsiuTs_izhKMFENwCGeGLZZR_nX4T6d-OlvuQYM-r0owKSUaNGM-VBLM1_v9AZ3pUTs.DInADw._uRy_ZP5h0US8_wo864VCXvBdrg">https://zenodo.org/oai2d</request>
  <ListIdentifiers>
    <header>
      <identifier>oai:zenodo.org:257557</identifier>
      <datestamp>2017-01-23T09:45:33Z</datestamp>
      <setSpec>user-biosyslit</setSpec>
    </header>
    <header>
      <identifier>oai:zenodo.org:257558</identifier>
      <datestamp>2017-01-23T09:45:36Z</datestamp>
      <setSpec>user-biosyslit</setSpec>
    </header>
    <header>
      <identifier>oai:zenodo.org:257552</identifier>
      <datestamp>2017-01-23T09:45:16Z</datestamp>
      <setSpec>user-biosyslit</setSpec>
    </header>
    <header>
      <identifier>oai:zenodo.org:257550</identifier>
      <datestamp>2017-01-23T09:45:12Z</datestamp>
      <setSpec>user-biosyslit</setSpec>
    </header>
    <header>
      <identifier>oai:zenodo.org:257556</identifier>
      <datestamp>2017-01-23T09:45:29Z</datestamp>
      <setSpec>user-biosyslit</setSpec>
    </header>
    <header>
      <identifier>oai:zenodo.org:251717</identifier>
      <datestamp>2017-01-19T04:04:48Z</datestamp>
      <setSpec>user-biosyslit</setSpec>
    </header>
    <header>
      <identifier>oai:zenodo.org:251723</identifier>
      <datestamp>2017-01-19T04:05:07Z</datestamp>
      <setSpec>user-biosyslit</setSpec>
    </header>
    <header>
      <identifier>oai:zenodo.org:251721</identifier>
      <datestamp>2017-01-19T04:05:01Z</datestamp>
      <setSpec>user-biosyslit</setSpec>
    </header>
    <header>
      <identifier>oai:zenodo.org:251718</identifier>
      <datestamp>2017-01-19T04:04:52Z</datestamp>
      <setSpec>user-biosyslit</setSpec>
    </header>
    <header>
      <identifier>oai:zenodo.org:251720</identifier>
      <datestamp>2017-01-19T04:04:58Z</datestamp>
      <setSpec>user-biosyslit</setSpec>
    </header>
    <header>
      <identifier>oai:zenodo.org:227803</identifier>
      <datestamp>2017-01-02T05:05:48Z</datestamp>
      <setSpec>user-biosyslit</setSpec>
    </header>
    <header>
      <identifier>oai:zenodo.org:227794</identifier>
      <datestamp>2017-01-02T05:05:07Z</datestamp>
      <setSpec>user-biosyslit</setSpec>
    </header>
    <header>
      <identifier>oai:zenodo.org:227801</identifier>
      <datestamp>2017-01-02T05:05:42Z</datestamp>
      <setSpec>user-biosyslit</setSpec>
    </header>
    <header>
      <identifier>oai:zenodo.org:227802</identifier>
      <datestamp>2017-01-02T05:05:45Z</datestamp>
      <setSpec>user-biosyslit</setSpec>
    </header>
    <header>
      <identifier>oai:zenodo.org:227798</identifier>
      <datestamp>2017-01-02T05:05:29Z</datestamp>
      <setSpec>user-biosyslit</setSpec>
    </header>
    <header>
      <identifier>oai:zenodo.org:227796</identifier>
      <datestamp>2017-01-02T05:05:13Z</datestamp>
      <setSpec>user-biosyslit</setSpec>
    </header>
    <header>
      <identifier>oai:zenodo.org:227804</identifier>
      <datestamp>2017-01-02T05:05:50Z</datestamp>
      <setSpec>user-biosyslit</setSpec>
    </header>
    <header>
      <identifier>oai:zenodo.org:227792</identifier>
      <datestamp>2017-01-02T05:05:01Z</datestamp>
      <setSpec>user-biosyslit</setSpec>
    </header>
    <header>
      <identifier>oai:zenodo.org:245578</identifier>
      <datestamp>2017-01-15T15:45:57Z</datestamp>
      <setSpec>user-biosyslit</setSpec>
    </header>
    <header>
      <identifier>oai:zenodo.org:249267</identifier>
      <datestamp>2017-01-17T18:11:12Z</datestamp>
      <setSpec>user-biosyslit</setSpec>
    </header>
    <header>
      <identifier>oai:zenodo.org:249271</identifier>
      <datestamp>2017-01-17T18:11:30Z</datestamp>
      <setSpec>user-biosyslit</setSpec>
    </header>
    <header>
      <identifier>oai:zenodo.org:245586</identifier>
      <datestamp>2017-01-15T15:45:56Z</datestamp>
      <setSpec>user-biosyslit</setSpec>
    </header>
    <header>
      <identifier>oai:zenodo.org:285150</identifier>
      <datestamp>2017-02-09T12:44:49Z</datestamp>
      <setSpec>user-biosyslit</setSpec>
    </header>
    <header>
      <identifier>oai:zenodo.org:285151</identifier>
      <datestamp>2017-02-09T12:44:51Z</datestamp>
      <setSpec>user-biosyslit</setSpec>
    </header>
    <header>
      <identifier>oai:zenodo.org:818391</identifier>
      <datestamp>2017-06-26T10:44:22Z</datestamp>
      <setSpec>user-biosyslit</setSpec>
    </header>
    <header>
      <identifier>oai:zenodo.org:818401</identifier>
      <datestamp>2017-06-26T10:49:10Z</datestamp>
      <setSpec>user-biosyslit</setSpec>
    </header>
    <header>
      <identifier>oai:zenodo.org:818373</identifier>
      <datestamp>2017-06-26T10:43:35Z</datestamp>
      <setSpec>user-biosyslit</setSpec>
    </header>
    <header>
      <identifier>oai:zenodo.org:818407</identifier>
      <datestamp>2017-06-26T10:49:20Z</datestamp>
      <setSpec>user-biosyslit</setSpec>
    </header>
    <header>
      <identifier>oai:zenodo.org:818403</identifier>
      <datestamp>2017-06-26T10:49:13Z</datestamp>
      <setSpec>user-biosyslit</setSpec>
    </header>
    <header>
      <identifier>oai:zenodo.org:818381</identifier>
      <datestamp>2017-06-26T10:43:57Z</datestamp>
      <setSpec>user-biosyslit</setSpec>
    </header>
    <header>
      <identifier>oai:zenodo.org:818415</identifier>
      <datestamp>2017-06-26T10:49:35Z</datestamp>
      <setSpec>user-biosyslit</setSpec>
    </header>
    <header>
      <identifier>oai:zenodo.org:818429</identifier>
      <datestamp>2017-06-26T10:53:49Z</datestamp>
      <setSpec>user-biosyslit</setSpec>
    </header>
    <header>
      <identifier>oai:zenodo.org:818565</identifier>
      <datestamp>2017-06-26T11:35:38Z</datestamp>
      <setSpec>user-biosyslit</setSpec>
    </header>
    <header>
      <identifier>oai:zenodo.org:818555</identifier>
      <datestamp>2017-06-26T11:35:16Z</datestamp>
      <setSpec>user-biosyslit</setSpec>
    </header>
    <header>
      <identifier>oai:zenodo.org:818588</identifier>
      <datestamp>2017-06-26T11:43:53Z</datestamp>
      <setSpec>user-biosyslit</setSpec>
    </header>
    <header>
      <identifier>oai:zenodo.org:818567</identifier>
      <datestamp>2017-06-26T11:35:42Z</datestamp>
      <setSpec>user-biosyslit</setSpec>
    </header>
    <header>
      <identifier>oai:zenodo.org:818569</identifier>
      <datestamp>2017-06-26T11:35:45Z</datestamp>
      <setSpec>user-biosyslit</setSpec>
    </header>
    <header>
      <identifier>oai:zenodo.org:818580</identifier>
      <datestamp>2017-06-26T11:43:40Z</datestamp>
      <setSpec>user-biosyslit</setSpec>
    </header>
    <header>
      <identifier>oai:zenodo.org:818682</identifier>
      <datestamp>2017-06-26T12:31:26Z</datestamp>
      <setSpec>user-biosyslit</setSpec>
    </header>
    <header>
      <identifier>oai:zenodo.org:818672</identifier>
      <datestamp>2017-06-26T12:31:10Z</datestamp>
      <setSpec>user-biosyslit</setSpec>
    </header>
    <header>
      <identifier>oai:zenodo.org:818676</identifier>
      <datestamp>2017-06-26T12:31:16Z</datestamp>
      <setSpec>user-biosyslit</setSpec>
    </header>
    <header>
      <identifier>oai:zenodo.org:818694</identifier>
      <datestamp>2017-06-26T12:37:29Z</datestamp>
      <setSpec>user-biosyslit</setSpec>
    </header>
    <header>
      <identifier>oai:zenodo.org:285529</identifier>
      <datestamp>2017-02-09T13:47:54Z</datestamp>
      <setSpec>user-biosyslit</setSpec>
    </header>
    <header>
      <identifier>oai:zenodo.org:243368</identifier>
      <datestamp>2017-01-14T03:21:39Z</datestamp>
      <setSpec>user-biosyslit</setSpec>
    </header>
    <header>
      <identifier>oai:zenodo.org:243493</identifier>
      <datestamp>2017-01-14T06:30:42Z</datestamp>
      <setSpec>user-biosyslit</setSpec>
    </header>
    <header>
      <identifier>oai:zenodo.org:243492</identifier>
      <datestamp>2017-01-14T06:30:38Z</datestamp>
      <setSpec>user-biosyslit</setSpec>
    </header>
    <header>
      <identifier>oai:zenodo.org:243360</identifier>
      <datestamp>2017-01-14T03:19:53Z</datestamp>
      <setSpec>user-biosyslit</setSpec>
    </header>
    <header>
      <identifier>oai:zenodo.org:243491</identifier>
      <datestamp>2017-01-14T06:30:34Z</datestamp>
      <setSpec>user-biosyslit</setSpec>
    </header>
    <header>
      <identifier>oai:zenodo.org:245512</identifier>
      <datestamp>2017-01-15T14:37:16Z</datestamp>
      <setSpec>user-biosyslit</setSpec>
    </header>
    <header>
      <identifier>oai:zenodo.org:282872</identifier>
      <datestamp>2017-02-09T07:47:09Z</datestamp>
      <setSpec>user-biosyslit</setSpec>
    </header>
    <header>
      <identifier>oai:zenodo.org:282885</identifier>
      <datestamp>2017-02-09T07:46:56Z</datestamp>
      <setSpec>user-biosyslit</setSpec>
    </header>
    <header>
      <identifier>oai:zenodo.org:282888</identifier>
      <datestamp>2017-02-09T07:47:04Z</datestamp>
      <setSpec>user-biosyslit</setSpec>
    </header>
    <header>
      <identifier>oai:zenodo.org:282879</identifier>
      <datestamp>2017-02-09T07:46:42Z</datestamp>
      <setSpec>user-biosyslit</setSpec>
    </header>
    <header>
      <identifier>oai:zenodo.org:282880</identifier>
      <datestamp>2017-02-09T07:46:45Z</datestamp>
      <setSpec>user-biosyslit</setSpec>
    </header>
    <header>
      <identifier>oai:zenodo.org:282884</identifier>
      <datestamp>2017-02-09T07:46:53Z</datestamp>
      <setSpec>user-biosyslit</setSpec>
    </header>
    <header>
      <identifier>oai:zenodo.org:282890</identifier>
      <datestamp>2017-02-09T07:47:08Z</datestamp>
      <setSpec>user-biosyslit</setSpec>
    </header>
    <header>
      <identifier>oai:zenodo.org:283866</identifier>
      <datestamp>2017-02-09T09:57:54Z</datestamp>
      <setSpec>user-biosyslit</setSpec>
    </header>
    <header>
      <identifier>oai:zenodo.org:283867</identifier>
      <datestamp>2017-02-09T09:57:51Z</datestamp>
      <setSpec>user-biosyslit</setSpec>
    </header>
    <header>
      <identifier>oai:zenodo.org:247935</identifier>
      <datestamp>2017-01-16T21:43:34Z</datestamp>
      <setSpec>user-biosyslit</setSpec>
    </header>
    <header>
      <identifier>oai:zenodo.org:247940</identifier>
      <datestamp>2017-01-16T21:43:51Z</datestamp>
      <setSpec>user-biosyslit</setSpec>
    </header>
    <header>
      <identifier>oai:zenodo.org:247932</identifier>
      <datestamp>2017-01-16T21:43:23Z</datestamp>
      <setSpec>user-biosyslit</setSpec>
    </header>
    <header>
      <identifier>oai:zenodo.org:247937</identifier>
      <datestamp>2017-01-16T21:43:40Z</datestamp>
      <setSpec>user-biosyslit</setSpec>
    </header>
    <header>
      <identifier>oai:zenodo.org:247931</identifier>
      <datestamp>2017-01-16T21:43:20Z</datestamp>
      <setSpec>user-biosyslit</setSpec>
    </header>
    <header>
      <identifier>oai:zenodo.org:247939</identifier>
      <datestamp>2017-01-16T21:43:47Z</datestamp>
      <setSpec>user-biosyslit</setSpec>
    </header>
    <header>
      <identifier>oai:zenodo.org:283868</identifier>
      <datestamp>2017-02-09T09:57:53Z</datestamp>
      <setSpec>user-biosyslit</setSpec>
    </header>
    <header>
      <identifier>oai:zenodo.org:244450</identifier>
      <datestamp>2017-01-14T22:17:27Z</datestamp>
      <setSpec>user-biosyslit</setSpec>
    </header>
    <header>
      <identifier>oai:zenodo.org:244452</identifier>
      <datestamp>2017-01-14T22:17:15Z</datestamp>
      <setSpec>user-biosyslit</setSpec>
    </header>
    <header>
      <identifier>oai:zenodo.org:230298</identifier>
      <datestamp>2017-01-04T22:28:03Z</datestamp>
      <setSpec>user-biosyslit</setSpec>
    </header>
    <header>
      <identifier>oai:zenodo.org:276670</identifier>
      <datestamp>2017-02-08T19:26:19Z</datestamp>
      <setSpec>user-biosyslit</setSpec>
    </header>
    <header>
      <identifier>oai:zenodo.org:230296</identifier>
      <datestamp>2017-01-04T22:27:50Z</datestamp>
      <setSpec>user-biosyslit</setSpec>
    </header>
    <header>
      <identifier>oai:zenodo.org:241571</identifier>
      <datestamp>2017-01-13T03:26:22Z</datestamp>
      <setSpec>user-biosyslit</setSpec>
    </header>
    <header>
      <identifier>oai:zenodo.org:239986</identifier>
      <datestamp>2017-01-12T03:15:11Z</datestamp>
      <setSpec>user-biosyslit</setSpec>
    </header>
    <header>
      <identifier>oai:zenodo.org:239988</identifier>
      <datestamp>2017-01-12T03:15:19Z</datestamp>
      <setSpec>user-biosyslit</setSpec>
    </header>
    <header>
      <identifier>oai:zenodo.org:247744</identifier>
      <datestamp>2017-01-16T19:14:53Z</datestamp>
      <setSpec>user-biosyslit</setSpec>
    </header>
    <header>
      <identifier>oai:zenodo.org:247746</identifier>
      <datestamp>2017-01-16T19:15:01Z</datestamp>
      <setSpec>user-biosyslit</setSpec>
    </header>
    <header>
      <identifier>oai:zenodo.org:247743</identifier>
      <datestamp>2017-01-16T19:14:48Z</datestamp>
      <setSpec>user-biosyslit</setSpec>
    </header>
    <header>
      <identifier>oai:zenodo.org:227004</identifier>
      <datestamp>2017-01-01T08:00:41Z</datestamp>
      <setSpec>user-biosyslit</setSpec>
    </header>
    <header>
      <identifier>oai:zenodo.org:227009</identifier>
      <datestamp>2017-01-01T08:00:39Z</datestamp>
      <setSpec>user-biosyslit</setSpec>
    </header>
    <header>
      <identifier>oai:zenodo.org:227007</identifier>
      <datestamp>2017-01-01T08:00:30Z</datestamp>
      <setSpec>user-biosyslit</setSpec>
    </header>
    <header>
      <identifier>oai:zenodo.org:258721</identifier>
      <datestamp>2017-01-24T03:38:51Z</datestamp>
      <setSpec>user-biosyslit</setSpec>
    </header>
    <header>
      <identifier>oai:zenodo.org:227173</identifier>
      <datestamp>2017-01-01T17:51:32Z</datestamp>
      <setSpec>user-biosyslit</setSpec>
    </header>
    <header>
      <identifier>oai:zenodo.org:258723</identifier>
      <datestamp>2017-01-24T03:38:50Z</datestamp>
      <setSpec>user-biosyslit</setSpec>
    </header>
    <header>
      <identifier>oai:zenodo.org:227175</identifier>
      <datestamp>2017-01-01T17:51:40Z</datestamp>
      <setSpec>user-biosyslit</setSpec>
    </header>
    <header>
      <identifier>oai:zenodo.org:227174</identifier>
      <datestamp>2017-01-01T17:51:35Z</datestamp>
      <setSpec>user-biosyslit</setSpec>
    </header>
    <header>
      <identifier>oai:zenodo.org:288144</identifier>
      <datestamp>2017-02-09T20:07:13Z</datestamp>
      <setSpec>user-biosyslit</setSpec>
    </header>
    <header>
      <identifier>oai:zenodo.org:288146</identifier>
      <datestamp>2017-02-09T20:07:06Z</datestamp>
      <setSpec>user-biosyslit</setSpec>
    </header>
    <header>
      <identifier>oai:zenodo.org:288147</identifier>
      <datestamp>2017-02-09T20:07:08Z</datestamp>
      <setSpec>user-biosyslit</setSpec>
    </header>
    <header>
      <identifier>oai:zenodo.org:245607</identifier>
      <datestamp>2017-01-15T16:14:07Z</datestamp>
      <setSpec>user-biosyslit</setSpec>
    </header>
    <header>
      <identifier>oai:zenodo.org:241233</identifier>
      <datestamp>2017-01-12T22:35:31Z</datestamp>
      <setSpec>user-biosyslit</setSpec>
    </header>
    <header>
      <identifier>oai:zenodo.org:241232</identifier>
      <datestamp>2017-01-12T22:35:27Z</datestamp>
      <setSpec>user-biosyslit</setSpec>
    </header>
    <header>
      <identifier>oai:zenodo.org:241237</identifier>
      <datestamp>2017-01-12T22:35:47Z</datestamp>
      <setSpec>user-biosyslit</setSpec>
    </header>
    <header>
      <identifier>oai:zenodo.org:245609</identifier>
      <datestamp>2017-01-15T16:14:13Z</datestamp>
      <setSpec>user-biosyslit</setSpec>
    </header>
    <header>
      <identifier>oai:zenodo.org:255141</identifier>
      <datestamp>2017-01-21T08:24:42Z</datestamp>
      <setSpec>user-biosyslit</setSpec>
    </header>
    <header>
      <identifier>oai:zenodo.org:255148</identifier>
      <datestamp>2017-01-21T08:25:00Z</datestamp>
      <setSpec>user-biosyslit</setSpec>
    </header>
    <header>
      <identifier>oai:zenodo.org:255149</identifier>
      <datestamp>2017-01-21T08:25:02Z</datestamp>
      <setSpec>user-biosyslit</setSpec>
    </header>
    <header>
      <identifier>oai:zenodo.org:255144</identifier>
      <datestamp>2017-01-21T08:24:50Z</datestamp>
      <setSpec>user-biosyslit</setSpec>
    </header>
    <header>
      <identifier>oai:zenodo.org:255146</identifier>
      <datestamp>2017-01-21T08:24:55Z</datestamp>
      <setSpec>user-biosyslit</setSpec>
    </header>
    <header>
      <identifier>oai:zenodo.org:255145</identifier>
      <datestamp>2017-01-21T08:24:52Z</datestamp>
      <setSpec>user-biosyslit</setSpec>
    </header>
    <header>
      <identifier>oai:zenodo.org:279028</identifier>
      <datestamp>2017-02-09T00:27:05Z</datestamp>
      <setSpec>user-biosyslit</setSpec>
    </header>
    <header>
      <identifier>oai:zenodo.org:241842</identifier>
      <datestamp>2017-01-13T06:53:12Z</datestamp>
      <setSpec>user-biosyslit</setSpec>
    </header>
    <resumptionToken expirationDate="2017-08-31T15:45:11Z" cursor="33100" completeListSize="77796">.eJyNysEOQzAYAOB3-c-ylAqdZJeFiQNSHRmXxRAxZaJb0MW7z2Xn7fx9bxBVVYKFdgbRTEMnxND3iBC0V0AU44Pza7MxFJeEFz2Pczd5RV2CUq02A1vMvp3iQLYo7FTJTlS7qGSOG7TQc_xMZTQn2JsYckxf0iW4e9srcejy7OYOLO6PnGnlGDp0YeqRZbj4PvXPJ38-WxxAgSGvK7Awxgq0Uz7WAqz3un4AsVtRUQ.DInADw.wBm0dRbYteHR4Jwm_-PoXk79yTs</resumptionToken>
  </ListIdentifiers>
</OAI-PMH>
