<?xml version='1.0' encoding='UTF-8'?>
<?xml-stylesheet type="text/xsl" href="/static/xsl/oai2.v1.0.xsl"?>
<OAI-PMH xmlns="http://www.openarchives.org/OAI/2.0/" xmlns:xsi="http://www.w3.org/2001/XMLSchema-instance" xsi:schemaLocation="http://www.openarchives.org/OAI/2.0/ http://www.openarchives.org/OAI/2.0/OAI-PMH.xsd">
  <responseDate>2017-08-31T14:29:12Z</responseDate>
  <request verb="ListIdentifiers" resumptionToken=".eJwVj0FrgzAYQP9LzmUk0RL1VqmTjn2K1cTqZbjotDM6pw41pf997fnBe7wbmqqqRA5-YSa1LBub9p7tbWrs0CTHH6U-rg-K5EUo2Ste-OLv3Amc0ZoFx2mFY0aChOuwIzp-jeiFWCu_4i1K-Jzp8yqM0xJjj4GOFtA1DbvSCH2Vf_pDzHtXxbQcQy_aYuLGuSEZJAf68BH4HmaJGx4o-wvEaYbWI-8pYCnKDbzZDTVgOIIZJENf6mZI0_WXq7cl53Nf6MaDdo74s6UPDO3QUNQVcp5T7VKM9YSc2_3-D0eDUeQ.DImugw.V92eQB2Q_YN5Xgq3QPEGq7lHodw">https://zenodo.org/oai2d</request>
  <ListIdentifiers>
    <header>
      <identifier>oai:zenodo.org:278110</identifier>
      <datestamp>2017-02-08T22:27:33Z</datestamp>
      <setSpec>user-biosyslit</setSpec>
    </header>
    <header>
      <identifier>oai:zenodo.org:277185</identifier>
      <datestamp>2017-02-08T20:34:08Z</datestamp>
      <setSpec>user-biosyslit</setSpec>
    </header>
    <header>
      <identifier>oai:zenodo.org:277008</identifier>
      <datestamp>2017-02-08T20:10:21Z</datestamp>
      <setSpec>user-biosyslit</setSpec>
    </header>
    <header>
      <identifier>oai:zenodo.org:278152</identifier>
      <datestamp>2017-02-08T22:32:35Z</datestamp>
      <setSpec>user-biosyslit</setSpec>
    </header>
    <header>
      <identifier>oai:zenodo.org:278158</identifier>
      <datestamp>2017-02-08T22:34:40Z</datestamp>
      <setSpec>user-biosyslit</setSpec>
    </header>
    <header>
      <identifier>oai:zenodo.org:276794</identifier>
      <datestamp>2017-02-08T19:40:43Z</datestamp>
      <setSpec>user-biosyslit</setSpec>
    </header>
    <header>
      <identifier>oai:zenodo.org:278024</identifier>
      <datestamp>2017-02-08T22:18:03Z</datestamp>
      <setSpec>user-biosyslit</setSpec>
    </header>
    <header>
      <identifier>oai:zenodo.org:278255</identifier>
      <datestamp>2017-02-08T22:44:16Z</datestamp>
      <setSpec>user-biosyslit</setSpec>
    </header>
    <header>
      <identifier>oai:zenodo.org:279104</identifier>
      <datestamp>2017-02-09T00:36:52Z</datestamp>
      <setSpec>user-biosyslit</setSpec>
    </header>
    <header>
      <identifier>oai:zenodo.org:278597</identifier>
      <datestamp>2017-02-08T23:29:29Z</datestamp>
      <setSpec>user-biosyslit</setSpec>
    </header>
    <header>
      <identifier>oai:zenodo.org:279406</identifier>
      <datestamp>2017-02-09T01:14:48Z</datestamp>
      <setSpec>user-biosyslit</setSpec>
    </header>
    <header>
      <identifier>oai:zenodo.org:279102</identifier>
      <datestamp>2017-02-09T00:36:48Z</datestamp>
      <setSpec>user-biosyslit</setSpec>
    </header>
    <header>
      <identifier>oai:zenodo.org:278548</identifier>
      <datestamp>2017-02-08T23:22:40Z</datestamp>
      <setSpec>user-biosyslit</setSpec>
    </header>
    <header>
      <identifier>oai:zenodo.org:279672</identifier>
      <datestamp>2017-02-09T01:47:52Z</datestamp>
      <setSpec>user-biosyslit</setSpec>
    </header>
    <header>
      <identifier>oai:zenodo.org:280564</identifier>
      <datestamp>2017-02-09T03:38:28Z</datestamp>
      <setSpec>user-biosyslit</setSpec>
    </header>
    <header>
      <identifier>oai:zenodo.org:280367</identifier>
      <datestamp>2017-02-09T03:16:08Z</datestamp>
      <setSpec>user-biosyslit</setSpec>
    </header>
    <header>
      <identifier>oai:zenodo.org:280827</identifier>
      <datestamp>2017-02-09T04:09:44Z</datestamp>
      <setSpec>user-biosyslit</setSpec>
    </header>
    <header>
      <identifier>oai:zenodo.org:280966</identifier>
      <datestamp>2017-02-09T04:29:14Z</datestamp>
      <setSpec>user-biosyslit</setSpec>
    </header>
    <header>
      <identifier>oai:zenodo.org:281860</identifier>
      <datestamp>2017-02-09T06:03:08Z</datestamp>
      <setSpec>user-biosyslit</setSpec>
    </header>
    <header>
      <identifier>oai:zenodo.org:281849</identifier>
      <datestamp>2017-02-09T06:01:18Z</datestamp>
      <setSpec>user-biosyslit</setSpec>
    </header>
    <header>
      <identifier>oai:zenodo.org:282757</identifier>
      <datestamp>2017-02-09T07:34:38Z</datestamp>
      <setSpec>user-biosyslit</setSpec>
    </header>
    <header>
      <identifier>oai:zenodo.org:282518</identifier>
      <datestamp>2017-02-09T07:10:39Z</datestamp>
      <setSpec>user-biosyslit</setSpec>
    </header>
    <header>
      <identifier>oai:zenodo.org:283417</identifier>
      <datestamp>2017-02-09T08:51:22Z</datestamp>
      <setSpec>user-biosyslit</setSpec>
    </header>
    <header>
      <identifier>oai:zenodo.org:283345</identifier>
      <datestamp>2017-02-09T08:37:20Z</datestamp>
      <setSpec>user-biosyslit</setSpec>
    </header>
    <header>
      <identifier>oai:zenodo.org:283555</identifier>
      <datestamp>2017-02-09T09:11:00Z</datestamp>
      <setSpec>user-biosyslit</setSpec>
    </header>
    <header>
      <identifier>oai:zenodo.org:284176</identifier>
      <datestamp>2017-02-09T10:37:46Z</datestamp>
      <setSpec>user-biosyslit</setSpec>
    </header>
    <header>
      <identifier>oai:zenodo.org:284255</identifier>
      <datestamp>2017-02-09T10:46:24Z</datestamp>
      <setSpec>user-biosyslit</setSpec>
    </header>
    <header>
      <identifier>oai:zenodo.org:284562</identifier>
      <datestamp>2017-02-09T11:32:17Z</datestamp>
      <setSpec>user-biosyslit</setSpec>
    </header>
    <header>
      <identifier>oai:zenodo.org:284381</identifier>
      <datestamp>2017-02-09T11:06:58Z</datestamp>
      <setSpec>user-biosyslit</setSpec>
    </header>
    <header>
      <identifier>oai:zenodo.org:284190</identifier>
      <datestamp>2017-02-09T10:38:18Z</datestamp>
      <setSpec>user-biosyslit</setSpec>
    </header>
    <header>
      <identifier>oai:zenodo.org:285689</identifier>
      <datestamp>2017-02-09T14:06:52Z</datestamp>
      <setSpec>user-biosyslit</setSpec>
    </header>
    <header>
      <identifier>oai:zenodo.org:285155</identifier>
      <datestamp>2017-02-09T12:47:21Z</datestamp>
      <setSpec>user-biosyslit</setSpec>
    </header>
    <header>
      <identifier>oai:zenodo.org:285510</identifier>
      <datestamp>2017-02-09T13:44:56Z</datestamp>
      <setSpec>user-biosyslit</setSpec>
    </header>
    <header>
      <identifier>oai:zenodo.org:286037</identifier>
      <datestamp>2017-02-09T15:06:28Z</datestamp>
      <setSpec>user-biosyslit</setSpec>
    </header>
    <header>
      <identifier>oai:zenodo.org:286062</identifier>
      <datestamp>2017-02-09T15:09:16Z</datestamp>
      <setSpec>user-biosyslit</setSpec>
    </header>
    <header>
      <identifier>oai:zenodo.org:286923</identifier>
      <datestamp>2017-02-09T17:05:13Z</datestamp>
      <setSpec>user-biosyslit</setSpec>
    </header>
    <header>
      <identifier>oai:zenodo.org:286359</identifier>
      <datestamp>2017-02-09T15:49:56Z</datestamp>
      <setSpec>user-biosyslit</setSpec>
    </header>
    <header>
      <identifier>oai:zenodo.org:286017</identifier>
      <datestamp>2017-02-09T15:04:11Z</datestamp>
      <setSpec>user-biosyslit</setSpec>
    </header>
    <header>
      <identifier>oai:zenodo.org:285691</identifier>
      <datestamp>2017-02-09T14:06:56Z</datestamp>
      <setSpec>user-biosyslit</setSpec>
    </header>
    <header>
      <identifier>oai:zenodo.org:286277</identifier>
      <datestamp>2017-02-09T15:42:33Z</datestamp>
      <setSpec>user-biosyslit</setSpec>
    </header>
    <header>
      <identifier>oai:zenodo.org:287304</identifier>
      <datestamp>2017-02-09T18:00:29Z</datestamp>
      <setSpec>user-biosyslit</setSpec>
    </header>
    <header>
      <identifier>oai:zenodo.org:286657</identifier>
      <datestamp>2017-02-09T16:31:41Z</datestamp>
      <setSpec>user-biosyslit</setSpec>
    </header>
    <header>
      <identifier>oai:zenodo.org:286573</identifier>
      <datestamp>2017-02-09T16:23:16Z</datestamp>
      <setSpec>user-biosyslit</setSpec>
    </header>
    <header>
      <identifier>oai:zenodo.org:287686</identifier>
      <datestamp>2017-02-09T18:58:39Z</datestamp>
      <setSpec>user-biosyslit</setSpec>
    </header>
    <header>
      <identifier>oai:zenodo.org:286412</identifier>
      <datestamp>2017-02-09T15:57:18Z</datestamp>
      <setSpec>user-biosyslit</setSpec>
    </header>
    <header>
      <identifier>oai:zenodo.org:287386</identifier>
      <datestamp>2017-02-09T18:12:36Z</datestamp>
      <setSpec>user-biosyslit</setSpec>
    </header>
    <header>
      <identifier>oai:zenodo.org:287237</identifier>
      <datestamp>2017-02-09T17:53:13Z</datestamp>
      <setSpec>user-biosyslit</setSpec>
    </header>
    <header>
      <identifier>oai:zenodo.org:287365</identifier>
      <datestamp>2017-02-09T18:09:59Z</datestamp>
      <setSpec>user-biosyslit</setSpec>
    </header>
    <header>
      <identifier>oai:zenodo.org:286936</identifier>
      <datestamp>2017-02-09T17:05:53Z</datestamp>
      <setSpec>user-biosyslit</setSpec>
    </header>
    <header>
      <identifier>oai:zenodo.org:287766</identifier>
      <datestamp>2017-02-09T19:14:21Z</datestamp>
      <setSpec>user-biosyslit</setSpec>
    </header>
    <header>
      <identifier>oai:zenodo.org:288303</identifier>
      <datestamp>2017-02-09T20:33:08Z</datestamp>
      <setSpec>user-biosyslit</setSpec>
    </header>
    <header>
      <identifier>oai:zenodo.org:287995</identifier>
      <datestamp>2017-02-09T19:44:06Z</datestamp>
      <setSpec>user-biosyslit</setSpec>
    </header>
    <header>
      <identifier>oai:zenodo.org:288211</identifier>
      <datestamp>2017-02-09T20:21:03Z</datestamp>
      <setSpec>user-biosyslit</setSpec>
    </header>
    <header>
      <identifier>oai:zenodo.org:289287</identifier>
      <datestamp>2017-02-09T23:09:42Z</datestamp>
      <setSpec>user-biosyslit</setSpec>
    </header>
    <header>
      <identifier>oai:zenodo.org:289301</identifier>
      <datestamp>2017-02-09T23:11:12Z</datestamp>
      <setSpec>user-biosyslit</setSpec>
    </header>
    <header>
      <identifier>oai:zenodo.org:289800</identifier>
      <datestamp>2017-02-10T00:31:09Z</datestamp>
      <setSpec>user-biosyslit</setSpec>
    </header>
    <header>
      <identifier>oai:zenodo.org:289426</identifier>
      <datestamp>2017-02-09T23:30:03Z</datestamp>
      <setSpec>user-biosyslit</setSpec>
    </header>
    <header>
      <identifier>oai:zenodo.org:289005</identifier>
      <datestamp>2017-02-09T22:22:48Z</datestamp>
      <setSpec>user-biosyslit</setSpec>
    </header>
    <header>
      <identifier>oai:zenodo.org:290011</identifier>
      <datestamp>2017-02-10T01:05:21Z</datestamp>
      <setSpec>user-biosyslit</setSpec>
    </header>
    <header>
      <identifier>oai:zenodo.org:289720</identifier>
      <datestamp>2017-02-10T00:22:09Z</datestamp>
      <setSpec>user-biosyslit</setSpec>
    </header>
    <header>
      <identifier>oai:zenodo.org:289577</identifier>
      <datestamp>2017-02-09T23:51:15Z</datestamp>
      <setSpec>user-biosyslit</setSpec>
    </header>
    <header>
      <identifier>oai:zenodo.org:289955</identifier>
      <datestamp>2017-02-10T00:51:27Z</datestamp>
      <setSpec>user-biosyslit</setSpec>
    </header>
    <header>
      <identifier>oai:zenodo.org:280052</identifier>
      <datestamp>2017-02-09T02:34:36Z</datestamp>
      <setSpec>user-biosyslit</setSpec>
    </header>
    <header>
      <identifier>oai:zenodo.org:293861</identifier>
      <datestamp>2017-02-20T18:52:03Z</datestamp>
      <setSpec>user-biosyslit</setSpec>
    </header>
    <header>
      <identifier>oai:zenodo.org:293980</identifier>
      <datestamp>2017-02-20T19:05:09Z</datestamp>
      <setSpec>user-biosyslit</setSpec>
    </header>
    <header>
      <identifier>oai:zenodo.org:294282</identifier>
      <datestamp>2017-02-20T19:35:28Z</datestamp>
      <setSpec>user-biosyslit</setSpec>
    </header>
    <header>
      <identifier>oai:zenodo.org:280473</identifier>
      <datestamp>2017-02-09T03:27:40Z</datestamp>
      <setSpec>user-biosyslit</setSpec>
    </header>
    <header>
      <identifier>oai:zenodo.org:322234</identifier>
      <datestamp>2017-02-24T08:30:17Z</datestamp>
      <setSpec>user-biosyslit</setSpec>
    </header>
    <header>
      <identifier>oai:zenodo.org:320221</identifier>
      <datestamp>2017-02-21T03:28:23Z</datestamp>
      <setSpec>user-biosyslit</setSpec>
    </header>
    <header>
      <identifier>oai:zenodo.org:322166</identifier>
      <datestamp>2017-02-24T07:35:57Z</datestamp>
      <setSpec>user-biosyslit</setSpec>
    </header>
    <header>
      <identifier>oai:zenodo.org:321963</identifier>
      <datestamp>2017-02-24T07:19:29Z</datestamp>
      <setSpec>user-biosyslit</setSpec>
    </header>
    <header>
      <identifier>oai:zenodo.org:574240</identifier>
      <datestamp>2017-05-11T07:24:34Z</datestamp>
      <setSpec>user-biosyslit</setSpec>
    </header>
    <header>
      <identifier>oai:zenodo.org:218705</identifier>
      <datestamp>2016-12-22T16:08:56Z</datestamp>
      <setSpec>user-biosyslit</setSpec>
    </header>
    <header>
      <identifier>oai:zenodo.org:180157</identifier>
      <datestamp>2016-12-20T02:00:38Z</datestamp>
      <setSpec>user-biosyslit</setSpec>
    </header>
    <header>
      <identifier>oai:zenodo.org:574236</identifier>
      <datestamp>2017-05-11T07:24:25Z</datestamp>
      <setSpec>user-biosyslit</setSpec>
    </header>
    <header>
      <identifier>oai:zenodo.org:218726</identifier>
      <datestamp>2016-12-22T16:16:33Z</datestamp>
      <setSpec>user-biosyslit</setSpec>
    </header>
    <header>
      <identifier>oai:zenodo.org:181161</identifier>
      <datestamp>2016-12-20T02:00:18Z</datestamp>
      <setSpec>user-biosyslit</setSpec>
    </header>
    <header>
      <identifier>oai:zenodo.org:180484</identifier>
      <datestamp>2016-12-20T02:00:31Z</datestamp>
      <setSpec>user-biosyslit</setSpec>
    </header>
    <header>
      <identifier>oai:zenodo.org:180444</identifier>
      <datestamp>2016-11-29T00:24:10Z</datestamp>
      <setSpec>user-biosyslit</setSpec>
    </header>
    <header>
      <identifier>oai:zenodo.org:180660</identifier>
      <datestamp>2016-12-20T02:00:51Z</datestamp>
      <setSpec>user-biosyslit</setSpec>
    </header>
    <header>
      <identifier>oai:zenodo.org:180496</identifier>
      <datestamp>2016-12-20T02:00:31Z</datestamp>
      <setSpec>user-biosyslit</setSpec>
    </header>
    <header>
      <identifier>oai:zenodo.org:153843</identifier>
      <datestamp>2016-12-13T12:01:30Z</datestamp>
      <setSpec>openaire</setSpec>
      <setSpec>user-biosyslit</setSpec>
    </header>
    <header>
      <identifier>oai:zenodo.org:181221</identifier>
      <datestamp>2016-12-20T02:00:18Z</datestamp>
      <setSpec>user-biosyslit</setSpec>
    </header>
    <header>
      <identifier>oai:zenodo.org:180658</identifier>
      <datestamp>2016-12-20T02:00:55Z</datestamp>
      <setSpec>user-biosyslit</setSpec>
    </header>
    <header>
      <identifier>oai:zenodo.org:180581</identifier>
      <datestamp>2016-12-20T02:00:08Z</datestamp>
      <setSpec>user-biosyslit</setSpec>
    </header>
    <header>
      <identifier>oai:zenodo.org:196418</identifier>
      <datestamp>2016-12-20T02:01:53Z</datestamp>
      <setSpec>user-biosyslit</setSpec>
    </header>
    <header>
      <identifier>oai:zenodo.org:181298</identifier>
      <datestamp>2016-12-20T02:01:04Z</datestamp>
      <setSpec>user-biosyslit</setSpec>
    </header>
    <header>
      <identifier>oai:zenodo.org:219553</identifier>
      <datestamp>2016-12-22T21:05:47Z</datestamp>
      <setSpec>user-biosyslit</setSpec>
    </header>
    <header>
      <identifier>oai:zenodo.org:218861</identifier>
      <datestamp>2016-12-22T16:59:24Z</datestamp>
      <setSpec>user-biosyslit</setSpec>
    </header>
    <header>
      <identifier>oai:zenodo.org:181052</identifier>
      <datestamp>2016-11-29T03:00:33Z</datestamp>
      <setSpec>user-biosyslit</setSpec>
    </header>
    <header>
      <identifier>oai:zenodo.org:219095</identifier>
      <datestamp>2016-12-22T18:11:14Z</datestamp>
      <setSpec>user-biosyslit</setSpec>
    </header>
    <header>
      <identifier>oai:zenodo.org:218979</identifier>
      <datestamp>2016-12-22T17:39:28Z</datestamp>
      <setSpec>user-biosyslit</setSpec>
    </header>
    <header>
      <identifier>oai:zenodo.org:263079</identifier>
      <datestamp>2017-01-29T16:38:47Z</datestamp>
      <setSpec>user-biosyslit</setSpec>
    </header>
    <header>
      <identifier>oai:zenodo.org:262840</identifier>
      <datestamp>2017-01-29T10:07:04Z</datestamp>
      <setSpec>user-biosyslit</setSpec>
    </header>
    <header>
      <identifier>oai:zenodo.org:262836</identifier>
      <datestamp>2017-01-29T10:08:05Z</datestamp>
      <setSpec>user-biosyslit</setSpec>
    </header>
    <header>
      <identifier>oai:zenodo.org:262807</identifier>
      <datestamp>2017-01-29T09:17:04Z</datestamp>
      <setSpec>user-biosyslit</setSpec>
    </header>
    <header>
      <identifier>oai:zenodo.org:263362</identifier>
      <datestamp>2017-01-29T22:27:31Z</datestamp>
      <setSpec>user-biosyslit</setSpec>
    </header>
    <header>
      <identifier>oai:zenodo.org:263862</identifier>
      <datestamp>2017-01-30T09:11:54Z</datestamp>
      <setSpec>user-biosyslit</setSpec>
    </header>
    <header>
      <identifier>oai:zenodo.org:263004</identifier>
      <datestamp>2017-01-29T14:42:58Z</datestamp>
      <setSpec>user-biosyslit</setSpec>
    </header>
    <header>
      <identifier>oai:zenodo.org:264079</identifier>
      <datestamp>2017-01-30T12:36:49Z</datestamp>
      <setSpec>user-biosyslit</setSpec>
    </header>
    <resumptionToken expirationDate="2017-08-31T14:31:12Z" cursor="2200" completeListSize="142507">.eJwVj9FqgzAYRt8l12UkUXB6V9FJx37FxsTqTXHqtDM6pxlqSt999rs9cA7fHc11XSEHv1AbE9umlkksbD53QHM5_Uh5ve0clRchy0HyIhB_517gjDZW6M0reBkJE66jnmj2FtMLeV35DW9xwlWmz6swTgvDvgU6XkA3NOorIwpk_hmMjA-uZLSaIj_eGHFZbpQWJEe6-wh8j6rELQ-l_QXipKDzyUcKuBTVBr5yIw0YPDDDZBwq3Y5puv5y-b7kXA2Fbn3oVMyfLX200AGNRVMjh-6nuqWYmhk598fjH56wUjo.DImuuA.d6akrLcGdZpCcjwoNaLmjxCYc6U</resumptionToken>
  </ListIdentifiers>
</OAI-PMH>
