<?xml version='1.0' encoding='UTF-8'?>
<?xml-stylesheet type="text/xsl" href="/static/xsl/oai2.v1.0.xsl"?>
<OAI-PMH xmlns="http://www.openarchives.org/OAI/2.0/" xmlns:xsi="http://www.w3.org/2001/XMLSchema-instance" xsi:schemaLocation="http://www.openarchives.org/OAI/2.0/ http://www.openarchives.org/OAI/2.0/OAI-PMH.xsd">
  <responseDate>2017-08-31T15:46:22Z</responseDate>
  <request verb="ListIdentifiers" resumptionToken=".eJyNyj0LgkAYAOD_8s4S92HoCS2hiYOKXkq6hKlIeVZ4hXrif8-luebnmUHWdQUW2jDK2BYxXWcmMXRMNJBl_xDifF0ZylMqyrtICjd9x12KMtIYgS1H385ooFoUdljxQ0RO2ByTK5qiY_LKVDym1Bs4cgxfRVNw89ZX0dAV-cV98uS-F5xUfehEE8d7ntPy-_CfT_18ttyBBs-iqcEytkyDdij6RoI1L8sHqwZRVQ.DInAzQ.K8XQYsQ_i5qtedUTGRegFRvxA_4">https://zenodo.org/oai2d</request>
  <ListIdentifiers>
    <header>
      <identifier>oai:zenodo.org:836078</identifier>
      <datestamp>2017-07-28T21:38:29Z</datestamp>
      <setSpec>user-biosyslit</setSpec>
    </header>
    <header>
      <identifier>oai:zenodo.org:836090</identifier>
      <datestamp>2017-07-28T21:39:56Z</datestamp>
      <setSpec>user-biosyslit</setSpec>
    </header>
    <header>
      <identifier>oai:zenodo.org:836082</identifier>
      <datestamp>2017-07-28T21:38:35Z</datestamp>
      <setSpec>user-biosyslit</setSpec>
    </header>
    <header>
      <identifier>oai:zenodo.org:836080</identifier>
      <datestamp>2017-07-28T21:38:32Z</datestamp>
      <setSpec>user-biosyslit</setSpec>
    </header>
    <header>
      <identifier>oai:zenodo.org:852028</identifier>
      <datestamp>2017-08-28T09:01:44Z</datestamp>
      <setSpec>user-biosyslit</setSpec>
    </header>
    <header>
      <identifier>oai:zenodo.org:852034</identifier>
      <datestamp>2017-08-28T09:01:55Z</datestamp>
      <setSpec>user-biosyslit</setSpec>
    </header>
    <header>
      <identifier>oai:zenodo.org:852036</identifier>
      <datestamp>2017-08-28T09:01:58Z</datestamp>
      <setSpec>user-biosyslit</setSpec>
    </header>
    <header>
      <identifier>oai:zenodo.org:852014</identifier>
      <datestamp>2017-08-28T09:01:17Z</datestamp>
      <setSpec>user-biosyslit</setSpec>
    </header>
    <header>
      <identifier>oai:zenodo.org:852012</identifier>
      <datestamp>2017-08-28T09:02:25Z</datestamp>
      <setSpec>user-biosyslit</setSpec>
    </header>
    <header>
      <identifier>oai:zenodo.org:852056</identifier>
      <datestamp>2017-08-28T09:04:29Z</datestamp>
      <setSpec>user-biosyslit</setSpec>
    </header>
    <header>
      <identifier>oai:zenodo.org:852066</identifier>
      <datestamp>2017-08-28T09:04:57Z</datestamp>
      <setSpec>user-biosyslit</setSpec>
    </header>
    <header>
      <identifier>oai:zenodo.org:852074</identifier>
      <datestamp>2017-08-28T09:05:15Z</datestamp>
      <setSpec>user-biosyslit</setSpec>
    </header>
    <header>
      <identifier>oai:zenodo.org:852070</identifier>
      <datestamp>2017-08-28T09:05:05Z</datestamp>
      <setSpec>user-biosyslit</setSpec>
    </header>
    <header>
      <identifier>oai:zenodo.org:852054</identifier>
      <datestamp>2017-08-28T09:03:56Z</datestamp>
      <setSpec>user-biosyslit</setSpec>
    </header>
    <header>
      <identifier>oai:zenodo.org:852046</identifier>
      <datestamp>2017-08-28T09:02:15Z</datestamp>
      <setSpec>user-biosyslit</setSpec>
    </header>
    <header>
      <identifier>oai:zenodo.org:852042</identifier>
      <datestamp>2017-08-28T09:02:08Z</datestamp>
      <setSpec>user-biosyslit</setSpec>
    </header>
    <header>
      <identifier>oai:zenodo.org:852060</identifier>
      <datestamp>2017-08-28T09:04:25Z</datestamp>
      <setSpec>user-biosyslit</setSpec>
    </header>
    <header>
      <identifier>oai:zenodo.org:852062</identifier>
      <datestamp>2017-08-28T09:05:41Z</datestamp>
      <setSpec>user-biosyslit</setSpec>
    </header>
    <header>
      <identifier>oai:zenodo.org:852084</identifier>
      <datestamp>2017-08-28T09:05:36Z</datestamp>
      <setSpec>user-biosyslit</setSpec>
    </header>
    <header>
      <identifier>oai:zenodo.org:852090</identifier>
      <datestamp>2017-08-28T09:06:50Z</datestamp>
      <setSpec>user-biosyslit</setSpec>
    </header>
    <header>
      <identifier>oai:zenodo.org:852094</identifier>
      <datestamp>2017-08-28T09:06:56Z</datestamp>
      <setSpec>user-biosyslit</setSpec>
    </header>
    <header>
      <identifier>oai:zenodo.org:852096</identifier>
      <datestamp>2017-08-28T09:06:59Z</datestamp>
      <setSpec>user-biosyslit</setSpec>
    </header>
    <header>
      <identifier>oai:zenodo.org:852108</identifier>
      <datestamp>2017-08-28T09:07:19Z</datestamp>
      <setSpec>user-biosyslit</setSpec>
    </header>
    <header>
      <identifier>oai:zenodo.org:852102</identifier>
      <datestamp>2017-08-28T09:07:08Z</datestamp>
      <setSpec>user-biosyslit</setSpec>
    </header>
    <header>
      <identifier>oai:zenodo.org:852088</identifier>
      <datestamp>2017-08-28T09:06:47Z</datestamp>
      <setSpec>user-biosyslit</setSpec>
    </header>
    <header>
      <identifier>oai:zenodo.org:852092</identifier>
      <datestamp>2017-08-28T09:06:53Z</datestamp>
      <setSpec>user-biosyslit</setSpec>
    </header>
    <header>
      <identifier>oai:zenodo.org:852124</identifier>
      <datestamp>2017-08-28T09:08:39Z</datestamp>
      <setSpec>user-biosyslit</setSpec>
    </header>
    <header>
      <identifier>oai:zenodo.org:852116</identifier>
      <datestamp>2017-08-28T09:08:25Z</datestamp>
      <setSpec>user-biosyslit</setSpec>
    </header>
    <header>
      <identifier>oai:zenodo.org:852130</identifier>
      <datestamp>2017-08-28T09:08:52Z</datestamp>
      <setSpec>user-biosyslit</setSpec>
    </header>
    <header>
      <identifier>oai:zenodo.org:852126</identifier>
      <datestamp>2017-08-28T09:08:43Z</datestamp>
      <setSpec>user-biosyslit</setSpec>
    </header>
    <header>
      <identifier>oai:zenodo.org:852120</identifier>
      <datestamp>2017-08-28T09:08:33Z</datestamp>
      <setSpec>user-biosyslit</setSpec>
    </header>
    <header>
      <identifier>oai:zenodo.org:852128</identifier>
      <datestamp>2017-08-28T09:08:46Z</datestamp>
      <setSpec>user-biosyslit</setSpec>
    </header>
    <header>
      <identifier>oai:zenodo.org:852114</identifier>
      <datestamp>2017-08-28T09:08:21Z</datestamp>
      <setSpec>user-biosyslit</setSpec>
    </header>
    <header>
      <identifier>oai:zenodo.org:852118</identifier>
      <datestamp>2017-08-28T09:08:28Z</datestamp>
      <setSpec>user-biosyslit</setSpec>
    </header>
    <header>
      <identifier>oai:zenodo.org:852110</identifier>
      <datestamp>2017-08-28T09:09:03Z</datestamp>
      <setSpec>user-biosyslit</setSpec>
    </header>
    <header>
      <identifier>oai:zenodo.org:852132</identifier>
      <datestamp>2017-08-28T09:08:56Z</datestamp>
      <setSpec>user-biosyslit</setSpec>
    </header>
    <header>
      <identifier>oai:zenodo.org:852134</identifier>
      <datestamp>2017-08-28T09:08:59Z</datestamp>
      <setSpec>user-biosyslit</setSpec>
    </header>
    <header>
      <identifier>oai:zenodo.org:851876</identifier>
      <datestamp>2017-08-28T09:59:11Z</datestamp>
      <setSpec>openaire</setSpec>
      <setSpec>user-biosyslit</setSpec>
    </header>
    <header>
      <identifier>oai:zenodo.org:851790</identifier>
      <datestamp>2017-08-28T12:14:53Z</datestamp>
      <setSpec>user-biosyslit</setSpec>
    </header>
    <header>
      <identifier>oai:zenodo.org:851623</identifier>
      <datestamp>2017-08-28T15:01:43Z</datestamp>
      <setSpec>openaire_data</setSpec>
      <setSpec>user-biosyslit</setSpec>
    </header>
    <header>
      <identifier>oai:zenodo.org:848296</identifier>
      <datestamp>2017-08-28T15:01:32Z</datestamp>
      <setSpec>openaire</setSpec>
      <setSpec>user-biosyslit</setSpec>
    </header>
    <header>
      <identifier>oai:zenodo.org:851625</identifier>
      <datestamp>2017-08-28T15:01:45Z</datestamp>
      <setSpec>openaire_data</setSpec>
      <setSpec>user-biosyslit</setSpec>
    </header>
    <header>
      <identifier>oai:zenodo.org:819763</identifier>
      <datestamp>2017-06-27T12:42:36Z</datestamp>
      <setSpec>openaire</setSpec>
      <setSpec>user-biosyslit</setSpec>
    </header>
    <header>
      <identifier>oai:zenodo.org:824093</identifier>
      <datestamp>2017-07-13T23:18:28Z</datestamp>
      <setSpec>openaire</setSpec>
      <setSpec>user-biosyslit</setSpec>
    </header>
    <header>
      <identifier>oai:zenodo.org:574660</identifier>
      <datestamp>2017-05-11T13:09:06Z</datestamp>
      <setSpec>user-biosyslit</setSpec>
    </header>
    <header>
      <identifier>oai:zenodo.org:824634</identifier>
      <datestamp>2017-07-13T23:18:26Z</datestamp>
      <setSpec>openaire</setSpec>
      <setSpec>user-biosyslit</setSpec>
    </header>
    <header>
      <identifier>oai:zenodo.org:827608</identifier>
      <datestamp>2017-07-15T07:55:53Z</datestamp>
      <setSpec>user-biosyslit</setSpec>
    </header>
    <header>
      <identifier>oai:zenodo.org:827596</identifier>
      <datestamp>2017-07-15T07:55:22Z</datestamp>
      <setSpec>user-biosyslit</setSpec>
    </header>
    <header>
      <identifier>oai:zenodo.org:827604</identifier>
      <datestamp>2017-07-15T07:55:18Z</datestamp>
      <setSpec>user-biosyslit</setSpec>
    </header>
    <header>
      <identifier>oai:zenodo.org:827600</identifier>
      <datestamp>2017-07-15T07:55:11Z</datestamp>
      <setSpec>user-biosyslit</setSpec>
    </header>
    <header>
      <identifier>oai:zenodo.org:827620</identifier>
      <datestamp>2017-07-15T07:56:10Z</datestamp>
      <setSpec>user-biosyslit</setSpec>
    </header>
    <header>
      <identifier>oai:zenodo.org:827624</identifier>
      <datestamp>2017-07-15T07:56:19Z</datestamp>
      <setSpec>user-biosyslit</setSpec>
    </header>
    <header>
      <identifier>oai:zenodo.org:827598</identifier>
      <datestamp>2017-07-15T07:55:07Z</datestamp>
      <setSpec>user-biosyslit</setSpec>
    </header>
    <header>
      <identifier>oai:zenodo.org:827614</identifier>
      <datestamp>2017-07-15T07:56:01Z</datestamp>
      <setSpec>user-biosyslit</setSpec>
    </header>
    <header>
      <identifier>oai:zenodo.org:827622</identifier>
      <datestamp>2017-07-15T07:56:14Z</datestamp>
      <setSpec>user-biosyslit</setSpec>
    </header>
    <header>
      <identifier>oai:zenodo.org:827654</identifier>
      <datestamp>2017-07-15T07:58:39Z</datestamp>
      <setSpec>user-biosyslit</setSpec>
    </header>
    <header>
      <identifier>oai:zenodo.org:827680</identifier>
      <datestamp>2017-07-15T07:59:19Z</datestamp>
      <setSpec>user-biosyslit</setSpec>
    </header>
    <header>
      <identifier>oai:zenodo.org:827662</identifier>
      <datestamp>2017-07-15T07:58:12Z</datestamp>
      <setSpec>user-biosyslit</setSpec>
    </header>
    <header>
      <identifier>oai:zenodo.org:827668</identifier>
      <datestamp>2017-07-15T07:58:22Z</datestamp>
      <setSpec>user-biosyslit</setSpec>
    </header>
    <header>
      <identifier>oai:zenodo.org:827664</identifier>
      <datestamp>2017-07-15T07:58:15Z</datestamp>
      <setSpec>user-biosyslit</setSpec>
    </header>
    <header>
      <identifier>oai:zenodo.org:827666</identifier>
      <datestamp>2017-07-15T07:58:18Z</datestamp>
      <setSpec>user-biosyslit</setSpec>
    </header>
    <header>
      <identifier>oai:zenodo.org:827672</identifier>
      <datestamp>2017-07-15T07:58:30Z</datestamp>
      <setSpec>user-biosyslit</setSpec>
    </header>
    <header>
      <identifier>oai:zenodo.org:827694</identifier>
      <datestamp>2017-07-15T08:00:07Z</datestamp>
      <setSpec>user-biosyslit</setSpec>
    </header>
    <header>
      <identifier>oai:zenodo.org:827698</identifier>
      <datestamp>2017-07-15T08:00:15Z</datestamp>
      <setSpec>user-biosyslit</setSpec>
    </header>
    <header>
      <identifier>oai:zenodo.org:827826</identifier>
      <datestamp>2017-07-15T08:07:08Z</datestamp>
      <setSpec>user-biosyslit</setSpec>
    </header>
    <header>
      <identifier>oai:zenodo.org:827822</identifier>
      <datestamp>2017-07-15T08:07:01Z</datestamp>
      <setSpec>user-biosyslit</setSpec>
    </header>
    <header>
      <identifier>oai:zenodo.org:827828</identifier>
      <datestamp>2017-07-15T08:07:12Z</datestamp>
      <setSpec>user-biosyslit</setSpec>
    </header>
    <header>
      <identifier>oai:zenodo.org:827814</identifier>
      <datestamp>2017-07-15T08:06:45Z</datestamp>
      <setSpec>user-biosyslit</setSpec>
    </header>
    <header>
      <identifier>oai:zenodo.org:827816</identifier>
      <datestamp>2017-07-15T08:06:49Z</datestamp>
      <setSpec>user-biosyslit</setSpec>
    </header>
    <header>
      <identifier>oai:zenodo.org:827812</identifier>
      <datestamp>2017-07-15T08:06:39Z</datestamp>
      <setSpec>user-biosyslit</setSpec>
    </header>
    <header>
      <identifier>oai:zenodo.org:827834</identifier>
      <datestamp>2017-07-15T08:07:24Z</datestamp>
      <setSpec>user-biosyslit</setSpec>
    </header>
    <header>
      <identifier>oai:zenodo.org:827830</identifier>
      <datestamp>2017-07-15T08:07:16Z</datestamp>
      <setSpec>user-biosyslit</setSpec>
    </header>
    <header>
      <identifier>oai:zenodo.org:827838</identifier>
      <datestamp>2017-07-15T08:07:31Z</datestamp>
      <setSpec>user-biosyslit</setSpec>
    </header>
    <header>
      <identifier>oai:zenodo.org:827898</identifier>
      <datestamp>2017-07-15T08:25:36Z</datestamp>
      <setSpec>user-biosyslit</setSpec>
    </header>
    <header>
      <identifier>oai:zenodo.org:827908</identifier>
      <datestamp>2017-07-15T08:25:56Z</datestamp>
      <setSpec>user-biosyslit</setSpec>
    </header>
    <header>
      <identifier>oai:zenodo.org:827894</identifier>
      <datestamp>2017-07-15T08:25:29Z</datestamp>
      <setSpec>user-biosyslit</setSpec>
    </header>
    <header>
      <identifier>oai:zenodo.org:827890</identifier>
      <datestamp>2017-07-15T08:25:18Z</datestamp>
      <setSpec>user-biosyslit</setSpec>
    </header>
    <header>
      <identifier>oai:zenodo.org:827900</identifier>
      <datestamp>2017-07-15T08:25:40Z</datestamp>
      <setSpec>user-biosyslit</setSpec>
    </header>
    <header>
      <identifier>oai:zenodo.org:827906</identifier>
      <datestamp>2017-07-15T08:25:53Z</datestamp>
      <setSpec>user-biosyslit</setSpec>
    </header>
    <header>
      <identifier>oai:zenodo.org:827884</identifier>
      <datestamp>2017-07-15T08:24:39Z</datestamp>
      <setSpec>user-biosyslit</setSpec>
    </header>
    <header>
      <identifier>oai:zenodo.org:827896</identifier>
      <datestamp>2017-07-15T08:25:33Z</datestamp>
      <setSpec>user-biosyslit</setSpec>
    </header>
    <header>
      <identifier>oai:zenodo.org:827902</identifier>
      <datestamp>2017-07-15T08:25:43Z</datestamp>
      <setSpec>user-biosyslit</setSpec>
    </header>
    <header>
      <identifier>oai:zenodo.org:828000</identifier>
      <datestamp>2017-07-15T08:30:08Z</datestamp>
      <setSpec>user-biosyslit</setSpec>
    </header>
    <header>
      <identifier>oai:zenodo.org:827992</identifier>
      <datestamp>2017-07-15T08:29:26Z</datestamp>
      <setSpec>user-biosyslit</setSpec>
    </header>
    <header>
      <identifier>oai:zenodo.org:828020</identifier>
      <datestamp>2017-07-15T08:30:19Z</datestamp>
      <setSpec>user-biosyslit</setSpec>
    </header>
    <header>
      <identifier>oai:zenodo.org:828004</identifier>
      <datestamp>2017-07-15T08:29:50Z</datestamp>
      <setSpec>user-biosyslit</setSpec>
    </header>
    <header>
      <identifier>oai:zenodo.org:828018</identifier>
      <datestamp>2017-07-15T08:30:15Z</datestamp>
      <setSpec>user-biosyslit</setSpec>
    </header>
    <header>
      <identifier>oai:zenodo.org:828006</identifier>
      <datestamp>2017-07-15T08:29:52Z</datestamp>
      <setSpec>user-biosyslit</setSpec>
    </header>
    <header>
      <identifier>oai:zenodo.org:828014</identifier>
      <datestamp>2017-07-15T08:30:05Z</datestamp>
      <setSpec>user-biosyslit</setSpec>
    </header>
    <header>
      <identifier>oai:zenodo.org:828010</identifier>
      <datestamp>2017-07-15T08:29:59Z</datestamp>
      <setSpec>user-biosyslit</setSpec>
    </header>
    <header>
      <identifier>oai:zenodo.org:827988</identifier>
      <datestamp>2017-07-15T08:29:16Z</datestamp>
      <setSpec>user-biosyslit</setSpec>
    </header>
    <header>
      <identifier>oai:zenodo.org:828098</identifier>
      <datestamp>2017-07-15T08:34:02Z</datestamp>
      <setSpec>user-biosyslit</setSpec>
    </header>
    <header>
      <identifier>oai:zenodo.org:828076</identifier>
      <datestamp>2017-07-15T08:33:20Z</datestamp>
      <setSpec>user-biosyslit</setSpec>
    </header>
    <header>
      <identifier>oai:zenodo.org:828080</identifier>
      <datestamp>2017-07-15T08:33:28Z</datestamp>
      <setSpec>user-biosyslit</setSpec>
    </header>
    <header>
      <identifier>oai:zenodo.org:828094</identifier>
      <datestamp>2017-07-15T08:33:53Z</datestamp>
      <setSpec>user-biosyslit</setSpec>
    </header>
    <header>
      <identifier>oai:zenodo.org:828090</identifier>
      <datestamp>2017-07-15T08:33:47Z</datestamp>
      <setSpec>user-biosyslit</setSpec>
    </header>
    <header>
      <identifier>oai:zenodo.org:828112</identifier>
      <datestamp>2017-07-15T08:39:29Z</datestamp>
      <setSpec>user-biosyslit</setSpec>
    </header>
    <header>
      <identifier>oai:zenodo.org:828086</identifier>
      <datestamp>2017-07-15T08:33:39Z</datestamp>
      <setSpec>user-biosyslit</setSpec>
    </header>
    <header>
      <identifier>oai:zenodo.org:828108</identifier>
      <datestamp>2017-07-15T08:39:21Z</datestamp>
      <setSpec>user-biosyslit</setSpec>
    </header>
    <header>
      <identifier>oai:zenodo.org:828102</identifier>
      <datestamp>2017-07-15T08:39:03Z</datestamp>
      <setSpec>user-biosyslit</setSpec>
    </header>
    <resumptionToken expirationDate="2017-08-31T15:48:22Z" cursor="75800" completeListSize="77796">.eJyNyssKgkAUANB_uWuJeZAvaBOWuFDRaUTbhKmIOZU4hTriv-emda3PmUFWVQk22mDTxASblFiWQbeWTjWQRf8U4tKsDkWaiOIheO4m7_ieoIzURuDI0XcyGqgWhXes2DEiKTZH3qApOvFXpuIxod7A0MHwVTQFN299JQ1dcb66HeOPvWCk7MNDNDG8Z2dafB_-86mfz5E70KDL6wpsQ0catEPe1xLseVk-2uRRfQ.DInAzg.dybsIbAT2vlckcfEJ-NxJwAtu0s</resumptionToken>
  </ListIdentifiers>
</OAI-PMH>
