<?xml version='1.0' encoding='UTF-8'?>
<?xml-stylesheet type="text/xsl" href="/static/xsl/oai2.v1.0.xsl"?>
<OAI-PMH xmlns="http://www.openarchives.org/OAI/2.0/" xmlns:xsi="http://www.w3.org/2001/XMLSchema-instance" xsi:schemaLocation="http://www.openarchives.org/OAI/2.0/ http://www.openarchives.org/OAI/2.0/OAI-PMH.xsd">
  <responseDate>2017-08-31T15:45:33Z</responseDate>
  <request verb="ListIdentifiers" resumptionToken=".eJyNysEKgjAYAOB3-c8SmzOXQhexpIOKLiW9hKlIOU1coU5897x0rvP3zSDKsgATbahBDaLpmm5QgvBWAZH3T86v91Uhv8Q8b3mUOfE7bGKUqBX1bDG6dkI8WSO_wZIdA_WCd2N0R1Nwjl6JDMeYnAaGDtSVweQ9TusriO_w9OZ0LGotztSi9w_BxLDFUpJ_H_7zyZ_PFntQoMuqEkx9qytQD1lfCTDnZfkAdYhRHA.DInAnQ.xiTDirDgE6PCL2oWbGDJD9AZfSo">https://zenodo.org/oai2d</request>
  <ListIdentifiers>
    <header>
      <identifier>oai:zenodo.org:232778</identifier>
      <datestamp>2017-01-06T23:04:48Z</datestamp>
      <setSpec>user-biosyslit</setSpec>
    </header>
    <header>
      <identifier>oai:zenodo.org:237079</identifier>
      <datestamp>2017-01-10T10:32:03Z</datestamp>
      <setSpec>user-biosyslit</setSpec>
    </header>
    <header>
      <identifier>oai:zenodo.org:232786</identifier>
      <datestamp>2017-01-06T23:04:32Z</datestamp>
      <setSpec>user-biosyslit</setSpec>
    </header>
    <header>
      <identifier>oai:zenodo.org:232780</identifier>
      <datestamp>2017-01-06T23:04:04Z</datestamp>
      <setSpec>user-biosyslit</setSpec>
    </header>
    <header>
      <identifier>oai:zenodo.org:232787</identifier>
      <datestamp>2017-01-06T23:04:36Z</datestamp>
      <setSpec>user-biosyslit</setSpec>
    </header>
    <header>
      <identifier>oai:zenodo.org:232781</identifier>
      <datestamp>2017-01-06T23:04:07Z</datestamp>
      <setSpec>user-biosyslit</setSpec>
    </header>
    <header>
      <identifier>oai:zenodo.org:232785</identifier>
      <datestamp>2017-01-06T23:04:29Z</datestamp>
      <setSpec>user-biosyslit</setSpec>
    </header>
    <header>
      <identifier>oai:zenodo.org:293249</identifier>
      <datestamp>2017-02-19T13:25:49Z</datestamp>
      <setSpec>user-biosyslit</setSpec>
    </header>
    <header>
      <identifier>oai:zenodo.org:277341</identifier>
      <datestamp>2017-02-08T20:56:12Z</datestamp>
      <setSpec>user-biosyslit</setSpec>
    </header>
    <header>
      <identifier>oai:zenodo.org:240730</identifier>
      <datestamp>2017-01-12T13:10:27Z</datestamp>
      <setSpec>user-biosyslit</setSpec>
    </header>
    <header>
      <identifier>oai:zenodo.org:240729</identifier>
      <datestamp>2017-01-12T13:10:24Z</datestamp>
      <setSpec>user-biosyslit</setSpec>
    </header>
    <header>
      <identifier>oai:zenodo.org:240728</identifier>
      <datestamp>2017-01-12T13:10:21Z</datestamp>
      <setSpec>user-biosyslit</setSpec>
    </header>
    <header>
      <identifier>oai:zenodo.org:243903</identifier>
      <datestamp>2017-01-14T13:03:03Z</datestamp>
      <setSpec>user-biosyslit</setSpec>
    </header>
    <header>
      <identifier>oai:zenodo.org:243909</identifier>
      <datestamp>2017-01-14T13:02:49Z</datestamp>
      <setSpec>user-biosyslit</setSpec>
    </header>
    <header>
      <identifier>oai:zenodo.org:243908</identifier>
      <datestamp>2017-01-14T13:02:47Z</datestamp>
      <setSpec>user-biosyslit</setSpec>
    </header>
    <header>
      <identifier>oai:zenodo.org:243911</identifier>
      <datestamp>2017-01-14T13:02:55Z</datestamp>
      <setSpec>user-biosyslit</setSpec>
    </header>
    <header>
      <identifier>oai:zenodo.org:243906</identifier>
      <datestamp>2017-01-14T13:02:39Z</datestamp>
      <setSpec>user-biosyslit</setSpec>
    </header>
    <header>
      <identifier>oai:zenodo.org:243904</identifier>
      <datestamp>2017-01-14T13:02:33Z</datestamp>
      <setSpec>user-biosyslit</setSpec>
    </header>
    <header>
      <identifier>oai:zenodo.org:243913</identifier>
      <datestamp>2017-01-14T13:03:01Z</datestamp>
      <setSpec>user-biosyslit</setSpec>
    </header>
    <header>
      <identifier>oai:zenodo.org:270212</identifier>
      <datestamp>2017-02-07T22:42:28Z</datestamp>
      <setSpec>user-biosyslit</setSpec>
    </header>
    <header>
      <identifier>oai:zenodo.org:270223</identifier>
      <datestamp>2017-02-07T22:42:22Z</datestamp>
      <setSpec>user-biosyslit</setSpec>
    </header>
    <header>
      <identifier>oai:zenodo.org:270219</identifier>
      <datestamp>2017-02-07T22:42:11Z</datestamp>
      <setSpec>user-biosyslit</setSpec>
    </header>
    <header>
      <identifier>oai:zenodo.org:270218</identifier>
      <datestamp>2017-02-07T22:42:08Z</datestamp>
      <setSpec>user-biosyslit</setSpec>
    </header>
    <header>
      <identifier>oai:zenodo.org:270217</identifier>
      <datestamp>2017-02-07T22:42:06Z</datestamp>
      <setSpec>user-biosyslit</setSpec>
    </header>
    <header>
      <identifier>oai:zenodo.org:270214</identifier>
      <datestamp>2017-02-07T22:41:59Z</datestamp>
      <setSpec>user-biosyslit</setSpec>
    </header>
    <header>
      <identifier>oai:zenodo.org:270225</identifier>
      <datestamp>2017-02-07T22:42:26Z</datestamp>
      <setSpec>user-biosyslit</setSpec>
    </header>
    <header>
      <identifier>oai:zenodo.org:239382</identifier>
      <datestamp>2017-01-11T19:47:07Z</datestamp>
      <setSpec>user-biosyslit</setSpec>
    </header>
    <header>
      <identifier>oai:zenodo.org:239381</identifier>
      <datestamp>2017-01-11T19:47:04Z</datestamp>
      <setSpec>user-biosyslit</setSpec>
    </header>
    <header>
      <identifier>oai:zenodo.org:239383</identifier>
      <datestamp>2017-01-11T19:47:11Z</datestamp>
      <setSpec>user-biosyslit</setSpec>
    </header>
    <header>
      <identifier>oai:zenodo.org:239384</identifier>
      <datestamp>2017-01-11T19:47:15Z</datestamp>
      <setSpec>user-biosyslit</setSpec>
    </header>
    <header>
      <identifier>oai:zenodo.org:239385</identifier>
      <datestamp>2017-01-11T19:47:23Z</datestamp>
      <setSpec>user-biosyslit</setSpec>
    </header>
    <header>
      <identifier>oai:zenodo.org:239379</identifier>
      <datestamp>2017-01-11T19:46:53Z</datestamp>
      <setSpec>user-biosyslit</setSpec>
    </header>
    <header>
      <identifier>oai:zenodo.org:282580</identifier>
      <datestamp>2017-02-09T07:16:26Z</datestamp>
      <setSpec>user-biosyslit</setSpec>
    </header>
    <header>
      <identifier>oai:zenodo.org:282588</identifier>
      <datestamp>2017-02-09T07:16:19Z</datestamp>
      <setSpec>user-biosyslit</setSpec>
    </header>
    <header>
      <identifier>oai:zenodo.org:282587</identifier>
      <datestamp>2017-02-09T07:16:17Z</datestamp>
      <setSpec>user-biosyslit</setSpec>
    </header>
    <header>
      <identifier>oai:zenodo.org:282585</identifier>
      <datestamp>2017-02-09T07:16:12Z</datestamp>
      <setSpec>user-biosyslit</setSpec>
    </header>
    <header>
      <identifier>oai:zenodo.org:282590</identifier>
      <datestamp>2017-02-09T07:16:23Z</datestamp>
      <setSpec>user-biosyslit</setSpec>
    </header>
    <header>
      <identifier>oai:zenodo.org:239389</identifier>
      <datestamp>2017-01-11T19:47:41Z</datestamp>
      <setSpec>user-biosyslit</setSpec>
    </header>
    <header>
      <identifier>oai:zenodo.org:239386</identifier>
      <datestamp>2017-01-11T19:47:28Z</datestamp>
      <setSpec>user-biosyslit</setSpec>
    </header>
    <header>
      <identifier>oai:zenodo.org:277291</identifier>
      <datestamp>2017-02-08T20:48:35Z</datestamp>
      <setSpec>user-biosyslit</setSpec>
    </header>
    <header>
      <identifier>oai:zenodo.org:277295</identifier>
      <datestamp>2017-02-08T20:48:46Z</datestamp>
      <setSpec>user-biosyslit</setSpec>
    </header>
    <header>
      <identifier>oai:zenodo.org:277293</identifier>
      <datestamp>2017-02-08T20:48:39Z</datestamp>
      <setSpec>user-biosyslit</setSpec>
    </header>
    <header>
      <identifier>oai:zenodo.org:230196</identifier>
      <datestamp>2017-01-04T21:02:41Z</datestamp>
      <setSpec>user-biosyslit</setSpec>
    </header>
    <header>
      <identifier>oai:zenodo.org:282166</identifier>
      <datestamp>2017-02-09T06:33:14Z</datestamp>
      <setSpec>user-biosyslit</setSpec>
    </header>
    <header>
      <identifier>oai:zenodo.org:282169</identifier>
      <datestamp>2017-02-09T06:33:20Z</datestamp>
      <setSpec>user-biosyslit</setSpec>
    </header>
    <header>
      <identifier>oai:zenodo.org:282167</identifier>
      <datestamp>2017-02-09T06:33:16Z</datestamp>
      <setSpec>user-biosyslit</setSpec>
    </header>
    <header>
      <identifier>oai:zenodo.org:282164</identifier>
      <datestamp>2017-02-09T06:33:10Z</datestamp>
      <setSpec>user-biosyslit</setSpec>
    </header>
    <header>
      <identifier>oai:zenodo.org:230197</identifier>
      <datestamp>2017-01-04T21:02:36Z</datestamp>
      <setSpec>user-biosyslit</setSpec>
    </header>
    <header>
      <identifier>oai:zenodo.org:231124</identifier>
      <datestamp>2017-01-05T14:53:39Z</datestamp>
      <setSpec>user-biosyslit</setSpec>
    </header>
    <header>
      <identifier>oai:zenodo.org:282163</identifier>
      <datestamp>2017-02-09T06:33:24Z</datestamp>
      <setSpec>user-biosyslit</setSpec>
    </header>
    <header>
      <identifier>oai:zenodo.org:231125</identifier>
      <datestamp>2017-01-05T14:53:25Z</datestamp>
      <setSpec>user-biosyslit</setSpec>
    </header>
    <header>
      <identifier>oai:zenodo.org:231127</identifier>
      <datestamp>2017-01-05T14:53:34Z</datestamp>
      <setSpec>user-biosyslit</setSpec>
    </header>
    <header>
      <identifier>oai:zenodo.org:280013</identifier>
      <datestamp>2017-02-09T02:30:04Z</datestamp>
      <setSpec>user-biosyslit</setSpec>
    </header>
    <header>
      <identifier>oai:zenodo.org:280018</identifier>
      <datestamp>2017-02-09T02:30:21Z</datestamp>
      <setSpec>user-biosyslit</setSpec>
    </header>
    <header>
      <identifier>oai:zenodo.org:280015</identifier>
      <datestamp>2017-02-09T02:30:11Z</datestamp>
      <setSpec>user-biosyslit</setSpec>
    </header>
    <header>
      <identifier>oai:zenodo.org:265794</identifier>
      <datestamp>2017-01-31T21:09:07Z</datestamp>
      <setSpec>user-biosyslit</setSpec>
    </header>
    <header>
      <identifier>oai:zenodo.org:265795</identifier>
      <datestamp>2017-01-31T21:08:58Z</datestamp>
      <setSpec>user-biosyslit</setSpec>
    </header>
    <header>
      <identifier>oai:zenodo.org:238174</identifier>
      <datestamp>2017-01-11T01:52:57Z</datestamp>
      <setSpec>user-biosyslit</setSpec>
    </header>
    <header>
      <identifier>oai:zenodo.org:238171</identifier>
      <datestamp>2017-01-11T01:52:46Z</datestamp>
      <setSpec>user-biosyslit</setSpec>
    </header>
    <header>
      <identifier>oai:zenodo.org:238173</identifier>
      <datestamp>2017-01-11T01:52:53Z</datestamp>
      <setSpec>user-biosyslit</setSpec>
    </header>
    <header>
      <identifier>oai:zenodo.org:278341</identifier>
      <datestamp>2017-02-08T22:55:58Z</datestamp>
      <setSpec>user-biosyslit</setSpec>
    </header>
    <header>
      <identifier>oai:zenodo.org:245740</identifier>
      <datestamp>2017-01-15T18:10:20Z</datestamp>
      <setSpec>user-biosyslit</setSpec>
    </header>
    <header>
      <identifier>oai:zenodo.org:245750</identifier>
      <datestamp>2017-01-15T18:10:08Z</datestamp>
      <setSpec>user-biosyslit</setSpec>
    </header>
    <header>
      <identifier>oai:zenodo.org:240333</identifier>
      <datestamp>2017-01-12T07:26:51Z</datestamp>
      <setSpec>user-biosyslit</setSpec>
    </header>
    <header>
      <identifier>oai:zenodo.org:245741</identifier>
      <datestamp>2017-01-15T18:09:33Z</datestamp>
      <setSpec>user-biosyslit</setSpec>
    </header>
    <header>
      <identifier>oai:zenodo.org:245747</identifier>
      <datestamp>2017-01-15T18:09:53Z</datestamp>
      <setSpec>user-biosyslit</setSpec>
    </header>
    <header>
      <identifier>oai:zenodo.org:243314</identifier>
      <datestamp>2017-01-14T02:32:31Z</datestamp>
      <setSpec>user-biosyslit</setSpec>
    </header>
    <header>
      <identifier>oai:zenodo.org:228913</identifier>
      <datestamp>2017-01-03T07:06:01Z</datestamp>
      <setSpec>user-biosyslit</setSpec>
    </header>
    <header>
      <identifier>oai:zenodo.org:227422</identifier>
      <datestamp>2017-01-01T21:15:27Z</datestamp>
      <setSpec>user-biosyslit</setSpec>
    </header>
    <header>
      <identifier>oai:zenodo.org:228915</identifier>
      <datestamp>2017-01-03T07:05:37Z</datestamp>
      <setSpec>user-biosyslit</setSpec>
    </header>
    <header>
      <identifier>oai:zenodo.org:228917</identifier>
      <datestamp>2017-01-03T07:05:44Z</datestamp>
      <setSpec>user-biosyslit</setSpec>
    </header>
    <header>
      <identifier>oai:zenodo.org:227421</identifier>
      <datestamp>2017-01-01T21:15:32Z</datestamp>
      <setSpec>user-biosyslit</setSpec>
    </header>
    <header>
      <identifier>oai:zenodo.org:234707</identifier>
      <datestamp>2017-01-09T00:09:28Z</datestamp>
      <setSpec>user-biosyslit</setSpec>
    </header>
    <header>
      <identifier>oai:zenodo.org:234704</identifier>
      <datestamp>2017-01-09T00:09:13Z</datestamp>
      <setSpec>user-biosyslit</setSpec>
    </header>
    <header>
      <identifier>oai:zenodo.org:271219</identifier>
      <datestamp>2017-02-08T01:05:23Z</datestamp>
      <setSpec>user-biosyslit</setSpec>
    </header>
    <header>
      <identifier>oai:zenodo.org:271221</identifier>
      <datestamp>2017-02-08T01:05:17Z</datestamp>
      <setSpec>user-biosyslit</setSpec>
    </header>
    <header>
      <identifier>oai:zenodo.org:286494</identifier>
      <datestamp>2017-02-09T16:07:51Z</datestamp>
      <setSpec>user-biosyslit</setSpec>
    </header>
    <header>
      <identifier>oai:zenodo.org:271222</identifier>
      <datestamp>2017-02-08T01:05:19Z</datestamp>
      <setSpec>user-biosyslit</setSpec>
    </header>
    <header>
      <identifier>oai:zenodo.org:286498</identifier>
      <datestamp>2017-02-09T16:08:05Z</datestamp>
      <setSpec>user-biosyslit</setSpec>
    </header>
    <header>
      <identifier>oai:zenodo.org:271220</identifier>
      <datestamp>2017-02-08T01:05:13Z</datestamp>
      <setSpec>user-biosyslit</setSpec>
    </header>
    <header>
      <identifier>oai:zenodo.org:286495</identifier>
      <datestamp>2017-02-09T16:07:55Z</datestamp>
      <setSpec>user-biosyslit</setSpec>
    </header>
    <header>
      <identifier>oai:zenodo.org:234756</identifier>
      <datestamp>2017-01-09T01:50:45Z</datestamp>
      <setSpec>user-biosyslit</setSpec>
    </header>
    <header>
      <identifier>oai:zenodo.org:278925</identifier>
      <datestamp>2017-02-09T00:10:56Z</datestamp>
      <setSpec>user-biosyslit</setSpec>
    </header>
    <header>
      <identifier>oai:zenodo.org:278928</identifier>
      <datestamp>2017-02-09T00:11:13Z</datestamp>
      <setSpec>user-biosyslit</setSpec>
    </header>
    <header>
      <identifier>oai:zenodo.org:258937</identifier>
      <datestamp>2017-01-24T06:32:50Z</datestamp>
      <setSpec>user-biosyslit</setSpec>
    </header>
    <header>
      <identifier>oai:zenodo.org:275090</identifier>
      <datestamp>2017-02-08T15:16:43Z</datestamp>
      <setSpec>user-biosyslit</setSpec>
    </header>
    <header>
      <identifier>oai:zenodo.org:271883</identifier>
      <datestamp>2017-02-08T02:54:06Z</datestamp>
      <setSpec>user-biosyslit</setSpec>
    </header>
    <header>
      <identifier>oai:zenodo.org:258939</identifier>
      <datestamp>2017-01-24T06:32:56Z</datestamp>
      <setSpec>user-biosyslit</setSpec>
    </header>
    <header>
      <identifier>oai:zenodo.org:277787</identifier>
      <datestamp>2017-02-08T21:49:13Z</datestamp>
      <setSpec>user-biosyslit</setSpec>
    </header>
    <header>
      <identifier>oai:zenodo.org:275091</identifier>
      <datestamp>2017-02-08T15:16:35Z</datestamp>
      <setSpec>user-biosyslit</setSpec>
    </header>
    <header>
      <identifier>oai:zenodo.org:277785</identifier>
      <datestamp>2017-02-08T21:49:09Z</datestamp>
      <setSpec>user-biosyslit</setSpec>
    </header>
    <header>
      <identifier>oai:zenodo.org:275093</identifier>
      <datestamp>2017-02-08T15:16:42Z</datestamp>
      <setSpec>user-biosyslit</setSpec>
    </header>
    <header>
      <identifier>oai:zenodo.org:277789</identifier>
      <datestamp>2017-02-08T21:49:18Z</datestamp>
      <setSpec>user-biosyslit</setSpec>
    </header>
    <header>
      <identifier>oai:zenodo.org:266747</identifier>
      <datestamp>2017-02-01T14:36:04Z</datestamp>
      <setSpec>user-biosyslit</setSpec>
    </header>
    <header>
      <identifier>oai:zenodo.org:266750</identifier>
      <datestamp>2017-02-01T14:36:03Z</datestamp>
      <setSpec>user-biosyslit</setSpec>
    </header>
    <header>
      <identifier>oai:zenodo.org:271885</identifier>
      <datestamp>2017-02-08T02:54:11Z</datestamp>
      <setSpec>user-biosyslit</setSpec>
    </header>
    <header>
      <identifier>oai:zenodo.org:283179</identifier>
      <datestamp>2017-02-09T08:17:48Z</datestamp>
      <setSpec>user-biosyslit</setSpec>
    </header>
    <header>
      <identifier>oai:zenodo.org:283180</identifier>
      <datestamp>2017-02-09T08:17:46Z</datestamp>
      <setSpec>user-biosyslit</setSpec>
    </header>
    <header>
      <identifier>oai:zenodo.org:237995</identifier>
      <datestamp>2017-01-10T23:25:46Z</datestamp>
      <setSpec>user-biosyslit</setSpec>
    </header>
    <header>
      <identifier>oai:zenodo.org:237994</identifier>
      <datestamp>2017-01-10T23:25:42Z</datestamp>
      <setSpec>user-biosyslit</setSpec>
    </header>
    <resumptionToken expirationDate="2017-08-31T15:47:33Z" cursor="65500" completeListSize="77796">.eJyNysEKgjAYAOB3-c8Sm0uXQhfRpIPKWkp6CVORclq4Ip347nnpXOfvm0BWVQk2WhkbU0emhQ1irRElhgay6O9CnK8LQ3FKRNGJOPeT16FNUKrXNHTlELgpCVWDohYrvmP6CW-G-IpGdoyfqToMCdm_OfJooNgY3vbLK0nki-ziP3jcOYLrZR95bOTY4Rkpvg__-dTP58otaPDI6wps06AaNO-8ryXY0zx_AJ-JUUY.DInAnQ.__n8aMtP-GNmvOi6gGlFEhAe2_8</resumptionToken>
  </ListIdentifiers>
</OAI-PMH>
