<?xml version='1.0' encoding='UTF-8'?>
<?xml-stylesheet type="text/xsl" href="/static/xsl/oai2.v1.0.xsl"?>
<OAI-PMH xmlns="http://www.openarchives.org/OAI/2.0/" xmlns:xsi="http://www.w3.org/2001/XMLSchema-instance" xsi:schemaLocation="http://www.openarchives.org/OAI/2.0/ http://www.openarchives.org/OAI/2.0/OAI-PMH.xsd">
  <responseDate>2017-08-31T15:44:59Z</responseDate>
  <request verb="ListIdentifiers" resumptionToken=".eJyNz8EOQzAAgOF36VmWVmdFsoswcUDoCC6LIWLKRLeg4t3nsvN2_r_LvwJeVSXQ4UGRjxChE9SggglRNQnwYnwydmv2DIokZkXPotyO32EXw1SuiWfy2TVT7IkW-h0S9BLICVLnqIFLcI1eqQjnGDsThRZxRbB4D2d3JfZtlt3tgUa9wahcjr4VLBQZNMPF16E_nfjpTH4GEhjyugK6QvardsrHmgN93bYPmZdRQw.DInAew.ftSgc1NAykXvPMrWPK0VRVYMe_I">https://zenodo.org/oai2d</request>
  <ListIdentifiers>
    <header>
      <identifier>oai:zenodo.org:438212</identifier>
      <datestamp>2017-03-27T07:11:32Z</datestamp>
      <setSpec>user-biosyslit</setSpec>
    </header>
    <header>
      <identifier>oai:zenodo.org:438872</identifier>
      <datestamp>2017-03-29T07:37:11Z</datestamp>
      <setSpec>user-biosyslit</setSpec>
    </header>
    <header>
      <identifier>oai:zenodo.org:439452</identifier>
      <datestamp>2017-03-31T07:47:53Z</datestamp>
      <setSpec>user-biosyslit</setSpec>
    </header>
    <header>
      <identifier>oai:zenodo.org:439148</identifier>
      <datestamp>2017-03-30T07:27:31Z</datestamp>
      <setSpec>user-biosyslit</setSpec>
    </header>
    <header>
      <identifier>oai:zenodo.org:439309</identifier>
      <datestamp>2017-03-31T09:17:24Z</datestamp>
      <setSpec>user-biosyslit</setSpec>
    </header>
    <header>
      <identifier>oai:zenodo.org:438601</identifier>
      <datestamp>2017-03-28T07:53:31Z</datestamp>
      <setSpec>user-biosyslit</setSpec>
    </header>
    <header>
      <identifier>oai:zenodo.org:439805</identifier>
      <datestamp>2017-04-03T07:52:24Z</datestamp>
      <setSpec>user-biosyslit</setSpec>
    </header>
    <header>
      <identifier>oai:zenodo.org:439312</identifier>
      <datestamp>2017-03-31T09:17:20Z</datestamp>
      <setSpec>user-biosyslit</setSpec>
    </header>
    <header>
      <identifier>oai:zenodo.org:439316</identifier>
      <datestamp>2017-03-31T09:17:15Z</datestamp>
      <setSpec>user-biosyslit</setSpec>
    </header>
    <header>
      <identifier>oai:zenodo.org:439786</identifier>
      <datestamp>2017-04-03T07:24:55Z</datestamp>
      <setSpec>user-biosyslit</setSpec>
    </header>
    <header>
      <identifier>oai:zenodo.org:495838</identifier>
      <datestamp>2017-04-10T07:21:18Z</datestamp>
      <setSpec>user-biosyslit</setSpec>
    </header>
    <header>
      <identifier>oai:zenodo.org:495302</identifier>
      <datestamp>2017-04-06T07:35:23Z</datestamp>
      <setSpec>user-biosyslit</setSpec>
    </header>
    <header>
      <identifier>oai:zenodo.org:495531</identifier>
      <datestamp>2017-04-07T07:31:04Z</datestamp>
      <setSpec>user-biosyslit</setSpec>
    </header>
    <header>
      <identifier>oai:zenodo.org:545879</identifier>
      <datestamp>2017-04-13T07:33:18Z</datestamp>
      <setSpec>user-biosyslit</setSpec>
    </header>
    <header>
      <identifier>oai:zenodo.org:546746</identifier>
      <datestamp>2017-04-28T10:54:02Z</datestamp>
      <setSpec>openaire</setSpec>
      <setSpec>user-biosyslit</setSpec>
    </header>
    <header>
      <identifier>oai:zenodo.org:546828</identifier>
      <datestamp>2017-04-18T07:39:52Z</datestamp>
      <setSpec>user-biosyslit</setSpec>
    </header>
    <header>
      <identifier>oai:zenodo.org:556264</identifier>
      <datestamp>2017-04-20T07:12:16Z</datestamp>
      <setSpec>user-biosyslit</setSpec>
    </header>
    <header>
      <identifier>oai:zenodo.org:556910</identifier>
      <datestamp>2017-04-24T08:07:50Z</datestamp>
      <setSpec>user-biosyslit</setSpec>
    </header>
    <header>
      <identifier>oai:zenodo.org:572512</identifier>
      <datestamp>2017-05-08T07:19:26Z</datestamp>
      <setSpec>user-biosyslit</setSpec>
    </header>
    <header>
      <identifier>oai:zenodo.org:579328</identifier>
      <datestamp>2017-05-18T07:02:58Z</datestamp>
      <setSpec>openaire</setSpec>
      <setSpec>user-biosyslit</setSpec>
    </header>
    <header>
      <identifier>oai:zenodo.org:579954</identifier>
      <datestamp>2017-05-15T08:58:34Z</datestamp>
      <setSpec>user-biosyslit</setSpec>
    </header>
    <header>
      <identifier>oai:zenodo.org:546817</identifier>
      <datestamp>2017-04-18T07:31:04Z</datestamp>
      <setSpec>user-biosyslit</setSpec>
    </header>
    <header>
      <identifier>oai:zenodo.org:545865</identifier>
      <datestamp>2017-04-13T07:23:35Z</datestamp>
      <setSpec>user-biosyslit</setSpec>
    </header>
    <header>
      <identifier>oai:zenodo.org:579388</identifier>
      <datestamp>2017-05-18T07:01:23Z</datestamp>
      <setSpec>openaire</setSpec>
      <setSpec>user-biosyslit</setSpec>
    </header>
    <header>
      <identifier>oai:zenodo.org:579416</identifier>
      <datestamp>2017-05-18T07:00:26Z</datestamp>
      <setSpec>openaire</setSpec>
      <setSpec>user-biosyslit</setSpec>
    </header>
    <header>
      <identifier>oai:zenodo.org:579410</identifier>
      <datestamp>2017-05-18T07:00:32Z</datestamp>
      <setSpec>openaire</setSpec>
      <setSpec>user-biosyslit</setSpec>
    </header>
    <header>
      <identifier>oai:zenodo.org:579231</identifier>
      <datestamp>2017-05-18T07:06:00Z</datestamp>
      <setSpec>openaire</setSpec>
      <setSpec>user-biosyslit</setSpec>
    </header>
    <header>
      <identifier>oai:zenodo.org:579403</identifier>
      <datestamp>2017-05-18T07:01:03Z</datestamp>
      <setSpec>openaire</setSpec>
      <setSpec>user-biosyslit</setSpec>
    </header>
    <header>
      <identifier>oai:zenodo.org:580966</identifier>
      <datestamp>2017-05-18T08:47:21Z</datestamp>
      <setSpec>user-biosyslit</setSpec>
    </header>
    <header>
      <identifier>oai:zenodo.org:579440</identifier>
      <datestamp>2017-05-18T06:59:38Z</datestamp>
      <setSpec>openaire</setSpec>
      <setSpec>user-biosyslit</setSpec>
    </header>
    <header>
      <identifier>oai:zenodo.org:580213</identifier>
      <datestamp>2017-05-16T08:16:10Z</datestamp>
      <setSpec>user-biosyslit</setSpec>
    </header>
    <header>
      <identifier>oai:zenodo.org:581270</identifier>
      <datestamp>2017-05-19T08:39:53Z</datestamp>
      <setSpec>user-biosyslit</setSpec>
    </header>
    <header>
      <identifier>oai:zenodo.org:581306</identifier>
      <datestamp>2017-05-19T09:40:18Z</datestamp>
      <setSpec>user-biosyslit</setSpec>
    </header>
    <header>
      <identifier>oai:zenodo.org:400094</identifier>
      <datestamp>2017-03-16T08:22:14Z</datestamp>
      <setSpec>user-biosyslit</setSpec>
    </header>
    <header>
      <identifier>oai:zenodo.org:556027</identifier>
      <datestamp>2017-04-19T07:18:07Z</datestamp>
      <setSpec>user-biosyslit</setSpec>
    </header>
    <header>
      <identifier>oai:zenodo.org:400211</identifier>
      <datestamp>2017-03-16T09:48:33Z</datestamp>
      <setSpec>user-biosyslit</setSpec>
    </header>
    <header>
      <identifier>oai:zenodo.org:400129</identifier>
      <datestamp>2017-03-16T08:49:08Z</datestamp>
      <setSpec>user-biosyslit</setSpec>
    </header>
    <header>
      <identifier>oai:zenodo.org:400416</identifier>
      <datestamp>2017-03-17T08:14:34Z</datestamp>
      <setSpec>user-biosyslit</setSpec>
    </header>
    <header>
      <identifier>oai:zenodo.org:432669</identifier>
      <datestamp>2017-03-21T09:39:08Z</datestamp>
      <setSpec>user-biosyslit</setSpec>
    </header>
    <header>
      <identifier>oai:zenodo.org:556032</identifier>
      <datestamp>2017-04-19T07:18:22Z</datestamp>
      <setSpec>user-biosyslit</setSpec>
    </header>
    <header>
      <identifier>oai:zenodo.org:427789</identifier>
      <datestamp>2017-03-21T08:36:04Z</datestamp>
      <setSpec>user-biosyslit</setSpec>
    </header>
    <header>
      <identifier>oai:zenodo.org:437622</identifier>
      <datestamp>2017-03-23T10:09:05Z</datestamp>
      <setSpec>user-biosyslit</setSpec>
    </header>
    <header>
      <identifier>oai:zenodo.org:437998</identifier>
      <datestamp>2017-03-24T09:06:56Z</datestamp>
      <setSpec>user-biosyslit</setSpec>
    </header>
    <header>
      <identifier>oai:zenodo.org:438551</identifier>
      <datestamp>2017-03-28T07:23:08Z</datestamp>
      <setSpec>user-biosyslit</setSpec>
    </header>
    <header>
      <identifier>oai:zenodo.org:437999</identifier>
      <datestamp>2017-03-24T09:06:58Z</datestamp>
      <setSpec>user-biosyslit</setSpec>
    </header>
    <header>
      <identifier>oai:zenodo.org:438589</identifier>
      <datestamp>2017-03-28T07:43:52Z</datestamp>
      <setSpec>user-biosyslit</setSpec>
    </header>
    <header>
      <identifier>oai:zenodo.org:438596</identifier>
      <datestamp>2017-03-28T07:45:48Z</datestamp>
      <setSpec>user-biosyslit</setSpec>
    </header>
    <header>
      <identifier>oai:zenodo.org:557157</identifier>
      <datestamp>2017-04-25T09:16:32Z</datestamp>
      <setSpec>user-biosyslit</setSpec>
    </header>
    <header>
      <identifier>oai:zenodo.org:438905</identifier>
      <datestamp>2017-03-29T08:30:27Z</datestamp>
      <setSpec>user-biosyslit</setSpec>
    </header>
    <header>
      <identifier>oai:zenodo.org:439468</identifier>
      <datestamp>2017-03-31T07:48:53Z</datestamp>
      <setSpec>user-biosyslit</setSpec>
    </header>
    <header>
      <identifier>oai:zenodo.org:438557</identifier>
      <datestamp>2017-03-28T07:23:24Z</datestamp>
      <setSpec>user-biosyslit</setSpec>
    </header>
    <header>
      <identifier>oai:zenodo.org:439307</identifier>
      <datestamp>2017-03-31T09:17:25Z</datestamp>
      <setSpec>user-biosyslit</setSpec>
    </header>
    <header>
      <identifier>oai:zenodo.org:557173</identifier>
      <datestamp>2017-04-25T09:17:18Z</datestamp>
      <setSpec>user-biosyslit</setSpec>
    </header>
    <header>
      <identifier>oai:zenodo.org:438903</identifier>
      <datestamp>2017-03-29T08:30:23Z</datestamp>
      <setSpec>user-biosyslit</setSpec>
    </header>
    <header>
      <identifier>oai:zenodo.org:439957</identifier>
      <datestamp>2017-04-03T18:03:47Z</datestamp>
      <setSpec>user-biosyslit</setSpec>
    </header>
    <header>
      <identifier>oai:zenodo.org:438867</identifier>
      <datestamp>2017-03-29T07:36:55Z</datestamp>
      <setSpec>user-biosyslit</setSpec>
    </header>
    <header>
      <identifier>oai:zenodo.org:439461</identifier>
      <datestamp>2017-03-31T07:48:29Z</datestamp>
      <setSpec>user-biosyslit</setSpec>
    </header>
    <header>
      <identifier>oai:zenodo.org:439315</identifier>
      <datestamp>2017-03-31T09:17:16Z</datestamp>
      <setSpec>user-biosyslit</setSpec>
    </header>
    <header>
      <identifier>oai:zenodo.org:439883</identifier>
      <datestamp>2017-04-03T10:56:35Z</datestamp>
      <setSpec>user-biosyslit</setSpec>
    </header>
    <header>
      <identifier>oai:zenodo.org:376440</identifier>
      <datestamp>2017-03-10T09:27:31Z</datestamp>
      <setSpec>user-biosyslit</setSpec>
    </header>
    <header>
      <identifier>oai:zenodo.org:376938</identifier>
      <datestamp>2017-03-13T08:48:37Z</datestamp>
      <setSpec>user-biosyslit</setSpec>
    </header>
    <header>
      <identifier>oai:zenodo.org:376227</identifier>
      <datestamp>2017-03-09T14:32:25Z</datestamp>
      <setSpec>user-biosyslit</setSpec>
    </header>
    <header>
      <identifier>oai:zenodo.org:376703</identifier>
      <datestamp>2017-03-11T00:04:48Z</datestamp>
      <setSpec>user-biosyslit</setSpec>
    </header>
    <header>
      <identifier>oai:zenodo.org:376678</identifier>
      <datestamp>2017-03-11T00:03:47Z</datestamp>
      <setSpec>user-biosyslit</setSpec>
    </header>
    <header>
      <identifier>oai:zenodo.org:376914</identifier>
      <datestamp>2017-03-13T08:39:25Z</datestamp>
      <setSpec>user-biosyslit</setSpec>
    </header>
    <header>
      <identifier>oai:zenodo.org:583404</identifier>
      <datestamp>2017-05-26T08:09:46Z</datestamp>
      <setSpec>user-biosyslit</setSpec>
    </header>
    <header>
      <identifier>oai:zenodo.org:376976</identifier>
      <datestamp>2017-03-13T09:43:14Z</datestamp>
      <setSpec>user-biosyslit</setSpec>
    </header>
    <header>
      <identifier>oai:zenodo.org:583899</identifier>
      <datestamp>2017-05-29T08:16:17Z</datestamp>
      <setSpec>user-biosyslit</setSpec>
    </header>
    <header>
      <identifier>oai:zenodo.org:583863</identifier>
      <datestamp>2017-05-29T08:01:49Z</datestamp>
      <setSpec>user-biosyslit</setSpec>
    </header>
    <header>
      <identifier>oai:zenodo.org:399584</identifier>
      <datestamp>2017-03-15T22:58:02Z</datestamp>
      <setSpec>user-biosyslit</setSpec>
    </header>
    <header>
      <identifier>oai:zenodo.org:400716</identifier>
      <datestamp>2017-03-19T10:08:59Z</datestamp>
      <setSpec>user-biosyslit</setSpec>
    </header>
    <header>
      <identifier>oai:zenodo.org:400353</identifier>
      <datestamp>2017-03-16T20:39:39Z</datestamp>
      <setSpec>user-biosyslit</setSpec>
    </header>
    <header>
      <identifier>oai:zenodo.org:399401</identifier>
      <datestamp>2017-03-15T20:52:15Z</datestamp>
      <setSpec>user-biosyslit</setSpec>
    </header>
    <header>
      <identifier>oai:zenodo.org:400200</identifier>
      <datestamp>2017-03-16T09:36:06Z</datestamp>
      <setSpec>user-biosyslit</setSpec>
    </header>
    <header>
      <identifier>oai:zenodo.org:399443</identifier>
      <datestamp>2017-03-15T20:56:16Z</datestamp>
      <setSpec>user-biosyslit</setSpec>
    </header>
    <header>
      <identifier>oai:zenodo.org:399608</identifier>
      <datestamp>2017-03-15T22:59:13Z</datestamp>
      <setSpec>user-biosyslit</setSpec>
    </header>
    <header>
      <identifier>oai:zenodo.org:400066</identifier>
      <datestamp>2017-03-16T07:32:18Z</datestamp>
      <setSpec>user-biosyslit</setSpec>
    </header>
    <header>
      <identifier>oai:zenodo.org:398774</identifier>
      <datestamp>2017-03-14T09:51:47Z</datestamp>
      <setSpec>user-biosyslit</setSpec>
    </header>
    <header>
      <identifier>oai:zenodo.org:400452</identifier>
      <datestamp>2017-03-17T08:53:39Z</datestamp>
      <setSpec>user-biosyslit</setSpec>
    </header>
    <header>
      <identifier>oai:zenodo.org:398934</identifier>
      <datestamp>2017-03-14T21:07:05Z</datestamp>
      <setSpec>user-biosyslit</setSpec>
    </header>
    <header>
      <identifier>oai:zenodo.org:399574</identifier>
      <datestamp>2017-03-15T22:57:28Z</datestamp>
      <setSpec>user-biosyslit</setSpec>
    </header>
    <header>
      <identifier>oai:zenodo.org:399596</identifier>
      <datestamp>2017-03-15T22:58:40Z</datestamp>
      <setSpec>user-biosyslit</setSpec>
    </header>
    <header>
      <identifier>oai:zenodo.org:400029</identifier>
      <datestamp>2017-03-16T07:30:09Z</datestamp>
      <setSpec>user-biosyslit</setSpec>
    </header>
    <header>
      <identifier>oai:zenodo.org:399966</identifier>
      <datestamp>2017-03-16T01:42:04Z</datestamp>
      <setSpec>user-biosyslit</setSpec>
    </header>
    <header>
      <identifier>oai:zenodo.org:556281</identifier>
      <datestamp>2017-04-20T07:41:53Z</datestamp>
      <setSpec>user-biosyslit</setSpec>
    </header>
    <header>
      <identifier>oai:zenodo.org:556877</identifier>
      <datestamp>2017-04-24T08:06:01Z</datestamp>
      <setSpec>user-biosyslit</setSpec>
    </header>
    <header>
      <identifier>oai:zenodo.org:399900</identifier>
      <datestamp>2017-03-16T01:31:32Z</datestamp>
      <setSpec>user-biosyslit</setSpec>
    </header>
    <header>
      <identifier>oai:zenodo.org:400197</identifier>
      <datestamp>2017-03-16T09:35:59Z</datestamp>
      <setSpec>user-biosyslit</setSpec>
    </header>
    <header>
      <identifier>oai:zenodo.org:400166</identifier>
      <datestamp>2017-03-16T09:16:47Z</datestamp>
      <setSpec>user-biosyslit</setSpec>
    </header>
    <header>
      <identifier>oai:zenodo.org:556051</identifier>
      <datestamp>2017-04-19T07:37:29Z</datestamp>
      <setSpec>user-biosyslit</setSpec>
    </header>
    <header>
      <identifier>oai:zenodo.org:400099</identifier>
      <datestamp>2017-03-16T08:22:24Z</datestamp>
      <setSpec>user-biosyslit</setSpec>
    </header>
    <header>
      <identifier>oai:zenodo.org:400846</identifier>
      <datestamp>2017-03-20T08:27:27Z</datestamp>
      <setSpec>user-biosyslit</setSpec>
    </header>
    <header>
      <identifier>oai:zenodo.org:400037</identifier>
      <datestamp>2017-03-16T07:30:52Z</datestamp>
      <setSpec>user-biosyslit</setSpec>
    </header>
    <header>
      <identifier>oai:zenodo.org:400888</identifier>
      <datestamp>2017-03-20T09:21:55Z</datestamp>
      <setSpec>user-biosyslit</setSpec>
    </header>
    <header>
      <identifier>oai:zenodo.org:437683</identifier>
      <datestamp>2017-03-23T10:11:24Z</datestamp>
      <setSpec>user-biosyslit</setSpec>
    </header>
    <header>
      <identifier>oai:zenodo.org:437636</identifier>
      <datestamp>2017-03-23T10:09:37Z</datestamp>
      <setSpec>user-biosyslit</setSpec>
    </header>
    <header>
      <identifier>oai:zenodo.org:437293</identifier>
      <datestamp>2017-03-22T09:19:01Z</datestamp>
      <setSpec>user-biosyslit</setSpec>
    </header>
    <header>
      <identifier>oai:zenodo.org:439187</identifier>
      <datestamp>2017-03-30T07:49:47Z</datestamp>
      <setSpec>user-biosyslit</setSpec>
    </header>
    <header>
      <identifier>oai:zenodo.org:437232</identifier>
      <datestamp>2017-03-22T08:23:57Z</datestamp>
      <setSpec>user-biosyslit</setSpec>
    </header>
    <header>
      <identifier>oai:zenodo.org:437984</identifier>
      <datestamp>2017-03-24T08:50:07Z</datestamp>
      <setSpec>user-biosyslit</setSpec>
    </header>
    <resumptionToken expirationDate="2017-08-31T15:46:59Z" cursor="57800" completeListSize="77796">.eJyNyj0LgkAYAOD_8s4S91FqQotY4qByXkq6hJ0i1mXiFepF_72W5pqf5wmqritw0MI0bWIivCb2ki4pXhugxHCT8th-GMQhk6KTaelnj-SaoZw0VuSpKfRyGukLiq9Y8x0jB2xPaYtmtk_vuU6mjAYjR1sr1GyOzsHnVTT2ZXHye552ruSkGuItmzl2eUHF9-E_n_75PLUBA_qyqcFZ2ciAy1gOjQLn-Xq9AZ5ZUUA.DInAew.FPRkhLbiOZoxESjCfd73H0zD8pI</resumptionToken>
  </ListIdentifiers>
</OAI-PMH>
