<?xml version='1.0' encoding='UTF-8'?>
<?xml-stylesheet type="text/xsl" href="/static/xsl/oai2.v1.0.xsl"?>
<OAI-PMH xmlns="http://www.openarchives.org/OAI/2.0/" xmlns:xsi="http://www.w3.org/2001/XMLSchema-instance" xsi:schemaLocation="http://www.openarchives.org/OAI/2.0/ http://www.openarchives.org/OAI/2.0/OAI-PMH.xsd">
  <responseDate>2017-08-31T15:45:23Z</responseDate>
  <request verb="ListIdentifiers" resumptionToken=".eJyNyj0PQ0AcgPHv8p-lOa6tl6SLUDEgXAmWRhFRR8W1wYnvXh06t8uzPL8FWFkWoKGdjPaq8omsoANWJQFYPjwovdbbhjyOaN7RMLOiV9BGKJEq2TXY5BgJdnmDvFbk5OxLsahMYY1m_xI-Ex5MEbZHgkzZ4f7s3u3NFdizaHqzehJ2OiVSMXimPxNRJynOv0780_GfzmAnEKDPqhK0I8YCNGM2VAy0ZV3fp3RRSQ.DInAkw._BKB8XzL6E33dgck2A_THh4BQlo">https://zenodo.org/oai2d</request>
  <ListIdentifiers>
    <header>
      <identifier>oai:zenodo.org:279059</identifier>
      <datestamp>2017-02-09T00:32:18Z</datestamp>
      <setSpec>user-biosyslit</setSpec>
    </header>
    <header>
      <identifier>oai:zenodo.org:279066</identifier>
      <datestamp>2017-02-09T00:32:39Z</datestamp>
      <setSpec>user-biosyslit</setSpec>
    </header>
    <header>
      <identifier>oai:zenodo.org:245351</identifier>
      <datestamp>2017-01-15T12:05:32Z</datestamp>
      <setSpec>user-biosyslit</setSpec>
    </header>
    <header>
      <identifier>oai:zenodo.org:245344</identifier>
      <datestamp>2017-01-15T12:05:08Z</datestamp>
      <setSpec>user-biosyslit</setSpec>
    </header>
    <header>
      <identifier>oai:zenodo.org:245350</identifier>
      <datestamp>2017-01-15T12:05:29Z</datestamp>
      <setSpec>user-biosyslit</setSpec>
    </header>
    <header>
      <identifier>oai:zenodo.org:285931</identifier>
      <datestamp>2017-02-09T14:54:29Z</datestamp>
      <setSpec>user-biosyslit</setSpec>
    </header>
    <header>
      <identifier>oai:zenodo.org:285956</identifier>
      <datestamp>2017-02-09T14:54:13Z</datestamp>
      <setSpec>user-biosyslit</setSpec>
    </header>
    <header>
      <identifier>oai:zenodo.org:285957</identifier>
      <datestamp>2017-02-09T14:54:18Z</datestamp>
      <setSpec>user-biosyslit</setSpec>
    </header>
    <header>
      <identifier>oai:zenodo.org:285959</identifier>
      <datestamp>2017-02-09T14:54:23Z</datestamp>
      <setSpec>user-biosyslit</setSpec>
    </header>
    <header>
      <identifier>oai:zenodo.org:285960</identifier>
      <datestamp>2017-02-09T14:54:25Z</datestamp>
      <setSpec>user-biosyslit</setSpec>
    </header>
    <header>
      <identifier>oai:zenodo.org:285955</identifier>
      <datestamp>2017-02-09T14:54:11Z</datestamp>
      <setSpec>user-biosyslit</setSpec>
    </header>
    <header>
      <identifier>oai:zenodo.org:279518</identifier>
      <datestamp>2017-02-09T01:34:07Z</datestamp>
      <setSpec>user-biosyslit</setSpec>
    </header>
    <header>
      <identifier>oai:zenodo.org:279519</identifier>
      <datestamp>2017-02-09T01:34:09Z</datestamp>
      <setSpec>user-biosyslit</setSpec>
    </header>
    <header>
      <identifier>oai:zenodo.org:250978</identifier>
      <datestamp>2017-01-18T17:01:42Z</datestamp>
      <setSpec>user-biosyslit</setSpec>
    </header>
    <header>
      <identifier>oai:zenodo.org:250984</identifier>
      <datestamp>2017-01-18T17:02:08Z</datestamp>
      <setSpec>user-biosyslit</setSpec>
    </header>
    <header>
      <identifier>oai:zenodo.org:250982</identifier>
      <datestamp>2017-01-18T17:02:01Z</datestamp>
      <setSpec>user-biosyslit</setSpec>
    </header>
    <header>
      <identifier>oai:zenodo.org:237261</identifier>
      <datestamp>2017-01-10T13:23:39Z</datestamp>
      <setSpec>user-biosyslit</setSpec>
    </header>
    <header>
      <identifier>oai:zenodo.org:237266</identifier>
      <datestamp>2017-01-10T13:23:58Z</datestamp>
      <setSpec>user-biosyslit</setSpec>
    </header>
    <header>
      <identifier>oai:zenodo.org:237260</identifier>
      <datestamp>2017-01-10T13:23:35Z</datestamp>
      <setSpec>user-biosyslit</setSpec>
    </header>
    <header>
      <identifier>oai:zenodo.org:237264</identifier>
      <datestamp>2017-01-10T13:23:49Z</datestamp>
      <setSpec>user-biosyslit</setSpec>
    </header>
    <header>
      <identifier>oai:zenodo.org:237257</identifier>
      <datestamp>2017-01-10T13:23:26Z</datestamp>
      <setSpec>user-biosyslit</setSpec>
    </header>
    <header>
      <identifier>oai:zenodo.org:237259</identifier>
      <datestamp>2017-01-10T13:23:32Z</datestamp>
      <setSpec>user-biosyslit</setSpec>
    </header>
    <header>
      <identifier>oai:zenodo.org:237263</identifier>
      <datestamp>2017-01-10T13:23:44Z</datestamp>
      <setSpec>user-biosyslit</setSpec>
    </header>
    <header>
      <identifier>oai:zenodo.org:237262</identifier>
      <datestamp>2017-01-10T13:23:41Z</datestamp>
      <setSpec>user-biosyslit</setSpec>
    </header>
    <header>
      <identifier>oai:zenodo.org:237254</identifier>
      <datestamp>2017-01-10T13:23:14Z</datestamp>
      <setSpec>user-biosyslit</setSpec>
    </header>
    <header>
      <identifier>oai:zenodo.org:245306</identifier>
      <datestamp>2017-01-15T11:31:10Z</datestamp>
      <setSpec>user-biosyslit</setSpec>
    </header>
    <header>
      <identifier>oai:zenodo.org:245308</identifier>
      <datestamp>2017-01-15T11:31:19Z</datestamp>
      <setSpec>user-biosyslit</setSpec>
    </header>
    <header>
      <identifier>oai:zenodo.org:245062</identifier>
      <datestamp>2017-01-15T07:25:38Z</datestamp>
      <setSpec>user-biosyslit</setSpec>
    </header>
    <header>
      <identifier>oai:zenodo.org:245073</identifier>
      <datestamp>2017-01-15T07:24:52Z</datestamp>
      <setSpec>user-biosyslit</setSpec>
    </header>
    <header>
      <identifier>oai:zenodo.org:245079</identifier>
      <datestamp>2017-01-15T07:25:16Z</datestamp>
      <setSpec>user-biosyslit</setSpec>
    </header>
    <header>
      <identifier>oai:zenodo.org:245076</identifier>
      <datestamp>2017-01-15T07:25:05Z</datestamp>
      <setSpec>user-biosyslit</setSpec>
    </header>
    <header>
      <identifier>oai:zenodo.org:245083</identifier>
      <datestamp>2017-01-15T07:25:33Z</datestamp>
      <setSpec>user-biosyslit</setSpec>
    </header>
    <header>
      <identifier>oai:zenodo.org:245075</identifier>
      <datestamp>2017-01-15T07:25:02Z</datestamp>
      <setSpec>user-biosyslit</setSpec>
    </header>
    <header>
      <identifier>oai:zenodo.org:245071</identifier>
      <datestamp>2017-01-15T07:24:43Z</datestamp>
      <setSpec>user-biosyslit</setSpec>
    </header>
    <header>
      <identifier>oai:zenodo.org:235730</identifier>
      <datestamp>2017-01-09T14:06:12Z</datestamp>
      <setSpec>user-biosyslit</setSpec>
    </header>
    <header>
      <identifier>oai:zenodo.org:235731</identifier>
      <datestamp>2017-01-09T14:06:17Z</datestamp>
      <setSpec>user-biosyslit</setSpec>
    </header>
    <header>
      <identifier>oai:zenodo.org:235726</identifier>
      <datestamp>2017-01-09T14:06:00Z</datestamp>
      <setSpec>user-biosyslit</setSpec>
    </header>
    <header>
      <identifier>oai:zenodo.org:249035</identifier>
      <datestamp>2017-01-17T15:18:15Z</datestamp>
      <setSpec>user-biosyslit</setSpec>
    </header>
    <header>
      <identifier>oai:zenodo.org:249043</identifier>
      <datestamp>2017-01-17T15:18:49Z</datestamp>
      <setSpec>user-biosyslit</setSpec>
    </header>
    <header>
      <identifier>oai:zenodo.org:249027</identifier>
      <datestamp>2017-01-17T15:17:45Z</datestamp>
      <setSpec>user-biosyslit</setSpec>
    </header>
    <header>
      <identifier>oai:zenodo.org:249036</identifier>
      <datestamp>2017-01-17T15:18:20Z</datestamp>
      <setSpec>user-biosyslit</setSpec>
    </header>
    <header>
      <identifier>oai:zenodo.org:249037</identifier>
      <datestamp>2017-01-17T15:18:24Z</datestamp>
      <setSpec>user-biosyslit</setSpec>
    </header>
    <header>
      <identifier>oai:zenodo.org:265069</identifier>
      <datestamp>2017-01-31T07:21:48Z</datestamp>
      <setSpec>user-biosyslit</setSpec>
    </header>
    <header>
      <identifier>oai:zenodo.org:265074</identifier>
      <datestamp>2017-01-31T07:21:30Z</datestamp>
      <setSpec>user-biosyslit</setSpec>
    </header>
    <header>
      <identifier>oai:zenodo.org:265078</identifier>
      <datestamp>2017-01-31T07:21:42Z</datestamp>
      <setSpec>user-biosyslit</setSpec>
    </header>
    <header>
      <identifier>oai:zenodo.org:265073</identifier>
      <datestamp>2017-01-31T07:21:27Z</datestamp>
      <setSpec>user-biosyslit</setSpec>
    </header>
    <header>
      <identifier>oai:zenodo.org:265076</identifier>
      <datestamp>2017-01-31T07:21:36Z</datestamp>
      <setSpec>user-biosyslit</setSpec>
    </header>
    <header>
      <identifier>oai:zenodo.org:265079</identifier>
      <datestamp>2017-01-31T07:21:43Z</datestamp>
      <setSpec>user-biosyslit</setSpec>
    </header>
    <header>
      <identifier>oai:zenodo.org:265080</identifier>
      <datestamp>2017-01-31T07:21:46Z</datestamp>
      <setSpec>user-biosyslit</setSpec>
    </header>
    <header>
      <identifier>oai:zenodo.org:265077</identifier>
      <datestamp>2017-01-31T07:21:38Z</datestamp>
      <setSpec>user-biosyslit</setSpec>
    </header>
    <header>
      <identifier>oai:zenodo.org:237105</identifier>
      <datestamp>2017-01-10T10:47:44Z</datestamp>
      <setSpec>user-biosyslit</setSpec>
    </header>
    <header>
      <identifier>oai:zenodo.org:263497</identifier>
      <datestamp>2017-01-29T23:43:03Z</datestamp>
      <setSpec>user-biosyslit</setSpec>
    </header>
    <header>
      <identifier>oai:zenodo.org:263511</identifier>
      <datestamp>2017-01-29T23:42:29Z</datestamp>
      <setSpec>user-biosyslit</setSpec>
    </header>
    <header>
      <identifier>oai:zenodo.org:263521</identifier>
      <datestamp>2017-01-29T23:42:57Z</datestamp>
      <setSpec>user-biosyslit</setSpec>
    </header>
    <header>
      <identifier>oai:zenodo.org:263510</identifier>
      <datestamp>2017-01-29T23:42:27Z</datestamp>
      <setSpec>user-biosyslit</setSpec>
    </header>
    <header>
      <identifier>oai:zenodo.org:263514</identifier>
      <datestamp>2017-01-29T23:42:36Z</datestamp>
      <setSpec>user-biosyslit</setSpec>
    </header>
    <header>
      <identifier>oai:zenodo.org:263519</identifier>
      <datestamp>2017-01-29T23:42:52Z</datestamp>
      <setSpec>user-biosyslit</setSpec>
    </header>
    <header>
      <identifier>oai:zenodo.org:263516</identifier>
      <datestamp>2017-01-29T23:42:44Z</datestamp>
      <setSpec>user-biosyslit</setSpec>
    </header>
    <header>
      <identifier>oai:zenodo.org:232638</identifier>
      <datestamp>2017-01-06T20:56:33Z</datestamp>
      <setSpec>user-biosyslit</setSpec>
    </header>
    <header>
      <identifier>oai:zenodo.org:282355</identifier>
      <datestamp>2017-02-09T06:52:16Z</datestamp>
      <setSpec>user-biosyslit</setSpec>
    </header>
    <header>
      <identifier>oai:zenodo.org:282359</identifier>
      <datestamp>2017-02-09T06:52:26Z</datestamp>
      <setSpec>user-biosyslit</setSpec>
    </header>
    <header>
      <identifier>oai:zenodo.org:282361</identifier>
      <datestamp>2017-02-09T06:52:30Z</datestamp>
      <setSpec>user-biosyslit</setSpec>
    </header>
    <header>
      <identifier>oai:zenodo.org:242821</identifier>
      <datestamp>2017-01-13T19:34:10Z</datestamp>
      <setSpec>user-biosyslit</setSpec>
    </header>
    <header>
      <identifier>oai:zenodo.org:242823</identifier>
      <datestamp>2017-01-13T19:34:16Z</datestamp>
      <setSpec>user-biosyslit</setSpec>
    </header>
    <header>
      <identifier>oai:zenodo.org:242814</identifier>
      <datestamp>2017-01-13T19:33:45Z</datestamp>
      <setSpec>user-biosyslit</setSpec>
    </header>
    <header>
      <identifier>oai:zenodo.org:242826</identifier>
      <datestamp>2017-01-13T19:34:25Z</datestamp>
      <setSpec>user-biosyslit</setSpec>
    </header>
    <header>
      <identifier>oai:zenodo.org:242820</identifier>
      <datestamp>2017-01-13T19:34:08Z</datestamp>
      <setSpec>user-biosyslit</setSpec>
    </header>
    <header>
      <identifier>oai:zenodo.org:242825</identifier>
      <datestamp>2017-01-13T19:34:21Z</datestamp>
      <setSpec>user-biosyslit</setSpec>
    </header>
    <header>
      <identifier>oai:zenodo.org:242816</identifier>
      <datestamp>2017-01-13T19:33:51Z</datestamp>
      <setSpec>user-biosyslit</setSpec>
    </header>
    <header>
      <identifier>oai:zenodo.org:242822</identifier>
      <datestamp>2017-01-13T19:34:13Z</datestamp>
      <setSpec>user-biosyslit</setSpec>
    </header>
    <header>
      <identifier>oai:zenodo.org:242815</identifier>
      <datestamp>2017-01-13T19:33:48Z</datestamp>
      <setSpec>user-biosyslit</setSpec>
    </header>
    <header>
      <identifier>oai:zenodo.org:278931</identifier>
      <datestamp>2017-02-09T00:12:47Z</datestamp>
      <setSpec>user-biosyslit</setSpec>
    </header>
    <header>
      <identifier>oai:zenodo.org:278945</identifier>
      <datestamp>2017-02-09T00:12:40Z</datestamp>
      <setSpec>user-biosyslit</setSpec>
    </header>
    <header>
      <identifier>oai:zenodo.org:278940</identifier>
      <datestamp>2017-02-09T00:12:28Z</datestamp>
      <setSpec>user-biosyslit</setSpec>
    </header>
    <header>
      <identifier>oai:zenodo.org:278947</identifier>
      <datestamp>2017-02-09T00:12:45Z</datestamp>
      <setSpec>user-biosyslit</setSpec>
    </header>
    <header>
      <identifier>oai:zenodo.org:289200</identifier>
      <datestamp>2017-02-09T22:57:34Z</datestamp>
      <setSpec>user-biosyslit</setSpec>
    </header>
    <header>
      <identifier>oai:zenodo.org:244224</identifier>
      <datestamp>2017-01-14T17:43:03Z</datestamp>
      <setSpec>user-biosyslit</setSpec>
    </header>
    <header>
      <identifier>oai:zenodo.org:289210</identifier>
      <datestamp>2017-02-09T22:57:31Z</datestamp>
      <setSpec>user-biosyslit</setSpec>
    </header>
    <header>
      <identifier>oai:zenodo.org:289209</identifier>
      <datestamp>2017-02-09T22:57:27Z</datestamp>
      <setSpec>user-biosyslit</setSpec>
    </header>
    <header>
      <identifier>oai:zenodo.org:289206</identifier>
      <datestamp>2017-02-09T22:57:21Z</datestamp>
      <setSpec>user-biosyslit</setSpec>
    </header>
    <header>
      <identifier>oai:zenodo.org:289205</identifier>
      <datestamp>2017-02-09T22:57:18Z</datestamp>
      <setSpec>user-biosyslit</setSpec>
    </header>
    <header>
      <identifier>oai:zenodo.org:289208</identifier>
      <datestamp>2017-02-09T22:57:25Z</datestamp>
      <setSpec>user-biosyslit</setSpec>
    </header>
    <header>
      <identifier>oai:zenodo.org:239107</identifier>
      <datestamp>2017-01-11T16:34:53Z</datestamp>
      <setSpec>user-biosyslit</setSpec>
    </header>
    <header>
      <identifier>oai:zenodo.org:239109</identifier>
      <datestamp>2017-01-11T16:35:04Z</datestamp>
      <setSpec>user-biosyslit</setSpec>
    </header>
    <header>
      <identifier>oai:zenodo.org:239111</identifier>
      <datestamp>2017-01-11T16:35:11Z</datestamp>
      <setSpec>user-biosyslit</setSpec>
    </header>
    <header>
      <identifier>oai:zenodo.org:243147</identifier>
      <datestamp>2017-01-13T23:56:34Z</datestamp>
      <setSpec>user-biosyslit</setSpec>
    </header>
    <header>
      <identifier>oai:zenodo.org:243150</identifier>
      <datestamp>2017-01-13T23:56:45Z</datestamp>
      <setSpec>user-biosyslit</setSpec>
    </header>
    <header>
      <identifier>oai:zenodo.org:243148</identifier>
      <datestamp>2017-01-13T23:56:36Z</datestamp>
      <setSpec>user-biosyslit</setSpec>
    </header>
    <header>
      <identifier>oai:zenodo.org:243151</identifier>
      <datestamp>2017-01-13T23:56:48Z</datestamp>
      <setSpec>user-biosyslit</setSpec>
    </header>
    <header>
      <identifier>oai:zenodo.org:243152</identifier>
      <datestamp>2017-01-13T23:56:51Z</datestamp>
      <setSpec>user-biosyslit</setSpec>
    </header>
    <header>
      <identifier>oai:zenodo.org:275473</identifier>
      <datestamp>2017-02-08T16:31:24Z</datestamp>
      <setSpec>user-biosyslit</setSpec>
    </header>
    <header>
      <identifier>oai:zenodo.org:275470</identifier>
      <datestamp>2017-02-08T16:31:17Z</datestamp>
      <setSpec>user-biosyslit</setSpec>
    </header>
    <header>
      <identifier>oai:zenodo.org:274772</identifier>
      <datestamp>2017-02-08T14:20:02Z</datestamp>
      <setSpec>user-biosyslit</setSpec>
    </header>
    <header>
      <identifier>oai:zenodo.org:274776</identifier>
      <datestamp>2017-02-08T14:20:01Z</datestamp>
      <setSpec>user-biosyslit</setSpec>
    </header>
    <header>
      <identifier>oai:zenodo.org:274775</identifier>
      <datestamp>2017-02-08T14:19:58Z</datestamp>
      <setSpec>user-biosyslit</setSpec>
    </header>
    <header>
      <identifier>oai:zenodo.org:267355</identifier>
      <datestamp>2017-02-02T00:44:23Z</datestamp>
      <setSpec>user-biosyslit</setSpec>
    </header>
    <header>
      <identifier>oai:zenodo.org:267360</identifier>
      <datestamp>2017-02-02T00:44:18Z</datestamp>
      <setSpec>user-biosyslit</setSpec>
    </header>
    <header>
      <identifier>oai:zenodo.org:256177</identifier>
      <datestamp>2017-01-22T06:15:54Z</datestamp>
      <setSpec>user-biosyslit</setSpec>
    </header>
    <header>
      <identifier>oai:zenodo.org:256175</identifier>
      <datestamp>2017-01-22T06:15:48Z</datestamp>
      <setSpec>user-biosyslit</setSpec>
    </header>
    <header>
      <identifier>oai:zenodo.org:256176</identifier>
      <datestamp>2017-01-22T06:15:51Z</datestamp>
      <setSpec>user-biosyslit</setSpec>
    </header>
    <resumptionToken expirationDate="2017-08-31T15:47:23Z" cursor="63200" completeListSize="77796">.eJyNyssKgkAYQOF3-dcSc9FKoU1o4kJFpxmyTZiKmGOJU6QTvXtuWhdneb4XqKoqwUELgqw5gm3bpsg2iWWAKoablKdm_lAchCyukue-eKSdQBmpV5GrxtDNaKRbFHdYs11CDng98gZNyZ7fM52OggZPhrxVqJMpugSzK2nsy-PZ7xm_biUj5RB7ycTwlh1p8XX4T6d_OldtwIA-rytwltQ0oH3mQ63Aeb3fH8hRUWk.DInAkw.p2ikjMBbs7n0vNs0tfBeHJITPh4</resumptionToken>
  </ListIdentifiers>
</OAI-PMH>
