<?xml version='1.0' encoding='UTF-8'?>
<?xml-stylesheet type="text/xsl" href="/static/xsl/oai2.v1.0.xsl"?>
<OAI-PMH xmlns="http://www.openarchives.org/OAI/2.0/" xmlns:xsi="http://www.w3.org/2001/XMLSchema-instance" xsi:schemaLocation="http://www.openarchives.org/OAI/2.0/ http://www.openarchives.org/OAI/2.0/OAI-PMH.xsd">
  <responseDate>2017-08-31T15:43:44Z</responseDate>
  <request verb="ListIdentifiers" resumptionToken=".eJyNyj0LgkAYAOD_8s4S96EoQoto4qBil5IuYaeIeZp4RXrSf8-luebnWUHWdQU22mFEsEERJrphmoalUw0kn-5CXNrNgZ8zwQeRln72PPYZykljRq6cQzenkepQ3GPFDgk5Y2tOW7Qkp_SRq-Oc0eDFkGeGKlmiW7C9isa-KK7-yNLBEYxUU-wlC8MOKyj_PvznUz-fK_egwVg2Ndg6tjToXuXUSLDX9_sDwapRYg.DInAMA.hGTBAZvpY99q4LQCffMFQRTWToU">https://zenodo.org/oai2d</request>
  <ListIdentifiers>
    <header>
      <identifier>oai:zenodo.org:260627</identifier>
      <datestamp>2017-01-27T22:45:42Z</datestamp>
      <setSpec>user-biosyslit</setSpec>
    </header>
    <header>
      <identifier>oai:zenodo.org:261842</identifier>
      <datestamp>2017-01-28T15:52:03Z</datestamp>
      <setSpec>user-biosyslit</setSpec>
    </header>
    <header>
      <identifier>oai:zenodo.org:261380</identifier>
      <datestamp>2017-01-28T08:29:26Z</datestamp>
      <setSpec>user-biosyslit</setSpec>
    </header>
    <header>
      <identifier>oai:zenodo.org:261437</identifier>
      <datestamp>2017-01-28T08:45:58Z</datestamp>
      <setSpec>user-biosyslit</setSpec>
    </header>
    <header>
      <identifier>oai:zenodo.org:262068</identifier>
      <datestamp>2017-01-28T19:59:07Z</datestamp>
      <setSpec>user-biosyslit</setSpec>
    </header>
    <header>
      <identifier>oai:zenodo.org:261677</identifier>
      <datestamp>2017-01-28T12:26:51Z</datestamp>
      <setSpec>user-biosyslit</setSpec>
    </header>
    <header>
      <identifier>oai:zenodo.org:262232</identifier>
      <datestamp>2017-01-29T00:28:23Z</datestamp>
      <setSpec>user-biosyslit</setSpec>
    </header>
    <header>
      <identifier>oai:zenodo.org:262252</identifier>
      <datestamp>2017-01-29T00:29:45Z</datestamp>
      <setSpec>user-biosyslit</setSpec>
    </header>
    <header>
      <identifier>oai:zenodo.org:262264</identifier>
      <datestamp>2017-01-29T01:13:57Z</datestamp>
      <setSpec>user-biosyslit</setSpec>
    </header>
    <header>
      <identifier>oai:zenodo.org:273507</identifier>
      <datestamp>2017-02-08T09:32:32Z</datestamp>
      <setSpec>user-biosyslit</setSpec>
    </header>
    <header>
      <identifier>oai:zenodo.org:273717</identifier>
      <datestamp>2017-02-08T10:25:02Z</datestamp>
      <setSpec>user-biosyslit</setSpec>
    </header>
    <header>
      <identifier>oai:zenodo.org:262149</identifier>
      <datestamp>2017-01-28T22:03:09Z</datestamp>
      <setSpec>user-biosyslit</setSpec>
    </header>
    <header>
      <identifier>oai:zenodo.org:273865</identifier>
      <datestamp>2017-02-08T11:01:32Z</datestamp>
      <setSpec>user-biosyslit</setSpec>
    </header>
    <header>
      <identifier>oai:zenodo.org:273917</identifier>
      <datestamp>2017-02-08T11:16:38Z</datestamp>
      <setSpec>user-biosyslit</setSpec>
    </header>
    <header>
      <identifier>oai:zenodo.org:262373</identifier>
      <datestamp>2017-01-29T02:48:21Z</datestamp>
      <setSpec>user-biosyslit</setSpec>
    </header>
    <header>
      <identifier>oai:zenodo.org:262358</identifier>
      <datestamp>2017-01-29T02:28:35Z</datestamp>
      <setSpec>user-biosyslit</setSpec>
    </header>
    <header>
      <identifier>oai:zenodo.org:262348</identifier>
      <datestamp>2017-01-29T02:00:08Z</datestamp>
      <setSpec>user-biosyslit</setSpec>
    </header>
    <header>
      <identifier>oai:zenodo.org:280656</identifier>
      <datestamp>2017-02-09T03:48:54Z</datestamp>
      <setSpec>user-biosyslit</setSpec>
    </header>
    <header>
      <identifier>oai:zenodo.org:263220</identifier>
      <datestamp>2017-01-29T18:58:06Z</datestamp>
      <setSpec>user-biosyslit</setSpec>
    </header>
    <header>
      <identifier>oai:zenodo.org:262580</identifier>
      <datestamp>2017-01-29T05:43:43Z</datestamp>
      <setSpec>user-biosyslit</setSpec>
    </header>
    <header>
      <identifier>oai:zenodo.org:279676</identifier>
      <datestamp>2017-02-09T01:48:04Z</datestamp>
      <setSpec>user-biosyslit</setSpec>
    </header>
    <header>
      <identifier>oai:zenodo.org:262748</identifier>
      <datestamp>2017-01-29T07:53:51Z</datestamp>
      <setSpec>user-biosyslit</setSpec>
    </header>
    <header>
      <identifier>oai:zenodo.org:262649</identifier>
      <datestamp>2017-01-29T06:49:06Z</datestamp>
      <setSpec>user-biosyslit</setSpec>
    </header>
    <header>
      <identifier>oai:zenodo.org:262975</identifier>
      <datestamp>2017-01-29T14:24:32Z</datestamp>
      <setSpec>user-biosyslit</setSpec>
    </header>
    <header>
      <identifier>oai:zenodo.org:264111</identifier>
      <datestamp>2017-01-30T13:01:22Z</datestamp>
      <setSpec>user-biosyslit</setSpec>
    </header>
    <header>
      <identifier>oai:zenodo.org:263997</identifier>
      <datestamp>2017-01-30T11:26:30Z</datestamp>
      <setSpec>user-biosyslit</setSpec>
    </header>
    <header>
      <identifier>oai:zenodo.org:263615</identifier>
      <datestamp>2017-01-30T01:30:28Z</datestamp>
      <setSpec>user-biosyslit</setSpec>
    </header>
    <header>
      <identifier>oai:zenodo.org:265255</identifier>
      <datestamp>2017-01-31T10:51:26Z</datestamp>
      <setSpec>user-biosyslit</setSpec>
    </header>
    <header>
      <identifier>oai:zenodo.org:263480</identifier>
      <datestamp>2017-01-29T22:35:31Z</datestamp>
      <setSpec>user-biosyslit</setSpec>
    </header>
    <header>
      <identifier>oai:zenodo.org:263235</identifier>
      <datestamp>2017-01-29T19:28:12Z</datestamp>
      <setSpec>user-biosyslit</setSpec>
    </header>
    <header>
      <identifier>oai:zenodo.org:263313</identifier>
      <datestamp>2017-01-29T22:23:51Z</datestamp>
      <setSpec>user-biosyslit</setSpec>
    </header>
    <header>
      <identifier>oai:zenodo.org:264604</identifier>
      <datestamp>2017-01-31T00:08:40Z</datestamp>
      <setSpec>user-biosyslit</setSpec>
    </header>
    <header>
      <identifier>oai:zenodo.org:263453</identifier>
      <datestamp>2017-01-29T22:34:10Z</datestamp>
      <setSpec>user-biosyslit</setSpec>
    </header>
    <header>
      <identifier>oai:zenodo.org:264546</identifier>
      <datestamp>2017-01-30T23:14:12Z</datestamp>
      <setSpec>user-biosyslit</setSpec>
    </header>
    <header>
      <identifier>oai:zenodo.org:279581</identifier>
      <datestamp>2017-02-09T01:39:43Z</datestamp>
      <setSpec>user-biosyslit</setSpec>
    </header>
    <header>
      <identifier>oai:zenodo.org:264030</identifier>
      <datestamp>2017-01-30T12:23:56Z</datestamp>
      <setSpec>user-biosyslit</setSpec>
    </header>
    <header>
      <identifier>oai:zenodo.org:265284</identifier>
      <datestamp>2017-01-31T11:14:55Z</datestamp>
      <setSpec>user-biosyslit</setSpec>
    </header>
    <header>
      <identifier>oai:zenodo.org:264806</identifier>
      <datestamp>2017-01-31T02:53:13Z</datestamp>
      <setSpec>user-biosyslit</setSpec>
    </header>
    <header>
      <identifier>oai:zenodo.org:265314</identifier>
      <datestamp>2017-01-31T12:05:47Z</datestamp>
      <setSpec>user-biosyslit</setSpec>
    </header>
    <header>
      <identifier>oai:zenodo.org:265136</identifier>
      <datestamp>2017-01-31T08:39:53Z</datestamp>
      <setSpec>user-biosyslit</setSpec>
    </header>
    <header>
      <identifier>oai:zenodo.org:274676</identifier>
      <datestamp>2017-02-08T13:59:09Z</datestamp>
      <setSpec>user-biosyslit</setSpec>
    </header>
    <header>
      <identifier>oai:zenodo.org:265926</identifier>
      <datestamp>2017-01-31T23:21:05Z</datestamp>
      <setSpec>user-biosyslit</setSpec>
    </header>
    <header>
      <identifier>oai:zenodo.org:265181</identifier>
      <datestamp>2017-01-31T09:43:24Z</datestamp>
      <setSpec>user-biosyslit</setSpec>
    </header>
    <header>
      <identifier>oai:zenodo.org:266215</identifier>
      <datestamp>2017-02-01T02:38:23Z</datestamp>
      <setSpec>user-biosyslit</setSpec>
    </header>
    <header>
      <identifier>oai:zenodo.org:265268</identifier>
      <datestamp>2017-01-31T11:05:54Z</datestamp>
      <setSpec>user-biosyslit</setSpec>
    </header>
    <header>
      <identifier>oai:zenodo.org:265401</identifier>
      <datestamp>2017-01-31T13:35:58Z</datestamp>
      <setSpec>user-biosyslit</setSpec>
    </header>
    <header>
      <identifier>oai:zenodo.org:265602</identifier>
      <datestamp>2017-01-31T17:31:08Z</datestamp>
      <setSpec>user-biosyslit</setSpec>
    </header>
    <header>
      <identifier>oai:zenodo.org:265643</identifier>
      <datestamp>2017-01-31T18:20:30Z</datestamp>
      <setSpec>user-biosyslit</setSpec>
    </header>
    <header>
      <identifier>oai:zenodo.org:266122</identifier>
      <datestamp>2017-02-01T00:55:47Z</datestamp>
      <setSpec>user-biosyslit</setSpec>
    </header>
    <header>
      <identifier>oai:zenodo.org:265441</identifier>
      <datestamp>2017-01-31T13:57:04Z</datestamp>
      <setSpec>user-biosyslit</setSpec>
    </header>
    <header>
      <identifier>oai:zenodo.org:266926</identifier>
      <datestamp>2017-02-01T17:07:16Z</datestamp>
      <setSpec>user-biosyslit</setSpec>
    </header>
    <header>
      <identifier>oai:zenodo.org:266490</identifier>
      <datestamp>2017-02-01T10:55:23Z</datestamp>
      <setSpec>user-biosyslit</setSpec>
    </header>
    <header>
      <identifier>oai:zenodo.org:266623</identifier>
      <datestamp>2017-02-01T12:47:39Z</datestamp>
      <setSpec>user-biosyslit</setSpec>
    </header>
    <header>
      <identifier>oai:zenodo.org:267216</identifier>
      <datestamp>2017-02-01T22:59:56Z</datestamp>
      <setSpec>user-biosyslit</setSpec>
    </header>
    <header>
      <identifier>oai:zenodo.org:267362</identifier>
      <datestamp>2017-02-02T00:51:25Z</datestamp>
      <setSpec>user-biosyslit</setSpec>
    </header>
    <header>
      <identifier>oai:zenodo.org:268338</identifier>
      <datestamp>2017-02-03T11:52:14Z</datestamp>
      <setSpec>user-biosyslit</setSpec>
    </header>
    <header>
      <identifier>oai:zenodo.org:266743</identifier>
      <datestamp>2017-02-01T14:28:51Z</datestamp>
      <setSpec>user-biosyslit</setSpec>
    </header>
    <header>
      <identifier>oai:zenodo.org:267522</identifier>
      <datestamp>2017-02-02T03:15:50Z</datestamp>
      <setSpec>user-biosyslit</setSpec>
    </header>
    <header>
      <identifier>oai:zenodo.org:267734</identifier>
      <datestamp>2017-02-02T06:30:57Z</datestamp>
      <setSpec>user-biosyslit</setSpec>
    </header>
    <header>
      <identifier>oai:zenodo.org:267878</identifier>
      <datestamp>2017-02-02T08:51:57Z</datestamp>
      <setSpec>user-biosyslit</setSpec>
    </header>
    <header>
      <identifier>oai:zenodo.org:268111</identifier>
      <datestamp>2017-02-03T01:33:40Z</datestamp>
      <setSpec>user-biosyslit</setSpec>
    </header>
    <header>
      <identifier>oai:zenodo.org:267858</identifier>
      <datestamp>2017-02-02T08:16:49Z</datestamp>
      <setSpec>user-biosyslit</setSpec>
    </header>
    <header>
      <identifier>oai:zenodo.org:268068</identifier>
      <datestamp>2017-02-03T01:16:38Z</datestamp>
      <setSpec>user-biosyslit</setSpec>
    </header>
    <header>
      <identifier>oai:zenodo.org:268278</identifier>
      <datestamp>2017-02-03T05:37:02Z</datestamp>
      <setSpec>user-biosyslit</setSpec>
    </header>
    <header>
      <identifier>oai:zenodo.org:269588</identifier>
      <datestamp>2017-02-07T01:04:09Z</datestamp>
      <setSpec>user-biosyslit</setSpec>
    </header>
    <header>
      <identifier>oai:zenodo.org:268180</identifier>
      <datestamp>2017-02-03T02:56:50Z</datestamp>
      <setSpec>user-biosyslit</setSpec>
    </header>
    <header>
      <identifier>oai:zenodo.org:269315</identifier>
      <datestamp>2017-02-06T23:52:33Z</datestamp>
      <setSpec>user-biosyslit</setSpec>
    </header>
    <header>
      <identifier>oai:zenodo.org:269545</identifier>
      <datestamp>2017-02-07T00:53:17Z</datestamp>
      <setSpec>user-biosyslit</setSpec>
    </header>
    <header>
      <identifier>oai:zenodo.org:269106</identifier>
      <datestamp>2017-02-06T22:45:26Z</datestamp>
      <setSpec>user-biosyslit</setSpec>
    </header>
    <header>
      <identifier>oai:zenodo.org:274631</identifier>
      <datestamp>2017-02-08T13:50:44Z</datestamp>
      <setSpec>user-biosyslit</setSpec>
    </header>
    <header>
      <identifier>oai:zenodo.org:275096</identifier>
      <datestamp>2017-02-08T15:17:05Z</datestamp>
      <setSpec>user-biosyslit</setSpec>
    </header>
    <header>
      <identifier>oai:zenodo.org:269429</identifier>
      <datestamp>2017-02-07T00:29:32Z</datestamp>
      <setSpec>user-biosyslit</setSpec>
    </header>
    <header>
      <identifier>oai:zenodo.org:275132</identifier>
      <datestamp>2017-02-08T15:22:28Z</datestamp>
      <setSpec>user-biosyslit</setSpec>
    </header>
    <header>
      <identifier>oai:zenodo.org:269493</identifier>
      <datestamp>2017-02-07T00:43:12Z</datestamp>
      <setSpec>user-biosyslit</setSpec>
    </header>
    <header>
      <identifier>oai:zenodo.org:275094</identifier>
      <datestamp>2017-02-08T15:17:06Z</datestamp>
      <setSpec>user-biosyslit</setSpec>
    </header>
    <header>
      <identifier>oai:zenodo.org:275255</identifier>
      <datestamp>2017-02-08T15:48:44Z</datestamp>
      <setSpec>user-biosyslit</setSpec>
    </header>
    <header>
      <identifier>oai:zenodo.org:275390</identifier>
      <datestamp>2017-02-08T16:12:22Z</datestamp>
      <setSpec>user-biosyslit</setSpec>
    </header>
    <header>
      <identifier>oai:zenodo.org:276861</identifier>
      <datestamp>2017-02-08T19:52:08Z</datestamp>
      <setSpec>user-biosyslit</setSpec>
    </header>
    <header>
      <identifier>oai:zenodo.org:277168</identifier>
      <datestamp>2017-02-08T20:32:48Z</datestamp>
      <setSpec>user-biosyslit</setSpec>
    </header>
    <header>
      <identifier>oai:zenodo.org:278268</identifier>
      <datestamp>2017-02-08T22:47:30Z</datestamp>
      <setSpec>user-biosyslit</setSpec>
    </header>
    <header>
      <identifier>oai:zenodo.org:278835</identifier>
      <datestamp>2017-02-08T23:58:01Z</datestamp>
      <setSpec>user-biosyslit</setSpec>
    </header>
    <header>
      <identifier>oai:zenodo.org:278630</identifier>
      <datestamp>2017-02-08T23:33:23Z</datestamp>
      <setSpec>user-biosyslit</setSpec>
    </header>
    <header>
      <identifier>oai:zenodo.org:278352</identifier>
      <datestamp>2017-02-08T22:57:51Z</datestamp>
      <setSpec>user-biosyslit</setSpec>
    </header>
    <header>
      <identifier>oai:zenodo.org:278419</identifier>
      <datestamp>2017-02-08T23:08:13Z</datestamp>
      <setSpec>user-biosyslit</setSpec>
    </header>
    <header>
      <identifier>oai:zenodo.org:278723</identifier>
      <datestamp>2017-02-08T23:46:50Z</datestamp>
      <setSpec>user-biosyslit</setSpec>
    </header>
    <header>
      <identifier>oai:zenodo.org:278963</identifier>
      <datestamp>2017-02-09T00:16:49Z</datestamp>
      <setSpec>user-biosyslit</setSpec>
    </header>
    <header>
      <identifier>oai:zenodo.org:278973</identifier>
      <datestamp>2017-02-09T00:21:00Z</datestamp>
      <setSpec>user-biosyslit</setSpec>
    </header>
    <header>
      <identifier>oai:zenodo.org:281460</identifier>
      <datestamp>2017-02-09T05:19:53Z</datestamp>
      <setSpec>user-biosyslit</setSpec>
    </header>
    <header>
      <identifier>oai:zenodo.org:280179</identifier>
      <datestamp>2017-02-09T02:53:54Z</datestamp>
      <setSpec>user-biosyslit</setSpec>
    </header>
    <header>
      <identifier>oai:zenodo.org:281048</identifier>
      <datestamp>2017-02-09T04:37:41Z</datestamp>
      <setSpec>user-biosyslit</setSpec>
    </header>
    <header>
      <identifier>oai:zenodo.org:281259</identifier>
      <datestamp>2017-02-09T05:01:30Z</datestamp>
      <setSpec>user-biosyslit</setSpec>
    </header>
    <header>
      <identifier>oai:zenodo.org:281380</identifier>
      <datestamp>2017-02-09T05:13:41Z</datestamp>
      <setSpec>user-biosyslit</setSpec>
    </header>
    <header>
      <identifier>oai:zenodo.org:280693</identifier>
      <datestamp>2017-02-09T03:52:58Z</datestamp>
      <setSpec>user-biosyslit</setSpec>
    </header>
    <header>
      <identifier>oai:zenodo.org:343770</identifier>
      <datestamp>2017-02-28T08:26:18Z</datestamp>
      <setSpec>user-biosyslit</setSpec>
    </header>
    <header>
      <identifier>oai:zenodo.org:344105</identifier>
      <datestamp>2017-02-28T23:47:53Z</datestamp>
      <setSpec>user-biosyslit</setSpec>
    </header>
    <header>
      <identifier>oai:zenodo.org:575341</identifier>
      <datestamp>2017-05-12T08:07:00Z</datestamp>
      <setSpec>user-biosyslit</setSpec>
    </header>
    <header>
      <identifier>oai:zenodo.org:575651</identifier>
      <datestamp>2017-05-12T08:29:26Z</datestamp>
      <setSpec>user-biosyslit</setSpec>
    </header>
    <header>
      <identifier>oai:zenodo.org:575655</identifier>
      <datestamp>2017-05-12T08:29:39Z</datestamp>
      <setSpec>user-biosyslit</setSpec>
    </header>
    <header>
      <identifier>oai:zenodo.org:343831</identifier>
      <datestamp>2017-02-28T09:06:05Z</datestamp>
      <setSpec>user-biosyslit</setSpec>
    </header>
    <header>
      <identifier>oai:zenodo.org:344258</identifier>
      <datestamp>2017-02-28T23:42:49Z</datestamp>
      <setSpec>user-biosyslit</setSpec>
    </header>
    <resumptionToken expirationDate="2017-08-31T15:45:44Z" cursor="41700" completeListSize="77796">.eJyNyk0LgjAYAOD_8p4l3jljKXQJTTqo6JqklzAVKdcHrlAn_ve6dK7z80yg6roCBxeMrtCybESG1ES2NECV3V3K4_nDUB5SWd6kKPz0lVxTzMyGha4aAjejoW4xuhLNt7F5IKtBnHGM9-KZ6WRI6a7n6LFAx2N42X1eRSNf5if_wcVtI7lZdZEXj5xseE7L7yN_Pv3zuWoNBjyKpgbHIrYBbV90jQJnmuc3kntRNA.DInAMA.T1sFh7LG0nx_zMKjAn_yX9JAWbk</resumptionToken>
  </ListIdentifiers>
</OAI-PMH>
