<?xml version='1.0' encoding='UTF-8'?>
<?xml-stylesheet type="text/xsl" href="/static/xsl/oai2.v1.0.xsl"?>
<OAI-PMH xmlns="http://www.openarchives.org/OAI/2.0/" xmlns:xsi="http://www.w3.org/2001/XMLSchema-instance" xsi:schemaLocation="http://www.openarchives.org/OAI/2.0/ http://www.openarchives.org/OAI/2.0/OAI-PMH.xsd">
  <responseDate>2017-08-31T14:37:53Z</responseDate>
  <request verb="ListIdentifiers" resumptionToken=".eJwVzd1OgzAYgOF76TExpSB_Z1tAMuMHYaVlcGIQECYFEWqALrt35_GbPO8NLU1TIw8_uY7pYtMhNrEsx7WeNbRU87cQ79dHRtWFi2oUrAz573ngOCetHfnLBn6uRylT8aAr-pKQi-5s7Ir3JGUyV-eNG6eV4sAGlaygWhIPtRGHovgIJ8rGo6CknuMg2al-pIVR2ZAeyMPT4WuSFe5YJNxP4CcJfaC_ZYArXu8QyGOsAIMPZpROY626Kcu2HyZe14LJsVRdAL1M2P9LHWykoalsG-QZhob6tZzbBXm3-_0PghVSIA.DImwjg.OdAwYmXbP-v7KF2tRDwnvWqgZCg">https://zenodo.org/oai2d</request>
  <ListIdentifiers>
    <header>
      <identifier>oai:zenodo.org:239827</identifier>
      <datestamp>2017-01-12T01:22:29Z</datestamp>
      <setSpec>user-biosyslit</setSpec>
    </header>
    <header>
      <identifier>oai:zenodo.org:271163</identifier>
      <datestamp>2017-02-08T00:55:35Z</datestamp>
      <setSpec>user-biosyslit</setSpec>
    </header>
    <header>
      <identifier>oai:zenodo.org:278578</identifier>
      <datestamp>2017-02-08T23:27:11Z</datestamp>
      <setSpec>user-biosyslit</setSpec>
    </header>
    <header>
      <identifier>oai:zenodo.org:278862</identifier>
      <datestamp>2017-02-09T00:00:16Z</datestamp>
      <setSpec>user-biosyslit</setSpec>
    </header>
    <header>
      <identifier>oai:zenodo.org:278399</identifier>
      <datestamp>2017-02-08T23:05:34Z</datestamp>
      <setSpec>user-biosyslit</setSpec>
    </header>
    <header>
      <identifier>oai:zenodo.org:240959</identifier>
      <datestamp>2017-01-12T16:59:22Z</datestamp>
      <setSpec>user-biosyslit</setSpec>
    </header>
    <header>
      <identifier>oai:zenodo.org:278864</identifier>
      <datestamp>2017-02-09T00:00:21Z</datestamp>
      <setSpec>user-biosyslit</setSpec>
    </header>
    <header>
      <identifier>oai:zenodo.org:240432</identifier>
      <datestamp>2017-01-12T08:37:27Z</datestamp>
      <setSpec>user-biosyslit</setSpec>
    </header>
    <header>
      <identifier>oai:zenodo.org:279348</identifier>
      <datestamp>2017-02-09T01:07:23Z</datestamp>
      <setSpec>user-biosyslit</setSpec>
    </header>
    <header>
      <identifier>oai:zenodo.org:241277</identifier>
      <datestamp>2017-01-12T23:26:34Z</datestamp>
      <setSpec>user-biosyslit</setSpec>
    </header>
    <header>
      <identifier>oai:zenodo.org:240772</identifier>
      <datestamp>2017-01-12T13:47:35Z</datestamp>
      <setSpec>user-biosyslit</setSpec>
    </header>
    <header>
      <identifier>oai:zenodo.org:278992</identifier>
      <datestamp>2017-02-09T00:22:03Z</datestamp>
      <setSpec>user-biosyslit</setSpec>
    </header>
    <header>
      <identifier>oai:zenodo.org:278616</identifier>
      <datestamp>2017-02-08T23:32:46Z</datestamp>
      <setSpec>user-biosyslit</setSpec>
    </header>
    <header>
      <identifier>oai:zenodo.org:241029</identifier>
      <datestamp>2017-01-12T19:07:08Z</datestamp>
      <setSpec>user-biosyslit</setSpec>
    </header>
    <header>
      <identifier>oai:zenodo.org:279302</identifier>
      <datestamp>2017-02-09T01:01:44Z</datestamp>
      <setSpec>user-biosyslit</setSpec>
    </header>
    <header>
      <identifier>oai:zenodo.org:278375</identifier>
      <datestamp>2017-02-08T23:03:13Z</datestamp>
      <setSpec>user-biosyslit</setSpec>
    </header>
    <header>
      <identifier>oai:zenodo.org:271404</identifier>
      <datestamp>2017-02-08T01:36:06Z</datestamp>
      <setSpec>user-biosyslit</setSpec>
    </header>
    <header>
      <identifier>oai:zenodo.org:271888</identifier>
      <datestamp>2017-02-08T02:54:38Z</datestamp>
      <setSpec>user-biosyslit</setSpec>
    </header>
    <header>
      <identifier>oai:zenodo.org:241618</identifier>
      <datestamp>2017-01-13T04:11:03Z</datestamp>
      <setSpec>user-biosyslit</setSpec>
    </header>
    <header>
      <identifier>oai:zenodo.org:280353</identifier>
      <datestamp>2017-02-09T03:15:13Z</datestamp>
      <setSpec>user-biosyslit</setSpec>
    </header>
    <header>
      <identifier>oai:zenodo.org:272910</identifier>
      <datestamp>2017-02-08T06:33:37Z</datestamp>
      <setSpec>user-biosyslit</setSpec>
    </header>
    <header>
      <identifier>oai:zenodo.org:271790</identifier>
      <datestamp>2017-02-08T02:41:03Z</datestamp>
      <setSpec>user-biosyslit</setSpec>
    </header>
    <header>
      <identifier>oai:zenodo.org:271897</identifier>
      <datestamp>2017-02-08T02:55:34Z</datestamp>
      <setSpec>user-biosyslit</setSpec>
    </header>
    <header>
      <identifier>oai:zenodo.org:272338</identifier>
      <datestamp>2017-02-08T04:18:10Z</datestamp>
      <setSpec>user-biosyslit</setSpec>
    </header>
    <header>
      <identifier>oai:zenodo.org:241670</identifier>
      <datestamp>2017-01-13T04:37:19Z</datestamp>
      <setSpec>user-biosyslit</setSpec>
    </header>
    <header>
      <identifier>oai:zenodo.org:279470</identifier>
      <datestamp>2017-02-09T01:25:09Z</datestamp>
      <setSpec>user-biosyslit</setSpec>
    </header>
    <header>
      <identifier>oai:zenodo.org:242192</identifier>
      <datestamp>2017-01-13T12:02:58Z</datestamp>
      <setSpec>user-biosyslit</setSpec>
    </header>
    <header>
      <identifier>oai:zenodo.org:241694</identifier>
      <datestamp>2017-01-13T05:01:48Z</datestamp>
      <setSpec>user-biosyslit</setSpec>
    </header>
    <header>
      <identifier>oai:zenodo.org:242711</identifier>
      <datestamp>2017-01-13T18:53:18Z</datestamp>
      <setSpec>user-biosyslit</setSpec>
    </header>
    <header>
      <identifier>oai:zenodo.org:241857</identifier>
      <datestamp>2017-01-13T07:06:51Z</datestamp>
      <setSpec>user-biosyslit</setSpec>
    </header>
    <header>
      <identifier>oai:zenodo.org:242207</identifier>
      <datestamp>2017-01-13T12:02:30Z</datestamp>
      <setSpec>user-biosyslit</setSpec>
    </header>
    <header>
      <identifier>oai:zenodo.org:243423</identifier>
      <datestamp>2017-01-14T05:35:55Z</datestamp>
      <setSpec>user-biosyslit</setSpec>
    </header>
    <header>
      <identifier>oai:zenodo.org:241936</identifier>
      <datestamp>2017-01-13T08:02:58Z</datestamp>
      <setSpec>user-biosyslit</setSpec>
    </header>
    <header>
      <identifier>oai:zenodo.org:243554</identifier>
      <datestamp>2017-01-14T07:25:01Z</datestamp>
      <setSpec>user-biosyslit</setSpec>
    </header>
    <header>
      <identifier>oai:zenodo.org:242686</identifier>
      <datestamp>2017-01-13T18:39:06Z</datestamp>
      <setSpec>user-biosyslit</setSpec>
    </header>
    <header>
      <identifier>oai:zenodo.org:242902</identifier>
      <datestamp>2017-01-13T20:34:32Z</datestamp>
      <setSpec>user-biosyslit</setSpec>
    </header>
    <header>
      <identifier>oai:zenodo.org:242649</identifier>
      <datestamp>2017-01-13T18:15:56Z</datestamp>
      <setSpec>user-biosyslit</setSpec>
    </header>
    <header>
      <identifier>oai:zenodo.org:243057</identifier>
      <datestamp>2017-01-13T22:45:00Z</datestamp>
      <setSpec>user-biosyslit</setSpec>
    </header>
    <header>
      <identifier>oai:zenodo.org:279473</identifier>
      <datestamp>2017-02-09T01:25:16Z</datestamp>
      <setSpec>user-biosyslit</setSpec>
    </header>
    <header>
      <identifier>oai:zenodo.org:243454</identifier>
      <datestamp>2017-01-14T06:01:32Z</datestamp>
      <setSpec>user-biosyslit</setSpec>
    </header>
    <header>
      <identifier>oai:zenodo.org:272549</identifier>
      <datestamp>2017-02-08T05:06:22Z</datestamp>
      <setSpec>user-biosyslit</setSpec>
    </header>
    <header>
      <identifier>oai:zenodo.org:244359</identifier>
      <datestamp>2017-01-14T20:34:08Z</datestamp>
      <setSpec>user-biosyslit</setSpec>
    </header>
    <header>
      <identifier>oai:zenodo.org:272179</identifier>
      <datestamp>2017-02-08T03:57:38Z</datestamp>
      <setSpec>user-biosyslit</setSpec>
    </header>
    <header>
      <identifier>oai:zenodo.org:272569</identifier>
      <datestamp>2017-02-08T05:09:25Z</datestamp>
      <setSpec>user-biosyslit</setSpec>
    </header>
    <header>
      <identifier>oai:zenodo.org:244409</identifier>
      <datestamp>2017-01-14T21:26:12Z</datestamp>
      <setSpec>user-biosyslit</setSpec>
    </header>
    <header>
      <identifier>oai:zenodo.org:243766</identifier>
      <datestamp>2017-01-14T10:28:47Z</datestamp>
      <setSpec>user-biosyslit</setSpec>
    </header>
    <header>
      <identifier>oai:zenodo.org:243947</identifier>
      <datestamp>2017-01-14T13:43:32Z</datestamp>
      <setSpec>user-biosyslit</setSpec>
    </header>
    <header>
      <identifier>oai:zenodo.org:272406</identifier>
      <datestamp>2017-02-08T04:33:29Z</datestamp>
      <setSpec>user-biosyslit</setSpec>
    </header>
    <header>
      <identifier>oai:zenodo.org:244960</identifier>
      <datestamp>2017-01-15T05:57:00Z</datestamp>
      <setSpec>user-biosyslit</setSpec>
    </header>
    <header>
      <identifier>oai:zenodo.org:244026</identifier>
      <datestamp>2017-01-14T15:20:34Z</datestamp>
      <setSpec>user-biosyslit</setSpec>
    </header>
    <header>
      <identifier>oai:zenodo.org:244218</identifier>
      <datestamp>2017-01-14T17:39:35Z</datestamp>
      <setSpec>user-biosyslit</setSpec>
    </header>
    <header>
      <identifier>oai:zenodo.org:245238</identifier>
      <datestamp>2017-01-15T10:19:37Z</datestamp>
      <setSpec>user-biosyslit</setSpec>
    </header>
    <header>
      <identifier>oai:zenodo.org:244796</identifier>
      <datestamp>2017-01-15T02:44:03Z</datestamp>
      <setSpec>user-biosyslit</setSpec>
    </header>
    <header>
      <identifier>oai:zenodo.org:244965</identifier>
      <datestamp>2017-01-15T05:57:22Z</datestamp>
      <setSpec>user-biosyslit</setSpec>
    </header>
    <header>
      <identifier>oai:zenodo.org:245019</identifier>
      <datestamp>2017-01-15T06:33:35Z</datestamp>
      <setSpec>user-biosyslit</setSpec>
    </header>
    <header>
      <identifier>oai:zenodo.org:245773</identifier>
      <datestamp>2017-01-15T18:28:58Z</datestamp>
      <setSpec>user-biosyslit</setSpec>
    </header>
    <header>
      <identifier>oai:zenodo.org:245647</identifier>
      <datestamp>2017-01-15T16:41:15Z</datestamp>
      <setSpec>user-biosyslit</setSpec>
    </header>
    <header>
      <identifier>oai:zenodo.org:245889</identifier>
      <datestamp>2017-01-15T19:20:58Z</datestamp>
      <setSpec>user-biosyslit</setSpec>
    </header>
    <header>
      <identifier>oai:zenodo.org:272674</identifier>
      <datestamp>2017-02-08T06:13:10Z</datestamp>
      <setSpec>user-biosyslit</setSpec>
    </header>
    <header>
      <identifier>oai:zenodo.org:246956</identifier>
      <datestamp>2017-01-16T10:07:12Z</datestamp>
      <setSpec>user-biosyslit</setSpec>
    </header>
    <header>
      <identifier>oai:zenodo.org:246679</identifier>
      <datestamp>2017-01-16T06:58:25Z</datestamp>
      <setSpec>user-biosyslit</setSpec>
    </header>
    <header>
      <identifier>oai:zenodo.org:245871</identifier>
      <datestamp>2017-01-15T19:12:11Z</datestamp>
      <setSpec>user-biosyslit</setSpec>
    </header>
    <header>
      <identifier>oai:zenodo.org:246401</identifier>
      <datestamp>2017-01-16T01:50:27Z</datestamp>
      <setSpec>user-biosyslit</setSpec>
    </header>
    <header>
      <identifier>oai:zenodo.org:246171</identifier>
      <datestamp>2017-01-15T22:46:59Z</datestamp>
      <setSpec>user-biosyslit</setSpec>
    </header>
    <header>
      <identifier>oai:zenodo.org:246317</identifier>
      <datestamp>2017-01-16T00:43:49Z</datestamp>
      <setSpec>user-biosyslit</setSpec>
    </header>
    <header>
      <identifier>oai:zenodo.org:246942</identifier>
      <datestamp>2017-01-16T10:06:23Z</datestamp>
      <setSpec>user-biosyslit</setSpec>
    </header>
    <header>
      <identifier>oai:zenodo.org:246928</identifier>
      <datestamp>2017-01-16T10:05:31Z</datestamp>
      <setSpec>user-biosyslit</setSpec>
    </header>
    <header>
      <identifier>oai:zenodo.org:247848</identifier>
      <datestamp>2017-01-16T20:47:56Z</datestamp>
      <setSpec>user-biosyslit</setSpec>
    </header>
    <header>
      <identifier>oai:zenodo.org:246988</identifier>
      <datestamp>2017-01-16T10:09:09Z</datestamp>
      <setSpec>user-biosyslit</setSpec>
    </header>
    <header>
      <identifier>oai:zenodo.org:247448</identifier>
      <datestamp>2017-01-16T15:30:05Z</datestamp>
      <setSpec>user-biosyslit</setSpec>
    </header>
    <header>
      <identifier>oai:zenodo.org:247116</identifier>
      <datestamp>2017-01-16T11:38:59Z</datestamp>
      <setSpec>user-biosyslit</setSpec>
    </header>
    <header>
      <identifier>oai:zenodo.org:247885</identifier>
      <datestamp>2017-01-16T21:15:35Z</datestamp>
      <setSpec>user-biosyslit</setSpec>
    </header>
    <header>
      <identifier>oai:zenodo.org:247555</identifier>
      <datestamp>2017-01-16T17:02:14Z</datestamp>
      <setSpec>user-biosyslit</setSpec>
    </header>
    <header>
      <identifier>oai:zenodo.org:248091</identifier>
      <datestamp>2017-01-16T23:47:25Z</datestamp>
      <setSpec>user-biosyslit</setSpec>
    </header>
    <header>
      <identifier>oai:zenodo.org:249947</identifier>
      <datestamp>2017-01-18T02:41:01Z</datestamp>
      <setSpec>user-biosyslit</setSpec>
    </header>
    <header>
      <identifier>oai:zenodo.org:248684</identifier>
      <datestamp>2017-01-17T08:12:44Z</datestamp>
      <setSpec>user-biosyslit</setSpec>
    </header>
    <header>
      <identifier>oai:zenodo.org:250002</identifier>
      <datestamp>2017-01-18T03:30:38Z</datestamp>
      <setSpec>user-biosyslit</setSpec>
    </header>
    <header>
      <identifier>oai:zenodo.org:250223</identifier>
      <datestamp>2017-01-18T07:17:06Z</datestamp>
      <setSpec>user-biosyslit</setSpec>
    </header>
    <header>
      <identifier>oai:zenodo.org:249636</identifier>
      <datestamp>2017-01-17T22:01:43Z</datestamp>
      <setSpec>user-biosyslit</setSpec>
    </header>
    <header>
      <identifier>oai:zenodo.org:249820</identifier>
      <datestamp>2017-01-18T00:17:27Z</datestamp>
      <setSpec>user-biosyslit</setSpec>
    </header>
    <header>
      <identifier>oai:zenodo.org:249617</identifier>
      <datestamp>2017-01-17T21:41:51Z</datestamp>
      <setSpec>user-biosyslit</setSpec>
    </header>
    <header>
      <identifier>oai:zenodo.org:250645</identifier>
      <datestamp>2017-01-18T14:01:19Z</datestamp>
      <setSpec>user-biosyslit</setSpec>
    </header>
    <header>
      <identifier>oai:zenodo.org:250270</identifier>
      <datestamp>2017-01-18T07:53:45Z</datestamp>
      <setSpec>user-biosyslit</setSpec>
    </header>
    <header>
      <identifier>oai:zenodo.org:251605</identifier>
      <datestamp>2017-01-19T02:46:17Z</datestamp>
      <setSpec>user-biosyslit</setSpec>
    </header>
    <header>
      <identifier>oai:zenodo.org:251631</identifier>
      <datestamp>2017-01-19T02:47:51Z</datestamp>
      <setSpec>user-biosyslit</setSpec>
    </header>
    <header>
      <identifier>oai:zenodo.org:250850</identifier>
      <datestamp>2017-01-18T15:33:43Z</datestamp>
      <setSpec>user-biosyslit</setSpec>
    </header>
    <header>
      <identifier>oai:zenodo.org:251136</identifier>
      <datestamp>2017-01-18T19:13:03Z</datestamp>
      <setSpec>user-biosyslit</setSpec>
    </header>
    <header>
      <identifier>oai:zenodo.org:251469</identifier>
      <datestamp>2017-01-19T00:40:01Z</datestamp>
      <setSpec>user-biosyslit</setSpec>
    </header>
    <header>
      <identifier>oai:zenodo.org:251529</identifier>
      <datestamp>2017-01-19T01:35:41Z</datestamp>
      <setSpec>user-biosyslit</setSpec>
    </header>
    <header>
      <identifier>oai:zenodo.org:273159</identifier>
      <datestamp>2017-02-08T08:14:17Z</datestamp>
      <setSpec>user-biosyslit</setSpec>
    </header>
    <header>
      <identifier>oai:zenodo.org:273041</identifier>
      <datestamp>2017-02-08T06:59:35Z</datestamp>
      <setSpec>user-biosyslit</setSpec>
    </header>
    <header>
      <identifier>oai:zenodo.org:251610</identifier>
      <datestamp>2017-01-19T02:46:36Z</datestamp>
      <setSpec>user-biosyslit</setSpec>
    </header>
    <header>
      <identifier>oai:zenodo.org:273203</identifier>
      <datestamp>2017-02-08T08:27:23Z</datestamp>
      <setSpec>user-biosyslit</setSpec>
    </header>
    <header>
      <identifier>oai:zenodo.org:273023</identifier>
      <datestamp>2017-02-08T06:58:48Z</datestamp>
      <setSpec>user-biosyslit</setSpec>
    </header>
    <header>
      <identifier>oai:zenodo.org:273090</identifier>
      <datestamp>2017-02-08T07:09:14Z</datestamp>
      <setSpec>user-biosyslit</setSpec>
    </header>
    <header>
      <identifier>oai:zenodo.org:251649</identifier>
      <datestamp>2017-01-19T02:49:03Z</datestamp>
      <setSpec>user-biosyslit</setSpec>
    </header>
    <header>
      <identifier>oai:zenodo.org:251769</identifier>
      <datestamp>2017-01-19T04:30:08Z</datestamp>
      <setSpec>user-biosyslit</setSpec>
    </header>
    <header>
      <identifier>oai:zenodo.org:273192</identifier>
      <datestamp>2017-02-08T08:26:27Z</datestamp>
      <setSpec>user-biosyslit</setSpec>
    </header>
    <header>
      <identifier>oai:zenodo.org:251851</identifier>
      <datestamp>2017-01-19T05:21:34Z</datestamp>
      <setSpec>user-biosyslit</setSpec>
    </header>
    <header>
      <identifier>oai:zenodo.org:276470</identifier>
      <datestamp>2017-02-08T18:54:04Z</datestamp>
      <setSpec>user-biosyslit</setSpec>
    </header>
    <resumptionToken expirationDate="2017-08-31T14:39:53Z" cursor="3200" completeListSize="142507">.eJwVzd1uREAYgOF7mWNpZob1d7ZCZZt-xDIsJ40OZWuoosFs9t53e_wmz3tDc11XyMYv-oHqJtGJftBMS7N0Bc18-hHi4_rMiF9SwQfBSj_9O_cpzmljBO68gZuTIGEy7ImMXyN6IebGrniPErbk8ryl6mmNsWeAjFaQDQ37Sg19UXz6Y8wGR8S0mkIv2mPixIXKDUiO9OkR-B4XjlsWCOsL0tMCnUfeM8A8rXbwFieUgMEFLUjGoZLtmGXbLxNva8GWoZStB90Ssf-XPBpIQWPZ1MhWNQV1azk1M7Jv9_sDe35SGg.DImwwQ.BNCv_MbF4cq4xVqwnMh8kKT-wtg</resumptionToken>
  </ListIdentifiers>
</OAI-PMH>
