<?xml version='1.0' encoding='UTF-8'?>
<?xml-stylesheet type="text/xsl" href="/static/xsl/oai2.v1.0.xsl"?>
<OAI-PMH xmlns="http://www.openarchives.org/OAI/2.0/" xmlns:xsi="http://www.w3.org/2001/XMLSchema-instance" xsi:schemaLocation="http://www.openarchives.org/OAI/2.0/ http://www.openarchives.org/OAI/2.0/OAI-PMH.xsd">
  <responseDate>2017-08-31T15:37:43Z</responseDate>
  <request from_="2016-01-01T00:00:00Z" verb="ListIdentifiers" set="user-biosyslit" metadataPrefix="oai_dc">https://zenodo.org/oai2d</request>
  <ListIdentifiers>
    <header>
      <identifier>oai:zenodo.org:263443</identifier>
      <datestamp>2017-01-29T22:33:37Z</datestamp>
      <setSpec>user-biosyslit</setSpec>
    </header>
    <header>
      <identifier>oai:zenodo.org:208089</identifier>
      <datestamp>2016-12-20T02:02:03Z</datestamp>
      <setSpec>user-biosyslit</setSpec>
    </header>
    <header>
      <identifier>oai:zenodo.org:264103</identifier>
      <datestamp>2017-01-30T12:55:23Z</datestamp>
      <setSpec>user-biosyslit</setSpec>
    </header>
    <header>
      <identifier>oai:zenodo.org:264179</identifier>
      <datestamp>2017-01-30T14:29:31Z</datestamp>
      <setSpec>user-biosyslit</setSpec>
    </header>
    <header>
      <identifier>oai:zenodo.org:209462</identifier>
      <datestamp>2016-12-19T14:57:32Z</datestamp>
      <setSpec>user-biosyslit</setSpec>
    </header>
    <header>
      <identifier>oai:zenodo.org:210053</identifier>
      <datestamp>2016-12-19T18:36:08Z</datestamp>
      <setSpec>user-biosyslit</setSpec>
    </header>
    <header>
      <identifier>oai:zenodo.org:208830</identifier>
      <datestamp>2016-12-19T12:28:35Z</datestamp>
      <setSpec>user-biosyslit</setSpec>
    </header>
    <header>
      <identifier>oai:zenodo.org:263574</identifier>
      <datestamp>2017-01-30T00:50:44Z</datestamp>
      <setSpec>user-biosyslit</setSpec>
    </header>
    <header>
      <identifier>oai:zenodo.org:264416</identifier>
      <datestamp>2017-01-30T21:17:32Z</datestamp>
      <setSpec>user-biosyslit</setSpec>
    </header>
    <header>
      <identifier>oai:zenodo.org:264152</identifier>
      <datestamp>2017-01-30T14:08:07Z</datestamp>
      <setSpec>user-biosyslit</setSpec>
    </header>
    <header>
      <identifier>oai:zenodo.org:224214</identifier>
      <datestamp>2016-12-29T20:25:06Z</datestamp>
      <setSpec>user-biosyslit</setSpec>
    </header>
    <header>
      <identifier>oai:zenodo.org:265187</identifier>
      <datestamp>2017-01-31T09:59:19Z</datestamp>
      <setSpec>user-biosyslit</setSpec>
    </header>
    <header>
      <identifier>oai:zenodo.org:264716</identifier>
      <datestamp>2017-01-31T01:23:37Z</datestamp>
      <setSpec>user-biosyslit</setSpec>
    </header>
    <header>
      <identifier>oai:zenodo.org:210700</identifier>
      <datestamp>2016-12-19T23:17:39Z</datestamp>
      <setSpec>user-biosyslit</setSpec>
    </header>
    <header>
      <identifier>oai:zenodo.org:211481</identifier>
      <datestamp>2016-12-20T05:34:19Z</datestamp>
      <setSpec>user-biosyslit</setSpec>
    </header>
    <header>
      <identifier>oai:zenodo.org:264754</identifier>
      <datestamp>2017-01-31T02:14:30Z</datestamp>
      <setSpec>user-biosyslit</setSpec>
    </header>
    <header>
      <identifier>oai:zenodo.org:264264</identifier>
      <datestamp>2017-01-30T15:45:52Z</datestamp>
      <setSpec>user-biosyslit</setSpec>
    </header>
    <header>
      <identifier>oai:zenodo.org:264532</identifier>
      <datestamp>2017-01-30T23:06:06Z</datestamp>
      <setSpec>user-biosyslit</setSpec>
    </header>
    <header>
      <identifier>oai:zenodo.org:265310</identifier>
      <datestamp>2017-01-31T11:58:27Z</datestamp>
      <setSpec>user-biosyslit</setSpec>
    </header>
    <header>
      <identifier>oai:zenodo.org:264631</identifier>
      <datestamp>2017-01-31T00:23:32Z</datestamp>
      <setSpec>user-biosyslit</setSpec>
    </header>
    <header>
      <identifier>oai:zenodo.org:264607</identifier>
      <datestamp>2017-01-31T00:08:52Z</datestamp>
      <setSpec>user-biosyslit</setSpec>
    </header>
    <header>
      <identifier>oai:zenodo.org:265679</identifier>
      <datestamp>2017-01-31T18:54:34Z</datestamp>
      <setSpec>user-biosyslit</setSpec>
    </header>
    <header>
      <identifier>oai:zenodo.org:265650</identifier>
      <datestamp>2017-01-31T18:20:50Z</datestamp>
      <setSpec>user-biosyslit</setSpec>
    </header>
    <header>
      <identifier>oai:zenodo.org:264818</identifier>
      <datestamp>2017-01-31T03:02:34Z</datestamp>
      <setSpec>user-biosyslit</setSpec>
    </header>
    <header>
      <identifier>oai:zenodo.org:264831</identifier>
      <datestamp>2017-01-31T03:14:04Z</datestamp>
      <setSpec>user-biosyslit</setSpec>
    </header>
    <header>
      <identifier>oai:zenodo.org:265130</identifier>
      <datestamp>2017-01-31T08:33:27Z</datestamp>
      <setSpec>user-biosyslit</setSpec>
    </header>
    <header>
      <identifier>oai:zenodo.org:265539</identifier>
      <datestamp>2017-01-31T15:56:17Z</datestamp>
      <setSpec>user-biosyslit</setSpec>
    </header>
    <header>
      <identifier>oai:zenodo.org:265143</identifier>
      <datestamp>2017-01-31T08:40:35Z</datestamp>
      <setSpec>user-biosyslit</setSpec>
    </header>
    <header>
      <identifier>oai:zenodo.org:224086</identifier>
      <datestamp>2016-12-29T18:20:21Z</datestamp>
      <setSpec>user-biosyslit</setSpec>
    </header>
    <header>
      <identifier>oai:zenodo.org:274821</identifier>
      <datestamp>2017-02-08T14:30:24Z</datestamp>
      <setSpec>user-biosyslit</setSpec>
    </header>
    <header>
      <identifier>oai:zenodo.org:213566</identifier>
      <datestamp>2016-12-20T20:27:39Z</datestamp>
      <setSpec>user-biosyslit</setSpec>
    </header>
    <header>
      <identifier>oai:zenodo.org:213665</identifier>
      <datestamp>2016-12-20T21:08:06Z</datestamp>
      <setSpec>user-biosyslit</setSpec>
    </header>
    <header>
      <identifier>oai:zenodo.org:265493</identifier>
      <datestamp>2017-01-31T14:44:55Z</datestamp>
      <setSpec>user-biosyslit</setSpec>
    </header>
    <header>
      <identifier>oai:zenodo.org:213479</identifier>
      <datestamp>2016-12-20T20:06:01Z</datestamp>
      <setSpec>user-biosyslit</setSpec>
    </header>
    <header>
      <identifier>oai:zenodo.org:265582</identifier>
      <datestamp>2017-01-31T17:18:06Z</datestamp>
      <setSpec>user-biosyslit</setSpec>
    </header>
    <header>
      <identifier>oai:zenodo.org:265439</identifier>
      <datestamp>2017-01-31T13:56:58Z</datestamp>
      <setSpec>user-biosyslit</setSpec>
    </header>
    <header>
      <identifier>oai:zenodo.org:213679</identifier>
      <datestamp>2016-12-20T21:22:24Z</datestamp>
      <setSpec>user-biosyslit</setSpec>
    </header>
    <header>
      <identifier>oai:zenodo.org:265786</identifier>
      <datestamp>2017-01-31T21:04:31Z</datestamp>
      <setSpec>user-biosyslit</setSpec>
    </header>
    <header>
      <identifier>oai:zenodo.org:265497</identifier>
      <datestamp>2017-01-31T14:45:05Z</datestamp>
      <setSpec>user-biosyslit</setSpec>
    </header>
    <header>
      <identifier>oai:zenodo.org:265747</identifier>
      <datestamp>2017-01-31T19:54:58Z</datestamp>
      <setSpec>user-biosyslit</setSpec>
    </header>
    <header>
      <identifier>oai:zenodo.org:265770</identifier>
      <datestamp>2017-01-31T20:29:36Z</datestamp>
      <setSpec>user-biosyslit</setSpec>
    </header>
    <header>
      <identifier>oai:zenodo.org:213953</identifier>
      <datestamp>2016-12-20T23:38:03Z</datestamp>
      <setSpec>user-biosyslit</setSpec>
    </header>
    <header>
      <identifier>oai:zenodo.org:225841</identifier>
      <datestamp>2016-12-31T10:19:25Z</datestamp>
      <setSpec>user-biosyslit</setSpec>
    </header>
    <header>
      <identifier>oai:zenodo.org:265765</identifier>
      <datestamp>2017-01-31T20:06:19Z</datestamp>
      <setSpec>user-biosyslit</setSpec>
    </header>
    <header>
      <identifier>oai:zenodo.org:226079</identifier>
      <datestamp>2016-12-31T15:50:53Z</datestamp>
      <setSpec>user-biosyslit</setSpec>
    </header>
    <header>
      <identifier>oai:zenodo.org:214070</identifier>
      <datestamp>2016-12-21T00:31:22Z</datestamp>
      <setSpec>user-biosyslit</setSpec>
    </header>
    <header>
      <identifier>oai:zenodo.org:265680</identifier>
      <datestamp>2017-01-31T18:54:22Z</datestamp>
      <setSpec>user-biosyslit</setSpec>
    </header>
    <header>
      <identifier>oai:zenodo.org:265809</identifier>
      <datestamp>2017-01-31T21:49:12Z</datestamp>
      <setSpec>user-biosyslit</setSpec>
    </header>
    <header>
      <identifier>oai:zenodo.org:226103</identifier>
      <datestamp>2016-12-31T16:16:16Z</datestamp>
      <setSpec>user-biosyslit</setSpec>
    </header>
    <header>
      <identifier>oai:zenodo.org:266104</identifier>
      <datestamp>2017-02-01T00:25:22Z</datestamp>
      <setSpec>user-biosyslit</setSpec>
    </header>
    <header>
      <identifier>oai:zenodo.org:214091</identifier>
      <datestamp>2016-12-21T00:44:42Z</datestamp>
      <setSpec>user-biosyslit</setSpec>
    </header>
    <header>
      <identifier>oai:zenodo.org:265917</identifier>
      <datestamp>2017-01-31T23:16:06Z</datestamp>
      <setSpec>user-biosyslit</setSpec>
    </header>
    <header>
      <identifier>oai:zenodo.org:265816</identifier>
      <datestamp>2017-01-31T21:48:01Z</datestamp>
      <setSpec>user-biosyslit</setSpec>
    </header>
    <header>
      <identifier>oai:zenodo.org:215120</identifier>
      <datestamp>2016-12-21T08:13:29Z</datestamp>
      <setSpec>user-biosyslit</setSpec>
    </header>
    <header>
      <identifier>oai:zenodo.org:215099</identifier>
      <datestamp>2016-12-21T08:08:44Z</datestamp>
      <setSpec>user-biosyslit</setSpec>
    </header>
    <header>
      <identifier>oai:zenodo.org:215772</identifier>
      <datestamp>2016-12-21T14:08:13Z</datestamp>
      <setSpec>user-biosyslit</setSpec>
    </header>
    <header>
      <identifier>oai:zenodo.org:215957</identifier>
      <datestamp>2016-12-21T15:34:22Z</datestamp>
      <setSpec>user-biosyslit</setSpec>
    </header>
    <header>
      <identifier>oai:zenodo.org:214447</identifier>
      <datestamp>2016-12-21T03:23:57Z</datestamp>
      <setSpec>user-biosyslit</setSpec>
    </header>
    <header>
      <identifier>oai:zenodo.org:216500</identifier>
      <datestamp>2016-12-21T20:24:09Z</datestamp>
      <setSpec>user-biosyslit</setSpec>
    </header>
    <header>
      <identifier>oai:zenodo.org:215632</identifier>
      <datestamp>2016-12-21T13:04:29Z</datestamp>
      <setSpec>user-biosyslit</setSpec>
    </header>
    <header>
      <identifier>oai:zenodo.org:266103</identifier>
      <datestamp>2017-02-01T00:25:19Z</datestamp>
      <setSpec>user-biosyslit</setSpec>
    </header>
    <header>
      <identifier>oai:zenodo.org:267616</identifier>
      <datestamp>2017-02-02T04:58:27Z</datestamp>
      <setSpec>user-biosyslit</setSpec>
    </header>
    <header>
      <identifier>oai:zenodo.org:215046</identifier>
      <datestamp>2016-12-21T07:43:17Z</datestamp>
      <setSpec>user-biosyslit</setSpec>
    </header>
    <header>
      <identifier>oai:zenodo.org:215545</identifier>
      <datestamp>2016-12-21T12:29:16Z</datestamp>
      <setSpec>user-biosyslit</setSpec>
    </header>
    <header>
      <identifier>oai:zenodo.org:266300</identifier>
      <datestamp>2017-02-01T05:53:16Z</datestamp>
      <setSpec>user-biosyslit</setSpec>
    </header>
    <header>
      <identifier>oai:zenodo.org:215552</identifier>
      <datestamp>2016-12-21T12:32:01Z</datestamp>
      <setSpec>user-biosyslit</setSpec>
    </header>
    <header>
      <identifier>oai:zenodo.org:216287</identifier>
      <datestamp>2016-12-21T19:01:43Z</datestamp>
      <setSpec>user-biosyslit</setSpec>
    </header>
    <header>
      <identifier>oai:zenodo.org:274268</identifier>
      <datestamp>2017-02-08T12:42:46Z</datestamp>
      <setSpec>user-biosyslit</setSpec>
    </header>
    <header>
      <identifier>oai:zenodo.org:274327</identifier>
      <datestamp>2017-02-08T12:52:39Z</datestamp>
      <setSpec>user-biosyslit</setSpec>
    </header>
    <header>
      <identifier>oai:zenodo.org:216339</identifier>
      <datestamp>2016-12-21T19:12:53Z</datestamp>
      <setSpec>user-biosyslit</setSpec>
    </header>
    <header>
      <identifier>oai:zenodo.org:266579</identifier>
      <datestamp>2017-02-01T12:04:21Z</datestamp>
      <setSpec>user-biosyslit</setSpec>
    </header>
    <header>
      <identifier>oai:zenodo.org:215396</identifier>
      <datestamp>2016-12-21T10:25:00Z</datestamp>
      <setSpec>user-biosyslit</setSpec>
    </header>
    <header>
      <identifier>oai:zenodo.org:214828</identifier>
      <datestamp>2016-12-21T05:42:38Z</datestamp>
      <setSpec>user-biosyslit</setSpec>
    </header>
    <header>
      <identifier>oai:zenodo.org:217245</identifier>
      <datestamp>2016-12-22T03:03:54Z</datestamp>
      <setSpec>user-biosyslit</setSpec>
    </header>
    <header>
      <identifier>oai:zenodo.org:266343</identifier>
      <datestamp>2017-02-01T06:36:08Z</datestamp>
      <setSpec>user-biosyslit</setSpec>
    </header>
    <header>
      <identifier>oai:zenodo.org:266878</identifier>
      <datestamp>2017-02-01T15:56:57Z</datestamp>
      <setSpec>user-biosyslit</setSpec>
    </header>
    <header>
      <identifier>oai:zenodo.org:215816</identifier>
      <datestamp>2016-12-21T14:30:47Z</datestamp>
      <setSpec>user-biosyslit</setSpec>
    </header>
    <header>
      <identifier>oai:zenodo.org:267895</identifier>
      <datestamp>2017-02-02T09:05:43Z</datestamp>
      <setSpec>user-biosyslit</setSpec>
    </header>
    <header>
      <identifier>oai:zenodo.org:216432</identifier>
      <datestamp>2016-12-21T19:54:25Z</datestamp>
      <setSpec>user-biosyslit</setSpec>
    </header>
    <header>
      <identifier>oai:zenodo.org:267172</identifier>
      <datestamp>2017-02-01T20:33:06Z</datestamp>
      <setSpec>user-biosyslit</setSpec>
    </header>
    <header>
      <identifier>oai:zenodo.org:267073</identifier>
      <datestamp>2017-02-01T18:58:13Z</datestamp>
      <setSpec>user-biosyslit</setSpec>
    </header>
    <header>
      <identifier>oai:zenodo.org:267116</identifier>
      <datestamp>2017-02-01T19:38:21Z</datestamp>
      <setSpec>user-biosyslit</setSpec>
    </header>
    <header>
      <identifier>oai:zenodo.org:267090</identifier>
      <datestamp>2017-02-01T19:12:54Z</datestamp>
      <setSpec>user-biosyslit</setSpec>
    </header>
    <header>
      <identifier>oai:zenodo.org:267728</identifier>
      <datestamp>2017-02-02T06:23:22Z</datestamp>
      <setSpec>user-biosyslit</setSpec>
    </header>
    <header>
      <identifier>oai:zenodo.org:267211</identifier>
      <datestamp>2017-02-01T22:28:24Z</datestamp>
      <setSpec>user-biosyslit</setSpec>
    </header>
    <header>
      <identifier>oai:zenodo.org:267129</identifier>
      <datestamp>2017-02-01T20:02:32Z</datestamp>
      <setSpec>user-biosyslit</setSpec>
    </header>
    <header>
      <identifier>oai:zenodo.org:267289</identifier>
      <datestamp>2017-02-01T23:50:33Z</datestamp>
      <setSpec>user-biosyslit</setSpec>
    </header>
    <header>
      <identifier>oai:zenodo.org:267291</identifier>
      <datestamp>2017-02-01T23:54:02Z</datestamp>
      <setSpec>user-biosyslit</setSpec>
    </header>
    <header>
      <identifier>oai:zenodo.org:267294</identifier>
      <datestamp>2017-02-01T23:53:58Z</datestamp>
      <setSpec>user-biosyslit</setSpec>
    </header>
    <header>
      <identifier>oai:zenodo.org:266954</identifier>
      <datestamp>2017-02-01T17:28:07Z</datestamp>
      <setSpec>user-biosyslit</setSpec>
    </header>
    <header>
      <identifier>oai:zenodo.org:267095</identifier>
      <datestamp>2017-02-01T19:12:39Z</datestamp>
      <setSpec>user-biosyslit</setSpec>
    </header>
    <header>
      <identifier>oai:zenodo.org:267015</identifier>
      <datestamp>2017-02-01T18:16:29Z</datestamp>
      <setSpec>user-biosyslit</setSpec>
    </header>
    <header>
      <identifier>oai:zenodo.org:267001</identifier>
      <datestamp>2017-02-01T18:02:25Z</datestamp>
      <setSpec>user-biosyslit</setSpec>
    </header>
    <header>
      <identifier>oai:zenodo.org:267198</identifier>
      <datestamp>2017-02-01T22:27:50Z</datestamp>
      <setSpec>user-biosyslit</setSpec>
    </header>
    <header>
      <identifier>oai:zenodo.org:267591</identifier>
      <datestamp>2017-02-02T04:30:18Z</datestamp>
      <setSpec>user-biosyslit</setSpec>
    </header>
    <header>
      <identifier>oai:zenodo.org:267857</identifier>
      <datestamp>2017-02-02T08:16:47Z</datestamp>
      <setSpec>user-biosyslit</setSpec>
    </header>
    <header>
      <identifier>oai:zenodo.org:267618</identifier>
      <datestamp>2017-02-02T04:58:32Z</datestamp>
      <setSpec>user-biosyslit</setSpec>
    </header>
    <header>
      <identifier>oai:zenodo.org:268186</identifier>
      <datestamp>2017-02-03T02:57:06Z</datestamp>
      <setSpec>user-biosyslit</setSpec>
    </header>
    <header>
      <identifier>oai:zenodo.org:268078</identifier>
      <datestamp>2017-02-03T01:33:58Z</datestamp>
      <setSpec>user-biosyslit</setSpec>
    </header>
    <header>
      <identifier>oai:zenodo.org:217632</identifier>
      <datestamp>2016-12-22T06:11:12Z</datestamp>
      <setSpec>user-biosyslit</setSpec>
    </header>
    <resumptionToken expirationDate="2017-08-31T15:39:43Z" cursor="0" completeListSize="142507">.eJwdj91vgjAAxP-Xvk6X8jF0Jj7MAA4CZUrpwBdTy8fAIoZ2ATH-7-tM7u7h7vdydyCKIgcr-GpBaJqGYRnLt8W_Z0CwvuP8WKsZsJRwduEJ3ZLffUtgplcLZIsxtDMDNYkRtdoUuzs91ZZjUsPbDicym_YjMbwhhs4ixB86mjItwlfJ4E-C-HsZEk-GZ0cLvkPISH4LHbmJJmdADdMRrqxTijxiH8p0cuMA-xsUaw36dFPWbIIdFhOyPRhhzzoYzKSEC8r9mG1JcNCFubf9IHH9Sz6JIRrWazADV1oVYKXPwHmgfSXA6q6-S_XtVxT9_FR34iZ4LRVZ9l2reh1q1hxqShjC1VMvz1RIW0iaU0m_-qKsRwV3tD7mDDwefzQVaeY.DIm-xw.gS4R3FWk4GbgaWO9xII8nwbPBfg</resumptionToken>
  </ListIdentifiers>
</OAI-PMH>
