<?xml version='1.0' encoding='UTF-8'?>
<?xml-stylesheet type="text/xsl" href="/static/xsl/oai2.v1.0.xsl"?>
<OAI-PMH xmlns="http://www.openarchives.org/OAI/2.0/" xmlns:xsi="http://www.w3.org/2001/XMLSchema-instance" xsi:schemaLocation="http://www.openarchives.org/OAI/2.0/ http://www.openarchives.org/OAI/2.0/OAI-PMH.xsd">
  <responseDate>2017-08-31T15:43:04Z</responseDate>
  <request verb="ListIdentifiers" resumptionToken=".eJyNysEOQzAYAOB3-c-ytDqrSHYRJg6IdQSXxRAxZaJbRsW7z2Xn7fx9C4iqKsFAO-2gUkp0pFGKyZ5QBUQxPji_NhtDkcS86HmUO_Hr3MUoVWvqW2LyrJT4skVBhyU7hWqC9Slq0Bxeomcqz1NM3DdDNvVkOPt3d3slCRye3ZyBRb3JmVqOgR3ODJssI8X34T-f_PkscQQFhryuwCBYU6B952MtwFjW9QOg2FE_.DInACA.gdgJ60WM9lEh5t1uBKeWiwLt4zw">https://zenodo.org/oai2d</request>
  <ListIdentifiers>
    <header>
      <identifier>oai:zenodo.org:818598</identifier>
      <datestamp>2017-06-26T11:52:57Z</datestamp>
      <setSpec>user-biosyslit</setSpec>
    </header>
    <header>
      <identifier>oai:zenodo.org:818620</identifier>
      <datestamp>2017-06-26T11:56:20Z</datestamp>
      <setSpec>user-biosyslit</setSpec>
    </header>
    <header>
      <identifier>oai:zenodo.org:818622</identifier>
      <datestamp>2017-06-26T11:56:25Z</datestamp>
      <setSpec>user-biosyslit</setSpec>
    </header>
    <header>
      <identifier>oai:zenodo.org:818606</identifier>
      <datestamp>2017-06-26T11:52:50Z</datestamp>
      <setSpec>user-biosyslit</setSpec>
    </header>
    <header>
      <identifier>oai:zenodo.org:818602</identifier>
      <datestamp>2017-06-26T11:52:42Z</datestamp>
      <setSpec>user-biosyslit</setSpec>
    </header>
    <header>
      <identifier>oai:zenodo.org:818616</identifier>
      <datestamp>2017-06-26T11:56:12Z</datestamp>
      <setSpec>user-biosyslit</setSpec>
    </header>
    <header>
      <identifier>oai:zenodo.org:818604</identifier>
      <datestamp>2017-06-26T11:52:46Z</datestamp>
      <setSpec>user-biosyslit</setSpec>
    </header>
    <header>
      <identifier>oai:zenodo.org:293900</identifier>
      <datestamp>2017-02-20T18:57:00Z</datestamp>
      <setSpec>user-biosyslit</setSpec>
    </header>
    <header>
      <identifier>oai:zenodo.org:293901</identifier>
      <datestamp>2017-02-20T18:57:03Z</datestamp>
      <setSpec>user-biosyslit</setSpec>
    </header>
    <header>
      <identifier>oai:zenodo.org:293902</identifier>
      <datestamp>2017-02-20T18:57:05Z</datestamp>
      <setSpec>user-biosyslit</setSpec>
    </header>
    <header>
      <identifier>oai:zenodo.org:293899</identifier>
      <datestamp>2017-02-20T18:57:18Z</datestamp>
      <setSpec>user-biosyslit</setSpec>
    </header>
    <header>
      <identifier>oai:zenodo.org:293905</identifier>
      <datestamp>2017-02-20T18:57:13Z</datestamp>
      <setSpec>user-biosyslit</setSpec>
    </header>
    <header>
      <identifier>oai:zenodo.org:293904</identifier>
      <datestamp>2017-02-20T18:57:10Z</datestamp>
      <setSpec>user-biosyslit</setSpec>
    </header>
    <header>
      <identifier>oai:zenodo.org:293903</identifier>
      <datestamp>2017-02-20T18:57:07Z</datestamp>
      <setSpec>user-biosyslit</setSpec>
    </header>
    <header>
      <identifier>oai:zenodo.org:283516</identifier>
      <datestamp>2017-02-09T09:07:03Z</datestamp>
      <setSpec>user-biosyslit</setSpec>
    </header>
    <header>
      <identifier>oai:zenodo.org:283512</identifier>
      <datestamp>2017-02-09T09:06:53Z</datestamp>
      <setSpec>user-biosyslit</setSpec>
    </header>
    <header>
      <identifier>oai:zenodo.org:283514</identifier>
      <datestamp>2017-02-09T09:06:58Z</datestamp>
      <setSpec>user-biosyslit</setSpec>
    </header>
    <header>
      <identifier>oai:zenodo.org:262186</identifier>
      <datestamp>2017-01-28T22:37:06Z</datestamp>
      <setSpec>user-biosyslit</setSpec>
    </header>
    <header>
      <identifier>oai:zenodo.org:233045</identifier>
      <datestamp>2017-01-07T23:15:51Z</datestamp>
      <setSpec>user-biosyslit</setSpec>
    </header>
    <header>
      <identifier>oai:zenodo.org:233046</identifier>
      <datestamp>2017-01-07T23:15:55Z</datestamp>
      <setSpec>user-biosyslit</setSpec>
    </header>
    <header>
      <identifier>oai:zenodo.org:280715</identifier>
      <datestamp>2017-02-09T03:56:05Z</datestamp>
      <setSpec>user-biosyslit</setSpec>
    </header>
    <header>
      <identifier>oai:zenodo.org:280716</identifier>
      <datestamp>2017-02-09T03:56:07Z</datestamp>
      <setSpec>user-biosyslit</setSpec>
    </header>
    <header>
      <identifier>oai:zenodo.org:248830</identifier>
      <datestamp>2017-01-17T12:34:03Z</datestamp>
      <setSpec>user-biosyslit</setSpec>
    </header>
    <header>
      <identifier>oai:zenodo.org:248871</identifier>
      <datestamp>2017-01-17T12:34:01Z</datestamp>
      <setSpec>user-biosyslit</setSpec>
    </header>
    <header>
      <identifier>oai:zenodo.org:234304</identifier>
      <datestamp>2017-01-08T18:15:02Z</datestamp>
      <setSpec>user-biosyslit</setSpec>
    </header>
    <header>
      <identifier>oai:zenodo.org:234303</identifier>
      <datestamp>2017-01-08T18:14:59Z</datestamp>
      <setSpec>user-biosyslit</setSpec>
    </header>
    <header>
      <identifier>oai:zenodo.org:280567</identifier>
      <datestamp>2017-02-09T03:39:52Z</datestamp>
      <setSpec>user-biosyslit</setSpec>
    </header>
    <header>
      <identifier>oai:zenodo.org:280569</identifier>
      <datestamp>2017-02-09T03:39:34Z</datestamp>
      <setSpec>user-biosyslit</setSpec>
    </header>
    <header>
      <identifier>oai:zenodo.org:280574</identifier>
      <datestamp>2017-02-09T03:39:49Z</datestamp>
      <setSpec>user-biosyslit</setSpec>
    </header>
    <header>
      <identifier>oai:zenodo.org:280570</identifier>
      <datestamp>2017-02-09T03:39:38Z</datestamp>
      <setSpec>user-biosyslit</setSpec>
    </header>
    <header>
      <identifier>oai:zenodo.org:280572</identifier>
      <datestamp>2017-02-09T03:39:45Z</datestamp>
      <setSpec>user-biosyslit</setSpec>
    </header>
    <header>
      <identifier>oai:zenodo.org:286211</identifier>
      <datestamp>2017-02-09T15:32:36Z</datestamp>
      <setSpec>user-biosyslit</setSpec>
    </header>
    <header>
      <identifier>oai:zenodo.org:286215</identifier>
      <datestamp>2017-02-09T15:32:18Z</datestamp>
      <setSpec>user-biosyslit</setSpec>
    </header>
    <header>
      <identifier>oai:zenodo.org:236856</identifier>
      <datestamp>2017-01-10T06:30:47Z</datestamp>
      <setSpec>user-biosyslit</setSpec>
    </header>
    <header>
      <identifier>oai:zenodo.org:286214</identifier>
      <datestamp>2017-02-09T15:32:15Z</datestamp>
      <setSpec>user-biosyslit</setSpec>
    </header>
    <header>
      <identifier>oai:zenodo.org:286220</identifier>
      <datestamp>2017-02-09T15:32:35Z</datestamp>
      <setSpec>user-biosyslit</setSpec>
    </header>
    <header>
      <identifier>oai:zenodo.org:286218</identifier>
      <datestamp>2017-02-09T15:32:28Z</datestamp>
      <setSpec>user-biosyslit</setSpec>
    </header>
    <header>
      <identifier>oai:zenodo.org:236437</identifier>
      <datestamp>2017-01-10T00:12:00Z</datestamp>
      <setSpec>user-biosyslit</setSpec>
    </header>
    <header>
      <identifier>oai:zenodo.org:236434</identifier>
      <datestamp>2017-01-10T00:11:48Z</datestamp>
      <setSpec>user-biosyslit</setSpec>
    </header>
    <header>
      <identifier>oai:zenodo.org:236435</identifier>
      <datestamp>2017-01-10T00:11:52Z</datestamp>
      <setSpec>user-biosyslit</setSpec>
    </header>
    <header>
      <identifier>oai:zenodo.org:281494</identifier>
      <datestamp>2017-02-09T05:23:05Z</datestamp>
      <setSpec>user-biosyslit</setSpec>
    </header>
    <header>
      <identifier>oai:zenodo.org:281482</identifier>
      <datestamp>2017-02-09T05:22:36Z</datestamp>
      <setSpec>user-biosyslit</setSpec>
    </header>
    <header>
      <identifier>oai:zenodo.org:281489</identifier>
      <datestamp>2017-02-09T05:22:54Z</datestamp>
      <setSpec>user-biosyslit</setSpec>
    </header>
    <header>
      <identifier>oai:zenodo.org:281486</identifier>
      <datestamp>2017-02-09T05:22:47Z</datestamp>
      <setSpec>user-biosyslit</setSpec>
    </header>
    <header>
      <identifier>oai:zenodo.org:281478</identifier>
      <datestamp>2017-02-09T05:22:26Z</datestamp>
      <setSpec>user-biosyslit</setSpec>
    </header>
    <header>
      <identifier>oai:zenodo.org:281480</identifier>
      <datestamp>2017-02-09T05:22:31Z</datestamp>
      <setSpec>user-biosyslit</setSpec>
    </header>
    <header>
      <identifier>oai:zenodo.org:281479</identifier>
      <datestamp>2017-02-09T05:22:29Z</datestamp>
      <setSpec>user-biosyslit</setSpec>
    </header>
    <header>
      <identifier>oai:zenodo.org:281491</identifier>
      <datestamp>2017-02-09T05:22:58Z</datestamp>
      <setSpec>user-biosyslit</setSpec>
    </header>
    <header>
      <identifier>oai:zenodo.org:271135</identifier>
      <datestamp>2017-02-08T00:52:54Z</datestamp>
      <setSpec>user-biosyslit</setSpec>
    </header>
    <header>
      <identifier>oai:zenodo.org:264006</identifier>
      <datestamp>2017-06-27T05:21:41Z</datestamp>
      <setSpec>user-biosyslit</setSpec>
    </header>
    <header>
      <identifier>oai:zenodo.org:264009</identifier>
      <datestamp>2017-01-30T11:43:57Z</datestamp>
      <setSpec>user-biosyslit</setSpec>
    </header>
    <header>
      <identifier>oai:zenodo.org:271136</identifier>
      <datestamp>2017-02-08T00:52:36Z</datestamp>
      <setSpec>user-biosyslit</setSpec>
    </header>
    <header>
      <identifier>oai:zenodo.org:271141</identifier>
      <datestamp>2017-02-08T00:52:52Z</datestamp>
      <setSpec>user-biosyslit</setSpec>
    </header>
    <header>
      <identifier>oai:zenodo.org:265034</identifier>
      <datestamp>2017-01-31T06:56:14Z</datestamp>
      <setSpec>user-biosyslit</setSpec>
    </header>
    <header>
      <identifier>oai:zenodo.org:253674</identifier>
      <datestamp>2017-01-20T09:46:07Z</datestamp>
      <setSpec>user-biosyslit</setSpec>
    </header>
    <header>
      <identifier>oai:zenodo.org:253677</identifier>
      <datestamp>2017-01-20T09:46:19Z</datestamp>
      <setSpec>user-biosyslit</setSpec>
    </header>
    <header>
      <identifier>oai:zenodo.org:265048</identifier>
      <datestamp>2017-01-31T06:56:06Z</datestamp>
      <setSpec>user-biosyslit</setSpec>
    </header>
    <header>
      <identifier>oai:zenodo.org:253679</identifier>
      <datestamp>2017-01-20T09:46:24Z</datestamp>
      <setSpec>user-biosyslit</setSpec>
    </header>
    <header>
      <identifier>oai:zenodo.org:253673</identifier>
      <datestamp>2017-01-20T09:46:03Z</datestamp>
      <setSpec>user-biosyslit</setSpec>
    </header>
    <header>
      <identifier>oai:zenodo.org:265047</identifier>
      <datestamp>2017-01-31T06:56:03Z</datestamp>
      <setSpec>user-biosyslit</setSpec>
    </header>
    <header>
      <identifier>oai:zenodo.org:265050</identifier>
      <datestamp>2017-01-31T06:56:12Z</datestamp>
      <setSpec>user-biosyslit</setSpec>
    </header>
    <header>
      <identifier>oai:zenodo.org:226628</identifier>
      <datestamp>2017-01-01T00:26:19Z</datestamp>
      <setSpec>user-biosyslit</setSpec>
    </header>
    <header>
      <identifier>oai:zenodo.org:285544</identifier>
      <datestamp>2017-02-09T13:49:14Z</datestamp>
      <setSpec>user-biosyslit</setSpec>
    </header>
    <header>
      <identifier>oai:zenodo.org:285542</identifier>
      <datestamp>2017-02-09T13:49:10Z</datestamp>
      <setSpec>user-biosyslit</setSpec>
    </header>
    <header>
      <identifier>oai:zenodo.org:285545</identifier>
      <datestamp>2017-02-09T13:49:17Z</datestamp>
      <setSpec>user-biosyslit</setSpec>
    </header>
    <header>
      <identifier>oai:zenodo.org:280180</identifier>
      <datestamp>2017-02-09T02:54:27Z</datestamp>
      <setSpec>user-biosyslit</setSpec>
    </header>
    <header>
      <identifier>oai:zenodo.org:280182</identifier>
      <datestamp>2017-02-09T02:54:26Z</datestamp>
      <setSpec>user-biosyslit</setSpec>
    </header>
    <header>
      <identifier>oai:zenodo.org:230357</identifier>
      <datestamp>2017-01-04T23:21:19Z</datestamp>
      <setSpec>user-biosyslit</setSpec>
    </header>
    <header>
      <identifier>oai:zenodo.org:241463</identifier>
      <datestamp>2017-01-13T01:43:25Z</datestamp>
      <setSpec>user-biosyslit</setSpec>
    </header>
    <header>
      <identifier>oai:zenodo.org:230362</identifier>
      <datestamp>2017-01-04T23:21:18Z</datestamp>
      <setSpec>user-biosyslit</setSpec>
    </header>
    <header>
      <identifier>oai:zenodo.org:241461</identifier>
      <datestamp>2017-01-13T01:43:17Z</datestamp>
      <setSpec>user-biosyslit</setSpec>
    </header>
    <header>
      <identifier>oai:zenodo.org:241460</identifier>
      <datestamp>2017-01-13T01:43:14Z</datestamp>
      <setSpec>user-biosyslit</setSpec>
    </header>
    <header>
      <identifier>oai:zenodo.org:230360</identifier>
      <datestamp>2017-01-04T23:21:11Z</datestamp>
      <setSpec>user-biosyslit</setSpec>
    </header>
    <header>
      <identifier>oai:zenodo.org:241462</identifier>
      <datestamp>2017-01-13T01:43:21Z</datestamp>
      <setSpec>user-biosyslit</setSpec>
    </header>
    <header>
      <identifier>oai:zenodo.org:233227</identifier>
      <datestamp>2017-01-08T02:20:35Z</datestamp>
      <setSpec>user-biosyslit</setSpec>
    </header>
    <header>
      <identifier>oai:zenodo.org:233230</identifier>
      <datestamp>2017-01-08T02:20:34Z</datestamp>
      <setSpec>user-biosyslit</setSpec>
    </header>
    <header>
      <identifier>oai:zenodo.org:279422</identifier>
      <datestamp>2017-02-09T01:19:49Z</datestamp>
      <setSpec>user-biosyslit</setSpec>
    </header>
    <header>
      <identifier>oai:zenodo.org:238978</identifier>
      <datestamp>2017-01-11T14:14:56Z</datestamp>
      <setSpec>user-biosyslit</setSpec>
    </header>
    <header>
      <identifier>oai:zenodo.org:254302</identifier>
      <datestamp>2017-01-20T17:52:01Z</datestamp>
      <setSpec>user-biosyslit</setSpec>
    </header>
    <header>
      <identifier>oai:zenodo.org:254299</identifier>
      <datestamp>2017-01-20T17:51:50Z</datestamp>
      <setSpec>user-biosyslit</setSpec>
    </header>
    <header>
      <identifier>oai:zenodo.org:254311</identifier>
      <datestamp>2017-01-20T17:52:25Z</datestamp>
      <setSpec>user-biosyslit</setSpec>
    </header>
    <header>
      <identifier>oai:zenodo.org:254310</identifier>
      <datestamp>2017-01-20T17:52:22Z</datestamp>
      <setSpec>user-biosyslit</setSpec>
    </header>
    <header>
      <identifier>oai:zenodo.org:254304</identifier>
      <datestamp>2017-01-20T17:52:07Z</datestamp>
      <setSpec>user-biosyslit</setSpec>
    </header>
    <header>
      <identifier>oai:zenodo.org:254318</identifier>
      <datestamp>2017-01-20T17:52:42Z</datestamp>
      <setSpec>user-biosyslit</setSpec>
    </header>
    <header>
      <identifier>oai:zenodo.org:254301</identifier>
      <datestamp>2017-01-20T17:51:57Z</datestamp>
      <setSpec>user-biosyslit</setSpec>
    </header>
    <header>
      <identifier>oai:zenodo.org:254307</identifier>
      <datestamp>2017-01-20T17:52:14Z</datestamp>
      <setSpec>user-biosyslit</setSpec>
    </header>
    <header>
      <identifier>oai:zenodo.org:254309</identifier>
      <datestamp>2017-01-20T17:52:19Z</datestamp>
      <setSpec>user-biosyslit</setSpec>
    </header>
    <header>
      <identifier>oai:zenodo.org:230125</identifier>
      <datestamp>2017-01-04T19:39:42Z</datestamp>
      <setSpec>user-biosyslit</setSpec>
    </header>
    <header>
      <identifier>oai:zenodo.org:230127</identifier>
      <datestamp>2017-01-04T19:39:37Z</datestamp>
      <setSpec>user-biosyslit</setSpec>
    </header>
    <header>
      <identifier>oai:zenodo.org:230126</identifier>
      <datestamp>2017-01-04T19:39:34Z</datestamp>
      <setSpec>user-biosyslit</setSpec>
    </header>
    <header>
      <identifier>oai:zenodo.org:233458</identifier>
      <datestamp>2017-01-08T05:25:35Z</datestamp>
      <setSpec>user-biosyslit</setSpec>
    </header>
    <header>
      <identifier>oai:zenodo.org:233457</identifier>
      <datestamp>2017-01-08T05:26:00Z</datestamp>
      <setSpec>user-biosyslit</setSpec>
    </header>
    <header>
      <identifier>oai:zenodo.org:233463</identifier>
      <datestamp>2017-01-08T05:25:55Z</datestamp>
      <setSpec>user-biosyslit</setSpec>
    </header>
    <header>
      <identifier>oai:zenodo.org:233460</identifier>
      <datestamp>2017-01-08T05:25:43Z</datestamp>
      <setSpec>user-biosyslit</setSpec>
    </header>
    <header>
      <identifier>oai:zenodo.org:255999</identifier>
      <datestamp>2017-01-22T01:41:45Z</datestamp>
      <setSpec>user-biosyslit</setSpec>
    </header>
    <header>
      <identifier>oai:zenodo.org:256001</identifier>
      <datestamp>2017-01-22T01:41:51Z</datestamp>
      <setSpec>user-biosyslit</setSpec>
    </header>
    <header>
      <identifier>oai:zenodo.org:254642</identifier>
      <datestamp>2017-01-21T00:59:22Z</datestamp>
      <setSpec>user-biosyslit</setSpec>
    </header>
    <header>
      <identifier>oai:zenodo.org:254885</identifier>
      <datestamp>2017-01-21T04:28:51Z</datestamp>
      <setSpec>user-biosyslit</setSpec>
    </header>
    <header>
      <identifier>oai:zenodo.org:254886</identifier>
      <datestamp>2017-01-21T04:28:44Z</datestamp>
      <setSpec>user-biosyslit</setSpec>
    </header>
    <header>
      <identifier>oai:zenodo.org:254646</identifier>
      <datestamp>2017-01-21T00:59:20Z</datestamp>
      <setSpec>user-biosyslit</setSpec>
    </header>
    <resumptionToken expirationDate="2017-08-31T15:45:04Z" cursor="31400" completeListSize="77796">.eJyNyrEKgkAYAOB3-WeJO39TE1rEkgYVvZR0CVOR6jTxCvXEd6-luebvm0FUVQkWWWlER1VDfaOjSddIFRBF_-D8fP0wFKeEFy2Pczd5RU1CUrU2fEeMnpOiL-8kaKhk-1A9UXOMr2QKj_EzldGY4GFgZGd4Mpz82-HzSgxcnl3cjsWtzZla9sEunBi1WYbF99E_n_z5HLEFBbq8rsBCqitwH_K-FmDNy_IGlqtRNQ.DInACA.bp1pPxHWC_998qWbNbXx3iVSlKc</resumptionToken>
  </ListIdentifiers>
</OAI-PMH>
