<?xml version='1.0' encoding='UTF-8'?>
<?xml-stylesheet type="text/xsl" href="/static/xsl/oai2.v1.0.xsl"?>
<OAI-PMH xmlns="http://www.openarchives.org/OAI/2.0/" xmlns:xsi="http://www.w3.org/2001/XMLSchema-instance" xsi:schemaLocation="http://www.openarchives.org/OAI/2.0/ http://www.openarchives.org/OAI/2.0/OAI-PMH.xsd">
  <responseDate>2017-08-31T15:44:00Z</responseDate>
  <request verb="ListIdentifiers" resumptionToken=".eJyNysEKgjAYAOB3-c8S21xuCl3Ekg4pthzpJUxFymXiinTRu9elc52_7wm6rivw0Iy7hFHOHYIc6rpzZoEuh6tSh9OHodxLVXYqLUJ5314kykjDokCPmyCzI9Oi-IKNWCVkj_mYntCU7NJbZrajtNcPgZZsY5IpOq8_r7LjUOXHsBdp5ytBqiFeJpPAvsjt8vvwn8_8fIFegAV90dTg0Tm1oH0UQ6PBe75eb7KAUVY.DInAQA.eiFhxFfyCFhzYtz4CXJlEp32ucQ">https://zenodo.org/oai2d</request>
  <ListIdentifiers>
    <header>
      <identifier>oai:zenodo.org:270519</identifier>
      <datestamp>2017-02-07T23:24:17Z</datestamp>
      <setSpec>user-biosyslit</setSpec>
    </header>
    <header>
      <identifier>oai:zenodo.org:232687</identifier>
      <datestamp>2017-01-06T21:37:53Z</datestamp>
      <setSpec>user-biosyslit</setSpec>
    </header>
    <header>
      <identifier>oai:zenodo.org:233320</identifier>
      <datestamp>2017-01-08T03:23:48Z</datestamp>
      <setSpec>user-biosyslit</setSpec>
    </header>
    <header>
      <identifier>oai:zenodo.org:232368</identifier>
      <datestamp>2017-01-06T16:35:47Z</datestamp>
      <setSpec>user-biosyslit</setSpec>
    </header>
    <header>
      <identifier>oai:zenodo.org:232428</identifier>
      <datestamp>2017-01-06T17:23:20Z</datestamp>
      <setSpec>user-biosyslit</setSpec>
    </header>
    <header>
      <identifier>oai:zenodo.org:233206</identifier>
      <datestamp>2017-01-08T02:12:59Z</datestamp>
      <setSpec>user-biosyslit</setSpec>
    </header>
    <header>
      <identifier>oai:zenodo.org:233551</identifier>
      <datestamp>2017-01-08T08:23:15Z</datestamp>
      <setSpec>user-biosyslit</setSpec>
    </header>
    <header>
      <identifier>oai:zenodo.org:233034</identifier>
      <datestamp>2017-01-07T22:49:13Z</datestamp>
      <setSpec>user-biosyslit</setSpec>
    </header>
    <header>
      <identifier>oai:zenodo.org:288008</identifier>
      <datestamp>2017-02-09T19:48:40Z</datestamp>
      <setSpec>user-biosyslit</setSpec>
    </header>
    <header>
      <identifier>oai:zenodo.org:288130</identifier>
      <datestamp>2017-02-09T20:04:21Z</datestamp>
      <setSpec>user-biosyslit</setSpec>
    </header>
    <header>
      <identifier>oai:zenodo.org:287942</identifier>
      <datestamp>2017-02-09T19:38:55Z</datestamp>
      <setSpec>user-biosyslit</setSpec>
    </header>
    <header>
      <identifier>oai:zenodo.org:288765</identifier>
      <datestamp>2017-02-09T21:51:33Z</datestamp>
      <setSpec>user-biosyslit</setSpec>
    </header>
    <header>
      <identifier>oai:zenodo.org:289091</identifier>
      <datestamp>2017-02-09T22:36:43Z</datestamp>
      <setSpec>user-biosyslit</setSpec>
    </header>
    <header>
      <identifier>oai:zenodo.org:288726</identifier>
      <datestamp>2017-02-09T21:49:23Z</datestamp>
      <setSpec>user-biosyslit</setSpec>
    </header>
    <header>
      <identifier>oai:zenodo.org:288013</identifier>
      <datestamp>2017-02-09T19:49:25Z</datestamp>
      <setSpec>user-biosyslit</setSpec>
    </header>
    <header>
      <identifier>oai:zenodo.org:287911</identifier>
      <datestamp>2017-02-09T19:36:22Z</datestamp>
      <setSpec>user-biosyslit</setSpec>
    </header>
    <header>
      <identifier>oai:zenodo.org:227628</identifier>
      <datestamp>2017-01-02T01:06:35Z</datestamp>
      <setSpec>user-biosyslit</setSpec>
    </header>
    <header>
      <identifier>oai:zenodo.org:227558</identifier>
      <datestamp>2017-01-01T23:50:20Z</datestamp>
      <setSpec>user-biosyslit</setSpec>
    </header>
    <header>
      <identifier>oai:zenodo.org:229194</identifier>
      <datestamp>2017-01-03T12:16:59Z</datestamp>
      <setSpec>user-biosyslit</setSpec>
    </header>
    <header>
      <identifier>oai:zenodo.org:227247</identifier>
      <datestamp>2017-01-01T18:41:38Z</datestamp>
      <setSpec>user-biosyslit</setSpec>
    </header>
    <header>
      <identifier>oai:zenodo.org:228315</identifier>
      <datestamp>2017-01-02T21:45:05Z</datestamp>
      <setSpec>user-biosyslit</setSpec>
    </header>
    <header>
      <identifier>oai:zenodo.org:228024</identifier>
      <datestamp>2017-01-02T09:15:14Z</datestamp>
      <setSpec>user-biosyslit</setSpec>
    </header>
    <header>
      <identifier>oai:zenodo.org:228715</identifier>
      <datestamp>2017-01-03T03:47:51Z</datestamp>
      <setSpec>user-biosyslit</setSpec>
    </header>
    <header>
      <identifier>oai:zenodo.org:228497</identifier>
      <datestamp>2017-01-03T00:31:55Z</datestamp>
      <setSpec>user-biosyslit</setSpec>
    </header>
    <header>
      <identifier>oai:zenodo.org:227951</identifier>
      <datestamp>2017-01-02T07:30:40Z</datestamp>
      <setSpec>user-biosyslit</setSpec>
    </header>
    <header>
      <identifier>oai:zenodo.org:229834</identifier>
      <datestamp>2017-01-04T07:50:43Z</datestamp>
      <setSpec>user-biosyslit</setSpec>
    </header>
    <header>
      <identifier>oai:zenodo.org:228028</identifier>
      <datestamp>2017-01-02T09:15:10Z</datestamp>
      <setSpec>user-biosyslit</setSpec>
    </header>
    <header>
      <identifier>oai:zenodo.org:227808</identifier>
      <datestamp>2017-01-02T05:27:55Z</datestamp>
      <setSpec>user-biosyslit</setSpec>
    </header>
    <header>
      <identifier>oai:zenodo.org:495532</identifier>
      <datestamp>2017-04-07T07:31:06Z</datestamp>
      <setSpec>user-biosyslit</setSpec>
    </header>
    <header>
      <identifier>oai:zenodo.org:288722</identifier>
      <datestamp>2017-02-09T21:49:12Z</datestamp>
      <setSpec>user-biosyslit</setSpec>
    </header>
    <header>
      <identifier>oai:zenodo.org:288461</identifier>
      <datestamp>2017-02-09T21:01:37Z</datestamp>
      <setSpec>user-biosyslit</setSpec>
    </header>
    <header>
      <identifier>oai:zenodo.org:228525</identifier>
      <datestamp>2017-01-03T00:54:44Z</datestamp>
      <setSpec>user-biosyslit</setSpec>
    </header>
    <header>
      <identifier>oai:zenodo.org:495892</identifier>
      <datestamp>2017-04-28T10:58:06Z</datestamp>
      <setSpec>openaire</setSpec>
      <setSpec>user-biosyslit</setSpec>
    </header>
    <header>
      <identifier>oai:zenodo.org:227784</identifier>
      <datestamp>2017-01-02T04:33:27Z</datestamp>
      <setSpec>user-biosyslit</setSpec>
    </header>
    <header>
      <identifier>oai:zenodo.org:275800</identifier>
      <datestamp>2017-02-08T17:05:44Z</datestamp>
      <setSpec>user-biosyslit</setSpec>
    </header>
    <header>
      <identifier>oai:zenodo.org:275367</identifier>
      <datestamp>2017-02-08T16:10:04Z</datestamp>
      <setSpec>user-biosyslit</setSpec>
    </header>
    <header>
      <identifier>oai:zenodo.org:269812</identifier>
      <datestamp>2017-02-07T20:25:06Z</datestamp>
      <setSpec>user-biosyslit</setSpec>
    </header>
    <header>
      <identifier>oai:zenodo.org:288730</identifier>
      <datestamp>2017-02-09T21:49:33Z</datestamp>
      <setSpec>user-biosyslit</setSpec>
    </header>
    <header>
      <identifier>oai:zenodo.org:228022</identifier>
      <datestamp>2017-01-02T09:12:50Z</datestamp>
      <setSpec>user-biosyslit</setSpec>
    </header>
    <header>
      <identifier>oai:zenodo.org:230068</identifier>
      <datestamp>2017-01-04T18:50:12Z</datestamp>
      <setSpec>user-biosyslit</setSpec>
    </header>
    <header>
      <identifier>oai:zenodo.org:227908</identifier>
      <datestamp>2017-01-02T06:37:13Z</datestamp>
      <setSpec>user-biosyslit</setSpec>
    </header>
    <header>
      <identifier>oai:zenodo.org:228842</identifier>
      <datestamp>2017-01-03T05:47:26Z</datestamp>
      <setSpec>user-biosyslit</setSpec>
    </header>
    <header>
      <identifier>oai:zenodo.org:228554</identifier>
      <datestamp>2017-01-03T01:22:13Z</datestamp>
      <setSpec>user-biosyslit</setSpec>
    </header>
    <header>
      <identifier>oai:zenodo.org:229156</identifier>
      <datestamp>2017-01-03T11:06:09Z</datestamp>
      <setSpec>user-biosyslit</setSpec>
    </header>
    <header>
      <identifier>oai:zenodo.org:228600</identifier>
      <datestamp>2017-01-03T02:14:56Z</datestamp>
      <setSpec>user-biosyslit</setSpec>
    </header>
    <header>
      <identifier>oai:zenodo.org:228302</identifier>
      <datestamp>2017-01-02T21:36:38Z</datestamp>
      <setSpec>user-biosyslit</setSpec>
    </header>
    <header>
      <identifier>oai:zenodo.org:228320</identifier>
      <datestamp>2017-01-02T21:51:31Z</datestamp>
      <setSpec>user-biosyslit</setSpec>
    </header>
    <header>
      <identifier>oai:zenodo.org:228123</identifier>
      <datestamp>2017-01-02T10:58:18Z</datestamp>
      <setSpec>user-biosyslit</setSpec>
    </header>
    <header>
      <identifier>oai:zenodo.org:228287</identifier>
      <datestamp>2017-01-02T21:22:34Z</datestamp>
      <setSpec>user-biosyslit</setSpec>
    </header>
    <header>
      <identifier>oai:zenodo.org:229280</identifier>
      <datestamp>2017-01-03T13:35:24Z</datestamp>
      <setSpec>user-biosyslit</setSpec>
    </header>
    <header>
      <identifier>oai:zenodo.org:229543</identifier>
      <datestamp>2017-01-03T17:55:45Z</datestamp>
      <setSpec>user-biosyslit</setSpec>
    </header>
    <header>
      <identifier>oai:zenodo.org:230940</identifier>
      <datestamp>2017-01-05T11:34:54Z</datestamp>
      <setSpec>user-biosyslit</setSpec>
    </header>
    <header>
      <identifier>oai:zenodo.org:229835</identifier>
      <datestamp>2017-01-04T07:50:51Z</datestamp>
      <setSpec>user-biosyslit</setSpec>
    </header>
    <header>
      <identifier>oai:zenodo.org:229328</identifier>
      <datestamp>2017-01-03T14:22:06Z</datestamp>
      <setSpec>user-biosyslit</setSpec>
    </header>
    <header>
      <identifier>oai:zenodo.org:230537</identifier>
      <datestamp>2017-01-05T02:59:29Z</datestamp>
      <setSpec>user-biosyslit</setSpec>
    </header>
    <header>
      <identifier>oai:zenodo.org:229142</identifier>
      <datestamp>2017-01-03T11:05:25Z</datestamp>
      <setSpec>user-biosyslit</setSpec>
    </header>
    <header>
      <identifier>oai:zenodo.org:230831</identifier>
      <datestamp>2017-01-05T08:58:14Z</datestamp>
      <setSpec>user-biosyslit</setSpec>
    </header>
    <header>
      <identifier>oai:zenodo.org:229570</identifier>
      <datestamp>2017-01-03T18:19:08Z</datestamp>
      <setSpec>user-biosyslit</setSpec>
    </header>
    <header>
      <identifier>oai:zenodo.org:230003</identifier>
      <datestamp>2017-01-04T17:38:00Z</datestamp>
      <setSpec>user-biosyslit</setSpec>
    </header>
    <header>
      <identifier>oai:zenodo.org:229563</identifier>
      <datestamp>2017-01-03T18:05:51Z</datestamp>
      <setSpec>user-biosyslit</setSpec>
    </header>
    <header>
      <identifier>oai:zenodo.org:230749</identifier>
      <datestamp>2017-01-05T07:46:53Z</datestamp>
      <setSpec>user-biosyslit</setSpec>
    </header>
    <header>
      <identifier>oai:zenodo.org:230966</identifier>
      <datestamp>2017-01-05T11:48:13Z</datestamp>
      <setSpec>user-biosyslit</setSpec>
    </header>
    <header>
      <identifier>oai:zenodo.org:229976</identifier>
      <datestamp>2017-01-04T16:38:55Z</datestamp>
      <setSpec>user-biosyslit</setSpec>
    </header>
    <header>
      <identifier>oai:zenodo.org:230680</identifier>
      <datestamp>2017-01-05T06:30:34Z</datestamp>
      <setSpec>user-biosyslit</setSpec>
    </header>
    <header>
      <identifier>oai:zenodo.org:230057</identifier>
      <datestamp>2017-01-04T18:30:36Z</datestamp>
      <setSpec>user-biosyslit</setSpec>
    </header>
    <header>
      <identifier>oai:zenodo.org:269965</identifier>
      <datestamp>2017-02-07T21:54:24Z</datestamp>
      <setSpec>user-biosyslit</setSpec>
    </header>
    <header>
      <identifier>oai:zenodo.org:269889</identifier>
      <datestamp>2017-02-07T20:39:33Z</datestamp>
      <setSpec>user-biosyslit</setSpec>
    </header>
    <header>
      <identifier>oai:zenodo.org:231077</identifier>
      <datestamp>2017-01-05T14:04:16Z</datestamp>
      <setSpec>user-biosyslit</setSpec>
    </header>
    <header>
      <identifier>oai:zenodo.org:231574</identifier>
      <datestamp>2017-01-06T04:27:55Z</datestamp>
      <setSpec>user-biosyslit</setSpec>
    </header>
    <header>
      <identifier>oai:zenodo.org:230495</identifier>
      <datestamp>2017-01-05T02:08:41Z</datestamp>
      <setSpec>user-biosyslit</setSpec>
    </header>
    <header>
      <identifier>oai:zenodo.org:270764</identifier>
      <datestamp>2017-02-07T23:55:16Z</datestamp>
      <setSpec>user-biosyslit</setSpec>
    </header>
    <header>
      <identifier>oai:zenodo.org:269886</identifier>
      <datestamp>2017-02-07T20:39:18Z</datestamp>
      <setSpec>user-biosyslit</setSpec>
    </header>
    <header>
      <identifier>oai:zenodo.org:269875</identifier>
      <datestamp>2017-02-07T20:37:52Z</datestamp>
      <setSpec>user-biosyslit</setSpec>
    </header>
    <header>
      <identifier>oai:zenodo.org:231847</identifier>
      <datestamp>2017-01-06T07:53:53Z</datestamp>
      <setSpec>user-biosyslit</setSpec>
    </header>
    <header>
      <identifier>oai:zenodo.org:231091</identifier>
      <datestamp>2017-01-05T14:22:21Z</datestamp>
      <setSpec>user-biosyslit</setSpec>
    </header>
    <header>
      <identifier>oai:zenodo.org:231576</identifier>
      <datestamp>2017-01-06T04:27:47Z</datestamp>
      <setSpec>user-biosyslit</setSpec>
    </header>
    <header>
      <identifier>oai:zenodo.org:270647</identifier>
      <datestamp>2017-02-07T23:41:34Z</datestamp>
      <setSpec>user-biosyslit</setSpec>
    </header>
    <header>
      <identifier>oai:zenodo.org:231148</identifier>
      <datestamp>2017-01-06T11:05:14Z</datestamp>
      <setSpec>openaire</setSpec>
      <setSpec>user-biosyslit</setSpec>
    </header>
    <header>
      <identifier>oai:zenodo.org:270248</identifier>
      <datestamp>2017-02-07T22:53:22Z</datestamp>
      <setSpec>user-biosyslit</setSpec>
    </header>
    <header>
      <identifier>oai:zenodo.org:231927</identifier>
      <datestamp>2017-01-06T08:50:04Z</datestamp>
      <setSpec>user-biosyslit</setSpec>
    </header>
    <header>
      <identifier>oai:zenodo.org:270170</identifier>
      <datestamp>2017-02-07T22:28:58Z</datestamp>
      <setSpec>user-biosyslit</setSpec>
    </header>
    <header>
      <identifier>oai:zenodo.org:270695</identifier>
      <datestamp>2017-02-07T23:49:07Z</datestamp>
      <setSpec>user-biosyslit</setSpec>
    </header>
    <header>
      <identifier>oai:zenodo.org:270620</identifier>
      <datestamp>2017-02-07T23:36:47Z</datestamp>
      <setSpec>user-biosyslit</setSpec>
    </header>
    <header>
      <identifier>oai:zenodo.org:232185</identifier>
      <datestamp>2017-01-06T12:56:53Z</datestamp>
      <setSpec>user-biosyslit</setSpec>
    </header>
    <header>
      <identifier>oai:zenodo.org:232102</identifier>
      <datestamp>2017-01-06T11:13:14Z</datestamp>
      <setSpec>user-biosyslit</setSpec>
    </header>
    <header>
      <identifier>oai:zenodo.org:232289</identifier>
      <datestamp>2017-01-06T15:10:36Z</datestamp>
      <setSpec>user-biosyslit</setSpec>
    </header>
    <header>
      <identifier>oai:zenodo.org:288531</identifier>
      <datestamp>2017-02-09T21:05:47Z</datestamp>
      <setSpec>user-biosyslit</setSpec>
    </header>
    <header>
      <identifier>oai:zenodo.org:232720</identifier>
      <datestamp>2017-01-06T22:06:44Z</datestamp>
      <setSpec>user-biosyslit</setSpec>
    </header>
    <header>
      <identifier>oai:zenodo.org:232108</identifier>
      <datestamp>2017-01-06T11:12:53Z</datestamp>
      <setSpec>user-biosyslit</setSpec>
    </header>
    <header>
      <identifier>oai:zenodo.org:233762</identifier>
      <datestamp>2017-01-08T11:28:44Z</datestamp>
      <setSpec>user-biosyslit</setSpec>
    </header>
    <header>
      <identifier>oai:zenodo.org:233668</identifier>
      <datestamp>2017-01-08T09:26:13Z</datestamp>
      <setSpec>user-biosyslit</setSpec>
    </header>
    <header>
      <identifier>oai:zenodo.org:228603</identifier>
      <datestamp>2017-01-03T02:15:06Z</datestamp>
      <setSpec>user-biosyslit</setSpec>
    </header>
    <header>
      <identifier>oai:zenodo.org:227751</identifier>
      <datestamp>2017-01-02T03:27:03Z</datestamp>
      <setSpec>user-biosyslit</setSpec>
    </header>
    <header>
      <identifier>oai:zenodo.org:495910</identifier>
      <datestamp>2017-04-28T10:57:45Z</datestamp>
      <setSpec>openaire</setSpec>
      <setSpec>user-biosyslit</setSpec>
    </header>
    <header>
      <identifier>oai:zenodo.org:228860</identifier>
      <datestamp>2017-01-03T06:12:54Z</datestamp>
      <setSpec>user-biosyslit</setSpec>
    </header>
    <header>
      <identifier>oai:zenodo.org:229385</identifier>
      <datestamp>2017-01-03T15:07:46Z</datestamp>
      <setSpec>user-biosyslit</setSpec>
    </header>
    <header>
      <identifier>oai:zenodo.org:288755</identifier>
      <datestamp>2017-02-09T21:50:50Z</datestamp>
      <setSpec>user-biosyslit</setSpec>
    </header>
    <header>
      <identifier>oai:zenodo.org:228319</identifier>
      <datestamp>2017-01-02T21:51:29Z</datestamp>
      <setSpec>user-biosyslit</setSpec>
    </header>
    <header>
      <identifier>oai:zenodo.org:228226</identifier>
      <datestamp>2017-01-02T20:05:13Z</datestamp>
      <setSpec>user-biosyslit</setSpec>
    </header>
    <header>
      <identifier>oai:zenodo.org:227950</identifier>
      <datestamp>2017-01-02T07:30:37Z</datestamp>
      <setSpec>user-biosyslit</setSpec>
    </header>
    <resumptionToken expirationDate="2017-08-31T15:46:00Z" cursor="45300" completeListSize="77796">.eJyNyj0LgkAYAOD_8s4S95FpQktY4qByXoq6hKlIeZl4RXrif8-luebnmUBWVQkWWpkbfWtutmuMCaIYGxrIon8Icb4uDEUSi6IVUe7Er_Aeo5TUhm_LwbNT6qsGBXes-JGRBJtDdEUjO0XPVIVDTN03RwfDU2z0b-7ySho4Irs4HY_aveCk7IMDGzne84wW34f_fOrns-UONOjyugJrresaNO-8ryVY0zx_AJ3tUUA.DInAQA.EH456274d2qokH25kZTNW7Cxkiw</resumptionToken>
  </ListIdentifiers>
</OAI-PMH>
