<?xml version='1.0' encoding='UTF-8'?>
<?xml-stylesheet type="text/xsl" href="/static/xsl/oai2.v1.0.xsl"?>
<OAI-PMH xmlns="http://www.openarchives.org/OAI/2.0/" xmlns:xsi="http://www.w3.org/2001/XMLSchema-instance" xsi:schemaLocation="http://www.openarchives.org/OAI/2.0/ http://www.openarchives.org/OAI/2.0/OAI-PMH.xsd">
  <responseDate>2017-08-31T15:43:53Z</responseDate>
  <request verb="ListIdentifiers" resumptionToken=".eJyNyj0LgkAYAOD_8s4S9yHdJbSEJg0qdinpEqYi1mniFeqJ_72W5pqfZwZVlgVYaGVizDljlJENJnzNDVB5_5DyUn8Y8nMs81ZGmRu_jk2MElIx31ajZyfU13cUNFiLfUjOmI9RjabwFD0TfRxjehgEcpinw8m_HT6voIEr06vbiajdSUGKPnDCSeCdSGn-ffjPp38-W23BgC6rSrBMujHgPmR9pcCal-UNp2hRTQ.DInAOQ.RlueL3e0IxGJgBaU9GwsJrmaM20">https://zenodo.org/oai2d</request>
  <ListIdentifiers>
    <header>
      <identifier>oai:zenodo.org:272411</identifier>
      <datestamp>2017-02-08T04:33:40Z</datestamp>
      <setSpec>user-biosyslit</setSpec>
    </header>
    <header>
      <identifier>oai:zenodo.org:278980</identifier>
      <datestamp>2017-02-09T00:21:25Z</datestamp>
      <setSpec>user-biosyslit</setSpec>
    </header>
    <header>
      <identifier>oai:zenodo.org:278986</identifier>
      <datestamp>2017-02-09T00:21:44Z</datestamp>
      <setSpec>user-biosyslit</setSpec>
    </header>
    <header>
      <identifier>oai:zenodo.org:278895</identifier>
      <datestamp>2017-02-09T00:06:06Z</datestamp>
      <setSpec>user-biosyslit</setSpec>
    </header>
    <header>
      <identifier>oai:zenodo.org:241656</identifier>
      <datestamp>2017-01-13T04:30:45Z</datestamp>
      <setSpec>user-biosyslit</setSpec>
    </header>
    <header>
      <identifier>oai:zenodo.org:242263</identifier>
      <datestamp>2017-01-13T12:37:16Z</datestamp>
      <setSpec>user-biosyslit</setSpec>
    </header>
    <header>
      <identifier>oai:zenodo.org:243287</identifier>
      <datestamp>2017-01-14T02:07:31Z</datestamp>
      <setSpec>user-biosyslit</setSpec>
    </header>
    <header>
      <identifier>oai:zenodo.org:279819</identifier>
      <datestamp>2017-02-09T02:06:48Z</datestamp>
      <setSpec>user-biosyslit</setSpec>
    </header>
    <header>
      <identifier>oai:zenodo.org:243136</identifier>
      <datestamp>2017-01-13T23:51:15Z</datestamp>
      <setSpec>user-biosyslit</setSpec>
    </header>
    <header>
      <identifier>oai:zenodo.org:279723</identifier>
      <datestamp>2017-02-09T01:57:36Z</datestamp>
      <setSpec>user-biosyslit</setSpec>
    </header>
    <header>
      <identifier>oai:zenodo.org:243179</identifier>
      <datestamp>2017-01-14T00:18:13Z</datestamp>
      <setSpec>user-biosyslit</setSpec>
    </header>
    <header>
      <identifier>oai:zenodo.org:243175</identifier>
      <datestamp>2017-01-14T00:17:57Z</datestamp>
      <setSpec>user-biosyslit</setSpec>
    </header>
    <header>
      <identifier>oai:zenodo.org:242928</identifier>
      <datestamp>2017-01-13T20:45:53Z</datestamp>
      <setSpec>user-biosyslit</setSpec>
    </header>
    <header>
      <identifier>oai:zenodo.org:243944</identifier>
      <datestamp>2017-01-14T13:43:23Z</datestamp>
      <setSpec>user-biosyslit</setSpec>
    </header>
    <header>
      <identifier>oai:zenodo.org:272121</identifier>
      <datestamp>2017-02-08T03:46:21Z</datestamp>
      <setSpec>user-biosyslit</setSpec>
    </header>
    <header>
      <identifier>oai:zenodo.org:271955</identifier>
      <datestamp>2017-02-08T03:09:46Z</datestamp>
      <setSpec>user-biosyslit</setSpec>
    </header>
    <header>
      <identifier>oai:zenodo.org:243695</identifier>
      <datestamp>2017-01-14T09:20:40Z</datestamp>
      <setSpec>user-biosyslit</setSpec>
    </header>
    <header>
      <identifier>oai:zenodo.org:272555</identifier>
      <datestamp>2017-02-08T05:08:23Z</datestamp>
      <setSpec>user-biosyslit</setSpec>
    </header>
    <header>
      <identifier>oai:zenodo.org:244307</identifier>
      <datestamp>2017-01-14T19:49:57Z</datestamp>
      <setSpec>user-biosyslit</setSpec>
    </header>
    <header>
      <identifier>oai:zenodo.org:272367</identifier>
      <datestamp>2017-02-08T04:22:23Z</datestamp>
      <setSpec>user-biosyslit</setSpec>
    </header>
    <header>
      <identifier>oai:zenodo.org:244357</identifier>
      <datestamp>2017-01-14T20:32:16Z</datestamp>
      <setSpec>user-biosyslit</setSpec>
    </header>
    <header>
      <identifier>oai:zenodo.org:245171</identifier>
      <datestamp>2017-01-15T09:02:33Z</datestamp>
      <setSpec>user-biosyslit</setSpec>
    </header>
    <header>
      <identifier>oai:zenodo.org:245036</identifier>
      <datestamp>2017-01-15T06:57:28Z</datestamp>
      <setSpec>user-biosyslit</setSpec>
    </header>
    <header>
      <identifier>oai:zenodo.org:244825</identifier>
      <datestamp>2017-01-15T03:43:47Z</datestamp>
      <setSpec>user-biosyslit</setSpec>
    </header>
    <header>
      <identifier>oai:zenodo.org:245874</identifier>
      <datestamp>2017-01-15T19:12:24Z</datestamp>
      <setSpec>user-biosyslit</setSpec>
    </header>
    <header>
      <identifier>oai:zenodo.org:275598</identifier>
      <datestamp>2017-02-08T16:46:15Z</datestamp>
      <setSpec>user-biosyslit</setSpec>
    </header>
    <header>
      <identifier>oai:zenodo.org:246404</identifier>
      <datestamp>2017-01-16T01:50:37Z</datestamp>
      <setSpec>user-biosyslit</setSpec>
    </header>
    <header>
      <identifier>oai:zenodo.org:272419</identifier>
      <datestamp>2017-02-08T04:34:48Z</datestamp>
      <setSpec>user-biosyslit</setSpec>
    </header>
    <header>
      <identifier>oai:zenodo.org:272567</identifier>
      <datestamp>2017-02-08T05:09:19Z</datestamp>
      <setSpec>user-biosyslit</setSpec>
    </header>
    <header>
      <identifier>oai:zenodo.org:245681</identifier>
      <datestamp>2017-01-15T17:26:44Z</datestamp>
      <setSpec>user-biosyslit</setSpec>
    </header>
    <header>
      <identifier>oai:zenodo.org:245850</identifier>
      <datestamp>2017-01-15T19:10:52Z</datestamp>
      <setSpec>user-biosyslit</setSpec>
    </header>
    <header>
      <identifier>oai:zenodo.org:246160</identifier>
      <datestamp>2017-01-15T22:47:12Z</datestamp>
      <setSpec>user-biosyslit</setSpec>
    </header>
    <header>
      <identifier>oai:zenodo.org:245905</identifier>
      <datestamp>2017-01-15T19:21:51Z</datestamp>
      <setSpec>user-biosyslit</setSpec>
    </header>
    <header>
      <identifier>oai:zenodo.org:247403</identifier>
      <datestamp>2017-01-16T15:26:51Z</datestamp>
      <setSpec>user-biosyslit</setSpec>
    </header>
    <header>
      <identifier>oai:zenodo.org:246741</identifier>
      <datestamp>2017-01-16T07:17:12Z</datestamp>
      <setSpec>user-biosyslit</setSpec>
    </header>
    <header>
      <identifier>oai:zenodo.org:248268</identifier>
      <datestamp>2017-01-17T02:16:12Z</datestamp>
      <setSpec>user-biosyslit</setSpec>
    </header>
    <header>
      <identifier>oai:zenodo.org:247889</identifier>
      <datestamp>2017-01-16T21:15:48Z</datestamp>
      <setSpec>user-biosyslit</setSpec>
    </header>
    <header>
      <identifier>oai:zenodo.org:248214</identifier>
      <datestamp>2017-01-17T01:10:10Z</datestamp>
      <setSpec>user-biosyslit</setSpec>
    </header>
    <header>
      <identifier>oai:zenodo.org:247812</identifier>
      <datestamp>2017-01-16T20:15:52Z</datestamp>
      <setSpec>user-biosyslit</setSpec>
    </header>
    <header>
      <identifier>oai:zenodo.org:249613</identifier>
      <datestamp>2017-01-17T21:41:35Z</datestamp>
      <setSpec>user-biosyslit</setSpec>
    </header>
    <header>
      <identifier>oai:zenodo.org:248919</identifier>
      <datestamp>2017-01-17T13:46:36Z</datestamp>
      <setSpec>user-biosyslit</setSpec>
    </header>
    <header>
      <identifier>oai:zenodo.org:249047</identifier>
      <datestamp>2017-01-17T15:34:25Z</datestamp>
      <setSpec>user-biosyslit</setSpec>
    </header>
    <header>
      <identifier>oai:zenodo.org:249725</identifier>
      <datestamp>2017-01-17T23:05:31Z</datestamp>
      <setSpec>user-biosyslit</setSpec>
    </header>
    <header>
      <identifier>oai:zenodo.org:249905</identifier>
      <datestamp>2017-01-18T01:39:40Z</datestamp>
      <setSpec>user-biosyslit</setSpec>
    </header>
    <header>
      <identifier>oai:zenodo.org:251221</identifier>
      <datestamp>2017-01-18T20:08:14Z</datestamp>
      <setSpec>user-biosyslit</setSpec>
    </header>
    <header>
      <identifier>oai:zenodo.org:250168</identifier>
      <datestamp>2017-01-18T05:45:03Z</datestamp>
      <setSpec>user-biosyslit</setSpec>
    </header>
    <header>
      <identifier>oai:zenodo.org:250421</identifier>
      <datestamp>2017-01-18T10:06:59Z</datestamp>
      <setSpec>user-biosyslit</setSpec>
    </header>
    <header>
      <identifier>oai:zenodo.org:250017</identifier>
      <datestamp>2017-01-18T03:31:26Z</datestamp>
      <setSpec>user-biosyslit</setSpec>
    </header>
    <header>
      <identifier>oai:zenodo.org:273195</identifier>
      <datestamp>2017-02-08T08:26:48Z</datestamp>
      <setSpec>user-biosyslit</setSpec>
    </header>
    <header>
      <identifier>oai:zenodo.org:272666</identifier>
      <datestamp>2017-02-08T06:12:48Z</datestamp>
      <setSpec>user-biosyslit</setSpec>
    </header>
    <header>
      <identifier>oai:zenodo.org:273261</identifier>
      <datestamp>2017-02-08T08:48:20Z</datestamp>
      <setSpec>user-biosyslit</setSpec>
    </header>
    <header>
      <identifier>oai:zenodo.org:252326</identifier>
      <datestamp>2017-01-19T11:57:01Z</datestamp>
      <setSpec>user-biosyslit</setSpec>
    </header>
    <header>
      <identifier>oai:zenodo.org:253069</identifier>
      <datestamp>2017-01-20T02:09:28Z</datestamp>
      <setSpec>user-biosyslit</setSpec>
    </header>
    <header>
      <identifier>oai:zenodo.org:253043</identifier>
      <datestamp>2017-01-20T01:55:47Z</datestamp>
      <setSpec>user-biosyslit</setSpec>
    </header>
    <header>
      <identifier>oai:zenodo.org:253745</identifier>
      <datestamp>2017-01-20T10:41:03Z</datestamp>
      <setSpec>user-biosyslit</setSpec>
    </header>
    <header>
      <identifier>oai:zenodo.org:253535</identifier>
      <datestamp>2017-01-20T08:23:56Z</datestamp>
      <setSpec>user-biosyslit</setSpec>
    </header>
    <header>
      <identifier>oai:zenodo.org:254142</identifier>
      <datestamp>2017-01-20T15:21:39Z</datestamp>
      <setSpec>user-biosyslit</setSpec>
    </header>
    <header>
      <identifier>oai:zenodo.org:254718</identifier>
      <datestamp>2017-01-21T02:15:16Z</datestamp>
      <setSpec>user-biosyslit</setSpec>
    </header>
    <header>
      <identifier>oai:zenodo.org:271366</identifier>
      <datestamp>2017-02-08T01:32:40Z</datestamp>
      <setSpec>user-biosyslit</setSpec>
    </header>
    <header>
      <identifier>oai:zenodo.org:278693</identifier>
      <datestamp>2017-02-08T23:41:05Z</datestamp>
      <setSpec>user-biosyslit</setSpec>
    </header>
    <header>
      <identifier>oai:zenodo.org:278668</identifier>
      <datestamp>2017-02-08T23:38:05Z</datestamp>
      <setSpec>user-biosyslit</setSpec>
    </header>
    <header>
      <identifier>oai:zenodo.org:240907</identifier>
      <datestamp>2017-01-12T15:46:17Z</datestamp>
      <setSpec>user-biosyslit</setSpec>
    </header>
    <header>
      <identifier>oai:zenodo.org:240628</identifier>
      <datestamp>2017-01-12T11:00:09Z</datestamp>
      <setSpec>user-biosyslit</setSpec>
    </header>
    <header>
      <identifier>oai:zenodo.org:279366</identifier>
      <datestamp>2017-02-09T01:09:36Z</datestamp>
      <setSpec>user-biosyslit</setSpec>
    </header>
    <header>
      <identifier>oai:zenodo.org:271363</identifier>
      <datestamp>2017-02-08T01:32:33Z</datestamp>
      <setSpec>user-biosyslit</setSpec>
    </header>
    <header>
      <identifier>oai:zenodo.org:278415</identifier>
      <datestamp>2017-02-08T23:08:01Z</datestamp>
      <setSpec>user-biosyslit</setSpec>
    </header>
    <header>
      <identifier>oai:zenodo.org:278913</identifier>
      <datestamp>2017-02-09T00:06:04Z</datestamp>
      <setSpec>user-biosyslit</setSpec>
    </header>
    <header>
      <identifier>oai:zenodo.org:271450</identifier>
      <datestamp>2017-02-08T01:44:20Z</datestamp>
      <setSpec>user-biosyslit</setSpec>
    </header>
    <header>
      <identifier>oai:zenodo.org:241598</identifier>
      <datestamp>2017-01-13T03:49:17Z</datestamp>
      <setSpec>user-biosyslit</setSpec>
    </header>
    <header>
      <identifier>oai:zenodo.org:241528</identifier>
      <datestamp>2017-01-13T02:57:49Z</datestamp>
      <setSpec>user-biosyslit</setSpec>
    </header>
    <header>
      <identifier>oai:zenodo.org:241356</identifier>
      <datestamp>2017-01-13T00:20:48Z</datestamp>
      <setSpec>user-biosyslit</setSpec>
    </header>
    <header>
      <identifier>oai:zenodo.org:271997</identifier>
      <datestamp>2017-02-08T03:15:54Z</datestamp>
      <setSpec>user-biosyslit</setSpec>
    </header>
    <header>
      <identifier>oai:zenodo.org:241599</identifier>
      <datestamp>2017-01-13T03:48:44Z</datestamp>
      <setSpec>user-biosyslit</setSpec>
    </header>
    <header>
      <identifier>oai:zenodo.org:271662</identifier>
      <datestamp>2017-02-08T02:10:19Z</datestamp>
      <setSpec>user-biosyslit</setSpec>
    </header>
    <header>
      <identifier>oai:zenodo.org:271852</identifier>
      <datestamp>2017-02-08T02:45:36Z</datestamp>
      <setSpec>user-biosyslit</setSpec>
    </header>
    <header>
      <identifier>oai:zenodo.org:278978</identifier>
      <datestamp>2017-02-09T00:21:17Z</datestamp>
      <setSpec>user-biosyslit</setSpec>
    </header>
    <header>
      <identifier>oai:zenodo.org:242126</identifier>
      <datestamp>2017-01-13T10:46:29Z</datestamp>
      <setSpec>user-biosyslit</setSpec>
    </header>
    <header>
      <identifier>oai:zenodo.org:241868</identifier>
      <datestamp>2017-01-13T07:06:27Z</datestamp>
      <setSpec>user-biosyslit</setSpec>
    </header>
    <header>
      <identifier>oai:zenodo.org:279142</identifier>
      <datestamp>2017-02-09T00:41:52Z</datestamp>
      <setSpec>user-biosyslit</setSpec>
    </header>
    <header>
      <identifier>oai:zenodo.org:242040</identifier>
      <datestamp>2017-01-13T09:37:17Z</datestamp>
      <setSpec>user-biosyslit</setSpec>
    </header>
    <header>
      <identifier>oai:zenodo.org:279471</identifier>
      <datestamp>2017-02-09T01:25:11Z</datestamp>
      <setSpec>user-biosyslit</setSpec>
    </header>
    <header>
      <identifier>oai:zenodo.org:243694</identifier>
      <datestamp>2017-01-14T09:20:35Z</datestamp>
      <setSpec>user-biosyslit</setSpec>
    </header>
    <header>
      <identifier>oai:zenodo.org:242994</identifier>
      <datestamp>2017-01-13T21:37:52Z</datestamp>
      <setSpec>user-biosyslit</setSpec>
    </header>
    <header>
      <identifier>oai:zenodo.org:242683</identifier>
      <datestamp>2017-01-13T18:36:45Z</datestamp>
      <setSpec>user-biosyslit</setSpec>
    </header>
    <header>
      <identifier>oai:zenodo.org:242402</identifier>
      <datestamp>2017-01-13T15:06:16Z</datestamp>
      <setSpec>user-biosyslit</setSpec>
    </header>
    <header>
      <identifier>oai:zenodo.org:242713</identifier>
      <datestamp>2017-01-13T18:57:51Z</datestamp>
      <setSpec>user-biosyslit</setSpec>
    </header>
    <header>
      <identifier>oai:zenodo.org:242287</identifier>
      <datestamp>2017-01-13T12:51:45Z</datestamp>
      <setSpec>user-biosyslit</setSpec>
    </header>
    <header>
      <identifier>oai:zenodo.org:242710</identifier>
      <datestamp>2017-01-13T18:53:14Z</datestamp>
      <setSpec>user-biosyslit</setSpec>
    </header>
    <header>
      <identifier>oai:zenodo.org:242651</identifier>
      <datestamp>2017-01-13T18:16:03Z</datestamp>
      <setSpec>user-biosyslit</setSpec>
    </header>
    <header>
      <identifier>oai:zenodo.org:244304</identifier>
      <datestamp>2017-01-14T19:49:46Z</datestamp>
      <setSpec>user-biosyslit</setSpec>
    </header>
    <header>
      <identifier>oai:zenodo.org:243455</identifier>
      <datestamp>2017-01-14T06:01:20Z</datestamp>
      <setSpec>user-biosyslit</setSpec>
    </header>
    <header>
      <identifier>oai:zenodo.org:243462</identifier>
      <datestamp>2017-01-14T06:05:53Z</datestamp>
      <setSpec>user-biosyslit</setSpec>
    </header>
    <header>
      <identifier>oai:zenodo.org:243734</identifier>
      <datestamp>2017-01-14T10:03:07Z</datestamp>
      <setSpec>user-biosyslit</setSpec>
    </header>
    <header>
      <identifier>oai:zenodo.org:243916</identifier>
      <datestamp>2017-01-14T13:07:44Z</datestamp>
      <setSpec>user-biosyslit</setSpec>
    </header>
    <header>
      <identifier>oai:zenodo.org:243387</identifier>
      <datestamp>2017-01-14T03:34:53Z</datestamp>
      <setSpec>user-biosyslit</setSpec>
    </header>
    <header>
      <identifier>oai:zenodo.org:272052</identifier>
      <datestamp>2017-02-08T03:25:56Z</datestamp>
      <setSpec>user-biosyslit</setSpec>
    </header>
    <header>
      <identifier>oai:zenodo.org:244046</identifier>
      <datestamp>2017-01-14T15:42:36Z</datestamp>
      <setSpec>user-biosyslit</setSpec>
    </header>
    <header>
      <identifier>oai:zenodo.org:244110</identifier>
      <datestamp>2017-01-14T16:23:41Z</datestamp>
      <setSpec>user-biosyslit</setSpec>
    </header>
    <header>
      <identifier>oai:zenodo.org:244707</identifier>
      <datestamp>2017-01-15T01:28:35Z</datestamp>
      <setSpec>user-biosyslit</setSpec>
    </header>
    <header>
      <identifier>oai:zenodo.org:245279</identifier>
      <datestamp>2017-01-15T11:15:40Z</datestamp>
      <setSpec>user-biosyslit</setSpec>
    </header>
    <resumptionToken expirationDate="2017-08-31T15:45:53Z" cursor="43800" completeListSize="77796">.eJyNysEKgjAYAOB3-c8S269pCV3CEg8qa03SS5iKlNPEFemid69L5zp_3xNUVZXgkhlaOJ8vloh0iZTaxDZAFcNVyuP541AcEll0UuR-ct-1CUmxdiJPjaGXmpFuSNxSzbcMD3QxijOZ2F7cUr0bEzN4cLJxQs2m6BJ8XmnGvsxOfs9Ft5YcyyHesInTNc_M4vvon0__fJ5agQF9XlfgWhYxoHnkQ63Afb5eb8h7UWQ.DInAOQ.P3dshercsisV7P33MX3HZg3Jqvw</resumptionToken>
  </ListIdentifiers>
</OAI-PMH>
