<?xml version='1.0' encoding='UTF-8'?>
<?xml-stylesheet type="text/xsl" href="/static/xsl/oai2.v1.0.xsl"?>
<OAI-PMH xmlns="http://www.openarchives.org/OAI/2.0/" xmlns:xsi="http://www.w3.org/2001/XMLSchema-instance" xsi:schemaLocation="http://www.openarchives.org/OAI/2.0/ http://www.openarchives.org/OAI/2.0/OAI-PMH.xsd">
  <responseDate>2017-08-31T15:44:57Z</responseDate>
  <request verb="ListIdentifiers" resumptionToken=".eJyNyssOQ0AUANB_uWtpxvuRdCNULBCmBJtGEVFDxbTBiH-vTdft-pwNaF1XYKCTpqiKrmi6LmmyIgs6B7ScnoTc2oOhTBNSDiQunOQd9QnKhEb1Lbp4Vib6rENBzzN8CYWU15a4RWt4jV8Zi5ZEdGeMbNVj4eo_3ONVYuCQ_O6MOB5MgoVqCuxwxbyJc7H8Pv7Px34-i56Bg7FoajBkVeKgm4upoWBs-_4BvstRZg.DInAeQ.afv7kFoPDqXMAns2mhUgdpcKnEk">https://zenodo.org/oai2d</request>
  <ListIdentifiers>
    <header>
      <identifier>oai:zenodo.org:546875</identifier>
      <datestamp>2017-04-18T08:49:26Z</datestamp>
      <setSpec>user-biosyslit</setSpec>
    </header>
    <header>
      <identifier>oai:zenodo.org:546874</identifier>
      <datestamp>2017-04-18T08:49:32Z</datestamp>
      <setSpec>user-biosyslit</setSpec>
    </header>
    <header>
      <identifier>oai:zenodo.org:546830</identifier>
      <datestamp>2017-04-18T07:39:58Z</datestamp>
      <setSpec>user-biosyslit</setSpec>
    </header>
    <header>
      <identifier>oai:zenodo.org:556053</identifier>
      <datestamp>2017-04-19T07:49:12Z</datestamp>
      <setSpec>user-biosyslit</setSpec>
    </header>
    <header>
      <identifier>oai:zenodo.org:557166</identifier>
      <datestamp>2017-04-25T09:16:56Z</datestamp>
      <setSpec>user-biosyslit</setSpec>
    </header>
    <header>
      <identifier>oai:zenodo.org:556911</identifier>
      <datestamp>2017-04-24T08:07:52Z</datestamp>
      <setSpec>user-biosyslit</setSpec>
    </header>
    <header>
      <identifier>oai:zenodo.org:569819</identifier>
      <datestamp>2017-04-28T12:02:03Z</datestamp>
      <setSpec>openaire</setSpec>
      <setSpec>user-biosyslit</setSpec>
    </header>
    <header>
      <identifier>oai:zenodo.org:570445</identifier>
      <datestamp>2017-05-02T08:02:47Z</datestamp>
      <setSpec>user-biosyslit</setSpec>
    </header>
    <header>
      <identifier>oai:zenodo.org:569173</identifier>
      <datestamp>2017-04-26T08:43:26Z</datestamp>
      <setSpec>user-biosyslit</setSpec>
    </header>
    <header>
      <identifier>oai:zenodo.org:569164</identifier>
      <datestamp>2017-04-26T08:35:20Z</datestamp>
      <setSpec>user-biosyslit</setSpec>
    </header>
    <header>
      <identifier>oai:zenodo.org:569424</identifier>
      <datestamp>2017-04-27T07:33:16Z</datestamp>
      <setSpec>user-biosyslit</setSpec>
    </header>
    <header>
      <identifier>oai:zenodo.org:569466</identifier>
      <datestamp>2017-04-27T08:46:08Z</datestamp>
      <setSpec>user-biosyslit</setSpec>
    </header>
    <header>
      <identifier>oai:zenodo.org:569162</identifier>
      <datestamp>2017-04-26T08:35:14Z</datestamp>
      <setSpec>user-biosyslit</setSpec>
    </header>
    <header>
      <identifier>oai:zenodo.org:570096</identifier>
      <datestamp>2017-05-01T07:24:08Z</datestamp>
      <setSpec>user-biosyslit</setSpec>
    </header>
    <header>
      <identifier>oai:zenodo.org:569446</identifier>
      <datestamp>2017-04-27T08:26:33Z</datestamp>
      <setSpec>user-biosyslit</setSpec>
    </header>
    <header>
      <identifier>oai:zenodo.org:570446</identifier>
      <datestamp>2017-05-02T08:02:50Z</datestamp>
      <setSpec>user-biosyslit</setSpec>
    </header>
    <header>
      <identifier>oai:zenodo.org:571056</identifier>
      <datestamp>2017-05-03T08:26:20Z</datestamp>
      <setSpec>user-biosyslit</setSpec>
    </header>
    <header>
      <identifier>oai:zenodo.org:570119</identifier>
      <datestamp>2017-05-01T07:51:50Z</datestamp>
      <setSpec>user-biosyslit</setSpec>
    </header>
    <header>
      <identifier>oai:zenodo.org:570403</identifier>
      <datestamp>2017-05-02T07:19:03Z</datestamp>
      <setSpec>user-biosyslit</setSpec>
    </header>
    <header>
      <identifier>oai:zenodo.org:570406</identifier>
      <datestamp>2017-05-02T07:19:10Z</datestamp>
      <setSpec>user-biosyslit</setSpec>
    </header>
    <header>
      <identifier>oai:zenodo.org:571327</identifier>
      <datestamp>2017-05-04T07:41:24Z</datestamp>
      <setSpec>user-biosyslit</setSpec>
    </header>
    <header>
      <identifier>oai:zenodo.org:571633</identifier>
      <datestamp>2017-05-05T08:10:47Z</datestamp>
      <setSpec>user-biosyslit</setSpec>
    </header>
    <header>
      <identifier>oai:zenodo.org:571321</identifier>
      <datestamp>2017-05-04T07:41:07Z</datestamp>
      <setSpec>user-biosyslit</setSpec>
    </header>
    <header>
      <identifier>oai:zenodo.org:571680</identifier>
      <datestamp>2017-05-05T08:12:39Z</datestamp>
      <setSpec>user-biosyslit</setSpec>
    </header>
    <header>
      <identifier>oai:zenodo.org:291927</identifier>
      <datestamp>2017-02-15T15:00:35Z</datestamp>
      <setSpec>user-biosyslit</setSpec>
    </header>
    <header>
      <identifier>oai:zenodo.org:292287</identifier>
      <datestamp>2017-02-20T08:30:44Z</datestamp>
      <setSpec>user-biosyslit</setSpec>
    </header>
    <header>
      <identifier>oai:zenodo.org:292829</identifier>
      <datestamp>2017-02-16T18:44:41Z</datestamp>
      <setSpec>user-biosyslit</setSpec>
    </header>
    <header>
      <identifier>oai:zenodo.org:291919</identifier>
      <datestamp>2017-02-15T14:36:01Z</datestamp>
      <setSpec>user-biosyslit</setSpec>
    </header>
    <header>
      <identifier>oai:zenodo.org:292853</identifier>
      <datestamp>2017-02-16T18:47:23Z</datestamp>
      <setSpec>user-biosyslit</setSpec>
    </header>
    <header>
      <identifier>oai:zenodo.org:292914</identifier>
      <datestamp>2017-02-16T18:59:50Z</datestamp>
      <setSpec>user-biosyslit</setSpec>
    </header>
    <header>
      <identifier>oai:zenodo.org:292731</identifier>
      <datestamp>2017-02-16T18:34:07Z</datestamp>
      <setSpec>user-biosyslit</setSpec>
    </header>
    <header>
      <identifier>oai:zenodo.org:292877</identifier>
      <datestamp>2017-02-16T18:51:15Z</datestamp>
      <setSpec>user-biosyslit</setSpec>
    </header>
    <header>
      <identifier>oai:zenodo.org:292430</identifier>
      <datestamp>2017-02-20T08:28:14Z</datestamp>
      <setSpec>user-biosyslit</setSpec>
    </header>
    <header>
      <identifier>oai:zenodo.org:292332</identifier>
      <datestamp>2017-02-20T08:29:41Z</datestamp>
      <setSpec>openaire</setSpec>
      <setSpec>user-biosyslit</setSpec>
    </header>
    <header>
      <identifier>oai:zenodo.org:292411</identifier>
      <datestamp>2017-02-20T08:28:26Z</datestamp>
      <setSpec>user-biosyslit</setSpec>
    </header>
    <header>
      <identifier>oai:zenodo.org:292998</identifier>
      <datestamp>2017-02-17T16:00:43Z</datestamp>
      <setSpec>openaire</setSpec>
      <setSpec>user-biosyslit</setSpec>
    </header>
    <header>
      <identifier>oai:zenodo.org:293524</identifier>
      <datestamp>2017-02-19T13:46:26Z</datestamp>
      <setSpec>user-biosyslit</setSpec>
    </header>
    <header>
      <identifier>oai:zenodo.org:292766</identifier>
      <datestamp>2017-02-16T18:37:11Z</datestamp>
      <setSpec>user-biosyslit</setSpec>
    </header>
    <header>
      <identifier>oai:zenodo.org:292770</identifier>
      <datestamp>2017-02-16T18:38:06Z</datestamp>
      <setSpec>user-biosyslit</setSpec>
    </header>
    <header>
      <identifier>oai:zenodo.org:292656</identifier>
      <datestamp>2017-02-16T18:25:31Z</datestamp>
      <setSpec>user-biosyslit</setSpec>
    </header>
    <header>
      <identifier>oai:zenodo.org:293134</identifier>
      <datestamp>2017-02-18T19:41:41Z</datestamp>
      <setSpec>user-biosyslit</setSpec>
    </header>
    <header>
      <identifier>oai:zenodo.org:293509</identifier>
      <datestamp>2017-02-19T13:45:59Z</datestamp>
      <setSpec>user-biosyslit</setSpec>
    </header>
    <header>
      <identifier>oai:zenodo.org:292743</identifier>
      <datestamp>2017-02-16T18:35:35Z</datestamp>
      <setSpec>user-biosyslit</setSpec>
    </header>
    <header>
      <identifier>oai:zenodo.org:293565</identifier>
      <datestamp>2017-02-19T13:47:31Z</datestamp>
      <setSpec>user-biosyslit</setSpec>
    </header>
    <header>
      <identifier>oai:zenodo.org:294023</identifier>
      <datestamp>2017-02-20T19:09:17Z</datestamp>
      <setSpec>user-biosyslit</setSpec>
    </header>
    <header>
      <identifier>oai:zenodo.org:293943</identifier>
      <datestamp>2017-02-20T19:01:36Z</datestamp>
      <setSpec>user-biosyslit</setSpec>
    </header>
    <header>
      <identifier>oai:zenodo.org:293448</identifier>
      <datestamp>2017-02-19T13:43:17Z</datestamp>
      <setSpec>user-biosyslit</setSpec>
    </header>
    <header>
      <identifier>oai:zenodo.org:293964</identifier>
      <datestamp>2017-02-20T19:03:36Z</datestamp>
      <setSpec>user-biosyslit</setSpec>
    </header>
    <header>
      <identifier>oai:zenodo.org:293862</identifier>
      <datestamp>2017-02-20T18:52:04Z</datestamp>
      <setSpec>user-biosyslit</setSpec>
    </header>
    <header>
      <identifier>oai:zenodo.org:293646</identifier>
      <datestamp>2017-02-19T13:57:28Z</datestamp>
      <setSpec>user-biosyslit</setSpec>
    </header>
    <header>
      <identifier>oai:zenodo.org:293561</identifier>
      <datestamp>2017-02-19T13:47:25Z</datestamp>
      <setSpec>user-biosyslit</setSpec>
    </header>
    <header>
      <identifier>oai:zenodo.org:294088</identifier>
      <datestamp>2017-02-20T19:16:48Z</datestamp>
      <setSpec>user-biosyslit</setSpec>
    </header>
    <header>
      <identifier>oai:zenodo.org:294259</identifier>
      <datestamp>2017-02-20T19:34:24Z</datestamp>
      <setSpec>user-biosyslit</setSpec>
    </header>
    <header>
      <identifier>oai:zenodo.org:294146</identifier>
      <datestamp>2017-02-20T19:22:59Z</datestamp>
      <setSpec>user-biosyslit</setSpec>
    </header>
    <header>
      <identifier>oai:zenodo.org:294227</identifier>
      <datestamp>2017-02-20T19:30:50Z</datestamp>
      <setSpec>user-biosyslit</setSpec>
    </header>
    <header>
      <identifier>oai:zenodo.org:296001</identifier>
      <datestamp>2017-02-20T20:05:29Z</datestamp>
      <setSpec>user-biosyslit</setSpec>
    </header>
    <header>
      <identifier>oai:zenodo.org:305375</identifier>
      <datestamp>2017-02-20T22:38:55Z</datestamp>
      <setSpec>user-biosyslit</setSpec>
    </header>
    <header>
      <identifier>oai:zenodo.org:294407</identifier>
      <datestamp>2017-02-20T19:38:04Z</datestamp>
      <setSpec>user-biosyslit</setSpec>
    </header>
    <header>
      <identifier>oai:zenodo.org:306867</identifier>
      <datestamp>2017-02-20T23:03:19Z</datestamp>
      <setSpec>user-biosyslit</setSpec>
    </header>
    <header>
      <identifier>oai:zenodo.org:303114</identifier>
      <datestamp>2017-02-20T22:01:20Z</datestamp>
      <setSpec>user-biosyslit</setSpec>
    </header>
    <header>
      <identifier>oai:zenodo.org:306812</identifier>
      <datestamp>2017-02-20T23:02:33Z</datestamp>
      <setSpec>user-biosyslit</setSpec>
    </header>
    <header>
      <identifier>oai:zenodo.org:305346</identifier>
      <datestamp>2017-02-20T22:38:31Z</datestamp>
      <setSpec>user-biosyslit</setSpec>
    </header>
    <header>
      <identifier>oai:zenodo.org:312990</identifier>
      <datestamp>2017-02-21T00:52:50Z</datestamp>
      <setSpec>user-biosyslit</setSpec>
    </header>
    <header>
      <identifier>oai:zenodo.org:312679</identifier>
      <datestamp>2017-02-21T00:47:50Z</datestamp>
      <setSpec>user-biosyslit</setSpec>
    </header>
    <header>
      <identifier>oai:zenodo.org:321739</identifier>
      <datestamp>2017-02-23T08:23:59Z</datestamp>
      <setSpec>user-biosyslit</setSpec>
    </header>
    <header>
      <identifier>oai:zenodo.org:321748</identifier>
      <datestamp>2017-02-23T08:24:24Z</datestamp>
      <setSpec>user-biosyslit</setSpec>
    </header>
    <header>
      <identifier>oai:zenodo.org:311072</identifier>
      <datestamp>2017-02-21T00:15:38Z</datestamp>
      <setSpec>user-biosyslit</setSpec>
    </header>
    <header>
      <identifier>oai:zenodo.org:321992</identifier>
      <datestamp>2017-02-24T07:22:00Z</datestamp>
      <setSpec>user-biosyslit</setSpec>
    </header>
    <header>
      <identifier>oai:zenodo.org:322009</identifier>
      <datestamp>2017-02-24T07:23:40Z</datestamp>
      <setSpec>user-biosyslit</setSpec>
    </header>
    <header>
      <identifier>oai:zenodo.org:320253</identifier>
      <datestamp>2017-02-21T03:29:29Z</datestamp>
      <setSpec>user-biosyslit</setSpec>
    </header>
    <header>
      <identifier>oai:zenodo.org:321785</identifier>
      <datestamp>2017-02-23T08:59:59Z</datestamp>
      <setSpec>user-biosyslit</setSpec>
    </header>
    <header>
      <identifier>oai:zenodo.org:322237</identifier>
      <datestamp>2017-02-24T08:30:27Z</datestamp>
      <setSpec>user-biosyslit</setSpec>
    </header>
    <header>
      <identifier>oai:zenodo.org:321751</identifier>
      <datestamp>2017-02-23T08:30:49Z</datestamp>
      <setSpec>user-biosyslit</setSpec>
    </header>
    <header>
      <identifier>oai:zenodo.org:322021</identifier>
      <datestamp>2017-02-24T07:24:45Z</datestamp>
      <setSpec>user-biosyslit</setSpec>
    </header>
    <header>
      <identifier>oai:zenodo.org:321317</identifier>
      <datestamp>2017-02-21T12:16:59Z</datestamp>
      <setSpec>user-biosyslit</setSpec>
    </header>
    <header>
      <identifier>oai:zenodo.org:321402</identifier>
      <datestamp>2017-02-22T10:00:49Z</datestamp>
      <setSpec>openaire</setSpec>
      <setSpec>user-biosyslit</setSpec>
      <setSpec>user-neilreichia</setSpec>
    </header>
    <header>
      <identifier>oai:zenodo.org:320237</identifier>
      <datestamp>2017-02-21T03:29:01Z</datestamp>
      <setSpec>user-biosyslit</setSpec>
    </header>
    <header>
      <identifier>oai:zenodo.org:322164</identifier>
      <datestamp>2017-02-24T07:35:51Z</datestamp>
      <setSpec>user-biosyslit</setSpec>
    </header>
    <header>
      <identifier>oai:zenodo.org:322199</identifier>
      <datestamp>2017-02-24T07:37:22Z</datestamp>
      <setSpec>user-biosyslit</setSpec>
    </header>
    <header>
      <identifier>oai:zenodo.org:322186</identifier>
      <datestamp>2017-02-24T07:36:52Z</datestamp>
      <setSpec>user-biosyslit</setSpec>
    </header>
    <header>
      <identifier>oai:zenodo.org:322765</identifier>
      <datestamp>2017-02-27T10:53:34Z</datestamp>
      <setSpec>user-biosyslit</setSpec>
    </header>
    <header>
      <identifier>oai:zenodo.org:322726</identifier>
      <datestamp>2017-02-27T09:56:09Z</datestamp>
      <setSpec>user-biosyslit</setSpec>
    </header>
    <header>
      <identifier>oai:zenodo.org:322401</identifier>
      <datestamp>2017-02-24T15:54:19Z</datestamp>
      <setSpec>user-biosyslit</setSpec>
    </header>
    <header>
      <identifier>oai:zenodo.org:322397</identifier>
      <datestamp>2017-02-24T15:54:09Z</datestamp>
      <setSpec>user-biosyslit</setSpec>
    </header>
    <header>
      <identifier>oai:zenodo.org:322770</identifier>
      <datestamp>2017-02-27T10:53:33Z</datestamp>
      <setSpec>user-biosyslit</setSpec>
    </header>
    <header>
      <identifier>oai:zenodo.org:322716</identifier>
      <datestamp>2017-02-27T09:33:17Z</datestamp>
      <setSpec>user-biosyslit</setSpec>
    </header>
    <header>
      <identifier>oai:zenodo.org:322751</identifier>
      <datestamp>2017-02-27T10:34:23Z</datestamp>
      <setSpec>user-biosyslit</setSpec>
    </header>
    <header>
      <identifier>oai:zenodo.org:573687</identifier>
      <datestamp>2017-05-10T09:07:29Z</datestamp>
      <setSpec>user-biosyslit</setSpec>
    </header>
    <header>
      <identifier>oai:zenodo.org:573706</identifier>
      <datestamp>2017-05-10T09:37:26Z</datestamp>
      <setSpec>user-biosyslit</setSpec>
    </header>
    <header>
      <identifier>oai:zenodo.org:574253</identifier>
      <datestamp>2017-05-11T07:25:13Z</datestamp>
      <setSpec>user-biosyslit</setSpec>
    </header>
    <header>
      <identifier>oai:zenodo.org:343984</identifier>
      <datestamp>2017-02-28T23:49:59Z</datestamp>
      <setSpec>openaire_data</setSpec>
      <setSpec>user-biosyslit</setSpec>
    </header>
    <header>
      <identifier>oai:zenodo.org:579313</identifier>
      <datestamp>2017-05-18T07:03:21Z</datestamp>
      <setSpec>openaire</setSpec>
      <setSpec>user-biosyslit</setSpec>
    </header>
    <header>
      <identifier>oai:zenodo.org:343813</identifier>
      <datestamp>2017-02-28T08:52:55Z</datestamp>
      <setSpec>user-biosyslit</setSpec>
    </header>
    <header>
      <identifier>oai:zenodo.org:343810</identifier>
      <datestamp>2017-02-28T08:52:45Z</datestamp>
      <setSpec>user-biosyslit</setSpec>
    </header>
    <header>
      <identifier>oai:zenodo.org:343757</identifier>
      <datestamp>2017-02-28T08:25:46Z</datestamp>
      <setSpec>user-biosyslit</setSpec>
    </header>
    <header>
      <identifier>oai:zenodo.org:344009</identifier>
      <datestamp>2017-02-28T23:49:24Z</datestamp>
      <setSpec>user-biosyslit</setSpec>
    </header>
    <header>
      <identifier>oai:zenodo.org:343761</identifier>
      <datestamp>2017-02-28T08:25:58Z</datestamp>
      <setSpec>user-biosyslit</setSpec>
    </header>
    <header>
      <identifier>oai:zenodo.org:575325</identifier>
      <datestamp>2017-05-12T08:08:18Z</datestamp>
      <setSpec>user-biosyslit</setSpec>
    </header>
    <header>
      <identifier>oai:zenodo.org:344011</identifier>
      <datestamp>2017-02-28T23:49:23Z</datestamp>
      <setSpec>user-biosyslit</setSpec>
    </header>
    <header>
      <identifier>oai:zenodo.org:343874</identifier>
      <datestamp>2017-02-28T10:01:38Z</datestamp>
      <setSpec>user-biosyslit</setSpec>
    </header>
    <resumptionToken expirationDate="2017-08-31T15:46:57Z" cursor="57300" completeListSize="77796">.eJyNysEKgjAYAOB3-c8Sc0OmQpewxIPKXA7tEqYi5axwhTrx3fPSuc7fN4Oq6wpctKEOxcRyKEI2RY6NDVBl_5DyfF0ZykzI8i7TwhfvpBMoxw2NPDWGXk4i3aK4MzU_MJyZ9phe0cSO6SvXyShIMHC0p6FmU3QL1leR2Jeni__k6X0nOa76eM8mbu74iZTfZ_759M_nqS0Y8CyaGlyLWga0Q9E3Ctx5WT6ovlFP.DInAeQ.xRnFT6e50403nfFCaBsM1NGcHzs</resumptionToken>
  </ListIdentifiers>
</OAI-PMH>
