<?xml version='1.0' encoding='UTF-8'?>
<?xml-stylesheet type="text/xsl" href="/static/xsl/oai2.v1.0.xsl"?>
<OAI-PMH xmlns="http://www.openarchives.org/OAI/2.0/" xmlns:xsi="http://www.w3.org/2001/XMLSchema-instance" xsi:schemaLocation="http://www.openarchives.org/OAI/2.0/ http://www.openarchives.org/OAI/2.0/OAI-PMH.xsd">
  <responseDate>2017-08-31T15:44:06Z</responseDate>
  <request verb="ListIdentifiers" resumptionToken=".eJyNyj0LgkAYAOD_8s4S91GeCi1hSYOKXifpEqYi1WniFemF_z2X5pqf5w2qqkpw0MJkiGBzRU1qL5ltMwNU0d-lPF1mhuKYyKKVIveSZ9wkKCU1C1w1-G5KA31DYYM130XkiK1BXNAYHcQj1fGQ0P2Loy3zdTQG1_38Shp6Mjt7HRftRnJS9uE2Gjne8IwW34f_fPrnc9UaDOjyugJnaVoG3F55Xytw3tP0AakiUVE.DInARQ._iu6BUmB3e77S3ZIEUmTuR5pcM0">https://zenodo.org/oai2d</request>
  <ListIdentifiers>
    <header>
      <identifier>oai:zenodo.org:239656</identifier>
      <datestamp>2017-01-11T23:21:01Z</datestamp>
      <setSpec>user-biosyslit</setSpec>
    </header>
    <header>
      <identifier>oai:zenodo.org:271129</identifier>
      <datestamp>2017-02-08T00:50:49Z</datestamp>
      <setSpec>user-biosyslit</setSpec>
    </header>
    <header>
      <identifier>oai:zenodo.org:239166</identifier>
      <datestamp>2017-01-11T17:13:07Z</datestamp>
      <setSpec>user-biosyslit</setSpec>
    </header>
    <header>
      <identifier>oai:zenodo.org:239995</identifier>
      <datestamp>2017-01-12T03:20:12Z</datestamp>
      <setSpec>user-biosyslit</setSpec>
    </header>
    <header>
      <identifier>oai:zenodo.org:240694</identifier>
      <datestamp>2017-01-12T12:43:31Z</datestamp>
      <setSpec>user-biosyslit</setSpec>
    </header>
    <header>
      <identifier>oai:zenodo.org:238974</identifier>
      <datestamp>2017-01-11T14:08:32Z</datestamp>
      <setSpec>user-biosyslit</setSpec>
    </header>
    <header>
      <identifier>oai:zenodo.org:239849</identifier>
      <datestamp>2017-01-12T01:48:03Z</datestamp>
      <setSpec>user-biosyslit</setSpec>
    </header>
    <header>
      <identifier>oai:zenodo.org:239776</identifier>
      <datestamp>2017-01-12T00:45:46Z</datestamp>
      <setSpec>user-biosyslit</setSpec>
    </header>
    <header>
      <identifier>oai:zenodo.org:240622</identifier>
      <datestamp>2017-01-12T10:56:14Z</datestamp>
      <setSpec>user-biosyslit</setSpec>
    </header>
    <header>
      <identifier>oai:zenodo.org:240138</identifier>
      <datestamp>2017-01-12T05:04:42Z</datestamp>
      <setSpec>user-biosyslit</setSpec>
    </header>
    <header>
      <identifier>oai:zenodo.org:240285</identifier>
      <datestamp>2017-01-12T06:54:19Z</datestamp>
      <setSpec>user-biosyslit</setSpec>
    </header>
    <header>
      <identifier>oai:zenodo.org:240092</identifier>
      <datestamp>2017-01-12T04:33:39Z</datestamp>
      <setSpec>user-biosyslit</setSpec>
    </header>
    <header>
      <identifier>oai:zenodo.org:241036</identifier>
      <datestamp>2017-01-12T19:07:33Z</datestamp>
      <setSpec>user-biosyslit</setSpec>
    </header>
    <header>
      <identifier>oai:zenodo.org:239829</identifier>
      <datestamp>2017-01-12T01:22:35Z</datestamp>
      <setSpec>user-biosyslit</setSpec>
    </header>
    <header>
      <identifier>oai:zenodo.org:240453</identifier>
      <datestamp>2017-01-12T08:47:11Z</datestamp>
      <setSpec>user-biosyslit</setSpec>
    </header>
    <header>
      <identifier>oai:zenodo.org:240274</identifier>
      <datestamp>2017-01-12T06:44:32Z</datestamp>
      <setSpec>user-biosyslit</setSpec>
    </header>
    <header>
      <identifier>oai:zenodo.org:271672</identifier>
      <datestamp>2017-02-08T02:13:14Z</datestamp>
      <setSpec>user-biosyslit</setSpec>
    </header>
    <header>
      <identifier>oai:zenodo.org:240475</identifier>
      <datestamp>2017-01-12T09:04:59Z</datestamp>
      <setSpec>user-biosyslit</setSpec>
    </header>
    <header>
      <identifier>oai:zenodo.org:240884</identifier>
      <datestamp>2017-01-12T15:18:41Z</datestamp>
      <setSpec>user-biosyslit</setSpec>
    </header>
    <header>
      <identifier>oai:zenodo.org:240483</identifier>
      <datestamp>2017-01-12T09:05:22Z</datestamp>
      <setSpec>user-biosyslit</setSpec>
    </header>
    <header>
      <identifier>oai:zenodo.org:240478</identifier>
      <datestamp>2017-01-12T09:05:07Z</datestamp>
      <setSpec>user-biosyslit</setSpec>
    </header>
    <header>
      <identifier>oai:zenodo.org:240384</identifier>
      <datestamp>2017-01-12T07:59:15Z</datestamp>
      <setSpec>user-biosyslit</setSpec>
    </header>
    <header>
      <identifier>oai:zenodo.org:240624</identifier>
      <datestamp>2017-01-12T10:56:24Z</datestamp>
      <setSpec>user-biosyslit</setSpec>
    </header>
    <header>
      <identifier>oai:zenodo.org:241352</identifier>
      <datestamp>2017-01-13T00:20:34Z</datestamp>
      <setSpec>user-biosyslit</setSpec>
    </header>
    <header>
      <identifier>oai:zenodo.org:271444</identifier>
      <datestamp>2017-02-08T01:40:43Z</datestamp>
      <setSpec>user-biosyslit</setSpec>
    </header>
    <header>
      <identifier>oai:zenodo.org:241351</identifier>
      <datestamp>2017-01-13T00:20:30Z</datestamp>
      <setSpec>user-biosyslit</setSpec>
    </header>
    <header>
      <identifier>oai:zenodo.org:240641</identifier>
      <datestamp>2017-01-12T11:08:23Z</datestamp>
      <setSpec>user-biosyslit</setSpec>
    </header>
    <header>
      <identifier>oai:zenodo.org:241453</identifier>
      <datestamp>2017-01-13T01:40:00Z</datestamp>
      <setSpec>user-biosyslit</setSpec>
    </header>
    <header>
      <identifier>oai:zenodo.org:271643</identifier>
      <datestamp>2017-02-08T02:06:28Z</datestamp>
      <setSpec>user-biosyslit</setSpec>
    </header>
    <header>
      <identifier>oai:zenodo.org:271811</identifier>
      <datestamp>2017-02-08T02:43:27Z</datestamp>
      <setSpec>user-biosyslit</setSpec>
    </header>
    <header>
      <identifier>oai:zenodo.org:271486</identifier>
      <datestamp>2017-02-08T01:48:48Z</datestamp>
      <setSpec>user-biosyslit</setSpec>
    </header>
    <header>
      <identifier>oai:zenodo.org:272051</identifier>
      <datestamp>2017-02-08T03:24:56Z</datestamp>
      <setSpec>user-biosyslit</setSpec>
    </header>
    <header>
      <identifier>oai:zenodo.org:271700</identifier>
      <datestamp>2017-02-08T02:24:17Z</datestamp>
      <setSpec>user-biosyslit</setSpec>
    </header>
    <header>
      <identifier>oai:zenodo.org:272199</identifier>
      <datestamp>2017-02-08T03:58:49Z</datestamp>
      <setSpec>user-biosyslit</setSpec>
    </header>
    <header>
      <identifier>oai:zenodo.org:271866</identifier>
      <datestamp>2017-02-08T02:46:34Z</datestamp>
      <setSpec>user-biosyslit</setSpec>
    </header>
    <header>
      <identifier>oai:zenodo.org:272239</identifier>
      <datestamp>2017-02-08T04:04:26Z</datestamp>
      <setSpec>user-biosyslit</setSpec>
    </header>
    <header>
      <identifier>oai:zenodo.org:272486</identifier>
      <datestamp>2017-02-08T04:54:15Z</datestamp>
      <setSpec>user-biosyslit</setSpec>
    </header>
    <header>
      <identifier>oai:zenodo.org:271833</identifier>
      <datestamp>2017-02-08T02:44:40Z</datestamp>
      <setSpec>user-biosyslit</setSpec>
    </header>
    <header>
      <identifier>oai:zenodo.org:273132</identifier>
      <datestamp>2017-02-08T07:25:01Z</datestamp>
      <setSpec>user-biosyslit</setSpec>
    </header>
    <header>
      <identifier>oai:zenodo.org:271655</identifier>
      <datestamp>2017-02-08T02:08:39Z</datestamp>
      <setSpec>user-biosyslit</setSpec>
    </header>
    <header>
      <identifier>oai:zenodo.org:272215</identifier>
      <datestamp>2017-02-08T04:01:09Z</datestamp>
      <setSpec>user-biosyslit</setSpec>
    </header>
    <header>
      <identifier>oai:zenodo.org:242123</identifier>
      <datestamp>2017-01-13T10:46:31Z</datestamp>
      <setSpec>user-biosyslit</setSpec>
    </header>
    <header>
      <identifier>oai:zenodo.org:243247</identifier>
      <datestamp>2017-01-14T01:38:25Z</datestamp>
      <setSpec>user-biosyslit</setSpec>
    </header>
    <header>
      <identifier>oai:zenodo.org:242258</identifier>
      <datestamp>2017-01-13T12:37:20Z</datestamp>
      <setSpec>user-biosyslit</setSpec>
    </header>
    <header>
      <identifier>oai:zenodo.org:272079</identifier>
      <datestamp>2017-02-08T03:29:37Z</datestamp>
      <setSpec>user-biosyslit</setSpec>
    </header>
    <header>
      <identifier>oai:zenodo.org:241699</identifier>
      <datestamp>2017-01-13T05:09:42Z</datestamp>
      <setSpec>user-biosyslit</setSpec>
    </header>
    <header>
      <identifier>oai:zenodo.org:242037</identifier>
      <datestamp>2017-01-13T09:37:05Z</datestamp>
      <setSpec>user-biosyslit</setSpec>
    </header>
    <header>
      <identifier>oai:zenodo.org:242410</identifier>
      <datestamp>2017-01-13T15:09:04Z</datestamp>
      <setSpec>user-biosyslit</setSpec>
    </header>
    <header>
      <identifier>oai:zenodo.org:242444</identifier>
      <datestamp>2017-01-13T15:21:00Z</datestamp>
      <setSpec>user-biosyslit</setSpec>
    </header>
    <header>
      <identifier>oai:zenodo.org:272224</identifier>
      <datestamp>2017-02-08T04:02:09Z</datestamp>
      <setSpec>user-biosyslit</setSpec>
    </header>
    <header>
      <identifier>oai:zenodo.org:242247</identifier>
      <datestamp>2017-01-13T12:29:09Z</datestamp>
      <setSpec>user-biosyslit</setSpec>
    </header>
    <header>
      <identifier>oai:zenodo.org:243656</identifier>
      <datestamp>2017-01-14T08:53:19Z</datestamp>
      <setSpec>user-biosyslit</setSpec>
    </header>
    <header>
      <identifier>oai:zenodo.org:243089</identifier>
      <datestamp>2017-01-13T23:19:50Z</datestamp>
      <setSpec>user-biosyslit</setSpec>
    </header>
    <header>
      <identifier>oai:zenodo.org:243251</identifier>
      <datestamp>2017-01-14T01:40:11Z</datestamp>
      <setSpec>user-biosyslit</setSpec>
    </header>
    <header>
      <identifier>oai:zenodo.org:243457</identifier>
      <datestamp>2017-01-14T06:01:29Z</datestamp>
      <setSpec>user-biosyslit</setSpec>
    </header>
    <header>
      <identifier>oai:zenodo.org:243326</identifier>
      <datestamp>2017-01-14T02:44:40Z</datestamp>
      <setSpec>user-biosyslit</setSpec>
    </header>
    <header>
      <identifier>oai:zenodo.org:271954</identifier>
      <datestamp>2017-02-08T03:09:44Z</datestamp>
      <setSpec>user-biosyslit</setSpec>
    </header>
    <header>
      <identifier>oai:zenodo.org:235701</identifier>
      <datestamp>2017-01-09T13:44:06Z</datestamp>
      <setSpec>user-biosyslit</setSpec>
    </header>
    <header>
      <identifier>oai:zenodo.org:233764</identifier>
      <datestamp>2017-01-08T11:34:39Z</datestamp>
      <setSpec>user-biosyslit</setSpec>
    </header>
    <header>
      <identifier>oai:zenodo.org:234329</identifier>
      <datestamp>2017-01-08T18:26:32Z</datestamp>
      <setSpec>user-biosyslit</setSpec>
    </header>
    <header>
      <identifier>oai:zenodo.org:270697</identifier>
      <datestamp>2017-02-07T23:49:13Z</datestamp>
      <setSpec>user-biosyslit</setSpec>
    </header>
    <header>
      <identifier>oai:zenodo.org:236020</identifier>
      <datestamp>2017-01-09T17:54:47Z</datestamp>
      <setSpec>user-biosyslit</setSpec>
    </header>
    <header>
      <identifier>oai:zenodo.org:235913</identifier>
      <datestamp>2017-01-09T16:55:34Z</datestamp>
      <setSpec>user-biosyslit</setSpec>
    </header>
    <header>
      <identifier>oai:zenodo.org:235404</identifier>
      <datestamp>2017-01-09T09:45:59Z</datestamp>
      <setSpec>user-biosyslit</setSpec>
    </header>
    <header>
      <identifier>oai:zenodo.org:234953</identifier>
      <datestamp>2017-01-09T03:58:11Z</datestamp>
      <setSpec>user-biosyslit</setSpec>
    </header>
    <header>
      <identifier>oai:zenodo.org:235125</identifier>
      <datestamp>2017-01-09T05:44:57Z</datestamp>
      <setSpec>user-biosyslit</setSpec>
    </header>
    <header>
      <identifier>oai:zenodo.org:236983</identifier>
      <datestamp>2017-01-10T09:10:34Z</datestamp>
      <setSpec>user-biosyslit</setSpec>
    </header>
    <header>
      <identifier>oai:zenodo.org:235434</identifier>
      <datestamp>2017-01-09T09:59:53Z</datestamp>
      <setSpec>user-biosyslit</setSpec>
    </header>
    <header>
      <identifier>oai:zenodo.org:235020</identifier>
      <datestamp>2017-01-09T04:46:06Z</datestamp>
      <setSpec>user-biosyslit</setSpec>
    </header>
    <header>
      <identifier>oai:zenodo.org:235430</identifier>
      <datestamp>2017-01-09T09:59:43Z</datestamp>
      <setSpec>user-biosyslit</setSpec>
    </header>
    <header>
      <identifier>oai:zenodo.org:235110</identifier>
      <datestamp>2017-01-09T05:37:28Z</datestamp>
      <setSpec>user-biosyslit</setSpec>
    </header>
    <header>
      <identifier>oai:zenodo.org:235876</identifier>
      <datestamp>2017-01-09T16:21:58Z</datestamp>
      <setSpec>user-biosyslit</setSpec>
    </header>
    <header>
      <identifier>oai:zenodo.org:236300</identifier>
      <datestamp>2017-01-09T21:46:31Z</datestamp>
      <setSpec>user-biosyslit</setSpec>
    </header>
    <header>
      <identifier>oai:zenodo.org:236747</identifier>
      <datestamp>2017-01-10T04:08:07Z</datestamp>
      <setSpec>user-biosyslit</setSpec>
    </header>
    <header>
      <identifier>oai:zenodo.org:235815</identifier>
      <datestamp>2017-01-09T15:30:10Z</datestamp>
      <setSpec>user-biosyslit</setSpec>
    </header>
    <header>
      <identifier>oai:zenodo.org:236017</identifier>
      <datestamp>2017-01-09T17:54:53Z</datestamp>
      <setSpec>user-biosyslit</setSpec>
    </header>
    <header>
      <identifier>oai:zenodo.org:236122</identifier>
      <datestamp>2017-01-09T18:33:49Z</datestamp>
      <setSpec>user-biosyslit</setSpec>
    </header>
    <header>
      <identifier>oai:zenodo.org:236111</identifier>
      <datestamp>2017-01-09T18:33:13Z</datestamp>
      <setSpec>user-biosyslit</setSpec>
    </header>
    <header>
      <identifier>oai:zenodo.org:235948</identifier>
      <datestamp>2017-01-09T17:05:55Z</datestamp>
      <setSpec>user-biosyslit</setSpec>
    </header>
    <header>
      <identifier>oai:zenodo.org:237889</identifier>
      <datestamp>2017-01-10T22:06:35Z</datestamp>
      <setSpec>user-biosyslit</setSpec>
    </header>
    <header>
      <identifier>oai:zenodo.org:236746</identifier>
      <datestamp>2017-01-10T04:08:03Z</datestamp>
      <setSpec>user-biosyslit</setSpec>
    </header>
    <header>
      <identifier>oai:zenodo.org:236999</identifier>
      <datestamp>2017-01-10T09:18:03Z</datestamp>
      <setSpec>user-biosyslit</setSpec>
    </header>
    <header>
      <identifier>oai:zenodo.org:236814</identifier>
      <datestamp>2017-01-10T05:59:20Z</datestamp>
      <setSpec>user-biosyslit</setSpec>
    </header>
    <header>
      <identifier>oai:zenodo.org:238112</identifier>
      <datestamp>2017-01-11T01:14:16Z</datestamp>
      <setSpec>user-biosyslit</setSpec>
    </header>
    <header>
      <identifier>oai:zenodo.org:237896</identifier>
      <datestamp>2017-01-10T22:07:01Z</datestamp>
      <setSpec>user-biosyslit</setSpec>
    </header>
    <header>
      <identifier>oai:zenodo.org:238286</identifier>
      <datestamp>2017-01-11T03:26:07Z</datestamp>
      <setSpec>user-biosyslit</setSpec>
    </header>
    <header>
      <identifier>oai:zenodo.org:236949</identifier>
      <datestamp>2017-01-10T08:39:02Z</datestamp>
      <setSpec>user-biosyslit</setSpec>
    </header>
    <header>
      <identifier>oai:zenodo.org:237422</identifier>
      <datestamp>2017-01-13T07:38:00Z</datestamp>
      <setSpec>openaire</setSpec>
      <setSpec>user-biosyslit</setSpec>
    </header>
    <header>
      <identifier>oai:zenodo.org:237797</identifier>
      <datestamp>2017-01-10T20:50:31Z</datestamp>
      <setSpec>user-biosyslit</setSpec>
    </header>
    <header>
      <identifier>oai:zenodo.org:271020</identifier>
      <datestamp>2017-02-08T00:36:33Z</datestamp>
      <setSpec>user-biosyslit</setSpec>
    </header>
    <header>
      <identifier>oai:zenodo.org:238210</identifier>
      <datestamp>2017-01-11T02:17:16Z</datestamp>
      <setSpec>user-biosyslit</setSpec>
    </header>
    <header>
      <identifier>oai:zenodo.org:237239</identifier>
      <datestamp>2017-01-10T12:51:08Z</datestamp>
      <setSpec>user-biosyslit</setSpec>
    </header>
    <header>
      <identifier>oai:zenodo.org:237207</identifier>
      <datestamp>2017-01-10T12:04:01Z</datestamp>
      <setSpec>user-biosyslit</setSpec>
    </header>
    <header>
      <identifier>oai:zenodo.org:271395</identifier>
      <datestamp>2017-02-08T01:35:46Z</datestamp>
      <setSpec>user-biosyslit</setSpec>
    </header>
    <header>
      <identifier>oai:zenodo.org:270993</identifier>
      <datestamp>2017-02-08T00:33:47Z</datestamp>
      <setSpec>user-biosyslit</setSpec>
    </header>
    <header>
      <identifier>oai:zenodo.org:237572</identifier>
      <datestamp>2017-01-10T17:12:17Z</datestamp>
      <setSpec>user-biosyslit</setSpec>
    </header>
    <header>
      <identifier>oai:zenodo.org:238154</identifier>
      <datestamp>2017-01-11T01:43:35Z</datestamp>
      <setSpec>user-biosyslit</setSpec>
    </header>
    <header>
      <identifier>oai:zenodo.org:237888</identifier>
      <datestamp>2017-01-10T22:06:31Z</datestamp>
      <setSpec>user-biosyslit</setSpec>
    </header>
    <header>
      <identifier>oai:zenodo.org:238519</identifier>
      <datestamp>2017-01-11T06:52:40Z</datestamp>
      <setSpec>user-biosyslit</setSpec>
    </header>
    <header>
      <identifier>oai:zenodo.org:238927</identifier>
      <datestamp>2017-01-11T12:44:09Z</datestamp>
      <setSpec>user-biosyslit</setSpec>
    </header>
    <resumptionToken expirationDate="2017-08-31T15:46:06Z" cursor="46700" completeListSize="77796">.eJyNyj0LgkAYAOD_8s4S9yF2Ci2iSYOKXifqEqYi1VnhFepJ_72W5pqfZwHVtg04aMUQI6bJmGVZmNrEAFUPNykPp49CnWeyvkpRBdkz7TNUkG4deWoKvYJG-oLiHmu-TUiO2SROaE724lHodMrobuTIX4c6maPz7vMaGgeyPAZ3Lq6u5KQZYj-ZOXZ5Sevvw38-_fN5agMG3KuuBce0bAMuYzV0Cpzl9XoDcLBRGQ.DInARg.02xWU8_BQNctYUyPB9W_bJrx6Zs</resumptionToken>
  </ListIdentifiers>
</OAI-PMH>
