<?xml version='1.0' encoding='UTF-8'?>
<?xml-stylesheet type="text/xsl" href="/static/xsl/oai2.v1.0.xsl"?>
<OAI-PMH xmlns="http://www.openarchives.org/OAI/2.0/" xmlns:xsi="http://www.w3.org/2001/XMLSchema-instance" xsi:schemaLocation="http://www.openarchives.org/OAI/2.0/ http://www.openarchives.org/OAI/2.0/OAI-PMH.xsd">
  <responseDate>2017-08-31T15:41:51Z</responseDate>
  <request verb="ListIdentifiers" resumptionToken=".eJyNysEKgjAYAOB3-c8SmyPXhC6hSQcVW5P0EjZFrFnhinTiu-elc52_bwRdVSW4aMGYwxhyMKWU4SW2LdCyuyt1amYGeUyVvClRBOlr36Yos2saeboPvYxE5oriFhu-TewjXvWiQUNyEM_M7PuU7N4c-TQ0yRBddvMrSRyo_Bw8uLhtFLfLLvaTgeMNz4n8PvznMz-fp9dgwaOoK3AxQRZc30VXa3DHafoArOxRRw.DIm_vg.9Zhof6TiZ62yBFMlbGlqB11YoRk">https://zenodo.org/oai2d</request>
  <ListIdentifiers>
    <header>
      <identifier>oai:zenodo.org:231012</identifier>
      <datestamp>2017-01-05T12:18:50Z</datestamp>
      <setSpec>user-biosyslit</setSpec>
    </header>
    <header>
      <identifier>oai:zenodo.org:230942</identifier>
      <datestamp>2017-01-05T11:34:39Z</datestamp>
      <setSpec>user-biosyslit</setSpec>
    </header>
    <header>
      <identifier>oai:zenodo.org:270207</identifier>
      <datestamp>2017-02-07T22:32:03Z</datestamp>
      <setSpec>user-biosyslit</setSpec>
    </header>
    <header>
      <identifier>oai:zenodo.org:269815</identifier>
      <datestamp>2017-02-07T20:26:36Z</datestamp>
      <setSpec>user-biosyslit</setSpec>
    </header>
    <header>
      <identifier>oai:zenodo.org:230644</identifier>
      <datestamp>2017-01-05T05:35:06Z</datestamp>
      <setSpec>user-biosyslit</setSpec>
    </header>
    <header>
      <identifier>oai:zenodo.org:269969</identifier>
      <datestamp>2017-02-07T21:54:33Z</datestamp>
      <setSpec>user-biosyslit</setSpec>
    </header>
    <header>
      <identifier>oai:zenodo.org:230648</identifier>
      <datestamp>2017-01-05T05:35:19Z</datestamp>
      <setSpec>user-biosyslit</setSpec>
    </header>
    <header>
      <identifier>oai:zenodo.org:269838</identifier>
      <datestamp>2017-02-07T20:31:32Z</datestamp>
      <setSpec>user-biosyslit</setSpec>
    </header>
    <header>
      <identifier>oai:zenodo.org:270303</identifier>
      <datestamp>2017-02-07T22:58:29Z</datestamp>
      <setSpec>user-biosyslit</setSpec>
    </header>
    <header>
      <identifier>oai:zenodo.org:269877</identifier>
      <datestamp>2017-02-07T20:37:57Z</datestamp>
      <setSpec>user-biosyslit</setSpec>
    </header>
    <header>
      <identifier>oai:zenodo.org:269796</identifier>
      <datestamp>2017-02-07T20:19:20Z</datestamp>
      <setSpec>user-biosyslit</setSpec>
    </header>
    <header>
      <identifier>oai:zenodo.org:231907</identifier>
      <datestamp>2017-01-06T08:33:56Z</datestamp>
      <setSpec>user-biosyslit</setSpec>
    </header>
    <header>
      <identifier>oai:zenodo.org:231500</identifier>
      <datestamp>2017-01-06T03:05:36Z</datestamp>
      <setSpec>user-biosyslit</setSpec>
    </header>
    <header>
      <identifier>oai:zenodo.org:270189</identifier>
      <datestamp>2017-02-07T22:30:27Z</datestamp>
      <setSpec>user-biosyslit</setSpec>
    </header>
    <header>
      <identifier>oai:zenodo.org:231027</identifier>
      <datestamp>2017-01-05T12:32:34Z</datestamp>
      <setSpec>user-biosyslit</setSpec>
    </header>
    <header>
      <identifier>oai:zenodo.org:270271</identifier>
      <datestamp>2017-02-07T22:56:17Z</datestamp>
      <setSpec>user-biosyslit</setSpec>
    </header>
    <header>
      <identifier>oai:zenodo.org:270202</identifier>
      <datestamp>2017-02-07T22:31:32Z</datestamp>
      <setSpec>user-biosyslit</setSpec>
    </header>
    <header>
      <identifier>oai:zenodo.org:231801</identifier>
      <datestamp>2017-01-06T07:31:02Z</datestamp>
      <setSpec>user-biosyslit</setSpec>
    </header>
    <header>
      <identifier>oai:zenodo.org:231490</identifier>
      <datestamp>2017-01-06T02:46:53Z</datestamp>
      <setSpec>user-biosyslit</setSpec>
    </header>
    <header>
      <identifier>oai:zenodo.org:269997</identifier>
      <datestamp>2017-02-07T21:58:21Z</datestamp>
      <setSpec>user-biosyslit</setSpec>
    </header>
    <header>
      <identifier>oai:zenodo.org:270260</identifier>
      <datestamp>2017-02-07T22:54:55Z</datestamp>
      <setSpec>user-biosyslit</setSpec>
    </header>
    <header>
      <identifier>oai:zenodo.org:270126</identifier>
      <datestamp>2017-02-07T22:24:48Z</datestamp>
      <setSpec>user-biosyslit</setSpec>
    </header>
    <header>
      <identifier>oai:zenodo.org:232196</identifier>
      <datestamp>2017-01-06T12:57:26Z</datestamp>
      <setSpec>user-biosyslit</setSpec>
    </header>
    <header>
      <identifier>oai:zenodo.org:270419</identifier>
      <datestamp>2017-02-07T23:13:13Z</datestamp>
      <setSpec>user-biosyslit</setSpec>
    </header>
    <header>
      <identifier>oai:zenodo.org:270459</identifier>
      <datestamp>2017-02-07T23:16:29Z</datestamp>
      <setSpec>user-biosyslit</setSpec>
    </header>
    <header>
      <identifier>oai:zenodo.org:231795</identifier>
      <datestamp>2017-01-06T07:30:32Z</datestamp>
      <setSpec>user-biosyslit</setSpec>
    </header>
    <header>
      <identifier>oai:zenodo.org:232183</identifier>
      <datestamp>2017-01-06T12:56:46Z</datestamp>
      <setSpec>user-biosyslit</setSpec>
    </header>
    <header>
      <identifier>oai:zenodo.org:271408</identifier>
      <datestamp>2017-02-08T01:36:14Z</datestamp>
      <setSpec>user-biosyslit</setSpec>
    </header>
    <header>
      <identifier>oai:zenodo.org:270308</identifier>
      <datestamp>2017-02-07T22:59:06Z</datestamp>
      <setSpec>user-biosyslit</setSpec>
    </header>
    <header>
      <identifier>oai:zenodo.org:270417</identifier>
      <datestamp>2017-02-07T23:13:08Z</datestamp>
      <setSpec>user-biosyslit</setSpec>
    </header>
    <header>
      <identifier>oai:zenodo.org:270299</identifier>
      <datestamp>2017-02-07T22:58:13Z</datestamp>
      <setSpec>user-biosyslit</setSpec>
    </header>
    <header>
      <identifier>oai:zenodo.org:232517</identifier>
      <datestamp>2017-01-06T18:56:11Z</datestamp>
      <setSpec>user-biosyslit</setSpec>
    </header>
    <header>
      <identifier>oai:zenodo.org:232411</identifier>
      <datestamp>2017-01-06T17:08:52Z</datestamp>
      <setSpec>user-biosyslit</setSpec>
    </header>
    <header>
      <identifier>oai:zenodo.org:270553</identifier>
      <datestamp>2017-02-07T23:27:11Z</datestamp>
      <setSpec>user-biosyslit</setSpec>
    </header>
    <header>
      <identifier>oai:zenodo.org:232742</identifier>
      <datestamp>2017-01-06T22:28:36Z</datestamp>
      <setSpec>user-biosyslit</setSpec>
    </header>
    <header>
      <identifier>oai:zenodo.org:232136</identifier>
      <datestamp>2017-01-06T11:30:56Z</datestamp>
      <setSpec>user-biosyslit</setSpec>
    </header>
    <header>
      <identifier>oai:zenodo.org:232103</identifier>
      <datestamp>2017-01-06T11:12:37Z</datestamp>
      <setSpec>user-biosyslit</setSpec>
    </header>
    <header>
      <identifier>oai:zenodo.org:233043</identifier>
      <datestamp>2017-01-07T23:12:22Z</datestamp>
      <setSpec>user-biosyslit</setSpec>
    </header>
    <header>
      <identifier>oai:zenodo.org:233665</identifier>
      <datestamp>2017-01-08T09:26:04Z</datestamp>
      <setSpec>user-biosyslit</setSpec>
    </header>
    <header>
      <identifier>oai:zenodo.org:232334</identifier>
      <datestamp>2017-01-06T16:02:49Z</datestamp>
      <setSpec>user-biosyslit</setSpec>
    </header>
    <header>
      <identifier>oai:zenodo.org:232530</identifier>
      <datestamp>2017-01-06T19:04:28Z</datestamp>
      <setSpec>user-biosyslit</setSpec>
    </header>
    <header>
      <identifier>oai:zenodo.org:232890</identifier>
      <datestamp>2017-01-07T01:04:41Z</datestamp>
      <setSpec>user-biosyslit</setSpec>
    </header>
    <header>
      <identifier>oai:zenodo.org:232142</identifier>
      <datestamp>2017-01-06T11:31:27Z</datestamp>
      <setSpec>user-biosyslit</setSpec>
    </header>
    <header>
      <identifier>oai:zenodo.org:232128</identifier>
      <datestamp>2017-01-06T11:24:05Z</datestamp>
      <setSpec>user-biosyslit</setSpec>
    </header>
    <header>
      <identifier>oai:zenodo.org:232479</identifier>
      <datestamp>2017-01-06T18:21:25Z</datestamp>
      <setSpec>user-biosyslit</setSpec>
    </header>
    <header>
      <identifier>oai:zenodo.org:232905</identifier>
      <datestamp>2017-01-07T01:16:33Z</datestamp>
      <setSpec>user-biosyslit</setSpec>
    </header>
    <header>
      <identifier>oai:zenodo.org:233173</identifier>
      <datestamp>2017-01-08T01:39:39Z</datestamp>
      <setSpec>user-biosyslit</setSpec>
    </header>
    <header>
      <identifier>oai:zenodo.org:233377</identifier>
      <datestamp>2017-01-08T04:02:51Z</datestamp>
      <setSpec>user-biosyslit</setSpec>
    </header>
    <header>
      <identifier>oai:zenodo.org:233324</identifier>
      <datestamp>2017-01-08T03:29:48Z</datestamp>
      <setSpec>user-biosyslit</setSpec>
    </header>
    <header>
      <identifier>oai:zenodo.org:270540</identifier>
      <datestamp>2017-02-07T23:27:12Z</datestamp>
      <setSpec>user-biosyslit</setSpec>
    </header>
    <header>
      <identifier>oai:zenodo.org:233199</identifier>
      <datestamp>2017-01-08T02:04:43Z</datestamp>
      <setSpec>user-biosyslit</setSpec>
    </header>
    <header>
      <identifier>oai:zenodo.org:233380</identifier>
      <datestamp>2017-01-08T04:03:14Z</datestamp>
      <setSpec>user-biosyslit</setSpec>
    </header>
    <header>
      <identifier>oai:zenodo.org:233195</identifier>
      <datestamp>2017-01-08T01:58:02Z</datestamp>
      <setSpec>user-biosyslit</setSpec>
    </header>
    <header>
      <identifier>oai:zenodo.org:233255</identifier>
      <datestamp>2017-01-08T02:35:28Z</datestamp>
      <setSpec>user-biosyslit</setSpec>
    </header>
    <header>
      <identifier>oai:zenodo.org:234972</identifier>
      <datestamp>2017-01-09T04:08:15Z</datestamp>
      <setSpec>user-biosyslit</setSpec>
    </header>
    <header>
      <identifier>oai:zenodo.org:234992</identifier>
      <datestamp>2017-01-09T04:28:11Z</datestamp>
      <setSpec>user-biosyslit</setSpec>
    </header>
    <header>
      <identifier>oai:zenodo.org:234388</identifier>
      <datestamp>2017-01-08T19:01:51Z</datestamp>
      <setSpec>user-biosyslit</setSpec>
    </header>
    <header>
      <identifier>oai:zenodo.org:270751</identifier>
      <datestamp>2017-02-07T23:54:52Z</datestamp>
      <setSpec>user-biosyslit</setSpec>
    </header>
    <header>
      <identifier>oai:zenodo.org:234826</identifier>
      <datestamp>2017-01-09T02:30:11Z</datestamp>
      <setSpec>user-biosyslit</setSpec>
    </header>
    <header>
      <identifier>oai:zenodo.org:233766</identifier>
      <datestamp>2017-01-08T11:34:20Z</datestamp>
      <setSpec>user-biosyslit</setSpec>
    </header>
    <header>
      <identifier>oai:zenodo.org:234343</identifier>
      <datestamp>2017-01-08T18:35:04Z</datestamp>
      <setSpec>user-biosyslit</setSpec>
    </header>
    <header>
      <identifier>oai:zenodo.org:270989</identifier>
      <datestamp>2017-02-08T00:33:37Z</datestamp>
      <setSpec>user-biosyslit</setSpec>
    </header>
    <header>
      <identifier>oai:zenodo.org:235917</identifier>
      <datestamp>2017-01-09T16:55:45Z</datestamp>
      <setSpec>user-biosyslit</setSpec>
    </header>
    <header>
      <identifier>oai:zenodo.org:270783</identifier>
      <datestamp>2017-02-07T23:56:00Z</datestamp>
      <setSpec>user-biosyslit</setSpec>
    </header>
    <header>
      <identifier>oai:zenodo.org:235092</identifier>
      <datestamp>2017-01-09T05:27:21Z</datestamp>
      <setSpec>user-biosyslit</setSpec>
    </header>
    <header>
      <identifier>oai:zenodo.org:235116</identifier>
      <datestamp>2017-01-09T05:44:29Z</datestamp>
      <setSpec>user-biosyslit</setSpec>
    </header>
    <header>
      <identifier>oai:zenodo.org:234176</identifier>
      <datestamp>2017-01-08T15:55:43Z</datestamp>
      <setSpec>user-biosyslit</setSpec>
    </header>
    <header>
      <identifier>oai:zenodo.org:234896</identifier>
      <datestamp>2017-01-09T03:13:42Z</datestamp>
      <setSpec>user-biosyslit</setSpec>
    </header>
    <header>
      <identifier>oai:zenodo.org:235086</identifier>
      <datestamp>2017-01-09T05:27:04Z</datestamp>
      <setSpec>user-biosyslit</setSpec>
    </header>
    <header>
      <identifier>oai:zenodo.org:235740</identifier>
      <datestamp>2017-01-09T14:17:02Z</datestamp>
      <setSpec>user-biosyslit</setSpec>
    </header>
    <header>
      <identifier>oai:zenodo.org:234846</identifier>
      <datestamp>2017-01-09T02:40:38Z</datestamp>
      <setSpec>user-biosyslit</setSpec>
    </header>
    <header>
      <identifier>oai:zenodo.org:235295</identifier>
      <datestamp>2017-01-09T08:21:59Z</datestamp>
      <setSpec>user-biosyslit</setSpec>
    </header>
    <header>
      <identifier>oai:zenodo.org:234702</identifier>
      <datestamp>2017-01-09T00:06:06Z</datestamp>
      <setSpec>user-biosyslit</setSpec>
    </header>
    <header>
      <identifier>oai:zenodo.org:235526</identifier>
      <datestamp>2017-01-09T11:34:58Z</datestamp>
      <setSpec>user-biosyslit</setSpec>
    </header>
    <header>
      <identifier>oai:zenodo.org:236228</identifier>
      <datestamp>2017-01-09T20:00:19Z</datestamp>
      <setSpec>user-biosyslit</setSpec>
    </header>
    <header>
      <identifier>oai:zenodo.org:235104</identifier>
      <datestamp>2017-01-09T05:37:05Z</datestamp>
      <setSpec>user-biosyslit</setSpec>
    </header>
    <header>
      <identifier>oai:zenodo.org:235954</identifier>
      <datestamp>2017-01-09T17:09:43Z</datestamp>
      <setSpec>user-biosyslit</setSpec>
    </header>
    <header>
      <identifier>oai:zenodo.org:235259</identifier>
      <datestamp>2017-01-09T07:35:00Z</datestamp>
      <setSpec>user-biosyslit</setSpec>
    </header>
    <header>
      <identifier>oai:zenodo.org:289014</identifier>
      <datestamp>2017-02-09T22:24:42Z</datestamp>
      <setSpec>user-biosyslit</setSpec>
    </header>
    <header>
      <identifier>oai:zenodo.org:236581</identifier>
      <datestamp>2017-01-10T01:40:51Z</datestamp>
      <setSpec>user-biosyslit</setSpec>
    </header>
    <header>
      <identifier>oai:zenodo.org:235422</identifier>
      <datestamp>2017-01-09T09:58:07Z</datestamp>
      <setSpec>user-biosyslit</setSpec>
    </header>
    <header>
      <identifier>oai:zenodo.org:235919</identifier>
      <datestamp>2017-01-09T16:55:50Z</datestamp>
      <setSpec>user-biosyslit</setSpec>
    </header>
    <header>
      <identifier>oai:zenodo.org:236567</identifier>
      <datestamp>2017-01-10T01:31:31Z</datestamp>
      <setSpec>user-biosyslit</setSpec>
    </header>
    <header>
      <identifier>oai:zenodo.org:236384</identifier>
      <datestamp>2017-01-09T23:36:23Z</datestamp>
      <setSpec>user-biosyslit</setSpec>
    </header>
    <header>
      <identifier>oai:zenodo.org:235907</identifier>
      <datestamp>2017-01-09T16:55:15Z</datestamp>
      <setSpec>user-biosyslit</setSpec>
    </header>
    <header>
      <identifier>oai:zenodo.org:236687</identifier>
      <datestamp>2017-01-10T02:53:09Z</datestamp>
      <setSpec>user-biosyslit</setSpec>
    </header>
    <header>
      <identifier>oai:zenodo.org:236235</identifier>
      <datestamp>2017-01-09T20:00:43Z</datestamp>
      <setSpec>user-biosyslit</setSpec>
    </header>
    <header>
      <identifier>oai:zenodo.org:236236</identifier>
      <datestamp>2017-01-09T20:00:46Z</datestamp>
      <setSpec>user-biosyslit</setSpec>
    </header>
    <header>
      <identifier>oai:zenodo.org:236280</identifier>
      <datestamp>2017-01-09T21:40:01Z</datestamp>
      <setSpec>user-biosyslit</setSpec>
    </header>
    <header>
      <identifier>oai:zenodo.org:236244</identifier>
      <datestamp>2017-01-09T20:20:24Z</datestamp>
      <setSpec>user-biosyslit</setSpec>
    </header>
    <header>
      <identifier>oai:zenodo.org:236137</identifier>
      <datestamp>2017-01-09T18:46:58Z</datestamp>
      <setSpec>user-biosyslit</setSpec>
    </header>
    <header>
      <identifier>oai:zenodo.org:236500</identifier>
      <datestamp>2017-01-10T00:54:51Z</datestamp>
      <setSpec>user-biosyslit</setSpec>
    </header>
    <header>
      <identifier>oai:zenodo.org:271815</identifier>
      <datestamp>2017-02-08T02:43:40Z</datestamp>
      <setSpec>user-biosyslit</setSpec>
    </header>
    <header>
      <identifier>oai:zenodo.org:270790</identifier>
      <datestamp>2017-02-07T23:56:19Z</datestamp>
      <setSpec>user-biosyslit</setSpec>
    </header>
    <header>
      <identifier>oai:zenodo.org:237706</identifier>
      <datestamp>2017-01-10T18:59:42Z</datestamp>
      <setSpec>user-biosyslit</setSpec>
    </header>
    <header>
      <identifier>oai:zenodo.org:238054</identifier>
      <datestamp>2017-01-11T00:30:31Z</datestamp>
      <setSpec>user-biosyslit</setSpec>
    </header>
    <header>
      <identifier>oai:zenodo.org:289581</identifier>
      <datestamp>2017-02-09T23:51:29Z</datestamp>
      <setSpec>user-biosyslit</setSpec>
    </header>
    <header>
      <identifier>oai:zenodo.org:239073</identifier>
      <datestamp>2017-01-11T16:05:32Z</datestamp>
      <setSpec>user-biosyslit</setSpec>
    </header>
    <header>
      <identifier>oai:zenodo.org:237554</identifier>
      <datestamp>2017-01-10T16:57:02Z</datestamp>
      <setSpec>user-biosyslit</setSpec>
    </header>
    <header>
      <identifier>oai:zenodo.org:237229</identifier>
      <datestamp>2017-01-10T12:42:44Z</datestamp>
      <setSpec>user-biosyslit</setSpec>
    </header>
    <resumptionToken expirationDate="2017-08-31T15:43:51Z" cursor="12900" completeListSize="77796">.eJyNyj0LgkAYAOD_8s4S91FpQoto0qCil6IuYadIdZl4hXrif8-luebnmUBWVQkmWm3XlFC8w7pBdELRRgPJu6cQ5-vCwNNE8EbEhZu8o0eCMlLrvi0Hz86or-4oeGDFDiFJsTHEVzSGp_iVqWhI6LFnyNE9FY7-7bi8kgauyC9uy-LGEoyUXeCEI8MWyyn_PvznUz-fLfegQVvUFZiYYg3ufdHVEsxpnj-VjlEv.DIm_vw.VByTJAnlnU6NlaPIquR35Rhx7VE</resumptionToken>
  </ListIdentifiers>
</OAI-PMH>
