<?xml version='1.0' encoding='UTF-8'?>
<?xml-stylesheet type="text/xsl" href="/static/xsl/oai2.v1.0.xsl"?>
<OAI-PMH xmlns="http://www.openarchives.org/OAI/2.0/" xmlns:xsi="http://www.w3.org/2001/XMLSchema-instance" xsi:schemaLocation="http://www.openarchives.org/OAI/2.0/ http://www.openarchives.org/OAI/2.0/OAI-PMH.xsd">
  <responseDate>2017-08-31T15:44:50Z</responseDate>
  <request verb="ListIdentifiers" resumptionToken=".eJyNysEKgjAYAOB3-c8Sc2taQhfRxIOKLSW9hE0Ra1m4Qp347nnpXOfvm0BWVQkWWlFkEmogbBpbTNGaaiB59xDi3CwM_JQK3oqk8NL34Z6iDNdm6MghcDISqhuK7rpi-xif9M2QNGiMj8krU4chJX7PkGsGKh7Dq7-8kkSeyC_ekyWtLRguu8iNR6bbLCf8-_Q_n_r5HLkDDZ5FXYFFqaHBrS-6WoI1zfMHmOBRPQ.DInAcg.rzSMwcPbAZYXg_zFmOc9C7AYd0o">https://zenodo.org/oai2d</request>
  <ListIdentifiers>
    <header>
      <identifier>oai:zenodo.org:249003</identifier>
      <datestamp>2017-01-23T04:15:41Z</datestamp>
      <setSpec>openaire</setSpec>
      <setSpec>user-biosyslit</setSpec>
    </header>
    <header>
      <identifier>oai:zenodo.org:276367</identifier>
      <datestamp>2017-02-08T18:43:16Z</datestamp>
      <setSpec>user-biosyslit</setSpec>
    </header>
    <header>
      <identifier>oai:zenodo.org:249305</identifier>
      <datestamp>2017-01-17T18:33:57Z</datestamp>
      <setSpec>user-biosyslit</setSpec>
    </header>
    <header>
      <identifier>oai:zenodo.org:249957</identifier>
      <datestamp>2017-01-18T02:41:34Z</datestamp>
      <setSpec>user-biosyslit</setSpec>
    </header>
    <header>
      <identifier>oai:zenodo.org:251209</identifier>
      <datestamp>2017-01-18T20:00:31Z</datestamp>
      <setSpec>user-biosyslit</setSpec>
    </header>
    <header>
      <identifier>oai:zenodo.org:249642</identifier>
      <datestamp>2017-01-17T22:02:06Z</datestamp>
      <setSpec>user-biosyslit</setSpec>
    </header>
    <header>
      <identifier>oai:zenodo.org:250928</identifier>
      <datestamp>2017-01-18T16:25:55Z</datestamp>
      <setSpec>user-biosyslit</setSpec>
    </header>
    <header>
      <identifier>oai:zenodo.org:272530</identifier>
      <datestamp>2017-02-08T05:05:30Z</datestamp>
      <setSpec>user-biosyslit</setSpec>
    </header>
    <header>
      <identifier>oai:zenodo.org:249976</identifier>
      <datestamp>2017-01-18T02:42:40Z</datestamp>
      <setSpec>user-biosyslit</setSpec>
    </header>
    <header>
      <identifier>oai:zenodo.org:250583</identifier>
      <datestamp>2017-01-18T12:29:43Z</datestamp>
      <setSpec>user-biosyslit</setSpec>
    </header>
    <header>
      <identifier>oai:zenodo.org:250900</identifier>
      <datestamp>2017-01-18T16:11:55Z</datestamp>
      <setSpec>user-biosyslit</setSpec>
    </header>
    <header>
      <identifier>oai:zenodo.org:272673</identifier>
      <datestamp>2017-02-08T06:13:06Z</datestamp>
      <setSpec>user-biosyslit</setSpec>
    </header>
    <header>
      <identifier>oai:zenodo.org:250418</identifier>
      <datestamp>2017-01-18T10:06:49Z</datestamp>
      <setSpec>user-biosyslit</setSpec>
    </header>
    <header>
      <identifier>oai:zenodo.org:251160</identifier>
      <datestamp>2017-01-18T19:31:40Z</datestamp>
      <setSpec>user-biosyslit</setSpec>
    </header>
    <header>
      <identifier>oai:zenodo.org:250563</identifier>
      <datestamp>2017-01-18T12:28:01Z</datestamp>
      <setSpec>user-biosyslit</setSpec>
    </header>
    <header>
      <identifier>oai:zenodo.org:250835</identifier>
      <datestamp>2017-01-18T15:25:36Z</datestamp>
      <setSpec>user-biosyslit</setSpec>
    </header>
    <header>
      <identifier>oai:zenodo.org:250286</identifier>
      <datestamp>2017-01-18T07:55:22Z</datestamp>
      <setSpec>user-biosyslit</setSpec>
    </header>
    <header>
      <identifier>oai:zenodo.org:251318</identifier>
      <datestamp>2017-01-18T21:21:04Z</datestamp>
      <setSpec>user-biosyslit</setSpec>
    </header>
    <header>
      <identifier>oai:zenodo.org:272563</identifier>
      <datestamp>2017-02-08T05:08:58Z</datestamp>
      <setSpec>user-biosyslit</setSpec>
    </header>
    <header>
      <identifier>oai:zenodo.org:250278</identifier>
      <datestamp>2017-01-18T07:53:39Z</datestamp>
      <setSpec>user-biosyslit</setSpec>
    </header>
    <header>
      <identifier>oai:zenodo.org:250570</identifier>
      <datestamp>2017-01-18T12:28:32Z</datestamp>
      <setSpec>user-biosyslit</setSpec>
    </header>
    <header>
      <identifier>oai:zenodo.org:250337</identifier>
      <datestamp>2017-01-18T08:35:32Z</datestamp>
      <setSpec>user-biosyslit</setSpec>
    </header>
    <header>
      <identifier>oai:zenodo.org:250212</identifier>
      <datestamp>2017-01-18T06:54:29Z</datestamp>
      <setSpec>user-biosyslit</setSpec>
    </header>
    <header>
      <identifier>oai:zenodo.org:250917</identifier>
      <datestamp>2017-01-18T16:12:57Z</datestamp>
      <setSpec>user-biosyslit</setSpec>
    </header>
    <header>
      <identifier>oai:zenodo.org:251258</identifier>
      <datestamp>2017-01-18T20:42:58Z</datestamp>
      <setSpec>user-biosyslit</setSpec>
    </header>
    <header>
      <identifier>oai:zenodo.org:251608</identifier>
      <datestamp>2017-01-19T02:46:29Z</datestamp>
      <setSpec>user-biosyslit</setSpec>
    </header>
    <header>
      <identifier>oai:zenodo.org:251114</identifier>
      <datestamp>2017-01-18T18:51:39Z</datestamp>
      <setSpec>user-biosyslit</setSpec>
    </header>
    <header>
      <identifier>oai:zenodo.org:272683</identifier>
      <datestamp>2017-02-08T06:13:35Z</datestamp>
      <setSpec>user-biosyslit</setSpec>
    </header>
    <header>
      <identifier>oai:zenodo.org:272985</identifier>
      <datestamp>2017-02-08T06:56:54Z</datestamp>
      <setSpec>user-biosyslit</setSpec>
    </header>
    <header>
      <identifier>oai:zenodo.org:250929</identifier>
      <datestamp>2017-01-18T16:25:58Z</datestamp>
      <setSpec>user-biosyslit</setSpec>
    </header>
    <header>
      <identifier>oai:zenodo.org:272998</identifier>
      <datestamp>2017-02-08T06:57:38Z</datestamp>
      <setSpec>user-biosyslit</setSpec>
    </header>
    <header>
      <identifier>oai:zenodo.org:251222</identifier>
      <datestamp>2017-01-18T20:08:16Z</datestamp>
      <setSpec>user-biosyslit</setSpec>
    </header>
    <header>
      <identifier>oai:zenodo.org:247599</identifier>
      <datestamp>2017-01-16T17:22:32Z</datestamp>
      <setSpec>user-biosyslit</setSpec>
    </header>
    <header>
      <identifier>oai:zenodo.org:247579</identifier>
      <datestamp>2017-01-16T17:13:18Z</datestamp>
      <setSpec>user-biosyslit</setSpec>
    </header>
    <header>
      <identifier>oai:zenodo.org:247576</identifier>
      <datestamp>2017-01-16T17:13:10Z</datestamp>
      <setSpec>user-biosyslit</setSpec>
    </header>
    <header>
      <identifier>oai:zenodo.org:248359</identifier>
      <datestamp>2017-01-17T03:15:58Z</datestamp>
      <setSpec>user-biosyslit</setSpec>
    </header>
    <header>
      <identifier>oai:zenodo.org:247551</identifier>
      <datestamp>2017-01-16T17:02:27Z</datestamp>
      <setSpec>user-biosyslit</setSpec>
    </header>
    <header>
      <identifier>oai:zenodo.org:248000</identifier>
      <datestamp>2017-01-16T22:34:23Z</datestamp>
      <setSpec>user-biosyslit</setSpec>
    </header>
    <header>
      <identifier>oai:zenodo.org:247573</identifier>
      <datestamp>2017-01-16T17:13:01Z</datestamp>
      <setSpec>user-biosyslit</setSpec>
    </header>
    <header>
      <identifier>oai:zenodo.org:247541</identifier>
      <datestamp>2017-01-16T16:48:14Z</datestamp>
      <setSpec>user-biosyslit</setSpec>
    </header>
    <header>
      <identifier>oai:zenodo.org:248216</identifier>
      <datestamp>2017-01-17T01:10:17Z</datestamp>
      <setSpec>user-biosyslit</setSpec>
    </header>
    <header>
      <identifier>oai:zenodo.org:247846</identifier>
      <datestamp>2017-01-16T20:47:48Z</datestamp>
      <setSpec>user-biosyslit</setSpec>
    </header>
    <header>
      <identifier>oai:zenodo.org:248169</identifier>
      <datestamp>2017-01-17T00:43:26Z</datestamp>
      <setSpec>user-biosyslit</setSpec>
    </header>
    <header>
      <identifier>oai:zenodo.org:248155</identifier>
      <datestamp>2017-01-17T00:42:35Z</datestamp>
      <setSpec>user-biosyslit</setSpec>
    </header>
    <header>
      <identifier>oai:zenodo.org:248428</identifier>
      <datestamp>2017-01-17T03:58:26Z</datestamp>
      <setSpec>user-biosyslit</setSpec>
    </header>
    <header>
      <identifier>oai:zenodo.org:248704</identifier>
      <datestamp>2017-01-17T08:28:35Z</datestamp>
      <setSpec>user-biosyslit</setSpec>
    </header>
    <header>
      <identifier>oai:zenodo.org:248932</identifier>
      <datestamp>2017-01-17T13:54:43Z</datestamp>
      <setSpec>user-biosyslit</setSpec>
    </header>
    <header>
      <identifier>oai:zenodo.org:249856</identifier>
      <datestamp>2017-01-18T00:41:05Z</datestamp>
      <setSpec>user-biosyslit</setSpec>
    </header>
    <header>
      <identifier>oai:zenodo.org:248708</identifier>
      <datestamp>2017-01-17T08:28:47Z</datestamp>
      <setSpec>user-biosyslit</setSpec>
    </header>
    <header>
      <identifier>oai:zenodo.org:250200</identifier>
      <datestamp>2017-01-18T06:53:43Z</datestamp>
      <setSpec>user-biosyslit</setSpec>
    </header>
    <header>
      <identifier>oai:zenodo.org:249094</identifier>
      <datestamp>2017-01-17T16:15:04Z</datestamp>
      <setSpec>user-biosyslit</setSpec>
    </header>
    <header>
      <identifier>oai:zenodo.org:249641</identifier>
      <datestamp>2017-01-17T22:02:02Z</datestamp>
      <setSpec>user-biosyslit</setSpec>
    </header>
    <header>
      <identifier>oai:zenodo.org:250834</identifier>
      <datestamp>2017-01-18T15:25:54Z</datestamp>
      <setSpec>user-biosyslit</setSpec>
    </header>
    <header>
      <identifier>oai:zenodo.org:250469</identifier>
      <datestamp>2017-01-18T10:40:02Z</datestamp>
      <setSpec>user-biosyslit</setSpec>
    </header>
    <header>
      <identifier>oai:zenodo.org:251217</identifier>
      <datestamp>2017-01-18T20:08:37Z</datestamp>
      <setSpec>user-biosyslit</setSpec>
    </header>
    <header>
      <identifier>oai:zenodo.org:250959</identifier>
      <datestamp>2017-01-18T16:53:29Z</datestamp>
      <setSpec>user-biosyslit</setSpec>
    </header>
    <header>
      <identifier>oai:zenodo.org:249616</identifier>
      <datestamp>2017-01-17T21:41:48Z</datestamp>
      <setSpec>user-biosyslit</setSpec>
    </header>
    <header>
      <identifier>oai:zenodo.org:249719</identifier>
      <datestamp>2017-01-17T23:05:01Z</datestamp>
      <setSpec>user-biosyslit</setSpec>
    </header>
    <header>
      <identifier>oai:zenodo.org:250324</identifier>
      <datestamp>2017-01-18T08:25:46Z</datestamp>
      <setSpec>user-biosyslit</setSpec>
    </header>
    <header>
      <identifier>oai:zenodo.org:251094</identifier>
      <datestamp>2017-01-18T18:43:54Z</datestamp>
      <setSpec>user-biosyslit</setSpec>
    </header>
    <header>
      <identifier>oai:zenodo.org:251128</identifier>
      <datestamp>2017-01-18T19:12:29Z</datestamp>
      <setSpec>user-biosyslit</setSpec>
    </header>
    <header>
      <identifier>oai:zenodo.org:251146</identifier>
      <datestamp>2017-01-18T19:30:48Z</datestamp>
      <setSpec>user-biosyslit</setSpec>
    </header>
    <header>
      <identifier>oai:zenodo.org:249963</identifier>
      <datestamp>2017-01-18T02:41:52Z</datestamp>
      <setSpec>user-biosyslit</setSpec>
    </header>
    <header>
      <identifier>oai:zenodo.org:250249</identifier>
      <datestamp>2017-01-18T07:29:11Z</datestamp>
      <setSpec>user-biosyslit</setSpec>
    </header>
    <header>
      <identifier>oai:zenodo.org:272718</identifier>
      <datestamp>2017-02-08T06:15:15Z</datestamp>
      <setSpec>user-biosyslit</setSpec>
    </header>
    <header>
      <identifier>oai:zenodo.org:250606</identifier>
      <datestamp>2017-01-18T13:00:40Z</datestamp>
      <setSpec>user-biosyslit</setSpec>
    </header>
    <header>
      <identifier>oai:zenodo.org:250111</identifier>
      <datestamp>2017-01-18T05:06:36Z</datestamp>
      <setSpec>user-biosyslit</setSpec>
    </header>
    <header>
      <identifier>oai:zenodo.org:250551</identifier>
      <datestamp>2017-01-18T11:56:20Z</datestamp>
      <setSpec>user-biosyslit</setSpec>
    </header>
    <header>
      <identifier>oai:zenodo.org:251147</identifier>
      <datestamp>2017-01-18T19:30:51Z</datestamp>
      <setSpec>user-biosyslit</setSpec>
    </header>
    <header>
      <identifier>oai:zenodo.org:250595</identifier>
      <datestamp>2017-01-18T12:30:27Z</datestamp>
      <setSpec>user-biosyslit</setSpec>
    </header>
    <header>
      <identifier>oai:zenodo.org:250594</identifier>
      <datestamp>2017-01-18T12:30:23Z</datestamp>
      <setSpec>user-biosyslit</setSpec>
    </header>
    <header>
      <identifier>oai:zenodo.org:251646</identifier>
      <datestamp>2017-01-19T02:48:53Z</datestamp>
      <setSpec>user-biosyslit</setSpec>
    </header>
    <header>
      <identifier>oai:zenodo.org:272600</identifier>
      <datestamp>2017-02-08T05:21:21Z</datestamp>
      <setSpec>user-biosyslit</setSpec>
    </header>
    <header>
      <identifier>oai:zenodo.org:250581</identifier>
      <datestamp>2017-01-18T12:29:35Z</datestamp>
      <setSpec>user-biosyslit</setSpec>
    </header>
    <header>
      <identifier>oai:zenodo.org:251301</identifier>
      <datestamp>2017-01-18T21:20:04Z</datestamp>
      <setSpec>user-biosyslit</setSpec>
    </header>
    <header>
      <identifier>oai:zenodo.org:273072</identifier>
      <datestamp>2017-02-08T07:00:59Z</datestamp>
      <setSpec>user-biosyslit</setSpec>
    </header>
    <header>
      <identifier>oai:zenodo.org:272991</identifier>
      <datestamp>2017-02-08T06:57:13Z</datestamp>
      <setSpec>user-biosyslit</setSpec>
    </header>
    <header>
      <identifier>oai:zenodo.org:272722</identifier>
      <datestamp>2017-02-08T06:15:27Z</datestamp>
      <setSpec>user-biosyslit</setSpec>
    </header>
    <header>
      <identifier>oai:zenodo.org:251653</identifier>
      <datestamp>2017-01-19T02:49:15Z</datestamp>
      <setSpec>user-biosyslit</setSpec>
    </header>
    <header>
      <identifier>oai:zenodo.org:272876</identifier>
      <datestamp>2017-02-08T06:31:45Z</datestamp>
      <setSpec>user-biosyslit</setSpec>
    </header>
    <header>
      <identifier>oai:zenodo.org:272973</identifier>
      <datestamp>2017-02-08T06:56:15Z</datestamp>
      <setSpec>user-biosyslit</setSpec>
    </header>
    <header>
      <identifier>oai:zenodo.org:272839</identifier>
      <datestamp>2017-02-08T06:29:58Z</datestamp>
      <setSpec>user-biosyslit</setSpec>
    </header>
    <header>
      <identifier>oai:zenodo.org:273122</identifier>
      <datestamp>2017-02-08T07:19:56Z</datestamp>
      <setSpec>user-biosyslit</setSpec>
    </header>
    <header>
      <identifier>oai:zenodo.org:251305</identifier>
      <datestamp>2017-01-18T21:20:16Z</datestamp>
      <setSpec>user-biosyslit</setSpec>
    </header>
    <header>
      <identifier>oai:zenodo.org:251314</identifier>
      <datestamp>2017-01-18T21:20:47Z</datestamp>
      <setSpec>user-biosyslit</setSpec>
    </header>
    <header>
      <identifier>oai:zenodo.org:247251</identifier>
      <datestamp>2017-01-16T13:30:01Z</datestamp>
      <setSpec>user-biosyslit</setSpec>
    </header>
    <header>
      <identifier>oai:zenodo.org:249056</identifier>
      <datestamp>2017-01-17T15:45:14Z</datestamp>
      <setSpec>user-biosyslit</setSpec>
    </header>
    <header>
      <identifier>oai:zenodo.org:247612</identifier>
      <datestamp>2017-01-16T17:29:14Z</datestamp>
      <setSpec>user-biosyslit</setSpec>
    </header>
    <header>
      <identifier>oai:zenodo.org:247586</identifier>
      <datestamp>2017-01-16T17:13:42Z</datestamp>
      <setSpec>user-biosyslit</setSpec>
    </header>
    <header>
      <identifier>oai:zenodo.org:247819</identifier>
      <datestamp>2017-01-16T20:14:16Z</datestamp>
      <setSpec>user-biosyslit</setSpec>
    </header>
    <header>
      <identifier>oai:zenodo.org:248362</identifier>
      <datestamp>2017-01-17T03:16:09Z</datestamp>
      <setSpec>user-biosyslit</setSpec>
    </header>
    <header>
      <identifier>oai:zenodo.org:247957</identifier>
      <datestamp>2017-01-16T22:07:47Z</datestamp>
      <setSpec>user-biosyslit</setSpec>
    </header>
    <header>
      <identifier>oai:zenodo.org:248476</identifier>
      <datestamp>2017-01-17T04:36:11Z</datestamp>
      <setSpec>user-biosyslit</setSpec>
    </header>
    <header>
      <identifier>oai:zenodo.org:248127</identifier>
      <datestamp>2017-01-17T00:25:40Z</datestamp>
      <setSpec>user-biosyslit</setSpec>
    </header>
    <header>
      <identifier>oai:zenodo.org:248680</identifier>
      <datestamp>2017-01-17T08:12:30Z</datestamp>
      <setSpec>user-biosyslit</setSpec>
    </header>
    <header>
      <identifier>oai:zenodo.org:248369</identifier>
      <datestamp>2017-01-17T03:16:34Z</datestamp>
      <setSpec>user-biosyslit</setSpec>
    </header>
    <header>
      <identifier>oai:zenodo.org:248918</identifier>
      <datestamp>2017-01-17T13:46:33Z</datestamp>
      <setSpec>user-biosyslit</setSpec>
    </header>
    <header>
      <identifier>oai:zenodo.org:249128</identifier>
      <datestamp>2017-01-17T16:37:57Z</datestamp>
      <setSpec>user-biosyslit</setSpec>
    </header>
    <header>
      <identifier>oai:zenodo.org:250155</identifier>
      <datestamp>2017-01-18T05:29:16Z</datestamp>
      <setSpec>user-biosyslit</setSpec>
    </header>
    <header>
      <identifier>oai:zenodo.org:249840</identifier>
      <datestamp>2017-01-18T00:40:06Z</datestamp>
      <setSpec>user-biosyslit</setSpec>
    </header>
    <resumptionToken expirationDate="2017-08-31T15:46:50Z" cursor="55500" completeListSize="77796">.eJyNyk0LgjAYAOD_8p4l9lFOhC6hSQeVuRzqJUxFylXiinTRf89L5zo_zwt009TgogWmBC0ZRo5jO9hmNrFAV8NNqcNpdqgyqaqrSstAPpKLRDlpWeTpMfRyGpkOxRdsxJaTDDtjekIT36f33CSjpLunQD4LDZ-i825-NY0DVRyDXqTXjRKkHmKfTwJvREGr78N_PvPzeXoNFvRl24C7WjELumc5tBrc1_v9Ac0bUXI.DInAcg.6quD39R-vU4fDGY19R1aER6N9_M</resumptionToken>
  </ListIdentifiers>
</OAI-PMH>
