<?xml version='1.0' encoding='UTF-8'?>
<?xml-stylesheet type="text/xsl" href="/static/xsl/oai2.v1.0.xsl"?>
<OAI-PMH xmlns="http://www.openarchives.org/OAI/2.0/" xmlns:xsi="http://www.w3.org/2001/XMLSchema-instance" xsi:schemaLocation="http://www.openarchives.org/OAI/2.0/ http://www.openarchives.org/OAI/2.0/OAI-PMH.xsd">
  <responseDate>2017-08-31T15:44:33Z</responseDate>
  <request verb="ListIdentifiers" resumptionToken=".eJyNyj0LgkAYAOD_8s4S95FdCi2iiYOKXUq6hKmIdVl4hXrif8-luebnmUBWVQkmWq0ZMwjRGaOGgchG1zWQRfcQ4twsDsUpEUUr4txN3od7glJSs8CWg2-nNFA3FN6x4vuInPB2iBs0Rsf4larDkFCv58hhvorG4Ootr6ShK7KL--RxawlOyi50opFji2e0-D7851M_ny13oMEzryswdcw0uPV5V0swp3n-AN7jUYE.DInAYQ.6BAveW1LadsX81ij2yoqcgoChOc">https://zenodo.org/oai2d</request>
  <ListIdentifiers>
    <header>
      <identifier>oai:zenodo.org:241328</identifier>
      <datestamp>2017-01-13T00:00:36Z</datestamp>
      <setSpec>user-biosyslit</setSpec>
    </header>
    <header>
      <identifier>oai:zenodo.org:271606</identifier>
      <datestamp>2017-02-08T02:03:14Z</datestamp>
      <setSpec>user-biosyslit</setSpec>
    </header>
    <header>
      <identifier>oai:zenodo.org:271935</identifier>
      <datestamp>2017-02-08T03:07:18Z</datestamp>
      <setSpec>user-biosyslit</setSpec>
    </header>
    <header>
      <identifier>oai:zenodo.org:278830</identifier>
      <datestamp>2017-02-08T23:57:36Z</datestamp>
      <setSpec>user-biosyslit</setSpec>
    </header>
    <header>
      <identifier>oai:zenodo.org:278854</identifier>
      <datestamp>2017-02-08T23:59:49Z</datestamp>
      <setSpec>user-biosyslit</setSpec>
    </header>
    <header>
      <identifier>oai:zenodo.org:272334</identifier>
      <datestamp>2017-02-08T04:17:58Z</datestamp>
      <setSpec>user-biosyslit</setSpec>
    </header>
    <header>
      <identifier>oai:zenodo.org:272245</identifier>
      <datestamp>2017-02-08T04:04:38Z</datestamp>
      <setSpec>user-biosyslit</setSpec>
    </header>
    <header>
      <identifier>oai:zenodo.org:272117</identifier>
      <datestamp>2017-02-08T03:46:12Z</datestamp>
      <setSpec>user-biosyslit</setSpec>
    </header>
    <header>
      <identifier>oai:zenodo.org:272366</identifier>
      <datestamp>2017-02-08T04:22:18Z</datestamp>
      <setSpec>user-biosyslit</setSpec>
    </header>
    <header>
      <identifier>oai:zenodo.org:272610</identifier>
      <datestamp>2017-02-08T05:41:57Z</datestamp>
      <setSpec>user-biosyslit</setSpec>
    </header>
    <header>
      <identifier>oai:zenodo.org:278977</identifier>
      <datestamp>2017-02-09T00:21:14Z</datestamp>
      <setSpec>user-biosyslit</setSpec>
    </header>
    <header>
      <identifier>oai:zenodo.org:241741</identifier>
      <datestamp>2017-01-13T05:31:07Z</datestamp>
      <setSpec>user-biosyslit</setSpec>
    </header>
    <header>
      <identifier>oai:zenodo.org:279092</identifier>
      <datestamp>2017-02-09T00:36:01Z</datestamp>
      <setSpec>user-biosyslit</setSpec>
    </header>
    <header>
      <identifier>oai:zenodo.org:243508</identifier>
      <datestamp>2017-01-14T06:42:50Z</datestamp>
      <setSpec>user-biosyslit</setSpec>
    </header>
    <header>
      <identifier>oai:zenodo.org:242092</identifier>
      <datestamp>2017-01-13T10:23:17Z</datestamp>
      <setSpec>user-biosyslit</setSpec>
    </header>
    <header>
      <identifier>oai:zenodo.org:280288</identifier>
      <datestamp>2017-02-09T03:07:49Z</datestamp>
      <setSpec>user-biosyslit</setSpec>
    </header>
    <header>
      <identifier>oai:zenodo.org:243347</identifier>
      <datestamp>2017-01-14T03:00:51Z</datestamp>
      <setSpec>user-biosyslit</setSpec>
    </header>
    <header>
      <identifier>oai:zenodo.org:243459</identifier>
      <datestamp>2017-01-14T06:05:41Z</datestamp>
      <setSpec>user-biosyslit</setSpec>
    </header>
    <header>
      <identifier>oai:zenodo.org:242212</identifier>
      <datestamp>2017-01-13T12:02:55Z</datestamp>
      <setSpec>user-biosyslit</setSpec>
    </header>
    <header>
      <identifier>oai:zenodo.org:243070</identifier>
      <datestamp>2017-01-13T22:55:23Z</datestamp>
      <setSpec>user-biosyslit</setSpec>
    </header>
    <header>
      <identifier>oai:zenodo.org:244723</identifier>
      <datestamp>2017-01-15T01:38:34Z</datestamp>
      <setSpec>user-biosyslit</setSpec>
    </header>
    <header>
      <identifier>oai:zenodo.org:243222</identifier>
      <datestamp>2017-01-14T00:48:31Z</datestamp>
      <setSpec>user-biosyslit</setSpec>
    </header>
    <header>
      <identifier>oai:zenodo.org:243417</identifier>
      <datestamp>2017-01-14T05:35:31Z</datestamp>
      <setSpec>user-biosyslit</setSpec>
    </header>
    <header>
      <identifier>oai:zenodo.org:243160</identifier>
      <datestamp>2017-01-14T00:03:47Z</datestamp>
      <setSpec>user-biosyslit</setSpec>
    </header>
    <header>
      <identifier>oai:zenodo.org:244673</identifier>
      <datestamp>2017-01-15T01:09:53Z</datestamp>
      <setSpec>user-biosyslit</setSpec>
    </header>
    <header>
      <identifier>oai:zenodo.org:279460</identifier>
      <datestamp>2017-02-09T01:22:43Z</datestamp>
      <setSpec>user-biosyslit</setSpec>
    </header>
    <header>
      <identifier>oai:zenodo.org:243848</identifier>
      <datestamp>2017-01-14T11:46:28Z</datestamp>
      <setSpec>user-biosyslit</setSpec>
    </header>
    <header>
      <identifier>oai:zenodo.org:244939</identifier>
      <datestamp>2017-01-15T05:40:31Z</datestamp>
      <setSpec>user-biosyslit</setSpec>
    </header>
    <header>
      <identifier>oai:zenodo.org:272232</identifier>
      <datestamp>2017-02-08T04:03:16Z</datestamp>
      <setSpec>user-biosyslit</setSpec>
    </header>
    <header>
      <identifier>oai:zenodo.org:245712</identifier>
      <datestamp>2017-01-15T17:45:22Z</datestamp>
      <setSpec>user-biosyslit</setSpec>
    </header>
    <header>
      <identifier>oai:zenodo.org:245280</identifier>
      <datestamp>2017-01-15T11:15:44Z</datestamp>
      <setSpec>user-biosyslit</setSpec>
    </header>
    <header>
      <identifier>oai:zenodo.org:246340</identifier>
      <datestamp>2017-01-16T01:14:42Z</datestamp>
      <setSpec>user-biosyslit</setSpec>
    </header>
    <header>
      <identifier>oai:zenodo.org:246792</identifier>
      <datestamp>2017-01-16T08:22:44Z</datestamp>
      <setSpec>user-biosyslit</setSpec>
    </header>
    <header>
      <identifier>oai:zenodo.org:246586</identifier>
      <datestamp>2017-01-16T04:20:20Z</datestamp>
      <setSpec>user-biosyslit</setSpec>
    </header>
    <header>
      <identifier>oai:zenodo.org:246345</identifier>
      <datestamp>2017-01-16T01:14:59Z</datestamp>
      <setSpec>user-biosyslit</setSpec>
    </header>
    <header>
      <identifier>oai:zenodo.org:246036</identifier>
      <datestamp>2017-01-15T21:18:18Z</datestamp>
      <setSpec>user-biosyslit</setSpec>
    </header>
    <header>
      <identifier>oai:zenodo.org:246734</identifier>
      <datestamp>2017-01-16T07:16:55Z</datestamp>
      <setSpec>user-biosyslit</setSpec>
    </header>
    <header>
      <identifier>oai:zenodo.org:246828</identifier>
      <datestamp>2017-01-16T09:09:58Z</datestamp>
      <setSpec>user-biosyslit</setSpec>
    </header>
    <header>
      <identifier>oai:zenodo.org:246616</identifier>
      <datestamp>2017-01-16T04:43:05Z</datestamp>
      <setSpec>user-biosyslit</setSpec>
    </header>
    <header>
      <identifier>oai:zenodo.org:247817</identifier>
      <datestamp>2017-01-16T20:13:49Z</datestamp>
      <setSpec>user-biosyslit</setSpec>
    </header>
    <header>
      <identifier>oai:zenodo.org:247553</identifier>
      <datestamp>2017-01-16T17:02:04Z</datestamp>
      <setSpec>user-biosyslit</setSpec>
    </header>
    <header>
      <identifier>oai:zenodo.org:247587</identifier>
      <datestamp>2017-01-16T17:13:45Z</datestamp>
      <setSpec>user-biosyslit</setSpec>
    </header>
    <header>
      <identifier>oai:zenodo.org:248770</identifier>
      <datestamp>2017-01-17T10:47:53Z</datestamp>
      <setSpec>user-biosyslit</setSpec>
    </header>
    <header>
      <identifier>oai:zenodo.org:248699</identifier>
      <datestamp>2017-01-17T08:29:43Z</datestamp>
      <setSpec>user-biosyslit</setSpec>
    </header>
    <header>
      <identifier>oai:zenodo.org:248247</identifier>
      <datestamp>2017-01-17T01:43:09Z</datestamp>
      <setSpec>user-biosyslit</setSpec>
    </header>
    <header>
      <identifier>oai:zenodo.org:248276</identifier>
      <datestamp>2017-01-17T02:16:42Z</datestamp>
      <setSpec>user-biosyslit</setSpec>
    </header>
    <header>
      <identifier>oai:zenodo.org:249092</identifier>
      <datestamp>2017-01-17T16:14:57Z</datestamp>
      <setSpec>user-biosyslit</setSpec>
    </header>
    <header>
      <identifier>oai:zenodo.org:248925</identifier>
      <datestamp>2017-01-17T13:54:17Z</datestamp>
      <setSpec>user-biosyslit</setSpec>
    </header>
    <header>
      <identifier>oai:zenodo.org:249129</identifier>
      <datestamp>2017-01-17T16:38:00Z</datestamp>
      <setSpec>user-biosyslit</setSpec>
    </header>
    <header>
      <identifier>oai:zenodo.org:250121</identifier>
      <datestamp>2017-01-18T05:07:18Z</datestamp>
      <setSpec>user-biosyslit</setSpec>
    </header>
    <header>
      <identifier>oai:zenodo.org:249718</identifier>
      <datestamp>2017-01-17T23:05:52Z</datestamp>
      <setSpec>user-biosyslit</setSpec>
    </header>
    <header>
      <identifier>oai:zenodo.org:250175</identifier>
      <datestamp>2017-01-18T05:45:36Z</datestamp>
      <setSpec>user-biosyslit</setSpec>
    </header>
    <header>
      <identifier>oai:zenodo.org:250659</identifier>
      <datestamp>2017-01-18T14:02:09Z</datestamp>
      <setSpec>user-biosyslit</setSpec>
    </header>
    <header>
      <identifier>oai:zenodo.org:251291</identifier>
      <datestamp>2017-01-18T21:19:31Z</datestamp>
      <setSpec>user-biosyslit</setSpec>
    </header>
    <header>
      <identifier>oai:zenodo.org:250328</identifier>
      <datestamp>2017-01-18T08:30:47Z</datestamp>
      <setSpec>user-biosyslit</setSpec>
    </header>
    <header>
      <identifier>oai:zenodo.org:251615</identifier>
      <datestamp>2017-01-19T02:46:52Z</datestamp>
      <setSpec>user-biosyslit</setSpec>
    </header>
    <header>
      <identifier>oai:zenodo.org:235912</identifier>
      <datestamp>2017-01-09T16:55:30Z</datestamp>
      <setSpec>user-biosyslit</setSpec>
    </header>
    <header>
      <identifier>oai:zenodo.org:277016</identifier>
      <datestamp>2017-02-08T20:12:35Z</datestamp>
      <setSpec>user-biosyslit</setSpec>
    </header>
    <header>
      <identifier>oai:zenodo.org:235500</identifier>
      <datestamp>2017-01-09T10:42:02Z</datestamp>
      <setSpec>user-biosyslit</setSpec>
    </header>
    <header>
      <identifier>oai:zenodo.org:276924</identifier>
      <datestamp>2017-02-08T19:58:14Z</datestamp>
      <setSpec>user-biosyslit</setSpec>
    </header>
    <header>
      <identifier>oai:zenodo.org:235646</identifier>
      <datestamp>2017-01-09T13:12:09Z</datestamp>
      <setSpec>user-biosyslit</setSpec>
    </header>
    <header>
      <identifier>oai:zenodo.org:277813</identifier>
      <datestamp>2017-02-08T21:52:11Z</datestamp>
      <setSpec>user-biosyslit</setSpec>
    </header>
    <header>
      <identifier>oai:zenodo.org:277169</identifier>
      <datestamp>2017-02-08T20:32:51Z</datestamp>
      <setSpec>user-biosyslit</setSpec>
    </header>
    <header>
      <identifier>oai:zenodo.org:237657</identifier>
      <datestamp>2017-01-10T18:29:43Z</datestamp>
      <setSpec>user-biosyslit</setSpec>
    </header>
    <header>
      <identifier>oai:zenodo.org:236993</identifier>
      <datestamp>2017-01-10T09:17:40Z</datestamp>
      <setSpec>user-biosyslit</setSpec>
    </header>
    <header>
      <identifier>oai:zenodo.org:277102</identifier>
      <datestamp>2017-02-08T20:24:21Z</datestamp>
      <setSpec>user-biosyslit</setSpec>
    </header>
    <header>
      <identifier>oai:zenodo.org:236652</identifier>
      <datestamp>2017-01-10T02:30:32Z</datestamp>
      <setSpec>user-biosyslit</setSpec>
    </header>
    <header>
      <identifier>oai:zenodo.org:277433</identifier>
      <datestamp>2017-02-08T21:08:26Z</datestamp>
      <setSpec>user-biosyslit</setSpec>
    </header>
    <header>
      <identifier>oai:zenodo.org:237883</identifier>
      <datestamp>2017-01-10T22:06:11Z</datestamp>
      <setSpec>user-biosyslit</setSpec>
    </header>
    <header>
      <identifier>oai:zenodo.org:277529</identifier>
      <datestamp>2017-02-08T21:17:47Z</datestamp>
      <setSpec>user-biosyslit</setSpec>
    </header>
    <header>
      <identifier>oai:zenodo.org:277418</identifier>
      <datestamp>2017-02-08T21:06:11Z</datestamp>
      <setSpec>user-biosyslit</setSpec>
    </header>
    <header>
      <identifier>oai:zenodo.org:238712</identifier>
      <datestamp>2017-01-11T10:49:33Z</datestamp>
      <setSpec>user-biosyslit</setSpec>
    </header>
    <header>
      <identifier>oai:zenodo.org:271027</identifier>
      <datestamp>2017-02-08T00:37:33Z</datestamp>
      <setSpec>user-biosyslit</setSpec>
    </header>
    <header>
      <identifier>oai:zenodo.org:237785</identifier>
      <datestamp>2017-01-10T20:48:14Z</datestamp>
      <setSpec>user-biosyslit</setSpec>
    </header>
    <header>
      <identifier>oai:zenodo.org:271798</identifier>
      <datestamp>2017-02-08T02:41:29Z</datestamp>
      <setSpec>user-biosyslit</setSpec>
    </header>
    <header>
      <identifier>oai:zenodo.org:271089</identifier>
      <datestamp>2017-02-08T00:44:46Z</datestamp>
      <setSpec>user-biosyslit</setSpec>
    </header>
    <header>
      <identifier>oai:zenodo.org:238830</identifier>
      <datestamp>2017-01-11T11:24:59Z</datestamp>
      <setSpec>user-biosyslit</setSpec>
    </header>
    <header>
      <identifier>oai:zenodo.org:278028</identifier>
      <datestamp>2017-02-08T22:18:19Z</datestamp>
      <setSpec>user-biosyslit</setSpec>
    </header>
    <header>
      <identifier>oai:zenodo.org:237887</identifier>
      <datestamp>2017-01-10T22:06:27Z</datestamp>
      <setSpec>user-biosyslit</setSpec>
    </header>
    <header>
      <identifier>oai:zenodo.org:238073</identifier>
      <datestamp>2017-01-11T00:42:20Z</datestamp>
      <setSpec>user-biosyslit</setSpec>
    </header>
    <header>
      <identifier>oai:zenodo.org:239398</identifier>
      <datestamp>2017-01-11T19:57:18Z</datestamp>
      <setSpec>user-biosyslit</setSpec>
    </header>
    <header>
      <identifier>oai:zenodo.org:237923</identifier>
      <datestamp>2017-01-10T22:25:38Z</datestamp>
      <setSpec>user-biosyslit</setSpec>
    </header>
    <header>
      <identifier>oai:zenodo.org:271745</identifier>
      <datestamp>2017-02-08T02:31:27Z</datestamp>
      <setSpec>user-biosyslit</setSpec>
    </header>
    <header>
      <identifier>oai:zenodo.org:238518</identifier>
      <datestamp>2017-01-11T06:52:38Z</datestamp>
      <setSpec>user-biosyslit</setSpec>
    </header>
    <header>
      <identifier>oai:zenodo.org:238500</identifier>
      <datestamp>2017-01-11T06:40:11Z</datestamp>
      <setSpec>user-biosyslit</setSpec>
    </header>
    <header>
      <identifier>oai:zenodo.org:239720</identifier>
      <datestamp>2017-01-12T00:01:17Z</datestamp>
      <setSpec>user-biosyslit</setSpec>
    </header>
    <header>
      <identifier>oai:zenodo.org:271809</identifier>
      <datestamp>2017-02-08T02:43:16Z</datestamp>
      <setSpec>user-biosyslit</setSpec>
    </header>
    <header>
      <identifier>oai:zenodo.org:239724</identifier>
      <datestamp>2017-01-12T00:01:30Z</datestamp>
      <setSpec>user-biosyslit</setSpec>
    </header>
    <header>
      <identifier>oai:zenodo.org:238816</identifier>
      <datestamp>2017-01-11T11:24:08Z</datestamp>
      <setSpec>user-biosyslit</setSpec>
    </header>
    <header>
      <identifier>oai:zenodo.org:240481</identifier>
      <datestamp>2017-01-12T09:05:15Z</datestamp>
      <setSpec>user-biosyslit</setSpec>
    </header>
    <header>
      <identifier>oai:zenodo.org:279207</identifier>
      <datestamp>2017-02-09T00:48:37Z</datestamp>
      <setSpec>user-biosyslit</setSpec>
    </header>
    <header>
      <identifier>oai:zenodo.org:278063</identifier>
      <datestamp>2017-02-08T22:21:56Z</datestamp>
      <setSpec>user-biosyslit</setSpec>
    </header>
    <header>
      <identifier>oai:zenodo.org:278207</identifier>
      <datestamp>2017-02-08T22:40:00Z</datestamp>
      <setSpec>user-biosyslit</setSpec>
    </header>
    <header>
      <identifier>oai:zenodo.org:278190</identifier>
      <datestamp>2017-02-08T22:37:34Z</datestamp>
      <setSpec>user-biosyslit</setSpec>
    </header>
    <header>
      <identifier>oai:zenodo.org:279216</identifier>
      <datestamp>2017-02-09T00:49:04Z</datestamp>
      <setSpec>user-biosyslit</setSpec>
    </header>
    <header>
      <identifier>oai:zenodo.org:239828</identifier>
      <datestamp>2017-01-12T01:22:32Z</datestamp>
      <setSpec>user-biosyslit</setSpec>
    </header>
    <header>
      <identifier>oai:zenodo.org:271496</identifier>
      <datestamp>2017-02-08T01:49:16Z</datestamp>
      <setSpec>user-biosyslit</setSpec>
    </header>
    <header>
      <identifier>oai:zenodo.org:278254</identifier>
      <datestamp>2017-02-08T22:44:14Z</datestamp>
      <setSpec>user-biosyslit</setSpec>
    </header>
    <header>
      <identifier>oai:zenodo.org:278176</identifier>
      <datestamp>2017-02-08T22:36:54Z</datestamp>
      <setSpec>user-biosyslit</setSpec>
    </header>
    <header>
      <identifier>oai:zenodo.org:278505</identifier>
      <datestamp>2017-02-08T23:17:44Z</datestamp>
      <setSpec>user-biosyslit</setSpec>
    </header>
    <resumptionToken expirationDate="2017-08-31T15:46:33Z" cursor="51600" completeListSize="77796">.eJyNysEKgjAYAOB3-c8S-125FLqEJR1UbE2yS9gUKaeJK9JF716XznX-vifosizAIxMkM4aO7bpTJMxxGbNAy_6q1PH8cZD7VMlWiTxI79smJZldscjXQ-hnNDI1iRs0fJ3Ye5wP4kzGZCdumdkOKd08OFmx0CRjdNl8XkHjQB1OQcdFu1TcLvp4lYwcl_xA5ffhn8_8fL5egAVdXpXgzXBuQf3I-0qD93y93tcAUXo.DInAYQ.vYWyzN4GXlsf-ByLqjhinztUN9A</resumptionToken>
  </ListIdentifiers>
</OAI-PMH>
