<?xml version='1.0' encoding='UTF-8'?>
<?xml-stylesheet type="text/xsl" href="/static/xsl/oai2.v1.0.xsl"?>
<OAI-PMH xmlns="http://www.openarchives.org/OAI/2.0/" xmlns:xsi="http://www.w3.org/2001/XMLSchema-instance" xsi:schemaLocation="http://www.openarchives.org/OAI/2.0/ http://www.openarchives.org/OAI/2.0/OAI-PMH.xsd">
  <responseDate>2017-08-31T15:46:04Z</responseDate>
  <request verb="ListIdentifiers" resumptionToken=".eJyNyj0LgkAYAOD_8s4S95F6CS1hSYOKXkq6hJ0i1lnhFeqF_z2X5nrm5w2qqkpw0AJhxOiKWSZeWYxRi5gGKNHdpTw1cwBxTKW4yaTw0lfcpigjtR24avDdjAb6isIWa76LyBGzIWnQGB2SZ6bjIaX7nqOt7etoDC77-ZU09GR-9h48uW0kJ2UXbqOR4w3Pqfg-_OfTP5-r1mDAo6grcGyyNODaF12twHlP0wcOtFGw.DInAvA.U1vu1mmeF7POXh8kIQL13ylOhSk">https://zenodo.org/oai2d</request>
  <ListIdentifiers>
    <header>
      <identifier>oai:zenodo.org:233106</identifier>
      <datestamp>2017-01-08T00:26:31Z</datestamp>
      <setSpec>user-biosyslit</setSpec>
    </header>
    <header>
      <identifier>oai:zenodo.org:233109</identifier>
      <datestamp>2017-01-08T00:26:41Z</datestamp>
      <setSpec>user-biosyslit</setSpec>
    </header>
    <header>
      <identifier>oai:zenodo.org:235012</identifier>
      <datestamp>2017-01-09T04:40:26Z</datestamp>
      <setSpec>user-biosyslit</setSpec>
    </header>
    <header>
      <identifier>oai:zenodo.org:243901</identifier>
      <datestamp>2017-01-14T12:59:38Z</datestamp>
      <setSpec>user-biosyslit</setSpec>
    </header>
    <header>
      <identifier>oai:zenodo.org:276811</identifier>
      <datestamp>2017-02-08T19:43:13Z</datestamp>
      <setSpec>user-biosyslit</setSpec>
    </header>
    <header>
      <identifier>oai:zenodo.org:276812</identifier>
      <datestamp>2017-02-08T19:43:15Z</datestamp>
      <setSpec>user-biosyslit</setSpec>
    </header>
    <header>
      <identifier>oai:zenodo.org:245260</identifier>
      <datestamp>2017-01-15T10:55:57Z</datestamp>
      <setSpec>user-biosyslit</setSpec>
    </header>
    <header>
      <identifier>oai:zenodo.org:245255</identifier>
      <datestamp>2017-01-15T10:55:40Z</datestamp>
      <setSpec>user-biosyslit</setSpec>
    </header>
    <header>
      <identifier>oai:zenodo.org:230492</identifier>
      <datestamp>2017-01-05T02:05:13Z</datestamp>
      <setSpec>user-biosyslit</setSpec>
    </header>
    <header>
      <identifier>oai:zenodo.org:275760</identifier>
      <datestamp>2017-02-08T17:03:01Z</datestamp>
      <setSpec>user-biosyslit</setSpec>
    </header>
    <header>
      <identifier>oai:zenodo.org:230493</identifier>
      <datestamp>2017-01-05T02:05:05Z</datestamp>
      <setSpec>user-biosyslit</setSpec>
    </header>
    <header>
      <identifier>oai:zenodo.org:231481</identifier>
      <datestamp>2017-01-06T02:33:57Z</datestamp>
      <setSpec>user-biosyslit</setSpec>
    </header>
    <header>
      <identifier>oai:zenodo.org:275761</identifier>
      <datestamp>2017-02-08T17:02:52Z</datestamp>
      <setSpec>user-biosyslit</setSpec>
    </header>
    <header>
      <identifier>oai:zenodo.org:231480</identifier>
      <datestamp>2017-01-06T02:33:53Z</datestamp>
      <setSpec>user-biosyslit</setSpec>
    </header>
    <header>
      <identifier>oai:zenodo.org:282818</identifier>
      <datestamp>2017-02-09T07:40:34Z</datestamp>
      <setSpec>user-biosyslit</setSpec>
    </header>
    <header>
      <identifier>oai:zenodo.org:293924</identifier>
      <datestamp>2017-02-20T18:59:37Z</datestamp>
      <setSpec>user-biosyslit</setSpec>
    </header>
    <header>
      <identifier>oai:zenodo.org:293923</identifier>
      <datestamp>2017-02-20T18:59:35Z</datestamp>
      <setSpec>user-biosyslit</setSpec>
    </header>
    <header>
      <identifier>oai:zenodo.org:237723</identifier>
      <datestamp>2017-01-10T19:06:55Z</datestamp>
      <setSpec>user-biosyslit</setSpec>
    </header>
    <header>
      <identifier>oai:zenodo.org:283222</identifier>
      <datestamp>2017-02-09T08:23:18Z</datestamp>
      <setSpec>user-biosyslit</setSpec>
    </header>
    <header>
      <identifier>oai:zenodo.org:283221</identifier>
      <datestamp>2017-02-09T08:23:15Z</datestamp>
      <setSpec>user-biosyslit</setSpec>
    </header>
    <header>
      <identifier>oai:zenodo.org:237720</identifier>
      <datestamp>2017-01-10T19:06:44Z</datestamp>
      <setSpec>user-biosyslit</setSpec>
    </header>
    <header>
      <identifier>oai:zenodo.org:240869</identifier>
      <datestamp>2017-01-12T15:03:47Z</datestamp>
      <setSpec>user-biosyslit</setSpec>
    </header>
    <header>
      <identifier>oai:zenodo.org:240868</identifier>
      <datestamp>2017-01-12T15:03:37Z</datestamp>
      <setSpec>user-biosyslit</setSpec>
    </header>
    <header>
      <identifier>oai:zenodo.org:240870</identifier>
      <datestamp>2017-01-12T15:03:51Z</datestamp>
      <setSpec>user-biosyslit</setSpec>
    </header>
    <header>
      <identifier>oai:zenodo.org:240867</identifier>
      <datestamp>2017-01-12T15:03:32Z</datestamp>
      <setSpec>user-biosyslit</setSpec>
    </header>
    <header>
      <identifier>oai:zenodo.org:279035</identifier>
      <datestamp>2017-02-09T00:27:48Z</datestamp>
      <setSpec>user-biosyslit</setSpec>
    </header>
    <header>
      <identifier>oai:zenodo.org:279032</identifier>
      <datestamp>2017-02-09T00:27:42Z</datestamp>
      <setSpec>user-biosyslit</setSpec>
    </header>
    <header>
      <identifier>oai:zenodo.org:283465</identifier>
      <datestamp>2017-02-09T08:57:19Z</datestamp>
      <setSpec>user-biosyslit</setSpec>
    </header>
    <header>
      <identifier>oai:zenodo.org:279034</identifier>
      <datestamp>2017-02-09T00:27:46Z</datestamp>
      <setSpec>user-biosyslit</setSpec>
    </header>
    <header>
      <identifier>oai:zenodo.org:283466</identifier>
      <datestamp>2017-02-09T08:57:22Z</datestamp>
      <setSpec>user-biosyslit</setSpec>
    </header>
    <header>
      <identifier>oai:zenodo.org:253510</identifier>
      <datestamp>2017-01-20T07:55:39Z</datestamp>
      <setSpec>user-biosyslit</setSpec>
    </header>
    <header>
      <identifier>oai:zenodo.org:242847</identifier>
      <datestamp>2017-01-13T19:47:21Z</datestamp>
      <setSpec>user-biosyslit</setSpec>
    </header>
    <header>
      <identifier>oai:zenodo.org:253504</identifier>
      <datestamp>2017-01-20T07:55:26Z</datestamp>
      <setSpec>user-biosyslit</setSpec>
    </header>
    <header>
      <identifier>oai:zenodo.org:242848</identifier>
      <datestamp>2017-01-13T19:47:25Z</datestamp>
      <setSpec>user-biosyslit</setSpec>
    </header>
    <header>
      <identifier>oai:zenodo.org:253512</identifier>
      <datestamp>2017-01-20T07:55:43Z</datestamp>
      <setSpec>user-biosyslit</setSpec>
    </header>
    <header>
      <identifier>oai:zenodo.org:253508</identifier>
      <datestamp>2017-01-20T07:55:35Z</datestamp>
      <setSpec>user-biosyslit</setSpec>
    </header>
    <header>
      <identifier>oai:zenodo.org:242849</identifier>
      <datestamp>2017-01-13T19:47:28Z</datestamp>
      <setSpec>user-biosyslit</setSpec>
    </header>
    <header>
      <identifier>oai:zenodo.org:275526</identifier>
      <datestamp>2017-02-08T16:38:10Z</datestamp>
      <setSpec>user-biosyslit</setSpec>
    </header>
    <header>
      <identifier>oai:zenodo.org:249887</identifier>
      <datestamp>2017-01-18T01:23:36Z</datestamp>
      <setSpec>user-biosyslit</setSpec>
    </header>
    <header>
      <identifier>oai:zenodo.org:249893</identifier>
      <datestamp>2017-01-18T01:24:03Z</datestamp>
      <setSpec>user-biosyslit</setSpec>
    </header>
    <header>
      <identifier>oai:zenodo.org:249889</identifier>
      <datestamp>2017-01-18T01:23:45Z</datestamp>
      <setSpec>user-biosyslit</setSpec>
    </header>
    <header>
      <identifier>oai:zenodo.org:249888</identifier>
      <datestamp>2017-01-18T01:23:41Z</datestamp>
      <setSpec>user-biosyslit</setSpec>
    </header>
    <header>
      <identifier>oai:zenodo.org:249890</identifier>
      <datestamp>2017-01-18T01:23:50Z</datestamp>
      <setSpec>user-biosyslit</setSpec>
    </header>
    <header>
      <identifier>oai:zenodo.org:249891</identifier>
      <datestamp>2017-01-18T01:23:54Z</datestamp>
      <setSpec>user-biosyslit</setSpec>
    </header>
    <header>
      <identifier>oai:zenodo.org:227617</identifier>
      <datestamp>2017-01-02T00:58:18Z</datestamp>
      <setSpec>user-biosyslit</setSpec>
    </header>
    <header>
      <identifier>oai:zenodo.org:227618</identifier>
      <datestamp>2017-01-02T00:58:23Z</datestamp>
      <setSpec>user-biosyslit</setSpec>
    </header>
    <header>
      <identifier>oai:zenodo.org:227918</identifier>
      <datestamp>2017-01-02T06:46:48Z</datestamp>
      <setSpec>user-biosyslit</setSpec>
    </header>
    <header>
      <identifier>oai:zenodo.org:227616</identifier>
      <datestamp>2017-01-02T00:58:14Z</datestamp>
      <setSpec>user-biosyslit</setSpec>
    </header>
    <header>
      <identifier>oai:zenodo.org:257034</identifier>
      <datestamp>2017-01-23T00:14:11Z</datestamp>
      <setSpec>user-biosyslit</setSpec>
    </header>
    <header>
      <identifier>oai:zenodo.org:257037</identifier>
      <datestamp>2017-01-23T00:14:22Z</datestamp>
      <setSpec>user-biosyslit</setSpec>
    </header>
    <header>
      <identifier>oai:zenodo.org:244138</identifier>
      <datestamp>2017-01-14T16:41:11Z</datestamp>
      <setSpec>user-biosyslit</setSpec>
    </header>
    <header>
      <identifier>oai:zenodo.org:244133</identifier>
      <datestamp>2017-01-14T16:40:57Z</datestamp>
      <setSpec>user-biosyslit</setSpec>
    </header>
    <header>
      <identifier>oai:zenodo.org:244134</identifier>
      <datestamp>2017-01-14T16:41:00Z</datestamp>
      <setSpec>user-biosyslit</setSpec>
    </header>
    <header>
      <identifier>oai:zenodo.org:244135</identifier>
      <datestamp>2017-01-14T16:41:02Z</datestamp>
      <setSpec>user-biosyslit</setSpec>
    </header>
    <header>
      <identifier>oai:zenodo.org:285526</identifier>
      <datestamp>2017-02-09T13:48:21Z</datestamp>
      <setSpec>user-biosyslit</setSpec>
    </header>
    <header>
      <identifier>oai:zenodo.org:238980</identifier>
      <datestamp>2017-01-11T14:14:52Z</datestamp>
      <setSpec>user-biosyslit</setSpec>
    </header>
    <header>
      <identifier>oai:zenodo.org:248373</identifier>
      <datestamp>2017-01-17T03:29:10Z</datestamp>
      <setSpec>user-biosyslit</setSpec>
    </header>
    <header>
      <identifier>oai:zenodo.org:245954</identifier>
      <datestamp>2017-01-15T19:47:41Z</datestamp>
      <setSpec>user-biosyslit</setSpec>
    </header>
    <header>
      <identifier>oai:zenodo.org:245957</identifier>
      <datestamp>2017-01-15T19:47:54Z</datestamp>
      <setSpec>user-biosyslit</setSpec>
    </header>
    <header>
      <identifier>oai:zenodo.org:248375</identifier>
      <datestamp>2017-01-17T03:29:14Z</datestamp>
      <setSpec>user-biosyslit</setSpec>
    </header>
    <header>
      <identifier>oai:zenodo.org:245955</identifier>
      <datestamp>2017-01-15T19:47:46Z</datestamp>
      <setSpec>user-biosyslit</setSpec>
    </header>
    <header>
      <identifier>oai:zenodo.org:285540</identifier>
      <datestamp>2017-02-09T13:48:20Z</datestamp>
      <setSpec>user-biosyslit</setSpec>
    </header>
    <header>
      <identifier>oai:zenodo.org:285538</identifier>
      <datestamp>2017-02-09T13:48:15Z</datestamp>
      <setSpec>user-biosyslit</setSpec>
    </header>
    <header>
      <identifier>oai:zenodo.org:233432</identifier>
      <datestamp>2017-01-08T04:59:14Z</datestamp>
      <setSpec>user-biosyslit</setSpec>
    </header>
    <header>
      <identifier>oai:zenodo.org:283602</identifier>
      <datestamp>2017-02-09T09:16:45Z</datestamp>
      <setSpec>user-biosyslit</setSpec>
    </header>
    <header>
      <identifier>oai:zenodo.org:241572</identifier>
      <datestamp>2017-01-13T03:26:21Z</datestamp>
      <setSpec>user-biosyslit</setSpec>
    </header>
    <header>
      <identifier>oai:zenodo.org:233433</identifier>
      <datestamp>2017-01-08T04:59:12Z</datestamp>
      <setSpec>user-biosyslit</setSpec>
    </header>
    <header>
      <identifier>oai:zenodo.org:283603</identifier>
      <datestamp>2017-02-09T09:16:42Z</datestamp>
      <setSpec>user-biosyslit</setSpec>
    </header>
    <header>
      <identifier>oai:zenodo.org:230297</identifier>
      <datestamp>2017-01-04T22:27:55Z</datestamp>
      <setSpec>user-biosyslit</setSpec>
    </header>
    <header>
      <identifier>oai:zenodo.org:243838</identifier>
      <datestamp>2017-01-14T11:36:30Z</datestamp>
      <setSpec>user-biosyslit</setSpec>
    </header>
    <header>
      <identifier>oai:zenodo.org:230295</identifier>
      <datestamp>2017-01-04T22:28:04Z</datestamp>
      <setSpec>user-biosyslit</setSpec>
    </header>
    <header>
      <identifier>oai:zenodo.org:243834</identifier>
      <datestamp>2017-01-14T11:36:12Z</datestamp>
      <setSpec>user-biosyslit</setSpec>
    </header>
    <header>
      <identifier>oai:zenodo.org:252347</identifier>
      <datestamp>2017-01-19T12:30:46Z</datestamp>
      <setSpec>user-biosyslit</setSpec>
    </header>
    <header>
      <identifier>oai:zenodo.org:252349</identifier>
      <datestamp>2017-01-19T12:30:53Z</datestamp>
      <setSpec>user-biosyslit</setSpec>
    </header>
    <header>
      <identifier>oai:zenodo.org:252348</identifier>
      <datestamp>2017-01-19T12:30:49Z</datestamp>
      <setSpec>user-biosyslit</setSpec>
    </header>
    <header>
      <identifier>oai:zenodo.org:239987</identifier>
      <datestamp>2017-01-12T03:15:14Z</datestamp>
      <setSpec>user-biosyslit</setSpec>
    </header>
    <header>
      <identifier>oai:zenodo.org:239985</identifier>
      <datestamp>2017-01-12T03:15:21Z</datestamp>
      <setSpec>user-biosyslit</setSpec>
    </header>
    <header>
      <identifier>oai:zenodo.org:258722</identifier>
      <datestamp>2017-01-24T03:38:47Z</datestamp>
      <setSpec>user-biosyslit</setSpec>
    </header>
    <header>
      <identifier>oai:zenodo.org:227176</identifier>
      <datestamp>2017-01-01T17:51:43Z</datestamp>
      <setSpec>user-biosyslit</setSpec>
    </header>
    <header>
      <identifier>oai:zenodo.org:273313</identifier>
      <datestamp>2017-02-08T08:59:35Z</datestamp>
      <setSpec>user-biosyslit</setSpec>
    </header>
    <header>
      <identifier>oai:zenodo.org:256878</identifier>
      <datestamp>2017-01-22T21:53:55Z</datestamp>
      <setSpec>user-biosyslit</setSpec>
    </header>
    <header>
      <identifier>oai:zenodo.org:273328</identifier>
      <datestamp>2017-02-08T08:59:34Z</datestamp>
      <setSpec>user-biosyslit</setSpec>
    </header>
    <header>
      <identifier>oai:zenodo.org:256879</identifier>
      <datestamp>2017-01-22T21:53:48Z</datestamp>
      <setSpec>user-biosyslit</setSpec>
    </header>
    <header>
      <identifier>oai:zenodo.org:230623</identifier>
      <datestamp>2017-01-05T05:08:43Z</datestamp>
      <setSpec>user-biosyslit</setSpec>
    </header>
    <header>
      <identifier>oai:zenodo.org:230627</identifier>
      <datestamp>2017-01-05T05:08:38Z</datestamp>
      <setSpec>user-biosyslit</setSpec>
    </header>
    <header>
      <identifier>oai:zenodo.org:230628</identifier>
      <datestamp>2017-01-05T05:08:42Z</datestamp>
      <setSpec>user-biosyslit</setSpec>
    </header>
    <header>
      <identifier>oai:zenodo.org:230625</identifier>
      <datestamp>2017-01-05T05:08:26Z</datestamp>
      <setSpec>user-biosyslit</setSpec>
    </header>
    <header>
      <identifier>oai:zenodo.org:228776</identifier>
      <datestamp>2017-01-03T04:47:55Z</datestamp>
      <setSpec>user-biosyslit</setSpec>
    </header>
    <header>
      <identifier>oai:zenodo.org:228775</identifier>
      <datestamp>2017-01-03T04:47:52Z</datestamp>
      <setSpec>user-biosyslit</setSpec>
    </header>
    <header>
      <identifier>oai:zenodo.org:228466</identifier>
      <datestamp>2017-01-03T00:14:28Z</datestamp>
      <setSpec>user-biosyslit</setSpec>
    </header>
    <header>
      <identifier>oai:zenodo.org:228467</identifier>
      <datestamp>2017-01-03T00:14:18Z</datestamp>
      <setSpec>user-biosyslit</setSpec>
    </header>
    <header>
      <identifier>oai:zenodo.org:227753</identifier>
      <datestamp>2017-01-02T04:12:58Z</datestamp>
      <setSpec>user-biosyslit</setSpec>
    </header>
    <header>
      <identifier>oai:zenodo.org:227757</identifier>
      <datestamp>2017-01-02T04:12:57Z</datestamp>
      <setSpec>user-biosyslit</setSpec>
    </header>
    <header>
      <identifier>oai:zenodo.org:237595</identifier>
      <datestamp>2017-01-10T17:31:35Z</datestamp>
      <setSpec>user-biosyslit</setSpec>
    </header>
    <header>
      <identifier>oai:zenodo.org:237593</identifier>
      <datestamp>2017-01-10T17:31:27Z</datestamp>
      <setSpec>user-biosyslit</setSpec>
    </header>
    <header>
      <identifier>oai:zenodo.org:267228</identifier>
      <datestamp>2017-02-01T23:07:33Z</datestamp>
      <setSpec>user-biosyslit</setSpec>
    </header>
    <header>
      <identifier>oai:zenodo.org:227206</identifier>
      <datestamp>2017-01-01T18:09:30Z</datestamp>
      <setSpec>user-biosyslit</setSpec>
    </header>
    <header>
      <identifier>oai:zenodo.org:227205</identifier>
      <datestamp>2017-01-01T18:09:27Z</datestamp>
      <setSpec>user-biosyslit</setSpec>
    </header>
    <header>
      <identifier>oai:zenodo.org:227204</identifier>
      <datestamp>2017-01-01T18:09:24Z</datestamp>
      <setSpec>user-biosyslit</setSpec>
    </header>
    <header>
      <identifier>oai:zenodo.org:240217</identifier>
      <datestamp>2017-01-12T06:11:52Z</datestamp>
      <setSpec>user-biosyslit</setSpec>
    </header>
    <resumptionToken expirationDate="2017-08-31T15:48:04Z" cursor="72300" completeListSize="77796">.eJyNyj0LgkAYAOD_8s4S91GcCi1hiYOKXoq6hKmIeZp4RXrSf8-luebnWUBWVQkm2rAd1amODIINjPQt00AW412IS7MyFEksil5EuR0_wy5GKamZZ8nJtVLqqRb5HVb8FJAE61PUoDk4R49UhVNMnRdHR-aqYPZuzvpK6tsiu9oDj_qD4KQc_WMwc3zgGS2-D__51M9nyT1oMOR1BSYjOw3aVz7WEszl_f4AoSdRRA.DInAvA.H4J4z9yj4G0KQUu4ixILlf32swE</resumptionToken>
  </ListIdentifiers>
</OAI-PMH>
