<?xml version='1.0' encoding='UTF-8'?>
<?xml-stylesheet type="text/xsl" href="/static/xsl/oai2.v1.0.xsl"?>
<OAI-PMH xmlns="http://www.openarchives.org/OAI/2.0/" xmlns:xsi="http://www.w3.org/2001/XMLSchema-instance" xsi:schemaLocation="http://www.openarchives.org/OAI/2.0/ http://www.openarchives.org/OAI/2.0/OAI-PMH.xsd">
  <responseDate>2017-08-31T15:45:27Z</responseDate>
  <request verb="ListIdentifiers" resumptionToken=".eJyNz00PQzAAgOH_0rMsrTa-kl2EiQNCR3BZDBFTJroFFf99Ljtv5_e5vBvgdV0BA550qBGENIWoREdExxLg5fRk7NYeGZRpwsqBxYWTvKM-gZncqL7FF8_KsC86GPRI0Esop0hb4hau4TV-ZSJaEuzOFNqqJ8LVf7iHq3DgsPzujDQeTEblagrscKXIpDkuvw796cRPZ_EzkMBYNDUwFHJcdXMxNRwY275_AKO7UUY.DInAlw.gIOAZJC7vOkjwpKEUyNTEuELesw">https://zenodo.org/oai2d</request>
  <ListIdentifiers>
    <header>
      <identifier>oai:zenodo.org:274391</identifier>
      <datestamp>2017-02-08T13:05:09Z</datestamp>
      <setSpec>user-biosyslit</setSpec>
    </header>
    <header>
      <identifier>oai:zenodo.org:274390</identifier>
      <datestamp>2017-02-08T13:05:03Z</datestamp>
      <setSpec>user-biosyslit</setSpec>
    </header>
    <header>
      <identifier>oai:zenodo.org:274389</identifier>
      <datestamp>2017-02-08T13:05:10Z</datestamp>
      <setSpec>user-biosyslit</setSpec>
    </header>
    <header>
      <identifier>oai:zenodo.org:275355</identifier>
      <datestamp>2017-02-08T16:09:04Z</datestamp>
      <setSpec>user-biosyslit</setSpec>
    </header>
    <header>
      <identifier>oai:zenodo.org:275356</identifier>
      <datestamp>2017-02-08T16:09:06Z</datestamp>
      <setSpec>user-biosyslit</setSpec>
    </header>
    <header>
      <identifier>oai:zenodo.org:275350</identifier>
      <datestamp>2017-02-08T16:08:53Z</datestamp>
      <setSpec>user-biosyslit</setSpec>
    </header>
    <header>
      <identifier>oai:zenodo.org:275352</identifier>
      <datestamp>2017-02-08T16:08:56Z</datestamp>
      <setSpec>user-biosyslit</setSpec>
    </header>
    <header>
      <identifier>oai:zenodo.org:275357</identifier>
      <datestamp>2017-02-08T16:09:08Z</datestamp>
      <setSpec>user-biosyslit</setSpec>
    </header>
    <header>
      <identifier>oai:zenodo.org:233626</identifier>
      <datestamp>2017-01-08T09:06:01Z</datestamp>
      <setSpec>user-biosyslit</setSpec>
    </header>
    <header>
      <identifier>oai:zenodo.org:233629</identifier>
      <datestamp>2017-01-08T09:05:53Z</datestamp>
      <setSpec>user-biosyslit</setSpec>
    </header>
    <header>
      <identifier>oai:zenodo.org:233628</identifier>
      <datestamp>2017-01-08T09:05:49Z</datestamp>
      <setSpec>user-biosyslit</setSpec>
    </header>
    <header>
      <identifier>oai:zenodo.org:233631</identifier>
      <datestamp>2017-01-08T09:06:00Z</datestamp>
      <setSpec>user-biosyslit</setSpec>
    </header>
    <header>
      <identifier>oai:zenodo.org:233627</identifier>
      <datestamp>2017-01-08T09:05:46Z</datestamp>
      <setSpec>user-biosyslit</setSpec>
    </header>
    <header>
      <identifier>oai:zenodo.org:280941</identifier>
      <datestamp>2017-02-09T04:23:08Z</datestamp>
      <setSpec>user-biosyslit</setSpec>
    </header>
    <header>
      <identifier>oai:zenodo.org:280942</identifier>
      <datestamp>2017-02-09T04:23:01Z</datestamp>
      <setSpec>user-biosyslit</setSpec>
    </header>
    <header>
      <identifier>oai:zenodo.org:280944</identifier>
      <datestamp>2017-02-09T04:23:06Z</datestamp>
      <setSpec>user-biosyslit</setSpec>
    </header>
    <header>
      <identifier>oai:zenodo.org:251497</identifier>
      <datestamp>2017-01-19T01:07:57Z</datestamp>
      <setSpec>user-biosyslit</setSpec>
    </header>
    <header>
      <identifier>oai:zenodo.org:238637</identifier>
      <datestamp>2017-01-11T08:26:18Z</datestamp>
      <setSpec>user-biosyslit</setSpec>
    </header>
    <header>
      <identifier>oai:zenodo.org:273311</identifier>
      <datestamp>2017-02-08T08:58:13Z</datestamp>
      <setSpec>user-biosyslit</setSpec>
    </header>
    <header>
      <identifier>oai:zenodo.org:271080</identifier>
      <datestamp>2017-02-08T00:42:37Z</datestamp>
      <setSpec>user-biosyslit</setSpec>
    </header>
    <header>
      <identifier>oai:zenodo.org:251503</identifier>
      <datestamp>2017-01-19T01:07:46Z</datestamp>
      <setSpec>user-biosyslit</setSpec>
    </header>
    <header>
      <identifier>oai:zenodo.org:275722</identifier>
      <datestamp>2017-02-08T16:58:30Z</datestamp>
      <setSpec>user-biosyslit</setSpec>
    </header>
    <header>
      <identifier>oai:zenodo.org:275726</identifier>
      <datestamp>2017-02-08T16:58:40Z</datestamp>
      <setSpec>user-biosyslit</setSpec>
    </header>
    <header>
      <identifier>oai:zenodo.org:282836</identifier>
      <datestamp>2017-02-09T07:41:59Z</datestamp>
      <setSpec>user-biosyslit</setSpec>
    </header>
    <header>
      <identifier>oai:zenodo.org:282837</identifier>
      <datestamp>2017-02-09T07:42:02Z</datestamp>
      <setSpec>user-biosyslit</setSpec>
    </header>
    <header>
      <identifier>oai:zenodo.org:238674</identifier>
      <datestamp>2017-01-11T09:11:23Z</datestamp>
      <setSpec>user-biosyslit</setSpec>
    </header>
    <header>
      <identifier>oai:zenodo.org:235056</identifier>
      <datestamp>2017-01-09T05:13:15Z</datestamp>
      <setSpec>user-biosyslit</setSpec>
    </header>
    <header>
      <identifier>oai:zenodo.org:235057</identifier>
      <datestamp>2017-01-09T05:13:14Z</datestamp>
      <setSpec>user-biosyslit</setSpec>
    </header>
    <header>
      <identifier>oai:zenodo.org:238675</identifier>
      <datestamp>2017-01-11T09:11:04Z</datestamp>
      <setSpec>user-biosyslit</setSpec>
    </header>
    <header>
      <identifier>oai:zenodo.org:229061</identifier>
      <datestamp>2017-01-03T08:57:52Z</datestamp>
      <setSpec>user-biosyslit</setSpec>
    </header>
    <header>
      <identifier>oai:zenodo.org:400342</identifier>
      <datestamp>2017-03-16T19:43:29Z</datestamp>
      <setSpec>user-biosyslit</setSpec>
    </header>
    <header>
      <identifier>oai:zenodo.org:400343</identifier>
      <datestamp>2017-03-16T19:43:28Z</datestamp>
      <setSpec>user-biosyslit</setSpec>
    </header>
    <header>
      <identifier>oai:zenodo.org:253434</identifier>
      <datestamp>2017-01-20T07:09:37Z</datestamp>
      <setSpec>user-biosyslit</setSpec>
    </header>
    <header>
      <identifier>oai:zenodo.org:253447</identifier>
      <datestamp>2017-01-20T07:10:08Z</datestamp>
      <setSpec>user-biosyslit</setSpec>
    </header>
    <header>
      <identifier>oai:zenodo.org:253445</identifier>
      <datestamp>2017-01-20T07:10:03Z</datestamp>
      <setSpec>user-biosyslit</setSpec>
    </header>
    <header>
      <identifier>oai:zenodo.org:253444</identifier>
      <datestamp>2017-01-20T07:10:00Z</datestamp>
      <setSpec>user-biosyslit</setSpec>
    </header>
    <header>
      <identifier>oai:zenodo.org:253441</identifier>
      <datestamp>2017-01-20T07:09:54Z</datestamp>
      <setSpec>user-biosyslit</setSpec>
    </header>
    <header>
      <identifier>oai:zenodo.org:253443</identifier>
      <datestamp>2017-01-20T07:09:58Z</datestamp>
      <setSpec>user-biosyslit</setSpec>
    </header>
    <header>
      <identifier>oai:zenodo.org:253436</identifier>
      <datestamp>2017-01-20T07:09:42Z</datestamp>
      <setSpec>user-biosyslit</setSpec>
    </header>
    <header>
      <identifier>oai:zenodo.org:253438</identifier>
      <datestamp>2017-01-20T07:09:46Z</datestamp>
      <setSpec>user-biosyslit</setSpec>
    </header>
    <header>
      <identifier>oai:zenodo.org:253432</identifier>
      <datestamp>2017-01-20T07:09:31Z</datestamp>
      <setSpec>user-biosyslit</setSpec>
    </header>
    <header>
      <identifier>oai:zenodo.org:234111</identifier>
      <datestamp>2017-01-08T15:11:47Z</datestamp>
      <setSpec>user-biosyslit</setSpec>
    </header>
    <header>
      <identifier>oai:zenodo.org:241781</identifier>
      <datestamp>2017-01-13T05:44:05Z</datestamp>
      <setSpec>user-biosyslit</setSpec>
    </header>
    <header>
      <identifier>oai:zenodo.org:234113</identifier>
      <datestamp>2017-01-08T15:11:45Z</datestamp>
      <setSpec>user-biosyslit</setSpec>
    </header>
    <header>
      <identifier>oai:zenodo.org:241780</identifier>
      <datestamp>2017-01-13T05:44:01Z</datestamp>
      <setSpec>user-biosyslit</setSpec>
    </header>
    <header>
      <identifier>oai:zenodo.org:241337</identifier>
      <datestamp>2017-01-13T00:06:16Z</datestamp>
      <setSpec>user-biosyslit</setSpec>
    </header>
    <header>
      <identifier>oai:zenodo.org:241784</identifier>
      <datestamp>2017-01-13T05:44:17Z</datestamp>
      <setSpec>user-biosyslit</setSpec>
    </header>
    <header>
      <identifier>oai:zenodo.org:279860</identifier>
      <datestamp>2017-02-09T02:10:55Z</datestamp>
      <setSpec>user-biosyslit</setSpec>
    </header>
    <header>
      <identifier>oai:zenodo.org:241335</identifier>
      <datestamp>2017-01-13T00:06:08Z</datestamp>
      <setSpec>user-biosyslit</setSpec>
    </header>
    <header>
      <identifier>oai:zenodo.org:241336</identifier>
      <datestamp>2017-01-13T00:06:12Z</datestamp>
      <setSpec>user-biosyslit</setSpec>
    </header>
    <header>
      <identifier>oai:zenodo.org:241334</identifier>
      <datestamp>2017-01-13T00:06:04Z</datestamp>
      <setSpec>user-biosyslit</setSpec>
    </header>
    <header>
      <identifier>oai:zenodo.org:241333</identifier>
      <datestamp>2017-01-13T00:05:38Z</datestamp>
      <setSpec>user-biosyslit</setSpec>
    </header>
    <header>
      <identifier>oai:zenodo.org:241785</identifier>
      <datestamp>2017-01-13T05:44:20Z</datestamp>
      <setSpec>user-biosyslit</setSpec>
    </header>
    <header>
      <identifier>oai:zenodo.org:279859</identifier>
      <datestamp>2017-02-09T02:10:52Z</datestamp>
      <setSpec>user-biosyslit</setSpec>
    </header>
    <header>
      <identifier>oai:zenodo.org:237525</identifier>
      <datestamp>2017-01-10T16:33:27Z</datestamp>
      <setSpec>user-biosyslit</setSpec>
    </header>
    <header>
      <identifier>oai:zenodo.org:237527</identifier>
      <datestamp>2017-01-10T16:33:35Z</datestamp>
      <setSpec>user-biosyslit</setSpec>
    </header>
    <header>
      <identifier>oai:zenodo.org:228347</identifier>
      <datestamp>2017-01-02T22:38:38Z</datestamp>
      <setSpec>user-biosyslit</setSpec>
    </header>
    <header>
      <identifier>oai:zenodo.org:239635</identifier>
      <datestamp>2017-01-11T23:08:53Z</datestamp>
      <setSpec>user-biosyslit</setSpec>
    </header>
    <header>
      <identifier>oai:zenodo.org:239638</identifier>
      <datestamp>2017-01-11T23:09:02Z</datestamp>
      <setSpec>user-biosyslit</setSpec>
    </header>
    <header>
      <identifier>oai:zenodo.org:239644</identifier>
      <datestamp>2017-01-11T23:09:17Z</datestamp>
      <setSpec>user-biosyslit</setSpec>
    </header>
    <header>
      <identifier>oai:zenodo.org:239640</identifier>
      <datestamp>2017-01-11T23:09:07Z</datestamp>
      <setSpec>user-biosyslit</setSpec>
    </header>
    <header>
      <identifier>oai:zenodo.org:239639</identifier>
      <datestamp>2017-01-11T23:09:05Z</datestamp>
      <setSpec>user-biosyslit</setSpec>
    </header>
    <header>
      <identifier>oai:zenodo.org:239637</identifier>
      <datestamp>2017-01-11T23:08:59Z</datestamp>
      <setSpec>user-biosyslit</setSpec>
    </header>
    <header>
      <identifier>oai:zenodo.org:239641</identifier>
      <datestamp>2017-01-11T23:09:10Z</datestamp>
      <setSpec>user-biosyslit</setSpec>
    </header>
    <header>
      <identifier>oai:zenodo.org:239643</identifier>
      <datestamp>2017-01-11T23:09:15Z</datestamp>
      <setSpec>user-biosyslit</setSpec>
    </header>
    <header>
      <identifier>oai:zenodo.org:229363</identifier>
      <datestamp>2017-01-03T14:58:58Z</datestamp>
      <setSpec>user-biosyslit</setSpec>
    </header>
    <header>
      <identifier>oai:zenodo.org:289486</identifier>
      <datestamp>2017-02-09T23:40:18Z</datestamp>
      <setSpec>user-biosyslit</setSpec>
    </header>
    <header>
      <identifier>oai:zenodo.org:229365</identifier>
      <datestamp>2017-01-03T14:59:06Z</datestamp>
      <setSpec>user-biosyslit</setSpec>
    </header>
    <header>
      <identifier>oai:zenodo.org:289488</identifier>
      <datestamp>2017-02-09T23:40:23Z</datestamp>
      <setSpec>user-biosyslit</setSpec>
    </header>
    <header>
      <identifier>oai:zenodo.org:289487</identifier>
      <datestamp>2017-02-09T23:40:20Z</datestamp>
      <setSpec>user-biosyslit</setSpec>
    </header>
    <header>
      <identifier>oai:zenodo.org:284838</identifier>
      <datestamp>2017-02-09T12:04:41Z</datestamp>
      <setSpec>user-biosyslit</setSpec>
    </header>
    <header>
      <identifier>oai:zenodo.org:284843</identifier>
      <datestamp>2017-02-09T12:04:58Z</datestamp>
      <setSpec>user-biosyslit</setSpec>
    </header>
    <header>
      <identifier>oai:zenodo.org:284835</identifier>
      <datestamp>2017-02-09T12:04:33Z</datestamp>
      <setSpec>user-biosyslit</setSpec>
    </header>
    <header>
      <identifier>oai:zenodo.org:284840</identifier>
      <datestamp>2017-02-09T12:04:48Z</datestamp>
      <setSpec>user-biosyslit</setSpec>
    </header>
    <header>
      <identifier>oai:zenodo.org:284846</identifier>
      <datestamp>2017-02-09T12:05:07Z</datestamp>
      <setSpec>user-biosyslit</setSpec>
    </header>
    <header>
      <identifier>oai:zenodo.org:284848</identifier>
      <datestamp>2017-02-09T12:05:12Z</datestamp>
      <setSpec>user-biosyslit</setSpec>
    </header>
    <header>
      <identifier>oai:zenodo.org:284845</identifier>
      <datestamp>2017-02-09T12:05:03Z</datestamp>
      <setSpec>user-biosyslit</setSpec>
    </header>
    <header>
      <identifier>oai:zenodo.org:284842</identifier>
      <datestamp>2017-02-09T12:04:54Z</datestamp>
      <setSpec>user-biosyslit</setSpec>
    </header>
    <header>
      <identifier>oai:zenodo.org:284847</identifier>
      <datestamp>2017-02-09T12:05:09Z</datestamp>
      <setSpec>user-biosyslit</setSpec>
    </header>
    <header>
      <identifier>oai:zenodo.org:284900</identifier>
      <datestamp>2017-02-09T12:07:57Z</datestamp>
      <setSpec>user-biosyslit</setSpec>
    </header>
    <header>
      <identifier>oai:zenodo.org:284905</identifier>
      <datestamp>2017-02-09T12:08:16Z</datestamp>
      <setSpec>user-biosyslit</setSpec>
    </header>
    <header>
      <identifier>oai:zenodo.org:284904</identifier>
      <datestamp>2017-02-09T12:08:12Z</datestamp>
      <setSpec>user-biosyslit</setSpec>
    </header>
    <header>
      <identifier>oai:zenodo.org:284899</identifier>
      <datestamp>2017-02-09T12:07:54Z</datestamp>
      <setSpec>user-biosyslit</setSpec>
    </header>
    <header>
      <identifier>oai:zenodo.org:284903</identifier>
      <datestamp>2017-02-09T12:08:06Z</datestamp>
      <setSpec>user-biosyslit</setSpec>
    </header>
    <header>
      <identifier>oai:zenodo.org:251875</identifier>
      <datestamp>2017-01-19T05:43:51Z</datestamp>
      <setSpec>user-biosyslit</setSpec>
    </header>
    <header>
      <identifier>oai:zenodo.org:251865</identifier>
      <datestamp>2017-01-19T05:43:13Z</datestamp>
      <setSpec>user-biosyslit</setSpec>
    </header>
    <header>
      <identifier>oai:zenodo.org:251874</identifier>
      <datestamp>2017-01-19T05:43:46Z</datestamp>
      <setSpec>user-biosyslit</setSpec>
    </header>
    <header>
      <identifier>oai:zenodo.org:251867</identifier>
      <datestamp>2017-01-19T05:43:22Z</datestamp>
      <setSpec>user-biosyslit</setSpec>
    </header>
    <header>
      <identifier>oai:zenodo.org:251880</identifier>
      <datestamp>2017-01-19T05:44:10Z</datestamp>
      <setSpec>user-biosyslit</setSpec>
    </header>
    <header>
      <identifier>oai:zenodo.org:251879</identifier>
      <datestamp>2017-01-19T05:44:06Z</datestamp>
      <setSpec>user-biosyslit</setSpec>
    </header>
    <header>
      <identifier>oai:zenodo.org:251872</identifier>
      <datestamp>2017-01-19T05:43:40Z</datestamp>
      <setSpec>user-biosyslit</setSpec>
    </header>
    <header>
      <identifier>oai:zenodo.org:251878</identifier>
      <datestamp>2017-01-19T05:44:03Z</datestamp>
      <setSpec>user-biosyslit</setSpec>
    </header>
    <header>
      <identifier>oai:zenodo.org:251876</identifier>
      <datestamp>2017-01-19T05:43:55Z</datestamp>
      <setSpec>user-biosyslit</setSpec>
    </header>
    <header>
      <identifier>oai:zenodo.org:251888</identifier>
      <datestamp>2017-01-19T05:44:39Z</datestamp>
      <setSpec>user-biosyslit</setSpec>
    </header>
    <header>
      <identifier>oai:zenodo.org:251891</identifier>
      <datestamp>2017-01-19T05:44:52Z</datestamp>
      <setSpec>user-biosyslit</setSpec>
    </header>
    <header>
      <identifier>oai:zenodo.org:251885</identifier>
      <datestamp>2017-01-19T05:44:25Z</datestamp>
      <setSpec>user-biosyslit</setSpec>
    </header>
    <header>
      <identifier>oai:zenodo.org:251882</identifier>
      <datestamp>2017-01-19T05:44:15Z</datestamp>
      <setSpec>user-biosyslit</setSpec>
    </header>
    <header>
      <identifier>oai:zenodo.org:251887</identifier>
      <datestamp>2017-01-19T05:44:32Z</datestamp>
      <setSpec>user-biosyslit</setSpec>
    </header>
    <header>
      <identifier>oai:zenodo.org:251886</identifier>
      <datestamp>2017-01-19T05:44:29Z</datestamp>
      <setSpec>user-biosyslit</setSpec>
    </header>
    <header>
      <identifier>oai:zenodo.org:251883</identifier>
      <datestamp>2017-01-19T05:44:19Z</datestamp>
      <setSpec>user-biosyslit</setSpec>
    </header>
    <resumptionToken expirationDate="2017-08-31T15:47:27Z" cursor="64200" completeListSize="77796">.eJyNyk0LgjAYAOD_8p4l3m2SKXQJSzykrOXILmFTpFwfuCJd-N_z0rnOz_MGU1UlBDjxfCQ-QSSzKaWu7ztgVHvT-nAaGdROanXVWRHJ5-YiMae1l4SmW4c5S2yD6YVYseJ0R2ZddsKeb7NHbjedZPFL4NJbW94n53h8JUsjvT9Gd5FdF1rQsk2XvBdkIfZMfR_589mfLzRzcOBe1BUEU9d1oHkVbW0geA_DB5p3UT0.DInAlw.5EwRX46WqrIquECsfGjI_g4Ollo</resumptionToken>
  </ListIdentifiers>
</OAI-PMH>
