<?xml version='1.0' encoding='UTF-8'?>
<?xml-stylesheet type="text/xsl" href="/static/xsl/oai2.v1.0.xsl"?>
<OAI-PMH xmlns="http://www.openarchives.org/OAI/2.0/" xmlns:xsi="http://www.w3.org/2001/XMLSchema-instance" xsi:schemaLocation="http://www.openarchives.org/OAI/2.0/ http://www.openarchives.org/OAI/2.0/OAI-PMH.xsd">
  <responseDate>2017-08-31T15:44:17Z</responseDate>
  <request verb="ListIdentifiers" resumptionToken=".eJyNyssKgkAUANB_uWuJeUg-oE1o4kJFJ0XdhKmIOZo4RTrSv-emda3PWUHUdQUm2hkIqaqmE0yxYajEUECU053zS7sxlGnCy4HHhZM8oz5BGWk03xKzZ2XUlx0KeizZKSQp1ue4RUt4jh-ZjOaEui-GbM2T4eLf3O1VNHB4fnVGFg9Hzkg1BXa4MHxkOS2_D__55M9niQMoMBZNDaaq7xXoXsXUCDDX9_sDnlNRRQ.DInAUA.1GlRq43pC-tGJkRqymwwMN4Y960">https://zenodo.org/oai2d</request>
  <ListIdentifiers>
    <header>
      <identifier>oai:zenodo.org:233796</identifier>
      <datestamp>2017-01-08T11:53:35Z</datestamp>
      <setSpec>user-biosyslit</setSpec>
    </header>
    <header>
      <identifier>oai:zenodo.org:233430</identifier>
      <datestamp>2017-01-08T04:52:14Z</datestamp>
      <setSpec>user-biosyslit</setSpec>
    </header>
    <header>
      <identifier>oai:zenodo.org:235329</identifier>
      <datestamp>2017-01-09T08:50:23Z</datestamp>
      <setSpec>user-biosyslit</setSpec>
    </header>
    <header>
      <identifier>oai:zenodo.org:233828</identifier>
      <datestamp>2017-01-08T12:23:09Z</datestamp>
      <setSpec>user-biosyslit</setSpec>
    </header>
    <header>
      <identifier>oai:zenodo.org:285553</identifier>
      <datestamp>2017-02-09T13:51:03Z</datestamp>
      <setSpec>user-biosyslit</setSpec>
    </header>
    <header>
      <identifier>oai:zenodo.org:285115</identifier>
      <datestamp>2017-02-09T12:38:55Z</datestamp>
      <setSpec>user-biosyslit</setSpec>
    </header>
    <header>
      <identifier>oai:zenodo.org:285283</identifier>
      <datestamp>2017-02-09T13:10:50Z</datestamp>
      <setSpec>user-biosyslit</setSpec>
    </header>
    <header>
      <identifier>oai:zenodo.org:285234</identifier>
      <datestamp>2017-02-09T13:04:13Z</datestamp>
      <setSpec>user-biosyslit</setSpec>
    </header>
    <header>
      <identifier>oai:zenodo.org:285493</identifier>
      <datestamp>2017-02-09T13:43:25Z</datestamp>
      <setSpec>user-biosyslit</setSpec>
    </header>
    <header>
      <identifier>oai:zenodo.org:285285</identifier>
      <datestamp>2017-02-09T13:11:32Z</datestamp>
      <setSpec>user-biosyslit</setSpec>
    </header>
    <header>
      <identifier>oai:zenodo.org:285173</identifier>
      <datestamp>2017-02-09T12:50:40Z</datestamp>
      <setSpec>user-biosyslit</setSpec>
    </header>
    <header>
      <identifier>oai:zenodo.org:286397</identifier>
      <datestamp>2017-02-09T15:55:06Z</datestamp>
      <setSpec>user-biosyslit</setSpec>
    </header>
    <header>
      <identifier>oai:zenodo.org:285441</identifier>
      <datestamp>2017-02-09T13:35:54Z</datestamp>
      <setSpec>user-biosyslit</setSpec>
    </header>
    <header>
      <identifier>oai:zenodo.org:226831</identifier>
      <datestamp>2017-01-01T04:03:14Z</datestamp>
      <setSpec>user-biosyslit</setSpec>
    </header>
    <header>
      <identifier>oai:zenodo.org:226872</identifier>
      <datestamp>2017-01-01T05:03:44Z</datestamp>
      <setSpec>user-biosyslit</setSpec>
    </header>
    <header>
      <identifier>oai:zenodo.org:226797</identifier>
      <datestamp>2017-01-01T03:34:04Z</datestamp>
      <setSpec>user-biosyslit</setSpec>
    </header>
    <header>
      <identifier>oai:zenodo.org:226739</identifier>
      <datestamp>2017-01-01T02:48:03Z</datestamp>
      <setSpec>user-biosyslit</setSpec>
    </header>
    <header>
      <identifier>oai:zenodo.org:226780</identifier>
      <datestamp>2017-01-01T03:09:23Z</datestamp>
      <setSpec>user-biosyslit</setSpec>
    </header>
    <header>
      <identifier>oai:zenodo.org:226955</identifier>
      <datestamp>2017-01-01T07:20:48Z</datestamp>
      <setSpec>user-biosyslit</setSpec>
    </header>
    <header>
      <identifier>oai:zenodo.org:285612</identifier>
      <datestamp>2017-02-09T14:00:05Z</datestamp>
      <setSpec>user-biosyslit</setSpec>
    </header>
    <header>
      <identifier>oai:zenodo.org:285348</identifier>
      <datestamp>2017-02-09T13:21:34Z</datestamp>
      <setSpec>user-biosyslit</setSpec>
    </header>
    <header>
      <identifier>oai:zenodo.org:285466</identifier>
      <datestamp>2017-02-09T13:39:37Z</datestamp>
      <setSpec>user-biosyslit</setSpec>
    </header>
    <header>
      <identifier>oai:zenodo.org:285175</identifier>
      <datestamp>2017-02-09T12:50:44Z</datestamp>
      <setSpec>user-biosyslit</setSpec>
    </header>
    <header>
      <identifier>oai:zenodo.org:285182</identifier>
      <datestamp>2017-02-09T12:52:01Z</datestamp>
      <setSpec>user-biosyslit</setSpec>
    </header>
    <header>
      <identifier>oai:zenodo.org:226638</identifier>
      <datestamp>2017-01-01T01:03:36Z</datestamp>
      <setSpec>user-biosyslit</setSpec>
    </header>
    <header>
      <identifier>oai:zenodo.org:226741</identifier>
      <datestamp>2017-01-01T02:48:09Z</datestamp>
      <setSpec>user-biosyslit</setSpec>
    </header>
    <header>
      <identifier>oai:zenodo.org:226881</identifier>
      <datestamp>2017-01-01T05:03:39Z</datestamp>
      <setSpec>user-biosyslit</setSpec>
    </header>
    <header>
      <identifier>oai:zenodo.org:285401</identifier>
      <datestamp>2017-02-09T13:29:55Z</datestamp>
      <setSpec>user-biosyslit</setSpec>
    </header>
    <header>
      <identifier>oai:zenodo.org:226730</identifier>
      <datestamp>2017-01-01T02:33:14Z</datestamp>
      <setSpec>user-biosyslit</setSpec>
    </header>
    <header>
      <identifier>oai:zenodo.org:226734</identifier>
      <datestamp>2017-01-01T02:47:46Z</datestamp>
      <setSpec>user-biosyslit</setSpec>
    </header>
    <header>
      <identifier>oai:zenodo.org:226946</identifier>
      <datestamp>2017-01-01T07:08:55Z</datestamp>
      <setSpec>user-biosyslit</setSpec>
    </header>
    <header>
      <identifier>oai:zenodo.org:285445</identifier>
      <datestamp>2017-02-09T13:36:08Z</datestamp>
      <setSpec>user-biosyslit</setSpec>
    </header>
    <header>
      <identifier>oai:zenodo.org:285500</identifier>
      <datestamp>2017-02-09T13:43:48Z</datestamp>
      <setSpec>user-biosyslit</setSpec>
    </header>
    <header>
      <identifier>oai:zenodo.org:285241</identifier>
      <datestamp>2017-02-09T13:04:54Z</datestamp>
      <setSpec>user-biosyslit</setSpec>
    </header>
    <header>
      <identifier>oai:zenodo.org:226743</identifier>
      <datestamp>2017-01-01T02:48:15Z</datestamp>
      <setSpec>user-biosyslit</setSpec>
    </header>
    <header>
      <identifier>oai:zenodo.org:286137</identifier>
      <datestamp>2017-02-09T15:18:06Z</datestamp>
      <setSpec>user-biosyslit</setSpec>
    </header>
    <header>
      <identifier>oai:zenodo.org:285662</identifier>
      <datestamp>2017-02-09T14:05:38Z</datestamp>
      <setSpec>user-biosyslit</setSpec>
    </header>
    <header>
      <identifier>oai:zenodo.org:226781</identifier>
      <datestamp>2017-01-01T03:09:26Z</datestamp>
      <setSpec>user-biosyslit</setSpec>
    </header>
    <header>
      <identifier>oai:zenodo.org:226949</identifier>
      <datestamp>2017-01-01T07:14:33Z</datestamp>
      <setSpec>user-biosyslit</setSpec>
    </header>
    <header>
      <identifier>oai:zenodo.org:285192</identifier>
      <datestamp>2017-02-09T12:55:33Z</datestamp>
      <setSpec>user-biosyslit</setSpec>
    </header>
    <header>
      <identifier>oai:zenodo.org:286014</identifier>
      <datestamp>2017-02-09T15:04:26Z</datestamp>
      <setSpec>user-biosyslit</setSpec>
    </header>
    <header>
      <identifier>oai:zenodo.org:285183</identifier>
      <datestamp>2017-02-09T12:51:49Z</datestamp>
      <setSpec>user-biosyslit</setSpec>
    </header>
    <header>
      <identifier>oai:zenodo.org:285644</identifier>
      <datestamp>2017-02-09T14:03:27Z</datestamp>
      <setSpec>user-biosyslit</setSpec>
    </header>
    <header>
      <identifier>oai:zenodo.org:285479</identifier>
      <datestamp>2017-02-09T13:42:34Z</datestamp>
      <setSpec>user-biosyslit</setSpec>
    </header>
    <header>
      <identifier>oai:zenodo.org:226845</identifier>
      <datestamp>2017-01-01T04:25:20Z</datestamp>
      <setSpec>user-biosyslit</setSpec>
    </header>
    <header>
      <identifier>oai:zenodo.org:226944</identifier>
      <datestamp>2017-01-01T07:08:58Z</datestamp>
      <setSpec>user-biosyslit</setSpec>
    </header>
    <header>
      <identifier>oai:zenodo.org:285636</identifier>
      <datestamp>2017-02-09T14:03:05Z</datestamp>
      <setSpec>user-biosyslit</setSpec>
    </header>
    <header>
      <identifier>oai:zenodo.org:226877</identifier>
      <datestamp>2017-01-01T05:03:26Z</datestamp>
      <setSpec>user-biosyslit</setSpec>
    </header>
    <header>
      <identifier>oai:zenodo.org:226736</identifier>
      <datestamp>2017-01-01T02:47:53Z</datestamp>
      <setSpec>user-biosyslit</setSpec>
    </header>
    <header>
      <identifier>oai:zenodo.org:285713</identifier>
      <datestamp>2017-02-09T14:11:07Z</datestamp>
      <setSpec>user-biosyslit</setSpec>
    </header>
    <header>
      <identifier>oai:zenodo.org:285114</identifier>
      <datestamp>2017-02-09T12:39:05Z</datestamp>
      <setSpec>user-biosyslit</setSpec>
    </header>
    <header>
      <identifier>oai:zenodo.org:285132</identifier>
      <datestamp>2017-02-09T12:43:13Z</datestamp>
      <setSpec>user-biosyslit</setSpec>
    </header>
    <header>
      <identifier>oai:zenodo.org:285133</identifier>
      <datestamp>2017-02-09T12:43:15Z</datestamp>
      <setSpec>user-biosyslit</setSpec>
    </header>
    <header>
      <identifier>oai:zenodo.org:285277</identifier>
      <datestamp>2017-02-09T13:10:53Z</datestamp>
      <setSpec>user-biosyslit</setSpec>
    </header>
    <header>
      <identifier>oai:zenodo.org:272286</identifier>
      <datestamp>2017-02-08T04:10:17Z</datestamp>
      <setSpec>user-biosyslit</setSpec>
    </header>
    <header>
      <identifier>oai:zenodo.org:246039</identifier>
      <datestamp>2017-01-15T21:23:40Z</datestamp>
      <setSpec>user-biosyslit</setSpec>
    </header>
    <header>
      <identifier>oai:zenodo.org:245212</identifier>
      <datestamp>2017-01-15T10:05:33Z</datestamp>
      <setSpec>user-biosyslit</setSpec>
    </header>
    <header>
      <identifier>oai:zenodo.org:244730</identifier>
      <datestamp>2017-01-15T01:49:29Z</datestamp>
      <setSpec>user-biosyslit</setSpec>
    </header>
    <header>
      <identifier>oai:zenodo.org:272387</identifier>
      <datestamp>2017-02-08T04:26:00Z</datestamp>
      <setSpec>user-biosyslit</setSpec>
    </header>
    <header>
      <identifier>oai:zenodo.org:272377</identifier>
      <datestamp>2017-02-08T04:22:55Z</datestamp>
      <setSpec>user-biosyslit</setSpec>
    </header>
    <header>
      <identifier>oai:zenodo.org:272358</identifier>
      <datestamp>2017-02-08T04:21:54Z</datestamp>
      <setSpec>user-biosyslit</setSpec>
    </header>
    <header>
      <identifier>oai:zenodo.org:245896</identifier>
      <datestamp>2017-01-15T19:21:24Z</datestamp>
      <setSpec>user-biosyslit</setSpec>
    </header>
    <header>
      <identifier>oai:zenodo.org:272412</identifier>
      <datestamp>2017-02-08T04:33:42Z</datestamp>
      <setSpec>user-biosyslit</setSpec>
    </header>
    <header>
      <identifier>oai:zenodo.org:246167</identifier>
      <datestamp>2017-01-15T22:46:45Z</datestamp>
      <setSpec>user-biosyslit</setSpec>
    </header>
    <header>
      <identifier>oai:zenodo.org:289264</identifier>
      <datestamp>2017-02-09T23:07:28Z</datestamp>
      <setSpec>user-biosyslit</setSpec>
    </header>
    <header>
      <identifier>oai:zenodo.org:245372</identifier>
      <datestamp>2017-01-15T12:19:23Z</datestamp>
      <setSpec>user-biosyslit</setSpec>
    </header>
    <header>
      <identifier>oai:zenodo.org:288964</identifier>
      <datestamp>2017-02-09T22:15:53Z</datestamp>
      <setSpec>user-biosyslit</setSpec>
    </header>
    <header>
      <identifier>oai:zenodo.org:245552</identifier>
      <datestamp>2017-01-15T15:21:37Z</datestamp>
      <setSpec>user-biosyslit</setSpec>
    </header>
    <header>
      <identifier>oai:zenodo.org:291297</identifier>
      <datestamp>2017-02-13T20:40:56Z</datestamp>
      <setSpec>user-biosyslit</setSpec>
    </header>
    <header>
      <identifier>oai:zenodo.org:289431</identifier>
      <datestamp>2017-02-09T23:30:16Z</datestamp>
      <setSpec>user-biosyslit</setSpec>
    </header>
    <header>
      <identifier>oai:zenodo.org:289657</identifier>
      <datestamp>2017-02-10T00:02:29Z</datestamp>
      <setSpec>user-biosyslit</setSpec>
    </header>
    <header>
      <identifier>oai:zenodo.org:289640</identifier>
      <datestamp>2017-02-10T00:01:47Z</datestamp>
      <setSpec>user-biosyslit</setSpec>
    </header>
    <header>
      <identifier>oai:zenodo.org:291289</identifier>
      <datestamp>2017-02-13T20:40:34Z</datestamp>
      <setSpec>user-biosyslit</setSpec>
    </header>
    <header>
      <identifier>oai:zenodo.org:289871</identifier>
      <datestamp>2017-02-10T00:42:56Z</datestamp>
      <setSpec>user-biosyslit</setSpec>
    </header>
    <header>
      <identifier>oai:zenodo.org:289940</identifier>
      <datestamp>2017-02-10T00:50:41Z</datestamp>
      <setSpec>user-biosyslit</setSpec>
    </header>
    <header>
      <identifier>oai:zenodo.org:289278</identifier>
      <datestamp>2017-02-09T23:10:11Z</datestamp>
      <setSpec>user-biosyslit</setSpec>
    </header>
    <header>
      <identifier>oai:zenodo.org:289938</identifier>
      <datestamp>2017-02-10T00:50:35Z</datestamp>
      <setSpec>user-biosyslit</setSpec>
    </header>
    <header>
      <identifier>oai:zenodo.org:289773</identifier>
      <datestamp>2017-02-10T00:27:25Z</datestamp>
      <setSpec>user-biosyslit</setSpec>
    </header>
    <header>
      <identifier>oai:zenodo.org:290092</identifier>
      <datestamp>2017-02-10T01:15:37Z</datestamp>
      <setSpec>user-biosyslit</setSpec>
    </header>
    <header>
      <identifier>oai:zenodo.org:289958</identifier>
      <datestamp>2017-02-10T00:51:35Z</datestamp>
      <setSpec>user-biosyslit</setSpec>
    </header>
    <header>
      <identifier>oai:zenodo.org:289896</identifier>
      <datestamp>2017-02-10T00:45:53Z</datestamp>
      <setSpec>user-biosyslit</setSpec>
    </header>
    <header>
      <identifier>oai:zenodo.org:289922</identifier>
      <datestamp>2017-02-10T00:47:00Z</datestamp>
      <setSpec>user-biosyslit</setSpec>
    </header>
    <header>
      <identifier>oai:zenodo.org:289900</identifier>
      <datestamp>2017-02-10T00:46:04Z</datestamp>
      <setSpec>user-biosyslit</setSpec>
    </header>
    <header>
      <identifier>oai:zenodo.org:289891</identifier>
      <datestamp>2017-02-10T00:45:40Z</datestamp>
      <setSpec>user-biosyslit</setSpec>
    </header>
    <header>
      <identifier>oai:zenodo.org:291309</identifier>
      <datestamp>2017-02-13T20:42:19Z</datestamp>
      <setSpec>user-biosyslit</setSpec>
    </header>
    <header>
      <identifier>oai:zenodo.org:291923</identifier>
      <datestamp>2017-02-15T14:35:58Z</datestamp>
      <setSpec>user-biosyslit</setSpec>
    </header>
    <header>
      <identifier>oai:zenodo.org:291319</identifier>
      <datestamp>2017-02-13T20:43:21Z</datestamp>
      <setSpec>user-biosyslit</setSpec>
    </header>
    <header>
      <identifier>oai:zenodo.org:291315</identifier>
      <datestamp>2017-02-13T20:43:23Z</datestamp>
      <setSpec>user-biosyslit</setSpec>
    </header>
    <header>
      <identifier>oai:zenodo.org:292884</identifier>
      <datestamp>2017-02-16T18:52:59Z</datestamp>
      <setSpec>user-biosyslit</setSpec>
    </header>
    <header>
      <identifier>oai:zenodo.org:291783</identifier>
      <datestamp>2017-02-14T17:23:54Z</datestamp>
      <setSpec>user-biosyslit</setSpec>
    </header>
    <header>
      <identifier>oai:zenodo.org:292344</identifier>
      <datestamp>2017-02-20T08:29:37Z</datestamp>
      <setSpec>user-biosyslit</setSpec>
    </header>
    <header>
      <identifier>oai:zenodo.org:292310</identifier>
      <datestamp>2017-02-20T08:30:05Z</datestamp>
      <setSpec>user-biosyslit</setSpec>
    </header>
    <header>
      <identifier>oai:zenodo.org:292318</identifier>
      <datestamp>2017-02-20T08:29:54Z</datestamp>
      <setSpec>openaire</setSpec>
      <setSpec>user-biosyslit</setSpec>
    </header>
    <header>
      <identifier>oai:zenodo.org:292818</identifier>
      <datestamp>2017-02-16T18:44:05Z</datestamp>
      <setSpec>user-biosyslit</setSpec>
    </header>
    <header>
      <identifier>oai:zenodo.org:291929</identifier>
      <datestamp>2017-02-15T15:00:27Z</datestamp>
      <setSpec>user-biosyslit</setSpec>
    </header>
    <header>
      <identifier>oai:zenodo.org:292740</identifier>
      <datestamp>2017-02-16T18:34:59Z</datestamp>
      <setSpec>user-biosyslit</setSpec>
    </header>
    <header>
      <identifier>oai:zenodo.org:292355</identifier>
      <datestamp>2017-02-20T08:29:23Z</datestamp>
      <setSpec>openaire</setSpec>
      <setSpec>user-biosyslit</setSpec>
    </header>
    <header>
      <identifier>oai:zenodo.org:292477</identifier>
      <datestamp>2017-02-20T08:19:12Z</datestamp>
      <setSpec>user-biosyslit</setSpec>
    </header>
    <header>
      <identifier>oai:zenodo.org:293449</identifier>
      <datestamp>2017-02-19T13:42:56Z</datestamp>
      <setSpec>user-biosyslit</setSpec>
    </header>
    <header>
      <identifier>oai:zenodo.org:293642</identifier>
      <datestamp>2017-02-19T13:56:05Z</datestamp>
      <setSpec>user-biosyslit</setSpec>
    </header>
    <resumptionToken expirationDate="2017-08-31T15:46:17Z" cursor="48500" completeListSize="77796">.eJyNysEOQzAYAOB3-c-yVIsukl3EJg4IHWGXxRAxZaJb0MW7z2Xn7fx9bxBVVYKJdoaGDR1RRLCuUcPQFBDF-OD82mwMRZrwoudx7iSvqEtQhmvq22L27Iz4skVBp0p2CnGq7ue4QUt4jp-ZjOaEuBNDR-rJcPHv7vZKEjj8cnMGFvcWZ7gcg2O4MNViF1J8n_rnkz-fLQ6gwJDXFZjanirQTvlYCzDf6_oBmeBRQQ.DInAUQ.FTc113Q1wSm3UVm2tItn2JoR2K8</resumptionToken>
  </ListIdentifiers>
</OAI-PMH>
