<?xml version='1.0' encoding='UTF-8'?>
<?xml-stylesheet type="text/xsl" href="/static/xsl/oai2.v1.0.xsl"?>
<OAI-PMH xmlns="http://www.openarchives.org/OAI/2.0/" xmlns:xsi="http://www.w3.org/2001/XMLSchema-instance" xsi:schemaLocation="http://www.openarchives.org/OAI/2.0/ http://www.openarchives.org/OAI/2.0/OAI-PMH.xsd">
  <responseDate>2017-08-31T15:45:02Z</responseDate>
  <request verb="ListIdentifiers" resumptionToken=".eJyNyssKgkAUANB_uWuJO77GhDahiYsUnZRsE6Yi1lTiFOqI_56b1rU-ZwJRVSXYuKJoGUipiTpB3VwbCoiie3J-bhaG4pjy4sGT3Evf8T3FTK1p4Ihh72RaIG8Y3olku0g9EmtIGhyjQ_LKZDykmt8zdOleRmNw9ZdXaqHHTxevZcljy5ladqEbjYxs2Ukrvo_8-eTP54gNKNDmdQW2YZkK3Pq8qwXY0zx_AJvPUUM.DInAfQ.3CDkBpTgAu7yu3SLAP3S6Qjnvqs">https://zenodo.org/oai2d</request>
  <ListIdentifiers>
    <header>
      <identifier>oai:zenodo.org:344791</identifier>
      <datestamp>2017-03-01T09:35:26Z</datestamp>
      <setSpec>user-biosyslit</setSpec>
    </header>
    <header>
      <identifier>oai:zenodo.org:344437</identifier>
      <datestamp>2017-02-28T23:25:35Z</datestamp>
      <setSpec>openaire</setSpec>
      <setSpec>user-biosyslit</setSpec>
    </header>
    <header>
      <identifier>oai:zenodo.org:344460</identifier>
      <datestamp>2017-02-28T23:24:59Z</datestamp>
      <setSpec>user-biosyslit</setSpec>
    </header>
    <header>
      <identifier>oai:zenodo.org:344243</identifier>
      <datestamp>2017-02-28T23:43:05Z</datestamp>
      <setSpec>openaire</setSpec>
      <setSpec>user-biosyslit</setSpec>
    </header>
    <header>
      <identifier>oai:zenodo.org:344836</identifier>
      <datestamp>2017-03-02T07:47:28Z</datestamp>
      <setSpec>user-biosyslit</setSpec>
    </header>
    <header>
      <identifier>oai:zenodo.org:344990</identifier>
      <datestamp>2017-03-02T08:15:24Z</datestamp>
      <setSpec>user-biosyslit</setSpec>
    </header>
    <header>
      <identifier>oai:zenodo.org:344726</identifier>
      <datestamp>2017-03-01T08:18:50Z</datestamp>
      <setSpec>user-biosyslit</setSpec>
    </header>
    <header>
      <identifier>oai:zenodo.org:344743</identifier>
      <datestamp>2017-03-01T08:23:26Z</datestamp>
      <setSpec>user-biosyslit</setSpec>
    </header>
    <header>
      <identifier>oai:zenodo.org:345076</identifier>
      <datestamp>2017-03-02T09:31:23Z</datestamp>
      <setSpec>user-biosyslit</setSpec>
    </header>
    <header>
      <identifier>oai:zenodo.org:345213</identifier>
      <datestamp>2017-03-03T08:19:19Z</datestamp>
      <setSpec>user-biosyslit</setSpec>
    </header>
    <header>
      <identifier>oai:zenodo.org:345209</identifier>
      <datestamp>2017-03-03T08:19:07Z</datestamp>
      <setSpec>user-biosyslit</setSpec>
    </header>
    <header>
      <identifier>oai:zenodo.org:344651</identifier>
      <datestamp>2017-03-01T08:06:04Z</datestamp>
      <setSpec>user-biosyslit</setSpec>
    </header>
    <header>
      <identifier>oai:zenodo.org:345768</identifier>
      <datestamp>2017-03-06T10:01:04Z</datestamp>
      <setSpec>openaire</setSpec>
      <setSpec>user-biosyslit</setSpec>
    </header>
    <header>
      <identifier>oai:zenodo.org:545709</identifier>
      <datestamp>2017-04-12T07:34:42Z</datestamp>
      <setSpec>user-biosyslit</setSpec>
    </header>
    <header>
      <identifier>oai:zenodo.org:345805</identifier>
      <datestamp>2017-03-06T08:45:37Z</datestamp>
      <setSpec>user-biosyslit</setSpec>
    </header>
    <header>
      <identifier>oai:zenodo.org:545915</identifier>
      <datestamp>2017-04-13T08:06:58Z</datestamp>
      <setSpec>user-biosyslit</setSpec>
    </header>
    <header>
      <identifier>oai:zenodo.org:545921</identifier>
      <datestamp>2017-04-13T08:16:28Z</datestamp>
      <setSpec>user-biosyslit</setSpec>
    </header>
    <header>
      <identifier>oai:zenodo.org:545920</identifier>
      <datestamp>2017-04-13T08:16:25Z</datestamp>
      <setSpec>user-biosyslit</setSpec>
    </header>
    <header>
      <identifier>oai:zenodo.org:579958</identifier>
      <datestamp>2017-05-15T09:12:12Z</datestamp>
      <setSpec>user-biosyslit</setSpec>
    </header>
    <header>
      <identifier>oai:zenodo.org:545704</identifier>
      <datestamp>2017-04-12T07:35:06Z</datestamp>
      <setSpec>user-biosyslit</setSpec>
    </header>
    <header>
      <identifier>oai:zenodo.org:579345</identifier>
      <datestamp>2017-05-18T07:02:30Z</datestamp>
      <setSpec>openaire</setSpec>
      <setSpec>user-biosyslit</setSpec>
    </header>
    <header>
      <identifier>oai:zenodo.org:579239</identifier>
      <datestamp>2017-05-18T07:05:49Z</datestamp>
      <setSpec>openaire</setSpec>
      <setSpec>user-biosyslit</setSpec>
    </header>
    <header>
      <identifier>oai:zenodo.org:243223</identifier>
      <datestamp>2017-01-14T00:51:46Z</datestamp>
      <setSpec>user-biosyslit</setSpec>
    </header>
    <header>
      <identifier>oai:zenodo.org:243162</identifier>
      <datestamp>2017-01-14T00:03:27Z</datestamp>
      <setSpec>user-biosyslit</setSpec>
    </header>
    <header>
      <identifier>oai:zenodo.org:243214</identifier>
      <datestamp>2017-01-14T00:47:50Z</datestamp>
      <setSpec>user-biosyslit</setSpec>
    </header>
    <header>
      <identifier>oai:zenodo.org:243728</identifier>
      <datestamp>2017-01-14T10:02:44Z</datestamp>
      <setSpec>user-biosyslit</setSpec>
    </header>
    <header>
      <identifier>oai:zenodo.org:243682</identifier>
      <datestamp>2017-01-14T09:19:30Z</datestamp>
      <setSpec>user-biosyslit</setSpec>
    </header>
    <header>
      <identifier>oai:zenodo.org:243198</identifier>
      <datestamp>2017-01-14T00:33:21Z</datestamp>
      <setSpec>user-biosyslit</setSpec>
    </header>
    <header>
      <identifier>oai:zenodo.org:272022</identifier>
      <datestamp>2017-02-08T03:21:33Z</datestamp>
      <setSpec>user-biosyslit</setSpec>
    </header>
    <header>
      <identifier>oai:zenodo.org:243289</identifier>
      <datestamp>2017-01-14T02:07:36Z</datestamp>
      <setSpec>user-biosyslit</setSpec>
    </header>
    <header>
      <identifier>oai:zenodo.org:243601</identifier>
      <datestamp>2017-01-14T08:02:39Z</datestamp>
      <setSpec>user-biosyslit</setSpec>
    </header>
    <header>
      <identifier>oai:zenodo.org:275691</identifier>
      <datestamp>2017-02-08T16:55:42Z</datestamp>
      <setSpec>user-biosyslit</setSpec>
    </header>
    <header>
      <identifier>oai:zenodo.org:243686</identifier>
      <datestamp>2017-01-14T09:19:49Z</datestamp>
      <setSpec>user-biosyslit</setSpec>
    </header>
    <header>
      <identifier>oai:zenodo.org:243506</identifier>
      <datestamp>2017-01-14T06:42:40Z</datestamp>
      <setSpec>user-biosyslit</setSpec>
    </header>
    <header>
      <identifier>oai:zenodo.org:243661</identifier>
      <datestamp>2017-01-14T08:53:15Z</datestamp>
      <setSpec>user-biosyslit</setSpec>
    </header>
    <header>
      <identifier>oai:zenodo.org:244107</identifier>
      <datestamp>2017-01-14T16:23:32Z</datestamp>
      <setSpec>user-biosyslit</setSpec>
    </header>
    <header>
      <identifier>oai:zenodo.org:244317</identifier>
      <datestamp>2017-01-14T19:50:31Z</datestamp>
      <setSpec>user-biosyslit</setSpec>
    </header>
    <header>
      <identifier>oai:zenodo.org:243731</identifier>
      <datestamp>2017-01-14T10:02:54Z</datestamp>
      <setSpec>user-biosyslit</setSpec>
    </header>
    <header>
      <identifier>oai:zenodo.org:272372</identifier>
      <datestamp>2017-02-08T04:22:38Z</datestamp>
      <setSpec>user-biosyslit</setSpec>
    </header>
    <header>
      <identifier>oai:zenodo.org:244429</identifier>
      <datestamp>2017-01-14T21:46:04Z</datestamp>
      <setSpec>user-biosyslit</setSpec>
    </header>
    <header>
      <identifier>oai:zenodo.org:244686</identifier>
      <datestamp>2017-01-15T01:10:34Z</datestamp>
      <setSpec>user-biosyslit</setSpec>
    </header>
    <header>
      <identifier>oai:zenodo.org:246659</identifier>
      <datestamp>2017-01-16T06:57:30Z</datestamp>
      <setSpec>user-biosyslit</setSpec>
    </header>
    <header>
      <identifier>oai:zenodo.org:244957</identifier>
      <datestamp>2017-01-15T05:56:47Z</datestamp>
      <setSpec>user-biosyslit</setSpec>
    </header>
    <header>
      <identifier>oai:zenodo.org:272393</identifier>
      <datestamp>2017-02-08T04:27:13Z</datestamp>
      <setSpec>user-biosyslit</setSpec>
    </header>
    <header>
      <identifier>oai:zenodo.org:245167</identifier>
      <datestamp>2017-01-15T09:02:22Z</datestamp>
      <setSpec>user-biosyslit</setSpec>
    </header>
    <header>
      <identifier>oai:zenodo.org:244812</identifier>
      <datestamp>2017-01-15T03:17:32Z</datestamp>
      <setSpec>user-biosyslit</setSpec>
    </header>
    <header>
      <identifier>oai:zenodo.org:272273</identifier>
      <datestamp>2017-02-08T04:08:55Z</datestamp>
      <setSpec>user-biosyslit</setSpec>
    </header>
    <header>
      <identifier>oai:zenodo.org:288772</identifier>
      <datestamp>2017-02-09T21:51:56Z</datestamp>
      <setSpec>user-biosyslit</setSpec>
    </header>
    <header>
      <identifier>oai:zenodo.org:289072</identifier>
      <datestamp>2017-02-09T22:33:58Z</datestamp>
      <setSpec>user-biosyslit</setSpec>
    </header>
    <header>
      <identifier>oai:zenodo.org:272459</identifier>
      <datestamp>2017-02-08T04:45:19Z</datestamp>
      <setSpec>user-biosyslit</setSpec>
    </header>
    <header>
      <identifier>oai:zenodo.org:246092</identifier>
      <datestamp>2017-01-15T21:55:18Z</datestamp>
      <setSpec>user-biosyslit</setSpec>
    </header>
    <header>
      <identifier>oai:zenodo.org:289247</identifier>
      <datestamp>2017-02-09T23:03:46Z</datestamp>
      <setSpec>user-biosyslit</setSpec>
    </header>
    <header>
      <identifier>oai:zenodo.org:289704</identifier>
      <datestamp>2017-02-10T00:23:17Z</datestamp>
      <setSpec>user-biosyslit</setSpec>
    </header>
    <header>
      <identifier>oai:zenodo.org:289419</identifier>
      <datestamp>2017-02-09T23:27:52Z</datestamp>
      <setSpec>user-biosyslit</setSpec>
    </header>
    <header>
      <identifier>oai:zenodo.org:291275</identifier>
      <datestamp>2017-02-13T20:38:56Z</datestamp>
      <setSpec>user-biosyslit</setSpec>
    </header>
    <header>
      <identifier>oai:zenodo.org:289707</identifier>
      <datestamp>2017-02-10T00:21:35Z</datestamp>
      <setSpec>user-biosyslit</setSpec>
    </header>
    <header>
      <identifier>oai:zenodo.org:289268</identifier>
      <datestamp>2017-02-09T23:07:03Z</datestamp>
      <setSpec>user-biosyslit</setSpec>
    </header>
    <header>
      <identifier>oai:zenodo.org:289700</identifier>
      <datestamp>2017-02-10T00:11:39Z</datestamp>
      <setSpec>user-biosyslit</setSpec>
    </header>
    <header>
      <identifier>oai:zenodo.org:289297</identifier>
      <datestamp>2017-02-09T23:10:04Z</datestamp>
      <setSpec>user-biosyslit</setSpec>
    </header>
    <header>
      <identifier>oai:zenodo.org:289796</identifier>
      <datestamp>2017-02-10T00:30:56Z</datestamp>
      <setSpec>user-biosyslit</setSpec>
    </header>
    <header>
      <identifier>oai:zenodo.org:289877</identifier>
      <datestamp>2017-02-10T00:45:03Z</datestamp>
      <setSpec>user-biosyslit</setSpec>
    </header>
    <header>
      <identifier>oai:zenodo.org:291279</identifier>
      <datestamp>2017-02-13T20:39:32Z</datestamp>
      <setSpec>user-biosyslit</setSpec>
    </header>
    <header>
      <identifier>oai:zenodo.org:291262</identifier>
      <datestamp>2017-02-13T20:38:10Z</datestamp>
      <setSpec>user-biosyslit</setSpec>
    </header>
    <header>
      <identifier>oai:zenodo.org:291367</identifier>
      <datestamp>2017-02-13T20:51:03Z</datestamp>
      <setSpec>user-biosyslit</setSpec>
    </header>
    <header>
      <identifier>oai:zenodo.org:291342</identifier>
      <datestamp>2017-02-13T20:45:29Z</datestamp>
      <setSpec>user-biosyslit</setSpec>
    </header>
    <header>
      <identifier>oai:zenodo.org:291920</identifier>
      <datestamp>2017-02-15T14:35:51Z</datestamp>
      <setSpec>user-biosyslit</setSpec>
    </header>
    <header>
      <identifier>oai:zenodo.org:291295</identifier>
      <datestamp>2017-02-13T20:40:49Z</datestamp>
      <setSpec>user-biosyslit</setSpec>
    </header>
    <header>
      <identifier>oai:zenodo.org:291299</identifier>
      <datestamp>2017-02-13T20:41:01Z</datestamp>
      <setSpec>user-biosyslit</setSpec>
    </header>
    <header>
      <identifier>oai:zenodo.org:292320</identifier>
      <datestamp>2017-02-20T08:29:52Z</datestamp>
      <setSpec>user-biosyslit</setSpec>
    </header>
    <header>
      <identifier>oai:zenodo.org:293728</identifier>
      <datestamp>2017-02-20T12:00:45Z</datestamp>
      <setSpec>openaire</setSpec>
      <setSpec>user-biosyslit</setSpec>
      <setSpec>user-neilreichia</setSpec>
    </header>
    <header>
      <identifier>oai:zenodo.org:291796</identifier>
      <datestamp>2017-02-14T22:03:14Z</datestamp>
      <setSpec>user-biosyslit</setSpec>
    </header>
    <header>
      <identifier>oai:zenodo.org:292485</identifier>
      <datestamp>2017-02-20T08:31:30Z</datestamp>
      <setSpec>user-biosyslit</setSpec>
    </header>
    <header>
      <identifier>oai:zenodo.org:292901</identifier>
      <datestamp>2017-02-16T18:57:26Z</datestamp>
      <setSpec>user-biosyslit</setSpec>
    </header>
    <header>
      <identifier>oai:zenodo.org:292825</identifier>
      <datestamp>2017-02-16T18:43:58Z</datestamp>
      <setSpec>user-biosyslit</setSpec>
    </header>
    <header>
      <identifier>oai:zenodo.org:293028</identifier>
      <datestamp>2017-02-19T11:38:19Z</datestamp>
      <setSpec>user-neilreichia</setSpec>
      <setSpec>user-biosyslit</setSpec>
    </header>
    <header>
      <identifier>oai:zenodo.org:293600</identifier>
      <datestamp>2017-02-19T13:52:18Z</datestamp>
      <setSpec>user-biosyslit</setSpec>
    </header>
    <header>
      <identifier>oai:zenodo.org:292909</identifier>
      <datestamp>2017-02-16T18:59:05Z</datestamp>
      <setSpec>user-biosyslit</setSpec>
    </header>
    <header>
      <identifier>oai:zenodo.org:293628</identifier>
      <datestamp>2017-02-19T13:55:21Z</datestamp>
      <setSpec>user-biosyslit</setSpec>
    </header>
    <header>
      <identifier>oai:zenodo.org:293226</identifier>
      <datestamp>2017-02-19T13:08:15Z</datestamp>
      <setSpec>user-biosyslit</setSpec>
    </header>
    <header>
      <identifier>oai:zenodo.org:293500</identifier>
      <datestamp>2017-02-19T13:45:46Z</datestamp>
      <setSpec>user-biosyslit</setSpec>
    </header>
    <header>
      <identifier>oai:zenodo.org:292905</identifier>
      <datestamp>2017-02-16T18:58:09Z</datestamp>
      <setSpec>user-biosyslit</setSpec>
    </header>
    <header>
      <identifier>oai:zenodo.org:292923</identifier>
      <datestamp>2017-02-16T19:01:09Z</datestamp>
      <setSpec>user-biosyslit</setSpec>
    </header>
    <header>
      <identifier>oai:zenodo.org:292891</identifier>
      <datestamp>2017-02-16T18:54:55Z</datestamp>
      <setSpec>user-biosyslit</setSpec>
    </header>
    <header>
      <identifier>oai:zenodo.org:293275</identifier>
      <datestamp>2017-02-19T13:27:25Z</datestamp>
      <setSpec>user-biosyslit</setSpec>
    </header>
    <header>
      <identifier>oai:zenodo.org:293170</identifier>
      <datestamp>2017-02-18T19:52:13Z</datestamp>
      <setSpec>user-biosyslit</setSpec>
    </header>
    <header>
      <identifier>oai:zenodo.org:293526</identifier>
      <datestamp>2017-02-19T13:46:31Z</datestamp>
      <setSpec>user-biosyslit</setSpec>
    </header>
    <header>
      <identifier>oai:zenodo.org:293604</identifier>
      <datestamp>2017-02-19T13:52:37Z</datestamp>
      <setSpec>user-biosyslit</setSpec>
    </header>
    <header>
      <identifier>oai:zenodo.org:293415</identifier>
      <datestamp>2017-02-19T13:38:24Z</datestamp>
      <setSpec>user-biosyslit</setSpec>
    </header>
    <header>
      <identifier>oai:zenodo.org:293492</identifier>
      <datestamp>2017-02-19T13:45:32Z</datestamp>
      <setSpec>user-biosyslit</setSpec>
    </header>
    <header>
      <identifier>oai:zenodo.org:293557</identifier>
      <datestamp>2017-02-19T13:47:18Z</datestamp>
      <setSpec>user-biosyslit</setSpec>
    </header>
    <header>
      <identifier>oai:zenodo.org:294077</identifier>
      <datestamp>2017-02-20T19:15:10Z</datestamp>
      <setSpec>user-biosyslit</setSpec>
    </header>
    <header>
      <identifier>oai:zenodo.org:293730</identifier>
      <datestamp>2017-02-20T12:00:45Z</datestamp>
      <setSpec>openaire</setSpec>
      <setSpec>user-biosyslit</setSpec>
      <setSpec>user-neilreichia</setSpec>
    </header>
    <header>
      <identifier>oai:zenodo.org:293896</identifier>
      <datestamp>2017-02-20T18:55:54Z</datestamp>
      <setSpec>user-biosyslit</setSpec>
    </header>
    <header>
      <identifier>oai:zenodo.org:294376</identifier>
      <datestamp>2017-02-20T19:37:25Z</datestamp>
      <setSpec>user-biosyslit</setSpec>
    </header>
    <header>
      <identifier>oai:zenodo.org:306675</identifier>
      <datestamp>2017-02-20T23:00:12Z</datestamp>
      <setSpec>user-biosyslit</setSpec>
    </header>
    <header>
      <identifier>oai:zenodo.org:294178</identifier>
      <datestamp>2017-02-20T19:26:26Z</datestamp>
      <setSpec>user-biosyslit</setSpec>
    </header>
    <header>
      <identifier>oai:zenodo.org:294205</identifier>
      <datestamp>2017-02-20T19:28:42Z</datestamp>
      <setSpec>user-biosyslit</setSpec>
    </header>
    <header>
      <identifier>oai:zenodo.org:302152</identifier>
      <datestamp>2017-02-20T21:46:26Z</datestamp>
      <setSpec>user-biosyslit</setSpec>
    </header>
    <header>
      <identifier>oai:zenodo.org:301089</identifier>
      <datestamp>2017-02-20T21:29:07Z</datestamp>
      <setSpec>user-biosyslit</setSpec>
    </header>
    <header>
      <identifier>oai:zenodo.org:296608</identifier>
      <datestamp>2017-02-20T20:15:40Z</datestamp>
      <setSpec>user-biosyslit</setSpec>
    </header>
    <resumptionToken expirationDate="2017-08-31T15:47:02Z" cursor="58500" completeListSize="77796">.eJyNz00PQzAAgOH_0rMsbTEfyS7CxAGhI-OyWImYMtEtqPjvc9l5O7_P5V0Br6oSmPCgaLpyVCCGyDCwqmJNApyOT8Zuzd4BvaaM9iwp3PQddynMcK0FNp99O5MD0cKwQ4KcI3xF-pw0cIkuySsT8ZzK3kSgo_kiWoKHt7tSDl2W392BJL3FCC7H0IkWgiySy_Tr0J9O_HQ2PwEJDEVdAVPV96t2KsaaA3Pdtg_STlF6.DInAfg.HHEDp_OM9L0mYGrT3EXSWyJmgns</resumptionToken>
  </ListIdentifiers>
</OAI-PMH>
