<?xml version='1.0' encoding='UTF-8'?>
<?xml-stylesheet type="text/xsl" href="/static/xsl/oai2.v1.0.xsl"?>
<OAI-PMH xmlns="http://www.openarchives.org/OAI/2.0/" xmlns:xsi="http://www.w3.org/2001/XMLSchema-instance" xsi:schemaLocation="http://www.openarchives.org/OAI/2.0/ http://www.openarchives.org/OAI/2.0/OAI-PMH.xsd">
  <responseDate>2017-08-31T15:45:04Z</responseDate>
  <request verb="ListIdentifiers" resumptionToken=".eJyNyssKgkAUANB_uWuJO2M-oU1Y4iJFJ0XbhKmIOT1wCnXEf89N61qfM4GoqhJsXOkUtTUauoEatUxcKyCK7sH5uVkYijThxZ3HuZu8o1uCGa0N3xHDwclUX7YY3Ihk-5CmxBziBsfwGL8yGQ2J6vUMd8ZBhqN_9ZZXqoHLTxf3yeL7ljNadsEuHBnZspNafB_588mfzxEbUOCZ1xXYmkUUaPu8qwXY0zx_AJfSUTs.DInAgA.-Aud9Ey9t2Z4OCE6lSpVRamIOAA">https://zenodo.org/oai2d</request>
  <ListIdentifiers>
    <header>
      <identifier>oai:zenodo.org:245852</identifier>
      <datestamp>2017-01-15T19:11:00Z</datestamp>
      <setSpec>user-biosyslit</setSpec>
    </header>
    <header>
      <identifier>oai:zenodo.org:245849</identifier>
      <datestamp>2017-01-15T19:10:49Z</datestamp>
      <setSpec>user-biosyslit</setSpec>
    </header>
    <header>
      <identifier>oai:zenodo.org:246279</identifier>
      <datestamp>2017-01-15T23:46:31Z</datestamp>
      <setSpec>user-biosyslit</setSpec>
    </header>
    <header>
      <identifier>oai:zenodo.org:245235</identifier>
      <datestamp>2017-01-15T10:19:28Z</datestamp>
      <setSpec>user-biosyslit</setSpec>
    </header>
    <header>
      <identifier>oai:zenodo.org:245875</identifier>
      <datestamp>2017-01-15T19:12:27Z</datestamp>
      <setSpec>user-biosyslit</setSpec>
    </header>
    <header>
      <identifier>oai:zenodo.org:246010</identifier>
      <datestamp>2017-01-15T20:59:42Z</datestamp>
      <setSpec>user-biosyslit</setSpec>
    </header>
    <header>
      <identifier>oai:zenodo.org:16183</identifier>
      <datestamp>2017-01-06T09:55:21Z</datestamp>
      <setSpec>openaire</setSpec>
      <setSpec>user-biosyslit</setSpec>
    </header>
    <header>
      <identifier>oai:zenodo.org:245976</identifier>
      <datestamp>2017-01-15T20:25:52Z</datestamp>
      <setSpec>user-biosyslit</setSpec>
    </header>
    <header>
      <identifier>oai:zenodo.org:245810</identifier>
      <datestamp>2017-01-15T18:55:12Z</datestamp>
      <setSpec>user-biosyslit</setSpec>
    </header>
    <header>
      <identifier>oai:zenodo.org:245806</identifier>
      <datestamp>2017-01-15T18:54:59Z</datestamp>
      <setSpec>user-biosyslit</setSpec>
    </header>
    <header>
      <identifier>oai:zenodo.org:245888</identifier>
      <datestamp>2017-01-15T19:20:54Z</datestamp>
      <setSpec>user-biosyslit</setSpec>
    </header>
    <header>
      <identifier>oai:zenodo.org:245676</identifier>
      <datestamp>2017-01-15T17:14:13Z</datestamp>
      <setSpec>user-biosyslit</setSpec>
    </header>
    <header>
      <identifier>oai:zenodo.org:246292</identifier>
      <datestamp>2017-01-15T23:47:14Z</datestamp>
      <setSpec>user-biosyslit</setSpec>
    </header>
    <header>
      <identifier>oai:zenodo.org:245406</identifier>
      <datestamp>2017-01-15T12:49:43Z</datestamp>
      <setSpec>user-biosyslit</setSpec>
    </header>
    <header>
      <identifier>oai:zenodo.org:245979</identifier>
      <datestamp>2017-01-15T20:25:23Z</datestamp>
      <setSpec>user-biosyslit</setSpec>
    </header>
    <header>
      <identifier>oai:zenodo.org:246662</identifier>
      <datestamp>2017-01-16T06:57:40Z</datestamp>
      <setSpec>user-biosyslit</setSpec>
    </header>
    <header>
      <identifier>oai:zenodo.org:246319</identifier>
      <datestamp>2017-01-16T00:43:57Z</datestamp>
      <setSpec>user-biosyslit</setSpec>
    </header>
    <header>
      <identifier>oai:zenodo.org:246075</identifier>
      <datestamp>2017-01-15T21:45:20Z</datestamp>
      <setSpec>user-biosyslit</setSpec>
    </header>
    <header>
      <identifier>oai:zenodo.org:246710</identifier>
      <datestamp>2017-01-16T06:59:56Z</datestamp>
      <setSpec>user-biosyslit</setSpec>
    </header>
    <header>
      <identifier>oai:zenodo.org:245309</identifier>
      <datestamp>2017-01-15T11:34:44Z</datestamp>
      <setSpec>user-biosyslit</setSpec>
    </header>
    <header>
      <identifier>oai:zenodo.org:245915</identifier>
      <datestamp>2017-01-15T19:26:35Z</datestamp>
      <setSpec>user-biosyslit</setSpec>
    </header>
    <header>
      <identifier>oai:zenodo.org:246834</identifier>
      <datestamp>2017-01-16T09:09:22Z</datestamp>
      <setSpec>user-biosyslit</setSpec>
    </header>
    <header>
      <identifier>oai:zenodo.org:272499</identifier>
      <datestamp>2017-02-08T04:56:13Z</datestamp>
      <setSpec>user-biosyslit</setSpec>
    </header>
    <header>
      <identifier>oai:zenodo.org:245890</identifier>
      <datestamp>2017-01-15T19:21:03Z</datestamp>
      <setSpec>user-biosyslit</setSpec>
    </header>
    <header>
      <identifier>oai:zenodo.org:246005</identifier>
      <datestamp>2017-01-15T20:44:49Z</datestamp>
      <setSpec>user-biosyslit</setSpec>
    </header>
    <header>
      <identifier>oai:zenodo.org:272350</identifier>
      <datestamp>2017-02-08T04:21:28Z</datestamp>
      <setSpec>user-biosyslit</setSpec>
    </header>
    <header>
      <identifier>oai:zenodo.org:246418</identifier>
      <datestamp>2017-01-16T01:51:31Z</datestamp>
      <setSpec>user-biosyslit</setSpec>
    </header>
    <header>
      <identifier>oai:zenodo.org:245894</identifier>
      <datestamp>2017-01-15T19:21:18Z</datestamp>
      <setSpec>user-biosyslit</setSpec>
    </header>
    <header>
      <identifier>oai:zenodo.org:246725</identifier>
      <datestamp>2017-01-16T07:16:31Z</datestamp>
      <setSpec>user-biosyslit</setSpec>
    </header>
    <header>
      <identifier>oai:zenodo.org:246303</identifier>
      <datestamp>2017-01-16T00:14:12Z</datestamp>
      <setSpec>user-biosyslit</setSpec>
    </header>
    <header>
      <identifier>oai:zenodo.org:246118</identifier>
      <datestamp>2017-01-15T22:18:20Z</datestamp>
      <setSpec>user-biosyslit</setSpec>
    </header>
    <header>
      <identifier>oai:zenodo.org:246326</identifier>
      <datestamp>2017-01-16T00:44:25Z</datestamp>
      <setSpec>user-biosyslit</setSpec>
    </header>
    <header>
      <identifier>oai:zenodo.org:247069</identifier>
      <datestamp>2017-01-16T11:08:43Z</datestamp>
      <setSpec>user-biosyslit</setSpec>
    </header>
    <header>
      <identifier>oai:zenodo.org:246166</identifier>
      <datestamp>2017-01-15T22:46:41Z</datestamp>
      <setSpec>user-biosyslit</setSpec>
    </header>
    <header>
      <identifier>oai:zenodo.org:246850</identifier>
      <datestamp>2017-01-16T09:21:14Z</datestamp>
      <setSpec>user-biosyslit</setSpec>
    </header>
    <header>
      <identifier>oai:zenodo.org:246352</identifier>
      <datestamp>2017-01-16T01:15:23Z</datestamp>
      <setSpec>user-biosyslit</setSpec>
    </header>
    <header>
      <identifier>oai:zenodo.org:246714</identifier>
      <datestamp>2017-01-16T07:00:07Z</datestamp>
      <setSpec>user-biosyslit</setSpec>
    </header>
    <header>
      <identifier>oai:zenodo.org:245846</identifier>
      <datestamp>2017-01-15T19:10:40Z</datestamp>
      <setSpec>user-biosyslit</setSpec>
    </header>
    <header>
      <identifier>oai:zenodo.org:245879</identifier>
      <datestamp>2017-01-15T19:12:49Z</datestamp>
      <setSpec>user-biosyslit</setSpec>
    </header>
    <header>
      <identifier>oai:zenodo.org:245592</identifier>
      <datestamp>2017-01-15T16:05:46Z</datestamp>
      <setSpec>user-biosyslit</setSpec>
    </header>
    <header>
      <identifier>oai:zenodo.org:245914</identifier>
      <datestamp>2017-01-15T19:26:33Z</datestamp>
      <setSpec>user-biosyslit</setSpec>
    </header>
    <header>
      <identifier>oai:zenodo.org:246694</identifier>
      <datestamp>2017-01-16T06:59:07Z</datestamp>
      <setSpec>user-biosyslit</setSpec>
    </header>
    <header>
      <identifier>oai:zenodo.org:246082</identifier>
      <datestamp>2017-01-15T21:50:50Z</datestamp>
      <setSpec>user-biosyslit</setSpec>
    </header>
    <header>
      <identifier>oai:zenodo.org:246104</identifier>
      <datestamp>2017-01-15T22:03:22Z</datestamp>
      <setSpec>user-biosyslit</setSpec>
    </header>
    <header>
      <identifier>oai:zenodo.org:245872</identifier>
      <datestamp>2017-01-15T19:12:16Z</datestamp>
      <setSpec>user-biosyslit</setSpec>
    </header>
    <header>
      <identifier>oai:zenodo.org:245947</identifier>
      <datestamp>2017-01-15T19:40:43Z</datestamp>
      <setSpec>user-biosyslit</setSpec>
    </header>
    <header>
      <identifier>oai:zenodo.org:246323</identifier>
      <datestamp>2017-01-16T00:44:12Z</datestamp>
      <setSpec>user-biosyslit</setSpec>
    </header>
    <header>
      <identifier>oai:zenodo.org:246338</identifier>
      <datestamp>2017-01-16T01:14:35Z</datestamp>
      <setSpec>user-biosyslit</setSpec>
    </header>
    <header>
      <identifier>oai:zenodo.org:246840</identifier>
      <datestamp>2017-01-16T09:09:43Z</datestamp>
      <setSpec>user-biosyslit</setSpec>
    </header>
    <header>
      <identifier>oai:zenodo.org:247344</identifier>
      <datestamp>2017-01-16T14:30:14Z</datestamp>
      <setSpec>user-biosyslit</setSpec>
    </header>
    <header>
      <identifier>oai:zenodo.org:246121</identifier>
      <datestamp>2017-01-15T22:18:48Z</datestamp>
      <setSpec>user-biosyslit</setSpec>
    </header>
    <header>
      <identifier>oai:zenodo.org:245873</identifier>
      <datestamp>2017-01-15T19:12:21Z</datestamp>
      <setSpec>user-biosyslit</setSpec>
    </header>
    <header>
      <identifier>oai:zenodo.org:272416</identifier>
      <datestamp>2017-02-08T04:33:52Z</datestamp>
      <setSpec>user-biosyslit</setSpec>
    </header>
    <header>
      <identifier>oai:zenodo.org:246083</identifier>
      <datestamp>2017-01-15T21:50:55Z</datestamp>
      <setSpec>user-biosyslit</setSpec>
    </header>
    <header>
      <identifier>oai:zenodo.org:245944</identifier>
      <datestamp>2017-01-15T19:40:35Z</datestamp>
      <setSpec>user-biosyslit</setSpec>
    </header>
    <header>
      <identifier>oai:zenodo.org:245701</identifier>
      <datestamp>2017-01-15T17:36:25Z</datestamp>
      <setSpec>user-biosyslit</setSpec>
    </header>
    <header>
      <identifier>oai:zenodo.org:246416</identifier>
      <datestamp>2017-01-16T01:51:23Z</datestamp>
      <setSpec>user-biosyslit</setSpec>
    </header>
    <header>
      <identifier>oai:zenodo.org:245908</identifier>
      <datestamp>2017-01-15T19:27:03Z</datestamp>
      <setSpec>user-biosyslit</setSpec>
    </header>
    <header>
      <identifier>oai:zenodo.org:245663</identifier>
      <datestamp>2017-01-15T17:13:23Z</datestamp>
      <setSpec>user-biosyslit</setSpec>
    </header>
    <header>
      <identifier>oai:zenodo.org:272417</identifier>
      <datestamp>2017-02-08T04:35:14Z</datestamp>
      <setSpec>user-biosyslit</setSpec>
    </header>
    <header>
      <identifier>oai:zenodo.org:245840</identifier>
      <datestamp>2017-01-15T19:10:20Z</datestamp>
      <setSpec>user-biosyslit</setSpec>
    </header>
    <header>
      <identifier>oai:zenodo.org:17823</identifier>
      <datestamp>2017-03-15T16:01:14Z</datestamp>
      <setSpec>user-biosyslit</setSpec>
    </header>
    <header>
      <identifier>oai:zenodo.org:246015</identifier>
      <datestamp>2017-01-15T21:02:39Z</datestamp>
      <setSpec>user-biosyslit</setSpec>
    </header>
    <header>
      <identifier>oai:zenodo.org:245987</identifier>
      <datestamp>2017-01-15T20:25:47Z</datestamp>
      <setSpec>user-biosyslit</setSpec>
    </header>
    <header>
      <identifier>oai:zenodo.org:245770</identifier>
      <datestamp>2017-01-15T18:29:24Z</datestamp>
      <setSpec>user-biosyslit</setSpec>
    </header>
    <header>
      <identifier>oai:zenodo.org:246283</identifier>
      <datestamp>2017-01-15T23:46:44Z</datestamp>
      <setSpec>user-biosyslit</setSpec>
    </header>
    <header>
      <identifier>oai:zenodo.org:247014</identifier>
      <datestamp>2017-01-16T10:22:24Z</datestamp>
      <setSpec>user-biosyslit</setSpec>
    </header>
    <header>
      <identifier>oai:zenodo.org:245636</identifier>
      <datestamp>2017-01-15T16:40:42Z</datestamp>
      <setSpec>user-biosyslit</setSpec>
    </header>
    <header>
      <identifier>oai:zenodo.org:272540</identifier>
      <datestamp>2017-02-08T05:05:58Z</datestamp>
      <setSpec>user-biosyslit</setSpec>
    </header>
    <header>
      <identifier>oai:zenodo.org:246692</identifier>
      <datestamp>2017-01-16T06:59:01Z</datestamp>
      <setSpec>user-biosyslit</setSpec>
    </header>
    <header>
      <identifier>oai:zenodo.org:246665</identifier>
      <datestamp>2017-01-16T06:57:48Z</datestamp>
      <setSpec>user-biosyslit</setSpec>
    </header>
    <header>
      <identifier>oai:zenodo.org:245635</identifier>
      <datestamp>2017-01-15T16:40:39Z</datestamp>
      <setSpec>user-biosyslit</setSpec>
    </header>
    <header>
      <identifier>oai:zenodo.org:246035</identifier>
      <datestamp>2017-01-15T21:18:14Z</datestamp>
      <setSpec>user-biosyslit</setSpec>
    </header>
    <header>
      <identifier>oai:zenodo.org:245856</identifier>
      <datestamp>2017-01-15T19:11:16Z</datestamp>
      <setSpec>user-biosyslit</setSpec>
    </header>
    <header>
      <identifier>oai:zenodo.org:272633</identifier>
      <datestamp>2017-02-08T05:54:05Z</datestamp>
      <setSpec>user-biosyslit</setSpec>
    </header>
    <header>
      <identifier>oai:zenodo.org:245237</identifier>
      <datestamp>2017-01-15T10:19:34Z</datestamp>
      <setSpec>user-biosyslit</setSpec>
    </header>
    <header>
      <identifier>oai:zenodo.org:245170</identifier>
      <datestamp>2017-01-15T09:02:30Z</datestamp>
      <setSpec>user-biosyslit</setSpec>
    </header>
    <header>
      <identifier>oai:zenodo.org:245219</identifier>
      <datestamp>2017-01-15T10:11:57Z</datestamp>
      <setSpec>user-biosyslit</setSpec>
    </header>
    <header>
      <identifier>oai:zenodo.org:245310</identifier>
      <datestamp>2017-01-15T11:34:40Z</datestamp>
      <setSpec>user-biosyslit</setSpec>
    </header>
    <header>
      <identifier>oai:zenodo.org:245668</identifier>
      <datestamp>2017-01-15T17:13:46Z</datestamp>
      <setSpec>user-biosyslit</setSpec>
    </header>
    <header>
      <identifier>oai:zenodo.org:246467</identifier>
      <datestamp>2017-01-16T02:29:28Z</datestamp>
      <setSpec>user-biosyslit</setSpec>
    </header>
    <header>
      <identifier>oai:zenodo.org:246968</identifier>
      <datestamp>2017-01-16T10:07:58Z</datestamp>
      <setSpec>user-biosyslit</setSpec>
    </header>
    <header>
      <identifier>oai:zenodo.org:245198</identifier>
      <datestamp>2017-01-15T09:42:05Z</datestamp>
      <setSpec>user-biosyslit</setSpec>
    </header>
    <header>
      <identifier>oai:zenodo.org:246584</identifier>
      <datestamp>2017-01-16T04:20:15Z</datestamp>
      <setSpec>user-biosyslit</setSpec>
    </header>
    <header>
      <identifier>oai:zenodo.org:245376</identifier>
      <datestamp>2017-01-15T12:19:38Z</datestamp>
      <setSpec>user-biosyslit</setSpec>
    </header>
    <header>
      <identifier>oai:zenodo.org:246704</identifier>
      <datestamp>2017-01-16T06:59:34Z</datestamp>
      <setSpec>user-biosyslit</setSpec>
    </header>
    <header>
      <identifier>oai:zenodo.org:246966</identifier>
      <datestamp>2017-01-16T10:07:51Z</datestamp>
      <setSpec>user-biosyslit</setSpec>
    </header>
    <header>
      <identifier>oai:zenodo.org:246471</identifier>
      <datestamp>2017-01-16T02:29:41Z</datestamp>
      <setSpec>user-biosyslit</setSpec>
    </header>
    <header>
      <identifier>oai:zenodo.org:246822</identifier>
      <datestamp>2017-01-16T08:56:06Z</datestamp>
      <setSpec>user-biosyslit</setSpec>
    </header>
    <header>
      <identifier>oai:zenodo.org:246585</identifier>
      <datestamp>2017-01-16T04:20:17Z</datestamp>
      <setSpec>user-biosyslit</setSpec>
    </header>
    <header>
      <identifier>oai:zenodo.org:247428</identifier>
      <datestamp>2017-01-16T15:28:35Z</datestamp>
      <setSpec>user-biosyslit</setSpec>
    </header>
    <header>
      <identifier>oai:zenodo.org:246868</identifier>
      <datestamp>2017-01-16T09:22:17Z</datestamp>
      <setSpec>user-biosyslit</setSpec>
    </header>
    <header>
      <identifier>oai:zenodo.org:246072</identifier>
      <datestamp>2017-01-15T21:45:08Z</datestamp>
      <setSpec>user-biosyslit</setSpec>
    </header>
    <header>
      <identifier>oai:zenodo.org:246091</identifier>
      <datestamp>2017-01-15T21:55:14Z</datestamp>
      <setSpec>user-biosyslit</setSpec>
    </header>
    <header>
      <identifier>oai:zenodo.org:246103</identifier>
      <datestamp>2017-01-15T22:03:19Z</datestamp>
      <setSpec>user-biosyslit</setSpec>
    </header>
    <header>
      <identifier>oai:zenodo.org:246081</identifier>
      <datestamp>2017-01-15T21:50:47Z</datestamp>
      <setSpec>user-biosyslit</setSpec>
    </header>
    <header>
      <identifier>oai:zenodo.org:246815</identifier>
      <datestamp>2017-01-16T08:55:41Z</datestamp>
      <setSpec>user-biosyslit</setSpec>
    </header>
    <header>
      <identifier>oai:zenodo.org:245832</identifier>
      <datestamp>2017-01-15T19:09:39Z</datestamp>
      <setSpec>user-biosyslit</setSpec>
    </header>
    <header>
      <identifier>oai:zenodo.org:245893</identifier>
      <datestamp>2017-01-15T19:21:14Z</datestamp>
      <setSpec>user-biosyslit</setSpec>
    </header>
    <header>
      <identifier>oai:zenodo.org:53057</identifier>
      <datestamp>2017-05-12T16:02:24Z</datestamp>
      <setSpec>openaire</setSpec>
      <setSpec>user-biosyslit</setSpec>
    </header>
    <resumptionToken expirationDate="2017-08-31T15:47:04Z" cursor="59000" completeListSize="77796">.eJyNyj0LgkAYAOD_8s4S95FaQotY4qByXR7pEqYi5mniFelF_72W5pqf5wmqqkpw0IKQpU0tgi3LxEtsoZUBqhivUp6aj0NxFLLoZZL74r7vBEpJbUeemkIvpZFuUdxhzXeMHPFqSho0s0NyS_V-EjR4cLS1Q83m6BJ8XkljX2Znf-BJ70pOyjHespljl2e0-D7859M_n6c2YMCQ1xU45poY0D7ysVbgPF-vN8fbUWs.DInAgA.kzSVII08KdxAQW01AtRftBIVhx4</resumptionToken>
  </ListIdentifiers>
</OAI-PMH>
