<?xml version='1.0' encoding='UTF-8'?>
<?xml-stylesheet type="text/xsl" href="/static/xsl/oai2.v1.0.xsl"?>
<OAI-PMH xmlns="http://www.openarchives.org/OAI/2.0/" xmlns:xsi="http://www.w3.org/2001/XMLSchema-instance" xsi:schemaLocation="http://www.openarchives.org/OAI/2.0/ http://www.openarchives.org/OAI/2.0/OAI-PMH.xsd">
  <responseDate>2017-08-31T15:12:50Z</responseDate>
  <request from_="2017-07-01T00:00:00Z" verb="ListIdentifiers" set="user-biosyslit" metadataPrefix="oai_dc">https://zenodo.org/oai2d</request>
  <ListIdentifiers>
    <header>
      <identifier>oai:zenodo.org:825207</identifier>
      <datestamp>2017-07-10T15:14:44Z</datestamp>
      <setSpec>user-biosyslit</setSpec>
    </header>
    <header>
      <identifier>oai:zenodo.org:825203</identifier>
      <datestamp>2017-07-10T15:49:38Z</datestamp>
      <setSpec>openaire</setSpec>
      <setSpec>user-biosyslit</setSpec>
    </header>
    <header>
      <identifier>oai:zenodo.org:822713</identifier>
      <datestamp>2017-07-04T12:33:44Z</datestamp>
      <setSpec>user-biosyslit</setSpec>
    </header>
    <header>
      <identifier>oai:zenodo.org:824935</identifier>
      <datestamp>2017-07-10T09:46:00Z</datestamp>
      <setSpec>user-biosyslit</setSpec>
    </header>
    <header>
      <identifier>oai:zenodo.org:824941</identifier>
      <datestamp>2017-07-10T09:53:36Z</datestamp>
      <setSpec>user-biosyslit</setSpec>
    </header>
    <header>
      <identifier>oai:zenodo.org:840417</identifier>
      <datestamp>2017-08-08T19:53:37Z</datestamp>
      <setSpec>user-biosyslit</setSpec>
    </header>
    <header>
      <identifier>oai:zenodo.org:840427</identifier>
      <datestamp>2017-08-08T19:52:55Z</datestamp>
      <setSpec>user-biosyslit</setSpec>
    </header>
    <header>
      <identifier>oai:zenodo.org:840441</identifier>
      <datestamp>2017-08-08T19:53:17Z</datestamp>
      <setSpec>user-biosyslit</setSpec>
    </header>
    <header>
      <identifier>oai:zenodo.org:840423</identifier>
      <datestamp>2017-08-08T19:52:48Z</datestamp>
      <setSpec>user-biosyslit</setSpec>
    </header>
    <header>
      <identifier>oai:zenodo.org:840421</identifier>
      <datestamp>2017-08-08T19:52:44Z</datestamp>
      <setSpec>user-biosyslit</setSpec>
    </header>
    <header>
      <identifier>oai:zenodo.org:840435</identifier>
      <datestamp>2017-08-08T19:53:08Z</datestamp>
      <setSpec>user-biosyslit</setSpec>
    </header>
    <header>
      <identifier>oai:zenodo.org:840429</identifier>
      <datestamp>2017-08-08T19:52:58Z</datestamp>
      <setSpec>user-biosyslit</setSpec>
    </header>
    <header>
      <identifier>oai:zenodo.org:840451</identifier>
      <datestamp>2017-08-08T19:53:34Z</datestamp>
      <setSpec>user-biosyslit</setSpec>
    </header>
    <header>
      <identifier>oai:zenodo.org:840464</identifier>
      <datestamp>2017-08-08T20:03:08Z</datestamp>
      <setSpec>user-biosyslit</setSpec>
    </header>
    <header>
      <identifier>oai:zenodo.org:840468</identifier>
      <datestamp>2017-08-08T20:03:15Z</datestamp>
      <setSpec>user-biosyslit</setSpec>
    </header>
    <header>
      <identifier>oai:zenodo.org:840466</identifier>
      <datestamp>2017-08-08T20:03:12Z</datestamp>
      <setSpec>user-biosyslit</setSpec>
    </header>
    <header>
      <identifier>oai:zenodo.org:840462</identifier>
      <datestamp>2017-08-08T20:03:04Z</datestamp>
      <setSpec>user-biosyslit</setSpec>
    </header>
    <header>
      <identifier>oai:zenodo.org:840478</identifier>
      <datestamp>2017-08-08T20:10:56Z</datestamp>
      <setSpec>user-biosyslit</setSpec>
    </header>
    <header>
      <identifier>oai:zenodo.org:840516</identifier>
      <datestamp>2017-08-08T20:14:17Z</datestamp>
      <setSpec>user-biosyslit</setSpec>
    </header>
    <header>
      <identifier>oai:zenodo.org:840518</identifier>
      <datestamp>2017-08-08T20:14:20Z</datestamp>
      <setSpec>user-biosyslit</setSpec>
    </header>
    <header>
      <identifier>oai:zenodo.org:840504</identifier>
      <datestamp>2017-08-08T20:13:52Z</datestamp>
      <setSpec>user-biosyslit</setSpec>
    </header>
    <header>
      <identifier>oai:zenodo.org:840514</identifier>
      <datestamp>2017-08-08T20:14:13Z</datestamp>
      <setSpec>user-biosyslit</setSpec>
    </header>
    <header>
      <identifier>oai:zenodo.org:840508</identifier>
      <datestamp>2017-08-08T20:14:00Z</datestamp>
      <setSpec>user-biosyslit</setSpec>
    </header>
    <header>
      <identifier>oai:zenodo.org:840480</identifier>
      <datestamp>2017-08-08T20:10:59Z</datestamp>
      <setSpec>user-biosyslit</setSpec>
    </header>
    <header>
      <identifier>oai:zenodo.org:840482</identifier>
      <datestamp>2017-08-08T20:11:01Z</datestamp>
      <setSpec>user-biosyslit</setSpec>
    </header>
    <header>
      <identifier>oai:zenodo.org:840498</identifier>
      <datestamp>2017-08-08T20:11:24Z</datestamp>
      <setSpec>user-biosyslit</setSpec>
    </header>
    <header>
      <identifier>oai:zenodo.org:840494</identifier>
      <datestamp>2017-08-08T20:11:19Z</datestamp>
      <setSpec>user-biosyslit</setSpec>
    </header>
    <header>
      <identifier>oai:zenodo.org:841237</identifier>
      <datestamp>2017-08-10T14:21:14Z</datestamp>
      <setSpec>user-biosyslit</setSpec>
    </header>
    <header>
      <identifier>oai:zenodo.org:841225</identifier>
      <datestamp>2017-08-10T14:20:19Z</datestamp>
      <setSpec>user-biosyslit</setSpec>
    </header>
    <header>
      <identifier>oai:zenodo.org:841241</identifier>
      <datestamp>2017-08-10T14:21:24Z</datestamp>
      <setSpec>user-biosyslit</setSpec>
    </header>
    <header>
      <identifier>oai:zenodo.org:841405</identifier>
      <datestamp>2017-08-11T06:01:54Z</datestamp>
      <setSpec>user-biosyslit</setSpec>
    </header>
    <header>
      <identifier>oai:zenodo.org:841411</identifier>
      <datestamp>2017-08-11T06:01:32Z</datestamp>
      <setSpec>user-biosyslit</setSpec>
    </header>
    <header>
      <identifier>oai:zenodo.org:841413</identifier>
      <datestamp>2017-08-11T06:01:36Z</datestamp>
      <setSpec>user-biosyslit</setSpec>
    </header>
    <header>
      <identifier>oai:zenodo.org:841407</identifier>
      <datestamp>2017-08-11T06:01:23Z</datestamp>
      <setSpec>user-biosyslit</setSpec>
    </header>
    <header>
      <identifier>oai:zenodo.org:841417</identifier>
      <datestamp>2017-08-11T06:01:44Z</datestamp>
      <setSpec>user-biosyslit</setSpec>
    </header>
    <header>
      <identifier>oai:zenodo.org:841432</identifier>
      <datestamp>2017-08-11T06:45:39Z</datestamp>
      <setSpec>user-biosyslit</setSpec>
    </header>
    <header>
      <identifier>oai:zenodo.org:841450</identifier>
      <datestamp>2017-08-11T06:46:56Z</datestamp>
      <setSpec>user-biosyslit</setSpec>
    </header>
    <header>
      <identifier>oai:zenodo.org:841448</identifier>
      <datestamp>2017-08-11T06:46:52Z</datestamp>
      <setSpec>user-biosyslit</setSpec>
    </header>
    <header>
      <identifier>oai:zenodo.org:841456</identifier>
      <datestamp>2017-08-11T06:47:08Z</datestamp>
      <setSpec>user-biosyslit</setSpec>
    </header>
    <header>
      <identifier>oai:zenodo.org:841434</identifier>
      <datestamp>2017-08-11T06:45:25Z</datestamp>
      <setSpec>user-biosyslit</setSpec>
    </header>
    <header>
      <identifier>oai:zenodo.org:841436</identifier>
      <datestamp>2017-08-11T06:45:28Z</datestamp>
      <setSpec>user-biosyslit</setSpec>
    </header>
    <header>
      <identifier>oai:zenodo.org:841440</identifier>
      <datestamp>2017-08-11T06:45:36Z</datestamp>
      <setSpec>user-biosyslit</setSpec>
    </header>
    <header>
      <identifier>oai:zenodo.org:841504</identifier>
      <datestamp>2017-08-11T06:50:15Z</datestamp>
      <setSpec>user-biosyslit</setSpec>
    </header>
    <header>
      <identifier>oai:zenodo.org:841498</identifier>
      <datestamp>2017-08-11T06:50:06Z</datestamp>
      <setSpec>user-biosyslit</setSpec>
    </header>
    <header>
      <identifier>oai:zenodo.org:841506</identifier>
      <datestamp>2017-08-11T06:50:18Z</datestamp>
      <setSpec>user-biosyslit</setSpec>
    </header>
    <header>
      <identifier>oai:zenodo.org:841496</identifier>
      <datestamp>2017-08-11T06:50:02Z</datestamp>
      <setSpec>user-biosyslit</setSpec>
    </header>
    <header>
      <identifier>oai:zenodo.org:841500</identifier>
      <datestamp>2017-08-11T06:50:09Z</datestamp>
      <setSpec>user-biosyslit</setSpec>
    </header>
    <header>
      <identifier>oai:zenodo.org:841518</identifier>
      <datestamp>2017-08-11T06:51:11Z</datestamp>
      <setSpec>user-biosyslit</setSpec>
    </header>
    <header>
      <identifier>oai:zenodo.org:841520</identifier>
      <datestamp>2017-08-11T06:51:14Z</datestamp>
      <setSpec>user-biosyslit</setSpec>
    </header>
    <header>
      <identifier>oai:zenodo.org:841512</identifier>
      <datestamp>2017-08-11T06:51:01Z</datestamp>
      <setSpec>user-biosyslit</setSpec>
    </header>
    <header>
      <identifier>oai:zenodo.org:841524</identifier>
      <datestamp>2017-08-11T06:51:22Z</datestamp>
      <setSpec>user-biosyslit</setSpec>
    </header>
    <header>
      <identifier>oai:zenodo.org:841508</identifier>
      <datestamp>2017-08-11T06:51:24Z</datestamp>
      <setSpec>user-biosyslit</setSpec>
    </header>
    <header>
      <identifier>oai:zenodo.org:841536</identifier>
      <datestamp>2017-08-11T06:52:22Z</datestamp>
      <setSpec>user-biosyslit</setSpec>
    </header>
    <header>
      <identifier>oai:zenodo.org:841530</identifier>
      <datestamp>2017-08-11T06:52:12Z</datestamp>
      <setSpec>user-biosyslit</setSpec>
    </header>
    <header>
      <identifier>oai:zenodo.org:841538</identifier>
      <datestamp>2017-08-11T06:52:25Z</datestamp>
      <setSpec>user-biosyslit</setSpec>
    </header>
    <header>
      <identifier>oai:zenodo.org:841540</identifier>
      <datestamp>2017-08-11T06:52:29Z</datestamp>
      <setSpec>user-biosyslit</setSpec>
    </header>
    <header>
      <identifier>oai:zenodo.org:841542</identifier>
      <datestamp>2017-08-11T06:52:32Z</datestamp>
      <setSpec>user-biosyslit</setSpec>
    </header>
    <header>
      <identifier>oai:zenodo.org:841550</identifier>
      <datestamp>2017-08-11T06:52:48Z</datestamp>
      <setSpec>user-biosyslit</setSpec>
    </header>
    <header>
      <identifier>oai:zenodo.org:841548</identifier>
      <datestamp>2017-08-11T06:52:45Z</datestamp>
      <setSpec>user-biosyslit</setSpec>
    </header>
    <header>
      <identifier>oai:zenodo.org:841546</identifier>
      <datestamp>2017-08-11T06:52:40Z</datestamp>
      <setSpec>user-biosyslit</setSpec>
    </header>
    <header>
      <identifier>oai:zenodo.org:841648</identifier>
      <datestamp>2017-08-11T07:50:17Z</datestamp>
      <setSpec>openaire</setSpec>
      <setSpec>user-biosyslit</setSpec>
    </header>
    <header>
      <identifier>oai:zenodo.org:841584</identifier>
      <datestamp>2017-08-11T06:55:54Z</datestamp>
      <setSpec>user-biosyslit</setSpec>
    </header>
    <header>
      <identifier>oai:zenodo.org:841592</identifier>
      <datestamp>2017-08-11T06:55:51Z</datestamp>
      <setSpec>user-biosyslit</setSpec>
    </header>
    <header>
      <identifier>oai:zenodo.org:842603</identifier>
      <datestamp>2017-08-14T05:34:01Z</datestamp>
      <setSpec>user-biosyslit</setSpec>
    </header>
    <header>
      <identifier>oai:zenodo.org:842615</identifier>
      <datestamp>2017-08-14T05:34:22Z</datestamp>
      <setSpec>user-biosyslit</setSpec>
    </header>
    <header>
      <identifier>oai:zenodo.org:842623</identifier>
      <datestamp>2017-08-14T05:34:39Z</datestamp>
      <setSpec>user-biosyslit</setSpec>
    </header>
    <header>
      <identifier>oai:zenodo.org:842625</identifier>
      <datestamp>2017-08-14T05:34:44Z</datestamp>
      <setSpec>user-biosyslit</setSpec>
    </header>
    <header>
      <identifier>oai:zenodo.org:842609</identifier>
      <datestamp>2017-08-14T05:34:11Z</datestamp>
      <setSpec>user-biosyslit</setSpec>
    </header>
    <header>
      <identifier>oai:zenodo.org:842629</identifier>
      <datestamp>2017-08-14T05:34:51Z</datestamp>
      <setSpec>user-biosyslit</setSpec>
    </header>
    <header>
      <identifier>oai:zenodo.org:842605</identifier>
      <datestamp>2017-08-14T05:34:05Z</datestamp>
      <setSpec>user-biosyslit</setSpec>
    </header>
    <header>
      <identifier>oai:zenodo.org:842611</identifier>
      <datestamp>2017-08-14T05:34:15Z</datestamp>
      <setSpec>user-biosyslit</setSpec>
    </header>
    <header>
      <identifier>oai:zenodo.org:842607</identifier>
      <datestamp>2017-08-14T05:34:08Z</datestamp>
      <setSpec>user-biosyslit</setSpec>
    </header>
    <header>
      <identifier>oai:zenodo.org:842587</identifier>
      <datestamp>2017-08-14T05:35:21Z</datestamp>
      <setSpec>user-biosyslit</setSpec>
    </header>
    <header>
      <identifier>oai:zenodo.org:842641</identifier>
      <datestamp>2017-08-14T05:35:14Z</datestamp>
      <setSpec>user-biosyslit</setSpec>
    </header>
    <header>
      <identifier>oai:zenodo.org:842631</identifier>
      <datestamp>2017-08-14T05:34:55Z</datestamp>
      <setSpec>user-biosyslit</setSpec>
    </header>
    <header>
      <identifier>oai:zenodo.org:842637</identifier>
      <datestamp>2017-08-14T05:35:07Z</datestamp>
      <setSpec>user-biosyslit</setSpec>
    </header>
    <header>
      <identifier>oai:zenodo.org:842599</identifier>
      <datestamp>2017-08-14T05:33:53Z</datestamp>
      <setSpec>user-biosyslit</setSpec>
    </header>
    <header>
      <identifier>oai:zenodo.org:842597</identifier>
      <datestamp>2017-08-14T05:33:48Z</datestamp>
      <setSpec>user-biosyslit</setSpec>
    </header>
    <header>
      <identifier>oai:zenodo.org:842601</identifier>
      <datestamp>2017-08-14T05:33:57Z</datestamp>
      <setSpec>user-biosyslit</setSpec>
    </header>
    <header>
      <identifier>oai:zenodo.org:842593</identifier>
      <datestamp>2017-08-14T05:33:40Z</datestamp>
      <setSpec>user-biosyslit</setSpec>
    </header>
    <header>
      <identifier>oai:zenodo.org:842591</identifier>
      <datestamp>2017-08-14T05:33:36Z</datestamp>
      <setSpec>user-biosyslit</setSpec>
    </header>
    <header>
      <identifier>oai:zenodo.org:844510</identifier>
      <datestamp>2017-08-17T09:20:47Z</datestamp>
      <setSpec>user-biosyslit</setSpec>
    </header>
    <header>
      <identifier>oai:zenodo.org:844538</identifier>
      <datestamp>2017-08-17T09:23:23Z</datestamp>
      <setSpec>user-biosyslit</setSpec>
    </header>
    <header>
      <identifier>oai:zenodo.org:844536</identifier>
      <datestamp>2017-08-17T09:23:37Z</datestamp>
      <setSpec>user-biosyslit</setSpec>
    </header>
    <header>
      <identifier>oai:zenodo.org:844552</identifier>
      <datestamp>2017-08-17T09:24:58Z</datestamp>
      <setSpec>user-biosyslit</setSpec>
    </header>
    <header>
      <identifier>oai:zenodo.org:844542</identifier>
      <datestamp>2017-08-17T09:23:30Z</datestamp>
      <setSpec>user-biosyslit</setSpec>
    </header>
    <header>
      <identifier>oai:zenodo.org:844506</identifier>
      <datestamp>2017-08-17T09:19:27Z</datestamp>
      <setSpec>user-biosyslit</setSpec>
    </header>
    <header>
      <identifier>oai:zenodo.org:844534</identifier>
      <datestamp>2017-08-17T09:21:44Z</datestamp>
      <setSpec>user-biosyslit</setSpec>
    </header>
    <header>
      <identifier>oai:zenodo.org:843055</identifier>
      <datestamp>2017-08-15T07:36:37Z</datestamp>
      <setSpec>user-biosyslit</setSpec>
    </header>
    <header>
      <identifier>oai:zenodo.org:843057</identifier>
      <datestamp>2017-08-15T07:36:40Z</datestamp>
      <setSpec>user-biosyslit</setSpec>
    </header>
    <header>
      <identifier>oai:zenodo.org:843051</identifier>
      <datestamp>2017-08-15T07:36:31Z</datestamp>
      <setSpec>user-biosyslit</setSpec>
    </header>
    <header>
      <identifier>oai:zenodo.org:843031</identifier>
      <datestamp>2017-08-15T07:35:59Z</datestamp>
      <setSpec>user-biosyslit</setSpec>
    </header>
    <header>
      <identifier>oai:zenodo.org:843049</identifier>
      <datestamp>2017-08-15T07:36:28Z</datestamp>
      <setSpec>user-biosyslit</setSpec>
    </header>
    <header>
      <identifier>oai:zenodo.org:843045</identifier>
      <datestamp>2017-08-15T07:36:22Z</datestamp>
      <setSpec>user-biosyslit</setSpec>
    </header>
    <header>
      <identifier>oai:zenodo.org:843053</identifier>
      <datestamp>2017-08-15T07:36:34Z</datestamp>
      <setSpec>user-biosyslit</setSpec>
    </header>
    <header>
      <identifier>oai:zenodo.org:843047</identifier>
      <datestamp>2017-08-15T07:36:25Z</datestamp>
      <setSpec>user-biosyslit</setSpec>
    </header>
    <header>
      <identifier>oai:zenodo.org:843061</identifier>
      <datestamp>2017-08-15T07:36:46Z</datestamp>
      <setSpec>user-biosyslit</setSpec>
    </header>
    <header>
      <identifier>oai:zenodo.org:843095</identifier>
      <datestamp>2017-08-15T07:40:02Z</datestamp>
      <setSpec>user-biosyslit</setSpec>
    </header>
    <header>
      <identifier>oai:zenodo.org:843101</identifier>
      <datestamp>2017-08-15T07:41:41Z</datestamp>
      <setSpec>user-biosyslit</setSpec>
    </header>
    <header>
      <identifier>oai:zenodo.org:843111</identifier>
      <datestamp>2017-08-15T07:41:59Z</datestamp>
      <setSpec>user-biosyslit</setSpec>
    </header>
    <resumptionToken expirationDate="2017-08-31T15:14:50Z" cursor="0" completeListSize="4295">.eJyFz0tvgkAUBeD_MtticwdqB9jZSBubDhZlULoxU0CgDo8yY3gY_7sTF902ObmLe77NuSCZZSly4ZHY5PlpTjC2gTiW5RhIJl0jxKHUNUr2kUhqwfhbdN5UEcRmTvylHOgyNv0fBusKT9vXwNxje2AljEHIVDxthsha9VvwCA0X2sWYTq1KoGC-cI40Wil68vDHjkISpSP11Mt6okDDYO6HbZ1ORbvbDb9MvPdfTNV8Kjx6UgGrUuvPLf9zC4IM1PI8Q65poFPPu1wi96J3K73rLLNu9l02cpSiVFoeu6bSfxMwmYEODgHcex7uV5MqUzzlin922bEcNG54eUgTdL3eAEWQa4o.DIm48g.lqG6MHoTxaN4HR7etVSQ798H4HQ</resumptionToken>
  </ListIdentifiers>
</OAI-PMH>
