<?xml version='1.0' encoding='UTF-8'?>
<?xml-stylesheet type="text/xsl" href="/static/xsl/oai2.v1.0.xsl"?>
<OAI-PMH xmlns="http://www.openarchives.org/OAI/2.0/" xmlns:xsi="http://www.w3.org/2001/XMLSchema-instance" xsi:schemaLocation="http://www.openarchives.org/OAI/2.0/ http://www.openarchives.org/OAI/2.0/OAI-PMH.xsd">
  <responseDate>2017-08-31T15:43:29Z</responseDate>
  <request verb="ListIdentifiers" resumptionToken=".eJyNysEKgjAYAOB3-c8Sc7OmQhfRxIOKLkW9hKmItUxcoS5697x0rvP3vUA0TQ0m2mi6QTSCCKVbg-6wpoCoxjvnp25lqLKUVz1PSjd9xrcU5bilgS1m385JIK8ovKmSHSKcqfqcdGiJjskjl_GcEm9iyKG-jJbg4q2vJqHLi7M7sKS3OMP1GDrRwlSLFaT6PvXPJ38-W-xBgaFsGzCJjhS4TuXYCjBf7_cHpm1RRw.DInAIQ.5pNn-Gi_s40Ma5HLeKvP23Z6zfE">https://zenodo.org/oai2d</request>
  <ListIdentifiers>
    <header>
      <identifier>oai:zenodo.org:829599</identifier>
      <datestamp>2017-07-15T09:45:12Z</datestamp>
      <setSpec>user-biosyslit</setSpec>
    </header>
    <header>
      <identifier>oai:zenodo.org:829593</identifier>
      <datestamp>2017-07-15T09:45:02Z</datestamp>
      <setSpec>user-biosyslit</setSpec>
    </header>
    <header>
      <identifier>oai:zenodo.org:829567</identifier>
      <datestamp>2017-07-15T09:44:08Z</datestamp>
      <setSpec>user-biosyslit</setSpec>
    </header>
    <header>
      <identifier>oai:zenodo.org:829613</identifier>
      <datestamp>2017-07-15T09:45:39Z</datestamp>
      <setSpec>user-biosyslit</setSpec>
    </header>
    <header>
      <identifier>oai:zenodo.org:829607</identifier>
      <datestamp>2017-07-15T09:45:25Z</datestamp>
      <setSpec>user-biosyslit</setSpec>
    </header>
    <header>
      <identifier>oai:zenodo.org:829569</identifier>
      <datestamp>2017-07-15T09:44:12Z</datestamp>
      <setSpec>user-biosyslit</setSpec>
    </header>
    <header>
      <identifier>oai:zenodo.org:829609</identifier>
      <datestamp>2017-07-15T09:46:01Z</datestamp>
      <setSpec>user-biosyslit</setSpec>
    </header>
    <header>
      <identifier>oai:zenodo.org:829631</identifier>
      <datestamp>2017-07-15T09:46:12Z</datestamp>
      <setSpec>user-biosyslit</setSpec>
    </header>
    <header>
      <identifier>oai:zenodo.org:829623</identifier>
      <datestamp>2017-07-15T09:45:53Z</datestamp>
      <setSpec>user-biosyslit</setSpec>
    </header>
    <header>
      <identifier>oai:zenodo.org:829619</identifier>
      <datestamp>2017-07-15T09:45:48Z</datestamp>
      <setSpec>user-biosyslit</setSpec>
    </header>
    <header>
      <identifier>oai:zenodo.org:829649</identifier>
      <datestamp>2017-07-15T09:46:54Z</datestamp>
      <setSpec>user-biosyslit</setSpec>
    </header>
    <header>
      <identifier>oai:zenodo.org:829621</identifier>
      <datestamp>2017-07-15T09:45:51Z</datestamp>
      <setSpec>user-biosyslit</setSpec>
    </header>
    <header>
      <identifier>oai:zenodo.org:829629</identifier>
      <datestamp>2017-07-15T09:46:09Z</datestamp>
      <setSpec>user-biosyslit</setSpec>
    </header>
    <header>
      <identifier>oai:zenodo.org:829645</identifier>
      <datestamp>2017-07-15T09:46:47Z</datestamp>
      <setSpec>user-biosyslit</setSpec>
    </header>
    <header>
      <identifier>oai:zenodo.org:829653</identifier>
      <datestamp>2017-07-15T09:47:01Z</datestamp>
      <setSpec>user-biosyslit</setSpec>
    </header>
    <header>
      <identifier>oai:zenodo.org:829709</identifier>
      <datestamp>2017-07-15T09:49:14Z</datestamp>
      <setSpec>user-biosyslit</setSpec>
    </header>
    <header>
      <identifier>oai:zenodo.org:829703</identifier>
      <datestamp>2017-07-15T09:48:42Z</datestamp>
      <setSpec>user-biosyslit</setSpec>
    </header>
    <header>
      <identifier>oai:zenodo.org:829723</identifier>
      <datestamp>2017-07-15T09:51:11Z</datestamp>
      <setSpec>user-biosyslit</setSpec>
    </header>
    <header>
      <identifier>oai:zenodo.org:829727</identifier>
      <datestamp>2017-07-15T09:51:18Z</datestamp>
      <setSpec>user-biosyslit</setSpec>
    </header>
    <header>
      <identifier>oai:zenodo.org:829701</identifier>
      <datestamp>2017-07-15T09:48:38Z</datestamp>
      <setSpec>user-biosyslit</setSpec>
    </header>
    <header>
      <identifier>oai:zenodo.org:829731</identifier>
      <datestamp>2017-07-15T09:51:25Z</datestamp>
      <setSpec>user-biosyslit</setSpec>
    </header>
    <header>
      <identifier>oai:zenodo.org:829713</identifier>
      <datestamp>2017-07-15T09:49:01Z</datestamp>
      <setSpec>user-biosyslit</setSpec>
    </header>
    <header>
      <identifier>oai:zenodo.org:829725</identifier>
      <datestamp>2017-07-15T09:51:14Z</datestamp>
      <setSpec>user-biosyslit</setSpec>
    </header>
    <header>
      <identifier>oai:zenodo.org:829687</identifier>
      <datestamp>2017-07-15T09:48:12Z</datestamp>
      <setSpec>user-biosyslit</setSpec>
    </header>
    <header>
      <identifier>oai:zenodo.org:829875</identifier>
      <datestamp>2017-07-15T14:48:56Z</datestamp>
      <setSpec>user-biosyslit</setSpec>
    </header>
    <header>
      <identifier>oai:zenodo.org:828451</identifier>
      <datestamp>2017-07-15T08:55:45Z</datestamp>
      <setSpec>user-biosyslit</setSpec>
    </header>
    <header>
      <identifier>oai:zenodo.org:828715</identifier>
      <datestamp>2017-07-15T09:06:00Z</datestamp>
      <setSpec>user-biosyslit</setSpec>
    </header>
    <header>
      <identifier>oai:zenodo.org:828735</identifier>
      <datestamp>2017-07-15T09:06:29Z</datestamp>
      <setSpec>user-biosyslit</setSpec>
    </header>
    <header>
      <identifier>oai:zenodo.org:828743</identifier>
      <datestamp>2017-07-15T09:06:46Z</datestamp>
      <setSpec>user-biosyslit</setSpec>
    </header>
    <header>
      <identifier>oai:zenodo.org:828739</identifier>
      <datestamp>2017-07-15T09:06:37Z</datestamp>
      <setSpec>user-biosyslit</setSpec>
    </header>
    <header>
      <identifier>oai:zenodo.org:828725</identifier>
      <datestamp>2017-07-15T09:06:06Z</datestamp>
      <setSpec>user-biosyslit</setSpec>
    </header>
    <header>
      <identifier>oai:zenodo.org:828737</identifier>
      <datestamp>2017-07-15T09:06:33Z</datestamp>
      <setSpec>user-biosyslit</setSpec>
    </header>
    <header>
      <identifier>oai:zenodo.org:828731</identifier>
      <datestamp>2017-07-15T09:06:20Z</datestamp>
      <setSpec>user-biosyslit</setSpec>
    </header>
    <header>
      <identifier>oai:zenodo.org:828717</identifier>
      <datestamp>2017-07-15T09:05:50Z</datestamp>
      <setSpec>user-biosyslit</setSpec>
    </header>
    <header>
      <identifier>oai:zenodo.org:829003</identifier>
      <datestamp>2017-07-15T09:21:23Z</datestamp>
      <setSpec>user-biosyslit</setSpec>
    </header>
    <header>
      <identifier>oai:zenodo.org:829007</identifier>
      <datestamp>2017-07-15T09:21:13Z</datestamp>
      <setSpec>user-biosyslit</setSpec>
    </header>
    <header>
      <identifier>oai:zenodo.org:829005</identifier>
      <datestamp>2017-07-15T09:21:00Z</datestamp>
      <setSpec>user-biosyslit</setSpec>
    </header>
    <header>
      <identifier>oai:zenodo.org:829001</identifier>
      <datestamp>2017-07-15T09:20:49Z</datestamp>
      <setSpec>user-biosyslit</setSpec>
    </header>
    <header>
      <identifier>oai:zenodo.org:829011</identifier>
      <datestamp>2017-07-15T09:21:33Z</datestamp>
      <setSpec>user-biosyslit</setSpec>
    </header>
    <header>
      <identifier>oai:zenodo.org:829403</identifier>
      <datestamp>2017-07-15T09:38:35Z</datestamp>
      <setSpec>user-biosyslit</setSpec>
    </header>
    <header>
      <identifier>oai:zenodo.org:828773</identifier>
      <datestamp>2017-07-15T09:08:05Z</datestamp>
      <setSpec>user-biosyslit</setSpec>
    </header>
    <header>
      <identifier>oai:zenodo.org:829411</identifier>
      <datestamp>2017-07-15T09:38:53Z</datestamp>
      <setSpec>user-biosyslit</setSpec>
    </header>
    <header>
      <identifier>oai:zenodo.org:829409</identifier>
      <datestamp>2017-07-15T09:38:49Z</datestamp>
      <setSpec>user-biosyslit</setSpec>
    </header>
    <header>
      <identifier>oai:zenodo.org:829421</identifier>
      <datestamp>2017-07-15T09:39:10Z</datestamp>
      <setSpec>user-biosyslit</setSpec>
    </header>
    <header>
      <identifier>oai:zenodo.org:829417</identifier>
      <datestamp>2017-07-15T09:39:03Z</datestamp>
      <setSpec>user-biosyslit</setSpec>
    </header>
    <header>
      <identifier>oai:zenodo.org:829399</identifier>
      <datestamp>2017-07-15T09:38:18Z</datestamp>
      <setSpec>user-biosyslit</setSpec>
    </header>
    <header>
      <identifier>oai:zenodo.org:829391</identifier>
      <datestamp>2017-07-15T09:38:05Z</datestamp>
      <setSpec>user-biosyslit</setSpec>
    </header>
    <header>
      <identifier>oai:zenodo.org:829383</identifier>
      <datestamp>2017-07-15T09:37:48Z</datestamp>
      <setSpec>user-biosyslit</setSpec>
    </header>
    <header>
      <identifier>oai:zenodo.org:830224</identifier>
      <datestamp>2017-07-17T09:51:42Z</datestamp>
      <setSpec>user-biosyslit</setSpec>
    </header>
    <header>
      <identifier>oai:zenodo.org:832987</identifier>
      <datestamp>2017-07-20T22:16:19Z</datestamp>
      <setSpec>user-biosyslit</setSpec>
    </header>
    <header>
      <identifier>oai:zenodo.org:848232</identifier>
      <datestamp>2017-08-24T17:47:25Z</datestamp>
      <setSpec>user-biosyslit</setSpec>
    </header>
    <header>
      <identifier>oai:zenodo.org:848234</identifier>
      <datestamp>2017-08-24T17:47:23Z</datestamp>
      <setSpec>user-biosyslit</setSpec>
    </header>
    <header>
      <identifier>oai:zenodo.org:580884</identifier>
      <datestamp>2017-05-18T07:43:42Z</datestamp>
      <setSpec>user-biosyslit</setSpec>
    </header>
    <header>
      <identifier>oai:zenodo.org:580886</identifier>
      <datestamp>2017-05-18T07:43:27Z</datestamp>
      <setSpec>user-biosyslit</setSpec>
    </header>
    <header>
      <identifier>oai:zenodo.org:580885</identifier>
      <datestamp>2017-05-18T07:43:25Z</datestamp>
      <setSpec>user-biosyslit</setSpec>
    </header>
    <header>
      <identifier>oai:zenodo.org:580887</identifier>
      <datestamp>2017-05-18T07:43:30Z</datestamp>
      <setSpec>user-biosyslit</setSpec>
    </header>
    <header>
      <identifier>oai:zenodo.org:580890</identifier>
      <datestamp>2017-05-18T07:43:39Z</datestamp>
      <setSpec>user-biosyslit</setSpec>
    </header>
    <header>
      <identifier>oai:zenodo.org:580891</identifier>
      <datestamp>2017-05-18T07:43:41Z</datestamp>
      <setSpec>user-biosyslit</setSpec>
    </header>
    <header>
      <identifier>oai:zenodo.org:847962</identifier>
      <datestamp>2017-08-24T05:02:48Z</datestamp>
      <setSpec>user-biosyslit</setSpec>
    </header>
    <header>
      <identifier>oai:zenodo.org:848339</identifier>
      <datestamp>2017-08-25T05:49:44Z</datestamp>
      <setSpec>user-biosyslit</setSpec>
    </header>
    <header>
      <identifier>oai:zenodo.org:848345</identifier>
      <datestamp>2017-08-25T05:49:39Z</datestamp>
      <setSpec>user-biosyslit</setSpec>
    </header>
    <header>
      <identifier>oai:zenodo.org:848341</identifier>
      <datestamp>2017-08-25T05:49:30Z</datestamp>
      <setSpec>user-biosyslit</setSpec>
    </header>
    <header>
      <identifier>oai:zenodo.org:848343</identifier>
      <datestamp>2017-08-25T05:49:35Z</datestamp>
      <setSpec>user-biosyslit</setSpec>
    </header>
    <header>
      <identifier>oai:zenodo.org:848353</identifier>
      <datestamp>2017-08-25T05:51:08Z</datestamp>
      <setSpec>user-biosyslit</setSpec>
    </header>
    <header>
      <identifier>oai:zenodo.org:848357</identifier>
      <datestamp>2017-08-25T05:50:57Z</datestamp>
      <setSpec>user-biosyslit</setSpec>
    </header>
    <header>
      <identifier>oai:zenodo.org:848359</identifier>
      <datestamp>2017-08-25T05:51:00Z</datestamp>
      <setSpec>user-biosyslit</setSpec>
    </header>
    <header>
      <identifier>oai:zenodo.org:848361</identifier>
      <datestamp>2017-08-25T05:51:04Z</datestamp>
      <setSpec>user-biosyslit</setSpec>
    </header>
    <header>
      <identifier>oai:zenodo.org:848373</identifier>
      <datestamp>2017-08-25T05:51:54Z</datestamp>
      <setSpec>user-biosyslit</setSpec>
    </header>
    <header>
      <identifier>oai:zenodo.org:848365</identifier>
      <datestamp>2017-08-25T05:51:41Z</datestamp>
      <setSpec>user-biosyslit</setSpec>
    </header>
    <header>
      <identifier>oai:zenodo.org:848369</identifier>
      <datestamp>2017-08-25T05:51:47Z</datestamp>
      <setSpec>user-biosyslit</setSpec>
    </header>
    <header>
      <identifier>oai:zenodo.org:848367</identifier>
      <datestamp>2017-08-25T05:51:43Z</datestamp>
      <setSpec>user-biosyslit</setSpec>
    </header>
    <header>
      <identifier>oai:zenodo.org:848371</identifier>
      <datestamp>2017-08-25T05:51:50Z</datestamp>
      <setSpec>user-biosyslit</setSpec>
    </header>
    <header>
      <identifier>oai:zenodo.org:848393</identifier>
      <datestamp>2017-08-25T05:54:01Z</datestamp>
      <setSpec>user-biosyslit</setSpec>
    </header>
    <header>
      <identifier>oai:zenodo.org:848363</identifier>
      <datestamp>2017-08-25T05:52:29Z</datestamp>
      <setSpec>user-biosyslit</setSpec>
    </header>
    <header>
      <identifier>oai:zenodo.org:848375</identifier>
      <datestamp>2017-08-25T05:51:57Z</datestamp>
      <setSpec>user-biosyslit</setSpec>
    </header>
    <header>
      <identifier>oai:zenodo.org:848391</identifier>
      <datestamp>2017-08-25T05:52:24Z</datestamp>
      <setSpec>user-biosyslit</setSpec>
    </header>
    <header>
      <identifier>oai:zenodo.org:848385</identifier>
      <datestamp>2017-08-25T05:52:13Z</datestamp>
      <setSpec>user-biosyslit</setSpec>
    </header>
    <header>
      <identifier>oai:zenodo.org:848381</identifier>
      <datestamp>2017-08-25T05:52:09Z</datestamp>
      <setSpec>user-biosyslit</setSpec>
    </header>
    <header>
      <identifier>oai:zenodo.org:848397</identifier>
      <datestamp>2017-08-25T05:53:38Z</datestamp>
      <setSpec>user-biosyslit</setSpec>
    </header>
    <header>
      <identifier>oai:zenodo.org:848429</identifier>
      <datestamp>2017-08-25T05:56:18Z</datestamp>
      <setSpec>user-biosyslit</setSpec>
    </header>
    <header>
      <identifier>oai:zenodo.org:848433</identifier>
      <datestamp>2017-08-25T05:56:02Z</datestamp>
      <setSpec>user-biosyslit</setSpec>
    </header>
    <header>
      <identifier>oai:zenodo.org:848291</identifier>
      <datestamp>2017-08-25T05:54:53Z</datestamp>
      <setSpec>user-biosyslit</setSpec>
    </header>
    <header>
      <identifier>oai:zenodo.org:848421</identifier>
      <datestamp>2017-08-25T05:54:58Z</datestamp>
      <setSpec>user-biosyslit</setSpec>
    </header>
    <header>
      <identifier>oai:zenodo.org:848439</identifier>
      <datestamp>2017-08-25T05:56:13Z</datestamp>
      <setSpec>user-biosyslit</setSpec>
    </header>
    <header>
      <identifier>oai:zenodo.org:848415</identifier>
      <datestamp>2017-08-25T05:54:48Z</datestamp>
      <setSpec>user-biosyslit</setSpec>
    </header>
    <header>
      <identifier>oai:zenodo.org:848423</identifier>
      <datestamp>2017-08-25T05:55:02Z</datestamp>
      <setSpec>user-biosyslit</setSpec>
    </header>
    <header>
      <identifier>oai:zenodo.org:848459</identifier>
      <datestamp>2017-08-25T05:58:30Z</datestamp>
      <setSpec>user-biosyslit</setSpec>
    </header>
    <header>
      <identifier>oai:zenodo.org:848455</identifier>
      <datestamp>2017-08-25T05:57:22Z</datestamp>
      <setSpec>user-biosyslit</setSpec>
    </header>
    <header>
      <identifier>oai:zenodo.org:848441</identifier>
      <datestamp>2017-08-25T05:57:29Z</datestamp>
      <setSpec>user-biosyslit</setSpec>
    </header>
    <header>
      <identifier>oai:zenodo.org:848467</identifier>
      <datestamp>2017-08-25T05:58:27Z</datestamp>
      <setSpec>user-biosyslit</setSpec>
    </header>
    <header>
      <identifier>oai:zenodo.org:848449</identifier>
      <datestamp>2017-08-25T05:57:09Z</datestamp>
      <setSpec>user-biosyslit</setSpec>
    </header>
    <header>
      <identifier>oai:zenodo.org:848445</identifier>
      <datestamp>2017-08-25T05:56:59Z</datestamp>
      <setSpec>user-biosyslit</setSpec>
    </header>
    <header>
      <identifier>oai:zenodo.org:848469</identifier>
      <datestamp>2017-08-25T05:59:14Z</datestamp>
      <setSpec>user-biosyslit</setSpec>
    </header>
    <header>
      <identifier>oai:zenodo.org:848481</identifier>
      <datestamp>2017-08-25T05:59:10Z</datestamp>
      <setSpec>user-biosyslit</setSpec>
    </header>
    <header>
      <identifier>oai:zenodo.org:848670</identifier>
      <datestamp>2017-08-25T13:59:04Z</datestamp>
      <setSpec>openaire</setSpec>
      <setSpec>user-biosyslit</setSpec>
    </header>
    <header>
      <identifier>oai:zenodo.org:848674</identifier>
      <datestamp>2017-08-25T15:59:04Z</datestamp>
      <setSpec>openaire</setSpec>
      <setSpec>user-biosyslit</setSpec>
    </header>
    <header>
      <identifier>oai:zenodo.org:836973</identifier>
      <datestamp>2017-08-01T09:18:04Z</datestamp>
      <setSpec>user-biosyslit</setSpec>
    </header>
    <header>
      <identifier>oai:zenodo.org:836975</identifier>
      <datestamp>2017-08-01T09:18:08Z</datestamp>
      <setSpec>user-biosyslit</setSpec>
    </header>
    <header>
      <identifier>oai:zenodo.org:836987</identifier>
      <datestamp>2017-08-01T09:18:30Z</datestamp>
      <setSpec>user-biosyslit</setSpec>
    </header>
    <header>
      <identifier>oai:zenodo.org:836979</identifier>
      <datestamp>2017-08-01T09:18:15Z</datestamp>
      <setSpec>user-biosyslit</setSpec>
    </header>
    <resumptionToken expirationDate="2017-08-31T15:45:29Z" cursor="37900" completeListSize="77796">.eJyNyj0LgkAYAOD_8s4S92GdCS1hiUOKXoq6hJ0i5lniFelF_z2X5nrm5wWqqkqw0QKZbM2sFVqbZEkYs5hpgBLDTcpTMwcQaSLFVcaFmzyiLkEZqZnvqPHgZNTXLQo6rPk-JCm2xrhBU3iM75mOxoR6T4527KDDyb948ytp4Mr87PY8vm4lJ-UQ7MKJ4y3Pqfg-_OfTP5-jNmBAX9QV2NTCBrTPYqgV2K_3-wMWOVG3.DInAIQ.HeFMJh8XJorolAeQCd45GjVo2UI</resumptionToken>
  </ListIdentifiers>
</OAI-PMH>
