<?xml version='1.0' encoding='UTF-8'?>
<?xml-stylesheet type="text/xsl" href="/static/xsl/oai2.v1.0.xsl"?>
<OAI-PMH xmlns="http://www.openarchives.org/OAI/2.0/" xmlns:xsi="http://www.w3.org/2001/XMLSchema-instance" xsi:schemaLocation="http://www.openarchives.org/OAI/2.0/ http://www.openarchives.org/OAI/2.0/OAI-PMH.xsd">
  <responseDate>2017-08-31T15:42:02Z</responseDate>
  <request verb="ListIdentifiers" resumptionToken=".eJyNyssKgkAYQOF3-dcSc6m8QJuwxEWKTg7ZJmwUMccSp1BHevfctC44u_NNoIoiBwct1itELIqRTS26nDNAie4h5aWaN4gTl-Iuk8zjr7jhKCWlGbhqOLgpDXSNwgZrto_ICVtDUqExOibPVMcDp37P0M486GgMbv7schp68nz1Wpbct5KRvAt30cjwlp2p-Dr8p9M_nas2YECblQU4eGUbUPdZVypwpvf7A5mfUT0.DIm_yg.91wwhrJZZrI9BMiJdy-qL3FrzU4">https://zenodo.org/oai2d</request>
  <ListIdentifiers>
    <header>
      <identifier>oai:zenodo.org:399114</identifier>
      <datestamp>2017-03-15T08:26:31Z</datestamp>
      <setSpec>user-biosyslit</setSpec>
    </header>
    <header>
      <identifier>oai:zenodo.org:398886</identifier>
      <datestamp>2017-03-14T21:02:15Z</datestamp>
      <setSpec>user-biosyslit</setSpec>
    </header>
    <header>
      <identifier>oai:zenodo.org:399636</identifier>
      <datestamp>2017-03-15T23:05:00Z</datestamp>
      <setSpec>user-biosyslit</setSpec>
    </header>
    <header>
      <identifier>oai:zenodo.org:556882</identifier>
      <datestamp>2017-04-24T08:06:15Z</datestamp>
      <setSpec>user-biosyslit</setSpec>
    </header>
    <header>
      <identifier>oai:zenodo.org:400164</identifier>
      <datestamp>2017-03-16T09:16:41Z</datestamp>
      <setSpec>user-biosyslit</setSpec>
    </header>
    <header>
      <identifier>oai:zenodo.org:400048</identifier>
      <datestamp>2017-03-16T07:31:28Z</datestamp>
      <setSpec>user-biosyslit</setSpec>
    </header>
    <header>
      <identifier>oai:zenodo.org:400005</identifier>
      <datestamp>2017-03-16T02:08:59Z</datestamp>
      <setSpec>user-biosyslit</setSpec>
    </header>
    <header>
      <identifier>oai:zenodo.org:556035</identifier>
      <datestamp>2017-04-19T07:30:37Z</datestamp>
      <setSpec>user-biosyslit</setSpec>
    </header>
    <header>
      <identifier>oai:zenodo.org:556482</identifier>
      <datestamp>2017-04-21T08:45:08Z</datestamp>
      <setSpec>user-biosyslit</setSpec>
    </header>
    <header>
      <identifier>oai:zenodo.org:437666</identifier>
      <datestamp>2017-03-23T10:10:45Z</datestamp>
      <setSpec>user-biosyslit</setSpec>
    </header>
    <header>
      <identifier>oai:zenodo.org:243534</identifier>
      <datestamp>2017-01-14T07:03:21Z</datestamp>
      <setSpec>user-biosyslit</setSpec>
    </header>
    <header>
      <identifier>oai:zenodo.org:244097</identifier>
      <datestamp>2017-01-14T16:14:08Z</datestamp>
      <setSpec>user-biosyslit</setSpec>
    </header>
    <header>
      <identifier>oai:zenodo.org:243448</identifier>
      <datestamp>2017-01-14T05:52:32Z</datestamp>
      <setSpec>user-biosyslit</setSpec>
    </header>
    <header>
      <identifier>oai:zenodo.org:244381</identifier>
      <datestamp>2017-01-14T21:03:06Z</datestamp>
      <setSpec>user-biosyslit</setSpec>
    </header>
    <header>
      <identifier>oai:zenodo.org:245000</identifier>
      <datestamp>2017-01-15T06:15:19Z</datestamp>
      <setSpec>user-biosyslit</setSpec>
    </header>
    <header>
      <identifier>oai:zenodo.org:243693</identifier>
      <datestamp>2017-01-14T09:20:29Z</datestamp>
      <setSpec>user-biosyslit</setSpec>
    </header>
    <header>
      <identifier>oai:zenodo.org:244779</identifier>
      <datestamp>2017-01-15T02:23:14Z</datestamp>
      <setSpec>user-biosyslit</setSpec>
    </header>
    <header>
      <identifier>oai:zenodo.org:243293</identifier>
      <datestamp>2017-01-14T02:08:18Z</datestamp>
      <setSpec>user-biosyslit</setSpec>
    </header>
    <header>
      <identifier>oai:zenodo.org:243615</identifier>
      <datestamp>2017-01-14T08:12:26Z</datestamp>
      <setSpec>user-biosyslit</setSpec>
    </header>
    <header>
      <identifier>oai:zenodo.org:275432</identifier>
      <datestamp>2017-02-08T16:20:51Z</datestamp>
      <setSpec>user-biosyslit</setSpec>
    </header>
    <header>
      <identifier>oai:zenodo.org:243738</identifier>
      <datestamp>2017-01-14T10:08:36Z</datestamp>
      <setSpec>user-biosyslit</setSpec>
    </header>
    <header>
      <identifier>oai:zenodo.org:272222</identifier>
      <datestamp>2017-02-08T04:02:02Z</datestamp>
      <setSpec>user-biosyslit</setSpec>
    </header>
    <header>
      <identifier>oai:zenodo.org:244802</identifier>
      <datestamp>2017-01-15T02:44:23Z</datestamp>
      <setSpec>user-biosyslit</setSpec>
    </header>
    <header>
      <identifier>oai:zenodo.org:243946</identifier>
      <datestamp>2017-01-14T13:43:29Z</datestamp>
      <setSpec>user-biosyslit</setSpec>
    </header>
    <header>
      <identifier>oai:zenodo.org:244411</identifier>
      <datestamp>2017-01-14T21:26:17Z</datestamp>
      <setSpec>user-biosyslit</setSpec>
    </header>
    <header>
      <identifier>oai:zenodo.org:245008</identifier>
      <datestamp>2017-01-15T06:32:57Z</datestamp>
      <setSpec>user-biosyslit</setSpec>
    </header>
    <header>
      <identifier>oai:zenodo.org:244302</identifier>
      <datestamp>2017-01-14T19:49:39Z</datestamp>
      <setSpec>user-biosyslit</setSpec>
    </header>
    <header>
      <identifier>oai:zenodo.org:244613</identifier>
      <datestamp>2017-01-15T00:05:04Z</datestamp>
      <setSpec>user-biosyslit</setSpec>
    </header>
    <header>
      <identifier>oai:zenodo.org:245159</identifier>
      <datestamp>2017-01-15T09:02:37Z</datestamp>
      <setSpec>user-biosyslit</setSpec>
    </header>
    <header>
      <identifier>oai:zenodo.org:245699</identifier>
      <datestamp>2017-01-15T17:36:29Z</datestamp>
      <setSpec>user-biosyslit</setSpec>
    </header>
    <header>
      <identifier>oai:zenodo.org:272494</identifier>
      <datestamp>2017-02-08T04:55:53Z</datestamp>
      <setSpec>user-biosyslit</setSpec>
    </header>
    <header>
      <identifier>oai:zenodo.org:244862</identifier>
      <datestamp>2017-01-15T04:19:43Z</datestamp>
      <setSpec>user-biosyslit</setSpec>
    </header>
    <header>
      <identifier>oai:zenodo.org:275493</identifier>
      <datestamp>2017-02-08T16:34:03Z</datestamp>
      <setSpec>user-biosyslit</setSpec>
    </header>
    <header>
      <identifier>oai:zenodo.org:244655</identifier>
      <datestamp>2017-01-15T00:30:53Z</datestamp>
      <setSpec>user-biosyslit</setSpec>
    </header>
    <header>
      <identifier>oai:zenodo.org:246086</identifier>
      <datestamp>2017-01-15T21:51:07Z</datestamp>
      <setSpec>user-biosyslit</setSpec>
    </header>
    <header>
      <identifier>oai:zenodo.org:244878</identifier>
      <datestamp>2017-01-15T04:33:56Z</datestamp>
      <setSpec>user-biosyslit</setSpec>
    </header>
    <header>
      <identifier>oai:zenodo.org:244815</identifier>
      <datestamp>2017-01-15T03:17:41Z</datestamp>
      <setSpec>user-biosyslit</setSpec>
    </header>
    <header>
      <identifier>oai:zenodo.org:245885</identifier>
      <datestamp>2017-01-15T19:20:25Z</datestamp>
      <setSpec>user-biosyslit</setSpec>
    </header>
    <header>
      <identifier>oai:zenodo.org:246324</identifier>
      <datestamp>2017-01-16T00:44:16Z</datestamp>
      <setSpec>user-biosyslit</setSpec>
    </header>
    <header>
      <identifier>oai:zenodo.org:245328</identifier>
      <datestamp>2017-01-15T11:48:21Z</datestamp>
      <setSpec>user-biosyslit</setSpec>
    </header>
    <header>
      <identifier>oai:zenodo.org:245684</identifier>
      <datestamp>2017-01-15T17:26:57Z</datestamp>
      <setSpec>user-biosyslit</setSpec>
    </header>
    <header>
      <identifier>oai:zenodo.org:245321</identifier>
      <datestamp>2017-01-15T11:43:44Z</datestamp>
      <setSpec>user-biosyslit</setSpec>
    </header>
    <header>
      <identifier>oai:zenodo.org:272368</identifier>
      <datestamp>2017-02-08T04:22:25Z</datestamp>
      <setSpec>user-biosyslit</setSpec>
    </header>
    <header>
      <identifier>oai:zenodo.org:246078</identifier>
      <datestamp>2017-01-15T21:47:53Z</datestamp>
      <setSpec>user-biosyslit</setSpec>
    </header>
    <header>
      <identifier>oai:zenodo.org:289735</identifier>
      <datestamp>2017-02-10T00:22:52Z</datestamp>
      <setSpec>user-biosyslit</setSpec>
    </header>
    <header>
      <identifier>oai:zenodo.org:288985</identifier>
      <datestamp>2017-02-09T22:19:05Z</datestamp>
      <setSpec>user-biosyslit</setSpec>
    </header>
    <header>
      <identifier>oai:zenodo.org:288769</identifier>
      <datestamp>2017-02-09T21:51:47Z</datestamp>
      <setSpec>user-biosyslit</setSpec>
    </header>
    <header>
      <identifier>oai:zenodo.org:289077</identifier>
      <datestamp>2017-02-09T22:34:10Z</datestamp>
      <setSpec>user-biosyslit</setSpec>
    </header>
    <header>
      <identifier>oai:zenodo.org:289459</identifier>
      <datestamp>2017-02-09T23:32:47Z</datestamp>
      <setSpec>user-biosyslit</setSpec>
    </header>
    <header>
      <identifier>oai:zenodo.org:290059</identifier>
      <datestamp>2017-02-10T01:12:32Z</datestamp>
      <setSpec>user-biosyslit</setSpec>
    </header>
    <header>
      <identifier>oai:zenodo.org:289456</identifier>
      <datestamp>2017-02-09T23:32:38Z</datestamp>
      <setSpec>user-biosyslit</setSpec>
    </header>
    <header>
      <identifier>oai:zenodo.org:289526</identifier>
      <datestamp>2017-02-09T23:44:40Z</datestamp>
      <setSpec>user-biosyslit</setSpec>
    </header>
    <header>
      <identifier>oai:zenodo.org:289789</identifier>
      <datestamp>2017-02-10T00:30:40Z</datestamp>
      <setSpec>user-biosyslit</setSpec>
    </header>
    <header>
      <identifier>oai:zenodo.org:289451</identifier>
      <datestamp>2017-02-09T23:32:21Z</datestamp>
      <setSpec>user-biosyslit</setSpec>
    </header>
    <header>
      <identifier>oai:zenodo.org:289305</identifier>
      <datestamp>2017-02-09T23:11:21Z</datestamp>
      <setSpec>user-biosyslit</setSpec>
    </header>
    <header>
      <identifier>oai:zenodo.org:289814</identifier>
      <datestamp>2017-02-10T00:33:30Z</datestamp>
      <setSpec>user-biosyslit</setSpec>
    </header>
    <header>
      <identifier>oai:zenodo.org:289650</identifier>
      <datestamp>2017-02-10T00:02:09Z</datestamp>
      <setSpec>user-biosyslit</setSpec>
    </header>
    <header>
      <identifier>oai:zenodo.org:289933</identifier>
      <datestamp>2017-02-10T00:50:22Z</datestamp>
      <setSpec>user-biosyslit</setSpec>
    </header>
    <header>
      <identifier>oai:zenodo.org:291353</identifier>
      <datestamp>2017-02-13T20:46:24Z</datestamp>
      <setSpec>user-biosyslit</setSpec>
    </header>
    <header>
      <identifier>oai:zenodo.org:289583</identifier>
      <datestamp>2017-02-09T23:51:36Z</datestamp>
      <setSpec>user-biosyslit</setSpec>
    </header>
    <header>
      <identifier>oai:zenodo.org:289763</identifier>
      <datestamp>2017-02-10T00:26:01Z</datestamp>
      <setSpec>user-biosyslit</setSpec>
    </header>
    <header>
      <identifier>oai:zenodo.org:289717</identifier>
      <datestamp>2017-02-10T00:22:02Z</datestamp>
      <setSpec>user-biosyslit</setSpec>
    </header>
    <header>
      <identifier>oai:zenodo.org:291270</identifier>
      <datestamp>2017-02-13T20:39:02Z</datestamp>
      <setSpec>user-biosyslit</setSpec>
    </header>
    <header>
      <identifier>oai:zenodo.org:289909</identifier>
      <datestamp>2017-02-10T00:46:27Z</datestamp>
      <setSpec>user-biosyslit</setSpec>
    </header>
    <header>
      <identifier>oai:zenodo.org:289816</identifier>
      <datestamp>2017-02-10T00:33:35Z</datestamp>
      <setSpec>user-biosyslit</setSpec>
    </header>
    <header>
      <identifier>oai:zenodo.org:291382</identifier>
      <datestamp>2017-02-14T05:45:20Z</datestamp>
      <setSpec>user-biosyslit</setSpec>
    </header>
    <header>
      <identifier>oai:zenodo.org:291313</identifier>
      <datestamp>2017-02-13T20:42:48Z</datestamp>
      <setSpec>user-biosyslit</setSpec>
    </header>
    <header>
      <identifier>oai:zenodo.org:291978</identifier>
      <datestamp>2017-02-20T08:30:56Z</datestamp>
      <setSpec>user-neilreichia</setSpec>
      <setSpec>user-biosyslit</setSpec>
    </header>
    <header>
      <identifier>oai:zenodo.org:291778</identifier>
      <datestamp>2017-02-14T17:08:07Z</datestamp>
      <setSpec>user-biosyslit</setSpec>
    </header>
    <header>
      <identifier>oai:zenodo.org:293141</identifier>
      <datestamp>2017-02-18T19:42:39Z</datestamp>
      <setSpec>user-biosyslit</setSpec>
    </header>
    <header>
      <identifier>oai:zenodo.org:291337</identifier>
      <datestamp>2017-02-13T20:45:19Z</datestamp>
      <setSpec>user-biosyslit</setSpec>
    </header>
    <header>
      <identifier>oai:zenodo.org:291263</identifier>
      <datestamp>2017-02-13T20:37:50Z</datestamp>
      <setSpec>user-biosyslit</setSpec>
    </header>
    <header>
      <identifier>oai:zenodo.org:291232</identifier>
      <datestamp>2017-02-13T20:34:16Z</datestamp>
      <setSpec>user-biosyslit</setSpec>
    </header>
    <header>
      <identifier>oai:zenodo.org:291241</identifier>
      <datestamp>2017-02-13T20:35:41Z</datestamp>
      <setSpec>user-biosyslit</setSpec>
    </header>
    <header>
      <identifier>oai:zenodo.org:291487</identifier>
      <datestamp>2017-02-15T16:02:56Z</datestamp>
      <setSpec>openaire</setSpec>
      <setSpec>user-biosyslit</setSpec>
    </header>
    <header>
      <identifier>oai:zenodo.org:291924</identifier>
      <datestamp>2017-02-15T14:36:00Z</datestamp>
      <setSpec>user-biosyslit</setSpec>
    </header>
    <header>
      <identifier>oai:zenodo.org:292308</identifier>
      <datestamp>2017-02-20T08:30:07Z</datestamp>
      <setSpec>user-biosyslit</setSpec>
    </header>
    <header>
      <identifier>oai:zenodo.org:292794</identifier>
      <datestamp>2017-02-16T18:41:08Z</datestamp>
      <setSpec>user-biosyslit</setSpec>
    </header>
    <header>
      <identifier>oai:zenodo.org:292316</identifier>
      <datestamp>2017-02-20T08:29:56Z</datestamp>
      <setSpec>openaire_data</setSpec>
      <setSpec>user-biosyslit</setSpec>
    </header>
    <header>
      <identifier>oai:zenodo.org:292393</identifier>
      <datestamp>2017-02-20T08:28:35Z</datestamp>
      <setSpec>openaire</setSpec>
      <setSpec>user-biosyslit</setSpec>
    </header>
    <header>
      <identifier>oai:zenodo.org:292280</identifier>
      <datestamp>2017-02-20T08:30:24Z</datestamp>
      <setSpec>user-biosyslit</setSpec>
    </header>
    <header>
      <identifier>oai:zenodo.org:292343</identifier>
      <datestamp>2017-02-20T08:29:38Z</datestamp>
      <setSpec>user-biosyslit</setSpec>
    </header>
    <header>
      <identifier>oai:zenodo.org:292771</identifier>
      <datestamp>2017-02-16T18:38:09Z</datestamp>
      <setSpec>user-biosyslit</setSpec>
    </header>
    <header>
      <identifier>oai:zenodo.org:292409</identifier>
      <datestamp>2017-02-20T08:28:29Z</datestamp>
      <setSpec>openaire</setSpec>
      <setSpec>user-biosyslit</setSpec>
    </header>
    <header>
      <identifier>oai:zenodo.org:293416</identifier>
      <datestamp>2017-02-19T13:38:27Z</datestamp>
      <setSpec>user-biosyslit</setSpec>
    </header>
    <header>
      <identifier>oai:zenodo.org:292446</identifier>
      <datestamp>2017-02-20T08:28:00Z</datestamp>
      <setSpec>openaire</setSpec>
      <setSpec>user-biosyslit</setSpec>
    </header>
    <header>
      <identifier>oai:zenodo.org:292784</identifier>
      <datestamp>2017-02-16T18:40:14Z</datestamp>
      <setSpec>user-biosyslit</setSpec>
    </header>
    <header>
      <identifier>oai:zenodo.org:292902</identifier>
      <datestamp>2017-02-16T18:57:29Z</datestamp>
      <setSpec>user-biosyslit</setSpec>
    </header>
    <header>
      <identifier>oai:zenodo.org:292876</identifier>
      <datestamp>2017-02-16T18:51:13Z</datestamp>
      <setSpec>user-biosyslit</setSpec>
    </header>
    <header>
      <identifier>oai:zenodo.org:292498</identifier>
      <datestamp>2017-02-20T08:31:58Z</datestamp>
      <setSpec>user-biosyslit</setSpec>
    </header>
    <header>
      <identifier>oai:zenodo.org:292734</identifier>
      <datestamp>2017-02-16T18:34:26Z</datestamp>
      <setSpec>user-biosyslit</setSpec>
    </header>
    <header>
      <identifier>oai:zenodo.org:292727</identifier>
      <datestamp>2017-02-16T18:33:43Z</datestamp>
      <setSpec>user-biosyslit</setSpec>
    </header>
    <header>
      <identifier>oai:zenodo.org:293532</identifier>
      <datestamp>2017-02-19T13:46:40Z</datestamp>
      <setSpec>user-biosyslit</setSpec>
    </header>
    <header>
      <identifier>oai:zenodo.org:294424</identifier>
      <datestamp>2017-02-20T19:38:17Z</datestamp>
      <setSpec>user-biosyslit</setSpec>
    </header>
    <header>
      <identifier>oai:zenodo.org:293582</identifier>
      <datestamp>2017-02-19T13:47:58Z</datestamp>
      <setSpec>user-biosyslit</setSpec>
    </header>
    <header>
      <identifier>oai:zenodo.org:294320</identifier>
      <datestamp>2017-02-20T19:36:11Z</datestamp>
      <setSpec>user-biosyslit</setSpec>
    </header>
    <header>
      <identifier>oai:zenodo.org:293965</identifier>
      <datestamp>2017-02-20T19:03:39Z</datestamp>
      <setSpec>user-biosyslit</setSpec>
    </header>
    <header>
      <identifier>oai:zenodo.org:294021</identifier>
      <datestamp>2017-02-20T19:09:13Z</datestamp>
      <setSpec>user-biosyslit</setSpec>
    </header>
    <header>
      <identifier>oai:zenodo.org:294025</identifier>
      <datestamp>2017-02-20T19:09:21Z</datestamp>
      <setSpec>user-biosyslit</setSpec>
    </header>
    <header>
      <identifier>oai:zenodo.org:294033</identifier>
      <datestamp>2017-02-20T19:10:44Z</datestamp>
      <setSpec>user-biosyslit</setSpec>
    </header>
    <resumptionToken expirationDate="2017-08-31T15:44:02Z" cursor="15800" completeListSize="77796">.eJyNyk0LgjAYAOD_8p4l9hGbCl1Ckw4ptjbSS9gUqdYHrkgn_fe6dK7z84xgm6aGEE0CHDDGfDZlhAdTxj2wursaszt8GPRWGX0xskrUY31WqCAtTyPbr6KCpu6EsjN2YpGTLfZ7eUBDvpH3wq17RZdPgWK-cvmQHpefV9MsMeU-uQl5mRtB6i6L80HguSip_j7853M_X2Rn4MGtahsIMUMenJ5V11oIx9frDbQAUVI.DIm_yg.m_Tw5xbIPzg9nI_rPnfZ6hHRBWs</resumptionToken>
  </ListIdentifiers>
</OAI-PMH>
