<?xml version='1.0' encoding='UTF-8'?>
<?xml-stylesheet type="text/xsl" href="/static/xsl/oai2.v1.0.xsl"?>
<OAI-PMH xmlns="http://www.openarchives.org/OAI/2.0/" xmlns:xsi="http://www.w3.org/2001/XMLSchema-instance" xsi:schemaLocation="http://www.openarchives.org/OAI/2.0/ http://www.openarchives.org/OAI/2.0/OAI-PMH.xsd">
  <responseDate>2017-08-31T15:41:04Z</responseDate>
  <request verb="ListIdentifiers" resumptionToken=".eJyNysEKgjAYAOB3-c8Sc86VQpfQpIPKWpPsEjZFqmXhCnXiu9elc52_bwRdVSX4aEYJxZQQl3guRdhbWKBle1fqeP4wyH2mZKNEEWWv7S1DOa7nSaD7OMidxFxRerMNXzO8txe9OKOB7cQzN9s-czYdR-E8NmxILpvPK500UodT9OCiWSmOyzYN2cDtFT848vvsP5_5-QK9BAseRV2BTy24dkVba_DHaXoDB0dQ4Q.DIm_kA.axAC_2DDC27e6PgGF3x5kIQ4UeI">https://zenodo.org/oai2d</request>
  <ListIdentifiers>
    <header>
      <identifier>oai:zenodo.org:238995</identifier>
      <datestamp>2017-01-11T14:36:37Z</datestamp>
      <setSpec>user-biosyslit</setSpec>
    </header>
    <header>
      <identifier>oai:zenodo.org:278052</identifier>
      <datestamp>2017-02-08T22:21:14Z</datestamp>
      <setSpec>user-biosyslit</setSpec>
    </header>
    <header>
      <identifier>oai:zenodo.org:278492</identifier>
      <datestamp>2017-02-08T23:17:08Z</datestamp>
      <setSpec>user-biosyslit</setSpec>
    </header>
    <header>
      <identifier>oai:zenodo.org:239171</identifier>
      <datestamp>2017-01-11T17:16:48Z</datestamp>
      <setSpec>user-biosyslit</setSpec>
    </header>
    <header>
      <identifier>oai:zenodo.org:278186</identifier>
      <datestamp>2017-02-08T22:37:23Z</datestamp>
      <setSpec>user-biosyslit</setSpec>
    </header>
    <header>
      <identifier>oai:zenodo.org:278185</identifier>
      <datestamp>2017-02-08T22:37:20Z</datestamp>
      <setSpec>user-biosyslit</setSpec>
    </header>
    <header>
      <identifier>oai:zenodo.org:240499</identifier>
      <datestamp>2017-01-12T09:27:36Z</datestamp>
      <setSpec>user-biosyslit</setSpec>
    </header>
    <header>
      <identifier>oai:zenodo.org:278395</identifier>
      <datestamp>2017-02-08T23:05:21Z</datestamp>
      <setSpec>user-biosyslit</setSpec>
    </header>
    <header>
      <identifier>oai:zenodo.org:227267</identifier>
      <datestamp>2017-01-01T18:51:09Z</datestamp>
      <setSpec>user-biosyslit</setSpec>
    </header>
    <header>
      <identifier>oai:zenodo.org:227698</identifier>
      <datestamp>2017-01-02T02:23:30Z</datestamp>
      <setSpec>user-biosyslit</setSpec>
    </header>
    <header>
      <identifier>oai:zenodo.org:269337</identifier>
      <datestamp>2017-02-06T23:57:07Z</datestamp>
      <setSpec>user-biosyslit</setSpec>
    </header>
    <header>
      <identifier>oai:zenodo.org:274540</identifier>
      <datestamp>2017-02-08T13:37:56Z</datestamp>
      <setSpec>user-biosyslit</setSpec>
    </header>
    <header>
      <identifier>oai:zenodo.org:267871</identifier>
      <datestamp>2017-02-02T08:51:59Z</datestamp>
      <setSpec>user-biosyslit</setSpec>
    </header>
    <header>
      <identifier>oai:zenodo.org:268141</identifier>
      <datestamp>2017-02-03T02:55:11Z</datestamp>
      <setSpec>user-biosyslit</setSpec>
    </header>
    <header>
      <identifier>oai:zenodo.org:268255</identifier>
      <datestamp>2017-02-03T04:52:46Z</datestamp>
      <setSpec>user-biosyslit</setSpec>
    </header>
    <header>
      <identifier>oai:zenodo.org:268361</identifier>
      <datestamp>2017-02-03T12:17:47Z</datestamp>
      <setSpec>user-biosyslit</setSpec>
    </header>
    <header>
      <identifier>oai:zenodo.org:228045</identifier>
      <datestamp>2017-01-02T09:29:24Z</datestamp>
      <setSpec>user-biosyslit</setSpec>
    </header>
    <header>
      <identifier>oai:zenodo.org:230229</identifier>
      <datestamp>2017-01-04T21:21:53Z</datestamp>
      <setSpec>user-biosyslit</setSpec>
    </header>
    <header>
      <identifier>oai:zenodo.org:268325</identifier>
      <datestamp>2017-02-03T11:18:18Z</datestamp>
      <setSpec>user-biosyslit</setSpec>
    </header>
    <header>
      <identifier>oai:zenodo.org:269362</identifier>
      <datestamp>2017-02-06T23:58:35Z</datestamp>
      <setSpec>user-biosyslit</setSpec>
    </header>
    <header>
      <identifier>oai:zenodo.org:270186</identifier>
      <datestamp>2017-02-07T22:30:16Z</datestamp>
      <setSpec>user-biosyslit</setSpec>
    </header>
    <header>
      <identifier>oai:zenodo.org:230241</identifier>
      <datestamp>2017-01-04T21:36:49Z</datestamp>
      <setSpec>user-biosyslit</setSpec>
    </header>
    <header>
      <identifier>oai:zenodo.org:269701</identifier>
      <datestamp>2017-02-07T20:05:14Z</datestamp>
      <setSpec>user-biosyslit</setSpec>
    </header>
    <header>
      <identifier>oai:zenodo.org:269087</identifier>
      <datestamp>2017-02-06T22:41:26Z</datestamp>
      <setSpec>user-biosyslit</setSpec>
    </header>
    <header>
      <identifier>oai:zenodo.org:269174</identifier>
      <datestamp>2017-02-06T22:54:51Z</datestamp>
      <setSpec>user-biosyslit</setSpec>
    </header>
    <header>
      <identifier>oai:zenodo.org:269960</identifier>
      <datestamp>2017-02-07T21:54:13Z</datestamp>
      <setSpec>user-biosyslit</setSpec>
    </header>
    <header>
      <identifier>oai:zenodo.org:229811</identifier>
      <datestamp>2017-01-04T07:23:14Z</datestamp>
      <setSpec>user-biosyslit</setSpec>
    </header>
    <header>
      <identifier>oai:zenodo.org:230019</identifier>
      <datestamp>2017-01-04T17:37:49Z</datestamp>
      <setSpec>user-biosyslit</setSpec>
    </header>
    <header>
      <identifier>oai:zenodo.org:268950</identifier>
      <datestamp>2017-02-07T10:00:32Z</datestamp>
      <setSpec>openaire</setSpec>
      <setSpec>user-biosyslit</setSpec>
    </header>
    <header>
      <identifier>oai:zenodo.org:231881</identifier>
      <datestamp>2017-01-06T08:18:52Z</datestamp>
      <setSpec>user-biosyslit</setSpec>
    </header>
    <header>
      <identifier>oai:zenodo.org:230884</identifier>
      <datestamp>2017-01-05T09:52:42Z</datestamp>
      <setSpec>user-biosyslit</setSpec>
    </header>
    <header>
      <identifier>oai:zenodo.org:229920</identifier>
      <datestamp>2017-01-04T16:01:55Z</datestamp>
      <setSpec>user-biosyslit</setSpec>
    </header>
    <header>
      <identifier>oai:zenodo.org:270027</identifier>
      <datestamp>2017-02-07T22:08:57Z</datestamp>
      <setSpec>user-biosyslit</setSpec>
    </header>
    <header>
      <identifier>oai:zenodo.org:269914</identifier>
      <datestamp>2017-02-07T20:43:47Z</datestamp>
      <setSpec>user-biosyslit</setSpec>
    </header>
    <header>
      <identifier>oai:zenodo.org:269529</identifier>
      <datestamp>2017-02-07T00:45:14Z</datestamp>
      <setSpec>user-biosyslit</setSpec>
    </header>
    <header>
      <identifier>oai:zenodo.org:230665</identifier>
      <datestamp>2017-01-05T05:57:57Z</datestamp>
      <setSpec>user-biosyslit</setSpec>
    </header>
    <header>
      <identifier>oai:zenodo.org:269359</identifier>
      <datestamp>2017-02-06T23:58:24Z</datestamp>
      <setSpec>user-biosyslit</setSpec>
    </header>
    <header>
      <identifier>oai:zenodo.org:269288</identifier>
      <datestamp>2017-02-06T23:48:25Z</datestamp>
      <setSpec>user-biosyslit</setSpec>
    </header>
    <header>
      <identifier>oai:zenodo.org:269514</identifier>
      <datestamp>2017-02-07T00:44:18Z</datestamp>
      <setSpec>user-biosyslit</setSpec>
    </header>
    <header>
      <identifier>oai:zenodo.org:269745</identifier>
      <datestamp>2017-02-07T20:15:16Z</datestamp>
      <setSpec>user-biosyslit</setSpec>
    </header>
    <header>
      <identifier>oai:zenodo.org:231884</identifier>
      <datestamp>2017-01-06T08:18:41Z</datestamp>
      <setSpec>user-biosyslit</setSpec>
    </header>
    <header>
      <identifier>oai:zenodo.org:270174</identifier>
      <datestamp>2017-02-07T22:29:15Z</datestamp>
      <setSpec>user-biosyslit</setSpec>
    </header>
    <header>
      <identifier>oai:zenodo.org:269464</identifier>
      <datestamp>2017-02-10T16:20:29Z</datestamp>
      <setSpec>openaire</setSpec>
      <setSpec>user-biosyslit</setSpec>
    </header>
    <header>
      <identifier>oai:zenodo.org:269358</identifier>
      <datestamp>2017-02-06T23:58:21Z</datestamp>
      <setSpec>user-biosyslit</setSpec>
    </header>
    <header>
      <identifier>oai:zenodo.org:231186</identifier>
      <datestamp>2017-01-05T17:02:41Z</datestamp>
      <setSpec>user-biosyslit</setSpec>
    </header>
    <header>
      <identifier>oai:zenodo.org:275246</identifier>
      <datestamp>2017-02-08T15:47:33Z</datestamp>
      <setSpec>user-biosyslit</setSpec>
    </header>
    <header>
      <identifier>oai:zenodo.org:274901</identifier>
      <datestamp>2017-02-08T14:44:55Z</datestamp>
      <setSpec>user-biosyslit</setSpec>
    </header>
    <header>
      <identifier>oai:zenodo.org:275586</identifier>
      <datestamp>2017-02-08T16:45:04Z</datestamp>
      <setSpec>user-biosyslit</setSpec>
    </header>
    <header>
      <identifier>oai:zenodo.org:270210</identifier>
      <datestamp>2017-02-07T22:32:16Z</datestamp>
      <setSpec>user-biosyslit</setSpec>
    </header>
    <header>
      <identifier>oai:zenodo.org:269602</identifier>
      <datestamp>2017-02-07T01:06:32Z</datestamp>
      <setSpec>user-biosyslit</setSpec>
    </header>
    <header>
      <identifier>oai:zenodo.org:269516</identifier>
      <datestamp>2017-02-07T00:44:24Z</datestamp>
      <setSpec>user-biosyslit</setSpec>
    </header>
    <header>
      <identifier>oai:zenodo.org:275053</identifier>
      <datestamp>2017-02-08T15:09:05Z</datestamp>
      <setSpec>user-biosyslit</setSpec>
    </header>
    <header>
      <identifier>oai:zenodo.org:269471</identifier>
      <datestamp>2017-02-07T00:42:15Z</datestamp>
      <setSpec>user-biosyslit</setSpec>
    </header>
    <header>
      <identifier>oai:zenodo.org:271612</identifier>
      <datestamp>2017-02-08T02:03:31Z</datestamp>
      <setSpec>user-biosyslit</setSpec>
    </header>
    <header>
      <identifier>oai:zenodo.org:269523</identifier>
      <datestamp>2017-02-07T00:44:49Z</datestamp>
      <setSpec>user-biosyslit</setSpec>
    </header>
    <header>
      <identifier>oai:zenodo.org:233661</identifier>
      <datestamp>2017-01-08T09:25:54Z</datestamp>
      <setSpec>user-biosyslit</setSpec>
    </header>
    <header>
      <identifier>oai:zenodo.org:275244</identifier>
      <datestamp>2017-02-08T15:47:28Z</datestamp>
      <setSpec>user-biosyslit</setSpec>
    </header>
    <header>
      <identifier>oai:zenodo.org:232476</identifier>
      <datestamp>2017-01-06T18:21:16Z</datestamp>
      <setSpec>user-biosyslit</setSpec>
    </header>
    <header>
      <identifier>oai:zenodo.org:232437</identifier>
      <datestamp>2017-01-06T17:35:23Z</datestamp>
      <setSpec>user-biosyslit</setSpec>
    </header>
    <header>
      <identifier>oai:zenodo.org:232457</identifier>
      <datestamp>2017-01-06T17:57:50Z</datestamp>
      <setSpec>user-biosyslit</setSpec>
    </header>
    <header>
      <identifier>oai:zenodo.org:233327</identifier>
      <datestamp>2017-01-08T03:33:07Z</datestamp>
      <setSpec>user-biosyslit</setSpec>
    </header>
    <header>
      <identifier>oai:zenodo.org:275518</identifier>
      <datestamp>2017-02-08T16:36:52Z</datestamp>
      <setSpec>user-biosyslit</setSpec>
    </header>
    <header>
      <identifier>oai:zenodo.org:270440</identifier>
      <datestamp>2017-02-07T23:15:31Z</datestamp>
      <setSpec>user-biosyslit</setSpec>
    </header>
    <header>
      <identifier>oai:zenodo.org:275874</identifier>
      <datestamp>2017-02-08T17:17:06Z</datestamp>
      <setSpec>user-biosyslit</setSpec>
    </header>
    <header>
      <identifier>oai:zenodo.org:234031</identifier>
      <datestamp>2017-01-08T14:13:14Z</datestamp>
      <setSpec>user-biosyslit</setSpec>
    </header>
    <header>
      <identifier>oai:zenodo.org:233694</identifier>
      <datestamp>2017-01-08T10:13:12Z</datestamp>
      <setSpec>user-biosyslit</setSpec>
    </header>
    <header>
      <identifier>oai:zenodo.org:277303</identifier>
      <datestamp>2017-02-08T20:50:02Z</datestamp>
      <setSpec>user-biosyslit</setSpec>
    </header>
    <header>
      <identifier>oai:zenodo.org:277166</identifier>
      <datestamp>2017-02-08T20:33:04Z</datestamp>
      <setSpec>user-biosyslit</setSpec>
    </header>
    <header>
      <identifier>oai:zenodo.org:234344</identifier>
      <datestamp>2017-01-08T18:35:08Z</datestamp>
      <setSpec>user-biosyslit</setSpec>
    </header>
    <header>
      <identifier>oai:zenodo.org:277814</identifier>
      <datestamp>2017-02-08T21:52:13Z</datestamp>
      <setSpec>user-biosyslit</setSpec>
    </header>
    <header>
      <identifier>oai:zenodo.org:235931</identifier>
      <datestamp>2017-01-09T16:56:21Z</datestamp>
      <setSpec>user-biosyslit</setSpec>
    </header>
    <header>
      <identifier>oai:zenodo.org:276822</identifier>
      <datestamp>2017-02-08T19:46:39Z</datestamp>
      <setSpec>user-biosyslit</setSpec>
    </header>
    <header>
      <identifier>oai:zenodo.org:277074</identifier>
      <datestamp>2017-02-08T20:19:30Z</datestamp>
      <setSpec>user-biosyslit</setSpec>
    </header>
    <header>
      <identifier>oai:zenodo.org:277636</identifier>
      <datestamp>2017-02-08T21:30:50Z</datestamp>
      <setSpec>user-biosyslit</setSpec>
    </header>
    <header>
      <identifier>oai:zenodo.org:277187</identifier>
      <datestamp>2017-02-08T20:34:14Z</datestamp>
      <setSpec>user-biosyslit</setSpec>
    </header>
    <header>
      <identifier>oai:zenodo.org:234861</identifier>
      <datestamp>2017-01-09T02:57:26Z</datestamp>
      <setSpec>user-biosyslit</setSpec>
    </header>
    <header>
      <identifier>oai:zenodo.org:234579</identifier>
      <datestamp>2017-01-08T22:10:50Z</datestamp>
      <setSpec>user-biosyslit</setSpec>
    </header>
    <header>
      <identifier>oai:zenodo.org:277602</identifier>
      <datestamp>2017-02-08T21:28:11Z</datestamp>
      <setSpec>user-biosyslit</setSpec>
    </header>
    <header>
      <identifier>oai:zenodo.org:234999</identifier>
      <datestamp>2017-01-09T04:28:40Z</datestamp>
      <setSpec>user-biosyslit</setSpec>
    </header>
    <header>
      <identifier>oai:zenodo.org:234852</identifier>
      <datestamp>2017-01-09T02:41:00Z</datestamp>
      <setSpec>user-biosyslit</setSpec>
    </header>
    <header>
      <identifier>oai:zenodo.org:234816</identifier>
      <datestamp>2017-01-09T02:26:46Z</datestamp>
      <setSpec>user-biosyslit</setSpec>
    </header>
    <header>
      <identifier>oai:zenodo.org:271091</identifier>
      <datestamp>2017-02-08T00:44:53Z</datestamp>
      <setSpec>user-biosyslit</setSpec>
    </header>
    <header>
      <identifier>oai:zenodo.org:234841</identifier>
      <datestamp>2017-01-09T02:40:21Z</datestamp>
      <setSpec>user-biosyslit</setSpec>
    </header>
    <header>
      <identifier>oai:zenodo.org:235115</identifier>
      <datestamp>2017-01-09T05:44:26Z</datestamp>
      <setSpec>user-biosyslit</setSpec>
    </header>
    <header>
      <identifier>oai:zenodo.org:235372</identifier>
      <datestamp>2017-01-09T09:31:24Z</datestamp>
      <setSpec>user-biosyslit</setSpec>
    </header>
    <header>
      <identifier>oai:zenodo.org:236996</identifier>
      <datestamp>2017-01-10T09:17:50Z</datestamp>
      <setSpec>user-biosyslit</setSpec>
    </header>
    <header>
      <identifier>oai:zenodo.org:276687</identifier>
      <datestamp>2017-02-08T19:28:11Z</datestamp>
      <setSpec>user-biosyslit</setSpec>
    </header>
    <header>
      <identifier>oai:zenodo.org:234850</identifier>
      <datestamp>2017-01-09T02:40:52Z</datestamp>
      <setSpec>user-biosyslit</setSpec>
    </header>
    <header>
      <identifier>oai:zenodo.org:235497</identifier>
      <datestamp>2017-01-09T10:42:06Z</datestamp>
      <setSpec>user-biosyslit</setSpec>
    </header>
    <header>
      <identifier>oai:zenodo.org:236410</identifier>
      <datestamp>2017-01-09T23:55:53Z</datestamp>
      <setSpec>user-biosyslit</setSpec>
    </header>
    <header>
      <identifier>oai:zenodo.org:235925</identifier>
      <datestamp>2017-01-09T16:56:06Z</datestamp>
      <setSpec>user-biosyslit</setSpec>
    </header>
    <header>
      <identifier>oai:zenodo.org:236032</identifier>
      <datestamp>2017-01-09T18:01:40Z</datestamp>
      <setSpec>user-biosyslit</setSpec>
    </header>
    <header>
      <identifier>oai:zenodo.org:278414</identifier>
      <datestamp>2017-02-08T23:08:30Z</datestamp>
      <setSpec>user-biosyslit</setSpec>
    </header>
    <header>
      <identifier>oai:zenodo.org:277884</identifier>
      <datestamp>2017-02-08T22:00:58Z</datestamp>
      <setSpec>user-biosyslit</setSpec>
    </header>
    <header>
      <identifier>oai:zenodo.org:277799</identifier>
      <datestamp>2017-02-08T21:50:36Z</datestamp>
      <setSpec>user-biosyslit</setSpec>
    </header>
    <header>
      <identifier>oai:zenodo.org:237242</identifier>
      <datestamp>2017-01-10T12:51:19Z</datestamp>
      <setSpec>user-biosyslit</setSpec>
    </header>
    <header>
      <identifier>oai:zenodo.org:237732</identifier>
      <datestamp>2017-01-10T19:14:34Z</datestamp>
      <setSpec>user-biosyslit</setSpec>
    </header>
    <header>
      <identifier>oai:zenodo.org:236087</identifier>
      <datestamp>2017-01-09T18:31:51Z</datestamp>
      <setSpec>user-biosyslit</setSpec>
    </header>
    <header>
      <identifier>oai:zenodo.org:277305</identifier>
      <datestamp>2017-02-08T20:50:01Z</datestamp>
      <setSpec>user-biosyslit</setSpec>
    </header>
    <header>
      <identifier>oai:zenodo.org:236453</identifier>
      <datestamp>2017-01-10T00:19:03Z</datestamp>
      <setSpec>user-biosyslit</setSpec>
    </header>
    <resumptionToken expirationDate="2017-08-31T15:43:04Z" cursor="500" completeListSize="77796">.eJyNyj0PQ0AYAOD_8s7S3Ln4iKSLUDEgXAmWRhFRR8W1wYn_Xkvndn6eDXhdV2Cgk67qhGgKxirBioywBLycnozd2oOhTBNWDiwunOQd9QnK5EbzLb54VkZ80aGgx4JeQjnF-hK3aA2v8SsT0ZIQd6bI1jwRrv7DPV5FAofld2ek8WAyKldTYIcrxSbNSfl9-M8nfj6Ln0GCsWhqMDQJurmYGg7Gtu8f9aVQzg.DIm_kA.UOZoUzAU-Yq9r2cYGNDG9ZcbKt8</resumptionToken>
  </ListIdentifiers>
</OAI-PMH>
