<?xml version='1.0' encoding='UTF-8'?>
<?xml-stylesheet type="text/xsl" href="/static/xsl/oai2.v1.0.xsl"?>
<OAI-PMH xmlns="http://www.openarchives.org/OAI/2.0/" xmlns:xsi="http://www.w3.org/2001/XMLSchema-instance" xsi:schemaLocation="http://www.openarchives.org/OAI/2.0/ http://www.openarchives.org/OAI/2.0/OAI-PMH.xsd">
  <responseDate>2017-08-31T15:44:56Z</responseDate>
  <request verb="ListIdentifiers" resumptionToken=".eJyNz0EPQzAAhuH_0rMsrc5qkl2EiQNCR8ZlMURMmegWVPz39bLzlny397l8K-BVVQID7oim46NGDlDdy-lIAbwYn4zdGplBcU1Y0bM4d5J31CUwVWviW3z2rBT7ooVBhwQ9h-oV6XPcwCW8xK9URHOC3YlCm3giXPyHK12JA4dld2egcW8yqpZjYIcLRSbNcPF16E8nfjqLn4AChryugKER-aqd8rHmwFi37QOdt1E_.DInAeA.gWVoLBYz4e2qmPxEbPGsZt0XOoo">https://zenodo.org/oai2d</request>
  <ListIdentifiers>
    <header>
      <identifier>oai:zenodo.org:580511</identifier>
      <datestamp>2017-05-17T08:24:35Z</datestamp>
      <setSpec>user-biosyslit</setSpec>
    </header>
    <header>
      <identifier>oai:zenodo.org:579869</identifier>
      <datestamp>2017-05-16T12:53:10Z</datestamp>
      <setSpec>openaire</setSpec>
      <setSpec>user-biosyslit</setSpec>
    </header>
    <header>
      <identifier>oai:zenodo.org:579322</identifier>
      <datestamp>2017-05-18T07:03:10Z</datestamp>
      <setSpec>openaire</setSpec>
      <setSpec>user-biosyslit</setSpec>
    </header>
    <header>
      <identifier>oai:zenodo.org:580926</identifier>
      <datestamp>2017-05-18T08:15:22Z</datestamp>
      <setSpec>user-biosyslit</setSpec>
    </header>
    <header>
      <identifier>oai:zenodo.org:580259</identifier>
      <datestamp>2017-05-16T08:55:35Z</datestamp>
      <setSpec>user-biosyslit</setSpec>
    </header>
    <header>
      <identifier>oai:zenodo.org:580564</identifier>
      <datestamp>2017-05-17T09:11:36Z</datestamp>
      <setSpec>user-biosyslit</setSpec>
    </header>
    <header>
      <identifier>oai:zenodo.org:580539</identifier>
      <datestamp>2017-05-17T08:40:48Z</datestamp>
      <setSpec>user-biosyslit</setSpec>
    </header>
    <header>
      <identifier>oai:zenodo.org:546876</identifier>
      <datestamp>2017-04-18T08:49:29Z</datestamp>
      <setSpec>user-biosyslit</setSpec>
    </header>
    <header>
      <identifier>oai:zenodo.org:546864</identifier>
      <datestamp>2017-04-18T08:36:04Z</datestamp>
      <setSpec>user-biosyslit</setSpec>
    </header>
    <header>
      <identifier>oai:zenodo.org:580466</identifier>
      <datestamp>2017-05-17T07:16:23Z</datestamp>
      <setSpec>user-biosyslit</setSpec>
    </header>
    <header>
      <identifier>oai:zenodo.org:582017</identifier>
      <datestamp>2017-05-22T07:52:04Z</datestamp>
      <setSpec>user-biosyslit</setSpec>
    </header>
    <header>
      <identifier>oai:zenodo.org:581989</identifier>
      <datestamp>2017-05-22T07:20:00Z</datestamp>
      <setSpec>user-biosyslit</setSpec>
    </header>
    <header>
      <identifier>oai:zenodo.org:375872</identifier>
      <datestamp>2017-03-08T13:23:57Z</datestamp>
      <setSpec>user-biosyslit</setSpec>
    </header>
    <header>
      <identifier>oai:zenodo.org:582782</identifier>
      <datestamp>2017-05-24T08:30:49Z</datestamp>
      <setSpec>user-biosyslit</setSpec>
    </header>
    <header>
      <identifier>oai:zenodo.org:582427</identifier>
      <datestamp>2017-05-23T07:30:45Z</datestamp>
      <setSpec>user-biosyslit</setSpec>
    </header>
    <header>
      <identifier>oai:zenodo.org:375898</identifier>
      <datestamp>2017-03-08T13:25:09Z</datestamp>
      <setSpec>user-biosyslit</setSpec>
    </header>
    <header>
      <identifier>oai:zenodo.org:582429</identifier>
      <datestamp>2017-05-23T07:30:52Z</datestamp>
      <setSpec>user-biosyslit</setSpec>
    </header>
    <header>
      <identifier>oai:zenodo.org:582520</identifier>
      <datestamp>2017-05-23T09:20:04Z</datestamp>
      <setSpec>user-biosyslit</setSpec>
    </header>
    <header>
      <identifier>oai:zenodo.org:582789</identifier>
      <datestamp>2017-05-24T08:40:29Z</datestamp>
      <setSpec>user-biosyslit</setSpec>
    </header>
    <header>
      <identifier>oai:zenodo.org:376386</identifier>
      <datestamp>2017-03-10T08:38:07Z</datestamp>
      <setSpec>user-biosyslit</setSpec>
    </header>
    <header>
      <identifier>oai:zenodo.org:375874</identifier>
      <datestamp>2017-03-08T13:24:04Z</datestamp>
      <setSpec>user-biosyslit</setSpec>
    </header>
    <header>
      <identifier>oai:zenodo.org:582420</identifier>
      <datestamp>2017-05-23T07:30:29Z</datestamp>
      <setSpec>user-biosyslit</setSpec>
    </header>
    <header>
      <identifier>oai:zenodo.org:375770</identifier>
      <datestamp>2017-03-08T08:34:00Z</datestamp>
      <setSpec>user-biosyslit</setSpec>
    </header>
    <header>
      <identifier>oai:zenodo.org:582799</identifier>
      <datestamp>2017-05-24T08:54:41Z</datestamp>
      <setSpec>user-biosyslit</setSpec>
    </header>
    <header>
      <identifier>oai:zenodo.org:375525</identifier>
      <datestamp>2017-03-07T08:57:34Z</datestamp>
      <setSpec>user-biosyslit</setSpec>
    </header>
    <header>
      <identifier>oai:zenodo.org:376221</identifier>
      <datestamp>2017-03-09T14:32:09Z</datestamp>
      <setSpec>user-biosyslit</setSpec>
    </header>
    <header>
      <identifier>oai:zenodo.org:582768</identifier>
      <datestamp>2017-05-24T08:11:09Z</datestamp>
      <setSpec>user-biosyslit</setSpec>
    </header>
    <header>
      <identifier>oai:zenodo.org:375524</identifier>
      <datestamp>2017-03-07T08:53:30Z</datestamp>
      <setSpec>user-biosyslit</setSpec>
    </header>
    <header>
      <identifier>oai:zenodo.org:376021</identifier>
      <datestamp>2017-03-09T08:41:16Z</datestamp>
      <setSpec>user-biosyslit</setSpec>
    </header>
    <header>
      <identifier>oai:zenodo.org:376430</identifier>
      <datestamp>2017-03-10T09:21:31Z</datestamp>
      <setSpec>user-biosyslit</setSpec>
    </header>
    <header>
      <identifier>oai:zenodo.org:375852</identifier>
      <datestamp>2017-03-08T12:38:09Z</datestamp>
      <setSpec>user-biosyslit</setSpec>
    </header>
    <header>
      <identifier>oai:zenodo.org:376735</identifier>
      <datestamp>2017-03-11T00:06:16Z</datestamp>
      <setSpec>user-biosyslit</setSpec>
    </header>
    <header>
      <identifier>oai:zenodo.org:376702</identifier>
      <datestamp>2017-03-11T00:04:45Z</datestamp>
      <setSpec>user-biosyslit</setSpec>
    </header>
    <header>
      <identifier>oai:zenodo.org:376214</identifier>
      <datestamp>2017-03-09T14:31:50Z</datestamp>
      <setSpec>user-biosyslit</setSpec>
    </header>
    <header>
      <identifier>oai:zenodo.org:377010</identifier>
      <datestamp>2017-03-15T16:01:15Z</datestamp>
      <setSpec>openaire</setSpec>
      <setSpec>user-biosyslit</setSpec>
    </header>
    <header>
      <identifier>oai:zenodo.org:376927</identifier>
      <datestamp>2017-03-13T08:48:06Z</datestamp>
      <setSpec>user-biosyslit</setSpec>
    </header>
    <header>
      <identifier>oai:zenodo.org:583417</identifier>
      <datestamp>2017-05-26T08:20:44Z</datestamp>
      <setSpec>user-biosyslit</setSpec>
    </header>
    <header>
      <identifier>oai:zenodo.org:583403</identifier>
      <datestamp>2017-05-26T08:09:44Z</datestamp>
      <setSpec>user-biosyslit</setSpec>
    </header>
    <header>
      <identifier>oai:zenodo.org:583992</identifier>
      <datestamp>2017-05-29T11:49:31Z</datestamp>
      <setSpec>user-biosyslit</setSpec>
    </header>
    <header>
      <identifier>oai:zenodo.org:584061</identifier>
      <datestamp>2017-05-29T13:55:35Z</datestamp>
      <setSpec>user-biosyslit</setSpec>
    </header>
    <header>
      <identifier>oai:zenodo.org:583877</identifier>
      <datestamp>2017-05-29T08:08:52Z</datestamp>
      <setSpec>user-biosyslit</setSpec>
    </header>
    <header>
      <identifier>oai:zenodo.org:583898</identifier>
      <datestamp>2017-05-29T08:16:14Z</datestamp>
      <setSpec>user-biosyslit</setSpec>
    </header>
    <header>
      <identifier>oai:zenodo.org:398780</identifier>
      <datestamp>2017-03-14T10:00:41Z</datestamp>
      <setSpec>user-biosyslit</setSpec>
    </header>
    <header>
      <identifier>oai:zenodo.org:398928</identifier>
      <datestamp>2017-03-14T21:06:50Z</datestamp>
      <setSpec>user-biosyslit</setSpec>
    </header>
    <header>
      <identifier>oai:zenodo.org:399713</identifier>
      <datestamp>2017-03-15T23:26:04Z</datestamp>
      <setSpec>user-biosyslit</setSpec>
    </header>
    <header>
      <identifier>oai:zenodo.org:399906</identifier>
      <datestamp>2017-03-16T01:31:47Z</datestamp>
      <setSpec>user-biosyslit</setSpec>
    </header>
    <header>
      <identifier>oai:zenodo.org:400057</identifier>
      <datestamp>2017-03-16T07:31:54Z</datestamp>
      <setSpec>user-biosyslit</setSpec>
    </header>
    <header>
      <identifier>oai:zenodo.org:398705</identifier>
      <datestamp>2017-03-14T08:46:50Z</datestamp>
      <setSpec>user-biosyslit</setSpec>
    </header>
    <header>
      <identifier>oai:zenodo.org:399575</identifier>
      <datestamp>2017-03-15T22:57:31Z</datestamp>
      <setSpec>user-biosyslit</setSpec>
    </header>
    <header>
      <identifier>oai:zenodo.org:399720</identifier>
      <datestamp>2017-03-15T23:26:24Z</datestamp>
      <setSpec>user-biosyslit</setSpec>
    </header>
    <header>
      <identifier>oai:zenodo.org:400466</identifier>
      <datestamp>2017-03-17T09:12:12Z</datestamp>
      <setSpec>user-biosyslit</setSpec>
    </header>
    <header>
      <identifier>oai:zenodo.org:399531</identifier>
      <datestamp>2017-03-15T22:42:29Z</datestamp>
      <setSpec>user-biosyslit</setSpec>
    </header>
    <header>
      <identifier>oai:zenodo.org:399032</identifier>
      <datestamp>2017-03-14T23:49:36Z</datestamp>
      <setSpec>user-biosyslit</setSpec>
    </header>
    <header>
      <identifier>oai:zenodo.org:398690</identifier>
      <datestamp>2017-03-14T08:18:46Z</datestamp>
      <setSpec>user-biosyslit</setSpec>
    </header>
    <header>
      <identifier>oai:zenodo.org:399913</identifier>
      <datestamp>2017-03-16T01:32:08Z</datestamp>
      <setSpec>user-biosyslit</setSpec>
    </header>
    <header>
      <identifier>oai:zenodo.org:398714</identifier>
      <datestamp>2017-03-14T08:59:30Z</datestamp>
      <setSpec>user-biosyslit</setSpec>
    </header>
    <header>
      <identifier>oai:zenodo.org:400329</identifier>
      <datestamp>2017-03-16T19:13:34Z</datestamp>
      <setSpec>user-biosyslit</setSpec>
    </header>
    <header>
      <identifier>oai:zenodo.org:400359</identifier>
      <datestamp>2017-03-16T22:03:05Z</datestamp>
      <setSpec>user-biosyslit</setSpec>
    </header>
    <header>
      <identifier>oai:zenodo.org:400075</identifier>
      <datestamp>2017-03-16T07:33:10Z</datestamp>
      <setSpec>user-biosyslit</setSpec>
    </header>
    <header>
      <identifier>oai:zenodo.org:399542</identifier>
      <datestamp>2017-03-15T22:43:01Z</datestamp>
      <setSpec>user-biosyslit</setSpec>
    </header>
    <header>
      <identifier>oai:zenodo.org:399802</identifier>
      <datestamp>2017-03-15T23:58:23Z</datestamp>
      <setSpec>user-biosyslit</setSpec>
    </header>
    <header>
      <identifier>oai:zenodo.org:400890</identifier>
      <datestamp>2017-03-20T09:22:00Z</datestamp>
      <setSpec>user-biosyslit</setSpec>
    </header>
    <header>
      <identifier>oai:zenodo.org:400453</identifier>
      <datestamp>2017-03-17T08:53:42Z</datestamp>
      <setSpec>user-biosyslit</setSpec>
    </header>
    <header>
      <identifier>oai:zenodo.org:400146</identifier>
      <datestamp>2017-03-16T08:49:52Z</datestamp>
      <setSpec>user-biosyslit</setSpec>
    </header>
    <header>
      <identifier>oai:zenodo.org:400649</identifier>
      <datestamp>2017-03-18T16:19:20Z</datestamp>
      <setSpec>user-biosyslit</setSpec>
    </header>
    <header>
      <identifier>oai:zenodo.org:556039</identifier>
      <datestamp>2017-04-19T07:30:21Z</datestamp>
      <setSpec>user-biosyslit</setSpec>
    </header>
    <header>
      <identifier>oai:zenodo.org:400033</identifier>
      <datestamp>2017-03-16T07:30:32Z</datestamp>
      <setSpec>user-biosyslit</setSpec>
    </header>
    <header>
      <identifier>oai:zenodo.org:399598</identifier>
      <datestamp>2017-03-15T22:58:45Z</datestamp>
      <setSpec>user-biosyslit</setSpec>
    </header>
    <header>
      <identifier>oai:zenodo.org:400422</identifier>
      <datestamp>2017-03-17T08:23:56Z</datestamp>
      <setSpec>user-biosyslit</setSpec>
    </header>
    <header>
      <identifier>oai:zenodo.org:400722</identifier>
      <datestamp>2017-03-19T11:23:19Z</datestamp>
      <setSpec>user-biosyslit</setSpec>
    </header>
    <header>
      <identifier>oai:zenodo.org:437264</identifier>
      <datestamp>2017-03-22T08:56:17Z</datestamp>
      <setSpec>user-biosyslit</setSpec>
    </header>
    <header>
      <identifier>oai:zenodo.org:400876</identifier>
      <datestamp>2017-03-20T08:47:17Z</datestamp>
      <setSpec>user-biosyslit</setSpec>
    </header>
    <header>
      <identifier>oai:zenodo.org:400448</identifier>
      <datestamp>2017-03-17T08:53:49Z</datestamp>
      <setSpec>user-biosyslit</setSpec>
    </header>
    <header>
      <identifier>oai:zenodo.org:345058</identifier>
      <datestamp>2017-03-02T09:14:05Z</datestamp>
      <setSpec>user-biosyslit</setSpec>
    </header>
    <header>
      <identifier>oai:zenodo.org:345237</identifier>
      <datestamp>2017-03-03T08:36:40Z</datestamp>
      <setSpec>user-biosyslit</setSpec>
    </header>
    <header>
      <identifier>oai:zenodo.org:345228</identifier>
      <datestamp>2017-03-03T08:19:56Z</datestamp>
      <setSpec>user-biosyslit</setSpec>
    </header>
    <header>
      <identifier>oai:zenodo.org:345224</identifier>
      <datestamp>2017-03-03T08:19:47Z</datestamp>
      <setSpec>user-biosyslit</setSpec>
    </header>
    <header>
      <identifier>oai:zenodo.org:546825</identifier>
      <datestamp>2017-04-18T07:31:23Z</datestamp>
      <setSpec>user-biosyslit</setSpec>
    </header>
    <header>
      <identifier>oai:zenodo.org:345764</identifier>
      <datestamp>2017-03-06T08:12:29Z</datestamp>
      <setSpec>user-biosyslit</setSpec>
    </header>
    <header>
      <identifier>oai:zenodo.org:345815</identifier>
      <datestamp>2017-03-06T08:58:42Z</datestamp>
      <setSpec>user-biosyslit</setSpec>
    </header>
    <header>
      <identifier>oai:zenodo.org:545684</identifier>
      <datestamp>2017-04-12T14:01:44Z</datestamp>
      <setSpec>openaire</setSpec>
      <setSpec>user-biosyslit</setSpec>
    </header>
    <header>
      <identifier>oai:zenodo.org:545922</identifier>
      <datestamp>2017-04-13T08:16:31Z</datestamp>
      <setSpec>user-biosyslit</setSpec>
    </header>
    <header>
      <identifier>oai:zenodo.org:579304</identifier>
      <datestamp>2017-05-18T07:03:34Z</datestamp>
      <setSpec>openaire</setSpec>
      <setSpec>user-biosyslit</setSpec>
    </header>
    <header>
      <identifier>oai:zenodo.org:580251</identifier>
      <datestamp>2017-05-16T08:49:49Z</datestamp>
      <setSpec>user-biosyslit</setSpec>
    </header>
    <header>
      <identifier>oai:zenodo.org:579253</identifier>
      <datestamp>2017-05-18T07:05:29Z</datestamp>
      <setSpec>openaire</setSpec>
      <setSpec>user-biosyslit</setSpec>
    </header>
    <header>
      <identifier>oai:zenodo.org:579323</identifier>
      <datestamp>2017-05-18T07:03:09Z</datestamp>
      <setSpec>openaire</setSpec>
      <setSpec>user-biosyslit</setSpec>
    </header>
    <header>
      <identifier>oai:zenodo.org:579434</identifier>
      <datestamp>2017-05-18T06:59:51Z</datestamp>
      <setSpec>openaire</setSpec>
      <setSpec>user-biosyslit</setSpec>
    </header>
    <header>
      <identifier>oai:zenodo.org:579423</identifier>
      <datestamp>2017-05-18T07:00:06Z</datestamp>
      <setSpec>openaire</setSpec>
      <setSpec>user-biosyslit</setSpec>
    </header>
    <header>
      <identifier>oai:zenodo.org:580537</identifier>
      <datestamp>2017-05-17T08:40:42Z</datestamp>
      <setSpec>user-biosyslit</setSpec>
    </header>
    <header>
      <identifier>oai:zenodo.org:546843</identifier>
      <datestamp>2017-04-18T08:02:17Z</datestamp>
      <setSpec>user-biosyslit</setSpec>
    </header>
    <header>
      <identifier>oai:zenodo.org:580452</identifier>
      <datestamp>2017-05-17T07:15:38Z</datestamp>
      <setSpec>user-biosyslit</setSpec>
    </header>
    <header>
      <identifier>oai:zenodo.org:580449</identifier>
      <datestamp>2017-05-17T07:16:38Z</datestamp>
      <setSpec>user-biosyslit</setSpec>
    </header>
    <header>
      <identifier>oai:zenodo.org:581260</identifier>
      <datestamp>2017-05-19T08:39:12Z</datestamp>
      <setSpec>user-biosyslit</setSpec>
    </header>
    <header>
      <identifier>oai:zenodo.org:582016</identifier>
      <datestamp>2017-05-22T07:52:01Z</datestamp>
      <setSpec>user-biosyslit</setSpec>
    </header>
    <header>
      <identifier>oai:zenodo.org:375518</identifier>
      <datestamp>2017-03-07T08:48:16Z</datestamp>
      <setSpec>user-biosyslit</setSpec>
    </header>
    <header>
      <identifier>oai:zenodo.org:582242</identifier>
      <datestamp>2017-05-23T13:21:17Z</datestamp>
      <setSpec>openaire</setSpec>
      <setSpec>user-biosyslit</setSpec>
    </header>
    <header>
      <identifier>oai:zenodo.org:376011</identifier>
      <datestamp>2017-03-09T08:40:54Z</datestamp>
      <setSpec>user-biosyslit</setSpec>
    </header>
    <header>
      <identifier>oai:zenodo.org:582436</identifier>
      <datestamp>2017-05-23T07:31:08Z</datestamp>
      <setSpec>user-biosyslit</setSpec>
    </header>
    <header>
      <identifier>oai:zenodo.org:582440</identifier>
      <datestamp>2017-05-23T07:31:18Z</datestamp>
      <setSpec>user-biosyslit</setSpec>
    </header>
    <header>
      <identifier>oai:zenodo.org:582438</identifier>
      <datestamp>2017-05-23T07:31:13Z</datestamp>
      <setSpec>user-biosyslit</setSpec>
    </header>
    <resumptionToken expirationDate="2017-08-31T15:46:56Z" cursor="57000" completeListSize="77796">.eJyNysEKgjAYAOB3-c8S_7ZqJnQRSzqo2FLSS5iKlNPCFeqkd69L5zp_3wSqLAuwcGau5iYukRFEzpEuDFB5d5PydPkw5MdY5q2MMjd-7psYE1px31GD5yTM1zUGDdFiG9IjMYfogmN4iB6J3g8x2_UCN9zT4ehfd59XsMCV6dm9i6i1paBFF2zCURBbpCz_PvLn0z-fo9ZgwD2rSrAWnBpQ91lXKbCm1-sNk5xRNQ.DInAeA.kaOORZnQwmGe7l5gyJuy-1n8B7Y</resumptionToken>
  </ListIdentifiers>
</OAI-PMH>
