<?xml version='1.0' encoding='UTF-8'?>
<?xml-stylesheet type="text/xsl" href="/static/xsl/oai2.v1.0.xsl"?>
<OAI-PMH xmlns="http://www.openarchives.org/OAI/2.0/" xmlns:xsi="http://www.w3.org/2001/XMLSchema-instance" xsi:schemaLocation="http://www.openarchives.org/OAI/2.0/ http://www.openarchives.org/OAI/2.0/OAI-PMH.xsd">
  <responseDate>2017-08-31T15:41:48Z</responseDate>
  <request verb="ListIdentifiers" resumptionToken=".eJyNzz0PQ0AAxvHvcrM095KWSroIFQPC1QVLo4ioo-La4MR3rw6d2-VZ_r_lWYAoywLocHdARCMa3va4VzFRgMiHB-fXeqsgjxnPOx5lNnuFLYMJrlTPFJNrJsSTDfRbJOk5wDHSpqiGc3CJnokMJ0ackUJLdWUwe3dncwXxbZ7e7J5GncEpLgbfCmaKDJqS_OvQn07-dKY4AQX0WVUCHX1eNWM2VALoy7q-AWpZUQY.DIm_vA.flD_lk84j08IB-_MYRwljDdWVEw">https://zenodo.org/oai2d</request>
  <ListIdentifiers>
    <header>
      <identifier>oai:zenodo.org:254785</identifier>
      <datestamp>2017-01-21T02:52:34Z</datestamp>
      <setSpec>user-biosyslit</setSpec>
    </header>
    <header>
      <identifier>oai:zenodo.org:254048</identifier>
      <datestamp>2017-01-20T13:40:39Z</datestamp>
      <setSpec>user-biosyslit</setSpec>
    </header>
    <header>
      <identifier>oai:zenodo.org:254739</identifier>
      <datestamp>2017-01-21T02:16:36Z</datestamp>
      <setSpec>user-biosyslit</setSpec>
    </header>
    <header>
      <identifier>oai:zenodo.org:255259</identifier>
      <datestamp>2017-01-21T10:34:17Z</datestamp>
      <setSpec>user-biosyslit</setSpec>
    </header>
    <header>
      <identifier>oai:zenodo.org:255564</identifier>
      <datestamp>2017-01-21T15:57:42Z</datestamp>
      <setSpec>user-biosyslit</setSpec>
    </header>
    <header>
      <identifier>oai:zenodo.org:254612</identifier>
      <datestamp>2017-01-20T23:44:02Z</datestamp>
      <setSpec>user-biosyslit</setSpec>
    </header>
    <header>
      <identifier>oai:zenodo.org:255950</identifier>
      <datestamp>2017-01-22T00:34:57Z</datestamp>
      <setSpec>user-biosyslit</setSpec>
    </header>
    <header>
      <identifier>oai:zenodo.org:254730</identifier>
      <datestamp>2017-01-21T02:16:07Z</datestamp>
      <setSpec>user-biosyslit</setSpec>
    </header>
    <header>
      <identifier>oai:zenodo.org:254780</identifier>
      <datestamp>2017-01-21T02:44:11Z</datestamp>
      <setSpec>user-biosyslit</setSpec>
    </header>
    <header>
      <identifier>oai:zenodo.org:254740</identifier>
      <datestamp>2017-01-21T02:16:41Z</datestamp>
      <setSpec>user-biosyslit</setSpec>
    </header>
    <header>
      <identifier>oai:zenodo.org:254855</identifier>
      <datestamp>2017-01-21T03:59:57Z</datestamp>
      <setSpec>user-biosyslit</setSpec>
    </header>
    <header>
      <identifier>oai:zenodo.org:255198</identifier>
      <datestamp>2017-01-21T09:10:20Z</datestamp>
      <setSpec>user-biosyslit</setSpec>
    </header>
    <header>
      <identifier>oai:zenodo.org:254727</identifier>
      <datestamp>2017-01-21T02:15:56Z</datestamp>
      <setSpec>user-biosyslit</setSpec>
    </header>
    <header>
      <identifier>oai:zenodo.org:254708</identifier>
      <datestamp>2017-01-21T02:14:37Z</datestamp>
      <setSpec>user-biosyslit</setSpec>
    </header>
    <header>
      <identifier>oai:zenodo.org:255110</identifier>
      <datestamp>2017-01-21T08:04:17Z</datestamp>
      <setSpec>user-biosyslit</setSpec>
    </header>
    <header>
      <identifier>oai:zenodo.org:254755</identifier>
      <datestamp>2017-01-21T02:34:24Z</datestamp>
      <setSpec>user-biosyslit</setSpec>
    </header>
    <header>
      <identifier>oai:zenodo.org:255213</identifier>
      <datestamp>2017-01-21T09:42:06Z</datestamp>
      <setSpec>user-biosyslit</setSpec>
    </header>
    <header>
      <identifier>oai:zenodo.org:255582</identifier>
      <datestamp>2017-01-21T15:58:22Z</datestamp>
      <setSpec>user-biosyslit</setSpec>
    </header>
    <header>
      <identifier>oai:zenodo.org:255013</identifier>
      <datestamp>2017-01-21T06:36:38Z</datestamp>
      <setSpec>user-biosyslit</setSpec>
    </header>
    <header>
      <identifier>oai:zenodo.org:255829</identifier>
      <datestamp>2017-01-21T22:44:45Z</datestamp>
      <setSpec>user-biosyslit</setSpec>
    </header>
    <header>
      <identifier>oai:zenodo.org:254943</identifier>
      <datestamp>2017-01-21T05:30:24Z</datestamp>
      <setSpec>user-biosyslit</setSpec>
    </header>
    <header>
      <identifier>oai:zenodo.org:255023</identifier>
      <datestamp>2017-01-21T06:44:42Z</datestamp>
      <setSpec>user-biosyslit</setSpec>
    </header>
    <header>
      <identifier>oai:zenodo.org:255695</identifier>
      <datestamp>2017-01-21T18:35:26Z</datestamp>
      <setSpec>user-biosyslit</setSpec>
    </header>
    <header>
      <identifier>oai:zenodo.org:255150</identifier>
      <datestamp>2017-01-21T08:27:48Z</datestamp>
      <setSpec>user-biosyslit</setSpec>
    </header>
    <header>
      <identifier>oai:zenodo.org:255261</identifier>
      <datestamp>2017-01-21T10:34:26Z</datestamp>
      <setSpec>user-biosyslit</setSpec>
    </header>
    <header>
      <identifier>oai:zenodo.org:255561</identifier>
      <datestamp>2017-01-21T15:57:35Z</datestamp>
      <setSpec>user-biosyslit</setSpec>
    </header>
    <header>
      <identifier>oai:zenodo.org:255212</identifier>
      <datestamp>2017-01-21T09:42:04Z</datestamp>
      <setSpec>user-biosyslit</setSpec>
    </header>
    <header>
      <identifier>oai:zenodo.org:256574</identifier>
      <datestamp>2017-01-22T17:51:16Z</datestamp>
      <setSpec>user-biosyslit</setSpec>
    </header>
    <header>
      <identifier>oai:zenodo.org:256007</identifier>
      <datestamp>2017-01-22T02:08:00Z</datestamp>
      <setSpec>user-biosyslit</setSpec>
    </header>
    <header>
      <identifier>oai:zenodo.org:255197</identifier>
      <datestamp>2017-01-21T09:10:16Z</datestamp>
      <setSpec>user-biosyslit</setSpec>
    </header>
    <header>
      <identifier>oai:zenodo.org:256277</identifier>
      <datestamp>2017-01-22T10:19:34Z</datestamp>
      <setSpec>user-biosyslit</setSpec>
    </header>
    <header>
      <identifier>oai:zenodo.org:255776</identifier>
      <datestamp>2017-01-21T21:55:09Z</datestamp>
      <setSpec>user-biosyslit</setSpec>
    </header>
    <header>
      <identifier>oai:zenodo.org:255265</identifier>
      <datestamp>2017-01-21T10:34:37Z</datestamp>
      <setSpec>user-biosyslit</setSpec>
    </header>
    <header>
      <identifier>oai:zenodo.org:256683</identifier>
      <datestamp>2017-01-22T19:17:26Z</datestamp>
      <setSpec>user-biosyslit</setSpec>
    </header>
    <header>
      <identifier>oai:zenodo.org:255303</identifier>
      <datestamp>2017-01-21T11:10:54Z</datestamp>
      <setSpec>user-biosyslit</setSpec>
    </header>
    <header>
      <identifier>oai:zenodo.org:256035</identifier>
      <datestamp>2017-01-22T02:36:44Z</datestamp>
      <setSpec>user-biosyslit</setSpec>
    </header>
    <header>
      <identifier>oai:zenodo.org:255732</identifier>
      <datestamp>2017-01-21T19:35:21Z</datestamp>
      <setSpec>user-biosyslit</setSpec>
    </header>
    <header>
      <identifier>oai:zenodo.org:255579</identifier>
      <datestamp>2017-01-21T15:58:15Z</datestamp>
      <setSpec>user-biosyslit</setSpec>
    </header>
    <header>
      <identifier>oai:zenodo.org:255962</identifier>
      <datestamp>2017-01-22T00:45:13Z</datestamp>
      <setSpec>user-biosyslit</setSpec>
    </header>
    <header>
      <identifier>oai:zenodo.org:256431</identifier>
      <datestamp>2017-01-22T14:38:29Z</datestamp>
      <setSpec>user-biosyslit</setSpec>
    </header>
    <header>
      <identifier>oai:zenodo.org:255870</identifier>
      <datestamp>2017-01-21T23:07:24Z</datestamp>
      <setSpec>user-biosyslit</setSpec>
    </header>
    <header>
      <identifier>oai:zenodo.org:256366</identifier>
      <datestamp>2017-01-22T13:18:00Z</datestamp>
      <setSpec>user-biosyslit</setSpec>
    </header>
    <header>
      <identifier>oai:zenodo.org:256356</identifier>
      <datestamp>2017-01-22T13:10:40Z</datestamp>
      <setSpec>user-biosyslit</setSpec>
    </header>
    <header>
      <identifier>oai:zenodo.org:256938</identifier>
      <datestamp>2017-01-22T23:05:08Z</datestamp>
      <setSpec>user-biosyslit</setSpec>
    </header>
    <header>
      <identifier>oai:zenodo.org:256607</identifier>
      <datestamp>2017-01-22T18:36:00Z</datestamp>
      <setSpec>user-biosyslit</setSpec>
    </header>
    <header>
      <identifier>oai:zenodo.org:256080</identifier>
      <datestamp>2017-01-22T03:33:28Z</datestamp>
      <setSpec>user-biosyslit</setSpec>
    </header>
    <header>
      <identifier>oai:zenodo.org:257446</identifier>
      <datestamp>2017-01-23T07:00:49Z</datestamp>
      <setSpec>user-biosyslit</setSpec>
    </header>
    <header>
      <identifier>oai:zenodo.org:256659</identifier>
      <datestamp>2017-01-22T19:02:57Z</datestamp>
      <setSpec>user-biosyslit</setSpec>
    </header>
    <header>
      <identifier>oai:zenodo.org:257012</identifier>
      <datestamp>2017-01-22T23:41:12Z</datestamp>
      <setSpec>user-biosyslit</setSpec>
    </header>
    <header>
      <identifier>oai:zenodo.org:257612</identifier>
      <datestamp>2017-01-23T11:10:41Z</datestamp>
      <setSpec>user-biosyslit</setSpec>
    </header>
    <header>
      <identifier>oai:zenodo.org:256730</identifier>
      <datestamp>2017-01-22T19:54:33Z</datestamp>
      <setSpec>user-biosyslit</setSpec>
    </header>
    <header>
      <identifier>oai:zenodo.org:256935</identifier>
      <datestamp>2017-01-22T23:05:00Z</datestamp>
      <setSpec>user-biosyslit</setSpec>
    </header>
    <header>
      <identifier>oai:zenodo.org:256993</identifier>
      <datestamp>2017-01-22T23:40:06Z</datestamp>
      <setSpec>user-biosyslit</setSpec>
    </header>
    <header>
      <identifier>oai:zenodo.org:256648</identifier>
      <datestamp>2017-01-22T18:53:30Z</datestamp>
      <setSpec>user-biosyslit</setSpec>
    </header>
    <header>
      <identifier>oai:zenodo.org:256704</identifier>
      <datestamp>2017-01-22T19:35:50Z</datestamp>
      <setSpec>user-biosyslit</setSpec>
    </header>
    <header>
      <identifier>oai:zenodo.org:257156</identifier>
      <datestamp>2017-01-23T02:57:11Z</datestamp>
      <setSpec>user-biosyslit</setSpec>
    </header>
    <header>
      <identifier>oai:zenodo.org:256238</identifier>
      <datestamp>2017-01-22T07:56:13Z</datestamp>
      <setSpec>user-biosyslit</setSpec>
    </header>
    <header>
      <identifier>oai:zenodo.org:256011</identifier>
      <datestamp>2017-01-22T02:08:15Z</datestamp>
      <setSpec>user-biosyslit</setSpec>
    </header>
    <header>
      <identifier>oai:zenodo.org:255701</identifier>
      <datestamp>2017-01-21T18:47:47Z</datestamp>
      <setSpec>user-biosyslit</setSpec>
    </header>
    <header>
      <identifier>oai:zenodo.org:256030</identifier>
      <datestamp>2017-01-22T02:36:28Z</datestamp>
      <setSpec>user-biosyslit</setSpec>
    </header>
    <header>
      <identifier>oai:zenodo.org:255863</identifier>
      <datestamp>2017-01-21T23:07:07Z</datestamp>
      <setSpec>user-biosyslit</setSpec>
    </header>
    <header>
      <identifier>oai:zenodo.org:256359</identifier>
      <datestamp>2017-01-22T13:17:43Z</datestamp>
      <setSpec>user-biosyslit</setSpec>
    </header>
    <header>
      <identifier>oai:zenodo.org:256940</identifier>
      <datestamp>2017-01-22T23:05:13Z</datestamp>
      <setSpec>user-biosyslit</setSpec>
    </header>
    <header>
      <identifier>oai:zenodo.org:257011</identifier>
      <datestamp>2017-01-22T23:41:08Z</datestamp>
      <setSpec>user-biosyslit</setSpec>
    </header>
    <header>
      <identifier>oai:zenodo.org:257059</identifier>
      <datestamp>2017-01-23T00:41:13Z</datestamp>
      <setSpec>user-biosyslit</setSpec>
    </header>
    <header>
      <identifier>oai:zenodo.org:256615</identifier>
      <datestamp>2017-01-22T18:36:24Z</datestamp>
      <setSpec>user-biosyslit</setSpec>
    </header>
    <header>
      <identifier>oai:zenodo.org:256474</identifier>
      <datestamp>2017-01-22T15:04:17Z</datestamp>
      <setSpec>user-biosyslit</setSpec>
    </header>
    <header>
      <identifier>oai:zenodo.org:257475</identifier>
      <datestamp>2017-01-23T07:24:54Z</datestamp>
      <setSpec>user-biosyslit</setSpec>
    </header>
    <header>
      <identifier>oai:zenodo.org:257013</identifier>
      <datestamp>2017-01-22T23:41:14Z</datestamp>
      <setSpec>user-biosyslit</setSpec>
    </header>
    <header>
      <identifier>oai:zenodo.org:257293</identifier>
      <datestamp>2017-01-23T04:54:48Z</datestamp>
      <setSpec>user-biosyslit</setSpec>
    </header>
    <header>
      <identifier>oai:zenodo.org:256859</identifier>
      <datestamp>2017-01-22T21:43:39Z</datestamp>
      <setSpec>user-biosyslit</setSpec>
    </header>
    <header>
      <identifier>oai:zenodo.org:256823</identifier>
      <datestamp>2017-01-22T21:18:13Z</datestamp>
      <setSpec>user-biosyslit</setSpec>
    </header>
    <header>
      <identifier>oai:zenodo.org:260788</identifier>
      <datestamp>2017-01-28T01:13:09Z</datestamp>
      <setSpec>user-biosyslit</setSpec>
    </header>
    <header>
      <identifier>oai:zenodo.org:260628</identifier>
      <datestamp>2017-01-27T22:45:28Z</datestamp>
      <setSpec>user-biosyslit</setSpec>
    </header>
    <header>
      <identifier>oai:zenodo.org:260766</identifier>
      <datestamp>2017-01-28T00:52:08Z</datestamp>
      <setSpec>user-biosyslit</setSpec>
    </header>
    <header>
      <identifier>oai:zenodo.org:273422</identifier>
      <datestamp>2017-02-08T09:19:03Z</datestamp>
      <setSpec>user-biosyslit</setSpec>
    </header>
    <header>
      <identifier>oai:zenodo.org:260804</identifier>
      <datestamp>2017-01-28T01:11:32Z</datestamp>
      <setSpec>user-biosyslit</setSpec>
    </header>
    <header>
      <identifier>oai:zenodo.org:274328</identifier>
      <datestamp>2017-02-08T12:52:40Z</datestamp>
      <setSpec>user-biosyslit</setSpec>
    </header>
    <header>
      <identifier>oai:zenodo.org:273629</identifier>
      <datestamp>2017-02-08T10:06:02Z</datestamp>
      <setSpec>user-biosyslit</setSpec>
    </header>
    <header>
      <identifier>oai:zenodo.org:261262</identifier>
      <datestamp>2017-01-28T07:21:24Z</datestamp>
      <setSpec>user-biosyslit</setSpec>
    </header>
    <header>
      <identifier>oai:zenodo.org:261222</identifier>
      <datestamp>2017-01-28T06:52:43Z</datestamp>
      <setSpec>user-biosyslit</setSpec>
    </header>
    <header>
      <identifier>oai:zenodo.org:260876</identifier>
      <datestamp>2017-01-28T01:53:16Z</datestamp>
      <setSpec>user-biosyslit</setSpec>
    </header>
    <header>
      <identifier>oai:zenodo.org:262058</identifier>
      <datestamp>2017-01-28T19:52:41Z</datestamp>
      <setSpec>user-biosyslit</setSpec>
    </header>
    <header>
      <identifier>oai:zenodo.org:273716</identifier>
      <datestamp>2017-02-08T10:25:00Z</datestamp>
      <setSpec>user-biosyslit</setSpec>
    </header>
    <header>
      <identifier>oai:zenodo.org:262204</identifier>
      <datestamp>2017-01-28T23:40:06Z</datestamp>
      <setSpec>user-biosyslit</setSpec>
    </header>
    <header>
      <identifier>oai:zenodo.org:261263</identifier>
      <datestamp>2017-01-28T07:21:27Z</datestamp>
      <setSpec>user-biosyslit</setSpec>
    </header>
    <header>
      <identifier>oai:zenodo.org:262312</identifier>
      <datestamp>2017-01-29T01:58:06Z</datestamp>
      <setSpec>user-biosyslit</setSpec>
    </header>
    <header>
      <identifier>oai:zenodo.org:262365</identifier>
      <datestamp>2017-01-29T02:35:12Z</datestamp>
      <setSpec>user-biosyslit</setSpec>
    </header>
    <header>
      <identifier>oai:zenodo.org:273492</identifier>
      <datestamp>2017-02-08T09:29:57Z</datestamp>
      <setSpec>user-biosyslit</setSpec>
    </header>
    <header>
      <identifier>oai:zenodo.org:261819</identifier>
      <datestamp>2017-01-28T15:27:15Z</datestamp>
      <setSpec>user-biosyslit</setSpec>
    </header>
    <header>
      <identifier>oai:zenodo.org:261669</identifier>
      <datestamp>2017-01-28T12:15:17Z</datestamp>
      <setSpec>user-biosyslit</setSpec>
    </header>
    <header>
      <identifier>oai:zenodo.org:273921</identifier>
      <datestamp>2017-02-08T11:16:48Z</datestamp>
      <setSpec>user-biosyslit</setSpec>
    </header>
    <header>
      <identifier>oai:zenodo.org:262107</identifier>
      <datestamp>2017-01-28T20:47:17Z</datestamp>
      <setSpec>user-biosyslit</setSpec>
    </header>
    <header>
      <identifier>oai:zenodo.org:262266</identifier>
      <datestamp>2017-01-29T01:14:02Z</datestamp>
      <setSpec>user-biosyslit</setSpec>
    </header>
    <header>
      <identifier>oai:zenodo.org:273957</identifier>
      <datestamp>2017-02-08T11:40:00Z</datestamp>
      <setSpec>user-biosyslit</setSpec>
    </header>
    <header>
      <identifier>oai:zenodo.org:262480</identifier>
      <datestamp>2017-01-29T04:41:52Z</datestamp>
      <setSpec>user-biosyslit</setSpec>
    </header>
    <header>
      <identifier>oai:zenodo.org:262318</identifier>
      <datestamp>2017-01-29T01:58:26Z</datestamp>
      <setSpec>user-biosyslit</setSpec>
    </header>
    <header>
      <identifier>oai:zenodo.org:273537</identifier>
      <datestamp>2017-02-08T09:36:28Z</datestamp>
      <setSpec>user-biosyslit</setSpec>
    </header>
    <header>
      <identifier>oai:zenodo.org:273623</identifier>
      <datestamp>2017-02-08T10:04:59Z</datestamp>
      <setSpec>user-biosyslit</setSpec>
    </header>
    <header>
      <identifier>oai:zenodo.org:262400</identifier>
      <datestamp>2017-01-29T03:32:10Z</datestamp>
      <setSpec>user-biosyslit</setSpec>
    </header>
    <resumptionToken expirationDate="2017-08-31T15:43:48Z" cursor="12200" completeListSize="77796">.eJyNysEKgjAYAOB3-c8S2z9TE7qIJR1SdCnqJUxFqmXiCnXRu-elc52_7wWyriuwyWJp6GgRJIg6orEyNJBlfxfieJ4ZyjQRZSviwkue0S0hGTam78px72bMV1cS3Kji2xBTao3xmUzhIX5kKhoTths42Zh7FU7-ZTe_igWeyE9ex-PWERyrPtiEE6cOz1n5ffTPp34-V65Bg65oarAp6hpch6JvJNiv9_sDkrtRLg.DIm_vA.Ym7E5LweoLJxkPmwfxB42eP2V4s</resumptionToken>
  </ListIdentifiers>
</OAI-PMH>
