<?xml version='1.0' encoding='UTF-8'?>
<?xml-stylesheet type="text/xsl" href="/static/xsl/oai2.v1.0.xsl"?>
<OAI-PMH xmlns="http://www.openarchives.org/OAI/2.0/" xmlns:xsi="http://www.w3.org/2001/XMLSchema-instance" xsi:schemaLocation="http://www.openarchives.org/OAI/2.0/ http://www.openarchives.org/OAI/2.0/OAI-PMH.xsd">
  <responseDate>2017-08-31T15:41:12Z</responseDate>
  <request verb="ListIdentifiers" resumptionToken=".eJyNysEKgjAYAOB3-c8S2ySnQpfQxIOKrkl6CVMRc5q4Ip307nXpXOfvW0HWdQU22mDLwmiLqWGa1CAGMjWQ5XQT4tx-HMpTKspB8MJLH0mfoow0NHTkHDiZHqoORT1W7BCTEzZn3qIlPvJ7ppI51f0nQy4NVLyEV__zKj3yRH7xRsaHvWCkmiI3Xhjes1wvvw__-dTP58gdaDAWTQ02oRp0z2JqJNjr6_UGip5RSA.DIm_mA.af7hJvczBS0_yOERiL1eta3bZiI">https://zenodo.org/oai2d</request>
  <ListIdentifiers>
    <header>
      <identifier>oai:zenodo.org:243329</identifier>
      <datestamp>2017-01-14T02:44:33Z</datestamp>
      <setSpec>user-biosyslit</setSpec>
    </header>
    <header>
      <identifier>oai:zenodo.org:243246</identifier>
      <datestamp>2017-01-14T01:38:17Z</datestamp>
      <setSpec>user-biosyslit</setSpec>
    </header>
    <header>
      <identifier>oai:zenodo.org:242475</identifier>
      <datestamp>2017-01-13T15:39:56Z</datestamp>
      <setSpec>user-biosyslit</setSpec>
    </header>
    <header>
      <identifier>oai:zenodo.org:243161</identifier>
      <datestamp>2017-01-14T00:03:21Z</datestamp>
      <setSpec>user-biosyslit</setSpec>
    </header>
    <header>
      <identifier>oai:zenodo.org:242302</identifier>
      <datestamp>2017-01-13T13:10:36Z</datestamp>
      <setSpec>user-biosyslit</setSpec>
    </header>
    <header>
      <identifier>oai:zenodo.org:243071</identifier>
      <datestamp>2017-01-13T22:55:26Z</datestamp>
      <setSpec>user-biosyslit</setSpec>
    </header>
    <header>
      <identifier>oai:zenodo.org:270638</identifier>
      <datestamp>2017-02-07T23:40:34Z</datestamp>
      <setSpec>user-biosyslit</setSpec>
    </header>
    <header>
      <identifier>oai:zenodo.org:232904</identifier>
      <datestamp>2017-01-07T01:16:30Z</datestamp>
      <setSpec>user-biosyslit</setSpec>
    </header>
    <header>
      <identifier>oai:zenodo.org:275640</identifier>
      <datestamp>2017-02-08T16:50:55Z</datestamp>
      <setSpec>user-biosyslit</setSpec>
    </header>
    <header>
      <identifier>oai:zenodo.org:275242</identifier>
      <datestamp>2017-02-08T15:47:19Z</datestamp>
      <setSpec>user-biosyslit</setSpec>
    </header>
    <header>
      <identifier>oai:zenodo.org:233312</identifier>
      <datestamp>2017-01-08T03:23:17Z</datestamp>
      <setSpec>user-biosyslit</setSpec>
    </header>
    <header>
      <identifier>oai:zenodo.org:277011</identifier>
      <datestamp>2017-02-08T20:10:30Z</datestamp>
      <setSpec>user-biosyslit</setSpec>
    </header>
    <header>
      <identifier>oai:zenodo.org:277077</identifier>
      <datestamp>2017-02-08T20:20:05Z</datestamp>
      <setSpec>user-biosyslit</setSpec>
    </header>
    <header>
      <identifier>oai:zenodo.org:270650</identifier>
      <datestamp>2017-02-07T23:41:42Z</datestamp>
      <setSpec>user-biosyslit</setSpec>
    </header>
    <header>
      <identifier>oai:zenodo.org:270546</identifier>
      <datestamp>2017-02-07T23:26:49Z</datestamp>
      <setSpec>user-biosyslit</setSpec>
    </header>
    <header>
      <identifier>oai:zenodo.org:192627</identifier>
      <datestamp>2017-01-09T10:01:53Z</datestamp>
      <setSpec>user-biosyslit</setSpec>
    </header>
    <header>
      <identifier>oai:zenodo.org:277058</identifier>
      <datestamp>2017-02-08T20:17:59Z</datestamp>
      <setSpec>user-biosyslit</setSpec>
    </header>
    <header>
      <identifier>oai:zenodo.org:235427</identifier>
      <datestamp>2017-01-09T09:58:26Z</datestamp>
      <setSpec>user-biosyslit</setSpec>
    </header>
    <header>
      <identifier>oai:zenodo.org:234608</identifier>
      <datestamp>2017-01-08T22:37:04Z</datestamp>
      <setSpec>user-biosyslit</setSpec>
    </header>
    <header>
      <identifier>oai:zenodo.org:235322</identifier>
      <datestamp>2017-01-09T08:50:03Z</datestamp>
      <setSpec>user-biosyslit</setSpec>
    </header>
    <header>
      <identifier>oai:zenodo.org:276536</identifier>
      <datestamp>2017-02-08T19:06:07Z</datestamp>
      <setSpec>user-biosyslit</setSpec>
    </header>
    <header>
      <identifier>oai:zenodo.org:276847</identifier>
      <datestamp>2017-02-08T19:48:50Z</datestamp>
      <setSpec>user-biosyslit</setSpec>
    </header>
    <header>
      <identifier>oai:zenodo.org:235420</identifier>
      <datestamp>2017-01-09T09:58:01Z</datestamp>
      <setSpec>user-biosyslit</setSpec>
    </header>
    <header>
      <identifier>oai:zenodo.org:236456</identifier>
      <datestamp>2017-01-10T00:26:03Z</datestamp>
      <setSpec>user-biosyslit</setSpec>
    </header>
    <header>
      <identifier>oai:zenodo.org:236548</identifier>
      <datestamp>2017-01-10T01:22:38Z</datestamp>
      <setSpec>user-biosyslit</setSpec>
    </header>
    <header>
      <identifier>oai:zenodo.org:236441</identifier>
      <datestamp>2017-01-10T00:15:23Z</datestamp>
      <setSpec>user-biosyslit</setSpec>
    </header>
    <header>
      <identifier>oai:zenodo.org:278033</identifier>
      <datestamp>2017-02-08T22:19:00Z</datestamp>
      <setSpec>user-biosyslit</setSpec>
    </header>
    <header>
      <identifier>oai:zenodo.org:237661</identifier>
      <datestamp>2017-01-10T18:29:56Z</datestamp>
      <setSpec>user-biosyslit</setSpec>
    </header>
    <header>
      <identifier>oai:zenodo.org:276754</identifier>
      <datestamp>2017-02-08T19:37:20Z</datestamp>
      <setSpec>user-biosyslit</setSpec>
    </header>
    <header>
      <identifier>oai:zenodo.org:236748</identifier>
      <datestamp>2017-01-10T04:08:11Z</datestamp>
      <setSpec>user-biosyslit</setSpec>
    </header>
    <header>
      <identifier>oai:zenodo.org:237110</identifier>
      <datestamp>2017-01-10T10:52:36Z</datestamp>
      <setSpec>user-biosyslit</setSpec>
    </header>
    <header>
      <identifier>oai:zenodo.org:237810</identifier>
      <datestamp>2017-01-10T20:57:23Z</datestamp>
      <setSpec>user-biosyslit</setSpec>
    </header>
    <header>
      <identifier>oai:zenodo.org:237567</identifier>
      <datestamp>2017-01-10T17:12:18Z</datestamp>
      <setSpec>user-biosyslit</setSpec>
    </header>
    <header>
      <identifier>oai:zenodo.org:277489</identifier>
      <datestamp>2017-02-08T21:13:46Z</datestamp>
      <setSpec>user-biosyslit</setSpec>
    </header>
    <header>
      <identifier>oai:zenodo.org:277443</identifier>
      <datestamp>2017-02-08T21:08:53Z</datestamp>
      <setSpec>user-biosyslit</setSpec>
    </header>
    <header>
      <identifier>oai:zenodo.org:277632</identifier>
      <datestamp>2017-02-08T21:30:42Z</datestamp>
      <setSpec>user-biosyslit</setSpec>
    </header>
    <header>
      <identifier>oai:zenodo.org:239997</identifier>
      <datestamp>2017-01-12T03:22:39Z</datestamp>
      <setSpec>user-biosyslit</setSpec>
    </header>
    <header>
      <identifier>oai:zenodo.org:278006</identifier>
      <datestamp>2017-02-08T22:15:29Z</datestamp>
      <setSpec>user-biosyslit</setSpec>
    </header>
    <header>
      <identifier>oai:zenodo.org:278074</identifier>
      <datestamp>2017-02-08T22:23:26Z</datestamp>
      <setSpec>user-biosyslit</setSpec>
    </header>
    <header>
      <identifier>oai:zenodo.org:277896</identifier>
      <datestamp>2017-02-08T22:02:00Z</datestamp>
      <setSpec>user-biosyslit</setSpec>
    </header>
    <header>
      <identifier>oai:zenodo.org:238093</identifier>
      <datestamp>2017-01-11T00:57:43Z</datestamp>
      <setSpec>user-biosyslit</setSpec>
    </header>
    <header>
      <identifier>oai:zenodo.org:278861</identifier>
      <datestamp>2017-02-09T00:00:14Z</datestamp>
      <setSpec>user-biosyslit</setSpec>
    </header>
    <header>
      <identifier>oai:zenodo.org:277958</identifier>
      <datestamp>2017-02-08T22:09:48Z</datestamp>
      <setSpec>user-biosyslit</setSpec>
    </header>
    <header>
      <identifier>oai:zenodo.org:239128</identifier>
      <datestamp>2017-01-11T16:46:37Z</datestamp>
      <setSpec>user-biosyslit</setSpec>
    </header>
    <header>
      <identifier>oai:zenodo.org:239766</identifier>
      <datestamp>2017-01-12T00:44:54Z</datestamp>
      <setSpec>user-biosyslit</setSpec>
    </header>
    <header>
      <identifier>oai:zenodo.org:239259</identifier>
      <datestamp>2017-01-11T18:47:00Z</datestamp>
      <setSpec>user-biosyslit</setSpec>
    </header>
    <header>
      <identifier>oai:zenodo.org:278677</identifier>
      <datestamp>2017-02-08T23:38:30Z</datestamp>
      <setSpec>user-biosyslit</setSpec>
    </header>
    <header>
      <identifier>oai:zenodo.org:278213</identifier>
      <datestamp>2017-02-08T22:40:18Z</datestamp>
      <setSpec>user-biosyslit</setSpec>
    </header>
    <header>
      <identifier>oai:zenodo.org:239447</identifier>
      <datestamp>2017-01-11T20:48:44Z</datestamp>
      <setSpec>user-biosyslit</setSpec>
    </header>
    <header>
      <identifier>oai:zenodo.org:239320</identifier>
      <datestamp>2017-01-11T18:51:10Z</datestamp>
      <setSpec>user-biosyslit</setSpec>
    </header>
    <header>
      <identifier>oai:zenodo.org:271410</identifier>
      <datestamp>2017-02-08T01:36:20Z</datestamp>
      <setSpec>user-biosyslit</setSpec>
    </header>
    <header>
      <identifier>oai:zenodo.org:239414</identifier>
      <datestamp>2017-01-11T20:06:19Z</datestamp>
      <setSpec>user-biosyslit</setSpec>
    </header>
    <header>
      <identifier>oai:zenodo.org:240008</identifier>
      <datestamp>2017-01-12T03:36:20Z</datestamp>
      <setSpec>user-biosyslit</setSpec>
    </header>
    <header>
      <identifier>oai:zenodo.org:238912</identifier>
      <datestamp>2017-01-11T12:33:15Z</datestamp>
      <setSpec>user-biosyslit</setSpec>
    </header>
    <header>
      <identifier>oai:zenodo.org:278108</identifier>
      <datestamp>2017-02-08T22:27:24Z</datestamp>
      <setSpec>user-biosyslit</setSpec>
    </header>
    <header>
      <identifier>oai:zenodo.org:241349</identifier>
      <datestamp>2017-01-13T00:12:22Z</datestamp>
      <setSpec>user-biosyslit</setSpec>
    </header>
    <header>
      <identifier>oai:zenodo.org:278369</identifier>
      <datestamp>2017-02-08T23:03:01Z</datestamp>
      <setSpec>user-biosyslit</setSpec>
    </header>
    <header>
      <identifier>oai:zenodo.org:278919</identifier>
      <datestamp>2017-02-09T00:07:30Z</datestamp>
      <setSpec>user-biosyslit</setSpec>
    </header>
    <header>
      <identifier>oai:zenodo.org:278417</identifier>
      <datestamp>2017-02-08T23:08:08Z</datestamp>
      <setSpec>user-biosyslit</setSpec>
    </header>
    <header>
      <identifier>oai:zenodo.org:272013</identifier>
      <datestamp>2017-02-08T03:20:14Z</datestamp>
      <setSpec>user-biosyslit</setSpec>
    </header>
    <header>
      <identifier>oai:zenodo.org:240378</identifier>
      <datestamp>2017-01-12T07:58:57Z</datestamp>
      <setSpec>user-biosyslit</setSpec>
    </header>
    <header>
      <identifier>oai:zenodo.org:278852</identifier>
      <datestamp>2017-02-08T23:59:45Z</datestamp>
      <setSpec>user-biosyslit</setSpec>
    </header>
    <header>
      <identifier>oai:zenodo.org:240496</identifier>
      <datestamp>2017-01-12T09:27:26Z</datestamp>
      <setSpec>user-biosyslit</setSpec>
    </header>
    <header>
      <identifier>oai:zenodo.org:271871</identifier>
      <datestamp>2017-02-08T02:47:05Z</datestamp>
      <setSpec>user-biosyslit</setSpec>
    </header>
    <header>
      <identifier>oai:zenodo.org:278289</identifier>
      <datestamp>2017-02-08T22:47:09Z</datestamp>
      <setSpec>user-biosyslit</setSpec>
    </header>
    <header>
      <identifier>oai:zenodo.org:241622</identifier>
      <datestamp>2017-01-13T04:11:19Z</datestamp>
      <setSpec>user-biosyslit</setSpec>
    </header>
    <header>
      <identifier>oai:zenodo.org:279047</identifier>
      <datestamp>2017-02-09T00:28:45Z</datestamp>
      <setSpec>user-biosyslit</setSpec>
    </header>
    <header>
      <identifier>oai:zenodo.org:240743</identifier>
      <datestamp>2017-01-12T13:19:23Z</datestamp>
      <setSpec>user-biosyslit</setSpec>
    </header>
    <header>
      <identifier>oai:zenodo.org:241595</identifier>
      <datestamp>2017-01-13T03:43:56Z</datestamp>
      <setSpec>user-biosyslit</setSpec>
    </header>
    <header>
      <identifier>oai:zenodo.org:241454</identifier>
      <datestamp>2017-01-13T01:40:04Z</datestamp>
      <setSpec>user-biosyslit</setSpec>
    </header>
    <header>
      <identifier>oai:zenodo.org:241080</identifier>
      <datestamp>2017-01-12T19:36:52Z</datestamp>
      <setSpec>user-biosyslit</setSpec>
    </header>
    <header>
      <identifier>oai:zenodo.org:271915</identifier>
      <datestamp>2017-02-08T03:01:17Z</datestamp>
      <setSpec>user-biosyslit</setSpec>
    </header>
    <header>
      <identifier>oai:zenodo.org:271641</identifier>
      <datestamp>2017-02-08T02:06:22Z</datestamp>
      <setSpec>user-biosyslit</setSpec>
    </header>
    <header>
      <identifier>oai:zenodo.org:271478</identifier>
      <datestamp>2017-02-08T01:49:37Z</datestamp>
      <setSpec>user-biosyslit</setSpec>
    </header>
    <header>
      <identifier>oai:zenodo.org:279100</identifier>
      <datestamp>2017-02-09T00:36:43Z</datestamp>
      <setSpec>user-biosyslit</setSpec>
    </header>
    <header>
      <identifier>oai:zenodo.org:242870</identifier>
      <datestamp>2017-01-13T20:02:07Z</datestamp>
      <setSpec>user-biosyslit</setSpec>
    </header>
    <header>
      <identifier>oai:zenodo.org:243327</identifier>
      <datestamp>2017-01-14T02:44:27Z</datestamp>
      <setSpec>user-biosyslit</setSpec>
    </header>
    <header>
      <identifier>oai:zenodo.org:243604</identifier>
      <datestamp>2017-01-14T08:02:49Z</datestamp>
      <setSpec>user-biosyslit</setSpec>
    </header>
    <header>
      <identifier>oai:zenodo.org:243765</identifier>
      <datestamp>2017-01-14T10:28:37Z</datestamp>
      <setSpec>user-biosyslit</setSpec>
    </header>
    <header>
      <identifier>oai:zenodo.org:244023</identifier>
      <datestamp>2017-01-14T15:17:46Z</datestamp>
      <setSpec>user-biosyslit</setSpec>
    </header>
    <header>
      <identifier>oai:zenodo.org:244121</identifier>
      <datestamp>2017-01-14T16:31:25Z</datestamp>
      <setSpec>user-biosyslit</setSpec>
    </header>
    <header>
      <identifier>oai:zenodo.org:272293</identifier>
      <datestamp>2017-02-08T04:11:21Z</datestamp>
      <setSpec>user-biosyslit</setSpec>
    </header>
    <header>
      <identifier>oai:zenodo.org:279178</identifier>
      <datestamp>2017-02-09T00:45:48Z</datestamp>
      <setSpec>user-biosyslit</setSpec>
    </header>
    <header>
      <identifier>oai:zenodo.org:245317</identifier>
      <datestamp>2017-01-15T11:39:30Z</datestamp>
      <setSpec>user-biosyslit</setSpec>
    </header>
    <header>
      <identifier>oai:zenodo.org:245322</identifier>
      <datestamp>2017-01-15T11:43:48Z</datestamp>
      <setSpec>user-biosyslit</setSpec>
    </header>
    <header>
      <identifier>oai:zenodo.org:244777</identifier>
      <datestamp>2017-01-15T02:23:07Z</datestamp>
      <setSpec>user-biosyslit</setSpec>
    </header>
    <header>
      <identifier>oai:zenodo.org:245731</identifier>
      <datestamp>2017-01-15T17:59:46Z</datestamp>
      <setSpec>user-biosyslit</setSpec>
    </header>
    <header>
      <identifier>oai:zenodo.org:272484</identifier>
      <datestamp>2017-02-08T04:54:09Z</datestamp>
      <setSpec>user-biosyslit</setSpec>
    </header>
    <header>
      <identifier>oai:zenodo.org:245898</identifier>
      <datestamp>2017-01-15T19:21:31Z</datestamp>
      <setSpec>user-biosyslit</setSpec>
    </header>
    <header>
      <identifier>oai:zenodo.org:245394</identifier>
      <datestamp>2017-01-15T12:41:02Z</datestamp>
      <setSpec>user-biosyslit</setSpec>
    </header>
    <header>
      <identifier>oai:zenodo.org:246044</identifier>
      <datestamp>2017-01-15T21:23:26Z</datestamp>
      <setSpec>user-biosyslit</setSpec>
    </header>
    <header>
      <identifier>oai:zenodo.org:246040</identifier>
      <datestamp>2017-01-15T21:23:12Z</datestamp>
      <setSpec>user-biosyslit</setSpec>
    </header>
    <header>
      <identifier>oai:zenodo.org:246313</identifier>
      <datestamp>2017-01-16T00:43:26Z</datestamp>
      <setSpec>user-biosyslit</setSpec>
    </header>
    <header>
      <identifier>oai:zenodo.org:272370</identifier>
      <datestamp>2017-02-08T04:22:31Z</datestamp>
      <setSpec>user-biosyslit</setSpec>
    </header>
    <header>
      <identifier>oai:zenodo.org:246926</identifier>
      <datestamp>2017-01-16T10:05:25Z</datestamp>
      <setSpec>user-biosyslit</setSpec>
    </header>
    <header>
      <identifier>oai:zenodo.org:247535</identifier>
      <datestamp>2017-01-16T16:47:51Z</datestamp>
      <setSpec>user-biosyslit</setSpec>
    </header>
    <header>
      <identifier>oai:zenodo.org:247998</identifier>
      <datestamp>2017-01-16T22:34:14Z</datestamp>
      <setSpec>user-biosyslit</setSpec>
    </header>
    <header>
      <identifier>oai:zenodo.org:272920</identifier>
      <datestamp>2017-02-08T06:34:04Z</datestamp>
      <setSpec>user-biosyslit</setSpec>
    </header>
    <header>
      <identifier>oai:zenodo.org:247815</identifier>
      <datestamp>2017-01-16T20:13:34Z</datestamp>
      <setSpec>user-biosyslit</setSpec>
    </header>
    <header>
      <identifier>oai:zenodo.org:247948</identifier>
      <datestamp>2017-01-16T21:55:25Z</datestamp>
      <setSpec>user-biosyslit</setSpec>
    </header>
    <resumptionToken expirationDate="2017-08-31T15:43:12Z" cursor="2600" completeListSize="77796">.eJyNzz0PQ0AAgOH_crM095VQSRehYkC4EiyNIqKOimuDE_-9OnRu5_dZ3hWIqiqBDg9UQwQTeiQqRRRrChDF-OD82uwVFEnMi55HuR2_wi6GKa5VzxSza6bEky30OyTZOcAJ0uaogUtwiZ6pDOeYOBODlurKYPHuzu5K4ts8u9kDi3qDM1yOvhUsDBksI8XXoT-d_OlMcQIKGPK6Avpnqp3ysRZAX7ftDRZRUNQ.DIm_mA.X-n1jzjafUYo96gZfEphnwo_7To</resumptionToken>
  </ListIdentifiers>
</OAI-PMH>
