<?xml version='1.0' encoding='UTF-8'?>
<?xml-stylesheet type="text/xsl" href="/static/xsl/oai2.v1.0.xsl"?>
<OAI-PMH xmlns="http://www.openarchives.org/OAI/2.0/" xmlns:xsi="http://www.w3.org/2001/XMLSchema-instance" xsi:schemaLocation="http://www.openarchives.org/OAI/2.0/ http://www.openarchives.org/OAI/2.0/OAI-PMH.xsd">
  <responseDate>2017-08-31T15:41:42Z</responseDate>
  <request verb="ListIdentifiers" resumptionToken=".eJyNysEOQzAYAOB3-c-ytEpqkl0WmzggdIRdFkPElIluQcW7z2Xn7fx9C4iyLMBEO6rriGoYa1Qje51oCoh8eHJ-qzeGPIl53vEos-N32MYoVSvqWWJyrZR4skF-iyU7B2qCjSmq0RxcolcqwykmzsjQiboymL2Hs72C-Da_3u2eRd2RM7UY_FMwM3xkV5J_H_7zyZ_PEgdQoM-qEkyMDAWaMRsqAeayrh-bN1E5.DIm_tg.NiDOa0uQy0ImrL2_DWhE7PFzNJA">https://zenodo.org/oai2d</request>
  <ListIdentifiers>
    <header>
      <identifier>oai:zenodo.org:247259</identifier>
      <datestamp>2017-01-16T13:30:32Z</datestamp>
      <setSpec>user-biosyslit</setSpec>
    </header>
    <header>
      <identifier>oai:zenodo.org:247112</identifier>
      <datestamp>2017-01-16T11:38:33Z</datestamp>
      <setSpec>user-biosyslit</setSpec>
    </header>
    <header>
      <identifier>oai:zenodo.org:247611</identifier>
      <datestamp>2017-01-16T17:29:10Z</datestamp>
      <setSpec>user-biosyslit</setSpec>
    </header>
    <header>
      <identifier>oai:zenodo.org:247578</identifier>
      <datestamp>2017-01-16T17:13:15Z</datestamp>
      <setSpec>user-biosyslit</setSpec>
    </header>
    <header>
      <identifier>oai:zenodo.org:247605</identifier>
      <datestamp>2017-01-16T17:23:40Z</datestamp>
      <setSpec>user-biosyslit</setSpec>
    </header>
    <header>
      <identifier>oai:zenodo.org:247437</identifier>
      <datestamp>2017-01-16T15:29:23Z</datestamp>
      <setSpec>user-biosyslit</setSpec>
    </header>
    <header>
      <identifier>oai:zenodo.org:248626</identifier>
      <datestamp>2017-01-17T07:27:05Z</datestamp>
      <setSpec>user-biosyslit</setSpec>
    </header>
    <header>
      <identifier>oai:zenodo.org:247441</identifier>
      <datestamp>2017-01-16T15:29:35Z</datestamp>
      <setSpec>user-biosyslit</setSpec>
    </header>
    <header>
      <identifier>oai:zenodo.org:248926</identifier>
      <datestamp>2017-01-17T13:54:19Z</datestamp>
      <setSpec>user-biosyslit</setSpec>
    </header>
    <header>
      <identifier>oai:zenodo.org:276506</identifier>
      <datestamp>2017-02-08T19:00:30Z</datestamp>
      <setSpec>user-biosyslit</setSpec>
    </header>
    <header>
      <identifier>oai:zenodo.org:248161</identifier>
      <datestamp>2017-01-17T00:43:03Z</datestamp>
      <setSpec>user-biosyslit</setSpec>
    </header>
    <header>
      <identifier>oai:zenodo.org:248609</identifier>
      <datestamp>2017-01-17T06:01:51Z</datestamp>
      <setSpec>user-biosyslit</setSpec>
    </header>
    <header>
      <identifier>oai:zenodo.org:248716</identifier>
      <datestamp>2017-01-17T08:29:15Z</datestamp>
      <setSpec>user-biosyslit</setSpec>
    </header>
    <header>
      <identifier>oai:zenodo.org:249133</identifier>
      <datestamp>2017-01-17T16:38:13Z</datestamp>
      <setSpec>user-biosyslit</setSpec>
    </header>
    <header>
      <identifier>oai:zenodo.org:248701</identifier>
      <datestamp>2017-01-17T08:28:26Z</datestamp>
      <setSpec>user-biosyslit</setSpec>
    </header>
    <header>
      <identifier>oai:zenodo.org:248547</identifier>
      <datestamp>2017-01-17T05:19:18Z</datestamp>
      <setSpec>user-biosyslit</setSpec>
    </header>
    <header>
      <identifier>oai:zenodo.org:248364</identifier>
      <datestamp>2017-01-17T03:16:17Z</datestamp>
      <setSpec>user-biosyslit</setSpec>
    </header>
    <header>
      <identifier>oai:zenodo.org:248361</identifier>
      <datestamp>2017-01-17T03:16:05Z</datestamp>
      <setSpec>user-biosyslit</setSpec>
    </header>
    <header>
      <identifier>oai:zenodo.org:249832</identifier>
      <datestamp>2017-01-18T00:39:31Z</datestamp>
      <setSpec>user-biosyslit</setSpec>
    </header>
    <header>
      <identifier>oai:zenodo.org:249297</identifier>
      <datestamp>2017-01-17T18:33:33Z</datestamp>
      <setSpec>user-biosyslit</setSpec>
    </header>
    <header>
      <identifier>oai:zenodo.org:249004</identifier>
      <datestamp>2017-01-17T14:59:48Z</datestamp>
      <setSpec>user-biosyslit</setSpec>
    </header>
    <header>
      <identifier>oai:zenodo.org:251119</identifier>
      <datestamp>2017-01-18T18:51:55Z</datestamp>
      <setSpec>user-biosyslit</setSpec>
    </header>
    <header>
      <identifier>oai:zenodo.org:250056</identifier>
      <datestamp>2017-01-18T04:22:23Z</datestamp>
      <setSpec>user-biosyslit</setSpec>
    </header>
    <header>
      <identifier>oai:zenodo.org:246917</identifier>
      <datestamp>2017-01-16T10:04:57Z</datestamp>
      <setSpec>user-biosyslit</setSpec>
    </header>
    <header>
      <identifier>oai:zenodo.org:248295</identifier>
      <datestamp>2017-01-17T02:17:46Z</datestamp>
      <setSpec>user-biosyslit</setSpec>
    </header>
    <header>
      <identifier>oai:zenodo.org:247606</identifier>
      <datestamp>2017-01-16T17:29:26Z</datestamp>
      <setSpec>user-biosyslit</setSpec>
    </header>
    <header>
      <identifier>oai:zenodo.org:247285</identifier>
      <datestamp>2017-01-16T13:46:18Z</datestamp>
      <setSpec>user-biosyslit</setSpec>
    </header>
    <header>
      <identifier>oai:zenodo.org:249002</identifier>
      <datestamp>2017-01-23T04:15:52Z</datestamp>
      <setSpec>openaire</setSpec>
      <setSpec>user-biosyslit</setSpec>
    </header>
    <header>
      <identifier>oai:zenodo.org:272524</identifier>
      <datestamp>2017-02-08T05:00:22Z</datestamp>
      <setSpec>user-biosyslit</setSpec>
    </header>
    <header>
      <identifier>oai:zenodo.org:247911</identifier>
      <datestamp>2017-01-16T21:32:28Z</datestamp>
      <setSpec>user-biosyslit</setSpec>
    </header>
    <header>
      <identifier>oai:zenodo.org:248298</identifier>
      <datestamp>2017-01-17T02:17:57Z</datestamp>
      <setSpec>user-biosyslit</setSpec>
    </header>
    <header>
      <identifier>oai:zenodo.org:247619</identifier>
      <datestamp>2017-01-16T17:39:37Z</datestamp>
      <setSpec>user-biosyslit</setSpec>
    </header>
    <header>
      <identifier>oai:zenodo.org:248144</identifier>
      <datestamp>2017-01-17T00:26:50Z</datestamp>
      <setSpec>user-biosyslit</setSpec>
    </header>
    <header>
      <identifier>oai:zenodo.org:248006</identifier>
      <datestamp>2017-01-16T22:34:49Z</datestamp>
      <setSpec>user-biosyslit</setSpec>
    </header>
    <header>
      <identifier>oai:zenodo.org:248425</identifier>
      <datestamp>2017-01-17T03:58:13Z</datestamp>
      <setSpec>user-biosyslit</setSpec>
    </header>
    <header>
      <identifier>oai:zenodo.org:248545</identifier>
      <datestamp>2017-01-17T05:19:11Z</datestamp>
      <setSpec>user-biosyslit</setSpec>
    </header>
    <header>
      <identifier>oai:zenodo.org:248698</identifier>
      <datestamp>2017-01-17T08:27:05Z</datestamp>
      <setSpec>user-biosyslit</setSpec>
    </header>
    <header>
      <identifier>oai:zenodo.org:249067</identifier>
      <datestamp>2017-01-17T15:45:59Z</datestamp>
      <setSpec>user-biosyslit</setSpec>
    </header>
    <header>
      <identifier>oai:zenodo.org:250172</identifier>
      <datestamp>2017-01-18T05:45:22Z</datestamp>
      <setSpec>user-biosyslit</setSpec>
    </header>
    <header>
      <identifier>oai:zenodo.org:248280</identifier>
      <datestamp>2017-01-17T02:16:57Z</datestamp>
      <setSpec>user-biosyslit</setSpec>
    </header>
    <header>
      <identifier>oai:zenodo.org:248693</identifier>
      <datestamp>2017-01-17T08:27:06Z</datestamp>
      <setSpec>user-biosyslit</setSpec>
    </header>
    <header>
      <identifier>oai:zenodo.org:248700</identifier>
      <datestamp>2017-01-17T08:28:23Z</datestamp>
      <setSpec>user-biosyslit</setSpec>
    </header>
    <header>
      <identifier>oai:zenodo.org:250342</identifier>
      <datestamp>2017-01-18T08:41:57Z</datestamp>
      <setSpec>user-biosyslit</setSpec>
    </header>
    <header>
      <identifier>oai:zenodo.org:273031</identifier>
      <datestamp>2017-02-08T06:59:08Z</datestamp>
      <setSpec>user-biosyslit</setSpec>
    </header>
    <header>
      <identifier>oai:zenodo.org:249650</identifier>
      <datestamp>2017-01-17T22:09:03Z</datestamp>
      <setSpec>user-biosyslit</setSpec>
    </header>
    <header>
      <identifier>oai:zenodo.org:249821</identifier>
      <datestamp>2017-01-18T00:17:31Z</datestamp>
      <setSpec>user-biosyslit</setSpec>
    </header>
    <header>
      <identifier>oai:zenodo.org:249593</identifier>
      <datestamp>2017-01-17T21:32:02Z</datestamp>
      <setSpec>user-biosyslit</setSpec>
    </header>
    <header>
      <identifier>oai:zenodo.org:250947</identifier>
      <datestamp>2017-01-18T16:42:54Z</datestamp>
      <setSpec>user-biosyslit</setSpec>
    </header>
    <header>
      <identifier>oai:zenodo.org:250045</identifier>
      <datestamp>2017-01-18T04:11:54Z</datestamp>
      <setSpec>user-biosyslit</setSpec>
    </header>
    <header>
      <identifier>oai:zenodo.org:249980</identifier>
      <datestamp>2017-01-18T02:42:53Z</datestamp>
      <setSpec>user-biosyslit</setSpec>
    </header>
    <header>
      <identifier>oai:zenodo.org:250640</identifier>
      <datestamp>2017-01-18T14:01:00Z</datestamp>
      <setSpec>user-biosyslit</setSpec>
    </header>
    <header>
      <identifier>oai:zenodo.org:250242</identifier>
      <datestamp>2017-01-18T07:28:42Z</datestamp>
      <setSpec>user-biosyslit</setSpec>
    </header>
    <header>
      <identifier>oai:zenodo.org:249968</identifier>
      <datestamp>2017-01-18T02:42:06Z</datestamp>
      <setSpec>user-biosyslit</setSpec>
    </header>
    <header>
      <identifier>oai:zenodo.org:250116</identifier>
      <datestamp>2017-01-18T05:06:53Z</datestamp>
      <setSpec>user-biosyslit</setSpec>
    </header>
    <header>
      <identifier>oai:zenodo.org:250675</identifier>
      <datestamp>2017-01-18T14:03:04Z</datestamp>
      <setSpec>user-biosyslit</setSpec>
    </header>
    <header>
      <identifier>oai:zenodo.org:250572</identifier>
      <datestamp>2017-01-18T12:28:41Z</datestamp>
      <setSpec>user-biosyslit</setSpec>
    </header>
    <header>
      <identifier>oai:zenodo.org:251126</identifier>
      <datestamp>2017-01-18T19:13:13Z</datestamp>
      <setSpec>user-biosyslit</setSpec>
    </header>
    <header>
      <identifier>oai:zenodo.org:250698</identifier>
      <datestamp>2017-01-18T14:04:31Z</datestamp>
      <setSpec>user-biosyslit</setSpec>
    </header>
    <header>
      <identifier>oai:zenodo.org:250314</identifier>
      <datestamp>2017-01-18T08:18:21Z</datestamp>
      <setSpec>user-biosyslit</setSpec>
    </header>
    <header>
      <identifier>oai:zenodo.org:251284</identifier>
      <datestamp>2017-01-18T21:22:01Z</datestamp>
      <setSpec>user-biosyslit</setSpec>
    </header>
    <header>
      <identifier>oai:zenodo.org:251296</identifier>
      <datestamp>2017-01-18T21:19:48Z</datestamp>
      <setSpec>user-biosyslit</setSpec>
    </header>
    <header>
      <identifier>oai:zenodo.org:250636</identifier>
      <datestamp>2017-01-18T13:14:56Z</datestamp>
      <setSpec>user-biosyslit</setSpec>
    </header>
    <header>
      <identifier>oai:zenodo.org:272601</identifier>
      <datestamp>2017-02-08T05:21:25Z</datestamp>
      <setSpec>user-biosyslit</setSpec>
    </header>
    <header>
      <identifier>oai:zenodo.org:247410</identifier>
      <datestamp>2017-01-16T15:27:34Z</datestamp>
      <setSpec>user-biosyslit</setSpec>
    </header>
    <header>
      <identifier>oai:zenodo.org:247311</identifier>
      <datestamp>2017-01-16T14:07:34Z</datestamp>
      <setSpec>user-biosyslit</setSpec>
    </header>
    <header>
      <identifier>oai:zenodo.org:246984</identifier>
      <datestamp>2017-01-16T10:08:56Z</datestamp>
      <setSpec>user-biosyslit</setSpec>
    </header>
    <header>
      <identifier>oai:zenodo.org:246969</identifier>
      <datestamp>2017-01-16T10:08:02Z</datestamp>
      <setSpec>user-biosyslit</setSpec>
    </header>
    <header>
      <identifier>oai:zenodo.org:247093</identifier>
      <datestamp>2017-01-16T11:27:11Z</datestamp>
      <setSpec>user-biosyslit</setSpec>
    </header>
    <header>
      <identifier>oai:zenodo.org:247248</identifier>
      <datestamp>2017-01-16T13:30:51Z</datestamp>
      <setSpec>user-biosyslit</setSpec>
    </header>
    <header>
      <identifier>oai:zenodo.org:247463</identifier>
      <datestamp>2017-01-16T15:31:04Z</datestamp>
      <setSpec>user-biosyslit</setSpec>
    </header>
    <header>
      <identifier>oai:zenodo.org:247444</identifier>
      <datestamp>2017-01-16T15:29:51Z</datestamp>
      <setSpec>user-biosyslit</setSpec>
    </header>
    <header>
      <identifier>oai:zenodo.org:247942</identifier>
      <datestamp>2017-01-16T21:55:06Z</datestamp>
      <setSpec>user-biosyslit</setSpec>
    </header>
    <header>
      <identifier>oai:zenodo.org:247886</identifier>
      <datestamp>2017-01-16T21:15:38Z</datestamp>
      <setSpec>user-biosyslit</setSpec>
    </header>
    <header>
      <identifier>oai:zenodo.org:248358</identifier>
      <datestamp>2017-01-17T03:15:54Z</datestamp>
      <setSpec>user-biosyslit</setSpec>
    </header>
    <header>
      <identifier>oai:zenodo.org:248650</identifier>
      <datestamp>2017-01-17T07:49:28Z</datestamp>
      <setSpec>user-biosyslit</setSpec>
    </header>
    <header>
      <identifier>oai:zenodo.org:248765</identifier>
      <datestamp>2017-01-17T10:48:10Z</datestamp>
      <setSpec>user-biosyslit</setSpec>
    </header>
    <header>
      <identifier>oai:zenodo.org:248284</identifier>
      <datestamp>2017-01-17T02:17:13Z</datestamp>
      <setSpec>user-biosyslit</setSpec>
    </header>
    <header>
      <identifier>oai:zenodo.org:247949</identifier>
      <datestamp>2017-01-16T21:55:29Z</datestamp>
      <setSpec>user-biosyslit</setSpec>
    </header>
    <header>
      <identifier>oai:zenodo.org:248772</identifier>
      <datestamp>2017-01-17T10:47:59Z</datestamp>
      <setSpec>user-biosyslit</setSpec>
    </header>
    <header>
      <identifier>oai:zenodo.org:248167</identifier>
      <datestamp>2017-01-17T00:43:20Z</datestamp>
      <setSpec>user-biosyslit</setSpec>
    </header>
    <header>
      <identifier>oai:zenodo.org:247971</identifier>
      <datestamp>2017-01-16T22:08:31Z</datestamp>
      <setSpec>user-biosyslit</setSpec>
    </header>
    <header>
      <identifier>oai:zenodo.org:248611</identifier>
      <datestamp>2017-01-17T06:01:57Z</datestamp>
      <setSpec>user-biosyslit</setSpec>
    </header>
    <header>
      <identifier>oai:zenodo.org:248637</identifier>
      <datestamp>2017-01-17T07:38:40Z</datestamp>
      <setSpec>user-biosyslit</setSpec>
    </header>
    <header>
      <identifier>oai:zenodo.org:248671</identifier>
      <datestamp>2017-01-17T08:08:33Z</datestamp>
      <setSpec>user-biosyslit</setSpec>
    </header>
    <header>
      <identifier>oai:zenodo.org:249064</identifier>
      <datestamp>2017-01-17T15:45:46Z</datestamp>
      <setSpec>user-biosyslit</setSpec>
    </header>
    <header>
      <identifier>oai:zenodo.org:249295</identifier>
      <datestamp>2017-01-17T18:34:50Z</datestamp>
      <setSpec>user-biosyslit</setSpec>
    </header>
    <header>
      <identifier>oai:zenodo.org:249898</identifier>
      <datestamp>2017-01-18T01:39:04Z</datestamp>
      <setSpec>user-biosyslit</setSpec>
    </header>
    <header>
      <identifier>oai:zenodo.org:249902</identifier>
      <datestamp>2017-01-18T01:39:28Z</datestamp>
      <setSpec>user-biosyslit</setSpec>
    </header>
    <header>
      <identifier>oai:zenodo.org:249914</identifier>
      <datestamp>2017-01-18T01:40:24Z</datestamp>
      <setSpec>user-biosyslit</setSpec>
    </header>
    <header>
      <identifier>oai:zenodo.org:250517</identifier>
      <datestamp>2017-01-18T11:22:34Z</datestamp>
      <setSpec>user-biosyslit</setSpec>
    </header>
    <header>
      <identifier>oai:zenodo.org:272529</identifier>
      <datestamp>2017-02-08T05:05:27Z</datestamp>
      <setSpec>user-biosyslit</setSpec>
    </header>
    <header>
      <identifier>oai:zenodo.org:250639</identifier>
      <datestamp>2017-01-18T14:00:55Z</datestamp>
      <setSpec>user-biosyslit</setSpec>
    </header>
    <header>
      <identifier>oai:zenodo.org:250007</identifier>
      <datestamp>2017-01-18T03:30:54Z</datestamp>
      <setSpec>user-biosyslit</setSpec>
    </header>
    <header>
      <identifier>oai:zenodo.org:249611</identifier>
      <datestamp>2017-01-17T21:41:28Z</datestamp>
      <setSpec>user-biosyslit</setSpec>
    </header>
    <header>
      <identifier>oai:zenodo.org:249854</identifier>
      <datestamp>2017-01-18T00:40:57Z</datestamp>
      <setSpec>user-biosyslit</setSpec>
    </header>
    <header>
      <identifier>oai:zenodo.org:272580</identifier>
      <datestamp>2017-02-08T05:16:42Z</datestamp>
      <setSpec>user-biosyslit</setSpec>
    </header>
    <header>
      <identifier>oai:zenodo.org:250251</identifier>
      <datestamp>2017-01-18T07:29:34Z</datestamp>
      <setSpec>user-biosyslit</setSpec>
    </header>
    <header>
      <identifier>oai:zenodo.org:250927</identifier>
      <datestamp>2017-01-18T16:25:51Z</datestamp>
      <setSpec>user-biosyslit</setSpec>
    </header>
    <header>
      <identifier>oai:zenodo.org:249833</identifier>
      <datestamp>2017-01-18T00:39:35Z</datestamp>
      <setSpec>user-biosyslit</setSpec>
    </header>
    <header>
      <identifier>oai:zenodo.org:251223</identifier>
      <datestamp>2017-01-18T20:08:20Z</datestamp>
      <setSpec>user-biosyslit</setSpec>
    </header>
    <resumptionToken expirationDate="2017-08-31T15:43:42Z" cursor="10700" completeListSize="77796">.eJyNysEKgjAYAOB3-c8Sm9OmQhfRxEOKLSW9hKmIOUtckU5897x0rvP3zSCqqgQLbZCuabpJtwbFWEWYEgVEMTw4vzSrQ3FOeHHnce4lr2OXoFStaeCI8eCkJJAtCjss2T5Sz9gY4wZN0Sl-pvI4JsR_M-TSg4ym4OavryShx7Or17P4bnOmlkPoRhPDNstI8X34zyd_PkfsQIE-ryuwMDIVaN_5UAuw5mX5AM09UWs.DIm_tg.gJOwYcIYAW5BqJCqY3FFRuDvpAM</resumptionToken>
  </ListIdentifiers>
</OAI-PMH>
