<?xml version='1.0' encoding='UTF-8'?>
<?xml-stylesheet type="text/xsl" href="/static/xsl/oai2.v1.0.xsl"?>
<OAI-PMH xmlns="http://www.openarchives.org/OAI/2.0/" xmlns:xsi="http://www.w3.org/2001/XMLSchema-instance" xsi:schemaLocation="http://www.openarchives.org/OAI/2.0/ http://www.openarchives.org/OAI/2.0/OAI-PMH.xsd">
  <responseDate>2017-08-31T15:43:48Z</responseDate>
  <request verb="ListIdentifiers" resumptionToken=".eJyNyj0LgkAYAOD_8s4S9xWa0CKaNKjodaIuYSpSnSZeoV7032tprvl5nqCapgYbrQjDeM0sumGWuUZowwxQ1XiT8nj-OFRZKqteitJPH0mXopy0ZuiqOXBzGuorijqs-S4mGbZmcUZLfBD3XCdzSvcTR54Z6HgJL_vPq2nky-LkD1z0juSkHiMvXjh2eEGr78N_Pv3zuWoLBgxl24DNiGnAdSrHVoH9fL3e0L5Rcg.DInANA.atIRCo0ZzKIaEsxngZOneGEt2vM">https://zenodo.org/oai2d</request>
  <ListIdentifiers>
    <header>
      <identifier>oai:zenodo.org:277941</identifier>
      <datestamp>2017-02-08T22:08:24Z</datestamp>
      <setSpec>user-biosyslit</setSpec>
    </header>
    <header>
      <identifier>oai:zenodo.org:277401</identifier>
      <datestamp>2017-02-08T21:04:24Z</datestamp>
      <setSpec>user-biosyslit</setSpec>
    </header>
    <header>
      <identifier>oai:zenodo.org:278008</identifier>
      <datestamp>2017-02-08T22:16:06Z</datestamp>
      <setSpec>user-biosyslit</setSpec>
    </header>
    <header>
      <identifier>oai:zenodo.org:277565</identifier>
      <datestamp>2017-02-08T21:23:19Z</datestamp>
      <setSpec>user-biosyslit</setSpec>
    </header>
    <header>
      <identifier>oai:zenodo.org:278203</identifier>
      <datestamp>2017-02-08T22:39:46Z</datestamp>
      <setSpec>user-biosyslit</setSpec>
    </header>
    <header>
      <identifier>oai:zenodo.org:277414</identifier>
      <datestamp>2017-02-08T21:05:04Z</datestamp>
      <setSpec>user-biosyslit</setSpec>
    </header>
    <header>
      <identifier>oai:zenodo.org:278484</identifier>
      <datestamp>2017-02-08T23:16:44Z</datestamp>
      <setSpec>user-biosyslit</setSpec>
    </header>
    <header>
      <identifier>oai:zenodo.org:278452</identifier>
      <datestamp>2017-02-08T23:11:51Z</datestamp>
      <setSpec>user-biosyslit</setSpec>
    </header>
    <header>
      <identifier>oai:zenodo.org:278380</identifier>
      <datestamp>2017-02-08T23:03:25Z</datestamp>
      <setSpec>user-biosyslit</setSpec>
    </header>
    <header>
      <identifier>oai:zenodo.org:278594</identifier>
      <datestamp>2017-02-08T23:29:18Z</datestamp>
      <setSpec>user-biosyslit</setSpec>
    </header>
    <header>
      <identifier>oai:zenodo.org:278449</identifier>
      <datestamp>2017-02-08T23:11:43Z</datestamp>
      <setSpec>user-biosyslit</setSpec>
    </header>
    <header>
      <identifier>oai:zenodo.org:278845</identifier>
      <datestamp>2017-02-08T23:59:29Z</datestamp>
      <setSpec>user-biosyslit</setSpec>
    </header>
    <header>
      <identifier>oai:zenodo.org:279206</identifier>
      <datestamp>2017-02-09T00:48:35Z</datestamp>
      <setSpec>user-biosyslit</setSpec>
    </header>
    <header>
      <identifier>oai:zenodo.org:280280</identifier>
      <datestamp>2017-02-09T03:06:24Z</datestamp>
      <setSpec>user-biosyslit</setSpec>
    </header>
    <header>
      <identifier>oai:zenodo.org:279714</identifier>
      <datestamp>2017-02-09T01:54:56Z</datestamp>
      <setSpec>user-biosyslit</setSpec>
    </header>
    <header>
      <identifier>oai:zenodo.org:280360</identifier>
      <datestamp>2017-02-09T03:15:50Z</datestamp>
      <setSpec>user-biosyslit</setSpec>
    </header>
    <header>
      <identifier>oai:zenodo.org:280135</identifier>
      <datestamp>2017-02-09T02:47:21Z</datestamp>
      <setSpec>user-biosyslit</setSpec>
    </header>
    <header>
      <identifier>oai:zenodo.org:280687</identifier>
      <datestamp>2017-02-09T03:51:48Z</datestamp>
      <setSpec>user-biosyslit</setSpec>
    </header>
    <header>
      <identifier>oai:zenodo.org:281027</identifier>
      <datestamp>2017-02-09T04:34:39Z</datestamp>
      <setSpec>user-biosyslit</setSpec>
    </header>
    <header>
      <identifier>oai:zenodo.org:281846</identifier>
      <datestamp>2017-02-09T06:01:00Z</datestamp>
      <setSpec>user-biosyslit</setSpec>
    </header>
    <header>
      <identifier>oai:zenodo.org:282591</identifier>
      <datestamp>2017-02-09T07:17:07Z</datestamp>
      <setSpec>user-biosyslit</setSpec>
    </header>
    <header>
      <identifier>oai:zenodo.org:281349</identifier>
      <datestamp>2017-02-09T05:10:31Z</datestamp>
      <setSpec>user-biosyslit</setSpec>
    </header>
    <header>
      <identifier>oai:zenodo.org:281558</identifier>
      <datestamp>2017-02-09T05:31:47Z</datestamp>
      <setSpec>user-biosyslit</setSpec>
    </header>
    <header>
      <identifier>oai:zenodo.org:282544</identifier>
      <datestamp>2017-02-09T07:12:08Z</datestamp>
      <setSpec>user-biosyslit</setSpec>
    </header>
    <header>
      <identifier>oai:zenodo.org:281850</identifier>
      <datestamp>2017-02-09T06:02:38Z</datestamp>
      <setSpec>user-biosyslit</setSpec>
    </header>
    <header>
      <identifier>oai:zenodo.org:282394</identifier>
      <datestamp>2017-02-09T06:55:58Z</datestamp>
      <setSpec>user-biosyslit</setSpec>
    </header>
    <header>
      <identifier>oai:zenodo.org:283364</identifier>
      <datestamp>2017-02-09T08:41:55Z</datestamp>
      <setSpec>user-biosyslit</setSpec>
    </header>
    <header>
      <identifier>oai:zenodo.org:284012</identifier>
      <datestamp>2017-02-09T10:10:41Z</datestamp>
      <setSpec>user-biosyslit</setSpec>
    </header>
    <header>
      <identifier>oai:zenodo.org:282903</identifier>
      <datestamp>2017-02-09T07:49:18Z</datestamp>
      <setSpec>user-biosyslit</setSpec>
    </header>
    <header>
      <identifier>oai:zenodo.org:282555</identifier>
      <datestamp>2017-02-09T07:12:35Z</datestamp>
      <setSpec>user-biosyslit</setSpec>
    </header>
    <header>
      <identifier>oai:zenodo.org:283742</identifier>
      <datestamp>2017-02-09T09:34:37Z</datestamp>
      <setSpec>user-biosyslit</setSpec>
    </header>
    <header>
      <identifier>oai:zenodo.org:284088</identifier>
      <datestamp>2017-02-09T10:21:48Z</datestamp>
      <setSpec>user-biosyslit</setSpec>
    </header>
    <header>
      <identifier>oai:zenodo.org:284947</identifier>
      <datestamp>2017-02-09T12:20:07Z</datestamp>
      <setSpec>user-biosyslit</setSpec>
    </header>
    <header>
      <identifier>oai:zenodo.org:284173</identifier>
      <datestamp>2017-02-09T10:37:10Z</datestamp>
      <setSpec>user-biosyslit</setSpec>
    </header>
    <header>
      <identifier>oai:zenodo.org:284001</identifier>
      <datestamp>2017-02-09T10:10:12Z</datestamp>
      <setSpec>user-biosyslit</setSpec>
    </header>
    <header>
      <identifier>oai:zenodo.org:284589</identifier>
      <datestamp>2017-02-09T11:34:21Z</datestamp>
      <setSpec>user-biosyslit</setSpec>
    </header>
    <header>
      <identifier>oai:zenodo.org:284579</identifier>
      <datestamp>2017-02-09T11:33:46Z</datestamp>
      <setSpec>user-biosyslit</setSpec>
    </header>
    <header>
      <identifier>oai:zenodo.org:284551</identifier>
      <datestamp>2017-02-09T11:28:43Z</datestamp>
      <setSpec>user-biosyslit</setSpec>
    </header>
    <header>
      <identifier>oai:zenodo.org:285196</identifier>
      <datestamp>2017-02-09T12:55:42Z</datestamp>
      <setSpec>user-biosyslit</setSpec>
    </header>
    <header>
      <identifier>oai:zenodo.org:285963</identifier>
      <datestamp>2017-02-09T14:55:57Z</datestamp>
      <setSpec>user-biosyslit</setSpec>
    </header>
    <header>
      <identifier>oai:zenodo.org:286292</identifier>
      <datestamp>2017-02-09T15:43:16Z</datestamp>
      <setSpec>user-biosyslit</setSpec>
    </header>
    <header>
      <identifier>oai:zenodo.org:286560</identifier>
      <datestamp>2017-02-09T16:26:24Z</datestamp>
      <setSpec>user-biosyslit</setSpec>
    </header>
    <header>
      <identifier>oai:zenodo.org:285463</identifier>
      <datestamp>2017-02-09T13:39:53Z</datestamp>
      <setSpec>user-biosyslit</setSpec>
    </header>
    <header>
      <identifier>oai:zenodo.org:287035</identifier>
      <datestamp>2017-02-09T17:19:48Z</datestamp>
      <setSpec>user-biosyslit</setSpec>
    </header>
    <header>
      <identifier>oai:zenodo.org:286937</identifier>
      <datestamp>2017-02-09T17:05:55Z</datestamp>
      <setSpec>user-biosyslit</setSpec>
    </header>
    <header>
      <identifier>oai:zenodo.org:287039</identifier>
      <datestamp>2017-02-09T17:19:57Z</datestamp>
      <setSpec>user-biosyslit</setSpec>
    </header>
    <header>
      <identifier>oai:zenodo.org:286150</identifier>
      <datestamp>2017-02-09T15:23:35Z</datestamp>
      <setSpec>user-biosyslit</setSpec>
    </header>
    <header>
      <identifier>oai:zenodo.org:286769</identifier>
      <datestamp>2017-02-09T16:46:02Z</datestamp>
      <setSpec>user-biosyslit</setSpec>
    </header>
    <header>
      <identifier>oai:zenodo.org:287293</identifier>
      <datestamp>2017-02-09T18:00:03Z</datestamp>
      <setSpec>user-biosyslit</setSpec>
    </header>
    <header>
      <identifier>oai:zenodo.org:286756</identifier>
      <datestamp>2017-02-09T16:45:34Z</datestamp>
      <setSpec>user-biosyslit</setSpec>
    </header>
    <header>
      <identifier>oai:zenodo.org:286410</identifier>
      <datestamp>2017-02-09T15:57:11Z</datestamp>
      <setSpec>user-biosyslit</setSpec>
    </header>
    <header>
      <identifier>oai:zenodo.org:287375</identifier>
      <datestamp>2017-02-09T18:10:45Z</datestamp>
      <setSpec>user-biosyslit</setSpec>
    </header>
    <header>
      <identifier>oai:zenodo.org:288480</identifier>
      <datestamp>2017-02-09T21:03:30Z</datestamp>
      <setSpec>user-biosyslit</setSpec>
    </header>
    <header>
      <identifier>oai:zenodo.org:287946</identifier>
      <datestamp>2017-02-09T19:40:02Z</datestamp>
      <setSpec>user-biosyslit</setSpec>
    </header>
    <header>
      <identifier>oai:zenodo.org:288764</identifier>
      <datestamp>2017-02-09T21:51:28Z</datestamp>
      <setSpec>user-biosyslit</setSpec>
    </header>
    <header>
      <identifier>oai:zenodo.org:288514</identifier>
      <datestamp>2017-02-09T21:05:04Z</datestamp>
      <setSpec>user-biosyslit</setSpec>
    </header>
    <header>
      <identifier>oai:zenodo.org:289813</identifier>
      <datestamp>2017-02-10T00:33:27Z</datestamp>
      <setSpec>user-biosyslit</setSpec>
    </header>
    <header>
      <identifier>oai:zenodo.org:289724</identifier>
      <datestamp>2017-02-10T00:22:21Z</datestamp>
      <setSpec>user-biosyslit</setSpec>
    </header>
    <header>
      <identifier>oai:zenodo.org:289432</identifier>
      <datestamp>2017-02-09T23:30:19Z</datestamp>
      <setSpec>user-biosyslit</setSpec>
    </header>
    <header>
      <identifier>oai:zenodo.org:289869</identifier>
      <datestamp>2017-02-10T00:42:51Z</datestamp>
      <setSpec>user-biosyslit</setSpec>
    </header>
    <header>
      <identifier>oai:zenodo.org:293617</identifier>
      <datestamp>2017-02-19T13:53:55Z</datestamp>
      <setSpec>user-biosyslit</setSpec>
    </header>
    <header>
      <identifier>oai:zenodo.org:306801</identifier>
      <datestamp>2017-02-20T23:02:22Z</datestamp>
      <setSpec>user-biosyslit</setSpec>
    </header>
    <header>
      <identifier>oai:zenodo.org:312881</identifier>
      <datestamp>2017-02-21T00:51:07Z</datestamp>
      <setSpec>user-biosyslit</setSpec>
    </header>
    <header>
      <identifier>oai:zenodo.org:311438</identifier>
      <datestamp>2017-02-21T00:22:37Z</datestamp>
      <setSpec>user-biosyslit</setSpec>
    </header>
    <header>
      <identifier>oai:zenodo.org:322068</identifier>
      <datestamp>2017-02-24T07:29:05Z</datestamp>
      <setSpec>user-biosyslit</setSpec>
    </header>
    <header>
      <identifier>oai:zenodo.org:321759</identifier>
      <datestamp>2017-02-23T08:31:11Z</datestamp>
      <setSpec>user-biosyslit</setSpec>
    </header>
    <header>
      <identifier>oai:zenodo.org:280099</identifier>
      <datestamp>2017-02-09T02:42:22Z</datestamp>
      <setSpec>user-biosyslit</setSpec>
    </header>
    <header>
      <identifier>oai:zenodo.org:280049</identifier>
      <datestamp>2017-02-09T02:34:26Z</datestamp>
      <setSpec>user-biosyslit</setSpec>
    </header>
    <header>
      <identifier>oai:zenodo.org:279301</identifier>
      <datestamp>2017-02-09T01:02:18Z</datestamp>
      <setSpec>user-biosyslit</setSpec>
    </header>
    <header>
      <identifier>oai:zenodo.org:279648</identifier>
      <datestamp>2017-02-09T01:46:42Z</datestamp>
      <setSpec>user-biosyslit</setSpec>
    </header>
    <header>
      <identifier>oai:zenodo.org:279224</identifier>
      <datestamp>2017-02-09T00:50:35Z</datestamp>
      <setSpec>user-biosyslit</setSpec>
    </header>
    <header>
      <identifier>oai:zenodo.org:279414</identifier>
      <datestamp>2017-02-09T01:17:15Z</datestamp>
      <setSpec>user-biosyslit</setSpec>
    </header>
    <header>
      <identifier>oai:zenodo.org:280138</identifier>
      <datestamp>2017-02-09T02:47:14Z</datestamp>
      <setSpec>user-biosyslit</setSpec>
    </header>
    <header>
      <identifier>oai:zenodo.org:280468</identifier>
      <datestamp>2017-02-09T03:27:30Z</datestamp>
      <setSpec>user-biosyslit</setSpec>
    </header>
    <header>
      <identifier>oai:zenodo.org:279346</identifier>
      <datestamp>2017-02-09T01:07:27Z</datestamp>
      <setSpec>user-biosyslit</setSpec>
    </header>
    <header>
      <identifier>oai:zenodo.org:279752</identifier>
      <datestamp>2017-02-09T02:00:01Z</datestamp>
      <setSpec>user-biosyslit</setSpec>
    </header>
    <header>
      <identifier>oai:zenodo.org:281082</identifier>
      <datestamp>2017-02-09T04:42:01Z</datestamp>
      <setSpec>user-biosyslit</setSpec>
    </header>
    <header>
      <identifier>oai:zenodo.org:282549</identifier>
      <datestamp>2017-02-09T07:12:18Z</datestamp>
      <setSpec>user-biosyslit</setSpec>
    </header>
    <header>
      <identifier>oai:zenodo.org:281845</identifier>
      <datestamp>2017-02-09T06:01:04Z</datestamp>
      <setSpec>user-biosyslit</setSpec>
    </header>
    <header>
      <identifier>oai:zenodo.org:282043</identifier>
      <datestamp>2017-02-09T06:22:23Z</datestamp>
      <setSpec>user-biosyslit</setSpec>
    </header>
    <header>
      <identifier>oai:zenodo.org:283153</identifier>
      <datestamp>2017-02-09T08:13:19Z</datestamp>
      <setSpec>user-biosyslit</setSpec>
    </header>
    <header>
      <identifier>oai:zenodo.org:283327</identifier>
      <datestamp>2017-02-09T08:36:29Z</datestamp>
      <setSpec>user-biosyslit</setSpec>
    </header>
    <header>
      <identifier>oai:zenodo.org:284401</identifier>
      <datestamp>2017-02-09T11:10:42Z</datestamp>
      <setSpec>user-biosyslit</setSpec>
    </header>
    <header>
      <identifier>oai:zenodo.org:283829</identifier>
      <datestamp>2017-02-09T09:53:06Z</datestamp>
      <setSpec>user-biosyslit</setSpec>
    </header>
    <header>
      <identifier>oai:zenodo.org:284239</identifier>
      <datestamp>2017-02-09T10:45:38Z</datestamp>
      <setSpec>user-biosyslit</setSpec>
    </header>
    <header>
      <identifier>oai:zenodo.org:283956</identifier>
      <datestamp>2017-02-09T10:08:07Z</datestamp>
      <setSpec>user-biosyslit</setSpec>
    </header>
    <header>
      <identifier>oai:zenodo.org:284237</identifier>
      <datestamp>2017-02-09T10:46:35Z</datestamp>
      <setSpec>user-biosyslit</setSpec>
    </header>
    <header>
      <identifier>oai:zenodo.org:284377</identifier>
      <datestamp>2017-02-09T11:06:42Z</datestamp>
      <setSpec>user-biosyslit</setSpec>
    </header>
    <header>
      <identifier>oai:zenodo.org:284492</identifier>
      <datestamp>2017-02-09T11:21:44Z</datestamp>
      <setSpec>user-biosyslit</setSpec>
    </header>
    <header>
      <identifier>oai:zenodo.org:284333</identifier>
      <datestamp>2017-02-09T11:04:49Z</datestamp>
      <setSpec>user-biosyslit</setSpec>
    </header>
    <header>
      <identifier>oai:zenodo.org:285570</identifier>
      <datestamp>2017-02-09T13:52:12Z</datestamp>
      <setSpec>user-biosyslit</setSpec>
    </header>
    <header>
      <identifier>oai:zenodo.org:286413</identifier>
      <datestamp>2017-02-09T15:57:20Z</datestamp>
      <setSpec>user-biosyslit</setSpec>
    </header>
    <header>
      <identifier>oai:zenodo.org:286009</identifier>
      <datestamp>2017-02-09T15:01:47Z</datestamp>
      <setSpec>user-biosyslit</setSpec>
    </header>
    <header>
      <identifier>oai:zenodo.org:286390</identifier>
      <datestamp>2017-02-09T15:54:49Z</datestamp>
      <setSpec>user-biosyslit</setSpec>
    </header>
    <header>
      <identifier>oai:zenodo.org:287506</identifier>
      <datestamp>2017-02-09T18:30:06Z</datestamp>
      <setSpec>user-biosyslit</setSpec>
    </header>
    <header>
      <identifier>oai:zenodo.org:286419</identifier>
      <datestamp>2017-02-09T15:57:36Z</datestamp>
      <setSpec>user-biosyslit</setSpec>
    </header>
    <header>
      <identifier>oai:zenodo.org:287306</identifier>
      <datestamp>2017-02-09T18:00:34Z</datestamp>
      <setSpec>user-biosyslit</setSpec>
    </header>
    <header>
      <identifier>oai:zenodo.org:286401</identifier>
      <datestamp>2017-02-09T15:55:16Z</datestamp>
      <setSpec>user-biosyslit</setSpec>
    </header>
    <header>
      <identifier>oai:zenodo.org:287241</identifier>
      <datestamp>2017-02-09T17:52:55Z</datestamp>
      <setSpec>user-biosyslit</setSpec>
    </header>
    <header>
      <identifier>oai:zenodo.org:288021</identifier>
      <datestamp>2017-02-09T19:49:47Z</datestamp>
      <setSpec>user-biosyslit</setSpec>
    </header>
    <resumptionToken expirationDate="2017-08-31T15:45:48Z" cursor="42600" completeListSize="77796">.eJyNyj0LgkAYAOD_8s4S92GdCS1hiYOKXkq6hKmIdZp4hXrif6-luebnmUGWZQEmWrGtsSH6mjCEN5TpTAOZ9w8hLvWHIT_HIm9FlNnxK2xilJCKeZYcXSuhnrojv8GKHwNyxsYY1WgKTtEzUeEYU2fg6MBcFUzezfm8gvq2SK92x6N2Lzgpev8QTBzveUrz78N_PvXzWXIHGnRZVYKpE0OD-5D1lQRzXpY3pABRRw.DInANA.xpMAnBWYc35nYKYngekIopgYim8</resumptionToken>
  </ListIdentifiers>
</OAI-PMH>
