<?xml version='1.0' encoding='UTF-8'?>
<?xml-stylesheet type="text/xsl" href="/static/xsl/oai2.v1.0.xsl"?>
<OAI-PMH xmlns="http://www.openarchives.org/OAI/2.0/" xmlns:xsi="http://www.w3.org/2001/XMLSchema-instance" xsi:schemaLocation="http://www.openarchives.org/OAI/2.0/ http://www.openarchives.org/OAI/2.0/OAI-PMH.xsd">
  <responseDate>2017-08-31T15:44:02Z</responseDate>
  <request verb="ListIdentifiers" resumptionToken=".eJyNyssKgkAUANB_uWuJeWg-oE1o4kJFJyXbhKmIOVY4hTriv-emda3PmUFUVQkW2qimYVId062OKKGEaAqIon9wfmlWh-KU8uLOk9xN33GXoozUemCL0bczGsgWhR2W7BCREzbGpEFTdExemYzHlHoDQ47uy2gKbt76Shq6_Hx1nyy57zkjZR860cTwnp1p8X34zyd_PlvsQIFnXldgqZqpQDvkfS3AmpflA9GyUXc.DInAQg.3C-PK-mYPhPFGcVBhAmvU1_rRg4">https://zenodo.org/oai2d</request>
  <ListIdentifiers>
    <header>
      <identifier>oai:zenodo.org:232129</identifier>
      <datestamp>2017-01-06T11:31:29Z</datestamp>
      <setSpec>user-biosyslit</setSpec>
    </header>
    <header>
      <identifier>oai:zenodo.org:232527</identifier>
      <datestamp>2017-01-06T19:04:34Z</datestamp>
      <setSpec>user-biosyslit</setSpec>
    </header>
    <header>
      <identifier>oai:zenodo.org:232373</identifier>
      <datestamp>2017-01-06T16:36:04Z</datestamp>
      <setSpec>user-biosyslit</setSpec>
    </header>
    <header>
      <identifier>oai:zenodo.org:232060</identifier>
      <datestamp>2017-01-06T10:48:02Z</datestamp>
      <setSpec>user-biosyslit</setSpec>
    </header>
    <header>
      <identifier>oai:zenodo.org:232074</identifier>
      <datestamp>2017-01-06T11:00:21Z</datestamp>
      <setSpec>user-biosyslit</setSpec>
    </header>
    <header>
      <identifier>oai:zenodo.org:232152</identifier>
      <datestamp>2017-01-06T11:44:58Z</datestamp>
      <setSpec>user-biosyslit</setSpec>
    </header>
    <header>
      <identifier>oai:zenodo.org:232825</identifier>
      <datestamp>2017-01-06T23:41:51Z</datestamp>
      <setSpec>user-biosyslit</setSpec>
    </header>
    <header>
      <identifier>oai:zenodo.org:289760</identifier>
      <datestamp>2017-02-10T00:25:55Z</datestamp>
      <setSpec>user-biosyslit</setSpec>
    </header>
    <header>
      <identifier>oai:zenodo.org:233096</identifier>
      <datestamp>2017-01-08T00:07:12Z</datestamp>
      <setSpec>user-biosyslit</setSpec>
    </header>
    <header>
      <identifier>oai:zenodo.org:289523</identifier>
      <datestamp>2017-02-09T23:44:27Z</datestamp>
      <setSpec>user-biosyslit</setSpec>
    </header>
    <header>
      <identifier>oai:zenodo.org:233521</identifier>
      <datestamp>2017-01-08T08:04:09Z</datestamp>
      <setSpec>user-biosyslit</setSpec>
    </header>
    <header>
      <identifier>oai:zenodo.org:232746</identifier>
      <datestamp>2017-01-06T22:28:13Z</datestamp>
      <setSpec>user-biosyslit</setSpec>
    </header>
    <header>
      <identifier>oai:zenodo.org:233095</identifier>
      <datestamp>2017-01-08T00:07:08Z</datestamp>
      <setSpec>user-biosyslit</setSpec>
    </header>
    <header>
      <identifier>oai:zenodo.org:232831</identifier>
      <datestamp>2017-01-06T23:42:15Z</datestamp>
      <setSpec>user-biosyslit</setSpec>
    </header>
    <header>
      <identifier>oai:zenodo.org:233720</identifier>
      <datestamp>2017-01-08T10:46:48Z</datestamp>
      <setSpec>user-biosyslit</setSpec>
    </header>
    <header>
      <identifier>oai:zenodo.org:233742</identifier>
      <datestamp>2017-01-08T11:14:27Z</datestamp>
      <setSpec>user-biosyslit</setSpec>
    </header>
    <header>
      <identifier>oai:zenodo.org:233431</identifier>
      <datestamp>2017-01-08T04:56:19Z</datestamp>
      <setSpec>user-biosyslit</setSpec>
    </header>
    <header>
      <identifier>oai:zenodo.org:232909</identifier>
      <datestamp>2017-01-07T01:22:08Z</datestamp>
      <setSpec>user-biosyslit</setSpec>
    </header>
    <header>
      <identifier>oai:zenodo.org:233027</identifier>
      <datestamp>2017-01-07T22:48:52Z</datestamp>
      <setSpec>user-biosyslit</setSpec>
    </header>
    <header>
      <identifier>oai:zenodo.org:233539</identifier>
      <datestamp>2017-01-08T08:14:35Z</datestamp>
      <setSpec>user-biosyslit</setSpec>
    </header>
    <header>
      <identifier>oai:zenodo.org:233799</identifier>
      <datestamp>2017-01-08T11:53:49Z</datestamp>
      <setSpec>user-biosyslit</setSpec>
    </header>
    <header>
      <identifier>oai:zenodo.org:229823</identifier>
      <datestamp>2017-01-04T07:35:12Z</datestamp>
      <setSpec>user-biosyslit</setSpec>
    </header>
    <header>
      <identifier>oai:zenodo.org:229374</identifier>
      <datestamp>2017-01-03T15:03:37Z</datestamp>
      <setSpec>user-biosyslit</setSpec>
    </header>
    <header>
      <identifier>oai:zenodo.org:228013</identifier>
      <datestamp>2017-01-02T08:49:33Z</datestamp>
      <setSpec>user-biosyslit</setSpec>
    </header>
    <header>
      <identifier>oai:zenodo.org:228930</identifier>
      <datestamp>2017-01-03T07:11:36Z</datestamp>
      <setSpec>user-biosyslit</setSpec>
    </header>
    <header>
      <identifier>oai:zenodo.org:227922</identifier>
      <datestamp>2017-01-02T06:51:43Z</datestamp>
      <setSpec>user-biosyslit</setSpec>
    </header>
    <header>
      <identifier>oai:zenodo.org:269772</identifier>
      <datestamp>2017-02-07T20:18:04Z</datestamp>
      <setSpec>user-biosyslit</setSpec>
    </header>
    <header>
      <identifier>oai:zenodo.org:229806</identifier>
      <datestamp>2017-01-04T07:22:50Z</datestamp>
      <setSpec>user-biosyslit</setSpec>
    </header>
    <header>
      <identifier>oai:zenodo.org:231841</identifier>
      <datestamp>2017-01-06T07:50:12Z</datestamp>
      <setSpec>user-biosyslit</setSpec>
    </header>
    <header>
      <identifier>oai:zenodo.org:229668</identifier>
      <datestamp>2017-01-03T20:25:41Z</datestamp>
      <setSpec>user-biosyslit</setSpec>
    </header>
    <header>
      <identifier>oai:zenodo.org:230064</identifier>
      <datestamp>2017-01-04T18:41:43Z</datestamp>
      <setSpec>user-biosyslit</setSpec>
    </header>
    <header>
      <identifier>oai:zenodo.org:231887</identifier>
      <datestamp>2017-01-06T08:18:50Z</datestamp>
      <setSpec>user-biosyslit</setSpec>
    </header>
    <header>
      <identifier>oai:zenodo.org:231297</identifier>
      <datestamp>2017-01-05T19:14:16Z</datestamp>
      <setSpec>user-biosyslit</setSpec>
    </header>
    <header>
      <identifier>oai:zenodo.org:230142</identifier>
      <datestamp>2017-01-04T20:26:40Z</datestamp>
      <setSpec>user-biosyslit</setSpec>
    </header>
    <header>
      <identifier>oai:zenodo.org:269746</identifier>
      <datestamp>2017-02-07T20:15:18Z</datestamp>
      <setSpec>user-biosyslit</setSpec>
    </header>
    <header>
      <identifier>oai:zenodo.org:230370</identifier>
      <datestamp>2017-01-04T23:33:50Z</datestamp>
      <setSpec>user-biosyslit</setSpec>
    </header>
    <header>
      <identifier>oai:zenodo.org:231984</identifier>
      <datestamp>2017-01-06T09:38:02Z</datestamp>
      <setSpec>user-biosyslit</setSpec>
    </header>
    <header>
      <identifier>oai:zenodo.org:269920</identifier>
      <datestamp>2017-02-07T20:43:59Z</datestamp>
      <setSpec>user-biosyslit</setSpec>
    </header>
    <header>
      <identifier>oai:zenodo.org:231462</identifier>
      <datestamp>2017-01-06T02:23:02Z</datestamp>
      <setSpec>user-biosyslit</setSpec>
    </header>
    <header>
      <identifier>oai:zenodo.org:231859</identifier>
      <datestamp>2017-01-06T07:59:30Z</datestamp>
      <setSpec>user-biosyslit</setSpec>
    </header>
    <header>
      <identifier>oai:zenodo.org:231575</identifier>
      <datestamp>2017-01-06T04:27:43Z</datestamp>
      <setSpec>user-biosyslit</setSpec>
    </header>
    <header>
      <identifier>oai:zenodo.org:231493</identifier>
      <datestamp>2017-01-06T02:46:35Z</datestamp>
      <setSpec>user-biosyslit</setSpec>
    </header>
    <header>
      <identifier>oai:zenodo.org:230664</identifier>
      <datestamp>2017-01-05T05:57:54Z</datestamp>
      <setSpec>user-biosyslit</setSpec>
    </header>
    <header>
      <identifier>oai:zenodo.org:269771</identifier>
      <datestamp>2017-02-07T20:18:00Z</datestamp>
      <setSpec>user-biosyslit</setSpec>
    </header>
    <header>
      <identifier>oai:zenodo.org:230498</identifier>
      <datestamp>2017-01-05T02:08:40Z</datestamp>
      <setSpec>user-biosyslit</setSpec>
    </header>
    <header>
      <identifier>oai:zenodo.org:231974</identifier>
      <datestamp>2017-01-06T09:37:26Z</datestamp>
      <setSpec>user-biosyslit</setSpec>
    </header>
    <header>
      <identifier>oai:zenodo.org:231467</identifier>
      <datestamp>2017-01-06T02:23:19Z</datestamp>
      <setSpec>user-biosyslit</setSpec>
    </header>
    <header>
      <identifier>oai:zenodo.org:230803</identifier>
      <datestamp>2017-01-05T08:38:29Z</datestamp>
      <setSpec>user-biosyslit</setSpec>
    </header>
    <header>
      <identifier>oai:zenodo.org:231170</identifier>
      <datestamp>2017-01-05T16:58:21Z</datestamp>
      <setSpec>user-biosyslit</setSpec>
    </header>
    <header>
      <identifier>oai:zenodo.org:269982</identifier>
      <datestamp>2017-02-07T21:56:55Z</datestamp>
      <setSpec>user-biosyslit</setSpec>
    </header>
    <header>
      <identifier>oai:zenodo.org:270858</identifier>
      <datestamp>2017-02-08T00:05:49Z</datestamp>
      <setSpec>user-biosyslit</setSpec>
    </header>
    <header>
      <identifier>oai:zenodo.org:231223</identifier>
      <datestamp>2017-01-05T17:35:32Z</datestamp>
      <setSpec>user-biosyslit</setSpec>
    </header>
    <header>
      <identifier>oai:zenodo.org:231862</identifier>
      <datestamp>2017-01-06T07:59:41Z</datestamp>
      <setSpec>user-biosyslit</setSpec>
    </header>
    <header>
      <identifier>oai:zenodo.org:269901</identifier>
      <datestamp>2017-02-07T20:42:06Z</datestamp>
      <setSpec>user-biosyslit</setSpec>
    </header>
    <header>
      <identifier>oai:zenodo.org:288498</identifier>
      <datestamp>2017-02-09T21:04:23Z</datestamp>
      <setSpec>user-biosyslit</setSpec>
    </header>
    <header>
      <identifier>oai:zenodo.org:270658</identifier>
      <datestamp>2017-02-07T23:43:29Z</datestamp>
      <setSpec>user-biosyslit</setSpec>
    </header>
    <header>
      <identifier>oai:zenodo.org:270203</identifier>
      <datestamp>2017-02-07T22:31:42Z</datestamp>
      <setSpec>user-biosyslit</setSpec>
    </header>
    <header>
      <identifier>oai:zenodo.org:270413</identifier>
      <datestamp>2017-02-07T23:12:57Z</datestamp>
      <setSpec>user-biosyslit</setSpec>
    </header>
    <header>
      <identifier>oai:zenodo.org:270579</identifier>
      <datestamp>2017-02-07T23:32:02Z</datestamp>
      <setSpec>user-biosyslit</setSpec>
    </header>
    <header>
      <identifier>oai:zenodo.org:270190</identifier>
      <datestamp>2017-02-07T22:30:32Z</datestamp>
      <setSpec>user-biosyslit</setSpec>
    </header>
    <header>
      <identifier>oai:zenodo.org:232038</identifier>
      <datestamp>2017-01-06T10:33:06Z</datestamp>
      <setSpec>user-biosyslit</setSpec>
    </header>
    <header>
      <identifier>oai:zenodo.org:270105</identifier>
      <datestamp>2017-02-07T22:21:45Z</datestamp>
      <setSpec>user-biosyslit</setSpec>
    </header>
    <header>
      <identifier>oai:zenodo.org:232024</identifier>
      <datestamp>2017-01-06T10:26:28Z</datestamp>
      <setSpec>user-biosyslit</setSpec>
    </header>
    <header>
      <identifier>oai:zenodo.org:270489</identifier>
      <datestamp>2017-02-07T23:17:55Z</datestamp>
      <setSpec>user-biosyslit</setSpec>
    </header>
    <header>
      <identifier>oai:zenodo.org:232200</identifier>
      <datestamp>2017-01-07T12:29:34Z</datestamp>
      <setSpec>openaire</setSpec>
      <setSpec>user-biosyslit</setSpec>
    </header>
    <header>
      <identifier>oai:zenodo.org:270136</identifier>
      <datestamp>2017-02-07T22:25:35Z</datestamp>
      <setSpec>user-biosyslit</setSpec>
    </header>
    <header>
      <identifier>oai:zenodo.org:289446</identifier>
      <datestamp>2017-02-09T23:30:57Z</datestamp>
      <setSpec>user-biosyslit</setSpec>
    </header>
    <header>
      <identifier>oai:zenodo.org:232118</identifier>
      <datestamp>2017-01-06T11:18:53Z</datestamp>
      <setSpec>user-biosyslit</setSpec>
    </header>
    <header>
      <identifier>oai:zenodo.org:232165</identifier>
      <datestamp>2017-01-06T12:55:47Z</datestamp>
      <setSpec>user-biosyslit</setSpec>
    </header>
    <header>
      <identifier>oai:zenodo.org:232078</identifier>
      <datestamp>2017-01-06T11:00:13Z</datestamp>
      <setSpec>user-biosyslit</setSpec>
    </header>
    <header>
      <identifier>oai:zenodo.org:232469</identifier>
      <datestamp>2017-01-06T18:12:43Z</datestamp>
      <setSpec>user-biosyslit</setSpec>
    </header>
    <header>
      <identifier>oai:zenodo.org:233350</identifier>
      <datestamp>2017-01-08T03:44:04Z</datestamp>
      <setSpec>user-biosyslit</setSpec>
    </header>
    <header>
      <identifier>oai:zenodo.org:233155</identifier>
      <datestamp>2017-01-08T01:27:03Z</datestamp>
      <setSpec>user-biosyslit</setSpec>
    </header>
    <header>
      <identifier>oai:zenodo.org:232837</identifier>
      <datestamp>2017-01-07T00:16:27Z</datestamp>
      <setSpec>user-biosyslit</setSpec>
    </header>
    <header>
      <identifier>oai:zenodo.org:233190</identifier>
      <datestamp>2017-01-08T01:57:45Z</datestamp>
      <setSpec>user-biosyslit</setSpec>
    </header>
    <header>
      <identifier>oai:zenodo.org:234697</identifier>
      <datestamp>2017-01-09T00:02:51Z</datestamp>
      <setSpec>user-biosyslit</setSpec>
    </header>
    <header>
      <identifier>oai:zenodo.org:233167</identifier>
      <datestamp>2017-01-08T01:39:51Z</datestamp>
      <setSpec>user-biosyslit</setSpec>
    </header>
    <header>
      <identifier>oai:zenodo.org:270591</identifier>
      <datestamp>2017-02-07T23:33:20Z</datestamp>
      <setSpec>user-biosyslit</setSpec>
    </header>
    <header>
      <identifier>oai:zenodo.org:289015</identifier>
      <datestamp>2017-02-09T22:24:44Z</datestamp>
      <setSpec>user-biosyslit</setSpec>
    </header>
    <header>
      <identifier>oai:zenodo.org:234183</identifier>
      <datestamp>2017-01-08T15:56:12Z</datestamp>
      <setSpec>user-biosyslit</setSpec>
    </header>
    <header>
      <identifier>oai:zenodo.org:232893</identifier>
      <datestamp>2017-01-07T01:08:41Z</datestamp>
      <setSpec>user-biosyslit</setSpec>
    </header>
    <header>
      <identifier>oai:zenodo.org:233527</identifier>
      <datestamp>2017-01-08T08:07:22Z</datestamp>
      <setSpec>user-biosyslit</setSpec>
    </header>
    <header>
      <identifier>oai:zenodo.org:234684</identifier>
      <datestamp>2017-01-08T23:56:23Z</datestamp>
      <setSpec>user-biosyslit</setSpec>
    </header>
    <header>
      <identifier>oai:zenodo.org:233528</identifier>
      <datestamp>2017-01-08T08:07:26Z</datestamp>
      <setSpec>user-biosyslit</setSpec>
    </header>
    <header>
      <identifier>oai:zenodo.org:234569</identifier>
      <datestamp>2017-01-08T21:49:15Z</datestamp>
      <setSpec>user-biosyslit</setSpec>
    </header>
    <header>
      <identifier>oai:zenodo.org:234323</identifier>
      <datestamp>2017-01-08T18:26:12Z</datestamp>
      <setSpec>user-biosyslit</setSpec>
    </header>
    <header>
      <identifier>oai:zenodo.org:233763</identifier>
      <datestamp>2017-01-08T11:28:47Z</datestamp>
      <setSpec>user-biosyslit</setSpec>
    </header>
    <header>
      <identifier>oai:zenodo.org:233093</identifier>
      <datestamp>2017-01-08T00:07:01Z</datestamp>
      <setSpec>user-biosyslit</setSpec>
    </header>
    <header>
      <identifier>oai:zenodo.org:270816</identifier>
      <datestamp>2017-02-07T23:57:19Z</datestamp>
      <setSpec>user-biosyslit</setSpec>
    </header>
    <header>
      <identifier>oai:zenodo.org:234568</identifier>
      <datestamp>2017-01-08T21:49:19Z</datestamp>
      <setSpec>user-biosyslit</setSpec>
    </header>
    <header>
      <identifier>oai:zenodo.org:236028</identifier>
      <datestamp>2017-01-09T18:01:26Z</datestamp>
      <setSpec>user-biosyslit</setSpec>
    </header>
    <header>
      <identifier>oai:zenodo.org:233748</identifier>
      <datestamp>2017-01-08T11:18:48Z</datestamp>
      <setSpec>user-biosyslit</setSpec>
    </header>
    <header>
      <identifier>oai:zenodo.org:270549</identifier>
      <datestamp>2017-02-07T23:26:58Z</datestamp>
      <setSpec>user-biosyslit</setSpec>
    </header>
    <header>
      <identifier>oai:zenodo.org:234516</identifier>
      <datestamp>2017-01-08T21:03:11Z</datestamp>
      <setSpec>user-biosyslit</setSpec>
    </header>
    <header>
      <identifier>oai:zenodo.org:234894</identifier>
      <datestamp>2017-01-09T03:13:35Z</datestamp>
      <setSpec>user-biosyslit</setSpec>
    </header>
    <header>
      <identifier>oai:zenodo.org:289447</identifier>
      <datestamp>2017-02-09T23:31:00Z</datestamp>
      <setSpec>user-biosyslit</setSpec>
    </header>
    <header>
      <identifier>oai:zenodo.org:234504</identifier>
      <datestamp>2017-01-08T20:57:11Z</datestamp>
      <setSpec>user-biosyslit</setSpec>
    </header>
    <header>
      <identifier>oai:zenodo.org:288784</identifier>
      <datestamp>2017-02-09T21:52:40Z</datestamp>
      <setSpec>user-biosyslit</setSpec>
    </header>
    <header>
      <identifier>oai:zenodo.org:289189</identifier>
      <datestamp>2017-02-09T22:55:40Z</datestamp>
      <setSpec>user-biosyslit</setSpec>
    </header>
    <header>
      <identifier>oai:zenodo.org:235528</identifier>
      <datestamp>2017-01-09T11:33:30Z</datestamp>
      <setSpec>user-biosyslit</setSpec>
    </header>
    <resumptionToken expirationDate="2017-08-31T15:46:02Z" cursor="45800" completeListSize="77796">.eJyNysEKgjAYAOB3-c8S0y0zoYto4kHFlqJewqaIOS1ckU5897x0rvP3zSCqqgQTbXRiEKLrhBga3m-RoYBgw53zS7MysDThrOdx4SavU5egTKt3gS1G385wIFsUdqqkx0hLVWOMGzRF5_iZydOYYO9NkbPzZTQFN299JQ5dnl_dB417i1OtHEInmqhq0Ryz71P_fPLns8UBFHgUdQUm0ZEC7bsYagHmvCwfpmxRRg.DInAQg.Gcpky0Q1_vNBrEybJoWC9UlfhbU</resumptionToken>
  </ListIdentifiers>
</OAI-PMH>
