<?xml version='1.0' encoding='UTF-8'?>
<?xml-stylesheet type="text/xsl" href="/static/xsl/oai2.v1.0.xsl"?>
<OAI-PMH xmlns="http://www.openarchives.org/OAI/2.0/" xmlns:xsi="http://www.w3.org/2001/XMLSchema-instance" xsi:schemaLocation="http://www.openarchives.org/OAI/2.0/ http://www.openarchives.org/OAI/2.0/OAI-PMH.xsd">
  <responseDate>2017-08-31T15:46:01Z</responseDate>
  <request verb="ListIdentifiers" resumptionToken=".eJyNysEKgjAYAOB3-c8SmzOnQhexpIOKLkW9hKlIOStcoU5897x0ru_8zSDqugILbdDWNImmGQYyVFPXTbpVQJT9g_PzdQ1Qpgkv7zwu3OQddQnK1Ib6jhg9JyO-bFHQYckOoZpiY4yvaApP8SuT0ZiQ48DQnnoynPzbcX0VCVyeX9wni-82Z2rVB_twYthmOSm_D__55M_niB0o8CyaGiyKqQLtUPSNAGtelg8bzVHA.DInAuQ.Lh1-ly1x2yL7Nxkz268ri58xhuA">https://zenodo.org/oai2d</request>
  <ListIdentifiers>
    <header>
      <identifier>oai:zenodo.org:245608</identifier>
      <datestamp>2017-01-15T16:14:10Z</datestamp>
      <setSpec>user-biosyslit</setSpec>
    </header>
    <header>
      <identifier>oai:zenodo.org:266339</identifier>
      <datestamp>2017-02-01T06:31:37Z</datestamp>
      <setSpec>user-biosyslit</setSpec>
    </header>
    <header>
      <identifier>oai:zenodo.org:266338</identifier>
      <datestamp>2017-02-01T06:31:33Z</datestamp>
      <setSpec>user-biosyslit</setSpec>
    </header>
    <header>
      <identifier>oai:zenodo.org:264366</identifier>
      <datestamp>2017-01-30T19:50:51Z</datestamp>
      <setSpec>user-biosyslit</setSpec>
    </header>
    <header>
      <identifier>oai:zenodo.org:244902</identifier>
      <datestamp>2017-01-15T04:52:30Z</datestamp>
      <setSpec>user-biosyslit</setSpec>
    </header>
    <header>
      <identifier>oai:zenodo.org:264369</identifier>
      <datestamp>2017-01-30T19:50:59Z</datestamp>
      <setSpec>user-biosyslit</setSpec>
    </header>
    <header>
      <identifier>oai:zenodo.org:264368</identifier>
      <datestamp>2017-01-30T19:50:56Z</datestamp>
      <setSpec>user-biosyslit</setSpec>
    </header>
    <header>
      <identifier>oai:zenodo.org:279027</identifier>
      <datestamp>2017-02-09T00:27:08Z</datestamp>
      <setSpec>user-biosyslit</setSpec>
    </header>
    <header>
      <identifier>oai:zenodo.org:244040</identifier>
      <datestamp>2017-01-14T15:38:55Z</datestamp>
      <setSpec>user-biosyslit</setSpec>
    </header>
    <header>
      <identifier>oai:zenodo.org:244042</identifier>
      <datestamp>2017-01-14T15:38:16Z</datestamp>
      <setSpec>user-biosyslit</setSpec>
    </header>
    <header>
      <identifier>oai:zenodo.org:235340</identifier>
      <datestamp>2017-01-09T09:03:45Z</datestamp>
      <setSpec>user-biosyslit</setSpec>
    </header>
    <header>
      <identifier>oai:zenodo.org:235339</identifier>
      <datestamp>2017-01-09T09:03:40Z</datestamp>
      <setSpec>user-biosyslit</setSpec>
    </header>
    <header>
      <identifier>oai:zenodo.org:241848</identifier>
      <datestamp>2017-01-13T06:53:06Z</datestamp>
      <setSpec>user-biosyslit</setSpec>
    </header>
    <header>
      <identifier>oai:zenodo.org:241843</identifier>
      <datestamp>2017-01-13T06:52:49Z</datestamp>
      <setSpec>user-biosyslit</setSpec>
    </header>
    <header>
      <identifier>oai:zenodo.org:241846</identifier>
      <datestamp>2017-01-13T06:52:58Z</datestamp>
      <setSpec>user-biosyslit</setSpec>
    </header>
    <header>
      <identifier>oai:zenodo.org:241847</identifier>
      <datestamp>2017-01-13T06:53:02Z</datestamp>
      <setSpec>user-biosyslit</setSpec>
    </header>
    <header>
      <identifier>oai:zenodo.org:235981</identifier>
      <datestamp>2017-01-09T17:36:02Z</datestamp>
      <setSpec>user-biosyslit</setSpec>
    </header>
    <header>
      <identifier>oai:zenodo.org:232451</identifier>
      <datestamp>2017-01-06T17:49:44Z</datestamp>
      <setSpec>user-biosyslit</setSpec>
    </header>
    <header>
      <identifier>oai:zenodo.org:232447</identifier>
      <datestamp>2017-01-06T17:49:28Z</datestamp>
      <setSpec>user-biosyslit</setSpec>
    </header>
    <header>
      <identifier>oai:zenodo.org:231591</identifier>
      <datestamp>2017-01-06T04:36:20Z</datestamp>
      <setSpec>user-biosyslit</setSpec>
    </header>
    <header>
      <identifier>oai:zenodo.org:228202</identifier>
      <datestamp>2017-01-02T19:39:55Z</datestamp>
      <setSpec>user-biosyslit</setSpec>
    </header>
    <header>
      <identifier>oai:zenodo.org:228199</identifier>
      <datestamp>2017-01-02T19:39:45Z</datestamp>
      <setSpec>user-biosyslit</setSpec>
    </header>
    <header>
      <identifier>oai:zenodo.org:276354</identifier>
      <datestamp>2017-02-08T18:41:23Z</datestamp>
      <setSpec>user-biosyslit</setSpec>
    </header>
    <header>
      <identifier>oai:zenodo.org:228198</identifier>
      <datestamp>2017-01-02T19:39:42Z</datestamp>
      <setSpec>user-biosyslit</setSpec>
    </header>
    <header>
      <identifier>oai:zenodo.org:276356</identifier>
      <datestamp>2017-02-08T18:41:28Z</datestamp>
      <setSpec>user-biosyslit</setSpec>
    </header>
    <header>
      <identifier>oai:zenodo.org:232017</identifier>
      <datestamp>2017-01-06T10:20:57Z</datestamp>
      <setSpec>user-biosyslit</setSpec>
    </header>
    <header>
      <identifier>oai:zenodo.org:232018</identifier>
      <datestamp>2017-01-06T10:20:53Z</datestamp>
      <setSpec>user-biosyslit</setSpec>
    </header>
    <header>
      <identifier>oai:zenodo.org:227593</identifier>
      <datestamp>2017-01-02T00:14:15Z</datestamp>
      <setSpec>user-biosyslit</setSpec>
    </header>
    <header>
      <identifier>oai:zenodo.org:227587</identifier>
      <datestamp>2017-01-02T00:13:49Z</datestamp>
      <setSpec>user-biosyslit</setSpec>
    </header>
    <header>
      <identifier>oai:zenodo.org:227585</identifier>
      <datestamp>2017-01-02T00:13:40Z</datestamp>
      <setSpec>user-biosyslit</setSpec>
    </header>
    <header>
      <identifier>oai:zenodo.org:227591</identifier>
      <datestamp>2017-01-02T00:14:08Z</datestamp>
      <setSpec>user-biosyslit</setSpec>
    </header>
    <header>
      <identifier>oai:zenodo.org:227592</identifier>
      <datestamp>2017-01-02T00:14:13Z</datestamp>
      <setSpec>user-biosyslit</setSpec>
    </header>
    <header>
      <identifier>oai:zenodo.org:227595</identifier>
      <datestamp>2017-01-02T00:14:24Z</datestamp>
      <setSpec>user-biosyslit</setSpec>
    </header>
    <header>
      <identifier>oai:zenodo.org:228730</identifier>
      <datestamp>2017-01-03T04:04:56Z</datestamp>
      <setSpec>user-biosyslit</setSpec>
    </header>
    <header>
      <identifier>oai:zenodo.org:228732</identifier>
      <datestamp>2017-01-03T04:04:47Z</datestamp>
      <setSpec>user-biosyslit</setSpec>
    </header>
    <header>
      <identifier>oai:zenodo.org:228733</identifier>
      <datestamp>2017-01-03T04:04:49Z</datestamp>
      <setSpec>user-biosyslit</setSpec>
    </header>
    <header>
      <identifier>oai:zenodo.org:251716</identifier>
      <datestamp>2017-01-19T04:04:46Z</datestamp>
      <setSpec>user-biosyslit</setSpec>
    </header>
    <header>
      <identifier>oai:zenodo.org:251730</identifier>
      <datestamp>2017-01-19T04:05:24Z</datestamp>
      <setSpec>user-biosyslit</setSpec>
    </header>
    <header>
      <identifier>oai:zenodo.org:251727</identifier>
      <datestamp>2017-01-19T04:05:17Z</datestamp>
      <setSpec>user-biosyslit</setSpec>
    </header>
    <header>
      <identifier>oai:zenodo.org:251719</identifier>
      <datestamp>2017-01-19T04:04:54Z</datestamp>
      <setSpec>user-biosyslit</setSpec>
    </header>
    <header>
      <identifier>oai:zenodo.org:251728</identifier>
      <datestamp>2017-01-19T04:05:19Z</datestamp>
      <setSpec>user-biosyslit</setSpec>
    </header>
    <header>
      <identifier>oai:zenodo.org:251725</identifier>
      <datestamp>2017-01-19T04:05:12Z</datestamp>
      <setSpec>user-biosyslit</setSpec>
    </header>
    <header>
      <identifier>oai:zenodo.org:251722</identifier>
      <datestamp>2017-01-19T04:05:04Z</datestamp>
      <setSpec>user-biosyslit</setSpec>
    </header>
    <header>
      <identifier>oai:zenodo.org:251729</identifier>
      <datestamp>2017-01-19T04:05:21Z</datestamp>
      <setSpec>user-biosyslit</setSpec>
    </header>
    <header>
      <identifier>oai:zenodo.org:227795</identifier>
      <datestamp>2017-01-02T05:05:10Z</datestamp>
      <setSpec>user-biosyslit</setSpec>
    </header>
    <header>
      <identifier>oai:zenodo.org:227793</identifier>
      <datestamp>2017-01-02T05:05:04Z</datestamp>
      <setSpec>user-biosyslit</setSpec>
    </header>
    <header>
      <identifier>oai:zenodo.org:227797</identifier>
      <datestamp>2017-01-02T05:05:16Z</datestamp>
      <setSpec>user-biosyslit</setSpec>
    </header>
    <header>
      <identifier>oai:zenodo.org:227799</identifier>
      <datestamp>2017-01-02T05:05:33Z</datestamp>
      <setSpec>user-biosyslit</setSpec>
    </header>
    <header>
      <identifier>oai:zenodo.org:249266</identifier>
      <datestamp>2017-01-17T18:11:43Z</datestamp>
      <setSpec>user-biosyslit</setSpec>
    </header>
    <header>
      <identifier>oai:zenodo.org:249274</identifier>
      <datestamp>2017-01-17T18:11:42Z</datestamp>
      <setSpec>user-biosyslit</setSpec>
    </header>
    <header>
      <identifier>oai:zenodo.org:818371</identifier>
      <datestamp>2017-06-26T10:43:31Z</datestamp>
      <setSpec>user-biosyslit</setSpec>
    </header>
    <header>
      <identifier>oai:zenodo.org:818389</identifier>
      <datestamp>2017-06-26T10:44:17Z</datestamp>
      <setSpec>user-biosyslit</setSpec>
    </header>
    <header>
      <identifier>oai:zenodo.org:818377</identifier>
      <datestamp>2017-06-26T10:43:46Z</datestamp>
      <setSpec>user-biosyslit</setSpec>
    </header>
    <header>
      <identifier>oai:zenodo.org:818379</identifier>
      <datestamp>2017-06-26T10:43:50Z</datestamp>
      <setSpec>user-biosyslit</setSpec>
    </header>
    <header>
      <identifier>oai:zenodo.org:818383</identifier>
      <datestamp>2017-06-26T10:44:02Z</datestamp>
      <setSpec>user-biosyslit</setSpec>
    </header>
    <header>
      <identifier>oai:zenodo.org:818385</identifier>
      <datestamp>2017-06-26T10:44:06Z</datestamp>
      <setSpec>user-biosyslit</setSpec>
    </header>
    <header>
      <identifier>oai:zenodo.org:818375</identifier>
      <datestamp>2017-06-26T10:43:42Z</datestamp>
      <setSpec>user-biosyslit</setSpec>
    </header>
    <header>
      <identifier>oai:zenodo.org:818387</identifier>
      <datestamp>2017-06-26T10:44:12Z</datestamp>
      <setSpec>user-biosyslit</setSpec>
    </header>
    <header>
      <identifier>oai:zenodo.org:818515</identifier>
      <datestamp>2017-06-26T11:23:00Z</datestamp>
      <setSpec>user-biosyslit</setSpec>
    </header>
    <header>
      <identifier>oai:zenodo.org:818495</identifier>
      <datestamp>2017-06-26T11:16:42Z</datestamp>
      <setSpec>user-biosyslit</setSpec>
    </header>
    <header>
      <identifier>oai:zenodo.org:818507</identifier>
      <datestamp>2017-06-26T11:16:33Z</datestamp>
      <setSpec>user-biosyslit</setSpec>
    </header>
    <header>
      <identifier>oai:zenodo.org:818529</identifier>
      <datestamp>2017-06-26T11:22:41Z</datestamp>
      <setSpec>user-biosyslit</setSpec>
    </header>
    <header>
      <identifier>oai:zenodo.org:818535</identifier>
      <datestamp>2017-06-26T11:22:53Z</datestamp>
      <setSpec>user-biosyslit</setSpec>
    </header>
    <header>
      <identifier>oai:zenodo.org:818509</identifier>
      <datestamp>2017-06-26T11:16:38Z</datestamp>
      <setSpec>user-biosyslit</setSpec>
    </header>
    <header>
      <identifier>oai:zenodo.org:818531</identifier>
      <datestamp>2017-06-26T11:22:46Z</datestamp>
      <setSpec>user-biosyslit</setSpec>
    </header>
    <header>
      <identifier>oai:zenodo.org:818523</identifier>
      <datestamp>2017-06-26T11:22:29Z</datestamp>
      <setSpec>user-biosyslit</setSpec>
    </header>
    <header>
      <identifier>oai:zenodo.org:818533</identifier>
      <datestamp>2017-06-26T11:22:49Z</datestamp>
      <setSpec>user-biosyslit</setSpec>
    </header>
    <header>
      <identifier>oai:zenodo.org:818578</identifier>
      <datestamp>2017-06-26T11:43:57Z</datestamp>
      <setSpec>user-biosyslit</setSpec>
    </header>
    <header>
      <identifier>oai:zenodo.org:818584</identifier>
      <datestamp>2017-06-26T11:43:48Z</datestamp>
      <setSpec>user-biosyslit</setSpec>
    </header>
    <header>
      <identifier>oai:zenodo.org:818586</identifier>
      <datestamp>2017-06-26T11:43:51Z</datestamp>
      <setSpec>user-biosyslit</setSpec>
    </header>
    <header>
      <identifier>oai:zenodo.org:818582</identifier>
      <datestamp>2017-06-26T11:43:43Z</datestamp>
      <setSpec>user-biosyslit</setSpec>
    </header>
    <header>
      <identifier>oai:zenodo.org:818722</identifier>
      <datestamp>2017-06-26T12:57:56Z</datestamp>
      <setSpec>user-biosyslit</setSpec>
    </header>
    <header>
      <identifier>oai:zenodo.org:818748</identifier>
      <datestamp>2017-06-26T13:08:29Z</datestamp>
      <setSpec>user-biosyslit</setSpec>
    </header>
    <header>
      <identifier>oai:zenodo.org:818752</identifier>
      <datestamp>2017-06-26T13:08:06Z</datestamp>
      <setSpec>user-biosyslit</setSpec>
    </header>
    <header>
      <identifier>oai:zenodo.org:818738</identifier>
      <datestamp>2017-06-26T13:02:20Z</datestamp>
      <setSpec>user-biosyslit</setSpec>
    </header>
    <header>
      <identifier>oai:zenodo.org:818754</identifier>
      <datestamp>2017-06-26T13:08:11Z</datestamp>
      <setSpec>user-biosyslit</setSpec>
    </header>
    <header>
      <identifier>oai:zenodo.org:818746</identifier>
      <datestamp>2017-06-26T13:02:35Z</datestamp>
      <setSpec>user-biosyslit</setSpec>
    </header>
    <header>
      <identifier>oai:zenodo.org:818744</identifier>
      <datestamp>2017-06-26T13:02:32Z</datestamp>
      <setSpec>user-biosyslit</setSpec>
    </header>
    <header>
      <identifier>oai:zenodo.org:818740</identifier>
      <datestamp>2017-06-26T13:02:24Z</datestamp>
      <setSpec>user-biosyslit</setSpec>
    </header>
    <header>
      <identifier>oai:zenodo.org:818736</identifier>
      <datestamp>2017-06-26T13:02:17Z</datestamp>
      <setSpec>user-biosyslit</setSpec>
    </header>
    <header>
      <identifier>oai:zenodo.org:287198</identifier>
      <datestamp>2017-02-09T17:42:17Z</datestamp>
      <setSpec>user-biosyslit</setSpec>
    </header>
    <header>
      <identifier>oai:zenodo.org:250437</identifier>
      <datestamp>2017-01-18T10:27:57Z</datestamp>
      <setSpec>user-biosyslit</setSpec>
    </header>
    <header>
      <identifier>oai:zenodo.org:262606</identifier>
      <datestamp>2017-01-29T06:12:13Z</datestamp>
      <setSpec>user-biosyslit</setSpec>
    </header>
    <header>
      <identifier>oai:zenodo.org:262600</identifier>
      <datestamp>2017-01-29T06:11:57Z</datestamp>
      <setSpec>user-biosyslit</setSpec>
    </header>
    <header>
      <identifier>oai:zenodo.org:262601</identifier>
      <datestamp>2017-01-29T06:12:00Z</datestamp>
      <setSpec>user-biosyslit</setSpec>
    </header>
    <header>
      <identifier>oai:zenodo.org:262607</identifier>
      <datestamp>2017-01-29T06:12:15Z</datestamp>
      <setSpec>user-biosyslit</setSpec>
    </header>
    <header>
      <identifier>oai:zenodo.org:269854</identifier>
      <datestamp>2017-02-07T20:34:16Z</datestamp>
      <setSpec>user-biosyslit</setSpec>
    </header>
    <header>
      <identifier>oai:zenodo.org:282710</identifier>
      <datestamp>2017-02-09T07:29:51Z</datestamp>
      <setSpec>user-biosyslit</setSpec>
    </header>
    <header>
      <identifier>oai:zenodo.org:269856</identifier>
      <datestamp>2017-02-07T20:34:02Z</datestamp>
      <setSpec>user-biosyslit</setSpec>
    </header>
    <header>
      <identifier>oai:zenodo.org:269861</identifier>
      <datestamp>2017-02-07T20:34:15Z</datestamp>
      <setSpec>user-biosyslit</setSpec>
    </header>
    <header>
      <identifier>oai:zenodo.org:282713</identifier>
      <datestamp>2017-02-09T07:29:42Z</datestamp>
      <setSpec>user-biosyslit</setSpec>
    </header>
    <header>
      <identifier>oai:zenodo.org:282711</identifier>
      <datestamp>2017-02-09T07:29:38Z</datestamp>
      <setSpec>user-biosyslit</setSpec>
    </header>
    <header>
      <identifier>oai:zenodo.org:282715</identifier>
      <datestamp>2017-02-09T07:29:46Z</datestamp>
      <setSpec>user-biosyslit</setSpec>
    </header>
    <header>
      <identifier>oai:zenodo.org:245254</identifier>
      <datestamp>2017-01-15T10:55:59Z</datestamp>
      <setSpec>user-biosyslit</setSpec>
    </header>
    <header>
      <identifier>oai:zenodo.org:274093</identifier>
      <datestamp>2017-02-08T12:08:04Z</datestamp>
      <setSpec>user-biosyslit</setSpec>
    </header>
    <header>
      <identifier>oai:zenodo.org:274095</identifier>
      <datestamp>2017-02-08T12:08:09Z</datestamp>
      <setSpec>user-biosyslit</setSpec>
    </header>
    <header>
      <identifier>oai:zenodo.org:274094</identifier>
      <datestamp>2017-02-08T12:08:06Z</datestamp>
      <setSpec>user-biosyslit</setSpec>
    </header>
    <header>
      <identifier>oai:zenodo.org:274092</identifier>
      <datestamp>2017-02-08T12:08:01Z</datestamp>
      <setSpec>user-biosyslit</setSpec>
    </header>
    <header>
      <identifier>oai:zenodo.org:258444</identifier>
      <datestamp>2017-01-23T22:59:02Z</datestamp>
      <setSpec>user-biosyslit</setSpec>
    </header>
    <header>
      <identifier>oai:zenodo.org:258454</identifier>
      <datestamp>2017-01-23T22:59:00Z</datestamp>
      <setSpec>user-biosyslit</setSpec>
    </header>
    <resumptionToken expirationDate="2017-08-31T15:48:01Z" cursor="71600" completeListSize="77796">.eJyNyk0LgjAYAOD_8p4ltvmZ0EUs6aAy1yS9hE2Rapq4Il303-vSuc7P8wTVNDX4aIEsx7K8pUts28bIWVoGKDFepTycPg5in0vRS15F-T3rclSQ1k1CNcVhYSb6gtIOa7ahZI-9iZ_QTHf8Vuhsys3tg6G1G2s6J-ft59VmGsnyGA2M94FkpB7TNZ0ZDlhpiu_Dfz7984VqBQYMVduA72LPgMujGlsF_vP1egPVq1F6.DInAuQ.FFu4NwCWDXyCW1E_0mn-XPXCWPQ</resumptionToken>
  </ListIdentifiers>
</OAI-PMH>
