<?xml version='1.0' encoding='UTF-8'?>
<?xml-stylesheet type="text/xsl" href="/static/xsl/oai2.v1.0.xsl"?>
<OAI-PMH xmlns="http://www.openarchives.org/OAI/2.0/" xmlns:xsi="http://www.w3.org/2001/XMLSchema-instance" xsi:schemaLocation="http://www.openarchives.org/OAI/2.0/ http://www.openarchives.org/OAI/2.0/OAI-PMH.xsd">
  <responseDate>2017-08-31T15:45:30Z</responseDate>
  <request verb="ListIdentifiers" resumptionToken=".eJyNys8PQlAcAPD_5Xu29n4osXUxsg4YL4ZLE2bVI_NqeOZ_z6VznT-fGURVlWCgDSE6VVWKNB3rRFfRVgFR9E_OL7fVoUhiXrQ8yp34HTYxSkmteZYYXSulnnwgv8GSHQOS4P0Y3dAUnKNXKsMxpqeBIVtzZTB599P6Suo7PLs6HYtakzNS9r4dTAybLKPF9-E_n_z5LHEABbq8rsDYbZECjyHvawHGvCwfz9lRbw.DInAmg.cbq5Xt9DQYNL9CCtdrOlEbb91qA">https://zenodo.org/oai2d</request>
  <ListIdentifiers>
    <header>
      <identifier>oai:zenodo.org:270847</identifier>
      <datestamp>2017-02-08T00:03:04Z</datestamp>
      <setSpec>user-biosyslit</setSpec>
    </header>
    <header>
      <identifier>oai:zenodo.org:270844</identifier>
      <datestamp>2017-02-08T00:03:18Z</datestamp>
      <setSpec>user-biosyslit</setSpec>
    </header>
    <header>
      <identifier>oai:zenodo.org:270852</identifier>
      <datestamp>2017-02-08T00:03:17Z</datestamp>
      <setSpec>user-biosyslit</setSpec>
    </header>
    <header>
      <identifier>oai:zenodo.org:240386</identifier>
      <datestamp>2017-01-12T08:04:47Z</datestamp>
      <setSpec>user-biosyslit</setSpec>
    </header>
    <header>
      <identifier>oai:zenodo.org:240390</identifier>
      <datestamp>2017-01-12T08:04:46Z</datestamp>
      <setSpec>user-biosyslit</setSpec>
    </header>
    <header>
      <identifier>oai:zenodo.org:240389</identifier>
      <datestamp>2017-01-12T08:04:43Z</datestamp>
      <setSpec>user-biosyslit</setSpec>
    </header>
    <header>
      <identifier>oai:zenodo.org:240387</identifier>
      <datestamp>2017-01-12T08:04:37Z</datestamp>
      <setSpec>user-biosyslit</setSpec>
    </header>
    <header>
      <identifier>oai:zenodo.org:240388</identifier>
      <datestamp>2017-01-12T08:04:40Z</datestamp>
      <setSpec>user-biosyslit</setSpec>
    </header>
    <header>
      <identifier>oai:zenodo.org:264645</identifier>
      <datestamp>2017-01-31T00:41:37Z</datestamp>
      <setSpec>user-biosyslit</setSpec>
    </header>
    <header>
      <identifier>oai:zenodo.org:232567</identifier>
      <datestamp>2017-01-06T19:55:33Z</datestamp>
      <setSpec>user-biosyslit</setSpec>
    </header>
    <header>
      <identifier>oai:zenodo.org:245785</identifier>
      <datestamp>2017-01-15T18:39:44Z</datestamp>
      <setSpec>user-biosyslit</setSpec>
    </header>
    <header>
      <identifier>oai:zenodo.org:264650</identifier>
      <datestamp>2017-01-31T00:41:27Z</datestamp>
      <setSpec>user-biosyslit</setSpec>
    </header>
    <header>
      <identifier>oai:zenodo.org:264648</identifier>
      <datestamp>2017-01-31T00:41:19Z</datestamp>
      <setSpec>user-biosyslit</setSpec>
    </header>
    <header>
      <identifier>oai:zenodo.org:264649</identifier>
      <datestamp>2017-01-31T00:41:24Z</datestamp>
      <setSpec>user-biosyslit</setSpec>
    </header>
    <header>
      <identifier>oai:zenodo.org:232570</identifier>
      <datestamp>2017-01-06T19:55:32Z</datestamp>
      <setSpec>user-biosyslit</setSpec>
    </header>
    <header>
      <identifier>oai:zenodo.org:245783</identifier>
      <datestamp>2017-01-15T18:40:00Z</datestamp>
      <setSpec>user-biosyslit</setSpec>
    </header>
    <header>
      <identifier>oai:zenodo.org:245787</identifier>
      <datestamp>2017-01-15T18:39:51Z</datestamp>
      <setSpec>user-biosyslit</setSpec>
    </header>
    <header>
      <identifier>oai:zenodo.org:245788</identifier>
      <datestamp>2017-01-15T18:39:55Z</datestamp>
      <setSpec>user-biosyslit</setSpec>
    </header>
    <header>
      <identifier>oai:zenodo.org:245786</identifier>
      <datestamp>2017-01-15T18:39:47Z</datestamp>
      <setSpec>user-biosyslit</setSpec>
    </header>
    <header>
      <identifier>oai:zenodo.org:250482</identifier>
      <datestamp>2017-01-18T10:47:26Z</datestamp>
      <setSpec>user-biosyslit</setSpec>
    </header>
    <header>
      <identifier>oai:zenodo.org:230715</identifier>
      <datestamp>2017-01-05T07:10:55Z</datestamp>
      <setSpec>user-biosyslit</setSpec>
    </header>
    <header>
      <identifier>oai:zenodo.org:250484</identifier>
      <datestamp>2017-01-18T10:47:32Z</datestamp>
      <setSpec>user-biosyslit</setSpec>
    </header>
    <header>
      <identifier>oai:zenodo.org:250479</identifier>
      <datestamp>2017-01-18T10:47:12Z</datestamp>
      <setSpec>user-biosyslit</setSpec>
    </header>
    <header>
      <identifier>oai:zenodo.org:247830</identifier>
      <datestamp>2017-01-16T20:24:27Z</datestamp>
      <setSpec>user-biosyslit</setSpec>
    </header>
    <header>
      <identifier>oai:zenodo.org:278639</identifier>
      <datestamp>2017-02-08T23:36:11Z</datestamp>
      <setSpec>user-biosyslit</setSpec>
    </header>
    <header>
      <identifier>oai:zenodo.org:247829</identifier>
      <datestamp>2017-01-16T20:24:05Z</datestamp>
      <setSpec>user-biosyslit</setSpec>
    </header>
    <header>
      <identifier>oai:zenodo.org:278640</identifier>
      <datestamp>2017-02-08T23:35:04Z</datestamp>
      <setSpec>user-biosyslit</setSpec>
    </header>
    <header>
      <identifier>oai:zenodo.org:278642</identifier>
      <datestamp>2017-02-08T23:35:10Z</datestamp>
      <setSpec>user-biosyslit</setSpec>
    </header>
    <header>
      <identifier>oai:zenodo.org:278643</identifier>
      <datestamp>2017-02-08T23:35:13Z</datestamp>
      <setSpec>user-biosyslit</setSpec>
    </header>
    <header>
      <identifier>oai:zenodo.org:278658</identifier>
      <datestamp>2017-02-08T23:36:00Z</datestamp>
      <setSpec>user-biosyslit</setSpec>
    </header>
    <header>
      <identifier>oai:zenodo.org:278654</identifier>
      <datestamp>2017-02-08T23:35:47Z</datestamp>
      <setSpec>user-biosyslit</setSpec>
    </header>
    <header>
      <identifier>oai:zenodo.org:278660</identifier>
      <datestamp>2017-02-08T23:36:10Z</datestamp>
      <setSpec>user-biosyslit</setSpec>
    </header>
    <header>
      <identifier>oai:zenodo.org:278644</identifier>
      <datestamp>2017-02-08T23:35:16Z</datestamp>
      <setSpec>user-biosyslit</setSpec>
    </header>
    <header>
      <identifier>oai:zenodo.org:278647</identifier>
      <datestamp>2017-02-08T23:35:25Z</datestamp>
      <setSpec>user-biosyslit</setSpec>
    </header>
    <header>
      <identifier>oai:zenodo.org:247828</identifier>
      <datestamp>2017-01-16T20:24:02Z</datestamp>
      <setSpec>user-biosyslit</setSpec>
    </header>
    <header>
      <identifier>oai:zenodo.org:247825</identifier>
      <datestamp>2017-01-16T20:23:49Z</datestamp>
      <setSpec>user-biosyslit</setSpec>
    </header>
    <header>
      <identifier>oai:zenodo.org:278655</identifier>
      <datestamp>2017-02-08T23:35:51Z</datestamp>
      <setSpec>user-biosyslit</setSpec>
    </header>
    <header>
      <identifier>oai:zenodo.org:237127</identifier>
      <datestamp>2017-01-10T11:16:53Z</datestamp>
      <setSpec>user-biosyslit</setSpec>
    </header>
    <header>
      <identifier>oai:zenodo.org:237128</identifier>
      <datestamp>2017-01-10T11:16:57Z</datestamp>
      <setSpec>user-biosyslit</setSpec>
    </header>
    <header>
      <identifier>oai:zenodo.org:237130</identifier>
      <datestamp>2017-01-10T11:17:03Z</datestamp>
      <setSpec>user-biosyslit</setSpec>
    </header>
    <header>
      <identifier>oai:zenodo.org:267085</identifier>
      <datestamp>2017-02-01T19:01:55Z</datestamp>
      <setSpec>user-biosyslit</setSpec>
    </header>
    <header>
      <identifier>oai:zenodo.org:237126</identifier>
      <datestamp>2017-01-10T11:16:50Z</datestamp>
      <setSpec>user-biosyslit</setSpec>
    </header>
    <header>
      <identifier>oai:zenodo.org:267089</identifier>
      <datestamp>2017-02-01T19:01:54Z</datestamp>
      <setSpec>user-biosyslit</setSpec>
    </header>
    <header>
      <identifier>oai:zenodo.org:236220</identifier>
      <datestamp>2017-01-09T19:36:54Z</datestamp>
      <setSpec>user-biosyslit</setSpec>
    </header>
    <header>
      <identifier>oai:zenodo.org:247831</identifier>
      <datestamp>2017-01-16T20:24:31Z</datestamp>
      <setSpec>user-biosyslit</setSpec>
    </header>
    <header>
      <identifier>oai:zenodo.org:247832</identifier>
      <datestamp>2017-01-16T20:24:35Z</datestamp>
      <setSpec>user-biosyslit</setSpec>
    </header>
    <header>
      <identifier>oai:zenodo.org:236223</identifier>
      <datestamp>2017-01-09T19:37:06Z</datestamp>
      <setSpec>user-biosyslit</setSpec>
    </header>
    <header>
      <identifier>oai:zenodo.org:236222</identifier>
      <datestamp>2017-01-09T19:37:01Z</datestamp>
      <setSpec>user-biosyslit</setSpec>
    </header>
    <header>
      <identifier>oai:zenodo.org:259141</identifier>
      <datestamp>2017-01-24T08:08:00Z</datestamp>
      <setSpec>user-biosyslit</setSpec>
    </header>
    <header>
      <identifier>oai:zenodo.org:259143</identifier>
      <datestamp>2017-01-24T08:07:59Z</datestamp>
      <setSpec>user-biosyslit</setSpec>
    </header>
    <header>
      <identifier>oai:zenodo.org:228306</identifier>
      <datestamp>2017-01-02T21:41:40Z</datestamp>
      <setSpec>user-biosyslit</setSpec>
    </header>
    <header>
      <identifier>oai:zenodo.org:228309</identifier>
      <datestamp>2017-01-02T21:41:31Z</datestamp>
      <setSpec>user-biosyslit</setSpec>
    </header>
    <header>
      <identifier>oai:zenodo.org:228307</identifier>
      <datestamp>2017-01-02T21:41:12Z</datestamp>
      <setSpec>user-biosyslit</setSpec>
    </header>
    <header>
      <identifier>oai:zenodo.org:228308</identifier>
      <datestamp>2017-01-02T21:41:28Z</datestamp>
      <setSpec>user-biosyslit</setSpec>
    </header>
    <header>
      <identifier>oai:zenodo.org:228310</identifier>
      <datestamp>2017-01-02T21:41:36Z</datestamp>
      <setSpec>user-biosyslit</setSpec>
    </header>
    <header>
      <identifier>oai:zenodo.org:239937</identifier>
      <datestamp>2017-01-12T02:36:05Z</datestamp>
      <setSpec>user-biosyslit</setSpec>
    </header>
    <header>
      <identifier>oai:zenodo.org:239938</identifier>
      <datestamp>2017-01-12T02:36:08Z</datestamp>
      <setSpec>user-biosyslit</setSpec>
    </header>
    <header>
      <identifier>oai:zenodo.org:239936</identifier>
      <datestamp>2017-01-12T02:36:14Z</datestamp>
      <setSpec>user-biosyslit</setSpec>
    </header>
    <header>
      <identifier>oai:zenodo.org:275060</identifier>
      <datestamp>2017-02-08T15:11:43Z</datestamp>
      <setSpec>user-biosyslit</setSpec>
    </header>
    <header>
      <identifier>oai:zenodo.org:275062</identifier>
      <datestamp>2017-02-08T15:11:42Z</datestamp>
      <setSpec>user-biosyslit</setSpec>
    </header>
    <header>
      <identifier>oai:zenodo.org:227870</identifier>
      <datestamp>2017-01-02T06:05:29Z</datestamp>
      <setSpec>user-biosyslit</setSpec>
    </header>
    <header>
      <identifier>oai:zenodo.org:227864</identifier>
      <datestamp>2017-01-02T06:05:08Z</datestamp>
      <setSpec>user-biosyslit</setSpec>
    </header>
    <header>
      <identifier>oai:zenodo.org:227867</identifier>
      <datestamp>2017-01-02T06:05:18Z</datestamp>
      <setSpec>user-biosyslit</setSpec>
    </header>
    <header>
      <identifier>oai:zenodo.org:227869</identifier>
      <datestamp>2017-01-02T06:05:26Z</datestamp>
      <setSpec>user-biosyslit</setSpec>
    </header>
    <header>
      <identifier>oai:zenodo.org:227866</identifier>
      <datestamp>2017-01-02T06:05:14Z</datestamp>
      <setSpec>user-biosyslit</setSpec>
    </header>
    <header>
      <identifier>oai:zenodo.org:274176</identifier>
      <datestamp>2017-02-08T12:19:16Z</datestamp>
      <setSpec>user-biosyslit</setSpec>
    </header>
    <header>
      <identifier>oai:zenodo.org:398980</identifier>
      <datestamp>2017-03-14T21:13:05Z</datestamp>
      <setSpec>user-biosyslit</setSpec>
    </header>
    <header>
      <identifier>oai:zenodo.org:274177</identifier>
      <datestamp>2017-02-08T12:19:03Z</datestamp>
      <setSpec>user-biosyslit</setSpec>
    </header>
    <header>
      <identifier>oai:zenodo.org:274179</identifier>
      <datestamp>2017-02-08T12:19:07Z</datestamp>
      <setSpec>user-biosyslit</setSpec>
    </header>
    <header>
      <identifier>oai:zenodo.org:277453</identifier>
      <datestamp>2017-02-08T21:10:41Z</datestamp>
      <setSpec>user-biosyslit</setSpec>
    </header>
    <header>
      <identifier>oai:zenodo.org:287647</identifier>
      <datestamp>2017-02-09T18:51:02Z</datestamp>
      <setSpec>user-biosyslit</setSpec>
    </header>
    <header>
      <identifier>oai:zenodo.org:277455</identifier>
      <datestamp>2017-02-08T21:10:34Z</datestamp>
      <setSpec>user-biosyslit</setSpec>
    </header>
    <header>
      <identifier>oai:zenodo.org:398986</identifier>
      <datestamp>2017-03-14T21:13:20Z</datestamp>
      <setSpec>user-biosyslit</setSpec>
    </header>
    <header>
      <identifier>oai:zenodo.org:398983</identifier>
      <datestamp>2017-03-14T21:13:13Z</datestamp>
      <setSpec>user-biosyslit</setSpec>
    </header>
    <header>
      <identifier>oai:zenodo.org:248495</identifier>
      <datestamp>2017-01-17T04:43:58Z</datestamp>
      <setSpec>user-biosyslit</setSpec>
    </header>
    <header>
      <identifier>oai:zenodo.org:248492</identifier>
      <datestamp>2017-01-17T04:43:48Z</datestamp>
      <setSpec>user-biosyslit</setSpec>
    </header>
    <header>
      <identifier>oai:zenodo.org:248494</identifier>
      <datestamp>2017-01-17T04:43:55Z</datestamp>
      <setSpec>user-biosyslit</setSpec>
    </header>
    <header>
      <identifier>oai:zenodo.org:248493</identifier>
      <datestamp>2017-01-17T04:43:50Z</datestamp>
      <setSpec>user-biosyslit</setSpec>
    </header>
    <header>
      <identifier>oai:zenodo.org:287644</identifier>
      <datestamp>2017-02-09T18:51:27Z</datestamp>
      <setSpec>user-biosyslit</setSpec>
    </header>
    <header>
      <identifier>oai:zenodo.org:287655</identifier>
      <datestamp>2017-02-09T18:51:23Z</datestamp>
      <setSpec>user-biosyslit</setSpec>
    </header>
    <header>
      <identifier>oai:zenodo.org:287653</identifier>
      <datestamp>2017-02-09T18:51:18Z</datestamp>
      <setSpec>user-biosyslit</setSpec>
    </header>
    <header>
      <identifier>oai:zenodo.org:287648</identifier>
      <datestamp>2017-02-09T18:51:04Z</datestamp>
      <setSpec>user-biosyslit</setSpec>
    </header>
    <header>
      <identifier>oai:zenodo.org:287650</identifier>
      <datestamp>2017-02-09T18:51:09Z</datestamp>
      <setSpec>user-biosyslit</setSpec>
    </header>
    <header>
      <identifier>oai:zenodo.org:287652</identifier>
      <datestamp>2017-02-09T18:51:14Z</datestamp>
      <setSpec>user-biosyslit</setSpec>
    </header>
    <header>
      <identifier>oai:zenodo.org:287651</identifier>
      <datestamp>2017-02-09T18:51:11Z</datestamp>
      <setSpec>user-biosyslit</setSpec>
    </header>
    <header>
      <identifier>oai:zenodo.org:287649</identifier>
      <datestamp>2017-02-09T18:51:06Z</datestamp>
      <setSpec>user-biosyslit</setSpec>
    </header>
    <header>
      <identifier>oai:zenodo.org:249801</identifier>
      <datestamp>2017-01-18T00:02:40Z</datestamp>
      <setSpec>user-biosyslit</setSpec>
    </header>
    <header>
      <identifier>oai:zenodo.org:249800</identifier>
      <datestamp>2017-01-18T00:02:36Z</datestamp>
      <setSpec>user-biosyslit</setSpec>
    </header>
    <header>
      <identifier>oai:zenodo.org:249794</identifier>
      <datestamp>2017-01-18T00:02:15Z</datestamp>
      <setSpec>user-biosyslit</setSpec>
    </header>
    <header>
      <identifier>oai:zenodo.org:249795</identifier>
      <datestamp>2017-01-18T00:02:21Z</datestamp>
      <setSpec>user-biosyslit</setSpec>
    </header>
    <header>
      <identifier>oai:zenodo.org:249796</identifier>
      <datestamp>2017-01-18T00:02:24Z</datestamp>
      <setSpec>user-biosyslit</setSpec>
    </header>
    <header>
      <identifier>oai:zenodo.org:249791</identifier>
      <datestamp>2017-01-18T00:02:02Z</datestamp>
      <setSpec>user-biosyslit</setSpec>
    </header>
    <header>
      <identifier>oai:zenodo.org:249799</identifier>
      <datestamp>2017-01-18T00:02:33Z</datestamp>
      <setSpec>user-biosyslit</setSpec>
    </header>
    <header>
      <identifier>oai:zenodo.org:249797</identifier>
      <datestamp>2017-01-18T00:02:27Z</datestamp>
      <setSpec>user-biosyslit</setSpec>
    </header>
    <header>
      <identifier>oai:zenodo.org:249789</identifier>
      <datestamp>2017-01-18T00:03:22Z</datestamp>
      <setSpec>user-biosyslit</setSpec>
    </header>
    <header>
      <identifier>oai:zenodo.org:249803</identifier>
      <datestamp>2017-01-18T00:02:48Z</datestamp>
      <setSpec>user-biosyslit</setSpec>
    </header>
    <header>
      <identifier>oai:zenodo.org:249811</identifier>
      <datestamp>2017-01-18T00:03:18Z</datestamp>
      <setSpec>user-biosyslit</setSpec>
    </header>
    <header>
      <identifier>oai:zenodo.org:249804</identifier>
      <datestamp>2017-01-18T00:02:52Z</datestamp>
      <setSpec>user-biosyslit</setSpec>
    </header>
    <header>
      <identifier>oai:zenodo.org:249809</identifier>
      <datestamp>2017-01-18T00:03:12Z</datestamp>
      <setSpec>user-biosyslit</setSpec>
    </header>
    <header>
      <identifier>oai:zenodo.org:249807</identifier>
      <datestamp>2017-01-18T00:03:05Z</datestamp>
      <setSpec>user-biosyslit</setSpec>
    </header>
    <resumptionToken expirationDate="2017-08-31T15:47:30Z" cursor="64900" completeListSize="77796">.eJyNysEKgjAYAOB3-c8S_5xpCV3Ekg4quhT1EjZFylnhCnXRu-elc33n7wWyriuwcYGGaRCCuKaIuLQsNDSQvL8JcTzPAXiWCn4VSemlz7hLMdcbK3Dl6Ls5DVSLYUcU20V6RlZjcsYpOiSPXMVjSvcDw63lq2gKLvv5VTT0RHHy7iy5OoLpVR9uo4kRhxWUfx_586mfz5Ub0OBeNjXY5pJo0A5l30iwX-_3B-yRUYo.DInAmg.QECe1LkJ2Hf_3nCU4dBA3M-PNw8</resumptionToken>
  </ListIdentifiers>
</OAI-PMH>
