<?xml version='1.0' encoding='UTF-8'?>
<?xml-stylesheet type="text/xsl" href="/static/xsl/oai2.v1.0.xsl"?>
<OAI-PMH xmlns="http://www.openarchives.org/OAI/2.0/" xmlns:xsi="http://www.w3.org/2001/XMLSchema-instance" xsi:schemaLocation="http://www.openarchives.org/OAI/2.0/ http://www.openarchives.org/OAI/2.0/OAI-PMH.xsd">
  <responseDate>2017-08-31T15:43:36Z</responseDate>
  <request verb="ListIdentifiers" resumptionToken=".eJyNyk0LgjAYAOD_8p4lNhebCl3CEg8ptjbUS5iKWOsDV6gL_3teOtf5ed6g67oCDy2oQ11KmeNiGy9dRC3QZXdX6tjODGUqVXlTogjka3-VKLMbFvl62PkZicwFxVds-DaxU-wMokVjchDPzOwHScKeow3bmWSMzuH8KhIHKj8FDy5ua8Xtqos3ycjxmuek_D785zM_n69XYMGjaGrwiMssuPRF12jw3tP0Aa2qUVY.DInAKA.NvxwETedUGC4UKCe2dmhteCg0SA">https://zenodo.org/oai2d</request>
  <ListIdentifiers>
    <header>
      <identifier>oai:zenodo.org:345271</identifier>
      <datestamp>2017-03-03T09:05:06Z</datestamp>
      <setSpec>user-biosyslit</setSpec>
    </header>
    <header>
      <identifier>oai:zenodo.org:280357</identifier>
      <datestamp>2017-02-09T03:15:43Z</datestamp>
      <setSpec>user-biosyslit</setSpec>
    </header>
    <header>
      <identifier>oai:zenodo.org:345800</identifier>
      <datestamp>2017-03-06T08:45:38Z</datestamp>
      <setSpec>user-biosyslit</setSpec>
    </header>
    <header>
      <identifier>oai:zenodo.org:279808</identifier>
      <datestamp>2017-02-09T02:05:25Z</datestamp>
      <setSpec>user-biosyslit</setSpec>
    </header>
    <header>
      <identifier>oai:zenodo.org:279779</identifier>
      <datestamp>2017-02-09T02:02:58Z</datestamp>
      <setSpec>user-biosyslit</setSpec>
    </header>
    <header>
      <identifier>oai:zenodo.org:281040</identifier>
      <datestamp>2017-02-09T04:36:49Z</datestamp>
      <setSpec>user-biosyslit</setSpec>
    </header>
    <header>
      <identifier>oai:zenodo.org:279813</identifier>
      <datestamp>2017-02-09T02:05:39Z</datestamp>
      <setSpec>user-biosyslit</setSpec>
    </header>
    <header>
      <identifier>oai:zenodo.org:280389</identifier>
      <datestamp>2017-02-09T03:18:38Z</datestamp>
      <setSpec>user-biosyslit</setSpec>
    </header>
    <header>
      <identifier>oai:zenodo.org:281028</identifier>
      <datestamp>2017-02-09T04:34:43Z</datestamp>
      <setSpec>user-biosyslit</setSpec>
    </header>
    <header>
      <identifier>oai:zenodo.org:280333</identifier>
      <datestamp>2017-02-09T03:12:43Z</datestamp>
      <setSpec>user-biosyslit</setSpec>
    </header>
    <header>
      <identifier>oai:zenodo.org:284463</identifier>
      <datestamp>2017-02-09T11:17:02Z</datestamp>
      <setSpec>user-biosyslit</setSpec>
    </header>
    <header>
      <identifier>oai:zenodo.org:283955</identifier>
      <datestamp>2017-02-09T10:08:04Z</datestamp>
      <setSpec>user-biosyslit</setSpec>
    </header>
    <header>
      <identifier>oai:zenodo.org:282821</identifier>
      <datestamp>2017-02-09T07:41:07Z</datestamp>
      <setSpec>user-biosyslit</setSpec>
    </header>
    <header>
      <identifier>oai:zenodo.org:282850</identifier>
      <datestamp>2017-02-09T07:43:28Z</datestamp>
      <setSpec>user-biosyslit</setSpec>
    </header>
    <header>
      <identifier>oai:zenodo.org:283214</identifier>
      <datestamp>2017-02-09T08:22:32Z</datestamp>
      <setSpec>user-biosyslit</setSpec>
    </header>
    <header>
      <identifier>oai:zenodo.org:283973</identifier>
      <datestamp>2017-02-09T10:08:52Z</datestamp>
      <setSpec>user-biosyslit</setSpec>
    </header>
    <header>
      <identifier>oai:zenodo.org:283688</identifier>
      <datestamp>2017-02-09T09:28:01Z</datestamp>
      <setSpec>user-biosyslit</setSpec>
    </header>
    <header>
      <identifier>oai:zenodo.org:284157</identifier>
      <datestamp>2017-02-09T10:35:30Z</datestamp>
      <setSpec>user-biosyslit</setSpec>
    </header>
    <header>
      <identifier>oai:zenodo.org:284017</identifier>
      <datestamp>2017-02-09T10:10:56Z</datestamp>
      <setSpec>user-biosyslit</setSpec>
    </header>
    <header>
      <identifier>oai:zenodo.org:284406</identifier>
      <datestamp>2017-02-09T11:10:54Z</datestamp>
      <setSpec>user-biosyslit</setSpec>
    </header>
    <header>
      <identifier>oai:zenodo.org:284486</identifier>
      <datestamp>2017-02-09T11:21:31Z</datestamp>
      <setSpec>user-biosyslit</setSpec>
    </header>
    <header>
      <identifier>oai:zenodo.org:287019</identifier>
      <datestamp>2017-02-09T17:19:14Z</datestamp>
      <setSpec>user-biosyslit</setSpec>
    </header>
    <header>
      <identifier>oai:zenodo.org:285474</identifier>
      <datestamp>2017-02-09T13:40:36Z</datestamp>
      <setSpec>user-biosyslit</setSpec>
    </header>
    <header>
      <identifier>oai:zenodo.org:285813</identifier>
      <datestamp>2017-02-09T14:36:32Z</datestamp>
      <setSpec>user-biosyslit</setSpec>
    </header>
    <header>
      <identifier>oai:zenodo.org:286568</identifier>
      <datestamp>2017-02-09T16:23:01Z</datestamp>
      <setSpec>user-biosyslit</setSpec>
    </header>
    <header>
      <identifier>oai:zenodo.org:285868</identifier>
      <datestamp>2017-02-09T14:43:49Z</datestamp>
      <setSpec>user-biosyslit</setSpec>
    </header>
    <header>
      <identifier>oai:zenodo.org:286746</identifier>
      <datestamp>2017-02-09T16:46:14Z</datestamp>
      <setSpec>user-biosyslit</setSpec>
    </header>
    <header>
      <identifier>oai:zenodo.org:286428</identifier>
      <datestamp>2017-02-09T15:57:59Z</datestamp>
      <setSpec>user-biosyslit</setSpec>
    </header>
    <header>
      <identifier>oai:zenodo.org:286636</identifier>
      <datestamp>2017-02-09T16:26:07Z</datestamp>
      <setSpec>user-biosyslit</setSpec>
    </header>
    <header>
      <identifier>oai:zenodo.org:286866</identifier>
      <datestamp>2017-02-09T16:58:15Z</datestamp>
      <setSpec>user-biosyslit</setSpec>
    </header>
    <header>
      <identifier>oai:zenodo.org:286717</identifier>
      <datestamp>2017-02-09T16:38:13Z</datestamp>
      <setSpec>user-biosyslit</setSpec>
    </header>
    <header>
      <identifier>oai:zenodo.org:286409</identifier>
      <datestamp>2017-02-09T15:57:09Z</datestamp>
      <setSpec>user-biosyslit</setSpec>
    </header>
    <header>
      <identifier>oai:zenodo.org:286394</identifier>
      <datestamp>2017-02-09T15:55:00Z</datestamp>
      <setSpec>user-biosyslit</setSpec>
    </header>
    <header>
      <identifier>oai:zenodo.org:286691</identifier>
      <datestamp>2017-02-09T16:33:16Z</datestamp>
      <setSpec>user-biosyslit</setSpec>
    </header>
    <header>
      <identifier>oai:zenodo.org:288023</identifier>
      <datestamp>2017-02-09T19:49:52Z</datestamp>
      <setSpec>user-biosyslit</setSpec>
    </header>
    <header>
      <identifier>oai:zenodo.org:287664</identifier>
      <datestamp>2017-02-09T18:52:24Z</datestamp>
      <setSpec>user-biosyslit</setSpec>
    </header>
    <header>
      <identifier>oai:zenodo.org:287848</identifier>
      <datestamp>2017-02-09T19:26:14Z</datestamp>
      <setSpec>user-biosyslit</setSpec>
    </header>
    <header>
      <identifier>oai:zenodo.org:287950</identifier>
      <datestamp>2017-02-09T19:40:12Z</datestamp>
      <setSpec>user-biosyslit</setSpec>
    </header>
    <header>
      <identifier>oai:zenodo.org:288453</identifier>
      <datestamp>2017-02-09T20:58:34Z</datestamp>
      <setSpec>user-biosyslit</setSpec>
    </header>
    <header>
      <identifier>oai:zenodo.org:288530</identifier>
      <datestamp>2017-02-09T21:05:44Z</datestamp>
      <setSpec>user-biosyslit</setSpec>
    </header>
    <header>
      <identifier>oai:zenodo.org:289534</identifier>
      <datestamp>2017-02-09T23:48:33Z</datestamp>
      <setSpec>user-biosyslit</setSpec>
    </header>
    <header>
      <identifier>oai:zenodo.org:289661</identifier>
      <datestamp>2017-02-10T00:02:39Z</datestamp>
      <setSpec>user-biosyslit</setSpec>
    </header>
    <header>
      <identifier>oai:zenodo.org:289747</identifier>
      <datestamp>2017-02-10T00:25:26Z</datestamp>
      <setSpec>user-biosyslit</setSpec>
    </header>
    <header>
      <identifier>oai:zenodo.org:289795</identifier>
      <datestamp>2017-02-10T00:30:53Z</datestamp>
      <setSpec>user-biosyslit</setSpec>
    </header>
    <header>
      <identifier>oai:zenodo.org:279465</identifier>
      <datestamp>2017-02-09T01:24:47Z</datestamp>
      <setSpec>user-biosyslit</setSpec>
    </header>
    <header>
      <identifier>oai:zenodo.org:294091</identifier>
      <datestamp>2017-02-20T19:16:57Z</datestamp>
      <setSpec>user-biosyslit</setSpec>
    </header>
    <header>
      <identifier>oai:zenodo.org:294039</identifier>
      <datestamp>2017-02-20T19:11:03Z</datestamp>
      <setSpec>user-biosyslit</setSpec>
    </header>
    <header>
      <identifier>oai:zenodo.org:305469</identifier>
      <datestamp>2017-02-20T22:40:22Z</datestamp>
      <setSpec>user-biosyslit</setSpec>
    </header>
    <header>
      <identifier>oai:zenodo.org:310971</identifier>
      <datestamp>2017-02-21T00:13:08Z</datestamp>
      <setSpec>user-biosyslit</setSpec>
    </header>
    <header>
      <identifier>oai:zenodo.org:322120</identifier>
      <datestamp>2017-02-24T07:33:52Z</datestamp>
      <setSpec>user-biosyslit</setSpec>
    </header>
    <header>
      <identifier>oai:zenodo.org:321919</identifier>
      <datestamp>2017-02-23T21:25:00Z</datestamp>
      <setSpec>user-biosyslit</setSpec>
    </header>
    <header>
      <identifier>oai:zenodo.org:321981</identifier>
      <datestamp>2017-02-24T07:21:24Z</datestamp>
      <setSpec>user-biosyslit</setSpec>
    </header>
    <header>
      <identifier>oai:zenodo.org:322225</identifier>
      <datestamp>2017-02-24T07:38:26Z</datestamp>
      <setSpec>user-biosyslit</setSpec>
    </header>
    <header>
      <identifier>oai:zenodo.org:322080</identifier>
      <datestamp>2017-02-24T07:29:37Z</datestamp>
      <setSpec>user-biosyslit</setSpec>
    </header>
    <header>
      <identifier>oai:zenodo.org:321967</identifier>
      <datestamp>2017-02-24T07:19:45Z</datestamp>
      <setSpec>user-biosyslit</setSpec>
    </header>
    <header>
      <identifier>oai:zenodo.org:322165</identifier>
      <datestamp>2017-02-24T07:35:54Z</datestamp>
      <setSpec>user-biosyslit</setSpec>
    </header>
    <header>
      <identifier>oai:zenodo.org:322758</identifier>
      <datestamp>2017-02-27T10:35:13Z</datestamp>
      <setSpec>user-biosyslit</setSpec>
    </header>
    <header>
      <identifier>oai:zenodo.org:322756</identifier>
      <datestamp>2017-02-27T10:35:09Z</datestamp>
      <setSpec>user-biosyslit</setSpec>
    </header>
    <header>
      <identifier>oai:zenodo.org:573670</identifier>
      <datestamp>2017-05-10T08:45:32Z</datestamp>
      <setSpec>user-biosyslit</setSpec>
    </header>
    <header>
      <identifier>oai:zenodo.org:574234</identifier>
      <datestamp>2017-05-11T07:24:17Z</datestamp>
      <setSpec>user-biosyslit</setSpec>
    </header>
    <header>
      <identifier>oai:zenodo.org:574375</identifier>
      <datestamp>2017-05-17T07:21:31Z</datestamp>
      <setSpec>openaire</setSpec>
      <setSpec>user-biosyslit</setSpec>
    </header>
    <header>
      <identifier>oai:zenodo.org:574640</identifier>
      <datestamp>2017-05-11T12:53:50Z</datestamp>
      <setSpec>user-biosyslit</setSpec>
    </header>
    <header>
      <identifier>oai:zenodo.org:343990</identifier>
      <datestamp>2017-02-28T23:49:53Z</datestamp>
      <setSpec>user-biosyslit</setSpec>
    </header>
    <header>
      <identifier>oai:zenodo.org:343985</identifier>
      <datestamp>2017-02-28T23:49:58Z</datestamp>
      <setSpec>openaire</setSpec>
      <setSpec>user-biosyslit</setSpec>
    </header>
    <header>
      <identifier>oai:zenodo.org:343797</identifier>
      <datestamp>2017-02-28T08:52:09Z</datestamp>
      <setSpec>user-biosyslit</setSpec>
    </header>
    <header>
      <identifier>oai:zenodo.org:279730</identifier>
      <datestamp>2017-02-09T01:57:34Z</datestamp>
      <setSpec>user-biosyslit</setSpec>
    </header>
    <header>
      <identifier>oai:zenodo.org:575353</identifier>
      <datestamp>2017-05-12T08:07:22Z</datestamp>
      <setSpec>user-biosyslit</setSpec>
    </header>
    <header>
      <identifier>oai:zenodo.org:343814</identifier>
      <datestamp>2017-02-28T08:52:58Z</datestamp>
      <setSpec>user-biosyslit</setSpec>
    </header>
    <header>
      <identifier>oai:zenodo.org:575661</identifier>
      <datestamp>2017-05-12T08:30:05Z</datestamp>
      <setSpec>user-biosyslit</setSpec>
    </header>
    <header>
      <identifier>oai:zenodo.org:286750</identifier>
      <datestamp>2017-02-09T16:45:19Z</datestamp>
      <setSpec>user-biosyslit</setSpec>
    </header>
    <header>
      <identifier>oai:zenodo.org:286389</identifier>
      <datestamp>2017-02-09T15:54:47Z</datestamp>
      <setSpec>user-biosyslit</setSpec>
    </header>
    <header>
      <identifier>oai:zenodo.org:286765</identifier>
      <datestamp>2017-02-09T16:45:53Z</datestamp>
      <setSpec>user-biosyslit</setSpec>
    </header>
    <header>
      <identifier>oai:zenodo.org:287760</identifier>
      <datestamp>2017-02-09T19:12:21Z</datestamp>
      <setSpec>user-biosyslit</setSpec>
    </header>
    <header>
      <identifier>oai:zenodo.org:289504</identifier>
      <datestamp>2017-02-09T23:42:53Z</datestamp>
      <setSpec>user-biosyslit</setSpec>
    </header>
    <header>
      <identifier>oai:zenodo.org:288535</identifier>
      <datestamp>2017-02-09T21:06:00Z</datestamp>
      <setSpec>user-biosyslit</setSpec>
    </header>
    <header>
      <identifier>oai:zenodo.org:288774</identifier>
      <datestamp>2017-02-09T21:52:03Z</datestamp>
      <setSpec>user-biosyslit</setSpec>
    </header>
    <header>
      <identifier>oai:zenodo.org:288538</identifier>
      <datestamp>2017-02-09T21:06:08Z</datestamp>
      <setSpec>user-biosyslit</setSpec>
    </header>
    <header>
      <identifier>oai:zenodo.org:289435</identifier>
      <datestamp>2017-02-09T23:30:29Z</datestamp>
      <setSpec>user-biosyslit</setSpec>
    </header>
    <header>
      <identifier>oai:zenodo.org:289073</identifier>
      <datestamp>2017-02-09T22:34:00Z</datestamp>
      <setSpec>user-biosyslit</setSpec>
    </header>
    <header>
      <identifier>oai:zenodo.org:289102</identifier>
      <datestamp>2017-02-09T22:38:00Z</datestamp>
      <setSpec>user-biosyslit</setSpec>
    </header>
    <header>
      <identifier>oai:zenodo.org:289767</identifier>
      <datestamp>2017-02-10T00:27:08Z</datestamp>
      <setSpec>user-biosyslit</setSpec>
    </header>
    <header>
      <identifier>oai:zenodo.org:289931</identifier>
      <datestamp>2017-02-10T00:47:30Z</datestamp>
      <setSpec>user-biosyslit</setSpec>
    </header>
    <header>
      <identifier>oai:zenodo.org:293530</identifier>
      <datestamp>2017-02-19T13:46:37Z</datestamp>
      <setSpec>user-biosyslit</setSpec>
    </header>
    <header>
      <identifier>oai:zenodo.org:293894</identifier>
      <datestamp>2017-02-20T18:55:49Z</datestamp>
      <setSpec>user-biosyslit</setSpec>
    </header>
    <header>
      <identifier>oai:zenodo.org:322251</identifier>
      <datestamp>2017-02-24T08:34:31Z</datestamp>
      <setSpec>user-biosyslit</setSpec>
    </header>
    <header>
      <identifier>oai:zenodo.org:321271</identifier>
      <datestamp>2017-02-21T09:22:02Z</datestamp>
      <setSpec>user-biosyslit</setSpec>
    </header>
    <header>
      <identifier>oai:zenodo.org:322872</identifier>
      <datestamp>2017-02-28T23:51:01Z</datestamp>
      <setSpec>openaire</setSpec>
      <setSpec>user-biosyslit</setSpec>
    </header>
    <header>
      <identifier>oai:zenodo.org:573636</identifier>
      <datestamp>2017-05-10T07:35:59Z</datestamp>
      <setSpec>user-biosyslit</setSpec>
    </header>
    <header>
      <identifier>oai:zenodo.org:279913</identifier>
      <datestamp>2017-02-09T02:17:08Z</datestamp>
      <setSpec>user-biosyslit</setSpec>
    </header>
    <header>
      <identifier>oai:zenodo.org:573676</identifier>
      <datestamp>2017-05-10T08:55:40Z</datestamp>
      <setSpec>user-biosyslit</setSpec>
    </header>
    <header>
      <identifier>oai:zenodo.org:280329</identifier>
      <datestamp>2017-02-09T03:12:33Z</datestamp>
      <setSpec>user-biosyslit</setSpec>
    </header>
    <header>
      <identifier>oai:zenodo.org:343773</identifier>
      <datestamp>2017-02-28T08:26:25Z</datestamp>
      <setSpec>user-biosyslit</setSpec>
    </header>
    <header>
      <identifier>oai:zenodo.org:279724</identifier>
      <datestamp>2017-02-09T01:57:18Z</datestamp>
      <setSpec>user-biosyslit</setSpec>
    </header>
    <header>
      <identifier>oai:zenodo.org:343959</identifier>
      <datestamp>2017-02-28T23:50:30Z</datestamp>
      <setSpec>user-biosyslit</setSpec>
    </header>
    <header>
      <identifier>oai:zenodo.org:580467</identifier>
      <datestamp>2017-05-17T07:16:25Z</datestamp>
      <setSpec>user-biosyslit</setSpec>
    </header>
    <header>
      <identifier>oai:zenodo.org:343766</identifier>
      <datestamp>2017-02-28T08:26:09Z</datestamp>
      <setSpec>user-biosyslit</setSpec>
    </header>
    <header>
      <identifier>oai:zenodo.org:343994</identifier>
      <datestamp>2017-02-28T23:49:49Z</datestamp>
      <setSpec>user-biosyslit</setSpec>
    </header>
    <header>
      <identifier>oai:zenodo.org:280279</identifier>
      <datestamp>2017-02-09T03:06:21Z</datestamp>
      <setSpec>user-biosyslit</setSpec>
    </header>
    <header>
      <identifier>oai:zenodo.org:343834</identifier>
      <datestamp>2017-02-28T09:22:18Z</datestamp>
      <setSpec>user-biosyslit</setSpec>
    </header>
    <header>
      <identifier>oai:zenodo.org:344129</identifier>
      <datestamp>2017-02-28T23:43:25Z</datestamp>
      <setSpec>openaire_data</setSpec>
      <setSpec>user-biosyslit</setSpec>
    </header>
    <resumptionToken expirationDate="2017-08-31T15:45:36Z" cursor="39600" completeListSize="77796">.eJyNyk0LgjAYAOD_8p4lNpfzA7qEJh5UbCnZJUxFzGniinTif89L5zo_zwyiLAuw0EanGibEpBo1KN2qmgIiHx6cX-uVIT8nPO94nLnJ69gmKFUrPbDF6NspCWSDwhZLdojUMzbGuEZTdIqfqTyOCfHeDDm6L6MpuHvrK0jo8svN7Vnc7TlTiyF0oonhPbuQ_Pvwn0_-fLbYgQJ9VpVgEdNQoHlnQyXAmpflA6fbUVE.DInAKA.nqX2deaBGhc69RghxG2OVhtIFtQ</resumptionToken>
  </ListIdentifiers>
</OAI-PMH>
