<?xml version='1.0' encoding='UTF-8'?>
<?xml-stylesheet type="text/xsl" href="/static/xsl/oai2.v1.0.xsl"?>
<OAI-PMH xmlns="http://www.openarchives.org/OAI/2.0/" xmlns:xsi="http://www.w3.org/2001/XMLSchema-instance" xsi:schemaLocation="http://www.openarchives.org/OAI/2.0/ http://www.openarchives.org/OAI/2.0/OAI-PMH.xsd">
  <responseDate>2017-08-31T15:42:22Z</responseDate>
  <request verb="ListIdentifiers" resumptionToken=".eJyNyj0PQ0AYAOD_8s7S3EdbIukiVAwIV4KlUUS0R8W1wYn_Xkvndn6eBURVlaCjHdK0IznuKSEaPagqogqIYnhyfm02hyKJedHxKLfjd9jGKCW16plics2UevKB_BZLdg5IgrUpatAcXKJXKsMpps7IkKW6Mpi9u7O9kvo2z252z6LO4IyUg28FM8MGy2jxffjPJ38-U5xAgT6vK9AJxgo8xnyoBejLun4A0IRRaQ.DIm_3g.8iTerZYPsKM1mIFnCYhGk1Y3auA">https://zenodo.org/oai2d</request>
  <ListIdentifiers>
    <header>
      <identifier>oai:zenodo.org:576995</identifier>
      <datestamp>2017-06-02T14:35:46Z</datestamp>
      <setSpec>openaire</setSpec>
      <setSpec>user-biosyslit</setSpec>
    </header>
    <header>
      <identifier>oai:zenodo.org:578940</identifier>
      <datestamp>2017-06-02T14:35:40Z</datestamp>
      <setSpec>openaire</setSpec>
      <setSpec>user-biosyslit</setSpec>
    </header>
    <header>
      <identifier>oai:zenodo.org:578598</identifier>
      <datestamp>2017-06-02T14:35:48Z</datestamp>
      <setSpec>openaire</setSpec>
      <setSpec>user-biosyslit</setSpec>
    </header>
    <header>
      <identifier>oai:zenodo.org:575551</identifier>
      <datestamp>2017-06-02T14:35:49Z</datestamp>
      <setSpec>openaire</setSpec>
      <setSpec>user-biosyslit</setSpec>
    </header>
    <header>
      <identifier>oai:zenodo.org:574586</identifier>
      <datestamp>2017-06-02T14:35:43Z</datestamp>
      <setSpec>openaire</setSpec>
      <setSpec>user-biosyslit</setSpec>
    </header>
    <header>
      <identifier>oai:zenodo.org:577172</identifier>
      <datestamp>2017-06-02T14:35:37Z</datestamp>
      <setSpec>openaire</setSpec>
      <setSpec>user-biosyslit</setSpec>
    </header>
    <header>
      <identifier>oai:zenodo.org:577345</identifier>
      <datestamp>2017-06-02T14:35:39Z</datestamp>
      <setSpec>openaire</setSpec>
      <setSpec>user-biosyslit</setSpec>
    </header>
    <header>
      <identifier>oai:zenodo.org:579187</identifier>
      <datestamp>2017-06-02T14:37:27Z</datestamp>
      <setSpec>openaire</setSpec>
      <setSpec>user-biosyslit</setSpec>
    </header>
    <header>
      <identifier>oai:zenodo.org:576541</identifier>
      <datestamp>2017-06-02T14:37:27Z</datestamp>
      <setSpec>openaire</setSpec>
      <setSpec>user-biosyslit</setSpec>
    </header>
    <header>
      <identifier>oai:zenodo.org:579015</identifier>
      <datestamp>2017-06-02T14:37:25Z</datestamp>
      <setSpec>openaire</setSpec>
      <setSpec>user-biosyslit</setSpec>
    </header>
    <header>
      <identifier>oai:zenodo.org:578827</identifier>
      <datestamp>2017-06-02T14:37:26Z</datestamp>
      <setSpec>openaire</setSpec>
      <setSpec>user-biosyslit</setSpec>
    </header>
    <header>
      <identifier>oai:zenodo.org:578824</identifier>
      <datestamp>2017-06-02T14:37:33Z</datestamp>
      <setSpec>openaire</setSpec>
      <setSpec>user-biosyslit</setSpec>
    </header>
    <header>
      <identifier>oai:zenodo.org:574671</identifier>
      <datestamp>2017-06-02T14:37:19Z</datestamp>
      <setSpec>openaire</setSpec>
      <setSpec>user-biosyslit</setSpec>
    </header>
    <header>
      <identifier>oai:zenodo.org:579126</identifier>
      <datestamp>2017-06-02T14:37:32Z</datestamp>
      <setSpec>openaire</setSpec>
      <setSpec>user-biosyslit</setSpec>
    </header>
    <header>
      <identifier>oai:zenodo.org:578720</identifier>
      <datestamp>2017-06-02T14:37:29Z</datestamp>
      <setSpec>openaire</setSpec>
      <setSpec>user-biosyslit</setSpec>
    </header>
    <header>
      <identifier>oai:zenodo.org:577118</identifier>
      <datestamp>2017-06-02T14:37:28Z</datestamp>
      <setSpec>openaire</setSpec>
      <setSpec>user-biosyslit</setSpec>
    </header>
    <header>
      <identifier>oai:zenodo.org:578102</identifier>
      <datestamp>2017-06-02T14:37:22Z</datestamp>
      <setSpec>openaire</setSpec>
      <setSpec>user-biosyslit</setSpec>
    </header>
    <header>
      <identifier>oai:zenodo.org:574296</identifier>
      <datestamp>2017-06-02T14:37:23Z</datestamp>
      <setSpec>openaire</setSpec>
      <setSpec>user-biosyslit</setSpec>
    </header>
    <header>
      <identifier>oai:zenodo.org:576633</identifier>
      <datestamp>2017-06-02T14:39:52Z</datestamp>
      <setSpec>openaire</setSpec>
      <setSpec>user-biosyslit</setSpec>
    </header>
    <header>
      <identifier>oai:zenodo.org:575289</identifier>
      <datestamp>2017-06-02T14:39:53Z</datestamp>
      <setSpec>openaire</setSpec>
      <setSpec>user-biosyslit</setSpec>
    </header>
    <header>
      <identifier>oai:zenodo.org:574706</identifier>
      <datestamp>2017-06-02T14:39:43Z</datestamp>
      <setSpec>openaire</setSpec>
      <setSpec>user-biosyslit</setSpec>
    </header>
    <header>
      <identifier>oai:zenodo.org:576863</identifier>
      <datestamp>2017-06-02T14:39:54Z</datestamp>
      <setSpec>openaire</setSpec>
      <setSpec>user-biosyslit</setSpec>
    </header>
    <header>
      <identifier>oai:zenodo.org:575704</identifier>
      <datestamp>2017-06-02T14:39:43Z</datestamp>
      <setSpec>openaire</setSpec>
      <setSpec>user-biosyslit</setSpec>
    </header>
    <header>
      <identifier>oai:zenodo.org:576140</identifier>
      <datestamp>2017-06-02T14:39:44Z</datestamp>
      <setSpec>openaire</setSpec>
      <setSpec>user-biosyslit</setSpec>
    </header>
    <header>
      <identifier>oai:zenodo.org:578654</identifier>
      <datestamp>2017-06-02T14:39:50Z</datestamp>
      <setSpec>openaire</setSpec>
      <setSpec>user-biosyslit</setSpec>
    </header>
    <header>
      <identifier>oai:zenodo.org:579110</identifier>
      <datestamp>2017-06-02T14:39:52Z</datestamp>
      <setSpec>openaire</setSpec>
      <setSpec>user-biosyslit</setSpec>
    </header>
    <header>
      <identifier>oai:zenodo.org:576340</identifier>
      <datestamp>2017-06-02T14:39:48Z</datestamp>
      <setSpec>openaire</setSpec>
      <setSpec>user-biosyslit</setSpec>
    </header>
    <header>
      <identifier>oai:zenodo.org:577224</identifier>
      <datestamp>2017-06-02T14:39:48Z</datestamp>
      <setSpec>openaire</setSpec>
      <setSpec>user-biosyslit</setSpec>
    </header>
    <header>
      <identifier>oai:zenodo.org:578587</identifier>
      <datestamp>2017-06-02T14:41:23Z</datestamp>
      <setSpec>openaire</setSpec>
      <setSpec>user-biosyslit</setSpec>
    </header>
    <header>
      <identifier>oai:zenodo.org:576165</identifier>
      <datestamp>2017-06-02T14:41:23Z</datestamp>
      <setSpec>openaire</setSpec>
      <setSpec>user-biosyslit</setSpec>
    </header>
    <header>
      <identifier>oai:zenodo.org:577537</identifier>
      <datestamp>2017-06-02T14:41:30Z</datestamp>
      <setSpec>openaire</setSpec>
      <setSpec>user-biosyslit</setSpec>
    </header>
    <header>
      <identifier>oai:zenodo.org:575712</identifier>
      <datestamp>2017-06-02T14:41:31Z</datestamp>
      <setSpec>openaire</setSpec>
      <setSpec>user-biosyslit</setSpec>
    </header>
    <header>
      <identifier>oai:zenodo.org:576396</identifier>
      <datestamp>2017-06-02T14:41:29Z</datestamp>
      <setSpec>openaire</setSpec>
      <setSpec>user-biosyslit</setSpec>
    </header>
    <header>
      <identifier>oai:zenodo.org:577698</identifier>
      <datestamp>2017-06-02T14:41:35Z</datestamp>
      <setSpec>openaire</setSpec>
      <setSpec>user-biosyslit</setSpec>
    </header>
    <header>
      <identifier>oai:zenodo.org:577706</identifier>
      <datestamp>2017-06-02T14:41:34Z</datestamp>
      <setSpec>openaire</setSpec>
      <setSpec>user-biosyslit</setSpec>
    </header>
    <header>
      <identifier>oai:zenodo.org:578569</identifier>
      <datestamp>2017-06-02T14:41:33Z</datestamp>
      <setSpec>openaire</setSpec>
      <setSpec>user-biosyslit</setSpec>
    </header>
    <header>
      <identifier>oai:zenodo.org:575844</identifier>
      <datestamp>2017-06-02T14:41:26Z</datestamp>
      <setSpec>openaire</setSpec>
      <setSpec>user-biosyslit</setSpec>
    </header>
    <header>
      <identifier>oai:zenodo.org:578476</identifier>
      <datestamp>2017-06-02T14:41:24Z</datestamp>
      <setSpec>openaire</setSpec>
      <setSpec>user-biosyslit</setSpec>
    </header>
    <header>
      <identifier>oai:zenodo.org:577405</identifier>
      <datestamp>2017-06-02T14:41:25Z</datestamp>
      <setSpec>openaire</setSpec>
      <setSpec>user-biosyslit</setSpec>
    </header>
    <header>
      <identifier>oai:zenodo.org:575212</identifier>
      <datestamp>2017-06-02T14:43:20Z</datestamp>
      <setSpec>openaire</setSpec>
      <setSpec>user-biosyslit</setSpec>
    </header>
    <header>
      <identifier>oai:zenodo.org:575626</identifier>
      <datestamp>2017-06-02T14:43:20Z</datestamp>
      <setSpec>openaire</setSpec>
      <setSpec>user-biosyslit</setSpec>
    </header>
    <header>
      <identifier>oai:zenodo.org:574716</identifier>
      <datestamp>2017-06-02T14:43:26Z</datestamp>
      <setSpec>openaire</setSpec>
      <setSpec>user-biosyslit</setSpec>
    </header>
    <header>
      <identifier>oai:zenodo.org:578918</identifier>
      <datestamp>2017-06-02T14:43:11Z</datestamp>
      <setSpec>openaire</setSpec>
      <setSpec>user-biosyslit</setSpec>
    </header>
    <header>
      <identifier>oai:zenodo.org:575796</identifier>
      <datestamp>2017-06-02T14:43:22Z</datestamp>
      <setSpec>openaire</setSpec>
      <setSpec>user-biosyslit</setSpec>
    </header>
    <header>
      <identifier>oai:zenodo.org:167267</identifier>
      <datestamp>2017-06-02T14:43:15Z</datestamp>
      <setSpec>openaire</setSpec>
      <setSpec>user-biosyslit</setSpec>
    </header>
    <header>
      <identifier>oai:zenodo.org:575717</identifier>
      <datestamp>2017-06-02T14:43:17Z</datestamp>
      <setSpec>openaire</setSpec>
      <setSpec>user-biosyslit</setSpec>
    </header>
    <header>
      <identifier>oai:zenodo.org:577484</identifier>
      <datestamp>2017-06-02T14:43:24Z</datestamp>
      <setSpec>openaire</setSpec>
      <setSpec>user-biosyslit</setSpec>
    </header>
    <header>
      <identifier>oai:zenodo.org:576608</identifier>
      <datestamp>2017-06-02T14:43:21Z</datestamp>
      <setSpec>openaire</setSpec>
      <setSpec>user-biosyslit</setSpec>
    </header>
    <header>
      <identifier>oai:zenodo.org:577820</identifier>
      <datestamp>2017-06-02T14:43:23Z</datestamp>
      <setSpec>openaire</setSpec>
      <setSpec>user-biosyslit</setSpec>
    </header>
    <header>
      <identifier>oai:zenodo.org:575445</identifier>
      <datestamp>2017-06-02T14:45:20Z</datestamp>
      <setSpec>openaire</setSpec>
      <setSpec>user-biosyslit</setSpec>
    </header>
    <header>
      <identifier>oai:zenodo.org:577982</identifier>
      <datestamp>2017-06-02T14:45:21Z</datestamp>
      <setSpec>openaire</setSpec>
      <setSpec>user-biosyslit</setSpec>
    </header>
    <header>
      <identifier>oai:zenodo.org:577369</identifier>
      <datestamp>2017-06-02T14:45:16Z</datestamp>
      <setSpec>openaire</setSpec>
      <setSpec>user-biosyslit</setSpec>
    </header>
    <header>
      <identifier>oai:zenodo.org:575446</identifier>
      <datestamp>2017-06-02T14:45:19Z</datestamp>
      <setSpec>openaire</setSpec>
      <setSpec>user-biosyslit</setSpec>
    </header>
    <header>
      <identifier>oai:zenodo.org:577576</identifier>
      <datestamp>2017-06-02T14:45:04Z</datestamp>
      <setSpec>openaire</setSpec>
      <setSpec>user-biosyslit</setSpec>
    </header>
    <header>
      <identifier>oai:zenodo.org:578490</identifier>
      <datestamp>2017-06-02T14:45:10Z</datestamp>
      <setSpec>openaire</setSpec>
      <setSpec>user-biosyslit</setSpec>
    </header>
    <header>
      <identifier>oai:zenodo.org:577376</identifier>
      <datestamp>2017-06-02T14:45:03Z</datestamp>
      <setSpec>openaire</setSpec>
      <setSpec>user-biosyslit</setSpec>
    </header>
    <header>
      <identifier>oai:zenodo.org:576364</identifier>
      <datestamp>2017-06-02T14:45:09Z</datestamp>
      <setSpec>openaire</setSpec>
      <setSpec>user-biosyslit</setSpec>
    </header>
    <header>
      <identifier>oai:zenodo.org:578081</identifier>
      <datestamp>2017-06-02T14:45:17Z</datestamp>
      <setSpec>openaire</setSpec>
      <setSpec>user-biosyslit</setSpec>
    </header>
    <header>
      <identifier>oai:zenodo.org:576505</identifier>
      <datestamp>2017-06-02T14:45:02Z</datestamp>
      <setSpec>openaire</setSpec>
      <setSpec>user-biosyslit</setSpec>
    </header>
    <header>
      <identifier>oai:zenodo.org:579181</identifier>
      <datestamp>2017-06-02T14:47:11Z</datestamp>
      <setSpec>openaire</setSpec>
      <setSpec>user-biosyslit</setSpec>
    </header>
    <header>
      <identifier>oai:zenodo.org:577886</identifier>
      <datestamp>2017-06-02T14:47:12Z</datestamp>
      <setSpec>openaire</setSpec>
      <setSpec>user-biosyslit</setSpec>
    </header>
    <header>
      <identifier>oai:zenodo.org:579097</identifier>
      <datestamp>2017-06-02T14:47:23Z</datestamp>
      <setSpec>openaire</setSpec>
      <setSpec>user-biosyslit</setSpec>
    </header>
    <header>
      <identifier>oai:zenodo.org:574708</identifier>
      <datestamp>2017-06-02T14:47:18Z</datestamp>
      <setSpec>openaire</setSpec>
      <setSpec>user-biosyslit</setSpec>
    </header>
    <header>
      <identifier>oai:zenodo.org:577503</identifier>
      <datestamp>2017-06-02T14:47:27Z</datestamp>
      <setSpec>openaire</setSpec>
      <setSpec>user-biosyslit</setSpec>
    </header>
    <header>
      <identifier>oai:zenodo.org:576369</identifier>
      <datestamp>2017-06-02T14:47:21Z</datestamp>
      <setSpec>openaire</setSpec>
      <setSpec>user-biosyslit</setSpec>
    </header>
    <header>
      <identifier>oai:zenodo.org:578572</identifier>
      <datestamp>2017-06-02T14:47:15Z</datestamp>
      <setSpec>openaire</setSpec>
      <setSpec>user-biosyslit</setSpec>
    </header>
    <header>
      <identifier>oai:zenodo.org:578235</identifier>
      <datestamp>2017-06-02T14:47:11Z</datestamp>
      <setSpec>openaire</setSpec>
      <setSpec>user-biosyslit</setSpec>
    </header>
    <header>
      <identifier>oai:zenodo.org:576959</identifier>
      <datestamp>2017-06-02T14:47:26Z</datestamp>
      <setSpec>openaire</setSpec>
      <setSpec>user-biosyslit</setSpec>
    </header>
    <header>
      <identifier>oai:zenodo.org:575685</identifier>
      <datestamp>2017-06-02T14:47:17Z</datestamp>
      <setSpec>openaire</setSpec>
      <setSpec>user-biosyslit</setSpec>
    </header>
    <header>
      <identifier>oai:zenodo.org:236944</identifier>
      <datestamp>2017-06-02T14:49:28Z</datestamp>
      <setSpec>openaire</setSpec>
      <setSpec>user-biosyslit</setSpec>
    </header>
    <header>
      <identifier>oai:zenodo.org:576523</identifier>
      <datestamp>2017-06-02T14:49:36Z</datestamp>
      <setSpec>openaire</setSpec>
      <setSpec>user-biosyslit</setSpec>
    </header>
    <header>
      <identifier>oai:zenodo.org:574767</identifier>
      <datestamp>2017-06-02T14:49:36Z</datestamp>
      <setSpec>openaire</setSpec>
      <setSpec>user-biosyslit</setSpec>
    </header>
    <header>
      <identifier>oai:zenodo.org:575781</identifier>
      <datestamp>2017-06-02T14:49:33Z</datestamp>
      <setSpec>openaire</setSpec>
      <setSpec>user-biosyslit</setSpec>
    </header>
    <header>
      <identifier>oai:zenodo.org:578298</identifier>
      <datestamp>2017-06-02T14:49:34Z</datestamp>
      <setSpec>openaire</setSpec>
      <setSpec>user-biosyslit</setSpec>
    </header>
    <header>
      <identifier>oai:zenodo.org:574344</identifier>
      <datestamp>2017-06-02T14:49:33Z</datestamp>
      <setSpec>openaire</setSpec>
      <setSpec>user-biosyslit</setSpec>
    </header>
    <header>
      <identifier>oai:zenodo.org:575534</identifier>
      <datestamp>2017-06-02T14:49:24Z</datestamp>
      <setSpec>openaire</setSpec>
      <setSpec>user-biosyslit</setSpec>
    </header>
    <header>
      <identifier>oai:zenodo.org:574751</identifier>
      <datestamp>2017-06-02T14:49:32Z</datestamp>
      <setSpec>openaire</setSpec>
      <setSpec>user-biosyslit</setSpec>
    </header>
    <header>
      <identifier>oai:zenodo.org:575284</identifier>
      <datestamp>2017-06-02T14:49:28Z</datestamp>
      <setSpec>openaire</setSpec>
      <setSpec>user-biosyslit</setSpec>
    </header>
    <header>
      <identifier>oai:zenodo.org:577725</identifier>
      <datestamp>2017-06-02T14:49:25Z</datestamp>
      <setSpec>openaire</setSpec>
      <setSpec>user-biosyslit</setSpec>
    </header>
    <header>
      <identifier>oai:zenodo.org:576996</identifier>
      <datestamp>2017-06-02T14:49:39Z</datestamp>
      <setSpec>openaire</setSpec>
      <setSpec>user-biosyslit</setSpec>
    </header>
    <header>
      <identifier>oai:zenodo.org:577291</identifier>
      <datestamp>2017-06-02T14:52:05Z</datestamp>
      <setSpec>openaire</setSpec>
      <setSpec>user-biosyslit</setSpec>
    </header>
    <header>
      <identifier>oai:zenodo.org:578070</identifier>
      <datestamp>2017-06-02T14:52:20Z</datestamp>
      <setSpec>openaire</setSpec>
      <setSpec>user-biosyslit</setSpec>
    </header>
    <header>
      <identifier>oai:zenodo.org:574724</identifier>
      <datestamp>2017-06-02T14:52:14Z</datestamp>
      <setSpec>openaire</setSpec>
      <setSpec>user-biosyslit</setSpec>
    </header>
    <header>
      <identifier>oai:zenodo.org:574277</identifier>
      <datestamp>2017-06-02T14:52:10Z</datestamp>
      <setSpec>openaire</setSpec>
      <setSpec>user-biosyslit</setSpec>
    </header>
    <header>
      <identifier>oai:zenodo.org:578146</identifier>
      <datestamp>2017-06-02T14:52:08Z</datestamp>
      <setSpec>openaire</setSpec>
      <setSpec>user-biosyslit</setSpec>
    </header>
    <header>
      <identifier>oai:zenodo.org:574697</identifier>
      <datestamp>2017-06-02T14:52:18Z</datestamp>
      <setSpec>openaire</setSpec>
      <setSpec>user-biosyslit</setSpec>
    </header>
    <header>
      <identifier>oai:zenodo.org:578414</identifier>
      <datestamp>2017-06-02T14:52:16Z</datestamp>
      <setSpec>openaire</setSpec>
      <setSpec>user-biosyslit</setSpec>
    </header>
    <header>
      <identifier>oai:zenodo.org:576622</identifier>
      <datestamp>2017-06-02T14:52:17Z</datestamp>
      <setSpec>openaire</setSpec>
      <setSpec>user-biosyslit</setSpec>
    </header>
    <header>
      <identifier>oai:zenodo.org:577669</identifier>
      <datestamp>2017-06-02T14:52:07Z</datestamp>
      <setSpec>openaire</setSpec>
      <setSpec>user-biosyslit</setSpec>
    </header>
    <header>
      <identifier>oai:zenodo.org:576853</identifier>
      <datestamp>2017-06-02T14:54:28Z</datestamp>
      <setSpec>openaire</setSpec>
      <setSpec>user-biosyslit</setSpec>
    </header>
    <header>
      <identifier>oai:zenodo.org:578883</identifier>
      <datestamp>2017-06-02T14:54:29Z</datestamp>
      <setSpec>openaire</setSpec>
      <setSpec>user-biosyslit</setSpec>
    </header>
    <header>
      <identifier>oai:zenodo.org:575254</identifier>
      <datestamp>2017-06-02T14:54:30Z</datestamp>
      <setSpec>openaire</setSpec>
      <setSpec>user-biosyslit</setSpec>
    </header>
    <header>
      <identifier>oai:zenodo.org:578767</identifier>
      <datestamp>2017-06-02T14:54:21Z</datestamp>
      <setSpec>openaire</setSpec>
      <setSpec>user-biosyslit</setSpec>
    </header>
    <header>
      <identifier>oai:zenodo.org:576312</identifier>
      <datestamp>2017-06-02T14:54:21Z</datestamp>
      <setSpec>openaire</setSpec>
      <setSpec>user-biosyslit</setSpec>
    </header>
    <header>
      <identifier>oai:zenodo.org:578357</identifier>
      <datestamp>2017-06-02T14:54:24Z</datestamp>
      <setSpec>openaire</setSpec>
      <setSpec>user-biosyslit</setSpec>
    </header>
    <header>
      <identifier>oai:zenodo.org:576559</identifier>
      <datestamp>2017-06-02T14:54:31Z</datestamp>
      <setSpec>openaire</setSpec>
      <setSpec>user-biosyslit</setSpec>
    </header>
    <header>
      <identifier>oai:zenodo.org:578875</identifier>
      <datestamp>2017-06-02T14:54:34Z</datestamp>
      <setSpec>openaire</setSpec>
      <setSpec>user-biosyslit</setSpec>
    </header>
    <header>
      <identifier>oai:zenodo.org:577927</identifier>
      <datestamp>2017-06-02T14:54:34Z</datestamp>
      <setSpec>openaire</setSpec>
      <setSpec>user-biosyslit</setSpec>
    </header>
    <header>
      <identifier>oai:zenodo.org:576651</identifier>
      <datestamp>2017-06-02T14:54:32Z</datestamp>
      <setSpec>openaire</setSpec>
      <setSpec>user-biosyslit</setSpec>
    </header>
    <header>
      <identifier>oai:zenodo.org:577848</identifier>
      <datestamp>2017-06-02T14:57:18Z</datestamp>
      <setSpec>openaire</setSpec>
      <setSpec>user-biosyslit</setSpec>
    </header>
    <resumptionToken expirationDate="2017-08-31T15:44:22Z" cursor="21000" completeListSize="77796">.eJyNyssKgkAUANB_uWuJefiGNqJJCxWblHQTNoqUo4lTpBP9e21a1_qcJ8imqcFFK9OmtmUajmHoju7YhgaST1chjucPAz_kgg8iq8L8vutzVJDWin05R35BY9WhpMeKbVJywPacndGS7rNboXZzTrcPhgIrUukSX7afV9MkFOUpHFk2eIKRekqCdGHYYyXl34f_fOrn8-UaNBirtgGXYKJB96imVoL7fL3euGxRVQ.DIm_3g.tcA0DKg0sGTOLyFr_LtMuMkmipk</resumptionToken>
  </ListIdentifiers>
</OAI-PMH>
