<?xml version='1.0' encoding='UTF-8'?>
<?xml-stylesheet type="text/xsl" href="/static/xsl/oai2.v1.0.xsl"?>
<OAI-PMH xmlns="http://www.openarchives.org/OAI/2.0/" xmlns:xsi="http://www.w3.org/2001/XMLSchema-instance" xsi:schemaLocation="http://www.openarchives.org/OAI/2.0/ http://www.openarchives.org/OAI/2.0/OAI-PMH.xsd">
  <responseDate>2017-08-31T14:31:01Z</responseDate>
  <request verb="ListIdentifiers" resumptionToken=".eJwVzdFuREAYQOF3mWtpZoZF3a1Q2aY_sQzLTaND2RqqTIPZ7Lt3e32S79zQ0jQ1cvCTQayDbVqmrZtUtw1DQwufv4V4vz4y4pdM8FGwKsh-z0OGC9paobds4BUkTJmKBqKSl5heiL2xK97jlMlCnbdMP60J9i1Q8QqqpdFQ61Egyo9gStjoioTWc-THe0LcpNS5BemRPjwCX5PkuGOheP6E7CSh98lbDphn9Q6-dCMFGDwwwnQaa9VNeb79MPG6lkyOlep86GXM_l_qaCENTVXbIIceNNSv1dwuyLnd7394GFIW.DImu8w.552t3q4dJegvWoUOXOeHesTxtyw">https://zenodo.org/oai2d</request>
  <ListIdentifiers>
    <header>
      <identifier>oai:zenodo.org:284405</identifier>
      <datestamp>2017-02-09T11:10:53Z</datestamp>
      <setSpec>user-biosyslit</setSpec>
    </header>
    <header>
      <identifier>oai:zenodo.org:284383</identifier>
      <datestamp>2017-02-09T11:11:12Z</datestamp>
      <setSpec>user-biosyslit</setSpec>
    </header>
    <header>
      <identifier>oai:zenodo.org:284603</identifier>
      <datestamp>2017-02-09T11:35:05Z</datestamp>
      <setSpec>user-biosyslit</setSpec>
    </header>
    <header>
      <identifier>oai:zenodo.org:285228</identifier>
      <datestamp>2017-02-09T13:03:52Z</datestamp>
      <setSpec>user-biosyslit</setSpec>
    </header>
    <header>
      <identifier>oai:zenodo.org:286146</identifier>
      <datestamp>2017-02-09T15:23:26Z</datestamp>
      <setSpec>user-biosyslit</setSpec>
    </header>
    <header>
      <identifier>oai:zenodo.org:286664</identifier>
      <datestamp>2017-02-09T16:31:56Z</datestamp>
      <setSpec>user-biosyslit</setSpec>
    </header>
    <header>
      <identifier>oai:zenodo.org:286442</identifier>
      <datestamp>2017-02-09T15:59:57Z</datestamp>
      <setSpec>user-biosyslit</setSpec>
    </header>
    <header>
      <identifier>oai:zenodo.org:287103</identifier>
      <datestamp>2017-02-09T17:28:10Z</datestamp>
      <setSpec>user-biosyslit</setSpec>
    </header>
    <header>
      <identifier>oai:zenodo.org:286358</identifier>
      <datestamp>2017-02-09T15:49:54Z</datestamp>
      <setSpec>user-biosyslit</setSpec>
    </header>
    <header>
      <identifier>oai:zenodo.org:286680</identifier>
      <datestamp>2017-02-09T16:32:43Z</datestamp>
      <setSpec>user-biosyslit</setSpec>
    </header>
    <header>
      <identifier>oai:zenodo.org:287801</identifier>
      <datestamp>2017-02-09T19:21:01Z</datestamp>
      <setSpec>user-biosyslit</setSpec>
    </header>
    <header>
      <identifier>oai:zenodo.org:286591</identifier>
      <datestamp>2017-02-09T16:24:07Z</datestamp>
      <setSpec>user-biosyslit</setSpec>
    </header>
    <header>
      <identifier>oai:zenodo.org:286854</identifier>
      <datestamp>2017-02-09T16:57:45Z</datestamp>
      <setSpec>user-biosyslit</setSpec>
    </header>
    <header>
      <identifier>oai:zenodo.org:286921</identifier>
      <datestamp>2017-02-09T17:06:36Z</datestamp>
      <setSpec>user-biosyslit</setSpec>
    </header>
    <header>
      <identifier>oai:zenodo.org:287620</identifier>
      <datestamp>2017-02-09T18:45:04Z</datestamp>
      <setSpec>user-biosyslit</setSpec>
    </header>
    <header>
      <identifier>oai:zenodo.org:287047</identifier>
      <datestamp>2017-02-09T17:20:17Z</datestamp>
      <setSpec>user-biosyslit</setSpec>
    </header>
    <header>
      <identifier>oai:zenodo.org:288719</identifier>
      <datestamp>2017-02-09T21:49:02Z</datestamp>
      <setSpec>user-biosyslit</setSpec>
    </header>
    <header>
      <identifier>oai:zenodo.org:288898</identifier>
      <datestamp>2017-02-09T22:07:34Z</datestamp>
      <setSpec>user-biosyslit</setSpec>
    </header>
    <header>
      <identifier>oai:zenodo.org:289437</identifier>
      <datestamp>2017-02-09T23:30:34Z</datestamp>
      <setSpec>user-biosyslit</setSpec>
    </header>
    <header>
      <identifier>oai:zenodo.org:289576</identifier>
      <datestamp>2017-02-09T23:51:12Z</datestamp>
      <setSpec>user-biosyslit</setSpec>
    </header>
    <header>
      <identifier>oai:zenodo.org:290235</identifier>
      <datestamp>2017-02-15T16:03:06Z</datestamp>
      <setSpec>openaire</setSpec>
      <setSpec>user-biosyslit</setSpec>
    </header>
    <header>
      <identifier>oai:zenodo.org:289812</identifier>
      <datestamp>2017-02-10T00:33:25Z</datestamp>
      <setSpec>user-biosyslit</setSpec>
    </header>
    <header>
      <identifier>oai:zenodo.org:289991</identifier>
      <datestamp>2017-02-10T01:01:26Z</datestamp>
      <setSpec>user-biosyslit</setSpec>
    </header>
    <header>
      <identifier>oai:zenodo.org:291931</identifier>
      <datestamp>2017-02-15T15:00:32Z</datestamp>
      <setSpec>user-biosyslit</setSpec>
    </header>
    <header>
      <identifier>oai:zenodo.org:294045</identifier>
      <datestamp>2017-02-20T19:11:52Z</datestamp>
      <setSpec>user-biosyslit</setSpec>
    </header>
    <header>
      <identifier>oai:zenodo.org:294225</identifier>
      <datestamp>2017-02-20T19:30:43Z</datestamp>
      <setSpec>user-biosyslit</setSpec>
    </header>
    <header>
      <identifier>oai:zenodo.org:305357</identifier>
      <datestamp>2017-02-20T22:38:43Z</datestamp>
      <setSpec>user-biosyslit</setSpec>
    </header>
    <header>
      <identifier>oai:zenodo.org:319970</identifier>
      <datestamp>2017-02-21T03:24:11Z</datestamp>
      <setSpec>user-biosyslit</setSpec>
    </header>
    <header>
      <identifier>oai:zenodo.org:322092</identifier>
      <datestamp>2017-02-24T07:30:06Z</datestamp>
      <setSpec>user-biosyslit</setSpec>
    </header>
    <header>
      <identifier>oai:zenodo.org:322141</identifier>
      <datestamp>2017-02-24T07:34:51Z</datestamp>
      <setSpec>user-biosyslit</setSpec>
    </header>
    <header>
      <identifier>oai:zenodo.org:321307</identifier>
      <datestamp>2017-02-21T12:16:08Z</datestamp>
      <setSpec>user-biosyslit</setSpec>
    </header>
    <header>
      <identifier>oai:zenodo.org:321269</identifier>
      <datestamp>2017-02-21T09:21:48Z</datestamp>
      <setSpec>user-biosyslit</setSpec>
    </header>
    <header>
      <identifier>oai:zenodo.org:218682</identifier>
      <datestamp>2016-12-22T15:55:42Z</datestamp>
      <setSpec>user-biosyslit</setSpec>
    </header>
    <header>
      <identifier>oai:zenodo.org:180253</identifier>
      <datestamp>2016-12-20T02:00:26Z</datestamp>
      <setSpec>user-biosyslit</setSpec>
    </header>
    <header>
      <identifier>oai:zenodo.org:218736</identifier>
      <datestamp>2016-12-22T16:20:20Z</datestamp>
      <setSpec>user-biosyslit</setSpec>
    </header>
    <header>
      <identifier>oai:zenodo.org:279666</identifier>
      <datestamp>2017-02-09T01:47:35Z</datestamp>
      <setSpec>user-biosyslit</setSpec>
    </header>
    <header>
      <identifier>oai:zenodo.org:180207</identifier>
      <datestamp>2016-11-28T23:31:52Z</datestamp>
      <setSpec>user-biosyslit</setSpec>
    </header>
    <header>
      <identifier>oai:zenodo.org:180396</identifier>
      <datestamp>2016-12-20T02:00:38Z</datestamp>
      <setSpec>user-biosyslit</setSpec>
    </header>
    <header>
      <identifier>oai:zenodo.org:180394</identifier>
      <datestamp>2016-12-20T02:00:11Z</datestamp>
      <setSpec>user-biosyslit</setSpec>
    </header>
    <header>
      <identifier>oai:zenodo.org:180781</identifier>
      <datestamp>2016-12-20T02:00:55Z</datestamp>
      <setSpec>user-biosyslit</setSpec>
    </header>
    <header>
      <identifier>oai:zenodo.org:180413</identifier>
      <datestamp>2016-12-20T02:00:26Z</datestamp>
      <setSpec>user-biosyslit</setSpec>
    </header>
    <header>
      <identifier>oai:zenodo.org:180898</identifier>
      <datestamp>2016-12-20T02:00:09Z</datestamp>
      <setSpec>user-biosyslit</setSpec>
    </header>
    <header>
      <identifier>oai:zenodo.org:180517</identifier>
      <datestamp>2016-12-20T02:00:16Z</datestamp>
      <setSpec>user-biosyslit</setSpec>
    </header>
    <header>
      <identifier>oai:zenodo.org:180518</identifier>
      <datestamp>2016-12-20T02:00:17Z</datestamp>
      <setSpec>user-biosyslit</setSpec>
    </header>
    <header>
      <identifier>oai:zenodo.org:180610</identifier>
      <datestamp>2016-12-20T02:01:02Z</datestamp>
      <setSpec>user-biosyslit</setSpec>
    </header>
    <header>
      <identifier>oai:zenodo.org:180830</identifier>
      <datestamp>2016-12-20T02:00:51Z</datestamp>
      <setSpec>user-biosyslit</setSpec>
    </header>
    <header>
      <identifier>oai:zenodo.org:180747</identifier>
      <datestamp>2016-12-20T02:00:51Z</datestamp>
      <setSpec>user-biosyslit</setSpec>
    </header>
    <header>
      <identifier>oai:zenodo.org:219108</identifier>
      <datestamp>2016-12-22T18:15:54Z</datestamp>
      <setSpec>user-biosyslit</setSpec>
    </header>
    <header>
      <identifier>oai:zenodo.org:218941</identifier>
      <datestamp>2016-12-22T17:28:58Z</datestamp>
      <setSpec>user-biosyslit</setSpec>
    </header>
    <header>
      <identifier>oai:zenodo.org:180891</identifier>
      <datestamp>2016-12-20T02:00:08Z</datestamp>
      <setSpec>user-biosyslit</setSpec>
    </header>
    <header>
      <identifier>oai:zenodo.org:218896</identifier>
      <datestamp>2016-12-22T17:10:13Z</datestamp>
      <setSpec>user-biosyslit</setSpec>
    </header>
    <header>
      <identifier>oai:zenodo.org:180783</identifier>
      <datestamp>2016-12-20T02:00:09Z</datestamp>
      <setSpec>user-biosyslit</setSpec>
    </header>
    <header>
      <identifier>oai:zenodo.org:181187</identifier>
      <datestamp>2016-12-20T02:00:55Z</datestamp>
      <setSpec>user-biosyslit</setSpec>
    </header>
    <header>
      <identifier>oai:zenodo.org:219099</identifier>
      <datestamp>2016-12-22T18:11:26Z</datestamp>
      <setSpec>user-biosyslit</setSpec>
    </header>
    <header>
      <identifier>oai:zenodo.org:180782</identifier>
      <datestamp>2016-12-20T02:00:08Z</datestamp>
      <setSpec>user-biosyslit</setSpec>
    </header>
    <header>
      <identifier>oai:zenodo.org:573707</identifier>
      <datestamp>2017-05-10T09:37:24Z</datestamp>
      <setSpec>user-biosyslit</setSpec>
    </header>
    <header>
      <identifier>oai:zenodo.org:180892</identifier>
      <datestamp>2016-11-29T02:03:03Z</datestamp>
      <setSpec>user-biosyslit</setSpec>
    </header>
    <header>
      <identifier>oai:zenodo.org:574385</identifier>
      <datestamp>2017-05-17T07:21:16Z</datestamp>
      <setSpec>openaire</setSpec>
      <setSpec>user-biosyslit</setSpec>
    </header>
    <header>
      <identifier>oai:zenodo.org:181171</identifier>
      <datestamp>2016-12-20T02:00:50Z</datestamp>
      <setSpec>user-biosyslit</setSpec>
    </header>
    <header>
      <identifier>oai:zenodo.org:181316</identifier>
      <datestamp>2016-12-20T02:00:51Z</datestamp>
      <setSpec>user-biosyslit</setSpec>
    </header>
    <header>
      <identifier>oai:zenodo.org:343812</identifier>
      <datestamp>2017-02-28T08:52:53Z</datestamp>
      <setSpec>user-biosyslit</setSpec>
    </header>
    <header>
      <identifier>oai:zenodo.org:181369</identifier>
      <datestamp>2016-12-20T02:00:56Z</datestamp>
      <setSpec>user-biosyslit</setSpec>
    </header>
    <header>
      <identifier>oai:zenodo.org:218972</identifier>
      <datestamp>2016-12-22T17:37:58Z</datestamp>
      <setSpec>user-biosyslit</setSpec>
    </header>
    <header>
      <identifier>oai:zenodo.org:181855</identifier>
      <datestamp>2016-11-29T06:42:23Z</datestamp>
      <setSpec>user-biosyslit</setSpec>
    </header>
    <header>
      <identifier>oai:zenodo.org:343830</identifier>
      <datestamp>2017-02-28T09:06:02Z</datestamp>
      <setSpec>user-biosyslit</setSpec>
    </header>
    <header>
      <identifier>oai:zenodo.org:219440</identifier>
      <datestamp>2016-12-22T20:13:53Z</datestamp>
      <setSpec>user-biosyslit</setSpec>
    </header>
    <header>
      <identifier>oai:zenodo.org:181669</identifier>
      <datestamp>2016-12-20T02:00:56Z</datestamp>
      <setSpec>user-biosyslit</setSpec>
    </header>
    <header>
      <identifier>oai:zenodo.org:181474</identifier>
      <datestamp>2016-12-20T02:00:51Z</datestamp>
      <setSpec>user-biosyslit</setSpec>
    </header>
    <header>
      <identifier>oai:zenodo.org:181916</identifier>
      <datestamp>2016-12-20T02:00:56Z</datestamp>
      <setSpec>user-biosyslit</setSpec>
    </header>
    <header>
      <identifier>oai:zenodo.org:283149</identifier>
      <datestamp>2017-02-09T08:13:11Z</datestamp>
      <setSpec>user-biosyslit</setSpec>
    </header>
    <header>
      <identifier>oai:zenodo.org:283374</identifier>
      <datestamp>2017-02-09T08:42:50Z</datestamp>
      <setSpec>user-biosyslit</setSpec>
    </header>
    <header>
      <identifier>oai:zenodo.org:283971</identifier>
      <datestamp>2017-02-09T10:08:47Z</datestamp>
      <setSpec>user-biosyslit</setSpec>
    </header>
    <header>
      <identifier>oai:zenodo.org:283627</identifier>
      <datestamp>2017-02-09T09:20:17Z</datestamp>
      <setSpec>user-biosyslit</setSpec>
    </header>
    <header>
      <identifier>oai:zenodo.org:284577</identifier>
      <datestamp>2017-02-09T11:33:42Z</datestamp>
      <setSpec>user-biosyslit</setSpec>
    </header>
    <header>
      <identifier>oai:zenodo.org:285289</identifier>
      <datestamp>2017-02-09T13:12:01Z</datestamp>
      <setSpec>user-biosyslit</setSpec>
    </header>
    <header>
      <identifier>oai:zenodo.org:285614</identifier>
      <datestamp>2017-02-09T13:59:39Z</datestamp>
      <setSpec>user-biosyslit</setSpec>
    </header>
    <header>
      <identifier>oai:zenodo.org:286261</identifier>
      <datestamp>2017-02-09T15:38:43Z</datestamp>
      <setSpec>user-biosyslit</setSpec>
    </header>
    <header>
      <identifier>oai:zenodo.org:286639</identifier>
      <datestamp>2017-02-09T16:26:16Z</datestamp>
      <setSpec>user-biosyslit</setSpec>
    </header>
    <header>
      <identifier>oai:zenodo.org:285685</identifier>
      <datestamp>2017-02-09T14:06:42Z</datestamp>
      <setSpec>user-biosyslit</setSpec>
    </header>
    <header>
      <identifier>oai:zenodo.org:287098</identifier>
      <datestamp>2017-02-09T17:27:57Z</datestamp>
      <setSpec>user-biosyslit</setSpec>
    </header>
    <header>
      <identifier>oai:zenodo.org:286557</identifier>
      <datestamp>2017-02-09T16:18:28Z</datestamp>
      <setSpec>user-biosyslit</setSpec>
    </header>
    <header>
      <identifier>oai:zenodo.org:286654</identifier>
      <datestamp>2017-02-09T16:31:35Z</datestamp>
      <setSpec>user-biosyslit</setSpec>
    </header>
    <header>
      <identifier>oai:zenodo.org:286627</identifier>
      <datestamp>2017-02-09T16:25:45Z</datestamp>
      <setSpec>user-biosyslit</setSpec>
    </header>
    <header>
      <identifier>oai:zenodo.org:286624</identifier>
      <datestamp>2017-02-09T16:25:39Z</datestamp>
      <setSpec>user-biosyslit</setSpec>
    </header>
    <header>
      <identifier>oai:zenodo.org:287193</identifier>
      <datestamp>2017-02-09T17:38:12Z</datestamp>
      <setSpec>user-biosyslit</setSpec>
    </header>
    <header>
      <identifier>oai:zenodo.org:287487</identifier>
      <datestamp>2017-02-09T18:27:53Z</datestamp>
      <setSpec>user-biosyslit</setSpec>
    </header>
    <header>
      <identifier>oai:zenodo.org:286386</identifier>
      <datestamp>2017-02-09T15:54:41Z</datestamp>
      <setSpec>user-biosyslit</setSpec>
    </header>
    <header>
      <identifier>oai:zenodo.org:287015</identifier>
      <datestamp>2017-02-09T17:19:06Z</datestamp>
      <setSpec>user-biosyslit</setSpec>
    </header>
    <header>
      <identifier>oai:zenodo.org:287260</identifier>
      <datestamp>2017-02-09T17:54:50Z</datestamp>
      <setSpec>user-biosyslit</setSpec>
    </header>
    <header>
      <identifier>oai:zenodo.org:287986</identifier>
      <datestamp>2017-02-09T19:43:44Z</datestamp>
      <setSpec>user-biosyslit</setSpec>
    </header>
    <header>
      <identifier>oai:zenodo.org:288341</identifier>
      <datestamp>2017-02-09T20:40:52Z</datestamp>
      <setSpec>user-biosyslit</setSpec>
    </header>
    <header>
      <identifier>oai:zenodo.org:288485</identifier>
      <datestamp>2017-02-09T21:03:45Z</datestamp>
      <setSpec>user-biosyslit</setSpec>
    </header>
    <header>
      <identifier>oai:zenodo.org:289083</identifier>
      <datestamp>2017-02-09T22:36:18Z</datestamp>
      <setSpec>user-biosyslit</setSpec>
    </header>
    <header>
      <identifier>oai:zenodo.org:289582</identifier>
      <datestamp>2017-02-09T23:51:33Z</datestamp>
      <setSpec>user-biosyslit</setSpec>
    </header>
    <header>
      <identifier>oai:zenodo.org:289172</identifier>
      <datestamp>2017-02-09T22:51:30Z</datestamp>
      <setSpec>user-biosyslit</setSpec>
    </header>
    <header>
      <identifier>oai:zenodo.org:289851</identifier>
      <datestamp>2017-02-10T00:41:55Z</datestamp>
      <setSpec>user-biosyslit</setSpec>
    </header>
    <header>
      <identifier>oai:zenodo.org:289192</identifier>
      <datestamp>2017-02-09T22:55:48Z</datestamp>
      <setSpec>user-biosyslit</setSpec>
    </header>
    <header>
      <identifier>oai:zenodo.org:293881</identifier>
      <datestamp>2017-02-20T18:54:12Z</datestamp>
      <setSpec>user-biosyslit</setSpec>
    </header>
    <header>
      <identifier>oai:zenodo.org:294411</identifier>
      <datestamp>2017-02-20T19:38:03Z</datestamp>
      <setSpec>user-biosyslit</setSpec>
    </header>
    <header>
      <identifier>oai:zenodo.org:294105</identifier>
      <datestamp>2017-02-20T19:19:21Z</datestamp>
      <setSpec>user-biosyslit</setSpec>
    </header>
    <resumptionToken expirationDate="2017-08-31T14:33:01Z" cursor="2400" completeListSize="142507">.eJwVzdFugjAYQOF36TVZ2qIWudPAiMt-CEKLcLOwwsBRGAMWoMZ3112f5Ds3NJZlgWz8sqNkS6w925iYmVuLGWiUw49SH9dnRvIilOwUzz3xd24FTmnFfGdcwEmJH3MdtERHryG9EGvhV7yGMZ9SfV6EeZoj7DLQ4Qy6okFbmIGnsk-vj3h3VBEthsAN14gco8yUDOIDfXoEvvtJ4pr7av8F4jRB45L3BLAUxQrudAw0YHBg48d9V-i6T5Lll6u3OeNTl-vahWYK-f9LHxgyUJ9XJbLpzkDNnA_ViOzb_f4AcmtSEQ.DImvJQ.mY9fOTthcQ6HE5LPPuyZqf_fNxM</resumptionToken>
  </ListIdentifiers>
</OAI-PMH>
