<?xml version='1.0' encoding='UTF-8'?>
<?xml-stylesheet type="text/xsl" href="/static/xsl/oai2.v1.0.xsl"?>
<OAI-PMH xmlns="http://www.openarchives.org/OAI/2.0/" xmlns:xsi="http://www.w3.org/2001/XMLSchema-instance" xsi:schemaLocation="http://www.openarchives.org/OAI/2.0/ http://www.openarchives.org/OAI/2.0/OAI-PMH.xsd">
  <responseDate>2017-08-31T15:45:56Z</responseDate>
  <request verb="ListIdentifiers" resumptionToken=".eJyNysEKgjAYAOB3-c8ScyuXQpewxIOKrY30EqYi5rRwRbrw3fPSuc7f9wZVlgU4aEEsm9rYsglGZEmwRQ1QeX-T8lzPDvlJyLyTPPPE89AKlOCKhq4aAjchoW5Q1Jqa7WN8MtcDr9EYH_kj0YdBEP_F0I4GOh7Dqz-_gkSeTC_enfFuKxku-mgXj8zcspTk32f--fTP56oNGHDPqhIcilYGNK-srxQ472n6ANecUXg.DInAtA.39_nGTMCi2LB6yu_L7FCwLoH3bc">https://zenodo.org/oai2d</request>
  <ListIdentifiers>
    <header>
      <identifier>oai:zenodo.org:281360</identifier>
      <datestamp>2017-02-09T05:11:25Z</datestamp>
      <setSpec>user-biosyslit</setSpec>
    </header>
    <header>
      <identifier>oai:zenodo.org:242538</identifier>
      <datestamp>2017-01-13T16:30:56Z</datestamp>
      <setSpec>user-biosyslit</setSpec>
    </header>
    <header>
      <identifier>oai:zenodo.org:281357</identifier>
      <datestamp>2017-02-09T05:11:14Z</datestamp>
      <setSpec>user-biosyslit</setSpec>
    </header>
    <header>
      <identifier>oai:zenodo.org:242539</identifier>
      <datestamp>2017-01-13T16:31:00Z</datestamp>
      <setSpec>user-biosyslit</setSpec>
    </header>
    <header>
      <identifier>oai:zenodo.org:234594</identifier>
      <datestamp>2017-01-08T22:32:09Z</datestamp>
      <setSpec>user-biosyslit</setSpec>
    </header>
    <header>
      <identifier>oai:zenodo.org:273502</identifier>
      <datestamp>2017-02-08T09:32:09Z</datestamp>
      <setSpec>user-biosyslit</setSpec>
    </header>
    <header>
      <identifier>oai:zenodo.org:275508</identifier>
      <datestamp>2017-02-08T16:35:54Z</datestamp>
      <setSpec>user-biosyslit</setSpec>
    </header>
    <header>
      <identifier>oai:zenodo.org:230713</identifier>
      <datestamp>2017-01-05T07:05:31Z</datestamp>
      <setSpec>user-biosyslit</setSpec>
    </header>
    <header>
      <identifier>oai:zenodo.org:230711</identifier>
      <datestamp>2017-01-05T07:05:25Z</datestamp>
      <setSpec>user-biosyslit</setSpec>
    </header>
    <header>
      <identifier>oai:zenodo.org:286228</identifier>
      <datestamp>2017-02-09T15:34:35Z</datestamp>
      <setSpec>user-biosyslit</setSpec>
    </header>
    <header>
      <identifier>oai:zenodo.org:286236</identifier>
      <datestamp>2017-02-09T15:34:28Z</datestamp>
      <setSpec>user-biosyslit</setSpec>
    </header>
    <header>
      <identifier>oai:zenodo.org:286237</identifier>
      <datestamp>2017-02-09T15:34:30Z</datestamp>
      <setSpec>user-biosyslit</setSpec>
    </header>
    <header>
      <identifier>oai:zenodo.org:286233</identifier>
      <datestamp>2017-02-09T15:34:23Z</datestamp>
      <setSpec>user-biosyslit</setSpec>
    </header>
    <header>
      <identifier>oai:zenodo.org:286232</identifier>
      <datestamp>2017-02-09T15:34:20Z</datestamp>
      <setSpec>user-biosyslit</setSpec>
    </header>
    <header>
      <identifier>oai:zenodo.org:286230</identifier>
      <datestamp>2017-02-09T15:34:14Z</datestamp>
      <setSpec>user-biosyslit</setSpec>
    </header>
    <header>
      <identifier>oai:zenodo.org:264425</identifier>
      <datestamp>2017-01-30T21:21:32Z</datestamp>
      <setSpec>user-biosyslit</setSpec>
    </header>
    <header>
      <identifier>oai:zenodo.org:230613</identifier>
      <datestamp>2017-01-05T04:56:52Z</datestamp>
      <setSpec>user-biosyslit</setSpec>
    </header>
    <header>
      <identifier>oai:zenodo.org:244000</identifier>
      <datestamp>2017-01-14T15:06:51Z</datestamp>
      <setSpec>user-biosyslit</setSpec>
    </header>
    <header>
      <identifier>oai:zenodo.org:249876</identifier>
      <datestamp>2017-01-18T01:13:28Z</datestamp>
      <setSpec>user-biosyslit</setSpec>
    </header>
    <header>
      <identifier>oai:zenodo.org:249878</identifier>
      <datestamp>2017-01-18T01:13:51Z</datestamp>
      <setSpec>user-biosyslit</setSpec>
    </header>
    <header>
      <identifier>oai:zenodo.org:249880</identifier>
      <datestamp>2017-01-18T01:14:14Z</datestamp>
      <setSpec>user-biosyslit</setSpec>
    </header>
    <header>
      <identifier>oai:zenodo.org:244002</identifier>
      <datestamp>2017-01-14T15:06:49Z</datestamp>
      <setSpec>user-biosyslit</setSpec>
    </header>
    <header>
      <identifier>oai:zenodo.org:249882</identifier>
      <datestamp>2017-01-18T01:14:37Z</datestamp>
      <setSpec>user-biosyslit</setSpec>
    </header>
    <header>
      <identifier>oai:zenodo.org:249877</identifier>
      <datestamp>2017-01-18T01:13:43Z</datestamp>
      <setSpec>user-biosyslit</setSpec>
    </header>
    <header>
      <identifier>oai:zenodo.org:241825</identifier>
      <datestamp>2017-01-13T06:40:23Z</datestamp>
      <setSpec>user-biosyslit</setSpec>
    </header>
    <header>
      <identifier>oai:zenodo.org:241824</identifier>
      <datestamp>2017-01-13T06:40:19Z</datestamp>
      <setSpec>user-biosyslit</setSpec>
    </header>
    <header>
      <identifier>oai:zenodo.org:241830</identifier>
      <datestamp>2017-01-13T06:40:46Z</datestamp>
      <setSpec>user-biosyslit</setSpec>
    </header>
    <header>
      <identifier>oai:zenodo.org:241826</identifier>
      <datestamp>2017-01-13T06:40:27Z</datestamp>
      <setSpec>user-biosyslit</setSpec>
    </header>
    <header>
      <identifier>oai:zenodo.org:241829</identifier>
      <datestamp>2017-01-13T06:40:41Z</datestamp>
      <setSpec>user-biosyslit</setSpec>
    </header>
    <header>
      <identifier>oai:zenodo.org:230561</identifier>
      <datestamp>2017-01-05T03:46:02Z</datestamp>
      <setSpec>user-biosyslit</setSpec>
    </header>
    <header>
      <identifier>oai:zenodo.org:241049</identifier>
      <datestamp>2017-01-12T19:20:45Z</datestamp>
      <setSpec>user-biosyslit</setSpec>
    </header>
    <header>
      <identifier>oai:zenodo.org:230563</identifier>
      <datestamp>2017-01-05T03:45:39Z</datestamp>
      <setSpec>user-biosyslit</setSpec>
    </header>
    <header>
      <identifier>oai:zenodo.org:241050</identifier>
      <datestamp>2017-01-12T19:20:37Z</datestamp>
      <setSpec>user-biosyslit</setSpec>
    </header>
    <header>
      <identifier>oai:zenodo.org:230562</identifier>
      <datestamp>2017-01-05T03:45:35Z</datestamp>
      <setSpec>user-biosyslit</setSpec>
    </header>
    <header>
      <identifier>oai:zenodo.org:230566</identifier>
      <datestamp>2017-01-05T03:45:55Z</datestamp>
      <setSpec>user-biosyslit</setSpec>
    </header>
    <header>
      <identifier>oai:zenodo.org:234671</identifier>
      <datestamp>2017-01-08T23:42:20Z</datestamp>
      <setSpec>user-biosyslit</setSpec>
    </header>
    <header>
      <identifier>oai:zenodo.org:233442</identifier>
      <datestamp>2017-01-08T05:07:56Z</datestamp>
      <setSpec>user-biosyslit</setSpec>
    </header>
    <header>
      <identifier>oai:zenodo.org:243519</identifier>
      <datestamp>2017-01-14T06:56:35Z</datestamp>
      <setSpec>user-biosyslit</setSpec>
    </header>
    <header>
      <identifier>oai:zenodo.org:243520</identifier>
      <datestamp>2017-01-14T06:56:31Z</datestamp>
      <setSpec>user-biosyslit</setSpec>
    </header>
    <header>
      <identifier>oai:zenodo.org:243521</identifier>
      <datestamp>2017-01-14T06:56:34Z</datestamp>
      <setSpec>user-biosyslit</setSpec>
    </header>
    <header>
      <identifier>oai:zenodo.org:277080</identifier>
      <datestamp>2017-02-08T20:21:15Z</datestamp>
      <setSpec>user-biosyslit</setSpec>
    </header>
    <header>
      <identifier>oai:zenodo.org:277082</identifier>
      <datestamp>2017-02-08T20:21:21Z</datestamp>
      <setSpec>user-biosyslit</setSpec>
    </header>
    <header>
      <identifier>oai:zenodo.org:287578</identifier>
      <datestamp>2017-02-09T18:41:12Z</datestamp>
      <setSpec>user-biosyslit</setSpec>
    </header>
    <header>
      <identifier>oai:zenodo.org:287590</identifier>
      <datestamp>2017-02-09T18:41:03Z</datestamp>
      <setSpec>user-biosyslit</setSpec>
    </header>
    <header>
      <identifier>oai:zenodo.org:287591</identifier>
      <datestamp>2017-02-09T18:41:06Z</datestamp>
      <setSpec>user-biosyslit</setSpec>
    </header>
    <header>
      <identifier>oai:zenodo.org:287592</identifier>
      <datestamp>2017-02-09T18:41:08Z</datestamp>
      <setSpec>user-biosyslit</setSpec>
    </header>
    <header>
      <identifier>oai:zenodo.org:287593</identifier>
      <datestamp>2017-02-09T18:41:10Z</datestamp>
      <setSpec>user-biosyslit</setSpec>
    </header>
    <header>
      <identifier>oai:zenodo.org:287589</identifier>
      <datestamp>2017-02-09T18:41:01Z</datestamp>
      <setSpec>user-biosyslit</setSpec>
    </header>
    <header>
      <identifier>oai:zenodo.org:250989</identifier>
      <datestamp>2017-01-18T17:09:19Z</datestamp>
      <setSpec>user-biosyslit</setSpec>
    </header>
    <header>
      <identifier>oai:zenodo.org:250992</identifier>
      <datestamp>2017-01-18T17:09:29Z</datestamp>
      <setSpec>user-biosyslit</setSpec>
    </header>
    <header>
      <identifier>oai:zenodo.org:250991</identifier>
      <datestamp>2017-01-18T17:09:26Z</datestamp>
      <setSpec>user-biosyslit</setSpec>
    </header>
    <header>
      <identifier>oai:zenodo.org:253837</identifier>
      <datestamp>2017-01-20T11:46:41Z</datestamp>
      <setSpec>user-biosyslit</setSpec>
    </header>
    <header>
      <identifier>oai:zenodo.org:286780</identifier>
      <datestamp>2017-02-09T16:48:45Z</datestamp>
      <setSpec>user-biosyslit</setSpec>
    </header>
    <header>
      <identifier>oai:zenodo.org:280709</identifier>
      <datestamp>2017-02-09T03:55:39Z</datestamp>
      <setSpec>user-biosyslit</setSpec>
    </header>
    <header>
      <identifier>oai:zenodo.org:276349</identifier>
      <datestamp>2017-02-08T18:40:48Z</datestamp>
      <setSpec>user-biosyslit</setSpec>
    </header>
    <header>
      <identifier>oai:zenodo.org:276348</identifier>
      <datestamp>2017-02-08T18:40:43Z</datestamp>
      <setSpec>user-biosyslit</setSpec>
    </header>
    <header>
      <identifier>oai:zenodo.org:276352</identifier>
      <datestamp>2017-02-08T18:40:55Z</datestamp>
      <setSpec>user-biosyslit</setSpec>
    </header>
    <header>
      <identifier>oai:zenodo.org:276350</identifier>
      <datestamp>2017-02-08T18:40:50Z</datestamp>
      <setSpec>user-biosyslit</setSpec>
    </header>
    <header>
      <identifier>oai:zenodo.org:280712</identifier>
      <datestamp>2017-02-09T03:55:38Z</datestamp>
      <setSpec>user-biosyslit</setSpec>
    </header>
    <header>
      <identifier>oai:zenodo.org:280711</identifier>
      <datestamp>2017-02-09T03:55:35Z</datestamp>
      <setSpec>user-biosyslit</setSpec>
    </header>
    <header>
      <identifier>oai:zenodo.org:280710</identifier>
      <datestamp>2017-02-09T03:55:33Z</datestamp>
      <setSpec>user-biosyslit</setSpec>
    </header>
    <header>
      <identifier>oai:zenodo.org:248406</identifier>
      <datestamp>2017-01-17T03:41:23Z</datestamp>
      <setSpec>user-biosyslit</setSpec>
    </header>
    <header>
      <identifier>oai:zenodo.org:248405</identifier>
      <datestamp>2017-01-17T03:41:20Z</datestamp>
      <setSpec>user-biosyslit</setSpec>
    </header>
    <header>
      <identifier>oai:zenodo.org:248403</identifier>
      <datestamp>2017-01-17T03:41:12Z</datestamp>
      <setSpec>user-biosyslit</setSpec>
    </header>
    <header>
      <identifier>oai:zenodo.org:248402</identifier>
      <datestamp>2017-01-17T03:41:08Z</datestamp>
      <setSpec>user-biosyslit</setSpec>
    </header>
    <header>
      <identifier>oai:zenodo.org:288429</identifier>
      <datestamp>2017-02-09T20:54:59Z</datestamp>
      <setSpec>user-biosyslit</setSpec>
    </header>
    <header>
      <identifier>oai:zenodo.org:288419</identifier>
      <datestamp>2017-02-09T20:54:36Z</datestamp>
      <setSpec>user-biosyslit</setSpec>
    </header>
    <header>
      <identifier>oai:zenodo.org:288421</identifier>
      <datestamp>2017-02-09T20:54:41Z</datestamp>
      <setSpec>user-biosyslit</setSpec>
    </header>
    <header>
      <identifier>oai:zenodo.org:288430</identifier>
      <datestamp>2017-02-09T20:55:01Z</datestamp>
      <setSpec>user-biosyslit</setSpec>
    </header>
    <header>
      <identifier>oai:zenodo.org:288420</identifier>
      <datestamp>2017-02-09T20:54:39Z</datestamp>
      <setSpec>user-biosyslit</setSpec>
    </header>
    <header>
      <identifier>oai:zenodo.org:288414</identifier>
      <datestamp>2017-02-09T20:54:24Z</datestamp>
      <setSpec>user-biosyslit</setSpec>
    </header>
    <header>
      <identifier>oai:zenodo.org:288427</identifier>
      <datestamp>2017-02-09T20:54:55Z</datestamp>
      <setSpec>user-biosyslit</setSpec>
    </header>
    <header>
      <identifier>oai:zenodo.org:288417</identifier>
      <datestamp>2017-02-09T20:54:31Z</datestamp>
      <setSpec>user-biosyslit</setSpec>
    </header>
    <header>
      <identifier>oai:zenodo.org:288416</identifier>
      <datestamp>2017-02-09T20:54:29Z</datestamp>
      <setSpec>user-biosyslit</setSpec>
    </header>
    <header>
      <identifier>oai:zenodo.org:262872</identifier>
      <datestamp>2017-01-29T10:46:21Z</datestamp>
      <setSpec>user-biosyslit</setSpec>
    </header>
    <header>
      <identifier>oai:zenodo.org:262873</identifier>
      <datestamp>2017-01-29T10:46:06Z</datestamp>
      <setSpec>user-biosyslit</setSpec>
    </header>
    <header>
      <identifier>oai:zenodo.org:262877</identifier>
      <datestamp>2017-01-29T10:46:20Z</datestamp>
      <setSpec>user-biosyslit</setSpec>
    </header>
    <header>
      <identifier>oai:zenodo.org:262875</identifier>
      <datestamp>2017-01-29T10:46:12Z</datestamp>
      <setSpec>user-biosyslit</setSpec>
    </header>
    <header>
      <identifier>oai:zenodo.org:277127</identifier>
      <datestamp>2017-02-08T20:27:50Z</datestamp>
      <setSpec>user-biosyslit</setSpec>
    </header>
    <header>
      <identifier>oai:zenodo.org:273880</identifier>
      <datestamp>2017-02-08T11:05:36Z</datestamp>
      <setSpec>user-biosyslit</setSpec>
    </header>
    <header>
      <identifier>oai:zenodo.org:280059</identifier>
      <datestamp>2017-02-09T02:35:35Z</datestamp>
      <setSpec>user-biosyslit</setSpec>
    </header>
    <header>
      <identifier>oai:zenodo.org:280060</identifier>
      <datestamp>2017-02-09T02:35:37Z</datestamp>
      <setSpec>user-biosyslit</setSpec>
    </header>
    <header>
      <identifier>oai:zenodo.org:280062</identifier>
      <datestamp>2017-02-09T02:35:44Z</datestamp>
      <setSpec>user-biosyslit</setSpec>
    </header>
    <header>
      <identifier>oai:zenodo.org:399740</identifier>
      <datestamp>2017-03-15T23:50:50Z</datestamp>
      <setSpec>user-biosyslit</setSpec>
    </header>
    <header>
      <identifier>oai:zenodo.org:399746</identifier>
      <datestamp>2017-03-15T23:50:49Z</datestamp>
      <setSpec>user-biosyslit</setSpec>
    </header>
    <header>
      <identifier>oai:zenodo.org:399745</identifier>
      <datestamp>2017-03-15T23:50:46Z</datestamp>
      <setSpec>user-biosyslit</setSpec>
    </header>
    <header>
      <identifier>oai:zenodo.org:399741</identifier>
      <datestamp>2017-03-15T23:50:32Z</datestamp>
      <setSpec>user-biosyslit</setSpec>
    </header>
    <header>
      <identifier>oai:zenodo.org:238882</identifier>
      <datestamp>2017-01-11T12:14:52Z</datestamp>
      <setSpec>user-biosyslit</setSpec>
    </header>
    <header>
      <identifier>oai:zenodo.org:238883</identifier>
      <datestamp>2017-01-11T12:14:54Z</datestamp>
      <setSpec>user-biosyslit</setSpec>
    </header>
    <header>
      <identifier>oai:zenodo.org:238884</identifier>
      <datestamp>2017-01-11T12:14:57Z</datestamp>
      <setSpec>user-biosyslit</setSpec>
    </header>
    <header>
      <identifier>oai:zenodo.org:265607</identifier>
      <datestamp>2017-01-31T17:36:24Z</datestamp>
      <setSpec>user-biosyslit</setSpec>
    </header>
    <header>
      <identifier>oai:zenodo.org:265610</identifier>
      <datestamp>2017-01-31T17:36:34Z</datestamp>
      <setSpec>user-biosyslit</setSpec>
    </header>
    <header>
      <identifier>oai:zenodo.org:237082</identifier>
      <datestamp>2017-01-10T10:34:59Z</datestamp>
      <setSpec>user-biosyslit</setSpec>
    </header>
    <header>
      <identifier>oai:zenodo.org:265608</identifier>
      <datestamp>2017-01-31T17:36:28Z</datestamp>
      <setSpec>user-biosyslit</setSpec>
    </header>
    <header>
      <identifier>oai:zenodo.org:237085</identifier>
      <datestamp>2017-01-10T10:35:11Z</datestamp>
      <setSpec>user-biosyslit</setSpec>
    </header>
    <header>
      <identifier>oai:zenodo.org:278787</identifier>
      <datestamp>2017-02-08T23:53:00Z</datestamp>
      <setSpec>user-biosyslit</setSpec>
    </header>
    <header>
      <identifier>oai:zenodo.org:279226</identifier>
      <datestamp>2017-02-09T00:52:48Z</datestamp>
      <setSpec>user-biosyslit</setSpec>
    </header>
    <header>
      <identifier>oai:zenodo.org:279244</identifier>
      <datestamp>2017-02-09T00:52:23Z</datestamp>
      <setSpec>user-biosyslit</setSpec>
    </header>
    <header>
      <identifier>oai:zenodo.org:279248</identifier>
      <datestamp>2017-02-09T00:52:39Z</datestamp>
      <setSpec>user-biosyslit</setSpec>
    </header>
    <header>
      <identifier>oai:zenodo.org:279245</identifier>
      <datestamp>2017-02-09T00:52:28Z</datestamp>
      <setSpec>user-biosyslit</setSpec>
    </header>
    <resumptionToken expirationDate="2017-08-31T15:47:56Z" cursor="70400" completeListSize="77796">.eJyNysEKgjAYAOB3-c8S29R0QhfRxIOKLiW9hKmIOU1ckS5697p0rvP3PUE0TQ0W2hBECdVNzcQapVQjugKimq-cn7qPQ3XMeDXytPSyezJkKCetETpiCZxcDWWPogFLto_JEZtL2qE1PqS3XCZLpvoPhlwjkPEaXvzPq9XI48XZm1g62pyReo7ceGXYZoVafR_-88mfzxE7UGAq2wYsA20V6B_l3Aqwnq_XG9-IUYI.DInAtA.EMOoLslvR9cUw6PIRLgG5LmcoRE</resumptionToken>
  </ListIdentifiers>
</OAI-PMH>
