<?xml version='1.0' encoding='UTF-8'?>
<?xml-stylesheet type="text/xsl" href="/static/xsl/oai2.v1.0.xsl"?>
<OAI-PMH xmlns="http://www.openarchives.org/OAI/2.0/" xmlns:xsi="http://www.w3.org/2001/XMLSchema-instance" xsi:schemaLocation="http://www.openarchives.org/OAI/2.0/ http://www.openarchives.org/OAI/2.0/OAI-PMH.xsd">
  <responseDate>2017-08-31T15:45:50Z</responseDate>
  <request verb="ListIdentifiers" resumptionToken=".eJyNzz0LgkAAgOH_crPEfZRXQoto4qCil5IuYSpiniZeoZ7437Ohueb3Wd4ZiKLIgQY3GBKKVIJ2lG4JJgesAJH1D86v1dpBdol41vIwtaJX0EQwxiV1DTE6RkxcWUOvQZKdfHxB-zGs4OSfw2csgzEi9sCgSR3pT-7dXl1OPIsnN6tjYatzhvPeM_2JIZ0lJPs69KeTP50hjkABXVoWQFM_V_WQ9qUA2rwsb8ixUW0.DInArg.RQhBzYYb_51b2-RG9LcCVDkN7n4">https://zenodo.org/oai2d</request>
  <ListIdentifiers>
    <header>
      <identifier>oai:zenodo.org:251254</identifier>
      <datestamp>2017-01-18T20:33:37Z</datestamp>
      <setSpec>user-biosyslit</setSpec>
    </header>
    <header>
      <identifier>oai:zenodo.org:240123</identifier>
      <datestamp>2017-01-12T04:58:16Z</datestamp>
      <setSpec>user-biosyslit</setSpec>
    </header>
    <header>
      <identifier>oai:zenodo.org:242063</identifier>
      <datestamp>2017-01-13T10:08:27Z</datestamp>
      <setSpec>user-biosyslit</setSpec>
    </header>
    <header>
      <identifier>oai:zenodo.org:242065</identifier>
      <datestamp>2017-01-13T10:08:02Z</datestamp>
      <setSpec>user-biosyslit</setSpec>
    </header>
    <header>
      <identifier>oai:zenodo.org:242067</identifier>
      <datestamp>2017-01-13T10:08:08Z</datestamp>
      <setSpec>user-biosyslit</setSpec>
    </header>
    <header>
      <identifier>oai:zenodo.org:242069</identifier>
      <datestamp>2017-01-13T10:08:14Z</datestamp>
      <setSpec>user-biosyslit</setSpec>
    </header>
    <header>
      <identifier>oai:zenodo.org:242072</identifier>
      <datestamp>2017-01-13T10:08:23Z</datestamp>
      <setSpec>user-biosyslit</setSpec>
    </header>
    <header>
      <identifier>oai:zenodo.org:255937</identifier>
      <datestamp>2017-01-22T00:27:17Z</datestamp>
      <setSpec>user-biosyslit</setSpec>
    </header>
    <header>
      <identifier>oai:zenodo.org:255940</identifier>
      <datestamp>2017-01-22T00:27:15Z</datestamp>
      <setSpec>user-biosyslit</setSpec>
    </header>
    <header>
      <identifier>oai:zenodo.org:255938</identifier>
      <datestamp>2017-01-22T00:27:10Z</datestamp>
      <setSpec>user-biosyslit</setSpec>
    </header>
    <header>
      <identifier>oai:zenodo.org:282692</identifier>
      <datestamp>2017-02-09T07:27:53Z</datestamp>
      <setSpec>user-biosyslit</setSpec>
    </header>
    <header>
      <identifier>oai:zenodo.org:278664</identifier>
      <datestamp>2017-02-08T23:37:36Z</datestamp>
      <setSpec>user-biosyslit</setSpec>
    </header>
    <header>
      <identifier>oai:zenodo.org:278662</identifier>
      <datestamp>2017-02-08T23:37:32Z</datestamp>
      <setSpec>user-biosyslit</setSpec>
    </header>
    <header>
      <identifier>oai:zenodo.org:230530</identifier>
      <datestamp>2017-01-05T02:46:57Z</datestamp>
      <setSpec>user-biosyslit</setSpec>
    </header>
    <header>
      <identifier>oai:zenodo.org:230531</identifier>
      <datestamp>2017-01-05T02:47:00Z</datestamp>
      <setSpec>user-biosyslit</setSpec>
    </header>
    <header>
      <identifier>oai:zenodo.org:266767</identifier>
      <datestamp>2017-02-01T14:43:20Z</datestamp>
      <setSpec>user-biosyslit</setSpec>
    </header>
    <header>
      <identifier>oai:zenodo.org:266764</identifier>
      <datestamp>2017-02-01T14:43:09Z</datestamp>
      <setSpec>user-biosyslit</setSpec>
    </header>
    <header>
      <identifier>oai:zenodo.org:266759</identifier>
      <datestamp>2017-02-01T14:42:57Z</datestamp>
      <setSpec>user-biosyslit</setSpec>
    </header>
    <header>
      <identifier>oai:zenodo.org:266761</identifier>
      <datestamp>2017-02-01T14:43:02Z</datestamp>
      <setSpec>user-biosyslit</setSpec>
    </header>
    <header>
      <identifier>oai:zenodo.org:266765</identifier>
      <datestamp>2017-02-01T14:43:12Z</datestamp>
      <setSpec>user-biosyslit</setSpec>
    </header>
    <header>
      <identifier>oai:zenodo.org:266763</identifier>
      <datestamp>2017-02-01T14:43:07Z</datestamp>
      <setSpec>user-biosyslit</setSpec>
    </header>
    <header>
      <identifier>oai:zenodo.org:266758</identifier>
      <datestamp>2017-02-01T14:42:54Z</datestamp>
      <setSpec>user-biosyslit</setSpec>
    </header>
    <header>
      <identifier>oai:zenodo.org:266757</identifier>
      <datestamp>2017-02-01T14:42:51Z</datestamp>
      <setSpec>user-biosyslit</setSpec>
    </header>
    <header>
      <identifier>oai:zenodo.org:246504</identifier>
      <datestamp>2017-01-16T03:12:40Z</datestamp>
      <setSpec>user-biosyslit</setSpec>
    </header>
    <header>
      <identifier>oai:zenodo.org:246503</identifier>
      <datestamp>2017-01-16T03:12:35Z</datestamp>
      <setSpec>user-biosyslit</setSpec>
    </header>
    <header>
      <identifier>oai:zenodo.org:246499</identifier>
      <datestamp>2017-01-16T03:12:17Z</datestamp>
      <setSpec>user-biosyslit</setSpec>
    </header>
    <header>
      <identifier>oai:zenodo.org:246500</identifier>
      <datestamp>2017-01-16T03:12:22Z</datestamp>
      <setSpec>user-biosyslit</setSpec>
    </header>
    <header>
      <identifier>oai:zenodo.org:246501</identifier>
      <datestamp>2017-01-16T03:12:25Z</datestamp>
      <setSpec>user-biosyslit</setSpec>
    </header>
    <header>
      <identifier>oai:zenodo.org:246502</identifier>
      <datestamp>2017-01-16T03:12:29Z</datestamp>
      <setSpec>user-biosyslit</setSpec>
    </header>
    <header>
      <identifier>oai:zenodo.org:246495</identifier>
      <datestamp>2017-01-16T03:12:02Z</datestamp>
      <setSpec>user-biosyslit</setSpec>
    </header>
    <header>
      <identifier>oai:zenodo.org:246496</identifier>
      <datestamp>2017-01-16T03:12:05Z</datestamp>
      <setSpec>user-biosyslit</setSpec>
    </header>
    <header>
      <identifier>oai:zenodo.org:244071</identifier>
      <datestamp>2017-01-14T16:02:37Z</datestamp>
      <setSpec>user-biosyslit</setSpec>
    </header>
    <header>
      <identifier>oai:zenodo.org:244072</identifier>
      <datestamp>2017-01-14T16:02:42Z</datestamp>
      <setSpec>user-biosyslit</setSpec>
    </header>
    <header>
      <identifier>oai:zenodo.org:244076</identifier>
      <datestamp>2017-01-14T16:02:56Z</datestamp>
      <setSpec>user-biosyslit</setSpec>
    </header>
    <header>
      <identifier>oai:zenodo.org:244075</identifier>
      <datestamp>2017-01-14T16:02:52Z</datestamp>
      <setSpec>user-biosyslit</setSpec>
    </header>
    <header>
      <identifier>oai:zenodo.org:262414</identifier>
      <datestamp>2017-01-29T04:09:45Z</datestamp>
      <setSpec>user-biosyslit</setSpec>
    </header>
    <header>
      <identifier>oai:zenodo.org:262424</identifier>
      <datestamp>2017-01-29T04:10:14Z</datestamp>
      <setSpec>user-biosyslit</setSpec>
    </header>
    <header>
      <identifier>oai:zenodo.org:262428</identifier>
      <datestamp>2017-01-29T04:10:45Z</datestamp>
      <setSpec>user-biosyslit</setSpec>
    </header>
    <header>
      <identifier>oai:zenodo.org:262423</identifier>
      <datestamp>2017-01-29T04:10:12Z</datestamp>
      <setSpec>user-biosyslit</setSpec>
    </header>
    <header>
      <identifier>oai:zenodo.org:262416</identifier>
      <datestamp>2017-01-29T04:09:51Z</datestamp>
      <setSpec>user-biosyslit</setSpec>
    </header>
    <header>
      <identifier>oai:zenodo.org:815947</identifier>
      <datestamp>2017-06-22T13:19:01Z</datestamp>
      <setSpec>user-biosyslit</setSpec>
    </header>
    <header>
      <identifier>oai:zenodo.org:815967</identifier>
      <datestamp>2017-06-22T13:18:49Z</datestamp>
      <setSpec>user-biosyslit</setSpec>
    </header>
    <header>
      <identifier>oai:zenodo.org:815971</identifier>
      <datestamp>2017-06-22T13:18:58Z</datestamp>
      <setSpec>user-biosyslit</setSpec>
    </header>
    <header>
      <identifier>oai:zenodo.org:815981</identifier>
      <datestamp>2017-06-22T13:19:37Z</datestamp>
      <setSpec>user-biosyslit</setSpec>
    </header>
    <header>
      <identifier>oai:zenodo.org:815979</identifier>
      <datestamp>2017-06-22T13:19:15Z</datestamp>
      <setSpec>user-biosyslit</setSpec>
    </header>
    <header>
      <identifier>oai:zenodo.org:815977</identifier>
      <datestamp>2017-06-22T13:19:11Z</datestamp>
      <setSpec>user-biosyslit</setSpec>
    </header>
    <header>
      <identifier>oai:zenodo.org:815985</identifier>
      <datestamp>2017-06-22T13:19:29Z</datestamp>
      <setSpec>user-biosyslit</setSpec>
    </header>
    <header>
      <identifier>oai:zenodo.org:815975</identifier>
      <datestamp>2017-06-22T13:19:07Z</datestamp>
      <setSpec>user-biosyslit</setSpec>
    </header>
    <header>
      <identifier>oai:zenodo.org:273551</identifier>
      <datestamp>2017-02-08T09:51:22Z</datestamp>
      <setSpec>user-biosyslit</setSpec>
    </header>
    <header>
      <identifier>oai:zenodo.org:273552</identifier>
      <datestamp>2017-02-08T09:51:20Z</datestamp>
      <setSpec>user-biosyslit</setSpec>
    </header>
    <header>
      <identifier>oai:zenodo.org:249677</identifier>
      <datestamp>2017-01-17T22:33:28Z</datestamp>
      <setSpec>user-biosyslit</setSpec>
    </header>
    <header>
      <identifier>oai:zenodo.org:249680</identifier>
      <datestamp>2017-01-17T22:32:47Z</datestamp>
      <setSpec>user-biosyslit</setSpec>
    </header>
    <header>
      <identifier>oai:zenodo.org:249686</identifier>
      <datestamp>2017-01-17T22:33:11Z</datestamp>
      <setSpec>user-biosyslit</setSpec>
    </header>
    <header>
      <identifier>oai:zenodo.org:249687</identifier>
      <datestamp>2017-01-17T22:33:14Z</datestamp>
      <setSpec>user-biosyslit</setSpec>
    </header>
    <header>
      <identifier>oai:zenodo.org:249682</identifier>
      <datestamp>2017-01-17T22:32:57Z</datestamp>
      <setSpec>user-biosyslit</setSpec>
    </header>
    <header>
      <identifier>oai:zenodo.org:235485</identifier>
      <datestamp>2017-01-09T10:38:49Z</datestamp>
      <setSpec>user-biosyslit</setSpec>
    </header>
    <header>
      <identifier>oai:zenodo.org:235490</identifier>
      <datestamp>2017-01-09T10:38:30Z</datestamp>
      <setSpec>user-biosyslit</setSpec>
    </header>
    <header>
      <identifier>oai:zenodo.org:235486</identifier>
      <datestamp>2017-01-09T10:38:17Z</datestamp>
      <setSpec>user-biosyslit</setSpec>
    </header>
    <header>
      <identifier>oai:zenodo.org:235492</identifier>
      <datestamp>2017-01-09T10:38:36Z</datestamp>
      <setSpec>user-biosyslit</setSpec>
    </header>
    <header>
      <identifier>oai:zenodo.org:235495</identifier>
      <datestamp>2017-01-09T10:38:45Z</datestamp>
      <setSpec>user-biosyslit</setSpec>
    </header>
    <header>
      <identifier>oai:zenodo.org:285702</identifier>
      <datestamp>2017-02-09T14:09:32Z</datestamp>
      <setSpec>user-biosyslit</setSpec>
    </header>
    <header>
      <identifier>oai:zenodo.org:285705</identifier>
      <datestamp>2017-02-09T14:09:38Z</datestamp>
      <setSpec>user-biosyslit</setSpec>
    </header>
    <header>
      <identifier>oai:zenodo.org:285703</identifier>
      <datestamp>2017-02-09T14:09:34Z</datestamp>
      <setSpec>user-biosyslit</setSpec>
    </header>
    <header>
      <identifier>oai:zenodo.org:285701</identifier>
      <datestamp>2017-02-09T14:09:29Z</datestamp>
      <setSpec>user-biosyslit</setSpec>
    </header>
    <header>
      <identifier>oai:zenodo.org:285698</identifier>
      <datestamp>2017-02-09T14:09:23Z</datestamp>
      <setSpec>user-biosyslit</setSpec>
    </header>
    <header>
      <identifier>oai:zenodo.org:240193</identifier>
      <datestamp>2017-01-12T05:45:32Z</datestamp>
      <setSpec>user-biosyslit</setSpec>
    </header>
    <header>
      <identifier>oai:zenodo.org:240190</identifier>
      <datestamp>2017-01-12T05:45:23Z</datestamp>
      <setSpec>user-biosyslit</setSpec>
    </header>
    <header>
      <identifier>oai:zenodo.org:229524</identifier>
      <datestamp>2017-01-03T17:50:53Z</datestamp>
      <setSpec>user-biosyslit</setSpec>
    </header>
    <header>
      <identifier>oai:zenodo.org:229533</identifier>
      <datestamp>2017-01-03T17:50:46Z</datestamp>
      <setSpec>user-biosyslit</setSpec>
    </header>
    <header>
      <identifier>oai:zenodo.org:229534</identifier>
      <datestamp>2017-01-03T17:50:49Z</datestamp>
      <setSpec>user-biosyslit</setSpec>
    </header>
    <header>
      <identifier>oai:zenodo.org:278018</identifier>
      <datestamp>2017-02-08T22:17:11Z</datestamp>
      <setSpec>user-biosyslit</setSpec>
    </header>
    <header>
      <identifier>oai:zenodo.org:278015</identifier>
      <datestamp>2017-02-08T22:17:01Z</datestamp>
      <setSpec>user-biosyslit</setSpec>
    </header>
    <header>
      <identifier>oai:zenodo.org:278019</identifier>
      <datestamp>2017-02-08T22:17:13Z</datestamp>
      <setSpec>user-biosyslit</setSpec>
    </header>
    <header>
      <identifier>oai:zenodo.org:278021</identifier>
      <datestamp>2017-02-08T22:17:19Z</datestamp>
      <setSpec>user-biosyslit</setSpec>
    </header>
    <header>
      <identifier>oai:zenodo.org:278017</identifier>
      <datestamp>2017-02-08T22:17:06Z</datestamp>
      <setSpec>user-biosyslit</setSpec>
    </header>
    <header>
      <identifier>oai:zenodo.org:278020</identifier>
      <datestamp>2017-02-08T22:17:17Z</datestamp>
      <setSpec>user-biosyslit</setSpec>
    </header>
    <header>
      <identifier>oai:zenodo.org:245522</identifier>
      <datestamp>2017-01-15T14:43:12Z</datestamp>
      <setSpec>user-biosyslit</setSpec>
    </header>
    <header>
      <identifier>oai:zenodo.org:245520</identifier>
      <datestamp>2017-01-15T14:43:04Z</datestamp>
      <setSpec>user-biosyslit</setSpec>
    </header>
    <header>
      <identifier>oai:zenodo.org:285142</identifier>
      <datestamp>2017-02-09T12:44:08Z</datestamp>
      <setSpec>user-biosyslit</setSpec>
    </header>
    <header>
      <identifier>oai:zenodo.org:285141</identifier>
      <datestamp>2017-02-09T12:44:05Z</datestamp>
      <setSpec>user-biosyslit</setSpec>
    </header>
    <header>
      <identifier>oai:zenodo.org:285140</identifier>
      <datestamp>2017-02-09T12:44:03Z</datestamp>
      <setSpec>user-biosyslit</setSpec>
    </header>
    <header>
      <identifier>oai:zenodo.org:285144</identifier>
      <datestamp>2017-02-09T12:44:12Z</datestamp>
      <setSpec>user-biosyslit</setSpec>
    </header>
    <header>
      <identifier>oai:zenodo.org:285143</identifier>
      <datestamp>2017-02-09T12:44:10Z</datestamp>
      <setSpec>user-biosyslit</setSpec>
    </header>
    <header>
      <identifier>oai:zenodo.org:232042</identifier>
      <datestamp>2017-01-06T10:39:24Z</datestamp>
      <setSpec>user-biosyslit</setSpec>
    </header>
    <header>
      <identifier>oai:zenodo.org:279872</identifier>
      <datestamp>2017-02-09T02:12:01Z</datestamp>
      <setSpec>user-biosyslit</setSpec>
    </header>
    <header>
      <identifier>oai:zenodo.org:279868</identifier>
      <datestamp>2017-02-09T02:11:51Z</datestamp>
      <setSpec>user-biosyslit</setSpec>
    </header>
    <header>
      <identifier>oai:zenodo.org:279870</identifier>
      <datestamp>2017-02-09T02:11:57Z</datestamp>
      <setSpec>user-biosyslit</setSpec>
    </header>
    <header>
      <identifier>oai:zenodo.org:273892</identifier>
      <datestamp>2017-02-08T11:09:20Z</datestamp>
      <setSpec>user-biosyslit</setSpec>
    </header>
    <header>
      <identifier>oai:zenodo.org:277919</identifier>
      <datestamp>2017-02-08T22:04:22Z</datestamp>
      <setSpec>user-biosyslit</setSpec>
    </header>
    <header>
      <identifier>oai:zenodo.org:277917</identifier>
      <datestamp>2017-02-08T22:04:15Z</datestamp>
      <setSpec>user-biosyslit</setSpec>
    </header>
    <header>
      <identifier>oai:zenodo.org:251164</identifier>
      <datestamp>2017-01-18T19:43:06Z</datestamp>
      <setSpec>user-biosyslit</setSpec>
    </header>
    <header>
      <identifier>oai:zenodo.org:274077</identifier>
      <datestamp>2017-02-08T12:04:19Z</datestamp>
      <setSpec>user-biosyslit</setSpec>
    </header>
    <header>
      <identifier>oai:zenodo.org:251187</identifier>
      <datestamp>2017-01-18T19:43:05Z</datestamp>
      <setSpec>user-biosyslit</setSpec>
    </header>
    <header>
      <identifier>oai:zenodo.org:251177</identifier>
      <datestamp>2017-01-18T19:42:36Z</datestamp>
      <setSpec>user-biosyslit</setSpec>
    </header>
    <header>
      <identifier>oai:zenodo.org:251170</identifier>
      <datestamp>2017-01-18T19:42:08Z</datestamp>
      <setSpec>user-biosyslit</setSpec>
    </header>
    <header>
      <identifier>oai:zenodo.org:251173</identifier>
      <datestamp>2017-01-18T19:42:23Z</datestamp>
      <setSpec>user-biosyslit</setSpec>
    </header>
    <header>
      <identifier>oai:zenodo.org:251179</identifier>
      <datestamp>2017-01-18T19:42:43Z</datestamp>
      <setSpec>user-biosyslit</setSpec>
    </header>
    <header>
      <identifier>oai:zenodo.org:251185</identifier>
      <datestamp>2017-01-18T19:42:59Z</datestamp>
      <setSpec>user-biosyslit</setSpec>
    </header>
    <header>
      <identifier>oai:zenodo.org:274078</identifier>
      <datestamp>2017-02-08T12:04:16Z</datestamp>
      <setSpec>user-biosyslit</setSpec>
    </header>
    <header>
      <identifier>oai:zenodo.org:280670</identifier>
      <datestamp>2017-02-09T03:50:30Z</datestamp>
      <setSpec>user-biosyslit</setSpec>
    </header>
    <resumptionToken expirationDate="2017-08-31T15:47:50Z" cursor="69100" completeListSize="77796">.eJyNysEKgjAYAOB3-c8SmwOnQpfQpIOKrQ3tEjZFylnhinTiu-elc52_bwJd1xX4aOVg7GHPRdRBmFKbWqBlf1fqdFkYZC6UvCleRuK17wQq7IYmgR7ioCCJaVHaYcO2mZ1jd-AXNGYH_izMfhBk92YopLHJxuS6W15F0kgdz9GD8dtGMbvq0zAbGd6wI5Hfh_985ucL9BoseJRNDb7jEQvad9k3Gvxpnj-efFFF.DInArg.SPfIJ8X8FeKwDtDexM7EKd7rlNk</resumptionToken>
  </ListIdentifiers>
</OAI-PMH>
