<?xml version='1.0' encoding='UTF-8'?>
<?xml-stylesheet type="text/xsl" href="/static/xsl/oai2.v1.0.xsl"?>
<OAI-PMH xmlns="http://www.openarchives.org/OAI/2.0/" xmlns:xsi="http://www.w3.org/2001/XMLSchema-instance" xsi:schemaLocation="http://www.openarchives.org/OAI/2.0/ http://www.openarchives.org/OAI/2.0/OAI-PMH.xsd">
  <responseDate>2017-08-31T15:43:10Z</responseDate>
  <request verb="ListIdentifiers" resumptionToken=".eJyNyj0LgkAYAOD_8s4S9yGYQoto4qCil6IuYaeIdZV4hXrif8-luebnWUA2TQ0W2hm6jjEhiBBzj3VqaCD58BTi3G0MPM8Ef4i08rJ3cs9QQVojdOQUOAUN1Q1Fd6zYMSY53k9ph-b4lL4KlUwZ9UeGXCNQ8Rxe_e3VNPJEefF6lj5swUg9RG48M2yzkvLvw38-9fM58gAa9FXbgEWJqcFtrIZWgrWs6weQVlEy.DInADg.AHH7Xn6jjjwH7AJ0gs3x5A3WLRo">https://zenodo.org/oai2d</request>
  <ListIdentifiers>
    <header>
      <identifier>oai:zenodo.org:282992</identifier>
      <datestamp>2017-02-09T07:58:32Z</datestamp>
      <setSpec>user-biosyslit</setSpec>
    </header>
    <header>
      <identifier>oai:zenodo.org:282996</identifier>
      <datestamp>2017-02-09T07:58:40Z</datestamp>
      <setSpec>user-biosyslit</setSpec>
    </header>
    <header>
      <identifier>oai:zenodo.org:282994</identifier>
      <datestamp>2017-02-09T07:58:36Z</datestamp>
      <setSpec>user-biosyslit</setSpec>
    </header>
    <header>
      <identifier>oai:zenodo.org:240704</identifier>
      <datestamp>2017-01-12T12:52:55Z</datestamp>
      <setSpec>user-biosyslit</setSpec>
    </header>
    <header>
      <identifier>oai:zenodo.org:275595</identifier>
      <datestamp>2017-02-08T16:45:46Z</datestamp>
      <setSpec>user-biosyslit</setSpec>
    </header>
    <header>
      <identifier>oai:zenodo.org:275594</identifier>
      <datestamp>2017-02-08T16:45:44Z</datestamp>
      <setSpec>user-biosyslit</setSpec>
    </header>
    <header>
      <identifier>oai:zenodo.org:275596</identifier>
      <datestamp>2017-02-08T16:45:48Z</datestamp>
      <setSpec>user-biosyslit</setSpec>
    </header>
    <header>
      <identifier>oai:zenodo.org:240711</identifier>
      <datestamp>2017-01-12T12:52:50Z</datestamp>
      <setSpec>user-biosyslit</setSpec>
    </header>
    <header>
      <identifier>oai:zenodo.org:240705</identifier>
      <datestamp>2017-01-12T12:52:29Z</datestamp>
      <setSpec>user-biosyslit</setSpec>
    </header>
    <header>
      <identifier>oai:zenodo.org:235465</identifier>
      <datestamp>2017-01-09T10:22:54Z</datestamp>
      <setSpec>user-biosyslit</setSpec>
    </header>
    <header>
      <identifier>oai:zenodo.org:279924</identifier>
      <datestamp>2017-02-09T02:17:39Z</datestamp>
      <setSpec>user-biosyslit</setSpec>
    </header>
    <header>
      <identifier>oai:zenodo.org:279926</identifier>
      <datestamp>2017-02-09T02:17:46Z</datestamp>
      <setSpec>user-biosyslit</setSpec>
    </header>
    <header>
      <identifier>oai:zenodo.org:283472</identifier>
      <datestamp>2017-02-09T08:58:34Z</datestamp>
      <setSpec>user-biosyslit</setSpec>
    </header>
    <header>
      <identifier>oai:zenodo.org:283476</identifier>
      <datestamp>2017-02-09T08:58:48Z</datestamp>
      <setSpec>user-biosyslit</setSpec>
    </header>
    <header>
      <identifier>oai:zenodo.org:283468</identifier>
      <datestamp>2017-02-09T08:58:22Z</datestamp>
      <setSpec>user-biosyslit</setSpec>
    </header>
    <header>
      <identifier>oai:zenodo.org:283474</identifier>
      <datestamp>2017-02-09T08:58:40Z</datestamp>
      <setSpec>user-biosyslit</setSpec>
    </header>
    <header>
      <identifier>oai:zenodo.org:283479</identifier>
      <datestamp>2017-02-09T08:58:55Z</datestamp>
      <setSpec>user-biosyslit</setSpec>
    </header>
    <header>
      <identifier>oai:zenodo.org:283477</identifier>
      <datestamp>2017-02-09T08:58:50Z</datestamp>
      <setSpec>user-biosyslit</setSpec>
    </header>
    <header>
      <identifier>oai:zenodo.org:235487</identifier>
      <datestamp>2017-01-09T10:38:21Z</datestamp>
      <setSpec>user-biosyslit</setSpec>
    </header>
    <header>
      <identifier>oai:zenodo.org:235488</identifier>
      <datestamp>2017-01-09T10:38:24Z</datestamp>
      <setSpec>user-biosyslit</setSpec>
    </header>
    <header>
      <identifier>oai:zenodo.org:238327</identifier>
      <datestamp>2017-01-11T04:22:21Z</datestamp>
      <setSpec>user-biosyslit</setSpec>
    </header>
    <header>
      <identifier>oai:zenodo.org:285699</identifier>
      <datestamp>2017-02-09T14:09:25Z</datestamp>
      <setSpec>user-biosyslit</setSpec>
    </header>
    <header>
      <identifier>oai:zenodo.org:285700</identifier>
      <datestamp>2017-02-09T14:09:27Z</datestamp>
      <setSpec>user-biosyslit</setSpec>
    </header>
    <header>
      <identifier>oai:zenodo.org:285704</identifier>
      <datestamp>2017-02-09T14:09:36Z</datestamp>
      <setSpec>user-biosyslit</setSpec>
    </header>
    <header>
      <identifier>oai:zenodo.org:285695</identifier>
      <datestamp>2017-02-09T14:09:15Z</datestamp>
      <setSpec>user-biosyslit</setSpec>
    </header>
    <header>
      <identifier>oai:zenodo.org:238329</identifier>
      <datestamp>2017-01-11T04:22:12Z</datestamp>
      <setSpec>user-biosyslit</setSpec>
    </header>
    <header>
      <identifier>oai:zenodo.org:238331</identifier>
      <datestamp>2017-01-11T04:22:20Z</datestamp>
      <setSpec>user-biosyslit</setSpec>
    </header>
    <header>
      <identifier>oai:zenodo.org:238330</identifier>
      <datestamp>2017-01-11T04:22:16Z</datestamp>
      <setSpec>user-biosyslit</setSpec>
    </header>
    <header>
      <identifier>oai:zenodo.org:289493</identifier>
      <datestamp>2017-02-09T23:41:32Z</datestamp>
      <setSpec>user-biosyslit</setSpec>
    </header>
    <header>
      <identifier>oai:zenodo.org:289491</identifier>
      <datestamp>2017-02-09T23:41:27Z</datestamp>
      <setSpec>user-biosyslit</setSpec>
    </header>
    <header>
      <identifier>oai:zenodo.org:250719</identifier>
      <datestamp>2017-01-18T14:17:06Z</datestamp>
      <setSpec>user-biosyslit</setSpec>
    </header>
    <header>
      <identifier>oai:zenodo.org:250703</identifier>
      <datestamp>2017-01-18T14:16:25Z</datestamp>
      <setSpec>user-biosyslit</setSpec>
    </header>
    <header>
      <identifier>oai:zenodo.org:250706</identifier>
      <datestamp>2017-01-18T14:16:31Z</datestamp>
      <setSpec>user-biosyslit</setSpec>
    </header>
    <header>
      <identifier>oai:zenodo.org:250718</identifier>
      <datestamp>2017-01-18T14:17:04Z</datestamp>
      <setSpec>user-biosyslit</setSpec>
    </header>
    <header>
      <identifier>oai:zenodo.org:250707</identifier>
      <datestamp>2017-01-18T14:16:34Z</datestamp>
      <setSpec>user-biosyslit</setSpec>
    </header>
    <header>
      <identifier>oai:zenodo.org:250715</identifier>
      <datestamp>2017-01-18T14:16:57Z</datestamp>
      <setSpec>user-biosyslit</setSpec>
    </header>
    <header>
      <identifier>oai:zenodo.org:250704</identifier>
      <datestamp>2017-01-18T14:16:27Z</datestamp>
      <setSpec>user-biosyslit</setSpec>
    </header>
    <header>
      <identifier>oai:zenodo.org:250714</identifier>
      <datestamp>2017-01-18T14:16:54Z</datestamp>
      <setSpec>user-biosyslit</setSpec>
    </header>
    <header>
      <identifier>oai:zenodo.org:250705</identifier>
      <datestamp>2017-01-18T14:16:29Z</datestamp>
      <setSpec>user-biosyslit</setSpec>
    </header>
    <header>
      <identifier>oai:zenodo.org:279866</identifier>
      <datestamp>2017-02-09T02:12:26Z</datestamp>
      <setSpec>user-biosyslit</setSpec>
    </header>
    <header>
      <identifier>oai:zenodo.org:232850</identifier>
      <datestamp>2017-01-07T00:29:14Z</datestamp>
      <setSpec>user-biosyslit</setSpec>
    </header>
    <header>
      <identifier>oai:zenodo.org:232853</identifier>
      <datestamp>2017-01-07T00:29:25Z</datestamp>
      <setSpec>user-biosyslit</setSpec>
    </header>
    <header>
      <identifier>oai:zenodo.org:232854</identifier>
      <datestamp>2017-01-07T00:29:29Z</datestamp>
      <setSpec>user-biosyslit</setSpec>
    </header>
    <header>
      <identifier>oai:zenodo.org:279877</identifier>
      <datestamp>2017-02-09T02:12:14Z</datestamp>
      <setSpec>user-biosyslit</setSpec>
    </header>
    <header>
      <identifier>oai:zenodo.org:279879</identifier>
      <datestamp>2017-02-09T02:12:19Z</datestamp>
      <setSpec>user-biosyslit</setSpec>
    </header>
    <header>
      <identifier>oai:zenodo.org:236167</identifier>
      <datestamp>2017-01-09T19:10:52Z</datestamp>
      <setSpec>user-biosyslit</setSpec>
    </header>
    <header>
      <identifier>oai:zenodo.org:236170</identifier>
      <datestamp>2017-01-09T19:10:25Z</datestamp>
      <setSpec>user-biosyslit</setSpec>
    </header>
    <header>
      <identifier>oai:zenodo.org:236172</identifier>
      <datestamp>2017-01-09T19:10:27Z</datestamp>
      <setSpec>user-biosyslit</setSpec>
    </header>
    <header>
      <identifier>oai:zenodo.org:236179</identifier>
      <datestamp>2017-01-09T19:10:47Z</datestamp>
      <setSpec>user-biosyslit</setSpec>
    </header>
    <header>
      <identifier>oai:zenodo.org:236174</identifier>
      <datestamp>2017-01-09T19:10:32Z</datestamp>
      <setSpec>user-biosyslit</setSpec>
    </header>
    <header>
      <identifier>oai:zenodo.org:236175</identifier>
      <datestamp>2017-01-09T19:10:34Z</datestamp>
      <setSpec>user-biosyslit</setSpec>
    </header>
    <header>
      <identifier>oai:zenodo.org:237072</identifier>
      <datestamp>2017-01-10T10:29:17Z</datestamp>
      <setSpec>user-biosyslit</setSpec>
    </header>
    <header>
      <identifier>oai:zenodo.org:289125</identifier>
      <datestamp>2017-02-09T22:46:19Z</datestamp>
      <setSpec>user-biosyslit</setSpec>
    </header>
    <header>
      <identifier>oai:zenodo.org:237450</identifier>
      <datestamp>2017-01-10T15:38:36Z</datestamp>
      <setSpec>user-biosyslit</setSpec>
    </header>
    <header>
      <identifier>oai:zenodo.org:276038</identifier>
      <datestamp>2017-02-08T17:59:43Z</datestamp>
      <setSpec>user-biosyslit</setSpec>
    </header>
    <header>
      <identifier>oai:zenodo.org:237448</identifier>
      <datestamp>2017-01-10T15:38:31Z</datestamp>
      <setSpec>user-biosyslit</setSpec>
    </header>
    <header>
      <identifier>oai:zenodo.org:283565</identifier>
      <datestamp>2017-02-09T09:12:39Z</datestamp>
      <setSpec>user-biosyslit</setSpec>
    </header>
    <header>
      <identifier>oai:zenodo.org:245817</identifier>
      <datestamp>2017-01-15T19:03:36Z</datestamp>
      <setSpec>user-biosyslit</setSpec>
    </header>
    <header>
      <identifier>oai:zenodo.org:283571</identifier>
      <datestamp>2017-02-09T09:12:38Z</datestamp>
      <setSpec>user-biosyslit</setSpec>
    </header>
    <header>
      <identifier>oai:zenodo.org:283570</identifier>
      <datestamp>2017-02-09T09:12:36Z</datestamp>
      <setSpec>user-biosyslit</setSpec>
    </header>
    <header>
      <identifier>oai:zenodo.org:245823</identifier>
      <datestamp>2017-01-15T19:03:25Z</datestamp>
      <setSpec>user-biosyslit</setSpec>
    </header>
    <header>
      <identifier>oai:zenodo.org:245820</identifier>
      <datestamp>2017-01-15T19:03:12Z</datestamp>
      <setSpec>user-biosyslit</setSpec>
    </header>
    <header>
      <identifier>oai:zenodo.org:245822</identifier>
      <datestamp>2017-01-15T19:03:20Z</datestamp>
      <setSpec>user-biosyslit</setSpec>
    </header>
    <header>
      <identifier>oai:zenodo.org:245825</identifier>
      <datestamp>2017-01-15T19:03:34Z</datestamp>
      <setSpec>user-biosyslit</setSpec>
    </header>
    <header>
      <identifier>oai:zenodo.org:254411</identifier>
      <datestamp>2017-01-20T18:34:16Z</datestamp>
      <setSpec>user-biosyslit</setSpec>
    </header>
    <header>
      <identifier>oai:zenodo.org:254422</identifier>
      <datestamp>2017-01-20T18:34:44Z</datestamp>
      <setSpec>user-biosyslit</setSpec>
    </header>
    <header>
      <identifier>oai:zenodo.org:254419</identifier>
      <datestamp>2017-01-20T18:34:38Z</datestamp>
      <setSpec>user-biosyslit</setSpec>
    </header>
    <header>
      <identifier>oai:zenodo.org:254415</identifier>
      <datestamp>2017-01-20T18:34:29Z</datestamp>
      <setSpec>user-biosyslit</setSpec>
    </header>
    <header>
      <identifier>oai:zenodo.org:254418</identifier>
      <datestamp>2017-01-20T18:34:36Z</datestamp>
      <setSpec>user-biosyslit</setSpec>
    </header>
    <header>
      <identifier>oai:zenodo.org:254408</identifier>
      <datestamp>2017-01-20T18:34:06Z</datestamp>
      <setSpec>user-biosyslit</setSpec>
    </header>
    <header>
      <identifier>oai:zenodo.org:254424</identifier>
      <datestamp>2017-01-20T18:34:50Z</datestamp>
      <setSpec>user-biosyslit</setSpec>
    </header>
    <header>
      <identifier>oai:zenodo.org:254420</identifier>
      <datestamp>2017-01-20T18:34:40Z</datestamp>
      <setSpec>user-biosyslit</setSpec>
    </header>
    <header>
      <identifier>oai:zenodo.org:254423</identifier>
      <datestamp>2017-01-20T18:34:47Z</datestamp>
      <setSpec>user-biosyslit</setSpec>
    </header>
    <header>
      <identifier>oai:zenodo.org:286545</identifier>
      <datestamp>2017-02-09T16:13:35Z</datestamp>
      <setSpec>user-biosyslit</setSpec>
    </header>
    <header>
      <identifier>oai:zenodo.org:286543</identifier>
      <datestamp>2017-02-09T16:13:29Z</datestamp>
      <setSpec>user-biosyslit</setSpec>
    </header>
    <header>
      <identifier>oai:zenodo.org:286552</identifier>
      <datestamp>2017-02-09T16:13:53Z</datestamp>
      <setSpec>user-biosyslit</setSpec>
    </header>
    <header>
      <identifier>oai:zenodo.org:286548</identifier>
      <datestamp>2017-02-09T16:13:42Z</datestamp>
      <setSpec>user-biosyslit</setSpec>
    </header>
    <header>
      <identifier>oai:zenodo.org:286547</identifier>
      <datestamp>2017-02-09T16:13:41Z</datestamp>
      <setSpec>user-biosyslit</setSpec>
    </header>
    <header>
      <identifier>oai:zenodo.org:286541</identifier>
      <datestamp>2017-02-09T16:13:24Z</datestamp>
      <setSpec>user-biosyslit</setSpec>
    </header>
    <header>
      <identifier>oai:zenodo.org:286549</identifier>
      <datestamp>2017-02-09T16:13:44Z</datestamp>
      <setSpec>user-biosyslit</setSpec>
    </header>
    <header>
      <identifier>oai:zenodo.org:286554</identifier>
      <datestamp>2017-02-09T16:13:58Z</datestamp>
      <setSpec>user-biosyslit</setSpec>
    </header>
    <header>
      <identifier>oai:zenodo.org:270729</identifier>
      <datestamp>2017-02-07T23:52:12Z</datestamp>
      <setSpec>user-biosyslit</setSpec>
    </header>
    <header>
      <identifier>oai:zenodo.org:270731</identifier>
      <datestamp>2017-02-07T23:52:21Z</datestamp>
      <setSpec>user-biosyslit</setSpec>
    </header>
    <header>
      <identifier>oai:zenodo.org:270722</identifier>
      <datestamp>2017-02-07T23:51:54Z</datestamp>
      <setSpec>user-biosyslit</setSpec>
    </header>
    <header>
      <identifier>oai:zenodo.org:270730</identifier>
      <datestamp>2017-02-07T23:52:18Z</datestamp>
      <setSpec>user-biosyslit</setSpec>
    </header>
    <header>
      <identifier>oai:zenodo.org:270727</identifier>
      <datestamp>2017-02-07T23:52:07Z</datestamp>
      <setSpec>user-biosyslit</setSpec>
    </header>
    <header>
      <identifier>oai:zenodo.org:270718</identifier>
      <datestamp>2017-02-07T23:51:41Z</datestamp>
      <setSpec>user-biosyslit</setSpec>
    </header>
    <header>
      <identifier>oai:zenodo.org:270719</identifier>
      <datestamp>2017-02-07T23:51:43Z</datestamp>
      <setSpec>user-biosyslit</setSpec>
    </header>
    <header>
      <identifier>oai:zenodo.org:270714</identifier>
      <datestamp>2017-02-07T23:51:31Z</datestamp>
      <setSpec>user-biosyslit</setSpec>
    </header>
    <header>
      <identifier>oai:zenodo.org:270721</identifier>
      <datestamp>2017-02-07T23:51:52Z</datestamp>
      <setSpec>user-biosyslit</setSpec>
    </header>
    <header>
      <identifier>oai:zenodo.org:286209</identifier>
      <datestamp>2017-02-09T15:29:54Z</datestamp>
      <setSpec>user-biosyslit</setSpec>
    </header>
    <header>
      <identifier>oai:zenodo.org:286206</identifier>
      <datestamp>2017-02-09T15:29:47Z</datestamp>
      <setSpec>user-biosyslit</setSpec>
    </header>
    <header>
      <identifier>oai:zenodo.org:286207</identifier>
      <datestamp>2017-02-09T15:29:49Z</datestamp>
      <setSpec>user-biosyslit</setSpec>
    </header>
    <header>
      <identifier>oai:zenodo.org:286205</identifier>
      <datestamp>2017-02-09T15:29:44Z</datestamp>
      <setSpec>user-biosyslit</setSpec>
    </header>
    <header>
      <identifier>oai:zenodo.org:286208</identifier>
      <datestamp>2017-02-09T15:29:51Z</datestamp>
      <setSpec>user-biosyslit</setSpec>
    </header>
    <header>
      <identifier>oai:zenodo.org:286210</identifier>
      <datestamp>2017-02-09T15:29:57Z</datestamp>
      <setSpec>user-biosyslit</setSpec>
    </header>
    <header>
      <identifier>oai:zenodo.org:253624</identifier>
      <datestamp>2017-01-20T09:16:16Z</datestamp>
      <setSpec>user-biosyslit</setSpec>
    </header>
    <header>
      <identifier>oai:zenodo.org:253632</identifier>
      <datestamp>2017-01-20T09:16:02Z</datestamp>
      <setSpec>user-biosyslit</setSpec>
    </header>
    <header>
      <identifier>oai:zenodo.org:253633</identifier>
      <datestamp>2017-01-20T09:16:08Z</datestamp>
      <setSpec>user-biosyslit</setSpec>
    </header>
    <header>
      <identifier>oai:zenodo.org:253631</identifier>
      <datestamp>2017-01-20T09:15:55Z</datestamp>
      <setSpec>user-biosyslit</setSpec>
    </header>
    <resumptionToken expirationDate="2017-08-31T15:45:10Z" cursor="32800" completeListSize="77796">.eJyNyk0LgjAYAOD_8p4l9kFtCV3Ekg4qthT1EjZFqmniinThf89L5zo_zxt0VZVgowXjfMkYJ3yF8GqNmQVa9nelTpeZQaaJkq2KCy95HpoEZaRmgasH381oYG4obLARu4ikmA_xBY3RMX5k5jAkdP8SaMt8E43BdT-_koaeys9eJ-LWUYKUfbiNRoEdkVP5ffjPZ34-V2_Agq6oK7ApRRbcXkVfa7Df0_QBrrFRSw.DInADg.wfqmg-r0NA32xyjuNfjAz0IbfK0</resumptionToken>
  </ListIdentifiers>
</OAI-PMH>
