<?xml version='1.0' encoding='UTF-8'?>
<?xml-stylesheet type="text/xsl" href="/static/xsl/oai2.v1.0.xsl"?>
<OAI-PMH xmlns="http://www.openarchives.org/OAI/2.0/" xmlns:xsi="http://www.w3.org/2001/XMLSchema-instance" xsi:schemaLocation="http://www.openarchives.org/OAI/2.0/ http://www.openarchives.org/OAI/2.0/OAI-PMH.xsd">
  <responseDate>2017-08-31T15:43:21Z</responseDate>
  <request verb="ListIdentifiers" resumptionToken=".eJyNyk0LgjAYAOD_8p4l9kFOhS6hSYeUuSbqJUxFqvWBK9SF_z0vnev8PG_QTVODhxYuYwRhmxHm2C5DtgW66u5KHU4zQ5WlqropWYbpK7mmKCcti3w97PycRuaC4is2YsNJhp1BntDI9_KZm2RI6bYXKGA7w8fovJ1fTeNQFcfwIeRtrQSpuzjgo8BrUdDq-_Cfz_x8vl6BBY-ybcCjS9eCS192rQbvPU0fqX1RUA.DInAGQ.hWh1LRVBHBgg_iwf0JDzbcREuEg">https://zenodo.org/oai2d</request>
  <ListIdentifiers>
    <header>
      <identifier>oai:zenodo.org:244936</identifier>
      <datestamp>2017-01-15T05:36:34Z</datestamp>
      <setSpec>user-biosyslit</setSpec>
    </header>
    <header>
      <identifier>oai:zenodo.org:285602</identifier>
      <datestamp>2017-02-09T13:58:26Z</datestamp>
      <setSpec>user-biosyslit</setSpec>
    </header>
    <header>
      <identifier>oai:zenodo.org:285603</identifier>
      <datestamp>2017-02-09T13:58:29Z</datestamp>
      <setSpec>user-biosyslit</setSpec>
    </header>
    <header>
      <identifier>oai:zenodo.org:285604</identifier>
      <datestamp>2017-02-09T13:58:31Z</datestamp>
      <setSpec>user-biosyslit</setSpec>
    </header>
    <header>
      <identifier>oai:zenodo.org:232330</identifier>
      <datestamp>2017-01-06T15:43:37Z</datestamp>
      <setSpec>user-biosyslit</setSpec>
    </header>
    <header>
      <identifier>oai:zenodo.org:232331</identifier>
      <datestamp>2017-01-06T15:43:40Z</datestamp>
      <setSpec>user-biosyslit</setSpec>
    </header>
    <header>
      <identifier>oai:zenodo.org:232318</identifier>
      <datestamp>2017-01-06T15:43:04Z</datestamp>
      <setSpec>user-biosyslit</setSpec>
    </header>
    <header>
      <identifier>oai:zenodo.org:232321</identifier>
      <datestamp>2017-01-06T15:43:12Z</datestamp>
      <setSpec>user-biosyslit</setSpec>
    </header>
    <header>
      <identifier>oai:zenodo.org:232319</identifier>
      <datestamp>2017-01-06T15:43:07Z</datestamp>
      <setSpec>user-biosyslit</setSpec>
    </header>
    <header>
      <identifier>oai:zenodo.org:232322</identifier>
      <datestamp>2017-01-06T15:43:14Z</datestamp>
      <setSpec>user-biosyslit</setSpec>
    </header>
    <header>
      <identifier>oai:zenodo.org:232326</identifier>
      <datestamp>2017-01-06T15:43:25Z</datestamp>
      <setSpec>user-biosyslit</setSpec>
    </header>
    <header>
      <identifier>oai:zenodo.org:232328</identifier>
      <datestamp>2017-01-06T15:43:29Z</datestamp>
      <setSpec>user-biosyslit</setSpec>
    </header>
    <header>
      <identifier>oai:zenodo.org:283079</identifier>
      <datestamp>2017-02-09T08:06:17Z</datestamp>
      <setSpec>user-biosyslit</setSpec>
    </header>
    <header>
      <identifier>oai:zenodo.org:283066</identifier>
      <datestamp>2017-02-09T08:05:46Z</datestamp>
      <setSpec>user-biosyslit</setSpec>
    </header>
    <header>
      <identifier>oai:zenodo.org:283069</identifier>
      <datestamp>2017-02-09T08:05:53Z</datestamp>
      <setSpec>user-biosyslit</setSpec>
    </header>
    <header>
      <identifier>oai:zenodo.org:283072</identifier>
      <datestamp>2017-02-09T08:06:00Z</datestamp>
      <setSpec>user-biosyslit</setSpec>
    </header>
    <header>
      <identifier>oai:zenodo.org:283070</identifier>
      <datestamp>2017-02-09T08:05:55Z</datestamp>
      <setSpec>user-biosyslit</setSpec>
    </header>
    <header>
      <identifier>oai:zenodo.org:283078</identifier>
      <datestamp>2017-02-09T08:06:14Z</datestamp>
      <setSpec>user-biosyslit</setSpec>
    </header>
    <header>
      <identifier>oai:zenodo.org:283067</identifier>
      <datestamp>2017-02-09T08:05:48Z</datestamp>
      <setSpec>user-biosyslit</setSpec>
    </header>
    <header>
      <identifier>oai:zenodo.org:283075</identifier>
      <datestamp>2017-02-09T08:06:08Z</datestamp>
      <setSpec>user-biosyslit</setSpec>
    </header>
    <header>
      <identifier>oai:zenodo.org:283077</identifier>
      <datestamp>2017-02-09T08:06:12Z</datestamp>
      <setSpec>user-biosyslit</setSpec>
    </header>
    <header>
      <identifier>oai:zenodo.org:287539</identifier>
      <datestamp>2017-02-09T18:37:20Z</datestamp>
      <setSpec>user-biosyslit</setSpec>
    </header>
    <header>
      <identifier>oai:zenodo.org:275898</identifier>
      <datestamp>2017-02-08T17:20:54Z</datestamp>
      <setSpec>user-biosyslit</setSpec>
    </header>
    <header>
      <identifier>oai:zenodo.org:275901</identifier>
      <datestamp>2017-02-08T17:21:01Z</datestamp>
      <setSpec>user-biosyslit</setSpec>
    </header>
    <header>
      <identifier>oai:zenodo.org:287573</identifier>
      <datestamp>2017-02-09T18:37:05Z</datestamp>
      <setSpec>user-biosyslit</setSpec>
    </header>
    <header>
      <identifier>oai:zenodo.org:287574</identifier>
      <datestamp>2017-02-09T18:37:08Z</datestamp>
      <setSpec>user-biosyslit</setSpec>
    </header>
    <header>
      <identifier>oai:zenodo.org:287575</identifier>
      <datestamp>2017-02-09T18:37:10Z</datestamp>
      <setSpec>user-biosyslit</setSpec>
    </header>
    <header>
      <identifier>oai:zenodo.org:287577</identifier>
      <datestamp>2017-02-09T18:37:19Z</datestamp>
      <setSpec>user-biosyslit</setSpec>
    </header>
    <header>
      <identifier>oai:zenodo.org:279974</identifier>
      <datestamp>2017-02-09T02:24:05Z</datestamp>
      <setSpec>user-biosyslit</setSpec>
    </header>
    <header>
      <identifier>oai:zenodo.org:279975</identifier>
      <datestamp>2017-02-09T02:24:07Z</datestamp>
      <setSpec>user-biosyslit</setSpec>
    </header>
    <header>
      <identifier>oai:zenodo.org:816057</identifier>
      <datestamp>2017-06-22T13:22:28Z</datestamp>
      <setSpec>user-biosyslit</setSpec>
    </header>
    <header>
      <identifier>oai:zenodo.org:816043</identifier>
      <datestamp>2017-06-22T13:21:29Z</datestamp>
      <setSpec>user-biosyslit</setSpec>
    </header>
    <header>
      <identifier>oai:zenodo.org:816051</identifier>
      <datestamp>2017-06-22T13:21:47Z</datestamp>
      <setSpec>user-biosyslit</setSpec>
    </header>
    <header>
      <identifier>oai:zenodo.org:816069</identifier>
      <datestamp>2017-06-22T13:22:25Z</datestamp>
      <setSpec>user-biosyslit</setSpec>
    </header>
    <header>
      <identifier>oai:zenodo.org:816059</identifier>
      <datestamp>2017-06-22T13:22:07Z</datestamp>
      <setSpec>user-biosyslit</setSpec>
    </header>
    <header>
      <identifier>oai:zenodo.org:816075</identifier>
      <datestamp>2017-06-22T13:22:42Z</datestamp>
      <setSpec>user-biosyslit</setSpec>
    </header>
    <header>
      <identifier>oai:zenodo.org:816065</identifier>
      <datestamp>2017-06-22T13:22:18Z</datestamp>
      <setSpec>user-biosyslit</setSpec>
    </header>
    <header>
      <identifier>oai:zenodo.org:816061</identifier>
      <datestamp>2017-06-22T13:22:10Z</datestamp>
      <setSpec>user-biosyslit</setSpec>
    </header>
    <header>
      <identifier>oai:zenodo.org:816073</identifier>
      <datestamp>2017-06-22T13:22:38Z</datestamp>
      <setSpec>user-biosyslit</setSpec>
    </header>
    <header>
      <identifier>oai:zenodo.org:816143</identifier>
      <datestamp>2017-06-22T13:25:07Z</datestamp>
      <setSpec>user-biosyslit</setSpec>
    </header>
    <header>
      <identifier>oai:zenodo.org:816129</identifier>
      <datestamp>2017-06-22T13:24:39Z</datestamp>
      <setSpec>user-biosyslit</setSpec>
    </header>
    <header>
      <identifier>oai:zenodo.org:816125</identifier>
      <datestamp>2017-06-22T13:24:32Z</datestamp>
      <setSpec>user-biosyslit</setSpec>
    </header>
    <header>
      <identifier>oai:zenodo.org:816139</identifier>
      <datestamp>2017-06-22T13:25:00Z</datestamp>
      <setSpec>user-biosyslit</setSpec>
    </header>
    <header>
      <identifier>oai:zenodo.org:816127</identifier>
      <datestamp>2017-06-22T13:24:35Z</datestamp>
      <setSpec>user-biosyslit</setSpec>
    </header>
    <header>
      <identifier>oai:zenodo.org:816135</identifier>
      <datestamp>2017-06-22T13:24:51Z</datestamp>
      <setSpec>user-biosyslit</setSpec>
    </header>
    <header>
      <identifier>oai:zenodo.org:816113</identifier>
      <datestamp>2017-06-22T13:24:12Z</datestamp>
      <setSpec>user-biosyslit</setSpec>
    </header>
    <header>
      <identifier>oai:zenodo.org:816123</identifier>
      <datestamp>2017-06-22T13:24:28Z</datestamp>
      <setSpec>user-biosyslit</setSpec>
    </header>
    <header>
      <identifier>oai:zenodo.org:816141</identifier>
      <datestamp>2017-06-22T13:25:03Z</datestamp>
      <setSpec>user-biosyslit</setSpec>
    </header>
    <header>
      <identifier>oai:zenodo.org:285405</identifier>
      <datestamp>2017-02-09T13:33:28Z</datestamp>
      <setSpec>user-biosyslit</setSpec>
    </header>
    <header>
      <identifier>oai:zenodo.org:285428</identifier>
      <datestamp>2017-02-09T13:33:26Z</datestamp>
      <setSpec>user-biosyslit</setSpec>
    </header>
    <header>
      <identifier>oai:zenodo.org:235491</identifier>
      <datestamp>2017-01-09T10:38:33Z</datestamp>
      <setSpec>user-biosyslit</setSpec>
    </header>
    <header>
      <identifier>oai:zenodo.org:235489</identifier>
      <datestamp>2017-01-09T10:38:27Z</datestamp>
      <setSpec>user-biosyslit</setSpec>
    </header>
    <header>
      <identifier>oai:zenodo.org:235494</identifier>
      <datestamp>2017-01-09T10:38:42Z</datestamp>
      <setSpec>user-biosyslit</setSpec>
    </header>
    <header>
      <identifier>oai:zenodo.org:235496</identifier>
      <datestamp>2017-01-09T10:38:48Z</datestamp>
      <setSpec>user-biosyslit</setSpec>
    </header>
    <header>
      <identifier>oai:zenodo.org:235493</identifier>
      <datestamp>2017-01-09T10:38:39Z</datestamp>
      <setSpec>user-biosyslit</setSpec>
    </header>
    <header>
      <identifier>oai:zenodo.org:255663</identifier>
      <datestamp>2017-01-21T18:11:13Z</datestamp>
      <setSpec>user-biosyslit</setSpec>
    </header>
    <header>
      <identifier>oai:zenodo.org:266406</identifier>
      <datestamp>2017-02-01T07:53:27Z</datestamp>
      <setSpec>user-biosyslit</setSpec>
    </header>
    <header>
      <identifier>oai:zenodo.org:255667</identifier>
      <datestamp>2017-01-21T18:11:09Z</datestamp>
      <setSpec>user-biosyslit</setSpec>
    </header>
    <header>
      <identifier>oai:zenodo.org:255664</identifier>
      <datestamp>2017-01-21T18:10:59Z</datestamp>
      <setSpec>user-biosyslit</setSpec>
    </header>
    <header>
      <identifier>oai:zenodo.org:255668</identifier>
      <datestamp>2017-01-21T18:11:12Z</datestamp>
      <setSpec>user-biosyslit</setSpec>
    </header>
    <header>
      <identifier>oai:zenodo.org:277766</identifier>
      <datestamp>2017-02-08T21:46:43Z</datestamp>
      <setSpec>user-biosyslit</setSpec>
    </header>
    <header>
      <identifier>oai:zenodo.org:277768</identifier>
      <datestamp>2017-02-08T21:46:41Z</datestamp>
      <setSpec>user-biosyslit</setSpec>
    </header>
    <header>
      <identifier>oai:zenodo.org:229528</identifier>
      <datestamp>2017-01-03T17:50:32Z</datestamp>
      <setSpec>user-biosyslit</setSpec>
    </header>
    <header>
      <identifier>oai:zenodo.org:244466</identifier>
      <datestamp>2017-01-14T22:25:05Z</datestamp>
      <setSpec>user-biosyslit</setSpec>
    </header>
    <header>
      <identifier>oai:zenodo.org:244468</identifier>
      <datestamp>2017-01-14T22:25:14Z</datestamp>
      <setSpec>user-biosyslit</setSpec>
    </header>
    <header>
      <identifier>oai:zenodo.org:244465</identifier>
      <datestamp>2017-01-14T22:24:55Z</datestamp>
      <setSpec>user-biosyslit</setSpec>
    </header>
    <header>
      <identifier>oai:zenodo.org:229526</identifier>
      <datestamp>2017-01-03T17:50:23Z</datestamp>
      <setSpec>user-biosyslit</setSpec>
    </header>
    <header>
      <identifier>oai:zenodo.org:245523</identifier>
      <datestamp>2017-01-15T14:43:14Z</datestamp>
      <setSpec>user-biosyslit</setSpec>
    </header>
    <header>
      <identifier>oai:zenodo.org:245517</identifier>
      <datestamp>2017-01-15T14:42:56Z</datestamp>
      <setSpec>user-biosyslit</setSpec>
    </header>
    <header>
      <identifier>oai:zenodo.org:245521</identifier>
      <datestamp>2017-01-15T14:43:08Z</datestamp>
      <setSpec>user-biosyslit</setSpec>
    </header>
    <header>
      <identifier>oai:zenodo.org:245519</identifier>
      <datestamp>2017-01-15T14:43:01Z</datestamp>
      <setSpec>user-biosyslit</setSpec>
    </header>
    <header>
      <identifier>oai:zenodo.org:245518</identifier>
      <datestamp>2017-01-15T14:42:58Z</datestamp>
      <setSpec>user-biosyslit</setSpec>
    </header>
    <header>
      <identifier>oai:zenodo.org:282006</identifier>
      <datestamp>2017-02-09T06:19:14Z</datestamp>
      <setSpec>user-biosyslit</setSpec>
    </header>
    <header>
      <identifier>oai:zenodo.org:282009</identifier>
      <datestamp>2017-02-09T06:19:13Z</datestamp>
      <setSpec>user-biosyslit</setSpec>
    </header>
    <header>
      <identifier>oai:zenodo.org:258413</identifier>
      <datestamp>2017-01-23T22:08:58Z</datestamp>
      <setSpec>user-biosyslit</setSpec>
    </header>
    <header>
      <identifier>oai:zenodo.org:258412</identifier>
      <datestamp>2017-01-23T22:08:55Z</datestamp>
      <setSpec>user-biosyslit</setSpec>
    </header>
    <header>
      <identifier>oai:zenodo.org:258415</identifier>
      <datestamp>2017-01-23T22:09:05Z</datestamp>
      <setSpec>user-biosyslit</setSpec>
    </header>
    <header>
      <identifier>oai:zenodo.org:251183</identifier>
      <datestamp>2017-01-18T19:42:53Z</datestamp>
      <setSpec>user-biosyslit</setSpec>
    </header>
    <header>
      <identifier>oai:zenodo.org:251186</identifier>
      <datestamp>2017-01-18T19:43:02Z</datestamp>
      <setSpec>user-biosyslit</setSpec>
    </header>
    <header>
      <identifier>oai:zenodo.org:251182</identifier>
      <datestamp>2017-01-18T19:42:51Z</datestamp>
      <setSpec>user-biosyslit</setSpec>
    </header>
    <header>
      <identifier>oai:zenodo.org:251184</identifier>
      <datestamp>2017-01-18T19:42:56Z</datestamp>
      <setSpec>user-biosyslit</setSpec>
    </header>
    <header>
      <identifier>oai:zenodo.org:251181</identifier>
      <datestamp>2017-01-18T19:42:48Z</datestamp>
      <setSpec>user-biosyslit</setSpec>
    </header>
    <header>
      <identifier>oai:zenodo.org:274079</identifier>
      <datestamp>2017-02-08T12:04:18Z</datestamp>
      <setSpec>user-biosyslit</setSpec>
    </header>
    <header>
      <identifier>oai:zenodo.org:273790</identifier>
      <datestamp>2017-02-08T10:46:51Z</datestamp>
      <setSpec>user-biosyslit</setSpec>
    </header>
    <header>
      <identifier>oai:zenodo.org:275291</identifier>
      <datestamp>2017-02-08T16:00:27Z</datestamp>
      <setSpec>user-biosyslit</setSpec>
    </header>
    <header>
      <identifier>oai:zenodo.org:275292</identifier>
      <datestamp>2017-02-08T16:00:23Z</datestamp>
      <setSpec>user-biosyslit</setSpec>
    </header>
    <header>
      <identifier>oai:zenodo.org:273337</identifier>
      <datestamp>2017-02-08T09:00:44Z</datestamp>
      <setSpec>user-biosyslit</setSpec>
    </header>
    <header>
      <identifier>oai:zenodo.org:273334</identifier>
      <datestamp>2017-02-08T09:00:46Z</datestamp>
      <setSpec>user-biosyslit</setSpec>
    </header>
    <header>
      <identifier>oai:zenodo.org:231056</identifier>
      <datestamp>2017-01-05T13:32:40Z</datestamp>
      <setSpec>user-biosyslit</setSpec>
    </header>
    <header>
      <identifier>oai:zenodo.org:231065</identifier>
      <datestamp>2017-01-05T13:32:39Z</datestamp>
      <setSpec>user-biosyslit</setSpec>
    </header>
    <header>
      <identifier>oai:zenodo.org:231063</identifier>
      <datestamp>2017-01-05T13:32:32Z</datestamp>
      <setSpec>user-biosyslit</setSpec>
    </header>
    <header>
      <identifier>oai:zenodo.org:231062</identifier>
      <datestamp>2017-01-05T13:32:28Z</datestamp>
      <setSpec>user-biosyslit</setSpec>
    </header>
    <header>
      <identifier>oai:zenodo.org:231064</identifier>
      <datestamp>2017-01-05T13:32:36Z</datestamp>
      <setSpec>user-biosyslit</setSpec>
    </header>
    <header>
      <identifier>oai:zenodo.org:231058</identifier>
      <datestamp>2017-01-05T13:32:16Z</datestamp>
      <setSpec>user-biosyslit</setSpec>
    </header>
    <header>
      <identifier>oai:zenodo.org:254229</identifier>
      <datestamp>2017-01-20T16:58:24Z</datestamp>
      <setSpec>user-biosyslit</setSpec>
    </header>
    <header>
      <identifier>oai:zenodo.org:254231</identifier>
      <datestamp>2017-01-20T16:58:29Z</datestamp>
      <setSpec>user-biosyslit</setSpec>
    </header>
    <header>
      <identifier>oai:zenodo.org:283601</identifier>
      <datestamp>2017-02-09T09:16:13Z</datestamp>
      <setSpec>user-biosyslit</setSpec>
    </header>
    <header>
      <identifier>oai:zenodo.org:254234</identifier>
      <datestamp>2017-01-20T16:58:39Z</datestamp>
      <setSpec>user-biosyslit</setSpec>
    </header>
    <header>
      <identifier>oai:zenodo.org:254225</identifier>
      <datestamp>2017-01-20T16:58:12Z</datestamp>
      <setSpec>user-biosyslit</setSpec>
    </header>
    <header>
      <identifier>oai:zenodo.org:254233</identifier>
      <datestamp>2017-01-20T16:58:36Z</datestamp>
      <setSpec>user-biosyslit</setSpec>
    </header>
    <resumptionToken expirationDate="2017-08-31T15:45:21Z" cursor="35800" completeListSize="77796">.eJyNyj0LgkAYAOD_8s4S92GeCi2hiYOKXUq2hKmIeZp4RXrSf6-luebnWUBWVQk2WjHCGF2bBtYtbOoW0UAW402Ic_NhKI6pKHqR5F762HcpykjNQkdOgZPRULUo6rDiu5gcsTklDZrjQ3LP1H5Kqf_kyGWBiufw6n9eSSNPnC7ewJN-Kzgpx8iNZ463_ESL78N_PvXzOXIDGgx5XYFNDaRB-8zHWoK9vF5vqC1RRw.DInAGQ.4Epd8Z67Irs6weIvu-AhHGqc2FM</resumptionToken>
  </ListIdentifiers>
</OAI-PMH>
