<?xml version='1.0' encoding='UTF-8'?>
<?xml-stylesheet type="text/xsl" href="/static/xsl/oai2.v1.0.xsl"?>
<OAI-PMH xmlns="http://www.openarchives.org/OAI/2.0/" xmlns:xsi="http://www.w3.org/2001/XMLSchema-instance" xsi:schemaLocation="http://www.openarchives.org/OAI/2.0/ http://www.openarchives.org/OAI/2.0/OAI-PMH.xsd">
  <responseDate>2017-08-31T14:11:45Z</responseDate>
  <request verb="ListIdentifiers" resumptionToken=".eJwVzd1OgzAYgOF76TExbcHxczYCkhk_CIOWwYlBQJgURKgBuuzencdv8rw3tDRNjRz8ZBGCDdsynm16wNQwNLRU87cQ79dHRtWFi2oUrAz473ngOKetGXrLBl5OwpSpaCAqeYnphVgbu-I9TpnM1Xnj-mlNsG-CildQLY2GWo8CUXwEU8JGVyS0niM_3hPiJoVemZAe6cMj8DXJCncsFPYn8JOE3idvGeCK1zv40o0UYPDACNNprFU3Zdn2w8TrWjA5lqrzoZcx-3-po4k0NJVtg5yDhvq1nNsFObf7_Q8ajFHW.DImqbg.cI1v39jmqX5DnejtUGLEFBnhydU">https://zenodo.org/oai2d</request>
  <ListIdentifiers>
    <header>
      <identifier>oai:zenodo.org:282012</identifier>
      <datestamp>2017-02-09T06:19:34Z</datestamp>
      <setSpec>user-biosyslit</setSpec>
    </header>
    <header>
      <identifier>oai:zenodo.org:220120</identifier>
      <datestamp>2016-12-23T01:12:41Z</datestamp>
      <setSpec>user-biosyslit</setSpec>
    </header>
    <header>
      <identifier>oai:zenodo.org:156756</identifier>
      <datestamp>2016-12-20T02:00:25Z</datestamp>
      <setSpec>user-biosyslit</setSpec>
    </header>
    <header>
      <identifier>oai:zenodo.org:281143</identifier>
      <datestamp>2017-02-09T04:48:38Z</datestamp>
      <setSpec>user-biosyslit</setSpec>
    </header>
    <header>
      <identifier>oai:zenodo.org:156784</identifier>
      <datestamp>2016-09-28T00:47:01Z</datestamp>
      <setSpec>user-biosyslit</setSpec>
    </header>
    <header>
      <identifier>oai:zenodo.org:580950</identifier>
      <datestamp>2017-05-18T08:34:23Z</datestamp>
      <setSpec>user-biosyslit</setSpec>
    </header>
    <header>
      <identifier>oai:zenodo.org:157112</identifier>
      <datestamp>2016-12-20T02:00:25Z</datestamp>
      <setSpec>user-biosyslit</setSpec>
    </header>
    <header>
      <identifier>oai:zenodo.org:281274</identifier>
      <datestamp>2017-02-09T05:03:11Z</datestamp>
      <setSpec>user-biosyslit</setSpec>
    </header>
    <header>
      <identifier>oai:zenodo.org:182930</identifier>
      <datestamp>2016-11-29T11:57:30Z</datestamp>
      <setSpec>user-biosyslit</setSpec>
    </header>
    <header>
      <identifier>oai:zenodo.org:157130</identifier>
      <datestamp>2016-12-20T02:00:23Z</datestamp>
      <setSpec>user-biosyslit</setSpec>
    </header>
    <header>
      <identifier>oai:zenodo.org:157743</identifier>
      <datestamp>2016-12-20T02:00:23Z</datestamp>
      <setSpec>user-biosyslit</setSpec>
    </header>
    <header>
      <identifier>oai:zenodo.org:157566</identifier>
      <datestamp>2016-12-20T02:00:43Z</datestamp>
      <setSpec>user-biosyslit</setSpec>
    </header>
    <header>
      <identifier>oai:zenodo.org:156977</identifier>
      <datestamp>2016-12-20T02:00:42Z</datestamp>
      <setSpec>user-biosyslit</setSpec>
    </header>
    <header>
      <identifier>oai:zenodo.org:157483</identifier>
      <datestamp>2016-09-28T14:26:11Z</datestamp>
      <setSpec>user-biosyslit</setSpec>
    </header>
    <header>
      <identifier>oai:zenodo.org:157509</identifier>
      <datestamp>2016-12-20T02:00:25Z</datestamp>
      <setSpec>user-biosyslit</setSpec>
    </header>
    <header>
      <identifier>oai:zenodo.org:157370</identifier>
      <datestamp>2016-12-20T02:00:43Z</datestamp>
      <setSpec>user-biosyslit</setSpec>
    </header>
    <header>
      <identifier>oai:zenodo.org:157479</identifier>
      <datestamp>2016-12-20T02:00:43Z</datestamp>
      <setSpec>user-biosyslit</setSpec>
    </header>
    <header>
      <identifier>oai:zenodo.org:157700</identifier>
      <datestamp>2016-12-20T02:01:10Z</datestamp>
      <setSpec>user-biosyslit</setSpec>
    </header>
    <header>
      <identifier>oai:zenodo.org:220050</identifier>
      <datestamp>2016-12-23T00:31:54Z</datestamp>
      <setSpec>user-biosyslit</setSpec>
    </header>
    <header>
      <identifier>oai:zenodo.org:157441</identifier>
      <datestamp>2016-12-20T02:00:43Z</datestamp>
      <setSpec>user-biosyslit</setSpec>
    </header>
    <header>
      <identifier>oai:zenodo.org:157902</identifier>
      <datestamp>2016-12-20T02:00:24Z</datestamp>
      <setSpec>user-biosyslit</setSpec>
    </header>
    <header>
      <identifier>oai:zenodo.org:220375</identifier>
      <datestamp>2016-12-23T02:43:55Z</datestamp>
      <setSpec>user-biosyslit</setSpec>
    </header>
    <header>
      <identifier>oai:zenodo.org:184530</identifier>
      <datestamp>2016-12-20T02:00:56Z</datestamp>
      <setSpec>user-biosyslit</setSpec>
    </header>
    <header>
      <identifier>oai:zenodo.org:157586</identifier>
      <datestamp>2016-12-20T02:00:23Z</datestamp>
      <setSpec>user-biosyslit</setSpec>
    </header>
    <header>
      <identifier>oai:zenodo.org:157835</identifier>
      <datestamp>2016-12-20T02:00:24Z</datestamp>
      <setSpec>user-biosyslit</setSpec>
    </header>
    <header>
      <identifier>oai:zenodo.org:157929</identifier>
      <datestamp>2016-12-20T02:00:23Z</datestamp>
      <setSpec>user-biosyslit</setSpec>
    </header>
    <header>
      <identifier>oai:zenodo.org:183130</identifier>
      <datestamp>2016-11-29T12:49:25Z</datestamp>
      <setSpec>user-biosyslit</setSpec>
    </header>
    <header>
      <identifier>oai:zenodo.org:282702</identifier>
      <datestamp>2017-02-09T07:28:43Z</datestamp>
      <setSpec>user-biosyslit</setSpec>
    </header>
    <header>
      <identifier>oai:zenodo.org:158152</identifier>
      <datestamp>2016-12-20T02:00:24Z</datestamp>
      <setSpec>user-biosyslit</setSpec>
    </header>
    <header>
      <identifier>oai:zenodo.org:158097</identifier>
      <datestamp>2016-09-28T19:39:05Z</datestamp>
      <setSpec>user-biosyslit</setSpec>
    </header>
    <header>
      <identifier>oai:zenodo.org:182935</identifier>
      <datestamp>2016-12-20T02:00:55Z</datestamp>
      <setSpec>user-biosyslit</setSpec>
    </header>
    <header>
      <identifier>oai:zenodo.org:158441</identifier>
      <datestamp>2016-12-20T02:01:09Z</datestamp>
      <setSpec>user-biosyslit</setSpec>
    </header>
    <header>
      <identifier>oai:zenodo.org:158428</identifier>
      <datestamp>2016-12-20T02:01:09Z</datestamp>
      <setSpec>user-biosyslit</setSpec>
    </header>
    <header>
      <identifier>oai:zenodo.org:158281</identifier>
      <datestamp>2016-09-28T21:47:37Z</datestamp>
      <setSpec>user-biosyslit</setSpec>
    </header>
    <header>
      <identifier>oai:zenodo.org:158421</identifier>
      <datestamp>2016-12-20T02:01:10Z</datestamp>
      <setSpec>user-biosyslit</setSpec>
    </header>
    <header>
      <identifier>oai:zenodo.org:158417</identifier>
      <datestamp>2016-12-20T02:00:24Z</datestamp>
      <setSpec>user-biosyslit</setSpec>
    </header>
    <header>
      <identifier>oai:zenodo.org:158045</identifier>
      <datestamp>2016-12-20T02:00:24Z</datestamp>
      <setSpec>user-biosyslit</setSpec>
    </header>
    <header>
      <identifier>oai:zenodo.org:158416</identifier>
      <datestamp>2016-12-20T02:00:48Z</datestamp>
      <setSpec>user-biosyslit</setSpec>
    </header>
    <header>
      <identifier>oai:zenodo.org:158425</identifier>
      <datestamp>2016-12-20T02:00:43Z</datestamp>
      <setSpec>user-biosyslit</setSpec>
    </header>
    <header>
      <identifier>oai:zenodo.org:581268</identifier>
      <datestamp>2017-05-19T08:39:48Z</datestamp>
      <setSpec>user-biosyslit</setSpec>
    </header>
    <header>
      <identifier>oai:zenodo.org:281853</identifier>
      <datestamp>2017-02-09T06:02:32Z</datestamp>
      <setSpec>user-biosyslit</setSpec>
    </header>
    <header>
      <identifier>oai:zenodo.org:158444</identifier>
      <datestamp>2016-12-20T02:01:10Z</datestamp>
      <setSpec>user-biosyslit</setSpec>
    </header>
    <header>
      <identifier>oai:zenodo.org:158420</identifier>
      <datestamp>2016-12-20T02:00:43Z</datestamp>
      <setSpec>user-biosyslit</setSpec>
    </header>
    <header>
      <identifier>oai:zenodo.org:282838</identifier>
      <datestamp>2017-02-09T07:42:52Z</datestamp>
      <setSpec>user-biosyslit</setSpec>
    </header>
    <header>
      <identifier>oai:zenodo.org:158929</identifier>
      <datestamp>2016-12-13T12:01:35Z</datestamp>
      <setSpec>openaire</setSpec>
      <setSpec>user-biosyslit</setSpec>
    </header>
    <header>
      <identifier>oai:zenodo.org:158584</identifier>
      <datestamp>2016-09-29T00:56:08Z</datestamp>
      <setSpec>user-biosyslit</setSpec>
    </header>
    <header>
      <identifier>oai:zenodo.org:183233</identifier>
      <datestamp>2016-12-20T02:00:58Z</datestamp>
      <setSpec>user-biosyslit</setSpec>
    </header>
    <header>
      <identifier>oai:zenodo.org:159019</identifier>
      <datestamp>2016-12-20T02:00:24Z</datestamp>
      <setSpec>user-biosyslit</setSpec>
    </header>
    <header>
      <identifier>oai:zenodo.org:183221</identifier>
      <datestamp>2016-12-20T02:00:56Z</datestamp>
      <setSpec>user-biosyslit</setSpec>
    </header>
    <header>
      <identifier>oai:zenodo.org:183141</identifier>
      <datestamp>2016-12-20T02:00:51Z</datestamp>
      <setSpec>user-biosyslit</setSpec>
    </header>
    <header>
      <identifier>oai:zenodo.org:581326</identifier>
      <datestamp>2017-05-19T09:51:33Z</datestamp>
      <setSpec>user-biosyslit</setSpec>
    </header>
    <header>
      <identifier>oai:zenodo.org:183336</identifier>
      <datestamp>2016-12-20T02:00:51Z</datestamp>
      <setSpec>user-biosyslit</setSpec>
    </header>
    <header>
      <identifier>oai:zenodo.org:220374</identifier>
      <datestamp>2016-12-23T02:43:51Z</datestamp>
      <setSpec>user-biosyslit</setSpec>
    </header>
    <header>
      <identifier>oai:zenodo.org:220380</identifier>
      <datestamp>2016-12-23T02:44:14Z</datestamp>
      <setSpec>user-biosyslit</setSpec>
    </header>
    <header>
      <identifier>oai:zenodo.org:159484</identifier>
      <datestamp>2016-12-13T12:01:33Z</datestamp>
      <setSpec>openaire</setSpec>
      <setSpec>user-biosyslit</setSpec>
    </header>
    <header>
      <identifier>oai:zenodo.org:159825</identifier>
      <datestamp>2016-12-13T12:02:45Z</datestamp>
      <setSpec>openaire</setSpec>
      <setSpec>user-biosyslit</setSpec>
      <setSpec>user-modphytomorphol</setSpec>
    </header>
    <header>
      <identifier>oai:zenodo.org:183570</identifier>
      <datestamp>2016-12-20T02:01:03Z</datestamp>
      <setSpec>user-biosyslit</setSpec>
    </header>
    <header>
      <identifier>oai:zenodo.org:183601</identifier>
      <datestamp>2016-12-20T02:00:51Z</datestamp>
      <setSpec>user-biosyslit</setSpec>
    </header>
    <header>
      <identifier>oai:zenodo.org:159165</identifier>
      <datestamp>2016-12-13T12:01:35Z</datestamp>
      <setSpec>openaire</setSpec>
      <setSpec>user-biosyslit</setSpec>
    </header>
    <header>
      <identifier>oai:zenodo.org:582055</identifier>
      <datestamp>2017-05-22T08:32:57Z</datestamp>
      <setSpec>user-biosyslit</setSpec>
    </header>
    <header>
      <identifier>oai:zenodo.org:220613</identifier>
      <datestamp>2016-12-23T04:49:30Z</datestamp>
      <setSpec>user-biosyslit</setSpec>
    </header>
    <header>
      <identifier>oai:zenodo.org:281791</identifier>
      <datestamp>2017-02-09T05:55:49Z</datestamp>
      <setSpec>user-biosyslit</setSpec>
    </header>
    <header>
      <identifier>oai:zenodo.org:582232</identifier>
      <datestamp>2017-05-23T13:26:51Z</datestamp>
      <setSpec>openaire</setSpec>
      <setSpec>user-biosyslit</setSpec>
    </header>
    <header>
      <identifier>oai:zenodo.org:156538</identifier>
      <datestamp>2016-12-20T02:00:43Z</datestamp>
      <setSpec>user-biosyslit</setSpec>
    </header>
    <header>
      <identifier>oai:zenodo.org:182514</identifier>
      <datestamp>2016-12-20T02:01:02Z</datestamp>
      <setSpec>user-biosyslit</setSpec>
    </header>
    <header>
      <identifier>oai:zenodo.org:157833</identifier>
      <datestamp>2016-12-20T02:00:24Z</datestamp>
      <setSpec>user-biosyslit</setSpec>
    </header>
    <header>
      <identifier>oai:zenodo.org:580979</identifier>
      <datestamp>2017-05-18T08:57:06Z</datestamp>
      <setSpec>user-biosyslit</setSpec>
    </header>
    <header>
      <identifier>oai:zenodo.org:282553</identifier>
      <datestamp>2017-02-09T07:12:31Z</datestamp>
      <setSpec>user-biosyslit</setSpec>
    </header>
    <header>
      <identifier>oai:zenodo.org:281068</identifier>
      <datestamp>2017-02-09T04:40:08Z</datestamp>
      <setSpec>user-biosyslit</setSpec>
    </header>
    <header>
      <identifier>oai:zenodo.org:156603</identifier>
      <datestamp>2016-09-27T23:31:40Z</datestamp>
      <setSpec>user-biosyslit</setSpec>
    </header>
    <header>
      <identifier>oai:zenodo.org:282592</identifier>
      <datestamp>2017-02-09T07:17:01Z</datestamp>
      <setSpec>user-biosyslit</setSpec>
    </header>
    <header>
      <identifier>oai:zenodo.org:182667</identifier>
      <datestamp>2016-12-20T02:01:02Z</datestamp>
      <setSpec>user-biosyslit</setSpec>
    </header>
    <header>
      <identifier>oai:zenodo.org:282024</identifier>
      <datestamp>2017-02-09T06:20:02Z</datestamp>
      <setSpec>user-biosyslit</setSpec>
    </header>
    <header>
      <identifier>oai:zenodo.org:156899</identifier>
      <datestamp>2016-12-20T02:00:42Z</datestamp>
      <setSpec>user-biosyslit</setSpec>
    </header>
    <header>
      <identifier>oai:zenodo.org:182848</identifier>
      <datestamp>2016-12-20T02:01:01Z</datestamp>
      <setSpec>user-biosyslit</setSpec>
    </header>
    <header>
      <identifier>oai:zenodo.org:157354</identifier>
      <datestamp>2016-12-13T12:01:36Z</datestamp>
      <setSpec>openaire</setSpec>
      <setSpec>user-biosyslit</setSpec>
    </header>
    <header>
      <identifier>oai:zenodo.org:157404</identifier>
      <datestamp>2016-12-20T02:00:25Z</datestamp>
      <setSpec>user-biosyslit</setSpec>
    </header>
    <header>
      <identifier>oai:zenodo.org:157244</identifier>
      <datestamp>2016-12-20T02:00:43Z</datestamp>
      <setSpec>user-biosyslit</setSpec>
    </header>
    <header>
      <identifier>oai:zenodo.org:157574</identifier>
      <datestamp>2016-12-20T02:00:25Z</datestamp>
      <setSpec>user-biosyslit</setSpec>
    </header>
    <header>
      <identifier>oai:zenodo.org:182570</identifier>
      <datestamp>2016-12-20T02:00:51Z</datestamp>
      <setSpec>user-biosyslit</setSpec>
    </header>
    <header>
      <identifier>oai:zenodo.org:182900</identifier>
      <datestamp>2016-12-20T02:00:56Z</datestamp>
      <setSpec>user-biosyslit</setSpec>
    </header>
    <header>
      <identifier>oai:zenodo.org:182696</identifier>
      <datestamp>2016-12-20T02:00:50Z</datestamp>
      <setSpec>user-biosyslit</setSpec>
    </header>
    <header>
      <identifier>oai:zenodo.org:157565</identifier>
      <datestamp>2016-12-20T02:00:43Z</datestamp>
      <setSpec>user-biosyslit</setSpec>
    </header>
    <header>
      <identifier>oai:zenodo.org:220147</identifier>
      <datestamp>2016-12-23T01:23:01Z</datestamp>
      <setSpec>user-biosyslit</setSpec>
    </header>
    <header>
      <identifier>oai:zenodo.org:157526</identifier>
      <datestamp>2016-12-20T02:00:25Z</datestamp>
      <setSpec>user-biosyslit</setSpec>
    </header>
    <header>
      <identifier>oai:zenodo.org:157848</identifier>
      <datestamp>2016-09-28T17:00:24Z</datestamp>
      <setSpec>user-biosyslit</setSpec>
    </header>
    <header>
      <identifier>oai:zenodo.org:157398</identifier>
      <datestamp>2016-12-20T02:00:24Z</datestamp>
      <setSpec>user-biosyslit</setSpec>
    </header>
    <header>
      <identifier>oai:zenodo.org:182992</identifier>
      <datestamp>2016-12-20T02:00:55Z</datestamp>
      <setSpec>user-biosyslit</setSpec>
    </header>
    <header>
      <identifier>oai:zenodo.org:158818</identifier>
      <datestamp>2016-09-29T04:47:38Z</datestamp>
      <setSpec>user-biosyslit</setSpec>
    </header>
    <header>
      <identifier>oai:zenodo.org:157901</identifier>
      <datestamp>2016-12-20T02:00:24Z</datestamp>
      <setSpec>user-biosyslit</setSpec>
    </header>
    <header>
      <identifier>oai:zenodo.org:157937</identifier>
      <datestamp>2016-12-20T02:00:43Z</datestamp>
      <setSpec>user-biosyslit</setSpec>
    </header>
    <header>
      <identifier>oai:zenodo.org:220109</identifier>
      <datestamp>2016-12-23T01:04:58Z</datestamp>
      <setSpec>user-biosyslit</setSpec>
    </header>
    <header>
      <identifier>oai:zenodo.org:158342</identifier>
      <datestamp>2016-12-20T02:00:43Z</datestamp>
      <setSpec>user-biosyslit</setSpec>
    </header>
    <header>
      <identifier>oai:zenodo.org:158569</identifier>
      <datestamp>2016-12-20T02:00:24Z</datestamp>
      <setSpec>user-biosyslit</setSpec>
    </header>
    <header>
      <identifier>oai:zenodo.org:158832</identifier>
      <datestamp>2016-12-20T02:00:48Z</datestamp>
      <setSpec>user-biosyslit</setSpec>
    </header>
    <header>
      <identifier>oai:zenodo.org:581320</identifier>
      <datestamp>2017-05-19T09:51:17Z</datestamp>
      <setSpec>user-biosyslit</setSpec>
    </header>
    <header>
      <identifier>oai:zenodo.org:158443</identifier>
      <datestamp>2016-12-20T02:01:09Z</datestamp>
      <setSpec>user-biosyslit</setSpec>
    </header>
    <header>
      <identifier>oai:zenodo.org:158260</identifier>
      <datestamp>2016-12-20T02:00:24Z</datestamp>
      <setSpec>user-biosyslit</setSpec>
    </header>
    <header>
      <identifier>oai:zenodo.org:183000</identifier>
      <datestamp>2016-12-20T02:00:51Z</datestamp>
      <setSpec>user-biosyslit</setSpec>
    </header>
    <header>
      <identifier>oai:zenodo.org:157983</identifier>
      <datestamp>2016-12-20T02:00:25Z</datestamp>
      <setSpec>user-biosyslit</setSpec>
    </header>
    <resumptionToken expirationDate="2017-08-31T14:13:45Z" cursor="500" completeListSize="142507">.eJwVzdFOgzAYQOF36TUxbWEyuNsCkhl_CCstgxuDBWFSEAEDdNm7O69P8p0bmqqqRC5-2tsOtnaOSXbOM7WIZaBJjt9KvV8fGcmLULJXvAjE77kTOKO1HXrTCl5GwoTrqCOavcT0QvYrv-ItTvic6fMqzNPCsG-DjhfQNY260owClX8EA-P9UTFajpEfb4wcWW5KG5IDfXgEvoZZ4oaHyvkEcZqh9clbCliKcgN_PkYaMHhghcnQl7oZ0nT94ep1yfncF7rxoZ1j_v_SBxsZaCjqCrm2gdqlGOsJubf7_Q8j-VHh.DImqoQ.p3ah1EIK9Bw2Gf5CJL6ekhhphqo</resumptionToken>
  </ListIdentifiers>
</OAI-PMH>
