<?xml version='1.0' encoding='UTF-8'?>
<?xml-stylesheet type="text/xsl" href="/static/xsl/oai2.v1.0.xsl"?>
<OAI-PMH xmlns="http://www.openarchives.org/OAI/2.0/" xmlns:xsi="http://www.w3.org/2001/XMLSchema-instance" xsi:schemaLocation="http://www.openarchives.org/OAI/2.0/ http://www.openarchives.org/OAI/2.0/OAI-PMH.xsd">
  <responseDate>2017-08-31T15:43:16Z</responseDate>
  <request verb="ListIdentifiers" resumptionToken=".eJyNyk0LgjAYAOD_8p4lNufShC5iiYeUuRT1EqYi5frAFerE_56XznV-nglkXVdgoxUma5NiTC2LbIhuUEMDWXYPIU6XxaFME1HeRVx4yTu6JSjTGzNw5XBwMxKoFoU3rPie6Sm2hviCRnaMX5mKhoT4PUc786DYGFz95VUk9ER-9p48vjuC61UX7tjIscNzUn4f_vOpn8-VW9DgWTQ12MSgGrR90TUS7GmeP9G2UXI.DInAFA.mmVGBBDnAIT2lq6QAYGR6EhPxpk">https://zenodo.org/oai2d</request>
  <ListIdentifiers>
    <header>
      <identifier>oai:zenodo.org:264845</identifier>
      <datestamp>2017-01-31T03:28:18Z</datestamp>
      <setSpec>user-biosyslit</setSpec>
    </header>
    <header>
      <identifier>oai:zenodo.org:264846</identifier>
      <datestamp>2017-01-31T03:28:21Z</datestamp>
      <setSpec>user-biosyslit</setSpec>
    </header>
    <header>
      <identifier>oai:zenodo.org:264849</identifier>
      <datestamp>2017-01-31T03:28:32Z</datestamp>
      <setSpec>user-biosyslit</setSpec>
    </header>
    <header>
      <identifier>oai:zenodo.org:251344</identifier>
      <datestamp>2017-01-18T23:10:00Z</datestamp>
      <setSpec>user-biosyslit</setSpec>
    </header>
    <header>
      <identifier>oai:zenodo.org:251345</identifier>
      <datestamp>2017-01-18T23:10:02Z</datestamp>
      <setSpec>user-biosyslit</setSpec>
    </header>
    <header>
      <identifier>oai:zenodo.org:251355</identifier>
      <datestamp>2017-01-18T23:10:27Z</datestamp>
      <setSpec>user-biosyslit</setSpec>
    </header>
    <header>
      <identifier>oai:zenodo.org:251349</identifier>
      <datestamp>2017-01-18T23:10:11Z</datestamp>
      <setSpec>user-biosyslit</setSpec>
    </header>
    <header>
      <identifier>oai:zenodo.org:251341</identifier>
      <datestamp>2017-01-18T23:09:53Z</datestamp>
      <setSpec>user-biosyslit</setSpec>
    </header>
    <header>
      <identifier>oai:zenodo.org:251340</identifier>
      <datestamp>2017-01-18T23:09:51Z</datestamp>
      <setSpec>user-biosyslit</setSpec>
    </header>
    <header>
      <identifier>oai:zenodo.org:251353</identifier>
      <datestamp>2017-01-18T23:10:22Z</datestamp>
      <setSpec>user-biosyslit</setSpec>
    </header>
    <header>
      <identifier>oai:zenodo.org:251347</identifier>
      <datestamp>2017-01-18T23:10:06Z</datestamp>
      <setSpec>user-biosyslit</setSpec>
    </header>
    <header>
      <identifier>oai:zenodo.org:251356</identifier>
      <datestamp>2017-01-18T23:10:29Z</datestamp>
      <setSpec>user-biosyslit</setSpec>
    </header>
    <header>
      <identifier>oai:zenodo.org:251375</identifier>
      <datestamp>2017-01-18T23:11:15Z</datestamp>
      <setSpec>user-biosyslit</setSpec>
    </header>
    <header>
      <identifier>oai:zenodo.org:251377</identifier>
      <datestamp>2017-01-18T23:11:19Z</datestamp>
      <setSpec>user-biosyslit</setSpec>
    </header>
    <header>
      <identifier>oai:zenodo.org:251386</identifier>
      <datestamp>2017-01-18T23:12:01Z</datestamp>
      <setSpec>user-biosyslit</setSpec>
    </header>
    <header>
      <identifier>oai:zenodo.org:251373</identifier>
      <datestamp>2017-01-18T23:11:11Z</datestamp>
      <setSpec>user-biosyslit</setSpec>
    </header>
    <header>
      <identifier>oai:zenodo.org:251383</identifier>
      <datestamp>2017-01-18T23:11:34Z</datestamp>
      <setSpec>user-biosyslit</setSpec>
    </header>
    <header>
      <identifier>oai:zenodo.org:251388</identifier>
      <datestamp>2017-01-18T23:12:05Z</datestamp>
      <setSpec>user-biosyslit</setSpec>
    </header>
    <header>
      <identifier>oai:zenodo.org:251376</identifier>
      <datestamp>2017-01-18T23:11:17Z</datestamp>
      <setSpec>user-biosyslit</setSpec>
    </header>
    <header>
      <identifier>oai:zenodo.org:251389</identifier>
      <datestamp>2017-01-18T23:12:07Z</datestamp>
      <setSpec>user-biosyslit</setSpec>
    </header>
    <header>
      <identifier>oai:zenodo.org:251374</identifier>
      <datestamp>2017-01-18T23:11:13Z</datestamp>
      <setSpec>user-biosyslit</setSpec>
    </header>
    <header>
      <identifier>oai:zenodo.org:251409</identifier>
      <datestamp>2017-01-18T23:13:11Z</datestamp>
      <setSpec>user-biosyslit</setSpec>
    </header>
    <header>
      <identifier>oai:zenodo.org:251416</identifier>
      <datestamp>2017-01-18T23:13:29Z</datestamp>
      <setSpec>user-biosyslit</setSpec>
    </header>
    <header>
      <identifier>oai:zenodo.org:251415</identifier>
      <datestamp>2017-01-18T23:13:24Z</datestamp>
      <setSpec>user-biosyslit</setSpec>
    </header>
    <header>
      <identifier>oai:zenodo.org:251418</identifier>
      <datestamp>2017-01-18T23:13:34Z</datestamp>
      <setSpec>user-biosyslit</setSpec>
    </header>
    <header>
      <identifier>oai:zenodo.org:251412</identifier>
      <datestamp>2017-01-18T23:13:17Z</datestamp>
      <setSpec>user-biosyslit</setSpec>
    </header>
    <header>
      <identifier>oai:zenodo.org:251411</identifier>
      <datestamp>2017-01-18T23:13:15Z</datestamp>
      <setSpec>user-biosyslit</setSpec>
    </header>
    <header>
      <identifier>oai:zenodo.org:251413</identifier>
      <datestamp>2017-01-18T23:13:19Z</datestamp>
      <setSpec>user-biosyslit</setSpec>
    </header>
    <header>
      <identifier>oai:zenodo.org:251408</identifier>
      <datestamp>2017-01-18T23:13:07Z</datestamp>
      <setSpec>user-biosyslit</setSpec>
    </header>
    <header>
      <identifier>oai:zenodo.org:251421</identifier>
      <datestamp>2017-01-18T23:13:43Z</datestamp>
      <setSpec>user-biosyslit</setSpec>
    </header>
    <header>
      <identifier>oai:zenodo.org:233390</identifier>
      <datestamp>2017-01-08T04:13:50Z</datestamp>
      <setSpec>user-biosyslit</setSpec>
    </header>
    <header>
      <identifier>oai:zenodo.org:273373</identifier>
      <datestamp>2017-02-08T09:06:32Z</datestamp>
      <setSpec>user-biosyslit</setSpec>
    </header>
    <header>
      <identifier>oai:zenodo.org:233395</identifier>
      <datestamp>2017-01-08T04:13:49Z</datestamp>
      <setSpec>user-biosyslit</setSpec>
    </header>
    <header>
      <identifier>oai:zenodo.org:273364</identifier>
      <datestamp>2017-02-08T09:06:09Z</datestamp>
      <setSpec>user-biosyslit</setSpec>
    </header>
    <header>
      <identifier>oai:zenodo.org:233394</identifier>
      <datestamp>2017-01-08T04:13:46Z</datestamp>
      <setSpec>user-biosyslit</setSpec>
    </header>
    <header>
      <identifier>oai:zenodo.org:273359</identifier>
      <datestamp>2017-02-08T09:05:57Z</datestamp>
      <setSpec>user-biosyslit</setSpec>
    </header>
    <header>
      <identifier>oai:zenodo.org:273363</identifier>
      <datestamp>2017-02-08T09:06:05Z</datestamp>
      <setSpec>user-biosyslit</setSpec>
    </header>
    <header>
      <identifier>oai:zenodo.org:233392</identifier>
      <datestamp>2017-01-08T04:13:40Z</datestamp>
      <setSpec>user-biosyslit</setSpec>
    </header>
    <header>
      <identifier>oai:zenodo.org:261205</identifier>
      <datestamp>2017-01-28T06:36:57Z</datestamp>
      <setSpec>user-biosyslit</setSpec>
    </header>
    <header>
      <identifier>oai:zenodo.org:282753</identifier>
      <datestamp>2017-02-09T07:34:17Z</datestamp>
      <setSpec>user-biosyslit</setSpec>
    </header>
    <header>
      <identifier>oai:zenodo.org:261208</identifier>
      <datestamp>2017-01-28T06:36:53Z</datestamp>
      <setSpec>user-biosyslit</setSpec>
    </header>
    <header>
      <identifier>oai:zenodo.org:282752</identifier>
      <datestamp>2017-02-09T07:34:15Z</datestamp>
      <setSpec>user-biosyslit</setSpec>
    </header>
    <header>
      <identifier>oai:zenodo.org:242924</identifier>
      <datestamp>2017-01-13T20:40:58Z</datestamp>
      <setSpec>user-biosyslit</setSpec>
    </header>
    <header>
      <identifier>oai:zenodo.org:242916</identifier>
      <datestamp>2017-01-13T20:40:30Z</datestamp>
      <setSpec>user-biosyslit</setSpec>
    </header>
    <header>
      <identifier>oai:zenodo.org:242925</identifier>
      <datestamp>2017-01-13T20:41:00Z</datestamp>
      <setSpec>user-biosyslit</setSpec>
    </header>
    <header>
      <identifier>oai:zenodo.org:242919</identifier>
      <datestamp>2017-01-13T20:40:41Z</datestamp>
      <setSpec>user-biosyslit</setSpec>
    </header>
    <header>
      <identifier>oai:zenodo.org:242914</identifier>
      <datestamp>2017-01-13T20:40:25Z</datestamp>
      <setSpec>user-biosyslit</setSpec>
    </header>
    <header>
      <identifier>oai:zenodo.org:242923</identifier>
      <datestamp>2017-01-13T20:40:55Z</datestamp>
      <setSpec>user-biosyslit</setSpec>
    </header>
    <header>
      <identifier>oai:zenodo.org:242918</identifier>
      <datestamp>2017-01-13T20:40:38Z</datestamp>
      <setSpec>user-biosyslit</setSpec>
    </header>
    <header>
      <identifier>oai:zenodo.org:242920</identifier>
      <datestamp>2017-01-13T20:40:45Z</datestamp>
      <setSpec>user-biosyslit</setSpec>
    </header>
    <header>
      <identifier>oai:zenodo.org:242922</identifier>
      <datestamp>2017-01-13T20:40:52Z</datestamp>
      <setSpec>user-biosyslit</setSpec>
    </header>
    <header>
      <identifier>oai:zenodo.org:247150</identifier>
      <datestamp>2017-01-16T11:50:49Z</datestamp>
      <setSpec>user-biosyslit</setSpec>
    </header>
    <header>
      <identifier>oai:zenodo.org:247156</identifier>
      <datestamp>2017-01-16T11:51:10Z</datestamp>
      <setSpec>user-biosyslit</setSpec>
    </header>
    <header>
      <identifier>oai:zenodo.org:247165</identifier>
      <datestamp>2017-01-16T11:51:33Z</datestamp>
      <setSpec>user-biosyslit</setSpec>
    </header>
    <header>
      <identifier>oai:zenodo.org:247154</identifier>
      <datestamp>2017-01-16T11:51:03Z</datestamp>
      <setSpec>user-biosyslit</setSpec>
    </header>
    <header>
      <identifier>oai:zenodo.org:247163</identifier>
      <datestamp>2017-01-16T11:51:28Z</datestamp>
      <setSpec>user-biosyslit</setSpec>
    </header>
    <header>
      <identifier>oai:zenodo.org:247158</identifier>
      <datestamp>2017-01-16T11:51:18Z</datestamp>
      <setSpec>user-biosyslit</setSpec>
    </header>
    <header>
      <identifier>oai:zenodo.org:247155</identifier>
      <datestamp>2017-01-16T11:51:07Z</datestamp>
      <setSpec>user-biosyslit</setSpec>
    </header>
    <header>
      <identifier>oai:zenodo.org:247162</identifier>
      <datestamp>2017-01-16T11:51:26Z</datestamp>
      <setSpec>user-biosyslit</setSpec>
    </header>
    <header>
      <identifier>oai:zenodo.org:247149</identifier>
      <datestamp>2017-01-16T11:50:45Z</datestamp>
      <setSpec>user-biosyslit</setSpec>
    </header>
    <header>
      <identifier>oai:zenodo.org:263787</identifier>
      <datestamp>2017-01-30T08:11:41Z</datestamp>
      <setSpec>user-biosyslit</setSpec>
    </header>
    <header>
      <identifier>oai:zenodo.org:279777</identifier>
      <datestamp>2017-02-09T02:02:20Z</datestamp>
      <setSpec>user-biosyslit</setSpec>
    </header>
    <header>
      <identifier>oai:zenodo.org:243706</identifier>
      <datestamp>2017-01-14T09:48:49Z</datestamp>
      <setSpec>user-biosyslit</setSpec>
    </header>
    <header>
      <identifier>oai:zenodo.org:279778</identifier>
      <datestamp>2017-02-09T02:02:23Z</datestamp>
      <setSpec>user-biosyslit</setSpec>
    </header>
    <header>
      <identifier>oai:zenodo.org:243710</identifier>
      <datestamp>2017-01-14T09:49:02Z</datestamp>
      <setSpec>user-biosyslit</setSpec>
    </header>
    <header>
      <identifier>oai:zenodo.org:243708</identifier>
      <datestamp>2017-01-14T09:48:55Z</datestamp>
      <setSpec>user-biosyslit</setSpec>
    </header>
    <header>
      <identifier>oai:zenodo.org:243707</identifier>
      <datestamp>2017-01-14T09:48:52Z</datestamp>
      <setSpec>user-biosyslit</setSpec>
    </header>
    <header>
      <identifier>oai:zenodo.org:243711</identifier>
      <datestamp>2017-01-14T09:49:06Z</datestamp>
      <setSpec>user-biosyslit</setSpec>
    </header>
    <header>
      <identifier>oai:zenodo.org:281679</identifier>
      <datestamp>2017-02-09T05:44:33Z</datestamp>
      <setSpec>user-biosyslit</setSpec>
    </header>
    <header>
      <identifier>oai:zenodo.org:271314</identifier>
      <datestamp>2017-02-08T01:19:55Z</datestamp>
      <setSpec>user-biosyslit</setSpec>
    </header>
    <header>
      <identifier>oai:zenodo.org:249717</identifier>
      <datestamp>2017-01-17T22:54:19Z</datestamp>
      <setSpec>user-biosyslit</setSpec>
    </header>
    <header>
      <identifier>oai:zenodo.org:271315</identifier>
      <datestamp>2017-02-08T01:19:47Z</datestamp>
      <setSpec>user-biosyslit</setSpec>
    </header>
    <header>
      <identifier>oai:zenodo.org:271316</identifier>
      <datestamp>2017-02-08T01:19:49Z</datestamp>
      <setSpec>user-biosyslit</setSpec>
    </header>
    <header>
      <identifier>oai:zenodo.org:271317</identifier>
      <datestamp>2017-02-08T01:19:51Z</datestamp>
      <setSpec>user-biosyslit</setSpec>
    </header>
    <header>
      <identifier>oai:zenodo.org:251572</identifier>
      <datestamp>2017-01-19T02:09:02Z</datestamp>
      <setSpec>user-biosyslit</setSpec>
    </header>
    <header>
      <identifier>oai:zenodo.org:251573</identifier>
      <datestamp>2017-01-19T02:09:06Z</datestamp>
      <setSpec>user-biosyslit</setSpec>
    </header>
    <header>
      <identifier>oai:zenodo.org:284667</identifier>
      <datestamp>2017-02-09T11:47:26Z</datestamp>
      <setSpec>user-biosyslit</setSpec>
    </header>
    <header>
      <identifier>oai:zenodo.org:284671</identifier>
      <datestamp>2017-02-09T11:47:36Z</datestamp>
      <setSpec>user-biosyslit</setSpec>
    </header>
    <header>
      <identifier>oai:zenodo.org:249746</identifier>
      <datestamp>2017-01-17T23:23:15Z</datestamp>
      <setSpec>user-biosyslit</setSpec>
    </header>
    <header>
      <identifier>oai:zenodo.org:249747</identifier>
      <datestamp>2017-01-17T23:23:21Z</datestamp>
      <setSpec>user-biosyslit</setSpec>
    </header>
    <header>
      <identifier>oai:zenodo.org:249748</identifier>
      <datestamp>2017-01-17T23:23:24Z</datestamp>
      <setSpec>user-biosyslit</setSpec>
    </header>
    <header>
      <identifier>oai:zenodo.org:284669</identifier>
      <datestamp>2017-02-09T11:47:31Z</datestamp>
      <setSpec>user-biosyslit</setSpec>
    </header>
    <header>
      <identifier>oai:zenodo.org:284670</identifier>
      <datestamp>2017-02-09T11:47:34Z</datestamp>
      <setSpec>user-biosyslit</setSpec>
    </header>
    <header>
      <identifier>oai:zenodo.org:237805</identifier>
      <datestamp>2017-01-10T20:53:06Z</datestamp>
      <setSpec>user-biosyslit</setSpec>
    </header>
    <header>
      <identifier>oai:zenodo.org:237806</identifier>
      <datestamp>2017-01-10T20:53:10Z</datestamp>
      <setSpec>user-biosyslit</setSpec>
    </header>
    <header>
      <identifier>oai:zenodo.org:556865</identifier>
      <datestamp>2017-04-24T07:56:49Z</datestamp>
      <setSpec>user-biosyslit</setSpec>
    </header>
    <header>
      <identifier>oai:zenodo.org:556858</identifier>
      <datestamp>2017-04-24T07:56:25Z</datestamp>
      <setSpec>user-biosyslit</setSpec>
    </header>
    <header>
      <identifier>oai:zenodo.org:556863</identifier>
      <datestamp>2017-04-24T07:56:42Z</datestamp>
      <setSpec>user-biosyslit</setSpec>
    </header>
    <header>
      <identifier>oai:zenodo.org:556864</identifier>
      <datestamp>2017-04-24T07:56:46Z</datestamp>
      <setSpec>user-biosyslit</setSpec>
    </header>
    <header>
      <identifier>oai:zenodo.org:556854</identifier>
      <datestamp>2017-04-24T07:56:16Z</datestamp>
      <setSpec>user-biosyslit</setSpec>
    </header>
    <header>
      <identifier>oai:zenodo.org:236145</identifier>
      <datestamp>2017-01-09T18:51:50Z</datestamp>
      <setSpec>user-biosyslit</setSpec>
    </header>
    <header>
      <identifier>oai:zenodo.org:243324</identifier>
      <datestamp>2017-01-14T02:39:59Z</datestamp>
      <setSpec>user-biosyslit</setSpec>
    </header>
    <header>
      <identifier>oai:zenodo.org:243323</identifier>
      <datestamp>2017-01-14T02:39:55Z</datestamp>
      <setSpec>user-biosyslit</setSpec>
    </header>
    <header>
      <identifier>oai:zenodo.org:243322</identifier>
      <datestamp>2017-01-14T02:39:52Z</datestamp>
      <setSpec>user-biosyslit</setSpec>
    </header>
    <header>
      <identifier>oai:zenodo.org:236142</identifier>
      <datestamp>2017-01-09T18:51:40Z</datestamp>
      <setSpec>user-biosyslit</setSpec>
    </header>
    <header>
      <identifier>oai:zenodo.org:236148</identifier>
      <datestamp>2017-01-09T18:52:01Z</datestamp>
      <setSpec>user-biosyslit</setSpec>
    </header>
    <header>
      <identifier>oai:zenodo.org:236149</identifier>
      <datestamp>2017-01-09T18:52:05Z</datestamp>
      <setSpec>user-biosyslit</setSpec>
    </header>
    <header>
      <identifier>oai:zenodo.org:236146</identifier>
      <datestamp>2017-01-09T18:51:54Z</datestamp>
      <setSpec>user-biosyslit</setSpec>
    </header>
    <header>
      <identifier>oai:zenodo.org:238631</identifier>
      <datestamp>2017-01-11T08:22:55Z</datestamp>
      <setSpec>user-biosyslit</setSpec>
    </header>
    <header>
      <identifier>oai:zenodo.org:241899</identifier>
      <datestamp>2017-01-13T07:29:32Z</datestamp>
      <setSpec>user-biosyslit</setSpec>
    </header>
    <resumptionToken expirationDate="2017-08-31T15:45:16Z" cursor="34400" completeListSize="77796">.eJyNysEOQzAYAOB3-c-ytLpgkl2EiQNCR3BZDBFTJroFFe8-l5238_etwKuqBB0dsKZh7aRiRJBKiIIl4MX4ZOzW7AxFErOiZ1Fux--wi1Eq16pn8tk1U-KJFvkdFvQSyAnW5qhBS3CNXqkI55g4E0WW6opg8R7O_kri2yy72wONeoNRuRx9K1goNmhGiu_Dfz7x85n8DBIMeV2BTo6KBO2UjzUHfd22D5j2UTo.DInAFA.EWlWriD8gdKwsz-bgNJHk2rwfy8</resumptionToken>
  </ListIdentifiers>
</OAI-PMH>
