<?xml version='1.0' encoding='UTF-8'?>
<?xml-stylesheet type="text/xsl" href="/static/xsl/oai2.v1.0.xsl"?>
<OAI-PMH xmlns="http://www.openarchives.org/OAI/2.0/" xmlns:xsi="http://www.w3.org/2001/XMLSchema-instance" xsi:schemaLocation="http://www.openarchives.org/OAI/2.0/ http://www.openarchives.org/OAI/2.0/OAI-PMH.xsd">
  <responseDate>2017-08-31T15:42:01Z</responseDate>
  <request verb="ListIdentifiers" resumptionToken=".eJyNz00PQzAAgOH_0rMsrfpOdhEmDggdwWUxREyZ6BZU_Pe57Lyd3-fyboDVdQUMeMKygiSEdaghqEuqqgiAldOT0lt7dFCmCS0HGhdO8o76BGZio_oWWzwrwz7vYNAjTi6hmCJtiVu4htf4lfFoSbA7E2irHg9X_-EersKBQ_O7M5J4MCkRqymww5Ugk-S4_Dr0p-M_ncXOQABj0dTAQPJx1c3F1DBgbPv-AdCYUXE.DIm_yQ.y2evj6Gm9L4wqSf26U5pDX1xVas">https://zenodo.org/oai2d</request>
  <ListIdentifiers>
    <header>
      <identifier>oai:zenodo.org:400070</identifier>
      <datestamp>2017-03-16T07:32:30Z</datestamp>
      <setSpec>user-biosyslit</setSpec>
    </header>
    <header>
      <identifier>oai:zenodo.org:400470</identifier>
      <datestamp>2017-03-17T09:12:23Z</datestamp>
      <setSpec>user-biosyslit</setSpec>
    </header>
    <header>
      <identifier>oai:zenodo.org:399127</identifier>
      <datestamp>2017-03-15T08:35:58Z</datestamp>
      <setSpec>user-biosyslit</setSpec>
    </header>
    <header>
      <identifier>oai:zenodo.org:400431</identifier>
      <datestamp>2017-03-17T08:24:16Z</datestamp>
      <setSpec>user-biosyslit</setSpec>
    </header>
    <header>
      <identifier>oai:zenodo.org:399663</identifier>
      <datestamp>2017-03-15T23:07:45Z</datestamp>
      <setSpec>user-biosyslit</setSpec>
    </header>
    <header>
      <identifier>oai:zenodo.org:399360</identifier>
      <datestamp>2017-03-15T20:03:58Z</datestamp>
      <setSpec>user-biosyslit</setSpec>
    </header>
    <header>
      <identifier>oai:zenodo.org:399445</identifier>
      <datestamp>2017-03-15T20:56:22Z</datestamp>
      <setSpec>user-biosyslit</setSpec>
    </header>
    <header>
      <identifier>oai:zenodo.org:400867</identifier>
      <datestamp>2017-03-20T08:46:51Z</datestamp>
      <setSpec>user-biosyslit</setSpec>
    </header>
    <header>
      <identifier>oai:zenodo.org:399526</identifier>
      <datestamp>2017-03-15T22:42:15Z</datestamp>
      <setSpec>user-biosyslit</setSpec>
    </header>
    <header>
      <identifier>oai:zenodo.org:398947</identifier>
      <datestamp>2017-03-14T21:07:35Z</datestamp>
      <setSpec>user-biosyslit</setSpec>
    </header>
    <header>
      <identifier>oai:zenodo.org:399718</identifier>
      <datestamp>2017-03-15T23:26:19Z</datestamp>
      <setSpec>user-biosyslit</setSpec>
    </header>
    <header>
      <identifier>oai:zenodo.org:399457</identifier>
      <datestamp>2017-03-15T21:05:14Z</datestamp>
      <setSpec>user-biosyslit</setSpec>
    </header>
    <header>
      <identifier>oai:zenodo.org:400003</identifier>
      <datestamp>2017-03-16T02:07:50Z</datestamp>
      <setSpec>user-biosyslit</setSpec>
    </header>
    <header>
      <identifier>oai:zenodo.org:400879</identifier>
      <datestamp>2017-03-20T09:03:58Z</datestamp>
      <setSpec>user-biosyslit</setSpec>
    </header>
    <header>
      <identifier>oai:zenodo.org:399403</identifier>
      <datestamp>2017-03-15T20:52:46Z</datestamp>
      <setSpec>user-biosyslit</setSpec>
    </header>
    <header>
      <identifier>oai:zenodo.org:556485</identifier>
      <datestamp>2017-04-21T08:45:25Z</datestamp>
      <setSpec>user-biosyslit</setSpec>
    </header>
    <header>
      <identifier>oai:zenodo.org:400443</identifier>
      <datestamp>2017-03-17T08:35:38Z</datestamp>
      <setSpec>user-biosyslit</setSpec>
    </header>
    <header>
      <identifier>oai:zenodo.org:399546</identifier>
      <datestamp>2017-03-15T22:43:10Z</datestamp>
      <setSpec>user-biosyslit</setSpec>
    </header>
    <header>
      <identifier>oai:zenodo.org:557187</identifier>
      <datestamp>2017-04-25T09:18:06Z</datestamp>
      <setSpec>user-biosyslit</setSpec>
    </header>
    <header>
      <identifier>oai:zenodo.org:400081</identifier>
      <datestamp>2017-03-16T07:33:03Z</datestamp>
      <setSpec>user-biosyslit</setSpec>
    </header>
    <header>
      <identifier>oai:zenodo.org:291248</identifier>
      <datestamp>2017-02-13T20:36:09Z</datestamp>
      <setSpec>user-biosyslit</setSpec>
    </header>
    <header>
      <identifier>oai:zenodo.org:292805</identifier>
      <datestamp>2017-02-16T18:42:20Z</datestamp>
      <setSpec>user-biosyslit</setSpec>
    </header>
    <header>
      <identifier>oai:zenodo.org:291226</identifier>
      <datestamp>2017-02-13T20:33:58Z</datestamp>
      <setSpec>user-biosyslit</setSpec>
    </header>
    <header>
      <identifier>oai:zenodo.org:291234</identifier>
      <datestamp>2017-02-13T20:34:21Z</datestamp>
      <setSpec>user-biosyslit</setSpec>
    </header>
    <header>
      <identifier>oai:zenodo.org:291385</identifier>
      <datestamp>2017-02-14T05:45:46Z</datestamp>
      <setSpec>user-biosyslit</setSpec>
    </header>
    <header>
      <identifier>oai:zenodo.org:292315</identifier>
      <datestamp>2017-02-20T08:29:57Z</datestamp>
      <setSpec>user-biosyslit</setSpec>
    </header>
    <header>
      <identifier>oai:zenodo.org:292518</identifier>
      <datestamp>2017-02-20T08:18:48Z</datestamp>
      <setSpec>user-biosyslit</setSpec>
    </header>
    <header>
      <identifier>oai:zenodo.org:292317</identifier>
      <datestamp>2017-02-20T08:29:55Z</datestamp>
      <setSpec>openaire_data</setSpec>
      <setSpec>user-biosyslit</setSpec>
    </header>
    <header>
      <identifier>oai:zenodo.org:292348</identifier>
      <datestamp>2017-02-20T08:29:31Z</datestamp>
      <setSpec>user-biosyslit</setSpec>
    </header>
    <header>
      <identifier>oai:zenodo.org:292745</identifier>
      <datestamp>2017-02-16T18:35:26Z</datestamp>
      <setSpec>user-biosyslit</setSpec>
    </header>
    <header>
      <identifier>oai:zenodo.org:293402</identifier>
      <datestamp>2017-02-19T13:37:07Z</datestamp>
      <setSpec>user-biosyslit</setSpec>
    </header>
    <header>
      <identifier>oai:zenodo.org:292304</identifier>
      <datestamp>2017-02-20T08:30:13Z</datestamp>
      <setSpec>openaire</setSpec>
      <setSpec>user-biosyslit</setSpec>
    </header>
    <header>
      <identifier>oai:zenodo.org:292432</identifier>
      <datestamp>2017-02-20T08:28:10Z</datestamp>
      <setSpec>user-biosyslit</setSpec>
    </header>
    <header>
      <identifier>oai:zenodo.org:292708</identifier>
      <datestamp>2017-02-16T18:31:10Z</datestamp>
      <setSpec>user-biosyslit</setSpec>
    </header>
    <header>
      <identifier>oai:zenodo.org:293173</identifier>
      <datestamp>2017-02-18T20:05:25Z</datestamp>
      <setSpec>user-biosyslit</setSpec>
    </header>
    <header>
      <identifier>oai:zenodo.org:293225</identifier>
      <datestamp>2017-02-19T13:08:13Z</datestamp>
      <setSpec>user-biosyslit</setSpec>
    </header>
    <header>
      <identifier>oai:zenodo.org:292741</identifier>
      <datestamp>2017-02-16T18:35:01Z</datestamp>
      <setSpec>user-biosyslit</setSpec>
    </header>
    <header>
      <identifier>oai:zenodo.org:292496</identifier>
      <datestamp>2017-02-20T08:31:46Z</datestamp>
      <setSpec>user-biosyslit</setSpec>
    </header>
    <header>
      <identifier>oai:zenodo.org:292658</identifier>
      <datestamp>2017-02-16T18:27:12Z</datestamp>
      <setSpec>user-biosyslit</setSpec>
    </header>
    <header>
      <identifier>oai:zenodo.org:293764</identifier>
      <datestamp>2017-02-20T18:00:46Z</datestamp>
      <setSpec>openaire</setSpec>
      <setSpec>user-biosyslit</setSpec>
    </header>
    <header>
      <identifier>oai:zenodo.org:292503</identifier>
      <datestamp>2017-02-20T08:18:55Z</datestamp>
      <setSpec>user-biosyslit</setSpec>
    </header>
    <header>
      <identifier>oai:zenodo.org:293597</identifier>
      <datestamp>2017-02-19T13:52:01Z</datestamp>
      <setSpec>user-biosyslit</setSpec>
    </header>
    <header>
      <identifier>oai:zenodo.org:293727</identifier>
      <datestamp>2017-02-20T12:00:46Z</datestamp>
      <setSpec>openaire</setSpec>
      <setSpec>user-biosyslit</setSpec>
      <setSpec>user-neilreichia</setSpec>
    </header>
    <header>
      <identifier>oai:zenodo.org:292763</identifier>
      <datestamp>2017-02-16T18:37:03Z</datestamp>
      <setSpec>user-biosyslit</setSpec>
    </header>
    <header>
      <identifier>oai:zenodo.org:292761</identifier>
      <datestamp>2017-02-16T18:36:59Z</datestamp>
      <setSpec>user-biosyslit</setSpec>
    </header>
    <header>
      <identifier>oai:zenodo.org:292768</identifier>
      <datestamp>2017-02-16T18:37:19Z</datestamp>
      <setSpec>user-biosyslit</setSpec>
    </header>
    <header>
      <identifier>oai:zenodo.org:293462</identifier>
      <datestamp>2017-02-19T13:43:50Z</datestamp>
      <setSpec>user-biosyslit</setSpec>
    </header>
    <header>
      <identifier>oai:zenodo.org:292942</identifier>
      <datestamp>2017-02-20T08:16:16Z</datestamp>
      <setSpec>user-neilreichia</setSpec>
      <setSpec>user-biosyslit</setSpec>
    </header>
    <header>
      <identifier>oai:zenodo.org:293159</identifier>
      <datestamp>2017-02-18T19:45:24Z</datestamp>
      <setSpec>user-biosyslit</setSpec>
    </header>
    <header>
      <identifier>oai:zenodo.org:293307</identifier>
      <datestamp>2017-02-19T13:29:53Z</datestamp>
      <setSpec>user-biosyslit</setSpec>
    </header>
    <header>
      <identifier>oai:zenodo.org:292932</identifier>
      <datestamp>2017-02-20T08:16:23Z</datestamp>
      <setSpec>user-neilreichia</setSpec>
      <setSpec>user-biosyslit</setSpec>
    </header>
    <header>
      <identifier>oai:zenodo.org:294297</identifier>
      <datestamp>2017-02-20T19:35:42Z</datestamp>
      <setSpec>user-biosyslit</setSpec>
    </header>
    <header>
      <identifier>oai:zenodo.org:294200</identifier>
      <datestamp>2017-02-20T19:28:43Z</datestamp>
      <setSpec>user-biosyslit</setSpec>
    </header>
    <header>
      <identifier>oai:zenodo.org:294014</identifier>
      <datestamp>2017-02-20T19:08:46Z</datestamp>
      <setSpec>user-biosyslit</setSpec>
    </header>
    <header>
      <identifier>oai:zenodo.org:302162</identifier>
      <datestamp>2017-02-20T21:46:38Z</datestamp>
      <setSpec>user-biosyslit</setSpec>
    </header>
    <header>
      <identifier>oai:zenodo.org:303107</identifier>
      <datestamp>2017-02-21T14:04:20Z</datestamp>
      <setSpec>openaire</setSpec>
      <setSpec>user-neilreichia</setSpec>
      <setSpec>user-biosyslit</setSpec>
    </header>
    <header>
      <identifier>oai:zenodo.org:294213</identifier>
      <datestamp>2017-02-20T19:29:47Z</datestamp>
      <setSpec>user-biosyslit</setSpec>
    </header>
    <header>
      <identifier>oai:zenodo.org:306664</identifier>
      <datestamp>2017-02-20T23:00:02Z</datestamp>
      <setSpec>user-biosyslit</setSpec>
    </header>
    <header>
      <identifier>oai:zenodo.org:301104</identifier>
      <datestamp>2017-02-20T21:29:15Z</datestamp>
      <setSpec>user-biosyslit</setSpec>
    </header>
    <header>
      <identifier>oai:zenodo.org:311103</identifier>
      <datestamp>2017-02-21T00:16:16Z</datestamp>
      <setSpec>user-biosyslit</setSpec>
    </header>
    <header>
      <identifier>oai:zenodo.org:305437</identifier>
      <datestamp>2017-02-20T22:40:05Z</datestamp>
      <setSpec>user-biosyslit</setSpec>
    </header>
    <header>
      <identifier>oai:zenodo.org:312167</identifier>
      <datestamp>2017-02-21T00:38:20Z</datestamp>
      <setSpec>user-biosyslit</setSpec>
    </header>
    <header>
      <identifier>oai:zenodo.org:312450</identifier>
      <datestamp>2017-02-21T00:44:23Z</datestamp>
      <setSpec>user-biosyslit</setSpec>
    </header>
    <header>
      <identifier>oai:zenodo.org:306049</identifier>
      <datestamp>2017-02-20T22:50:03Z</datestamp>
      <setSpec>user-biosyslit</setSpec>
    </header>
    <header>
      <identifier>oai:zenodo.org:312176</identifier>
      <datestamp>2017-02-21T00:38:38Z</datestamp>
      <setSpec>user-biosyslit</setSpec>
    </header>
    <header>
      <identifier>oai:zenodo.org:311718</identifier>
      <datestamp>2017-02-21T00:27:52Z</datestamp>
      <setSpec>user-biosyslit</setSpec>
    </header>
    <header>
      <identifier>oai:zenodo.org:306077</identifier>
      <datestamp>2017-02-20T22:50:34Z</datestamp>
      <setSpec>user-biosyslit</setSpec>
    </header>
    <header>
      <identifier>oai:zenodo.org:313175</identifier>
      <datestamp>2017-02-21T00:56:03Z</datestamp>
      <setSpec>user-biosyslit</setSpec>
    </header>
    <header>
      <identifier>oai:zenodo.org:311068</identifier>
      <datestamp>2017-02-21T00:15:35Z</datestamp>
      <setSpec>user-biosyslit</setSpec>
    </header>
    <header>
      <identifier>oai:zenodo.org:321313</identifier>
      <datestamp>2017-02-21T12:16:37Z</datestamp>
      <setSpec>user-biosyslit</setSpec>
    </header>
    <header>
      <identifier>oai:zenodo.org:312925</identifier>
      <datestamp>2017-02-21T00:51:56Z</datestamp>
      <setSpec>user-biosyslit</setSpec>
    </header>
    <header>
      <identifier>oai:zenodo.org:321300</identifier>
      <datestamp>2017-02-21T12:13:08Z</datestamp>
      <setSpec>user-biosyslit</setSpec>
    </header>
    <header>
      <identifier>oai:zenodo.org:313147</identifier>
      <datestamp>2017-02-21T00:55:37Z</datestamp>
      <setSpec>user-biosyslit</setSpec>
    </header>
    <header>
      <identifier>oai:zenodo.org:320251</identifier>
      <datestamp>2017-02-21T03:29:19Z</datestamp>
      <setSpec>user-biosyslit</setSpec>
    </header>
    <header>
      <identifier>oai:zenodo.org:321294</identifier>
      <datestamp>2017-02-21T12:12:53Z</datestamp>
      <setSpec>user-biosyslit</setSpec>
    </header>
    <header>
      <identifier>oai:zenodo.org:322157</identifier>
      <datestamp>2017-02-24T07:35:33Z</datestamp>
      <setSpec>user-biosyslit</setSpec>
    </header>
    <header>
      <identifier>oai:zenodo.org:319953</identifier>
      <datestamp>2017-02-21T03:23:59Z</datestamp>
      <setSpec>user-biosyslit</setSpec>
    </header>
    <header>
      <identifier>oai:zenodo.org:322330</identifier>
      <datestamp>2017-02-24T09:47:20Z</datestamp>
      <setSpec>user-biosyslit</setSpec>
    </header>
    <header>
      <identifier>oai:zenodo.org:322093</identifier>
      <datestamp>2017-02-24T07:30:10Z</datestamp>
      <setSpec>user-biosyslit</setSpec>
    </header>
    <header>
      <identifier>oai:zenodo.org:322182</identifier>
      <datestamp>2017-02-24T07:36:42Z</datestamp>
      <setSpec>user-biosyslit</setSpec>
    </header>
    <header>
      <identifier>oai:zenodo.org:321782</identifier>
      <datestamp>2017-02-23T08:55:55Z</datestamp>
      <setSpec>user-biosyslit</setSpec>
    </header>
    <header>
      <identifier>oai:zenodo.org:322094</identifier>
      <datestamp>2017-02-24T07:30:12Z</datestamp>
      <setSpec>user-biosyslit</setSpec>
    </header>
    <header>
      <identifier>oai:zenodo.org:321965</identifier>
      <datestamp>2017-02-24T07:19:28Z</datestamp>
      <setSpec>user-biosyslit</setSpec>
    </header>
    <header>
      <identifier>oai:zenodo.org:322108</identifier>
      <datestamp>2017-02-24T07:30:42Z</datestamp>
      <setSpec>user-biosyslit</setSpec>
    </header>
    <header>
      <identifier>oai:zenodo.org:322188</identifier>
      <datestamp>2017-02-24T07:36:56Z</datestamp>
      <setSpec>user-biosyslit</setSpec>
    </header>
    <header>
      <identifier>oai:zenodo.org:322216</identifier>
      <datestamp>2017-02-24T07:38:04Z</datestamp>
      <setSpec>user-biosyslit</setSpec>
    </header>
    <header>
      <identifier>oai:zenodo.org:322308</identifier>
      <datestamp>2017-02-24T09:20:18Z</datestamp>
      <setSpec>user-biosyslit</setSpec>
    </header>
    <header>
      <identifier>oai:zenodo.org:322702</identifier>
      <datestamp>2017-02-27T08:55:18Z</datestamp>
      <setSpec>user-biosyslit</setSpec>
    </header>
    <header>
      <identifier>oai:zenodo.org:322749</identifier>
      <datestamp>2017-02-27T10:35:15Z</datestamp>
      <setSpec>user-biosyslit</setSpec>
    </header>
    <header>
      <identifier>oai:zenodo.org:322697</identifier>
      <datestamp>2017-02-27T08:55:28Z</datestamp>
      <setSpec>user-biosyslit</setSpec>
    </header>
    <header>
      <identifier>oai:zenodo.org:322754</identifier>
      <datestamp>2017-02-27T10:35:03Z</datestamp>
      <setSpec>user-biosyslit</setSpec>
    </header>
    <header>
      <identifier>oai:zenodo.org:322692</identifier>
      <datestamp>2017-02-27T08:48:04Z</datestamp>
      <setSpec>user-biosyslit</setSpec>
    </header>
    <header>
      <identifier>oai:zenodo.org:331994</identifier>
      <datestamp>2017-02-27T23:54:06Z</datestamp>
      <setSpec>user-biosyslit</setSpec>
    </header>
    <header>
      <identifier>oai:zenodo.org:573651</identifier>
      <datestamp>2017-05-10T08:02:30Z</datestamp>
      <setSpec>user-biosyslit</setSpec>
    </header>
    <header>
      <identifier>oai:zenodo.org:343862</identifier>
      <datestamp>2017-02-28T09:43:37Z</datestamp>
      <setSpec>user-biosyslit</setSpec>
    </header>
    <header>
      <identifier>oai:zenodo.org:343835</identifier>
      <datestamp>2017-02-28T09:22:15Z</datestamp>
      <setSpec>user-biosyslit</setSpec>
    </header>
    <header>
      <identifier>oai:zenodo.org:343871</identifier>
      <datestamp>2017-02-28T10:01:56Z</datestamp>
      <setSpec>user-biosyslit</setSpec>
    </header>
    <header>
      <identifier>oai:zenodo.org:343981</identifier>
      <datestamp>2017-02-28T23:50:01Z</datestamp>
      <setSpec>user-biosyslit</setSpec>
    </header>
    <header>
      <identifier>oai:zenodo.org:575656</identifier>
      <datestamp>2017-05-12T08:29:48Z</datestamp>
      <setSpec>user-biosyslit</setSpec>
    </header>
    <header>
      <identifier>oai:zenodo.org:344418</identifier>
      <datestamp>2017-02-28T23:39:32Z</datestamp>
      <setSpec>user-biosyslit</setSpec>
    </header>
    <resumptionToken expirationDate="2017-08-31T15:44:01Z" cursor="15500" completeListSize="77796">.eJyNyk0LgjAYAOD_8p4l3m3aQugimnhIsaWolzAVMdcHrkgn_fe6dK7n_MygmqYGGxeI3GLconxpIjcZIrUMUNVwlfLQfQZUWSqri0xKP33szinmtOWhq8atm7NQ9xidiRabmGZkNSYdTvE-ued6N6YseAr0-FbHU3gKPq9mkS-Lo38TycWRgtZD5MWTII4oWPV95M-nfz5XrcGAW9k2YBOLG9A_y6FVYM-v1xss7FHL.DIm_yQ.SKr2UP8kDKkBoB1NcaPwQ5EIalU</resumptionToken>
  </ListIdentifiers>
</OAI-PMH>
