<?xml version='1.0' encoding='UTF-8'?>
<?xml-stylesheet type="text/xsl" href="/static/xsl/oai2.v1.0.xsl"?>
<OAI-PMH xmlns="http://www.openarchives.org/OAI/2.0/" xmlns:xsi="http://www.w3.org/2001/XMLSchema-instance" xsi:schemaLocation="http://www.openarchives.org/OAI/2.0/ http://www.openarchives.org/OAI/2.0/OAI-PMH.xsd">
  <responseDate>2017-08-31T15:41:21Z</responseDate>
  <request verb="ListIdentifiers" resumptionToken=".eJyNyj0LgkAYAOD_8s4S92GaQoto4pBil5IuYaeIeZl4hXrSf6-luebnWUBWVQk2WqENNkxLNyxdJ4Rg3dJA8uEuxLn5OPBTKngnksJPn4dbijJSm6Erp72b0VC1KLphxXYxOeHNlDRojo_JI1OHKaXByJBn7lU8h9fg80oa-SK_-D1LOkcwUg6RF88MOyyn_Pvwn0_9fK7cggZ9UVdgr7EG7VgMtQR7eb3ehSFRPw.DIm_oQ.RPM3Cpy9kl9kayBAEi6WEimodM0">https://zenodo.org/oai2d</request>
  <ListIdentifiers>
    <header>
      <identifier>oai:zenodo.org:247952</identifier>
      <datestamp>2017-01-16T22:07:31Z</datestamp>
      <setSpec>user-biosyslit</setSpec>
    </header>
    <header>
      <identifier>oai:zenodo.org:247580</identifier>
      <datestamp>2017-01-16T17:13:21Z</datestamp>
      <setSpec>user-biosyslit</setSpec>
    </header>
    <header>
      <identifier>oai:zenodo.org:247556</identifier>
      <datestamp>2017-01-16T17:02:18Z</datestamp>
      <setSpec>user-biosyslit</setSpec>
    </header>
    <header>
      <identifier>oai:zenodo.org:247215</identifier>
      <datestamp>2017-01-16T12:53:33Z</datestamp>
      <setSpec>user-biosyslit</setSpec>
    </header>
    <header>
      <identifier>oai:zenodo.org:247446</identifier>
      <datestamp>2017-01-16T15:29:57Z</datestamp>
      <setSpec>user-biosyslit</setSpec>
    </header>
    <header>
      <identifier>oai:zenodo.org:248424</identifier>
      <datestamp>2017-01-17T03:58:35Z</datestamp>
      <setSpec>user-biosyslit</setSpec>
    </header>
    <header>
      <identifier>oai:zenodo.org:247963</identifier>
      <datestamp>2017-01-16T22:08:06Z</datestamp>
      <setSpec>user-biosyslit</setSpec>
    </header>
    <header>
      <identifier>oai:zenodo.org:248710</identifier>
      <datestamp>2017-01-17T08:28:56Z</datestamp>
      <setSpec>user-biosyslit</setSpec>
    </header>
    <header>
      <identifier>oai:zenodo.org:248705</identifier>
      <datestamp>2017-01-17T08:28:37Z</datestamp>
      <setSpec>user-biosyslit</setSpec>
    </header>
    <header>
      <identifier>oai:zenodo.org:272693</identifier>
      <datestamp>2017-02-08T06:14:08Z</datestamp>
      <setSpec>user-biosyslit</setSpec>
    </header>
    <header>
      <identifier>oai:zenodo.org:251298</identifier>
      <datestamp>2017-01-18T21:19:54Z</datestamp>
      <setSpec>user-biosyslit</setSpec>
    </header>
    <header>
      <identifier>oai:zenodo.org:250564</identifier>
      <datestamp>2017-01-18T12:28:07Z</datestamp>
      <setSpec>user-biosyslit</setSpec>
    </header>
    <header>
      <identifier>oai:zenodo.org:251141</identifier>
      <datestamp>2017-01-18T19:21:26Z</datestamp>
      <setSpec>user-biosyslit</setSpec>
    </header>
    <header>
      <identifier>oai:zenodo.org:250062</identifier>
      <datestamp>2017-01-18T04:22:46Z</datestamp>
      <setSpec>user-biosyslit</setSpec>
    </header>
    <header>
      <identifier>oai:zenodo.org:272880</identifier>
      <datestamp>2017-02-08T06:31:56Z</datestamp>
      <setSpec>user-biosyslit</setSpec>
    </header>
    <header>
      <identifier>oai:zenodo.org:272662</identifier>
      <datestamp>2017-02-08T06:12:37Z</datestamp>
      <setSpec>user-biosyslit</setSpec>
    </header>
    <header>
      <identifier>oai:zenodo.org:276198</identifier>
      <datestamp>2017-02-08T18:23:03Z</datestamp>
      <setSpec>user-biosyslit</setSpec>
    </header>
    <header>
      <identifier>oai:zenodo.org:273196</identifier>
      <datestamp>2017-02-08T08:27:29Z</datestamp>
      <setSpec>user-biosyslit</setSpec>
    </header>
    <header>
      <identifier>oai:zenodo.org:275687</identifier>
      <datestamp>2017-02-08T16:55:29Z</datestamp>
      <setSpec>user-biosyslit</setSpec>
    </header>
    <header>
      <identifier>oai:zenodo.org:272640</identifier>
      <datestamp>2017-02-08T06:04:33Z</datestamp>
      <setSpec>user-biosyslit</setSpec>
    </header>
    <header>
      <identifier>oai:zenodo.org:272786</identifier>
      <datestamp>2017-02-08T06:27:25Z</datestamp>
      <setSpec>user-biosyslit</setSpec>
    </header>
    <header>
      <identifier>oai:zenodo.org:276398</identifier>
      <datestamp>2017-02-08T18:46:38Z</datestamp>
      <setSpec>user-biosyslit</setSpec>
    </header>
    <header>
      <identifier>oai:zenodo.org:276189</identifier>
      <datestamp>2017-02-08T18:22:20Z</datestamp>
      <setSpec>user-biosyslit</setSpec>
    </header>
    <header>
      <identifier>oai:zenodo.org:251761</identifier>
      <datestamp>2017-01-19T04:22:10Z</datestamp>
      <setSpec>user-biosyslit</setSpec>
    </header>
    <header>
      <identifier>oai:zenodo.org:273166</identifier>
      <datestamp>2017-02-08T08:14:38Z</datestamp>
      <setSpec>user-biosyslit</setSpec>
    </header>
    <header>
      <identifier>oai:zenodo.org:252945</identifier>
      <datestamp>2017-01-20T00:20:14Z</datestamp>
      <setSpec>user-biosyslit</setSpec>
    </header>
    <header>
      <identifier>oai:zenodo.org:252149</identifier>
      <datestamp>2017-01-19T09:49:40Z</datestamp>
      <setSpec>user-biosyslit</setSpec>
    </header>
    <header>
      <identifier>oai:zenodo.org:252051</identifier>
      <datestamp>2017-01-19T07:44:44Z</datestamp>
      <setSpec>user-biosyslit</setSpec>
    </header>
    <header>
      <identifier>oai:zenodo.org:252413</identifier>
      <datestamp>2017-01-23T04:15:22Z</datestamp>
      <setSpec>openaire</setSpec>
      <setSpec>user-biosyslit</setSpec>
    </header>
    <header>
      <identifier>oai:zenodo.org:253095</identifier>
      <datestamp>2017-01-20T02:33:00Z</datestamp>
      <setSpec>user-biosyslit</setSpec>
    </header>
    <header>
      <identifier>oai:zenodo.org:253213</identifier>
      <datestamp>2017-01-20T04:33:06Z</datestamp>
      <setSpec>user-biosyslit</setSpec>
    </header>
    <header>
      <identifier>oai:zenodo.org:252621</identifier>
      <datestamp>2017-01-19T17:47:58Z</datestamp>
      <setSpec>user-biosyslit</setSpec>
    </header>
    <header>
      <identifier>oai:zenodo.org:253741</identifier>
      <datestamp>2017-01-20T10:40:48Z</datestamp>
      <setSpec>user-biosyslit</setSpec>
    </header>
    <header>
      <identifier>oai:zenodo.org:253175</identifier>
      <datestamp>2017-01-20T03:15:34Z</datestamp>
      <setSpec>user-biosyslit</setSpec>
    </header>
    <header>
      <identifier>oai:zenodo.org:253488</identifier>
      <datestamp>2017-01-20T07:37:14Z</datestamp>
      <setSpec>user-biosyslit</setSpec>
    </header>
    <header>
      <identifier>oai:zenodo.org:254699</identifier>
      <datestamp>2017-01-21T01:52:37Z</datestamp>
      <setSpec>user-biosyslit</setSpec>
    </header>
    <header>
      <identifier>oai:zenodo.org:254840</identifier>
      <datestamp>2017-01-21T03:46:10Z</datestamp>
      <setSpec>user-biosyslit</setSpec>
    </header>
    <header>
      <identifier>oai:zenodo.org:254459</identifier>
      <datestamp>2017-01-20T18:58:40Z</datestamp>
      <setSpec>user-biosyslit</setSpec>
    </header>
    <header>
      <identifier>oai:zenodo.org:255109</identifier>
      <datestamp>2017-01-21T08:04:14Z</datestamp>
      <setSpec>user-biosyslit</setSpec>
    </header>
    <header>
      <identifier>oai:zenodo.org:256009</identifier>
      <datestamp>2017-01-22T02:08:06Z</datestamp>
      <setSpec>user-biosyslit</setSpec>
    </header>
    <header>
      <identifier>oai:zenodo.org:254709</identifier>
      <datestamp>2017-01-21T02:14:41Z</datestamp>
      <setSpec>user-biosyslit</setSpec>
    </header>
    <header>
      <identifier>oai:zenodo.org:255087</identifier>
      <datestamp>2017-01-21T07:45:16Z</datestamp>
      <setSpec>user-biosyslit</setSpec>
    </header>
    <header>
      <identifier>oai:zenodo.org:255492</identifier>
      <datestamp>2017-01-21T14:13:29Z</datestamp>
      <setSpec>user-biosyslit</setSpec>
    </header>
    <header>
      <identifier>oai:zenodo.org:255648</identifier>
      <datestamp>2017-01-21T17:48:30Z</datestamp>
      <setSpec>user-biosyslit</setSpec>
    </header>
    <header>
      <identifier>oai:zenodo.org:256350</identifier>
      <datestamp>2017-01-22T13:01:30Z</datestamp>
      <setSpec>user-biosyslit</setSpec>
    </header>
    <header>
      <identifier>oai:zenodo.org:256384</identifier>
      <datestamp>2017-01-22T13:51:28Z</datestamp>
      <setSpec>user-biosyslit</setSpec>
    </header>
    <header>
      <identifier>oai:zenodo.org:256072</identifier>
      <datestamp>2017-01-22T03:25:27Z</datestamp>
      <setSpec>user-biosyslit</setSpec>
    </header>
    <header>
      <identifier>oai:zenodo.org:256869</identifier>
      <datestamp>2017-01-22T21:43:23Z</datestamp>
      <setSpec>user-biosyslit</setSpec>
    </header>
    <header>
      <identifier>oai:zenodo.org:256365</identifier>
      <datestamp>2017-01-22T13:17:58Z</datestamp>
      <setSpec>user-biosyslit</setSpec>
    </header>
    <header>
      <identifier>oai:zenodo.org:256082</identifier>
      <datestamp>2017-01-22T03:33:34Z</datestamp>
      <setSpec>user-biosyslit</setSpec>
    </header>
    <header>
      <identifier>oai:zenodo.org:257003</identifier>
      <datestamp>2017-01-22T23:40:44Z</datestamp>
      <setSpec>user-biosyslit</setSpec>
    </header>
    <header>
      <identifier>oai:zenodo.org:257371</identifier>
      <datestamp>2017-01-23T06:09:22Z</datestamp>
      <setSpec>user-biosyslit</setSpec>
    </header>
    <header>
      <identifier>oai:zenodo.org:257674</identifier>
      <datestamp>2017-01-23T12:17:59Z</datestamp>
      <setSpec>user-biosyslit</setSpec>
    </header>
    <header>
      <identifier>oai:zenodo.org:257955</identifier>
      <datestamp>2017-01-23T14:43:34Z</datestamp>
      <setSpec>user-biosyslit</setSpec>
    </header>
    <header>
      <identifier>oai:zenodo.org:258099</identifier>
      <datestamp>2017-01-23T16:02:20Z</datestamp>
      <setSpec>user-biosyslit</setSpec>
    </header>
    <header>
      <identifier>oai:zenodo.org:257592</identifier>
      <datestamp>2017-01-23T10:50:23Z</datestamp>
      <setSpec>user-biosyslit</setSpec>
    </header>
    <header>
      <identifier>oai:zenodo.org:256682</identifier>
      <datestamp>2017-01-22T19:17:23Z</datestamp>
      <setSpec>user-biosyslit</setSpec>
    </header>
    <header>
      <identifier>oai:zenodo.org:258095</identifier>
      <datestamp>2017-01-23T16:02:02Z</datestamp>
      <setSpec>user-biosyslit</setSpec>
    </header>
    <header>
      <identifier>oai:zenodo.org:258539</identifier>
      <datestamp>2017-01-24T00:04:51Z</datestamp>
      <setSpec>user-biosyslit</setSpec>
    </header>
    <header>
      <identifier>oai:zenodo.org:258333</identifier>
      <datestamp>2017-01-23T21:00:18Z</datestamp>
      <setSpec>user-biosyslit</setSpec>
    </header>
    <header>
      <identifier>oai:zenodo.org:257087</identifier>
      <datestamp>2017-01-23T01:00:35Z</datestamp>
      <setSpec>user-biosyslit</setSpec>
    </header>
    <header>
      <identifier>oai:zenodo.org:257547</identifier>
      <datestamp>2017-01-23T09:26:43Z</datestamp>
      <setSpec>user-biosyslit</setSpec>
    </header>
    <header>
      <identifier>oai:zenodo.org:258404</identifier>
      <datestamp>2017-01-23T22:05:21Z</datestamp>
      <setSpec>user-biosyslit</setSpec>
    </header>
    <header>
      <identifier>oai:zenodo.org:257577</identifier>
      <datestamp>2017-01-23T10:50:39Z</datestamp>
      <setSpec>user-biosyslit</setSpec>
    </header>
    <header>
      <identifier>oai:zenodo.org:258724</identifier>
      <datestamp>2017-01-24T03:42:14Z</datestamp>
      <setSpec>user-biosyslit</setSpec>
    </header>
    <header>
      <identifier>oai:zenodo.org:258677</identifier>
      <datestamp>2017-01-24T02:54:01Z</datestamp>
      <setSpec>user-biosyslit</setSpec>
    </header>
    <header>
      <identifier>oai:zenodo.org:258256</identifier>
      <datestamp>2017-01-23T19:48:28Z</datestamp>
      <setSpec>user-biosyslit</setSpec>
    </header>
    <header>
      <identifier>oai:zenodo.org:258384</identifier>
      <datestamp>2017-01-23T21:51:19Z</datestamp>
      <setSpec>user-biosyslit</setSpec>
    </header>
    <header>
      <identifier>oai:zenodo.org:259038</identifier>
      <datestamp>2017-01-24T07:31:29Z</datestamp>
      <setSpec>user-biosyslit</setSpec>
    </header>
    <header>
      <identifier>oai:zenodo.org:259878</identifier>
      <datestamp>2017-01-25T17:11:01Z</datestamp>
      <setSpec>user-biosyslit</setSpec>
    </header>
    <header>
      <identifier>oai:zenodo.org:259737</identifier>
      <datestamp>2017-01-25T15:39:19Z</datestamp>
      <setSpec>user-biosyslit</setSpec>
    </header>
    <header>
      <identifier>oai:zenodo.org:261065</identifier>
      <datestamp>2017-01-28T04:35:30Z</datestamp>
      <setSpec>user-biosyslit</setSpec>
    </header>
    <header>
      <identifier>oai:zenodo.org:261521</identifier>
      <datestamp>2017-01-28T09:59:05Z</datestamp>
      <setSpec>user-biosyslit</setSpec>
    </header>
    <header>
      <identifier>oai:zenodo.org:273488</identifier>
      <datestamp>2017-02-08T09:29:48Z</datestamp>
      <setSpec>user-biosyslit</setSpec>
    </header>
    <header>
      <identifier>oai:zenodo.org:261063</identifier>
      <datestamp>2017-01-28T04:35:24Z</datestamp>
      <setSpec>user-biosyslit</setSpec>
    </header>
    <header>
      <identifier>oai:zenodo.org:273867</identifier>
      <datestamp>2017-02-08T11:01:38Z</datestamp>
      <setSpec>user-biosyslit</setSpec>
    </header>
    <header>
      <identifier>oai:zenodo.org:262242</identifier>
      <datestamp>2017-01-29T00:29:10Z</datestamp>
      <setSpec>user-biosyslit</setSpec>
    </header>
    <header>
      <identifier>oai:zenodo.org:274286</identifier>
      <datestamp>2017-02-08T12:44:33Z</datestamp>
      <setSpec>user-biosyslit</setSpec>
    </header>
    <header>
      <identifier>oai:zenodo.org:260830</identifier>
      <datestamp>2017-01-28T01:12:56Z</datestamp>
      <setSpec>user-biosyslit</setSpec>
    </header>
    <header>
      <identifier>oai:zenodo.org:260924</identifier>
      <datestamp>2017-01-28T02:34:40Z</datestamp>
      <setSpec>user-biosyslit</setSpec>
    </header>
    <header>
      <identifier>oai:zenodo.org:261376</identifier>
      <datestamp>2017-01-28T08:29:13Z</datestamp>
      <setSpec>user-biosyslit</setSpec>
    </header>
    <header>
      <identifier>oai:zenodo.org:261734</identifier>
      <datestamp>2017-01-28T13:45:44Z</datestamp>
      <setSpec>user-biosyslit</setSpec>
    </header>
    <header>
      <identifier>oai:zenodo.org:260991</identifier>
      <datestamp>2017-01-28T03:36:41Z</datestamp>
      <setSpec>user-biosyslit</setSpec>
    </header>
    <header>
      <identifier>oai:zenodo.org:261212</identifier>
      <datestamp>2017-01-28T06:41:55Z</datestamp>
      <setSpec>user-biosyslit</setSpec>
    </header>
    <header>
      <identifier>oai:zenodo.org:273489</identifier>
      <datestamp>2017-02-08T09:29:50Z</datestamp>
      <setSpec>user-biosyslit</setSpec>
    </header>
    <header>
      <identifier>oai:zenodo.org:260867</identifier>
      <datestamp>2017-01-28T01:45:29Z</datestamp>
      <setSpec>user-biosyslit</setSpec>
    </header>
    <header>
      <identifier>oai:zenodo.org:261967</identifier>
      <datestamp>2017-01-28T18:27:20Z</datestamp>
      <setSpec>user-biosyslit</setSpec>
    </header>
    <header>
      <identifier>oai:zenodo.org:261286</identifier>
      <datestamp>2017-01-28T07:37:02Z</datestamp>
      <setSpec>user-biosyslit</setSpec>
    </header>
    <header>
      <identifier>oai:zenodo.org:273763</identifier>
      <datestamp>2017-02-08T10:40:46Z</datestamp>
      <setSpec>user-biosyslit</setSpec>
    </header>
    <header>
      <identifier>oai:zenodo.org:274519</identifier>
      <datestamp>2017-02-08T13:35:06Z</datestamp>
      <setSpec>user-biosyslit</setSpec>
    </header>
    <header>
      <identifier>oai:zenodo.org:273636</identifier>
      <datestamp>2017-02-08T10:06:55Z</datestamp>
      <setSpec>user-biosyslit</setSpec>
    </header>
    <header>
      <identifier>oai:zenodo.org:261404</identifier>
      <datestamp>2017-01-28T08:44:39Z</datestamp>
      <setSpec>user-biosyslit</setSpec>
    </header>
    <header>
      <identifier>oai:zenodo.org:261549</identifier>
      <datestamp>2017-01-28T10:49:30Z</datestamp>
      <setSpec>user-biosyslit</setSpec>
    </header>
    <header>
      <identifier>oai:zenodo.org:262174</identifier>
      <datestamp>2017-01-28T22:23:39Z</datestamp>
      <setSpec>user-biosyslit</setSpec>
    </header>
    <header>
      <identifier>oai:zenodo.org:262313</identifier>
      <datestamp>2017-01-29T01:58:09Z</datestamp>
      <setSpec>user-biosyslit</setSpec>
    </header>
    <header>
      <identifier>oai:zenodo.org:273694</identifier>
      <datestamp>2017-02-08T10:21:57Z</datestamp>
      <setSpec>user-biosyslit</setSpec>
    </header>
    <header>
      <identifier>oai:zenodo.org:274462</identifier>
      <datestamp>2017-02-08T13:18:22Z</datestamp>
      <setSpec>user-biosyslit</setSpec>
    </header>
    <header>
      <identifier>oai:zenodo.org:273996</identifier>
      <datestamp>2017-02-08T11:45:33Z</datestamp>
      <setSpec>user-biosyslit</setSpec>
    </header>
    <header>
      <identifier>oai:zenodo.org:262326</identifier>
      <datestamp>2017-01-29T01:58:52Z</datestamp>
      <setSpec>user-biosyslit</setSpec>
    </header>
    <header>
      <identifier>oai:zenodo.org:274211</identifier>
      <datestamp>2017-02-08T12:26:05Z</datestamp>
      <setSpec>user-biosyslit</setSpec>
    </header>
    <resumptionToken expirationDate="2017-08-31T15:43:21Z" cursor="5000" completeListSize="77796">.eJyNysEKgjAYAOB3-c8Sm0tnQhexxIOKLiW9hKmIOU1ckU5897p0rvP3LSCqqgQTbQxiGFjfIqrR3W5LdQVEMd45vzQfhuKc8KLnce4kz6hLUKrW1LfF5Nkp8WWLgg5LdgzVMzamuEFzeIofqYymhLgvhg7Uk-Hs39zPK0ng8OzqDCzuLc7UcgwO4cywxTJSfB_-88mfzxZ7UGDI6wpMTVWgfeVjLcBc1vUNYSJRHg.DIm_oQ.qT4FVjEADpzvc1X00Vw9R_Fbjac</resumptionToken>
  </ListIdentifiers>
</OAI-PMH>
