<?xml version='1.0' encoding='UTF-8'?>
<?xml-stylesheet type="text/xsl" href="/static/xsl/oai2.v1.0.xsl"?>
<OAI-PMH xmlns="http://www.openarchives.org/OAI/2.0/" xmlns:xsi="http://www.w3.org/2001/XMLSchema-instance" xsi:schemaLocation="http://www.openarchives.org/OAI/2.0/ http://www.openarchives.org/OAI/2.0/OAI-PMH.xsd">
  <responseDate>2017-08-31T15:42:55Z</responseDate>
  <request verb="ListIdentifiers" resumptionToken=".eJyNysEKgjAYAOB3-c8SczM1oUto4kHFlqJdwqaIOU1ckU5897x0rvP3zSDKsgALbXQdYYK3uqlrpqaZRAHBhgfn13plYGnCWcfj3E1epzZBGa6MwBajb2ckkA0KW1XSY4RT1RzjGk3ROX5m8jQmxHtT5Bi-jKbg7q2vIKHLLze3p3F34BQXQ-hEE1UP9ELY96l_Pvnz2WIPCvR5VYKFd4YCzTsfKgHWvCwfoRhRSA.DIm__w.yvf9XGnIzJwZeyOI4j2_BXtgb6Y">https://zenodo.org/oai2d</request>
  <ListIdentifiers>
    <header>
      <identifier>oai:zenodo.org:293897</identifier>
      <datestamp>2017-02-20T18:56:26Z</datestamp>
      <setSpec>user-biosyslit</setSpec>
    </header>
    <header>
      <identifier>oai:zenodo.org:277342</identifier>
      <datestamp>2017-02-08T20:56:11Z</datestamp>
      <setSpec>user-biosyslit</setSpec>
    </header>
    <header>
      <identifier>oai:zenodo.org:282583</identifier>
      <datestamp>2017-02-09T07:16:07Z</datestamp>
      <setSpec>user-biosyslit</setSpec>
    </header>
    <header>
      <identifier>oai:zenodo.org:282586</identifier>
      <datestamp>2017-02-09T07:16:15Z</datestamp>
      <setSpec>user-biosyslit</setSpec>
    </header>
    <header>
      <identifier>oai:zenodo.org:282582</identifier>
      <datestamp>2017-02-09T07:16:04Z</datestamp>
      <setSpec>user-biosyslit</setSpec>
    </header>
    <header>
      <identifier>oai:zenodo.org:282584</identifier>
      <datestamp>2017-02-09T07:16:10Z</datestamp>
      <setSpec>user-biosyslit</setSpec>
    </header>
    <header>
      <identifier>oai:zenodo.org:277294</identifier>
      <datestamp>2017-02-08T20:48:42Z</datestamp>
      <setSpec>user-biosyslit</setSpec>
    </header>
    <header>
      <identifier>oai:zenodo.org:282589</identifier>
      <datestamp>2017-02-09T07:16:21Z</datestamp>
      <setSpec>user-biosyslit</setSpec>
    </header>
    <header>
      <identifier>oai:zenodo.org:282581</identifier>
      <datestamp>2017-02-09T07:16:02Z</datestamp>
      <setSpec>user-biosyslit</setSpec>
    </header>
    <header>
      <identifier>oai:zenodo.org:277292</identifier>
      <datestamp>2017-02-08T20:48:37Z</datestamp>
      <setSpec>user-biosyslit</setSpec>
    </header>
    <header>
      <identifier>oai:zenodo.org:245751</identifier>
      <datestamp>2017-01-15T18:10:12Z</datestamp>
      <setSpec>user-biosyslit</setSpec>
    </header>
    <header>
      <identifier>oai:zenodo.org:245753</identifier>
      <datestamp>2017-01-15T18:10:18Z</datestamp>
      <setSpec>user-biosyslit</setSpec>
    </header>
    <header>
      <identifier>oai:zenodo.org:245749</identifier>
      <datestamp>2017-01-15T18:10:05Z</datestamp>
      <setSpec>user-biosyslit</setSpec>
    </header>
    <header>
      <identifier>oai:zenodo.org:245752</identifier>
      <datestamp>2017-01-15T18:10:15Z</datestamp>
      <setSpec>user-biosyslit</setSpec>
    </header>
    <header>
      <identifier>oai:zenodo.org:287202</identifier>
      <datestamp>2017-02-09T17:42:12Z</datestamp>
      <setSpec>user-biosyslit</setSpec>
    </header>
    <header>
      <identifier>oai:zenodo.org:287201</identifier>
      <datestamp>2017-02-09T17:42:09Z</datestamp>
      <setSpec>user-biosyslit</setSpec>
    </header>
    <header>
      <identifier>oai:zenodo.org:287200</identifier>
      <datestamp>2017-02-09T17:42:06Z</datestamp>
      <setSpec>user-biosyslit</setSpec>
    </header>
    <header>
      <identifier>oai:zenodo.org:237586</identifier>
      <datestamp>2017-01-10T17:19:53Z</datestamp>
      <setSpec>user-biosyslit</setSpec>
    </header>
    <header>
      <identifier>oai:zenodo.org:287203</identifier>
      <datestamp>2017-02-09T17:42:16Z</datestamp>
      <setSpec>user-biosyslit</setSpec>
    </header>
    <header>
      <identifier>oai:zenodo.org:237583</identifier>
      <datestamp>2017-01-10T17:19:41Z</datestamp>
      <setSpec>user-biosyslit</setSpec>
    </header>
    <header>
      <identifier>oai:zenodo.org:287199</identifier>
      <datestamp>2017-02-09T17:42:03Z</datestamp>
      <setSpec>user-biosyslit</setSpec>
    </header>
    <header>
      <identifier>oai:zenodo.org:237585</identifier>
      <datestamp>2017-01-10T17:19:49Z</datestamp>
      <setSpec>user-biosyslit</setSpec>
    </header>
    <header>
      <identifier>oai:zenodo.org:275420</identifier>
      <datestamp>2017-02-08T16:18:39Z</datestamp>
      <setSpec>user-biosyslit</setSpec>
    </header>
    <header>
      <identifier>oai:zenodo.org:278726</identifier>
      <datestamp>2017-02-08T23:48:06Z</datestamp>
      <setSpec>user-biosyslit</setSpec>
    </header>
    <header>
      <identifier>oai:zenodo.org:306759</identifier>
      <datestamp>2017-02-20T23:01:44Z</datestamp>
      <setSpec>user-biosyslit</setSpec>
    </header>
    <header>
      <identifier>oai:zenodo.org:278743</identifier>
      <datestamp>2017-02-08T23:47:59Z</datestamp>
      <setSpec>user-biosyslit</setSpec>
    </header>
    <header>
      <identifier>oai:zenodo.org:278745</identifier>
      <datestamp>2017-02-08T23:48:05Z</datestamp>
      <setSpec>user-biosyslit</setSpec>
    </header>
    <header>
      <identifier>oai:zenodo.org:278742</identifier>
      <datestamp>2017-02-08T23:47:57Z</datestamp>
      <setSpec>user-biosyslit</setSpec>
    </header>
    <header>
      <identifier>oai:zenodo.org:278744</identifier>
      <datestamp>2017-02-08T23:48:03Z</datestamp>
      <setSpec>user-biosyslit</setSpec>
    </header>
    <header>
      <identifier>oai:zenodo.org:283267</identifier>
      <datestamp>2017-02-09T08:27:39Z</datestamp>
      <setSpec>user-biosyslit</setSpec>
    </header>
    <header>
      <identifier>oai:zenodo.org:283270</identifier>
      <datestamp>2017-02-09T08:27:51Z</datestamp>
      <setSpec>user-biosyslit</setSpec>
    </header>
    <header>
      <identifier>oai:zenodo.org:283272</identifier>
      <datestamp>2017-02-09T08:27:56Z</datestamp>
      <setSpec>user-biosyslit</setSpec>
    </header>
    <header>
      <identifier>oai:zenodo.org:235011</identifier>
      <datestamp>2017-01-09T04:40:27Z</datestamp>
      <setSpec>user-biosyslit</setSpec>
    </header>
    <header>
      <identifier>oai:zenodo.org:233108</identifier>
      <datestamp>2017-01-08T00:26:38Z</datestamp>
      <setSpec>user-biosyslit</setSpec>
    </header>
    <header>
      <identifier>oai:zenodo.org:233105</identifier>
      <datestamp>2017-01-08T00:26:27Z</datestamp>
      <setSpec>user-biosyslit</setSpec>
    </header>
    <header>
      <identifier>oai:zenodo.org:233110</identifier>
      <datestamp>2017-01-08T00:26:44Z</datestamp>
      <setSpec>user-biosyslit</setSpec>
    </header>
    <header>
      <identifier>oai:zenodo.org:231479</identifier>
      <datestamp>2017-01-06T02:33:58Z</datestamp>
      <setSpec>user-biosyslit</setSpec>
    </header>
    <header>
      <identifier>oai:zenodo.org:281240</identifier>
      <datestamp>2017-02-09T05:00:22Z</datestamp>
      <setSpec>user-biosyslit</setSpec>
    </header>
    <header>
      <identifier>oai:zenodo.org:275763</identifier>
      <datestamp>2017-02-08T17:02:58Z</datestamp>
      <setSpec>user-biosyslit</setSpec>
    </header>
    <header>
      <identifier>oai:zenodo.org:275762</identifier>
      <datestamp>2017-02-08T17:02:55Z</datestamp>
      <setSpec>user-biosyslit</setSpec>
    </header>
    <header>
      <identifier>oai:zenodo.org:275764</identifier>
      <datestamp>2017-02-08T17:03:00Z</datestamp>
      <setSpec>user-biosyslit</setSpec>
    </header>
    <header>
      <identifier>oai:zenodo.org:281241</identifier>
      <datestamp>2017-02-09T05:00:06Z</datestamp>
      <setSpec>user-biosyslit</setSpec>
    </header>
    <header>
      <identifier>oai:zenodo.org:242678</identifier>
      <datestamp>2017-01-13T18:34:19Z</datestamp>
      <setSpec>user-biosyslit</setSpec>
    </header>
    <header>
      <identifier>oai:zenodo.org:312110</identifier>
      <datestamp>2017-02-21T00:37:24Z</datestamp>
      <setSpec>user-biosyslit</setSpec>
    </header>
    <header>
      <identifier>oai:zenodo.org:281102</identifier>
      <datestamp>2017-02-09T04:44:00Z</datestamp>
      <setSpec>user-biosyslit</setSpec>
    </header>
    <header>
      <identifier>oai:zenodo.org:281104</identifier>
      <datestamp>2017-02-09T04:44:06Z</datestamp>
      <setSpec>user-biosyslit</setSpec>
    </header>
    <header>
      <identifier>oai:zenodo.org:281865</identifier>
      <datestamp>2017-02-09T06:04:52Z</datestamp>
      <setSpec>user-biosyslit</setSpec>
    </header>
    <header>
      <identifier>oai:zenodo.org:293269</identifier>
      <datestamp>2017-02-19T13:27:03Z</datestamp>
      <setSpec>user-biosyslit</setSpec>
    </header>
    <header>
      <identifier>oai:zenodo.org:281868</identifier>
      <datestamp>2017-02-09T06:04:47Z</datestamp>
      <setSpec>user-biosyslit</setSpec>
    </header>
    <header>
      <identifier>oai:zenodo.org:243828</identifier>
      <datestamp>2017-01-14T11:29:06Z</datestamp>
      <setSpec>user-biosyslit</setSpec>
    </header>
    <header>
      <identifier>oai:zenodo.org:245968</identifier>
      <datestamp>2017-01-15T20:18:25Z</datestamp>
      <setSpec>user-biosyslit</setSpec>
    </header>
    <header>
      <identifier>oai:zenodo.org:279904</identifier>
      <datestamp>2017-02-09T02:15:44Z</datestamp>
      <setSpec>user-biosyslit</setSpec>
    </header>
    <header>
      <identifier>oai:zenodo.org:279905</identifier>
      <datestamp>2017-02-09T02:15:46Z</datestamp>
      <setSpec>user-biosyslit</setSpec>
    </header>
    <header>
      <identifier>oai:zenodo.org:245967</identifier>
      <datestamp>2017-01-15T20:18:21Z</datestamp>
      <setSpec>user-biosyslit</setSpec>
    </header>
    <header>
      <identifier>oai:zenodo.org:245966</identifier>
      <datestamp>2017-01-15T20:18:17Z</datestamp>
      <setSpec>user-biosyslit</setSpec>
    </header>
    <header>
      <identifier>oai:zenodo.org:283449</identifier>
      <datestamp>2017-02-09T08:56:40Z</datestamp>
      <setSpec>user-biosyslit</setSpec>
    </header>
    <header>
      <identifier>oai:zenodo.org:283457</identifier>
      <datestamp>2017-02-09T08:56:58Z</datestamp>
      <setSpec>user-biosyslit</setSpec>
    </header>
    <header>
      <identifier>oai:zenodo.org:283453</identifier>
      <datestamp>2017-02-09T08:56:48Z</datestamp>
      <setSpec>user-biosyslit</setSpec>
    </header>
    <header>
      <identifier>oai:zenodo.org:283454</identifier>
      <datestamp>2017-02-09T08:56:51Z</datestamp>
      <setSpec>user-biosyslit</setSpec>
    </header>
    <header>
      <identifier>oai:zenodo.org:283450</identifier>
      <datestamp>2017-02-09T08:56:42Z</datestamp>
      <setSpec>user-biosyslit</setSpec>
    </header>
    <header>
      <identifier>oai:zenodo.org:283452</identifier>
      <datestamp>2017-02-09T08:56:47Z</datestamp>
      <setSpec>user-biosyslit</setSpec>
    </header>
    <header>
      <identifier>oai:zenodo.org:283458</identifier>
      <datestamp>2017-02-09T08:57:01Z</datestamp>
      <setSpec>user-biosyslit</setSpec>
    </header>
    <header>
      <identifier>oai:zenodo.org:283461</identifier>
      <datestamp>2017-02-09T08:57:09Z</datestamp>
      <setSpec>user-biosyslit</setSpec>
    </header>
    <header>
      <identifier>oai:zenodo.org:274061</identifier>
      <datestamp>2017-02-08T12:00:49Z</datestamp>
      <setSpec>user-biosyslit</setSpec>
    </header>
    <header>
      <identifier>oai:zenodo.org:230234</identifier>
      <datestamp>2017-01-04T21:32:32Z</datestamp>
      <setSpec>user-biosyslit</setSpec>
    </header>
    <header>
      <identifier>oai:zenodo.org:274062</identifier>
      <datestamp>2017-02-08T12:00:51Z</datestamp>
      <setSpec>user-biosyslit</setSpec>
    </header>
    <header>
      <identifier>oai:zenodo.org:271008</identifier>
      <datestamp>2017-02-08T00:35:21Z</datestamp>
      <setSpec>user-biosyslit</setSpec>
    </header>
    <header>
      <identifier>oai:zenodo.org:271010</identifier>
      <datestamp>2017-02-08T00:35:26Z</datestamp>
      <setSpec>user-biosyslit</setSpec>
    </header>
    <header>
      <identifier>oai:zenodo.org:271006</identifier>
      <datestamp>2017-02-08T00:35:17Z</datestamp>
      <setSpec>user-biosyslit</setSpec>
    </header>
    <header>
      <identifier>oai:zenodo.org:271011</identifier>
      <datestamp>2017-02-08T00:35:28Z</datestamp>
      <setSpec>user-biosyslit</setSpec>
    </header>
    <header>
      <identifier>oai:zenodo.org:271013</identifier>
      <datestamp>2017-02-08T00:35:34Z</datestamp>
      <setSpec>user-biosyslit</setSpec>
    </header>
    <header>
      <identifier>oai:zenodo.org:234747</identifier>
      <datestamp>2017-01-09T01:46:18Z</datestamp>
      <setSpec>user-biosyslit</setSpec>
    </header>
    <header>
      <identifier>oai:zenodo.org:234750</identifier>
      <datestamp>2017-01-09T01:46:13Z</datestamp>
      <setSpec>user-biosyslit</setSpec>
    </header>
    <header>
      <identifier>oai:zenodo.org:234751</identifier>
      <datestamp>2017-01-09T01:46:17Z</datestamp>
      <setSpec>user-biosyslit</setSpec>
    </header>
    <header>
      <identifier>oai:zenodo.org:265862</identifier>
      <datestamp>2017-01-31T22:24:16Z</datestamp>
      <setSpec>user-biosyslit</setSpec>
    </header>
    <header>
      <identifier>oai:zenodo.org:265863</identifier>
      <datestamp>2017-01-31T22:24:19Z</datestamp>
      <setSpec>user-biosyslit</setSpec>
    </header>
    <header>
      <identifier>oai:zenodo.org:239433</identifier>
      <datestamp>2017-01-11T20:21:25Z</datestamp>
      <setSpec>user-biosyslit</setSpec>
    </header>
    <header>
      <identifier>oai:zenodo.org:239562</identifier>
      <datestamp>2017-01-11T22:13:38Z</datestamp>
      <setSpec>user-biosyslit</setSpec>
    </header>
    <header>
      <identifier>oai:zenodo.org:282323</identifier>
      <datestamp>2017-02-09T06:49:02Z</datestamp>
      <setSpec>user-biosyslit</setSpec>
    </header>
    <header>
      <identifier>oai:zenodo.org:282324</identifier>
      <datestamp>2017-02-09T06:49:04Z</datestamp>
      <setSpec>user-biosyslit</setSpec>
    </header>
    <header>
      <identifier>oai:zenodo.org:282322</identifier>
      <datestamp>2017-02-09T06:49:00Z</datestamp>
      <setSpec>user-biosyslit</setSpec>
    </header>
    <header>
      <identifier>oai:zenodo.org:282321</identifier>
      <datestamp>2017-02-09T06:48:58Z</datestamp>
      <setSpec>user-biosyslit</setSpec>
    </header>
    <header>
      <identifier>oai:zenodo.org:236338</identifier>
      <datestamp>2017-01-09T22:38:21Z</datestamp>
      <setSpec>user-biosyslit</setSpec>
    </header>
    <header>
      <identifier>oai:zenodo.org:236331</identifier>
      <datestamp>2017-01-09T22:38:00Z</datestamp>
      <setSpec>user-biosyslit</setSpec>
    </header>
    <header>
      <identifier>oai:zenodo.org:236337</identifier>
      <datestamp>2017-01-09T22:38:18Z</datestamp>
      <setSpec>user-biosyslit</setSpec>
    </header>
    <header>
      <identifier>oai:zenodo.org:276931</identifier>
      <datestamp>2017-02-08T19:59:56Z</datestamp>
      <setSpec>user-biosyslit</setSpec>
    </header>
    <header>
      <identifier>oai:zenodo.org:276929</identifier>
      <datestamp>2017-02-08T19:59:51Z</datestamp>
      <setSpec>user-biosyslit</setSpec>
    </header>
    <header>
      <identifier>oai:zenodo.org:240934</identifier>
      <datestamp>2017-01-12T16:33:25Z</datestamp>
      <setSpec>user-biosyslit</setSpec>
    </header>
    <header>
      <identifier>oai:zenodo.org:240940</identifier>
      <datestamp>2017-01-12T16:33:51Z</datestamp>
      <setSpec>user-biosyslit</setSpec>
    </header>
    <header>
      <identifier>oai:zenodo.org:240939</identifier>
      <datestamp>2017-01-12T16:33:46Z</datestamp>
      <setSpec>user-biosyslit</setSpec>
    </header>
    <header>
      <identifier>oai:zenodo.org:266789</identifier>
      <datestamp>2017-02-01T15:07:37Z</datestamp>
      <setSpec>user-biosyslit</setSpec>
    </header>
    <header>
      <identifier>oai:zenodo.org:227971</identifier>
      <datestamp>2017-01-02T08:00:15Z</datestamp>
      <setSpec>user-biosyslit</setSpec>
    </header>
    <header>
      <identifier>oai:zenodo.org:266794</identifier>
      <datestamp>2017-02-01T15:07:15Z</datestamp>
      <setSpec>user-biosyslit</setSpec>
    </header>
    <header>
      <identifier>oai:zenodo.org:266797</identifier>
      <datestamp>2017-02-01T15:07:21Z</datestamp>
      <setSpec>user-biosyslit</setSpec>
    </header>
    <header>
      <identifier>oai:zenodo.org:273938</identifier>
      <datestamp>2017-02-08T11:26:26Z</datestamp>
      <setSpec>user-biosyslit</setSpec>
    </header>
    <header>
      <identifier>oai:zenodo.org:266801</identifier>
      <datestamp>2017-02-01T15:07:30Z</datestamp>
      <setSpec>user-biosyslit</setSpec>
    </header>
    <header>
      <identifier>oai:zenodo.org:227975</identifier>
      <datestamp>2017-01-02T07:59:53Z</datestamp>
      <setSpec>user-biosyslit</setSpec>
    </header>
    <header>
      <identifier>oai:zenodo.org:266803</identifier>
      <datestamp>2017-02-01T15:07:36Z</datestamp>
      <setSpec>user-biosyslit</setSpec>
    </header>
    <header>
      <identifier>oai:zenodo.org:277834</identifier>
      <datestamp>2017-02-08T21:53:48Z</datestamp>
      <setSpec>user-biosyslit</setSpec>
    </header>
    <header>
      <identifier>oai:zenodo.org:277835</identifier>
      <datestamp>2017-02-08T21:53:53Z</datestamp>
      <setSpec>user-biosyslit</setSpec>
    </header>
    <resumptionToken expirationDate="2017-08-31T15:44:55Z" cursor="29600" completeListSize="77796">.eJyNyj0PQ0AYAOD_8s7S3BGfSRehYkC4EiyNIqKOimuDE_-9ls7t_DwbsLquwEAnXcGarCoqQros6wKwcnpSemsPhDJNaDnQuHCSd9QnKBMb1bfY4lmZ5PMOBT3m5BKKKdaWuEVreI1fGY-WRHJngmzV4-HqP9zjVVLg0PzujCQeTErEagrscCXYJLlUfh_-8_Gfz2JnEGAsmhoMUdcE6OZiahgY275_AEIDUOs.DIm__w.f9IyAZFXN-rZ2S2vQKRKyeAiStQ</resumptionToken>
  </ListIdentifiers>
</OAI-PMH>
