<?xml version='1.0' encoding='UTF-8'?>
<?xml-stylesheet type="text/xsl" href="/static/xsl/oai2.v1.0.xsl"?>
<OAI-PMH xmlns="http://www.openarchives.org/OAI/2.0/" xmlns:xsi="http://www.w3.org/2001/XMLSchema-instance" xsi:schemaLocation="http://www.openarchives.org/OAI/2.0/ http://www.openarchives.org/OAI/2.0/OAI-PMH.xsd">
  <responseDate>2017-08-31T15:44:45Z</responseDate>
  <request verb="ListIdentifiers" resumptionToken=".eJyNzz0PQ0AAgOH_crM09-Grki5CxYBwJWVpFBF1VFwbnPjvtXRu5_dZ3hXwqiqBAQ8YaqqCZFXXFHxEOpEAL8YnY7dmz6C4JqzoWZw7yTvqEpjiWvMtPntWSnzRwqBDgp5DfEX6HDdwCS_xKxXRnBB3otDWPBEu_sPdXUkCh2V3Z6BxbzKKyzGww4Uik2ak-Dr0pxM_ncVPQAJDXlfAUOT9qp3ysebAWLftA5_bUUE.DInAbA.cktcFH2U9s2z9BtgeH2HISkT6LE">https://zenodo.org/oai2d</request>
  <ListIdentifiers>
    <header>
      <identifier>oai:zenodo.org:276191</identifier>
      <datestamp>2017-02-08T18:22:13Z</datestamp>
      <setSpec>user-biosyslit</setSpec>
    </header>
    <header>
      <identifier>oai:zenodo.org:252449</identifier>
      <datestamp>2017-01-23T04:15:16Z</datestamp>
      <setSpec>openaire</setSpec>
      <setSpec>user-biosyslit</setSpec>
    </header>
    <header>
      <identifier>oai:zenodo.org:273210</identifier>
      <datestamp>2017-02-08T08:28:58Z</datestamp>
      <setSpec>user-biosyslit</setSpec>
    </header>
    <header>
      <identifier>oai:zenodo.org:252315</identifier>
      <datestamp>2017-01-19T11:56:22Z</datestamp>
      <setSpec>user-biosyslit</setSpec>
    </header>
    <header>
      <identifier>oai:zenodo.org:272981</identifier>
      <datestamp>2017-02-08T06:56:44Z</datestamp>
      <setSpec>user-biosyslit</setSpec>
    </header>
    <header>
      <identifier>oai:zenodo.org:252355</identifier>
      <datestamp>2017-01-19T12:36:42Z</datestamp>
      <setSpec>user-biosyslit</setSpec>
    </header>
    <header>
      <identifier>oai:zenodo.org:252306</identifier>
      <datestamp>2017-01-19T11:55:52Z</datestamp>
      <setSpec>user-biosyslit</setSpec>
    </header>
    <header>
      <identifier>oai:zenodo.org:276320</identifier>
      <datestamp>2017-02-08T18:37:55Z</datestamp>
      <setSpec>user-biosyslit</setSpec>
    </header>
    <header>
      <identifier>oai:zenodo.org:253209</identifier>
      <datestamp>2017-01-20T04:00:47Z</datestamp>
      <setSpec>user-biosyslit</setSpec>
    </header>
    <header>
      <identifier>oai:zenodo.org:251788</identifier>
      <datestamp>2017-01-19T04:30:55Z</datestamp>
      <setSpec>user-biosyslit</setSpec>
    </header>
    <header>
      <identifier>oai:zenodo.org:252766</identifier>
      <datestamp>2017-01-19T19:33:58Z</datestamp>
      <setSpec>user-biosyslit</setSpec>
    </header>
    <header>
      <identifier>oai:zenodo.org:252826</identifier>
      <datestamp>2017-01-19T20:55:05Z</datestamp>
      <setSpec>user-biosyslit</setSpec>
    </header>
    <header>
      <identifier>oai:zenodo.org:251849</identifier>
      <datestamp>2017-01-19T05:21:29Z</datestamp>
      <setSpec>user-biosyslit</setSpec>
    </header>
    <header>
      <identifier>oai:zenodo.org:253061</identifier>
      <datestamp>2017-01-20T01:56:46Z</datestamp>
      <setSpec>user-biosyslit</setSpec>
    </header>
    <header>
      <identifier>oai:zenodo.org:252929</identifier>
      <datestamp>2017-01-19T23:37:19Z</datestamp>
      <setSpec>user-biosyslit</setSpec>
    </header>
    <header>
      <identifier>oai:zenodo.org:252898</identifier>
      <datestamp>2017-01-19T22:49:34Z</datestamp>
      <setSpec>user-biosyslit</setSpec>
    </header>
    <header>
      <identifier>oai:zenodo.org:252933</identifier>
      <datestamp>2017-01-19T23:37:34Z</datestamp>
      <setSpec>user-biosyslit</setSpec>
    </header>
    <header>
      <identifier>oai:zenodo.org:253126</identifier>
      <datestamp>2017-01-20T02:34:56Z</datestamp>
      <setSpec>user-biosyslit</setSpec>
    </header>
    <header>
      <identifier>oai:zenodo.org:253580</identifier>
      <datestamp>2017-01-20T08:36:38Z</datestamp>
      <setSpec>user-biosyslit</setSpec>
    </header>
    <header>
      <identifier>oai:zenodo.org:253645</identifier>
      <datestamp>2017-01-20T09:31:55Z</datestamp>
      <setSpec>user-biosyslit</setSpec>
    </header>
    <header>
      <identifier>oai:zenodo.org:252493</identifier>
      <datestamp>2017-01-19T15:07:53Z</datestamp>
      <setSpec>user-biosyslit</setSpec>
    </header>
    <header>
      <identifier>oai:zenodo.org:252050</identifier>
      <datestamp>2017-01-19T07:44:41Z</datestamp>
      <setSpec>user-biosyslit</setSpec>
    </header>
    <header>
      <identifier>oai:zenodo.org:252107</identifier>
      <datestamp>2017-01-19T09:21:31Z</datestamp>
      <setSpec>user-biosyslit</setSpec>
    </header>
    <header>
      <identifier>oai:zenodo.org:252252</identifier>
      <datestamp>2017-01-19T11:15:34Z</datestamp>
      <setSpec>user-biosyslit</setSpec>
    </header>
    <header>
      <identifier>oai:zenodo.org:273308</identifier>
      <datestamp>2017-02-08T08:57:50Z</datestamp>
      <setSpec>user-biosyslit</setSpec>
    </header>
    <header>
      <identifier>oai:zenodo.org:253817</identifier>
      <datestamp>2017-01-20T11:27:55Z</datestamp>
      <setSpec>user-biosyslit</setSpec>
    </header>
    <header>
      <identifier>oai:zenodo.org:252878</identifier>
      <datestamp>2017-01-19T22:27:30Z</datestamp>
      <setSpec>user-biosyslit</setSpec>
    </header>
    <header>
      <identifier>oai:zenodo.org:253117</identifier>
      <datestamp>2017-01-20T02:34:34Z</datestamp>
      <setSpec>user-biosyslit</setSpec>
    </header>
    <header>
      <identifier>oai:zenodo.org:254769</identifier>
      <datestamp>2017-01-21T02:43:38Z</datestamp>
      <setSpec>user-biosyslit</setSpec>
    </header>
    <header>
      <identifier>oai:zenodo.org:253211</identifier>
      <datestamp>2017-01-20T04:33:36Z</datestamp>
      <setSpec>user-biosyslit</setSpec>
    </header>
    <header>
      <identifier>oai:zenodo.org:254654</identifier>
      <datestamp>2017-01-21T01:08:33Z</datestamp>
      <setSpec>user-biosyslit</setSpec>
    </header>
    <header>
      <identifier>oai:zenodo.org:253529</identifier>
      <datestamp>2017-01-20T08:22:16Z</datestamp>
      <setSpec>user-biosyslit</setSpec>
    </header>
    <header>
      <identifier>oai:zenodo.org:248485</identifier>
      <datestamp>2017-01-17T04:36:00Z</datestamp>
      <setSpec>user-biosyslit</setSpec>
    </header>
    <header>
      <identifier>oai:zenodo.org:247966</identifier>
      <datestamp>2017-01-16T22:08:15Z</datestamp>
      <setSpec>user-biosyslit</setSpec>
    </header>
    <header>
      <identifier>oai:zenodo.org:153892</identifier>
      <datestamp>2017-05-16T12:55:33Z</datestamp>
      <setSpec>openaire</setSpec>
      <setSpec>user-biosyslit</setSpec>
    </header>
    <header>
      <identifier>oai:zenodo.org:248147</identifier>
      <datestamp>2017-01-17T00:27:02Z</datestamp>
      <setSpec>user-biosyslit</setSpec>
    </header>
    <header>
      <identifier>oai:zenodo.org:248156</identifier>
      <datestamp>2017-01-17T00:42:40Z</datestamp>
      <setSpec>user-biosyslit</setSpec>
    </header>
    <header>
      <identifier>oai:zenodo.org:249058</identifier>
      <datestamp>2017-01-17T15:45:22Z</datestamp>
      <setSpec>user-biosyslit</setSpec>
    </header>
    <header>
      <identifier>oai:zenodo.org:248285</identifier>
      <datestamp>2017-01-17T02:17:15Z</datestamp>
      <setSpec>user-biosyslit</setSpec>
    </header>
    <header>
      <identifier>oai:zenodo.org:248924</identifier>
      <datestamp>2017-01-17T13:54:48Z</datestamp>
      <setSpec>user-biosyslit</setSpec>
    </header>
    <header>
      <identifier>oai:zenodo.org:248620</identifier>
      <datestamp>2017-01-17T07:16:29Z</datestamp>
      <setSpec>user-biosyslit</setSpec>
    </header>
    <header>
      <identifier>oai:zenodo.org:249008</identifier>
      <datestamp>2017-01-23T04:15:39Z</datestamp>
      <setSpec>openaire</setSpec>
      <setSpec>user-biosyslit</setSpec>
    </header>
    <header>
      <identifier>oai:zenodo.org:249111</identifier>
      <datestamp>2017-01-17T16:30:03Z</datestamp>
      <setSpec>user-biosyslit</setSpec>
    </header>
    <header>
      <identifier>oai:zenodo.org:249946</identifier>
      <datestamp>2017-01-18T02:40:59Z</datestamp>
      <setSpec>user-biosyslit</setSpec>
    </header>
    <header>
      <identifier>oai:zenodo.org:249093</identifier>
      <datestamp>2017-01-17T16:15:00Z</datestamp>
      <setSpec>user-biosyslit</setSpec>
    </header>
    <header>
      <identifier>oai:zenodo.org:273170</identifier>
      <datestamp>2017-02-08T08:14:48Z</datestamp>
      <setSpec>user-biosyslit</setSpec>
    </header>
    <header>
      <identifier>oai:zenodo.org:250145</identifier>
      <datestamp>2017-01-18T05:28:27Z</datestamp>
      <setSpec>user-biosyslit</setSpec>
    </header>
    <header>
      <identifier>oai:zenodo.org:250146</identifier>
      <datestamp>2017-01-18T05:28:33Z</datestamp>
      <setSpec>user-biosyslit</setSpec>
    </header>
    <header>
      <identifier>oai:zenodo.org:250235</identifier>
      <datestamp>2017-01-18T07:17:38Z</datestamp>
      <setSpec>user-biosyslit</setSpec>
    </header>
    <header>
      <identifier>oai:zenodo.org:249831</identifier>
      <datestamp>2017-01-18T00:39:28Z</datestamp>
      <setSpec>user-biosyslit</setSpec>
    </header>
    <header>
      <identifier>oai:zenodo.org:250315</identifier>
      <datestamp>2017-01-18T08:18:26Z</datestamp>
      <setSpec>user-biosyslit</setSpec>
    </header>
    <header>
      <identifier>oai:zenodo.org:250414</identifier>
      <datestamp>2017-01-18T10:07:18Z</datestamp>
      <setSpec>user-biosyslit</setSpec>
    </header>
    <header>
      <identifier>oai:zenodo.org:249723</identifier>
      <datestamp>2017-01-17T23:05:23Z</datestamp>
      <setSpec>user-biosyslit</setSpec>
    </header>
    <header>
      <identifier>oai:zenodo.org:250016</identifier>
      <datestamp>2017-01-18T03:31:20Z</datestamp>
      <setSpec>user-biosyslit</setSpec>
    </header>
    <header>
      <identifier>oai:zenodo.org:250225</identifier>
      <datestamp>2017-01-18T07:17:12Z</datestamp>
      <setSpec>user-biosyslit</setSpec>
    </header>
    <header>
      <identifier>oai:zenodo.org:250035</identifier>
      <datestamp>2017-01-18T04:02:54Z</datestamp>
      <setSpec>user-biosyslit</setSpec>
    </header>
    <header>
      <identifier>oai:zenodo.org:272760</identifier>
      <datestamp>2017-02-08T06:26:11Z</datestamp>
      <setSpec>user-biosyslit</setSpec>
    </header>
    <header>
      <identifier>oai:zenodo.org:249998</identifier>
      <datestamp>2017-01-18T03:30:13Z</datestamp>
      <setSpec>user-biosyslit</setSpec>
    </header>
    <header>
      <identifier>oai:zenodo.org:250607</identifier>
      <datestamp>2017-01-18T13:00:48Z</datestamp>
      <setSpec>user-biosyslit</setSpec>
    </header>
    <header>
      <identifier>oai:zenodo.org:251268</identifier>
      <datestamp>2017-01-18T20:43:31Z</datestamp>
      <setSpec>user-biosyslit</setSpec>
    </header>
    <header>
      <identifier>oai:zenodo.org:250690</identifier>
      <datestamp>2017-01-18T14:04:03Z</datestamp>
      <setSpec>user-biosyslit</setSpec>
    </header>
    <header>
      <identifier>oai:zenodo.org:250912</identifier>
      <datestamp>2017-01-18T16:12:40Z</datestamp>
      <setSpec>user-biosyslit</setSpec>
    </header>
    <header>
      <identifier>oai:zenodo.org:272605</identifier>
      <datestamp>2017-02-08T05:34:47Z</datestamp>
      <setSpec>user-biosyslit</setSpec>
    </header>
    <header>
      <identifier>oai:zenodo.org:251598</identifier>
      <datestamp>2017-01-19T02:45:39Z</datestamp>
      <setSpec>user-biosyslit</setSpec>
    </header>
    <header>
      <identifier>oai:zenodo.org:272696</identifier>
      <datestamp>2017-02-08T06:14:18Z</datestamp>
      <setSpec>user-biosyslit</setSpec>
    </header>
    <header>
      <identifier>oai:zenodo.org:250888</identifier>
      <datestamp>2017-01-18T16:11:19Z</datestamp>
      <setSpec>user-biosyslit</setSpec>
    </header>
    <header>
      <identifier>oai:zenodo.org:250841</identifier>
      <datestamp>2017-01-18T15:33:44Z</datestamp>
      <setSpec>user-biosyslit</setSpec>
    </header>
    <header>
      <identifier>oai:zenodo.org:272710</identifier>
      <datestamp>2017-02-08T06:14:56Z</datestamp>
      <setSpec>user-biosyslit</setSpec>
    </header>
    <header>
      <identifier>oai:zenodo.org:251053</identifier>
      <datestamp>2017-01-18T18:23:33Z</datestamp>
      <setSpec>user-biosyslit</setSpec>
    </header>
    <header>
      <identifier>oai:zenodo.org:275492</identifier>
      <datestamp>2017-02-08T16:34:00Z</datestamp>
      <setSpec>user-biosyslit</setSpec>
    </header>
    <header>
      <identifier>oai:zenodo.org:251540</identifier>
      <datestamp>2017-01-19T01:36:10Z</datestamp>
      <setSpec>user-biosyslit</setSpec>
    </header>
    <header>
      <identifier>oai:zenodo.org:251158</identifier>
      <datestamp>2017-01-18T19:31:36Z</datestamp>
      <setSpec>user-biosyslit</setSpec>
    </header>
    <header>
      <identifier>oai:zenodo.org:272889</identifier>
      <datestamp>2017-02-08T06:32:27Z</datestamp>
      <setSpec>user-biosyslit</setSpec>
    </header>
    <header>
      <identifier>oai:zenodo.org:276363</identifier>
      <datestamp>2017-02-08T18:42:21Z</datestamp>
      <setSpec>user-biosyslit</setSpec>
    </header>
    <header>
      <identifier>oai:zenodo.org:272864</identifier>
      <datestamp>2017-02-08T06:31:11Z</datestamp>
      <setSpec>user-biosyslit</setSpec>
    </header>
    <header>
      <identifier>oai:zenodo.org:273175</identifier>
      <datestamp>2017-02-08T08:14:57Z</datestamp>
      <setSpec>user-biosyslit</setSpec>
    </header>
    <header>
      <identifier>oai:zenodo.org:272813</identifier>
      <datestamp>2017-02-08T06:28:39Z</datestamp>
      <setSpec>user-biosyslit</setSpec>
    </header>
    <header>
      <identifier>oai:zenodo.org:272977</identifier>
      <datestamp>2017-02-08T06:56:28Z</datestamp>
      <setSpec>user-biosyslit</setSpec>
    </header>
    <header>
      <identifier>oai:zenodo.org:272904</identifier>
      <datestamp>2017-02-08T06:33:19Z</datestamp>
      <setSpec>user-biosyslit</setSpec>
    </header>
    <header>
      <identifier>oai:zenodo.org:272846</identifier>
      <datestamp>2017-02-08T06:30:19Z</datestamp>
      <setSpec>user-biosyslit</setSpec>
    </header>
    <header>
      <identifier>oai:zenodo.org:273250</identifier>
      <datestamp>2017-02-08T08:47:09Z</datestamp>
      <setSpec>user-biosyslit</setSpec>
    </header>
    <header>
      <identifier>oai:zenodo.org:251696</identifier>
      <datestamp>2017-01-19T03:29:34Z</datestamp>
      <setSpec>user-biosyslit</setSpec>
    </header>
    <header>
      <identifier>oai:zenodo.org:251602</identifier>
      <datestamp>2017-01-19T02:46:05Z</datestamp>
      <setSpec>user-biosyslit</setSpec>
    </header>
    <header>
      <identifier>oai:zenodo.org:251695</identifier>
      <datestamp>2017-01-19T03:29:31Z</datestamp>
      <setSpec>user-biosyslit</setSpec>
    </header>
    <header>
      <identifier>oai:zenodo.org:275872</identifier>
      <datestamp>2017-02-08T17:17:02Z</datestamp>
      <setSpec>user-biosyslit</setSpec>
    </header>
    <header>
      <identifier>oai:zenodo.org:276373</identifier>
      <datestamp>2017-02-08T18:43:33Z</datestamp>
      <setSpec>user-biosyslit</setSpec>
    </header>
    <header>
      <identifier>oai:zenodo.org:273269</identifier>
      <datestamp>2017-02-08T08:48:37Z</datestamp>
      <setSpec>user-biosyslit</setSpec>
    </header>
    <header>
      <identifier>oai:zenodo.org:276222</identifier>
      <datestamp>2017-02-08T18:26:46Z</datestamp>
      <setSpec>user-biosyslit</setSpec>
    </header>
    <header>
      <identifier>oai:zenodo.org:276273</identifier>
      <datestamp>2017-02-08T18:33:44Z</datestamp>
      <setSpec>user-biosyslit</setSpec>
    </header>
    <header>
      <identifier>oai:zenodo.org:276080</identifier>
      <datestamp>2017-02-08T18:03:26Z</datestamp>
      <setSpec>user-biosyslit</setSpec>
    </header>
    <header>
      <identifier>oai:zenodo.org:276380</identifier>
      <datestamp>2017-02-08T18:44:27Z</datestamp>
      <setSpec>user-biosyslit</setSpec>
    </header>
    <header>
      <identifier>oai:zenodo.org:251956</identifier>
      <datestamp>2017-01-19T06:36:17Z</datestamp>
      <setSpec>user-biosyslit</setSpec>
    </header>
    <header>
      <identifier>oai:zenodo.org:252105</identifier>
      <datestamp>2017-01-19T09:21:25Z</datestamp>
      <setSpec>user-biosyslit</setSpec>
    </header>
    <header>
      <identifier>oai:zenodo.org:251961</identifier>
      <datestamp>2017-01-19T06:36:12Z</datestamp>
      <setSpec>user-biosyslit</setSpec>
    </header>
    <header>
      <identifier>oai:zenodo.org:252005</identifier>
      <datestamp>2017-01-19T07:14:05Z</datestamp>
      <setSpec>user-biosyslit</setSpec>
    </header>
    <header>
      <identifier>oai:zenodo.org:252044</identifier>
      <datestamp>2017-01-19T07:37:11Z</datestamp>
      <setSpec>user-biosyslit</setSpec>
    </header>
    <header>
      <identifier>oai:zenodo.org:252202</identifier>
      <datestamp>2017-01-19T10:30:22Z</datestamp>
      <setSpec>user-biosyslit</setSpec>
    </header>
    <header>
      <identifier>oai:zenodo.org:253473</identifier>
      <datestamp>2017-01-20T07:24:39Z</datestamp>
      <setSpec>user-biosyslit</setSpec>
    </header>
    <header>
      <identifier>oai:zenodo.org:252443</identifier>
      <datestamp>2017-01-19T14:36:20Z</datestamp>
      <setSpec>user-biosyslit</setSpec>
    </header>
    <header>
      <identifier>oai:zenodo.org:252198</identifier>
      <datestamp>2017-01-19T10:30:10Z</datestamp>
      <setSpec>user-biosyslit</setSpec>
    </header>
    <resumptionToken expirationDate="2017-08-31T15:46:45Z" cursor="54200" completeListSize="77796">.eJyNysEOQzAYAOB3-c-ylNY0kl0WJg4IHcFlMURMmeiWUdm7z2Xn7fx9K4i6rsBEO0LoHhMN6RRRQ6cKiHK6c35pN4UyTXg58LhwkmfUJyjTGsO3xOxZGfZlh4JelewUaqlK57hFS3iOH5mM5gS7L4Zsw5Ph4t_c7VU4cHh-dUYWD0fOtGoK7HBh6pHluPw-9c8nfz5LHECBsWhqMHVCFOhexdQIMNf3-wNta1EQ.DInAbQ.Fp8jNyzXuX6cp6Ww-O3wIWSPcGE</resumptionToken>
  </ListIdentifiers>
</OAI-PMH>
