<?xml version='1.0' encoding='UTF-8'?>
<?xml-stylesheet type="text/xsl" href="/static/xsl/oai2.v1.0.xsl"?>
<OAI-PMH xmlns="http://www.openarchives.org/OAI/2.0/" xmlns:xsi="http://www.w3.org/2001/XMLSchema-instance" xsi:schemaLocation="http://www.openarchives.org/OAI/2.0/ http://www.openarchives.org/OAI/2.0/OAI-PMH.xsd">
  <responseDate>2017-08-31T15:43:19Z</responseDate>
  <request verb="ListIdentifiers" resumptionToken=".eJyNyj0LgkAYAOD_8s4S95GeCC1hSYOKXh7pEqYi5VnhFeqJ_z2X5pqfZwJVVSU4aEURNrGFCWZrk9nEMkAV3UPK83VhKE5CFneZ5J54x61AKalZ4KrBd1Ma6AaFLdZ8H5ETtofkisbomLxSHQ-CHnqOdszX0RjcDssraejJ7OI9eXLfSk7KLtxFI8dbntHi-_CfT_98rtqAAc-8rsCh5tqAps-7WoEzzfMHkdRRMg.DInAFw.p1Wn1igfQt_QRGa1o0CKPQJUOHw">https://zenodo.org/oai2d</request>
  <ListIdentifiers>
    <header>
      <identifier>oai:zenodo.org:262132</identifier>
      <datestamp>2017-01-28T21:29:12Z</datestamp>
      <setSpec>user-biosyslit</setSpec>
    </header>
    <header>
      <identifier>oai:zenodo.org:262122</identifier>
      <datestamp>2017-01-28T21:28:40Z</datestamp>
      <setSpec>user-biosyslit</setSpec>
    </header>
    <header>
      <identifier>oai:zenodo.org:262129</identifier>
      <datestamp>2017-01-28T21:29:03Z</datestamp>
      <setSpec>user-biosyslit</setSpec>
    </header>
    <header>
      <identifier>oai:zenodo.org:262124</identifier>
      <datestamp>2017-01-28T21:28:46Z</datestamp>
      <setSpec>user-biosyslit</setSpec>
    </header>
    <header>
      <identifier>oai:zenodo.org:262127</identifier>
      <datestamp>2017-01-28T21:28:57Z</datestamp>
      <setSpec>user-biosyslit</setSpec>
    </header>
    <header>
      <identifier>oai:zenodo.org:228458</identifier>
      <datestamp>2017-01-03T00:07:32Z</datestamp>
      <setSpec>user-biosyslit</setSpec>
    </header>
    <header>
      <identifier>oai:zenodo.org:228459</identifier>
      <datestamp>2017-01-03T00:07:36Z</datestamp>
      <setSpec>user-biosyslit</setSpec>
    </header>
    <header>
      <identifier>oai:zenodo.org:245800</identifier>
      <datestamp>2017-01-15T18:51:25Z</datestamp>
      <setSpec>user-biosyslit</setSpec>
    </header>
    <header>
      <identifier>oai:zenodo.org:245798</identifier>
      <datestamp>2017-01-15T18:51:20Z</datestamp>
      <setSpec>user-biosyslit</setSpec>
    </header>
    <header>
      <identifier>oai:zenodo.org:245804</identifier>
      <datestamp>2017-01-15T18:51:36Z</datestamp>
      <setSpec>user-biosyslit</setSpec>
    </header>
    <header>
      <identifier>oai:zenodo.org:226815</identifier>
      <datestamp>2017-01-01T03:42:44Z</datestamp>
      <setSpec>user-biosyslit</setSpec>
    </header>
    <header>
      <identifier>oai:zenodo.org:226814</identifier>
      <datestamp>2017-01-01T03:42:50Z</datestamp>
      <setSpec>user-biosyslit</setSpec>
    </header>
    <header>
      <identifier>oai:zenodo.org:244953</identifier>
      <datestamp>2017-01-15T05:51:58Z</datestamp>
      <setSpec>user-biosyslit</setSpec>
    </header>
    <header>
      <identifier>oai:zenodo.org:281361</identifier>
      <datestamp>2017-02-09T05:11:27Z</datestamp>
      <setSpec>user-biosyslit</setSpec>
    </header>
    <header>
      <identifier>oai:zenodo.org:281358</identifier>
      <datestamp>2017-02-09T05:11:17Z</datestamp>
      <setSpec>user-biosyslit</setSpec>
    </header>
    <header>
      <identifier>oai:zenodo.org:281359</identifier>
      <datestamp>2017-02-09T05:11:22Z</datestamp>
      <setSpec>user-biosyslit</setSpec>
    </header>
    <header>
      <identifier>oai:zenodo.org:281362</identifier>
      <datestamp>2017-02-09T05:11:29Z</datestamp>
      <setSpec>user-biosyslit</setSpec>
    </header>
    <header>
      <identifier>oai:zenodo.org:281356</identifier>
      <datestamp>2017-02-09T05:11:12Z</datestamp>
      <setSpec>user-biosyslit</setSpec>
    </header>
    <header>
      <identifier>oai:zenodo.org:286050</identifier>
      <datestamp>2017-02-09T15:08:04Z</datestamp>
      <setSpec>user-biosyslit</setSpec>
    </header>
    <header>
      <identifier>oai:zenodo.org:399952</identifier>
      <datestamp>2017-03-16T01:40:14Z</datestamp>
      <setSpec>user-biosyslit</setSpec>
    </header>
    <header>
      <identifier>oai:zenodo.org:286052</identifier>
      <datestamp>2017-02-09T15:08:02Z</datestamp>
      <setSpec>user-biosyslit</setSpec>
    </header>
    <header>
      <identifier>oai:zenodo.org:399946</identifier>
      <datestamp>2017-03-16T01:40:00Z</datestamp>
      <setSpec>user-biosyslit</setSpec>
    </header>
    <header>
      <identifier>oai:zenodo.org:273501</identifier>
      <datestamp>2017-02-08T09:32:07Z</datestamp>
      <setSpec>user-biosyslit</setSpec>
    </header>
    <header>
      <identifier>oai:zenodo.org:273500</identifier>
      <datestamp>2017-02-08T09:32:11Z</datestamp>
      <setSpec>user-biosyslit</setSpec>
    </header>
    <header>
      <identifier>oai:zenodo.org:278956</identifier>
      <datestamp>2017-02-09T00:15:54Z</datestamp>
      <setSpec>user-biosyslit</setSpec>
    </header>
    <header>
      <identifier>oai:zenodo.org:275510</identifier>
      <datestamp>2017-02-08T16:35:53Z</datestamp>
      <setSpec>user-biosyslit</setSpec>
    </header>
    <header>
      <identifier>oai:zenodo.org:230712</identifier>
      <datestamp>2017-01-05T07:05:28Z</datestamp>
      <setSpec>user-biosyslit</setSpec>
    </header>
    <header>
      <identifier>oai:zenodo.org:275509</identifier>
      <datestamp>2017-02-08T16:35:49Z</datestamp>
      <setSpec>user-biosyslit</setSpec>
    </header>
    <header>
      <identifier>oai:zenodo.org:244234</identifier>
      <datestamp>2017-01-14T17:48:51Z</datestamp>
      <setSpec>user-biosyslit</setSpec>
    </header>
    <header>
      <identifier>oai:zenodo.org:255675</identifier>
      <datestamp>2017-01-21T18:16:23Z</datestamp>
      <setSpec>user-biosyslit</setSpec>
    </header>
    <header>
      <identifier>oai:zenodo.org:255674</identifier>
      <datestamp>2017-01-21T18:16:21Z</datestamp>
      <setSpec>user-biosyslit</setSpec>
    </header>
    <header>
      <identifier>oai:zenodo.org:255673</identifier>
      <datestamp>2017-01-21T18:16:19Z</datestamp>
      <setSpec>user-biosyslit</setSpec>
    </header>
    <header>
      <identifier>oai:zenodo.org:255669</identifier>
      <datestamp>2017-01-21T18:16:25Z</datestamp>
      <setSpec>user-biosyslit</setSpec>
    </header>
    <header>
      <identifier>oai:zenodo.org:277031</identifier>
      <datestamp>2017-02-08T20:14:38Z</datestamp>
      <setSpec>user-biosyslit</setSpec>
    </header>
    <header>
      <identifier>oai:zenodo.org:270832</identifier>
      <datestamp>2017-02-08T00:01:20Z</datestamp>
      <setSpec>user-biosyslit</setSpec>
    </header>
    <header>
      <identifier>oai:zenodo.org:232612</identifier>
      <datestamp>2017-01-06T20:23:23Z</datestamp>
      <setSpec>user-biosyslit</setSpec>
    </header>
    <header>
      <identifier>oai:zenodo.org:232610</identifier>
      <datestamp>2017-01-06T20:23:14Z</datestamp>
      <setSpec>user-biosyslit</setSpec>
    </header>
    <header>
      <identifier>oai:zenodo.org:241369</identifier>
      <datestamp>2017-01-13T00:26:02Z</datestamp>
      <setSpec>user-biosyslit</setSpec>
    </header>
    <header>
      <identifier>oai:zenodo.org:243123</identifier>
      <datestamp>2017-01-13T23:43:43Z</datestamp>
      <setSpec>user-biosyslit</setSpec>
    </header>
    <header>
      <identifier>oai:zenodo.org:243130</identifier>
      <datestamp>2017-01-13T23:43:35Z</datestamp>
      <setSpec>user-biosyslit</setSpec>
    </header>
    <header>
      <identifier>oai:zenodo.org:288914</identifier>
      <datestamp>2017-02-09T22:09:37Z</datestamp>
      <setSpec>user-biosyslit</setSpec>
    </header>
    <header>
      <identifier>oai:zenodo.org:288918</identifier>
      <datestamp>2017-02-09T22:09:31Z</datestamp>
      <setSpec>user-biosyslit</setSpec>
    </header>
    <header>
      <identifier>oai:zenodo.org:288917</identifier>
      <datestamp>2017-02-09T22:09:27Z</datestamp>
      <setSpec>user-biosyslit</setSpec>
    </header>
    <header>
      <identifier>oai:zenodo.org:243124</identifier>
      <datestamp>2017-01-13T23:43:11Z</datestamp>
      <setSpec>user-biosyslit</setSpec>
    </header>
    <header>
      <identifier>oai:zenodo.org:288919</identifier>
      <datestamp>2017-02-09T22:09:33Z</datestamp>
      <setSpec>user-biosyslit</setSpec>
    </header>
    <header>
      <identifier>oai:zenodo.org:288920</identifier>
      <datestamp>2017-02-09T22:09:36Z</datestamp>
      <setSpec>user-biosyslit</setSpec>
    </header>
    <header>
      <identifier>oai:zenodo.org:232888</identifier>
      <datestamp>2017-01-07T01:00:16Z</datestamp>
      <setSpec>user-biosyslit</setSpec>
    </header>
    <header>
      <identifier>oai:zenodo.org:232806</identifier>
      <datestamp>2017-01-06T23:19:20Z</datestamp>
      <setSpec>user-biosyslit</setSpec>
    </header>
    <header>
      <identifier>oai:zenodo.org:232808</identifier>
      <datestamp>2017-01-06T23:19:31Z</datestamp>
      <setSpec>user-biosyslit</setSpec>
    </header>
    <header>
      <identifier>oai:zenodo.org:241823</identifier>
      <datestamp>2017-01-13T06:40:53Z</datestamp>
      <setSpec>user-biosyslit</setSpec>
    </header>
    <header>
      <identifier>oai:zenodo.org:241828</identifier>
      <datestamp>2017-01-13T06:40:36Z</datestamp>
      <setSpec>user-biosyslit</setSpec>
    </header>
    <header>
      <identifier>oai:zenodo.org:241827</identifier>
      <datestamp>2017-01-13T06:40:32Z</datestamp>
      <setSpec>user-biosyslit</setSpec>
    </header>
    <header>
      <identifier>oai:zenodo.org:241831</identifier>
      <datestamp>2017-01-13T06:40:51Z</datestamp>
      <setSpec>user-biosyslit</setSpec>
    </header>
    <header>
      <identifier>oai:zenodo.org:231508</identifier>
      <datestamp>2017-01-06T03:12:12Z</datestamp>
      <setSpec>user-biosyslit</setSpec>
    </header>
    <header>
      <identifier>oai:zenodo.org:234667</identifier>
      <datestamp>2017-01-08T23:42:26Z</datestamp>
      <setSpec>user-biosyslit</setSpec>
    </header>
    <header>
      <identifier>oai:zenodo.org:230564</identifier>
      <datestamp>2017-01-05T03:45:43Z</datestamp>
      <setSpec>user-biosyslit</setSpec>
    </header>
    <header>
      <identifier>oai:zenodo.org:230565</identifier>
      <datestamp>2017-01-05T03:45:47Z</datestamp>
      <setSpec>user-biosyslit</setSpec>
    </header>
    <header>
      <identifier>oai:zenodo.org:241051</identifier>
      <datestamp>2017-01-12T19:20:41Z</datestamp>
      <setSpec>user-biosyslit</setSpec>
    </header>
    <header>
      <identifier>oai:zenodo.org:234670</identifier>
      <datestamp>2017-01-08T23:42:15Z</datestamp>
      <setSpec>user-biosyslit</setSpec>
    </header>
    <header>
      <identifier>oai:zenodo.org:230568</identifier>
      <datestamp>2017-01-05T03:46:01Z</datestamp>
      <setSpec>user-biosyslit</setSpec>
    </header>
    <header>
      <identifier>oai:zenodo.org:230567</identifier>
      <datestamp>2017-01-05T03:45:58Z</datestamp>
      <setSpec>user-biosyslit</setSpec>
    </header>
    <header>
      <identifier>oai:zenodo.org:241052</identifier>
      <datestamp>2017-01-12T19:20:44Z</datestamp>
      <setSpec>user-biosyslit</setSpec>
    </header>
    <header>
      <identifier>oai:zenodo.org:234672</identifier>
      <datestamp>2017-01-08T23:42:25Z</datestamp>
      <setSpec>user-biosyslit</setSpec>
    </header>
    <header>
      <identifier>oai:zenodo.org:258940</identifier>
      <datestamp>2017-01-24T06:37:04Z</datestamp>
      <setSpec>user-biosyslit</setSpec>
    </header>
    <header>
      <identifier>oai:zenodo.org:399373</identifier>
      <datestamp>2017-03-15T20:25:13Z</datestamp>
      <setSpec>user-biosyslit</setSpec>
    </header>
    <header>
      <identifier>oai:zenodo.org:399376</identifier>
      <datestamp>2017-03-15T20:25:26Z</datestamp>
      <setSpec>user-biosyslit</setSpec>
    </header>
    <header>
      <identifier>oai:zenodo.org:399374</identifier>
      <datestamp>2017-03-15T20:25:16Z</datestamp>
      <setSpec>user-biosyslit</setSpec>
    </header>
    <header>
      <identifier>oai:zenodo.org:243667</identifier>
      <datestamp>2017-01-14T08:59:05Z</datestamp>
      <setSpec>user-biosyslit</setSpec>
    </header>
    <header>
      <identifier>oai:zenodo.org:280856</identifier>
      <datestamp>2017-02-09T04:13:40Z</datestamp>
      <setSpec>user-biosyslit</setSpec>
    </header>
    <header>
      <identifier>oai:zenodo.org:243671</identifier>
      <datestamp>2017-01-14T08:59:04Z</datestamp>
      <setSpec>user-biosyslit</setSpec>
    </header>
    <header>
      <identifier>oai:zenodo.org:243668</identifier>
      <datestamp>2017-01-14T08:58:54Z</datestamp>
      <setSpec>user-biosyslit</setSpec>
    </header>
    <header>
      <identifier>oai:zenodo.org:231266</identifier>
      <datestamp>2017-01-05T18:10:21Z</datestamp>
      <setSpec>user-biosyslit</setSpec>
    </header>
    <header>
      <identifier>oai:zenodo.org:231270</identifier>
      <datestamp>2017-01-05T18:10:35Z</datestamp>
      <setSpec>user-biosyslit</setSpec>
    </header>
    <header>
      <identifier>oai:zenodo.org:231267</identifier>
      <datestamp>2017-01-05T18:10:25Z</datestamp>
      <setSpec>user-biosyslit</setSpec>
    </header>
    <header>
      <identifier>oai:zenodo.org:267688</identifier>
      <datestamp>2017-02-02T05:50:58Z</datestamp>
      <setSpec>user-biosyslit</setSpec>
    </header>
    <header>
      <identifier>oai:zenodo.org:267697</identifier>
      <datestamp>2017-02-02T05:50:52Z</datestamp>
      <setSpec>user-biosyslit</setSpec>
    </header>
    <header>
      <identifier>oai:zenodo.org:267696</identifier>
      <datestamp>2017-02-02T05:50:48Z</datestamp>
      <setSpec>user-biosyslit</setSpec>
    </header>
    <header>
      <identifier>oai:zenodo.org:267698</identifier>
      <datestamp>2017-02-02T05:50:54Z</datestamp>
      <setSpec>user-biosyslit</setSpec>
    </header>
    <header>
      <identifier>oai:zenodo.org:267699</identifier>
      <datestamp>2017-02-02T05:50:57Z</datestamp>
      <setSpec>user-biosyslit</setSpec>
    </header>
    <header>
      <identifier>oai:zenodo.org:280980</identifier>
      <datestamp>2017-02-09T04:30:32Z</datestamp>
      <setSpec>user-biosyslit</setSpec>
    </header>
    <header>
      <identifier>oai:zenodo.org:280984</identifier>
      <datestamp>2017-02-09T04:30:49Z</datestamp>
      <setSpec>user-biosyslit</setSpec>
    </header>
    <header>
      <identifier>oai:zenodo.org:280974</identifier>
      <datestamp>2017-02-09T04:30:19Z</datestamp>
      <setSpec>user-biosyslit</setSpec>
    </header>
    <header>
      <identifier>oai:zenodo.org:280975</identifier>
      <datestamp>2017-02-09T04:30:21Z</datestamp>
      <setSpec>user-biosyslit</setSpec>
    </header>
    <header>
      <identifier>oai:zenodo.org:280987</identifier>
      <datestamp>2017-02-09T04:30:59Z</datestamp>
      <setSpec>user-biosyslit</setSpec>
    </header>
    <header>
      <identifier>oai:zenodo.org:280985</identifier>
      <datestamp>2017-02-09T04:30:53Z</datestamp>
      <setSpec>user-biosyslit</setSpec>
    </header>
    <header>
      <identifier>oai:zenodo.org:280976</identifier>
      <datestamp>2017-02-09T04:30:23Z</datestamp>
      <setSpec>user-biosyslit</setSpec>
    </header>
    <header>
      <identifier>oai:zenodo.org:280982</identifier>
      <datestamp>2017-02-09T04:30:37Z</datestamp>
      <setSpec>user-biosyslit</setSpec>
    </header>
    <header>
      <identifier>oai:zenodo.org:242337</identifier>
      <datestamp>2017-01-13T13:54:04Z</datestamp>
      <setSpec>user-biosyslit</setSpec>
    </header>
    <header>
      <identifier>oai:zenodo.org:242338</identifier>
      <datestamp>2017-01-13T13:54:08Z</datestamp>
      <setSpec>user-biosyslit</setSpec>
    </header>
    <header>
      <identifier>oai:zenodo.org:242335</identifier>
      <datestamp>2017-01-13T13:53:57Z</datestamp>
      <setSpec>user-biosyslit</setSpec>
    </header>
    <header>
      <identifier>oai:zenodo.org:263496</identifier>
      <datestamp>2017-01-29T23:32:23Z</datestamp>
      <setSpec>user-biosyslit</setSpec>
    </header>
    <header>
      <identifier>oai:zenodo.org:263494</identifier>
      <datestamp>2017-01-29T23:32:16Z</datestamp>
      <setSpec>user-biosyslit</setSpec>
    </header>
    <header>
      <identifier>oai:zenodo.org:263495</identifier>
      <datestamp>2017-01-29T23:32:20Z</datestamp>
      <setSpec>user-biosyslit</setSpec>
    </header>
    <header>
      <identifier>oai:zenodo.org:253290</identifier>
      <datestamp>2017-01-20T05:11:19Z</datestamp>
      <setSpec>user-biosyslit</setSpec>
    </header>
    <header>
      <identifier>oai:zenodo.org:253293</identifier>
      <datestamp>2017-01-20T05:11:28Z</datestamp>
      <setSpec>user-biosyslit</setSpec>
    </header>
    <header>
      <identifier>oai:zenodo.org:253291</identifier>
      <datestamp>2017-01-20T05:11:23Z</datestamp>
      <setSpec>user-biosyslit</setSpec>
    </header>
    <header>
      <identifier>oai:zenodo.org:253289</identifier>
      <datestamp>2017-01-20T05:11:45Z</datestamp>
      <setSpec>user-biosyslit</setSpec>
    </header>
    <header>
      <identifier>oai:zenodo.org:253296</identifier>
      <datestamp>2017-01-20T05:11:37Z</datestamp>
      <setSpec>user-biosyslit</setSpec>
    </header>
    <header>
      <identifier>oai:zenodo.org:253298</identifier>
      <datestamp>2017-01-20T05:11:43Z</datestamp>
      <setSpec>user-biosyslit</setSpec>
    </header>
    <header>
      <identifier>oai:zenodo.org:253297</identifier>
      <datestamp>2017-01-20T05:11:40Z</datestamp>
      <setSpec>user-biosyslit</setSpec>
    </header>
    <resumptionToken expirationDate="2017-08-31T15:45:19Z" cursor="35300" completeListSize="77796">.eJyNyjEPQ0AYgOH_8s3S3LkKlXQRKgaEK8HSKCLqqLg2OPHfa-ncTu_wPivwqipBRweiaupJOcp4r0aIBLwYn4zdmv1CkcSs6FmU2_E77GKUyrXqmXx2zZR4okV-hwW9BHKCtTlq0BJco1cqwjkmzkSRpboiWLyHs7uS-DbL7vZAo95gVC5H3woWig2akeLr8J9O_HQmP4MEQ15XoBNFkaCd8rHmoK_b9gF211Ea.DInAFw.2gayAGem0fwUB5dJbg3ZtQE8TWc</resumptionToken>
  </ListIdentifiers>
</OAI-PMH>
