<?xml version='1.0' encoding='UTF-8'?>
<?xml-stylesheet type="text/xsl" href="/static/xsl/oai2.v1.0.xsl"?>
<OAI-PMH xmlns="http://www.openarchives.org/OAI/2.0/" xmlns:xsi="http://www.w3.org/2001/XMLSchema-instance" xsi:schemaLocation="http://www.openarchives.org/OAI/2.0/ http://www.openarchives.org/OAI/2.0/OAI-PMH.xsd">
  <responseDate>2017-08-31T15:41:16Z</responseDate>
  <request verb="ListIdentifiers" resumptionToken=".eJyNyssKgkAUANB_uWuJeZROQhuxxEWKToq6CVMRc3rgFOqI_56b1rU-ZwJZVSWYaMWYztaMGESnCK83Ww1k0T2EODcLQ5HEoriLKHfid3iLUUpqw7PlcLRT6qkW-Tes-CEgCWZD1KAxOEWvVIVDTN2eo71xVMHoXd3lldR3RHZxnjy6W4KTsvP3wcixxTNafB_-86mfz5Y70OCZ1xWYlGnQ9nlXSzCnef4AV69RFw.DIm_nA.Vo2JFp-Ys8cI_xKEL2MlGVyQCTo">https://zenodo.org/oai2d</request>
  <ListIdentifiers>
    <header>
      <identifier>oai:zenodo.org:263566</identifier>
      <datestamp>2017-01-30T00:34:39Z</datestamp>
      <setSpec>user-biosyslit</setSpec>
    </header>
    <header>
      <identifier>oai:zenodo.org:264337</identifier>
      <datestamp>2017-01-30T19:24:27Z</datestamp>
      <setSpec>user-biosyslit</setSpec>
    </header>
    <header>
      <identifier>oai:zenodo.org:263360</identifier>
      <datestamp>2017-01-29T22:27:24Z</datestamp>
      <setSpec>user-biosyslit</setSpec>
    </header>
    <header>
      <identifier>oai:zenodo.org:265202</identifier>
      <datestamp>2017-01-31T09:59:18Z</datestamp>
      <setSpec>user-biosyslit</setSpec>
    </header>
    <header>
      <identifier>oai:zenodo.org:263977</identifier>
      <datestamp>2017-01-30T11:07:29Z</datestamp>
      <setSpec>user-biosyslit</setSpec>
    </header>
    <header>
      <identifier>oai:zenodo.org:263398</identifier>
      <datestamp>2017-01-29T22:30:47Z</datestamp>
      <setSpec>user-biosyslit</setSpec>
    </header>
    <header>
      <identifier>oai:zenodo.org:264799</identifier>
      <datestamp>2017-01-31T02:47:22Z</datestamp>
      <setSpec>user-biosyslit</setSpec>
    </header>
    <header>
      <identifier>oai:zenodo.org:263593</identifier>
      <datestamp>2017-01-30T01:13:01Z</datestamp>
      <setSpec>user-biosyslit</setSpec>
    </header>
    <header>
      <identifier>oai:zenodo.org:264540</identifier>
      <datestamp>2017-01-30T23:06:33Z</datestamp>
      <setSpec>user-biosyslit</setSpec>
    </header>
    <header>
      <identifier>oai:zenodo.org:265321</identifier>
      <datestamp>2017-01-31T12:15:42Z</datestamp>
      <setSpec>user-biosyslit</setSpec>
    </header>
    <header>
      <identifier>oai:zenodo.org:264640</identifier>
      <datestamp>2017-01-31T00:36:43Z</datestamp>
      <setSpec>user-biosyslit</setSpec>
    </header>
    <header>
      <identifier>oai:zenodo.org:264578</identifier>
      <datestamp>2017-01-30T23:38:26Z</datestamp>
      <setSpec>user-biosyslit</setSpec>
    </header>
    <header>
      <identifier>oai:zenodo.org:265242</identifier>
      <datestamp>2017-01-31T10:40:36Z</datestamp>
      <setSpec>user-biosyslit</setSpec>
    </header>
    <header>
      <identifier>oai:zenodo.org:264946</identifier>
      <datestamp>2017-01-31T05:02:07Z</datestamp>
      <setSpec>user-biosyslit</setSpec>
    </header>
    <header>
      <identifier>oai:zenodo.org:279737</identifier>
      <datestamp>2017-02-09T01:58:21Z</datestamp>
      <setSpec>user-biosyslit</setSpec>
    </header>
    <header>
      <identifier>oai:zenodo.org:274252</identifier>
      <datestamp>2017-02-08T12:34:19Z</datestamp>
      <setSpec>user-biosyslit</setSpec>
    </header>
    <header>
      <identifier>oai:zenodo.org:264903</identifier>
      <datestamp>2017-01-31T04:14:20Z</datestamp>
      <setSpec>user-biosyslit</setSpec>
    </header>
    <header>
      <identifier>oai:zenodo.org:264921</identifier>
      <datestamp>2017-01-31T04:36:45Z</datestamp>
      <setSpec>user-biosyslit</setSpec>
    </header>
    <header>
      <identifier>oai:zenodo.org:265543</identifier>
      <datestamp>2017-02-01T12:48:51Z</datestamp>
      <setSpec>openaire</setSpec>
      <setSpec>user-biosyslit</setSpec>
    </header>
    <header>
      <identifier>oai:zenodo.org:265093</identifier>
      <datestamp>2017-01-31T07:54:45Z</datestamp>
      <setSpec>user-biosyslit</setSpec>
    </header>
    <header>
      <identifier>oai:zenodo.org:265062</identifier>
      <datestamp>2017-01-31T07:18:58Z</datestamp>
      <setSpec>user-biosyslit</setSpec>
    </header>
    <header>
      <identifier>oai:zenodo.org:266135</identifier>
      <datestamp>2017-02-01T01:04:50Z</datestamp>
      <setSpec>user-biosyslit</setSpec>
    </header>
    <header>
      <identifier>oai:zenodo.org:267730</identifier>
      <datestamp>2017-02-02T06:23:27Z</datestamp>
      <setSpec>user-biosyslit</setSpec>
    </header>
    <header>
      <identifier>oai:zenodo.org:266420</identifier>
      <datestamp>2017-02-01T08:32:51Z</datestamp>
      <setSpec>user-biosyslit</setSpec>
    </header>
    <header>
      <identifier>oai:zenodo.org:267503</identifier>
      <datestamp>2017-02-02T03:08:08Z</datestamp>
      <setSpec>user-biosyslit</setSpec>
    </header>
    <header>
      <identifier>oai:zenodo.org:267473</identifier>
      <datestamp>2017-02-02T02:50:49Z</datestamp>
      <setSpec>user-biosyslit</setSpec>
    </header>
    <header>
      <identifier>oai:zenodo.org:266453</identifier>
      <datestamp>2017-02-01T10:12:41Z</datestamp>
      <setSpec>user-biosyslit</setSpec>
    </header>
    <header>
      <identifier>oai:zenodo.org:267363</identifier>
      <datestamp>2017-02-02T00:51:01Z</datestamp>
      <setSpec>user-biosyslit</setSpec>
    </header>
    <header>
      <identifier>oai:zenodo.org:266555</identifier>
      <datestamp>2017-02-01T12:02:46Z</datestamp>
      <setSpec>user-biosyslit</setSpec>
    </header>
    <header>
      <identifier>oai:zenodo.org:267236</identifier>
      <datestamp>2017-02-01T23:15:16Z</datestamp>
      <setSpec>user-biosyslit</setSpec>
    </header>
    <header>
      <identifier>oai:zenodo.org:267598</identifier>
      <datestamp>2017-02-02T04:48:35Z</datestamp>
      <setSpec>user-biosyslit</setSpec>
    </header>
    <header>
      <identifier>oai:zenodo.org:267617</identifier>
      <datestamp>2017-02-02T04:58:29Z</datestamp>
      <setSpec>user-biosyslit</setSpec>
    </header>
    <header>
      <identifier>oai:zenodo.org:267459</identifier>
      <datestamp>2017-02-02T02:28:53Z</datestamp>
      <setSpec>user-biosyslit</setSpec>
    </header>
    <header>
      <identifier>oai:zenodo.org:267321</identifier>
      <datestamp>2017-02-02T00:17:07Z</datestamp>
      <setSpec>user-biosyslit</setSpec>
    </header>
    <header>
      <identifier>oai:zenodo.org:274669</identifier>
      <datestamp>2017-02-08T13:57:11Z</datestamp>
      <setSpec>user-biosyslit</setSpec>
    </header>
    <header>
      <identifier>oai:zenodo.org:268324</identifier>
      <datestamp>2017-02-03T11:18:15Z</datestamp>
      <setSpec>user-biosyslit</setSpec>
    </header>
    <header>
      <identifier>oai:zenodo.org:268088</identifier>
      <datestamp>2017-02-03T01:32:48Z</datestamp>
      <setSpec>user-biosyslit</setSpec>
    </header>
    <header>
      <identifier>oai:zenodo.org:268086</identifier>
      <datestamp>2017-02-03T01:32:43Z</datestamp>
      <setSpec>user-biosyslit</setSpec>
    </header>
    <header>
      <identifier>oai:zenodo.org:269360</identifier>
      <datestamp>2017-02-06T23:58:28Z</datestamp>
      <setSpec>user-biosyslit</setSpec>
    </header>
    <header>
      <identifier>oai:zenodo.org:268344</identifier>
      <datestamp>2017-02-03T12:05:44Z</datestamp>
      <setSpec>user-biosyslit</setSpec>
    </header>
    <header>
      <identifier>oai:zenodo.org:269261</identifier>
      <datestamp>2017-02-06T23:44:12Z</datestamp>
      <setSpec>user-biosyslit</setSpec>
    </header>
    <header>
      <identifier>oai:zenodo.org:269248</identifier>
      <datestamp>2017-02-06T23:41:34Z</datestamp>
      <setSpec>user-biosyslit</setSpec>
    </header>
    <header>
      <identifier>oai:zenodo.org:275516</identifier>
      <datestamp>2017-02-08T16:36:46Z</datestamp>
      <setSpec>user-biosyslit</setSpec>
    </header>
    <header>
      <identifier>oai:zenodo.org:269441</identifier>
      <datestamp>2017-02-07T00:33:32Z</datestamp>
      <setSpec>user-biosyslit</setSpec>
    </header>
    <header>
      <identifier>oai:zenodo.org:269463</identifier>
      <datestamp>2017-02-07T00:40:28Z</datestamp>
      <setSpec>user-biosyslit</setSpec>
    </header>
    <header>
      <identifier>oai:zenodo.org:269365</identifier>
      <datestamp>2017-02-06T23:58:45Z</datestamp>
      <setSpec>user-biosyslit</setSpec>
    </header>
    <header>
      <identifier>oai:zenodo.org:275785</identifier>
      <datestamp>2017-02-08T17:05:05Z</datestamp>
      <setSpec>user-biosyslit</setSpec>
    </header>
    <header>
      <identifier>oai:zenodo.org:275301</identifier>
      <datestamp>2017-02-08T16:03:00Z</datestamp>
      <setSpec>user-biosyslit</setSpec>
    </header>
    <header>
      <identifier>oai:zenodo.org:275488</identifier>
      <datestamp>2017-02-08T16:33:33Z</datestamp>
      <setSpec>user-biosyslit</setSpec>
    </header>
    <header>
      <identifier>oai:zenodo.org:277188</identifier>
      <datestamp>2017-02-08T20:34:16Z</datestamp>
      <setSpec>user-biosyslit</setSpec>
    </header>
    <header>
      <identifier>oai:zenodo.org:277445</identifier>
      <datestamp>2017-02-08T21:08:59Z</datestamp>
      <setSpec>user-biosyslit</setSpec>
    </header>
    <header>
      <identifier>oai:zenodo.org:276956</identifier>
      <datestamp>2017-02-08T20:04:13Z</datestamp>
      <setSpec>user-biosyslit</setSpec>
    </header>
    <header>
      <identifier>oai:zenodo.org:276953</identifier>
      <datestamp>2017-02-08T20:04:05Z</datestamp>
      <setSpec>user-biosyslit</setSpec>
    </header>
    <header>
      <identifier>oai:zenodo.org:277405</identifier>
      <datestamp>2017-02-08T21:04:33Z</datestamp>
      <setSpec>user-biosyslit</setSpec>
    </header>
    <header>
      <identifier>oai:zenodo.org:276862</identifier>
      <datestamp>2017-02-08T19:53:13Z</datestamp>
      <setSpec>user-biosyslit</setSpec>
    </header>
    <header>
      <identifier>oai:zenodo.org:277920</identifier>
      <datestamp>2017-02-08T22:04:57Z</datestamp>
      <setSpec>user-biosyslit</setSpec>
    </header>
    <header>
      <identifier>oai:zenodo.org:277671</identifier>
      <datestamp>2017-02-08T21:36:04Z</datestamp>
      <setSpec>user-biosyslit</setSpec>
    </header>
    <header>
      <identifier>oai:zenodo.org:278178</identifier>
      <datestamp>2017-02-08T22:37:00Z</datestamp>
      <setSpec>user-biosyslit</setSpec>
    </header>
    <header>
      <identifier>oai:zenodo.org:278549</identifier>
      <datestamp>2017-02-08T23:22:43Z</datestamp>
      <setSpec>user-biosyslit</setSpec>
    </header>
    <header>
      <identifier>oai:zenodo.org:279367</identifier>
      <datestamp>2017-02-09T01:09:39Z</datestamp>
      <setSpec>user-biosyslit</setSpec>
    </header>
    <header>
      <identifier>oai:zenodo.org:280233</identifier>
      <datestamp>2017-02-09T03:01:16Z</datestamp>
      <setSpec>user-biosyslit</setSpec>
    </header>
    <header>
      <identifier>oai:zenodo.org:280682</identifier>
      <datestamp>2017-02-09T03:51:37Z</datestamp>
      <setSpec>user-biosyslit</setSpec>
    </header>
    <header>
      <identifier>oai:zenodo.org:280796</identifier>
      <datestamp>2017-02-09T04:06:23Z</datestamp>
      <setSpec>user-biosyslit</setSpec>
    </header>
    <header>
      <identifier>oai:zenodo.org:280952</identifier>
      <datestamp>2017-02-09T04:28:17Z</datestamp>
      <setSpec>user-biosyslit</setSpec>
    </header>
    <header>
      <identifier>oai:zenodo.org:282017</identifier>
      <datestamp>2017-02-09T06:19:47Z</datestamp>
      <setSpec>user-biosyslit</setSpec>
    </header>
    <header>
      <identifier>oai:zenodo.org:282938</identifier>
      <datestamp>2017-02-09T07:52:38Z</datestamp>
      <setSpec>user-biosyslit</setSpec>
    </header>
    <header>
      <identifier>oai:zenodo.org:283030</identifier>
      <datestamp>2017-02-09T08:02:48Z</datestamp>
      <setSpec>user-biosyslit</setSpec>
    </header>
    <header>
      <identifier>oai:zenodo.org:283584</identifier>
      <datestamp>2017-02-09T09:15:17Z</datestamp>
      <setSpec>user-biosyslit</setSpec>
    </header>
    <header>
      <identifier>oai:zenodo.org:283419</identifier>
      <datestamp>2017-02-09T08:51:27Z</datestamp>
      <setSpec>user-biosyslit</setSpec>
    </header>
    <header>
      <identifier>oai:zenodo.org:283959</identifier>
      <datestamp>2017-02-09T10:08:14Z</datestamp>
      <setSpec>user-biosyslit</setSpec>
    </header>
    <header>
      <identifier>oai:zenodo.org:283436</identifier>
      <datestamp>2017-02-09T08:54:48Z</datestamp>
      <setSpec>user-biosyslit</setSpec>
    </header>
    <header>
      <identifier>oai:zenodo.org:284411</identifier>
      <datestamp>2017-02-09T11:11:09Z</datestamp>
      <setSpec>user-biosyslit</setSpec>
    </header>
    <header>
      <identifier>oai:zenodo.org:284245</identifier>
      <datestamp>2017-02-09T10:45:58Z</datestamp>
      <setSpec>user-biosyslit</setSpec>
    </header>
    <header>
      <identifier>oai:zenodo.org:284582</identifier>
      <datestamp>2017-02-09T11:33:54Z</datestamp>
      <setSpec>user-biosyslit</setSpec>
    </header>
    <header>
      <identifier>oai:zenodo.org:284546</identifier>
      <datestamp>2017-02-09T11:28:12Z</datestamp>
      <setSpec>user-biosyslit</setSpec>
    </header>
    <header>
      <identifier>oai:zenodo.org:284564</identifier>
      <datestamp>2017-02-09T11:32:25Z</datestamp>
      <setSpec>user-biosyslit</setSpec>
    </header>
    <header>
      <identifier>oai:zenodo.org:284952</identifier>
      <datestamp>2017-02-09T12:20:52Z</datestamp>
      <setSpec>user-biosyslit</setSpec>
    </header>
    <header>
      <identifier>oai:zenodo.org:285127</identifier>
      <datestamp>2017-02-09T12:43:02Z</datestamp>
      <setSpec>user-biosyslit</setSpec>
    </header>
    <header>
      <identifier>oai:zenodo.org:285279</identifier>
      <datestamp>2017-02-09T13:10:39Z</datestamp>
      <setSpec>user-biosyslit</setSpec>
    </header>
    <header>
      <identifier>oai:zenodo.org:285284</identifier>
      <datestamp>2017-02-09T13:10:52Z</datestamp>
      <setSpec>user-biosyslit</setSpec>
    </header>
    <header>
      <identifier>oai:zenodo.org:286504</identifier>
      <datestamp>2017-02-09T16:11:27Z</datestamp>
      <setSpec>user-biosyslit</setSpec>
    </header>
    <header>
      <identifier>oai:zenodo.org:285472</identifier>
      <datestamp>2017-02-09T13:39:49Z</datestamp>
      <setSpec>user-biosyslit</setSpec>
    </header>
    <header>
      <identifier>oai:zenodo.org:287038</identifier>
      <datestamp>2017-02-09T17:19:55Z</datestamp>
      <setSpec>user-biosyslit</setSpec>
    </header>
    <header>
      <identifier>oai:zenodo.org:287022</identifier>
      <datestamp>2017-02-09T17:19:21Z</datestamp>
      <setSpec>user-biosyslit</setSpec>
    </header>
    <header>
      <identifier>oai:zenodo.org:286959</identifier>
      <datestamp>2017-02-09T17:08:24Z</datestamp>
      <setSpec>user-biosyslit</setSpec>
    </header>
    <header>
      <identifier>oai:zenodo.org:286056</identifier>
      <datestamp>2017-02-09T15:09:00Z</datestamp>
      <setSpec>user-biosyslit</setSpec>
    </header>
    <header>
      <identifier>oai:zenodo.org:287230</identifier>
      <datestamp>2017-02-09T17:49:10Z</datestamp>
      <setSpec>user-biosyslit</setSpec>
    </header>
    <header>
      <identifier>oai:zenodo.org:287208</identifier>
      <datestamp>2017-02-09T17:42:54Z</datestamp>
      <setSpec>user-biosyslit</setSpec>
    </header>
    <header>
      <identifier>oai:zenodo.org:287205</identifier>
      <datestamp>2017-02-09T17:42:46Z</datestamp>
      <setSpec>user-biosyslit</setSpec>
    </header>
    <header>
      <identifier>oai:zenodo.org:286363</identifier>
      <datestamp>2017-02-09T15:50:05Z</datestamp>
      <setSpec>user-biosyslit</setSpec>
    </header>
    <header>
      <identifier>oai:zenodo.org:253545</identifier>
      <datestamp>2017-01-20T08:24:21Z</datestamp>
      <setSpec>user-biosyslit</setSpec>
    </header>
    <header>
      <identifier>oai:zenodo.org:253073</identifier>
      <datestamp>2017-01-20T02:09:39Z</datestamp>
      <setSpec>user-biosyslit</setSpec>
    </header>
    <header>
      <identifier>oai:zenodo.org:252001</identifier>
      <datestamp>2017-01-19T07:13:50Z</datestamp>
      <setSpec>user-biosyslit</setSpec>
    </header>
    <header>
      <identifier>oai:zenodo.org:252428</identifier>
      <datestamp>2017-01-19T14:27:28Z</datestamp>
      <setSpec>user-biosyslit</setSpec>
    </header>
    <header>
      <identifier>oai:zenodo.org:252949</identifier>
      <datestamp>2017-01-20T00:20:24Z</datestamp>
      <setSpec>user-biosyslit</setSpec>
    </header>
    <header>
      <identifier>oai:zenodo.org:252618</identifier>
      <datestamp>2017-01-19T17:47:50Z</datestamp>
      <setSpec>user-biosyslit</setSpec>
    </header>
    <header>
      <identifier>oai:zenodo.org:252901</identifier>
      <datestamp>2017-01-19T22:49:09Z</datestamp>
      <setSpec>user-biosyslit</setSpec>
    </header>
    <header>
      <identifier>oai:zenodo.org:253080</identifier>
      <datestamp>2017-01-20T02:09:58Z</datestamp>
      <setSpec>user-biosyslit</setSpec>
    </header>
    <header>
      <identifier>oai:zenodo.org:254869</identifier>
      <datestamp>2017-01-21T04:17:26Z</datestamp>
      <setSpec>user-biosyslit</setSpec>
    </header>
    <header>
      <identifier>oai:zenodo.org:254719</identifier>
      <datestamp>2017-01-21T02:15:19Z</datestamp>
      <setSpec>user-biosyslit</setSpec>
    </header>
    <resumptionToken expirationDate="2017-08-31T15:43:16Z" cursor="3700" completeListSize="77796">.eJyNyk0LgjAYAOD_8p4lNpf5AV1CEw8qazmyS5iKmNPEFenE_16XznV-nhlkWRbgoJWNiWFjRDa6YRG8tjSQ-XAX4lJ_GPITF3knksznz0PLUapXZuTKMXRTEqkGxS1WbE_1E7bGpEYTPSaPVB1GToIXQ54ZKjpFt-DzChL74nz1e5Z0O8H0Yog9OjG8Y2eSfx_-86mfz5Vb0KDPqhIcYmvQvLKhkuDMy_IGS4RRCw.DIm_nA.83kFi_x2vcQsNvgPg5g24kOmnf8</resumptionToken>
  </ListIdentifiers>
</OAI-PMH>
