<?xml version='1.0' encoding='UTF-8'?>
<?xml-stylesheet type="text/xsl" href="/static/xsl/oai2.v1.0.xsl"?>
<OAI-PMH xmlns="http://www.openarchives.org/OAI/2.0/" xmlns:xsi="http://www.w3.org/2001/XMLSchema-instance" xsi:schemaLocation="http://www.openarchives.org/OAI/2.0/ http://www.openarchives.org/OAI/2.0/OAI-PMH.xsd">
  <responseDate>2017-08-31T15:41:35Z</responseDate>
  <request verb="ListIdentifiers" resumptionToken=".eJyNyj0PQ0AYAOD_8s7S3Lmqj6SLUDEgXElZGkVEHRXXBif-e7t0bufnWYFXVQkG2hFN2SOCdKypB6wTRQJejA_Grs2HobgkrOhZnDvJK-oSlMq16lt89qyU-KJFQYcFPYXyBWtz3KAlPMfPVERzQtyJIlv1RLj4d_fzShI4LLs5A417k1G5HAM7XCg2aUaK78N_PvHzWfwIEgx5XYGh6RK0Uz7WHIx1295PXlEU.DIm_rw.Mxw5r4YC3ABL5SsgrfvhWzYemAc">https://zenodo.org/oai2d</request>
  <ListIdentifiers>
    <header>
      <identifier>oai:zenodo.org:251768</identifier>
      <datestamp>2017-01-19T04:30:06Z</datestamp>
      <setSpec>user-biosyslit</setSpec>
    </header>
    <header>
      <identifier>oai:zenodo.org:251784</identifier>
      <datestamp>2017-01-19T04:30:45Z</datestamp>
      <setSpec>user-biosyslit</setSpec>
    </header>
    <header>
      <identifier>oai:zenodo.org:251767</identifier>
      <datestamp>2017-01-19T04:30:03Z</datestamp>
      <setSpec>user-biosyslit</setSpec>
    </header>
    <header>
      <identifier>oai:zenodo.org:275911</identifier>
      <datestamp>2017-02-08T17:22:02Z</datestamp>
      <setSpec>user-biosyslit</setSpec>
    </header>
    <header>
      <identifier>oai:zenodo.org:275797</identifier>
      <datestamp>2017-02-08T17:05:37Z</datestamp>
      <setSpec>user-biosyslit</setSpec>
    </header>
    <header>
      <identifier>oai:zenodo.org:276366</identifier>
      <datestamp>2017-02-08T18:43:43Z</datestamp>
      <setSpec>user-biosyslit</setSpec>
    </header>
    <header>
      <identifier>oai:zenodo.org:251796</identifier>
      <datestamp>2017-01-19T04:31:16Z</datestamp>
      <setSpec>user-biosyslit</setSpec>
    </header>
    <header>
      <identifier>oai:zenodo.org:252008</identifier>
      <datestamp>2017-01-19T07:21:45Z</datestamp>
      <setSpec>user-biosyslit</setSpec>
    </header>
    <header>
      <identifier>oai:zenodo.org:273289</identifier>
      <datestamp>2017-02-08T08:53:59Z</datestamp>
      <setSpec>user-biosyslit</setSpec>
    </header>
    <header>
      <identifier>oai:zenodo.org:276101</identifier>
      <datestamp>2017-02-08T18:07:43Z</datestamp>
      <setSpec>user-biosyslit</setSpec>
    </header>
    <header>
      <identifier>oai:zenodo.org:251962</identifier>
      <datestamp>2017-01-19T06:36:14Z</datestamp>
      <setSpec>user-biosyslit</setSpec>
    </header>
    <header>
      <identifier>oai:zenodo.org:252123</identifier>
      <datestamp>2017-01-19T09:22:24Z</datestamp>
      <setSpec>user-biosyslit</setSpec>
    </header>
    <header>
      <identifier>oai:zenodo.org:251958</identifier>
      <datestamp>2017-01-19T06:36:04Z</datestamp>
      <setSpec>user-biosyslit</setSpec>
    </header>
    <header>
      <identifier>oai:zenodo.org:252617</identifier>
      <datestamp>2017-01-19T17:47:47Z</datestamp>
      <setSpec>user-biosyslit</setSpec>
    </header>
    <header>
      <identifier>oai:zenodo.org:251963</identifier>
      <datestamp>2017-01-19T06:36:16Z</datestamp>
      <setSpec>user-biosyslit</setSpec>
    </header>
    <header>
      <identifier>oai:zenodo.org:252453</identifier>
      <datestamp>2017-01-19T14:41:57Z</datestamp>
      <setSpec>user-biosyslit</setSpec>
    </header>
    <header>
      <identifier>oai:zenodo.org:252457</identifier>
      <datestamp>2017-01-19T14:42:07Z</datestamp>
      <setSpec>user-biosyslit</setSpec>
    </header>
    <header>
      <identifier>oai:zenodo.org:252335</identifier>
      <datestamp>2017-01-19T12:14:12Z</datestamp>
      <setSpec>user-biosyslit</setSpec>
    </header>
    <header>
      <identifier>oai:zenodo.org:252953</identifier>
      <datestamp>2017-01-20T00:20:36Z</datestamp>
      <setSpec>user-biosyslit</setSpec>
    </header>
    <header>
      <identifier>oai:zenodo.org:253823</identifier>
      <datestamp>2017-01-20T11:28:11Z</datestamp>
      <setSpec>user-biosyslit</setSpec>
    </header>
    <header>
      <identifier>oai:zenodo.org:252948</identifier>
      <datestamp>2017-01-20T00:20:21Z</datestamp>
      <setSpec>user-biosyslit</setSpec>
    </header>
    <header>
      <identifier>oai:zenodo.org:252638</identifier>
      <datestamp>2017-01-19T17:48:42Z</datestamp>
      <setSpec>user-biosyslit</setSpec>
    </header>
    <header>
      <identifier>oai:zenodo.org:252983</identifier>
      <datestamp>2017-01-20T01:02:57Z</datestamp>
      <setSpec>user-biosyslit</setSpec>
    </header>
    <header>
      <identifier>oai:zenodo.org:252981</identifier>
      <datestamp>2017-01-20T01:02:30Z</datestamp>
      <setSpec>user-biosyslit</setSpec>
    </header>
    <header>
      <identifier>oai:zenodo.org:253122</identifier>
      <datestamp>2017-01-20T02:34:47Z</datestamp>
      <setSpec>user-biosyslit</setSpec>
    </header>
    <header>
      <identifier>oai:zenodo.org:253203</identifier>
      <datestamp>2017-01-20T04:00:28Z</datestamp>
      <setSpec>user-biosyslit</setSpec>
    </header>
    <header>
      <identifier>oai:zenodo.org:254733</identifier>
      <datestamp>2017-01-21T02:16:17Z</datestamp>
      <setSpec>user-biosyslit</setSpec>
    </header>
    <header>
      <identifier>oai:zenodo.org:254000</identifier>
      <datestamp>2017-01-20T13:23:32Z</datestamp>
      <setSpec>user-biosyslit</setSpec>
    </header>
    <header>
      <identifier>oai:zenodo.org:254261</identifier>
      <datestamp>2017-01-20T17:17:19Z</datestamp>
      <setSpec>user-biosyslit</setSpec>
    </header>
    <header>
      <identifier>oai:zenodo.org:254929</identifier>
      <datestamp>2017-01-21T05:05:07Z</datestamp>
      <setSpec>user-biosyslit</setSpec>
    </header>
    <header>
      <identifier>oai:zenodo.org:253539</identifier>
      <datestamp>2017-01-20T08:24:04Z</datestamp>
      <setSpec>user-biosyslit</setSpec>
    </header>
    <header>
      <identifier>oai:zenodo.org:254247</identifier>
      <datestamp>2017-01-20T17:09:05Z</datestamp>
      <setSpec>user-biosyslit</setSpec>
    </header>
    <header>
      <identifier>oai:zenodo.org:254049</identifier>
      <datestamp>2017-01-20T13:40:41Z</datestamp>
      <setSpec>user-biosyslit</setSpec>
    </header>
    <header>
      <identifier>oai:zenodo.org:253542</identifier>
      <datestamp>2017-01-20T08:24:13Z</datestamp>
      <setSpec>user-biosyslit</setSpec>
    </header>
    <header>
      <identifier>oai:zenodo.org:253836</identifier>
      <datestamp>2017-01-20T11:35:30Z</datestamp>
      <setSpec>user-biosyslit</setSpec>
    </header>
    <header>
      <identifier>oai:zenodo.org:254496</identifier>
      <datestamp>2017-01-20T19:34:27Z</datestamp>
      <setSpec>user-biosyslit</setSpec>
    </header>
    <header>
      <identifier>oai:zenodo.org:251612</identifier>
      <datestamp>2017-01-19T02:46:42Z</datestamp>
      <setSpec>user-biosyslit</setSpec>
    </header>
    <header>
      <identifier>oai:zenodo.org:275561</identifier>
      <datestamp>2017-02-08T16:41:56Z</datestamp>
      <setSpec>user-biosyslit</setSpec>
    </header>
    <header>
      <identifier>oai:zenodo.org:276364</identifier>
      <datestamp>2017-02-08T18:42:24Z</datestamp>
      <setSpec>user-biosyslit</setSpec>
    </header>
    <header>
      <identifier>oai:zenodo.org:273260</identifier>
      <datestamp>2017-02-08T08:48:17Z</datestamp>
      <setSpec>user-biosyslit</setSpec>
    </header>
    <header>
      <identifier>oai:zenodo.org:251613</identifier>
      <datestamp>2017-01-19T02:46:46Z</datestamp>
      <setSpec>user-biosyslit</setSpec>
    </header>
    <header>
      <identifier>oai:zenodo.org:252430</identifier>
      <datestamp>2017-01-19T14:27:38Z</datestamp>
      <setSpec>user-biosyslit</setSpec>
    </header>
    <header>
      <identifier>oai:zenodo.org:164052</identifier>
      <datestamp>2017-05-16T12:56:31Z</datestamp>
      <setSpec>openaire</setSpec>
      <setSpec>user-biosyslit</setSpec>
    </header>
    <header>
      <identifier>oai:zenodo.org:252320</identifier>
      <datestamp>2017-01-19T11:56:37Z</datestamp>
      <setSpec>user-biosyslit</setSpec>
    </header>
    <header>
      <identifier>oai:zenodo.org:252713</identifier>
      <datestamp>2017-01-19T18:47:37Z</datestamp>
      <setSpec>user-biosyslit</setSpec>
    </header>
    <header>
      <identifier>oai:zenodo.org:251755</identifier>
      <datestamp>2017-01-19T04:21:55Z</datestamp>
      <setSpec>user-biosyslit</setSpec>
    </header>
    <header>
      <identifier>oai:zenodo.org:273214</identifier>
      <datestamp>2017-02-08T08:28:48Z</datestamp>
      <setSpec>user-biosyslit</setSpec>
    </header>
    <header>
      <identifier>oai:zenodo.org:276064</identifier>
      <datestamp>2017-02-08T18:02:39Z</datestamp>
      <setSpec>user-biosyslit</setSpec>
    </header>
    <header>
      <identifier>oai:zenodo.org:252147</identifier>
      <datestamp>2017-01-19T09:49:31Z</datestamp>
      <setSpec>user-biosyslit</setSpec>
    </header>
    <header>
      <identifier>oai:zenodo.org:252017</identifier>
      <datestamp>2017-01-19T07:22:09Z</datestamp>
      <setSpec>user-biosyslit</setSpec>
    </header>
    <header>
      <identifier>oai:zenodo.org:252002</identifier>
      <datestamp>2017-01-19T07:13:54Z</datestamp>
      <setSpec>user-biosyslit</setSpec>
    </header>
    <header>
      <identifier>oai:zenodo.org:252701</identifier>
      <datestamp>2017-01-19T18:47:44Z</datestamp>
      <setSpec>user-biosyslit</setSpec>
    </header>
    <header>
      <identifier>oai:zenodo.org:253576</identifier>
      <datestamp>2017-01-20T08:36:40Z</datestamp>
      <setSpec>user-biosyslit</setSpec>
    </header>
    <header>
      <identifier>oai:zenodo.org:252764</identifier>
      <datestamp>2017-01-19T19:33:52Z</datestamp>
      <setSpec>user-biosyslit</setSpec>
    </header>
    <header>
      <identifier>oai:zenodo.org:252328</identifier>
      <datestamp>2017-01-19T12:14:17Z</datestamp>
      <setSpec>user-biosyslit</setSpec>
    </header>
    <header>
      <identifier>oai:zenodo.org:252995</identifier>
      <datestamp>2017-01-20T01:04:50Z</datestamp>
      <setSpec>user-biosyslit</setSpec>
    </header>
    <header>
      <identifier>oai:zenodo.org:252340</identifier>
      <datestamp>2017-01-19T12:23:06Z</datestamp>
      <setSpec>user-biosyslit</setSpec>
    </header>
    <header>
      <identifier>oai:zenodo.org:252357</identifier>
      <datestamp>2017-01-19T12:36:48Z</datestamp>
      <setSpec>user-biosyslit</setSpec>
    </header>
    <header>
      <identifier>oai:zenodo.org:254680</identifier>
      <datestamp>2017-01-21T01:27:16Z</datestamp>
      <setSpec>user-biosyslit</setSpec>
    </header>
    <header>
      <identifier>oai:zenodo.org:253139</identifier>
      <datestamp>2017-01-20T02:35:37Z</datestamp>
      <setSpec>user-biosyslit</setSpec>
    </header>
    <header>
      <identifier>oai:zenodo.org:255058</identifier>
      <datestamp>2017-01-21T07:11:35Z</datestamp>
      <setSpec>user-biosyslit</setSpec>
    </header>
    <header>
      <identifier>oai:zenodo.org:254061</identifier>
      <datestamp>2017-01-20T13:41:11Z</datestamp>
      <setSpec>user-biosyslit</setSpec>
    </header>
    <header>
      <identifier>oai:zenodo.org:252905</identifier>
      <datestamp>2017-01-19T22:49:20Z</datestamp>
      <setSpec>user-biosyslit</setSpec>
    </header>
    <header>
      <identifier>oai:zenodo.org:254129</identifier>
      <datestamp>2017-01-20T15:21:00Z</datestamp>
      <setSpec>user-biosyslit</setSpec>
    </header>
    <header>
      <identifier>oai:zenodo.org:254430</identifier>
      <datestamp>2017-01-20T18:49:03Z</datestamp>
      <setSpec>user-biosyslit</setSpec>
    </header>
    <header>
      <identifier>oai:zenodo.org:254895</identifier>
      <datestamp>2017-01-21T04:37:09Z</datestamp>
      <setSpec>user-biosyslit</setSpec>
    </header>
    <header>
      <identifier>oai:zenodo.org:254017</identifier>
      <datestamp>2017-01-20T13:39:11Z</datestamp>
      <setSpec>user-biosyslit</setSpec>
    </header>
    <header>
      <identifier>oai:zenodo.org:255590</identifier>
      <datestamp>2017-01-21T15:58:39Z</datestamp>
      <setSpec>user-biosyslit</setSpec>
    </header>
    <header>
      <identifier>oai:zenodo.org:254005</identifier>
      <datestamp>2017-01-20T13:23:49Z</datestamp>
      <setSpec>user-biosyslit</setSpec>
    </header>
    <header>
      <identifier>oai:zenodo.org:254647</identifier>
      <datestamp>2017-01-21T01:09:07Z</datestamp>
      <setSpec>user-biosyslit</setSpec>
    </header>
    <header>
      <identifier>oai:zenodo.org:254972</identifier>
      <datestamp>2017-01-21T05:54:54Z</datestamp>
      <setSpec>user-biosyslit</setSpec>
    </header>
    <header>
      <identifier>oai:zenodo.org:253833</identifier>
      <datestamp>2017-01-20T11:35:21Z</datestamp>
      <setSpec>user-biosyslit</setSpec>
    </header>
    <header>
      <identifier>oai:zenodo.org:253821</identifier>
      <datestamp>2017-01-20T11:28:05Z</datestamp>
      <setSpec>user-biosyslit</setSpec>
    </header>
    <header>
      <identifier>oai:zenodo.org:254732</identifier>
      <datestamp>2017-01-21T02:16:13Z</datestamp>
      <setSpec>user-biosyslit</setSpec>
    </header>
    <header>
      <identifier>oai:zenodo.org:253832</identifier>
      <datestamp>2017-01-20T11:35:19Z</datestamp>
      <setSpec>user-biosyslit</setSpec>
    </header>
    <header>
      <identifier>oai:zenodo.org:254128</identifier>
      <datestamp>2017-01-20T15:20:57Z</datestamp>
      <setSpec>user-biosyslit</setSpec>
    </header>
    <header>
      <identifier>oai:zenodo.org:254137</identifier>
      <datestamp>2017-01-20T15:21:26Z</datestamp>
      <setSpec>user-biosyslit</setSpec>
    </header>
    <header>
      <identifier>oai:zenodo.org:254260</identifier>
      <datestamp>2017-01-20T17:17:50Z</datestamp>
      <setSpec>user-biosyslit</setSpec>
    </header>
    <header>
      <identifier>oai:zenodo.org:254662</identifier>
      <datestamp>2017-01-21T01:08:59Z</datestamp>
      <setSpec>user-biosyslit</setSpec>
    </header>
    <header>
      <identifier>oai:zenodo.org:254679</identifier>
      <datestamp>2017-01-21T01:27:14Z</datestamp>
      <setSpec>user-biosyslit</setSpec>
    </header>
    <header>
      <identifier>oai:zenodo.org:255033</identifier>
      <datestamp>2017-01-21T06:50:14Z</datestamp>
      <setSpec>user-biosyslit</setSpec>
    </header>
    <header>
      <identifier>oai:zenodo.org:276437</identifier>
      <datestamp>2017-02-08T18:50:07Z</datestamp>
      <setSpec>user-biosyslit</setSpec>
    </header>
    <header>
      <identifier>oai:zenodo.org:273113</identifier>
      <datestamp>2017-02-08T07:10:24Z</datestamp>
      <setSpec>user-biosyslit</setSpec>
    </header>
    <header>
      <identifier>oai:zenodo.org:273294</identifier>
      <datestamp>2017-02-08T08:53:58Z</datestamp>
      <setSpec>user-biosyslit</setSpec>
    </header>
    <header>
      <identifier>oai:zenodo.org:252341</identifier>
      <datestamp>2017-01-19T12:23:09Z</datestamp>
      <setSpec>user-biosyslit</setSpec>
    </header>
    <header>
      <identifier>oai:zenodo.org:252440</identifier>
      <datestamp>2017-01-19T14:36:11Z</datestamp>
      <setSpec>user-biosyslit</setSpec>
    </header>
    <header>
      <identifier>oai:zenodo.org:252333</identifier>
      <datestamp>2017-01-19T12:14:06Z</datestamp>
      <setSpec>user-biosyslit</setSpec>
    </header>
    <header>
      <identifier>oai:zenodo.org:252146</identifier>
      <datestamp>2017-01-19T09:49:29Z</datestamp>
      <setSpec>user-biosyslit</setSpec>
    </header>
    <header>
      <identifier>oai:zenodo.org:252628</identifier>
      <datestamp>2017-01-19T17:48:16Z</datestamp>
      <setSpec>user-biosyslit</setSpec>
    </header>
    <header>
      <identifier>oai:zenodo.org:253113</identifier>
      <datestamp>2017-01-20T02:34:16Z</datestamp>
      <setSpec>user-biosyslit</setSpec>
    </header>
    <header>
      <identifier>oai:zenodo.org:252665</identifier>
      <datestamp>2017-01-19T18:15:54Z</datestamp>
      <setSpec>user-biosyslit</setSpec>
    </header>
    <header>
      <identifier>oai:zenodo.org:252724</identifier>
      <datestamp>2017-01-19T19:00:03Z</datestamp>
      <setSpec>user-biosyslit</setSpec>
    </header>
    <header>
      <identifier>oai:zenodo.org:252988</identifier>
      <datestamp>2017-01-20T01:03:36Z</datestamp>
      <setSpec>user-biosyslit</setSpec>
    </header>
    <header>
      <identifier>oai:zenodo.org:252655</identifier>
      <datestamp>2017-01-19T18:06:08Z</datestamp>
      <setSpec>user-biosyslit</setSpec>
    </header>
    <header>
      <identifier>oai:zenodo.org:252833</identifier>
      <datestamp>2017-01-19T20:55:22Z</datestamp>
      <setSpec>user-biosyslit</setSpec>
    </header>
    <header>
      <identifier>oai:zenodo.org:252717</identifier>
      <datestamp>2017-01-19T18:59:41Z</datestamp>
      <setSpec>user-biosyslit</setSpec>
    </header>
    <header>
      <identifier>oai:zenodo.org:253324</identifier>
      <datestamp>2017-01-20T05:31:40Z</datestamp>
      <setSpec>user-biosyslit</setSpec>
    </header>
    <header>
      <identifier>oai:zenodo.org:252821</identifier>
      <datestamp>2017-01-19T20:54:53Z</datestamp>
      <setSpec>user-biosyslit</setSpec>
    </header>
    <header>
      <identifier>oai:zenodo.org:252942</identifier>
      <datestamp>2017-01-20T00:20:37Z</datestamp>
      <setSpec>user-biosyslit</setSpec>
    </header>
    <header>
      <identifier>oai:zenodo.org:253551</identifier>
      <datestamp>2017-01-20T08:24:40Z</datestamp>
      <setSpec>user-biosyslit</setSpec>
    </header>
    <resumptionToken expirationDate="2017-08-31T15:43:35Z" cursor="8800" completeListSize="77796">.eJyNyj0LgkAYAOD_8s4Sp-c3tIgmDip6KekSdopYl4lXqCf-91qaa36eFXjT1GCjnWliC6uaphqqpuu6IgGn44Oxc_dhoKec0Z5llZ-_0nuOCqU1IpfPoVvgSNxQfJcFOSTKSTbnrENLcsyehUjnHAcTQZ4RimSJrsHn1Tj2WXnxB5L1DiNKPcZeshDZISWm3yf_-cTP5_I9SDBUbQO2hSS4TdXYcrDXbXsDWyNRGQ.DIm_rw.nteRwszTtG83ZYDhT-KO_mft04s</resumptionToken>
  </ListIdentifiers>
</OAI-PMH>
