<?xml version='1.0' encoding='UTF-8'?>
<?xml-stylesheet type="text/xsl" href="/static/xsl/oai2.v1.0.xsl"?>
<OAI-PMH xmlns="http://www.openarchives.org/OAI/2.0/" xmlns:xsi="http://www.w3.org/2001/XMLSchema-instance" xsi:schemaLocation="http://www.openarchives.org/OAI/2.0/ http://www.openarchives.org/OAI/2.0/OAI-PMH.xsd">
  <responseDate>2017-08-31T15:46:16Z</responseDate>
  <request verb="ListIdentifiers" resumptionToken=".eJyNyj0PQ0AYAOD_8s7S3Iciki4NFQPClWBpFBF1bcW1wYn_Xkvndn6eBURdV2CiHVb3lGqEEkNVNQNjBUQ5PDm_tBtDmSa8fPC4cJJ3dE9QRhrdt8TkWRn1ZYeCO5bsFJIUG1Pcojk8x69MRlNC3ZEhW_dkOPs3d3sVDRyeX52exY8jZ6QaAjucGT6ynJbfh_988uezxAEU6IumBlNXNQW6sRgaAeayrh-US1E5.DInAyA.U4IBaB9DSzxPZQT-SeV0SoGIXLk">https://zenodo.org/oai2d</request>
  <ListIdentifiers>
    <header>
      <identifier>oai:zenodo.org:248264</identifier>
      <datestamp>2017-01-17T01:54:02Z</datestamp>
      <setSpec>user-biosyslit</setSpec>
    </header>
    <header>
      <identifier>oai:zenodo.org:236942</identifier>
      <datestamp>2017-01-10T08:16:10Z</datestamp>
      <setSpec>user-biosyslit</setSpec>
    </header>
    <header>
      <identifier>oai:zenodo.org:288059</identifier>
      <datestamp>2017-02-09T19:56:59Z</datestamp>
      <setSpec>user-biosyslit</setSpec>
    </header>
    <header>
      <identifier>oai:zenodo.org:288064</identifier>
      <datestamp>2017-02-09T19:57:17Z</datestamp>
      <setSpec>user-biosyslit</setSpec>
    </header>
    <header>
      <identifier>oai:zenodo.org:288060</identifier>
      <datestamp>2017-02-09T19:57:02Z</datestamp>
      <setSpec>user-biosyslit</setSpec>
    </header>
    <header>
      <identifier>oai:zenodo.org:288067</identifier>
      <datestamp>2017-02-09T19:57:27Z</datestamp>
      <setSpec>user-biosyslit</setSpec>
    </header>
    <header>
      <identifier>oai:zenodo.org:288065</identifier>
      <datestamp>2017-02-09T19:57:20Z</datestamp>
      <setSpec>user-biosyslit</setSpec>
    </header>
    <header>
      <identifier>oai:zenodo.org:288058</identifier>
      <datestamp>2017-02-09T19:56:57Z</datestamp>
      <setSpec>user-biosyslit</setSpec>
    </header>
    <header>
      <identifier>oai:zenodo.org:288097</identifier>
      <datestamp>2017-02-09T19:59:01Z</datestamp>
      <setSpec>user-biosyslit</setSpec>
    </header>
    <header>
      <identifier>oai:zenodo.org:288092</identifier>
      <datestamp>2017-02-09T19:58:45Z</datestamp>
      <setSpec>user-biosyslit</setSpec>
    </header>
    <header>
      <identifier>oai:zenodo.org:288100</identifier>
      <datestamp>2017-02-09T19:59:08Z</datestamp>
      <setSpec>user-biosyslit</setSpec>
    </header>
    <header>
      <identifier>oai:zenodo.org:279018</identifier>
      <datestamp>2017-02-09T00:25:40Z</datestamp>
      <setSpec>user-biosyslit</setSpec>
    </header>
    <header>
      <identifier>oai:zenodo.org:279019</identifier>
      <datestamp>2017-02-09T00:25:42Z</datestamp>
      <setSpec>user-biosyslit</setSpec>
    </header>
    <header>
      <identifier>oai:zenodo.org:241493</identifier>
      <datestamp>2017-01-13T02:05:04Z</datestamp>
      <setSpec>user-biosyslit</setSpec>
    </header>
    <header>
      <identifier>oai:zenodo.org:241490</identifier>
      <datestamp>2017-01-13T02:04:53Z</datestamp>
      <setSpec>user-biosyslit</setSpec>
    </header>
    <header>
      <identifier>oai:zenodo.org:234149</identifier>
      <datestamp>2017-01-08T15:29:24Z</datestamp>
      <setSpec>user-biosyslit</setSpec>
    </header>
    <header>
      <identifier>oai:zenodo.org:234139</identifier>
      <datestamp>2017-01-08T15:28:43Z</datestamp>
      <setSpec>user-biosyslit</setSpec>
    </header>
    <header>
      <identifier>oai:zenodo.org:234142</identifier>
      <datestamp>2017-01-08T15:28:54Z</datestamp>
      <setSpec>user-biosyslit</setSpec>
    </header>
    <header>
      <identifier>oai:zenodo.org:234146</identifier>
      <datestamp>2017-01-08T15:29:15Z</datestamp>
      <setSpec>user-biosyslit</setSpec>
    </header>
    <header>
      <identifier>oai:zenodo.org:234143</identifier>
      <datestamp>2017-01-08T15:28:58Z</datestamp>
      <setSpec>user-biosyslit</setSpec>
    </header>
    <header>
      <identifier>oai:zenodo.org:277218</identifier>
      <datestamp>2017-02-08T20:37:41Z</datestamp>
      <setSpec>user-biosyslit</setSpec>
    </header>
    <header>
      <identifier>oai:zenodo.org:277224</identifier>
      <datestamp>2017-02-08T20:37:58Z</datestamp>
      <setSpec>user-biosyslit</setSpec>
    </header>
    <header>
      <identifier>oai:zenodo.org:277227</identifier>
      <datestamp>2017-02-08T20:38:06Z</datestamp>
      <setSpec>user-biosyslit</setSpec>
    </header>
    <header>
      <identifier>oai:zenodo.org:277220</identifier>
      <datestamp>2017-02-08T20:37:47Z</datestamp>
      <setSpec>user-biosyslit</setSpec>
    </header>
    <header>
      <identifier>oai:zenodo.org:277219</identifier>
      <datestamp>2017-02-08T20:37:45Z</datestamp>
      <setSpec>user-biosyslit</setSpec>
    </header>
    <header>
      <identifier>oai:zenodo.org:277226</identifier>
      <datestamp>2017-02-08T20:38:04Z</datestamp>
      <setSpec>user-biosyslit</setSpec>
    </header>
    <header>
      <identifier>oai:zenodo.org:277230</identifier>
      <datestamp>2017-02-08T20:38:15Z</datestamp>
      <setSpec>user-biosyslit</setSpec>
    </header>
    <header>
      <identifier>oai:zenodo.org:277228</identifier>
      <datestamp>2017-02-08T20:38:08Z</datestamp>
      <setSpec>user-biosyslit</setSpec>
    </header>
    <header>
      <identifier>oai:zenodo.org:277229</identifier>
      <datestamp>2017-02-08T20:38:11Z</datestamp>
      <setSpec>user-biosyslit</setSpec>
    </header>
    <header>
      <identifier>oai:zenodo.org:227169</identifier>
      <datestamp>2017-01-01T17:42:22Z</datestamp>
      <setSpec>user-biosyslit</setSpec>
    </header>
    <header>
      <identifier>oai:zenodo.org:227170</identifier>
      <datestamp>2017-01-01T17:42:26Z</datestamp>
      <setSpec>user-biosyslit</setSpec>
    </header>
    <header>
      <identifier>oai:zenodo.org:252793</identifier>
      <datestamp>2017-01-19T20:01:38Z</datestamp>
      <setSpec>user-biosyslit</setSpec>
    </header>
    <header>
      <identifier>oai:zenodo.org:252785</identifier>
      <datestamp>2017-01-19T20:00:58Z</datestamp>
      <setSpec>user-biosyslit</setSpec>
    </header>
    <header>
      <identifier>oai:zenodo.org:252795</identifier>
      <datestamp>2017-01-19T20:01:44Z</datestamp>
      <setSpec>user-biosyslit</setSpec>
    </header>
    <header>
      <identifier>oai:zenodo.org:252799</identifier>
      <datestamp>2017-01-19T20:01:56Z</datestamp>
      <setSpec>user-biosyslit</setSpec>
    </header>
    <header>
      <identifier>oai:zenodo.org:252786</identifier>
      <datestamp>2017-01-19T20:01:00Z</datestamp>
      <setSpec>user-biosyslit</setSpec>
    </header>
    <header>
      <identifier>oai:zenodo.org:252787</identifier>
      <datestamp>2017-01-19T20:01:03Z</datestamp>
      <setSpec>user-biosyslit</setSpec>
    </header>
    <header>
      <identifier>oai:zenodo.org:252790</identifier>
      <datestamp>2017-01-19T20:01:29Z</datestamp>
      <setSpec>user-biosyslit</setSpec>
    </header>
    <header>
      <identifier>oai:zenodo.org:252797</identifier>
      <datestamp>2017-01-19T20:01:49Z</datestamp>
      <setSpec>user-biosyslit</setSpec>
    </header>
    <header>
      <identifier>oai:zenodo.org:252798</identifier>
      <datestamp>2017-01-19T20:01:53Z</datestamp>
      <setSpec>user-biosyslit</setSpec>
    </header>
    <header>
      <identifier>oai:zenodo.org:280307</identifier>
      <datestamp>2017-02-09T03:09:31Z</datestamp>
      <setSpec>user-biosyslit</setSpec>
    </header>
    <header>
      <identifier>oai:zenodo.org:280303</identifier>
      <datestamp>2017-02-09T03:09:19Z</datestamp>
      <setSpec>user-biosyslit</setSpec>
    </header>
    <header>
      <identifier>oai:zenodo.org:280313</identifier>
      <datestamp>2017-02-09T03:09:48Z</datestamp>
      <setSpec>user-biosyslit</setSpec>
    </header>
    <header>
      <identifier>oai:zenodo.org:280312</identifier>
      <datestamp>2017-02-09T03:09:46Z</datestamp>
      <setSpec>user-biosyslit</setSpec>
    </header>
    <header>
      <identifier>oai:zenodo.org:280305</identifier>
      <datestamp>2017-02-09T03:09:25Z</datestamp>
      <setSpec>user-biosyslit</setSpec>
    </header>
    <header>
      <identifier>oai:zenodo.org:280311</identifier>
      <datestamp>2017-02-09T03:09:42Z</datestamp>
      <setSpec>user-biosyslit</setSpec>
    </header>
    <header>
      <identifier>oai:zenodo.org:275195</identifier>
      <datestamp>2017-02-08T15:37:54Z</datestamp>
      <setSpec>user-biosyslit</setSpec>
    </header>
    <header>
      <identifier>oai:zenodo.org:280314</identifier>
      <datestamp>2017-02-09T03:09:52Z</datestamp>
      <setSpec>user-biosyslit</setSpec>
    </header>
    <header>
      <identifier>oai:zenodo.org:284926</identifier>
      <datestamp>2017-02-09T12:16:34Z</datestamp>
      <setSpec>user-biosyslit</setSpec>
    </header>
    <header>
      <identifier>oai:zenodo.org:284924</identifier>
      <datestamp>2017-02-09T12:16:28Z</datestamp>
      <setSpec>user-biosyslit</setSpec>
    </header>
    <header>
      <identifier>oai:zenodo.org:247278</identifier>
      <datestamp>2017-01-16T13:45:04Z</datestamp>
      <setSpec>user-biosyslit</setSpec>
    </header>
    <header>
      <identifier>oai:zenodo.org:279363</identifier>
      <datestamp>2017-02-09T01:09:16Z</datestamp>
      <setSpec>user-biosyslit</setSpec>
    </header>
    <header>
      <identifier>oai:zenodo.org:279364</identifier>
      <datestamp>2017-02-09T01:09:15Z</datestamp>
      <setSpec>user-biosyslit</setSpec>
    </header>
    <header>
      <identifier>oai:zenodo.org:247281</identifier>
      <datestamp>2017-01-16T13:44:58Z</datestamp>
      <setSpec>user-biosyslit</setSpec>
    </header>
    <header>
      <identifier>oai:zenodo.org:274583</identifier>
      <datestamp>2017-02-08T13:43:41Z</datestamp>
      <setSpec>user-biosyslit</setSpec>
    </header>
    <header>
      <identifier>oai:zenodo.org:274582</identifier>
      <datestamp>2017-02-08T13:43:38Z</datestamp>
      <setSpec>user-biosyslit</setSpec>
    </header>
    <header>
      <identifier>oai:zenodo.org:275145</identifier>
      <datestamp>2017-02-08T15:27:01Z</datestamp>
      <setSpec>user-biosyslit</setSpec>
    </header>
    <header>
      <identifier>oai:zenodo.org:275170</identifier>
      <datestamp>2017-02-08T15:26:59Z</datestamp>
      <setSpec>user-biosyslit</setSpec>
    </header>
    <header>
      <identifier>oai:zenodo.org:252865</identifier>
      <datestamp>2017-01-19T22:17:05Z</datestamp>
      <setSpec>user-biosyslit</setSpec>
    </header>
    <header>
      <identifier>oai:zenodo.org:252868</identifier>
      <datestamp>2017-01-19T22:16:54Z</datestamp>
      <setSpec>user-biosyslit</setSpec>
    </header>
    <header>
      <identifier>oai:zenodo.org:248642</identifier>
      <datestamp>2017-01-17T07:45:13Z</datestamp>
      <setSpec>user-biosyslit</setSpec>
    </header>
    <header>
      <identifier>oai:zenodo.org:252871</identifier>
      <datestamp>2017-01-19T22:17:04Z</datestamp>
      <setSpec>user-biosyslit</setSpec>
    </header>
    <header>
      <identifier>oai:zenodo.org:234453</identifier>
      <datestamp>2017-01-08T20:21:43Z</datestamp>
      <setSpec>user-biosyslit</setSpec>
    </header>
    <header>
      <identifier>oai:zenodo.org:234459</identifier>
      <datestamp>2017-01-08T20:21:42Z</datestamp>
      <setSpec>user-biosyslit</setSpec>
    </header>
    <header>
      <identifier>oai:zenodo.org:277493</identifier>
      <datestamp>2017-02-08T21:14:19Z</datestamp>
      <setSpec>user-biosyslit</setSpec>
    </header>
    <header>
      <identifier>oai:zenodo.org:277491</identifier>
      <datestamp>2017-02-08T21:14:14Z</datestamp>
      <setSpec>user-biosyslit</setSpec>
    </header>
    <header>
      <identifier>oai:zenodo.org:277495</identifier>
      <datestamp>2017-02-08T21:14:27Z</datestamp>
      <setSpec>user-biosyslit</setSpec>
    </header>
    <header>
      <identifier>oai:zenodo.org:277494</identifier>
      <datestamp>2017-02-08T21:14:24Z</datestamp>
      <setSpec>user-biosyslit</setSpec>
    </header>
    <header>
      <identifier>oai:zenodo.org:277496</identifier>
      <datestamp>2017-02-08T21:14:31Z</datestamp>
      <setSpec>user-biosyslit</setSpec>
    </header>
    <header>
      <identifier>oai:zenodo.org:286773</identifier>
      <datestamp>2017-02-09T16:47:48Z</datestamp>
      <setSpec>user-biosyslit</setSpec>
    </header>
    <header>
      <identifier>oai:zenodo.org:286777</identifier>
      <datestamp>2017-02-09T16:47:42Z</datestamp>
      <setSpec>user-biosyslit</setSpec>
    </header>
    <header>
      <identifier>oai:zenodo.org:286778</identifier>
      <datestamp>2017-02-09T16:47:44Z</datestamp>
      <setSpec>user-biosyslit</setSpec>
    </header>
    <header>
      <identifier>oai:zenodo.org:286775</identifier>
      <datestamp>2017-02-09T16:47:36Z</datestamp>
      <setSpec>user-biosyslit</setSpec>
    </header>
    <header>
      <identifier>oai:zenodo.org:286779</identifier>
      <datestamp>2017-02-09T16:47:47Z</datestamp>
      <setSpec>user-biosyslit</setSpec>
    </header>
    <header>
      <identifier>oai:zenodo.org:280165</identifier>
      <datestamp>2017-02-09T02:49:43Z</datestamp>
      <setSpec>user-biosyslit</setSpec>
    </header>
    <header>
      <identifier>oai:zenodo.org:280161</identifier>
      <datestamp>2017-02-09T02:49:31Z</datestamp>
      <setSpec>user-biosyslit</setSpec>
    </header>
    <header>
      <identifier>oai:zenodo.org:280159</identifier>
      <datestamp>2017-02-09T02:49:26Z</datestamp>
      <setSpec>user-biosyslit</setSpec>
    </header>
    <header>
      <identifier>oai:zenodo.org:280164</identifier>
      <datestamp>2017-02-09T02:49:40Z</datestamp>
      <setSpec>user-biosyslit</setSpec>
    </header>
    <header>
      <identifier>oai:zenodo.org:280168</identifier>
      <datestamp>2017-02-09T02:50:05Z</datestamp>
      <setSpec>user-biosyslit</setSpec>
    </header>
    <header>
      <identifier>oai:zenodo.org:275964</identifier>
      <datestamp>2017-02-08T17:45:46Z</datestamp>
      <setSpec>user-biosyslit</setSpec>
    </header>
    <header>
      <identifier>oai:zenodo.org:278231</identifier>
      <datestamp>2017-02-08T22:41:38Z</datestamp>
      <setSpec>user-biosyslit</setSpec>
    </header>
    <header>
      <identifier>oai:zenodo.org:278232</identifier>
      <datestamp>2017-02-08T22:41:37Z</datestamp>
      <setSpec>user-biosyslit</setSpec>
    </header>
    <header>
      <identifier>oai:zenodo.org:240533</identifier>
      <datestamp>2017-01-12T09:57:50Z</datestamp>
      <setSpec>user-biosyslit</setSpec>
    </header>
    <header>
      <identifier>oai:zenodo.org:264843</identifier>
      <datestamp>2017-01-31T03:28:47Z</datestamp>
      <setSpec>user-biosyslit</setSpec>
    </header>
    <header>
      <identifier>oai:zenodo.org:282090</identifier>
      <datestamp>2017-02-09T06:26:00Z</datestamp>
      <setSpec>user-biosyslit</setSpec>
    </header>
    <header>
      <identifier>oai:zenodo.org:282080</identifier>
      <datestamp>2017-02-09T06:25:39Z</datestamp>
      <setSpec>user-biosyslit</setSpec>
    </header>
    <header>
      <identifier>oai:zenodo.org:282093</identifier>
      <datestamp>2017-02-09T06:26:06Z</datestamp>
      <setSpec>user-biosyslit</setSpec>
    </header>
    <header>
      <identifier>oai:zenodo.org:282089</identifier>
      <datestamp>2017-02-09T06:25:58Z</datestamp>
      <setSpec>user-biosyslit</setSpec>
    </header>
    <header>
      <identifier>oai:zenodo.org:282085</identifier>
      <datestamp>2017-02-09T06:25:49Z</datestamp>
      <setSpec>user-biosyslit</setSpec>
    </header>
    <header>
      <identifier>oai:zenodo.org:282084</identifier>
      <datestamp>2017-02-09T06:25:47Z</datestamp>
      <setSpec>user-biosyslit</setSpec>
    </header>
    <header>
      <identifier>oai:zenodo.org:264852</identifier>
      <datestamp>2017-01-31T03:28:42Z</datestamp>
      <setSpec>user-biosyslit</setSpec>
    </header>
    <header>
      <identifier>oai:zenodo.org:264853</identifier>
      <datestamp>2017-01-31T03:28:46Z</datestamp>
      <setSpec>user-biosyslit</setSpec>
    </header>
    <header>
      <identifier>oai:zenodo.org:276584</identifier>
      <datestamp>2017-02-08T19:16:27Z</datestamp>
      <setSpec>user-biosyslit</setSpec>
    </header>
    <header>
      <identifier>oai:zenodo.org:251394</identifier>
      <datestamp>2017-01-18T23:12:27Z</datestamp>
      <setSpec>user-biosyslit</setSpec>
    </header>
    <header>
      <identifier>oai:zenodo.org:251391</identifier>
      <datestamp>2017-01-18T23:12:13Z</datestamp>
      <setSpec>user-biosyslit</setSpec>
    </header>
    <header>
      <identifier>oai:zenodo.org:251384</identifier>
      <datestamp>2017-01-18T23:11:37Z</datestamp>
      <setSpec>user-biosyslit</setSpec>
    </header>
    <header>
      <identifier>oai:zenodo.org:251382</identifier>
      <datestamp>2017-01-18T23:11:32Z</datestamp>
      <setSpec>user-biosyslit</setSpec>
    </header>
    <header>
      <identifier>oai:zenodo.org:251399</identifier>
      <datestamp>2017-01-18T23:12:40Z</datestamp>
      <setSpec>user-biosyslit</setSpec>
    </header>
    <header>
      <identifier>oai:zenodo.org:251387</identifier>
      <datestamp>2017-01-18T23:12:03Z</datestamp>
      <setSpec>user-biosyslit</setSpec>
    </header>
    <header>
      <identifier>oai:zenodo.org:251381</identifier>
      <datestamp>2017-01-18T23:11:30Z</datestamp>
      <setSpec>user-biosyslit</setSpec>
    </header>
    <resumptionToken expirationDate="2017-08-31T15:48:16Z" cursor="74500" completeListSize="77796">.eJyNyk0LgjAYAOD_8p4l9lFpQhexpEPKWhvqJUxFylnhinTif89L5zo_zwC6LAtw0WxBkLNyMKV4taQOXlig8_au1OkyMeSxVPlNiSyQr0MjUUIqO_R1t_cTGpoaRQ02fMtIjJ1OXFDPjuKZmEMn6e7N0cbeG9aH1930ChoFKj0HDy5unuKkaKMN6zn2eErz78N_PvPz-XoNFjyyqgTXntsW1O-srTS4wzh-AJ6CUUU.DInAyA.-51jUR7H3vHiZJCqKPFksnRE7zg</resumptionToken>
  </ListIdentifiers>
</OAI-PMH>
