<?xml version='1.0' encoding='UTF-8'?>
<?xml-stylesheet type="text/xsl" href="/static/xsl/oai2.v1.0.xsl"?>
<OAI-PMH xmlns="http://www.openarchives.org/OAI/2.0/" xmlns:xsi="http://www.w3.org/2001/XMLSchema-instance" xsi:schemaLocation="http://www.openarchives.org/OAI/2.0/ http://www.openarchives.org/OAI/2.0/OAI-PMH.xsd">
  <responseDate>2017-08-31T14:42:30Z</responseDate>
  <request verb="ListIdentifiers" resumptionToken=".eJwVzd1OgzAYgOF76TExLZDxczYCkhk_CCuFwYnBgjApiFADdNm9bx6_yfPe0NI0NXLxi-2YB1O3CTFNfMC2o6GFzz9CfFyfGfFLJvgoWBVmf-chw4XeWpG_bOAXJEqZigei6GuiX4i9sSvek5TJQp23zDitFAcWqGQF1erxUBtxKMrPcKJs9ATV6zkOkp0Sj5YGtyA96k-PwPckOe5YJJwvyE4S-oC854B5Vu8QSC9WgMEHM0qnsVbdlOfbLxNva8nkWKkugF4m7P-ljhbS0FS1DXINW0P9Ws3tgtzb_f4AcRdSEg.DImxmQ.E_dc2BF4c9iRxMg1Idn6YLReGhc">https://zenodo.org/oai2d</request>
  <ListIdentifiers>
    <header>
      <identifier>oai:zenodo.org:239187</identifier>
      <datestamp>2017-01-11T17:35:18Z</datestamp>
      <setSpec>user-biosyslit</setSpec>
    </header>
    <header>
      <identifier>oai:zenodo.org:271452</identifier>
      <datestamp>2017-02-08T01:44:15Z</datestamp>
      <setSpec>user-biosyslit</setSpec>
    </header>
    <header>
      <identifier>oai:zenodo.org:239299</identifier>
      <datestamp>2017-01-11T18:49:50Z</datestamp>
      <setSpec>user-biosyslit</setSpec>
    </header>
    <header>
      <identifier>oai:zenodo.org:238031</identifier>
      <datestamp>2017-01-11T00:17:17Z</datestamp>
      <setSpec>user-biosyslit</setSpec>
    </header>
    <header>
      <identifier>oai:zenodo.org:278831</identifier>
      <datestamp>2017-02-08T23:57:35Z</datestamp>
      <setSpec>user-biosyslit</setSpec>
    </header>
    <header>
      <identifier>oai:zenodo.org:278917</identifier>
      <datestamp>2017-02-09T00:07:23Z</datestamp>
      <setSpec>user-biosyslit</setSpec>
    </header>
    <header>
      <identifier>oai:zenodo.org:238512</identifier>
      <datestamp>2017-01-11T06:52:22Z</datestamp>
      <setSpec>user-biosyslit</setSpec>
    </header>
    <header>
      <identifier>oai:zenodo.org:239188</identifier>
      <datestamp>2017-01-11T17:34:54Z</datestamp>
      <setSpec>user-biosyslit</setSpec>
    </header>
    <header>
      <identifier>oai:zenodo.org:239154</identifier>
      <datestamp>2017-01-11T17:08:21Z</datestamp>
      <setSpec>user-biosyslit</setSpec>
    </header>
    <header>
      <identifier>oai:zenodo.org:278671</identifier>
      <datestamp>2017-02-08T23:38:13Z</datestamp>
      <setSpec>user-biosyslit</setSpec>
    </header>
    <header>
      <identifier>oai:zenodo.org:239298</identifier>
      <datestamp>2017-01-11T18:49:47Z</datestamp>
      <setSpec>user-biosyslit</setSpec>
    </header>
    <header>
      <identifier>oai:zenodo.org:239076</identifier>
      <datestamp>2017-01-11T16:05:40Z</datestamp>
      <setSpec>user-biosyslit</setSpec>
    </header>
    <header>
      <identifier>oai:zenodo.org:278259</identifier>
      <datestamp>2017-02-08T22:45:02Z</datestamp>
      <setSpec>user-biosyslit</setSpec>
    </header>
    <header>
      <identifier>oai:zenodo.org:278491</identifier>
      <datestamp>2017-02-08T23:17:05Z</datestamp>
      <setSpec>user-biosyslit</setSpec>
    </header>
    <header>
      <identifier>oai:zenodo.org:278538</identifier>
      <datestamp>2017-02-08T23:22:05Z</datestamp>
      <setSpec>user-biosyslit</setSpec>
    </header>
    <header>
      <identifier>oai:zenodo.org:278540</identifier>
      <datestamp>2017-02-08T23:22:13Z</datestamp>
      <setSpec>user-biosyslit</setSpec>
    </header>
    <header>
      <identifier>oai:zenodo.org:272304</identifier>
      <datestamp>2017-02-08T04:12:22Z</datestamp>
      <setSpec>user-biosyslit</setSpec>
    </header>
    <header>
      <identifier>oai:zenodo.org:278187</identifier>
      <datestamp>2017-02-08T22:37:25Z</datestamp>
      <setSpec>user-biosyslit</setSpec>
    </header>
    <header>
      <identifier>oai:zenodo.org:239967</identifier>
      <datestamp>2017-01-12T03:00:29Z</datestamp>
      <setSpec>user-biosyslit</setSpec>
    </header>
    <header>
      <identifier>oai:zenodo.org:271696</identifier>
      <datestamp>2017-02-08T02:23:26Z</datestamp>
      <setSpec>user-biosyslit</setSpec>
    </header>
    <header>
      <identifier>oai:zenodo.org:240725</identifier>
      <datestamp>2017-01-12T13:03:33Z</datestamp>
      <setSpec>user-biosyslit</setSpec>
    </header>
    <header>
      <identifier>oai:zenodo.org:272082</identifier>
      <datestamp>2017-02-08T03:37:44Z</datestamp>
      <setSpec>user-biosyslit</setSpec>
    </header>
    <header>
      <identifier>oai:zenodo.org:240692</identifier>
      <datestamp>2017-01-12T12:43:26Z</datestamp>
      <setSpec>user-biosyslit</setSpec>
    </header>
    <header>
      <identifier>oai:zenodo.org:278282</identifier>
      <datestamp>2017-02-08T22:46:48Z</datestamp>
      <setSpec>user-biosyslit</setSpec>
    </header>
    <header>
      <identifier>oai:zenodo.org:271842</identifier>
      <datestamp>2017-02-08T02:45:07Z</datestamp>
      <setSpec>user-biosyslit</setSpec>
    </header>
    <header>
      <identifier>oai:zenodo.org:240636</identifier>
      <datestamp>2017-01-12T11:04:43Z</datestamp>
      <setSpec>user-biosyslit</setSpec>
    </header>
    <header>
      <identifier>oai:zenodo.org:240769</identifier>
      <datestamp>2017-01-12T13:43:50Z</datestamp>
      <setSpec>user-biosyslit</setSpec>
    </header>
    <header>
      <identifier>oai:zenodo.org:280738</identifier>
      <datestamp>2017-02-09T03:59:30Z</datestamp>
      <setSpec>user-biosyslit</setSpec>
    </header>
    <header>
      <identifier>oai:zenodo.org:241271</identifier>
      <datestamp>2017-01-12T23:26:14Z</datestamp>
      <setSpec>user-biosyslit</setSpec>
    </header>
    <header>
      <identifier>oai:zenodo.org:280387</identifier>
      <datestamp>2017-02-09T03:18:32Z</datestamp>
      <setSpec>user-biosyslit</setSpec>
    </header>
    <header>
      <identifier>oai:zenodo.org:280091</identifier>
      <datestamp>2017-02-09T02:38:08Z</datestamp>
      <setSpec>user-biosyslit</setSpec>
    </header>
    <header>
      <identifier>oai:zenodo.org:271978</identifier>
      <datestamp>2017-02-08T03:13:17Z</datestamp>
      <setSpec>user-biosyslit</setSpec>
    </header>
    <header>
      <identifier>oai:zenodo.org:280665</identifier>
      <datestamp>2017-02-09T03:49:23Z</datestamp>
      <setSpec>user-biosyslit</setSpec>
    </header>
    <header>
      <identifier>oai:zenodo.org:241365</identifier>
      <datestamp>2017-01-13T00:21:22Z</datestamp>
      <setSpec>user-biosyslit</setSpec>
    </header>
    <header>
      <identifier>oai:zenodo.org:279076</identifier>
      <datestamp>2017-02-09T00:34:36Z</datestamp>
      <setSpec>user-biosyslit</setSpec>
    </header>
    <header>
      <identifier>oai:zenodo.org:279041</identifier>
      <datestamp>2017-02-09T00:28:29Z</datestamp>
      <setSpec>user-biosyslit</setSpec>
    </header>
    <header>
      <identifier>oai:zenodo.org:272280</identifier>
      <datestamp>2017-02-08T04:09:32Z</datestamp>
      <setSpec>user-biosyslit</setSpec>
    </header>
    <header>
      <identifier>oai:zenodo.org:241866</identifier>
      <datestamp>2017-01-13T07:06:20Z</datestamp>
      <setSpec>user-biosyslit</setSpec>
    </header>
    <header>
      <identifier>oai:zenodo.org:242041</identifier>
      <datestamp>2017-01-13T09:37:21Z</datestamp>
      <setSpec>user-biosyslit</setSpec>
    </header>
    <header>
      <identifier>oai:zenodo.org:241975</identifier>
      <datestamp>2017-01-13T09:01:04Z</datestamp>
      <setSpec>user-biosyslit</setSpec>
    </header>
    <header>
      <identifier>oai:zenodo.org:279413</identifier>
      <datestamp>2017-02-09T01:17:09Z</datestamp>
      <setSpec>user-biosyslit</setSpec>
    </header>
    <header>
      <identifier>oai:zenodo.org:242476</identifier>
      <datestamp>2017-01-13T15:40:03Z</datestamp>
      <setSpec>user-biosyslit</setSpec>
    </header>
    <header>
      <identifier>oai:zenodo.org:242676</identifier>
      <datestamp>2017-01-13T18:31:12Z</datestamp>
      <setSpec>user-biosyslit</setSpec>
    </header>
    <header>
      <identifier>oai:zenodo.org:242445</identifier>
      <datestamp>2017-01-13T15:21:05Z</datestamp>
      <setSpec>user-biosyslit</setSpec>
    </header>
    <header>
      <identifier>oai:zenodo.org:243073</identifier>
      <datestamp>2017-01-13T22:55:32Z</datestamp>
      <setSpec>user-biosyslit</setSpec>
    </header>
    <header>
      <identifier>oai:zenodo.org:279766</identifier>
      <datestamp>2017-02-09T02:00:39Z</datestamp>
      <setSpec>user-biosyslit</setSpec>
    </header>
    <header>
      <identifier>oai:zenodo.org:242684</identifier>
      <datestamp>2017-01-13T18:36:49Z</datestamp>
      <setSpec>user-biosyslit</setSpec>
    </header>
    <header>
      <identifier>oai:zenodo.org:242650</identifier>
      <datestamp>2017-01-13T18:15:59Z</datestamp>
      <setSpec>user-biosyslit</setSpec>
    </header>
    <header>
      <identifier>oai:zenodo.org:242706</identifier>
      <datestamp>2017-01-13T18:52:58Z</datestamp>
      <setSpec>user-biosyslit</setSpec>
    </header>
    <header>
      <identifier>oai:zenodo.org:242274</identifier>
      <datestamp>2017-01-13T12:41:18Z</datestamp>
      <setSpec>user-biosyslit</setSpec>
    </header>
    <header>
      <identifier>oai:zenodo.org:272480</identifier>
      <datestamp>2017-02-08T04:53:37Z</datestamp>
      <setSpec>user-biosyslit</setSpec>
    </header>
    <header>
      <identifier>oai:zenodo.org:272074</identifier>
      <datestamp>2017-02-08T03:29:39Z</datestamp>
      <setSpec>user-biosyslit</setSpec>
    </header>
    <header>
      <identifier>oai:zenodo.org:243699</identifier>
      <datestamp>2017-01-14T09:20:59Z</datestamp>
      <setSpec>user-biosyslit</setSpec>
    </header>
    <header>
      <identifier>oai:zenodo.org:244821</identifier>
      <datestamp>2017-01-15T03:17:59Z</datestamp>
      <setSpec>user-biosyslit</setSpec>
    </header>
    <header>
      <identifier>oai:zenodo.org:243887</identifier>
      <datestamp>2017-01-14T12:42:45Z</datestamp>
      <setSpec>user-biosyslit</setSpec>
    </header>
    <header>
      <identifier>oai:zenodo.org:244306</identifier>
      <datestamp>2017-01-14T19:49:54Z</datestamp>
      <setSpec>user-biosyslit</setSpec>
    </header>
    <header>
      <identifier>oai:zenodo.org:272892</identifier>
      <datestamp>2017-02-08T06:32:42Z</datestamp>
      <setSpec>user-biosyslit</setSpec>
    </header>
    <header>
      <identifier>oai:zenodo.org:245503</identifier>
      <datestamp>2017-01-15T14:31:18Z</datestamp>
      <setSpec>user-biosyslit</setSpec>
    </header>
    <header>
      <identifier>oai:zenodo.org:244778</identifier>
      <datestamp>2017-01-15T02:23:11Z</datestamp>
      <setSpec>user-biosyslit</setSpec>
    </header>
    <header>
      <identifier>oai:zenodo.org:245426</identifier>
      <datestamp>2017-01-15T13:01:04Z</datestamp>
      <setSpec>user-biosyslit</setSpec>
    </header>
    <header>
      <identifier>oai:zenodo.org:244660</identifier>
      <datestamp>2017-01-15T00:31:16Z</datestamp>
      <setSpec>user-biosyslit</setSpec>
    </header>
    <header>
      <identifier>oai:zenodo.org:246109</identifier>
      <datestamp>2017-01-15T22:09:19Z</datestamp>
      <setSpec>user-biosyslit</setSpec>
    </header>
    <header>
      <identifier>oai:zenodo.org:244798</identifier>
      <datestamp>2017-01-15T02:44:10Z</datestamp>
      <setSpec>user-biosyslit</setSpec>
    </header>
    <header>
      <identifier>oai:zenodo.org:245858</identifier>
      <datestamp>2017-01-15T19:11:22Z</datestamp>
      <setSpec>user-biosyslit</setSpec>
    </header>
    <header>
      <identifier>oai:zenodo.org:272539</identifier>
      <datestamp>2017-02-08T05:05:56Z</datestamp>
      <setSpec>user-biosyslit</setSpec>
    </header>
    <header>
      <identifier>oai:zenodo.org:245216</identifier>
      <datestamp>2017-01-15T10:05:53Z</datestamp>
      <setSpec>user-biosyslit</setSpec>
    </header>
    <header>
      <identifier>oai:zenodo.org:245215</identifier>
      <datestamp>2017-01-15T10:05:48Z</datestamp>
      <setSpec>user-biosyslit</setSpec>
    </header>
    <header>
      <identifier>oai:zenodo.org:246961</identifier>
      <datestamp>2017-01-16T10:07:30Z</datestamp>
      <setSpec>user-biosyslit</setSpec>
    </header>
    <header>
      <identifier>oai:zenodo.org:246357</identifier>
      <datestamp>2017-01-16T01:15:44Z</datestamp>
      <setSpec>user-biosyslit</setSpec>
    </header>
    <header>
      <identifier>oai:zenodo.org:246164</identifier>
      <datestamp>2017-01-15T22:46:34Z</datestamp>
      <setSpec>user-biosyslit</setSpec>
    </header>
    <header>
      <identifier>oai:zenodo.org:245639</identifier>
      <datestamp>2017-01-15T16:40:52Z</datestamp>
      <setSpec>user-biosyslit</setSpec>
    </header>
    <header>
      <identifier>oai:zenodo.org:245917</identifier>
      <datestamp>2017-01-15T19:26:41Z</datestamp>
      <setSpec>user-biosyslit</setSpec>
    </header>
    <header>
      <identifier>oai:zenodo.org:247417</identifier>
      <datestamp>2017-01-16T15:27:58Z</datestamp>
      <setSpec>user-biosyslit</setSpec>
    </header>
    <header>
      <identifier>oai:zenodo.org:246764</identifier>
      <datestamp>2017-01-16T07:45:00Z</datestamp>
      <setSpec>user-biosyslit</setSpec>
    </header>
    <header>
      <identifier>oai:zenodo.org:247532</identifier>
      <datestamp>2017-01-16T16:47:41Z</datestamp>
      <setSpec>user-biosyslit</setSpec>
    </header>
    <header>
      <identifier>oai:zenodo.org:246949</identifier>
      <datestamp>2017-01-16T10:06:46Z</datestamp>
      <setSpec>user-biosyslit</setSpec>
    </header>
    <header>
      <identifier>oai:zenodo.org:247132</identifier>
      <datestamp>2017-01-16T11:39:57Z</datestamp>
      <setSpec>user-biosyslit</setSpec>
    </header>
    <header>
      <identifier>oai:zenodo.org:247222</identifier>
      <datestamp>2017-01-16T12:54:06Z</datestamp>
      <setSpec>user-biosyslit</setSpec>
    </header>
    <header>
      <identifier>oai:zenodo.org:248600</identifier>
      <datestamp>2017-01-17T06:02:07Z</datestamp>
      <setSpec>user-biosyslit</setSpec>
    </header>
    <header>
      <identifier>oai:zenodo.org:248213</identifier>
      <datestamp>2017-01-17T01:10:07Z</datestamp>
      <setSpec>user-biosyslit</setSpec>
    </header>
    <header>
      <identifier>oai:zenodo.org:248171</identifier>
      <datestamp>2017-01-17T00:43:32Z</datestamp>
      <setSpec>user-biosyslit</setSpec>
    </header>
    <header>
      <identifier>oai:zenodo.org:248175</identifier>
      <datestamp>2017-01-17T00:43:45Z</datestamp>
      <setSpec>user-biosyslit</setSpec>
    </header>
    <header>
      <identifier>oai:zenodo.org:250069</identifier>
      <datestamp>2017-01-18T04:23:10Z</datestamp>
      <setSpec>user-biosyslit</setSpec>
    </header>
    <header>
      <identifier>oai:zenodo.org:250682</identifier>
      <datestamp>2017-01-18T14:03:32Z</datestamp>
      <setSpec>user-biosyslit</setSpec>
    </header>
    <header>
      <identifier>oai:zenodo.org:249907</identifier>
      <datestamp>2017-01-18T01:39:48Z</datestamp>
      <setSpec>user-biosyslit</setSpec>
    </header>
    <header>
      <identifier>oai:zenodo.org:250425</identifier>
      <datestamp>2017-01-18T10:07:14Z</datestamp>
      <setSpec>user-biosyslit</setSpec>
    </header>
    <header>
      <identifier>oai:zenodo.org:251230</identifier>
      <datestamp>2017-01-18T20:14:39Z</datestamp>
      <setSpec>user-biosyslit</setSpec>
    </header>
    <header>
      <identifier>oai:zenodo.org:249828</identifier>
      <datestamp>2017-01-18T00:39:16Z</datestamp>
      <setSpec>user-biosyslit</setSpec>
    </header>
    <header>
      <identifier>oai:zenodo.org:249615</identifier>
      <datestamp>2017-01-17T21:41:44Z</datestamp>
      <setSpec>user-biosyslit</setSpec>
    </header>
    <header>
      <identifier>oai:zenodo.org:251557</identifier>
      <datestamp>2017-01-19T01:58:51Z</datestamp>
      <setSpec>user-biosyslit</setSpec>
    </header>
    <header>
      <identifier>oai:zenodo.org:251207</identifier>
      <datestamp>2017-01-18T20:00:23Z</datestamp>
      <setSpec>user-biosyslit</setSpec>
    </header>
    <header>
      <identifier>oai:zenodo.org:250549</identifier>
      <datestamp>2017-01-18T11:56:47Z</datestamp>
      <setSpec>user-biosyslit</setSpec>
    </header>
    <header>
      <identifier>oai:zenodo.org:251104</identifier>
      <datestamp>2017-01-18T18:44:28Z</datestamp>
      <setSpec>user-biosyslit</setSpec>
    </header>
    <header>
      <identifier>oai:zenodo.org:273082</identifier>
      <datestamp>2017-02-08T07:01:32Z</datestamp>
      <setSpec>user-biosyslit</setSpec>
    </header>
    <header>
      <identifier>oai:zenodo.org:251680</identifier>
      <datestamp>2017-01-19T03:28:46Z</datestamp>
      <setSpec>user-biosyslit</setSpec>
    </header>
    <header>
      <identifier>oai:zenodo.org:272777</identifier>
      <datestamp>2017-02-08T06:26:58Z</datestamp>
      <setSpec>user-biosyslit</setSpec>
    </header>
    <header>
      <identifier>oai:zenodo.org:273037</identifier>
      <datestamp>2017-02-08T06:59:24Z</datestamp>
      <setSpec>user-biosyslit</setSpec>
    </header>
    <header>
      <identifier>oai:zenodo.org:273295</identifier>
      <datestamp>2017-02-08T08:54:29Z</datestamp>
      <setSpec>user-biosyslit</setSpec>
    </header>
    <header>
      <identifier>oai:zenodo.org:276061</identifier>
      <datestamp>2017-02-08T18:02:30Z</datestamp>
      <setSpec>user-biosyslit</setSpec>
    </header>
    <header>
      <identifier>oai:zenodo.org:276316</identifier>
      <datestamp>2017-02-08T18:38:20Z</datestamp>
      <setSpec>user-biosyslit</setSpec>
    </header>
    <resumptionToken expirationDate="2017-08-31T14:44:30Z" cursor="3700" completeListSize="142507">.eJwVzdFqgzAYQOF3ybWMaIppvavopGO_YmNi9Wa46LQzOqcONaXv3u76wHduaKqqEjn4hdiUUkx21Kb2nuwwMdAkxx-lPq7PjuRFKNkrXgTi79wJnFk1Db1pBS8zw4TrqDM1e42ti7lf-RVvccLnTJ9XQU4Lwz4FHS-gayvqShIFKv8MBsZ7VzGrHCM_3pjpspxICsnRenomfA-zxA0P1eELxGmG1jffU8BSlBv4sxtpwODBLkyGvtTNkKbrL1dvS87nvtCND-0c8_-XPlJkoKGoK-SQg4HapRjrCTm3-_0BqExSSg.DImx1g.cNI-oTy7ZICAiYhSnkTMqOG8HtI</resumptionToken>
  </ListIdentifiers>
</OAI-PMH>
