<?xml version='1.0' encoding='UTF-8'?>
<?xml-stylesheet type="text/xsl" href="/static/xsl/oai2.v1.0.xsl"?>
<OAI-PMH xmlns="http://www.openarchives.org/OAI/2.0/" xmlns:xsi="http://www.w3.org/2001/XMLSchema-instance" xsi:schemaLocation="http://www.openarchives.org/OAI/2.0/ http://www.openarchives.org/OAI/2.0/OAI-PMH.xsd">
  <responseDate>2017-08-31T15:44:55Z</responseDate>
  <request verb="ListIdentifiers" resumptionToken=".eJyNyj0PQ0AYAOD_8s7S3Ln6qKSLUDEgXElZGkVEHRXXBif-e7t0bufnWYFXVQkG2ilEVXSi6EjbH7CsScCL8cHYtfkoFJeEFT2Lcyd5RV2CUrnWfIvPnpUSX7Qo6LCgp1C-YH2OG7SE5_iZimhOiDtRZGueCBf_7n5eSQKHZTdnoHFvMiqXY2CHC8UmzUjxffjPJ34-ix9BgiGvKzAUVZegnfKx5mCs2_YGbt1RFw.DInAdw.f1DtKyUkqHhw1WPRGkOUmgweoeI">https://zenodo.org/oai2d</request>
  <ListIdentifiers>
    <header>
      <identifier>oai:zenodo.org:497019</identifier>
      <datestamp>2017-04-11T07:48:29Z</datestamp>
      <setSpec>user-biosyslit</setSpec>
    </header>
    <header>
      <identifier>oai:zenodo.org:545882</identifier>
      <datestamp>2017-04-13T07:33:26Z</datestamp>
      <setSpec>user-biosyslit</setSpec>
    </header>
    <header>
      <identifier>oai:zenodo.org:545726</identifier>
      <datestamp>2017-04-12T07:45:33Z</datestamp>
      <setSpec>user-biosyslit</setSpec>
    </header>
    <header>
      <identifier>oai:zenodo.org:546799</identifier>
      <datestamp>2017-04-18T07:13:41Z</datestamp>
      <setSpec>user-biosyslit</setSpec>
    </header>
    <header>
      <identifier>oai:zenodo.org:556310</identifier>
      <datestamp>2017-04-20T08:06:42Z</datestamp>
      <setSpec>user-biosyslit</setSpec>
    </header>
    <header>
      <identifier>oai:zenodo.org:546844</identifier>
      <datestamp>2017-04-18T08:02:19Z</datestamp>
      <setSpec>user-biosyslit</setSpec>
    </header>
    <header>
      <identifier>oai:zenodo.org:571042</identifier>
      <datestamp>2017-05-03T08:04:02Z</datestamp>
      <setSpec>user-biosyslit</setSpec>
    </header>
    <header>
      <identifier>oai:zenodo.org:569189</identifier>
      <datestamp>2017-04-26T09:00:22Z</datestamp>
      <setSpec>user-biosyslit</setSpec>
    </header>
    <header>
      <identifier>oai:zenodo.org:569179</identifier>
      <datestamp>2017-04-26T08:51:29Z</datestamp>
      <setSpec>user-biosyslit</setSpec>
    </header>
    <header>
      <identifier>oai:zenodo.org:571010</identifier>
      <datestamp>2017-05-03T07:31:12Z</datestamp>
      <setSpec>user-biosyslit</setSpec>
    </header>
    <header>
      <identifier>oai:zenodo.org:572570</identifier>
      <datestamp>2017-05-08T08:25:14Z</datestamp>
      <setSpec>user-biosyslit</setSpec>
    </header>
    <header>
      <identifier>oai:zenodo.org:569182</identifier>
      <datestamp>2017-04-26T08:51:40Z</datestamp>
      <setSpec>user-biosyslit</setSpec>
    </header>
    <header>
      <identifier>oai:zenodo.org:569461</identifier>
      <datestamp>2017-04-27T08:46:14Z</datestamp>
      <setSpec>user-biosyslit</setSpec>
    </header>
    <header>
      <identifier>oai:zenodo.org:556904</identifier>
      <datestamp>2017-04-24T08:07:32Z</datestamp>
      <setSpec>user-biosyslit</setSpec>
    </header>
    <header>
      <identifier>oai:zenodo.org:572597</identifier>
      <datestamp>2017-05-08T10:51:18Z</datestamp>
      <setSpec>user-biosyslit</setSpec>
    </header>
    <header>
      <identifier>oai:zenodo.org:569166</identifier>
      <datestamp>2017-04-26T08:35:25Z</datestamp>
      <setSpec>user-biosyslit</setSpec>
    </header>
    <header>
      <identifier>oai:zenodo.org:569413</identifier>
      <datestamp>2017-04-27T07:17:14Z</datestamp>
      <setSpec>user-biosyslit</setSpec>
    </header>
    <header>
      <identifier>oai:zenodo.org:569739</identifier>
      <datestamp>2017-04-28T07:22:10Z</datestamp>
      <setSpec>user-biosyslit</setSpec>
    </header>
    <header>
      <identifier>oai:zenodo.org:569779</identifier>
      <datestamp>2017-04-28T08:15:43Z</datestamp>
      <setSpec>user-biosyslit</setSpec>
    </header>
    <header>
      <identifier>oai:zenodo.org:572607</identifier>
      <datestamp>2017-05-08T11:00:03Z</datestamp>
      <setSpec>user-biosyslit</setSpec>
    </header>
    <header>
      <identifier>oai:zenodo.org:571002</identifier>
      <datestamp>2017-05-03T07:30:55Z</datestamp>
      <setSpec>user-biosyslit</setSpec>
    </header>
    <header>
      <identifier>oai:zenodo.org:571702</identifier>
      <datestamp>2017-05-05T08:34:59Z</datestamp>
      <setSpec>user-biosyslit</setSpec>
    </header>
    <header>
      <identifier>oai:zenodo.org:345066</identifier>
      <datestamp>2017-03-02T09:25:02Z</datestamp>
      <setSpec>user-biosyslit</setSpec>
    </header>
    <header>
      <identifier>oai:zenodo.org:344411</identifier>
      <datestamp>2017-02-28T23:39:42Z</datestamp>
      <setSpec>user-biosyslit</setSpec>
    </header>
    <header>
      <identifier>oai:zenodo.org:545696</identifier>
      <datestamp>2017-04-12T07:17:00Z</datestamp>
      <setSpec>user-biosyslit</setSpec>
    </header>
    <header>
      <identifier>oai:zenodo.org:344611</identifier>
      <datestamp>2017-03-01T00:13:04Z</datestamp>
      <setSpec>user-biosyslit</setSpec>
    </header>
    <header>
      <identifier>oai:zenodo.org:344455</identifier>
      <datestamp>2017-02-28T23:25:05Z</datestamp>
      <setSpec>user-biosyslit</setSpec>
    </header>
    <header>
      <identifier>oai:zenodo.org:344669</identifier>
      <datestamp>2017-03-01T08:05:41Z</datestamp>
      <setSpec>user-biosyslit</setSpec>
    </header>
    <header>
      <identifier>oai:zenodo.org:345055</identifier>
      <datestamp>2017-03-02T09:09:43Z</datestamp>
      <setSpec>user-biosyslit</setSpec>
    </header>
    <header>
      <identifier>oai:zenodo.org:545744</identifier>
      <datestamp>2017-04-12T08:13:22Z</datestamp>
      <setSpec>user-biosyslit</setSpec>
    </header>
    <header>
      <identifier>oai:zenodo.org:344992</identifier>
      <datestamp>2017-03-02T08:15:28Z</datestamp>
      <setSpec>user-biosyslit</setSpec>
    </header>
    <header>
      <identifier>oai:zenodo.org:344644</identifier>
      <datestamp>2017-03-01T08:18:48Z</datestamp>
      <setSpec>user-biosyslit</setSpec>
    </header>
    <header>
      <identifier>oai:zenodo.org:344645</identifier>
      <datestamp>2017-03-01T08:18:47Z</datestamp>
      <setSpec>user-biosyslit</setSpec>
    </header>
    <header>
      <identifier>oai:zenodo.org:344759</identifier>
      <datestamp>2017-03-01T08:49:36Z</datestamp>
      <setSpec>user-biosyslit</setSpec>
    </header>
    <header>
      <identifier>oai:zenodo.org:344874</identifier>
      <datestamp>2017-03-02T07:46:36Z</datestamp>
      <setSpec>user-biosyslit</setSpec>
    </header>
    <header>
      <identifier>oai:zenodo.org:344658</identifier>
      <datestamp>2017-03-01T08:05:54Z</datestamp>
      <setSpec>user-biosyslit</setSpec>
    </header>
    <header>
      <identifier>oai:zenodo.org:344771</identifier>
      <datestamp>2017-03-01T09:00:36Z</datestamp>
      <setSpec>user-biosyslit</setSpec>
    </header>
    <header>
      <identifier>oai:zenodo.org:344857</identifier>
      <datestamp>2017-03-02T07:46:59Z</datestamp>
      <setSpec>user-biosyslit</setSpec>
    </header>
    <header>
      <identifier>oai:zenodo.org:345029</identifier>
      <datestamp>2017-03-02T08:51:33Z</datestamp>
      <setSpec>user-biosyslit</setSpec>
    </header>
    <header>
      <identifier>oai:zenodo.org:345766</identifier>
      <datestamp>2017-03-06T08:12:36Z</datestamp>
      <setSpec>user-biosyslit</setSpec>
    </header>
    <header>
      <identifier>oai:zenodo.org:345765</identifier>
      <datestamp>2017-03-06T08:12:33Z</datestamp>
      <setSpec>user-biosyslit</setSpec>
    </header>
    <header>
      <identifier>oai:zenodo.org:580513</identifier>
      <datestamp>2017-05-17T08:24:44Z</datestamp>
      <setSpec>user-biosyslit</setSpec>
    </header>
    <header>
      <identifier>oai:zenodo.org:545917</identifier>
      <datestamp>2017-04-13T08:11:43Z</datestamp>
      <setSpec>user-biosyslit</setSpec>
    </header>
    <header>
      <identifier>oai:zenodo.org:579350</identifier>
      <datestamp>2017-05-18T07:02:21Z</datestamp>
      <setSpec>openaire</setSpec>
      <setSpec>user-biosyslit</setSpec>
    </header>
    <header>
      <identifier>oai:zenodo.org:579494</identifier>
      <datestamp>2017-05-18T06:55:50Z</datestamp>
      <setSpec>openaire</setSpec>
      <setSpec>user-biosyslit</setSpec>
    </header>
    <header>
      <identifier>oai:zenodo.org:579464</identifier>
      <datestamp>2017-05-18T06:56:26Z</datestamp>
      <setSpec>openaire</setSpec>
      <setSpec>user-biosyslit</setSpec>
    </header>
    <header>
      <identifier>oai:zenodo.org:579910</identifier>
      <datestamp>2017-05-15T08:20:43Z</datestamp>
      <setSpec>user-biosyslit</setSpec>
    </header>
    <header>
      <identifier>oai:zenodo.org:580179</identifier>
      <datestamp>2017-05-16T07:38:05Z</datestamp>
      <setSpec>user-biosyslit</setSpec>
    </header>
    <header>
      <identifier>oai:zenodo.org:580881</identifier>
      <datestamp>2017-05-18T07:33:02Z</datestamp>
      <setSpec>user-biosyslit</setSpec>
    </header>
    <header>
      <identifier>oai:zenodo.org:546823</identifier>
      <datestamp>2017-04-18T07:31:18Z</datestamp>
      <setSpec>user-biosyslit</setSpec>
    </header>
    <header>
      <identifier>oai:zenodo.org:582053</identifier>
      <datestamp>2017-05-22T08:33:01Z</datestamp>
      <setSpec>user-biosyslit</setSpec>
    </header>
    <header>
      <identifier>oai:zenodo.org:582040</identifier>
      <datestamp>2017-05-22T08:21:24Z</datestamp>
      <setSpec>user-biosyslit</setSpec>
    </header>
    <header>
      <identifier>oai:zenodo.org:375508</identifier>
      <datestamp>2017-03-07T08:41:42Z</datestamp>
      <setSpec>user-biosyslit</setSpec>
    </header>
    <header>
      <identifier>oai:zenodo.org:582514</identifier>
      <datestamp>2017-05-23T09:15:04Z</datestamp>
      <setSpec>user-biosyslit</setSpec>
    </header>
    <header>
      <identifier>oai:zenodo.org:582425</identifier>
      <datestamp>2017-05-23T07:30:39Z</datestamp>
      <setSpec>user-biosyslit</setSpec>
    </header>
    <header>
      <identifier>oai:zenodo.org:376225</identifier>
      <datestamp>2017-03-09T14:32:20Z</datestamp>
      <setSpec>user-biosyslit</setSpec>
    </header>
    <header>
      <identifier>oai:zenodo.org:582785</identifier>
      <datestamp>2017-05-24T08:31:00Z</datestamp>
      <setSpec>user-biosyslit</setSpec>
    </header>
    <header>
      <identifier>oai:zenodo.org:376025</identifier>
      <datestamp>2017-03-09T08:51:24Z</datestamp>
      <setSpec>user-biosyslit</setSpec>
    </header>
    <header>
      <identifier>oai:zenodo.org:375710</identifier>
      <datestamp>2017-03-08T01:28:20Z</datestamp>
      <setSpec>user-biosyslit</setSpec>
    </header>
    <header>
      <identifier>oai:zenodo.org:375727</identifier>
      <datestamp>2017-03-08T07:14:31Z</datestamp>
      <setSpec>user-biosyslit</setSpec>
    </header>
    <header>
      <identifier>oai:zenodo.org:376381</identifier>
      <datestamp>2017-03-10T08:28:29Z</datestamp>
      <setSpec>user-biosyslit</setSpec>
    </header>
    <header>
      <identifier>oai:zenodo.org:375990</identifier>
      <datestamp>2017-03-09T08:25:37Z</datestamp>
      <setSpec>user-biosyslit</setSpec>
    </header>
    <header>
      <identifier>oai:zenodo.org:376444</identifier>
      <datestamp>2017-03-10T09:27:39Z</datestamp>
      <setSpec>user-biosyslit</setSpec>
    </header>
    <header>
      <identifier>oai:zenodo.org:583208</identifier>
      <datestamp>2017-05-25T07:32:53Z</datestamp>
      <setSpec>user-biosyslit</setSpec>
    </header>
    <header>
      <identifier>oai:zenodo.org:376394</identifier>
      <datestamp>2017-03-10T08:45:31Z</datestamp>
      <setSpec>user-biosyslit</setSpec>
    </header>
    <header>
      <identifier>oai:zenodo.org:375496</identifier>
      <datestamp>2017-03-07T08:21:19Z</datestamp>
      <setSpec>user-biosyslit</setSpec>
    </header>
    <header>
      <identifier>oai:zenodo.org:375981</identifier>
      <datestamp>2017-03-09T08:14:45Z</datestamp>
      <setSpec>user-biosyslit</setSpec>
    </header>
    <header>
      <identifier>oai:zenodo.org:376035</identifier>
      <datestamp>2017-03-09T09:05:06Z</datestamp>
      <setSpec>user-biosyslit</setSpec>
    </header>
    <header>
      <identifier>oai:zenodo.org:376398</identifier>
      <datestamp>2017-03-10T08:45:48Z</datestamp>
      <setSpec>user-biosyslit</setSpec>
    </header>
    <header>
      <identifier>oai:zenodo.org:376898</identifier>
      <datestamp>2017-03-13T08:16:10Z</datestamp>
      <setSpec>user-biosyslit</setSpec>
    </header>
    <header>
      <identifier>oai:zenodo.org:376740</identifier>
      <datestamp>2017-03-11T00:06:27Z</datestamp>
      <setSpec>user-biosyslit</setSpec>
    </header>
    <header>
      <identifier>oai:zenodo.org:584059</identifier>
      <datestamp>2017-05-29T13:55:11Z</datestamp>
      <setSpec>user-biosyslit</setSpec>
    </header>
    <header>
      <identifier>oai:zenodo.org:583369</identifier>
      <datestamp>2017-05-26T07:27:11Z</datestamp>
      <setSpec>user-biosyslit</setSpec>
    </header>
    <header>
      <identifier>oai:zenodo.org:583833</identifier>
      <datestamp>2017-05-29T07:25:34Z</datestamp>
      <setSpec>user-biosyslit</setSpec>
    </header>
    <header>
      <identifier>oai:zenodo.org:398751</identifier>
      <datestamp>2017-03-14T09:12:29Z</datestamp>
      <setSpec>user-biosyslit</setSpec>
    </header>
    <header>
      <identifier>oai:zenodo.org:399909</identifier>
      <datestamp>2017-03-16T01:31:55Z</datestamp>
      <setSpec>user-biosyslit</setSpec>
    </header>
    <header>
      <identifier>oai:zenodo.org:399525</identifier>
      <datestamp>2017-03-15T22:42:12Z</datestamp>
      <setSpec>user-biosyslit</setSpec>
    </header>
    <header>
      <identifier>oai:zenodo.org:400156</identifier>
      <datestamp>2017-03-16T09:06:15Z</datestamp>
      <setSpec>user-biosyslit</setSpec>
    </header>
    <header>
      <identifier>oai:zenodo.org:399088</identifier>
      <datestamp>2017-03-15T08:17:30Z</datestamp>
      <setSpec>user-biosyslit</setSpec>
    </header>
    <header>
      <identifier>oai:zenodo.org:398918</identifier>
      <datestamp>2017-03-14T21:06:25Z</datestamp>
      <setSpec>user-biosyslit</setSpec>
    </header>
    <header>
      <identifier>oai:zenodo.org:399757</identifier>
      <datestamp>2017-03-15T23:54:41Z</datestamp>
      <setSpec>user-biosyslit</setSpec>
    </header>
    <header>
      <identifier>oai:zenodo.org:399797</identifier>
      <datestamp>2017-03-15T23:58:04Z</datestamp>
      <setSpec>user-biosyslit</setSpec>
    </header>
    <header>
      <identifier>oai:zenodo.org:556016</identifier>
      <datestamp>2017-04-19T07:17:33Z</datestamp>
      <setSpec>user-biosyslit</setSpec>
    </header>
    <header>
      <identifier>oai:zenodo.org:400461</identifier>
      <datestamp>2017-03-17T09:05:45Z</datestamp>
      <setSpec>user-biosyslit</setSpec>
    </header>
    <header>
      <identifier>oai:zenodo.org:400328</identifier>
      <datestamp>2017-03-16T19:13:32Z</datestamp>
      <setSpec>user-biosyslit</setSpec>
    </header>
    <header>
      <identifier>oai:zenodo.org:400887</identifier>
      <datestamp>2017-03-20T09:21:52Z</datestamp>
      <setSpec>user-biosyslit</setSpec>
    </header>
    <header>
      <identifier>oai:zenodo.org:399751</identifier>
      <datestamp>2017-03-15T23:53:21Z</datestamp>
      <setSpec>user-biosyslit</setSpec>
    </header>
    <header>
      <identifier>oai:zenodo.org:556278</identifier>
      <datestamp>2017-04-20T07:42:08Z</datestamp>
      <setSpec>user-biosyslit</setSpec>
    </header>
    <header>
      <identifier>oai:zenodo.org:400065</identifier>
      <datestamp>2017-03-16T07:32:16Z</datestamp>
      <setSpec>user-biosyslit</setSpec>
    </header>
    <header>
      <identifier>oai:zenodo.org:574239</identifier>
      <datestamp>2017-05-11T07:24:31Z</datestamp>
      <setSpec>user-biosyslit</setSpec>
    </header>
    <header>
      <identifier>oai:zenodo.org:322773</identifier>
      <datestamp>2017-02-27T11:02:02Z</datestamp>
      <setSpec>user-biosyslit</setSpec>
    </header>
    <header>
      <identifier>oai:zenodo.org:573674</identifier>
      <datestamp>2017-05-10T08:45:43Z</datestamp>
      <setSpec>user-biosyslit</setSpec>
    </header>
    <header>
      <identifier>oai:zenodo.org:343866</identifier>
      <datestamp>2017-02-28T09:52:27Z</datestamp>
      <setSpec>user-biosyslit</setSpec>
    </header>
    <header>
      <identifier>oai:zenodo.org:343822</identifier>
      <datestamp>2017-02-28T08:58:16Z</datestamp>
      <setSpec>user-biosyslit</setSpec>
    </header>
    <header>
      <identifier>oai:zenodo.org:343972</identifier>
      <datestamp>2017-02-28T23:50:12Z</datestamp>
      <setSpec>openaire_data</setSpec>
      <setSpec>user-biosyslit</setSpec>
    </header>
    <header>
      <identifier>oai:zenodo.org:344066</identifier>
      <datestamp>2017-02-28T23:48:53Z</datestamp>
      <setSpec>user-biosyslit</setSpec>
    </header>
    <header>
      <identifier>oai:zenodo.org:343858</identifier>
      <datestamp>2017-02-28T09:43:28Z</datestamp>
      <setSpec>user-biosyslit</setSpec>
    </header>
    <header>
      <identifier>oai:zenodo.org:343884</identifier>
      <datestamp>2017-02-28T10:15:50Z</datestamp>
      <setSpec>user-biosyslit</setSpec>
    </header>
    <header>
      <identifier>oai:zenodo.org:344332</identifier>
      <datestamp>2017-02-28T23:41:27Z</datestamp>
      <setSpec>openaire_data</setSpec>
      <setSpec>user-biosyslit</setSpec>
    </header>
    <header>
      <identifier>oai:zenodo.org:344427</identifier>
      <datestamp>2017-02-28T23:26:14Z</datestamp>
      <setSpec>openaire_data</setSpec>
      <setSpec>user-biosyslit</setSpec>
    </header>
    <resumptionToken expirationDate="2017-08-31T15:46:55Z" cursor="56700" completeListSize="77796">.eJyNyk0LgjAYAOD_8p4lNj-mE7qIJh1UdCnpJUxFrFnhCnXif69L5zo_zwKiaWqw0UanBqZEtyzdJCqhlCggquHO-an7OFTHjFc3npZ-9kr6DOVqa4aumAI310J5RVGPJdvF6hFbU9qhOT6kz1wmU6btR4Y8M5DxHF72n1drkc-Ls_9g6c3hTK2HyItnhh1WaNX34T-f_PlcsQUFHmXbgG0QqsB1LIdWgL2s6xvr7VGW.DInAdw.HMDWKuKNGw1hjQHoXBdM3d82S2c</resumptionToken>
  </ListIdentifiers>
</OAI-PMH>
