<?xml version='1.0' encoding='UTF-8'?>
<?xml-stylesheet type="text/xsl" href="/static/xsl/oai2.v1.0.xsl"?>
<OAI-PMH xmlns="http://www.openarchives.org/OAI/2.0/" xmlns:xsi="http://www.w3.org/2001/XMLSchema-instance" xsi:schemaLocation="http://www.openarchives.org/OAI/2.0/ http://www.openarchives.org/OAI/2.0/OAI-PMH.xsd">
  <responseDate>2017-08-31T14:41:29Z</responseDate>
  <request verb="ListIdentifiers" resumptionToken=".eJwVzdFOgzAYQOF36TUxLRAL3G0ByYw_hJXC4MZgQZgURKgBuuzdndcn-c4NLU1TIw8_WS51Teq4mDw7tu3YloEWMX9L-X59dCQumRSj5FWY_Z6HDBdmSyN_2cAvSJRyHQ9Es5fEvBBn41e8JylXhT5vmXVaGQ4o6GQF3ZrxUFtxKMuPcGJ8PEpm1nMcJDsjR1ZagkJ6MB8ega9JCdzxSLqfkJ0U9AF5ywGLrN4hUMdYAwYf7Cidxlp3U55vP1y-riVXY6W7AHqV8P-XPlBkoKlqG-RZ1ED9Ws3tgrzb_f4HslBSUw.DImxYA.fEsXHsbunFKrgO7eC1sQq2ykQFc">https://zenodo.org/oai2d</request>
  <ListIdentifiers>
    <header>
      <identifier>oai:zenodo.org:278612</identifier>
      <datestamp>2017-02-08T23:30:21Z</datestamp>
      <setSpec>user-biosyslit</setSpec>
    </header>
    <header>
      <identifier>oai:zenodo.org:278543</identifier>
      <datestamp>2017-02-08T23:22:23Z</datestamp>
      <setSpec>user-biosyslit</setSpec>
    </header>
    <header>
      <identifier>oai:zenodo.org:278606</identifier>
      <datestamp>2017-02-08T23:30:00Z</datestamp>
      <setSpec>user-biosyslit</setSpec>
    </header>
    <header>
      <identifier>oai:zenodo.org:240804</identifier>
      <datestamp>2017-01-12T14:18:21Z</datestamp>
      <setSpec>user-biosyslit</setSpec>
    </header>
    <header>
      <identifier>oai:zenodo.org:278975</identifier>
      <datestamp>2017-02-09T00:21:07Z</datestamp>
      <setSpec>user-biosyslit</setSpec>
    </header>
    <header>
      <identifier>oai:zenodo.org:239781</identifier>
      <datestamp>2017-01-12T00:46:04Z</datestamp>
      <setSpec>user-biosyslit</setSpec>
    </header>
    <header>
      <identifier>oai:zenodo.org:240498</identifier>
      <datestamp>2017-01-12T09:27:33Z</datestamp>
      <setSpec>user-biosyslit</setSpec>
    </header>
    <header>
      <identifier>oai:zenodo.org:241530</identifier>
      <datestamp>2017-01-13T02:57:56Z</datestamp>
      <setSpec>user-biosyslit</setSpec>
    </header>
    <header>
      <identifier>oai:zenodo.org:241559</identifier>
      <datestamp>2017-01-13T03:21:01Z</datestamp>
      <setSpec>user-biosyslit</setSpec>
    </header>
    <header>
      <identifier>oai:zenodo.org:240626</identifier>
      <datestamp>2017-01-12T10:56:30Z</datestamp>
      <setSpec>user-biosyslit</setSpec>
    </header>
    <header>
      <identifier>oai:zenodo.org:240495</identifier>
      <datestamp>2017-01-12T09:27:21Z</datestamp>
      <setSpec>user-biosyslit</setSpec>
    </header>
    <header>
      <identifier>oai:zenodo.org:279144</identifier>
      <datestamp>2017-02-09T00:41:59Z</datestamp>
      <setSpec>user-biosyslit</setSpec>
    </header>
    <header>
      <identifier>oai:zenodo.org:280287</identifier>
      <datestamp>2017-02-09T03:06:44Z</datestamp>
      <setSpec>user-biosyslit</setSpec>
    </header>
    <header>
      <identifier>oai:zenodo.org:272443</identifier>
      <datestamp>2017-02-08T04:39:38Z</datestamp>
      <setSpec>user-biosyslit</setSpec>
    </header>
    <header>
      <identifier>oai:zenodo.org:272173</identifier>
      <datestamp>2017-02-08T03:54:30Z</datestamp>
      <setSpec>user-biosyslit</setSpec>
    </header>
    <header>
      <identifier>oai:zenodo.org:272424</identifier>
      <datestamp>2017-02-08T04:35:03Z</datestamp>
      <setSpec>user-biosyslit</setSpec>
    </header>
    <header>
      <identifier>oai:zenodo.org:271622</identifier>
      <datestamp>2017-02-08T02:05:09Z</datestamp>
      <setSpec>user-biosyslit</setSpec>
    </header>
    <header>
      <identifier>oai:zenodo.org:272066</identifier>
      <datestamp>2017-02-08T03:27:18Z</datestamp>
      <setSpec>user-biosyslit</setSpec>
    </header>
    <header>
      <identifier>oai:zenodo.org:272024</identifier>
      <datestamp>2017-02-08T03:21:38Z</datestamp>
      <setSpec>user-biosyslit</setSpec>
    </header>
    <header>
      <identifier>oai:zenodo.org:271840</identifier>
      <datestamp>2017-02-08T02:45:00Z</datestamp>
      <setSpec>user-biosyslit</setSpec>
    </header>
    <header>
      <identifier>oai:zenodo.org:241953</identifier>
      <datestamp>2017-01-13T08:19:44Z</datestamp>
      <setSpec>user-biosyslit</setSpec>
    </header>
    <header>
      <identifier>oai:zenodo.org:241869</identifier>
      <datestamp>2017-01-13T07:06:31Z</datestamp>
      <setSpec>user-biosyslit</setSpec>
    </header>
    <header>
      <identifier>oai:zenodo.org:241734</identifier>
      <datestamp>2017-01-13T05:23:43Z</datestamp>
      <setSpec>user-biosyslit</setSpec>
    </header>
    <header>
      <identifier>oai:zenodo.org:243634</identifier>
      <datestamp>2017-01-14T08:30:14Z</datestamp>
      <setSpec>user-biosyslit</setSpec>
    </header>
    <header>
      <identifier>oai:zenodo.org:279751</identifier>
      <datestamp>2017-02-09T01:59:59Z</datestamp>
      <setSpec>user-biosyslit</setSpec>
    </header>
    <header>
      <identifier>oai:zenodo.org:242727</identifier>
      <datestamp>2017-01-13T19:07:34Z</datestamp>
      <setSpec>user-biosyslit</setSpec>
    </header>
    <header>
      <identifier>oai:zenodo.org:242568</identifier>
      <datestamp>2017-01-13T16:57:50Z</datestamp>
      <setSpec>user-biosyslit</setSpec>
    </header>
    <header>
      <identifier>oai:zenodo.org:242532</identifier>
      <datestamp>2017-01-13T16:25:40Z</datestamp>
      <setSpec>user-biosyslit</setSpec>
    </header>
    <header>
      <identifier>oai:zenodo.org:272386</identifier>
      <datestamp>2017-02-08T04:25:56Z</datestamp>
      <setSpec>user-biosyslit</setSpec>
    </header>
    <header>
      <identifier>oai:zenodo.org:272140</identifier>
      <datestamp>2017-02-08T03:48:27Z</datestamp>
      <setSpec>user-biosyslit</setSpec>
    </header>
    <header>
      <identifier>oai:zenodo.org:244614</identifier>
      <datestamp>2017-01-15T00:05:07Z</datestamp>
      <setSpec>user-biosyslit</setSpec>
    </header>
    <header>
      <identifier>oai:zenodo.org:243825</identifier>
      <datestamp>2017-01-14T11:27:02Z</datestamp>
      <setSpec>user-biosyslit</setSpec>
    </header>
    <header>
      <identifier>oai:zenodo.org:244349</identifier>
      <datestamp>2017-01-14T20:28:21Z</datestamp>
      <setSpec>user-biosyslit</setSpec>
    </header>
    <header>
      <identifier>oai:zenodo.org:244863</identifier>
      <datestamp>2017-01-15T04:19:48Z</datestamp>
      <setSpec>user-biosyslit</setSpec>
    </header>
    <header>
      <identifier>oai:zenodo.org:246342</identifier>
      <datestamp>2017-01-16T01:14:49Z</datestamp>
      <setSpec>user-biosyslit</setSpec>
    </header>
    <header>
      <identifier>oai:zenodo.org:244267</identifier>
      <datestamp>2017-01-14T18:52:32Z</datestamp>
      <setSpec>user-biosyslit</setSpec>
    </header>
    <header>
      <identifier>oai:zenodo.org:246672</identifier>
      <datestamp>2017-01-16T06:58:06Z</datestamp>
      <setSpec>user-biosyslit</setSpec>
    </header>
    <header>
      <identifier>oai:zenodo.org:245614</identifier>
      <datestamp>2017-01-15T16:41:31Z</datestamp>
      <setSpec>user-biosyslit</setSpec>
    </header>
    <header>
      <identifier>oai:zenodo.org:272400</identifier>
      <datestamp>2017-02-08T04:27:41Z</datestamp>
      <setSpec>user-biosyslit</setSpec>
    </header>
    <header>
      <identifier>oai:zenodo.org:245711</identifier>
      <datestamp>2017-01-15T17:45:19Z</datestamp>
      <setSpec>user-biosyslit</setSpec>
    </header>
    <header>
      <identifier>oai:zenodo.org:245370</identifier>
      <datestamp>2017-01-15T12:19:16Z</datestamp>
      <setSpec>user-biosyslit</setSpec>
    </header>
    <header>
      <identifier>oai:zenodo.org:245284</identifier>
      <datestamp>2017-01-15T11:15:56Z</datestamp>
      <setSpec>user-biosyslit</setSpec>
    </header>
    <header>
      <identifier>oai:zenodo.org:245781</identifier>
      <datestamp>2017-01-15T18:34:49Z</datestamp>
      <setSpec>user-biosyslit</setSpec>
    </header>
    <header>
      <identifier>oai:zenodo.org:246168</identifier>
      <datestamp>2017-01-15T22:46:49Z</datestamp>
      <setSpec>user-biosyslit</setSpec>
    </header>
    <header>
      <identifier>oai:zenodo.org:246289</identifier>
      <datestamp>2017-01-15T23:47:05Z</datestamp>
      <setSpec>user-biosyslit</setSpec>
    </header>
    <header>
      <identifier>oai:zenodo.org:247074</identifier>
      <datestamp>2017-01-16T11:09:12Z</datestamp>
      <setSpec>user-biosyslit</setSpec>
    </header>
    <header>
      <identifier>oai:zenodo.org:247534</identifier>
      <datestamp>2017-01-16T16:47:47Z</datestamp>
      <setSpec>user-biosyslit</setSpec>
    </header>
    <header>
      <identifier>oai:zenodo.org:247623</identifier>
      <datestamp>2017-01-16T17:39:51Z</datestamp>
      <setSpec>user-biosyslit</setSpec>
    </header>
    <header>
      <identifier>oai:zenodo.org:247814</identifier>
      <datestamp>2017-01-16T20:13:30Z</datestamp>
      <setSpec>user-biosyslit</setSpec>
    </header>
    <header>
      <identifier>oai:zenodo.org:272445</identifier>
      <datestamp>2017-02-08T04:39:42Z</datestamp>
      <setSpec>user-biosyslit</setSpec>
    </header>
    <header>
      <identifier>oai:zenodo.org:248539</identifier>
      <datestamp>2017-01-17T05:19:23Z</datestamp>
      <setSpec>user-biosyslit</setSpec>
    </header>
    <header>
      <identifier>oai:zenodo.org:249310</identifier>
      <datestamp>2017-01-17T18:34:20Z</datestamp>
      <setSpec>user-biosyslit</setSpec>
    </header>
    <header>
      <identifier>oai:zenodo.org:248720</identifier>
      <datestamp>2017-01-17T08:29:28Z</datestamp>
      <setSpec>user-biosyslit</setSpec>
    </header>
    <header>
      <identifier>oai:zenodo.org:249048</identifier>
      <datestamp>2017-01-17T15:34:29Z</datestamp>
      <setSpec>user-biosyslit</setSpec>
    </header>
    <header>
      <identifier>oai:zenodo.org:249010</identifier>
      <datestamp>2017-01-17T14:59:32Z</datestamp>
      <setSpec>user-biosyslit</setSpec>
    </header>
    <header>
      <identifier>oai:zenodo.org:249321</identifier>
      <datestamp>2017-01-17T18:43:54Z</datestamp>
      <setSpec>user-biosyslit</setSpec>
    </header>
    <header>
      <identifier>oai:zenodo.org:272867</identifier>
      <datestamp>2017-02-08T06:31:20Z</datestamp>
      <setSpec>user-biosyslit</setSpec>
    </header>
    <header>
      <identifier>oai:zenodo.org:250591</identifier>
      <datestamp>2017-01-18T12:30:11Z</datestamp>
      <setSpec>user-biosyslit</setSpec>
    </header>
    <header>
      <identifier>oai:zenodo.org:249987</identifier>
      <datestamp>2017-01-18T03:29:40Z</datestamp>
      <setSpec>user-biosyslit</setSpec>
    </header>
    <header>
      <identifier>oai:zenodo.org:250276</identifier>
      <datestamp>2017-01-18T07:53:32Z</datestamp>
      <setSpec>user-biosyslit</setSpec>
    </header>
    <header>
      <identifier>oai:zenodo.org:250956</identifier>
      <datestamp>2017-01-18T16:43:30Z</datestamp>
      <setSpec>user-biosyslit</setSpec>
    </header>
    <header>
      <identifier>oai:zenodo.org:251326</identifier>
      <datestamp>2017-01-18T21:21:35Z</datestamp>
      <setSpec>user-biosyslit</setSpec>
    </header>
    <header>
      <identifier>oai:zenodo.org:273099</identifier>
      <datestamp>2017-02-08T07:09:41Z</datestamp>
      <setSpec>user-biosyslit</setSpec>
    </header>
    <header>
      <identifier>oai:zenodo.org:250847</identifier>
      <datestamp>2017-01-18T15:33:35Z</datestamp>
      <setSpec>user-biosyslit</setSpec>
    </header>
    <header>
      <identifier>oai:zenodo.org:251062</identifier>
      <datestamp>2017-01-18T18:23:28Z</datestamp>
      <setSpec>user-biosyslit</setSpec>
    </header>
    <header>
      <identifier>oai:zenodo.org:251228</identifier>
      <datestamp>2017-01-18T20:08:36Z</datestamp>
      <setSpec>user-biosyslit</setSpec>
    </header>
    <header>
      <identifier>oai:zenodo.org:272857</identifier>
      <datestamp>2017-02-08T06:30:50Z</datestamp>
      <setSpec>user-biosyslit</setSpec>
    </header>
    <header>
      <identifier>oai:zenodo.org:272818</identifier>
      <datestamp>2017-02-08T06:28:52Z</datestamp>
      <setSpec>user-biosyslit</setSpec>
    </header>
    <header>
      <identifier>oai:zenodo.org:272793</identifier>
      <datestamp>2017-02-08T06:27:43Z</datestamp>
      <setSpec>user-biosyslit</setSpec>
    </header>
    <header>
      <identifier>oai:zenodo.org:275830</identifier>
      <datestamp>2017-02-08T17:09:15Z</datestamp>
      <setSpec>user-biosyslit</setSpec>
    </header>
    <header>
      <identifier>oai:zenodo.org:272951</identifier>
      <datestamp>2017-02-08T07:01:40Z</datestamp>
      <setSpec>user-biosyslit</setSpec>
    </header>
    <header>
      <identifier>oai:zenodo.org:273013</identifier>
      <datestamp>2017-02-08T06:58:22Z</datestamp>
      <setSpec>user-biosyslit</setSpec>
    </header>
    <header>
      <identifier>oai:zenodo.org:251779</identifier>
      <datestamp>2017-01-19T04:30:34Z</datestamp>
      <setSpec>user-biosyslit</setSpec>
    </header>
    <header>
      <identifier>oai:zenodo.org:252037</identifier>
      <datestamp>2017-01-19T07:36:49Z</datestamp>
      <setSpec>user-biosyslit</setSpec>
    </header>
    <header>
      <identifier>oai:zenodo.org:252711</identifier>
      <datestamp>2017-01-19T18:47:32Z</datestamp>
      <setSpec>user-biosyslit</setSpec>
    </header>
    <header>
      <identifier>oai:zenodo.org:277780</identifier>
      <datestamp>2017-02-08T21:48:52Z</datestamp>
      <setSpec>user-biosyslit</setSpec>
    </header>
    <header>
      <identifier>oai:zenodo.org:277516</identifier>
      <datestamp>2017-02-08T21:16:57Z</datestamp>
      <setSpec>user-biosyslit</setSpec>
    </header>
    <header>
      <identifier>oai:zenodo.org:270826</identifier>
      <datestamp>2017-02-07T23:57:44Z</datestamp>
      <setSpec>user-biosyslit</setSpec>
    </header>
    <header>
      <identifier>oai:zenodo.org:236425</identifier>
      <datestamp>2017-01-10T00:06:23Z</datestamp>
      <setSpec>user-biosyslit</setSpec>
    </header>
    <header>
      <identifier>oai:zenodo.org:277335</identifier>
      <datestamp>2017-02-08T20:55:40Z</datestamp>
      <setSpec>user-biosyslit</setSpec>
    </header>
    <header>
      <identifier>oai:zenodo.org:235923</identifier>
      <datestamp>2017-01-09T16:56:01Z</datestamp>
      <setSpec>user-biosyslit</setSpec>
    </header>
    <header>
      <identifier>oai:zenodo.org:235323</identifier>
      <datestamp>2017-01-09T08:50:08Z</datestamp>
      <setSpec>user-biosyslit</setSpec>
    </header>
    <header>
      <identifier>oai:zenodo.org:236538</identifier>
      <datestamp>2017-01-10T01:22:02Z</datestamp>
      <setSpec>user-biosyslit</setSpec>
    </header>
    <header>
      <identifier>oai:zenodo.org:276798</identifier>
      <datestamp>2017-02-08T19:40:53Z</datestamp>
      <setSpec>user-biosyslit</setSpec>
    </header>
    <header>
      <identifier>oai:zenodo.org:276916</identifier>
      <datestamp>2017-02-08T19:57:52Z</datestamp>
      <setSpec>user-biosyslit</setSpec>
    </header>
    <header>
      <identifier>oai:zenodo.org:278088</identifier>
      <datestamp>2017-02-08T22:24:46Z</datestamp>
      <setSpec>user-biosyslit</setSpec>
    </header>
    <header>
      <identifier>oai:zenodo.org:277097</identifier>
      <datestamp>2017-02-08T20:24:05Z</datestamp>
      <setSpec>user-biosyslit</setSpec>
    </header>
    <header>
      <identifier>oai:zenodo.org:236569</identifier>
      <datestamp>2017-01-10T01:31:38Z</datestamp>
      <setSpec>user-biosyslit</setSpec>
    </header>
    <header>
      <identifier>oai:zenodo.org:236946</identifier>
      <datestamp>2017-01-10T08:39:43Z</datestamp>
      <setSpec>user-biosyslit</setSpec>
    </header>
    <header>
      <identifier>oai:zenodo.org:236594</identifier>
      <datestamp>2017-01-10T01:51:17Z</datestamp>
      <setSpec>user-biosyslit</setSpec>
    </header>
    <header>
      <identifier>oai:zenodo.org:276732</identifier>
      <datestamp>2017-02-08T19:33:01Z</datestamp>
      <setSpec>user-biosyslit</setSpec>
    </header>
    <header>
      <identifier>oai:zenodo.org:277177</identifier>
      <datestamp>2017-02-08T20:33:45Z</datestamp>
      <setSpec>user-biosyslit</setSpec>
    </header>
    <header>
      <identifier>oai:zenodo.org:278055</identifier>
      <datestamp>2017-02-08T22:21:12Z</datestamp>
      <setSpec>user-biosyslit</setSpec>
    </header>
    <header>
      <identifier>oai:zenodo.org:277668</identifier>
      <datestamp>2017-02-08T21:35:57Z</datestamp>
      <setSpec>user-biosyslit</setSpec>
    </header>
    <header>
      <identifier>oai:zenodo.org:237918</identifier>
      <datestamp>2017-01-10T22:23:46Z</datestamp>
      <setSpec>user-biosyslit</setSpec>
    </header>
    <header>
      <identifier>oai:zenodo.org:277287</identifier>
      <datestamp>2017-02-08T20:47:40Z</datestamp>
      <setSpec>user-biosyslit</setSpec>
    </header>
    <header>
      <identifier>oai:zenodo.org:237349</identifier>
      <datestamp>2017-01-10T14:33:52Z</datestamp>
      <setSpec>user-biosyslit</setSpec>
    </header>
    <header>
      <identifier>oai:zenodo.org:238049</identifier>
      <datestamp>2017-01-11T00:25:15Z</datestamp>
      <setSpec>user-biosyslit</setSpec>
    </header>
    <header>
      <identifier>oai:zenodo.org:277701</identifier>
      <datestamp>2017-02-08T21:39:30Z</datestamp>
      <setSpec>user-biosyslit</setSpec>
    </header>
    <header>
      <identifier>oai:zenodo.org:277700</identifier>
      <datestamp>2017-02-08T21:39:25Z</datestamp>
      <setSpec>user-biosyslit</setSpec>
    </header>
    <resumptionToken expirationDate="2017-08-31T14:43:29Z" cursor="3600" completeListSize="142507">.eJwVzd1OgzAYgOF76TExLZDxczYCkhk_CCuFwYnBgjApiFADdNm9bx6_yfPe0NI0NXLxi-2YB1O3CTFNfMC2o6GFzz9CfFyfGfFLJvgoWBVmf-chw4XeWpG_bOAXJEqZigei6GuiX4i9sSvek5TJQp23zDitFAcWqGQF1erxUBtxKMrPcKJs9ATV6zkOkp0Sj5YGtyA96k-PwPckOe5YJJwvyE4S-oC854B5Vu8QSC9WgMEHM0qnsVbdlOfbLxNva8nkWKkugF4m7P-ljhbS0FS1DXINW0P9Ws3tgtzb_f4AcRdSEg.DImxmQ.E_dc2BF4c9iRxMg1Idn6YLReGhc</resumptionToken>
  </ListIdentifiers>
</OAI-PMH>
