<?xml version='1.0' encoding='UTF-8'?>
<?xml-stylesheet type="text/xsl" href="/static/xsl/oai2.v1.0.xsl"?>
<OAI-PMH xmlns="http://www.openarchives.org/OAI/2.0/" xmlns:xsi="http://www.w3.org/2001/XMLSchema-instance" xsi:schemaLocation="http://www.openarchives.org/OAI/2.0/ http://www.openarchives.org/OAI/2.0/OAI-PMH.xsd">
  <responseDate>2017-08-31T15:44:31Z</responseDate>
  <request verb="ListIdentifiers" resumptionToken=".eJyNyj0PQ0AYAOD_8s7S3DkfJekiVAwIV1KWRhFRR8W1wUn_e7t0bufn2YDXdQUm2iFd1QwVKQZRFWwQzZCAl9OdsUv7cSjPKSsHlhRu-oz7FGVyowc2X3w7I4HoUNhjQY-RfMb7JWnRGp2SRybiJSXeTJGj-yJag5v3eRUJXZZf3ZEmg8WoXE2hE60UWzQn5ffhP5_4-Wx-AAnGoqnBVDGRoJuLqeFgbq_XG9qzUXk.DInAXw.kes1bifQqjHpo8d8E0Qt63qGypI">https://zenodo.org/oai2d</request>
  <ListIdentifiers>
    <header>
      <identifier>oai:zenodo.org:265258</identifier>
      <datestamp>2017-01-31T10:51:42Z</datestamp>
      <setSpec>user-biosyslit</setSpec>
    </header>
    <header>
      <identifier>oai:zenodo.org:265743</identifier>
      <datestamp>2017-01-31T19:54:46Z</datestamp>
      <setSpec>user-biosyslit</setSpec>
    </header>
    <header>
      <identifier>oai:zenodo.org:264689</identifier>
      <datestamp>2017-01-31T00:58:08Z</datestamp>
      <setSpec>user-biosyslit</setSpec>
    </header>
    <header>
      <identifier>oai:zenodo.org:264825</identifier>
      <datestamp>2017-01-31T03:14:37Z</datestamp>
      <setSpec>user-biosyslit</setSpec>
    </header>
    <header>
      <identifier>oai:zenodo.org:265183</identifier>
      <datestamp>2017-01-31T09:43:17Z</datestamp>
      <setSpec>user-biosyslit</setSpec>
    </header>
    <header>
      <identifier>oai:zenodo.org:265113</identifier>
      <datestamp>2017-01-31T07:59:27Z</datestamp>
      <setSpec>user-biosyslit</setSpec>
    </header>
    <header>
      <identifier>oai:zenodo.org:265451</identifier>
      <datestamp>2017-01-31T14:07:09Z</datestamp>
      <setSpec>user-biosyslit</setSpec>
    </header>
    <header>
      <identifier>oai:zenodo.org:265061</identifier>
      <datestamp>2017-01-31T07:18:54Z</datestamp>
      <setSpec>user-biosyslit</setSpec>
    </header>
    <header>
      <identifier>oai:zenodo.org:265848</identifier>
      <datestamp>2017-01-31T22:12:33Z</datestamp>
      <setSpec>user-biosyslit</setSpec>
    </header>
    <header>
      <identifier>oai:zenodo.org:265453</identifier>
      <datestamp>2017-01-31T14:07:00Z</datestamp>
      <setSpec>user-biosyslit</setSpec>
    </header>
    <header>
      <identifier>oai:zenodo.org:265442</identifier>
      <datestamp>2017-01-31T13:57:06Z</datestamp>
      <setSpec>user-biosyslit</setSpec>
    </header>
    <header>
      <identifier>oai:zenodo.org:265546</identifier>
      <datestamp>2017-01-31T16:28:34Z</datestamp>
      <setSpec>user-biosyslit</setSpec>
    </header>
    <header>
      <identifier>oai:zenodo.org:266387</identifier>
      <datestamp>2017-02-01T07:37:59Z</datestamp>
      <setSpec>user-biosyslit</setSpec>
    </header>
    <header>
      <identifier>oai:zenodo.org:266999</identifier>
      <datestamp>2017-02-01T18:02:36Z</datestamp>
      <setSpec>user-biosyslit</setSpec>
    </header>
    <header>
      <identifier>oai:zenodo.org:265876</identifier>
      <datestamp>2017-01-31T22:39:13Z</datestamp>
      <setSpec>user-biosyslit</setSpec>
    </header>
    <header>
      <identifier>oai:zenodo.org:268098</identifier>
      <datestamp>2017-02-03T01:33:11Z</datestamp>
      <setSpec>user-biosyslit</setSpec>
    </header>
    <header>
      <identifier>oai:zenodo.org:265845</identifier>
      <datestamp>2017-01-31T22:08:09Z</datestamp>
      <setSpec>user-biosyslit</setSpec>
    </header>
    <header>
      <identifier>oai:zenodo.org:266213</identifier>
      <datestamp>2017-02-01T02:38:17Z</datestamp>
      <setSpec>user-biosyslit</setSpec>
    </header>
    <header>
      <identifier>oai:zenodo.org:266199</identifier>
      <datestamp>2017-02-01T02:10:20Z</datestamp>
      <setSpec>user-biosyslit</setSpec>
    </header>
    <header>
      <identifier>oai:zenodo.org:266888</identifier>
      <datestamp>2017-02-01T15:57:38Z</datestamp>
      <setSpec>user-biosyslit</setSpec>
    </header>
    <header>
      <identifier>oai:zenodo.org:266535</identifier>
      <datestamp>2017-02-01T11:43:59Z</datestamp>
      <setSpec>user-biosyslit</setSpec>
    </header>
    <header>
      <identifier>oai:zenodo.org:266850</identifier>
      <datestamp>2017-02-01T15:55:40Z</datestamp>
      <setSpec>user-biosyslit</setSpec>
    </header>
    <header>
      <identifier>oai:zenodo.org:266958</identifier>
      <datestamp>2017-02-01T17:28:19Z</datestamp>
      <setSpec>user-biosyslit</setSpec>
    </header>
    <header>
      <identifier>oai:zenodo.org:266591</identifier>
      <datestamp>2017-02-01T12:19:20Z</datestamp>
      <setSpec>user-biosyslit</setSpec>
    </header>
    <header>
      <identifier>oai:zenodo.org:267549</identifier>
      <datestamp>2017-02-02T03:45:11Z</datestamp>
      <setSpec>user-biosyslit</setSpec>
    </header>
    <header>
      <identifier>oai:zenodo.org:266738</identifier>
      <datestamp>2017-02-01T14:28:36Z</datestamp>
      <setSpec>user-biosyslit</setSpec>
    </header>
    <header>
      <identifier>oai:zenodo.org:266875</identifier>
      <datestamp>2017-02-01T15:56:49Z</datestamp>
      <setSpec>user-biosyslit</setSpec>
    </header>
    <header>
      <identifier>oai:zenodo.org:266859</identifier>
      <datestamp>2017-02-01T15:56:02Z</datestamp>
      <setSpec>user-biosyslit</setSpec>
    </header>
    <header>
      <identifier>oai:zenodo.org:267665</identifier>
      <datestamp>2017-02-02T05:30:34Z</datestamp>
      <setSpec>user-biosyslit</setSpec>
    </header>
    <header>
      <identifier>oai:zenodo.org:268073</identifier>
      <datestamp>2017-02-03T01:16:54Z</datestamp>
      <setSpec>user-biosyslit</setSpec>
    </header>
    <header>
      <identifier>oai:zenodo.org:267403</identifier>
      <datestamp>2017-02-02T01:42:10Z</datestamp>
      <setSpec>user-biosyslit</setSpec>
    </header>
    <header>
      <identifier>oai:zenodo.org:275071</identifier>
      <datestamp>2017-02-08T15:14:08Z</datestamp>
      <setSpec>user-biosyslit</setSpec>
    </header>
    <header>
      <identifier>oai:zenodo.org:274371</identifier>
      <datestamp>2017-02-08T13:02:56Z</datestamp>
      <setSpec>user-biosyslit</setSpec>
    </header>
    <header>
      <identifier>oai:zenodo.org:267703</identifier>
      <datestamp>2017-02-02T05:56:45Z</datestamp>
      <setSpec>user-biosyslit</setSpec>
    </header>
    <header>
      <identifier>oai:zenodo.org:267575</identifier>
      <datestamp>2017-02-02T04:05:37Z</datestamp>
      <setSpec>user-biosyslit</setSpec>
    </header>
    <header>
      <identifier>oai:zenodo.org:267445</identifier>
      <datestamp>2017-02-02T02:18:22Z</datestamp>
      <setSpec>user-biosyslit</setSpec>
    </header>
    <header>
      <identifier>oai:zenodo.org:267887</identifier>
      <datestamp>2017-02-02T09:00:27Z</datestamp>
      <setSpec>user-biosyslit</setSpec>
    </header>
    <header>
      <identifier>oai:zenodo.org:268107</identifier>
      <datestamp>2017-02-03T01:33:31Z</datestamp>
      <setSpec>user-biosyslit</setSpec>
    </header>
    <header>
      <identifier>oai:zenodo.org:268262</identifier>
      <datestamp>2017-02-03T04:59:35Z</datestamp>
      <setSpec>user-biosyslit</setSpec>
    </header>
    <header>
      <identifier>oai:zenodo.org:227243</identifier>
      <datestamp>2017-01-01T18:41:27Z</datestamp>
      <setSpec>user-biosyslit</setSpec>
    </header>
    <header>
      <identifier>oai:zenodo.org:227382</identifier>
      <datestamp>2017-01-01T20:00:41Z</datestamp>
      <setSpec>user-biosyslit</setSpec>
    </header>
    <header>
      <identifier>oai:zenodo.org:267882</identifier>
      <datestamp>2017-02-02T09:00:13Z</datestamp>
      <setSpec>user-biosyslit</setSpec>
    </header>
    <header>
      <identifier>oai:zenodo.org:274651</identifier>
      <datestamp>2017-02-08T13:54:16Z</datestamp>
      <setSpec>user-biosyslit</setSpec>
    </header>
    <header>
      <identifier>oai:zenodo.org:265843</identifier>
      <datestamp>2017-01-31T22:08:03Z</datestamp>
      <setSpec>user-biosyslit</setSpec>
    </header>
    <header>
      <identifier>oai:zenodo.org:266342</identifier>
      <datestamp>2017-02-01T06:36:06Z</datestamp>
      <setSpec>user-biosyslit</setSpec>
    </header>
    <header>
      <identifier>oai:zenodo.org:265667</identifier>
      <datestamp>2017-01-31T18:41:14Z</datestamp>
      <setSpec>user-biosyslit</setSpec>
    </header>
    <header>
      <identifier>oai:zenodo.org:265813</identifier>
      <datestamp>2017-01-31T21:47:53Z</datestamp>
      <setSpec>user-biosyslit</setSpec>
    </header>
    <header>
      <identifier>oai:zenodo.org:267405</identifier>
      <datestamp>2017-02-02T01:42:17Z</datestamp>
      <setSpec>user-biosyslit</setSpec>
    </header>
    <header>
      <identifier>oai:zenodo.org:266939</identifier>
      <datestamp>2017-02-01T17:16:35Z</datestamp>
      <setSpec>user-biosyslit</setSpec>
    </header>
    <header>
      <identifier>oai:zenodo.org:266496</identifier>
      <datestamp>2017-02-01T11:07:56Z</datestamp>
      <setSpec>user-biosyslit</setSpec>
    </header>
    <header>
      <identifier>oai:zenodo.org:266170</identifier>
      <datestamp>2017-02-01T01:36:08Z</datestamp>
      <setSpec>user-biosyslit</setSpec>
    </header>
    <header>
      <identifier>oai:zenodo.org:266609</identifier>
      <datestamp>2017-02-01T12:29:09Z</datestamp>
      <setSpec>user-biosyslit</setSpec>
    </header>
    <header>
      <identifier>oai:zenodo.org:266126</identifier>
      <datestamp>2017-02-01T00:56:02Z</datestamp>
      <setSpec>user-biosyslit</setSpec>
    </header>
    <header>
      <identifier>oai:zenodo.org:266457</identifier>
      <datestamp>2017-02-01T10:12:54Z</datestamp>
      <setSpec>user-biosyslit</setSpec>
    </header>
    <header>
      <identifier>oai:zenodo.org:266473</identifier>
      <datestamp>2017-02-01T10:35:46Z</datestamp>
      <setSpec>user-biosyslit</setSpec>
    </header>
    <header>
      <identifier>oai:zenodo.org:266292</identifier>
      <datestamp>2017-02-01T05:40:26Z</datestamp>
      <setSpec>user-biosyslit</setSpec>
    </header>
    <header>
      <identifier>oai:zenodo.org:267181</identifier>
      <datestamp>2017-02-01T20:40:58Z</datestamp>
      <setSpec>user-biosyslit</setSpec>
    </header>
    <header>
      <identifier>oai:zenodo.org:267081</identifier>
      <datestamp>2017-02-01T18:58:04Z</datestamp>
      <setSpec>user-biosyslit</setSpec>
    </header>
    <header>
      <identifier>oai:zenodo.org:267315</identifier>
      <datestamp>2017-02-02T00:11:41Z</datestamp>
      <setSpec>user-biosyslit</setSpec>
    </header>
    <header>
      <identifier>oai:zenodo.org:267171</identifier>
      <datestamp>2017-02-01T20:33:03Z</datestamp>
      <setSpec>user-biosyslit</setSpec>
    </header>
    <header>
      <identifier>oai:zenodo.org:267139</identifier>
      <datestamp>2017-02-01T20:03:00Z</datestamp>
      <setSpec>user-biosyslit</setSpec>
    </header>
    <header>
      <identifier>oai:zenodo.org:267232</identifier>
      <datestamp>2017-02-01T23:15:06Z</datestamp>
      <setSpec>user-biosyslit</setSpec>
    </header>
    <header>
      <identifier>oai:zenodo.org:268071</identifier>
      <datestamp>2017-02-03T01:16:48Z</datestamp>
      <setSpec>user-biosyslit</setSpec>
    </header>
    <header>
      <identifier>oai:zenodo.org:267290</identifier>
      <datestamp>2017-02-01T23:50:36Z</datestamp>
      <setSpec>user-biosyslit</setSpec>
    </header>
    <header>
      <identifier>oai:zenodo.org:268231</identifier>
      <datestamp>2017-02-03T04:34:19Z</datestamp>
      <setSpec>user-biosyslit</setSpec>
    </header>
    <header>
      <identifier>oai:zenodo.org:267476</identifier>
      <datestamp>2017-02-02T02:50:41Z</datestamp>
      <setSpec>user-biosyslit</setSpec>
    </header>
    <header>
      <identifier>oai:zenodo.org:275128</identifier>
      <datestamp>2017-02-08T15:21:56Z</datestamp>
      <setSpec>user-biosyslit</setSpec>
    </header>
    <header>
      <identifier>oai:zenodo.org:267746</identifier>
      <datestamp>2017-02-02T06:36:15Z</datestamp>
      <setSpec>user-biosyslit</setSpec>
    </header>
    <header>
      <identifier>oai:zenodo.org:267725</identifier>
      <datestamp>2017-02-02T06:23:15Z</datestamp>
      <setSpec>user-biosyslit</setSpec>
    </header>
    <header>
      <identifier>oai:zenodo.org:274498</identifier>
      <datestamp>2017-02-08T13:32:25Z</datestamp>
      <setSpec>user-biosyslit</setSpec>
    </header>
    <header>
      <identifier>oai:zenodo.org:227308</identifier>
      <datestamp>2017-01-01T19:20:20Z</datestamp>
      <setSpec>user-biosyslit</setSpec>
    </header>
    <header>
      <identifier>oai:zenodo.org:227643</identifier>
      <datestamp>2017-01-02T01:31:19Z</datestamp>
      <setSpec>user-biosyslit</setSpec>
    </header>
    <header>
      <identifier>oai:zenodo.org:267675</identifier>
      <datestamp>2017-02-02T05:37:59Z</datestamp>
      <setSpec>user-biosyslit</setSpec>
    </header>
    <header>
      <identifier>oai:zenodo.org:267739</identifier>
      <datestamp>2017-02-02T06:35:29Z</datestamp>
      <setSpec>user-biosyslit</setSpec>
    </header>
    <header>
      <identifier>oai:zenodo.org:227581</identifier>
      <datestamp>2017-01-02T00:05:24Z</datestamp>
      <setSpec>user-biosyslit</setSpec>
    </header>
    <header>
      <identifier>oai:zenodo.org:268371</identifier>
      <datestamp>2017-02-03T12:29:08Z</datestamp>
      <setSpec>user-biosyslit</setSpec>
    </header>
    <header>
      <identifier>oai:zenodo.org:227572</identifier>
      <datestamp>2017-01-01T23:58:29Z</datestamp>
      <setSpec>user-biosyslit</setSpec>
    </header>
    <header>
      <identifier>oai:zenodo.org:268364</identifier>
      <datestamp>2017-02-03T12:17:57Z</datestamp>
      <setSpec>user-biosyslit</setSpec>
    </header>
    <header>
      <identifier>oai:zenodo.org:267844</identifier>
      <datestamp>2017-02-02T08:11:27Z</datestamp>
      <setSpec>user-biosyslit</setSpec>
    </header>
    <header>
      <identifier>oai:zenodo.org:267861</identifier>
      <datestamp>2017-02-02T08:24:04Z</datestamp>
      <setSpec>user-biosyslit</setSpec>
    </header>
    <header>
      <identifier>oai:zenodo.org:228087</identifier>
      <datestamp>2017-01-02T10:08:30Z</datestamp>
      <setSpec>user-biosyslit</setSpec>
    </header>
    <header>
      <identifier>oai:zenodo.org:269332</identifier>
      <datestamp>2017-02-06T23:55:47Z</datestamp>
      <setSpec>user-biosyslit</setSpec>
    </header>
    <header>
      <identifier>oai:zenodo.org:228523</identifier>
      <datestamp>2017-01-03T00:54:35Z</datestamp>
      <setSpec>user-biosyslit</setSpec>
    </header>
    <header>
      <identifier>oai:zenodo.org:228983</identifier>
      <datestamp>2017-01-03T07:59:22Z</datestamp>
      <setSpec>user-biosyslit</setSpec>
    </header>
    <header>
      <identifier>oai:zenodo.org:269469</identifier>
      <datestamp>2017-02-07T00:42:11Z</datestamp>
      <setSpec>user-biosyslit</setSpec>
    </header>
    <header>
      <identifier>oai:zenodo.org:228996</identifier>
      <datestamp>2017-01-03T08:11:02Z</datestamp>
      <setSpec>user-biosyslit</setSpec>
    </header>
    <header>
      <identifier>oai:zenodo.org:228847</identifier>
      <datestamp>2017-01-03T05:47:41Z</datestamp>
      <setSpec>user-biosyslit</setSpec>
    </header>
    <header>
      <identifier>oai:zenodo.org:269433</identifier>
      <datestamp>2017-02-07T00:31:42Z</datestamp>
      <setSpec>user-biosyslit</setSpec>
    </header>
    <header>
      <identifier>oai:zenodo.org:269880</identifier>
      <datestamp>2017-02-07T20:39:46Z</datestamp>
      <setSpec>user-biosyslit</setSpec>
    </header>
    <header>
      <identifier>oai:zenodo.org:229195</identifier>
      <datestamp>2017-01-03T12:17:02Z</datestamp>
      <setSpec>user-biosyslit</setSpec>
    </header>
    <header>
      <identifier>oai:zenodo.org:263287</identifier>
      <datestamp>2017-01-29T20:43:29Z</datestamp>
      <setSpec>user-biosyslit</setSpec>
    </header>
    <header>
      <identifier>oai:zenodo.org:263128</identifier>
      <datestamp>2017-01-29T17:27:45Z</datestamp>
      <setSpec>user-biosyslit</setSpec>
    </header>
    <header>
      <identifier>oai:zenodo.org:264514</identifier>
      <datestamp>2017-01-30T22:55:21Z</datestamp>
      <setSpec>user-biosyslit</setSpec>
    </header>
    <header>
      <identifier>oai:zenodo.org:263159</identifier>
      <datestamp>2017-01-29T17:56:32Z</datestamp>
      <setSpec>user-biosyslit</setSpec>
    </header>
    <header>
      <identifier>oai:zenodo.org:263983</identifier>
      <datestamp>2017-01-30T11:07:28Z</datestamp>
      <setSpec>user-biosyslit</setSpec>
    </header>
    <header>
      <identifier>oai:zenodo.org:264520</identifier>
      <datestamp>2017-01-30T22:59:41Z</datestamp>
      <setSpec>user-biosyslit</setSpec>
    </header>
    <header>
      <identifier>oai:zenodo.org:263700</identifier>
      <datestamp>2017-01-30T06:56:40Z</datestamp>
      <setSpec>user-biosyslit</setSpec>
    </header>
    <header>
      <identifier>oai:zenodo.org:264205</identifier>
      <datestamp>2017-01-30T14:53:17Z</datestamp>
      <setSpec>user-biosyslit</setSpec>
    </header>
    <header>
      <identifier>oai:zenodo.org:263598</identifier>
      <datestamp>2017-01-30T01:17:07Z</datestamp>
      <setSpec>user-biosyslit</setSpec>
    </header>
    <header>
      <identifier>oai:zenodo.org:263914</identifier>
      <datestamp>2017-01-30T10:09:39Z</datestamp>
      <setSpec>user-biosyslit</setSpec>
    </header>
    <resumptionToken expirationDate="2017-08-31T15:46:31Z" cursor="51200" completeListSize="77796">.eJyNysEKgjAYAOB3-c8S_7ZME7qEJh5UbCnZJUxFzGnhinTiu9elc52_bwJZlgVYuEBTpwZd0xWiQdBcayDz_ibEuf4w5MdE5J2IMzd57tsEU1oZgS0H305ZoBoMW6L4LqJHYg5xjWN0iB-p2g8J814cHcNX0Rhcvc8rWOiK08W987jbCk6LPnSikZMtP7H8-8ifT_18ttyABvesKsHSyVKD5pX1lQRrmuc3mHpRNw.DInAXw.wX0lw0swi_AIJGYZ1xc2VIS1TI0</resumptionToken>
  </ListIdentifiers>
</OAI-PMH>
