<?xml version='1.0' encoding='UTF-8'?>
<?xml-stylesheet type="text/xsl" href="/static/xsl/oai2.v1.0.xsl"?>
<OAI-PMH xmlns="http://www.openarchives.org/OAI/2.0/" xmlns:xsi="http://www.w3.org/2001/XMLSchema-instance" xsi:schemaLocation="http://www.openarchives.org/OAI/2.0/ http://www.openarchives.org/OAI/2.0/OAI-PMH.xsd">
  <responseDate>2017-08-31T15:45:52Z</responseDate>
  <request verb="ListIdentifiers" resumptionToken=".eJyNyrEOgjAUQNF_eTMxLU8BSVwIShiEYIUIi8FCCFLUUA1Q4r_L4qzLXe6ZQJZlATZZLFG3DHMOUsQVWksNJO_uQpzr-QM_JYLfRJx7yevQJiTVKzNw5bB3UwxUQ8KWKraL9BO1hrgmY3SMn6k6DAn6PSNbc6-iMbj6sysw9ER28R4svjmC6UUXbqORUYdlyL-O_unUT-fKDWjwyKsSbGNtaND0eVdJsKf3-wPQgFF5.DInAsA.R5MPJlPPoEkJUq9eKFG1rN0JRWA">https://zenodo.org/oai2d</request>
  <ListIdentifiers>
    <header>
      <identifier>oai:zenodo.org:264326</identifier>
      <datestamp>2017-01-30T19:18:16Z</datestamp>
      <setSpec>user-biosyslit</setSpec>
    </header>
    <header>
      <identifier>oai:zenodo.org:264331</identifier>
      <datestamp>2017-01-30T19:18:13Z</datestamp>
      <setSpec>user-biosyslit</setSpec>
    </header>
    <header>
      <identifier>oai:zenodo.org:264332</identifier>
      <datestamp>2017-01-30T19:18:15Z</datestamp>
      <setSpec>user-biosyslit</setSpec>
    </header>
    <header>
      <identifier>oai:zenodo.org:274109</identifier>
      <datestamp>2017-02-08T12:10:04Z</datestamp>
      <setSpec>user-biosyslit</setSpec>
    </header>
    <header>
      <identifier>oai:zenodo.org:275840</identifier>
      <datestamp>2017-02-08T17:12:14Z</datestamp>
      <setSpec>user-biosyslit</setSpec>
    </header>
    <header>
      <identifier>oai:zenodo.org:262635</identifier>
      <datestamp>2017-01-29T06:29:27Z</datestamp>
      <setSpec>user-biosyslit</setSpec>
    </header>
    <header>
      <identifier>oai:zenodo.org:262634</identifier>
      <datestamp>2017-01-29T06:29:24Z</datestamp>
      <setSpec>user-biosyslit</setSpec>
    </header>
    <header>
      <identifier>oai:zenodo.org:262633</identifier>
      <datestamp>2017-01-29T06:29:22Z</datestamp>
      <setSpec>user-biosyslit</setSpec>
    </header>
    <header>
      <identifier>oai:zenodo.org:264995</identifier>
      <datestamp>2017-01-31T05:48:27Z</datestamp>
      <setSpec>user-biosyslit</setSpec>
    </header>
    <header>
      <identifier>oai:zenodo.org:264997</identifier>
      <datestamp>2017-01-31T05:47:59Z</datestamp>
      <setSpec>user-biosyslit</setSpec>
    </header>
    <header>
      <identifier>oai:zenodo.org:265000</identifier>
      <datestamp>2017-01-31T05:48:22Z</datestamp>
      <setSpec>user-biosyslit</setSpec>
    </header>
    <header>
      <identifier>oai:zenodo.org:249516</identifier>
      <datestamp>2017-01-17T20:35:48Z</datestamp>
      <setSpec>user-biosyslit</setSpec>
    </header>
    <header>
      <identifier>oai:zenodo.org:249279</identifier>
      <datestamp>2017-01-17T18:17:03Z</datestamp>
      <setSpec>user-biosyslit</setSpec>
    </header>
    <header>
      <identifier>oai:zenodo.org:249517</identifier>
      <datestamp>2017-01-17T20:35:53Z</datestamp>
      <setSpec>user-biosyslit</setSpec>
    </header>
    <header>
      <identifier>oai:zenodo.org:249281</identifier>
      <datestamp>2017-01-17T18:17:11Z</datestamp>
      <setSpec>user-biosyslit</setSpec>
    </header>
    <header>
      <identifier>oai:zenodo.org:249280</identifier>
      <datestamp>2017-01-17T18:17:07Z</datestamp>
      <setSpec>user-biosyslit</setSpec>
    </header>
    <header>
      <identifier>oai:zenodo.org:249277</identifier>
      <datestamp>2017-01-17T18:16:55Z</datestamp>
      <setSpec>user-biosyslit</setSpec>
    </header>
    <header>
      <identifier>oai:zenodo.org:249283</identifier>
      <datestamp>2017-01-17T18:17:21Z</datestamp>
      <setSpec>user-biosyslit</setSpec>
    </header>
    <header>
      <identifier>oai:zenodo.org:249514</identifier>
      <datestamp>2017-01-17T20:35:37Z</datestamp>
      <setSpec>user-biosyslit</setSpec>
    </header>
    <header>
      <identifier>oai:zenodo.org:249278</identifier>
      <datestamp>2017-01-17T18:16:59Z</datestamp>
      <setSpec>user-biosyslit</setSpec>
    </header>
    <header>
      <identifier>oai:zenodo.org:284658</identifier>
      <datestamp>2017-02-09T11:46:05Z</datestamp>
      <setSpec>user-biosyslit</setSpec>
    </header>
    <header>
      <identifier>oai:zenodo.org:244416</identifier>
      <datestamp>2017-01-14T21:35:42Z</datestamp>
      <setSpec>user-biosyslit</setSpec>
    </header>
    <header>
      <identifier>oai:zenodo.org:804234</identifier>
      <datestamp>2017-06-08T08:00:19Z</datestamp>
      <setSpec>user-biosyslit</setSpec>
    </header>
    <header>
      <identifier>oai:zenodo.org:804236</identifier>
      <datestamp>2017-06-08T08:00:11Z</datestamp>
      <setSpec>user-biosyslit</setSpec>
    </header>
    <header>
      <identifier>oai:zenodo.org:245303</identifier>
      <datestamp>2017-01-15T11:25:37Z</datestamp>
      <setSpec>user-biosyslit</setSpec>
    </header>
    <header>
      <identifier>oai:zenodo.org:245298</identifier>
      <datestamp>2017-01-15T11:25:22Z</datestamp>
      <setSpec>user-biosyslit</setSpec>
    </header>
    <header>
      <identifier>oai:zenodo.org:234729</identifier>
      <datestamp>2017-01-09T01:35:14Z</datestamp>
      <setSpec>user-biosyslit</setSpec>
    </header>
    <header>
      <identifier>oai:zenodo.org:234731</identifier>
      <datestamp>2017-01-09T01:35:26Z</datestamp>
      <setSpec>user-biosyslit</setSpec>
    </header>
    <header>
      <identifier>oai:zenodo.org:257440</identifier>
      <datestamp>2017-01-23T06:56:02Z</datestamp>
      <setSpec>user-biosyslit</setSpec>
    </header>
    <header>
      <identifier>oai:zenodo.org:293358</identifier>
      <datestamp>2017-02-19T13:33:44Z</datestamp>
      <setSpec>user-biosyslit</setSpec>
    </header>
    <header>
      <identifier>oai:zenodo.org:293898</identifier>
      <datestamp>2017-02-20T18:56:49Z</datestamp>
      <setSpec>user-biosyslit</setSpec>
    </header>
    <header>
      <identifier>oai:zenodo.org:256559</identifier>
      <datestamp>2017-01-22T17:43:23Z</datestamp>
      <setSpec>user-biosyslit</setSpec>
    </header>
    <header>
      <identifier>oai:zenodo.org:256562</identifier>
      <datestamp>2017-01-22T17:43:31Z</datestamp>
      <setSpec>user-biosyslit</setSpec>
    </header>
    <header>
      <identifier>oai:zenodo.org:256561</identifier>
      <datestamp>2017-01-22T17:43:28Z</datestamp>
      <setSpec>user-biosyslit</setSpec>
    </header>
    <header>
      <identifier>oai:zenodo.org:281534</identifier>
      <datestamp>2017-02-09T05:29:19Z</datestamp>
      <setSpec>user-biosyslit</setSpec>
    </header>
    <header>
      <identifier>oai:zenodo.org:281533</identifier>
      <datestamp>2017-02-09T05:29:17Z</datestamp>
      <setSpec>user-biosyslit</setSpec>
    </header>
    <header>
      <identifier>oai:zenodo.org:281535</identifier>
      <datestamp>2017-02-09T05:29:22Z</datestamp>
      <setSpec>user-biosyslit</setSpec>
    </header>
    <header>
      <identifier>oai:zenodo.org:239857</identifier>
      <datestamp>2017-01-12T01:56:03Z</datestamp>
      <setSpec>user-biosyslit</setSpec>
    </header>
    <header>
      <identifier>oai:zenodo.org:273301</identifier>
      <datestamp>2017-02-08T08:54:48Z</datestamp>
      <setSpec>user-biosyslit</setSpec>
    </header>
    <header>
      <identifier>oai:zenodo.org:293922</identifier>
      <datestamp>2017-02-20T18:59:09Z</datestamp>
      <setSpec>user-biosyslit</setSpec>
    </header>
    <header>
      <identifier>oai:zenodo.org:259912</identifier>
      <datestamp>2017-01-25T17:19:31Z</datestamp>
      <setSpec>user-biosyslit</setSpec>
    </header>
    <header>
      <identifier>oai:zenodo.org:245261</identifier>
      <datestamp>2017-01-15T11:02:58Z</datestamp>
      <setSpec>user-biosyslit</setSpec>
    </header>
    <header>
      <identifier>oai:zenodo.org:245262</identifier>
      <datestamp>2017-01-15T11:02:16Z</datestamp>
      <setSpec>user-biosyslit</setSpec>
    </header>
    <header>
      <identifier>oai:zenodo.org:245272</identifier>
      <datestamp>2017-01-15T11:02:57Z</datestamp>
      <setSpec>user-biosyslit</setSpec>
    </header>
    <header>
      <identifier>oai:zenodo.org:245263</identifier>
      <datestamp>2017-01-15T11:02:19Z</datestamp>
      <setSpec>user-biosyslit</setSpec>
    </header>
    <header>
      <identifier>oai:zenodo.org:245266</identifier>
      <datestamp>2017-01-15T11:02:37Z</datestamp>
      <setSpec>user-biosyslit</setSpec>
    </header>
    <header>
      <identifier>oai:zenodo.org:260978</identifier>
      <datestamp>2017-01-28T03:12:39Z</datestamp>
      <setSpec>user-biosyslit</setSpec>
    </header>
    <header>
      <identifier>oai:zenodo.org:231263</identifier>
      <datestamp>2017-01-05T18:10:43Z</datestamp>
      <setSpec>user-biosyslit</setSpec>
    </header>
    <header>
      <identifier>oai:zenodo.org:231272</identifier>
      <datestamp>2017-01-05T18:10:41Z</datestamp>
      <setSpec>user-biosyslit</setSpec>
    </header>
    <header>
      <identifier>oai:zenodo.org:231271</identifier>
      <datestamp>2017-01-05T18:10:39Z</datestamp>
      <setSpec>user-biosyslit</setSpec>
    </header>
    <header>
      <identifier>oai:zenodo.org:231269</identifier>
      <datestamp>2017-01-05T18:10:32Z</datestamp>
      <setSpec>user-biosyslit</setSpec>
    </header>
    <header>
      <identifier>oai:zenodo.org:280978</identifier>
      <datestamp>2017-02-09T04:30:28Z</datestamp>
      <setSpec>user-biosyslit</setSpec>
    </header>
    <header>
      <identifier>oai:zenodo.org:280979</identifier>
      <datestamp>2017-02-09T04:30:30Z</datestamp>
      <setSpec>user-biosyslit</setSpec>
    </header>
    <header>
      <identifier>oai:zenodo.org:280981</identifier>
      <datestamp>2017-02-09T04:30:35Z</datestamp>
      <setSpec>user-biosyslit</setSpec>
    </header>
    <header>
      <identifier>oai:zenodo.org:280977</identifier>
      <datestamp>2017-02-09T04:30:25Z</datestamp>
      <setSpec>user-biosyslit</setSpec>
    </header>
    <header>
      <identifier>oai:zenodo.org:238483</identifier>
      <datestamp>2017-01-11T06:11:13Z</datestamp>
      <setSpec>user-biosyslit</setSpec>
    </header>
    <header>
      <identifier>oai:zenodo.org:280971</identifier>
      <datestamp>2017-02-09T04:30:11Z</datestamp>
      <setSpec>user-biosyslit</setSpec>
    </header>
    <header>
      <identifier>oai:zenodo.org:238487</identifier>
      <datestamp>2017-01-11T06:11:11Z</datestamp>
      <setSpec>user-biosyslit</setSpec>
    </header>
    <header>
      <identifier>oai:zenodo.org:280983</identifier>
      <datestamp>2017-02-09T04:30:39Z</datestamp>
      <setSpec>user-biosyslit</setSpec>
    </header>
    <header>
      <identifier>oai:zenodo.org:242347</identifier>
      <datestamp>2017-01-13T13:54:38Z</datestamp>
      <setSpec>user-biosyslit</setSpec>
    </header>
    <header>
      <identifier>oai:zenodo.org:242349</identifier>
      <datestamp>2017-01-13T13:54:44Z</datestamp>
      <setSpec>user-biosyslit</setSpec>
    </header>
    <header>
      <identifier>oai:zenodo.org:242342</identifier>
      <datestamp>2017-01-13T13:54:20Z</datestamp>
      <setSpec>user-biosyslit</setSpec>
    </header>
    <header>
      <identifier>oai:zenodo.org:242336</identifier>
      <datestamp>2017-01-13T13:53:59Z</datestamp>
      <setSpec>user-biosyslit</setSpec>
    </header>
    <header>
      <identifier>oai:zenodo.org:242340</identifier>
      <datestamp>2017-01-13T13:54:14Z</datestamp>
      <setSpec>user-biosyslit</setSpec>
    </header>
    <header>
      <identifier>oai:zenodo.org:242348</identifier>
      <datestamp>2017-01-13T13:54:42Z</datestamp>
      <setSpec>user-biosyslit</setSpec>
    </header>
    <header>
      <identifier>oai:zenodo.org:242345</identifier>
      <datestamp>2017-01-13T13:54:30Z</datestamp>
      <setSpec>user-biosyslit</setSpec>
    </header>
    <header>
      <identifier>oai:zenodo.org:242346</identifier>
      <datestamp>2017-01-13T13:54:34Z</datestamp>
      <setSpec>user-biosyslit</setSpec>
    </header>
    <header>
      <identifier>oai:zenodo.org:281216</identifier>
      <datestamp>2017-02-09T04:56:03Z</datestamp>
      <setSpec>user-biosyslit</setSpec>
    </header>
    <header>
      <identifier>oai:zenodo.org:231990</identifier>
      <datestamp>2017-01-06T09:58:17Z</datestamp>
      <setSpec>user-biosyslit</setSpec>
    </header>
    <header>
      <identifier>oai:zenodo.org:231993</identifier>
      <datestamp>2017-01-06T09:58:25Z</datestamp>
      <setSpec>user-biosyslit</setSpec>
    </header>
    <header>
      <identifier>oai:zenodo.org:231996</identifier>
      <datestamp>2017-01-06T09:58:33Z</datestamp>
      <setSpec>user-biosyslit</setSpec>
    </header>
    <header>
      <identifier>oai:zenodo.org:231995</identifier>
      <datestamp>2017-01-06T09:58:30Z</datestamp>
      <setSpec>user-biosyslit</setSpec>
    </header>
    <header>
      <identifier>oai:zenodo.org:231989</identifier>
      <datestamp>2017-01-06T09:58:14Z</datestamp>
      <setSpec>user-biosyslit</setSpec>
    </header>
    <header>
      <identifier>oai:zenodo.org:231991</identifier>
      <datestamp>2017-01-06T09:58:19Z</datestamp>
      <setSpec>user-biosyslit</setSpec>
    </header>
    <header>
      <identifier>oai:zenodo.org:271202</identifier>
      <datestamp>2017-02-08T01:01:46Z</datestamp>
      <setSpec>user-biosyslit</setSpec>
    </header>
    <header>
      <identifier>oai:zenodo.org:271204</identifier>
      <datestamp>2017-02-08T01:01:27Z</datestamp>
      <setSpec>user-biosyslit</setSpec>
    </header>
    <header>
      <identifier>oai:zenodo.org:271208</identifier>
      <datestamp>2017-02-08T01:01:41Z</datestamp>
      <setSpec>user-biosyslit</setSpec>
    </header>
    <header>
      <identifier>oai:zenodo.org:281677</identifier>
      <datestamp>2017-02-09T05:44:11Z</datestamp>
      <setSpec>user-biosyslit</setSpec>
    </header>
    <header>
      <identifier>oai:zenodo.org:271210</identifier>
      <datestamp>2017-02-08T01:01:45Z</datestamp>
      <setSpec>user-biosyslit</setSpec>
    </header>
    <header>
      <identifier>oai:zenodo.org:281673</identifier>
      <datestamp>2017-02-09T05:44:01Z</datestamp>
      <setSpec>user-biosyslit</setSpec>
    </header>
    <header>
      <identifier>oai:zenodo.org:281675</identifier>
      <datestamp>2017-02-09T05:44:06Z</datestamp>
      <setSpec>user-biosyslit</setSpec>
    </header>
    <header>
      <identifier>oai:zenodo.org:227363</identifier>
      <datestamp>2017-01-01T19:45:46Z</datestamp>
      <setSpec>user-biosyslit</setSpec>
    </header>
    <header>
      <identifier>oai:zenodo.org:229707</identifier>
      <datestamp>2017-01-03T20:47:31Z</datestamp>
      <setSpec>user-biosyslit</setSpec>
    </header>
    <header>
      <identifier>oai:zenodo.org:229708</identifier>
      <datestamp>2017-01-03T20:47:34Z</datestamp>
      <setSpec>user-biosyslit</setSpec>
    </header>
    <header>
      <identifier>oai:zenodo.org:230875</identifier>
      <datestamp>2017-01-05T09:42:41Z</datestamp>
      <setSpec>user-biosyslit</setSpec>
    </header>
    <header>
      <identifier>oai:zenodo.org:230877</identifier>
      <datestamp>2017-01-05T09:42:47Z</datestamp>
      <setSpec>user-biosyslit</setSpec>
    </header>
    <header>
      <identifier>oai:zenodo.org:237604</identifier>
      <datestamp>2017-01-10T17:38:39Z</datestamp>
      <setSpec>user-biosyslit</setSpec>
    </header>
    <header>
      <identifier>oai:zenodo.org:237599</identifier>
      <datestamp>2017-01-10T17:38:22Z</datestamp>
      <setSpec>user-biosyslit</setSpec>
    </header>
    <header>
      <identifier>oai:zenodo.org:237598</identifier>
      <datestamp>2017-01-10T17:38:19Z</datestamp>
      <setSpec>user-biosyslit</setSpec>
    </header>
    <header>
      <identifier>oai:zenodo.org:247973</identifier>
      <datestamp>2017-01-16T22:17:51Z</datestamp>
      <setSpec>user-biosyslit</setSpec>
    </header>
    <header>
      <identifier>oai:zenodo.org:247979</identifier>
      <datestamp>2017-01-16T22:17:49Z</datestamp>
      <setSpec>user-biosyslit</setSpec>
    </header>
    <header>
      <identifier>oai:zenodo.org:241184</identifier>
      <datestamp>2017-01-12T21:45:37Z</datestamp>
      <setSpec>user-biosyslit</setSpec>
    </header>
    <header>
      <identifier>oai:zenodo.org:277592</identifier>
      <datestamp>2017-02-08T21:27:18Z</datestamp>
      <setSpec>user-biosyslit</setSpec>
    </header>
    <header>
      <identifier>oai:zenodo.org:231000</identifier>
      <datestamp>2017-01-05T12:08:10Z</datestamp>
      <setSpec>user-biosyslit</setSpec>
    </header>
    <header>
      <identifier>oai:zenodo.org:231001</identifier>
      <datestamp>2017-01-05T12:08:12Z</datestamp>
      <setSpec>user-biosyslit</setSpec>
    </header>
    <header>
      <identifier>oai:zenodo.org:293445</identifier>
      <datestamp>2017-02-19T13:40:41Z</datestamp>
      <setSpec>user-biosyslit</setSpec>
    </header>
    <header>
      <identifier>oai:zenodo.org:293438</identifier>
      <datestamp>2017-02-19T13:40:27Z</datestamp>
      <setSpec>user-biosyslit</setSpec>
    </header>
    <header>
      <identifier>oai:zenodo.org:293442</identifier>
      <datestamp>2017-02-19T13:40:35Z</datestamp>
      <setSpec>user-biosyslit</setSpec>
    </header>
    <header>
      <identifier>oai:zenodo.org:254518</identifier>
      <datestamp>2017-01-20T20:01:07Z</datestamp>
      <setSpec>user-biosyslit</setSpec>
    </header>
    <header>
      <identifier>oai:zenodo.org:245386</identifier>
      <datestamp>2017-01-15T12:31:43Z</datestamp>
      <setSpec>user-biosyslit</setSpec>
    </header>
    <resumptionToken expirationDate="2017-08-31T15:47:52Z" cursor="69500" completeListSize="77796">.eJyNz7sOgjAAQNF_6UxMH0KVxMWAhAFIrSXiYrAQghQkVCPU-O-yOOt8z3JfQJdlAVy4sNfYofYSQgcjQjG1gJbDTalzPWcgj6mSnRJ5kD72bQozXNHY02PkZSQ2DUxaZPiO4SNajaKGEzuIe2b2Y0rCJ4c-jQyb4ms4u4IkgTpdgp6Lbqs4LobEZxNHW34i8uvQn878dJ7eAAv0eVUC11nPV80zHyoN3Nf7_QGZaVFD.DInAsA.Cg3EC2nFAgBrW3oRHJ2O2A9E5G4</resumptionToken>
  </ListIdentifiers>
</OAI-PMH>
