<?xml version='1.0' encoding='UTF-8'?>
<?xml-stylesheet type="text/xsl" href="/static/xsl/oai2.v1.0.xsl"?>
<OAI-PMH xmlns="http://www.openarchives.org/OAI/2.0/" xmlns:xsi="http://www.w3.org/2001/XMLSchema-instance" xsi:schemaLocation="http://www.openarchives.org/OAI/2.0/ http://www.openarchives.org/OAI/2.0/OAI-PMH.xsd">
  <responseDate>2017-08-31T15:45:26Z</responseDate>
  <request verb="ListIdentifiers" resumptionToken=".eJyNysEKgjAYAOB3-c8Sm8u2hC5hSYcUXY70EjZFylniinThu-elc52_7w26LAtw0Yw6NkZkiRijzKGOBVp2d6VOl0lBHoWSN5XkvnjGjUCpXdHA0_3eS0lgahQ22PBtZB8x65MLGqJD8khN3Auye3G0oXsTDcF1N72ChL7Kzn7Lk9tacbvowk00cLzmGZHfh_985ufz9AosaPOqBHcxRxbUr7yrNLjvcfwAb-RREA.DInAlg.RVWojbpRBxi_BqpMSwRNh8XzlZ4">https://zenodo.org/oai2d</request>
  <ListIdentifiers>
    <header>
      <identifier>oai:zenodo.org:281670</identifier>
      <datestamp>2017-02-09T05:43:43Z</datestamp>
      <setSpec>user-biosyslit</setSpec>
    </header>
    <header>
      <identifier>oai:zenodo.org:241993</identifier>
      <datestamp>2017-01-13T09:15:35Z</datestamp>
      <setSpec>user-biosyslit</setSpec>
    </header>
    <header>
      <identifier>oai:zenodo.org:241999</identifier>
      <datestamp>2017-01-13T09:15:50Z</datestamp>
      <setSpec>user-biosyslit</setSpec>
    </header>
    <header>
      <identifier>oai:zenodo.org:263937</identifier>
      <datestamp>2017-01-30T10:44:40Z</datestamp>
      <setSpec>user-biosyslit</setSpec>
    </header>
    <header>
      <identifier>oai:zenodo.org:263955</identifier>
      <datestamp>2017-01-30T10:44:21Z</datestamp>
      <setSpec>user-biosyslit</setSpec>
    </header>
    <header>
      <identifier>oai:zenodo.org:263952</identifier>
      <datestamp>2017-01-30T10:44:12Z</datestamp>
      <setSpec>user-biosyslit</setSpec>
    </header>
    <header>
      <identifier>oai:zenodo.org:256794</identifier>
      <datestamp>2017-01-22T20:42:19Z</datestamp>
      <setSpec>user-biosyslit</setSpec>
    </header>
    <header>
      <identifier>oai:zenodo.org:263956</identifier>
      <datestamp>2017-01-30T10:44:23Z</datestamp>
      <setSpec>user-biosyslit</setSpec>
    </header>
    <header>
      <identifier>oai:zenodo.org:263953</identifier>
      <datestamp>2017-01-30T10:44:14Z</datestamp>
      <setSpec>user-biosyslit</setSpec>
    </header>
    <header>
      <identifier>oai:zenodo.org:263954</identifier>
      <datestamp>2017-01-30T10:44:17Z</datestamp>
      <setSpec>user-biosyslit</setSpec>
    </header>
    <header>
      <identifier>oai:zenodo.org:263949</identifier>
      <datestamp>2017-01-30T10:44:05Z</datestamp>
      <setSpec>user-biosyslit</setSpec>
    </header>
    <header>
      <identifier>oai:zenodo.org:256793</identifier>
      <datestamp>2017-01-22T20:42:16Z</datestamp>
      <setSpec>user-biosyslit</setSpec>
    </header>
    <header>
      <identifier>oai:zenodo.org:283838</identifier>
      <datestamp>2017-02-09T09:55:28Z</datestamp>
      <setSpec>user-biosyslit</setSpec>
    </header>
    <header>
      <identifier>oai:zenodo.org:283839</identifier>
      <datestamp>2017-02-09T09:55:30Z</datestamp>
      <setSpec>user-biosyslit</setSpec>
    </header>
    <header>
      <identifier>oai:zenodo.org:262115</identifier>
      <datestamp>2017-01-28T21:23:13Z</datestamp>
      <setSpec>user-biosyslit</setSpec>
    </header>
    <header>
      <identifier>oai:zenodo.org:262114</identifier>
      <datestamp>2017-01-28T21:23:11Z</datestamp>
      <setSpec>user-biosyslit</setSpec>
    </header>
    <header>
      <identifier>oai:zenodo.org:266802</identifier>
      <datestamp>2017-02-01T15:07:33Z</datestamp>
      <setSpec>user-biosyslit</setSpec>
    </header>
    <header>
      <identifier>oai:zenodo.org:266800</identifier>
      <datestamp>2017-02-01T15:07:27Z</datestamp>
      <setSpec>user-biosyslit</setSpec>
    </header>
    <header>
      <identifier>oai:zenodo.org:227973</identifier>
      <datestamp>2017-01-02T07:59:40Z</datestamp>
      <setSpec>user-biosyslit</setSpec>
    </header>
    <header>
      <identifier>oai:zenodo.org:266798</identifier>
      <datestamp>2017-02-01T15:07:24Z</datestamp>
      <setSpec>user-biosyslit</setSpec>
    </header>
    <header>
      <identifier>oai:zenodo.org:227976</identifier>
      <datestamp>2017-01-02T08:00:08Z</datestamp>
      <setSpec>user-biosyslit</setSpec>
    </header>
    <header>
      <identifier>oai:zenodo.org:227974</identifier>
      <datestamp>2017-01-02T07:59:44Z</datestamp>
      <setSpec>user-biosyslit</setSpec>
    </header>
    <header>
      <identifier>oai:zenodo.org:227972</identifier>
      <datestamp>2017-01-02T07:59:37Z</datestamp>
      <setSpec>user-biosyslit</setSpec>
    </header>
    <header>
      <identifier>oai:zenodo.org:233841</identifier>
      <datestamp>2017-01-08T12:46:47Z</datestamp>
      <setSpec>user-biosyslit</setSpec>
    </header>
    <header>
      <identifier>oai:zenodo.org:233842</identifier>
      <datestamp>2017-01-08T12:46:50Z</datestamp>
      <setSpec>user-biosyslit</setSpec>
    </header>
    <header>
      <identifier>oai:zenodo.org:233843</identifier>
      <datestamp>2017-01-08T12:46:53Z</datestamp>
      <setSpec>user-biosyslit</setSpec>
    </header>
    <header>
      <identifier>oai:zenodo.org:233848</identifier>
      <datestamp>2017-01-08T12:47:08Z</datestamp>
      <setSpec>user-biosyslit</setSpec>
    </header>
    <header>
      <identifier>oai:zenodo.org:233845</identifier>
      <datestamp>2017-01-08T12:46:56Z</datestamp>
      <setSpec>user-biosyslit</setSpec>
    </header>
    <header>
      <identifier>oai:zenodo.org:233846</identifier>
      <datestamp>2017-01-08T12:46:59Z</datestamp>
      <setSpec>user-biosyslit</setSpec>
    </header>
    <header>
      <identifier>oai:zenodo.org:233849</identifier>
      <datestamp>2017-01-08T12:47:11Z</datestamp>
      <setSpec>user-biosyslit</setSpec>
    </header>
    <header>
      <identifier>oai:zenodo.org:233838</identifier>
      <datestamp>2017-01-08T12:46:37Z</datestamp>
      <setSpec>user-biosyslit</setSpec>
    </header>
    <header>
      <identifier>oai:zenodo.org:233897</identifier>
      <datestamp>2017-01-08T12:49:47Z</datestamp>
      <setSpec>user-biosyslit</setSpec>
    </header>
    <header>
      <identifier>oai:zenodo.org:233898</identifier>
      <datestamp>2017-01-08T12:49:50Z</datestamp>
      <setSpec>user-biosyslit</setSpec>
    </header>
    <header>
      <identifier>oai:zenodo.org:233896</identifier>
      <datestamp>2017-01-08T12:49:44Z</datestamp>
      <setSpec>user-biosyslit</setSpec>
    </header>
    <header>
      <identifier>oai:zenodo.org:233907</identifier>
      <datestamp>2017-01-08T12:50:17Z</datestamp>
      <setSpec>user-biosyslit</setSpec>
    </header>
    <header>
      <identifier>oai:zenodo.org:233901</identifier>
      <datestamp>2017-01-08T12:49:59Z</datestamp>
      <setSpec>user-biosyslit</setSpec>
    </header>
    <header>
      <identifier>oai:zenodo.org:233902</identifier>
      <datestamp>2017-01-08T12:50:03Z</datestamp>
      <setSpec>user-biosyslit</setSpec>
    </header>
    <header>
      <identifier>oai:zenodo.org:233899</identifier>
      <datestamp>2017-01-08T12:49:53Z</datestamp>
      <setSpec>user-biosyslit</setSpec>
    </header>
    <header>
      <identifier>oai:zenodo.org:233904</identifier>
      <datestamp>2017-01-08T12:50:08Z</datestamp>
      <setSpec>user-biosyslit</setSpec>
    </header>
    <header>
      <identifier>oai:zenodo.org:233906</identifier>
      <datestamp>2017-01-08T12:50:14Z</datestamp>
      <setSpec>user-biosyslit</setSpec>
    </header>
    <header>
      <identifier>oai:zenodo.org:277823</identifier>
      <datestamp>2017-02-08T21:53:08Z</datestamp>
      <setSpec>user-biosyslit</setSpec>
    </header>
    <header>
      <identifier>oai:zenodo.org:277838</identifier>
      <datestamp>2017-02-08T21:54:02Z</datestamp>
      <setSpec>user-biosyslit</setSpec>
    </header>
    <header>
      <identifier>oai:zenodo.org:277830</identifier>
      <datestamp>2017-02-08T21:53:38Z</datestamp>
      <setSpec>user-biosyslit</setSpec>
    </header>
    <header>
      <identifier>oai:zenodo.org:277837</identifier>
      <datestamp>2017-02-08T21:53:59Z</datestamp>
      <setSpec>user-biosyslit</setSpec>
    </header>
    <header>
      <identifier>oai:zenodo.org:277839</identifier>
      <datestamp>2017-02-08T21:54:05Z</datestamp>
      <setSpec>user-biosyslit</setSpec>
    </header>
    <header>
      <identifier>oai:zenodo.org:277821</identifier>
      <datestamp>2017-02-08T21:53:02Z</datestamp>
      <setSpec>user-biosyslit</setSpec>
    </header>
    <header>
      <identifier>oai:zenodo.org:277828</identifier>
      <datestamp>2017-02-08T21:53:32Z</datestamp>
      <setSpec>user-biosyslit</setSpec>
    </header>
    <header>
      <identifier>oai:zenodo.org:277826</identifier>
      <datestamp>2017-02-08T21:53:27Z</datestamp>
      <setSpec>user-biosyslit</setSpec>
    </header>
    <header>
      <identifier>oai:zenodo.org:283758</identifier>
      <datestamp>2017-02-09T09:35:56Z</datestamp>
      <setSpec>user-biosyslit</setSpec>
    </header>
    <header>
      <identifier>oai:zenodo.org:241905</identifier>
      <datestamp>2017-01-13T07:35:34Z</datestamp>
      <setSpec>user-biosyslit</setSpec>
    </header>
    <header>
      <identifier>oai:zenodo.org:241907</identifier>
      <datestamp>2017-01-13T07:35:05Z</datestamp>
      <setSpec>user-biosyslit</setSpec>
    </header>
    <header>
      <identifier>oai:zenodo.org:283759</identifier>
      <datestamp>2017-02-09T09:35:55Z</datestamp>
      <setSpec>user-biosyslit</setSpec>
    </header>
    <header>
      <identifier>oai:zenodo.org:241906</identifier>
      <datestamp>2017-01-13T07:35:00Z</datestamp>
      <setSpec>user-biosyslit</setSpec>
    </header>
    <header>
      <identifier>oai:zenodo.org:241910</identifier>
      <datestamp>2017-01-13T07:35:25Z</datestamp>
      <setSpec>user-biosyslit</setSpec>
    </header>
    <header>
      <identifier>oai:zenodo.org:253307</identifier>
      <datestamp>2017-01-20T05:18:20Z</datestamp>
      <setSpec>user-biosyslit</setSpec>
    </header>
    <header>
      <identifier>oai:zenodo.org:253304</identifier>
      <datestamp>2017-01-20T05:18:10Z</datestamp>
      <setSpec>user-biosyslit</setSpec>
    </header>
    <header>
      <identifier>oai:zenodo.org:253302</identifier>
      <datestamp>2017-01-20T05:18:04Z</datestamp>
      <setSpec>user-biosyslit</setSpec>
    </header>
    <header>
      <identifier>oai:zenodo.org:253306</identifier>
      <datestamp>2017-01-20T05:18:17Z</datestamp>
      <setSpec>user-biosyslit</setSpec>
    </header>
    <header>
      <identifier>oai:zenodo.org:253305</identifier>
      <datestamp>2017-01-20T05:18:13Z</datestamp>
      <setSpec>user-biosyslit</setSpec>
    </header>
    <header>
      <identifier>oai:zenodo.org:238233</identifier>
      <datestamp>2017-01-11T02:41:39Z</datestamp>
      <setSpec>user-biosyslit</setSpec>
    </header>
    <header>
      <identifier>oai:zenodo.org:238234</identifier>
      <datestamp>2017-01-11T02:41:42Z</datestamp>
      <setSpec>user-biosyslit</setSpec>
    </header>
    <header>
      <identifier>oai:zenodo.org:238232</identifier>
      <datestamp>2017-01-11T02:41:35Z</datestamp>
      <setSpec>user-biosyslit</setSpec>
    </header>
    <header>
      <identifier>oai:zenodo.org:238236</identifier>
      <datestamp>2017-01-11T02:41:57Z</datestamp>
      <setSpec>user-biosyslit</setSpec>
    </header>
    <header>
      <identifier>oai:zenodo.org:238235</identifier>
      <datestamp>2017-01-11T02:41:46Z</datestamp>
      <setSpec>user-biosyslit</setSpec>
    </header>
    <header>
      <identifier>oai:zenodo.org:277024</identifier>
      <datestamp>2017-02-08T20:13:52Z</datestamp>
      <setSpec>user-biosyslit</setSpec>
    </header>
    <header>
      <identifier>oai:zenodo.org:267332</identifier>
      <datestamp>2017-02-02T00:24:21Z</datestamp>
      <setSpec>user-biosyslit</setSpec>
    </header>
    <header>
      <identifier>oai:zenodo.org:267334</identifier>
      <datestamp>2017-02-02T00:24:20Z</datestamp>
      <setSpec>user-biosyslit</setSpec>
    </header>
    <header>
      <identifier>oai:zenodo.org:275229</identifier>
      <datestamp>2017-02-08T15:45:35Z</datestamp>
      <setSpec>user-biosyslit</setSpec>
    </header>
    <header>
      <identifier>oai:zenodo.org:230205</identifier>
      <datestamp>2017-01-04T21:06:27Z</datestamp>
      <setSpec>user-biosyslit</setSpec>
    </header>
    <header>
      <identifier>oai:zenodo.org:230203</identifier>
      <datestamp>2017-01-04T21:06:21Z</datestamp>
      <setSpec>user-biosyslit</setSpec>
    </header>
    <header>
      <identifier>oai:zenodo.org:230207</identifier>
      <datestamp>2017-01-04T21:06:34Z</datestamp>
      <setSpec>user-biosyslit</setSpec>
    </header>
    <header>
      <identifier>oai:zenodo.org:230202</identifier>
      <datestamp>2017-01-04T21:06:18Z</datestamp>
      <setSpec>user-biosyslit</setSpec>
    </header>
    <header>
      <identifier>oai:zenodo.org:263662</identifier>
      <datestamp>2017-01-30T02:41:52Z</datestamp>
      <setSpec>user-biosyslit</setSpec>
    </header>
    <header>
      <identifier>oai:zenodo.org:240075</identifier>
      <datestamp>2017-01-12T04:26:44Z</datestamp>
      <setSpec>user-biosyslit</setSpec>
    </header>
    <header>
      <identifier>oai:zenodo.org:271194</identifier>
      <datestamp>2017-02-08T01:00:02Z</datestamp>
      <setSpec>user-biosyslit</setSpec>
    </header>
    <header>
      <identifier>oai:zenodo.org:271196</identifier>
      <datestamp>2017-02-08T00:59:57Z</datestamp>
      <setSpec>user-biosyslit</setSpec>
    </header>
    <header>
      <identifier>oai:zenodo.org:271197</identifier>
      <datestamp>2017-02-08T01:00:00Z</datestamp>
      <setSpec>user-biosyslit</setSpec>
    </header>
    <header>
      <identifier>oai:zenodo.org:240077</identifier>
      <datestamp>2017-01-12T04:26:24Z</datestamp>
      <setSpec>user-biosyslit</setSpec>
    </header>
    <header>
      <identifier>oai:zenodo.org:240080</identifier>
      <datestamp>2017-01-12T04:26:35Z</datestamp>
      <setSpec>user-biosyslit</setSpec>
    </header>
    <header>
      <identifier>oai:zenodo.org:240078</identifier>
      <datestamp>2017-01-12T04:26:27Z</datestamp>
      <setSpec>user-biosyslit</setSpec>
    </header>
    <header>
      <identifier>oai:zenodo.org:285004</identifier>
      <datestamp>2017-02-09T12:27:38Z</datestamp>
      <setSpec>user-biosyslit</setSpec>
    </header>
    <header>
      <identifier>oai:zenodo.org:284999</identifier>
      <datestamp>2017-02-09T12:27:26Z</datestamp>
      <setSpec>user-biosyslit</setSpec>
    </header>
    <header>
      <identifier>oai:zenodo.org:285002</identifier>
      <datestamp>2017-02-09T12:27:33Z</datestamp>
      <setSpec>user-biosyslit</setSpec>
    </header>
    <header>
      <identifier>oai:zenodo.org:285005</identifier>
      <datestamp>2017-02-09T12:27:41Z</datestamp>
      <setSpec>user-biosyslit</setSpec>
    </header>
    <header>
      <identifier>oai:zenodo.org:228527</identifier>
      <datestamp>2017-01-03T00:59:26Z</datestamp>
      <setSpec>user-biosyslit</setSpec>
    </header>
    <header>
      <identifier>oai:zenodo.org:228535</identifier>
      <datestamp>2017-01-03T01:05:42Z</datestamp>
      <setSpec>user-biosyslit</setSpec>
    </header>
    <header>
      <identifier>oai:zenodo.org:228533</identifier>
      <datestamp>2017-01-03T01:05:35Z</datestamp>
      <setSpec>user-biosyslit</setSpec>
    </header>
    <header>
      <identifier>oai:zenodo.org:228534</identifier>
      <datestamp>2017-01-03T01:05:39Z</datestamp>
      <setSpec>user-biosyslit</setSpec>
    </header>
    <header>
      <identifier>oai:zenodo.org:240152</identifier>
      <datestamp>2017-01-12T05:15:56Z</datestamp>
      <setSpec>user-biosyslit</setSpec>
    </header>
    <header>
      <identifier>oai:zenodo.org:228531</identifier>
      <datestamp>2017-01-03T01:05:27Z</datestamp>
      <setSpec>user-biosyslit</setSpec>
    </header>
    <header>
      <identifier>oai:zenodo.org:258914</identifier>
      <datestamp>2017-01-24T06:18:03Z</datestamp>
      <setSpec>user-biosyslit</setSpec>
    </header>
    <header>
      <identifier>oai:zenodo.org:258917</identifier>
      <datestamp>2017-01-24T06:18:12Z</datestamp>
      <setSpec>user-biosyslit</setSpec>
    </header>
    <header>
      <identifier>oai:zenodo.org:283197</identifier>
      <datestamp>2017-02-09T08:21:02Z</datestamp>
      <setSpec>user-biosyslit</setSpec>
    </header>
    <header>
      <identifier>oai:zenodo.org:233054</identifier>
      <datestamp>2017-01-07T23:23:52Z</datestamp>
      <setSpec>user-biosyslit</setSpec>
    </header>
    <header>
      <identifier>oai:zenodo.org:237536</identifier>
      <datestamp>2017-01-10T16:39:16Z</datestamp>
      <setSpec>user-biosyslit</setSpec>
    </header>
    <header>
      <identifier>oai:zenodo.org:231944</identifier>
      <datestamp>2017-01-06T09:09:23Z</datestamp>
      <setSpec>user-biosyslit</setSpec>
    </header>
    <header>
      <identifier>oai:zenodo.org:283201</identifier>
      <datestamp>2017-02-09T08:21:12Z</datestamp>
      <setSpec>user-biosyslit</setSpec>
    </header>
    <header>
      <identifier>oai:zenodo.org:252646</identifier>
      <datestamp>2017-01-19T17:59:02Z</datestamp>
      <setSpec>user-biosyslit</setSpec>
    </header>
    <header>
      <identifier>oai:zenodo.org:283200</identifier>
      <datestamp>2017-02-09T08:21:10Z</datestamp>
      <setSpec>user-biosyslit</setSpec>
    </header>
    <header>
      <identifier>oai:zenodo.org:283198</identifier>
      <datestamp>2017-02-09T08:21:04Z</datestamp>
      <setSpec>user-biosyslit</setSpec>
    </header>
    <resumptionToken expirationDate="2017-08-31T15:47:26Z" cursor="63900" completeListSize="77796">.eJyNyssKgkAUANB_uWuJeZgvaCOatFDRSUk3YSpSjiZOoY7077VpXetzVhB1XYGFNuoWE2xQzTR1YmLN0BUQ5Xjn_Hz9OJSnlJc9TwovfcZdijLS6IEjZt_JaCBbFHZYsn1ETtiYkytaomPyyGQ8p_QwMeTqvoyW4Hb4vIqGHs8v3sCS3uaMVGPoRgvDNstp-X34zyd_PkfsQIGhaGqwNBUr0E7F2Aiw1tfrDd1jUX4.DInAlg.pMhRKrB7k3rY0QyjAckFHfLx9Ds</resumptionToken>
  </ListIdentifiers>
</OAI-PMH>
