<?xml version='1.0' encoding='UTF-8'?>
<?xml-stylesheet type="text/xsl" href="/static/xsl/oai2.v1.0.xsl"?>
<OAI-PMH xmlns="http://www.openarchives.org/OAI/2.0/" xmlns:xsi="http://www.w3.org/2001/XMLSchema-instance" xsi:schemaLocation="http://www.openarchives.org/OAI/2.0/ http://www.openarchives.org/OAI/2.0/OAI-PMH.xsd">
  <responseDate>2017-08-31T15:45:14Z</responseDate>
  <request verb="ListIdentifiers" resumptionToken=".eJyNysEKgjAYAOB3-c8SmyunQpewpEOKLkW9hE2Rcpa4Qp347nnpXOfvm0CWZQE2WmGdmsbGotgy6ZpsDEMDybunEJfb4sCTWPCHiHI3fodNjFK9op4jh5OTEk_VyG-wYodAT7A5RDc0BufolapwiMmxZ2hPTyoYvftxeQXxXZFd3ZZFj51getH5-2BkeMcywr8P__nUz-fILWjQ5lUJtoHXGtR93lUS7GmeP-MqUYQ.DInAig.4JhoNAwArj9O9ZOth001WcuCtyQ">https://zenodo.org/oai2d</request>
  <ListIdentifiers>
    <header>
      <identifier>oai:zenodo.org:228082</identifier>
      <datestamp>2017-01-02T10:05:39Z</datestamp>
      <setSpec>user-biosyslit</setSpec>
    </header>
    <header>
      <identifier>oai:zenodo.org:228084</identifier>
      <datestamp>2017-01-02T10:05:45Z</datestamp>
      <setSpec>user-biosyslit</setSpec>
    </header>
    <header>
      <identifier>oai:zenodo.org:228081</identifier>
      <datestamp>2017-01-02T10:05:35Z</datestamp>
      <setSpec>user-biosyslit</setSpec>
    </header>
    <header>
      <identifier>oai:zenodo.org:262815</identifier>
      <datestamp>2017-01-29T09:38:02Z</datestamp>
      <setSpec>user-biosyslit</setSpec>
    </header>
    <header>
      <identifier>oai:zenodo.org:284322</identifier>
      <datestamp>2017-02-09T11:01:31Z</datestamp>
      <setSpec>user-biosyslit</setSpec>
    </header>
    <header>
      <identifier>oai:zenodo.org:284326</identifier>
      <datestamp>2017-02-09T11:01:30Z</datestamp>
      <setSpec>user-biosyslit</setSpec>
    </header>
    <header>
      <identifier>oai:zenodo.org:284325</identifier>
      <datestamp>2017-02-09T11:01:27Z</datestamp>
      <setSpec>user-biosyslit</setSpec>
    </header>
    <header>
      <identifier>oai:zenodo.org:284324</identifier>
      <datestamp>2017-02-09T11:01:24Z</datestamp>
      <setSpec>user-biosyslit</setSpec>
    </header>
    <header>
      <identifier>oai:zenodo.org:284323</identifier>
      <datestamp>2017-02-09T11:01:22Z</datestamp>
      <setSpec>user-biosyslit</setSpec>
    </header>
    <header>
      <identifier>oai:zenodo.org:230251</identifier>
      <datestamp>2017-01-04T21:42:57Z</datestamp>
      <setSpec>user-biosyslit</setSpec>
    </header>
    <header>
      <identifier>oai:zenodo.org:230255</identifier>
      <datestamp>2017-01-04T21:42:56Z</datestamp>
      <setSpec>user-biosyslit</setSpec>
    </header>
    <header>
      <identifier>oai:zenodo.org:282726</identifier>
      <datestamp>2017-02-09T07:30:36Z</datestamp>
      <setSpec>user-biosyslit</setSpec>
    </header>
    <header>
      <identifier>oai:zenodo.org:230254</identifier>
      <datestamp>2017-01-04T21:42:54Z</datestamp>
      <setSpec>user-biosyslit</setSpec>
    </header>
    <header>
      <identifier>oai:zenodo.org:231370</identifier>
      <datestamp>2017-01-06T00:59:40Z</datestamp>
      <setSpec>user-biosyslit</setSpec>
    </header>
    <header>
      <identifier>oai:zenodo.org:236493</identifier>
      <datestamp>2017-01-10T00:48:08Z</datestamp>
      <setSpec>user-biosyslit</setSpec>
    </header>
    <header>
      <identifier>oai:zenodo.org:236494</identifier>
      <datestamp>2017-01-10T00:48:12Z</datestamp>
      <setSpec>user-biosyslit</setSpec>
    </header>
    <header>
      <identifier>oai:zenodo.org:236492</identifier>
      <datestamp>2017-01-10T00:48:04Z</datestamp>
      <setSpec>user-biosyslit</setSpec>
    </header>
    <header>
      <identifier>oai:zenodo.org:248186</identifier>
      <datestamp>2017-01-17T00:57:37Z</datestamp>
      <setSpec>user-biosyslit</setSpec>
    </header>
    <header>
      <identifier>oai:zenodo.org:248197</identifier>
      <datestamp>2017-01-17T00:57:29Z</datestamp>
      <setSpec>user-biosyslit</setSpec>
    </header>
    <header>
      <identifier>oai:zenodo.org:248187</identifier>
      <datestamp>2017-01-17T00:56:40Z</datestamp>
      <setSpec>user-biosyslit</setSpec>
    </header>
    <header>
      <identifier>oai:zenodo.org:248193</identifier>
      <datestamp>2017-01-17T00:57:10Z</datestamp>
      <setSpec>user-biosyslit</setSpec>
    </header>
    <header>
      <identifier>oai:zenodo.org:245334</identifier>
      <datestamp>2017-01-15T11:53:26Z</datestamp>
      <setSpec>user-biosyslit</setSpec>
    </header>
    <header>
      <identifier>oai:zenodo.org:248198</identifier>
      <datestamp>2017-01-17T00:57:33Z</datestamp>
      <setSpec>user-biosyslit</setSpec>
    </header>
    <header>
      <identifier>oai:zenodo.org:287668</identifier>
      <datestamp>2017-02-09T18:53:33Z</datestamp>
      <setSpec>user-biosyslit</setSpec>
    </header>
    <header>
      <identifier>oai:zenodo.org:287671</identifier>
      <datestamp>2017-02-09T18:53:17Z</datestamp>
      <setSpec>user-biosyslit</setSpec>
    </header>
    <header>
      <identifier>oai:zenodo.org:287672</identifier>
      <datestamp>2017-02-09T18:53:21Z</datestamp>
      <setSpec>user-biosyslit</setSpec>
    </header>
    <header>
      <identifier>oai:zenodo.org:287670</identifier>
      <datestamp>2017-02-09T18:53:14Z</datestamp>
      <setSpec>user-biosyslit</setSpec>
    </header>
    <header>
      <identifier>oai:zenodo.org:289588</identifier>
      <datestamp>2017-02-09T23:57:52Z</datestamp>
      <setSpec>user-biosyslit</setSpec>
    </header>
    <header>
      <identifier>oai:zenodo.org:239146</identifier>
      <datestamp>2017-01-11T17:02:42Z</datestamp>
      <setSpec>user-biosyslit</setSpec>
    </header>
    <header>
      <identifier>oai:zenodo.org:239147</identifier>
      <datestamp>2017-01-11T17:02:36Z</datestamp>
      <setSpec>user-biosyslit</setSpec>
    </header>
    <header>
      <identifier>oai:zenodo.org:238393</identifier>
      <datestamp>2017-01-11T05:19:54Z</datestamp>
      <setSpec>user-biosyslit</setSpec>
    </header>
    <header>
      <identifier>oai:zenodo.org:238394</identifier>
      <datestamp>2017-01-11T05:19:58Z</datestamp>
      <setSpec>user-biosyslit</setSpec>
    </header>
    <header>
      <identifier>oai:zenodo.org:238397</identifier>
      <datestamp>2017-01-11T05:20:09Z</datestamp>
      <setSpec>user-biosyslit</setSpec>
    </header>
    <header>
      <identifier>oai:zenodo.org:238401</identifier>
      <datestamp>2017-01-11T05:20:25Z</datestamp>
      <setSpec>user-biosyslit</setSpec>
    </header>
    <header>
      <identifier>oai:zenodo.org:238400</identifier>
      <datestamp>2017-01-11T05:20:22Z</datestamp>
      <setSpec>user-biosyslit</setSpec>
    </header>
    <header>
      <identifier>oai:zenodo.org:399658</identifier>
      <datestamp>2017-03-15T23:07:29Z</datestamp>
      <setSpec>user-biosyslit</setSpec>
    </header>
    <header>
      <identifier>oai:zenodo.org:399666</identifier>
      <datestamp>2017-03-15T23:07:55Z</datestamp>
      <setSpec>user-biosyslit</setSpec>
    </header>
    <header>
      <identifier>oai:zenodo.org:399657</identifier>
      <datestamp>2017-03-15T23:07:27Z</datestamp>
      <setSpec>user-biosyslit</setSpec>
    </header>
    <header>
      <identifier>oai:zenodo.org:399670</identifier>
      <datestamp>2017-03-15T23:08:08Z</datestamp>
      <setSpec>user-biosyslit</setSpec>
    </header>
    <header>
      <identifier>oai:zenodo.org:399668</identifier>
      <datestamp>2017-03-15T23:08:01Z</datestamp>
      <setSpec>user-biosyslit</setSpec>
    </header>
    <header>
      <identifier>oai:zenodo.org:399662</identifier>
      <datestamp>2017-03-15T23:07:41Z</datestamp>
      <setSpec>user-biosyslit</setSpec>
    </header>
    <header>
      <identifier>oai:zenodo.org:399661</identifier>
      <datestamp>2017-03-15T23:07:39Z</datestamp>
      <setSpec>user-biosyslit</setSpec>
    </header>
    <header>
      <identifier>oai:zenodo.org:399825</identifier>
      <datestamp>2017-03-15T23:59:49Z</datestamp>
      <setSpec>user-biosyslit</setSpec>
    </header>
    <header>
      <identifier>oai:zenodo.org:399830</identifier>
      <datestamp>2017-03-16T00:00:18Z</datestamp>
      <setSpec>user-biosyslit</setSpec>
    </header>
    <header>
      <identifier>oai:zenodo.org:233960</identifier>
      <datestamp>2017-01-08T13:31:03Z</datestamp>
      <setSpec>user-biosyslit</setSpec>
    </header>
    <header>
      <identifier>oai:zenodo.org:233980</identifier>
      <datestamp>2017-01-08T13:30:59Z</datestamp>
      <setSpec>user-biosyslit</setSpec>
    </header>
    <header>
      <identifier>oai:zenodo.org:274503</identifier>
      <datestamp>2017-02-08T13:33:43Z</datestamp>
      <setSpec>user-biosyslit</setSpec>
    </header>
    <header>
      <identifier>oai:zenodo.org:274510</identifier>
      <datestamp>2017-02-08T13:33:41Z</datestamp>
      <setSpec>user-biosyslit</setSpec>
    </header>
    <header>
      <identifier>oai:zenodo.org:274506</identifier>
      <datestamp>2017-02-08T13:33:31Z</datestamp>
      <setSpec>user-biosyslit</setSpec>
    </header>
    <header>
      <identifier>oai:zenodo.org:274508</identifier>
      <datestamp>2017-02-08T13:33:36Z</datestamp>
      <setSpec>user-biosyslit</setSpec>
    </header>
    <header>
      <identifier>oai:zenodo.org:276992</identifier>
      <datestamp>2017-02-08T20:09:15Z</datestamp>
      <setSpec>user-biosyslit</setSpec>
    </header>
    <header>
      <identifier>oai:zenodo.org:276991</identifier>
      <datestamp>2017-02-08T20:09:12Z</datestamp>
      <setSpec>user-biosyslit</setSpec>
    </header>
    <header>
      <identifier>oai:zenodo.org:276990</identifier>
      <datestamp>2017-02-08T20:09:10Z</datestamp>
      <setSpec>user-biosyslit</setSpec>
    </header>
    <header>
      <identifier>oai:zenodo.org:237159</identifier>
      <datestamp>2017-01-10T11:36:17Z</datestamp>
      <setSpec>user-biosyslit</setSpec>
    </header>
    <header>
      <identifier>oai:zenodo.org:237154</identifier>
      <datestamp>2017-01-10T11:35:57Z</datestamp>
      <setSpec>user-biosyslit</setSpec>
    </header>
    <header>
      <identifier>oai:zenodo.org:237158</identifier>
      <datestamp>2017-01-10T11:36:12Z</datestamp>
      <setSpec>user-biosyslit</setSpec>
    </header>
    <header>
      <identifier>oai:zenodo.org:262384</identifier>
      <datestamp>2017-01-29T03:23:12Z</datestamp>
      <setSpec>user-biosyslit</setSpec>
    </header>
    <header>
      <identifier>oai:zenodo.org:247834</identifier>
      <datestamp>2017-01-16T20:35:50Z</datestamp>
      <setSpec>user-biosyslit</setSpec>
    </header>
    <header>
      <identifier>oai:zenodo.org:237971</identifier>
      <datestamp>2017-01-10T23:06:06Z</datestamp>
      <setSpec>user-biosyslit</setSpec>
    </header>
    <header>
      <identifier>oai:zenodo.org:237973</identifier>
      <datestamp>2017-01-10T23:06:15Z</datestamp>
      <setSpec>user-biosyslit</setSpec>
    </header>
    <header>
      <identifier>oai:zenodo.org:284117</identifier>
      <datestamp>2017-02-09T10:28:59Z</datestamp>
      <setSpec>user-biosyslit</setSpec>
    </header>
    <header>
      <identifier>oai:zenodo.org:247838</identifier>
      <datestamp>2017-01-16T20:35:36Z</datestamp>
      <setSpec>user-biosyslit</setSpec>
    </header>
    <header>
      <identifier>oai:zenodo.org:284124</identifier>
      <datestamp>2017-02-09T10:29:24Z</datestamp>
      <setSpec>user-biosyslit</setSpec>
    </header>
    <header>
      <identifier>oai:zenodo.org:284119</identifier>
      <datestamp>2017-02-09T10:29:04Z</datestamp>
      <setSpec>user-biosyslit</setSpec>
    </header>
    <header>
      <identifier>oai:zenodo.org:284123</identifier>
      <datestamp>2017-02-09T10:29:21Z</datestamp>
      <setSpec>user-biosyslit</setSpec>
    </header>
    <header>
      <identifier>oai:zenodo.org:284120</identifier>
      <datestamp>2017-02-09T10:29:07Z</datestamp>
      <setSpec>user-biosyslit</setSpec>
    </header>
    <header>
      <identifier>oai:zenodo.org:240409</identifier>
      <datestamp>2017-01-12T08:13:08Z</datestamp>
      <setSpec>user-biosyslit</setSpec>
    </header>
    <header>
      <identifier>oai:zenodo.org:231661</identifier>
      <datestamp>2017-01-06T05:30:00Z</datestamp>
      <setSpec>user-biosyslit</setSpec>
    </header>
    <header>
      <identifier>oai:zenodo.org:240410</identifier>
      <datestamp>2017-01-12T08:13:04Z</datestamp>
      <setSpec>user-biosyslit</setSpec>
    </header>
    <header>
      <identifier>oai:zenodo.org:240411</identifier>
      <datestamp>2017-01-12T08:13:07Z</datestamp>
      <setSpec>user-biosyslit</setSpec>
    </header>
    <header>
      <identifier>oai:zenodo.org:277278</identifier>
      <datestamp>2017-02-08T20:46:51Z</datestamp>
      <setSpec>user-biosyslit</setSpec>
    </header>
    <header>
      <identifier>oai:zenodo.org:277277</identifier>
      <datestamp>2017-02-08T20:46:49Z</datestamp>
      <setSpec>user-biosyslit</setSpec>
    </header>
    <header>
      <identifier>oai:zenodo.org:277276</identifier>
      <datestamp>2017-02-08T20:46:46Z</datestamp>
      <setSpec>user-biosyslit</setSpec>
    </header>
    <header>
      <identifier>oai:zenodo.org:279345</identifier>
      <datestamp>2017-02-09T01:06:57Z</datestamp>
      <setSpec>user-biosyslit</setSpec>
    </header>
    <header>
      <identifier>oai:zenodo.org:263588</identifier>
      <datestamp>2017-01-30T01:03:09Z</datestamp>
      <setSpec>user-biosyslit</setSpec>
    </header>
    <header>
      <identifier>oai:zenodo.org:279494</identifier>
      <datestamp>2017-02-09T01:30:27Z</datestamp>
      <setSpec>user-biosyslit</setSpec>
    </header>
    <header>
      <identifier>oai:zenodo.org:279497</identifier>
      <datestamp>2017-02-09T01:30:35Z</datestamp>
      <setSpec>user-biosyslit</setSpec>
    </header>
    <header>
      <identifier>oai:zenodo.org:279509</identifier>
      <datestamp>2017-02-09T01:31:08Z</datestamp>
      <setSpec>user-biosyslit</setSpec>
    </header>
    <header>
      <identifier>oai:zenodo.org:279499</identifier>
      <datestamp>2017-02-09T01:30:40Z</datestamp>
      <setSpec>user-biosyslit</setSpec>
    </header>
    <header>
      <identifier>oai:zenodo.org:279496</identifier>
      <datestamp>2017-02-09T01:30:32Z</datestamp>
      <setSpec>user-biosyslit</setSpec>
    </header>
    <header>
      <identifier>oai:zenodo.org:279505</identifier>
      <datestamp>2017-02-09T01:30:55Z</datestamp>
      <setSpec>user-biosyslit</setSpec>
    </header>
    <header>
      <identifier>oai:zenodo.org:279506</identifier>
      <datestamp>2017-02-09T01:30:58Z</datestamp>
      <setSpec>user-biosyslit</setSpec>
    </header>
    <header>
      <identifier>oai:zenodo.org:279498</identifier>
      <datestamp>2017-02-09T01:30:37Z</datestamp>
      <setSpec>user-biosyslit</setSpec>
    </header>
    <header>
      <identifier>oai:zenodo.org:279495</identifier>
      <datestamp>2017-02-09T01:30:29Z</datestamp>
      <setSpec>user-biosyslit</setSpec>
    </header>
    <header>
      <identifier>oai:zenodo.org:276844</identifier>
      <datestamp>2017-02-08T19:48:19Z</datestamp>
      <setSpec>user-biosyslit</setSpec>
    </header>
    <header>
      <identifier>oai:zenodo.org:276843</identifier>
      <datestamp>2017-02-08T19:48:16Z</datestamp>
      <setSpec>user-biosyslit</setSpec>
    </header>
    <header>
      <identifier>oai:zenodo.org:276840</identifier>
      <datestamp>2017-02-08T19:48:08Z</datestamp>
      <setSpec>user-biosyslit</setSpec>
    </header>
    <header>
      <identifier>oai:zenodo.org:228439</identifier>
      <datestamp>2017-01-02T23:56:01Z</datestamp>
      <setSpec>user-biosyslit</setSpec>
    </header>
    <header>
      <identifier>oai:zenodo.org:228444</identifier>
      <datestamp>2017-01-02T23:56:15Z</datestamp>
      <setSpec>user-biosyslit</setSpec>
    </header>
    <header>
      <identifier>oai:zenodo.org:228447</identifier>
      <datestamp>2017-01-02T23:56:23Z</datestamp>
      <setSpec>user-biosyslit</setSpec>
    </header>
    <header>
      <identifier>oai:zenodo.org:228445</identifier>
      <datestamp>2017-01-02T23:56:18Z</datestamp>
      <setSpec>user-biosyslit</setSpec>
    </header>
    <header>
      <identifier>oai:zenodo.org:228441</identifier>
      <datestamp>2017-01-02T23:56:07Z</datestamp>
      <setSpec>user-biosyslit</setSpec>
    </header>
    <header>
      <identifier>oai:zenodo.org:228442</identifier>
      <datestamp>2017-01-02T23:56:10Z</datestamp>
      <setSpec>user-biosyslit</setSpec>
    </header>
    <header>
      <identifier>oai:zenodo.org:228448</identifier>
      <datestamp>2017-01-02T23:56:26Z</datestamp>
      <setSpec>user-biosyslit</setSpec>
    </header>
    <header>
      <identifier>oai:zenodo.org:228450</identifier>
      <datestamp>2017-01-02T23:56:33Z</datestamp>
      <setSpec>user-biosyslit</setSpec>
    </header>
    <header>
      <identifier>oai:zenodo.org:228449</identifier>
      <datestamp>2017-01-02T23:56:29Z</datestamp>
      <setSpec>user-biosyslit</setSpec>
    </header>
    <header>
      <identifier>oai:zenodo.org:233698</identifier>
      <datestamp>2017-01-08T10:19:29Z</datestamp>
      <setSpec>user-biosyslit</setSpec>
    </header>
    <header>
      <identifier>oai:zenodo.org:233696</identifier>
      <datestamp>2017-01-08T10:19:24Z</datestamp>
      <setSpec>user-biosyslit</setSpec>
    </header>
    <header>
      <identifier>oai:zenodo.org:233701</identifier>
      <datestamp>2017-01-08T10:19:39Z</datestamp>
      <setSpec>user-biosyslit</setSpec>
    </header>
    <header>
      <identifier>oai:zenodo.org:233700</identifier>
      <datestamp>2017-01-08T10:19:36Z</datestamp>
      <setSpec>user-biosyslit</setSpec>
    </header>
    <resumptionToken expirationDate="2017-08-31T15:47:14Z" cursor="61300" completeListSize="77796">.eJyNyrsOgjAUANB_uTMxva08JHEhIGEAghUiLAaBEKSooRqhxn_XxVnnc54gm6YGmywQqcUQiWla1FgtdUMDWY0XIQ7dx6HaZ6I6i7T0s_t2yEhOWzNy5RS6OYtUT-IBFd8kdI_WlHZkTnbpLVfbKWPBgxPPDFUyR6fg82oW-6I4-leenh3BaT3GXjJzdHjBqu_DP5_6-Vy5Bg2uZduAbaCuQf8ox1aC_Xy93s2oUW4.DInAig.tMwUeQif4yhd6WuL5smkfv-dIkw</resumptionToken>
  </ListIdentifiers>
</OAI-PMH>
