<?xml version='1.0' encoding='UTF-8'?>
<?xml-stylesheet type="text/xsl" href="/static/xsl/oai2.v1.0.xsl"?>
<OAI-PMH xmlns="http://www.openarchives.org/OAI/2.0/" xmlns:xsi="http://www.w3.org/2001/XMLSchema-instance" xsi:schemaLocation="http://www.openarchives.org/OAI/2.0/ http://www.openarchives.org/OAI/2.0/OAI-PMH.xsd">
  <responseDate>2017-08-31T15:41:44Z</responseDate>
  <request verb="ListIdentifiers" resumptionToken=".eJyNyj0LgkAYAOD_8s4S95GdCS1hiUPKeSnqEqYi5mXiFelF_z2X5pqf5wWqqkqw0YJaaEUYMpfmGq8pYQaoYrhJeWpmhiKJZdHJKHfjR3iNUUpq5jtqPDgp9XWLgivWYs9Jgq0xatDEj9E91eEYU-8p0I4dNJ_8ize_kgauzM5uL6JuKwUph2DHJ4G3IqPF9-E_n_75HLUBA_q8rsDGmBrQPvOhVmC_3u8PnLtRNw.DIm_uA.NcBozvunUchIFBbub5IMVQT23og">https://zenodo.org/oai2d</request>
  <ListIdentifiers>
    <header>
      <identifier>oai:zenodo.org:261316</identifier>
      <datestamp>2017-01-28T07:51:05Z</datestamp>
      <setSpec>user-biosyslit</setSpec>
    </header>
    <header>
      <identifier>oai:zenodo.org:260934</identifier>
      <datestamp>2017-01-28T02:40:44Z</datestamp>
      <setSpec>user-biosyslit</setSpec>
    </header>
    <header>
      <identifier>oai:zenodo.org:260584</identifier>
      <datestamp>2017-01-27T22:07:32Z</datestamp>
      <setSpec>user-biosyslit</setSpec>
    </header>
    <header>
      <identifier>oai:zenodo.org:260633</identifier>
      <datestamp>2017-01-27T22:50:40Z</datestamp>
      <setSpec>user-biosyslit</setSpec>
    </header>
    <header>
      <identifier>oai:zenodo.org:261290</identifier>
      <datestamp>2017-01-28T07:37:15Z</datestamp>
      <setSpec>user-biosyslit</setSpec>
    </header>
    <header>
      <identifier>oai:zenodo.org:274124</identifier>
      <datestamp>2017-02-08T12:13:04Z</datestamp>
      <setSpec>user-biosyslit</setSpec>
    </header>
    <header>
      <identifier>oai:zenodo.org:260746</identifier>
      <datestamp>2017-01-28T00:23:30Z</datestamp>
      <setSpec>user-biosyslit</setSpec>
    </header>
    <header>
      <identifier>oai:zenodo.org:261899</identifier>
      <datestamp>2017-01-28T17:08:06Z</datestamp>
      <setSpec>user-biosyslit</setSpec>
    </header>
    <header>
      <identifier>oai:zenodo.org:261617</identifier>
      <datestamp>2017-01-28T11:37:15Z</datestamp>
      <setSpec>user-biosyslit</setSpec>
    </header>
    <header>
      <identifier>oai:zenodo.org:261730</identifier>
      <datestamp>2017-01-28T13:45:28Z</datestamp>
      <setSpec>user-biosyslit</setSpec>
    </header>
    <header>
      <identifier>oai:zenodo.org:273483</identifier>
      <datestamp>2017-02-08T09:28:00Z</datestamp>
      <setSpec>user-biosyslit</setSpec>
    </header>
    <header>
      <identifier>oai:zenodo.org:274133</identifier>
      <datestamp>2017-02-08T12:14:25Z</datestamp>
      <setSpec>user-biosyslit</setSpec>
    </header>
    <header>
      <identifier>oai:zenodo.org:274067</identifier>
      <datestamp>2017-02-08T12:02:08Z</datestamp>
      <setSpec>user-biosyslit</setSpec>
    </header>
    <header>
      <identifier>oai:zenodo.org:262468</identifier>
      <datestamp>2017-01-29T04:33:34Z</datestamp>
      <setSpec>user-biosyslit</setSpec>
    </header>
    <header>
      <identifier>oai:zenodo.org:261726</identifier>
      <datestamp>2017-01-28T13:40:04Z</datestamp>
      <setSpec>user-biosyslit</setSpec>
    </header>
    <header>
      <identifier>oai:zenodo.org:273588</identifier>
      <datestamp>2017-02-08T09:58:35Z</datestamp>
      <setSpec>user-biosyslit</setSpec>
    </header>
    <header>
      <identifier>oai:zenodo.org:274158</identifier>
      <datestamp>2017-02-08T12:17:01Z</datestamp>
      <setSpec>user-biosyslit</setSpec>
    </header>
    <header>
      <identifier>oai:zenodo.org:273482</identifier>
      <datestamp>2017-02-08T09:27:57Z</datestamp>
      <setSpec>user-biosyslit</setSpec>
    </header>
    <header>
      <identifier>oai:zenodo.org:273714</identifier>
      <datestamp>2017-02-08T10:24:55Z</datestamp>
      <setSpec>user-biosyslit</setSpec>
    </header>
    <header>
      <identifier>oai:zenodo.org:262278</identifier>
      <datestamp>2017-01-29T01:56:01Z</datestamp>
      <setSpec>user-biosyslit</setSpec>
    </header>
    <header>
      <identifier>oai:zenodo.org:262302</identifier>
      <datestamp>2017-01-29T01:57:18Z</datestamp>
      <setSpec>user-biosyslit</setSpec>
    </header>
    <header>
      <identifier>oai:zenodo.org:273587</identifier>
      <datestamp>2017-02-08T09:58:08Z</datestamp>
      <setSpec>user-biosyslit</setSpec>
    </header>
    <header>
      <identifier>oai:zenodo.org:276074</identifier>
      <datestamp>2017-02-08T18:03:09Z</datestamp>
      <setSpec>user-biosyslit</setSpec>
    </header>
    <header>
      <identifier>oai:zenodo.org:262143</identifier>
      <datestamp>2017-01-28T22:02:48Z</datestamp>
      <setSpec>user-biosyslit</setSpec>
    </header>
    <header>
      <identifier>oai:zenodo.org:275194</identifier>
      <datestamp>2017-02-08T15:37:27Z</datestamp>
      <setSpec>user-biosyslit</setSpec>
    </header>
    <header>
      <identifier>oai:zenodo.org:274021</identifier>
      <datestamp>2017-02-08T11:49:57Z</datestamp>
      <setSpec>user-biosyslit</setSpec>
    </header>
    <header>
      <identifier>oai:zenodo.org:263446</identifier>
      <datestamp>2017-01-29T22:33:48Z</datestamp>
      <setSpec>user-biosyslit</setSpec>
    </header>
    <header>
      <identifier>oai:zenodo.org:273436</identifier>
      <datestamp>2017-02-08T09:21:35Z</datestamp>
      <setSpec>user-biosyslit</setSpec>
    </header>
    <header>
      <identifier>oai:zenodo.org:259794</identifier>
      <datestamp>2017-01-25T16:15:50Z</datestamp>
      <setSpec>user-biosyslit</setSpec>
    </header>
    <header>
      <identifier>oai:zenodo.org:259880</identifier>
      <datestamp>2017-01-25T17:11:07Z</datestamp>
      <setSpec>user-biosyslit</setSpec>
    </header>
    <header>
      <identifier>oai:zenodo.org:259829</identifier>
      <datestamp>2017-01-25T16:44:30Z</datestamp>
      <setSpec>user-biosyslit</setSpec>
    </header>
    <header>
      <identifier>oai:zenodo.org:259850</identifier>
      <datestamp>2017-01-25T16:53:23Z</datestamp>
      <setSpec>user-biosyslit</setSpec>
    </header>
    <header>
      <identifier>oai:zenodo.org:260747</identifier>
      <datestamp>2017-01-28T00:23:32Z</datestamp>
      <setSpec>user-biosyslit</setSpec>
    </header>
    <header>
      <identifier>oai:zenodo.org:261109</identifier>
      <datestamp>2017-01-28T05:13:37Z</datestamp>
      <setSpec>user-biosyslit</setSpec>
    </header>
    <header>
      <identifier>oai:zenodo.org:260613</identifier>
      <datestamp>2017-01-27T22:33:54Z</datestamp>
      <setSpec>user-biosyslit</setSpec>
    </header>
    <header>
      <identifier>oai:zenodo.org:261545</identifier>
      <datestamp>2017-01-28T10:42:10Z</datestamp>
      <setSpec>user-biosyslit</setSpec>
    </header>
    <header>
      <identifier>oai:zenodo.org:260566</identifier>
      <datestamp>2017-01-27T22:07:39Z</datestamp>
      <setSpec>user-biosyslit</setSpec>
    </header>
    <header>
      <identifier>oai:zenodo.org:260792</identifier>
      <datestamp>2017-01-28T01:11:00Z</datestamp>
      <setSpec>user-biosyslit</setSpec>
    </header>
    <header>
      <identifier>oai:zenodo.org:260752</identifier>
      <datestamp>2017-01-28T00:32:55Z</datestamp>
      <setSpec>user-biosyslit</setSpec>
    </header>
    <header>
      <identifier>oai:zenodo.org:261215</identifier>
      <datestamp>2017-01-28T06:42:05Z</datestamp>
      <setSpec>user-biosyslit</setSpec>
    </header>
    <header>
      <identifier>oai:zenodo.org:260477</identifier>
      <datestamp>2017-01-27T20:46:52Z</datestamp>
      <setSpec>user-biosyslit</setSpec>
    </header>
    <header>
      <identifier>oai:zenodo.org:273399</identifier>
      <datestamp>2017-02-08T09:10:48Z</datestamp>
      <setSpec>user-biosyslit</setSpec>
    </header>
    <header>
      <identifier>oai:zenodo.org:261185</identifier>
      <datestamp>2017-01-28T06:24:28Z</datestamp>
      <setSpec>user-biosyslit</setSpec>
    </header>
    <header>
      <identifier>oai:zenodo.org:273401</identifier>
      <datestamp>2017-02-08T09:10:53Z</datestamp>
      <setSpec>user-biosyslit</setSpec>
    </header>
    <header>
      <identifier>oai:zenodo.org:260974</identifier>
      <datestamp>2017-01-28T03:08:40Z</datestamp>
      <setSpec>user-biosyslit</setSpec>
    </header>
    <header>
      <identifier>oai:zenodo.org:274155</identifier>
      <datestamp>2017-02-08T12:16:54Z</datestamp>
      <setSpec>user-biosyslit</setSpec>
    </header>
    <header>
      <identifier>oai:zenodo.org:261368</identifier>
      <datestamp>2017-01-28T08:23:12Z</datestamp>
      <setSpec>user-biosyslit</setSpec>
    </header>
    <header>
      <identifier>oai:zenodo.org:260857</identifier>
      <datestamp>2017-01-28T01:40:39Z</datestamp>
      <setSpec>user-biosyslit</setSpec>
    </header>
    <header>
      <identifier>oai:zenodo.org:275142</identifier>
      <datestamp>2017-02-08T15:24:39Z</datestamp>
      <setSpec>user-biosyslit</setSpec>
    </header>
    <header>
      <identifier>oai:zenodo.org:260748</identifier>
      <datestamp>2017-01-28T00:33:23Z</datestamp>
      <setSpec>user-biosyslit</setSpec>
    </header>
    <header>
      <identifier>oai:zenodo.org:261742</identifier>
      <datestamp>2017-01-28T13:52:37Z</datestamp>
      <setSpec>user-biosyslit</setSpec>
    </header>
    <header>
      <identifier>oai:zenodo.org:261034</identifier>
      <datestamp>2017-01-28T04:15:22Z</datestamp>
      <setSpec>user-biosyslit</setSpec>
    </header>
    <header>
      <identifier>oai:zenodo.org:261514</identifier>
      <datestamp>2017-01-28T09:58:45Z</datestamp>
      <setSpec>user-biosyslit</setSpec>
    </header>
    <header>
      <identifier>oai:zenodo.org:261250</identifier>
      <datestamp>2017-01-28T07:15:45Z</datestamp>
      <setSpec>user-biosyslit</setSpec>
    </header>
    <header>
      <identifier>oai:zenodo.org:261913</identifier>
      <datestamp>2017-01-28T17:20:59Z</datestamp>
      <setSpec>user-biosyslit</setSpec>
    </header>
    <header>
      <identifier>oai:zenodo.org:260874</identifier>
      <datestamp>2017-01-28T01:53:10Z</datestamp>
      <setSpec>user-biosyslit</setSpec>
    </header>
    <header>
      <identifier>oai:zenodo.org:262261</identifier>
      <datestamp>2017-01-29T01:13:50Z</datestamp>
      <setSpec>user-biosyslit</setSpec>
    </header>
    <header>
      <identifier>oai:zenodo.org:261027</identifier>
      <datestamp>2017-01-28T03:55:56Z</datestamp>
      <setSpec>user-biosyslit</setSpec>
    </header>
    <header>
      <identifier>oai:zenodo.org:273660</identifier>
      <datestamp>2017-02-08T10:10:40Z</datestamp>
      <setSpec>user-biosyslit</setSpec>
    </header>
    <header>
      <identifier>oai:zenodo.org:261612</identifier>
      <datestamp>2017-01-28T11:29:54Z</datestamp>
      <setSpec>user-biosyslit</setSpec>
    </header>
    <header>
      <identifier>oai:zenodo.org:261541</identifier>
      <datestamp>2017-01-28T10:41:56Z</datestamp>
      <setSpec>user-biosyslit</setSpec>
    </header>
    <header>
      <identifier>oai:zenodo.org:262134</identifier>
      <datestamp>2017-01-28T21:42:38Z</datestamp>
      <setSpec>user-biosyslit</setSpec>
    </header>
    <header>
      <identifier>oai:zenodo.org:261420</identifier>
      <datestamp>2017-01-28T08:45:18Z</datestamp>
      <setSpec>user-biosyslit</setSpec>
    </header>
    <header>
      <identifier>oai:zenodo.org:261705</identifier>
      <datestamp>2017-01-28T13:24:52Z</datestamp>
      <setSpec>user-biosyslit</setSpec>
    </header>
    <header>
      <identifier>oai:zenodo.org:261614</identifier>
      <datestamp>2017-01-28T11:30:15Z</datestamp>
      <setSpec>user-biosyslit</setSpec>
    </header>
    <header>
      <identifier>oai:zenodo.org:262256</identifier>
      <datestamp>2017-01-29T00:30:02Z</datestamp>
      <setSpec>user-biosyslit</setSpec>
    </header>
    <header>
      <identifier>oai:zenodo.org:261513</identifier>
      <datestamp>2017-01-28T09:58:42Z</datestamp>
      <setSpec>user-biosyslit</setSpec>
    </header>
    <header>
      <identifier>oai:zenodo.org:274212</identifier>
      <datestamp>2017-02-08T12:26:02Z</datestamp>
      <setSpec>user-biosyslit</setSpec>
    </header>
    <header>
      <identifier>oai:zenodo.org:261791</identifier>
      <datestamp>2017-01-28T15:09:28Z</datestamp>
      <setSpec>user-biosyslit</setSpec>
    </header>
    <header>
      <identifier>oai:zenodo.org:273566</identifier>
      <datestamp>2017-02-08T09:53:12Z</datestamp>
      <setSpec>user-biosyslit</setSpec>
    </header>
    <header>
      <identifier>oai:zenodo.org:262374</identifier>
      <datestamp>2017-01-29T02:48:27Z</datestamp>
      <setSpec>user-biosyslit</setSpec>
    </header>
    <header>
      <identifier>oai:zenodo.org:262074</identifier>
      <datestamp>2017-01-28T20:02:07Z</datestamp>
      <setSpec>user-biosyslit</setSpec>
    </header>
    <header>
      <identifier>oai:zenodo.org:274572</identifier>
      <datestamp>2017-02-08T13:42:33Z</datestamp>
      <setSpec>user-biosyslit</setSpec>
    </header>
    <header>
      <identifier>oai:zenodo.org:262355</identifier>
      <datestamp>2017-01-29T02:23:41Z</datestamp>
      <setSpec>user-biosyslit</setSpec>
    </header>
    <header>
      <identifier>oai:zenodo.org:262001</identifier>
      <datestamp>2017-01-28T19:15:59Z</datestamp>
      <setSpec>user-biosyslit</setSpec>
    </header>
    <header>
      <identifier>oai:zenodo.org:262110</identifier>
      <datestamp>2017-01-28T20:47:28Z</datestamp>
      <setSpec>user-biosyslit</setSpec>
    </header>
    <header>
      <identifier>oai:zenodo.org:274429</identifier>
      <datestamp>2017-02-08T13:10:25Z</datestamp>
      <setSpec>user-biosyslit</setSpec>
    </header>
    <header>
      <identifier>oai:zenodo.org:274441</identifier>
      <datestamp>2017-02-08T13:13:10Z</datestamp>
      <setSpec>user-biosyslit</setSpec>
    </header>
    <header>
      <identifier>oai:zenodo.org:274461</identifier>
      <datestamp>2017-02-08T13:18:37Z</datestamp>
      <setSpec>user-biosyslit</setSpec>
    </header>
    <header>
      <identifier>oai:zenodo.org:273858</identifier>
      <datestamp>2017-02-08T11:01:17Z</datestamp>
      <setSpec>user-biosyslit</setSpec>
    </header>
    <header>
      <identifier>oai:zenodo.org:274527</identifier>
      <datestamp>2017-02-08T13:36:19Z</datestamp>
      <setSpec>user-biosyslit</setSpec>
    </header>
    <header>
      <identifier>oai:zenodo.org:274324</identifier>
      <datestamp>2017-02-08T12:52:32Z</datestamp>
      <setSpec>user-biosyslit</setSpec>
    </header>
    <header>
      <identifier>oai:zenodo.org:262508</identifier>
      <datestamp>2017-01-29T04:58:58Z</datestamp>
      <setSpec>user-biosyslit</setSpec>
    </header>
    <header>
      <identifier>oai:zenodo.org:262695</identifier>
      <datestamp>2017-01-29T07:14:58Z</datestamp>
      <setSpec>user-biosyslit</setSpec>
    </header>
    <header>
      <identifier>oai:zenodo.org:226952</identifier>
      <datestamp>2017-01-01T07:21:01Z</datestamp>
      <setSpec>user-biosyslit</setSpec>
    </header>
    <header>
      <identifier>oai:zenodo.org:262648</identifier>
      <datestamp>2017-01-29T06:49:03Z</datestamp>
      <setSpec>user-biosyslit</setSpec>
    </header>
    <header>
      <identifier>oai:zenodo.org:263083</identifier>
      <datestamp>2017-01-29T16:39:05Z</datestamp>
      <setSpec>user-biosyslit</setSpec>
    </header>
    <header>
      <identifier>oai:zenodo.org:263616</identifier>
      <datestamp>2017-01-30T01:30:08Z</datestamp>
      <setSpec>user-biosyslit</setSpec>
    </header>
    <header>
      <identifier>oai:zenodo.org:263527</identifier>
      <datestamp>2017-01-29T23:50:34Z</datestamp>
      <setSpec>user-biosyslit</setSpec>
    </header>
    <header>
      <identifier>oai:zenodo.org:262915</identifier>
      <datestamp>2017-01-29T11:09:30Z</datestamp>
      <setSpec>user-biosyslit</setSpec>
    </header>
    <header>
      <identifier>oai:zenodo.org:262721</identifier>
      <datestamp>2017-01-29T07:52:43Z</datestamp>
      <setSpec>user-biosyslit</setSpec>
    </header>
    <header>
      <identifier>oai:zenodo.org:226755</identifier>
      <datestamp>2017-01-01T02:49:11Z</datestamp>
      <setSpec>user-biosyslit</setSpec>
    </header>
    <header>
      <identifier>oai:zenodo.org:263276</identifier>
      <datestamp>2017-01-29T20:29:59Z</datestamp>
      <setSpec>user-biosyslit</setSpec>
    </header>
    <header>
      <identifier>oai:zenodo.org:263594</identifier>
      <datestamp>2017-01-30T01:15:14Z</datestamp>
      <setSpec>user-biosyslit</setSpec>
    </header>
    <header>
      <identifier>oai:zenodo.org:262933</identifier>
      <datestamp>2017-01-29T13:26:10Z</datestamp>
      <setSpec>user-biosyslit</setSpec>
    </header>
    <header>
      <identifier>oai:zenodo.org:264582</identifier>
      <datestamp>2017-01-30T23:42:44Z</datestamp>
      <setSpec>user-biosyslit</setSpec>
    </header>
    <header>
      <identifier>oai:zenodo.org:263529</identifier>
      <datestamp>2017-01-29T23:50:38Z</datestamp>
      <setSpec>user-biosyslit</setSpec>
    </header>
    <header>
      <identifier>oai:zenodo.org:262939</identifier>
      <datestamp>2017-01-29T13:33:49Z</datestamp>
      <setSpec>user-biosyslit</setSpec>
    </header>
    <header>
      <identifier>oai:zenodo.org:226796</identifier>
      <datestamp>2017-01-01T03:34:00Z</datestamp>
      <setSpec>user-biosyslit</setSpec>
    </header>
    <header>
      <identifier>oai:zenodo.org:263474</identifier>
      <datestamp>2017-01-29T22:35:14Z</datestamp>
      <setSpec>user-biosyslit</setSpec>
    </header>
    <resumptionToken expirationDate="2017-08-31T15:43:44Z" cursor="11200" completeListSize="77796">.eJyNysEKgjAYAOB3-c8Sm7PNhC5iiQcVW4p6CZsi5axwRbro3fPSuc7f9wLVNDU4aGFTTCmjBCFrtWTYNkCJ4Srl4TQziDyT4iLTys8euz5DhdmyyFNj6BUk0h2Ke6z5NjFzbI_pCU3JPr0XejdmJHhytGGhTqboHMyvJrEvy6N_4-nFldysh3iTTBy7vCTi-_CfT_98nlqDAbeqbcDB2DKge1ZDq8B5vd8fondRPg.DIm_uA.XpC0shUIsxwi0pScNGxMMa7xdBw</resumptionToken>
  </ListIdentifiers>
</OAI-PMH>
