<?xml version='1.0' encoding='UTF-8'?>
<?xml-stylesheet type="text/xsl" href="/static/xsl/oai2.v1.0.xsl"?>
<OAI-PMH xmlns="http://www.openarchives.org/OAI/2.0/" xmlns:xsi="http://www.w3.org/2001/XMLSchema-instance" xsi:schemaLocation="http://www.openarchives.org/OAI/2.0/ http://www.openarchives.org/OAI/2.0/OAI-PMH.xsd">
  <responseDate>2017-08-31T15:41:52Z</responseDate>
  <request verb="ListIdentifiers" resumptionToken=".eJyNzz0PQ0AAgOH_crM096GIpEtDxYBwPcHSKCLqqLg2OPHfa-nczu-zvCsQVVUCEx4w1jRD11XtSCBUNaIAUYxPzm_NnkGRxLzoOcud-B11MUxxrfuWmD0rJb5sYdAhSS8hTpAxswYu4ZW9UhnNMXEnCm3dk-HiP9zdlSRweHZ3Bsr6M6e4HAM7XCg604wUX4f-dPKns8QJKGDI6wqYiOxX7ZSPtQDmum0fm0xRNw.DIm_wA.TgCkFlxet5DgHwoz0f2Y81a5oes">https://zenodo.org/oai2d</request>
  <ListIdentifiers>
    <header>
      <identifier>oai:zenodo.org:240110</identifier>
      <datestamp>2017-01-12T04:50:04Z</datestamp>
      <setSpec>user-biosyslit</setSpec>
    </header>
    <header>
      <identifier>oai:zenodo.org:241113</identifier>
      <datestamp>2017-01-12T20:12:19Z</datestamp>
      <setSpec>user-biosyslit</setSpec>
    </header>
    <header>
      <identifier>oai:zenodo.org:271393</identifier>
      <datestamp>2017-02-08T01:35:41Z</datestamp>
      <setSpec>user-biosyslit</setSpec>
    </header>
    <header>
      <identifier>oai:zenodo.org:241043</identifier>
      <datestamp>2017-01-12T19:16:53Z</datestamp>
      <setSpec>user-biosyslit</setSpec>
    </header>
    <header>
      <identifier>oai:zenodo.org:241019</identifier>
      <datestamp>2017-01-12T19:06:31Z</datestamp>
      <setSpec>user-biosyslit</setSpec>
    </header>
    <header>
      <identifier>oai:zenodo.org:240638</identifier>
      <datestamp>2017-01-12T11:08:09Z</datestamp>
      <setSpec>user-biosyslit</setSpec>
    </header>
    <header>
      <identifier>oai:zenodo.org:241449</identifier>
      <datestamp>2017-01-13T01:37:13Z</datestamp>
      <setSpec>user-biosyslit</setSpec>
    </header>
    <header>
      <identifier>oai:zenodo.org:271492</identifier>
      <datestamp>2017-02-08T01:49:06Z</datestamp>
      <setSpec>user-biosyslit</setSpec>
    </header>
    <header>
      <identifier>oai:zenodo.org:271491</identifier>
      <datestamp>2017-02-08T01:49:03Z</datestamp>
      <setSpec>user-biosyslit</setSpec>
    </header>
    <header>
      <identifier>oai:zenodo.org:271950</identifier>
      <datestamp>2017-02-08T03:09:16Z</datestamp>
      <setSpec>user-biosyslit</setSpec>
    </header>
    <header>
      <identifier>oai:zenodo.org:271792</identifier>
      <datestamp>2017-02-08T02:41:14Z</datestamp>
      <setSpec>user-biosyslit</setSpec>
    </header>
    <header>
      <identifier>oai:zenodo.org:241452</identifier>
      <datestamp>2017-01-13T01:40:16Z</datestamp>
      <setSpec>user-biosyslit</setSpec>
    </header>
    <header>
      <identifier>oai:zenodo.org:241214</identifier>
      <datestamp>2017-01-12T22:15:34Z</datestamp>
      <setSpec>user-biosyslit</setSpec>
    </header>
    <header>
      <identifier>oai:zenodo.org:241257</identifier>
      <datestamp>2017-01-12T22:45:15Z</datestamp>
      <setSpec>user-biosyslit</setSpec>
    </header>
    <header>
      <identifier>oai:zenodo.org:285288</identifier>
      <datestamp>2017-02-09T13:11:28Z</datestamp>
      <setSpec>user-biosyslit</setSpec>
    </header>
    <header>
      <identifier>oai:zenodo.org:452478</identifier>
      <datestamp>2017-04-04T07:36:42Z</datestamp>
      <setSpec>user-biosyslit</setSpec>
    </header>
    <header>
      <identifier>oai:zenodo.org:285290</identifier>
      <datestamp>2017-02-09T13:11:55Z</datestamp>
      <setSpec>user-biosyslit</setSpec>
    </header>
    <header>
      <identifier>oai:zenodo.org:452189</identifier>
      <datestamp>2017-04-04T07:32:40Z</datestamp>
      <setSpec>user-biosyslit</setSpec>
    </header>
    <header>
      <identifier>oai:zenodo.org:285967</identifier>
      <datestamp>2017-02-09T14:56:06Z</datestamp>
      <setSpec>user-biosyslit</setSpec>
    </header>
    <header>
      <identifier>oai:zenodo.org:287531</identifier>
      <datestamp>2017-02-09T18:32:42Z</datestamp>
      <setSpec>user-biosyslit</setSpec>
    </header>
    <header>
      <identifier>oai:zenodo.org:287693</identifier>
      <datestamp>2017-02-09T18:58:37Z</datestamp>
      <setSpec>user-biosyslit</setSpec>
    </header>
    <header>
      <identifier>oai:zenodo.org:288481</identifier>
      <datestamp>2017-02-09T21:03:33Z</datestamp>
      <setSpec>user-biosyslit</setSpec>
    </header>
    <header>
      <identifier>oai:zenodo.org:287690</identifier>
      <datestamp>2017-02-09T18:58:28Z</datestamp>
      <setSpec>user-biosyslit</setSpec>
    </header>
    <header>
      <identifier>oai:zenodo.org:288743</identifier>
      <datestamp>2017-02-09T21:50:13Z</datestamp>
      <setSpec>user-biosyslit</setSpec>
    </header>
    <header>
      <identifier>oai:zenodo.org:287104</identifier>
      <datestamp>2017-02-09T17:28:14Z</datestamp>
      <setSpec>user-biosyslit</setSpec>
    </header>
    <header>
      <identifier>oai:zenodo.org:288343</identifier>
      <datestamp>2017-02-09T20:40:56Z</datestamp>
      <setSpec>user-biosyslit</setSpec>
    </header>
    <header>
      <identifier>oai:zenodo.org:495037</identifier>
      <datestamp>2017-04-05T07:23:49Z</datestamp>
      <setSpec>user-biosyslit</setSpec>
    </header>
    <header>
      <identifier>oai:zenodo.org:287227</identifier>
      <datestamp>2017-02-09T17:48:55Z</datestamp>
      <setSpec>user-biosyslit</setSpec>
    </header>
    <header>
      <identifier>oai:zenodo.org:287635</identifier>
      <datestamp>2017-02-09T18:48:39Z</datestamp>
      <setSpec>user-biosyslit</setSpec>
    </header>
    <header>
      <identifier>oai:zenodo.org:495067</identifier>
      <datestamp>2017-04-05T07:36:52Z</datestamp>
      <setSpec>user-biosyslit</setSpec>
    </header>
    <header>
      <identifier>oai:zenodo.org:287314</identifier>
      <datestamp>2017-02-09T18:00:53Z</datestamp>
      <setSpec>user-biosyslit</setSpec>
    </header>
    <header>
      <identifier>oai:zenodo.org:288363</identifier>
      <datestamp>2017-02-09T20:44:18Z</datestamp>
      <setSpec>user-biosyslit</setSpec>
    </header>
    <header>
      <identifier>oai:zenodo.org:287627</identifier>
      <datestamp>2017-02-09T18:45:57Z</datestamp>
      <setSpec>user-biosyslit</setSpec>
    </header>
    <header>
      <identifier>oai:zenodo.org:287947</identifier>
      <datestamp>2017-02-09T19:40:05Z</datestamp>
      <setSpec>user-biosyslit</setSpec>
    </header>
    <header>
      <identifier>oai:zenodo.org:287788</identifier>
      <datestamp>2017-02-09T19:20:31Z</datestamp>
      <setSpec>user-biosyslit</setSpec>
    </header>
    <header>
      <identifier>oai:zenodo.org:288297</identifier>
      <datestamp>2017-02-09T20:32:51Z</datestamp>
      <setSpec>user-biosyslit</setSpec>
    </header>
    <header>
      <identifier>oai:zenodo.org:289311</identifier>
      <datestamp>2017-02-09T23:11:57Z</datestamp>
      <setSpec>user-biosyslit</setSpec>
    </header>
    <header>
      <identifier>oai:zenodo.org:289054</identifier>
      <datestamp>2017-02-09T22:32:42Z</datestamp>
      <setSpec>user-biosyslit</setSpec>
    </header>
    <header>
      <identifier>oai:zenodo.org:288751</identifier>
      <datestamp>2017-02-09T21:50:38Z</datestamp>
      <setSpec>user-biosyslit</setSpec>
    </header>
    <header>
      <identifier>oai:zenodo.org:289755</identifier>
      <datestamp>2017-02-10T00:25:44Z</datestamp>
      <setSpec>user-biosyslit</setSpec>
    </header>
    <header>
      <identifier>oai:zenodo.org:289545</identifier>
      <datestamp>2017-02-09T23:49:20Z</datestamp>
      <setSpec>user-biosyslit</setSpec>
    </header>
    <header>
      <identifier>oai:zenodo.org:226809</identifier>
      <datestamp>2017-01-01T03:34:44Z</datestamp>
      <setSpec>user-biosyslit</setSpec>
    </header>
    <header>
      <identifier>oai:zenodo.org:289003</identifier>
      <datestamp>2017-02-09T22:22:57Z</datestamp>
      <setSpec>user-biosyslit</setSpec>
    </header>
    <header>
      <identifier>oai:zenodo.org:227717</identifier>
      <datestamp>2017-01-02T02:34:00Z</datestamp>
      <setSpec>user-biosyslit</setSpec>
    </header>
    <header>
      <identifier>oai:zenodo.org:227658</identifier>
      <datestamp>2017-01-02T02:03:06Z</datestamp>
      <setSpec>user-biosyslit</setSpec>
    </header>
    <header>
      <identifier>oai:zenodo.org:227715</identifier>
      <datestamp>2017-01-02T02:33:53Z</datestamp>
      <setSpec>user-biosyslit</setSpec>
    </header>
    <header>
      <identifier>oai:zenodo.org:227225</identifier>
      <datestamp>2017-01-01T18:22:59Z</datestamp>
      <setSpec>user-biosyslit</setSpec>
    </header>
    <header>
      <identifier>oai:zenodo.org:227579</identifier>
      <datestamp>2017-01-02T00:05:18Z</datestamp>
      <setSpec>user-biosyslit</setSpec>
    </header>
    <header>
      <identifier>oai:zenodo.org:227279</identifier>
      <datestamp>2017-01-01T18:56:29Z</datestamp>
      <setSpec>user-biosyslit</setSpec>
    </header>
    <header>
      <identifier>oai:zenodo.org:227749</identifier>
      <datestamp>2017-01-02T03:26:57Z</datestamp>
      <setSpec>user-biosyslit</setSpec>
    </header>
    <header>
      <identifier>oai:zenodo.org:227724</identifier>
      <datestamp>2017-01-02T02:37:37Z</datestamp>
      <setSpec>user-biosyslit</setSpec>
    </header>
    <header>
      <identifier>oai:zenodo.org:227147</identifier>
      <datestamp>2017-01-01T17:30:31Z</datestamp>
      <setSpec>user-biosyslit</setSpec>
    </header>
    <header>
      <identifier>oai:zenodo.org:227747</identifier>
      <datestamp>2017-01-02T03:26:51Z</datestamp>
      <setSpec>user-biosyslit</setSpec>
    </header>
    <header>
      <identifier>oai:zenodo.org:228713</identifier>
      <datestamp>2017-01-03T03:47:43Z</datestamp>
      <setSpec>user-biosyslit</setSpec>
    </header>
    <header>
      <identifier>oai:zenodo.org:228835</identifier>
      <datestamp>2017-01-03T05:47:05Z</datestamp>
      <setSpec>user-biosyslit</setSpec>
    </header>
    <header>
      <identifier>oai:zenodo.org:286258</identifier>
      <datestamp>2017-02-09T15:38:52Z</datestamp>
      <setSpec>user-biosyslit</setSpec>
    </header>
    <header>
      <identifier>oai:zenodo.org:285759</identifier>
      <datestamp>2017-02-09T14:25:53Z</datestamp>
      <setSpec>user-biosyslit</setSpec>
    </header>
    <header>
      <identifier>oai:zenodo.org:285752</identifier>
      <datestamp>2017-02-09T14:25:36Z</datestamp>
      <setSpec>user-biosyslit</setSpec>
    </header>
    <header>
      <identifier>oai:zenodo.org:286165</identifier>
      <datestamp>2017-02-09T15:24:18Z</datestamp>
      <setSpec>user-biosyslit</setSpec>
    </header>
    <header>
      <identifier>oai:zenodo.org:285983</identifier>
      <datestamp>2017-02-09T14:59:31Z</datestamp>
      <setSpec>user-biosyslit</setSpec>
    </header>
    <header>
      <identifier>oai:zenodo.org:285970</identifier>
      <datestamp>2017-02-09T14:56:12Z</datestamp>
      <setSpec>user-biosyslit</setSpec>
    </header>
    <header>
      <identifier>oai:zenodo.org:286003</identifier>
      <datestamp>2017-02-09T15:01:33Z</datestamp>
      <setSpec>user-biosyslit</setSpec>
    </header>
    <header>
      <identifier>oai:zenodo.org:286290</identifier>
      <datestamp>2017-02-09T15:43:09Z</datestamp>
      <setSpec>user-biosyslit</setSpec>
    </header>
    <header>
      <identifier>oai:zenodo.org:285816</identifier>
      <datestamp>2017-02-09T14:36:38Z</datestamp>
      <setSpec>user-biosyslit</setSpec>
    </header>
    <header>
      <identifier>oai:zenodo.org:287033</identifier>
      <datestamp>2017-02-09T17:19:44Z</datestamp>
      <setSpec>user-biosyslit</setSpec>
    </header>
    <header>
      <identifier>oai:zenodo.org:287250</identifier>
      <datestamp>2017-02-09T17:53:51Z</datestamp>
      <setSpec>user-biosyslit</setSpec>
    </header>
    <header>
      <identifier>oai:zenodo.org:286086</identifier>
      <datestamp>2017-02-09T15:12:46Z</datestamp>
      <setSpec>user-biosyslit</setSpec>
    </header>
    <header>
      <identifier>oai:zenodo.org:286431</identifier>
      <datestamp>2017-02-09T15:59:34Z</datestamp>
      <setSpec>user-biosyslit</setSpec>
    </header>
    <header>
      <identifier>oai:zenodo.org:286398</identifier>
      <datestamp>2017-02-09T15:55:09Z</datestamp>
      <setSpec>user-biosyslit</setSpec>
    </header>
    <header>
      <identifier>oai:zenodo.org:287131</identifier>
      <datestamp>2017-02-09T17:31:16Z</datestamp>
      <setSpec>user-biosyslit</setSpec>
    </header>
    <header>
      <identifier>oai:zenodo.org:286643</identifier>
      <datestamp>2017-02-09T16:31:11Z</datestamp>
      <setSpec>user-biosyslit</setSpec>
    </header>
    <header>
      <identifier>oai:zenodo.org:286287</identifier>
      <datestamp>2017-02-09T15:43:02Z</datestamp>
      <setSpec>user-biosyslit</setSpec>
    </header>
    <header>
      <identifier>oai:zenodo.org:286850</identifier>
      <datestamp>2017-02-09T16:57:31Z</datestamp>
      <setSpec>user-biosyslit</setSpec>
    </header>
    <header>
      <identifier>oai:zenodo.org:286864</identifier>
      <datestamp>2017-02-09T16:58:09Z</datestamp>
      <setSpec>user-biosyslit</setSpec>
    </header>
    <header>
      <identifier>oai:zenodo.org:287279</identifier>
      <datestamp>2017-02-09T17:57:04Z</datestamp>
      <setSpec>user-biosyslit</setSpec>
    </header>
    <header>
      <identifier>oai:zenodo.org:287499</identifier>
      <datestamp>2017-02-09T18:28:24Z</datestamp>
      <setSpec>user-biosyslit</setSpec>
    </header>
    <header>
      <identifier>oai:zenodo.org:288218</identifier>
      <datestamp>2017-02-09T20:20:39Z</datestamp>
      <setSpec>user-biosyslit</setSpec>
    </header>
    <header>
      <identifier>oai:zenodo.org:226723</identifier>
      <datestamp>2017-01-01T02:32:48Z</datestamp>
      <setSpec>user-biosyslit</setSpec>
    </header>
    <header>
      <identifier>oai:zenodo.org:287320</identifier>
      <datestamp>2017-02-09T18:01:05Z</datestamp>
      <setSpec>user-biosyslit</setSpec>
    </header>
    <header>
      <identifier>oai:zenodo.org:287214</identifier>
      <datestamp>2017-02-09T17:47:05Z</datestamp>
      <setSpec>user-biosyslit</setSpec>
    </header>
    <header>
      <identifier>oai:zenodo.org:287734</identifier>
      <datestamp>2017-02-09T19:09:21Z</datestamp>
      <setSpec>user-biosyslit</setSpec>
    </header>
    <header>
      <identifier>oai:zenodo.org:287342</identifier>
      <datestamp>2017-02-09T18:04:53Z</datestamp>
      <setSpec>user-biosyslit</setSpec>
    </header>
    <header>
      <identifier>oai:zenodo.org:286942</identifier>
      <datestamp>2017-02-09T17:06:06Z</datestamp>
      <setSpec>user-biosyslit</setSpec>
    </header>
    <header>
      <identifier>oai:zenodo.org:288308</identifier>
      <datestamp>2017-02-09T20:33:24Z</datestamp>
      <setSpec>user-biosyslit</setSpec>
    </header>
    <header>
      <identifier>oai:zenodo.org:287804</identifier>
      <datestamp>2017-02-09T19:21:08Z</datestamp>
      <setSpec>user-biosyslit</setSpec>
    </header>
    <header>
      <identifier>oai:zenodo.org:288221</identifier>
      <datestamp>2017-02-09T20:20:48Z</datestamp>
      <setSpec>user-biosyslit</setSpec>
    </header>
    <header>
      <identifier>oai:zenodo.org:287534</identifier>
      <datestamp>2017-02-09T18:32:51Z</datestamp>
      <setSpec>user-biosyslit</setSpec>
    </header>
    <header>
      <identifier>oai:zenodo.org:495018</identifier>
      <datestamp>2017-04-05T07:10:37Z</datestamp>
      <setSpec>user-biosyslit</setSpec>
    </header>
    <header>
      <identifier>oai:zenodo.org:288054</identifier>
      <datestamp>2017-02-09T19:55:26Z</datestamp>
      <setSpec>user-biosyslit</setSpec>
    </header>
    <header>
      <identifier>oai:zenodo.org:287017</identifier>
      <datestamp>2017-02-09T17:19:10Z</datestamp>
      <setSpec>user-biosyslit</setSpec>
    </header>
    <header>
      <identifier>oai:zenodo.org:286038</identifier>
      <datestamp>2017-02-09T15:06:31Z</datestamp>
      <setSpec>user-biosyslit</setSpec>
    </header>
    <header>
      <identifier>oai:zenodo.org:286030</identifier>
      <datestamp>2017-02-09T15:05:47Z</datestamp>
      <setSpec>user-biosyslit</setSpec>
    </header>
    <header>
      <identifier>oai:zenodo.org:286055</identifier>
      <datestamp>2017-02-09T15:08:58Z</datestamp>
      <setSpec>user-biosyslit</setSpec>
    </header>
    <header>
      <identifier>oai:zenodo.org:286566</identifier>
      <datestamp>2017-02-09T16:22:59Z</datestamp>
      <setSpec>user-biosyslit</setSpec>
    </header>
    <header>
      <identifier>oai:zenodo.org:286015</identifier>
      <datestamp>2017-02-09T15:04:05Z</datestamp>
      <setSpec>user-biosyslit</setSpec>
    </header>
    <header>
      <identifier>oai:zenodo.org:286181</identifier>
      <datestamp>2017-02-09T15:28:15Z</datestamp>
      <setSpec>user-biosyslit</setSpec>
    </header>
    <header>
      <identifier>oai:zenodo.org:286436</identifier>
      <datestamp>2017-02-09T15:59:44Z</datestamp>
      <setSpec>user-biosyslit</setSpec>
    </header>
    <header>
      <identifier>oai:zenodo.org:286822</identifier>
      <datestamp>2017-02-09T16:54:19Z</datestamp>
      <setSpec>user-biosyslit</setSpec>
    </header>
    <header>
      <identifier>oai:zenodo.org:288003</identifier>
      <datestamp>2017-02-09T19:48:27Z</datestamp>
      <setSpec>user-biosyslit</setSpec>
    </header>
    <header>
      <identifier>oai:zenodo.org:287763</identifier>
      <datestamp>2017-02-09T19:12:28Z</datestamp>
      <setSpec>user-biosyslit</setSpec>
    </header>
    <resumptionToken expirationDate="2017-08-31T15:43:52Z" cursor="13200" completeListSize="77796">.eJyNys8PQlAcAPD_5Xu29n6IsnUxMgeMF4tLE2byqHk1vOZ_z6VznT-fN4iqKsFAG4o0FdMt2uvajuwRUUAUw53zS7MyFOeEFz2Pcyd5RV2CUlLrviUmz0qpL1sUdFiyY0jOeDfFDZrDU_xMZTQl1B0ZsnVPhrN_c9dX0sDh2dV5sLg3OSPlENjhzLDJMlp8H_7zyZ_PEgdQ4JHXFRiYqgq0Yz7UAoz3snwAl1hRNA.DIm_wA.4f0vQitcUHYUJq0XWo0XUjrB3g0</resumptionToken>
  </ListIdentifiers>
</OAI-PMH>
