<?xml version='1.0' encoding='UTF-8'?>
<?xml-stylesheet type="text/xsl" href="/static/xsl/oai2.v1.0.xsl"?>
<OAI-PMH xmlns="http://www.openarchives.org/OAI/2.0/" xmlns:xsi="http://www.w3.org/2001/XMLSchema-instance" xsi:schemaLocation="http://www.openarchives.org/OAI/2.0/ http://www.openarchives.org/OAI/2.0/OAI-PMH.xsd">
  <responseDate>2017-08-31T14:32:46Z</responseDate>
  <request verb="ListIdentifiers" resumptionToken=".eJwVzdFOgzAYQOF36TUxbZkWuNsCkhl_CCstgxuDgDApiIABuuzdN69P8p0rmqqqRA5-erbxDtuWxUxG8YtJDDQV449SH5dHRsVZqqJXIvfl36mTOKU1C9xpBTclQSx02BHNXyN6JtYqLniLYjGn-rRK87hw7DHQ0QK6pmFXmqGvsk9_4KI_KE7LMfSijZMDz8yCQbynD4_A9zAXuBGBsr9AHmdoPfKeAC5kuYE3H0INGFzYBfHQl7oZkmT9FeptycTc57rxoJ0j8f_Se4YMNOR1hRzKDNQu-VhPyLnebndvPVIO.DImvWQ._SZFmPebbQKSnqrq2DKmUmHeiFQ">https://zenodo.org/oai2d</request>
  <ListIdentifiers>
    <header>
      <identifier>oai:zenodo.org:180143</identifier>
      <datestamp>2016-12-20T02:00:37Z</datestamp>
      <setSpec>user-biosyslit</setSpec>
    </header>
    <header>
      <identifier>oai:zenodo.org:180292</identifier>
      <datestamp>2016-11-28T23:48:28Z</datestamp>
      <setSpec>user-biosyslit</setSpec>
    </header>
    <header>
      <identifier>oai:zenodo.org:218773</identifier>
      <datestamp>2016-12-22T16:31:39Z</datestamp>
      <setSpec>user-biosyslit</setSpec>
    </header>
    <header>
      <identifier>oai:zenodo.org:218732</identifier>
      <datestamp>2016-12-22T16:16:29Z</datestamp>
      <setSpec>user-biosyslit</setSpec>
    </header>
    <header>
      <identifier>oai:zenodo.org:180164</identifier>
      <datestamp>2016-12-20T02:00:17Z</datestamp>
      <setSpec>user-biosyslit</setSpec>
    </header>
    <header>
      <identifier>oai:zenodo.org:180294</identifier>
      <datestamp>2016-12-20T02:00:37Z</datestamp>
      <setSpec>user-biosyslit</setSpec>
    </header>
    <header>
      <identifier>oai:zenodo.org:180446</identifier>
      <datestamp>2016-12-20T02:00:38Z</datestamp>
      <setSpec>user-biosyslit</setSpec>
    </header>
    <header>
      <identifier>oai:zenodo.org:218928</identifier>
      <datestamp>2016-12-22T17:24:48Z</datestamp>
      <setSpec>user-biosyslit</setSpec>
    </header>
    <header>
      <identifier>oai:zenodo.org:180451</identifier>
      <datestamp>2016-12-20T02:00:38Z</datestamp>
      <setSpec>user-biosyslit</setSpec>
    </header>
    <header>
      <identifier>oai:zenodo.org:180409</identifier>
      <datestamp>2016-11-29T00:13:26Z</datestamp>
      <setSpec>user-biosyslit</setSpec>
    </header>
    <header>
      <identifier>oai:zenodo.org:180377</identifier>
      <datestamp>2016-12-20T02:00:16Z</datestamp>
      <setSpec>user-biosyslit</setSpec>
    </header>
    <header>
      <identifier>oai:zenodo.org:218858</identifier>
      <datestamp>2016-12-22T16:57:27Z</datestamp>
      <setSpec>user-biosyslit</setSpec>
    </header>
    <header>
      <identifier>oai:zenodo.org:181346</identifier>
      <datestamp>2016-12-20T02:00:50Z</datestamp>
      <setSpec>user-biosyslit</setSpec>
    </header>
    <header>
      <identifier>oai:zenodo.org:219687</identifier>
      <datestamp>2016-12-22T22:00:09Z</datestamp>
      <setSpec>user-biosyslit</setSpec>
    </header>
    <header>
      <identifier>oai:zenodo.org:180779</identifier>
      <datestamp>2016-12-20T02:00:55Z</datestamp>
      <setSpec>user-biosyslit</setSpec>
    </header>
    <header>
      <identifier>oai:zenodo.org:219752</identifier>
      <datestamp>2016-12-22T22:22:55Z</datestamp>
      <setSpec>user-biosyslit</setSpec>
    </header>
    <header>
      <identifier>oai:zenodo.org:218929</identifier>
      <datestamp>2016-12-22T17:24:54Z</datestamp>
      <setSpec>user-biosyslit</setSpec>
    </header>
    <header>
      <identifier>oai:zenodo.org:195412</identifier>
      <datestamp>2016-12-20T02:01:41Z</datestamp>
      <setSpec>user-biosyslit</setSpec>
    </header>
    <header>
      <identifier>oai:zenodo.org:219121</identifier>
      <datestamp>2016-12-22T18:18:43Z</datestamp>
      <setSpec>user-biosyslit</setSpec>
    </header>
    <header>
      <identifier>oai:zenodo.org:219358</identifier>
      <datestamp>2016-12-22T19:30:36Z</datestamp>
      <setSpec>user-biosyslit</setSpec>
    </header>
    <header>
      <identifier>oai:zenodo.org:180962</identifier>
      <datestamp>2016-12-20T02:01:03Z</datestamp>
      <setSpec>user-biosyslit</setSpec>
    </header>
    <header>
      <identifier>oai:zenodo.org:154107</identifier>
      <datestamp>2016-12-13T12:01:30Z</datestamp>
      <setSpec>openaire</setSpec>
      <setSpec>user-biosyslit</setSpec>
    </header>
    <header>
      <identifier>oai:zenodo.org:181177</identifier>
      <datestamp>2016-12-20T02:00:18Z</datestamp>
      <setSpec>user-biosyslit</setSpec>
    </header>
    <header>
      <identifier>oai:zenodo.org:219073</identifier>
      <datestamp>2016-12-22T18:07:13Z</datestamp>
      <setSpec>user-biosyslit</setSpec>
    </header>
    <header>
      <identifier>oai:zenodo.org:573683</identifier>
      <datestamp>2017-05-10T09:07:11Z</datestamp>
      <setSpec>user-biosyslit</setSpec>
    </header>
    <header>
      <identifier>oai:zenodo.org:197309</identifier>
      <datestamp>2016-12-20T02:01:49Z</datestamp>
      <setSpec>user-biosyslit</setSpec>
    </header>
    <header>
      <identifier>oai:zenodo.org:181831</identifier>
      <datestamp>2016-12-20T02:00:50Z</datestamp>
      <setSpec>user-biosyslit</setSpec>
    </header>
    <header>
      <identifier>oai:zenodo.org:182046</identifier>
      <datestamp>2016-11-29T07:50:21Z</datestamp>
      <setSpec>user-biosyslit</setSpec>
    </header>
    <header>
      <identifier>oai:zenodo.org:196027</identifier>
      <datestamp>2016-12-07T21:19:35Z</datestamp>
      <setSpec>user-biosyslit</setSpec>
    </header>
    <header>
      <identifier>oai:zenodo.org:181740</identifier>
      <datestamp>2016-12-20T02:00:55Z</datestamp>
      <setSpec>user-biosyslit</setSpec>
    </header>
    <header>
      <identifier>oai:zenodo.org:343865</identifier>
      <datestamp>2017-02-28T09:52:24Z</datestamp>
      <setSpec>user-biosyslit</setSpec>
    </header>
    <header>
      <identifier>oai:zenodo.org:273967</identifier>
      <datestamp>2017-02-08T11:41:02Z</datestamp>
      <setSpec>user-biosyslit</setSpec>
    </header>
    <header>
      <identifier>oai:zenodo.org:273903</identifier>
      <datestamp>2017-02-08T11:10:21Z</datestamp>
      <setSpec>user-biosyslit</setSpec>
    </header>
    <header>
      <identifier>oai:zenodo.org:262496</identifier>
      <datestamp>2017-01-29T04:49:40Z</datestamp>
      <setSpec>user-biosyslit</setSpec>
    </header>
    <header>
      <identifier>oai:zenodo.org:263013</identifier>
      <datestamp>2017-01-29T14:43:19Z</datestamp>
      <setSpec>user-biosyslit</setSpec>
    </header>
    <header>
      <identifier>oai:zenodo.org:262544</identifier>
      <datestamp>2017-01-29T05:26:28Z</datestamp>
      <setSpec>user-biosyslit</setSpec>
    </header>
    <header>
      <identifier>oai:zenodo.org:262773</identifier>
      <datestamp>2017-01-29T08:35:51Z</datestamp>
      <setSpec>user-biosyslit</setSpec>
    </header>
    <header>
      <identifier>oai:zenodo.org:263905</identifier>
      <datestamp>2017-01-30T10:03:30Z</datestamp>
      <setSpec>user-biosyslit</setSpec>
    </header>
    <header>
      <identifier>oai:zenodo.org:263274</identifier>
      <datestamp>2017-01-29T20:24:34Z</datestamp>
      <setSpec>user-biosyslit</setSpec>
    </header>
    <header>
      <identifier>oai:zenodo.org:263227</identifier>
      <datestamp>2017-01-29T19:11:55Z</datestamp>
      <setSpec>user-biosyslit</setSpec>
    </header>
    <header>
      <identifier>oai:zenodo.org:264421</identifier>
      <datestamp>2017-01-30T21:17:46Z</datestamp>
      <setSpec>user-biosyslit</setSpec>
    </header>
    <header>
      <identifier>oai:zenodo.org:263270</identifier>
      <datestamp>2017-01-29T20:15:13Z</datestamp>
      <setSpec>user-biosyslit</setSpec>
    </header>
    <header>
      <identifier>oai:zenodo.org:262935</identifier>
      <datestamp>2017-01-29T13:26:15Z</datestamp>
      <setSpec>user-biosyslit</setSpec>
    </header>
    <header>
      <identifier>oai:zenodo.org:264170</identifier>
      <datestamp>2017-01-30T14:29:02Z</datestamp>
      <setSpec>user-biosyslit</setSpec>
    </header>
    <header>
      <identifier>oai:zenodo.org:264626</identifier>
      <datestamp>2017-01-31T00:10:23Z</datestamp>
      <setSpec>user-biosyslit</setSpec>
    </header>
    <header>
      <identifier>oai:zenodo.org:263065</identifier>
      <datestamp>2017-01-29T15:52:54Z</datestamp>
      <setSpec>user-biosyslit</setSpec>
    </header>
    <header>
      <identifier>oai:zenodo.org:263530</identifier>
      <datestamp>2017-01-30T00:00:37Z</datestamp>
      <setSpec>user-biosyslit</setSpec>
    </header>
    <header>
      <identifier>oai:zenodo.org:279674</identifier>
      <datestamp>2017-02-09T01:47:58Z</datestamp>
      <setSpec>user-biosyslit</setSpec>
    </header>
    <header>
      <identifier>oai:zenodo.org:264177</identifier>
      <datestamp>2017-01-30T14:29:23Z</datestamp>
      <setSpec>user-biosyslit</setSpec>
    </header>
    <header>
      <identifier>oai:zenodo.org:265818</identifier>
      <datestamp>2017-01-31T21:48:08Z</datestamp>
      <setSpec>user-biosyslit</setSpec>
    </header>
    <header>
      <identifier>oai:zenodo.org:265599</identifier>
      <datestamp>2017-01-31T17:30:59Z</datestamp>
      <setSpec>user-biosyslit</setSpec>
    </header>
    <header>
      <identifier>oai:zenodo.org:264400</identifier>
      <datestamp>2017-01-30T20:56:40Z</datestamp>
      <setSpec>user-biosyslit</setSpec>
    </header>
    <header>
      <identifier>oai:zenodo.org:264902</identifier>
      <datestamp>2017-01-31T04:14:18Z</datestamp>
      <setSpec>user-biosyslit</setSpec>
    </header>
    <header>
      <identifier>oai:zenodo.org:265626</identifier>
      <datestamp>2017-01-31T17:52:32Z</datestamp>
      <setSpec>user-biosyslit</setSpec>
    </header>
    <header>
      <identifier>oai:zenodo.org:265473</identifier>
      <datestamp>2017-01-31T14:24:29Z</datestamp>
      <setSpec>user-biosyslit</setSpec>
    </header>
    <header>
      <identifier>oai:zenodo.org:265659</identifier>
      <datestamp>2017-01-31T18:27:04Z</datestamp>
      <setSpec>user-biosyslit</setSpec>
    </header>
    <header>
      <identifier>oai:zenodo.org:265468</identifier>
      <datestamp>2017-01-31T14:24:13Z</datestamp>
      <setSpec>user-biosyslit</setSpec>
    </header>
    <header>
      <identifier>oai:zenodo.org:265814</identifier>
      <datestamp>2017-01-31T21:47:56Z</datestamp>
      <setSpec>user-biosyslit</setSpec>
    </header>
    <header>
      <identifier>oai:zenodo.org:274685</identifier>
      <datestamp>2017-02-08T14:00:42Z</datestamp>
      <setSpec>user-biosyslit</setSpec>
    </header>
    <header>
      <identifier>oai:zenodo.org:265788</identifier>
      <datestamp>2017-01-31T21:04:39Z</datestamp>
      <setSpec>user-biosyslit</setSpec>
    </header>
    <header>
      <identifier>oai:zenodo.org:265767</identifier>
      <datestamp>2017-01-31T20:29:28Z</datestamp>
      <setSpec>user-biosyslit</setSpec>
    </header>
    <header>
      <identifier>oai:zenodo.org:265920</identifier>
      <datestamp>2017-01-31T23:16:17Z</datestamp>
      <setSpec>user-biosyslit</setSpec>
    </header>
    <header>
      <identifier>oai:zenodo.org:267080</identifier>
      <datestamp>2017-02-01T18:58:02Z</datestamp>
      <setSpec>user-biosyslit</setSpec>
    </header>
    <header>
      <identifier>oai:zenodo.org:266203</identifier>
      <datestamp>2017-02-01T02:37:11Z</datestamp>
      <setSpec>user-biosyslit</setSpec>
    </header>
    <header>
      <identifier>oai:zenodo.org:266145</identifier>
      <datestamp>2017-02-01T01:17:06Z</datestamp>
      <setSpec>user-biosyslit</setSpec>
    </header>
    <header>
      <identifier>oai:zenodo.org:266575</identifier>
      <datestamp>2017-02-01T12:04:10Z</datestamp>
      <setSpec>user-biosyslit</setSpec>
    </header>
    <header>
      <identifier>oai:zenodo.org:266902</identifier>
      <datestamp>2017-02-01T16:26:32Z</datestamp>
      <setSpec>user-biosyslit</setSpec>
    </header>
    <header>
      <identifier>oai:zenodo.org:266547</identifier>
      <datestamp>2017-02-01T12:02:24Z</datestamp>
      <setSpec>user-biosyslit</setSpec>
    </header>
    <header>
      <identifier>oai:zenodo.org:267834</identifier>
      <datestamp>2017-02-02T07:50:47Z</datestamp>
      <setSpec>user-biosyslit</setSpec>
    </header>
    <header>
      <identifier>oai:zenodo.org:267269</identifier>
      <datestamp>2017-02-01T23:36:11Z</datestamp>
      <setSpec>user-biosyslit</setSpec>
    </header>
    <header>
      <identifier>oai:zenodo.org:267398</identifier>
      <datestamp>2017-02-02T01:41:56Z</datestamp>
      <setSpec>user-biosyslit</setSpec>
    </header>
    <header>
      <identifier>oai:zenodo.org:266820</identifier>
      <datestamp>2017-02-01T15:22:44Z</datestamp>
      <setSpec>user-biosyslit</setSpec>
    </header>
    <header>
      <identifier>oai:zenodo.org:267239</identifier>
      <datestamp>2017-02-01T23:15:24Z</datestamp>
      <setSpec>user-biosyslit</setSpec>
    </header>
    <header>
      <identifier>oai:zenodo.org:267004</identifier>
      <datestamp>2017-02-01T18:02:34Z</datestamp>
      <setSpec>user-biosyslit</setSpec>
    </header>
    <header>
      <identifier>oai:zenodo.org:267723</identifier>
      <datestamp>2017-02-02T06:23:10Z</datestamp>
      <setSpec>user-biosyslit</setSpec>
    </header>
    <header>
      <identifier>oai:zenodo.org:268113</identifier>
      <datestamp>2017-02-03T01:33:46Z</datestamp>
      <setSpec>user-biosyslit</setSpec>
    </header>
    <header>
      <identifier>oai:zenodo.org:267572</identifier>
      <datestamp>2017-02-02T04:05:26Z</datestamp>
      <setSpec>user-biosyslit</setSpec>
    </header>
    <header>
      <identifier>oai:zenodo.org:267407</identifier>
      <datestamp>2017-02-02T01:42:21Z</datestamp>
      <setSpec>user-biosyslit</setSpec>
    </header>
    <header>
      <identifier>oai:zenodo.org:268182</identifier>
      <datestamp>2017-02-03T02:56:55Z</datestamp>
      <setSpec>user-biosyslit</setSpec>
    </header>
    <header>
      <identifier>oai:zenodo.org:268326</identifier>
      <datestamp>2017-02-03T11:18:20Z</datestamp>
      <setSpec>user-biosyslit</setSpec>
    </header>
    <header>
      <identifier>oai:zenodo.org:267913</identifier>
      <datestamp>2017-02-02T09:27:15Z</datestamp>
      <setSpec>user-biosyslit</setSpec>
    </header>
    <header>
      <identifier>oai:zenodo.org:269180</identifier>
      <datestamp>2017-02-06T23:01:20Z</datestamp>
      <setSpec>user-biosyslit</setSpec>
    </header>
    <header>
      <identifier>oai:zenodo.org:268201</identifier>
      <datestamp>2017-02-03T02:57:47Z</datestamp>
      <setSpec>user-biosyslit</setSpec>
    </header>
    <header>
      <identifier>oai:zenodo.org:267893</identifier>
      <datestamp>2017-02-02T09:05:37Z</datestamp>
      <setSpec>user-biosyslit</setSpec>
    </header>
    <header>
      <identifier>oai:zenodo.org:269162</identifier>
      <datestamp>2017-02-06T22:54:26Z</datestamp>
      <setSpec>user-biosyslit</setSpec>
    </header>
    <header>
      <identifier>oai:zenodo.org:268072</identifier>
      <datestamp>2017-02-03T01:16:51Z</datestamp>
      <setSpec>user-biosyslit</setSpec>
    </header>
    <header>
      <identifier>oai:zenodo.org:268261</identifier>
      <datestamp>2017-02-03T04:59:31Z</datestamp>
      <setSpec>user-biosyslit</setSpec>
    </header>
    <header>
      <identifier>oai:zenodo.org:269276</identifier>
      <datestamp>2017-02-06T23:47:28Z</datestamp>
      <setSpec>user-biosyslit</setSpec>
    </header>
    <header>
      <identifier>oai:zenodo.org:269319</identifier>
      <datestamp>2017-02-06T23:53:50Z</datestamp>
      <setSpec>user-biosyslit</setSpec>
    </header>
    <header>
      <identifier>oai:zenodo.org:275254</identifier>
      <datestamp>2017-02-08T15:48:42Z</datestamp>
      <setSpec>user-biosyslit</setSpec>
    </header>
    <header>
      <identifier>oai:zenodo.org:275070</identifier>
      <datestamp>2017-02-08T15:14:07Z</datestamp>
      <setSpec>user-biosyslit</setSpec>
    </header>
    <header>
      <identifier>oai:zenodo.org:275214</identifier>
      <datestamp>2017-02-08T15:42:56Z</datestamp>
      <setSpec>user-biosyslit</setSpec>
    </header>
    <header>
      <identifier>oai:zenodo.org:275551</identifier>
      <datestamp>2017-02-08T16:40:17Z</datestamp>
      <setSpec>user-biosyslit</setSpec>
    </header>
    <header>
      <identifier>oai:zenodo.org:275485</identifier>
      <datestamp>2017-02-08T16:33:07Z</datestamp>
      <setSpec>user-biosyslit</setSpec>
    </header>
    <header>
      <identifier>oai:zenodo.org:277966</identifier>
      <datestamp>2017-02-08T22:10:38Z</datestamp>
      <setSpec>user-biosyslit</setSpec>
    </header>
    <header>
      <identifier>oai:zenodo.org:276905</identifier>
      <datestamp>2017-02-08T19:57:24Z</datestamp>
      <setSpec>user-biosyslit</setSpec>
    </header>
    <header>
      <identifier>oai:zenodo.org:276994</identifier>
      <datestamp>2017-02-08T20:09:41Z</datestamp>
      <setSpec>user-biosyslit</setSpec>
    </header>
    <header>
      <identifier>oai:zenodo.org:277373</identifier>
      <datestamp>2017-02-08T21:00:05Z</datestamp>
      <setSpec>user-biosyslit</setSpec>
    </header>
    <header>
      <identifier>oai:zenodo.org:278009</identifier>
      <datestamp>2017-02-08T22:16:11Z</datestamp>
      <setSpec>user-biosyslit</setSpec>
    </header>
    <header>
      <identifier>oai:zenodo.org:278634</identifier>
      <datestamp>2017-02-08T23:33:33Z</datestamp>
      <setSpec>user-biosyslit</setSpec>
    </header>
    <resumptionToken expirationDate="2017-08-31T14:34:46Z" cursor="2600" completeListSize="142507">.eJwVzdFuREAYQOF3mWtpZkax3K1Q2aY_scxYbhodytZQRYPZ7Lt3e32S79zQXNcVcvCTYZqWQW1bNwgxqGFqaBbTt5Tv10dG4sKlGCQrA_577jnOaWOF3ryBl5MwZSrqiUpeYnohh41d8R6nbMnVeeP6aU2wb4GKV1ANjfpKjwJZfARjwgZXJrSaIj_eE-ImhS4sSI_04RH4GheBWxZK-xP4aYHOJ28ZYMGrHfzFjRRg8OA5TMehUu2YZdsPk69rwZahVK0P3RKz_5c6WkhDY9nUyKEHDXVrOTUzcm73-x9z21IU.DImvjg.SFThWebq9S2UKDWOKF_3Yf_DvHc</resumptionToken>
  </ListIdentifiers>
</OAI-PMH>
