<?xml version='1.0' encoding='UTF-8'?>
<?xml-stylesheet type="text/xsl" href="/static/xsl/oai2.v1.0.xsl"?>
<OAI-PMH xmlns="http://www.openarchives.org/OAI/2.0/" xmlns:xsi="http://www.w3.org/2001/XMLSchema-instance" xsi:schemaLocation="http://www.openarchives.org/OAI/2.0/ http://www.openarchives.org/OAI/2.0/OAI-PMH.xsd">
  <responseDate>2017-08-31T15:45:54Z</responseDate>
  <request verb="ListIdentifiers" resumptionToken=".eJyNyj0PQ0AYAOD_8s7S3EeDSLqIVgwIV4KlUUTUUXFtcOK_19K5nZ9nBVFVJRjooGr6kWJKCKZHrKtEAVGMT85vzc5QJDEveh7ldvwOuxilpNY8S8yulVJPtsjvsGSXgCRYn6MGLcE1eqUynGPqTAydNVcGi_dw9ldS3-bZ3R5Y1JuckXL0z8HCsMkyWnwf_vPJn88SJ1BgyOsKDA0hBdopH2sBxrptH5P5US8.DInAsg.jMvfSTc50qm8dMTlqR6pDAfkL8E">https://zenodo.org/oai2d</request>
  <ListIdentifiers>
    <header>
      <identifier>oai:zenodo.org:270843</identifier>
      <datestamp>2017-02-08T00:02:22Z</datestamp>
      <setSpec>user-biosyslit</setSpec>
    </header>
    <header>
      <identifier>oai:zenodo.org:276820</identifier>
      <datestamp>2017-02-08T19:45:46Z</datestamp>
      <setSpec>user-biosyslit</setSpec>
    </header>
    <header>
      <identifier>oai:zenodo.org:278479</identifier>
      <datestamp>2017-02-08T23:16:21Z</datestamp>
      <setSpec>user-biosyslit</setSpec>
    </header>
    <header>
      <identifier>oai:zenodo.org:278480</identifier>
      <datestamp>2017-02-08T23:16:20Z</datestamp>
      <setSpec>user-biosyslit</setSpec>
    </header>
    <header>
      <identifier>oai:zenodo.org:293917</identifier>
      <datestamp>2017-02-20T18:58:59Z</datestamp>
      <setSpec>user-biosyslit</setSpec>
    </header>
    <header>
      <identifier>oai:zenodo.org:293919</identifier>
      <datestamp>2017-02-20T18:59:03Z</datestamp>
      <setSpec>user-biosyslit</setSpec>
    </header>
    <header>
      <identifier>oai:zenodo.org:293918</identifier>
      <datestamp>2017-02-20T18:59:01Z</datestamp>
      <setSpec>user-biosyslit</setSpec>
    </header>
    <header>
      <identifier>oai:zenodo.org:293920</identifier>
      <datestamp>2017-02-20T18:59:05Z</datestamp>
      <setSpec>user-biosyslit</setSpec>
    </header>
    <header>
      <identifier>oai:zenodo.org:293916</identifier>
      <datestamp>2017-02-20T18:58:56Z</datestamp>
      <setSpec>user-biosyslit</setSpec>
    </header>
    <header>
      <identifier>oai:zenodo.org:243208</identifier>
      <datestamp>2017-01-14T00:42:27Z</datestamp>
      <setSpec>user-biosyslit</setSpec>
    </header>
    <header>
      <identifier>oai:zenodo.org:243210</identifier>
      <datestamp>2017-01-14T00:42:38Z</datestamp>
      <setSpec>user-biosyslit</setSpec>
    </header>
    <header>
      <identifier>oai:zenodo.org:243209</identifier>
      <datestamp>2017-01-14T00:42:32Z</datestamp>
      <setSpec>user-biosyslit</setSpec>
    </header>
    <header>
      <identifier>oai:zenodo.org:228008</identifier>
      <datestamp>2017-01-02T08:26:28Z</datestamp>
      <setSpec>user-biosyslit</setSpec>
    </header>
    <header>
      <identifier>oai:zenodo.org:235682</identifier>
      <datestamp>2017-01-09T13:36:41Z</datestamp>
      <setSpec>user-biosyslit</setSpec>
    </header>
    <header>
      <identifier>oai:zenodo.org:235681</identifier>
      <datestamp>2017-01-09T13:36:37Z</datestamp>
      <setSpec>user-biosyslit</setSpec>
    </header>
    <header>
      <identifier>oai:zenodo.org:238017</identifier>
      <datestamp>2017-01-10T23:47:39Z</datestamp>
      <setSpec>user-biosyslit</setSpec>
    </header>
    <header>
      <identifier>oai:zenodo.org:238015</identifier>
      <datestamp>2017-01-10T23:47:34Z</datestamp>
      <setSpec>user-biosyslit</setSpec>
    </header>
    <header>
      <identifier>oai:zenodo.org:238016</identifier>
      <datestamp>2017-01-10T23:47:36Z</datestamp>
      <setSpec>user-biosyslit</setSpec>
    </header>
    <header>
      <identifier>oai:zenodo.org:231069</identifier>
      <datestamp>2017-01-05T14:01:54Z</datestamp>
      <setSpec>user-biosyslit</setSpec>
    </header>
    <header>
      <identifier>oai:zenodo.org:232101</identifier>
      <datestamp>2017-01-06T11:08:40Z</datestamp>
      <setSpec>user-biosyslit</setSpec>
    </header>
    <header>
      <identifier>oai:zenodo.org:231072</identifier>
      <datestamp>2017-01-05T14:01:50Z</datestamp>
      <setSpec>user-biosyslit</setSpec>
    </header>
    <header>
      <identifier>oai:zenodo.org:231073</identifier>
      <datestamp>2017-01-05T14:01:53Z</datestamp>
      <setSpec>user-biosyslit</setSpec>
    </header>
    <header>
      <identifier>oai:zenodo.org:231071</identifier>
      <datestamp>2017-01-05T14:01:47Z</datestamp>
      <setSpec>user-biosyslit</setSpec>
    </header>
    <header>
      <identifier>oai:zenodo.org:231070</identifier>
      <datestamp>2017-01-05T14:01:44Z</datestamp>
      <setSpec>user-biosyslit</setSpec>
    </header>
    <header>
      <identifier>oai:zenodo.org:270580</identifier>
      <datestamp>2017-02-07T23:32:48Z</datestamp>
      <setSpec>user-biosyslit</setSpec>
    </header>
    <header>
      <identifier>oai:zenodo.org:275293</identifier>
      <datestamp>2017-02-08T16:00:25Z</datestamp>
      <setSpec>user-biosyslit</setSpec>
    </header>
    <header>
      <identifier>oai:zenodo.org:273335</identifier>
      <datestamp>2017-02-08T09:00:40Z</datestamp>
      <setSpec>user-biosyslit</setSpec>
    </header>
    <header>
      <identifier>oai:zenodo.org:270582</identifier>
      <datestamp>2017-02-07T23:32:41Z</datestamp>
      <setSpec>user-biosyslit</setSpec>
    </header>
    <header>
      <identifier>oai:zenodo.org:270581</identifier>
      <datestamp>2017-02-07T23:32:39Z</datestamp>
      <setSpec>user-biosyslit</setSpec>
    </header>
    <header>
      <identifier>oai:zenodo.org:270583</identifier>
      <datestamp>2017-02-07T23:32:43Z</datestamp>
      <setSpec>user-biosyslit</setSpec>
    </header>
    <header>
      <identifier>oai:zenodo.org:231264</identifier>
      <datestamp>2017-01-05T18:10:14Z</datestamp>
      <setSpec>user-biosyslit</setSpec>
    </header>
    <header>
      <identifier>oai:zenodo.org:231265</identifier>
      <datestamp>2017-01-05T18:10:17Z</datestamp>
      <setSpec>user-biosyslit</setSpec>
    </header>
    <header>
      <identifier>oai:zenodo.org:231268</identifier>
      <datestamp>2017-01-05T18:10:28Z</datestamp>
      <setSpec>user-biosyslit</setSpec>
    </header>
    <header>
      <identifier>oai:zenodo.org:282812</identifier>
      <datestamp>2017-02-09T07:39:58Z</datestamp>
      <setSpec>user-biosyslit</setSpec>
    </header>
    <header>
      <identifier>oai:zenodo.org:282811</identifier>
      <datestamp>2017-02-09T07:39:56Z</datestamp>
      <setSpec>user-biosyslit</setSpec>
    </header>
    <header>
      <identifier>oai:zenodo.org:282810</identifier>
      <datestamp>2017-02-09T07:39:54Z</datestamp>
      <setSpec>user-biosyslit</setSpec>
    </header>
    <header>
      <identifier>oai:zenodo.org:282813</identifier>
      <datestamp>2017-02-09T07:40:00Z</datestamp>
      <setSpec>user-biosyslit</setSpec>
    </header>
    <header>
      <identifier>oai:zenodo.org:257183</identifier>
      <datestamp>2017-01-23T03:21:52Z</datestamp>
      <setSpec>user-biosyslit</setSpec>
    </header>
    <header>
      <identifier>oai:zenodo.org:281375</identifier>
      <datestamp>2017-02-09T05:12:54Z</datestamp>
      <setSpec>user-biosyslit</setSpec>
    </header>
    <header>
      <identifier>oai:zenodo.org:281376</identifier>
      <datestamp>2017-02-09T05:12:56Z</datestamp>
      <setSpec>user-biosyslit</setSpec>
    </header>
    <header>
      <identifier>oai:zenodo.org:281374</identifier>
      <datestamp>2017-02-09T05:12:52Z</datestamp>
      <setSpec>user-biosyslit</setSpec>
    </header>
    <header>
      <identifier>oai:zenodo.org:257191</identifier>
      <datestamp>2017-01-23T03:21:48Z</datestamp>
      <setSpec>user-biosyslit</setSpec>
    </header>
    <header>
      <identifier>oai:zenodo.org:257190</identifier>
      <datestamp>2017-01-23T03:21:46Z</datestamp>
      <setSpec>user-biosyslit</setSpec>
    </header>
    <header>
      <identifier>oai:zenodo.org:281378</identifier>
      <datestamp>2017-02-09T05:13:02Z</datestamp>
      <setSpec>user-biosyslit</setSpec>
    </header>
    <header>
      <identifier>oai:zenodo.org:281373</identifier>
      <datestamp>2017-02-09T05:12:49Z</datestamp>
      <setSpec>user-biosyslit</setSpec>
    </header>
    <header>
      <identifier>oai:zenodo.org:281377</identifier>
      <datestamp>2017-02-09T05:12:59Z</datestamp>
      <setSpec>user-biosyslit</setSpec>
    </header>
    <header>
      <identifier>oai:zenodo.org:270521</identifier>
      <datestamp>2017-02-07T23:25:03Z</datestamp>
      <setSpec>user-biosyslit</setSpec>
    </header>
    <header>
      <identifier>oai:zenodo.org:288640</identifier>
      <datestamp>2017-02-09T21:37:17Z</datestamp>
      <setSpec>user-biosyslit</setSpec>
    </header>
    <header>
      <identifier>oai:zenodo.org:288646</identifier>
      <datestamp>2017-02-09T21:37:31Z</datestamp>
      <setSpec>user-biosyslit</setSpec>
    </header>
    <header>
      <identifier>oai:zenodo.org:288641</identifier>
      <datestamp>2017-02-09T21:37:19Z</datestamp>
      <setSpec>user-biosyslit</setSpec>
    </header>
    <header>
      <identifier>oai:zenodo.org:288643</identifier>
      <datestamp>2017-02-09T21:37:24Z</datestamp>
      <setSpec>user-biosyslit</setSpec>
    </header>
    <header>
      <identifier>oai:zenodo.org:288645</identifier>
      <datestamp>2017-02-09T21:37:29Z</datestamp>
      <setSpec>user-biosyslit</setSpec>
    </header>
    <header>
      <identifier>oai:zenodo.org:288639</identifier>
      <datestamp>2017-02-09T21:37:09Z</datestamp>
      <setSpec>user-biosyslit</setSpec>
    </header>
    <header>
      <identifier>oai:zenodo.org:240356</identifier>
      <datestamp>2017-01-12T07:48:39Z</datestamp>
      <setSpec>user-biosyslit</setSpec>
    </header>
    <header>
      <identifier>oai:zenodo.org:238077</identifier>
      <datestamp>2017-01-11T00:48:15Z</datestamp>
      <setSpec>user-biosyslit</setSpec>
    </header>
    <header>
      <identifier>oai:zenodo.org:238084</identifier>
      <datestamp>2017-01-11T00:48:13Z</datestamp>
      <setSpec>user-biosyslit</setSpec>
    </header>
    <header>
      <identifier>oai:zenodo.org:238081</identifier>
      <datestamp>2017-01-11T00:48:02Z</datestamp>
      <setSpec>user-biosyslit</setSpec>
    </header>
    <header>
      <identifier>oai:zenodo.org:241685</identifier>
      <datestamp>2017-01-13T04:46:18Z</datestamp>
      <setSpec>user-biosyslit</setSpec>
    </header>
    <header>
      <identifier>oai:zenodo.org:241183</identifier>
      <datestamp>2017-01-12T21:46:05Z</datestamp>
      <setSpec>user-biosyslit</setSpec>
    </header>
    <header>
      <identifier>oai:zenodo.org:241190</identifier>
      <datestamp>2017-01-12T21:46:04Z</datestamp>
      <setSpec>user-biosyslit</setSpec>
    </header>
    <header>
      <identifier>oai:zenodo.org:241189</identifier>
      <datestamp>2017-01-12T21:46:00Z</datestamp>
      <setSpec>user-biosyslit</setSpec>
    </header>
    <header>
      <identifier>oai:zenodo.org:235242</identifier>
      <datestamp>2017-01-09T07:14:51Z</datestamp>
      <setSpec>user-biosyslit</setSpec>
    </header>
    <header>
      <identifier>oai:zenodo.org:277593</identifier>
      <datestamp>2017-02-08T21:27:21Z</datestamp>
      <setSpec>user-biosyslit</setSpec>
    </header>
    <header>
      <identifier>oai:zenodo.org:277596</identifier>
      <datestamp>2017-02-08T21:27:27Z</datestamp>
      <setSpec>user-biosyslit</setSpec>
    </header>
    <header>
      <identifier>oai:zenodo.org:277595</identifier>
      <datestamp>2017-02-08T21:27:25Z</datestamp>
      <setSpec>user-biosyslit</setSpec>
    </header>
    <header>
      <identifier>oai:zenodo.org:284515</identifier>
      <datestamp>2017-02-09T11:25:28Z</datestamp>
      <setSpec>user-biosyslit</setSpec>
    </header>
    <header>
      <identifier>oai:zenodo.org:284507</identifier>
      <datestamp>2017-02-09T11:25:11Z</datestamp>
      <setSpec>user-biosyslit</setSpec>
    </header>
    <header>
      <identifier>oai:zenodo.org:284511</identifier>
      <datestamp>2017-02-09T11:25:20Z</datestamp>
      <setSpec>user-biosyslit</setSpec>
    </header>
    <header>
      <identifier>oai:zenodo.org:284529</identifier>
      <datestamp>2017-02-09T11:26:01Z</datestamp>
      <setSpec>user-biosyslit</setSpec>
    </header>
    <header>
      <identifier>oai:zenodo.org:284514</identifier>
      <datestamp>2017-02-09T11:25:26Z</datestamp>
      <setSpec>user-biosyslit</setSpec>
    </header>
    <header>
      <identifier>oai:zenodo.org:284524</identifier>
      <datestamp>2017-02-09T11:25:49Z</datestamp>
      <setSpec>user-biosyslit</setSpec>
    </header>
    <header>
      <identifier>oai:zenodo.org:284521</identifier>
      <datestamp>2017-02-09T11:25:42Z</datestamp>
      <setSpec>user-biosyslit</setSpec>
    </header>
    <header>
      <identifier>oai:zenodo.org:284517</identifier>
      <datestamp>2017-02-09T11:25:33Z</datestamp>
      <setSpec>user-biosyslit</setSpec>
    </header>
    <header>
      <identifier>oai:zenodo.org:284528</identifier>
      <datestamp>2017-02-09T11:25:58Z</datestamp>
      <setSpec>user-biosyslit</setSpec>
    </header>
    <header>
      <identifier>oai:zenodo.org:293434</identifier>
      <datestamp>2017-02-19T13:40:45Z</datestamp>
      <setSpec>user-biosyslit</setSpec>
    </header>
    <header>
      <identifier>oai:zenodo.org:276716</identifier>
      <datestamp>2017-02-08T19:31:44Z</datestamp>
      <setSpec>user-biosyslit</setSpec>
    </header>
    <header>
      <identifier>oai:zenodo.org:276719</identifier>
      <datestamp>2017-02-08T19:31:38Z</datestamp>
      <setSpec>user-biosyslit</setSpec>
    </header>
    <header>
      <identifier>oai:zenodo.org:293446</identifier>
      <datestamp>2017-02-19T13:40:44Z</datestamp>
      <setSpec>user-biosyslit</setSpec>
    </header>
    <header>
      <identifier>oai:zenodo.org:229435</identifier>
      <datestamp>2017-01-03T15:55:20Z</datestamp>
      <setSpec>user-biosyslit</setSpec>
    </header>
    <header>
      <identifier>oai:zenodo.org:229452</identifier>
      <datestamp>2017-01-03T15:55:18Z</datestamp>
      <setSpec>user-biosyslit</setSpec>
    </header>
    <header>
      <identifier>oai:zenodo.org:234442</identifier>
      <datestamp>2017-01-08T20:03:29Z</datestamp>
      <setSpec>user-biosyslit</setSpec>
    </header>
    <header>
      <identifier>oai:zenodo.org:234446</identifier>
      <datestamp>2017-01-08T20:03:09Z</datestamp>
      <setSpec>user-biosyslit</setSpec>
    </header>
    <header>
      <identifier>oai:zenodo.org:234451</identifier>
      <datestamp>2017-01-08T20:03:24Z</datestamp>
      <setSpec>user-biosyslit</setSpec>
    </header>
    <header>
      <identifier>oai:zenodo.org:234449</identifier>
      <datestamp>2017-01-08T20:03:18Z</datestamp>
      <setSpec>user-biosyslit</setSpec>
    </header>
    <header>
      <identifier>oai:zenodo.org:282615</identifier>
      <datestamp>2017-02-09T07:18:52Z</datestamp>
      <setSpec>user-biosyslit</setSpec>
    </header>
    <header>
      <identifier>oai:zenodo.org:282616</identifier>
      <datestamp>2017-02-09T07:18:54Z</datestamp>
      <setSpec>user-biosyslit</setSpec>
    </header>
    <header>
      <identifier>oai:zenodo.org:247019</identifier>
      <datestamp>2017-01-16T10:35:59Z</datestamp>
      <setSpec>user-biosyslit</setSpec>
    </header>
    <header>
      <identifier>oai:zenodo.org:281410</identifier>
      <datestamp>2017-02-09T05:16:06Z</datestamp>
      <setSpec>user-biosyslit</setSpec>
    </header>
    <header>
      <identifier>oai:zenodo.org:281419</identifier>
      <datestamp>2017-02-09T05:16:27Z</datestamp>
      <setSpec>user-biosyslit</setSpec>
    </header>
    <header>
      <identifier>oai:zenodo.org:281414</identifier>
      <datestamp>2017-02-09T05:16:15Z</datestamp>
      <setSpec>user-biosyslit</setSpec>
    </header>
    <header>
      <identifier>oai:zenodo.org:281411</identifier>
      <datestamp>2017-02-09T05:16:09Z</datestamp>
      <setSpec>user-biosyslit</setSpec>
    </header>
    <header>
      <identifier>oai:zenodo.org:281413</identifier>
      <datestamp>2017-02-09T05:16:13Z</datestamp>
      <setSpec>user-biosyslit</setSpec>
    </header>
    <header>
      <identifier>oai:zenodo.org:281412</identifier>
      <datestamp>2017-02-09T05:16:11Z</datestamp>
      <setSpec>user-biosyslit</setSpec>
    </header>
    <header>
      <identifier>oai:zenodo.org:271457</identifier>
      <datestamp>2017-02-08T01:45:11Z</datestamp>
      <setSpec>user-biosyslit</setSpec>
    </header>
    <header>
      <identifier>oai:zenodo.org:231589</identifier>
      <datestamp>2017-01-06T04:32:15Z</datestamp>
      <setSpec>user-biosyslit</setSpec>
    </header>
    <header>
      <identifier>oai:zenodo.org:280069</identifier>
      <datestamp>2017-02-09T02:36:18Z</datestamp>
      <setSpec>user-biosyslit</setSpec>
    </header>
    <header>
      <identifier>oai:zenodo.org:280073</identifier>
      <datestamp>2017-02-09T02:36:29Z</datestamp>
      <setSpec>user-biosyslit</setSpec>
    </header>
    <header>
      <identifier>oai:zenodo.org:280068</identifier>
      <datestamp>2017-02-09T02:36:16Z</datestamp>
      <setSpec>user-biosyslit</setSpec>
    </header>
    <header>
      <identifier>oai:zenodo.org:280067</identifier>
      <datestamp>2017-02-09T02:36:14Z</datestamp>
      <setSpec>user-biosyslit</setSpec>
    </header>
    <header>
      <identifier>oai:zenodo.org:280065</identifier>
      <datestamp>2017-02-09T02:36:10Z</datestamp>
      <setSpec>user-biosyslit</setSpec>
    </header>
    <resumptionToken expirationDate="2017-08-31T15:47:54Z" cursor="69900" completeListSize="77796">.eJyNyrsOgjAUANB_uTMxtwWskrgQkDAIgQoRFoNACFofoRqghH_XxVnPfCaQdV2BhQskDJGajNH1coWGaRgayLK7C3FsPwHKQyrKm0gKL33F1xQz2rDAkcPOyfRAXTC8EsW3ET2Q1ZC0OEb75JmpeEh1v-fosp2KxuDsf16lh57IT96DJzdbcFp1oRuNnNg818vvI38-9fM5cgMaPIqmBosh0eDSF10jwZrm-Q3-nVGa.DInAsg.OOsqPQAut02YkKvsOyMs8tTHNZw</resumptionToken>
  </ListIdentifiers>
</OAI-PMH>
