<?xml version='1.0' encoding='UTF-8'?>
<?xml-stylesheet type="text/xsl" href="/static/xsl/oai2.v1.0.xsl"?>
<OAI-PMH xmlns="http://www.openarchives.org/OAI/2.0/" xmlns:xsi="http://www.w3.org/2001/XMLSchema-instance" xsi:schemaLocation="http://www.openarchives.org/OAI/2.0/ http://www.openarchives.org/OAI/2.0/OAI-PMH.xsd">
  <responseDate>2017-08-31T15:41:26Z</responseDate>
  <request verb="ListIdentifiers" resumptionToken=".eJyNyssKgkAUANB_uWuJO46vhDaiSYsUnRR1E6Yi1vTAKdIR_z03reuszwSiaWqwcYW4poalUQ011NcaMQ0FRNXfOT92S4AqS3l140npp6_4mmKutmbgimHv5jSQFwyvRLJtpGbEGpIOx-iQPHMZDyndvRl65l5GY3DeLa-moc-Lk_9gyc3hTK370ItGRhxW0Or7yJ9P_nyu2IACj7JtwDZ0BS7vsm8F2NM8fwCxalFv.DIm_pg.Dx8z3kmg5NKHkeNNvaSq6EUhUXs">https://zenodo.org/oai2d</request>
  <ListIdentifiers>
    <header>
      <identifier>oai:zenodo.org:264407</identifier>
      <datestamp>2017-01-30T21:06:42Z</datestamp>
      <setSpec>user-biosyslit</setSpec>
    </header>
    <header>
      <identifier>oai:zenodo.org:265551</identifier>
      <datestamp>2017-01-31T16:28:20Z</datestamp>
      <setSpec>user-biosyslit</setSpec>
    </header>
    <header>
      <identifier>oai:zenodo.org:264121</identifier>
      <datestamp>2017-01-30T13:08:47Z</datestamp>
      <setSpec>user-biosyslit</setSpec>
    </header>
    <header>
      <identifier>oai:zenodo.org:265787</identifier>
      <datestamp>2017-01-31T21:04:35Z</datestamp>
      <setSpec>user-biosyslit</setSpec>
    </header>
    <header>
      <identifier>oai:zenodo.org:264354</identifier>
      <datestamp>2017-01-30T19:45:58Z</datestamp>
      <setSpec>user-biosyslit</setSpec>
    </header>
    <header>
      <identifier>oai:zenodo.org:264266</identifier>
      <datestamp>2017-01-30T15:46:04Z</datestamp>
      <setSpec>user-biosyslit</setSpec>
    </header>
    <header>
      <identifier>oai:zenodo.org:264290</identifier>
      <datestamp>2017-01-30T18:19:12Z</datestamp>
      <setSpec>user-biosyslit</setSpec>
    </header>
    <header>
      <identifier>oai:zenodo.org:265192</identifier>
      <datestamp>2017-01-31T09:58:38Z</datestamp>
      <setSpec>user-biosyslit</setSpec>
    </header>
    <header>
      <identifier>oai:zenodo.org:264890</identifier>
      <datestamp>2017-01-31T04:01:54Z</datestamp>
      <setSpec>user-biosyslit</setSpec>
    </header>
    <header>
      <identifier>oai:zenodo.org:264594</identifier>
      <datestamp>2017-01-30T23:53:04Z</datestamp>
      <setSpec>user-biosyslit</setSpec>
    </header>
    <header>
      <identifier>oai:zenodo.org:266421</identifier>
      <datestamp>2017-02-01T08:32:54Z</datestamp>
      <setSpec>user-biosyslit</setSpec>
    </header>
    <header>
      <identifier>oai:zenodo.org:264550</identifier>
      <datestamp>2017-01-30T23:20:31Z</datestamp>
      <setSpec>user-biosyslit</setSpec>
    </header>
    <header>
      <identifier>oai:zenodo.org:264896</identifier>
      <datestamp>2017-01-31T04:01:46Z</datestamp>
      <setSpec>user-biosyslit</setSpec>
    </header>
    <header>
      <identifier>oai:zenodo.org:264566</identifier>
      <datestamp>2017-01-30T23:27:21Z</datestamp>
      <setSpec>user-biosyslit</setSpec>
    </header>
    <header>
      <identifier>oai:zenodo.org:265179</identifier>
      <datestamp>2017-01-31T09:37:26Z</datestamp>
      <setSpec>user-biosyslit</setSpec>
    </header>
    <header>
      <identifier>oai:zenodo.org:265319</identifier>
      <datestamp>2017-01-31T12:15:35Z</datestamp>
      <setSpec>user-biosyslit</setSpec>
    </header>
    <header>
      <identifier>oai:zenodo.org:265754</identifier>
      <datestamp>2017-01-31T19:55:18Z</datestamp>
      <setSpec>user-biosyslit</setSpec>
    </header>
    <header>
      <identifier>oai:zenodo.org:265189</identifier>
      <datestamp>2017-01-31T09:58:29Z</datestamp>
      <setSpec>user-biosyslit</setSpec>
    </header>
    <header>
      <identifier>oai:zenodo.org:265135</identifier>
      <datestamp>2017-01-31T08:41:00Z</datestamp>
      <setSpec>user-biosyslit</setSpec>
    </header>
    <header>
      <identifier>oai:zenodo.org:266366</identifier>
      <datestamp>2017-02-01T07:14:21Z</datestamp>
      <setSpec>user-biosyslit</setSpec>
    </header>
    <header>
      <identifier>oai:zenodo.org:264812</identifier>
      <datestamp>2017-01-31T03:02:46Z</datestamp>
      <setSpec>user-biosyslit</setSpec>
    </header>
    <header>
      <identifier>oai:zenodo.org:264963</identifier>
      <datestamp>2017-01-31T05:16:29Z</datestamp>
      <setSpec>user-biosyslit</setSpec>
    </header>
    <header>
      <identifier>oai:zenodo.org:265055</identifier>
      <datestamp>2017-01-31T07:06:56Z</datestamp>
      <setSpec>user-biosyslit</setSpec>
    </header>
    <header>
      <identifier>oai:zenodo.org:265573</identifier>
      <datestamp>2017-01-31T17:10:30Z</datestamp>
      <setSpec>user-biosyslit</setSpec>
    </header>
    <header>
      <identifier>oai:zenodo.org:265216</identifier>
      <datestamp>2017-01-31T10:05:50Z</datestamp>
      <setSpec>user-biosyslit</setSpec>
    </header>
    <header>
      <identifier>oai:zenodo.org:265103</identifier>
      <datestamp>2017-01-31T07:55:23Z</datestamp>
      <setSpec>user-biosyslit</setSpec>
    </header>
    <header>
      <identifier>oai:zenodo.org:265779</identifier>
      <datestamp>2017-01-31T20:56:41Z</datestamp>
      <setSpec>user-biosyslit</setSpec>
    </header>
    <header>
      <identifier>oai:zenodo.org:266101</identifier>
      <datestamp>2017-02-01T00:25:14Z</datestamp>
      <setSpec>user-biosyslit</setSpec>
    </header>
    <header>
      <identifier>oai:zenodo.org:265750</identifier>
      <datestamp>2017-01-31T19:55:07Z</datestamp>
      <setSpec>user-biosyslit</setSpec>
    </header>
    <header>
      <identifier>oai:zenodo.org:265775</identifier>
      <datestamp>2017-01-31T20:29:49Z</datestamp>
      <setSpec>user-biosyslit</setSpec>
    </header>
    <header>
      <identifier>oai:zenodo.org:266349</identifier>
      <datestamp>2017-02-01T06:36:28Z</datestamp>
      <setSpec>user-biosyslit</setSpec>
    </header>
    <header>
      <identifier>oai:zenodo.org:266130</identifier>
      <datestamp>2017-02-01T01:04:34Z</datestamp>
      <setSpec>user-biosyslit</setSpec>
    </header>
    <header>
      <identifier>oai:zenodo.org:265837</identifier>
      <datestamp>2017-01-31T21:49:06Z</datestamp>
      <setSpec>user-biosyslit</setSpec>
    </header>
    <header>
      <identifier>oai:zenodo.org:266146</identifier>
      <datestamp>2017-02-01T01:17:17Z</datestamp>
      <setSpec>user-biosyslit</setSpec>
    </header>
    <header>
      <identifier>oai:zenodo.org:266947</identifier>
      <datestamp>2017-02-01T17:22:12Z</datestamp>
      <setSpec>user-biosyslit</setSpec>
    </header>
    <header>
      <identifier>oai:zenodo.org:267274</identifier>
      <datestamp>2017-02-01T23:36:26Z</datestamp>
      <setSpec>user-biosyslit</setSpec>
    </header>
    <header>
      <identifier>oai:zenodo.org:265868</identifier>
      <datestamp>2017-01-31T22:28:15Z</datestamp>
      <setSpec>user-biosyslit</setSpec>
    </header>
    <header>
      <identifier>oai:zenodo.org:266413</identifier>
      <datestamp>2017-02-01T08:31:32Z</datestamp>
      <setSpec>user-biosyslit</setSpec>
    </header>
    <header>
      <identifier>oai:zenodo.org:267138</identifier>
      <datestamp>2017-02-01T20:02:57Z</datestamp>
      <setSpec>user-biosyslit</setSpec>
    </header>
    <header>
      <identifier>oai:zenodo.org:266600</identifier>
      <datestamp>2017-02-01T12:23:47Z</datestamp>
      <setSpec>user-biosyslit</setSpec>
    </header>
    <header>
      <identifier>oai:zenodo.org:266694</identifier>
      <datestamp>2017-02-01T13:54:08Z</datestamp>
      <setSpec>user-biosyslit</setSpec>
    </header>
    <header>
      <identifier>oai:zenodo.org:266658</identifier>
      <datestamp>2017-02-01T13:06:49Z</datestamp>
      <setSpec>user-biosyslit</setSpec>
    </header>
    <header>
      <identifier>oai:zenodo.org:266488</identifier>
      <datestamp>2017-02-01T10:55:16Z</datestamp>
      <setSpec>user-biosyslit</setSpec>
    </header>
    <header>
      <identifier>oai:zenodo.org:274516</identifier>
      <datestamp>2017-02-08T13:34:23Z</datestamp>
      <setSpec>user-biosyslit</setSpec>
    </header>
    <header>
      <identifier>oai:zenodo.org:274687</identifier>
      <datestamp>2017-02-08T14:01:53Z</datestamp>
      <setSpec>user-biosyslit</setSpec>
    </header>
    <header>
      <identifier>oai:zenodo.org:266551</identifier>
      <datestamp>2017-02-01T12:02:35Z</datestamp>
      <setSpec>user-biosyslit</setSpec>
    </header>
    <header>
      <identifier>oai:zenodo.org:267523</identifier>
      <datestamp>2017-02-02T03:15:53Z</datestamp>
      <setSpec>user-biosyslit</setSpec>
    </header>
    <header>
      <identifier>oai:zenodo.org:274388</identifier>
      <datestamp>2017-02-08T13:04:41Z</datestamp>
      <setSpec>user-biosyslit</setSpec>
    </header>
    <header>
      <identifier>oai:zenodo.org:266545</identifier>
      <datestamp>2017-02-01T12:02:18Z</datestamp>
      <setSpec>user-biosyslit</setSpec>
    </header>
    <header>
      <identifier>oai:zenodo.org:267507</identifier>
      <datestamp>2017-02-02T03:08:21Z</datestamp>
      <setSpec>user-biosyslit</setSpec>
    </header>
    <header>
      <identifier>oai:zenodo.org:267131</identifier>
      <datestamp>2017-02-01T20:02:37Z</datestamp>
      <setSpec>user-biosyslit</setSpec>
    </header>
    <header>
      <identifier>oai:zenodo.org:266992</identifier>
      <datestamp>2017-02-01T17:51:55Z</datestamp>
      <setSpec>user-biosyslit</setSpec>
    </header>
    <header>
      <identifier>oai:zenodo.org:267195</identifier>
      <datestamp>2017-02-01T22:28:28Z</datestamp>
      <setSpec>user-biosyslit</setSpec>
    </header>
    <header>
      <identifier>oai:zenodo.org:266962</identifier>
      <datestamp>2017-02-01T17:32:55Z</datestamp>
      <setSpec>user-biosyslit</setSpec>
    </header>
    <header>
      <identifier>oai:zenodo.org:267153</identifier>
      <datestamp>2017-02-01T20:15:11Z</datestamp>
      <setSpec>user-biosyslit</setSpec>
    </header>
    <header>
      <identifier>oai:zenodo.org:266923</identifier>
      <datestamp>2017-02-01T17:07:05Z</datestamp>
      <setSpec>user-biosyslit</setSpec>
    </header>
    <header>
      <identifier>oai:zenodo.org:266925</identifier>
      <datestamp>2017-02-01T17:07:10Z</datestamp>
      <setSpec>user-biosyslit</setSpec>
    </header>
    <header>
      <identifier>oai:zenodo.org:268276</identifier>
      <datestamp>2017-02-03T05:36:54Z</datestamp>
      <setSpec>user-biosyslit</setSpec>
    </header>
    <header>
      <identifier>oai:zenodo.org:267010</identifier>
      <datestamp>2017-02-01T18:10:30Z</datestamp>
      <setSpec>user-biosyslit</setSpec>
    </header>
    <header>
      <identifier>oai:zenodo.org:267266</identifier>
      <datestamp>2017-02-01T23:35:58Z</datestamp>
      <setSpec>user-biosyslit</setSpec>
    </header>
    <header>
      <identifier>oai:zenodo.org:268242</identifier>
      <datestamp>2017-02-03T04:35:13Z</datestamp>
      <setSpec>user-biosyslit</setSpec>
    </header>
    <header>
      <identifier>oai:zenodo.org:267668</identifier>
      <datestamp>2017-02-02T05:37:36Z</datestamp>
      <setSpec>user-biosyslit</setSpec>
    </header>
    <header>
      <identifier>oai:zenodo.org:268195</identifier>
      <datestamp>2017-02-03T02:57:31Z</datestamp>
      <setSpec>user-biosyslit</setSpec>
    </header>
    <header>
      <identifier>oai:zenodo.org:267128</identifier>
      <datestamp>2017-02-01T20:03:30Z</datestamp>
      <setSpec>user-biosyslit</setSpec>
    </header>
    <header>
      <identifier>oai:zenodo.org:268089</identifier>
      <datestamp>2017-02-03T01:32:51Z</datestamp>
      <setSpec>user-biosyslit</setSpec>
    </header>
    <header>
      <identifier>oai:zenodo.org:267828</identifier>
      <datestamp>2017-02-02T07:50:32Z</datestamp>
      <setSpec>user-biosyslit</setSpec>
    </header>
    <header>
      <identifier>oai:zenodo.org:267615</identifier>
      <datestamp>2017-02-02T04:58:39Z</datestamp>
      <setSpec>user-biosyslit</setSpec>
    </header>
    <header>
      <identifier>oai:zenodo.org:268265</identifier>
      <datestamp>2017-02-03T04:59:44Z</datestamp>
      <setSpec>user-biosyslit</setSpec>
    </header>
    <header>
      <identifier>oai:zenodo.org:227379</identifier>
      <datestamp>2017-01-01T20:00:55Z</datestamp>
      <setSpec>user-biosyslit</setSpec>
    </header>
    <header>
      <identifier>oai:zenodo.org:227013</identifier>
      <datestamp>2017-01-01T08:06:55Z</datestamp>
      <setSpec>user-biosyslit</setSpec>
    </header>
    <header>
      <identifier>oai:zenodo.org:267614</identifier>
      <datestamp>2017-02-02T04:49:26Z</datestamp>
      <setSpec>user-biosyslit</setSpec>
    </header>
    <header>
      <identifier>oai:zenodo.org:275032</identifier>
      <datestamp>2017-02-08T15:08:13Z</datestamp>
      <setSpec>user-biosyslit</setSpec>
    </header>
    <header>
      <identifier>oai:zenodo.org:267870</identifier>
      <datestamp>2017-02-02T08:42:08Z</datestamp>
      <setSpec>user-biosyslit</setSpec>
    </header>
    <header>
      <identifier>oai:zenodo.org:267885</identifier>
      <datestamp>2017-02-02T09:00:23Z</datestamp>
      <setSpec>user-biosyslit</setSpec>
    </header>
    <header>
      <identifier>oai:zenodo.org:266454</identifier>
      <datestamp>2017-02-01T10:12:46Z</datestamp>
      <setSpec>user-biosyslit</setSpec>
    </header>
    <header>
      <identifier>oai:zenodo.org:266903</identifier>
      <datestamp>2017-02-01T16:26:39Z</datestamp>
      <setSpec>user-biosyslit</setSpec>
    </header>
    <header>
      <identifier>oai:zenodo.org:266360</identifier>
      <datestamp>2017-02-01T06:57:56Z</datestamp>
      <setSpec>user-biosyslit</setSpec>
    </header>
    <header>
      <identifier>oai:zenodo.org:266527</identifier>
      <datestamp>2017-02-01T11:43:36Z</datestamp>
      <setSpec>user-biosyslit</setSpec>
    </header>
    <header>
      <identifier>oai:zenodo.org:266914</identifier>
      <datestamp>2017-02-01T16:36:56Z</datestamp>
      <setSpec>user-biosyslit</setSpec>
    </header>
    <header>
      <identifier>oai:zenodo.org:267114</identifier>
      <datestamp>2017-02-01T19:38:12Z</datestamp>
      <setSpec>user-biosyslit</setSpec>
    </header>
    <header>
      <identifier>oai:zenodo.org:266880</identifier>
      <datestamp>2017-02-01T15:57:02Z</datestamp>
      <setSpec>user-biosyslit</setSpec>
    </header>
    <header>
      <identifier>oai:zenodo.org:266845</identifier>
      <datestamp>2017-02-01T15:55:23Z</datestamp>
      <setSpec>user-biosyslit</setSpec>
    </header>
    <header>
      <identifier>oai:zenodo.org:267205</identifier>
      <datestamp>2017-02-01T22:28:09Z</datestamp>
      <setSpec>user-biosyslit</setSpec>
    </header>
    <header>
      <identifier>oai:zenodo.org:267140</identifier>
      <datestamp>2017-02-01T20:03:03Z</datestamp>
      <setSpec>user-biosyslit</setSpec>
    </header>
    <header>
      <identifier>oai:zenodo.org:267078</identifier>
      <datestamp>2017-02-01T18:57:57Z</datestamp>
      <setSpec>user-biosyslit</setSpec>
    </header>
    <header>
      <identifier>oai:zenodo.org:266955</identifier>
      <datestamp>2017-02-01T17:28:10Z</datestamp>
      <setSpec>user-biosyslit</setSpec>
    </header>
    <header>
      <identifier>oai:zenodo.org:267577</identifier>
      <datestamp>2017-02-02T04:05:44Z</datestamp>
      <setSpec>user-biosyslit</setSpec>
    </header>
    <header>
      <identifier>oai:zenodo.org:267163</identifier>
      <datestamp>2017-02-01T20:25:02Z</datestamp>
      <setSpec>user-biosyslit</setSpec>
    </header>
    <header>
      <identifier>oai:zenodo.org:268103</identifier>
      <datestamp>2017-02-03T01:33:23Z</datestamp>
      <setSpec>user-biosyslit</setSpec>
    </header>
    <header>
      <identifier>oai:zenodo.org:267168</identifier>
      <datestamp>2017-02-01T20:25:17Z</datestamp>
      <setSpec>user-biosyslit</setSpec>
    </header>
    <header>
      <identifier>oai:zenodo.org:267565</identifier>
      <datestamp>2017-02-02T03:46:30Z</datestamp>
      <setSpec>user-biosyslit</setSpec>
    </header>
    <header>
      <identifier>oai:zenodo.org:267461</identifier>
      <datestamp>2017-02-02T02:33:34Z</datestamp>
      <setSpec>user-biosyslit</setSpec>
    </header>
    <header>
      <identifier>oai:zenodo.org:267537</identifier>
      <datestamp>2017-02-02T03:44:26Z</datestamp>
      <setSpec>user-biosyslit</setSpec>
    </header>
    <header>
      <identifier>oai:zenodo.org:267687</identifier>
      <datestamp>2017-02-02T05:45:20Z</datestamp>
      <setSpec>user-biosyslit</setSpec>
    </header>
    <header>
      <identifier>oai:zenodo.org:227251</identifier>
      <datestamp>2017-01-01T18:50:12Z</datestamp>
      <setSpec>user-biosyslit</setSpec>
    </header>
    <header>
      <identifier>oai:zenodo.org:227281</identifier>
      <datestamp>2017-01-01T18:56:35Z</datestamp>
      <setSpec>user-biosyslit</setSpec>
    </header>
    <header>
      <identifier>oai:zenodo.org:268135</identifier>
      <datestamp>2017-02-03T02:54:57Z</datestamp>
      <setSpec>user-biosyslit</setSpec>
    </header>
    <header>
      <identifier>oai:zenodo.org:267824</identifier>
      <datestamp>2017-02-02T07:50:21Z</datestamp>
      <setSpec>user-biosyslit</setSpec>
    </header>
    <header>
      <identifier>oai:zenodo.org:268651</identifier>
      <datestamp>2017-02-07T10:00:32Z</datestamp>
      <setSpec>openaire</setSpec>
      <setSpec>user-biosyslit</setSpec>
    </header>
    <header>
      <identifier>oai:zenodo.org:227433</identifier>
      <datestamp>2017-01-01T21:20:49Z</datestamp>
      <setSpec>user-biosyslit</setSpec>
    </header>
    <resumptionToken expirationDate="2017-08-31T15:43:26Z" cursor="6400" completeListSize="77796">.eJyNyk0LgjAYAOD_8p4l5lbzA7qEJR5U1lK0S9gUKaeJK9JF_z0vnev8PC9QVVWCixZ45VBEqe1YBDl0aRugxHCT8nSZGUSWStHJpPDTx75NUY5rK_LUGHo5iXSD4tbUfMdwZtpjckETOyT3XO_HlARPjrZWqNkUXYP5lST25fHs9zzpNpLjcoi3bOLmhh-J-D7zz6d_Pk-twYC-qCtwKTWgeRZDrcB9vd8fXb5RHw.DIm_pg.I0k0dX3_OSptwggr6_iEPaUHYq0</resumptionToken>
  </ListIdentifiers>
</OAI-PMH>
