<?xml version='1.0' encoding='UTF-8'?>
<?xml-stylesheet type="text/xsl" href="/static/xsl/oai2.v1.0.xsl"?>
<OAI-PMH xmlns="http://www.openarchives.org/OAI/2.0/" xmlns:xsi="http://www.w3.org/2001/XMLSchema-instance" xsi:schemaLocation="http://www.openarchives.org/OAI/2.0/ http://www.openarchives.org/OAI/2.0/OAI-PMH.xsd">
  <responseDate>2017-08-31T15:44:54Z</responseDate>
  <request verb="ListIdentifiers" resumptionToken=".eJyNyj0LgkAYAOD_8s4S95FdCi2iiUPKdSnpEqYi1mXiFemF_z2X5nrm5w2qqkqw0QItsbVGjDKMTIKJZZkGqKK_S3lq5gDFMZFFK-PcT577W4JSUrPQVcPOTWmoryi6YS22nBzxeogbNPJD_Ej1fkho8BLIYzvNx_ASzK-kkS-zs9-JuHWkIGUfeXwU2BEZLb4P__n0z-eqDRjQ5XUFtrlaGXB95X2twH5P0wcBJlGl.DInAdg.0Jyb1z9xNpM7_g35UwQI0FfYvS4">https://zenodo.org/oai2d</request>
  <ListIdentifiers>
    <header>
      <identifier>oai:zenodo.org:570425</identifier>
      <datestamp>2017-05-02T07:38:40Z</datestamp>
      <setSpec>user-biosyslit</setSpec>
    </header>
    <header>
      <identifier>oai:zenodo.org:571695</identifier>
      <datestamp>2017-05-05T08:34:40Z</datestamp>
      <setSpec>user-biosyslit</setSpec>
    </header>
    <header>
      <identifier>oai:zenodo.org:569441</identifier>
      <datestamp>2017-04-27T08:15:54Z</datestamp>
      <setSpec>user-biosyslit</setSpec>
    </header>
    <header>
      <identifier>oai:zenodo.org:570442</identifier>
      <datestamp>2017-05-02T08:02:53Z</datestamp>
      <setSpec>user-biosyslit</setSpec>
    </header>
    <header>
      <identifier>oai:zenodo.org:570118</identifier>
      <datestamp>2017-05-01T07:51:47Z</datestamp>
      <setSpec>user-biosyslit</setSpec>
    </header>
    <header>
      <identifier>oai:zenodo.org:569760</identifier>
      <datestamp>2017-04-28T07:48:56Z</datestamp>
      <setSpec>user-biosyslit</setSpec>
    </header>
    <header>
      <identifier>oai:zenodo.org:570094</identifier>
      <datestamp>2017-05-01T07:24:30Z</datestamp>
      <setSpec>user-biosyslit</setSpec>
    </header>
    <header>
      <identifier>oai:zenodo.org:571320</identifier>
      <datestamp>2017-05-04T07:41:03Z</datestamp>
      <setSpec>user-biosyslit</setSpec>
    </header>
    <header>
      <identifier>oai:zenodo.org:571318</identifier>
      <datestamp>2017-05-04T07:40:57Z</datestamp>
      <setSpec>user-biosyslit</setSpec>
    </header>
    <header>
      <identifier>oai:zenodo.org:571012</identifier>
      <datestamp>2017-05-03T07:31:16Z</datestamp>
      <setSpec>user-biosyslit</setSpec>
    </header>
    <header>
      <identifier>oai:zenodo.org:571727</identifier>
      <datestamp>2017-05-05T08:36:01Z</datestamp>
      <setSpec>user-biosyslit</setSpec>
    </header>
    <header>
      <identifier>oai:zenodo.org:584055</identifier>
      <datestamp>2017-05-29T13:53:55Z</datestamp>
      <setSpec>user-biosyslit</setSpec>
    </header>
    <header>
      <identifier>oai:zenodo.org:583923</identifier>
      <datestamp>2017-05-29T08:21:39Z</datestamp>
      <setSpec>user-biosyslit</setSpec>
    </header>
    <header>
      <identifier>oai:zenodo.org:583829</identifier>
      <datestamp>2017-05-29T07:25:18Z</datestamp>
      <setSpec>user-biosyslit</setSpec>
    </header>
    <header>
      <identifier>oai:zenodo.org:556073</identifier>
      <datestamp>2017-04-19T08:04:00Z</datestamp>
      <setSpec>user-biosyslit</setSpec>
    </header>
    <header>
      <identifier>oai:zenodo.org:399117</identifier>
      <datestamp>2017-03-15T08:26:36Z</datestamp>
      <setSpec>user-biosyslit</setSpec>
    </header>
    <header>
      <identifier>oai:zenodo.org:399786</identifier>
      <datestamp>2017-03-15T23:57:35Z</datestamp>
      <setSpec>user-biosyslit</setSpec>
    </header>
    <header>
      <identifier>oai:zenodo.org:399094</identifier>
      <datestamp>2017-03-15T08:17:44Z</datestamp>
      <setSpec>user-biosyslit</setSpec>
    </header>
    <header>
      <identifier>oai:zenodo.org:398976</identifier>
      <datestamp>2017-03-14T21:12:18Z</datestamp>
      <setSpec>user-biosyslit</setSpec>
    </header>
    <header>
      <identifier>oai:zenodo.org:399519</identifier>
      <datestamp>2017-03-15T22:41:53Z</datestamp>
      <setSpec>user-biosyslit</setSpec>
    </header>
    <header>
      <identifier>oai:zenodo.org:398951</identifier>
      <datestamp>2017-03-14T21:07:43Z</datestamp>
      <setSpec>user-biosyslit</setSpec>
    </header>
    <header>
      <identifier>oai:zenodo.org:399155</identifier>
      <datestamp>2017-03-15T08:52:30Z</datestamp>
      <setSpec>user-biosyslit</setSpec>
    </header>
    <header>
      <identifier>oai:zenodo.org:399845</identifier>
      <datestamp>2017-03-16T01:28:35Z</datestamp>
      <setSpec>user-biosyslit</setSpec>
    </header>
    <header>
      <identifier>oai:zenodo.org:400863</identifier>
      <datestamp>2017-03-20T08:39:58Z</datestamp>
      <setSpec>user-biosyslit</setSpec>
    </header>
    <header>
      <identifier>oai:zenodo.org:399901</identifier>
      <datestamp>2017-03-16T01:31:34Z</datestamp>
      <setSpec>user-biosyslit</setSpec>
    </header>
    <header>
      <identifier>oai:zenodo.org:399748</identifier>
      <datestamp>2017-03-15T23:51:41Z</datestamp>
      <setSpec>user-biosyslit</setSpec>
    </header>
    <header>
      <identifier>oai:zenodo.org:399859</identifier>
      <datestamp>2017-03-16T01:29:16Z</datestamp>
      <setSpec>user-biosyslit</setSpec>
    </header>
    <header>
      <identifier>oai:zenodo.org:398772</identifier>
      <datestamp>2017-03-14T09:51:41Z</datestamp>
      <setSpec>user-biosyslit</setSpec>
    </header>
    <header>
      <identifier>oai:zenodo.org:399568</identifier>
      <datestamp>2017-03-15T22:44:08Z</datestamp>
      <setSpec>user-biosyslit</setSpec>
    </header>
    <header>
      <identifier>oai:zenodo.org:399782</identifier>
      <datestamp>2017-03-15T23:58:13Z</datestamp>
      <setSpec>user-biosyslit</setSpec>
    </header>
    <header>
      <identifier>oai:zenodo.org:399794</identifier>
      <datestamp>2017-03-15T23:57:57Z</datestamp>
      <setSpec>user-biosyslit</setSpec>
    </header>
    <header>
      <identifier>oai:zenodo.org:399875</identifier>
      <datestamp>2017-03-16T01:30:16Z</datestamp>
      <setSpec>user-biosyslit</setSpec>
    </header>
    <header>
      <identifier>oai:zenodo.org:399139</identifier>
      <datestamp>2017-03-15T08:36:23Z</datestamp>
      <setSpec>user-biosyslit</setSpec>
    </header>
    <header>
      <identifier>oai:zenodo.org:399648</identifier>
      <datestamp>2017-03-15T23:06:15Z</datestamp>
      <setSpec>user-biosyslit</setSpec>
    </header>
    <header>
      <identifier>oai:zenodo.org:398927</identifier>
      <datestamp>2017-03-14T21:06:48Z</datestamp>
      <setSpec>user-biosyslit</setSpec>
    </header>
    <header>
      <identifier>oai:zenodo.org:399030</identifier>
      <datestamp>2017-03-14T23:49:29Z</datestamp>
      <setSpec>user-biosyslit</setSpec>
    </header>
    <header>
      <identifier>oai:zenodo.org:399101</identifier>
      <datestamp>2017-03-15T08:25:57Z</datestamp>
      <setSpec>user-biosyslit</setSpec>
    </header>
    <header>
      <identifier>oai:zenodo.org:400869</identifier>
      <datestamp>2017-03-20T08:46:57Z</datestamp>
      <setSpec>user-biosyslit</setSpec>
    </header>
    <header>
      <identifier>oai:zenodo.org:398964</identifier>
      <datestamp>2017-03-14T21:10:20Z</datestamp>
      <setSpec>user-biosyslit</setSpec>
    </header>
    <header>
      <identifier>oai:zenodo.org:399764</identifier>
      <datestamp>2017-03-15T23:54:58Z</datestamp>
      <setSpec>user-biosyslit</setSpec>
    </header>
    <header>
      <identifier>oai:zenodo.org:399873</identifier>
      <datestamp>2017-03-16T01:30:10Z</datestamp>
      <setSpec>user-biosyslit</setSpec>
    </header>
    <header>
      <identifier>oai:zenodo.org:399766</identifier>
      <datestamp>2017-03-15T23:55:03Z</datestamp>
      <setSpec>user-biosyslit</setSpec>
    </header>
    <header>
      <identifier>oai:zenodo.org:399760</identifier>
      <datestamp>2017-03-15T23:54:48Z</datestamp>
      <setSpec>user-biosyslit</setSpec>
    </header>
    <header>
      <identifier>oai:zenodo.org:400358</identifier>
      <datestamp>2017-03-22T09:34:08Z</datestamp>
      <setSpec>openaire</setSpec>
      <setSpec>user-biosyslit</setSpec>
      <setSpec>user-zenodo</setSpec>
    </header>
    <header>
      <identifier>oai:zenodo.org:399801</identifier>
      <datestamp>2017-03-15T23:58:21Z</datestamp>
      <setSpec>user-biosyslit</setSpec>
    </header>
    <header>
      <identifier>oai:zenodo.org:400857</identifier>
      <datestamp>2017-03-20T08:39:59Z</datestamp>
      <setSpec>user-biosyslit</setSpec>
    </header>
    <header>
      <identifier>oai:zenodo.org:400862</identifier>
      <datestamp>2017-03-20T08:39:55Z</datestamp>
      <setSpec>user-biosyslit</setSpec>
    </header>
    <header>
      <identifier>oai:zenodo.org:400179</identifier>
      <datestamp>2017-03-16T09:22:23Z</datestamp>
      <setSpec>user-biosyslit</setSpec>
    </header>
    <header>
      <identifier>oai:zenodo.org:437304</identifier>
      <datestamp>2017-03-22T09:30:39Z</datestamp>
      <setSpec>user-biosyslit</setSpec>
    </header>
    <header>
      <identifier>oai:zenodo.org:437270</identifier>
      <datestamp>2017-03-22T08:56:35Z</datestamp>
      <setSpec>user-biosyslit</setSpec>
    </header>
    <header>
      <identifier>oai:zenodo.org:437625</identifier>
      <datestamp>2017-03-23T10:09:14Z</datestamp>
      <setSpec>user-biosyslit</setSpec>
    </header>
    <header>
      <identifier>oai:zenodo.org:428749</identifier>
      <datestamp>2017-03-21T08:48:19Z</datestamp>
      <setSpec>user-biosyslit</setSpec>
    </header>
    <header>
      <identifier>oai:zenodo.org:437229</identifier>
      <datestamp>2017-03-22T08:13:44Z</datestamp>
      <setSpec>user-biosyslit</setSpec>
    </header>
    <header>
      <identifier>oai:zenodo.org:437939</identifier>
      <datestamp>2017-03-24T08:15:55Z</datestamp>
      <setSpec>user-biosyslit</setSpec>
    </header>
    <header>
      <identifier>oai:zenodo.org:437624</identifier>
      <datestamp>2017-03-23T10:09:10Z</datestamp>
      <setSpec>user-biosyslit</setSpec>
    </header>
    <header>
      <identifier>oai:zenodo.org:437971</identifier>
      <datestamp>2017-03-24T08:40:06Z</datestamp>
      <setSpec>user-biosyslit</setSpec>
    </header>
    <header>
      <identifier>oai:zenodo.org:437969</identifier>
      <datestamp>2017-03-24T08:40:07Z</datestamp>
      <setSpec>user-biosyslit</setSpec>
    </header>
    <header>
      <identifier>oai:zenodo.org:557162</identifier>
      <datestamp>2017-04-25T09:16:46Z</datestamp>
      <setSpec>user-biosyslit</setSpec>
    </header>
    <header>
      <identifier>oai:zenodo.org:438547</identifier>
      <datestamp>2017-03-28T07:22:55Z</datestamp>
      <setSpec>user-biosyslit</setSpec>
    </header>
    <header>
      <identifier>oai:zenodo.org:438890</identifier>
      <datestamp>2017-03-29T08:18:58Z</datestamp>
      <setSpec>user-biosyslit</setSpec>
    </header>
    <header>
      <identifier>oai:zenodo.org:439455</identifier>
      <datestamp>2017-03-31T07:48:06Z</datestamp>
      <setSpec>user-biosyslit</setSpec>
    </header>
    <header>
      <identifier>oai:zenodo.org:557156</identifier>
      <datestamp>2017-04-25T09:18:25Z</datestamp>
      <setSpec>user-biosyslit</setSpec>
    </header>
    <header>
      <identifier>oai:zenodo.org:439799</identifier>
      <datestamp>2017-04-03T07:51:41Z</datestamp>
      <setSpec>user-biosyslit</setSpec>
    </header>
    <header>
      <identifier>oai:zenodo.org:439859</identifier>
      <datestamp>2017-04-03T09:39:16Z</datestamp>
      <setSpec>user-biosyslit</setSpec>
    </header>
    <header>
      <identifier>oai:zenodo.org:439462</identifier>
      <datestamp>2017-03-31T07:48:32Z</datestamp>
      <setSpec>user-biosyslit</setSpec>
    </header>
    <header>
      <identifier>oai:zenodo.org:439823</identifier>
      <datestamp>2017-04-03T08:10:53Z</datestamp>
      <setSpec>user-biosyslit</setSpec>
    </header>
    <header>
      <identifier>oai:zenodo.org:439301</identifier>
      <datestamp>2017-03-31T09:17:32Z</datestamp>
      <setSpec>user-biosyslit</setSpec>
    </header>
    <header>
      <identifier>oai:zenodo.org:495288</identifier>
      <datestamp>2017-04-06T07:22:35Z</datestamp>
      <setSpec>user-biosyslit</setSpec>
    </header>
    <header>
      <identifier>oai:zenodo.org:495399</identifier>
      <datestamp>2017-04-06T12:52:02Z</datestamp>
      <setSpec>user-biosyslit</setSpec>
    </header>
    <header>
      <identifier>oai:zenodo.org:495322</identifier>
      <datestamp>2017-04-06T07:53:53Z</datestamp>
      <setSpec>user-biosyslit</setSpec>
    </header>
    <header>
      <identifier>oai:zenodo.org:495273</identifier>
      <datestamp>2017-04-06T07:09:02Z</datestamp>
      <setSpec>user-biosyslit</setSpec>
    </header>
    <header>
      <identifier>oai:zenodo.org:545892</identifier>
      <datestamp>2017-04-13T07:56:50Z</datestamp>
      <setSpec>user-biosyslit</setSpec>
    </header>
    <header>
      <identifier>oai:zenodo.org:556287</identifier>
      <datestamp>2017-04-20T07:42:07Z</datestamp>
      <setSpec>user-biosyslit</setSpec>
    </header>
    <header>
      <identifier>oai:zenodo.org:570112</identifier>
      <datestamp>2017-05-01T07:41:50Z</datestamp>
      <setSpec>user-biosyslit</setSpec>
    </header>
    <header>
      <identifier>oai:zenodo.org:569742</identifier>
      <datestamp>2017-04-28T07:22:20Z</datestamp>
      <setSpec>user-biosyslit</setSpec>
    </header>
    <header>
      <identifier>oai:zenodo.org:570091</identifier>
      <datestamp>2017-05-01T07:14:11Z</datestamp>
      <setSpec>user-biosyslit</setSpec>
    </header>
    <header>
      <identifier>oai:zenodo.org:570436</identifier>
      <datestamp>2017-05-02T07:51:21Z</datestamp>
      <setSpec>user-biosyslit</setSpec>
    </header>
    <header>
      <identifier>oai:zenodo.org:569471</identifier>
      <datestamp>2017-04-27T08:53:14Z</datestamp>
      <setSpec>user-biosyslit</setSpec>
    </header>
    <header>
      <identifier>oai:zenodo.org:569455</identifier>
      <datestamp>2017-04-27T08:36:06Z</datestamp>
      <setSpec>user-biosyslit</setSpec>
    </header>
    <header>
      <identifier>oai:zenodo.org:569152</identifier>
      <datestamp>2017-04-26T08:28:37Z</datestamp>
      <setSpec>user-biosyslit</setSpec>
    </header>
    <header>
      <identifier>oai:zenodo.org:569462</identifier>
      <datestamp>2017-04-27T08:45:54Z</datestamp>
      <setSpec>user-biosyslit</setSpec>
    </header>
    <header>
      <identifier>oai:zenodo.org:569472</identifier>
      <datestamp>2017-04-27T09:01:10Z</datestamp>
      <setSpec>user-biosyslit</setSpec>
    </header>
    <header>
      <identifier>oai:zenodo.org:569125</identifier>
      <datestamp>2017-04-26T08:11:21Z</datestamp>
      <setSpec>user-biosyslit</setSpec>
    </header>
    <header>
      <identifier>oai:zenodo.org:569172</identifier>
      <datestamp>2017-04-26T08:43:22Z</datestamp>
      <setSpec>user-biosyslit</setSpec>
    </header>
    <header>
      <identifier>oai:zenodo.org:569773</identifier>
      <datestamp>2017-04-28T08:06:08Z</datestamp>
      <setSpec>user-biosyslit</setSpec>
    </header>
    <header>
      <identifier>oai:zenodo.org:569170</identifier>
      <datestamp>2017-04-26T08:43:16Z</datestamp>
      <setSpec>user-biosyslit</setSpec>
    </header>
    <header>
      <identifier>oai:zenodo.org:570450</identifier>
      <datestamp>2017-05-02T08:10:43Z</datestamp>
      <setSpec>user-biosyslit</setSpec>
    </header>
    <header>
      <identifier>oai:zenodo.org:569442</identifier>
      <datestamp>2017-04-27T08:26:51Z</datestamp>
      <setSpec>user-biosyslit</setSpec>
    </header>
    <header>
      <identifier>oai:zenodo.org:569147</identifier>
      <datestamp>2017-04-26T08:28:22Z</datestamp>
      <setSpec>user-biosyslit</setSpec>
    </header>
    <header>
      <identifier>oai:zenodo.org:569456</identifier>
      <datestamp>2017-04-27T08:35:59Z</datestamp>
      <setSpec>user-biosyslit</setSpec>
    </header>
    <header>
      <identifier>oai:zenodo.org:569736</identifier>
      <datestamp>2017-04-28T07:21:55Z</datestamp>
      <setSpec>user-biosyslit</setSpec>
    </header>
    <header>
      <identifier>oai:zenodo.org:569776</identifier>
      <datestamp>2017-04-28T08:15:56Z</datestamp>
      <setSpec>user-biosyslit</setSpec>
    </header>
    <header>
      <identifier>oai:zenodo.org:569780</identifier>
      <datestamp>2017-04-28T08:15:49Z</datestamp>
      <setSpec>user-biosyslit</setSpec>
    </header>
    <header>
      <identifier>oai:zenodo.org:571019</identifier>
      <datestamp>2017-05-03T07:41:57Z</datestamp>
      <setSpec>user-biosyslit</setSpec>
    </header>
    <header>
      <identifier>oai:zenodo.org:583418</identifier>
      <datestamp>2017-05-26T08:20:46Z</datestamp>
      <setSpec>user-biosyslit</setSpec>
    </header>
    <header>
      <identifier>oai:zenodo.org:583993</identifier>
      <datestamp>2017-05-29T11:49:33Z</datestamp>
      <setSpec>user-biosyslit</setSpec>
    </header>
    <header>
      <identifier>oai:zenodo.org:583848</identifier>
      <datestamp>2017-05-29T07:46:33Z</datestamp>
      <setSpec>user-biosyslit</setSpec>
    </header>
    <header>
      <identifier>oai:zenodo.org:583864</identifier>
      <datestamp>2017-05-29T08:01:55Z</datestamp>
      <setSpec>user-biosyslit</setSpec>
    </header>
    <header>
      <identifier>oai:zenodo.org:583930</identifier>
      <datestamp>2017-05-29T08:27:19Z</datestamp>
      <setSpec>user-biosyslit</setSpec>
    </header>
    <header>
      <identifier>oai:zenodo.org:584056</identifier>
      <datestamp>2017-05-29T13:54:01Z</datestamp>
      <setSpec>user-biosyslit</setSpec>
    </header>
    <resumptionToken expirationDate="2017-08-31T15:46:54Z" cursor="56500" completeListSize="77796">.eJyNzz0PQ0AcgPHvcrM0d_71EkmXhooB4UqwNIqIOiquDU5891o6t_PzW54V8aoqkYEPAASOBMugg6ISXZMQL8YnY7dmz6hIYlb0LMrt-B12MU7lWvNMPrtmCp5osd8RQS-BnBB9jhq8BNfolYpwjsGZKLY0VwSL93B2V4Jvs-xuDzTqz4zK5ehbwULJmWZQfB3504mfzuQnJKEhrytkKOp-1U75WHNkrNv2AZFFUTc.DInAdg.rYIiTVsHgOvz6oO3c2Xlrnvogcc</resumptionToken>
  </ListIdentifiers>
</OAI-PMH>
