<?xml version='1.0' encoding='UTF-8'?>
<?xml-stylesheet type="text/xsl" href="/static/xsl/oai2.v1.0.xsl"?>
<OAI-PMH xmlns="http://www.openarchives.org/OAI/2.0/" xmlns:xsi="http://www.w3.org/2001/XMLSchema-instance" xsi:schemaLocation="http://www.openarchives.org/OAI/2.0/ http://www.openarchives.org/OAI/2.0/OAI-PMH.xsd">
  <responseDate>2017-08-31T15:43:55Z</responseDate>
  <request verb="ListIdentifiers" resumptionToken=".eJyNyjEPQ0AYgOH_8s3S3DkplXQRKgaEK8HSKCLqqLg2OPHfa-ncvuv7rMCrqgQdHdQ9QpCGMTrKJw1LwIvxydit2TcUScyKnkW5Hb_DLkapXKueyWfXTIknWuR3WNBLICdYm6MGLcE1eqUinGPiTBRZqiuCxXs4uyuJb7Psbg806g1G5XL0rWCh2KAZKb4O_-nET2fyM0gw5HUFuqIoErRTPtYc9HXbPpyJUT0.DInAOw.XcCQKFfA9HYcuHoLyEcy96VoaP4">https://zenodo.org/oai2d</request>
  <ListIdentifiers>
    <header>
      <identifier>oai:zenodo.org:244103</identifier>
      <datestamp>2017-01-14T16:23:50Z</datestamp>
      <setSpec>user-biosyslit</setSpec>
    </header>
    <header>
      <identifier>oai:zenodo.org:243429</identifier>
      <datestamp>2017-01-14T05:36:19Z</datestamp>
      <setSpec>user-biosyslit</setSpec>
    </header>
    <header>
      <identifier>oai:zenodo.org:243390</identifier>
      <datestamp>2017-01-14T03:35:04Z</datestamp>
      <setSpec>user-biosyslit</setSpec>
    </header>
    <header>
      <identifier>oai:zenodo.org:271967</identifier>
      <datestamp>2017-02-08T03:10:44Z</datestamp>
      <setSpec>user-biosyslit</setSpec>
    </header>
    <header>
      <identifier>oai:zenodo.org:272446</identifier>
      <datestamp>2017-02-08T04:39:44Z</datestamp>
      <setSpec>user-biosyslit</setSpec>
    </header>
    <header>
      <identifier>oai:zenodo.org:272498</identifier>
      <datestamp>2017-02-08T04:56:08Z</datestamp>
      <setSpec>user-biosyslit</setSpec>
    </header>
    <header>
      <identifier>oai:zenodo.org:243674</identifier>
      <datestamp>2017-01-14T09:02:02Z</datestamp>
      <setSpec>user-biosyslit</setSpec>
    </header>
    <header>
      <identifier>oai:zenodo.org:272061</identifier>
      <datestamp>2017-02-08T03:26:58Z</datestamp>
      <setSpec>user-biosyslit</setSpec>
    </header>
    <header>
      <identifier>oai:zenodo.org:243886</identifier>
      <datestamp>2017-01-14T12:42:42Z</datestamp>
      <setSpec>user-biosyslit</setSpec>
    </header>
    <header>
      <identifier>oai:zenodo.org:244659</identifier>
      <datestamp>2017-01-15T00:31:12Z</datestamp>
      <setSpec>user-biosyslit</setSpec>
    </header>
    <header>
      <identifier>oai:zenodo.org:272509</identifier>
      <datestamp>2017-02-08T04:58:15Z</datestamp>
      <setSpec>user-biosyslit</setSpec>
    </header>
    <header>
      <identifier>oai:zenodo.org:244153</identifier>
      <datestamp>2017-01-14T16:49:42Z</datestamp>
      <setSpec>user-biosyslit</setSpec>
    </header>
    <header>
      <identifier>oai:zenodo.org:244721</identifier>
      <datestamp>2017-01-15T01:38:14Z</datestamp>
      <setSpec>user-biosyslit</setSpec>
    </header>
    <header>
      <identifier>oai:zenodo.org:244408</identifier>
      <datestamp>2017-01-14T21:26:09Z</datestamp>
      <setSpec>user-biosyslit</setSpec>
    </header>
    <header>
      <identifier>oai:zenodo.org:244154</identifier>
      <datestamp>2017-01-14T16:49:48Z</datestamp>
      <setSpec>user-biosyslit</setSpec>
    </header>
    <header>
      <identifier>oai:zenodo.org:245861</identifier>
      <datestamp>2017-01-15T19:11:35Z</datestamp>
      <setSpec>user-biosyslit</setSpec>
    </header>
    <header>
      <identifier>oai:zenodo.org:244702</identifier>
      <datestamp>2017-01-15T01:28:15Z</datestamp>
      <setSpec>user-biosyslit</setSpec>
    </header>
    <header>
      <identifier>oai:zenodo.org:244683</identifier>
      <datestamp>2017-01-15T01:10:26Z</datestamp>
      <setSpec>user-biosyslit</setSpec>
    </header>
    <header>
      <identifier>oai:zenodo.org:272195</identifier>
      <datestamp>2017-02-08T03:58:37Z</datestamp>
      <setSpec>user-biosyslit</setSpec>
    </header>
    <header>
      <identifier>oai:zenodo.org:244527</identifier>
      <datestamp>2017-01-14T23:05:38Z</datestamp>
      <setSpec>user-biosyslit</setSpec>
    </header>
    <header>
      <identifier>oai:zenodo.org:272203</identifier>
      <datestamp>2017-02-08T03:58:58Z</datestamp>
      <setSpec>user-biosyslit</setSpec>
    </header>
    <header>
      <identifier>oai:zenodo.org:245282</identifier>
      <datestamp>2017-01-15T11:15:51Z</datestamp>
      <setSpec>user-biosyslit</setSpec>
    </header>
    <header>
      <identifier>oai:zenodo.org:276500</identifier>
      <datestamp>2017-02-08T18:58:11Z</datestamp>
      <setSpec>user-biosyslit</setSpec>
    </header>
    <header>
      <identifier>oai:zenodo.org:245664</identifier>
      <datestamp>2017-01-15T17:13:26Z</datestamp>
      <setSpec>user-biosyslit</setSpec>
    </header>
    <header>
      <identifier>oai:zenodo.org:244942</identifier>
      <datestamp>2017-01-15T05:40:42Z</datestamp>
      <setSpec>user-biosyslit</setSpec>
    </header>
    <header>
      <identifier>oai:zenodo.org:245231</identifier>
      <datestamp>2017-01-15T10:19:18Z</datestamp>
      <setSpec>user-biosyslit</setSpec>
    </header>
    <header>
      <identifier>oai:zenodo.org:244875</identifier>
      <datestamp>2017-01-15T04:33:42Z</datestamp>
      <setSpec>user-biosyslit</setSpec>
    </header>
    <header>
      <identifier>oai:zenodo.org:245367</identifier>
      <datestamp>2017-01-15T12:19:44Z</datestamp>
      <setSpec>user-biosyslit</setSpec>
    </header>
    <header>
      <identifier>oai:zenodo.org:289956</identifier>
      <datestamp>2017-02-10T00:51:30Z</datestamp>
      <setSpec>user-biosyslit</setSpec>
    </header>
    <header>
      <identifier>oai:zenodo.org:246328</identifier>
      <datestamp>2017-01-16T00:44:31Z</datestamp>
      <setSpec>user-biosyslit</setSpec>
    </header>
    <header>
      <identifier>oai:zenodo.org:289566</identifier>
      <datestamp>2017-02-09T23:50:37Z</datestamp>
      <setSpec>user-biosyslit</setSpec>
    </header>
    <header>
      <identifier>oai:zenodo.org:290021</identifier>
      <datestamp>2017-02-10T01:06:10Z</datestamp>
      <setSpec>user-biosyslit</setSpec>
    </header>
    <header>
      <identifier>oai:zenodo.org:288983</identifier>
      <datestamp>2017-02-09T22:19:13Z</datestamp>
      <setSpec>user-biosyslit</setSpec>
    </header>
    <header>
      <identifier>oai:zenodo.org:289556</identifier>
      <datestamp>2017-02-09T23:50:05Z</datestamp>
      <setSpec>user-biosyslit</setSpec>
    </header>
    <header>
      <identifier>oai:zenodo.org:289547</identifier>
      <datestamp>2017-02-09T23:49:30Z</datestamp>
      <setSpec>user-biosyslit</setSpec>
    </header>
    <header>
      <identifier>oai:zenodo.org:289757</identifier>
      <datestamp>2017-02-10T00:25:48Z</datestamp>
      <setSpec>user-biosyslit</setSpec>
    </header>
    <header>
      <identifier>oai:zenodo.org:289052</identifier>
      <datestamp>2017-02-09T22:32:37Z</datestamp>
      <setSpec>user-biosyslit</setSpec>
    </header>
    <header>
      <identifier>oai:zenodo.org:289269</identifier>
      <datestamp>2017-02-09T23:07:05Z</datestamp>
      <setSpec>user-biosyslit</setSpec>
    </header>
    <header>
      <identifier>oai:zenodo.org:289764</identifier>
      <datestamp>2017-02-10T00:26:04Z</datestamp>
      <setSpec>user-biosyslit</setSpec>
    </header>
    <header>
      <identifier>oai:zenodo.org:289942</identifier>
      <datestamp>2017-02-10T00:50:52Z</datestamp>
      <setSpec>user-biosyslit</setSpec>
    </header>
    <header>
      <identifier>oai:zenodo.org:289643</identifier>
      <datestamp>2017-02-10T00:01:53Z</datestamp>
      <setSpec>user-biosyslit</setSpec>
    </header>
    <header>
      <identifier>oai:zenodo.org:289715</identifier>
      <datestamp>2017-02-10T00:21:58Z</datestamp>
      <setSpec>user-biosyslit</setSpec>
    </header>
    <header>
      <identifier>oai:zenodo.org:289533</identifier>
      <datestamp>2017-02-09T23:48:29Z</datestamp>
      <setSpec>user-biosyslit</setSpec>
    </header>
    <header>
      <identifier>oai:zenodo.org:291359</identifier>
      <datestamp>2017-02-13T20:47:39Z</datestamp>
      <setSpec>user-biosyslit</setSpec>
    </header>
    <header>
      <identifier>oai:zenodo.org:289697</identifier>
      <datestamp>2017-02-10T00:11:31Z</datestamp>
      <setSpec>user-biosyslit</setSpec>
    </header>
    <header>
      <identifier>oai:zenodo.org:289854</identifier>
      <datestamp>2017-02-10T00:42:05Z</datestamp>
      <setSpec>user-biosyslit</setSpec>
    </header>
    <header>
      <identifier>oai:zenodo.org:289860</identifier>
      <datestamp>2017-02-10T00:42:20Z</datestamp>
      <setSpec>user-biosyslit</setSpec>
    </header>
    <header>
      <identifier>oai:zenodo.org:290091</identifier>
      <datestamp>2017-02-10T01:15:34Z</datestamp>
      <setSpec>user-biosyslit</setSpec>
    </header>
    <header>
      <identifier>oai:zenodo.org:289952</identifier>
      <datestamp>2017-02-10T00:51:20Z</datestamp>
      <setSpec>user-biosyslit</setSpec>
    </header>
    <header>
      <identifier>oai:zenodo.org:291336</identifier>
      <datestamp>2017-02-13T20:45:17Z</datestamp>
      <setSpec>user-biosyslit</setSpec>
    </header>
    <header>
      <identifier>oai:zenodo.org:289957</identifier>
      <datestamp>2017-02-10T00:51:32Z</datestamp>
      <setSpec>user-biosyslit</setSpec>
    </header>
    <header>
      <identifier>oai:zenodo.org:292322</identifier>
      <datestamp>2017-02-20T08:29:46Z</datestamp>
      <setSpec>user-biosyslit</setSpec>
    </header>
    <header>
      <identifier>oai:zenodo.org:290689</identifier>
      <datestamp>2017-02-15T16:03:01Z</datestamp>
      <setSpec>openaire</setSpec>
      <setSpec>user-biosyslit</setSpec>
    </header>
    <header>
      <identifier>oai:zenodo.org:291781</identifier>
      <datestamp>2017-02-14T17:08:21Z</datestamp>
      <setSpec>user-biosyslit</setSpec>
    </header>
    <header>
      <identifier>oai:zenodo.org:293409</identifier>
      <datestamp>2017-02-19T13:37:27Z</datestamp>
      <setSpec>user-biosyslit</setSpec>
    </header>
    <header>
      <identifier>oai:zenodo.org:292488</identifier>
      <datestamp>2017-02-20T08:31:29Z</datestamp>
      <setSpec>user-biosyslit</setSpec>
    </header>
    <header>
      <identifier>oai:zenodo.org:292281</identifier>
      <datestamp>2017-02-20T08:30:23Z</datestamp>
      <setSpec>user-biosyslit</setSpec>
    </header>
    <header>
      <identifier>oai:zenodo.org:293704</identifier>
      <datestamp>2017-02-19T14:31:35Z</datestamp>
      <setSpec>user-biosyslit</setSpec>
    </header>
    <header>
      <identifier>oai:zenodo.org:292598</identifier>
      <datestamp>2017-02-20T08:18:37Z</datestamp>
      <setSpec>openaire</setSpec>
      <setSpec>user-biosyslit</setSpec>
    </header>
    <header>
      <identifier>oai:zenodo.org:293611</identifier>
      <datestamp>2017-02-19T13:53:19Z</datestamp>
      <setSpec>user-biosyslit</setSpec>
    </header>
    <header>
      <identifier>oai:zenodo.org:292695</identifier>
      <datestamp>2017-02-16T18:29:16Z</datestamp>
      <setSpec>user-biosyslit</setSpec>
    </header>
    <header>
      <identifier>oai:zenodo.org:292758</identifier>
      <datestamp>2017-02-16T18:37:20Z</datestamp>
      <setSpec>user-biosyslit</setSpec>
    </header>
    <header>
      <identifier>oai:zenodo.org:293060</identifier>
      <datestamp>2017-02-19T11:35:48Z</datestamp>
      <setSpec>openaire</setSpec>
      <setSpec>user-neilreichia</setSpec>
      <setSpec>user-biosyslit</setSpec>
    </header>
    <header>
      <identifier>oai:zenodo.org:292860</identifier>
      <datestamp>2017-02-16T18:49:29Z</datestamp>
      <setSpec>user-biosyslit</setSpec>
    </header>
    <header>
      <identifier>oai:zenodo.org:293027</identifier>
      <datestamp>2017-02-20T08:16:15Z</datestamp>
      <setSpec>user-neilreichia</setSpec>
      <setSpec>user-biosyslit</setSpec>
    </header>
    <header>
      <identifier>oai:zenodo.org:292759</identifier>
      <datestamp>2017-02-16T18:36:54Z</datestamp>
      <setSpec>user-biosyslit</setSpec>
    </header>
    <header>
      <identifier>oai:zenodo.org:293308</identifier>
      <datestamp>2017-02-19T13:29:44Z</datestamp>
      <setSpec>user-biosyslit</setSpec>
    </header>
    <header>
      <identifier>oai:zenodo.org:292848</identifier>
      <datestamp>2017-02-16T18:46:19Z</datestamp>
      <setSpec>user-biosyslit</setSpec>
    </header>
    <header>
      <identifier>oai:zenodo.org:293369</identifier>
      <datestamp>2017-02-19T13:34:30Z</datestamp>
      <setSpec>user-biosyslit</setSpec>
    </header>
    <header>
      <identifier>oai:zenodo.org:293218</identifier>
      <datestamp>2017-02-19T13:00:54Z</datestamp>
      <setSpec>user-biosyslit</setSpec>
    </header>
    <header>
      <identifier>oai:zenodo.org:293176</identifier>
      <datestamp>2017-02-18T20:06:04Z</datestamp>
      <setSpec>user-biosyslit</setSpec>
    </header>
    <header>
      <identifier>oai:zenodo.org:293940</identifier>
      <datestamp>2017-02-20T19:01:37Z</datestamp>
      <setSpec>user-biosyslit</setSpec>
    </header>
    <header>
      <identifier>oai:zenodo.org:294020</identifier>
      <datestamp>2017-02-20T19:09:11Z</datestamp>
      <setSpec>user-biosyslit</setSpec>
    </header>
    <header>
      <identifier>oai:zenodo.org:293870</identifier>
      <datestamp>2017-02-20T18:53:03Z</datestamp>
      <setSpec>user-biosyslit</setSpec>
    </header>
    <header>
      <identifier>oai:zenodo.org:293866</identifier>
      <datestamp>2017-02-20T18:52:44Z</datestamp>
      <setSpec>user-biosyslit</setSpec>
    </header>
    <header>
      <identifier>oai:zenodo.org:293890</identifier>
      <datestamp>2017-02-20T18:55:27Z</datestamp>
      <setSpec>user-biosyslit</setSpec>
    </header>
    <header>
      <identifier>oai:zenodo.org:293633</identifier>
      <datestamp>2017-02-19T13:55:19Z</datestamp>
      <setSpec>user-biosyslit</setSpec>
    </header>
    <header>
      <identifier>oai:zenodo.org:293968</identifier>
      <datestamp>2017-02-20T19:04:03Z</datestamp>
      <setSpec>user-biosyslit</setSpec>
    </header>
    <header>
      <identifier>oai:zenodo.org:295975</identifier>
      <datestamp>2017-02-20T20:05:10Z</datestamp>
      <setSpec>user-biosyslit</setSpec>
    </header>
    <header>
      <identifier>oai:zenodo.org:302130</identifier>
      <datestamp>2017-02-20T21:46:10Z</datestamp>
      <setSpec>user-biosyslit</setSpec>
    </header>
    <header>
      <identifier>oai:zenodo.org:296005</identifier>
      <datestamp>2017-02-20T20:05:33Z</datestamp>
      <setSpec>user-biosyslit</setSpec>
    </header>
    <header>
      <identifier>oai:zenodo.org:294173</identifier>
      <datestamp>2017-02-20T19:24:06Z</datestamp>
      <setSpec>user-biosyslit</setSpec>
    </header>
    <header>
      <identifier>oai:zenodo.org:294214</identifier>
      <datestamp>2017-02-20T19:29:38Z</datestamp>
      <setSpec>user-biosyslit</setSpec>
    </header>
    <header>
      <identifier>oai:zenodo.org:312031</identifier>
      <datestamp>2017-02-21T00:34:52Z</datestamp>
      <setSpec>user-biosyslit</setSpec>
    </header>
    <header>
      <identifier>oai:zenodo.org:311002</identifier>
      <datestamp>2017-02-21T00:13:53Z</datestamp>
      <setSpec>user-biosyslit</setSpec>
    </header>
    <header>
      <identifier>oai:zenodo.org:313028</identifier>
      <datestamp>2017-02-21T00:53:20Z</datestamp>
      <setSpec>user-biosyslit</setSpec>
    </header>
    <header>
      <identifier>oai:zenodo.org:305351</identifier>
      <datestamp>2017-02-20T22:38:36Z</datestamp>
      <setSpec>user-biosyslit</setSpec>
    </header>
    <header>
      <identifier>oai:zenodo.org:312892</identifier>
      <datestamp>2017-02-21T00:51:13Z</datestamp>
      <setSpec>user-biosyslit</setSpec>
    </header>
    <header>
      <identifier>oai:zenodo.org:311825</identifier>
      <datestamp>2017-02-21T00:29:52Z</datestamp>
      <setSpec>user-biosyslit</setSpec>
    </header>
    <header>
      <identifier>oai:zenodo.org:322083</identifier>
      <datestamp>2017-02-24T07:29:47Z</datestamp>
      <setSpec>user-biosyslit</setSpec>
    </header>
    <header>
      <identifier>oai:zenodo.org:321704</identifier>
      <datestamp>2017-02-23T00:15:13Z</datestamp>
      <setSpec>user-biosyslit</setSpec>
    </header>
    <header>
      <identifier>oai:zenodo.org:311500</identifier>
      <datestamp>2017-02-21T00:23:57Z</datestamp>
      <setSpec>user-biosyslit</setSpec>
    </header>
    <header>
      <identifier>oai:zenodo.org:313249</identifier>
      <datestamp>2017-02-21T00:57:42Z</datestamp>
      <setSpec>user-biosyslit</setSpec>
    </header>
    <header>
      <identifier>oai:zenodo.org:322106</identifier>
      <datestamp>2017-02-24T07:30:38Z</datestamp>
      <setSpec>user-biosyslit</setSpec>
    </header>
    <header>
      <identifier>oai:zenodo.org:312955</identifier>
      <datestamp>2017-02-21T00:52:26Z</datestamp>
      <setSpec>user-biosyslit</setSpec>
    </header>
    <header>
      <identifier>oai:zenodo.org:322185</identifier>
      <datestamp>2017-02-24T07:36:48Z</datestamp>
      <setSpec>user-biosyslit</setSpec>
    </header>
    <header>
      <identifier>oai:zenodo.org:321774</identifier>
      <datestamp>2017-02-23T08:41:42Z</datestamp>
      <setSpec>user-biosyslit</setSpec>
    </header>
    <header>
      <identifier>oai:zenodo.org:319945</identifier>
      <datestamp>2017-02-21T03:24:47Z</datestamp>
      <setSpec>user-biosyslit</setSpec>
    </header>
    <header>
      <identifier>oai:zenodo.org:320154</identifier>
      <datestamp>2017-02-21T03:26:58Z</datestamp>
      <setSpec>user-biosyslit</setSpec>
    </header>
    <header>
      <identifier>oai:zenodo.org:322177</identifier>
      <datestamp>2017-02-24T07:36:29Z</datestamp>
      <setSpec>user-biosyslit</setSpec>
    </header>
    <resumptionToken expirationDate="2017-08-31T15:45:55Z" cursor="44300" completeListSize="77796">.eJyNyj0LgkAYAOD_8s4S96GcCS1hiUOKXoq2hKmIdZp4hXrif8-luZ75mUGWZQEW2iBEdEIw2zJqUp0YzNRA5v1TiGu9BsiTWOStiDInfodNjFJSMc-W48lOqaceyG-w4seAJNgcoxpNwTl6pSocY-oOHB3YSQWTd3fXV1DfEZeb0_Go3QtOit4_BBPHe36h-ffhP5_6-Wy5Aw26rCrB0nVDg8eQ9ZUEa16WDwF3UaI.DInAOw.WUseTJAmwIbDoH76RdZOLGMo-04</resumptionToken>
  </ListIdentifiers>
</OAI-PMH>
