<?xml version='1.0' encoding='UTF-8'?>
<?xml-stylesheet type="text/xsl" href="/static/xsl/oai2.v1.0.xsl"?>
<OAI-PMH xmlns="http://www.openarchives.org/OAI/2.0/" xmlns:xsi="http://www.w3.org/2001/XMLSchema-instance" xsi:schemaLocation="http://www.openarchives.org/OAI/2.0/ http://www.openarchives.org/OAI/2.0/OAI-PMH.xsd">
  <responseDate>2017-08-31T15:44:27Z</responseDate>
  <request verb="ListIdentifiers" resumptionToken=".eJyNyssKgkAUANB_uWuJefhCaCOauFCxSVE3YSpijhZOkU7477lpXetz3iCapgYL7UxEdJWYpmaomFKdKCCq6cb5udsYqizl1ciT0kufxyFFOWmN0BFz4OQ0lD2KBizZISYZNuekQ0t8Sh65PM4p9V8MuUYg4yW8-turaeTx4uLdWTLanJF6itx4YdhmBa2-D__55M_niD0ocC_bBiwNaQr0r3JqBVjvdf0Am2VROg.DInAWw.MKrGviTL8A5UBLh2WyQjq8i-kLU">https://zenodo.org/oai2d</request>
  <ListIdentifiers>
    <header>
      <identifier>oai:zenodo.org:276529</identifier>
      <datestamp>2017-02-08T19:05:44Z</datestamp>
      <setSpec>user-biosyslit</setSpec>
    </header>
    <header>
      <identifier>oai:zenodo.org:237948</identifier>
      <datestamp>2017-01-10T22:50:21Z</datestamp>
      <setSpec>user-biosyslit</setSpec>
    </header>
    <header>
      <identifier>oai:zenodo.org:237000</identifier>
      <datestamp>2017-01-10T09:18:08Z</datestamp>
      <setSpec>user-biosyslit</setSpec>
    </header>
    <header>
      <identifier>oai:zenodo.org:277522</identifier>
      <datestamp>2017-02-08T21:17:17Z</datestamp>
      <setSpec>user-biosyslit</setSpec>
    </header>
    <header>
      <identifier>oai:zenodo.org:271360</identifier>
      <datestamp>2017-02-08T01:33:04Z</datestamp>
      <setSpec>user-biosyslit</setSpec>
    </header>
    <header>
      <identifier>oai:zenodo.org:238118</identifier>
      <datestamp>2017-01-11T01:14:38Z</datestamp>
      <setSpec>user-biosyslit</setSpec>
    </header>
    <header>
      <identifier>oai:zenodo.org:237546</identifier>
      <datestamp>2017-01-10T16:48:26Z</datestamp>
      <setSpec>user-biosyslit</setSpec>
    </header>
    <header>
      <identifier>oai:zenodo.org:238639</identifier>
      <datestamp>2017-01-11T08:30:44Z</datestamp>
      <setSpec>user-biosyslit</setSpec>
    </header>
    <header>
      <identifier>oai:zenodo.org:235102</identifier>
      <datestamp>2017-01-09T05:37:39Z</datestamp>
      <setSpec>user-biosyslit</setSpec>
    </header>
    <header>
      <identifier>oai:zenodo.org:277003</identifier>
      <datestamp>2017-02-08T20:10:06Z</datestamp>
      <setSpec>user-biosyslit</setSpec>
    </header>
    <header>
      <identifier>oai:zenodo.org:271841</identifier>
      <datestamp>2017-02-08T02:45:03Z</datestamp>
      <setSpec>user-biosyslit</setSpec>
    </header>
    <header>
      <identifier>oai:zenodo.org:272029</identifier>
      <datestamp>2017-02-08T03:21:52Z</datestamp>
      <setSpec>user-biosyslit</setSpec>
    </header>
    <header>
      <identifier>oai:zenodo.org:278285</identifier>
      <datestamp>2017-02-08T22:46:55Z</datestamp>
      <setSpec>user-biosyslit</setSpec>
    </header>
    <header>
      <identifier>oai:zenodo.org:192624</identifier>
      <datestamp>2017-01-09T09:49:10Z</datestamp>
      <setSpec>user-biosyslit</setSpec>
    </header>
    <header>
      <identifier>oai:zenodo.org:239767</identifier>
      <datestamp>2017-01-12T00:44:59Z</datestamp>
      <setSpec>user-biosyslit</setSpec>
    </header>
    <header>
      <identifier>oai:zenodo.org:238925</identifier>
      <datestamp>2017-01-11T12:44:03Z</datestamp>
      <setSpec>user-biosyslit</setSpec>
    </header>
    <header>
      <identifier>oai:zenodo.org:279217</identifier>
      <datestamp>2017-02-09T00:49:08Z</datestamp>
      <setSpec>user-biosyslit</setSpec>
    </header>
    <header>
      <identifier>oai:zenodo.org:236234</identifier>
      <datestamp>2017-01-09T20:00:40Z</datestamp>
      <setSpec>user-biosyslit</setSpec>
    </header>
    <header>
      <identifier>oai:zenodo.org:236339</identifier>
      <datestamp>2017-01-09T22:53:39Z</datestamp>
      <setSpec>user-biosyslit</setSpec>
    </header>
    <header>
      <identifier>oai:zenodo.org:278295</identifier>
      <datestamp>2017-02-08T22:49:31Z</datestamp>
      <setSpec>user-biosyslit</setSpec>
    </header>
    <header>
      <identifier>oai:zenodo.org:239686</identifier>
      <datestamp>2017-01-11T23:45:02Z</datestamp>
      <setSpec>user-biosyslit</setSpec>
    </header>
    <header>
      <identifier>oai:zenodo.org:237623</identifier>
      <datestamp>2017-01-10T18:02:30Z</datestamp>
      <setSpec>user-biosyslit</setSpec>
    </header>
    <header>
      <identifier>oai:zenodo.org:239322</identifier>
      <datestamp>2017-01-11T18:51:17Z</datestamp>
      <setSpec>user-biosyslit</setSpec>
    </header>
    <header>
      <identifier>oai:zenodo.org:278448</identifier>
      <datestamp>2017-02-08T23:11:40Z</datestamp>
      <setSpec>user-biosyslit</setSpec>
    </header>
    <header>
      <identifier>oai:zenodo.org:239966</identifier>
      <datestamp>2017-01-12T03:00:24Z</datestamp>
      <setSpec>user-biosyslit</setSpec>
    </header>
    <header>
      <identifier>oai:zenodo.org:278166</identifier>
      <datestamp>2017-02-08T22:35:38Z</datestamp>
      <setSpec>user-biosyslit</setSpec>
    </header>
    <header>
      <identifier>oai:zenodo.org:279043</identifier>
      <datestamp>2017-02-09T00:28:34Z</datestamp>
      <setSpec>user-biosyslit</setSpec>
    </header>
    <header>
      <identifier>oai:zenodo.org:278866</identifier>
      <datestamp>2017-02-09T00:00:27Z</datestamp>
      <setSpec>user-biosyslit</setSpec>
    </header>
    <header>
      <identifier>oai:zenodo.org:271370</identifier>
      <datestamp>2017-02-08T01:32:53Z</datestamp>
      <setSpec>user-biosyslit</setSpec>
    </header>
    <header>
      <identifier>oai:zenodo.org:277423</identifier>
      <datestamp>2017-02-08T21:07:12Z</datestamp>
      <setSpec>user-biosyslit</setSpec>
    </header>
    <header>
      <identifier>oai:zenodo.org:238201</identifier>
      <datestamp>2017-01-11T02:11:57Z</datestamp>
      <setSpec>user-biosyslit</setSpec>
    </header>
    <header>
      <identifier>oai:zenodo.org:278670</identifier>
      <datestamp>2017-02-08T23:38:11Z</datestamp>
      <setSpec>user-biosyslit</setSpec>
    </header>
    <header>
      <identifier>oai:zenodo.org:271093</identifier>
      <datestamp>2017-02-08T00:44:58Z</datestamp>
      <setSpec>user-biosyslit</setSpec>
    </header>
    <header>
      <identifier>oai:zenodo.org:238119</identifier>
      <datestamp>2017-01-11T01:14:44Z</datestamp>
      <setSpec>user-biosyslit</setSpec>
    </header>
    <header>
      <identifier>oai:zenodo.org:278436</identifier>
      <datestamp>2017-02-08T23:10:31Z</datestamp>
      <setSpec>user-biosyslit</setSpec>
    </header>
    <header>
      <identifier>oai:zenodo.org:278629</identifier>
      <datestamp>2017-02-08T23:33:20Z</datestamp>
      <setSpec>user-biosyslit</setSpec>
    </header>
    <header>
      <identifier>oai:zenodo.org:238155</identifier>
      <datestamp>2017-01-11T01:43:39Z</datestamp>
      <setSpec>user-biosyslit</setSpec>
    </header>
    <header>
      <identifier>oai:zenodo.org:238141</identifier>
      <datestamp>2017-01-11T01:33:35Z</datestamp>
      <setSpec>user-biosyslit</setSpec>
    </header>
    <header>
      <identifier>oai:zenodo.org:238158</identifier>
      <datestamp>2017-01-11T01:43:55Z</datestamp>
      <setSpec>user-biosyslit</setSpec>
    </header>
    <header>
      <identifier>oai:zenodo.org:238182</identifier>
      <datestamp>2017-01-11T01:57:04Z</datestamp>
      <setSpec>user-biosyslit</setSpec>
    </header>
    <header>
      <identifier>oai:zenodo.org:241644</identifier>
      <datestamp>2017-01-13T04:12:24Z</datestamp>
      <setSpec>user-biosyslit</setSpec>
    </header>
    <header>
      <identifier>oai:zenodo.org:278848</identifier>
      <datestamp>2017-02-08T23:59:36Z</datestamp>
      <setSpec>user-biosyslit</setSpec>
    </header>
    <header>
      <identifier>oai:zenodo.org:279038</identifier>
      <datestamp>2017-02-09T00:28:20Z</datestamp>
      <setSpec>user-biosyslit</setSpec>
    </header>
    <header>
      <identifier>oai:zenodo.org:278177</identifier>
      <datestamp>2017-02-08T22:36:57Z</datestamp>
      <setSpec>user-biosyslit</setSpec>
    </header>
    <header>
      <identifier>oai:zenodo.org:278613</identifier>
      <datestamp>2017-02-08T23:30:24Z</datestamp>
      <setSpec>user-biosyslit</setSpec>
    </header>
    <header>
      <identifier>oai:zenodo.org:241093</identifier>
      <datestamp>2017-01-12T19:58:43Z</datestamp>
      <setSpec>user-biosyslit</setSpec>
    </header>
    <header>
      <identifier>oai:zenodo.org:277181</identifier>
      <datestamp>2017-02-08T20:33:56Z</datestamp>
      <setSpec>user-biosyslit</setSpec>
    </header>
    <header>
      <identifier>oai:zenodo.org:277400</identifier>
      <datestamp>2017-02-08T21:04:21Z</datestamp>
      <setSpec>user-biosyslit</setSpec>
    </header>
    <header>
      <identifier>oai:zenodo.org:237483</identifier>
      <datestamp>2017-01-10T16:05:13Z</datestamp>
      <setSpec>user-biosyslit</setSpec>
    </header>
    <header>
      <identifier>oai:zenodo.org:236094</identifier>
      <datestamp>2017-01-09T18:32:18Z</datestamp>
      <setSpec>user-biosyslit</setSpec>
    </header>
    <header>
      <identifier>oai:zenodo.org:276786</identifier>
      <datestamp>2017-02-08T19:40:22Z</datestamp>
      <setSpec>user-biosyslit</setSpec>
    </header>
    <header>
      <identifier>oai:zenodo.org:239691</identifier>
      <datestamp>2017-01-11T23:48:25Z</datestamp>
      <setSpec>user-biosyslit</setSpec>
    </header>
    <header>
      <identifier>oai:zenodo.org:237670</identifier>
      <datestamp>2017-01-10T18:30:33Z</datestamp>
      <setSpec>user-biosyslit</setSpec>
    </header>
    <header>
      <identifier>oai:zenodo.org:277881</identifier>
      <datestamp>2017-02-08T22:00:50Z</datestamp>
      <setSpec>user-biosyslit</setSpec>
    </header>
    <header>
      <identifier>oai:zenodo.org:277367</identifier>
      <datestamp>2017-02-08T20:59:05Z</datestamp>
      <setSpec>user-biosyslit</setSpec>
    </header>
    <header>
      <identifier>oai:zenodo.org:239276</identifier>
      <datestamp>2017-01-11T18:48:17Z</datestamp>
      <setSpec>user-biosyslit</setSpec>
    </header>
    <header>
      <identifier>oai:zenodo.org:238304</identifier>
      <datestamp>2017-01-11T03:34:44Z</datestamp>
      <setSpec>user-biosyslit</setSpec>
    </header>
    <header>
      <identifier>oai:zenodo.org:237931</identifier>
      <datestamp>2017-01-10T22:30:44Z</datestamp>
      <setSpec>user-biosyslit</setSpec>
    </header>
    <header>
      <identifier>oai:zenodo.org:277819</identifier>
      <datestamp>2017-02-08T21:52:28Z</datestamp>
      <setSpec>user-biosyslit</setSpec>
    </header>
    <header>
      <identifier>oai:zenodo.org:238186</identifier>
      <datestamp>2017-01-11T02:00:41Z</datestamp>
      <setSpec>user-biosyslit</setSpec>
    </header>
    <header>
      <identifier>oai:zenodo.org:238110</identifier>
      <datestamp>2017-01-11T01:14:50Z</datestamp>
      <setSpec>user-biosyslit</setSpec>
    </header>
    <header>
      <identifier>oai:zenodo.org:277527</identifier>
      <datestamp>2017-02-08T21:17:43Z</datestamp>
      <setSpec>user-biosyslit</setSpec>
    </header>
    <header>
      <identifier>oai:zenodo.org:238069</identifier>
      <datestamp>2017-01-11T00:42:09Z</datestamp>
      <setSpec>user-biosyslit</setSpec>
    </header>
    <header>
      <identifier>oai:zenodo.org:238256</identifier>
      <datestamp>2017-01-11T03:00:00Z</datestamp>
      <setSpec>user-biosyslit</setSpec>
    </header>
    <header>
      <identifier>oai:zenodo.org:278694</identifier>
      <datestamp>2017-02-08T23:41:07Z</datestamp>
      <setSpec>user-biosyslit</setSpec>
    </header>
    <header>
      <identifier>oai:zenodo.org:277923</identifier>
      <datestamp>2017-02-08T22:04:52Z</datestamp>
      <setSpec>user-biosyslit</setSpec>
    </header>
    <header>
      <identifier>oai:zenodo.org:271443</identifier>
      <datestamp>2017-02-08T01:40:40Z</datestamp>
      <setSpec>user-biosyslit</setSpec>
    </header>
    <header>
      <identifier>oai:zenodo.org:239518</identifier>
      <datestamp>2017-01-11T21:47:28Z</datestamp>
      <setSpec>user-biosyslit</setSpec>
    </header>
    <header>
      <identifier>oai:zenodo.org:278906</identifier>
      <datestamp>2017-02-09T00:05:44Z</datestamp>
      <setSpec>user-biosyslit</setSpec>
    </header>
    <header>
      <identifier>oai:zenodo.org:238878</identifier>
      <datestamp>2017-01-11T12:10:22Z</datestamp>
      <setSpec>user-biosyslit</setSpec>
    </header>
    <header>
      <identifier>oai:zenodo.org:278481</identifier>
      <datestamp>2017-02-08T23:17:54Z</datestamp>
      <setSpec>user-biosyslit</setSpec>
    </header>
    <header>
      <identifier>oai:zenodo.org:266096</identifier>
      <datestamp>2017-02-01T00:25:23Z</datestamp>
      <setSpec>user-biosyslit</setSpec>
    </header>
    <header>
      <identifier>oai:zenodo.org:264515</identifier>
      <datestamp>2017-01-30T22:55:23Z</datestamp>
      <setSpec>user-biosyslit</setSpec>
    </header>
    <header>
      <identifier>oai:zenodo.org:264927</identifier>
      <datestamp>2017-01-31T04:49:29Z</datestamp>
      <setSpec>user-biosyslit</setSpec>
    </header>
    <header>
      <identifier>oai:zenodo.org:264549</identifier>
      <datestamp>2017-01-30T23:20:27Z</datestamp>
      <setSpec>user-biosyslit</setSpec>
    </header>
    <header>
      <identifier>oai:zenodo.org:264971</identifier>
      <datestamp>2017-01-31T05:24:59Z</datestamp>
      <setSpec>user-biosyslit</setSpec>
    </header>
    <header>
      <identifier>oai:zenodo.org:265021</identifier>
      <datestamp>2017-01-31T06:40:39Z</datestamp>
      <setSpec>user-biosyslit</setSpec>
    </header>
    <header>
      <identifier>oai:zenodo.org:265283</identifier>
      <datestamp>2017-01-31T11:14:51Z</datestamp>
      <setSpec>user-biosyslit</setSpec>
    </header>
    <header>
      <identifier>oai:zenodo.org:264813</identifier>
      <datestamp>2017-01-31T03:02:16Z</datestamp>
      <setSpec>user-biosyslit</setSpec>
    </header>
    <header>
      <identifier>oai:zenodo.org:265327</identifier>
      <datestamp>2017-01-31T12:15:59Z</datestamp>
      <setSpec>user-biosyslit</setSpec>
    </header>
    <header>
      <identifier>oai:zenodo.org:265110</identifier>
      <datestamp>2017-01-31T07:55:58Z</datestamp>
      <setSpec>user-biosyslit</setSpec>
    </header>
    <header>
      <identifier>oai:zenodo.org:266239</identifier>
      <datestamp>2017-02-01T03:28:53Z</datestamp>
      <setSpec>user-biosyslit</setSpec>
    </header>
    <header>
      <identifier>oai:zenodo.org:264804</identifier>
      <datestamp>2017-01-31T02:53:31Z</datestamp>
      <setSpec>user-biosyslit</setSpec>
    </header>
    <header>
      <identifier>oai:zenodo.org:265144</identifier>
      <datestamp>2017-01-31T08:40:39Z</datestamp>
      <setSpec>user-biosyslit</setSpec>
    </header>
    <header>
      <identifier>oai:zenodo.org:264691</identifier>
      <datestamp>2017-01-31T00:58:13Z</datestamp>
      <setSpec>user-biosyslit</setSpec>
    </header>
    <header>
      <identifier>oai:zenodo.org:265257</identifier>
      <datestamp>2017-01-31T10:51:38Z</datestamp>
      <setSpec>user-biosyslit</setSpec>
    </header>
    <header>
      <identifier>oai:zenodo.org:265139</identifier>
      <datestamp>2017-01-31T08:40:06Z</datestamp>
      <setSpec>user-biosyslit</setSpec>
    </header>
    <header>
      <identifier>oai:zenodo.org:266132</identifier>
      <datestamp>2017-02-01T01:04:40Z</datestamp>
      <setSpec>user-biosyslit</setSpec>
    </header>
    <header>
      <identifier>oai:zenodo.org:265199</identifier>
      <datestamp>2017-01-31T09:59:05Z</datestamp>
      <setSpec>user-biosyslit</setSpec>
    </header>
    <header>
      <identifier>oai:zenodo.org:265302</identifier>
      <datestamp>2017-01-31T11:46:20Z</datestamp>
      <setSpec>user-biosyslit</setSpec>
    </header>
    <header>
      <identifier>oai:zenodo.org:265475</identifier>
      <datestamp>2017-01-31T14:24:36Z</datestamp>
      <setSpec>user-biosyslit</setSpec>
    </header>
    <header>
      <identifier>oai:zenodo.org:265410</identifier>
      <datestamp>2017-01-31T13:41:39Z</datestamp>
      <setSpec>user-biosyslit</setSpec>
    </header>
    <header>
      <identifier>oai:zenodo.org:265470</identifier>
      <datestamp>2017-01-31T14:24:20Z</datestamp>
      <setSpec>user-biosyslit</setSpec>
    </header>
    <header>
      <identifier>oai:zenodo.org:266128</identifier>
      <datestamp>2017-02-01T00:56:07Z</datestamp>
      <setSpec>user-biosyslit</setSpec>
    </header>
    <header>
      <identifier>oai:zenodo.org:266314</identifier>
      <datestamp>2017-02-01T06:07:21Z</datestamp>
      <setSpec>user-biosyslit</setSpec>
    </header>
    <header>
      <identifier>oai:zenodo.org:266517</identifier>
      <datestamp>2017-02-01T11:24:59Z</datestamp>
      <setSpec>user-biosyslit</setSpec>
    </header>
    <header>
      <identifier>oai:zenodo.org:266886</identifier>
      <datestamp>2017-02-01T15:57:31Z</datestamp>
      <setSpec>user-biosyslit</setSpec>
    </header>
    <header>
      <identifier>oai:zenodo.org:266595</identifier>
      <datestamp>2017-02-01T12:19:35Z</datestamp>
      <setSpec>user-biosyslit</setSpec>
    </header>
    <header>
      <identifier>oai:zenodo.org:274241</identifier>
      <datestamp>2017-02-08T12:32:04Z</datestamp>
      <setSpec>user-biosyslit</setSpec>
    </header>
    <header>
      <identifier>oai:zenodo.org:274267</identifier>
      <datestamp>2017-02-08T12:42:09Z</datestamp>
      <setSpec>user-biosyslit</setSpec>
    </header>
    <resumptionToken expirationDate="2017-08-31T15:46:27Z" cursor="50400" completeListSize="77796">.eJyNyj0LgkAYAOD_8s4S92FpQotY4pByXh7pEqYi1lXiFeqJ_72W5pqfZwJVVSU4aEEINk2K1nhpY5Ng2zRAFd1DylPzcSiOQhZ3meS-eMU3gVJSW6Gnhr2X0lBfUXTDmu8YOWJ7SBo0skPyTHU8CBr0HG2tvWZjeAk-r6SRL7Oz3_Lk7kpOyi7aspFjl2e0-D7859M_n6c2YECb1xU4S7Qy4NrnXa3Ameb5DcLKUWE.DInAWw.KpUgnJmVq6qFJZqP-TW76HayZ2M</resumptionToken>
  </ListIdentifiers>
</OAI-PMH>
