<?xml version='1.0' encoding='UTF-8'?>
<?xml-stylesheet type="text/xsl" href="/static/xsl/oai2.v1.0.xsl"?>
<OAI-PMH xmlns="http://www.openarchives.org/OAI/2.0/" xmlns:xsi="http://www.w3.org/2001/XMLSchema-instance" xsi:schemaLocation="http://www.openarchives.org/OAI/2.0/ http://www.openarchives.org/OAI/2.0/OAI-PMH.xsd">
  <responseDate>2017-08-31T15:46:24Z</responseDate>
  <request verb="ListIdentifiers" resumptionToken=".eJyNyssKgkAUANB_uWuJeWSjQhvRxEWKTkq6CVMRa3rgFOqI_56b1rU-ZwJZ1xVYaMXommywaVIDYWzqugay7B5CnNqFoTymoryLpPDSd3xLUUYaFjhy2DsZDdQVhTes-C4iR2wMSYvG6JC8MhUPKfV7jly2V9EYXPzlVTT0RH72njy524KTqgvdaOTY5jktvw__-dTP58gtaPAsmhostqEaXPuiayRY0zx_AJ9eUUQ.DInA0A.wpfuhzJzg2HY2M-7M02wX-Ku1Js">https://zenodo.org/oai2d</request>
  <ListIdentifiers>
    <header>
      <identifier>oai:zenodo.org:827930</identifier>
      <datestamp>2017-07-15T08:27:04Z</datestamp>
      <setSpec>user-biosyslit</setSpec>
    </header>
    <header>
      <identifier>oai:zenodo.org:827926</identifier>
      <datestamp>2017-07-15T08:26:55Z</datestamp>
      <setSpec>user-biosyslit</setSpec>
    </header>
    <header>
      <identifier>oai:zenodo.org:827946</identifier>
      <datestamp>2017-07-15T08:27:35Z</datestamp>
      <setSpec>user-biosyslit</setSpec>
    </header>
    <header>
      <identifier>oai:zenodo.org:827940</identifier>
      <datestamp>2017-07-15T08:27:24Z</datestamp>
      <setSpec>user-biosyslit</setSpec>
    </header>
    <header>
      <identifier>oai:zenodo.org:827938</identifier>
      <datestamp>2017-07-15T08:27:21Z</datestamp>
      <setSpec>user-biosyslit</setSpec>
    </header>
    <header>
      <identifier>oai:zenodo.org:827948</identifier>
      <datestamp>2017-07-15T08:27:37Z</datestamp>
      <setSpec>user-biosyslit</setSpec>
    </header>
    <header>
      <identifier>oai:zenodo.org:828016</identifier>
      <datestamp>2017-07-15T08:30:38Z</datestamp>
      <setSpec>user-biosyslit</setSpec>
    </header>
    <header>
      <identifier>oai:zenodo.org:828038</identifier>
      <datestamp>2017-07-15T08:32:01Z</datestamp>
      <setSpec>user-biosyslit</setSpec>
    </header>
    <header>
      <identifier>oai:zenodo.org:828044</identifier>
      <datestamp>2017-07-15T08:32:15Z</datestamp>
      <setSpec>user-biosyslit</setSpec>
    </header>
    <header>
      <identifier>oai:zenodo.org:828050</identifier>
      <datestamp>2017-07-15T08:32:28Z</datestamp>
      <setSpec>user-biosyslit</setSpec>
    </header>
    <header>
      <identifier>oai:zenodo.org:828052</identifier>
      <datestamp>2017-07-15T08:32:32Z</datestamp>
      <setSpec>user-biosyslit</setSpec>
    </header>
    <header>
      <identifier>oai:zenodo.org:828040</identifier>
      <datestamp>2017-07-15T08:32:05Z</datestamp>
      <setSpec>user-biosyslit</setSpec>
    </header>
    <header>
      <identifier>oai:zenodo.org:828022</identifier>
      <datestamp>2017-07-15T08:30:22Z</datestamp>
      <setSpec>user-biosyslit</setSpec>
    </header>
    <header>
      <identifier>oai:zenodo.org:828024</identifier>
      <datestamp>2017-07-15T08:30:26Z</datestamp>
      <setSpec>user-biosyslit</setSpec>
    </header>
    <header>
      <identifier>oai:zenodo.org:828028</identifier>
      <datestamp>2017-07-15T08:30:34Z</datestamp>
      <setSpec>user-biosyslit</setSpec>
    </header>
    <header>
      <identifier>oai:zenodo.org:828140</identifier>
      <datestamp>2017-07-15T08:40:23Z</datestamp>
      <setSpec>user-biosyslit</setSpec>
    </header>
    <header>
      <identifier>oai:zenodo.org:828120</identifier>
      <datestamp>2017-07-15T08:39:46Z</datestamp>
      <setSpec>user-biosyslit</setSpec>
    </header>
    <header>
      <identifier>oai:zenodo.org:828138</identifier>
      <datestamp>2017-07-15T08:40:19Z</datestamp>
      <setSpec>user-biosyslit</setSpec>
    </header>
    <header>
      <identifier>oai:zenodo.org:828142</identifier>
      <datestamp>2017-07-15T08:40:26Z</datestamp>
      <setSpec>user-biosyslit</setSpec>
    </header>
    <header>
      <identifier>oai:zenodo.org:828122</identifier>
      <datestamp>2017-07-15T08:39:50Z</datestamp>
      <setSpec>user-biosyslit</setSpec>
    </header>
    <header>
      <identifier>oai:zenodo.org:828124</identifier>
      <datestamp>2017-07-15T08:39:54Z</datestamp>
      <setSpec>user-biosyslit</setSpec>
    </header>
    <header>
      <identifier>oai:zenodo.org:828126</identifier>
      <datestamp>2017-07-15T08:39:57Z</datestamp>
      <setSpec>user-biosyslit</setSpec>
    </header>
    <header>
      <identifier>oai:zenodo.org:828114</identifier>
      <datestamp>2017-07-15T08:39:32Z</datestamp>
      <setSpec>user-biosyslit</setSpec>
    </header>
    <header>
      <identifier>oai:zenodo.org:828136</identifier>
      <datestamp>2017-07-15T08:40:15Z</datestamp>
      <setSpec>user-biosyslit</setSpec>
    </header>
    <header>
      <identifier>oai:zenodo.org:828260</identifier>
      <datestamp>2017-07-15T08:46:04Z</datestamp>
      <setSpec>user-biosyslit</setSpec>
    </header>
    <header>
      <identifier>oai:zenodo.org:828258</identifier>
      <datestamp>2017-07-15T08:46:01Z</datestamp>
      <setSpec>user-biosyslit</setSpec>
    </header>
    <header>
      <identifier>oai:zenodo.org:828256</identifier>
      <datestamp>2017-07-15T08:45:57Z</datestamp>
      <setSpec>user-biosyslit</setSpec>
    </header>
    <header>
      <identifier>oai:zenodo.org:828238</identifier>
      <datestamp>2017-07-15T08:45:23Z</datestamp>
      <setSpec>user-biosyslit</setSpec>
    </header>
    <header>
      <identifier>oai:zenodo.org:828248</identifier>
      <datestamp>2017-07-15T08:45:42Z</datestamp>
      <setSpec>user-biosyslit</setSpec>
    </header>
    <header>
      <identifier>oai:zenodo.org:828228</identifier>
      <datestamp>2017-07-15T08:44:54Z</datestamp>
      <setSpec>user-biosyslit</setSpec>
    </header>
    <header>
      <identifier>oai:zenodo.org:828222</identifier>
      <datestamp>2017-07-15T08:44:41Z</datestamp>
      <setSpec>user-biosyslit</setSpec>
    </header>
    <header>
      <identifier>oai:zenodo.org:828218</identifier>
      <datestamp>2017-07-15T08:44:33Z</datestamp>
      <setSpec>user-biosyslit</setSpec>
    </header>
    <header>
      <identifier>oai:zenodo.org:828216</identifier>
      <datestamp>2017-07-15T08:44:29Z</datestamp>
      <setSpec>user-biosyslit</setSpec>
    </header>
    <header>
      <identifier>oai:zenodo.org:828310</identifier>
      <datestamp>2017-07-15T08:49:05Z</datestamp>
      <setSpec>user-biosyslit</setSpec>
    </header>
    <header>
      <identifier>oai:zenodo.org:828337</identifier>
      <datestamp>2017-07-15T08:50:19Z</datestamp>
      <setSpec>user-biosyslit</setSpec>
    </header>
    <header>
      <identifier>oai:zenodo.org:828316</identifier>
      <datestamp>2017-07-15T08:49:15Z</datestamp>
      <setSpec>user-biosyslit</setSpec>
    </header>
    <header>
      <identifier>oai:zenodo.org:828320</identifier>
      <datestamp>2017-07-15T08:49:23Z</datestamp>
      <setSpec>user-biosyslit</setSpec>
    </header>
    <header>
      <identifier>oai:zenodo.org:828318</identifier>
      <datestamp>2017-07-15T08:49:18Z</datestamp>
      <setSpec>user-biosyslit</setSpec>
    </header>
    <header>
      <identifier>oai:zenodo.org:828312</identifier>
      <datestamp>2017-07-15T08:49:08Z</datestamp>
      <setSpec>user-biosyslit</setSpec>
    </header>
    <header>
      <identifier>oai:zenodo.org:828308</identifier>
      <datestamp>2017-07-15T08:49:01Z</datestamp>
      <setSpec>user-biosyslit</setSpec>
    </header>
    <header>
      <identifier>oai:zenodo.org:828341</identifier>
      <datestamp>2017-07-15T08:50:26Z</datestamp>
      <setSpec>user-biosyslit</setSpec>
    </header>
    <header>
      <identifier>oai:zenodo.org:828314</identifier>
      <datestamp>2017-07-15T08:49:12Z</datestamp>
      <setSpec>user-biosyslit</setSpec>
    </header>
    <header>
      <identifier>oai:zenodo.org:828475</identifier>
      <datestamp>2017-07-15T08:57:52Z</datestamp>
      <setSpec>user-biosyslit</setSpec>
    </header>
    <header>
      <identifier>oai:zenodo.org:828515</identifier>
      <datestamp>2017-07-15T08:57:48Z</datestamp>
      <setSpec>user-biosyslit</setSpec>
    </header>
    <header>
      <identifier>oai:zenodo.org:828509</identifier>
      <datestamp>2017-07-15T08:57:32Z</datestamp>
      <setSpec>user-biosyslit</setSpec>
    </header>
    <header>
      <identifier>oai:zenodo.org:828503</identifier>
      <datestamp>2017-07-15T08:57:21Z</datestamp>
      <setSpec>user-biosyslit</setSpec>
    </header>
    <header>
      <identifier>oai:zenodo.org:828491</identifier>
      <datestamp>2017-07-15T08:56:52Z</datestamp>
      <setSpec>user-biosyslit</setSpec>
    </header>
    <header>
      <identifier>oai:zenodo.org:828521</identifier>
      <datestamp>2017-07-15T08:58:05Z</datestamp>
      <setSpec>user-biosyslit</setSpec>
    </header>
    <header>
      <identifier>oai:zenodo.org:828501</identifier>
      <datestamp>2017-07-15T08:57:17Z</datestamp>
      <setSpec>user-biosyslit</setSpec>
    </header>
    <header>
      <identifier>oai:zenodo.org:828531</identifier>
      <datestamp>2017-07-15T08:58:30Z</datestamp>
      <setSpec>user-biosyslit</setSpec>
    </header>
    <header>
      <identifier>oai:zenodo.org:828781</identifier>
      <datestamp>2017-07-15T09:08:22Z</datestamp>
      <setSpec>user-biosyslit</setSpec>
    </header>
    <header>
      <identifier>oai:zenodo.org:828783</identifier>
      <datestamp>2017-07-15T09:08:12Z</datestamp>
      <setSpec>user-biosyslit</setSpec>
    </header>
    <header>
      <identifier>oai:zenodo.org:828793</identifier>
      <datestamp>2017-07-15T09:09:54Z</datestamp>
      <setSpec>user-biosyslit</setSpec>
    </header>
    <header>
      <identifier>oai:zenodo.org:828801</identifier>
      <datestamp>2017-07-15T09:10:06Z</datestamp>
      <setSpec>user-biosyslit</setSpec>
    </header>
    <header>
      <identifier>oai:zenodo.org:828775</identifier>
      <datestamp>2017-07-15T09:07:54Z</datestamp>
      <setSpec>user-biosyslit</setSpec>
    </header>
    <header>
      <identifier>oai:zenodo.org:828779</identifier>
      <datestamp>2017-07-15T09:08:01Z</datestamp>
      <setSpec>user-biosyslit</setSpec>
    </header>
    <header>
      <identifier>oai:zenodo.org:828787</identifier>
      <datestamp>2017-07-15T09:08:18Z</datestamp>
      <setSpec>user-biosyslit</setSpec>
    </header>
    <header>
      <identifier>oai:zenodo.org:828993</identifier>
      <datestamp>2017-07-15T09:20:23Z</datestamp>
      <setSpec>user-biosyslit</setSpec>
    </header>
    <header>
      <identifier>oai:zenodo.org:828965</identifier>
      <datestamp>2017-07-15T09:20:27Z</datestamp>
      <setSpec>user-biosyslit</setSpec>
    </header>
    <header>
      <identifier>oai:zenodo.org:828995</identifier>
      <datestamp>2017-07-15T09:20:52Z</datestamp>
      <setSpec>user-biosyslit</setSpec>
    </header>
    <header>
      <identifier>oai:zenodo.org:828997</identifier>
      <datestamp>2017-07-15T09:20:35Z</datestamp>
      <setSpec>user-biosyslit</setSpec>
    </header>
    <header>
      <identifier>oai:zenodo.org:828999</identifier>
      <datestamp>2017-07-15T09:20:39Z</datestamp>
      <setSpec>user-biosyslit</setSpec>
    </header>
    <header>
      <identifier>oai:zenodo.org:829273</identifier>
      <datestamp>2017-07-15T09:34:07Z</datestamp>
      <setSpec>user-biosyslit</setSpec>
    </header>
    <header>
      <identifier>oai:zenodo.org:829289</identifier>
      <datestamp>2017-07-15T09:34:51Z</datestamp>
      <setSpec>user-biosyslit</setSpec>
    </header>
    <header>
      <identifier>oai:zenodo.org:829293</identifier>
      <datestamp>2017-07-15T09:34:25Z</datestamp>
      <setSpec>user-biosyslit</setSpec>
    </header>
    <header>
      <identifier>oai:zenodo.org:829285</identifier>
      <datestamp>2017-07-15T09:33:59Z</datestamp>
      <setSpec>user-biosyslit</setSpec>
    </header>
    <header>
      <identifier>oai:zenodo.org:829297</identifier>
      <datestamp>2017-07-15T09:34:34Z</datestamp>
      <setSpec>user-biosyslit</setSpec>
    </header>
    <header>
      <identifier>oai:zenodo.org:829301</identifier>
      <datestamp>2017-07-15T09:34:42Z</datestamp>
      <setSpec>user-biosyslit</setSpec>
    </header>
    <header>
      <identifier>oai:zenodo.org:829295</identifier>
      <datestamp>2017-07-15T09:34:30Z</datestamp>
      <setSpec>user-biosyslit</setSpec>
    </header>
    <header>
      <identifier>oai:zenodo.org:829287</identifier>
      <datestamp>2017-07-15T09:34:04Z</datestamp>
      <setSpec>user-biosyslit</setSpec>
    </header>
    <header>
      <identifier>oai:zenodo.org:829313</identifier>
      <datestamp>2017-07-15T09:35:01Z</datestamp>
      <setSpec>user-biosyslit</setSpec>
    </header>
    <header>
      <identifier>oai:zenodo.org:829521</identifier>
      <datestamp>2017-07-15T09:42:56Z</datestamp>
      <setSpec>user-biosyslit</setSpec>
    </header>
    <header>
      <identifier>oai:zenodo.org:829535</identifier>
      <datestamp>2017-07-15T09:43:10Z</datestamp>
      <setSpec>user-biosyslit</setSpec>
    </header>
    <header>
      <identifier>oai:zenodo.org:829533</identifier>
      <datestamp>2017-07-15T09:43:06Z</datestamp>
      <setSpec>user-biosyslit</setSpec>
    </header>
    <header>
      <identifier>oai:zenodo.org:829557</identifier>
      <datestamp>2017-07-15T09:43:49Z</datestamp>
      <setSpec>user-biosyslit</setSpec>
    </header>
    <header>
      <identifier>oai:zenodo.org:829541</identifier>
      <datestamp>2017-07-15T09:43:20Z</datestamp>
      <setSpec>user-biosyslit</setSpec>
    </header>
    <header>
      <identifier>oai:zenodo.org:829555</identifier>
      <datestamp>2017-07-15T09:43:46Z</datestamp>
      <setSpec>user-biosyslit</setSpec>
    </header>
    <header>
      <identifier>oai:zenodo.org:829551</identifier>
      <datestamp>2017-07-15T09:43:37Z</datestamp>
      <setSpec>user-biosyslit</setSpec>
    </header>
    <header>
      <identifier>oai:zenodo.org:829547</identifier>
      <datestamp>2017-07-15T09:43:30Z</datestamp>
      <setSpec>user-biosyslit</setSpec>
    </header>
    <header>
      <identifier>oai:zenodo.org:829545</identifier>
      <datestamp>2017-07-15T09:43:27Z</datestamp>
      <setSpec>user-biosyslit</setSpec>
    </header>
    <header>
      <identifier>oai:zenodo.org:829655</identifier>
      <datestamp>2017-07-15T09:47:22Z</datestamp>
      <setSpec>user-biosyslit</setSpec>
    </header>
    <header>
      <identifier>oai:zenodo.org:829695</identifier>
      <datestamp>2017-07-15T09:48:28Z</datestamp>
      <setSpec>user-biosyslit</setSpec>
    </header>
    <header>
      <identifier>oai:zenodo.org:829669</identifier>
      <datestamp>2017-07-15T09:47:37Z</datestamp>
      <setSpec>user-biosyslit</setSpec>
    </header>
    <header>
      <identifier>oai:zenodo.org:829699</identifier>
      <datestamp>2017-07-15T09:48:35Z</datestamp>
      <setSpec>user-biosyslit</setSpec>
    </header>
    <header>
      <identifier>oai:zenodo.org:829697</identifier>
      <datestamp>2017-07-15T09:48:31Z</datestamp>
      <setSpec>user-biosyslit</setSpec>
    </header>
    <header>
      <identifier>oai:zenodo.org:829681</identifier>
      <datestamp>2017-07-15T09:47:59Z</datestamp>
      <setSpec>user-biosyslit</setSpec>
    </header>
    <header>
      <identifier>oai:zenodo.org:829691</identifier>
      <datestamp>2017-07-15T09:48:23Z</datestamp>
      <setSpec>user-biosyslit</setSpec>
    </header>
    <header>
      <identifier>oai:zenodo.org:829673</identifier>
      <datestamp>2017-07-15T09:47:44Z</datestamp>
      <setSpec>user-biosyslit</setSpec>
    </header>
    <header>
      <identifier>oai:zenodo.org:829683</identifier>
      <datestamp>2017-07-15T09:48:15Z</datestamp>
      <setSpec>user-biosyslit</setSpec>
    </header>
    <header>
      <identifier>oai:zenodo.org:829837</identifier>
      <datestamp>2017-07-15T14:43:53Z</datestamp>
      <setSpec>user-biosyslit</setSpec>
    </header>
    <header>
      <identifier>oai:zenodo.org:827956</identifier>
      <datestamp>2017-07-15T08:28:41Z</datestamp>
      <setSpec>user-biosyslit</setSpec>
    </header>
    <header>
      <identifier>oai:zenodo.org:827982</identifier>
      <datestamp>2017-07-15T08:29:04Z</datestamp>
      <setSpec>user-biosyslit</setSpec>
    </header>
    <header>
      <identifier>oai:zenodo.org:827978</identifier>
      <datestamp>2017-07-15T08:28:56Z</datestamp>
      <setSpec>user-biosyslit</setSpec>
    </header>
    <header>
      <identifier>oai:zenodo.org:827976</identifier>
      <datestamp>2017-07-15T08:28:52Z</datestamp>
      <setSpec>user-biosyslit</setSpec>
    </header>
    <header>
      <identifier>oai:zenodo.org:827958</identifier>
      <datestamp>2017-07-15T08:28:02Z</datestamp>
      <setSpec>user-biosyslit</setSpec>
    </header>
    <header>
      <identifier>oai:zenodo.org:827962</identifier>
      <datestamp>2017-07-15T08:28:09Z</datestamp>
      <setSpec>user-biosyslit</setSpec>
    </header>
    <header>
      <identifier>oai:zenodo.org:827954</identifier>
      <datestamp>2017-07-15T08:27:52Z</datestamp>
      <setSpec>user-biosyslit</setSpec>
    </header>
    <header>
      <identifier>oai:zenodo.org:827950</identifier>
      <datestamp>2017-07-15T08:27:41Z</datestamp>
      <setSpec>user-biosyslit</setSpec>
    </header>
    <header>
      <identifier>oai:zenodo.org:827952</identifier>
      <datestamp>2017-07-15T08:27:44Z</datestamp>
      <setSpec>user-biosyslit</setSpec>
    </header>
    <header>
      <identifier>oai:zenodo.org:828058</identifier>
      <datestamp>2017-07-15T08:32:45Z</datestamp>
      <setSpec>user-biosyslit</setSpec>
    </header>
    <resumptionToken expirationDate="2017-08-31T15:48:24Z" cursor="76200" completeListSize="77796">.eJyNyj0LgkAYAOD_8s4S95GdCS2iiYOKXUq6hKmIdVl4hXrif8-luebnmUBWVQkmWiFKkM4Mg2AdU6ZvdQ1k0T2EODeLQ3FKRNGKOHeT9-GeoJTULLDl4NspDdQNhXes-D4iJ2wMcYPG6Bi_UnUYEur1HDnMV9EYXL3llTR0RXZxnzxuLcFJ2YVONHJs8YwW34f_fOrns-UONHjmdQUm26w1uPV5V0swp3n-AM4OUXM.DInA0A.pjPDob8BGoCMR5E2r7AHmN3YymY</resumptionToken>
  </ListIdentifiers>
</OAI-PMH>
