<?xml version='1.0' encoding='UTF-8'?>
<?xml-stylesheet type="text/xsl" href="/static/xsl/oai2.v1.0.xsl"?>
<OAI-PMH xmlns="http://www.openarchives.org/OAI/2.0/" xmlns:xsi="http://www.w3.org/2001/XMLSchema-instance" xsi:schemaLocation="http://www.openarchives.org/OAI/2.0/ http://www.openarchives.org/OAI/2.0/OAI-PMH.xsd">
  <responseDate>2017-08-31T15:43:08Z</responseDate>
  <request verb="ListIdentifiers" resumptionToken=".eJyNyk0LgjAYAOD_8p4l5raaCl3EEg8puhT1EjZFyvWBK9RF_z0vnev8PC9QTVODgxbUXlqYsBWjFqM2tQ1Qor9JeTjNDCLPpLjKtPKzZ3LJUIFbFnpq3HkFCXWHooup-TbGuWmN6QlN8T59FDoZMxIMHG3YTsdTeA7mV5PIl-XRv_P06kqO6z7axBM3XV4S8X3mn0__fJ5agwH3qm3AIZga0A1V3ypwXu_3B7PyUVQ.DInADA._7orj7QMWCWN9kIm3BWPc40BsAg">https://zenodo.org/oai2d</request>
  <ListIdentifiers>
    <header>
      <identifier>oai:zenodo.org:815987</identifier>
      <datestamp>2017-06-22T13:19:33Z</datestamp>
      <setSpec>user-biosyslit</setSpec>
    </header>
    <header>
      <identifier>oai:zenodo.org:234737</identifier>
      <datestamp>2017-01-09T01:40:58Z</datestamp>
      <setSpec>user-biosyslit</setSpec>
    </header>
    <header>
      <identifier>oai:zenodo.org:234739</identifier>
      <datestamp>2017-01-09T01:40:48Z</datestamp>
      <setSpec>user-biosyslit</setSpec>
    </header>
    <header>
      <identifier>oai:zenodo.org:234740</identifier>
      <datestamp>2017-01-09T01:40:51Z</datestamp>
      <setSpec>user-biosyslit</setSpec>
    </header>
    <header>
      <identifier>oai:zenodo.org:282981</identifier>
      <datestamp>2017-02-09T07:58:02Z</datestamp>
      <setSpec>user-biosyslit</setSpec>
    </header>
    <header>
      <identifier>oai:zenodo.org:282988</identifier>
      <datestamp>2017-02-09T07:58:23Z</datestamp>
      <setSpec>user-biosyslit</setSpec>
    </header>
    <header>
      <identifier>oai:zenodo.org:282989</identifier>
      <datestamp>2017-02-09T07:58:25Z</datestamp>
      <setSpec>user-biosyslit</setSpec>
    </header>
    <header>
      <identifier>oai:zenodo.org:282984</identifier>
      <datestamp>2017-02-09T07:58:14Z</datestamp>
      <setSpec>user-biosyslit</setSpec>
    </header>
    <header>
      <identifier>oai:zenodo.org:282986</identifier>
      <datestamp>2017-02-09T07:58:19Z</datestamp>
      <setSpec>user-biosyslit</setSpec>
    </header>
    <header>
      <identifier>oai:zenodo.org:282990</identifier>
      <datestamp>2017-02-09T07:58:27Z</datestamp>
      <setSpec>user-biosyslit</setSpec>
    </header>
    <header>
      <identifier>oai:zenodo.org:282985</identifier>
      <datestamp>2017-02-09T07:58:16Z</datestamp>
      <setSpec>user-biosyslit</setSpec>
    </header>
    <header>
      <identifier>oai:zenodo.org:282982</identifier>
      <datestamp>2017-02-09T07:58:08Z</datestamp>
      <setSpec>user-biosyslit</setSpec>
    </header>
    <header>
      <identifier>oai:zenodo.org:234228</identifier>
      <datestamp>2017-01-08T17:01:37Z</datestamp>
      <setSpec>user-biosyslit</setSpec>
    </header>
    <header>
      <identifier>oai:zenodo.org:283697</identifier>
      <datestamp>2017-02-09T09:28:41Z</datestamp>
      <setSpec>user-biosyslit</setSpec>
    </header>
    <header>
      <identifier>oai:zenodo.org:234231</identifier>
      <datestamp>2017-01-08T17:01:35Z</datestamp>
      <setSpec>user-biosyslit</setSpec>
    </header>
    <header>
      <identifier>oai:zenodo.org:234230</identifier>
      <datestamp>2017-01-08T17:01:31Z</datestamp>
      <setSpec>user-biosyslit</setSpec>
    </header>
    <header>
      <identifier>oai:zenodo.org:231317</identifier>
      <datestamp>2017-01-05T19:42:23Z</datestamp>
      <setSpec>user-biosyslit</setSpec>
    </header>
    <header>
      <identifier>oai:zenodo.org:231320</identifier>
      <datestamp>2017-01-05T19:42:21Z</datestamp>
      <setSpec>user-biosyslit</setSpec>
    </header>
    <header>
      <identifier>oai:zenodo.org:231318</identifier>
      <datestamp>2017-01-05T19:42:15Z</datestamp>
      <setSpec>user-biosyslit</setSpec>
    </header>
    <header>
      <identifier>oai:zenodo.org:228515</identifier>
      <datestamp>2017-01-03T00:49:41Z</datestamp>
      <setSpec>user-biosyslit</setSpec>
    </header>
    <header>
      <identifier>oai:zenodo.org:228516</identifier>
      <datestamp>2017-01-03T00:49:47Z</datestamp>
      <setSpec>user-biosyslit</setSpec>
    </header>
    <header>
      <identifier>oai:zenodo.org:282174</identifier>
      <datestamp>2017-02-09T06:33:57Z</datestamp>
      <setSpec>user-biosyslit</setSpec>
    </header>
    <header>
      <identifier>oai:zenodo.org:235476</identifier>
      <datestamp>2017-01-09T10:23:35Z</datestamp>
      <setSpec>user-biosyslit</setSpec>
    </header>
    <header>
      <identifier>oai:zenodo.org:235472</identifier>
      <datestamp>2017-01-09T10:23:22Z</datestamp>
      <setSpec>user-biosyslit</setSpec>
    </header>
    <header>
      <identifier>oai:zenodo.org:235468</identifier>
      <datestamp>2017-01-09T10:23:10Z</datestamp>
      <setSpec>user-biosyslit</setSpec>
    </header>
    <header>
      <identifier>oai:zenodo.org:235475</identifier>
      <datestamp>2017-01-09T10:23:31Z</datestamp>
      <setSpec>user-biosyslit</setSpec>
    </header>
    <header>
      <identifier>oai:zenodo.org:235467</identifier>
      <datestamp>2017-01-09T10:22:59Z</datestamp>
      <setSpec>user-biosyslit</setSpec>
    </header>
    <header>
      <identifier>oai:zenodo.org:235473</identifier>
      <datestamp>2017-01-09T10:23:25Z</datestamp>
      <setSpec>user-biosyslit</setSpec>
    </header>
    <header>
      <identifier>oai:zenodo.org:235471</identifier>
      <datestamp>2017-01-09T10:23:18Z</datestamp>
      <setSpec>user-biosyslit</setSpec>
    </header>
    <header>
      <identifier>oai:zenodo.org:250388</identifier>
      <datestamp>2017-01-18T09:40:06Z</datestamp>
      <setSpec>user-biosyslit</setSpec>
    </header>
    <header>
      <identifier>oai:zenodo.org:250387</identifier>
      <datestamp>2017-01-18T09:40:03Z</datestamp>
      <setSpec>user-biosyslit</setSpec>
    </header>
    <header>
      <identifier>oai:zenodo.org:250389</identifier>
      <datestamp>2017-01-18T09:40:11Z</datestamp>
      <setSpec>user-biosyslit</setSpec>
    </header>
    <header>
      <identifier>oai:zenodo.org:255653</identifier>
      <datestamp>2017-01-21T17:54:54Z</datestamp>
      <setSpec>user-biosyslit</setSpec>
    </header>
    <header>
      <identifier>oai:zenodo.org:255652</identifier>
      <datestamp>2017-01-21T17:54:52Z</datestamp>
      <setSpec>user-biosyslit</setSpec>
    </header>
    <header>
      <identifier>oai:zenodo.org:283467</identifier>
      <datestamp>2017-02-09T08:59:17Z</datestamp>
      <setSpec>user-biosyslit</setSpec>
    </header>
    <header>
      <identifier>oai:zenodo.org:283484</identifier>
      <datestamp>2017-02-09T08:59:06Z</datestamp>
      <setSpec>user-biosyslit</setSpec>
    </header>
    <header>
      <identifier>oai:zenodo.org:283480</identifier>
      <datestamp>2017-02-09T08:58:57Z</datestamp>
      <setSpec>user-biosyslit</setSpec>
    </header>
    <header>
      <identifier>oai:zenodo.org:283482</identifier>
      <datestamp>2017-02-09T08:59:02Z</datestamp>
      <setSpec>user-biosyslit</setSpec>
    </header>
    <header>
      <identifier>oai:zenodo.org:283487</identifier>
      <datestamp>2017-02-09T08:59:14Z</datestamp>
      <setSpec>user-biosyslit</setSpec>
    </header>
    <header>
      <identifier>oai:zenodo.org:283483</identifier>
      <datestamp>2017-02-09T08:59:04Z</datestamp>
      <setSpec>user-biosyslit</setSpec>
    </header>
    <header>
      <identifier>oai:zenodo.org:283488</identifier>
      <datestamp>2017-02-09T08:59:16Z</datestamp>
      <setSpec>user-biosyslit</setSpec>
    </header>
    <header>
      <identifier>oai:zenodo.org:283481</identifier>
      <datestamp>2017-02-09T08:58:59Z</datestamp>
      <setSpec>user-biosyslit</setSpec>
    </header>
    <header>
      <identifier>oai:zenodo.org:269726</identifier>
      <datestamp>2017-02-07T20:10:15Z</datestamp>
      <setSpec>user-biosyslit</setSpec>
    </header>
    <header>
      <identifier>oai:zenodo.org:269729</identifier>
      <datestamp>2017-02-07T20:10:24Z</datestamp>
      <setSpec>user-biosyslit</setSpec>
    </header>
    <header>
      <identifier>oai:zenodo.org:249684</identifier>
      <datestamp>2017-01-17T22:33:03Z</datestamp>
      <setSpec>user-biosyslit</setSpec>
    </header>
    <header>
      <identifier>oai:zenodo.org:249689</identifier>
      <datestamp>2017-01-17T22:33:23Z</datestamp>
      <setSpec>user-biosyslit</setSpec>
    </header>
    <header>
      <identifier>oai:zenodo.org:249690</identifier>
      <datestamp>2017-01-17T22:33:26Z</datestamp>
      <setSpec>user-biosyslit</setSpec>
    </header>
    <header>
      <identifier>oai:zenodo.org:249685</identifier>
      <datestamp>2017-01-17T22:33:06Z</datestamp>
      <setSpec>user-biosyslit</setSpec>
    </header>
    <header>
      <identifier>oai:zenodo.org:249688</identifier>
      <datestamp>2017-01-17T22:33:19Z</datestamp>
      <setSpec>user-biosyslit</setSpec>
    </header>
    <header>
      <identifier>oai:zenodo.org:251194</identifier>
      <datestamp>2017-01-18T19:51:57Z</datestamp>
      <setSpec>user-biosyslit</setSpec>
    </header>
    <header>
      <identifier>oai:zenodo.org:251193</identifier>
      <datestamp>2017-01-18T19:51:54Z</datestamp>
      <setSpec>user-biosyslit</setSpec>
    </header>
    <header>
      <identifier>oai:zenodo.org:285550</identifier>
      <datestamp>2017-02-09T13:49:56Z</datestamp>
      <setSpec>user-biosyslit</setSpec>
    </header>
    <header>
      <identifier>oai:zenodo.org:271674</identifier>
      <datestamp>2017-02-08T02:16:35Z</datestamp>
      <setSpec>user-biosyslit</setSpec>
    </header>
    <header>
      <identifier>oai:zenodo.org:275179</identifier>
      <datestamp>2017-02-08T15:30:03Z</datestamp>
      <setSpec>user-biosyslit</setSpec>
    </header>
    <header>
      <identifier>oai:zenodo.org:240189</identifier>
      <datestamp>2017-01-12T05:45:19Z</datestamp>
      <setSpec>user-biosyslit</setSpec>
    </header>
    <header>
      <identifier>oai:zenodo.org:240192</identifier>
      <datestamp>2017-01-12T05:45:29Z</datestamp>
      <setSpec>user-biosyslit</setSpec>
    </header>
    <header>
      <identifier>oai:zenodo.org:240191</identifier>
      <datestamp>2017-01-12T05:45:26Z</datestamp>
      <setSpec>user-biosyslit</setSpec>
    </header>
    <header>
      <identifier>oai:zenodo.org:240194</identifier>
      <datestamp>2017-01-12T05:45:34Z</datestamp>
      <setSpec>user-biosyslit</setSpec>
    </header>
    <header>
      <identifier>oai:zenodo.org:289394</identifier>
      <datestamp>2017-02-09T23:25:27Z</datestamp>
      <setSpec>user-biosyslit</setSpec>
    </header>
    <header>
      <identifier>oai:zenodo.org:289393</identifier>
      <datestamp>2017-02-09T23:25:25Z</datestamp>
      <setSpec>user-biosyslit</setSpec>
    </header>
    <header>
      <identifier>oai:zenodo.org:240196</identifier>
      <datestamp>2017-01-12T05:45:40Z</datestamp>
      <setSpec>user-biosyslit</setSpec>
    </header>
    <header>
      <identifier>oai:zenodo.org:240199</identifier>
      <datestamp>2017-01-12T05:45:48Z</datestamp>
      <setSpec>user-biosyslit</setSpec>
    </header>
    <header>
      <identifier>oai:zenodo.org:229716</identifier>
      <datestamp>2017-01-03T20:51:02Z</datestamp>
      <setSpec>user-biosyslit</setSpec>
    </header>
    <header>
      <identifier>oai:zenodo.org:179878</identifier>
      <datestamp>2017-02-08T11:49:17Z</datestamp>
      <setSpec>user-biosyslit</setSpec>
    </header>
    <header>
      <identifier>oai:zenodo.org:278013</identifier>
      <datestamp>2017-02-08T22:17:25Z</datestamp>
      <setSpec>user-biosyslit</setSpec>
    </header>
    <header>
      <identifier>oai:zenodo.org:229532</identifier>
      <datestamp>2017-01-03T17:50:43Z</datestamp>
      <setSpec>user-biosyslit</setSpec>
    </header>
    <header>
      <identifier>oai:zenodo.org:278014</identifier>
      <datestamp>2017-02-08T22:16:58Z</datestamp>
      <setSpec>user-biosyslit</setSpec>
    </header>
    <header>
      <identifier>oai:zenodo.org:229535</identifier>
      <datestamp>2017-01-03T17:50:52Z</datestamp>
      <setSpec>user-biosyslit</setSpec>
    </header>
    <header>
      <identifier>oai:zenodo.org:285018</identifier>
      <datestamp>2017-02-09T12:29:35Z</datestamp>
      <setSpec>user-biosyslit</setSpec>
    </header>
    <header>
      <identifier>oai:zenodo.org:285017</identifier>
      <datestamp>2017-02-09T12:29:32Z</datestamp>
      <setSpec>user-biosyslit</setSpec>
    </header>
    <header>
      <identifier>oai:zenodo.org:278016</identifier>
      <datestamp>2017-02-08T22:17:04Z</datestamp>
      <setSpec>user-biosyslit</setSpec>
    </header>
    <header>
      <identifier>oai:zenodo.org:229531</identifier>
      <datestamp>2017-01-03T17:50:40Z</datestamp>
      <setSpec>user-biosyslit</setSpec>
    </header>
    <header>
      <identifier>oai:zenodo.org:258970</identifier>
      <datestamp>2017-01-24T07:01:20Z</datestamp>
      <setSpec>user-biosyslit</setSpec>
    </header>
    <header>
      <identifier>oai:zenodo.org:264709</identifier>
      <datestamp>2017-01-31T01:16:29Z</datestamp>
      <setSpec>user-biosyslit</setSpec>
    </header>
    <header>
      <identifier>oai:zenodo.org:270375</identifier>
      <datestamp>2017-02-07T23:06:49Z</datestamp>
      <setSpec>user-biosyslit</setSpec>
    </header>
    <header>
      <identifier>oai:zenodo.org:270377</identifier>
      <datestamp>2017-02-07T23:06:48Z</datestamp>
      <setSpec>user-biosyslit</setSpec>
    </header>
    <header>
      <identifier>oai:zenodo.org:270376</identifier>
      <datestamp>2017-02-07T23:06:45Z</datestamp>
      <setSpec>user-biosyslit</setSpec>
    </header>
    <header>
      <identifier>oai:zenodo.org:282760</identifier>
      <datestamp>2017-02-09T07:35:38Z</datestamp>
      <setSpec>user-biosyslit</setSpec>
    </header>
    <header>
      <identifier>oai:zenodo.org:282761</identifier>
      <datestamp>2017-02-09T07:35:04Z</datestamp>
      <setSpec>user-biosyslit</setSpec>
    </header>
    <header>
      <identifier>oai:zenodo.org:282763</identifier>
      <datestamp>2017-02-09T07:35:08Z</datestamp>
      <setSpec>user-biosyslit</setSpec>
    </header>
    <header>
      <identifier>oai:zenodo.org:282768</identifier>
      <datestamp>2017-02-09T07:35:19Z</datestamp>
      <setSpec>user-biosyslit</setSpec>
    </header>
    <header>
      <identifier>oai:zenodo.org:282773</identifier>
      <datestamp>2017-02-09T07:35:30Z</datestamp>
      <setSpec>user-biosyslit</setSpec>
    </header>
    <header>
      <identifier>oai:zenodo.org:282767</identifier>
      <datestamp>2017-02-09T07:35:17Z</datestamp>
      <setSpec>user-biosyslit</setSpec>
    </header>
    <header>
      <identifier>oai:zenodo.org:282766</identifier>
      <datestamp>2017-02-09T07:35:14Z</datestamp>
      <setSpec>user-biosyslit</setSpec>
    </header>
    <header>
      <identifier>oai:zenodo.org:282772</identifier>
      <datestamp>2017-02-09T07:35:28Z</datestamp>
      <setSpec>user-biosyslit</setSpec>
    </header>
    <header>
      <identifier>oai:zenodo.org:282770</identifier>
      <datestamp>2017-02-09T07:35:24Z</datestamp>
      <setSpec>user-biosyslit</setSpec>
    </header>
    <header>
      <identifier>oai:zenodo.org:236168</identifier>
      <datestamp>2017-01-09T19:10:18Z</datestamp>
      <setSpec>user-biosyslit</setSpec>
    </header>
    <header>
      <identifier>oai:zenodo.org:274056</identifier>
      <datestamp>2017-02-08T11:59:12Z</datestamp>
      <setSpec>user-biosyslit</setSpec>
    </header>
    <header>
      <identifier>oai:zenodo.org:274053</identifier>
      <datestamp>2017-02-08T11:59:05Z</datestamp>
      <setSpec>user-biosyslit</setSpec>
    </header>
    <header>
      <identifier>oai:zenodo.org:274051</identifier>
      <datestamp>2017-02-08T11:58:59Z</datestamp>
      <setSpec>user-biosyslit</setSpec>
    </header>
    <header>
      <identifier>oai:zenodo.org:251165</identifier>
      <datestamp>2017-01-18T19:41:49Z</datestamp>
      <setSpec>user-biosyslit</setSpec>
    </header>
    <header>
      <identifier>oai:zenodo.org:274767</identifier>
      <datestamp>2017-02-08T14:14:45Z</datestamp>
      <setSpec>user-biosyslit</setSpec>
    </header>
    <header>
      <identifier>oai:zenodo.org:251167</identifier>
      <datestamp>2017-01-18T19:42:00Z</datestamp>
      <setSpec>user-biosyslit</setSpec>
    </header>
    <header>
      <identifier>oai:zenodo.org:274766</identifier>
      <datestamp>2017-02-08T14:14:47Z</datestamp>
      <setSpec>user-biosyslit</setSpec>
    </header>
    <header>
      <identifier>oai:zenodo.org:232081</identifier>
      <datestamp>2017-01-06T11:04:24Z</datestamp>
      <setSpec>user-biosyslit</setSpec>
    </header>
    <header>
      <identifier>oai:zenodo.org:232087</identifier>
      <datestamp>2017-01-06T11:03:56Z</datestamp>
      <setSpec>user-biosyslit</setSpec>
    </header>
    <header>
      <identifier>oai:zenodo.org:232088</identifier>
      <datestamp>2017-01-06T11:03:59Z</datestamp>
      <setSpec>user-biosyslit</setSpec>
    </header>
    <header>
      <identifier>oai:zenodo.org:232090</identifier>
      <datestamp>2017-01-06T11:04:08Z</datestamp>
      <setSpec>user-biosyslit</setSpec>
    </header>
    <header>
      <identifier>oai:zenodo.org:232091</identifier>
      <datestamp>2017-01-06T11:04:17Z</datestamp>
      <setSpec>user-biosyslit</setSpec>
    </header>
    <header>
      <identifier>oai:zenodo.org:232092</identifier>
      <datestamp>2017-01-06T11:04:19Z</datestamp>
      <setSpec>user-biosyslit</setSpec>
    </header>
    <resumptionToken expirationDate="2017-08-31T15:45:08Z" cursor="32300" completeListSize="77796">.eJyNysEOQzAYAOB3-c-ytIqJZBexiQNSHWGXxRAxZaJb0MW7z2Xn7fx9bxBVVYKFdhrSMdYNjRDTNJCmKSCK8cH5tdkYijThRc_j3E1eUZegTK33gSNm38lIIFsUdliyE1VTbM5xgxZ6jp-ZjOaEeBNDx70v6RLcve2VJHT55eYOLO5tztRyDI90YdhmF1J8H_7zyZ_PEQdQYMjrCiyi6gq0Uz7WAqz3un4AlKxRMw.DInADA.l3PBkVob-a66PlyuoPAuDP2a17w</resumptionToken>
  </ListIdentifiers>
</OAI-PMH>
