<?xml version='1.0' encoding='UTF-8'?>
<?xml-stylesheet type="text/xsl" href="/static/xsl/oai2.v1.0.xsl"?>
<OAI-PMH xmlns="http://www.openarchives.org/OAI/2.0/" xmlns:xsi="http://www.w3.org/2001/XMLSchema-instance" xsi:schemaLocation="http://www.openarchives.org/OAI/2.0/ http://www.openarchives.org/OAI/2.0/OAI-PMH.xsd">
  <responseDate>2017-08-31T15:43:05Z</responseDate>
  <request verb="ListIdentifiers" resumptionToken=".eJyNzz0PQ0AAgOH_crM099FSki5CxYBwJWVp9Iioo-La4MR_r6VzO7_P8i5AlGUBDLgjex1jVdchhuSgqZoCBBuenN_qLQN2TTjreJw7yTtqE5jiSvMtMXlWSnzZwKBFkp5DfEXHKa7hHF7iVyqjKSHuSKGteTKc_Ye7uYIEDs_uTk_jzuQUF0NghzNFJs0I-zr0p5M_nSVOQAF9XpXAIGi7asZ8qAQwlnX9AJ_gUUA.DInACQ.Lk457mExJcAPXOzVmD2cCTXJW0M">https://zenodo.org/oai2d</request>
  <ListIdentifiers>
    <header>
      <identifier>oai:zenodo.org:231402</identifier>
      <datestamp>2017-01-06T01:26:38Z</datestamp>
      <setSpec>user-biosyslit</setSpec>
    </header>
    <header>
      <identifier>oai:zenodo.org:231399</identifier>
      <datestamp>2017-01-06T01:26:27Z</datestamp>
      <setSpec>user-biosyslit</setSpec>
    </header>
    <header>
      <identifier>oai:zenodo.org:231401</identifier>
      <datestamp>2017-01-06T01:26:34Z</datestamp>
      <setSpec>user-biosyslit</setSpec>
    </header>
    <header>
      <identifier>oai:zenodo.org:282352</identifier>
      <datestamp>2017-02-09T06:51:56Z</datestamp>
      <setSpec>user-biosyslit</setSpec>
    </header>
    <header>
      <identifier>oai:zenodo.org:230793</identifier>
      <datestamp>2017-01-05T08:31:00Z</datestamp>
      <setSpec>user-biosyslit</setSpec>
    </header>
    <header>
      <identifier>oai:zenodo.org:230794</identifier>
      <datestamp>2017-01-05T08:31:04Z</datestamp>
      <setSpec>user-biosyslit</setSpec>
    </header>
    <header>
      <identifier>oai:zenodo.org:227323</identifier>
      <datestamp>2017-01-01T19:30:51Z</datestamp>
      <setSpec>user-biosyslit</setSpec>
    </header>
    <header>
      <identifier>oai:zenodo.org:227324</identifier>
      <datestamp>2017-01-01T19:30:55Z</datestamp>
      <setSpec>user-biosyslit</setSpec>
    </header>
    <header>
      <identifier>oai:zenodo.org:227325</identifier>
      <datestamp>2017-01-01T19:31:00Z</datestamp>
      <setSpec>user-biosyslit</setSpec>
    </header>
    <header>
      <identifier>oai:zenodo.org:227322</identifier>
      <datestamp>2017-01-01T19:30:34Z</datestamp>
      <setSpec>user-biosyslit</setSpec>
    </header>
    <header>
      <identifier>oai:zenodo.org:227327</identifier>
      <datestamp>2017-01-01T19:31:07Z</datestamp>
      <setSpec>user-biosyslit</setSpec>
    </header>
    <header>
      <identifier>oai:zenodo.org:244755</identifier>
      <datestamp>2017-01-15T02:00:46Z</datestamp>
      <setSpec>user-biosyslit</setSpec>
    </header>
    <header>
      <identifier>oai:zenodo.org:226623</identifier>
      <datestamp>2017-01-01T00:26:03Z</datestamp>
      <setSpec>user-biosyslit</setSpec>
    </header>
    <header>
      <identifier>oai:zenodo.org:226617</identifier>
      <datestamp>2017-01-01T00:25:44Z</datestamp>
      <setSpec>user-biosyslit</setSpec>
    </header>
    <header>
      <identifier>oai:zenodo.org:226615</identifier>
      <datestamp>2017-01-01T00:25:37Z</datestamp>
      <setSpec>user-biosyslit</setSpec>
    </header>
    <header>
      <identifier>oai:zenodo.org:226614</identifier>
      <datestamp>2017-01-01T00:25:30Z</datestamp>
      <setSpec>user-biosyslit</setSpec>
    </header>
    <header>
      <identifier>oai:zenodo.org:226624</identifier>
      <datestamp>2017-01-01T00:26:06Z</datestamp>
      <setSpec>user-biosyslit</setSpec>
    </header>
    <header>
      <identifier>oai:zenodo.org:226620</identifier>
      <datestamp>2017-01-01T00:25:52Z</datestamp>
      <setSpec>user-biosyslit</setSpec>
    </header>
    <header>
      <identifier>oai:zenodo.org:226622</identifier>
      <datestamp>2017-01-01T00:26:00Z</datestamp>
      <setSpec>user-biosyslit</setSpec>
    </header>
    <header>
      <identifier>oai:zenodo.org:226618</identifier>
      <datestamp>2017-01-01T00:25:47Z</datestamp>
      <setSpec>user-biosyslit</setSpec>
    </header>
    <header>
      <identifier>oai:zenodo.org:226626</identifier>
      <datestamp>2017-01-01T00:26:12Z</datestamp>
      <setSpec>user-biosyslit</setSpec>
    </header>
    <header>
      <identifier>oai:zenodo.org:279628</identifier>
      <datestamp>2017-02-09T01:44:45Z</datestamp>
      <setSpec>user-biosyslit</setSpec>
    </header>
    <header>
      <identifier>oai:zenodo.org:279629</identifier>
      <datestamp>2017-02-09T01:44:47Z</datestamp>
      <setSpec>user-biosyslit</setSpec>
    </header>
    <header>
      <identifier>oai:zenodo.org:279618</identifier>
      <datestamp>2017-02-09T01:44:17Z</datestamp>
      <setSpec>user-biosyslit</setSpec>
    </header>
    <header>
      <identifier>oai:zenodo.org:279620</identifier>
      <datestamp>2017-02-09T01:44:21Z</datestamp>
      <setSpec>user-biosyslit</setSpec>
    </header>
    <header>
      <identifier>oai:zenodo.org:279617</identifier>
      <datestamp>2017-02-09T01:44:14Z</datestamp>
      <setSpec>user-biosyslit</setSpec>
    </header>
    <header>
      <identifier>oai:zenodo.org:279616</identifier>
      <datestamp>2017-02-09T01:44:11Z</datestamp>
      <setSpec>user-biosyslit</setSpec>
    </header>
    <header>
      <identifier>oai:zenodo.org:279621</identifier>
      <datestamp>2017-02-09T01:44:26Z</datestamp>
      <setSpec>user-biosyslit</setSpec>
    </header>
    <header>
      <identifier>oai:zenodo.org:279627</identifier>
      <datestamp>2017-02-09T01:44:41Z</datestamp>
      <setSpec>user-biosyslit</setSpec>
    </header>
    <header>
      <identifier>oai:zenodo.org:279622</identifier>
      <datestamp>2017-02-09T01:44:28Z</datestamp>
      <setSpec>user-biosyslit</setSpec>
    </header>
    <header>
      <identifier>oai:zenodo.org:285541</identifier>
      <datestamp>2017-02-09T13:49:27Z</datestamp>
      <setSpec>user-biosyslit</setSpec>
    </header>
    <header>
      <identifier>oai:zenodo.org:241573</identifier>
      <datestamp>2017-01-13T03:29:10Z</datestamp>
      <setSpec>user-biosyslit</setSpec>
    </header>
    <header>
      <identifier>oai:zenodo.org:285547</identifier>
      <datestamp>2017-02-09T13:49:22Z</datestamp>
      <setSpec>user-biosyslit</setSpec>
    </header>
    <header>
      <identifier>oai:zenodo.org:285548</identifier>
      <datestamp>2017-02-09T13:49:24Z</datestamp>
      <setSpec>user-biosyslit</setSpec>
    </header>
    <header>
      <identifier>oai:zenodo.org:241576</identifier>
      <datestamp>2017-01-13T03:29:03Z</datestamp>
      <setSpec>user-biosyslit</setSpec>
    </header>
    <header>
      <identifier>oai:zenodo.org:241575</identifier>
      <datestamp>2017-01-13T03:29:00Z</datestamp>
      <setSpec>user-biosyslit</setSpec>
    </header>
    <header>
      <identifier>oai:zenodo.org:241578</identifier>
      <datestamp>2017-01-13T03:29:09Z</datestamp>
      <setSpec>user-biosyslit</setSpec>
    </header>
    <header>
      <identifier>oai:zenodo.org:241574</identifier>
      <datestamp>2017-01-13T03:28:57Z</datestamp>
      <setSpec>user-biosyslit</setSpec>
    </header>
    <header>
      <identifier>oai:zenodo.org:285549</identifier>
      <datestamp>2017-02-09T13:49:26Z</datestamp>
      <setSpec>user-biosyslit</setSpec>
    </header>
    <header>
      <identifier>oai:zenodo.org:231526</identifier>
      <datestamp>2017-01-06T03:31:10Z</datestamp>
      <setSpec>user-biosyslit</setSpec>
    </header>
    <header>
      <identifier>oai:zenodo.org:231533</identifier>
      <datestamp>2017-01-06T03:31:05Z</datestamp>
      <setSpec>user-biosyslit</setSpec>
    </header>
    <header>
      <identifier>oai:zenodo.org:231529</identifier>
      <datestamp>2017-01-06T03:30:47Z</datestamp>
      <setSpec>user-biosyslit</setSpec>
    </header>
    <header>
      <identifier>oai:zenodo.org:231530</identifier>
      <datestamp>2017-01-06T03:30:50Z</datestamp>
      <setSpec>user-biosyslit</setSpec>
    </header>
    <header>
      <identifier>oai:zenodo.org:231534</identifier>
      <datestamp>2017-01-06T03:31:08Z</datestamp>
      <setSpec>user-biosyslit</setSpec>
    </header>
    <header>
      <identifier>oai:zenodo.org:231532</identifier>
      <datestamp>2017-01-06T03:31:02Z</datestamp>
      <setSpec>user-biosyslit</setSpec>
    </header>
    <header>
      <identifier>oai:zenodo.org:230330</identifier>
      <datestamp>2017-01-04T22:53:23Z</datestamp>
      <setSpec>user-biosyslit</setSpec>
    </header>
    <header>
      <identifier>oai:zenodo.org:230331</identifier>
      <datestamp>2017-01-04T22:53:21Z</datestamp>
      <setSpec>user-biosyslit</setSpec>
    </header>
    <header>
      <identifier>oai:zenodo.org:250128</identifier>
      <datestamp>2017-01-18T05:14:56Z</datestamp>
      <setSpec>user-biosyslit</setSpec>
    </header>
    <header>
      <identifier>oai:zenodo.org:250127</identifier>
      <datestamp>2017-01-18T05:14:51Z</datestamp>
      <setSpec>user-biosyslit</setSpec>
    </header>
    <header>
      <identifier>oai:zenodo.org:250129</identifier>
      <datestamp>2017-01-18T05:15:00Z</datestamp>
      <setSpec>user-biosyslit</setSpec>
    </header>
    <header>
      <identifier>oai:zenodo.org:250126</identifier>
      <datestamp>2017-01-18T05:14:45Z</datestamp>
      <setSpec>user-biosyslit</setSpec>
    </header>
    <header>
      <identifier>oai:zenodo.org:228569</identifier>
      <datestamp>2017-01-03T01:45:02Z</datestamp>
      <setSpec>user-biosyslit</setSpec>
    </header>
    <header>
      <identifier>oai:zenodo.org:243489</identifier>
      <datestamp>2017-01-14T06:30:47Z</datestamp>
      <setSpec>user-biosyslit</setSpec>
    </header>
    <header>
      <identifier>oai:zenodo.org:248379</identifier>
      <datestamp>2017-01-17T03:29:38Z</datestamp>
      <setSpec>user-biosyslit</setSpec>
    </header>
    <header>
      <identifier>oai:zenodo.org:248399</identifier>
      <datestamp>2017-01-17T03:31:14Z</datestamp>
      <setSpec>user-biosyslit</setSpec>
    </header>
    <header>
      <identifier>oai:zenodo.org:248394</identifier>
      <datestamp>2017-01-17T03:30:49Z</datestamp>
      <setSpec>user-biosyslit</setSpec>
    </header>
    <header>
      <identifier>oai:zenodo.org:248397</identifier>
      <datestamp>2017-01-17T03:31:03Z</datestamp>
      <setSpec>user-biosyslit</setSpec>
    </header>
    <header>
      <identifier>oai:zenodo.org:248398</identifier>
      <datestamp>2017-01-17T03:31:09Z</datestamp>
      <setSpec>user-biosyslit</setSpec>
    </header>
    <header>
      <identifier>oai:zenodo.org:254297</identifier>
      <datestamp>2017-01-20T17:51:43Z</datestamp>
      <setSpec>user-biosyslit</setSpec>
    </header>
    <header>
      <identifier>oai:zenodo.org:248396</identifier>
      <datestamp>2017-01-17T03:30:58Z</datestamp>
      <setSpec>user-biosyslit</setSpec>
    </header>
    <header>
      <identifier>oai:zenodo.org:254298</identifier>
      <datestamp>2017-01-20T17:51:46Z</datestamp>
      <setSpec>user-biosyslit</setSpec>
    </header>
    <header>
      <identifier>oai:zenodo.org:254294</identifier>
      <datestamp>2017-01-20T17:51:34Z</datestamp>
      <setSpec>user-biosyslit</setSpec>
    </header>
    <header>
      <identifier>oai:zenodo.org:227512</identifier>
      <datestamp>2017-01-01T22:50:25Z</datestamp>
      <setSpec>user-biosyslit</setSpec>
    </header>
    <header>
      <identifier>oai:zenodo.org:266248</identifier>
      <datestamp>2017-02-01T03:32:56Z</datestamp>
      <setSpec>user-biosyslit</setSpec>
    </header>
    <header>
      <identifier>oai:zenodo.org:250851</identifier>
      <datestamp>2017-01-18T15:39:48Z</datestamp>
      <setSpec>user-biosyslit</setSpec>
    </header>
    <header>
      <identifier>oai:zenodo.org:250856</identifier>
      <datestamp>2017-01-18T15:39:44Z</datestamp>
      <setSpec>user-biosyslit</setSpec>
    </header>
    <header>
      <identifier>oai:zenodo.org:250857</identifier>
      <datestamp>2017-01-18T15:39:46Z</datestamp>
      <setSpec>user-biosyslit</setSpec>
    </header>
    <header>
      <identifier>oai:zenodo.org:250852</identifier>
      <datestamp>2017-01-18T15:39:33Z</datestamp>
      <setSpec>user-biosyslit</setSpec>
    </header>
    <header>
      <identifier>oai:zenodo.org:250854</identifier>
      <datestamp>2017-01-18T15:39:38Z</datestamp>
      <setSpec>user-biosyslit</setSpec>
    </header>
    <header>
      <identifier>oai:zenodo.org:229285</identifier>
      <datestamp>2017-01-03T13:47:40Z</datestamp>
      <setSpec>user-biosyslit</setSpec>
    </header>
    <header>
      <identifier>oai:zenodo.org:229286</identifier>
      <datestamp>2017-01-03T13:47:46Z</datestamp>
      <setSpec>user-biosyslit</setSpec>
    </header>
    <header>
      <identifier>oai:zenodo.org:229288</identifier>
      <datestamp>2017-01-03T13:47:57Z</datestamp>
      <setSpec>user-biosyslit</setSpec>
    </header>
    <header>
      <identifier>oai:zenodo.org:279893</identifier>
      <datestamp>2017-02-09T02:13:53Z</datestamp>
      <setSpec>user-biosyslit</setSpec>
    </header>
    <header>
      <identifier>oai:zenodo.org:279894</identifier>
      <datestamp>2017-02-09T02:13:55Z</datestamp>
      <setSpec>user-biosyslit</setSpec>
    </header>
    <header>
      <identifier>oai:zenodo.org:285331</identifier>
      <datestamp>2017-02-09T13:19:39Z</datestamp>
      <setSpec>user-biosyslit</setSpec>
    </header>
    <header>
      <identifier>oai:zenodo.org:232548</identifier>
      <datestamp>2017-01-06T19:36:33Z</datestamp>
      <setSpec>user-biosyslit</setSpec>
    </header>
    <header>
      <identifier>oai:zenodo.org:229458</identifier>
      <datestamp>2017-01-03T16:06:36Z</datestamp>
      <setSpec>user-biosyslit</setSpec>
    </header>
    <header>
      <identifier>oai:zenodo.org:233687</identifier>
      <datestamp>2017-01-08T09:55:12Z</datestamp>
      <setSpec>user-biosyslit</setSpec>
    </header>
    <header>
      <identifier>oai:zenodo.org:232551</identifier>
      <datestamp>2017-01-06T19:36:23Z</datestamp>
      <setSpec>user-biosyslit</setSpec>
    </header>
    <header>
      <identifier>oai:zenodo.org:232550</identifier>
      <datestamp>2017-01-06T19:36:20Z</datestamp>
      <setSpec>user-biosyslit</setSpec>
    </header>
    <header>
      <identifier>oai:zenodo.org:232549</identifier>
      <datestamp>2017-01-06T19:36:18Z</datestamp>
      <setSpec>user-biosyslit</setSpec>
    </header>
    <header>
      <identifier>oai:zenodo.org:243980</identifier>
      <datestamp>2017-01-14T14:47:22Z</datestamp>
      <setSpec>user-biosyslit</setSpec>
    </header>
    <header>
      <identifier>oai:zenodo.org:243979</identifier>
      <datestamp>2017-01-14T14:47:19Z</datestamp>
      <setSpec>user-biosyslit</setSpec>
    </header>
    <header>
      <identifier>oai:zenodo.org:243982</identifier>
      <datestamp>2017-01-14T14:47:27Z</datestamp>
      <setSpec>user-biosyslit</setSpec>
    </header>
    <header>
      <identifier>oai:zenodo.org:227005</identifier>
      <datestamp>2017-01-01T08:00:17Z</datestamp>
      <setSpec>user-biosyslit</setSpec>
    </header>
    <header>
      <identifier>oai:zenodo.org:237935</identifier>
      <datestamp>2017-01-10T22:35:18Z</datestamp>
      <setSpec>user-biosyslit</setSpec>
    </header>
    <header>
      <identifier>oai:zenodo.org:237933</identifier>
      <datestamp>2017-01-10T22:35:09Z</datestamp>
      <setSpec>user-biosyslit</setSpec>
    </header>
    <header>
      <identifier>oai:zenodo.org:227182</identifier>
      <datestamp>2017-01-01T17:52:19Z</datestamp>
      <setSpec>user-biosyslit</setSpec>
    </header>
    <header>
      <identifier>oai:zenodo.org:227192</identifier>
      <datestamp>2017-01-01T17:52:48Z</datestamp>
      <setSpec>user-biosyslit</setSpec>
    </header>
    <header>
      <identifier>oai:zenodo.org:227191</identifier>
      <datestamp>2017-01-01T17:52:45Z</datestamp>
      <setSpec>user-biosyslit</setSpec>
    </header>
    <header>
      <identifier>oai:zenodo.org:227186</identifier>
      <datestamp>2017-01-01T17:52:31Z</datestamp>
      <setSpec>user-biosyslit</setSpec>
    </header>
    <header>
      <identifier>oai:zenodo.org:227183</identifier>
      <datestamp>2017-01-01T17:52:22Z</datestamp>
      <setSpec>user-biosyslit</setSpec>
    </header>
    <header>
      <identifier>oai:zenodo.org:227190</identifier>
      <datestamp>2017-01-01T17:52:42Z</datestamp>
      <setSpec>user-biosyslit</setSpec>
    </header>
    <header>
      <identifier>oai:zenodo.org:227184</identifier>
      <datestamp>2017-01-01T17:52:25Z</datestamp>
      <setSpec>user-biosyslit</setSpec>
    </header>
    <header>
      <identifier>oai:zenodo.org:227181</identifier>
      <datestamp>2017-01-01T17:52:16Z</datestamp>
      <setSpec>user-biosyslit</setSpec>
    </header>
    <header>
      <identifier>oai:zenodo.org:227188</identifier>
      <datestamp>2017-01-01T17:52:37Z</datestamp>
      <setSpec>user-biosyslit</setSpec>
    </header>
    <header>
      <identifier>oai:zenodo.org:256880</identifier>
      <datestamp>2017-01-22T21:53:52Z</datestamp>
      <setSpec>user-biosyslit</setSpec>
    </header>
    <header>
      <identifier>oai:zenodo.org:256881</identifier>
      <datestamp>2017-01-22T21:53:53Z</datestamp>
      <setSpec>user-biosyslit</setSpec>
    </header>
    <header>
      <identifier>oai:zenodo.org:273325</identifier>
      <datestamp>2017-02-08T08:59:26Z</datestamp>
      <setSpec>user-biosyslit</setSpec>
    </header>
    <header>
      <identifier>oai:zenodo.org:273322</identifier>
      <datestamp>2017-02-08T08:59:20Z</datestamp>
      <setSpec>user-biosyslit</setSpec>
    </header>
    <resumptionToken expirationDate="2017-08-31T15:45:05Z" cursor="31600" completeListSize="77796">.eJyNysEKgjAYAOB3-c8SmytXQhexxIPKXA71EqYi1rJwhbro3fPSuc7f9wJV1xXYaEEJtfDSWm0sgigxlwaosr9JeWxnhjIVsuxkUnjiGV8FysyGhq4aAzcjob6g6Io13zMzxesxadHEDskj0_EoiD9wtKOBZlN49udXkciT-cm786RzJDerPtqxiWOH56T8Pvzn0z-fq7ZgwL1oarAJXhtwGYq-UWC_3u8Pn0hRQA.DInACQ.iKen9yQ6kWGcZybd02r6d9zLTkQ</resumptionToken>
  </ListIdentifiers>
</OAI-PMH>
