<?xml version='1.0' encoding='UTF-8'?>
<?xml-stylesheet type="text/xsl" href="/static/xsl/oai2.v1.0.xsl"?>
<OAI-PMH xmlns="http://www.openarchives.org/OAI/2.0/" xmlns:xsi="http://www.w3.org/2001/XMLSchema-instance" xsi:schemaLocation="http://www.openarchives.org/OAI/2.0/ http://www.openarchives.org/OAI/2.0/OAI-PMH.xsd">
  <responseDate>2017-08-31T15:46:27Z</responseDate>
  <request verb="ListIdentifiers" resumptionToken=".eJyNysEKgjAYAOB3-c8Sm7OWQhfRxIOKLiW9hKmIOU1coU5697p0rvP3rSCqqgQDbfSdphENb3WqYaLrqgKiGO-cX5oPQ3FOeNHzOHeSZ9QlKFVr6lti9qyU-LJFQYclO4bqGe_nuEFLeIofqYzmhLgTQzb1ZLj4N_fzShI4PLs6A4t7kzO1HAM7XBg2WUaK78N_PvnzWeIACgx5XYFBKVagnfKxFmCsr9cbpcRRSg.DInA0w.w4WaZNoCJA8FO2G36EqEd5FoBsk">https://zenodo.org/oai2d</request>
  <ListIdentifiers>
    <header>
      <identifier>oai:zenodo.org:842539</identifier>
      <datestamp>2017-08-14T05:21:12Z</datestamp>
      <setSpec>user-biosyslit</setSpec>
    </header>
    <header>
      <identifier>oai:zenodo.org:842569</identifier>
      <datestamp>2017-08-14T05:22:09Z</datestamp>
      <setSpec>user-biosyslit</setSpec>
    </header>
    <header>
      <identifier>oai:zenodo.org:842571</identifier>
      <datestamp>2017-08-14T05:22:12Z</datestamp>
      <setSpec>user-biosyslit</setSpec>
    </header>
    <header>
      <identifier>oai:zenodo.org:842549</identifier>
      <datestamp>2017-08-14T05:21:29Z</datestamp>
      <setSpec>user-biosyslit</setSpec>
    </header>
    <header>
      <identifier>oai:zenodo.org:842583</identifier>
      <datestamp>2017-08-14T05:22:32Z</datestamp>
      <setSpec>user-biosyslit</setSpec>
    </header>
    <header>
      <identifier>oai:zenodo.org:844979</identifier>
      <datestamp>2017-08-18T05:29:17Z</datestamp>
      <setSpec>user-biosyslit</setSpec>
    </header>
    <header>
      <identifier>oai:zenodo.org:844969</identifier>
      <datestamp>2017-08-18T05:28:55Z</datestamp>
      <setSpec>user-biosyslit</setSpec>
    </header>
    <header>
      <identifier>oai:zenodo.org:844975</identifier>
      <datestamp>2017-08-18T05:29:07Z</datestamp>
      <setSpec>user-biosyslit</setSpec>
    </header>
    <header>
      <identifier>oai:zenodo.org:844983</identifier>
      <datestamp>2017-08-18T05:29:27Z</datestamp>
      <setSpec>user-biosyslit</setSpec>
    </header>
    <header>
      <identifier>oai:zenodo.org:844977</identifier>
      <datestamp>2017-08-18T05:29:13Z</datestamp>
      <setSpec>user-biosyslit</setSpec>
    </header>
    <header>
      <identifier>oai:zenodo.org:844997</identifier>
      <datestamp>2017-08-18T05:29:59Z</datestamp>
      <setSpec>user-biosyslit</setSpec>
    </header>
    <header>
      <identifier>oai:zenodo.org:845003</identifier>
      <datestamp>2017-08-18T05:30:11Z</datestamp>
      <setSpec>user-biosyslit</setSpec>
    </header>
    <header>
      <identifier>oai:zenodo.org:845005</identifier>
      <datestamp>2017-08-18T05:30:15Z</datestamp>
      <setSpec>user-biosyslit</setSpec>
    </header>
    <header>
      <identifier>oai:zenodo.org:844993</identifier>
      <datestamp>2017-08-18T05:29:50Z</datestamp>
      <setSpec>user-biosyslit</setSpec>
    </header>
    <header>
      <identifier>oai:zenodo.org:845023</identifier>
      <datestamp>2017-08-18T06:01:01Z</datestamp>
      <setSpec>user-biosyslit</setSpec>
    </header>
    <header>
      <identifier>oai:zenodo.org:844989</identifier>
      <datestamp>2017-08-18T05:29:41Z</datestamp>
      <setSpec>user-biosyslit</setSpec>
    </header>
    <header>
      <identifier>oai:zenodo.org:844991</identifier>
      <datestamp>2017-08-18T05:29:46Z</datestamp>
      <setSpec>user-biosyslit</setSpec>
    </header>
    <header>
      <identifier>oai:zenodo.org:845007</identifier>
      <datestamp>2017-08-18T05:30:19Z</datestamp>
      <setSpec>user-biosyslit</setSpec>
    </header>
    <header>
      <identifier>oai:zenodo.org:845033</identifier>
      <datestamp>2017-08-18T06:01:28Z</datestamp>
      <setSpec>user-biosyslit</setSpec>
    </header>
    <header>
      <identifier>oai:zenodo.org:845025</identifier>
      <datestamp>2017-08-18T06:01:05Z</datestamp>
      <setSpec>user-biosyslit</setSpec>
    </header>
    <header>
      <identifier>oai:zenodo.org:845027</identifier>
      <datestamp>2017-08-18T06:01:14Z</datestamp>
      <setSpec>user-biosyslit</setSpec>
    </header>
    <header>
      <identifier>oai:zenodo.org:845031</identifier>
      <datestamp>2017-08-18T06:01:23Z</datestamp>
      <setSpec>user-biosyslit</setSpec>
    </header>
    <header>
      <identifier>oai:zenodo.org:845087</identifier>
      <datestamp>2017-08-18T06:45:55Z</datestamp>
      <setSpec>user-biosyslit</setSpec>
    </header>
    <header>
      <identifier>oai:zenodo.org:845089</identifier>
      <datestamp>2017-08-18T06:46:00Z</datestamp>
      <setSpec>user-biosyslit</setSpec>
    </header>
    <header>
      <identifier>oai:zenodo.org:845091</identifier>
      <datestamp>2017-08-18T06:46:04Z</datestamp>
      <setSpec>user-biosyslit</setSpec>
    </header>
    <header>
      <identifier>oai:zenodo.org:845093</identifier>
      <datestamp>2017-08-18T06:46:07Z</datestamp>
      <setSpec>user-biosyslit</setSpec>
    </header>
    <header>
      <identifier>oai:zenodo.org:845097</identifier>
      <datestamp>2017-08-18T06:48:24Z</datestamp>
      <setSpec>user-biosyslit</setSpec>
    </header>
    <header>
      <identifier>oai:zenodo.org:845075</identifier>
      <datestamp>2017-08-18T06:46:11Z</datestamp>
      <setSpec>user-biosyslit</setSpec>
    </header>
    <header>
      <identifier>oai:zenodo.org:845119</identifier>
      <datestamp>2017-08-18T06:49:06Z</datestamp>
      <setSpec>user-biosyslit</setSpec>
    </header>
    <header>
      <identifier>oai:zenodo.org:845135</identifier>
      <datestamp>2017-08-18T06:49:31Z</datestamp>
      <setSpec>user-biosyslit</setSpec>
    </header>
    <header>
      <identifier>oai:zenodo.org:845121</identifier>
      <datestamp>2017-08-18T06:49:10Z</datestamp>
      <setSpec>user-biosyslit</setSpec>
    </header>
    <header>
      <identifier>oai:zenodo.org:845099</identifier>
      <datestamp>2017-08-18T06:47:57Z</datestamp>
      <setSpec>user-biosyslit</setSpec>
    </header>
    <header>
      <identifier>oai:zenodo.org:845107</identifier>
      <datestamp>2017-08-18T06:48:09Z</datestamp>
      <setSpec>user-biosyslit</setSpec>
    </header>
    <header>
      <identifier>oai:zenodo.org:845111</identifier>
      <datestamp>2017-08-18T06:48:15Z</datestamp>
      <setSpec>user-biosyslit</setSpec>
    </header>
    <header>
      <identifier>oai:zenodo.org:845117</identifier>
      <datestamp>2017-08-18T06:49:49Z</datestamp>
      <setSpec>user-biosyslit</setSpec>
    </header>
    <header>
      <identifier>oai:zenodo.org:845145</identifier>
      <datestamp>2017-08-18T06:52:09Z</datestamp>
      <setSpec>user-biosyslit</setSpec>
    </header>
    <header>
      <identifier>oai:zenodo.org:845143</identifier>
      <datestamp>2017-08-18T06:49:46Z</datestamp>
      <setSpec>user-biosyslit</setSpec>
    </header>
    <header>
      <identifier>oai:zenodo.org:845139</identifier>
      <datestamp>2017-08-18T06:49:39Z</datestamp>
      <setSpec>user-biosyslit</setSpec>
    </header>
    <header>
      <identifier>oai:zenodo.org:845137</identifier>
      <datestamp>2017-08-18T06:49:35Z</datestamp>
      <setSpec>user-biosyslit</setSpec>
    </header>
    <header>
      <identifier>oai:zenodo.org:845163</identifier>
      <datestamp>2017-08-18T06:54:14Z</datestamp>
      <setSpec>user-biosyslit</setSpec>
    </header>
    <header>
      <identifier>oai:zenodo.org:845151</identifier>
      <datestamp>2017-08-18T06:51:56Z</datestamp>
      <setSpec>user-biosyslit</setSpec>
    </header>
    <header>
      <identifier>oai:zenodo.org:845165</identifier>
      <datestamp>2017-08-18T06:54:18Z</datestamp>
      <setSpec>user-biosyslit</setSpec>
    </header>
    <header>
      <identifier>oai:zenodo.org:845169</identifier>
      <datestamp>2017-08-18T06:55:19Z</datestamp>
      <setSpec>user-biosyslit</setSpec>
    </header>
    <header>
      <identifier>oai:zenodo.org:845161</identifier>
      <datestamp>2017-08-18T06:54:24Z</datestamp>
      <setSpec>user-biosyslit</setSpec>
    </header>
    <header>
      <identifier>oai:zenodo.org:845167</identifier>
      <datestamp>2017-08-18T06:54:21Z</datestamp>
      <setSpec>user-biosyslit</setSpec>
    </header>
    <header>
      <identifier>oai:zenodo.org:845183</identifier>
      <datestamp>2017-08-18T06:55:06Z</datestamp>
      <setSpec>user-biosyslit</setSpec>
    </header>
    <header>
      <identifier>oai:zenodo.org:845181</identifier>
      <datestamp>2017-08-18T06:55:02Z</datestamp>
      <setSpec>user-biosyslit</setSpec>
    </header>
    <header>
      <identifier>oai:zenodo.org:845171</identifier>
      <datestamp>2017-08-18T06:54:47Z</datestamp>
      <setSpec>user-biosyslit</setSpec>
    </header>
    <header>
      <identifier>oai:zenodo.org:845173</identifier>
      <datestamp>2017-08-18T06:54:50Z</datestamp>
      <setSpec>user-biosyslit</setSpec>
    </header>
    <header>
      <identifier>oai:zenodo.org:845179</identifier>
      <datestamp>2017-08-18T06:54:59Z</datestamp>
      <setSpec>user-biosyslit</setSpec>
    </header>
    <header>
      <identifier>oai:zenodo.org:845193</identifier>
      <datestamp>2017-08-18T06:56:48Z</datestamp>
      <setSpec>user-biosyslit</setSpec>
    </header>
    <header>
      <identifier>oai:zenodo.org:845197</identifier>
      <datestamp>2017-08-18T06:56:29Z</datestamp>
      <setSpec>user-biosyslit</setSpec>
    </header>
    <header>
      <identifier>oai:zenodo.org:845213</identifier>
      <datestamp>2017-08-18T06:57:53Z</datestamp>
      <setSpec>user-biosyslit</setSpec>
    </header>
    <header>
      <identifier>oai:zenodo.org:845223</identifier>
      <datestamp>2017-08-18T06:58:08Z</datestamp>
      <setSpec>user-biosyslit</setSpec>
    </header>
    <header>
      <identifier>oai:zenodo.org:845219</identifier>
      <datestamp>2017-08-18T06:58:02Z</datestamp>
      <setSpec>user-biosyslit</setSpec>
    </header>
    <header>
      <identifier>oai:zenodo.org:845211</identifier>
      <datestamp>2017-08-18T06:57:49Z</datestamp>
      <setSpec>user-biosyslit</setSpec>
    </header>
    <header>
      <identifier>oai:zenodo.org:845195</identifier>
      <datestamp>2017-08-18T06:56:25Z</datestamp>
      <setSpec>user-biosyslit</setSpec>
    </header>
    <header>
      <identifier>oai:zenodo.org:845229</identifier>
      <datestamp>2017-08-18T06:58:19Z</datestamp>
      <setSpec>user-biosyslit</setSpec>
    </header>
    <header>
      <identifier>oai:zenodo.org:845203</identifier>
      <datestamp>2017-08-18T06:56:41Z</datestamp>
      <setSpec>user-biosyslit</setSpec>
    </header>
    <header>
      <identifier>oai:zenodo.org:845207</identifier>
      <datestamp>2017-08-18T06:58:31Z</datestamp>
      <setSpec>user-biosyslit</setSpec>
    </header>
    <header>
      <identifier>oai:zenodo.org:845235</identifier>
      <datestamp>2017-08-18T06:59:41Z</datestamp>
      <setSpec>user-biosyslit</setSpec>
    </header>
    <header>
      <identifier>oai:zenodo.org:845237</identifier>
      <datestamp>2017-08-18T06:59:31Z</datestamp>
      <setSpec>user-biosyslit</setSpec>
    </header>
    <header>
      <identifier>oai:zenodo.org:845231</identifier>
      <datestamp>2017-08-18T06:58:23Z</datestamp>
      <setSpec>user-biosyslit</setSpec>
    </header>
    <header>
      <identifier>oai:zenodo.org:845233</identifier>
      <datestamp>2017-08-18T06:58:26Z</datestamp>
      <setSpec>user-biosyslit</setSpec>
    </header>
    <header>
      <identifier>oai:zenodo.org:843033</identifier>
      <datestamp>2017-08-15T07:36:02Z</datestamp>
      <setSpec>user-biosyslit</setSpec>
    </header>
    <header>
      <identifier>oai:zenodo.org:843425</identifier>
      <datestamp>2017-08-15T09:52:46Z</datestamp>
      <setSpec>user-biosyslit</setSpec>
    </header>
    <header>
      <identifier>oai:zenodo.org:843427</identifier>
      <datestamp>2017-08-15T09:52:50Z</datestamp>
      <setSpec>user-biosyslit</setSpec>
    </header>
    <header>
      <identifier>oai:zenodo.org:843411</identifier>
      <datestamp>2017-08-15T09:52:21Z</datestamp>
      <setSpec>user-biosyslit</setSpec>
    </header>
    <header>
      <identifier>oai:zenodo.org:843437</identifier>
      <datestamp>2017-08-15T09:53:09Z</datestamp>
      <setSpec>user-biosyslit</setSpec>
    </header>
    <header>
      <identifier>oai:zenodo.org:843413</identifier>
      <datestamp>2017-08-15T09:52:26Z</datestamp>
      <setSpec>user-biosyslit</setSpec>
    </header>
    <header>
      <identifier>oai:zenodo.org:843433</identifier>
      <datestamp>2017-08-15T09:53:01Z</datestamp>
      <setSpec>user-biosyslit</setSpec>
    </header>
    <header>
      <identifier>oai:zenodo.org:843421</identifier>
      <datestamp>2017-08-15T09:52:40Z</datestamp>
      <setSpec>user-biosyslit</setSpec>
    </header>
    <header>
      <identifier>oai:zenodo.org:843419</identifier>
      <datestamp>2017-08-15T09:52:37Z</datestamp>
      <setSpec>user-biosyslit</setSpec>
    </header>
    <header>
      <identifier>oai:zenodo.org:843325</identifier>
      <datestamp>2017-08-15T09:54:27Z</datestamp>
      <setSpec>user-biosyslit</setSpec>
    </header>
    <header>
      <identifier>oai:zenodo.org:843443</identifier>
      <datestamp>2017-08-15T09:53:18Z</datestamp>
      <setSpec>user-biosyslit</setSpec>
    </header>
    <header>
      <identifier>oai:zenodo.org:843471</identifier>
      <datestamp>2017-08-15T09:54:10Z</datestamp>
      <setSpec>user-biosyslit</setSpec>
    </header>
    <header>
      <identifier>oai:zenodo.org:843445</identifier>
      <datestamp>2017-08-15T09:53:21Z</datestamp>
      <setSpec>user-biosyslit</setSpec>
    </header>
    <header>
      <identifier>oai:zenodo.org:843461</identifier>
      <datestamp>2017-08-15T09:53:53Z</datestamp>
      <setSpec>user-biosyslit</setSpec>
    </header>
    <header>
      <identifier>oai:zenodo.org:843465</identifier>
      <datestamp>2017-08-15T09:54:01Z</datestamp>
      <setSpec>user-biosyslit</setSpec>
    </header>
    <header>
      <identifier>oai:zenodo.org:843463</identifier>
      <datestamp>2017-08-15T09:53:57Z</datestamp>
      <setSpec>user-biosyslit</setSpec>
    </header>
    <header>
      <identifier>oai:zenodo.org:843475</identifier>
      <datestamp>2017-08-15T09:54:13Z</datestamp>
      <setSpec>user-biosyslit</setSpec>
    </header>
    <header>
      <identifier>oai:zenodo.org:843459</identifier>
      <datestamp>2017-08-15T09:53:50Z</datestamp>
      <setSpec>user-biosyslit</setSpec>
    </header>
    <header>
      <identifier>oai:zenodo.org:843664</identifier>
      <datestamp>2017-08-16T06:42:03Z</datestamp>
      <setSpec>user-biosyslit</setSpec>
    </header>
    <header>
      <identifier>oai:zenodo.org:843666</identifier>
      <datestamp>2017-08-16T06:42:05Z</datestamp>
      <setSpec>user-biosyslit</setSpec>
    </header>
    <header>
      <identifier>oai:zenodo.org:843832</identifier>
      <datestamp>2017-08-16T07:31:01Z</datestamp>
      <setSpec>user-biosyslit</setSpec>
    </header>
    <header>
      <identifier>oai:zenodo.org:843826</identifier>
      <datestamp>2017-08-16T07:30:50Z</datestamp>
      <setSpec>user-biosyslit</setSpec>
    </header>
    <header>
      <identifier>oai:zenodo.org:843828</identifier>
      <datestamp>2017-08-16T07:30:53Z</datestamp>
      <setSpec>user-biosyslit</setSpec>
    </header>
    <header>
      <identifier>oai:zenodo.org:843836</identifier>
      <datestamp>2017-08-16T07:31:06Z</datestamp>
      <setSpec>user-biosyslit</setSpec>
    </header>
    <header>
      <identifier>oai:zenodo.org:844474</identifier>
      <datestamp>2017-08-17T09:17:50Z</datestamp>
      <setSpec>user-biosyslit</setSpec>
    </header>
    <header>
      <identifier>oai:zenodo.org:844488</identifier>
      <datestamp>2017-08-17T09:18:29Z</datestamp>
      <setSpec>user-biosyslit</setSpec>
    </header>
    <header>
      <identifier>oai:zenodo.org:844486</identifier>
      <datestamp>2017-08-17T09:18:25Z</datestamp>
      <setSpec>user-biosyslit</setSpec>
    </header>
    <header>
      <identifier>oai:zenodo.org:844492</identifier>
      <datestamp>2017-08-17T09:18:58Z</datestamp>
      <setSpec>user-biosyslit</setSpec>
    </header>
    <header>
      <identifier>oai:zenodo.org:844478</identifier>
      <datestamp>2017-08-17T09:17:41Z</datestamp>
      <setSpec>user-biosyslit</setSpec>
    </header>
    <header>
      <identifier>oai:zenodo.org:844524</identifier>
      <datestamp>2017-08-17T09:21:47Z</datestamp>
      <setSpec>user-biosyslit</setSpec>
    </header>
    <header>
      <identifier>oai:zenodo.org:844532</identifier>
      <datestamp>2017-08-17T09:21:39Z</datestamp>
      <setSpec>user-biosyslit</setSpec>
    </header>
    <header>
      <identifier>oai:zenodo.org:844526</identifier>
      <datestamp>2017-08-17T09:21:25Z</datestamp>
      <setSpec>user-biosyslit</setSpec>
    </header>
    <header>
      <identifier>oai:zenodo.org:844540</identifier>
      <datestamp>2017-08-17T09:23:27Z</datestamp>
      <setSpec>user-biosyslit</setSpec>
    </header>
    <header>
      <identifier>oai:zenodo.org:844528</identifier>
      <datestamp>2017-08-17T09:21:30Z</datestamp>
      <setSpec>user-biosyslit</setSpec>
    </header>
    <header>
      <identifier>oai:zenodo.org:844530</identifier>
      <datestamp>2017-08-17T09:21:34Z</datestamp>
      <setSpec>user-biosyslit</setSpec>
    </header>
    <header>
      <identifier>oai:zenodo.org:844550</identifier>
      <datestamp>2017-08-17T09:24:54Z</datestamp>
      <setSpec>user-biosyslit</setSpec>
    </header>
    <resumptionToken expirationDate="2017-08-31T15:48:27Z" cursor="77000" completeListSize="77796">.eJyNyj0LgkAYAOD_8s4S94GeCi2hiYOKXUq6hKmIeZp4RXrSf6-luebnWUHWdQU22liMGhbC2DSJbhi6pYEsp5sQ5_bDUJ5SUQ4iKbz0cehTlJGGhY6cAyejoepQ1GPF9zE5YXNOWrTEx-SeqcOcUv_JkcsCFS_h1f-8ikaeyC_eyJNhJzippsiNF453PKfl9-E_n_r5HLkFDcaiqcFmjGjQPYupkWCvr9cbql1RUA.DInA0w.ScPH_srL7qrhsocieNScD-gtKiE</resumptionToken>
  </ListIdentifiers>
</OAI-PMH>
