<?xml version='1.0' encoding='UTF-8'?>
<?xml-stylesheet type="text/xsl" href="/static/xsl/oai2.v1.0.xsl"?>
<OAI-PMH xmlns="http://www.openarchives.org/OAI/2.0/" xmlns:xsi="http://www.w3.org/2001/XMLSchema-instance" xsi:schemaLocation="http://www.openarchives.org/OAI/2.0/ http://www.openarchives.org/OAI/2.0/OAI-PMH.xsd">
  <responseDate>2017-08-31T15:42:43Z</responseDate>
  <request verb="ListIdentifiers" resumptionToken=".eJyNyrsOgjAUANB_uTMxfQgKiQtBCYOQUmmExSAQgtZHqAYo4d9lcdb5nBFUVZXgoAXCJjFNRMnStixqW8QAVbQPKU_N7FAchSzuMsl98Y5vAqWkXoWe6vdeSkN9RdENa75j5IjXfdKggR2SV6rjXtCg42i72ms2hJdgfiWNfJmd_SdP7q7kpGyjLRs4dnlGi-_Dfz7983lqAwY887oCh1hLA65d3tYKnHGaPsrwUWs.DIm_8w.aor-O-r9M-UDpDlmDUn4ebKJCbI">https://zenodo.org/oai2d</request>
  <ListIdentifiers>
    <header>
      <identifier>oai:zenodo.org:275848</identifier>
      <datestamp>2017-02-08T17:12:55Z</datestamp>
      <setSpec>user-biosyslit</setSpec>
    </header>
    <header>
      <identifier>oai:zenodo.org:275850</identifier>
      <datestamp>2017-02-08T17:13:00Z</datestamp>
      <setSpec>user-biosyslit</setSpec>
    </header>
    <header>
      <identifier>oai:zenodo.org:275846</identifier>
      <datestamp>2017-02-08T17:12:50Z</datestamp>
      <setSpec>user-biosyslit</setSpec>
    </header>
    <header>
      <identifier>oai:zenodo.org:275851</identifier>
      <datestamp>2017-02-08T17:13:02Z</datestamp>
      <setSpec>user-biosyslit</setSpec>
    </header>
    <header>
      <identifier>oai:zenodo.org:275857</identifier>
      <datestamp>2017-02-08T17:13:15Z</datestamp>
      <setSpec>user-biosyslit</setSpec>
    </header>
    <header>
      <identifier>oai:zenodo.org:275854</identifier>
      <datestamp>2017-02-08T17:13:09Z</datestamp>
      <setSpec>user-biosyslit</setSpec>
    </header>
    <header>
      <identifier>oai:zenodo.org:275855</identifier>
      <datestamp>2017-02-08T17:13:11Z</datestamp>
      <setSpec>user-biosyslit</setSpec>
    </header>
    <header>
      <identifier>oai:zenodo.org:275860</identifier>
      <datestamp>2017-02-08T17:13:21Z</datestamp>
      <setSpec>user-biosyslit</setSpec>
    </header>
    <header>
      <identifier>oai:zenodo.org:275858</identifier>
      <datestamp>2017-02-08T17:13:17Z</datestamp>
      <setSpec>user-biosyslit</setSpec>
    </header>
    <header>
      <identifier>oai:zenodo.org:275852</identifier>
      <datestamp>2017-02-08T17:13:04Z</datestamp>
      <setSpec>user-biosyslit</setSpec>
    </header>
    <header>
      <identifier>oai:zenodo.org:289974</identifier>
      <datestamp>2017-02-10T00:58:59Z</datestamp>
      <setSpec>user-biosyslit</setSpec>
    </header>
    <header>
      <identifier>oai:zenodo.org:289976</identifier>
      <datestamp>2017-02-10T00:59:04Z</datestamp>
      <setSpec>user-biosyslit</setSpec>
    </header>
    <header>
      <identifier>oai:zenodo.org:289975</identifier>
      <datestamp>2017-02-10T00:59:02Z</datestamp>
      <setSpec>user-biosyslit</setSpec>
    </header>
    <header>
      <identifier>oai:zenodo.org:238167</identifier>
      <datestamp>2017-01-11T01:48:55Z</datestamp>
      <setSpec>user-biosyslit</setSpec>
    </header>
    <header>
      <identifier>oai:zenodo.org:238165</identifier>
      <datestamp>2017-01-11T01:48:47Z</datestamp>
      <setSpec>user-biosyslit</setSpec>
    </header>
    <header>
      <identifier>oai:zenodo.org:238164</identifier>
      <datestamp>2017-01-11T01:48:45Z</datestamp>
      <setSpec>user-biosyslit</setSpec>
    </header>
    <header>
      <identifier>oai:zenodo.org:233205</identifier>
      <datestamp>2017-01-08T02:08:47Z</datestamp>
      <setSpec>user-biosyslit</setSpec>
    </header>
    <header>
      <identifier>oai:zenodo.org:255292</identifier>
      <datestamp>2017-01-21T10:58:36Z</datestamp>
      <setSpec>user-biosyslit</setSpec>
    </header>
    <header>
      <identifier>oai:zenodo.org:255290</identifier>
      <datestamp>2017-01-21T10:58:31Z</datestamp>
      <setSpec>user-biosyslit</setSpec>
    </header>
    <header>
      <identifier>oai:zenodo.org:289982</identifier>
      <datestamp>2017-02-10T00:59:23Z</datestamp>
      <setSpec>user-biosyslit</setSpec>
    </header>
    <header>
      <identifier>oai:zenodo.org:255294</identifier>
      <datestamp>2017-01-21T10:58:44Z</datestamp>
      <setSpec>user-biosyslit</setSpec>
    </header>
    <header>
      <identifier>oai:zenodo.org:289983</identifier>
      <datestamp>2017-02-10T00:59:27Z</datestamp>
      <setSpec>user-biosyslit</setSpec>
    </header>
    <header>
      <identifier>oai:zenodo.org:289984</identifier>
      <datestamp>2017-02-10T00:59:29Z</datestamp>
      <setSpec>user-biosyslit</setSpec>
    </header>
    <header>
      <identifier>oai:zenodo.org:285176</identifier>
      <datestamp>2017-02-09T12:51:22Z</datestamp>
      <setSpec>user-biosyslit</setSpec>
    </header>
    <header>
      <identifier>oai:zenodo.org:237856</identifier>
      <datestamp>2017-01-10T21:33:08Z</datestamp>
      <setSpec>user-biosyslit</setSpec>
    </header>
    <header>
      <identifier>oai:zenodo.org:237855</identifier>
      <datestamp>2017-01-10T21:33:05Z</datestamp>
      <setSpec>user-biosyslit</setSpec>
    </header>
    <header>
      <identifier>oai:zenodo.org:285179</identifier>
      <datestamp>2017-02-09T12:51:15Z</datestamp>
      <setSpec>user-biosyslit</setSpec>
    </header>
    <header>
      <identifier>oai:zenodo.org:285178</identifier>
      <datestamp>2017-02-09T12:51:13Z</datestamp>
      <setSpec>user-biosyslit</setSpec>
    </header>
    <header>
      <identifier>oai:zenodo.org:236310</identifier>
      <datestamp>2017-01-09T21:52:59Z</datestamp>
      <setSpec>user-biosyslit</setSpec>
    </header>
    <header>
      <identifier>oai:zenodo.org:236309</identifier>
      <datestamp>2017-01-09T21:52:56Z</datestamp>
      <setSpec>user-biosyslit</setSpec>
    </header>
    <header>
      <identifier>oai:zenodo.org:236308</identifier>
      <datestamp>2017-01-09T21:52:53Z</datestamp>
      <setSpec>user-biosyslit</setSpec>
    </header>
    <header>
      <identifier>oai:zenodo.org:236304</identifier>
      <datestamp>2017-01-09T21:52:40Z</datestamp>
      <setSpec>user-biosyslit</setSpec>
    </header>
    <header>
      <identifier>oai:zenodo.org:236305</identifier>
      <datestamp>2017-01-09T21:52:42Z</datestamp>
      <setSpec>user-biosyslit</setSpec>
    </header>
    <header>
      <identifier>oai:zenodo.org:236311</identifier>
      <datestamp>2017-01-09T21:53:02Z</datestamp>
      <setSpec>user-biosyslit</setSpec>
    </header>
    <header>
      <identifier>oai:zenodo.org:236314</identifier>
      <datestamp>2017-01-09T21:53:10Z</datestamp>
      <setSpec>user-biosyslit</setSpec>
    </header>
    <header>
      <identifier>oai:zenodo.org:236316</identifier>
      <datestamp>2017-01-09T21:53:15Z</datestamp>
      <setSpec>user-biosyslit</setSpec>
    </header>
    <header>
      <identifier>oai:zenodo.org:236312</identifier>
      <datestamp>2017-01-09T21:53:04Z</datestamp>
      <setSpec>user-biosyslit</setSpec>
    </header>
    <header>
      <identifier>oai:zenodo.org:33741</identifier>
      <datestamp>2017-03-14T21:11:43Z</datestamp>
      <setSpec>user-biosyslit</setSpec>
    </header>
    <header>
      <identifier>oai:zenodo.org:240154</identifier>
      <datestamp>2017-01-12T05:24:01Z</datestamp>
      <setSpec>user-biosyslit</setSpec>
    </header>
    <header>
      <identifier>oai:zenodo.org:398970</identifier>
      <datestamp>2017-03-14T21:11:34Z</datestamp>
      <setSpec>user-biosyslit</setSpec>
    </header>
    <header>
      <identifier>oai:zenodo.org:398973</identifier>
      <datestamp>2017-03-14T21:11:42Z</datestamp>
      <setSpec>user-biosyslit</setSpec>
    </header>
    <header>
      <identifier>oai:zenodo.org:398971</identifier>
      <datestamp>2017-03-14T21:11:37Z</datestamp>
      <setSpec>user-biosyslit</setSpec>
    </header>
    <header>
      <identifier>oai:zenodo.org:240156</identifier>
      <datestamp>2017-01-12T05:24:06Z</datestamp>
      <setSpec>user-biosyslit</setSpec>
    </header>
    <header>
      <identifier>oai:zenodo.org:240159</identifier>
      <datestamp>2017-01-12T05:24:15Z</datestamp>
      <setSpec>user-biosyslit</setSpec>
    </header>
    <header>
      <identifier>oai:zenodo.org:240157</identifier>
      <datestamp>2017-01-12T05:24:09Z</datestamp>
      <setSpec>user-biosyslit</setSpec>
    </header>
    <header>
      <identifier>oai:zenodo.org:240163</identifier>
      <datestamp>2017-01-12T05:24:28Z</datestamp>
      <setSpec>user-biosyslit</setSpec>
    </header>
    <header>
      <identifier>oai:zenodo.org:240158</identifier>
      <datestamp>2017-01-12T05:24:11Z</datestamp>
      <setSpec>user-biosyslit</setSpec>
    </header>
    <header>
      <identifier>oai:zenodo.org:240160</identifier>
      <datestamp>2017-01-12T05:24:19Z</datestamp>
      <setSpec>user-biosyslit</setSpec>
    </header>
    <header>
      <identifier>oai:zenodo.org:240161</identifier>
      <datestamp>2017-01-12T05:24:22Z</datestamp>
      <setSpec>user-biosyslit</setSpec>
    </header>
    <header>
      <identifier>oai:zenodo.org:240164</identifier>
      <datestamp>2017-01-12T05:24:32Z</datestamp>
      <setSpec>user-biosyslit</setSpec>
    </header>
    <header>
      <identifier>oai:zenodo.org:240155</identifier>
      <datestamp>2017-01-12T05:24:04Z</datestamp>
      <setSpec>user-biosyslit</setSpec>
    </header>
    <header>
      <identifier>oai:zenodo.org:240153</identifier>
      <datestamp>2017-01-12T05:25:13Z</datestamp>
      <setSpec>user-biosyslit</setSpec>
    </header>
    <header>
      <identifier>oai:zenodo.org:240175</identifier>
      <datestamp>2017-01-12T05:25:06Z</datestamp>
      <setSpec>user-biosyslit</setSpec>
    </header>
    <header>
      <identifier>oai:zenodo.org:240173</identifier>
      <datestamp>2017-01-12T05:25:00Z</datestamp>
      <setSpec>user-biosyslit</setSpec>
    </header>
    <header>
      <identifier>oai:zenodo.org:240174</identifier>
      <datestamp>2017-01-12T05:25:03Z</datestamp>
      <setSpec>user-biosyslit</setSpec>
    </header>
    <header>
      <identifier>oai:zenodo.org:240177</identifier>
      <datestamp>2017-01-12T05:25:12Z</datestamp>
      <setSpec>user-biosyslit</setSpec>
    </header>
    <header>
      <identifier>oai:zenodo.org:240168</identifier>
      <datestamp>2017-01-12T05:24:42Z</datestamp>
      <setSpec>user-biosyslit</setSpec>
    </header>
    <header>
      <identifier>oai:zenodo.org:257925</identifier>
      <datestamp>2017-01-23T14:03:48Z</datestamp>
      <setSpec>user-biosyslit</setSpec>
    </header>
    <header>
      <identifier>oai:zenodo.org:231892</identifier>
      <datestamp>2017-01-06T08:23:39Z</datestamp>
      <setSpec>user-biosyslit</setSpec>
    </header>
    <header>
      <identifier>oai:zenodo.org:231890</identifier>
      <datestamp>2017-01-06T08:23:24Z</datestamp>
      <setSpec>user-biosyslit</setSpec>
    </header>
    <header>
      <identifier>oai:zenodo.org:231889</identifier>
      <datestamp>2017-01-06T08:23:22Z</datestamp>
      <setSpec>user-biosyslit</setSpec>
    </header>
    <header>
      <identifier>oai:zenodo.org:231891</identifier>
      <datestamp>2017-01-06T08:23:36Z</datestamp>
      <setSpec>user-biosyslit</setSpec>
    </header>
    <header>
      <identifier>oai:zenodo.org:289139</identifier>
      <datestamp>2017-02-09T22:48:21Z</datestamp>
      <setSpec>user-biosyslit</setSpec>
    </header>
    <header>
      <identifier>oai:zenodo.org:289140</identifier>
      <datestamp>2017-02-09T22:48:24Z</datestamp>
      <setSpec>user-biosyslit</setSpec>
    </header>
    <header>
      <identifier>oai:zenodo.org:289155</identifier>
      <datestamp>2017-02-09T22:49:06Z</datestamp>
      <setSpec>user-biosyslit</setSpec>
    </header>
    <header>
      <identifier>oai:zenodo.org:289143</identifier>
      <datestamp>2017-02-09T22:48:32Z</datestamp>
      <setSpec>user-biosyslit</setSpec>
    </header>
    <header>
      <identifier>oai:zenodo.org:289157</identifier>
      <datestamp>2017-02-09T22:49:12Z</datestamp>
      <setSpec>user-biosyslit</setSpec>
    </header>
    <header>
      <identifier>oai:zenodo.org:289162</identifier>
      <datestamp>2017-02-09T22:49:26Z</datestamp>
      <setSpec>user-biosyslit</setSpec>
    </header>
    <header>
      <identifier>oai:zenodo.org:289148</identifier>
      <datestamp>2017-02-09T22:48:47Z</datestamp>
      <setSpec>user-biosyslit</setSpec>
    </header>
    <header>
      <identifier>oai:zenodo.org:289154</identifier>
      <datestamp>2017-02-09T22:49:02Z</datestamp>
      <setSpec>user-biosyslit</setSpec>
    </header>
    <header>
      <identifier>oai:zenodo.org:289156</identifier>
      <datestamp>2017-02-09T22:49:09Z</datestamp>
      <setSpec>user-biosyslit</setSpec>
    </header>
    <header>
      <identifier>oai:zenodo.org:289137</identifier>
      <datestamp>2017-02-09T22:49:39Z</datestamp>
      <setSpec>user-biosyslit</setSpec>
    </header>
    <header>
      <identifier>oai:zenodo.org:289163</identifier>
      <datestamp>2017-02-09T22:49:29Z</datestamp>
      <setSpec>user-biosyslit</setSpec>
    </header>
    <header>
      <identifier>oai:zenodo.org:289166</identifier>
      <datestamp>2017-02-09T22:49:37Z</datestamp>
      <setSpec>user-biosyslit</setSpec>
    </header>
    <header>
      <identifier>oai:zenodo.org:238414</identifier>
      <datestamp>2017-01-11T05:29:40Z</datestamp>
      <setSpec>user-biosyslit</setSpec>
    </header>
    <header>
      <identifier>oai:zenodo.org:238416</identifier>
      <datestamp>2017-01-11T05:29:47Z</datestamp>
      <setSpec>user-biosyslit</setSpec>
    </header>
    <header>
      <identifier>oai:zenodo.org:289164</identifier>
      <datestamp>2017-02-09T22:49:31Z</datestamp>
      <setSpec>user-biosyslit</setSpec>
    </header>
    <header>
      <identifier>oai:zenodo.org:238412</identifier>
      <datestamp>2017-01-11T05:29:31Z</datestamp>
      <setSpec>user-biosyslit</setSpec>
    </header>
    <header>
      <identifier>oai:zenodo.org:238418</identifier>
      <datestamp>2017-01-11T05:30:01Z</datestamp>
      <setSpec>user-biosyslit</setSpec>
    </header>
    <header>
      <identifier>oai:zenodo.org:238419</identifier>
      <datestamp>2017-01-11T05:30:10Z</datestamp>
      <setSpec>user-biosyslit</setSpec>
    </header>
    <header>
      <identifier>oai:zenodo.org:238422</identifier>
      <datestamp>2017-01-11T05:30:22Z</datestamp>
      <setSpec>user-biosyslit</setSpec>
    </header>
    <header>
      <identifier>oai:zenodo.org:238423</identifier>
      <datestamp>2017-01-11T05:30:25Z</datestamp>
      <setSpec>user-biosyslit</setSpec>
    </header>
    <header>
      <identifier>oai:zenodo.org:230024</identifier>
      <datestamp>2017-01-04T18:10:32Z</datestamp>
      <setSpec>user-biosyslit</setSpec>
    </header>
    <header>
      <identifier>oai:zenodo.org:230032</identifier>
      <datestamp>2017-01-04T18:10:59Z</datestamp>
      <setSpec>user-biosyslit</setSpec>
    </header>
    <header>
      <identifier>oai:zenodo.org:230028</identifier>
      <datestamp>2017-01-04T18:10:45Z</datestamp>
      <setSpec>user-biosyslit</setSpec>
    </header>
    <header>
      <identifier>oai:zenodo.org:230025</identifier>
      <datestamp>2017-01-04T18:10:36Z</datestamp>
      <setSpec>user-biosyslit</setSpec>
    </header>
    <header>
      <identifier>oai:zenodo.org:230027</identifier>
      <datestamp>2017-01-04T18:10:42Z</datestamp>
      <setSpec>user-biosyslit</setSpec>
    </header>
    <header>
      <identifier>oai:zenodo.org:230031</identifier>
      <datestamp>2017-01-04T18:10:56Z</datestamp>
      <setSpec>user-biosyslit</setSpec>
    </header>
    <header>
      <identifier>oai:zenodo.org:238420</identifier>
      <datestamp>2017-01-11T05:30:15Z</datestamp>
      <setSpec>user-biosyslit</setSpec>
    </header>
    <header>
      <identifier>oai:zenodo.org:239551</identifier>
      <datestamp>2017-01-11T22:07:59Z</datestamp>
      <setSpec>user-biosyslit</setSpec>
    </header>
    <header>
      <identifier>oai:zenodo.org:262036</identifier>
      <datestamp>2017-01-28T19:39:25Z</datestamp>
      <setSpec>user-biosyslit</setSpec>
    </header>
    <header>
      <identifier>oai:zenodo.org:239552</identifier>
      <datestamp>2017-01-11T22:07:55Z</datestamp>
      <setSpec>user-biosyslit</setSpec>
    </header>
    <header>
      <identifier>oai:zenodo.org:230033</identifier>
      <datestamp>2017-01-04T18:11:03Z</datestamp>
      <setSpec>user-biosyslit</setSpec>
    </header>
    <header>
      <identifier>oai:zenodo.org:262038</identifier>
      <datestamp>2017-01-28T19:39:24Z</datestamp>
      <setSpec>user-biosyslit</setSpec>
    </header>
    <header>
      <identifier>oai:zenodo.org:262037</identifier>
      <datestamp>2017-01-28T19:39:21Z</datestamp>
      <setSpec>user-biosyslit</setSpec>
    </header>
    <header>
      <identifier>oai:zenodo.org:241316</identifier>
      <datestamp>2017-01-12T23:56:42Z</datestamp>
      <setSpec>user-biosyslit</setSpec>
    </header>
    <header>
      <identifier>oai:zenodo.org:252243</identifier>
      <datestamp>2017-01-19T11:08:23Z</datestamp>
      <setSpec>user-biosyslit</setSpec>
    </header>
    <header>
      <identifier>oai:zenodo.org:241319</identifier>
      <datestamp>2017-01-12T23:55:58Z</datestamp>
      <setSpec>user-biosyslit</setSpec>
    </header>
    <header>
      <identifier>oai:zenodo.org:241325</identifier>
      <datestamp>2017-01-12T23:56:30Z</datestamp>
      <setSpec>user-biosyslit</setSpec>
    </header>
    <header>
      <identifier>oai:zenodo.org:241318</identifier>
      <datestamp>2017-01-12T23:55:53Z</datestamp>
      <setSpec>user-biosyslit</setSpec>
    </header>
    <resumptionToken expirationDate="2017-08-31T15:44:43Z" cursor="26300" completeListSize="77796">.eJyNyssKgkAUANB_uWuJeWA-oI1o4kJFJ0XdhKlIOVY4hTriv-emda3PWUA0TQ0m2hFMDVU3MELaXjNURBQQ1fDg_HzdHKos5dWdJ6WbvuM-RTlptcAWk2_nNJAdCnss2TEiGdan5Irm6JS8chlPKfVGhhzNl9Ec3Lzt1TR0eXFxnyy5W5yRegidaGbYYgWtvg__-eTPZ4sDKPAs2wZMslcV6MZyaAWYy7p-ANDuUXI.DIm_8w.PAog4ZW-z7X2jrmPXjuKVDsM1Sc</resumptionToken>
  </ListIdentifiers>
</OAI-PMH>
