<?xml version='1.0' encoding='UTF-8'?>
<?xml-stylesheet type="text/xsl" href="/static/xsl/oai2.v1.0.xsl"?>
<OAI-PMH xmlns="http://www.openarchives.org/OAI/2.0/" xmlns:xsi="http://www.w3.org/2001/XMLSchema-instance" xsi:schemaLocation="http://www.openarchives.org/OAI/2.0/ http://www.openarchives.org/OAI/2.0/OAI-PMH.xsd">
  <responseDate>2017-08-31T15:41:55Z</responseDate>
  <request verb="ListIdentifiers" resumptionToken=".eJyNysEOQzAYAOB3-c-ytMqMZBdh4oBYR8ZlMURMmegWVLz7XHbezt-3AC_LAgy0w8pe1YmKiXrQFVknEvB8eDJ2qzeG_BqzvGNR5sTvcxujRK403-KTZyXEFw0KWizoKZSv-DBFNZrDS_RKxHmKiTtSZGueCGf_4W6vIIHD0rvT06gzGZWLIbDDmWKTpiT_PvznEz-fxY8gQZ9VJRhYwRI0YzZUHIxlXT-iTFE-.DIm_ww.VO_wBy5CFLpIH7-AaS0yAf9JVsU">https://zenodo.org/oai2d</request>
  <ListIdentifiers>
    <header>
      <identifier>oai:zenodo.org:270800</identifier>
      <datestamp>2017-02-07T23:56:45Z</datestamp>
      <setSpec>user-biosyslit</setSpec>
    </header>
    <header>
      <identifier>oai:zenodo.org:233329</identifier>
      <datestamp>2017-01-08T03:33:15Z</datestamp>
      <setSpec>user-biosyslit</setSpec>
    </header>
    <header>
      <identifier>oai:zenodo.org:233372</identifier>
      <datestamp>2017-01-08T04:02:34Z</datestamp>
      <setSpec>user-biosyslit</setSpec>
    </header>
    <header>
      <identifier>oai:zenodo.org:234508</identifier>
      <datestamp>2017-01-08T20:57:00Z</datestamp>
      <setSpec>user-biosyslit</setSpec>
    </header>
    <header>
      <identifier>oai:zenodo.org:233322</identifier>
      <datestamp>2017-01-08T03:29:50Z</datestamp>
      <setSpec>user-biosyslit</setSpec>
    </header>
    <header>
      <identifier>oai:zenodo.org:234990</identifier>
      <datestamp>2017-01-09T04:28:03Z</datestamp>
      <setSpec>user-biosyslit</setSpec>
    </header>
    <header>
      <identifier>oai:zenodo.org:234839</identifier>
      <datestamp>2017-01-09T02:40:15Z</datestamp>
      <setSpec>user-biosyslit</setSpec>
    </header>
    <header>
      <identifier>oai:zenodo.org:288539</identifier>
      <datestamp>2017-02-09T21:06:11Z</datestamp>
      <setSpec>user-biosyslit</setSpec>
    </header>
    <header>
      <identifier>oai:zenodo.org:234182</identifier>
      <datestamp>2017-01-08T15:56:07Z</datestamp>
      <setSpec>user-biosyslit</setSpec>
    </header>
    <header>
      <identifier>oai:zenodo.org:234037</identifier>
      <datestamp>2017-01-08T14:13:30Z</datestamp>
      <setSpec>user-biosyslit</setSpec>
    </header>
    <header>
      <identifier>oai:zenodo.org:234244</identifier>
      <datestamp>2017-01-08T17:26:53Z</datestamp>
      <setSpec>user-biosyslit</setSpec>
    </header>
    <header>
      <identifier>oai:zenodo.org:234012</identifier>
      <datestamp>2017-01-08T14:04:38Z</datestamp>
      <setSpec>user-biosyslit</setSpec>
    </header>
    <header>
      <identifier>oai:zenodo.org:233822</identifier>
      <datestamp>2017-01-08T12:16:58Z</datestamp>
      <setSpec>user-biosyslit</setSpec>
    </header>
    <header>
      <identifier>oai:zenodo.org:270880</identifier>
      <datestamp>2017-02-08T00:08:18Z</datestamp>
      <setSpec>user-biosyslit</setSpec>
    </header>
    <header>
      <identifier>oai:zenodo.org:270703</identifier>
      <datestamp>2017-02-07T23:50:07Z</datestamp>
      <setSpec>user-biosyslit</setSpec>
    </header>
    <header>
      <identifier>oai:zenodo.org:234908</identifier>
      <datestamp>2017-01-09T03:22:31Z</datestamp>
      <setSpec>user-biosyslit</setSpec>
    </header>
    <header>
      <identifier>oai:zenodo.org:235079</identifier>
      <datestamp>2017-01-09T05:26:43Z</datestamp>
      <setSpec>user-biosyslit</setSpec>
    </header>
    <header>
      <identifier>oai:zenodo.org:235029</identifier>
      <datestamp>2017-01-09T04:46:37Z</datestamp>
      <setSpec>user-biosyslit</setSpec>
    </header>
    <header>
      <identifier>oai:zenodo.org:235461</identifier>
      <datestamp>2017-01-09T10:21:55Z</datestamp>
      <setSpec>user-biosyslit</setSpec>
    </header>
    <header>
      <identifier>oai:zenodo.org:235257</identifier>
      <datestamp>2017-01-09T07:34:53Z</datestamp>
      <setSpec>user-biosyslit</setSpec>
    </header>
    <header>
      <identifier>oai:zenodo.org:236732</identifier>
      <datestamp>2017-01-10T03:58:17Z</datestamp>
      <setSpec>user-biosyslit</setSpec>
    </header>
    <header>
      <identifier>oai:zenodo.org:235225</identifier>
      <datestamp>2017-01-09T07:04:49Z</datestamp>
      <setSpec>user-biosyslit</setSpec>
    </header>
    <header>
      <identifier>oai:zenodo.org:236393</identifier>
      <datestamp>2017-01-09T23:39:33Z</datestamp>
      <setSpec>user-biosyslit</setSpec>
    </header>
    <header>
      <identifier>oai:zenodo.org:235999</identifier>
      <datestamp>2017-01-09T17:48:39Z</datestamp>
      <setSpec>user-biosyslit</setSpec>
    </header>
    <header>
      <identifier>oai:zenodo.org:235702</identifier>
      <datestamp>2017-01-09T13:44:10Z</datestamp>
      <setSpec>user-biosyslit</setSpec>
    </header>
    <header>
      <identifier>oai:zenodo.org:227606</identifier>
      <datestamp>2017-01-02T00:54:12Z</datestamp>
      <setSpec>user-biosyslit</setSpec>
    </header>
    <header>
      <identifier>oai:zenodo.org:227728</identifier>
      <datestamp>2017-01-02T02:39:44Z</datestamp>
      <setSpec>user-biosyslit</setSpec>
    </header>
    <header>
      <identifier>oai:zenodo.org:227511</identifier>
      <datestamp>2017-01-01T22:46:13Z</datestamp>
      <setSpec>user-biosyslit</setSpec>
    </header>
    <header>
      <identifier>oai:zenodo.org:227495</identifier>
      <datestamp>2017-01-01T22:13:50Z</datestamp>
      <setSpec>user-biosyslit</setSpec>
    </header>
    <header>
      <identifier>oai:zenodo.org:228698</identifier>
      <datestamp>2017-01-03T03:38:31Z</datestamp>
      <setSpec>user-biosyslit</setSpec>
    </header>
    <header>
      <identifier>oai:zenodo.org:495074</identifier>
      <datestamp>2017-04-05T07:41:02Z</datestamp>
      <setSpec>user-biosyslit</setSpec>
    </header>
    <header>
      <identifier>oai:zenodo.org:228689</identifier>
      <datestamp>2017-01-03T03:28:46Z</datestamp>
      <setSpec>user-biosyslit</setSpec>
    </header>
    <header>
      <identifier>oai:zenodo.org:227640</identifier>
      <datestamp>2017-01-02T01:15:45Z</datestamp>
      <setSpec>user-biosyslit</setSpec>
    </header>
    <header>
      <identifier>oai:zenodo.org:228576</identifier>
      <datestamp>2017-01-03T01:52:01Z</datestamp>
      <setSpec>user-biosyslit</setSpec>
    </header>
    <header>
      <identifier>oai:zenodo.org:227766</identifier>
      <datestamp>2017-01-02T04:17:04Z</datestamp>
      <setSpec>user-biosyslit</setSpec>
    </header>
    <header>
      <identifier>oai:zenodo.org:229292</identifier>
      <datestamp>2017-01-03T13:55:03Z</datestamp>
      <setSpec>user-biosyslit</setSpec>
    </header>
    <header>
      <identifier>oai:zenodo.org:228317</identifier>
      <datestamp>2017-01-02T21:51:21Z</datestamp>
      <setSpec>user-biosyslit</setSpec>
    </header>
    <header>
      <identifier>oai:zenodo.org:227761</identifier>
      <datestamp>2017-01-02T04:16:41Z</datestamp>
      <setSpec>user-biosyslit</setSpec>
    </header>
    <header>
      <identifier>oai:zenodo.org:229242</identifier>
      <datestamp>2017-01-03T13:13:25Z</datestamp>
      <setSpec>user-biosyslit</setSpec>
    </header>
    <header>
      <identifier>oai:zenodo.org:227932</identifier>
      <datestamp>2017-01-02T07:02:59Z</datestamp>
      <setSpec>user-biosyslit</setSpec>
    </header>
    <header>
      <identifier>oai:zenodo.org:230086</identifier>
      <datestamp>2017-01-04T19:07:14Z</datestamp>
      <setSpec>user-biosyslit</setSpec>
    </header>
    <header>
      <identifier>oai:zenodo.org:228636</identifier>
      <datestamp>2017-01-03T02:48:20Z</datestamp>
      <setSpec>user-biosyslit</setSpec>
    </header>
    <header>
      <identifier>oai:zenodo.org:228991</identifier>
      <datestamp>2017-01-03T08:10:46Z</datestamp>
      <setSpec>user-biosyslit</setSpec>
    </header>
    <header>
      <identifier>oai:zenodo.org:228710</identifier>
      <datestamp>2017-01-03T03:41:52Z</datestamp>
      <setSpec>user-biosyslit</setSpec>
    </header>
    <header>
      <identifier>oai:zenodo.org:228300</identifier>
      <datestamp>2017-01-02T21:31:37Z</datestamp>
      <setSpec>user-biosyslit</setSpec>
    </header>
    <header>
      <identifier>oai:zenodo.org:227954</identifier>
      <datestamp>2017-01-02T07:48:41Z</datestamp>
      <setSpec>user-biosyslit</setSpec>
    </header>
    <header>
      <identifier>oai:zenodo.org:228233</identifier>
      <datestamp>2017-01-02T20:05:33Z</datestamp>
      <setSpec>user-biosyslit</setSpec>
    </header>
    <header>
      <identifier>oai:zenodo.org:229788</identifier>
      <datestamp>2017-01-04T07:21:12Z</datestamp>
      <setSpec>user-biosyslit</setSpec>
    </header>
    <header>
      <identifier>oai:zenodo.org:229198</identifier>
      <datestamp>2017-01-03T12:17:11Z</datestamp>
      <setSpec>user-biosyslit</setSpec>
    </header>
    <header>
      <identifier>oai:zenodo.org:228323</identifier>
      <datestamp>2017-01-02T21:51:42Z</datestamp>
      <setSpec>user-biosyslit</setSpec>
    </header>
    <header>
      <identifier>oai:zenodo.org:229405</identifier>
      <datestamp>2017-01-03T15:21:13Z</datestamp>
      <setSpec>user-biosyslit</setSpec>
    </header>
    <header>
      <identifier>oai:zenodo.org:227890</identifier>
      <datestamp>2017-01-02T06:21:15Z</datestamp>
      <setSpec>user-biosyslit</setSpec>
    </header>
    <header>
      <identifier>oai:zenodo.org:229235</identifier>
      <datestamp>2017-01-03T13:13:00Z</datestamp>
      <setSpec>user-biosyslit</setSpec>
    </header>
    <header>
      <identifier>oai:zenodo.org:229793</identifier>
      <datestamp>2017-01-04T07:21:37Z</datestamp>
      <setSpec>user-biosyslit</setSpec>
    </header>
    <header>
      <identifier>oai:zenodo.org:270593</identifier>
      <datestamp>2017-02-07T23:33:46Z</datestamp>
      <setSpec>user-biosyslit</setSpec>
    </header>
    <header>
      <identifier>oai:zenodo.org:230022</identifier>
      <datestamp>2017-01-04T17:37:58Z</datestamp>
      <setSpec>user-biosyslit</setSpec>
    </header>
    <header>
      <identifier>oai:zenodo.org:230014</identifier>
      <datestamp>2017-01-04T17:37:34Z</datestamp>
      <setSpec>user-biosyslit</setSpec>
    </header>
    <header>
      <identifier>oai:zenodo.org:270109</identifier>
      <datestamp>2017-02-07T22:22:26Z</datestamp>
      <setSpec>user-biosyslit</setSpec>
    </header>
    <header>
      <identifier>oai:zenodo.org:229807</identifier>
      <datestamp>2017-01-04T07:22:54Z</datestamp>
      <setSpec>user-biosyslit</setSpec>
    </header>
    <header>
      <identifier>oai:zenodo.org:269930</identifier>
      <datestamp>2017-02-07T20:44:22Z</datestamp>
      <setSpec>user-biosyslit</setSpec>
    </header>
    <header>
      <identifier>oai:zenodo.org:230517</identifier>
      <datestamp>2017-01-05T02:22:58Z</datestamp>
      <setSpec>user-biosyslit</setSpec>
    </header>
    <header>
      <identifier>oai:zenodo.org:229416</identifier>
      <datestamp>2017-01-03T15:31:14Z</datestamp>
      <setSpec>user-biosyslit</setSpec>
    </header>
    <header>
      <identifier>oai:zenodo.org:230461</identifier>
      <datestamp>2017-01-05T01:37:20Z</datestamp>
      <setSpec>user-biosyslit</setSpec>
    </header>
    <header>
      <identifier>oai:zenodo.org:230401</identifier>
      <datestamp>2017-01-05T00:17:19Z</datestamp>
      <setSpec>user-biosyslit</setSpec>
    </header>
    <header>
      <identifier>oai:zenodo.org:288627</identifier>
      <datestamp>2017-02-09T21:35:26Z</datestamp>
      <setSpec>user-biosyslit</setSpec>
    </header>
    <header>
      <identifier>oai:zenodo.org:229633</identifier>
      <datestamp>2017-01-03T19:35:55Z</datestamp>
      <setSpec>user-biosyslit</setSpec>
    </header>
    <header>
      <identifier>oai:zenodo.org:229937</identifier>
      <datestamp>2017-01-06T11:05:33Z</datestamp>
      <setSpec>openaire</setSpec>
      <setSpec>user-biosyslit</setSpec>
    </header>
    <header>
      <identifier>oai:zenodo.org:275339</identifier>
      <datestamp>2017-02-08T16:08:00Z</datestamp>
      <setSpec>user-biosyslit</setSpec>
    </header>
    <header>
      <identifier>oai:zenodo.org:229797</identifier>
      <datestamp>2017-01-04T07:21:55Z</datestamp>
      <setSpec>user-biosyslit</setSpec>
    </header>
    <header>
      <identifier>oai:zenodo.org:230768</identifier>
      <datestamp>2017-01-05T07:56:01Z</datestamp>
      <setSpec>user-biosyslit</setSpec>
    </header>
    <header>
      <identifier>oai:zenodo.org:289101</identifier>
      <datestamp>2017-02-09T22:37:58Z</datestamp>
      <setSpec>user-biosyslit</setSpec>
    </header>
    <header>
      <identifier>oai:zenodo.org:231280</identifier>
      <datestamp>2017-01-05T18:21:52Z</datestamp>
      <setSpec>user-biosyslit</setSpec>
    </header>
    <header>
      <identifier>oai:zenodo.org:269743</identifier>
      <datestamp>2017-02-07T20:15:08Z</datestamp>
      <setSpec>user-biosyslit</setSpec>
    </header>
    <header>
      <identifier>oai:zenodo.org:269853</identifier>
      <datestamp>2017-02-07T20:32:48Z</datestamp>
      <setSpec>user-biosyslit</setSpec>
    </header>
    <header>
      <identifier>oai:zenodo.org:231293</identifier>
      <datestamp>2017-01-05T19:14:00Z</datestamp>
      <setSpec>user-biosyslit</setSpec>
    </header>
    <header>
      <identifier>oai:zenodo.org:269915</identifier>
      <datestamp>2017-02-07T20:43:49Z</datestamp>
      <setSpec>user-biosyslit</setSpec>
    </header>
    <header>
      <identifier>oai:zenodo.org:231933</identifier>
      <datestamp>2017-01-06T08:50:21Z</datestamp>
      <setSpec>user-biosyslit</setSpec>
    </header>
    <header>
      <identifier>oai:zenodo.org:269786</identifier>
      <datestamp>2017-02-07T20:18:51Z</datestamp>
      <setSpec>user-biosyslit</setSpec>
    </header>
    <header>
      <identifier>oai:zenodo.org:270370</identifier>
      <datestamp>2017-02-07T23:06:26Z</datestamp>
      <setSpec>user-biosyslit</setSpec>
    </header>
    <header>
      <identifier>oai:zenodo.org:270161</identifier>
      <datestamp>2017-02-07T22:27:58Z</datestamp>
      <setSpec>user-biosyslit</setSpec>
    </header>
    <header>
      <identifier>oai:zenodo.org:231572</identifier>
      <datestamp>2017-01-06T04:12:17Z</datestamp>
      <setSpec>user-biosyslit</setSpec>
    </header>
    <header>
      <identifier>oai:zenodo.org:230893</identifier>
      <datestamp>2017-01-05T10:02:23Z</datestamp>
      <setSpec>user-biosyslit</setSpec>
    </header>
    <header>
      <identifier>oai:zenodo.org:270107</identifier>
      <datestamp>2017-02-07T22:22:29Z</datestamp>
      <setSpec>user-biosyslit</setSpec>
    </header>
    <header>
      <identifier>oai:zenodo.org:231095</identifier>
      <datestamp>2017-01-05T14:22:06Z</datestamp>
      <setSpec>user-biosyslit</setSpec>
    </header>
    <header>
      <identifier>oai:zenodo.org:231425</identifier>
      <datestamp>2017-01-06T01:39:20Z</datestamp>
      <setSpec>user-biosyslit</setSpec>
    </header>
    <header>
      <identifier>oai:zenodo.org:270000</identifier>
      <datestamp>2017-02-07T21:58:30Z</datestamp>
      <setSpec>user-biosyslit</setSpec>
    </header>
    <header>
      <identifier>oai:zenodo.org:231051</identifier>
      <datestamp>2017-01-05T13:06:34Z</datestamp>
      <setSpec>user-biosyslit</setSpec>
    </header>
    <header>
      <identifier>oai:zenodo.org:232127</identifier>
      <datestamp>2017-01-06T11:24:00Z</datestamp>
      <setSpec>user-biosyslit</setSpec>
    </header>
    <header>
      <identifier>oai:zenodo.org:231548</identifier>
      <datestamp>2017-01-06T03:45:34Z</datestamp>
      <setSpec>user-biosyslit</setSpec>
    </header>
    <header>
      <identifier>oai:zenodo.org:270544</identifier>
      <datestamp>2017-02-07T23:26:43Z</datestamp>
      <setSpec>user-biosyslit</setSpec>
    </header>
    <header>
      <identifier>oai:zenodo.org:231544</identifier>
      <datestamp>2017-01-06T03:45:36Z</datestamp>
      <setSpec>user-biosyslit</setSpec>
    </header>
    <header>
      <identifier>oai:zenodo.org:231547</identifier>
      <datestamp>2017-01-06T03:45:32Z</datestamp>
      <setSpec>user-biosyslit</setSpec>
    </header>
    <header>
      <identifier>oai:zenodo.org:270307</identifier>
      <datestamp>2017-02-07T22:59:04Z</datestamp>
      <setSpec>user-biosyslit</setSpec>
    </header>
    <header>
      <identifier>oai:zenodo.org:270539</identifier>
      <datestamp>2017-02-07T23:26:05Z</datestamp>
      <setSpec>user-biosyslit</setSpec>
    </header>
    <header>
      <identifier>oai:zenodo.org:270233</identifier>
      <datestamp>2017-02-07T22:45:13Z</datestamp>
      <setSpec>user-biosyslit</setSpec>
    </header>
    <header>
      <identifier>oai:zenodo.org:270468</identifier>
      <datestamp>2017-02-07T23:16:54Z</datestamp>
      <setSpec>user-biosyslit</setSpec>
    </header>
    <header>
      <identifier>oai:zenodo.org:270632</identifier>
      <datestamp>2017-02-07T23:40:08Z</datestamp>
      <setSpec>user-biosyslit</setSpec>
    </header>
    <header>
      <identifier>oai:zenodo.org:231883</identifier>
      <datestamp>2017-01-06T08:18:38Z</datestamp>
      <setSpec>user-biosyslit</setSpec>
    </header>
    <header>
      <identifier>oai:zenodo.org:232179</identifier>
      <datestamp>2017-01-06T12:56:31Z</datestamp>
      <setSpec>user-biosyslit</setSpec>
    </header>
    <header>
      <identifier>oai:zenodo.org:232622</identifier>
      <datestamp>2017-01-06T20:40:50Z</datestamp>
      <setSpec>user-biosyslit</setSpec>
    </header>
    <resumptionToken expirationDate="2017-08-31T15:43:55Z" cursor="14000" completeListSize="77796">.eJyNyrsOgjAUANB_uTMxfchDEhcDEgYhWNuIi0EgBKlIqEYo4d91cdYznwlUWRbgogUi2KS25SDLMS3bISvTAJX3dynP9SdAfhQybyXPAvHc3wRKSWVHnhp2Xkoj3aD4hjXbJuSInYHXaEwO_JHq_SBo-GLIt3c6GaNr-HkFjQN5ugQd4-1GMlL0sZ-MDG_Yiebfh_98-ufz1BoM6LKqBBcviQHNK-srBe40z28OH1Gq.DIm_ww.IZwKiM5J9kBMI5vMoWC8K_hh4A4</resumptionToken>
  </ListIdentifiers>
</OAI-PMH>
