<?xml version='1.0' encoding='UTF-8'?>
<?xml-stylesheet type="text/xsl" href="/static/xsl/oai2.v1.0.xsl"?>
<OAI-PMH xmlns="http://www.openarchives.org/OAI/2.0/" xmlns:xsi="http://www.w3.org/2001/XMLSchema-instance" xsi:schemaLocation="http://www.openarchives.org/OAI/2.0/ http://www.openarchives.org/OAI/2.0/OAI-PMH.xsd">
  <responseDate>2017-08-31T15:42:48Z</responseDate>
  <request verb="ListIdentifiers" resumptionToken=".eJyNysEKgjAYAOB3-c8SmxOnQpfQxEOKLUd6CZsi5jJxRTrp3evSuc7ft4Cq6wo8tKLUpi61HIdgG7sWMUCJ8Sblqf0wiCOXopdZGfLH_spRbjY09tW083MS6w4lV6zZNjWP2JmyFs3pIbvnej9xEj0ZCuhOp3N8iT6vIkkoi3M4sKzfSGZWYxKkM8MbVhDxffjPp38-X63BgKFsavBM6hjQPcuxUeAtr9cbr1pRVg.DIm_-A.22pMLJHixA00WgB_znNNfmwTh40">https://zenodo.org/oai2d</request>
  <ListIdentifiers>
    <header>
      <identifier>oai:zenodo.org:262793</identifier>
      <datestamp>2017-01-29T08:49:53Z</datestamp>
      <setSpec>user-biosyslit</setSpec>
    </header>
    <header>
      <identifier>oai:zenodo.org:241222</identifier>
      <datestamp>2017-01-12T22:27:28Z</datestamp>
      <setSpec>user-biosyslit</setSpec>
    </header>
    <header>
      <identifier>oai:zenodo.org:241224</identifier>
      <datestamp>2017-01-12T22:27:35Z</datestamp>
      <setSpec>user-biosyslit</setSpec>
    </header>
    <header>
      <identifier>oai:zenodo.org:262799</identifier>
      <datestamp>2017-01-29T08:50:12Z</datestamp>
      <setSpec>user-biosyslit</setSpec>
    </header>
    <header>
      <identifier>oai:zenodo.org:262798</identifier>
      <datestamp>2017-01-29T08:50:10Z</datestamp>
      <setSpec>user-biosyslit</setSpec>
    </header>
    <header>
      <identifier>oai:zenodo.org:239942</identifier>
      <datestamp>2017-01-12T02:42:49Z</datestamp>
      <setSpec>user-biosyslit</setSpec>
    </header>
    <header>
      <identifier>oai:zenodo.org:239943</identifier>
      <datestamp>2017-01-12T02:42:33Z</datestamp>
      <setSpec>user-biosyslit</setSpec>
    </header>
    <header>
      <identifier>oai:zenodo.org:241477</identifier>
      <datestamp>2017-01-13T01:53:55Z</datestamp>
      <setSpec>user-biosyslit</setSpec>
    </header>
    <header>
      <identifier>oai:zenodo.org:241476</identifier>
      <datestamp>2017-01-13T01:53:51Z</datestamp>
      <setSpec>user-biosyslit</setSpec>
    </header>
    <header>
      <identifier>oai:zenodo.org:241475</identifier>
      <datestamp>2017-01-13T01:53:47Z</datestamp>
      <setSpec>user-biosyslit</setSpec>
    </header>
    <header>
      <identifier>oai:zenodo.org:241482</identifier>
      <datestamp>2017-01-13T01:54:12Z</datestamp>
      <setSpec>user-biosyslit</setSpec>
    </header>
    <header>
      <identifier>oai:zenodo.org:241478</identifier>
      <datestamp>2017-01-13T01:53:58Z</datestamp>
      <setSpec>user-biosyslit</setSpec>
    </header>
    <header>
      <identifier>oai:zenodo.org:241480</identifier>
      <datestamp>2017-01-13T01:54:06Z</datestamp>
      <setSpec>user-biosyslit</setSpec>
    </header>
    <header>
      <identifier>oai:zenodo.org:241473</identifier>
      <datestamp>2017-01-13T01:54:16Z</datestamp>
      <setSpec>user-biosyslit</setSpec>
    </header>
    <header>
      <identifier>oai:zenodo.org:239979</identifier>
      <datestamp>2017-01-12T03:11:29Z</datestamp>
      <setSpec>user-biosyslit</setSpec>
    </header>
    <header>
      <identifier>oai:zenodo.org:239980</identifier>
      <datestamp>2017-01-12T03:11:36Z</datestamp>
      <setSpec>user-biosyslit</setSpec>
    </header>
    <header>
      <identifier>oai:zenodo.org:239978</identifier>
      <datestamp>2017-01-12T03:11:54Z</datestamp>
      <setSpec>user-biosyslit</setSpec>
    </header>
    <header>
      <identifier>oai:zenodo.org:239984</identifier>
      <datestamp>2017-01-12T03:11:52Z</datestamp>
      <setSpec>user-biosyslit</setSpec>
    </header>
    <header>
      <identifier>oai:zenodo.org:239981</identifier>
      <datestamp>2017-01-12T03:11:40Z</datestamp>
      <setSpec>user-biosyslit</setSpec>
    </header>
    <header>
      <identifier>oai:zenodo.org:239982</identifier>
      <datestamp>2017-01-12T03:11:44Z</datestamp>
      <setSpec>user-biosyslit</setSpec>
    </header>
    <header>
      <identifier>oai:zenodo.org:287696</identifier>
      <datestamp>2017-02-09T18:59:14Z</datestamp>
      <setSpec>user-biosyslit</setSpec>
    </header>
    <header>
      <identifier>oai:zenodo.org:287698</identifier>
      <datestamp>2017-02-09T18:59:18Z</datestamp>
      <setSpec>user-biosyslit</setSpec>
    </header>
    <header>
      <identifier>oai:zenodo.org:287699</identifier>
      <datestamp>2017-02-09T18:59:22Z</datestamp>
      <setSpec>user-biosyslit</setSpec>
    </header>
    <header>
      <identifier>oai:zenodo.org:287697</identifier>
      <datestamp>2017-02-09T18:59:16Z</datestamp>
      <setSpec>user-biosyslit</setSpec>
    </header>
    <header>
      <identifier>oai:zenodo.org:281583</identifier>
      <datestamp>2017-02-09T05:34:17Z</datestamp>
      <setSpec>user-biosyslit</setSpec>
    </header>
    <header>
      <identifier>oai:zenodo.org:270941</identifier>
      <datestamp>2017-02-08T00:16:16Z</datestamp>
      <setSpec>user-biosyslit</setSpec>
    </header>
    <header>
      <identifier>oai:zenodo.org:281581</identifier>
      <datestamp>2017-02-09T05:34:13Z</datestamp>
      <setSpec>user-biosyslit</setSpec>
    </header>
    <header>
      <identifier>oai:zenodo.org:270938</identifier>
      <datestamp>2017-02-08T00:16:07Z</datestamp>
      <setSpec>user-biosyslit</setSpec>
    </header>
    <header>
      <identifier>oai:zenodo.org:281584</identifier>
      <datestamp>2017-02-09T05:34:19Z</datestamp>
      <setSpec>user-biosyslit</setSpec>
    </header>
    <header>
      <identifier>oai:zenodo.org:277721</identifier>
      <datestamp>2017-02-08T21:42:09Z</datestamp>
      <setSpec>user-biosyslit</setSpec>
    </header>
    <header>
      <identifier>oai:zenodo.org:277725</identifier>
      <datestamp>2017-02-08T21:42:18Z</datestamp>
      <setSpec>user-biosyslit</setSpec>
    </header>
    <header>
      <identifier>oai:zenodo.org:277728</identifier>
      <datestamp>2017-02-08T21:42:27Z</datestamp>
      <setSpec>user-biosyslit</setSpec>
    </header>
    <header>
      <identifier>oai:zenodo.org:277726</identifier>
      <datestamp>2017-02-08T21:42:20Z</datestamp>
      <setSpec>user-biosyslit</setSpec>
    </header>
    <header>
      <identifier>oai:zenodo.org:277727</identifier>
      <datestamp>2017-02-08T21:42:24Z</datestamp>
      <setSpec>user-biosyslit</setSpec>
    </header>
    <header>
      <identifier>oai:zenodo.org:277720</identifier>
      <datestamp>2017-02-08T21:42:06Z</datestamp>
      <setSpec>user-biosyslit</setSpec>
    </header>
    <header>
      <identifier>oai:zenodo.org:277722</identifier>
      <datestamp>2017-02-08T21:42:11Z</datestamp>
      <setSpec>user-biosyslit</setSpec>
    </header>
    <header>
      <identifier>oai:zenodo.org:277745</identifier>
      <datestamp>2017-02-08T21:43:15Z</datestamp>
      <setSpec>user-biosyslit</setSpec>
    </header>
    <header>
      <identifier>oai:zenodo.org:277736</identifier>
      <datestamp>2017-02-08T21:42:50Z</datestamp>
      <setSpec>user-biosyslit</setSpec>
    </header>
    <header>
      <identifier>oai:zenodo.org:277747</identifier>
      <datestamp>2017-02-08T21:43:20Z</datestamp>
      <setSpec>user-biosyslit</setSpec>
    </header>
    <header>
      <identifier>oai:zenodo.org:277749</identifier>
      <datestamp>2017-02-08T21:43:25Z</datestamp>
      <setSpec>user-biosyslit</setSpec>
    </header>
    <header>
      <identifier>oai:zenodo.org:277752</identifier>
      <datestamp>2017-02-08T21:43:35Z</datestamp>
      <setSpec>user-biosyslit</setSpec>
    </header>
    <header>
      <identifier>oai:zenodo.org:277735</identifier>
      <datestamp>2017-02-08T21:42:46Z</datestamp>
      <setSpec>user-biosyslit</setSpec>
    </header>
    <header>
      <identifier>oai:zenodo.org:277729</identifier>
      <datestamp>2017-02-08T21:42:29Z</datestamp>
      <setSpec>user-biosyslit</setSpec>
    </header>
    <header>
      <identifier>oai:zenodo.org:277733</identifier>
      <datestamp>2017-02-08T21:42:40Z</datestamp>
      <setSpec>user-biosyslit</setSpec>
    </header>
    <header>
      <identifier>oai:zenodo.org:277741</identifier>
      <datestamp>2017-02-08T21:43:03Z</datestamp>
      <setSpec>user-biosyslit</setSpec>
    </header>
    <header>
      <identifier>oai:zenodo.org:277719</identifier>
      <datestamp>2017-02-08T21:43:53Z</datestamp>
      <setSpec>user-biosyslit</setSpec>
    </header>
    <header>
      <identifier>oai:zenodo.org:277756</identifier>
      <datestamp>2017-02-08T21:43:48Z</datestamp>
      <setSpec>user-biosyslit</setSpec>
    </header>
    <header>
      <identifier>oai:zenodo.org:277753</identifier>
      <datestamp>2017-02-08T21:43:38Z</datestamp>
      <setSpec>user-biosyslit</setSpec>
    </header>
    <header>
      <identifier>oai:zenodo.org:277758</identifier>
      <datestamp>2017-02-08T21:43:52Z</datestamp>
      <setSpec>user-biosyslit</setSpec>
    </header>
    <header>
      <identifier>oai:zenodo.org:283596</identifier>
      <datestamp>2017-02-09T09:16:01Z</datestamp>
      <setSpec>user-biosyslit</setSpec>
    </header>
    <header>
      <identifier>oai:zenodo.org:283598</identifier>
      <datestamp>2017-02-09T09:16:04Z</datestamp>
      <setSpec>user-biosyslit</setSpec>
    </header>
    <header>
      <identifier>oai:zenodo.org:283599</identifier>
      <datestamp>2017-02-09T09:16:06Z</datestamp>
      <setSpec>user-biosyslit</setSpec>
    </header>
    <header>
      <identifier>oai:zenodo.org:279835</identifier>
      <datestamp>2017-02-09T02:08:35Z</datestamp>
      <setSpec>user-biosyslit</setSpec>
    </header>
    <header>
      <identifier>oai:zenodo.org:279834</identifier>
      <datestamp>2017-02-09T02:08:32Z</datestamp>
      <setSpec>user-biosyslit</setSpec>
    </header>
    <header>
      <identifier>oai:zenodo.org:279846</identifier>
      <datestamp>2017-02-09T02:09:05Z</datestamp>
      <setSpec>user-biosyslit</setSpec>
    </header>
    <header>
      <identifier>oai:zenodo.org:279844</identifier>
      <datestamp>2017-02-09T02:09:00Z</datestamp>
      <setSpec>user-biosyslit</setSpec>
    </header>
    <header>
      <identifier>oai:zenodo.org:279841</identifier>
      <datestamp>2017-02-09T02:08:52Z</datestamp>
      <setSpec>user-biosyslit</setSpec>
    </header>
    <header>
      <identifier>oai:zenodo.org:279837</identifier>
      <datestamp>2017-02-09T02:08:42Z</datestamp>
      <setSpec>user-biosyslit</setSpec>
    </header>
    <header>
      <identifier>oai:zenodo.org:279843</identifier>
      <datestamp>2017-02-09T02:08:57Z</datestamp>
      <setSpec>user-biosyslit</setSpec>
    </header>
    <header>
      <identifier>oai:zenodo.org:279851</identifier>
      <datestamp>2017-02-09T02:09:19Z</datestamp>
      <setSpec>user-biosyslit</setSpec>
    </header>
    <header>
      <identifier>oai:zenodo.org:279853</identifier>
      <datestamp>2017-02-09T02:09:25Z</datestamp>
      <setSpec>user-biosyslit</setSpec>
    </header>
    <header>
      <identifier>oai:zenodo.org:279847</identifier>
      <datestamp>2017-02-09T02:09:07Z</datestamp>
      <setSpec>user-biosyslit</setSpec>
    </header>
    <header>
      <identifier>oai:zenodo.org:279855</identifier>
      <datestamp>2017-02-09T02:09:29Z</datestamp>
      <setSpec>user-biosyslit</setSpec>
    </header>
    <header>
      <identifier>oai:zenodo.org:253398</identifier>
      <datestamp>2017-01-20T06:38:46Z</datestamp>
      <setSpec>user-biosyslit</setSpec>
    </header>
    <header>
      <identifier>oai:zenodo.org:253399</identifier>
      <datestamp>2017-01-20T06:38:49Z</datestamp>
      <setSpec>user-biosyslit</setSpec>
    </header>
    <header>
      <identifier>oai:zenodo.org:253404</identifier>
      <datestamp>2017-01-20T06:39:09Z</datestamp>
      <setSpec>user-biosyslit</setSpec>
    </header>
    <header>
      <identifier>oai:zenodo.org:253407</identifier>
      <datestamp>2017-01-20T06:39:20Z</datestamp>
      <setSpec>user-biosyslit</setSpec>
    </header>
    <header>
      <identifier>oai:zenodo.org:253406</identifier>
      <datestamp>2017-01-20T06:39:16Z</datestamp>
      <setSpec>user-biosyslit</setSpec>
    </header>
    <header>
      <identifier>oai:zenodo.org:253400</identifier>
      <datestamp>2017-01-20T06:38:52Z</datestamp>
      <setSpec>user-biosyslit</setSpec>
    </header>
    <header>
      <identifier>oai:zenodo.org:279856</identifier>
      <datestamp>2017-02-09T02:09:32Z</datestamp>
      <setSpec>user-biosyslit</setSpec>
    </header>
    <header>
      <identifier>oai:zenodo.org:279857</identifier>
      <datestamp>2017-02-09T02:09:33Z</datestamp>
      <setSpec>user-biosyslit</setSpec>
    </header>
    <header>
      <identifier>oai:zenodo.org:253393</identifier>
      <datestamp>2017-01-20T06:39:42Z</datestamp>
      <setSpec>user-biosyslit</setSpec>
    </header>
    <header>
      <identifier>oai:zenodo.org:253413</identifier>
      <datestamp>2017-01-20T06:39:41Z</datestamp>
      <setSpec>user-biosyslit</setSpec>
    </header>
    <header>
      <identifier>oai:zenodo.org:240593</identifier>
      <datestamp>2017-01-12T10:28:23Z</datestamp>
      <setSpec>user-biosyslit</setSpec>
    </header>
    <header>
      <identifier>oai:zenodo.org:240595</identifier>
      <datestamp>2017-01-12T10:28:31Z</datestamp>
      <setSpec>user-biosyslit</setSpec>
    </header>
    <header>
      <identifier>oai:zenodo.org:240594</identifier>
      <datestamp>2017-01-12T10:28:27Z</datestamp>
      <setSpec>user-biosyslit</setSpec>
    </header>
    <header>
      <identifier>oai:zenodo.org:240596</identifier>
      <datestamp>2017-01-12T10:28:35Z</datestamp>
      <setSpec>user-biosyslit</setSpec>
    </header>
    <header>
      <identifier>oai:zenodo.org:236271</identifier>
      <datestamp>2017-01-09T21:21:57Z</datestamp>
      <setSpec>user-biosyslit</setSpec>
    </header>
    <header>
      <identifier>oai:zenodo.org:236275</identifier>
      <datestamp>2017-01-09T21:21:42Z</datestamp>
      <setSpec>user-biosyslit</setSpec>
    </header>
    <header>
      <identifier>oai:zenodo.org:236274</identifier>
      <datestamp>2017-01-09T21:21:38Z</datestamp>
      <setSpec>user-biosyslit</setSpec>
    </header>
    <header>
      <identifier>oai:zenodo.org:252064</identifier>
      <datestamp>2017-01-19T08:36:41Z</datestamp>
      <setSpec>user-biosyslit</setSpec>
    </header>
    <header>
      <identifier>oai:zenodo.org:236279</identifier>
      <datestamp>2017-01-09T21:21:55Z</datestamp>
      <setSpec>user-biosyslit</setSpec>
    </header>
    <header>
      <identifier>oai:zenodo.org:252065</identifier>
      <datestamp>2017-01-19T08:36:46Z</datestamp>
      <setSpec>user-biosyslit</setSpec>
    </header>
    <header>
      <identifier>oai:zenodo.org:252062</identifier>
      <datestamp>2017-01-19T08:36:33Z</datestamp>
      <setSpec>user-biosyslit</setSpec>
    </header>
    <header>
      <identifier>oai:zenodo.org:252067</identifier>
      <datestamp>2017-01-19T08:36:54Z</datestamp>
      <setSpec>user-biosyslit</setSpec>
    </header>
    <header>
      <identifier>oai:zenodo.org:252026</identifier>
      <datestamp>2017-01-19T07:28:37Z</datestamp>
      <setSpec>user-biosyslit</setSpec>
    </header>
    <header>
      <identifier>oai:zenodo.org:252029</identifier>
      <datestamp>2017-01-19T07:28:59Z</datestamp>
      <setSpec>user-biosyslit</setSpec>
    </header>
    <header>
      <identifier>oai:zenodo.org:252030</identifier>
      <datestamp>2017-01-19T07:29:02Z</datestamp>
      <setSpec>user-biosyslit</setSpec>
    </header>
    <header>
      <identifier>oai:zenodo.org:252031</identifier>
      <datestamp>2017-01-19T07:29:06Z</datestamp>
      <setSpec>user-biosyslit</setSpec>
    </header>
    <header>
      <identifier>oai:zenodo.org:252033</identifier>
      <datestamp>2017-01-19T07:29:11Z</datestamp>
      <setSpec>user-biosyslit</setSpec>
    </header>
    <header>
      <identifier>oai:zenodo.org:282857</identifier>
      <datestamp>2017-02-09T07:44:23Z</datestamp>
      <setSpec>user-biosyslit</setSpec>
    </header>
    <header>
      <identifier>oai:zenodo.org:282855</identifier>
      <datestamp>2017-02-09T07:44:48Z</datestamp>
      <setSpec>user-biosyslit</setSpec>
    </header>
    <header>
      <identifier>oai:zenodo.org:282863</identifier>
      <datestamp>2017-02-09T07:44:39Z</datestamp>
      <setSpec>user-biosyslit</setSpec>
    </header>
    <header>
      <identifier>oai:zenodo.org:282864</identifier>
      <datestamp>2017-02-09T07:44:41Z</datestamp>
      <setSpec>user-biosyslit</setSpec>
    </header>
    <header>
      <identifier>oai:zenodo.org:282862</identifier>
      <datestamp>2017-02-09T07:44:37Z</datestamp>
      <setSpec>user-biosyslit</setSpec>
    </header>
    <header>
      <identifier>oai:zenodo.org:282861</identifier>
      <datestamp>2017-02-09T07:44:34Z</datestamp>
      <setSpec>user-biosyslit</setSpec>
    </header>
    <header>
      <identifier>oai:zenodo.org:282865</identifier>
      <datestamp>2017-02-09T07:44:44Z</datestamp>
      <setSpec>user-biosyslit</setSpec>
    </header>
    <header>
      <identifier>oai:zenodo.org:263180</identifier>
      <datestamp>2017-01-29T18:07:57Z</datestamp>
      <setSpec>user-biosyslit</setSpec>
    </header>
    <header>
      <identifier>oai:zenodo.org:263179</identifier>
      <datestamp>2017-01-29T18:07:53Z</datestamp>
      <setSpec>user-biosyslit</setSpec>
    </header>
    <header>
      <identifier>oai:zenodo.org:271751</identifier>
      <datestamp>2017-02-08T02:32:39Z</datestamp>
      <setSpec>user-biosyslit</setSpec>
    </header>
    <resumptionToken expirationDate="2017-08-31T15:44:48Z" cursor="27700" completeListSize="77796">.eJyNz8EOQzAAgOF36VmWVi1FssvCxAGhq-CyGCKmTHQLKt59Ljtv5_-7_CsQVVUCEx4I0ZChGRAbR91QgCjGJ-e3Zm-gSGJe9JzlTvyOuhimak18S8yelWJftjDokKSXUE2QPrMGLuGVvVIZzTF2Jwpt4slw8R_u7kocODy7OwNl_ZlTtRwDO1woOtMMF1-H_nTyp7PECShgyOsKmCrZr9opH2sBzHXbPg-sULg.DIm_-A.hwSzd2o7aq6ijH_riACXeTUPe8k</resumptionToken>
  </ListIdentifiers>
</OAI-PMH>
