<?xml version='1.0' encoding='UTF-8'?>
<?xml-stylesheet type="text/xsl" href="/static/xsl/oai2.v1.0.xsl"?>
<OAI-PMH xmlns="http://www.openarchives.org/OAI/2.0/" xmlns:xsi="http://www.w3.org/2001/XMLSchema-instance" xsi:schemaLocation="http://www.openarchives.org/OAI/2.0/ http://www.openarchives.org/OAI/2.0/OAI-PMH.xsd">
  <responseDate>2017-08-31T15:42:14Z</responseDate>
  <request verb="ListIdentifiers" resumptionToken=".eJyNysEOQzAYAOB3-c-ytEqYZJeFiQNCR3BZDBFTJroFFe8-l5238_etwKuqBAMdVKwpqqwpWFGRiokuAS_GJ2O3ZmcokpgVPYtyO36HXYxSudY8k8-umRJPtMjvsKCXQE6wPkcNWoJr9EpFOMfEmSiyNFcEi_dw9lcS32bZ3R5o1J8ZlcvRt4KF4jPNSPF9-M8nfj6Tn0CCIa8rMPARSdBO-VhzMNZt-wCU6FEz.DIm_1g.Kgk61PUsBEUDr0oB0YKJnbpvZ-k">https://zenodo.org/oai2d</request>
  <ListIdentifiers>
    <header>
      <identifier>oai:zenodo.org:236791</identifier>
      <datestamp>2017-01-10T05:36:16Z</datestamp>
      <setSpec>user-biosyslit</setSpec>
    </header>
    <header>
      <identifier>oai:zenodo.org:237330</identifier>
      <datestamp>2017-01-10T14:24:03Z</datestamp>
      <setSpec>user-biosyslit</setSpec>
    </header>
    <header>
      <identifier>oai:zenodo.org:237683</identifier>
      <datestamp>2017-01-10T18:40:32Z</datestamp>
      <setSpec>user-biosyslit</setSpec>
    </header>
    <header>
      <identifier>oai:zenodo.org:236970</identifier>
      <datestamp>2017-01-10T09:00:10Z</datestamp>
      <setSpec>user-biosyslit</setSpec>
    </header>
    <header>
      <identifier>oai:zenodo.org:237520</identifier>
      <datestamp>2017-01-10T16:29:34Z</datestamp>
      <setSpec>user-biosyslit</setSpec>
    </header>
    <header>
      <identifier>oai:zenodo.org:271397</identifier>
      <datestamp>2017-02-08T01:35:51Z</datestamp>
      <setSpec>user-biosyslit</setSpec>
    </header>
    <header>
      <identifier>oai:zenodo.org:289009</identifier>
      <datestamp>2017-02-09T22:25:05Z</datestamp>
      <setSpec>user-biosyslit</setSpec>
    </header>
    <header>
      <identifier>oai:zenodo.org:270873</identifier>
      <datestamp>2017-02-08T00:07:37Z</datestamp>
      <setSpec>user-biosyslit</setSpec>
    </header>
    <header>
      <identifier>oai:zenodo.org:237910</identifier>
      <datestamp>2017-01-10T22:21:38Z</datestamp>
      <setSpec>user-biosyslit</setSpec>
    </header>
    <header>
      <identifier>oai:zenodo.org:271846</identifier>
      <datestamp>2017-02-08T02:45:20Z</datestamp>
      <setSpec>user-biosyslit</setSpec>
    </header>
    <header>
      <identifier>oai:zenodo.org:289636</identifier>
      <datestamp>2017-02-10T00:02:40Z</datestamp>
      <setSpec>user-biosyslit</setSpec>
    </header>
    <header>
      <identifier>oai:zenodo.org:237748</identifier>
      <datestamp>2017-01-10T19:21:08Z</datestamp>
      <setSpec>user-biosyslit</setSpec>
    </header>
    <header>
      <identifier>oai:zenodo.org:238515</identifier>
      <datestamp>2017-01-11T06:52:30Z</datestamp>
      <setSpec>user-biosyslit</setSpec>
    </header>
    <header>
      <identifier>oai:zenodo.org:238503</identifier>
      <datestamp>2017-01-11T06:40:31Z</datestamp>
      <setSpec>user-biosyslit</setSpec>
    </header>
    <header>
      <identifier>oai:zenodo.org:238973</identifier>
      <datestamp>2017-01-11T14:08:29Z</datestamp>
      <setSpec>user-biosyslit</setSpec>
    </header>
    <header>
      <identifier>oai:zenodo.org:238050</identifier>
      <datestamp>2017-01-11T00:25:18Z</datestamp>
      <setSpec>user-biosyslit</setSpec>
    </header>
    <header>
      <identifier>oai:zenodo.org:239887</identifier>
      <datestamp>2017-01-12T02:15:54Z</datestamp>
      <setSpec>user-biosyslit</setSpec>
    </header>
    <header>
      <identifier>oai:zenodo.org:239677</identifier>
      <datestamp>2017-01-11T23:39:36Z</datestamp>
      <setSpec>user-biosyslit</setSpec>
    </header>
    <header>
      <identifier>oai:zenodo.org:238335</identifier>
      <datestamp>2017-01-11T04:27:01Z</datestamp>
      <setSpec>user-biosyslit</setSpec>
    </header>
    <header>
      <identifier>oai:zenodo.org:238583</identifier>
      <datestamp>2017-01-11T07:55:18Z</datestamp>
      <setSpec>user-biosyslit</setSpec>
    </header>
    <header>
      <identifier>oai:zenodo.org:238502</identifier>
      <datestamp>2017-01-11T06:40:26Z</datestamp>
      <setSpec>user-biosyslit</setSpec>
    </header>
    <header>
      <identifier>oai:zenodo.org:238669</identifier>
      <datestamp>2017-01-11T09:04:14Z</datestamp>
      <setSpec>user-biosyslit</setSpec>
    </header>
    <header>
      <identifier>oai:zenodo.org:238806</identifier>
      <datestamp>2017-01-11T11:12:49Z</datestamp>
      <setSpec>user-biosyslit</setSpec>
    </header>
    <header>
      <identifier>oai:zenodo.org:239293</identifier>
      <datestamp>2017-01-11T18:49:26Z</datestamp>
      <setSpec>user-biosyslit</setSpec>
    </header>
    <header>
      <identifier>oai:zenodo.org:270984</identifier>
      <datestamp>2017-02-08T00:25:07Z</datestamp>
      <setSpec>user-biosyslit</setSpec>
    </header>
    <header>
      <identifier>oai:zenodo.org:238827</identifier>
      <datestamp>2017-01-11T11:24:46Z</datestamp>
      <setSpec>user-biosyslit</setSpec>
    </header>
    <header>
      <identifier>oai:zenodo.org:240468</identifier>
      <datestamp>2017-01-12T09:04:41Z</datestamp>
      <setSpec>user-biosyslit</setSpec>
    </header>
    <header>
      <identifier>oai:zenodo.org:288785</identifier>
      <datestamp>2017-02-09T21:52:43Z</datestamp>
      <setSpec>user-biosyslit</setSpec>
    </header>
    <header>
      <identifier>oai:zenodo.org:239156</identifier>
      <datestamp>2017-01-11T17:08:28Z</datestamp>
      <setSpec>user-biosyslit</setSpec>
    </header>
    <header>
      <identifier>oai:zenodo.org:239694</identifier>
      <datestamp>2017-01-11T23:48:35Z</datestamp>
      <setSpec>user-biosyslit</setSpec>
    </header>
    <header>
      <identifier>oai:zenodo.org:239891</identifier>
      <datestamp>2017-01-12T02:16:26Z</datestamp>
      <setSpec>user-biosyslit</setSpec>
    </header>
    <header>
      <identifier>oai:zenodo.org:238996</identifier>
      <datestamp>2017-01-11T14:36:42Z</datestamp>
      <setSpec>user-biosyslit</setSpec>
    </header>
    <header>
      <identifier>oai:zenodo.org:240352</identifier>
      <datestamp>2017-01-12T07:43:45Z</datestamp>
      <setSpec>user-biosyslit</setSpec>
    </header>
    <header>
      <identifier>oai:zenodo.org:239718</identifier>
      <datestamp>2017-01-12T00:01:09Z</datestamp>
      <setSpec>user-biosyslit</setSpec>
    </header>
    <header>
      <identifier>oai:zenodo.org:239965</identifier>
      <datestamp>2017-01-12T03:00:36Z</datestamp>
      <setSpec>user-biosyslit</setSpec>
    </header>
    <header>
      <identifier>oai:zenodo.org:240464</identifier>
      <datestamp>2017-01-12T09:04:31Z</datestamp>
      <setSpec>user-biosyslit</setSpec>
    </header>
    <header>
      <identifier>oai:zenodo.org:240087</identifier>
      <datestamp>2017-01-12T04:33:17Z</datestamp>
      <setSpec>user-biosyslit</setSpec>
    </header>
    <header>
      <identifier>oai:zenodo.org:241361</identifier>
      <datestamp>2017-01-13T00:21:10Z</datestamp>
      <setSpec>user-biosyslit</setSpec>
    </header>
    <header>
      <identifier>oai:zenodo.org:240698</identifier>
      <datestamp>2017-01-12T12:43:42Z</datestamp>
      <setSpec>user-biosyslit</setSpec>
    </header>
    <header>
      <identifier>oai:zenodo.org:240144</identifier>
      <datestamp>2017-01-12T05:09:25Z</datestamp>
      <setSpec>user-biosyslit</setSpec>
    </header>
    <header>
      <identifier>oai:zenodo.org:241363</identifier>
      <datestamp>2017-01-13T00:21:15Z</datestamp>
      <setSpec>user-biosyslit</setSpec>
    </header>
    <header>
      <identifier>oai:zenodo.org:240029</identifier>
      <datestamp>2017-01-12T03:54:55Z</datestamp>
      <setSpec>user-biosyslit</setSpec>
    </header>
    <header>
      <identifier>oai:zenodo.org:271863</identifier>
      <datestamp>2017-02-08T02:46:22Z</datestamp>
      <setSpec>user-biosyslit</setSpec>
    </header>
    <header>
      <identifier>oai:zenodo.org:271872</identifier>
      <datestamp>2017-02-08T02:47:10Z</datestamp>
      <setSpec>user-biosyslit</setSpec>
    </header>
    <header>
      <identifier>oai:zenodo.org:240413</identifier>
      <datestamp>2017-01-12T08:19:03Z</datestamp>
      <setSpec>user-biosyslit</setSpec>
    </header>
    <header>
      <identifier>oai:zenodo.org:271399</identifier>
      <datestamp>2017-02-08T01:35:55Z</datestamp>
      <setSpec>user-biosyslit</setSpec>
    </header>
    <header>
      <identifier>oai:zenodo.org:240447</identifier>
      <datestamp>2017-01-12T08:42:47Z</datestamp>
      <setSpec>user-biosyslit</setSpec>
    </header>
    <header>
      <identifier>oai:zenodo.org:241563</identifier>
      <datestamp>2017-01-13T03:21:18Z</datestamp>
      <setSpec>user-biosyslit</setSpec>
    </header>
    <header>
      <identifier>oai:zenodo.org:271822</identifier>
      <datestamp>2017-02-08T02:44:03Z</datestamp>
      <setSpec>user-biosyslit</setSpec>
    </header>
    <header>
      <identifier>oai:zenodo.org:241470</identifier>
      <datestamp>2017-01-13T01:47:29Z</datestamp>
      <setSpec>user-biosyslit</setSpec>
    </header>
    <header>
      <identifier>oai:zenodo.org:241641</identifier>
      <datestamp>2017-01-13T04:12:16Z</datestamp>
      <setSpec>user-biosyslit</setSpec>
    </header>
    <header>
      <identifier>oai:zenodo.org:271909</identifier>
      <datestamp>2017-02-08T03:00:56Z</datestamp>
      <setSpec>user-biosyslit</setSpec>
    </header>
    <header>
      <identifier>oai:zenodo.org:240816</identifier>
      <datestamp>2017-01-12T14:19:19Z</datestamp>
      <setSpec>user-biosyslit</setSpec>
    </header>
    <header>
      <identifier>oai:zenodo.org:271310</identifier>
      <datestamp>2017-02-08T01:18:17Z</datestamp>
      <setSpec>user-biosyslit</setSpec>
    </header>
    <header>
      <identifier>oai:zenodo.org:272032</identifier>
      <datestamp>2017-02-08T03:22:00Z</datestamp>
      <setSpec>user-biosyslit</setSpec>
    </header>
    <header>
      <identifier>oai:zenodo.org:271919</identifier>
      <datestamp>2017-02-08T03:04:28Z</datestamp>
      <setSpec>user-biosyslit</setSpec>
    </header>
    <header>
      <identifier>oai:zenodo.org:271668</identifier>
      <datestamp>2017-02-08T02:10:37Z</datestamp>
      <setSpec>user-biosyslit</setSpec>
    </header>
    <header>
      <identifier>oai:zenodo.org:271670</identifier>
      <datestamp>2017-02-08T02:10:43Z</datestamp>
      <setSpec>user-biosyslit</setSpec>
    </header>
    <header>
      <identifier>oai:zenodo.org:241302</identifier>
      <datestamp>2017-01-12T23:46:56Z</datestamp>
      <setSpec>user-biosyslit</setSpec>
    </header>
    <header>
      <identifier>oai:zenodo.org:271663</identifier>
      <datestamp>2017-02-08T02:10:22Z</datestamp>
      <setSpec>user-biosyslit</setSpec>
    </header>
    <header>
      <identifier>oai:zenodo.org:271743</identifier>
      <datestamp>2017-02-08T02:31:19Z</datestamp>
      <setSpec>user-biosyslit</setSpec>
    </header>
    <header>
      <identifier>oai:zenodo.org:272250</identifier>
      <datestamp>2017-02-08T04:04:51Z</datestamp>
      <setSpec>user-biosyslit</setSpec>
    </header>
    <header>
      <identifier>oai:zenodo.org:241834</identifier>
      <datestamp>2017-01-13T06:46:11Z</datestamp>
      <setSpec>user-biosyslit</setSpec>
    </header>
    <header>
      <identifier>oai:zenodo.org:272414</identifier>
      <datestamp>2017-02-08T04:33:47Z</datestamp>
      <setSpec>user-biosyslit</setSpec>
    </header>
    <header>
      <identifier>oai:zenodo.org:271899</identifier>
      <datestamp>2017-02-08T02:55:40Z</datestamp>
      <setSpec>user-biosyslit</setSpec>
    </header>
    <header>
      <identifier>oai:zenodo.org:271744</identifier>
      <datestamp>2017-02-08T02:31:22Z</datestamp>
      <setSpec>user-biosyslit</setSpec>
    </header>
    <header>
      <identifier>oai:zenodo.org:271510</identifier>
      <datestamp>2017-02-08T01:52:39Z</datestamp>
      <setSpec>user-biosyslit</setSpec>
    </header>
    <header>
      <identifier>oai:zenodo.org:241821</identifier>
      <datestamp>2017-01-13T06:35:15Z</datestamp>
      <setSpec>user-biosyslit</setSpec>
    </header>
    <header>
      <identifier>oai:zenodo.org:273106</identifier>
      <datestamp>2017-02-08T07:10:05Z</datestamp>
      <setSpec>user-biosyslit</setSpec>
    </header>
    <header>
      <identifier>oai:zenodo.org:242330</identifier>
      <datestamp>2017-01-13T13:52:14Z</datestamp>
      <setSpec>user-biosyslit</setSpec>
    </header>
    <header>
      <identifier>oai:zenodo.org:271961</identifier>
      <datestamp>2017-02-08T03:10:28Z</datestamp>
      <setSpec>user-biosyslit</setSpec>
    </header>
    <header>
      <identifier>oai:zenodo.org:271952</identifier>
      <datestamp>2017-02-08T03:09:21Z</datestamp>
      <setSpec>user-biosyslit</setSpec>
    </header>
    <header>
      <identifier>oai:zenodo.org:242204</identifier>
      <datestamp>2017-01-13T12:02:16Z</datestamp>
      <setSpec>user-biosyslit</setSpec>
    </header>
    <header>
      <identifier>oai:zenodo.org:243046</identifier>
      <datestamp>2017-01-13T22:36:38Z</datestamp>
      <setSpec>user-biosyslit</setSpec>
    </header>
    <header>
      <identifier>oai:zenodo.org:242529</identifier>
      <datestamp>2017-01-13T16:25:28Z</datestamp>
      <setSpec>user-biosyslit</setSpec>
    </header>
    <header>
      <identifier>oai:zenodo.org:242401</identifier>
      <datestamp>2017-01-13T15:06:13Z</datestamp>
      <setSpec>user-biosyslit</setSpec>
    </header>
    <header>
      <identifier>oai:zenodo.org:242222</identifier>
      <datestamp>2017-01-13T12:14:07Z</datestamp>
      <setSpec>user-biosyslit</setSpec>
    </header>
    <header>
      <identifier>oai:zenodo.org:242398</identifier>
      <datestamp>2017-01-13T15:06:04Z</datestamp>
      <setSpec>user-biosyslit</setSpec>
    </header>
    <header>
      <identifier>oai:zenodo.org:242519</identifier>
      <datestamp>2017-01-13T16:14:40Z</datestamp>
      <setSpec>user-biosyslit</setSpec>
    </header>
    <header>
      <identifier>oai:zenodo.org:272233</identifier>
      <datestamp>2017-02-08T04:03:18Z</datestamp>
      <setSpec>user-biosyslit</setSpec>
    </header>
    <header>
      <identifier>oai:zenodo.org:242904</identifier>
      <datestamp>2017-01-13T20:34:41Z</datestamp>
      <setSpec>user-biosyslit</setSpec>
    </header>
    <header>
      <identifier>oai:zenodo.org:243243</identifier>
      <datestamp>2017-01-14T01:37:22Z</datestamp>
      <setSpec>user-biosyslit</setSpec>
    </header>
    <header>
      <identifier>oai:zenodo.org:243055</identifier>
      <datestamp>2017-01-13T22:44:54Z</datestamp>
      <setSpec>user-biosyslit</setSpec>
    </header>
    <header>
      <identifier>oai:zenodo.org:243422</identifier>
      <datestamp>2017-01-14T05:35:51Z</datestamp>
      <setSpec>user-biosyslit</setSpec>
    </header>
    <header>
      <identifier>oai:zenodo.org:243252</identifier>
      <datestamp>2017-01-14T01:40:14Z</datestamp>
      <setSpec>user-biosyslit</setSpec>
    </header>
    <header>
      <identifier>oai:zenodo.org:243138</identifier>
      <datestamp>2017-01-13T23:50:49Z</datestamp>
      <setSpec>user-biosyslit</setSpec>
    </header>
    <header>
      <identifier>oai:zenodo.org:243170</identifier>
      <datestamp>2017-01-14T00:10:10Z</datestamp>
      <setSpec>user-biosyslit</setSpec>
    </header>
    <header>
      <identifier>oai:zenodo.org:244094</identifier>
      <datestamp>2017-01-14T16:14:13Z</datestamp>
      <setSpec>user-biosyslit</setSpec>
    </header>
    <header>
      <identifier>oai:zenodo.org:272510</identifier>
      <datestamp>2017-02-08T04:59:15Z</datestamp>
      <setSpec>user-biosyslit</setSpec>
    </header>
    <header>
      <identifier>oai:zenodo.org:243245</identifier>
      <datestamp>2017-01-14T01:38:05Z</datestamp>
      <setSpec>user-biosyslit</setSpec>
    </header>
    <header>
      <identifier>oai:zenodo.org:244273</identifier>
      <datestamp>2017-01-14T18:52:22Z</datestamp>
      <setSpec>user-biosyslit</setSpec>
    </header>
    <header>
      <identifier>oai:zenodo.org:244617</identifier>
      <datestamp>2017-01-15T00:05:16Z</datestamp>
      <setSpec>user-biosyslit</setSpec>
    </header>
    <header>
      <identifier>oai:zenodo.org:272086</identifier>
      <datestamp>2017-02-08T03:38:56Z</datestamp>
      <setSpec>user-biosyslit</setSpec>
    </header>
    <header>
      <identifier>oai:zenodo.org:244272</identifier>
      <datestamp>2017-01-14T18:52:18Z</datestamp>
      <setSpec>user-biosyslit</setSpec>
    </header>
    <header>
      <identifier>oai:zenodo.org:244633</identifier>
      <datestamp>2017-01-15T00:18:03Z</datestamp>
      <setSpec>user-biosyslit</setSpec>
    </header>
    <header>
      <identifier>oai:zenodo.org:272467</identifier>
      <datestamp>2017-02-08T04:45:14Z</datestamp>
      <setSpec>user-biosyslit</setSpec>
    </header>
    <header>
      <identifier>oai:zenodo.org:244305</identifier>
      <datestamp>2017-01-14T19:49:49Z</datestamp>
      <setSpec>user-biosyslit</setSpec>
    </header>
    <header>
      <identifier>oai:zenodo.org:244129</identifier>
      <datestamp>2017-01-14T16:35:26Z</datestamp>
      <setSpec>user-biosyslit</setSpec>
    </header>
    <header>
      <identifier>oai:zenodo.org:272188</identifier>
      <datestamp>2017-02-08T03:58:20Z</datestamp>
      <setSpec>user-biosyslit</setSpec>
    </header>
    <header>
      <identifier>oai:zenodo.org:272331</identifier>
      <datestamp>2017-02-08T04:17:46Z</datestamp>
      <setSpec>user-biosyslit</setSpec>
    </header>
    <resumptionToken expirationDate="2017-08-31T15:44:14Z" cursor="18900" completeListSize="77796">.eJyNysEKgjAYAOB3-c8Sm8s0oYtY4kFFl5JewqaIOU1coS5897x0rvP3vUGUZQEm2hjaluwMRLYq2msG0hUQbHhwfq1XBnZJOOt4nDvJK2oTlKqV7tti8uyU-LJBQYslPYXqBRtTXKM5PMfPVEZTQtyRoqPuyXD27-76ChI4PLs5PY07i1O1GIJjOFNs0Yyw78N_Pvnz2eIACvR5VYKJ91iBZsyHSoD5XpYPni9RPg.DIm_1g.Tw_YrVYyLOQaqYYUT6Kne5Jrqx8</resumptionToken>
  </ListIdentifiers>
</OAI-PMH>
