<?xml version='1.0' encoding='UTF-8'?>
<?xml-stylesheet type="text/xsl" href="/static/xsl/oai2.v1.0.xsl"?>
<OAI-PMH xmlns="http://www.openarchives.org/OAI/2.0/" xmlns:xsi="http://www.w3.org/2001/XMLSchema-instance" xsi:schemaLocation="http://www.openarchives.org/OAI/2.0/ http://www.openarchives.org/OAI/2.0/OAI-PMH.xsd">
  <responseDate>2017-08-31T15:42:15Z</responseDate>
  <request verb="ListIdentifiers" resumptionToken=".eJyNz8EOQzAAgOF36VmWVllHsoswcUDoCC6LIWLKRLeg4t3nsvN2_r_LvwJeVSXQ4UHRZKQhTSEqIQo5qlgCvBifjN2avYMiiVnRsyi343fYxTCVa-KZfHbNFHuihX6HBL0EcoJOc9TAJbhGr1SEc4ydiUKLuCJYvIezuxL7Nsvu9kCj3mBULkffChaKDJrh4uvQn078dCY_AwkMeV0BHWn7VTvlY82Bvm7bB9-kUYI.DIm_1w.YnWvysZC87ayz2VUi2-DAXzseGU">https://zenodo.org/oai2d</request>
  <ListIdentifiers>
    <header>
      <identifier>oai:zenodo.org:272041</identifier>
      <datestamp>2017-02-08T03:24:30Z</datestamp>
      <setSpec>user-biosyslit</setSpec>
    </header>
    <header>
      <identifier>oai:zenodo.org:241698</identifier>
      <datestamp>2017-01-13T05:09:39Z</datestamp>
      <setSpec>user-biosyslit</setSpec>
    </header>
    <header>
      <identifier>oai:zenodo.org:241822</identifier>
      <datestamp>2017-01-13T06:35:19Z</datestamp>
      <setSpec>user-biosyslit</setSpec>
    </header>
    <header>
      <identifier>oai:zenodo.org:242613</identifier>
      <datestamp>2017-01-13T17:42:44Z</datestamp>
      <setSpec>user-biosyslit</setSpec>
    </header>
    <header>
      <identifier>oai:zenodo.org:242496</identifier>
      <datestamp>2017-01-13T15:45:10Z</datestamp>
      <setSpec>user-biosyslit</setSpec>
    </header>
    <header>
      <identifier>oai:zenodo.org:241989</identifier>
      <datestamp>2017-01-13T09:07:57Z</datestamp>
      <setSpec>user-biosyslit</setSpec>
    </header>
    <header>
      <identifier>oai:zenodo.org:288754</identifier>
      <datestamp>2017-02-09T21:50:47Z</datestamp>
      <setSpec>user-biosyslit</setSpec>
    </header>
    <header>
      <identifier>oai:zenodo.org:242542</identifier>
      <datestamp>2017-01-13T16:34:23Z</datestamp>
      <setSpec>user-biosyslit</setSpec>
    </header>
    <header>
      <identifier>oai:zenodo.org:242085</identifier>
      <datestamp>2017-01-13T10:22:52Z</datestamp>
      <setSpec>user-biosyslit</setSpec>
    </header>
    <header>
      <identifier>oai:zenodo.org:242465</identifier>
      <datestamp>2017-01-13T15:28:59Z</datestamp>
      <setSpec>user-biosyslit</setSpec>
    </header>
    <header>
      <identifier>oai:zenodo.org:242096</identifier>
      <datestamp>2017-01-13T10:23:33Z</datestamp>
      <setSpec>user-biosyslit</setSpec>
    </header>
    <header>
      <identifier>oai:zenodo.org:242449</identifier>
      <datestamp>2017-01-13T15:21:22Z</datestamp>
      <setSpec>user-biosyslit</setSpec>
    </header>
    <header>
      <identifier>oai:zenodo.org:242117</identifier>
      <datestamp>2017-01-13T10:39:17Z</datestamp>
      <setSpec>user-biosyslit</setSpec>
    </header>
    <header>
      <identifier>oai:zenodo.org:242472</identifier>
      <datestamp>2017-01-13T15:40:11Z</datestamp>
      <setSpec>user-biosyslit</setSpec>
    </header>
    <header>
      <identifier>oai:zenodo.org:242572</identifier>
      <datestamp>2017-01-13T16:58:00Z</datestamp>
      <setSpec>user-biosyslit</setSpec>
    </header>
    <header>
      <identifier>oai:zenodo.org:242285</identifier>
      <datestamp>2017-01-13T12:51:38Z</datestamp>
      <setSpec>user-biosyslit</setSpec>
    </header>
    <header>
      <identifier>oai:zenodo.org:243109</identifier>
      <datestamp>2017-01-13T23:28:17Z</datestamp>
      <setSpec>user-biosyslit</setSpec>
    </header>
    <header>
      <identifier>oai:zenodo.org:272495</identifier>
      <datestamp>2017-02-08T04:55:59Z</datestamp>
      <setSpec>user-biosyslit</setSpec>
    </header>
    <header>
      <identifier>oai:zenodo.org:243426</identifier>
      <datestamp>2017-01-14T05:36:08Z</datestamp>
      <setSpec>user-biosyslit</setSpec>
    </header>
    <header>
      <identifier>oai:zenodo.org:272544</identifier>
      <datestamp>2017-02-08T05:06:09Z</datestamp>
      <setSpec>user-biosyslit</setSpec>
    </header>
    <header>
      <identifier>oai:zenodo.org:234855</identifier>
      <datestamp>2017-01-09T02:58:44Z</datestamp>
      <setSpec>user-biosyslit</setSpec>
    </header>
    <header>
      <identifier>oai:zenodo.org:234342</identifier>
      <datestamp>2017-01-08T18:35:00Z</datestamp>
      <setSpec>user-biosyslit</setSpec>
    </header>
    <header>
      <identifier>oai:zenodo.org:235121</identifier>
      <datestamp>2017-01-09T05:44:46Z</datestamp>
      <setSpec>user-biosyslit</setSpec>
    </header>
    <header>
      <identifier>oai:zenodo.org:234331</identifier>
      <datestamp>2017-01-08T18:30:26Z</datestamp>
      <setSpec>user-biosyslit</setSpec>
    </header>
    <header>
      <identifier>oai:zenodo.org:234577</identifier>
      <datestamp>2017-01-08T22:11:02Z</datestamp>
      <setSpec>user-biosyslit</setSpec>
    </header>
    <header>
      <identifier>oai:zenodo.org:236790</identifier>
      <datestamp>2017-01-10T05:36:11Z</datestamp>
      <setSpec>user-biosyslit</setSpec>
    </header>
    <header>
      <identifier>oai:zenodo.org:270704</identifier>
      <datestamp>2017-02-07T23:50:10Z</datestamp>
      <setSpec>user-biosyslit</setSpec>
    </header>
    <header>
      <identifier>oai:zenodo.org:236104</identifier>
      <datestamp>2017-01-09T18:32:56Z</datestamp>
      <setSpec>user-biosyslit</setSpec>
    </header>
    <header>
      <identifier>oai:zenodo.org:235321</identifier>
      <datestamp>2017-01-09T08:49:58Z</datestamp>
      <setSpec>user-biosyslit</setSpec>
    </header>
    <header>
      <identifier>oai:zenodo.org:236898</identifier>
      <datestamp>2017-01-10T07:57:34Z</datestamp>
      <setSpec>user-biosyslit</setSpec>
    </header>
    <header>
      <identifier>oai:zenodo.org:235617</identifier>
      <datestamp>2017-01-09T12:51:31Z</datestamp>
      <setSpec>user-biosyslit</setSpec>
    </header>
    <header>
      <identifier>oai:zenodo.org:235401</identifier>
      <datestamp>2017-01-09T09:45:51Z</datestamp>
      <setSpec>user-biosyslit</setSpec>
    </header>
    <header>
      <identifier>oai:zenodo.org:235622</identifier>
      <datestamp>2017-01-09T12:52:00Z</datestamp>
      <setSpec>user-biosyslit</setSpec>
    </header>
    <header>
      <identifier>oai:zenodo.org:235371</identifier>
      <datestamp>2017-01-09T09:31:21Z</datestamp>
      <setSpec>user-biosyslit</setSpec>
    </header>
    <header>
      <identifier>oai:zenodo.org:235693</identifier>
      <datestamp>2017-01-09T13:43:44Z</datestamp>
      <setSpec>user-biosyslit</setSpec>
    </header>
    <header>
      <identifier>oai:zenodo.org:235929</identifier>
      <datestamp>2017-01-09T16:56:16Z</datestamp>
      <setSpec>user-biosyslit</setSpec>
    </header>
    <header>
      <identifier>oai:zenodo.org:235824</identifier>
      <datestamp>2017-01-13T07:38:16Z</datestamp>
      <setSpec>openaire</setSpec>
      <setSpec>user-biosyslit</setSpec>
    </header>
    <header>
      <identifier>oai:zenodo.org:236427</identifier>
      <datestamp>2017-01-10T00:06:32Z</datestamp>
      <setSpec>user-biosyslit</setSpec>
    </header>
    <header>
      <identifier>oai:zenodo.org:235922</identifier>
      <datestamp>2017-01-09T16:55:57Z</datestamp>
      <setSpec>user-biosyslit</setSpec>
    </header>
    <header>
      <identifier>oai:zenodo.org:236556</identifier>
      <datestamp>2017-01-10T01:23:03Z</datestamp>
      <setSpec>user-biosyslit</setSpec>
    </header>
    <header>
      <identifier>oai:zenodo.org:271165</identifier>
      <datestamp>2017-02-08T00:56:25Z</datestamp>
      <setSpec>user-biosyslit</setSpec>
    </header>
    <header>
      <identifier>oai:zenodo.org:236566</identifier>
      <datestamp>2017-01-10T01:31:27Z</datestamp>
      <setSpec>user-biosyslit</setSpec>
    </header>
    <header>
      <identifier>oai:zenodo.org:237141</identifier>
      <datestamp>2017-01-10T11:24:54Z</datestamp>
      <setSpec>user-biosyslit</setSpec>
    </header>
    <header>
      <identifier>oai:zenodo.org:270809</identifier>
      <datestamp>2017-02-07T23:57:04Z</datestamp>
      <setSpec>user-biosyslit</setSpec>
    </header>
    <header>
      <identifier>oai:zenodo.org:238108</identifier>
      <datestamp>2017-01-11T01:07:31Z</datestamp>
      <setSpec>user-biosyslit</setSpec>
    </header>
    <header>
      <identifier>oai:zenodo.org:236739</identifier>
      <datestamp>2017-01-10T03:58:44Z</datestamp>
      <setSpec>user-biosyslit</setSpec>
    </header>
    <header>
      <identifier>oai:zenodo.org:237668</identifier>
      <datestamp>2017-01-10T18:30:24Z</datestamp>
      <setSpec>user-biosyslit</setSpec>
    </header>
    <header>
      <identifier>oai:zenodo.org:237846</identifier>
      <datestamp>2017-01-10T21:21:19Z</datestamp>
      <setSpec>user-biosyslit</setSpec>
    </header>
    <header>
      <identifier>oai:zenodo.org:271912</identifier>
      <datestamp>2017-02-08T03:01:09Z</datestamp>
      <setSpec>user-biosyslit</setSpec>
    </header>
    <header>
      <identifier>oai:zenodo.org:271836</identifier>
      <datestamp>2017-02-08T02:44:48Z</datestamp>
      <setSpec>user-biosyslit</setSpec>
    </header>
    <header>
      <identifier>oai:zenodo.org:238206</identifier>
      <datestamp>2017-01-11T02:12:28Z</datestamp>
      <setSpec>user-biosyslit</setSpec>
    </header>
    <header>
      <identifier>oai:zenodo.org:237977</identifier>
      <datestamp>2017-01-10T23:09:57Z</datestamp>
      <setSpec>user-biosyslit</setSpec>
    </header>
    <header>
      <identifier>oai:zenodo.org:238378</identifier>
      <datestamp>2017-01-11T05:00:08Z</datestamp>
      <setSpec>user-biosyslit</setSpec>
    </header>
    <header>
      <identifier>oai:zenodo.org:271326</identifier>
      <datestamp>2017-02-08T01:21:19Z</datestamp>
      <setSpec>user-biosyslit</setSpec>
    </header>
    <header>
      <identifier>oai:zenodo.org:238537</identifier>
      <datestamp>2017-01-11T07:09:59Z</datestamp>
      <setSpec>user-biosyslit</setSpec>
    </header>
    <header>
      <identifier>oai:zenodo.org:237551</identifier>
      <datestamp>2017-01-10T16:56:51Z</datestamp>
      <setSpec>user-biosyslit</setSpec>
    </header>
    <header>
      <identifier>oai:zenodo.org:238103</identifier>
      <datestamp>2017-01-11T01:05:57Z</datestamp>
      <setSpec>user-biosyslit</setSpec>
    </header>
    <header>
      <identifier>oai:zenodo.org:237895</identifier>
      <datestamp>2017-01-10T22:06:58Z</datestamp>
      <setSpec>user-biosyslit</setSpec>
    </header>
    <header>
      <identifier>oai:zenodo.org:239342</identifier>
      <datestamp>2017-01-11T18:52:23Z</datestamp>
      <setSpec>user-biosyslit</setSpec>
    </header>
    <header>
      <identifier>oai:zenodo.org:238463</identifier>
      <datestamp>2017-01-11T05:58:18Z</datestamp>
      <setSpec>user-biosyslit</setSpec>
    </header>
    <header>
      <identifier>oai:zenodo.org:238501</identifier>
      <datestamp>2017-01-11T06:40:17Z</datestamp>
      <setSpec>user-biosyslit</setSpec>
    </header>
    <header>
      <identifier>oai:zenodo.org:239667</identifier>
      <datestamp>2017-01-11T23:33:26Z</datestamp>
      <setSpec>user-biosyslit</setSpec>
    </header>
    <header>
      <identifier>oai:zenodo.org:239265</identifier>
      <datestamp>2017-01-11T18:47:19Z</datestamp>
      <setSpec>user-biosyslit</setSpec>
    </header>
    <header>
      <identifier>oai:zenodo.org:238059</identifier>
      <datestamp>2017-01-11T00:36:05Z</datestamp>
      <setSpec>user-biosyslit</setSpec>
    </header>
    <header>
      <identifier>oai:zenodo.org:238820</identifier>
      <datestamp>2017-01-11T11:24:22Z</datestamp>
      <setSpec>user-biosyslit</setSpec>
    </header>
    <header>
      <identifier>oai:zenodo.org:239021</identifier>
      <datestamp>2017-01-11T14:57:21Z</datestamp>
      <setSpec>user-biosyslit</setSpec>
    </header>
    <header>
      <identifier>oai:zenodo.org:240446</identifier>
      <datestamp>2017-01-12T08:42:44Z</datestamp>
      <setSpec>user-biosyslit</setSpec>
    </header>
    <header>
      <identifier>oai:zenodo.org:271276</identifier>
      <datestamp>2017-02-08T01:15:05Z</datestamp>
      <setSpec>user-biosyslit</setSpec>
    </header>
    <header>
      <identifier>oai:zenodo.org:276510</identifier>
      <datestamp>2017-02-08T19:00:41Z</datestamp>
      <setSpec>user-biosyslit</setSpec>
    </header>
    <header>
      <identifier>oai:zenodo.org:239319</identifier>
      <datestamp>2017-01-11T18:51:07Z</datestamp>
      <setSpec>user-biosyslit</setSpec>
    </header>
    <header>
      <identifier>oai:zenodo.org:239532</identifier>
      <datestamp>2017-01-11T21:48:12Z</datestamp>
      <setSpec>user-biosyslit</setSpec>
    </header>
    <header>
      <identifier>oai:zenodo.org:272064</identifier>
      <datestamp>2017-02-08T03:27:09Z</datestamp>
      <setSpec>user-biosyslit</setSpec>
    </header>
    <header>
      <identifier>oai:zenodo.org:239775</identifier>
      <datestamp>2017-01-12T00:45:42Z</datestamp>
      <setSpec>user-biosyslit</setSpec>
    </header>
    <header>
      <identifier>oai:zenodo.org:239484</identifier>
      <datestamp>2017-01-11T21:14:37Z</datestamp>
      <setSpec>user-biosyslit</setSpec>
    </header>
    <header>
      <identifier>oai:zenodo.org:239741</identifier>
      <datestamp>2017-01-12T00:08:55Z</datestamp>
      <setSpec>user-biosyslit</setSpec>
    </header>
    <header>
      <identifier>oai:zenodo.org:272262</identifier>
      <datestamp>2017-02-08T04:07:46Z</datestamp>
      <setSpec>user-biosyslit</setSpec>
    </header>
    <header>
      <identifier>oai:zenodo.org:271178</identifier>
      <datestamp>2017-02-08T00:57:36Z</datestamp>
      <setSpec>user-biosyslit</setSpec>
    </header>
    <header>
      <identifier>oai:zenodo.org:239818</identifier>
      <datestamp>2017-01-12T01:22:43Z</datestamp>
      <setSpec>user-biosyslit</setSpec>
    </header>
    <header>
      <identifier>oai:zenodo.org:239826</identifier>
      <datestamp>2017-01-12T01:22:26Z</datestamp>
      <setSpec>user-biosyslit</setSpec>
    </header>
    <header>
      <identifier>oai:zenodo.org:271823</identifier>
      <datestamp>2017-02-08T02:44:06Z</datestamp>
      <setSpec>user-biosyslit</setSpec>
    </header>
    <header>
      <identifier>oai:zenodo.org:239630</identifier>
      <datestamp>2017-01-11T22:52:05Z</datestamp>
      <setSpec>user-biosyslit</setSpec>
    </header>
    <header>
      <identifier>oai:zenodo.org:239778</identifier>
      <datestamp>2017-01-12T00:45:54Z</datestamp>
      <setSpec>user-biosyslit</setSpec>
    </header>
    <header>
      <identifier>oai:zenodo.org:240089</identifier>
      <datestamp>2017-01-12T04:33:26Z</datestamp>
      <setSpec>user-biosyslit</setSpec>
    </header>
    <header>
      <identifier>oai:zenodo.org:240336</identifier>
      <datestamp>2017-01-12T07:29:00Z</datestamp>
      <setSpec>user-biosyslit</setSpec>
    </header>
    <header>
      <identifier>oai:zenodo.org:240266</identifier>
      <datestamp>2017-01-12T06:41:42Z</datestamp>
      <setSpec>user-biosyslit</setSpec>
    </header>
    <header>
      <identifier>oai:zenodo.org:240437</identifier>
      <datestamp>2017-01-12T08:37:15Z</datestamp>
      <setSpec>user-biosyslit</setSpec>
    </header>
    <header>
      <identifier>oai:zenodo.org:240085</identifier>
      <datestamp>2017-01-12T04:33:09Z</datestamp>
      <setSpec>user-biosyslit</setSpec>
    </header>
    <header>
      <identifier>oai:zenodo.org:240810</identifier>
      <datestamp>2017-01-12T14:18:56Z</datestamp>
      <setSpec>user-biosyslit</setSpec>
    </header>
    <header>
      <identifier>oai:zenodo.org:240518</identifier>
      <datestamp>2017-01-12T09:49:37Z</datestamp>
      <setSpec>user-biosyslit</setSpec>
    </header>
    <header>
      <identifier>oai:zenodo.org:271485</identifier>
      <datestamp>2017-02-08T01:48:45Z</datestamp>
      <setSpec>user-biosyslit</setSpec>
    </header>
    <header>
      <identifier>oai:zenodo.org:240835</identifier>
      <datestamp>2017-01-12T14:44:12Z</datestamp>
      <setSpec>user-biosyslit</setSpec>
    </header>
    <header>
      <identifier>oai:zenodo.org:271609</identifier>
      <datestamp>2017-02-08T02:03:22Z</datestamp>
      <setSpec>user-biosyslit</setSpec>
    </header>
    <header>
      <identifier>oai:zenodo.org:271527</identifier>
      <datestamp>2017-02-08T01:53:20Z</datestamp>
      <setSpec>user-biosyslit</setSpec>
    </header>
    <header>
      <identifier>oai:zenodo.org:271511</identifier>
      <datestamp>2017-02-08T01:52:41Z</datestamp>
      <setSpec>user-biosyslit</setSpec>
    </header>
    <header>
      <identifier>oai:zenodo.org:240964</identifier>
      <datestamp>2017-01-12T17:02:45Z</datestamp>
      <setSpec>user-biosyslit</setSpec>
    </header>
    <header>
      <identifier>oai:zenodo.org:240885</identifier>
      <datestamp>2017-01-12T15:18:44Z</datestamp>
      <setSpec>user-biosyslit</setSpec>
    </header>
    <header>
      <identifier>oai:zenodo.org:240909</identifier>
      <datestamp>2017-01-12T15:46:23Z</datestamp>
      <setSpec>user-biosyslit</setSpec>
    </header>
    <header>
      <identifier>oai:zenodo.org:288717</identifier>
      <datestamp>2017-02-09T21:48:56Z</datestamp>
      <setSpec>user-biosyslit</setSpec>
    </header>
    <header>
      <identifier>oai:zenodo.org:271390</identifier>
      <datestamp>2017-02-08T01:35:34Z</datestamp>
      <setSpec>user-biosyslit</setSpec>
    </header>
    <header>
      <identifier>oai:zenodo.org:271493</identifier>
      <datestamp>2017-02-08T01:49:08Z</datestamp>
      <setSpec>user-biosyslit</setSpec>
    </header>
    <resumptionToken expirationDate="2017-08-31T15:44:15Z" cursor="19200" completeListSize="77796">.eJyNyk0LgjAcgPHv8j9L7CVsCl1Ckw4pcznUS5iKVMvEFenC756XzvVcn98bdF1X4KKFY2PCCGM2o3PItkCX_V2p43neUKZSla1KikA-45tEGWlWoaeHvZfR0FxRdMNGbDlJMRuSMxr5IXlkJh4k3b0E8ld7w8fwsptdRaNA5aegE0m7UYJUfeTzUeCNyGn5dfhPZ346T6_Bgq5oanCxs7Tg-ir6RoP7nqYPojZRRQ.DIm_1w.AKPag84Twvbw6VRnU_KG-U9jNxc</resumptionToken>
  </ListIdentifiers>
</OAI-PMH>
