<?xml version='1.0' encoding='UTF-8'?>
<?xml-stylesheet type="text/xsl" href="/static/xsl/oai2.v1.0.xsl"?>
<OAI-PMH xmlns="http://www.openarchives.org/OAI/2.0/" xmlns:xsi="http://www.w3.org/2001/XMLSchema-instance" xsi:schemaLocation="http://www.openarchives.org/OAI/2.0/ http://www.openarchives.org/OAI/2.0/OAI-PMH.xsd">
  <responseDate>2017-08-31T15:42:03Z</responseDate>
  <request verb="ListIdentifiers" resumptionToken=".eJyNysEOQzAYAOB3-c-ytJqtSHZZmDggdGRcFkPElIluQcW7z2Xn7fx9C4iyLMBAO53qOtUwJniPqIY0BUQ-PDm_1RtDfo153vEos-N32MYoUSvqmWJyzYR4skF-iyU7B-oVa1NUozm4RK9EhlNMnJEhi7oymL2Hs72C-DZP73bPou7EmVoMvhXMDJ9YSvLvw38--fOZ4ggK9FlVgoEPqgLNmA2VAGNZ1w-oglFH.DIm_yw.aTMQcHfPHuzjt_s9PYITHdemWjc">https://zenodo.org/oai2d</request>
  <ListIdentifiers>
    <header>
      <identifier>oai:zenodo.org:438549</identifier>
      <datestamp>2017-03-28T07:23:02Z</datestamp>
      <setSpec>user-biosyslit</setSpec>
    </header>
    <header>
      <identifier>oai:zenodo.org:438810</identifier>
      <datestamp>2017-03-29T07:14:23Z</datestamp>
      <setSpec>user-biosyslit</setSpec>
    </header>
    <header>
      <identifier>oai:zenodo.org:439882</identifier>
      <datestamp>2017-04-03T10:56:32Z</datestamp>
      <setSpec>user-biosyslit</setSpec>
    </header>
    <header>
      <identifier>oai:zenodo.org:439873</identifier>
      <datestamp>2017-04-03T10:36:27Z</datestamp>
      <setSpec>user-biosyslit</setSpec>
    </header>
    <header>
      <identifier>oai:zenodo.org:495314</identifier>
      <datestamp>2017-04-06T07:46:47Z</datestamp>
      <setSpec>user-biosyslit</setSpec>
    </header>
    <header>
      <identifier>oai:zenodo.org:495875</identifier>
      <datestamp>2017-04-10T08:08:15Z</datestamp>
      <setSpec>user-biosyslit</setSpec>
    </header>
    <header>
      <identifier>oai:zenodo.org:556876</identifier>
      <datestamp>2017-04-24T08:05:58Z</datestamp>
      <setSpec>user-biosyslit</setSpec>
    </header>
    <header>
      <identifier>oai:zenodo.org:556313</identifier>
      <datestamp>2017-04-20T08:06:41Z</datestamp>
      <setSpec>user-biosyslit</setSpec>
    </header>
    <header>
      <identifier>oai:zenodo.org:569422</identifier>
      <datestamp>2017-04-27T07:33:03Z</datestamp>
      <setSpec>user-biosyslit</setSpec>
    </header>
    <header>
      <identifier>oai:zenodo.org:569118</identifier>
      <datestamp>2017-04-26T08:11:06Z</datestamp>
      <setSpec>user-biosyslit</setSpec>
    </header>
    <header>
      <identifier>oai:zenodo.org:569163</identifier>
      <datestamp>2017-04-26T08:35:16Z</datestamp>
      <setSpec>user-biosyslit</setSpec>
    </header>
    <header>
      <identifier>oai:zenodo.org:569756</identifier>
      <datestamp>2017-04-28T07:48:47Z</datestamp>
      <setSpec>user-biosyslit</setSpec>
    </header>
    <header>
      <identifier>oai:zenodo.org:569451</identifier>
      <datestamp>2017-04-27T08:26:48Z</datestamp>
      <setSpec>user-biosyslit</setSpec>
    </header>
    <header>
      <identifier>oai:zenodo.org:569440</identifier>
      <datestamp>2017-04-27T08:15:52Z</datestamp>
      <setSpec>user-biosyslit</setSpec>
    </header>
    <header>
      <identifier>oai:zenodo.org:569132</identifier>
      <datestamp>2017-04-26T08:11:38Z</datestamp>
      <setSpec>user-biosyslit</setSpec>
    </header>
    <header>
      <identifier>oai:zenodo.org:569412</identifier>
      <datestamp>2017-04-27T07:17:06Z</datestamp>
      <setSpec>user-biosyslit</setSpec>
    </header>
    <header>
      <identifier>oai:zenodo.org:569759</identifier>
      <datestamp>2017-04-28T07:48:55Z</datestamp>
      <setSpec>user-biosyslit</setSpec>
    </header>
    <header>
      <identifier>oai:zenodo.org:571705</identifier>
      <datestamp>2017-05-05T08:35:09Z</datestamp>
      <setSpec>user-biosyslit</setSpec>
    </header>
    <header>
      <identifier>oai:zenodo.org:570402</identifier>
      <datestamp>2017-05-02T07:19:01Z</datestamp>
      <setSpec>user-biosyslit</setSpec>
    </header>
    <header>
      <identifier>oai:zenodo.org:570099</identifier>
      <datestamp>2017-05-01T07:24:17Z</datestamp>
      <setSpec>user-biosyslit</setSpec>
    </header>
    <header>
      <identifier>oai:zenodo.org:571211</identifier>
      <datestamp>2017-05-16T12:52:56Z</datestamp>
      <setSpec>openaire</setSpec>
      <setSpec>user-biosyslit</setSpec>
    </header>
    <header>
      <identifier>oai:zenodo.org:343811</identifier>
      <datestamp>2017-02-28T08:52:49Z</datestamp>
      <setSpec>user-biosyslit</setSpec>
    </header>
    <header>
      <identifier>oai:zenodo.org:344093</identifier>
      <datestamp>2017-02-28T23:48:24Z</datestamp>
      <setSpec>user-biosyslit</setSpec>
    </header>
    <header>
      <identifier>oai:zenodo.org:545697</identifier>
      <datestamp>2017-04-12T07:16:45Z</datestamp>
      <setSpec>user-biosyslit</setSpec>
    </header>
    <header>
      <identifier>oai:zenodo.org:580196</identifier>
      <datestamp>2017-05-16T07:50:12Z</datestamp>
      <setSpec>user-biosyslit</setSpec>
    </header>
    <header>
      <identifier>oai:zenodo.org:344313</identifier>
      <datestamp>2017-02-28T23:42:00Z</datestamp>
      <setSpec>user-biosyslit</setSpec>
    </header>
    <header>
      <identifier>oai:zenodo.org:344312</identifier>
      <datestamp>2017-02-28T23:42:01Z</datestamp>
      <setSpec>user-biosyslit</setSpec>
    </header>
    <header>
      <identifier>oai:zenodo.org:344367</identifier>
      <datestamp>2017-02-28T23:40:41Z</datestamp>
      <setSpec>user-biosyslit</setSpec>
    </header>
    <header>
      <identifier>oai:zenodo.org:344449</identifier>
      <datestamp>2017-02-28T23:25:17Z</datestamp>
      <setSpec>user-biosyslit</setSpec>
    </header>
    <header>
      <identifier>oai:zenodo.org:344778</identifier>
      <datestamp>2017-03-01T09:06:54Z</datestamp>
      <setSpec>user-biosyslit</setSpec>
    </header>
    <header>
      <identifier>oai:zenodo.org:344643</identifier>
      <datestamp>2017-03-01T08:18:49Z</datestamp>
      <setSpec>user-biosyslit</setSpec>
    </header>
    <header>
      <identifier>oai:zenodo.org:344647</identifier>
      <datestamp>2017-03-01T08:06:13Z</datestamp>
      <setSpec>user-biosyslit</setSpec>
    </header>
    <header>
      <identifier>oai:zenodo.org:344650</identifier>
      <datestamp>2017-03-01T08:06:08Z</datestamp>
      <setSpec>openaire</setSpec>
      <setSpec>user-biosyslit</setSpec>
    </header>
    <header>
      <identifier>oai:zenodo.org:344671</identifier>
      <datestamp>2017-03-01T08:05:39Z</datestamp>
      <setSpec>user-biosyslit</setSpec>
    </header>
    <header>
      <identifier>oai:zenodo.org:344751</identifier>
      <datestamp>2017-03-01T08:42:42Z</datestamp>
      <setSpec>user-biosyslit</setSpec>
    </header>
    <header>
      <identifier>oai:zenodo.org:344999</identifier>
      <datestamp>2017-03-02T08:20:19Z</datestamp>
      <setSpec>user-biosyslit</setSpec>
    </header>
    <header>
      <identifier>oai:zenodo.org:345197</identifier>
      <datestamp>2017-03-03T08:18:33Z</datestamp>
      <setSpec>user-biosyslit</setSpec>
    </header>
    <header>
      <identifier>oai:zenodo.org:345225</identifier>
      <datestamp>2017-03-03T08:19:50Z</datestamp>
      <setSpec>user-biosyslit</setSpec>
    </header>
    <header>
      <identifier>oai:zenodo.org:344993</identifier>
      <datestamp>2017-03-02T08:15:31Z</datestamp>
      <setSpec>user-biosyslit</setSpec>
    </header>
    <header>
      <identifier>oai:zenodo.org:345285</identifier>
      <datestamp>2017-03-03T09:16:38Z</datestamp>
      <setSpec>user-biosyslit</setSpec>
    </header>
    <header>
      <identifier>oai:zenodo.org:545700</identifier>
      <datestamp>2017-04-12T07:16:52Z</datestamp>
      <setSpec>user-biosyslit</setSpec>
    </header>
    <header>
      <identifier>oai:zenodo.org:545723</identifier>
      <datestamp>2017-04-12T07:45:36Z</datestamp>
      <setSpec>user-biosyslit</setSpec>
    </header>
    <header>
      <identifier>oai:zenodo.org:345779</identifier>
      <datestamp>2017-03-06T08:24:27Z</datestamp>
      <setSpec>user-biosyslit</setSpec>
    </header>
    <header>
      <identifier>oai:zenodo.org:545863</identifier>
      <datestamp>2017-04-13T07:23:30Z</datestamp>
      <setSpec>user-biosyslit</setSpec>
    </header>
    <header>
      <identifier>oai:zenodo.org:345780</identifier>
      <datestamp>2017-03-06T08:24:24Z</datestamp>
      <setSpec>user-biosyslit</setSpec>
    </header>
    <header>
      <identifier>oai:zenodo.org:545754</identifier>
      <datestamp>2017-04-12T08:19:49Z</datestamp>
      <setSpec>user-biosyslit</setSpec>
    </header>
    <header>
      <identifier>oai:zenodo.org:545893</identifier>
      <datestamp>2017-04-13T07:56:53Z</datestamp>
      <setSpec>user-biosyslit</setSpec>
    </header>
    <header>
      <identifier>oai:zenodo.org:580181</identifier>
      <datestamp>2017-05-16T07:38:12Z</datestamp>
      <setSpec>user-biosyslit</setSpec>
    </header>
    <header>
      <identifier>oai:zenodo.org:546747</identifier>
      <datestamp>2017-04-28T10:53:59Z</datestamp>
      <setSpec>openaire</setSpec>
      <setSpec>user-biosyslit</setSpec>
    </header>
    <header>
      <identifier>oai:zenodo.org:580241</identifier>
      <datestamp>2017-05-16T08:42:37Z</datestamp>
      <setSpec>user-biosyslit</setSpec>
    </header>
    <header>
      <identifier>oai:zenodo.org:579243</identifier>
      <datestamp>2017-05-18T07:05:44Z</datestamp>
      <setSpec>openaire</setSpec>
      <setSpec>user-biosyslit</setSpec>
    </header>
    <header>
      <identifier>oai:zenodo.org:579276</identifier>
      <datestamp>2017-05-18T07:04:11Z</datestamp>
      <setSpec>openaire</setSpec>
      <setSpec>user-biosyslit</setSpec>
    </header>
    <header>
      <identifier>oai:zenodo.org:579332</identifier>
      <datestamp>2017-05-18T07:02:53Z</datestamp>
      <setSpec>openaire</setSpec>
      <setSpec>user-biosyslit</setSpec>
    </header>
    <header>
      <identifier>oai:zenodo.org:579308</identifier>
      <datestamp>2017-05-18T07:03:27Z</datestamp>
      <setSpec>openaire</setSpec>
      <setSpec>user-biosyslit</setSpec>
    </header>
    <header>
      <identifier>oai:zenodo.org:546877</identifier>
      <datestamp>2017-04-18T08:49:31Z</datestamp>
      <setSpec>user-biosyslit</setSpec>
    </header>
    <header>
      <identifier>oai:zenodo.org:579939</identifier>
      <datestamp>2017-05-15T08:47:05Z</datestamp>
      <setSpec>user-biosyslit</setSpec>
    </header>
    <header>
      <identifier>oai:zenodo.org:579964</identifier>
      <datestamp>2017-05-15T09:12:10Z</datestamp>
      <setSpec>user-biosyslit</setSpec>
    </header>
    <header>
      <identifier>oai:zenodo.org:580478</identifier>
      <datestamp>2017-05-17T07:46:17Z</datestamp>
      <setSpec>user-biosyslit</setSpec>
    </header>
    <header>
      <identifier>oai:zenodo.org:546838</identifier>
      <datestamp>2017-04-18T07:40:20Z</datestamp>
      <setSpec>user-biosyslit</setSpec>
    </header>
    <header>
      <identifier>oai:zenodo.org:581267</identifier>
      <datestamp>2017-05-19T08:39:41Z</datestamp>
      <setSpec>user-biosyslit</setSpec>
    </header>
    <header>
      <identifier>oai:zenodo.org:581344</identifier>
      <datestamp>2017-05-19T10:25:06Z</datestamp>
      <setSpec>user-biosyslit</setSpec>
    </header>
    <header>
      <identifier>oai:zenodo.org:581305</identifier>
      <datestamp>2017-05-19T09:40:14Z</datestamp>
      <setSpec>user-biosyslit</setSpec>
    </header>
    <header>
      <identifier>oai:zenodo.org:582039</identifier>
      <datestamp>2017-05-22T08:21:22Z</datestamp>
      <setSpec>user-biosyslit</setSpec>
    </header>
    <header>
      <identifier>oai:zenodo.org:375861</identifier>
      <datestamp>2017-03-11T22:01:11Z</datestamp>
      <setSpec>user-biosyslit</setSpec>
    </header>
    <header>
      <identifier>oai:zenodo.org:582231</identifier>
      <datestamp>2017-05-23T13:26:52Z</datestamp>
      <setSpec>openaire</setSpec>
      <setSpec>user-biosyslit</setSpec>
    </header>
    <header>
      <identifier>oai:zenodo.org:375893</identifier>
      <datestamp>2017-03-08T13:24:56Z</datestamp>
      <setSpec>user-biosyslit</setSpec>
    </header>
    <header>
      <identifier>oai:zenodo.org:582521</identifier>
      <datestamp>2017-05-23T09:19:59Z</datestamp>
      <setSpec>user-biosyslit</setSpec>
    </header>
    <header>
      <identifier>oai:zenodo.org:376169</identifier>
      <datestamp>2017-03-09T13:23:53Z</datestamp>
      <setSpec>user-biosyslit</setSpec>
    </header>
    <header>
      <identifier>oai:zenodo.org:376038</identifier>
      <datestamp>2017-03-09T09:05:14Z</datestamp>
      <setSpec>user-biosyslit</setSpec>
    </header>
    <header>
      <identifier>oai:zenodo.org:376385</identifier>
      <datestamp>2017-03-10T08:38:05Z</datestamp>
      <setSpec>user-biosyslit</setSpec>
    </header>
    <header>
      <identifier>oai:zenodo.org:375877</identifier>
      <datestamp>2017-03-08T13:24:12Z</datestamp>
      <setSpec>user-biosyslit</setSpec>
    </header>
    <header>
      <identifier>oai:zenodo.org:582458</identifier>
      <datestamp>2017-05-23T07:48:27Z</datestamp>
      <setSpec>user-biosyslit</setSpec>
    </header>
    <header>
      <identifier>oai:zenodo.org:582763</identifier>
      <datestamp>2017-05-24T08:10:51Z</datestamp>
      <setSpec>user-biosyslit</setSpec>
    </header>
    <header>
      <identifier>oai:zenodo.org:582767</identifier>
      <datestamp>2017-05-24T08:11:05Z</datestamp>
      <setSpec>user-biosyslit</setSpec>
    </header>
    <header>
      <identifier>oai:zenodo.org:375980</identifier>
      <datestamp>2017-03-09T08:14:42Z</datestamp>
      <setSpec>user-biosyslit</setSpec>
    </header>
    <header>
      <identifier>oai:zenodo.org:375994</identifier>
      <datestamp>2017-03-09T08:25:25Z</datestamp>
      <setSpec>user-biosyslit</setSpec>
    </header>
    <header>
      <identifier>oai:zenodo.org:375774</identifier>
      <datestamp>2017-03-08T08:34:11Z</datestamp>
      <setSpec>user-biosyslit</setSpec>
    </header>
    <header>
      <identifier>oai:zenodo.org:376026</identifier>
      <datestamp>2017-03-09T08:51:27Z</datestamp>
      <setSpec>user-biosyslit</setSpec>
    </header>
    <header>
      <identifier>oai:zenodo.org:376724</identifier>
      <datestamp>2017-03-11T00:05:47Z</datestamp>
      <setSpec>user-biosyslit</setSpec>
    </header>
    <header>
      <identifier>oai:zenodo.org:376687</identifier>
      <datestamp>2017-03-11T00:04:10Z</datestamp>
      <setSpec>user-biosyslit</setSpec>
    </header>
    <header>
      <identifier>oai:zenodo.org:376683</identifier>
      <datestamp>2017-03-11T00:03:59Z</datestamp>
      <setSpec>user-biosyslit</setSpec>
    </header>
    <header>
      <identifier>oai:zenodo.org:376692</identifier>
      <datestamp>2017-03-11T00:04:20Z</datestamp>
      <setSpec>user-biosyslit</setSpec>
    </header>
    <header>
      <identifier>oai:zenodo.org:376902</identifier>
      <datestamp>2017-03-13T08:16:21Z</datestamp>
      <setSpec>user-biosyslit</setSpec>
    </header>
    <header>
      <identifier>oai:zenodo.org:583382</identifier>
      <datestamp>2017-05-26T07:43:20Z</datestamp>
      <setSpec>user-biosyslit</setSpec>
    </header>
    <header>
      <identifier>oai:zenodo.org:376958</identifier>
      <datestamp>2017-03-13T09:01:28Z</datestamp>
      <setSpec>user-biosyslit</setSpec>
    </header>
    <header>
      <identifier>oai:zenodo.org:291795</identifier>
      <datestamp>2017-02-14T22:02:45Z</datestamp>
      <setSpec>user-biosyslit</setSpec>
    </header>
    <header>
      <identifier>oai:zenodo.org:292555</identifier>
      <datestamp>2017-02-20T08:18:42Z</datestamp>
      <setSpec>openaire</setSpec>
      <setSpec>user-biosyslit</setSpec>
    </header>
    <header>
      <identifier>oai:zenodo.org:293120</identifier>
      <datestamp>2017-02-18T19:33:32Z</datestamp>
      <setSpec>user-biosyslit</setSpec>
    </header>
    <header>
      <identifier>oai:zenodo.org:293364</identifier>
      <datestamp>2017-02-19T13:34:16Z</datestamp>
      <setSpec>user-biosyslit</setSpec>
    </header>
    <header>
      <identifier>oai:zenodo.org:293697</identifier>
      <datestamp>2017-02-19T14:00:48Z</datestamp>
      <setSpec>user-biosyslit</setSpec>
    </header>
    <header>
      <identifier>oai:zenodo.org:292380</identifier>
      <datestamp>2017-02-20T08:28:37Z</datestamp>
      <setSpec>user-biosyslit</setSpec>
    </header>
    <header>
      <identifier>oai:zenodo.org:292349</identifier>
      <datestamp>2017-02-20T08:29:30Z</datestamp>
      <setSpec>user-biosyslit</setSpec>
    </header>
    <header>
      <identifier>oai:zenodo.org:292795</identifier>
      <datestamp>2017-02-16T18:41:11Z</datestamp>
      <setSpec>user-biosyslit</setSpec>
    </header>
    <header>
      <identifier>oai:zenodo.org:292594</identifier>
      <datestamp>2017-02-20T08:32:15Z</datestamp>
      <setSpec>user-biosyslit</setSpec>
    </header>
    <header>
      <identifier>oai:zenodo.org:292680</identifier>
      <datestamp>2017-02-16T18:28:37Z</datestamp>
      <setSpec>user-biosyslit</setSpec>
    </header>
    <header>
      <identifier>oai:zenodo.org:292652</identifier>
      <datestamp>2017-02-16T18:25:04Z</datestamp>
      <setSpec>user-biosyslit</setSpec>
    </header>
    <header>
      <identifier>oai:zenodo.org:293513</identifier>
      <datestamp>2017-02-19T13:46:06Z</datestamp>
      <setSpec>user-biosyslit</setSpec>
    </header>
    <header>
      <identifier>oai:zenodo.org:293592</identifier>
      <datestamp>2017-02-19T13:48:17Z</datestamp>
      <setSpec>user-biosyslit</setSpec>
    </header>
    <header>
      <identifier>oai:zenodo.org:292774</identifier>
      <datestamp>2017-02-16T18:38:17Z</datestamp>
      <setSpec>user-biosyslit</setSpec>
    </header>
    <header>
      <identifier>oai:zenodo.org:292700</identifier>
      <datestamp>2017-02-16T18:30:48Z</datestamp>
      <setSpec>user-biosyslit</setSpec>
    </header>
    <resumptionToken expirationDate="2017-08-31T15:44:03Z" cursor="16100" completeListSize="77796">.eJyNz8EOQzAAgOF36VmWVk1NsoswcUDoCC6LIWLKRLeg4t3nsvN2_r_LvwJeVSXQ4UFRCVE0qB5PCKpEwRLgxfhk7NbsGRRJzIqeRbkdv8MuhqlcE8_ks2um2BMt9Dsk6CWQE6TNUQOX4Bq9UhHOMXYmCi3iimDxHs7uSuzbLLvbA416g1G5HH0rWCgyaIaLr0N_OvHTmfwMJDDkdQV0pO5X7ZSPNQf6um0fotRRQg.DIm_yw.PPUaT7a36l-4d59m5_GYciP0uKs</resumptionToken>
  </ListIdentifiers>
</OAI-PMH>
