<?xml version='1.0' encoding='UTF-8'?>
<?xml-stylesheet type="text/xsl" href="/static/xsl/oai2.v1.0.xsl"?>
<OAI-PMH xmlns="http://www.openarchives.org/OAI/2.0/" xmlns:xsi="http://www.w3.org/2001/XMLSchema-instance" xsi:schemaLocation="http://www.openarchives.org/OAI/2.0/ http://www.openarchives.org/OAI/2.0/OAI-PMH.xsd">
  <responseDate>2017-08-31T15:41:07Z</responseDate>
  <request verb="ListIdentifiers" resumptionToken=".eJyNysEKgjAYAOB3-c8Sm9MmQpfQxEOKrol6CVMRc5m4Ip307nnpXOfvW0DWdQU22lBsYmRSg2Bja5k61UCW412Ic7sylGkiyl7wwkue8S1Bmd7QwJHT0clIoDoU3rBih0hPsTXxFs3RiT8yFU8J8V8MufSoojm4-uurSOiJ_OINjPd7wfRqDN1oZnjPclJ-H_7zqZ_PkTvQYCiaGmxsaNC9irGRYC_v9wdJH1EC.DIm_kw.N13UxtR_88TYAjksVz4AiHzvux4">https://zenodo.org/oai2d</request>
  <ListIdentifiers>
    <header>
      <identifier>oai:zenodo.org:282741</identifier>
      <datestamp>2017-02-09T07:33:08Z</datestamp>
      <setSpec>user-biosyslit</setSpec>
    </header>
    <header>
      <identifier>oai:zenodo.org:283347</identifier>
      <datestamp>2017-02-09T08:37:26Z</datestamp>
      <setSpec>user-biosyslit</setSpec>
    </header>
    <header>
      <identifier>oai:zenodo.org:284384</identifier>
      <datestamp>2017-02-09T11:09:50Z</datestamp>
      <setSpec>user-biosyslit</setSpec>
    </header>
    <header>
      <identifier>oai:zenodo.org:284915</identifier>
      <datestamp>2017-02-09T12:15:27Z</datestamp>
      <setSpec>user-biosyslit</setSpec>
    </header>
    <header>
      <identifier>oai:zenodo.org:284332</identifier>
      <datestamp>2017-02-09T11:04:46Z</datestamp>
      <setSpec>user-biosyslit</setSpec>
    </header>
    <header>
      <identifier>oai:zenodo.org:284402</identifier>
      <datestamp>2017-02-09T11:10:44Z</datestamp>
      <setSpec>user-biosyslit</setSpec>
    </header>
    <header>
      <identifier>oai:zenodo.org:285193</identifier>
      <datestamp>2017-02-09T12:55:35Z</datestamp>
      <setSpec>user-biosyslit</setSpec>
    </header>
    <header>
      <identifier>oai:zenodo.org:286434</identifier>
      <datestamp>2017-02-09T15:59:40Z</datestamp>
      <setSpec>user-biosyslit</setSpec>
    </header>
    <header>
      <identifier>oai:zenodo.org:285434</identifier>
      <datestamp>2017-02-09T13:35:32Z</datestamp>
      <setSpec>user-biosyslit</setSpec>
    </header>
    <header>
      <identifier>oai:zenodo.org:286383</identifier>
      <datestamp>2017-02-09T15:54:34Z</datestamp>
      <setSpec>user-biosyslit</setSpec>
    </header>
    <header>
      <identifier>oai:zenodo.org:285286</identifier>
      <datestamp>2017-02-09T13:11:20Z</datestamp>
      <setSpec>user-biosyslit</setSpec>
    </header>
    <header>
      <identifier>oai:zenodo.org:286626</identifier>
      <datestamp>2017-02-09T16:25:43Z</datestamp>
      <setSpec>user-biosyslit</setSpec>
    </header>
    <header>
      <identifier>oai:zenodo.org:287094</identifier>
      <datestamp>2017-02-09T17:28:17Z</datestamp>
      <setSpec>user-biosyslit</setSpec>
    </header>
    <header>
      <identifier>oai:zenodo.org:287213</identifier>
      <datestamp>2017-02-09T17:47:03Z</datestamp>
      <setSpec>user-biosyslit</setSpec>
    </header>
    <header>
      <identifier>oai:zenodo.org:286683</identifier>
      <datestamp>2017-02-09T16:32:52Z</datestamp>
      <setSpec>user-biosyslit</setSpec>
    </header>
    <header>
      <identifier>oai:zenodo.org:286764</identifier>
      <datestamp>2017-02-09T16:45:51Z</datestamp>
      <setSpec>user-biosyslit</setSpec>
    </header>
    <header>
      <identifier>oai:zenodo.org:287440</identifier>
      <datestamp>2017-02-09T18:19:15Z</datestamp>
      <setSpec>user-biosyslit</setSpec>
    </header>
    <header>
      <identifier>oai:zenodo.org:289880</identifier>
      <datestamp>2017-02-10T00:45:10Z</datestamp>
      <setSpec>user-biosyslit</setSpec>
    </header>
    <header>
      <identifier>oai:zenodo.org:288467</identifier>
      <datestamp>2017-02-09T21:01:50Z</datestamp>
      <setSpec>user-biosyslit</setSpec>
    </header>
    <header>
      <identifier>oai:zenodo.org:289564</identifier>
      <datestamp>2017-02-09T23:50:31Z</datestamp>
      <setSpec>user-biosyslit</setSpec>
    </header>
    <header>
      <identifier>oai:zenodo.org:288520</identifier>
      <datestamp>2017-02-09T21:05:18Z</datestamp>
      <setSpec>user-biosyslit</setSpec>
    </header>
    <header>
      <identifier>oai:zenodo.org:289079</identifier>
      <datestamp>2017-02-09T22:34:15Z</datestamp>
      <setSpec>user-biosyslit</setSpec>
    </header>
    <header>
      <identifier>oai:zenodo.org:289284</identifier>
      <datestamp>2017-02-09T23:09:34Z</datestamp>
      <setSpec>user-biosyslit</setSpec>
    </header>
    <header>
      <identifier>oai:zenodo.org:291352</identifier>
      <datestamp>2017-02-13T20:46:21Z</datestamp>
      <setSpec>user-biosyslit</setSpec>
    </header>
    <header>
      <identifier>oai:zenodo.org:289190</identifier>
      <datestamp>2017-02-09T22:55:43Z</datestamp>
      <setSpec>user-biosyslit</setSpec>
    </header>
    <header>
      <identifier>oai:zenodo.org:290009</identifier>
      <datestamp>2017-02-10T01:05:16Z</datestamp>
      <setSpec>user-biosyslit</setSpec>
    </header>
    <header>
      <identifier>oai:zenodo.org:294074</identifier>
      <datestamp>2017-02-20T19:14:47Z</datestamp>
      <setSpec>user-biosyslit</setSpec>
    </header>
    <header>
      <identifier>oai:zenodo.org:321366</identifier>
      <datestamp>2017-02-22T10:00:49Z</datestamp>
      <setSpec>openaire</setSpec>
      <setSpec>user-biosyslit</setSpec>
      <setSpec>user-neilreichia</setSpec>
    </header>
    <header>
      <identifier>oai:zenodo.org:322192</identifier>
      <datestamp>2017-02-24T07:37:06Z</datestamp>
      <setSpec>user-biosyslit</setSpec>
    </header>
    <header>
      <identifier>oai:zenodo.org:322047</identifier>
      <datestamp>2017-02-24T07:27:11Z</datestamp>
      <setSpec>user-biosyslit</setSpec>
    </header>
    <header>
      <identifier>oai:zenodo.org:574213</identifier>
      <datestamp>2017-05-11T07:23:26Z</datestamp>
      <setSpec>user-biosyslit</setSpec>
    </header>
    <header>
      <identifier>oai:zenodo.org:322022</identifier>
      <datestamp>2017-02-24T07:24:49Z</datestamp>
      <setSpec>user-biosyslit</setSpec>
    </header>
    <header>
      <identifier>oai:zenodo.org:322659</identifier>
      <datestamp>2017-04-03T10:01:38Z</datestamp>
      <setSpec>openaire</setSpec>
      <setSpec>user-biosyslit</setSpec>
    </header>
    <header>
      <identifier>oai:zenodo.org:573683</identifier>
      <datestamp>2017-05-10T09:07:11Z</datestamp>
      <setSpec>user-biosyslit</setSpec>
    </header>
    <header>
      <identifier>oai:zenodo.org:343865</identifier>
      <datestamp>2017-02-28T09:52:24Z</datestamp>
      <setSpec>user-biosyslit</setSpec>
    </header>
    <header>
      <identifier>oai:zenodo.org:273967</identifier>
      <datestamp>2017-02-08T11:41:02Z</datestamp>
      <setSpec>user-biosyslit</setSpec>
    </header>
    <header>
      <identifier>oai:zenodo.org:273903</identifier>
      <datestamp>2017-02-08T11:10:21Z</datestamp>
      <setSpec>user-biosyslit</setSpec>
    </header>
    <header>
      <identifier>oai:zenodo.org:262496</identifier>
      <datestamp>2017-01-29T04:49:40Z</datestamp>
      <setSpec>user-biosyslit</setSpec>
    </header>
    <header>
      <identifier>oai:zenodo.org:263013</identifier>
      <datestamp>2017-01-29T14:43:19Z</datestamp>
      <setSpec>user-biosyslit</setSpec>
    </header>
    <header>
      <identifier>oai:zenodo.org:262544</identifier>
      <datestamp>2017-01-29T05:26:28Z</datestamp>
      <setSpec>user-biosyslit</setSpec>
    </header>
    <header>
      <identifier>oai:zenodo.org:262773</identifier>
      <datestamp>2017-01-29T08:35:51Z</datestamp>
      <setSpec>user-biosyslit</setSpec>
    </header>
    <header>
      <identifier>oai:zenodo.org:263905</identifier>
      <datestamp>2017-01-30T10:03:30Z</datestamp>
      <setSpec>user-biosyslit</setSpec>
    </header>
    <header>
      <identifier>oai:zenodo.org:263274</identifier>
      <datestamp>2017-01-29T20:24:34Z</datestamp>
      <setSpec>user-biosyslit</setSpec>
    </header>
    <header>
      <identifier>oai:zenodo.org:263227</identifier>
      <datestamp>2017-01-29T19:11:55Z</datestamp>
      <setSpec>user-biosyslit</setSpec>
    </header>
    <header>
      <identifier>oai:zenodo.org:264421</identifier>
      <datestamp>2017-01-30T21:17:46Z</datestamp>
      <setSpec>user-biosyslit</setSpec>
    </header>
    <header>
      <identifier>oai:zenodo.org:263270</identifier>
      <datestamp>2017-01-29T20:15:13Z</datestamp>
      <setSpec>user-biosyslit</setSpec>
    </header>
    <header>
      <identifier>oai:zenodo.org:262935</identifier>
      <datestamp>2017-01-29T13:26:15Z</datestamp>
      <setSpec>user-biosyslit</setSpec>
    </header>
    <header>
      <identifier>oai:zenodo.org:264170</identifier>
      <datestamp>2017-01-30T14:29:02Z</datestamp>
      <setSpec>user-biosyslit</setSpec>
    </header>
    <header>
      <identifier>oai:zenodo.org:264626</identifier>
      <datestamp>2017-01-31T00:10:23Z</datestamp>
      <setSpec>user-biosyslit</setSpec>
    </header>
    <header>
      <identifier>oai:zenodo.org:263065</identifier>
      <datestamp>2017-01-29T15:52:54Z</datestamp>
      <setSpec>user-biosyslit</setSpec>
    </header>
    <header>
      <identifier>oai:zenodo.org:263530</identifier>
      <datestamp>2017-01-30T00:00:37Z</datestamp>
      <setSpec>user-biosyslit</setSpec>
    </header>
    <header>
      <identifier>oai:zenodo.org:279674</identifier>
      <datestamp>2017-02-09T01:47:58Z</datestamp>
      <setSpec>user-biosyslit</setSpec>
    </header>
    <header>
      <identifier>oai:zenodo.org:264177</identifier>
      <datestamp>2017-01-30T14:29:23Z</datestamp>
      <setSpec>user-biosyslit</setSpec>
    </header>
    <header>
      <identifier>oai:zenodo.org:265818</identifier>
      <datestamp>2017-01-31T21:48:08Z</datestamp>
      <setSpec>user-biosyslit</setSpec>
    </header>
    <header>
      <identifier>oai:zenodo.org:265599</identifier>
      <datestamp>2017-01-31T17:30:59Z</datestamp>
      <setSpec>user-biosyslit</setSpec>
    </header>
    <header>
      <identifier>oai:zenodo.org:264400</identifier>
      <datestamp>2017-01-30T20:56:40Z</datestamp>
      <setSpec>user-biosyslit</setSpec>
    </header>
    <header>
      <identifier>oai:zenodo.org:264902</identifier>
      <datestamp>2017-01-31T04:14:18Z</datestamp>
      <setSpec>user-biosyslit</setSpec>
    </header>
    <header>
      <identifier>oai:zenodo.org:265626</identifier>
      <datestamp>2017-01-31T17:52:32Z</datestamp>
      <setSpec>user-biosyslit</setSpec>
    </header>
    <header>
      <identifier>oai:zenodo.org:265473</identifier>
      <datestamp>2017-01-31T14:24:29Z</datestamp>
      <setSpec>user-biosyslit</setSpec>
    </header>
    <header>
      <identifier>oai:zenodo.org:265659</identifier>
      <datestamp>2017-01-31T18:27:04Z</datestamp>
      <setSpec>user-biosyslit</setSpec>
    </header>
    <header>
      <identifier>oai:zenodo.org:265468</identifier>
      <datestamp>2017-01-31T14:24:13Z</datestamp>
      <setSpec>user-biosyslit</setSpec>
    </header>
    <header>
      <identifier>oai:zenodo.org:265814</identifier>
      <datestamp>2017-01-31T21:47:56Z</datestamp>
      <setSpec>user-biosyslit</setSpec>
    </header>
    <header>
      <identifier>oai:zenodo.org:274685</identifier>
      <datestamp>2017-02-08T14:00:42Z</datestamp>
      <setSpec>user-biosyslit</setSpec>
    </header>
    <header>
      <identifier>oai:zenodo.org:265788</identifier>
      <datestamp>2017-01-31T21:04:39Z</datestamp>
      <setSpec>user-biosyslit</setSpec>
    </header>
    <header>
      <identifier>oai:zenodo.org:265767</identifier>
      <datestamp>2017-01-31T20:29:28Z</datestamp>
      <setSpec>user-biosyslit</setSpec>
    </header>
    <header>
      <identifier>oai:zenodo.org:265920</identifier>
      <datestamp>2017-01-31T23:16:17Z</datestamp>
      <setSpec>user-biosyslit</setSpec>
    </header>
    <header>
      <identifier>oai:zenodo.org:267080</identifier>
      <datestamp>2017-02-01T18:58:02Z</datestamp>
      <setSpec>user-biosyslit</setSpec>
    </header>
    <header>
      <identifier>oai:zenodo.org:266203</identifier>
      <datestamp>2017-02-01T02:37:11Z</datestamp>
      <setSpec>user-biosyslit</setSpec>
    </header>
    <header>
      <identifier>oai:zenodo.org:266145</identifier>
      <datestamp>2017-02-01T01:17:06Z</datestamp>
      <setSpec>user-biosyslit</setSpec>
    </header>
    <header>
      <identifier>oai:zenodo.org:266575</identifier>
      <datestamp>2017-02-01T12:04:10Z</datestamp>
      <setSpec>user-biosyslit</setSpec>
    </header>
    <header>
      <identifier>oai:zenodo.org:266902</identifier>
      <datestamp>2017-02-01T16:26:32Z</datestamp>
      <setSpec>user-biosyslit</setSpec>
    </header>
    <header>
      <identifier>oai:zenodo.org:266547</identifier>
      <datestamp>2017-02-01T12:02:24Z</datestamp>
      <setSpec>user-biosyslit</setSpec>
    </header>
    <header>
      <identifier>oai:zenodo.org:267834</identifier>
      <datestamp>2017-02-02T07:50:47Z</datestamp>
      <setSpec>user-biosyslit</setSpec>
    </header>
    <header>
      <identifier>oai:zenodo.org:267269</identifier>
      <datestamp>2017-02-01T23:36:11Z</datestamp>
      <setSpec>user-biosyslit</setSpec>
    </header>
    <header>
      <identifier>oai:zenodo.org:267398</identifier>
      <datestamp>2017-02-02T01:41:56Z</datestamp>
      <setSpec>user-biosyslit</setSpec>
    </header>
    <header>
      <identifier>oai:zenodo.org:266820</identifier>
      <datestamp>2017-02-01T15:22:44Z</datestamp>
      <setSpec>user-biosyslit</setSpec>
    </header>
    <header>
      <identifier>oai:zenodo.org:267239</identifier>
      <datestamp>2017-02-01T23:15:24Z</datestamp>
      <setSpec>user-biosyslit</setSpec>
    </header>
    <header>
      <identifier>oai:zenodo.org:267004</identifier>
      <datestamp>2017-02-01T18:02:34Z</datestamp>
      <setSpec>user-biosyslit</setSpec>
    </header>
    <header>
      <identifier>oai:zenodo.org:267723</identifier>
      <datestamp>2017-02-02T06:23:10Z</datestamp>
      <setSpec>user-biosyslit</setSpec>
    </header>
    <header>
      <identifier>oai:zenodo.org:268113</identifier>
      <datestamp>2017-02-03T01:33:46Z</datestamp>
      <setSpec>user-biosyslit</setSpec>
    </header>
    <header>
      <identifier>oai:zenodo.org:267572</identifier>
      <datestamp>2017-02-02T04:05:26Z</datestamp>
      <setSpec>user-biosyslit</setSpec>
    </header>
    <header>
      <identifier>oai:zenodo.org:267407</identifier>
      <datestamp>2017-02-02T01:42:21Z</datestamp>
      <setSpec>user-biosyslit</setSpec>
    </header>
    <header>
      <identifier>oai:zenodo.org:268182</identifier>
      <datestamp>2017-02-03T02:56:55Z</datestamp>
      <setSpec>user-biosyslit</setSpec>
    </header>
    <header>
      <identifier>oai:zenodo.org:268326</identifier>
      <datestamp>2017-02-03T11:18:20Z</datestamp>
      <setSpec>user-biosyslit</setSpec>
    </header>
    <header>
      <identifier>oai:zenodo.org:267913</identifier>
      <datestamp>2017-02-02T09:27:15Z</datestamp>
      <setSpec>user-biosyslit</setSpec>
    </header>
    <header>
      <identifier>oai:zenodo.org:269180</identifier>
      <datestamp>2017-02-06T23:01:20Z</datestamp>
      <setSpec>user-biosyslit</setSpec>
    </header>
    <header>
      <identifier>oai:zenodo.org:268201</identifier>
      <datestamp>2017-02-03T02:57:47Z</datestamp>
      <setSpec>user-biosyslit</setSpec>
    </header>
    <header>
      <identifier>oai:zenodo.org:267893</identifier>
      <datestamp>2017-02-02T09:05:37Z</datestamp>
      <setSpec>user-biosyslit</setSpec>
    </header>
    <header>
      <identifier>oai:zenodo.org:269162</identifier>
      <datestamp>2017-02-06T22:54:26Z</datestamp>
      <setSpec>user-biosyslit</setSpec>
    </header>
    <header>
      <identifier>oai:zenodo.org:268072</identifier>
      <datestamp>2017-02-03T01:16:51Z</datestamp>
      <setSpec>user-biosyslit</setSpec>
    </header>
    <header>
      <identifier>oai:zenodo.org:268261</identifier>
      <datestamp>2017-02-03T04:59:31Z</datestamp>
      <setSpec>user-biosyslit</setSpec>
    </header>
    <header>
      <identifier>oai:zenodo.org:269276</identifier>
      <datestamp>2017-02-06T23:47:28Z</datestamp>
      <setSpec>user-biosyslit</setSpec>
    </header>
    <header>
      <identifier>oai:zenodo.org:269319</identifier>
      <datestamp>2017-02-06T23:53:50Z</datestamp>
      <setSpec>user-biosyslit</setSpec>
    </header>
    <header>
      <identifier>oai:zenodo.org:275254</identifier>
      <datestamp>2017-02-08T15:48:42Z</datestamp>
      <setSpec>user-biosyslit</setSpec>
    </header>
    <header>
      <identifier>oai:zenodo.org:275070</identifier>
      <datestamp>2017-02-08T15:14:07Z</datestamp>
      <setSpec>user-biosyslit</setSpec>
    </header>
    <header>
      <identifier>oai:zenodo.org:275214</identifier>
      <datestamp>2017-02-08T15:42:56Z</datestamp>
      <setSpec>user-biosyslit</setSpec>
    </header>
    <header>
      <identifier>oai:zenodo.org:275551</identifier>
      <datestamp>2017-02-08T16:40:17Z</datestamp>
      <setSpec>user-biosyslit</setSpec>
    </header>
    <header>
      <identifier>oai:zenodo.org:275485</identifier>
      <datestamp>2017-02-08T16:33:07Z</datestamp>
      <setSpec>user-biosyslit</setSpec>
    </header>
    <header>
      <identifier>oai:zenodo.org:277966</identifier>
      <datestamp>2017-02-08T22:10:38Z</datestamp>
      <setSpec>user-biosyslit</setSpec>
    </header>
    <header>
      <identifier>oai:zenodo.org:276905</identifier>
      <datestamp>2017-02-08T19:57:24Z</datestamp>
      <setSpec>user-biosyslit</setSpec>
    </header>
    <resumptionToken expirationDate="2017-08-31T15:43:07Z" cursor="1300" completeListSize="77796">.eJyNysEKgjAYAOB3-c8S-13mErqEJh5SbCnZJUxFzGXhCnXiu-elc52_bwRZFDlYZIEGQ0YpW-NqydBADWTWPoS4VDNDdopF1ogodeP34R6TRC9N35b93k6or2oS3FHxXaifkPVRRYbwGL0Sdehj6nWcOOZehYN_8-aX08AV56v75FGzFVzP28AJB45bfqbZ9-GfT_18ttyABs-0LMBCQ4O6S9tSgjVO0wdO61EJ.DIm_kw._HQdDVsUM3qssrW0PxqWR3bo6U8</resumptionToken>
  </ListIdentifiers>
</OAI-PMH>
