<?xml version='1.0' encoding='UTF-8'?>
<?xml-stylesheet type="text/xsl" href="/static/xsl/oai2.v1.0.xsl"?>
<OAI-PMH xmlns="http://www.openarchives.org/OAI/2.0/" xmlns:xsi="http://www.w3.org/2001/XMLSchema-instance" xsi:schemaLocation="http://www.openarchives.org/OAI/2.0/ http://www.openarchives.org/OAI/2.0/OAI-PMH.xsd">
  <responseDate>2017-08-31T15:45:09Z</responseDate>
  <request verb="ListIdentifiers" resumptionToken=".eJyNyj0LgkAYAOD_8s4S96GZQotY0qCi10m6hJ0i1WnhFepJ_72W5pqfZwZV1xW4aIEcE1NsWXiFCbEc0wAl-puUx_OHQRwyKTrJyyB7pm2GctLYka_G0M9ppK8obrFm24Qc8GrkZzQle_7IdTpmdDcwtLFDnUzRZfd5FY0DWZyCO-OdJxmp-niTTAx7rKDi-_CfT_98vlqDAfeyqcFdImLAdSj7RoE7v15vksZRLw.DInAhQ.uWWOa850nmU4gXo9E8oqmHl-F_s">https://zenodo.org/oai2d</request>
  <ListIdentifiers>
    <header>
      <identifier>oai:zenodo.org:804222</identifier>
      <datestamp>2017-06-08T07:45:59Z</datestamp>
      <setSpec>user-biosyslit</setSpec>
    </header>
    <header>
      <identifier>oai:zenodo.org:809022</identifier>
      <datestamp>2017-06-15T07:24:25Z</datestamp>
      <setSpec>user-biosyslit</setSpec>
    </header>
    <header>
      <identifier>oai:zenodo.org:809018</identifier>
      <datestamp>2017-06-15T07:24:17Z</datestamp>
      <setSpec>user-biosyslit</setSpec>
    </header>
    <header>
      <identifier>oai:zenodo.org:808998</identifier>
      <datestamp>2017-06-15T07:17:25Z</datestamp>
      <setSpec>user-biosyslit</setSpec>
    </header>
    <header>
      <identifier>oai:zenodo.org:809030</identifier>
      <datestamp>2017-06-15T07:24:38Z</datestamp>
      <setSpec>user-biosyslit</setSpec>
    </header>
    <header>
      <identifier>oai:zenodo.org:809026</identifier>
      <datestamp>2017-06-15T07:24:32Z</datestamp>
      <setSpec>user-biosyslit</setSpec>
    </header>
    <header>
      <identifier>oai:zenodo.org:808994</identifier>
      <datestamp>2017-06-15T07:17:17Z</datestamp>
      <setSpec>user-biosyslit</setSpec>
    </header>
    <header>
      <identifier>oai:zenodo.org:809069</identifier>
      <datestamp>2017-06-15T07:36:03Z</datestamp>
      <setSpec>user-biosyslit</setSpec>
    </header>
    <header>
      <identifier>oai:zenodo.org:809057</identifier>
      <datestamp>2017-06-15T07:35:42Z</datestamp>
      <setSpec>user-biosyslit</setSpec>
    </header>
    <header>
      <identifier>oai:zenodo.org:809055</identifier>
      <datestamp>2017-06-15T07:35:39Z</datestamp>
      <setSpec>user-biosyslit</setSpec>
    </header>
    <header>
      <identifier>oai:zenodo.org:809065</identifier>
      <datestamp>2017-06-15T07:35:56Z</datestamp>
      <setSpec>user-biosyslit</setSpec>
    </header>
    <header>
      <identifier>oai:zenodo.org:809121</identifier>
      <datestamp>2017-06-15T08:09:14Z</datestamp>
      <setSpec>user-biosyslit</setSpec>
    </header>
    <header>
      <identifier>oai:zenodo.org:809125</identifier>
      <datestamp>2017-06-15T08:09:28Z</datestamp>
      <setSpec>user-biosyslit</setSpec>
    </header>
    <header>
      <identifier>oai:zenodo.org:809123</identifier>
      <datestamp>2017-06-15T08:09:24Z</datestamp>
      <setSpec>user-biosyslit</setSpec>
    </header>
    <header>
      <identifier>oai:zenodo.org:809107</identifier>
      <datestamp>2017-06-15T07:58:03Z</datestamp>
      <setSpec>user-biosyslit</setSpec>
    </header>
    <header>
      <identifier>oai:zenodo.org:809109</identifier>
      <datestamp>2017-06-15T07:58:06Z</datestamp>
      <setSpec>user-biosyslit</setSpec>
    </header>
    <header>
      <identifier>oai:zenodo.org:809113</identifier>
      <datestamp>2017-06-15T07:58:14Z</datestamp>
      <setSpec>user-biosyslit</setSpec>
    </header>
    <header>
      <identifier>oai:zenodo.org:809111</identifier>
      <datestamp>2017-06-15T07:58:09Z</datestamp>
      <setSpec>user-biosyslit</setSpec>
    </header>
    <header>
      <identifier>oai:zenodo.org:809105</identifier>
      <datestamp>2017-06-15T07:57:59Z</datestamp>
      <setSpec>user-biosyslit</setSpec>
    </header>
    <header>
      <identifier>oai:zenodo.org:809117</identifier>
      <datestamp>2017-06-15T07:58:33Z</datestamp>
      <setSpec>user-biosyslit</setSpec>
    </header>
    <header>
      <identifier>oai:zenodo.org:809147</identifier>
      <datestamp>2017-06-15T08:21:31Z</datestamp>
      <setSpec>user-biosyslit</setSpec>
    </header>
    <header>
      <identifier>oai:zenodo.org:809119</identifier>
      <datestamp>2017-06-15T08:09:38Z</datestamp>
      <setSpec>user-biosyslit</setSpec>
    </header>
    <header>
      <identifier>oai:zenodo.org:809153</identifier>
      <datestamp>2017-06-15T08:21:21Z</datestamp>
      <setSpec>user-biosyslit</setSpec>
    </header>
    <header>
      <identifier>oai:zenodo.org:809151</identifier>
      <datestamp>2017-06-15T08:21:18Z</datestamp>
      <setSpec>user-biosyslit</setSpec>
    </header>
    <header>
      <identifier>oai:zenodo.org:809127</identifier>
      <datestamp>2017-06-15T08:09:31Z</datestamp>
      <setSpec>user-biosyslit</setSpec>
    </header>
    <header>
      <identifier>oai:zenodo.org:809139</identifier>
      <datestamp>2017-06-15T08:16:09Z</datestamp>
      <setSpec>user-biosyslit</setSpec>
    </header>
    <header>
      <identifier>oai:zenodo.org:808982</identifier>
      <datestamp>2017-06-15T07:16:41Z</datestamp>
      <setSpec>user-biosyslit</setSpec>
    </header>
    <header>
      <identifier>oai:zenodo.org:809095</identifier>
      <datestamp>2017-06-15T07:51:12Z</datestamp>
      <setSpec>user-biosyslit</setSpec>
    </header>
    <header>
      <identifier>oai:zenodo.org:809081</identifier>
      <datestamp>2017-06-15T07:44:13Z</datestamp>
      <setSpec>user-biosyslit</setSpec>
    </header>
    <header>
      <identifier>oai:zenodo.org:809089</identifier>
      <datestamp>2017-06-15T07:44:04Z</datestamp>
      <setSpec>user-biosyslit</setSpec>
    </header>
    <header>
      <identifier>oai:zenodo.org:809085</identifier>
      <datestamp>2017-06-15T07:43:57Z</datestamp>
      <setSpec>user-biosyslit</setSpec>
    </header>
    <header>
      <identifier>oai:zenodo.org:809071</identifier>
      <datestamp>2017-06-15T07:36:06Z</datestamp>
      <setSpec>user-biosyslit</setSpec>
    </header>
    <header>
      <identifier>oai:zenodo.org:809562</identifier>
      <datestamp>2017-06-16T07:21:19Z</datestamp>
      <setSpec>user-biosyslit</setSpec>
    </header>
    <header>
      <identifier>oai:zenodo.org:809556</identifier>
      <datestamp>2017-06-16T07:21:08Z</datestamp>
      <setSpec>user-biosyslit</setSpec>
    </header>
    <header>
      <identifier>oai:zenodo.org:809568</identifier>
      <datestamp>2017-06-16T07:21:34Z</datestamp>
      <setSpec>user-biosyslit</setSpec>
    </header>
    <header>
      <identifier>oai:zenodo.org:809594</identifier>
      <datestamp>2017-06-16T07:22:22Z</datestamp>
      <setSpec>user-biosyslit</setSpec>
    </header>
    <header>
      <identifier>oai:zenodo.org:809566</identifier>
      <datestamp>2017-06-16T07:21:27Z</datestamp>
      <setSpec>user-biosyslit</setSpec>
    </header>
    <header>
      <identifier>oai:zenodo.org:809590</identifier>
      <datestamp>2017-06-16T07:22:15Z</datestamp>
      <setSpec>user-biosyslit</setSpec>
    </header>
    <header>
      <identifier>oai:zenodo.org:809588</identifier>
      <datestamp>2017-06-16T07:22:12Z</datestamp>
      <setSpec>user-biosyslit</setSpec>
    </header>
    <header>
      <identifier>oai:zenodo.org:809592</identifier>
      <datestamp>2017-06-16T07:22:18Z</datestamp>
      <setSpec>user-biosyslit</setSpec>
    </header>
    <header>
      <identifier>oai:zenodo.org:809572</identifier>
      <datestamp>2017-06-16T07:21:42Z</datestamp>
      <setSpec>user-biosyslit</setSpec>
    </header>
    <header>
      <identifier>oai:zenodo.org:809580</identifier>
      <datestamp>2017-06-16T07:21:55Z</datestamp>
      <setSpec>user-biosyslit</setSpec>
    </header>
    <header>
      <identifier>oai:zenodo.org:809582</identifier>
      <datestamp>2017-06-16T07:22:01Z</datestamp>
      <setSpec>user-biosyslit</setSpec>
    </header>
    <header>
      <identifier>oai:zenodo.org:809554</identifier>
      <datestamp>2017-06-16T07:23:47Z</datestamp>
      <setSpec>user-biosyslit</setSpec>
    </header>
    <header>
      <identifier>oai:zenodo.org:809608</identifier>
      <datestamp>2017-06-16T07:22:47Z</datestamp>
      <setSpec>user-biosyslit</setSpec>
    </header>
    <header>
      <identifier>oai:zenodo.org:809602</identifier>
      <datestamp>2017-06-16T07:22:37Z</datestamp>
      <setSpec>user-biosyslit</setSpec>
    </header>
    <header>
      <identifier>oai:zenodo.org:809624</identifier>
      <datestamp>2017-06-16T07:23:24Z</datestamp>
      <setSpec>user-biosyslit</setSpec>
    </header>
    <header>
      <identifier>oai:zenodo.org:809596</identifier>
      <datestamp>2017-06-16T07:22:26Z</datestamp>
      <setSpec>user-biosyslit</setSpec>
    </header>
    <header>
      <identifier>oai:zenodo.org:809630</identifier>
      <datestamp>2017-06-16T07:23:38Z</datestamp>
      <setSpec>user-biosyslit</setSpec>
    </header>
    <header>
      <identifier>oai:zenodo.org:809628</identifier>
      <datestamp>2017-06-16T07:23:34Z</datestamp>
      <setSpec>user-biosyslit</setSpec>
    </header>
    <header>
      <identifier>oai:zenodo.org:809604</identifier>
      <datestamp>2017-06-16T07:22:40Z</datestamp>
      <setSpec>user-biosyslit</setSpec>
    </header>
    <header>
      <identifier>oai:zenodo.org:809632</identifier>
      <datestamp>2017-06-16T07:23:40Z</datestamp>
      <setSpec>user-biosyslit</setSpec>
    </header>
    <header>
      <identifier>oai:zenodo.org:809648</identifier>
      <datestamp>2017-06-16T07:38:07Z</datestamp>
      <setSpec>user-biosyslit</setSpec>
    </header>
    <header>
      <identifier>oai:zenodo.org:809638</identifier>
      <datestamp>2017-06-16T07:37:50Z</datestamp>
      <setSpec>user-biosyslit</setSpec>
    </header>
    <header>
      <identifier>oai:zenodo.org:809650</identifier>
      <datestamp>2017-06-16T07:38:10Z</datestamp>
      <setSpec>user-biosyslit</setSpec>
    </header>
    <header>
      <identifier>oai:zenodo.org:809644</identifier>
      <datestamp>2017-06-16T07:38:00Z</datestamp>
      <setSpec>user-biosyslit</setSpec>
    </header>
    <header>
      <identifier>oai:zenodo.org:809656</identifier>
      <datestamp>2017-06-16T07:38:21Z</datestamp>
      <setSpec>user-biosyslit</setSpec>
    </header>
    <header>
      <identifier>oai:zenodo.org:809660</identifier>
      <datestamp>2017-06-16T07:38:27Z</datestamp>
      <setSpec>user-biosyslit</setSpec>
    </header>
    <header>
      <identifier>oai:zenodo.org:809662</identifier>
      <datestamp>2017-06-16T07:38:30Z</datestamp>
      <setSpec>user-biosyslit</setSpec>
    </header>
    <header>
      <identifier>oai:zenodo.org:809646</identifier>
      <datestamp>2017-06-16T07:38:04Z</datestamp>
      <setSpec>user-biosyslit</setSpec>
    </header>
    <header>
      <identifier>oai:zenodo.org:809652</identifier>
      <datestamp>2017-06-16T07:38:14Z</datestamp>
      <setSpec>user-biosyslit</setSpec>
    </header>
    <header>
      <identifier>oai:zenodo.org:809634</identifier>
      <datestamp>2017-06-16T07:38:52Z</datestamp>
      <setSpec>user-biosyslit</setSpec>
    </header>
    <header>
      <identifier>oai:zenodo.org:809666</identifier>
      <datestamp>2017-06-16T07:38:39Z</datestamp>
      <setSpec>user-biosyslit</setSpec>
    </header>
    <header>
      <identifier>oai:zenodo.org:809668</identifier>
      <datestamp>2017-06-16T07:38:43Z</datestamp>
      <setSpec>user-biosyslit</setSpec>
    </header>
    <header>
      <identifier>oai:zenodo.org:809676</identifier>
      <datestamp>2017-06-16T07:53:11Z</datestamp>
      <setSpec>user-biosyslit</setSpec>
    </header>
    <header>
      <identifier>oai:zenodo.org:809688</identifier>
      <datestamp>2017-06-16T08:08:05Z</datestamp>
      <setSpec>user-biosyslit</setSpec>
    </header>
    <header>
      <identifier>oai:zenodo.org:809692</identifier>
      <datestamp>2017-06-16T08:08:13Z</datestamp>
      <setSpec>user-biosyslit</setSpec>
    </header>
    <header>
      <identifier>oai:zenodo.org:809684</identifier>
      <datestamp>2017-06-16T08:07:58Z</datestamp>
      <setSpec>user-biosyslit</setSpec>
    </header>
    <header>
      <identifier>oai:zenodo.org:809716</identifier>
      <datestamp>2017-06-16T08:23:08Z</datestamp>
      <setSpec>user-biosyslit</setSpec>
    </header>
    <header>
      <identifier>oai:zenodo.org:809718</identifier>
      <datestamp>2017-06-16T08:23:04Z</datestamp>
      <setSpec>user-biosyslit</setSpec>
    </header>
    <header>
      <identifier>oai:zenodo.org:809710</identifier>
      <datestamp>2017-06-16T08:20:09Z</datestamp>
      <setSpec>user-biosyslit</setSpec>
    </header>
    <header>
      <identifier>oai:zenodo.org:809708</identifier>
      <datestamp>2017-06-16T08:20:06Z</datestamp>
      <setSpec>user-biosyslit</setSpec>
    </header>
    <header>
      <identifier>oai:zenodo.org:809714</identifier>
      <datestamp>2017-06-16T08:20:15Z</datestamp>
      <setSpec>user-biosyslit</setSpec>
    </header>
    <header>
      <identifier>oai:zenodo.org:809712</identifier>
      <datestamp>2017-06-16T08:20:12Z</datestamp>
      <setSpec>user-biosyslit</setSpec>
    </header>
    <header>
      <identifier>oai:zenodo.org:809749</identifier>
      <datestamp>2017-06-16T08:45:43Z</datestamp>
      <setSpec>user-biosyslit</setSpec>
    </header>
    <header>
      <identifier>oai:zenodo.org:809753</identifier>
      <datestamp>2017-06-16T08:45:53Z</datestamp>
      <setSpec>user-biosyslit</setSpec>
    </header>
    <header>
      <identifier>oai:zenodo.org:809731</identifier>
      <datestamp>2017-06-16T08:37:05Z</datestamp>
      <setSpec>user-biosyslit</setSpec>
    </header>
    <header>
      <identifier>oai:zenodo.org:809761</identifier>
      <datestamp>2017-06-16T08:49:34Z</datestamp>
      <setSpec>user-biosyslit</setSpec>
    </header>
    <header>
      <identifier>oai:zenodo.org:809759</identifier>
      <datestamp>2017-06-16T08:49:29Z</datestamp>
      <setSpec>user-biosyslit</setSpec>
    </header>
    <header>
      <identifier>oai:zenodo.org:238438</identifier>
      <datestamp>2017-01-11T05:45:26Z</datestamp>
      <setSpec>user-biosyslit</setSpec>
    </header>
    <header>
      <identifier>oai:zenodo.org:238431</identifier>
      <datestamp>2017-01-11T05:45:03Z</datestamp>
      <setSpec>user-biosyslit</setSpec>
    </header>
    <header>
      <identifier>oai:zenodo.org:238433</identifier>
      <datestamp>2017-01-11T05:45:10Z</datestamp>
      <setSpec>user-biosyslit</setSpec>
    </header>
    <header>
      <identifier>oai:zenodo.org:238432</identifier>
      <datestamp>2017-01-11T05:45:07Z</datestamp>
      <setSpec>user-biosyslit</setSpec>
    </header>
    <header>
      <identifier>oai:zenodo.org:238449</identifier>
      <datestamp>2017-01-11T05:45:59Z</datestamp>
      <setSpec>user-biosyslit</setSpec>
    </header>
    <header>
      <identifier>oai:zenodo.org:238443</identifier>
      <datestamp>2017-01-11T05:45:42Z</datestamp>
      <setSpec>user-biosyslit</setSpec>
    </header>
    <header>
      <identifier>oai:zenodo.org:238448</identifier>
      <datestamp>2017-01-11T05:45:56Z</datestamp>
      <setSpec>user-biosyslit</setSpec>
    </header>
    <header>
      <identifier>oai:zenodo.org:238456</identifier>
      <datestamp>2017-01-11T05:46:20Z</datestamp>
      <setSpec>user-biosyslit</setSpec>
    </header>
    <header>
      <identifier>oai:zenodo.org:241090</identifier>
      <datestamp>2017-01-12T19:46:48Z</datestamp>
      <setSpec>user-biosyslit</setSpec>
    </header>
    <header>
      <identifier>oai:zenodo.org:238450</identifier>
      <datestamp>2017-01-11T05:46:02Z</datestamp>
      <setSpec>user-biosyslit</setSpec>
    </header>
    <header>
      <identifier>oai:zenodo.org:241092</identifier>
      <datestamp>2017-01-12T19:46:53Z</datestamp>
      <setSpec>user-biosyslit</setSpec>
    </header>
    <header>
      <identifier>oai:zenodo.org:253028</identifier>
      <datestamp>2017-01-20T01:44:56Z</datestamp>
      <setSpec>user-biosyslit</setSpec>
    </header>
    <header>
      <identifier>oai:zenodo.org:253029</identifier>
      <datestamp>2017-01-20T01:45:00Z</datestamp>
      <setSpec>user-biosyslit</setSpec>
    </header>
    <header>
      <identifier>oai:zenodo.org:253025</identifier>
      <datestamp>2017-01-20T01:44:45Z</datestamp>
      <setSpec>user-biosyslit</setSpec>
    </header>
    <header>
      <identifier>oai:zenodo.org:253032</identifier>
      <datestamp>2017-01-20T01:45:09Z</datestamp>
      <setSpec>user-biosyslit</setSpec>
    </header>
    <header>
      <identifier>oai:zenodo.org:266113</identifier>
      <datestamp>2017-02-01T00:39:40Z</datestamp>
      <setSpec>user-biosyslit</setSpec>
    </header>
    <header>
      <identifier>oai:zenodo.org:244970</identifier>
      <datestamp>2017-01-15T06:06:27Z</datestamp>
      <setSpec>user-biosyslit</setSpec>
    </header>
    <header>
      <identifier>oai:zenodo.org:244972</identifier>
      <datestamp>2017-01-15T06:06:35Z</datestamp>
      <setSpec>user-biosyslit</setSpec>
    </header>
    <header>
      <identifier>oai:zenodo.org:244988</identifier>
      <datestamp>2017-01-15T06:07:35Z</datestamp>
      <setSpec>user-biosyslit</setSpec>
    </header>
    <header>
      <identifier>oai:zenodo.org:244978</identifier>
      <datestamp>2017-01-15T06:06:58Z</datestamp>
      <setSpec>user-biosyslit</setSpec>
    </header>
    <header>
      <identifier>oai:zenodo.org:244979</identifier>
      <datestamp>2017-01-15T06:07:02Z</datestamp>
      <setSpec>user-biosyslit</setSpec>
    </header>
    <resumptionToken expirationDate="2017-08-31T15:47:09Z" cursor="60100" completeListSize="77796">.eJyNyssKgkAYQOF3-dcSc4FMoY1o4kJFJ0XdhI0i1WjiFOqI756b1rU8nG8BWdcVmGiHDKwfyN6gBiUYb6WB5MNTiMtt-8CzVPBOJKWbvuM2RTlp9MCWk2_nNFAPFLZYsVNEMnyYkhuao3PyylU8pdQbGXJ0X0VzcPc2V9HQFcXV7VnSWYKRagidaGbYYgXlX4f_dOqns-URNOjLpgZzj6gGj7EcGgnmsq4fzjRRaw.DInAhQ.ybyp0c8t90IgJizGXqqS0lSTyd0</resumptionToken>
  </ListIdentifiers>
</OAI-PMH>
