<?xml version='1.0' encoding='UTF-8'?>
<?xml-stylesheet type="text/xsl" href="/static/xsl/oai2.v1.0.xsl"?>
<OAI-PMH xmlns="http://www.openarchives.org/OAI/2.0/" xmlns:xsi="http://www.w3.org/2001/XMLSchema-instance" xsi:schemaLocation="http://www.openarchives.org/OAI/2.0/ http://www.openarchives.org/OAI/2.0/OAI-PMH.xsd">
  <responseDate>2017-08-31T14:15:14Z</responseDate>
  <request verb="ListIdentifiers" resumptionToken=".eJwVzdFugjAYQOF36TVZ2qIWudPAiMt-CJaCcLMwYOAojEEXoMZ3112f5Ds3NFVViWz8YtHdHm_YFu-oZVK2NdBUjD9SflyfGRWXWBa9FLkX_527GKe0Zr4zLeCkxI-EDjqi-WtIL8RaxBWvYSRUqs9LbJ5mjl0GOpxB1zToSjPwZPbpDVz0R8lpOQZuuHJy5JlZMIgO9OkR-B5UgRvhy_0XxCcFrUveE8BFXK7gqmOgAYMDGz8a-lI3Q5Isv0K-zZlQfa4bF1oViv-XPjBkoCGvK2QTbKB2zsd6Qvbtfn8AcHlSCA.DImrOw.1EwVS0TJ8YPUu1prLwVyL2b39Ys">https://zenodo.org/oai2d</request>
  <ListIdentifiers>
    <header>
      <identifier>oai:zenodo.org:158758</identifier>
      <datestamp>2016-12-20T02:00:24Z</datestamp>
      <setSpec>user-biosyslit</setSpec>
    </header>
    <header>
      <identifier>oai:zenodo.org:158580</identifier>
      <datestamp>2016-12-20T02:00:43Z</datestamp>
      <setSpec>user-biosyslit</setSpec>
    </header>
    <header>
      <identifier>oai:zenodo.org:158301</identifier>
      <datestamp>2016-12-20T02:00:25Z</datestamp>
      <setSpec>user-biosyslit</setSpec>
    </header>
    <header>
      <identifier>oai:zenodo.org:183031</identifier>
      <datestamp>2016-12-20T02:00:56Z</datestamp>
      <setSpec>user-biosyslit</setSpec>
    </header>
    <header>
      <identifier>oai:zenodo.org:158465</identifier>
      <datestamp>2016-12-20T02:00:25Z</datestamp>
      <setSpec>user-biosyslit</setSpec>
    </header>
    <header>
      <identifier>oai:zenodo.org:158743</identifier>
      <datestamp>2016-12-20T02:00:25Z</datestamp>
      <setSpec>user-biosyslit</setSpec>
    </header>
    <header>
      <identifier>oai:zenodo.org:283028</identifier>
      <datestamp>2017-02-09T08:02:44Z</datestamp>
      <setSpec>user-biosyslit</setSpec>
    </header>
    <header>
      <identifier>oai:zenodo.org:158442</identifier>
      <datestamp>2016-12-20T02:01:10Z</datestamp>
      <setSpec>user-biosyslit</setSpec>
    </header>
    <header>
      <identifier>oai:zenodo.org:158751</identifier>
      <datestamp>2016-09-29T03:21:17Z</datestamp>
      <setSpec>user-biosyslit</setSpec>
    </header>
    <header>
      <identifier>oai:zenodo.org:158767</identifier>
      <datestamp>2016-12-20T02:00:24Z</datestamp>
      <setSpec>user-biosyslit</setSpec>
    </header>
    <header>
      <identifier>oai:zenodo.org:183063</identifier>
      <datestamp>2016-12-20T02:00:57Z</datestamp>
      <setSpec>user-biosyslit</setSpec>
    </header>
    <header>
      <identifier>oai:zenodo.org:158636</identifier>
      <datestamp>2016-09-29T01:43:15Z</datestamp>
      <setSpec>user-biosyslit</setSpec>
    </header>
    <header>
      <identifier>oai:zenodo.org:220307</identifier>
      <datestamp>2016-12-23T02:18:22Z</datestamp>
      <setSpec>user-biosyslit</setSpec>
    </header>
    <header>
      <identifier>oai:zenodo.org:183324</identifier>
      <datestamp>2016-11-29T13:55:58Z</datestamp>
      <setSpec>user-biosyslit</setSpec>
    </header>
    <header>
      <identifier>oai:zenodo.org:183498</identifier>
      <datestamp>2016-12-20T02:01:03Z</datestamp>
      <setSpec>user-biosyslit</setSpec>
    </header>
    <header>
      <identifier>oai:zenodo.org:158475</identifier>
      <datestamp>2016-12-20T02:01:09Z</datestamp>
      <setSpec>user-biosyslit</setSpec>
    </header>
    <header>
      <identifier>oai:zenodo.org:581324</identifier>
      <datestamp>2017-05-19T09:51:27Z</datestamp>
      <setSpec>user-biosyslit</setSpec>
    </header>
    <header>
      <identifier>oai:zenodo.org:158937</identifier>
      <datestamp>2016-12-13T12:01:35Z</datestamp>
      <setSpec>openaire</setSpec>
      <setSpec>user-biosyslit</setSpec>
    </header>
    <header>
      <identifier>oai:zenodo.org:183450</identifier>
      <datestamp>2016-12-20T02:01:01Z</datestamp>
      <setSpec>user-biosyslit</setSpec>
    </header>
    <header>
      <identifier>oai:zenodo.org:184529</identifier>
      <datestamp>2016-11-29T20:17:04Z</datestamp>
      <setSpec>user-biosyslit</setSpec>
    </header>
    <header>
      <identifier>oai:zenodo.org:220590</identifier>
      <datestamp>2016-12-23T04:19:21Z</datestamp>
      <setSpec>user-biosyslit</setSpec>
    </header>
    <header>
      <identifier>oai:zenodo.org:220584</identifier>
      <datestamp>2016-12-23T04:18:57Z</datestamp>
      <setSpec>user-biosyslit</setSpec>
    </header>
    <header>
      <identifier>oai:zenodo.org:183567</identifier>
      <datestamp>2016-11-29T15:06:27Z</datestamp>
      <setSpec>user-biosyslit</setSpec>
    </header>
    <header>
      <identifier>oai:zenodo.org:183279</identifier>
      <datestamp>2016-11-29T13:42:48Z</datestamp>
      <setSpec>user-biosyslit</setSpec>
    </header>
    <header>
      <identifier>oai:zenodo.org:221232</identifier>
      <datestamp>2016-12-25T22:28:52Z</datestamp>
      <setSpec>user-biosyslit</setSpec>
    </header>
    <header>
      <identifier>oai:zenodo.org:159161</identifier>
      <datestamp>2016-12-13T12:01:35Z</datestamp>
      <setSpec>openaire</setSpec>
      <setSpec>user-biosyslit</setSpec>
    </header>
    <header>
      <identifier>oai:zenodo.org:160035</identifier>
      <datestamp>2016-12-20T02:00:24Z</datestamp>
      <setSpec>user-biosyslit</setSpec>
    </header>
    <header>
      <identifier>oai:zenodo.org:159615</identifier>
      <datestamp>2016-12-13T12:01:33Z</datestamp>
      <setSpec>openaire</setSpec>
      <setSpec>user-biosyslit</setSpec>
    </header>
    <header>
      <identifier>oai:zenodo.org:281756</identifier>
      <datestamp>2017-02-09T05:51:52Z</datestamp>
      <setSpec>user-biosyslit</setSpec>
    </header>
    <header>
      <identifier>oai:zenodo.org:183648</identifier>
      <datestamp>2016-12-20T02:00:56Z</datestamp>
      <setSpec>user-biosyslit</setSpec>
    </header>
    <header>
      <identifier>oai:zenodo.org:159689</identifier>
      <datestamp>2016-12-13T12:02:45Z</datestamp>
      <setSpec>openaire</setSpec>
      <setSpec>user-biosyslit</setSpec>
      <setSpec>user-modphytomorphol</setSpec>
    </header>
    <header>
      <identifier>oai:zenodo.org:159883</identifier>
      <datestamp>2016-12-20T02:00:25Z</datestamp>
      <setSpec>user-biosyslit</setSpec>
    </header>
    <header>
      <identifier>oai:zenodo.org:159384</identifier>
      <datestamp>2016-12-20T02:00:43Z</datestamp>
      <setSpec>user-biosyslit</setSpec>
    </header>
    <header>
      <identifier>oai:zenodo.org:220544</identifier>
      <datestamp>2016-12-23T04:02:29Z</datestamp>
      <setSpec>user-biosyslit</setSpec>
    </header>
    <header>
      <identifier>oai:zenodo.org:282362</identifier>
      <datestamp>2017-02-09T06:53:32Z</datestamp>
      <setSpec>user-biosyslit</setSpec>
    </header>
    <header>
      <identifier>oai:zenodo.org:160611</identifier>
      <datestamp>2016-12-13T12:02:45Z</datestamp>
      <setSpec>openaire</setSpec>
      <setSpec>user-biosyslit</setSpec>
      <setSpec>user-modphytomorphol</setSpec>
    </header>
    <header>
      <identifier>oai:zenodo.org:160200</identifier>
      <datestamp>2016-12-20T02:00:43Z</datestamp>
      <setSpec>user-biosyslit</setSpec>
    </header>
    <header>
      <identifier>oai:zenodo.org:160610</identifier>
      <datestamp>2016-12-13T12:02:45Z</datestamp>
      <setSpec>openaire</setSpec>
      <setSpec>user-biosyslit</setSpec>
      <setSpec>user-modphytomorphol</setSpec>
    </header>
    <header>
      <identifier>oai:zenodo.org:160155</identifier>
      <datestamp>2016-12-13T12:01:35Z</datestamp>
      <setSpec>openaire</setSpec>
      <setSpec>user-biosyslit</setSpec>
    </header>
    <header>
      <identifier>oai:zenodo.org:184719</identifier>
      <datestamp>2016-12-20T02:00:51Z</datestamp>
      <setSpec>user-biosyslit</setSpec>
    </header>
    <header>
      <identifier>oai:zenodo.org:160395</identifier>
      <datestamp>2016-12-13T12:01:33Z</datestamp>
      <setSpec>openaire</setSpec>
      <setSpec>user-biosyslit</setSpec>
    </header>
    <header>
      <identifier>oai:zenodo.org:159850</identifier>
      <datestamp>2016-12-13T12:02:45Z</datestamp>
      <setSpec>openaire</setSpec>
      <setSpec>user-biosyslit</setSpec>
      <setSpec>user-modphytomorphol</setSpec>
    </header>
    <header>
      <identifier>oai:zenodo.org:184556</identifier>
      <datestamp>2016-12-20T02:01:03Z</datestamp>
      <setSpec>user-biosyslit</setSpec>
    </header>
    <header>
      <identifier>oai:zenodo.org:183750</identifier>
      <datestamp>2016-12-20T02:01:03Z</datestamp>
      <setSpec>user-biosyslit</setSpec>
    </header>
    <header>
      <identifier>oai:zenodo.org:160484</identifier>
      <datestamp>2016-12-20T02:00:25Z</datestamp>
      <setSpec>user-biosyslit</setSpec>
    </header>
    <header>
      <identifier>oai:zenodo.org:160288</identifier>
      <datestamp>2016-12-20T02:00:43Z</datestamp>
      <setSpec>user-biosyslit</setSpec>
    </header>
    <header>
      <identifier>oai:zenodo.org:162879</identifier>
      <datestamp>2016-12-20T02:00:24Z</datestamp>
      <setSpec>user-biosyslit</setSpec>
    </header>
    <header>
      <identifier>oai:zenodo.org:161383</identifier>
      <datestamp>2016-12-13T12:02:44Z</datestamp>
      <setSpec>openaire</setSpec>
      <setSpec>user-biosyslit</setSpec>
      <setSpec>user-modphytomorphol</setSpec>
    </header>
    <header>
      <identifier>oai:zenodo.org:161000</identifier>
      <datestamp>2016-12-13T12:02:44Z</datestamp>
      <setSpec>openaire</setSpec>
      <setSpec>user-biosyslit</setSpec>
      <setSpec>user-modphytomorphol</setSpec>
    </header>
    <header>
      <identifier>oai:zenodo.org:161203</identifier>
      <datestamp>2016-12-13T12:02:44Z</datestamp>
      <setSpec>openaire</setSpec>
      <setSpec>user-biosyslit</setSpec>
      <setSpec>user-modphytomorphol</setSpec>
    </header>
    <header>
      <identifier>oai:zenodo.org:281054</identifier>
      <datestamp>2017-02-09T04:38:02Z</datestamp>
      <setSpec>user-biosyslit</setSpec>
    </header>
    <header>
      <identifier>oai:zenodo.org:156187</identifier>
      <datestamp>2016-12-20T02:00:42Z</datestamp>
      <setSpec>user-biosyslit</setSpec>
    </header>
    <header>
      <identifier>oai:zenodo.org:156256</identifier>
      <datestamp>2016-12-20T02:00:42Z</datestamp>
      <setSpec>user-biosyslit</setSpec>
    </header>
    <header>
      <identifier>oai:zenodo.org:155899</identifier>
      <datestamp>2016-12-20T02:00:38Z</datestamp>
      <setSpec>user-biosyslit</setSpec>
    </header>
    <header>
      <identifier>oai:zenodo.org:156760</identifier>
      <datestamp>2016-12-20T02:00:43Z</datestamp>
      <setSpec>user-biosyslit</setSpec>
    </header>
    <header>
      <identifier>oai:zenodo.org:156172</identifier>
      <datestamp>2016-12-20T02:00:23Z</datestamp>
      <setSpec>user-biosyslit</setSpec>
    </header>
    <header>
      <identifier>oai:zenodo.org:156170</identifier>
      <datestamp>2016-12-20T02:00:23Z</datestamp>
      <setSpec>user-biosyslit</setSpec>
    </header>
    <header>
      <identifier>oai:zenodo.org:156279</identifier>
      <datestamp>2016-12-20T02:00:24Z</datestamp>
      <setSpec>user-biosyslit</setSpec>
    </header>
    <header>
      <identifier>oai:zenodo.org:281523</identifier>
      <datestamp>2017-02-09T05:27:50Z</datestamp>
      <setSpec>user-biosyslit</setSpec>
    </header>
    <header>
      <identifier>oai:zenodo.org:579355</identifier>
      <datestamp>2017-05-18T07:02:15Z</datestamp>
      <setSpec>openaire</setSpec>
      <setSpec>user-biosyslit</setSpec>
    </header>
    <header>
      <identifier>oai:zenodo.org:579272</identifier>
      <datestamp>2017-05-18T07:04:18Z</datestamp>
      <setSpec>openaire</setSpec>
      <setSpec>user-biosyslit</setSpec>
    </header>
    <header>
      <identifier>oai:zenodo.org:155906</identifier>
      <datestamp>2016-12-20T02:00:23Z</datestamp>
      <setSpec>user-biosyslit</setSpec>
    </header>
    <header>
      <identifier>oai:zenodo.org:580240</identifier>
      <datestamp>2017-05-16T08:42:35Z</datestamp>
      <setSpec>user-biosyslit</setSpec>
    </header>
    <header>
      <identifier>oai:zenodo.org:579427</identifier>
      <datestamp>2017-05-18T07:00:01Z</datestamp>
      <setSpec>openaire</setSpec>
      <setSpec>user-biosyslit</setSpec>
    </header>
    <header>
      <identifier>oai:zenodo.org:579523</identifier>
      <datestamp>2017-05-18T06:54:57Z</datestamp>
      <setSpec>openaire</setSpec>
      <setSpec>user-biosyslit</setSpec>
    </header>
    <header>
      <identifier>oai:zenodo.org:280668</identifier>
      <datestamp>2017-02-09T03:49:32Z</datestamp>
      <setSpec>user-biosyslit</setSpec>
    </header>
    <header>
      <identifier>oai:zenodo.org:579444</identifier>
      <datestamp>2017-05-18T06:59:34Z</datestamp>
      <setSpec>openaire</setSpec>
      <setSpec>user-biosyslit</setSpec>
    </header>
    <header>
      <identifier>oai:zenodo.org:155674</identifier>
      <datestamp>2016-12-20T02:00:25Z</datestamp>
      <setSpec>user-biosyslit</setSpec>
    </header>
    <header>
      <identifier>oai:zenodo.org:580560</identifier>
      <datestamp>2017-05-17T09:11:23Z</datestamp>
      <setSpec>user-biosyslit</setSpec>
    </header>
    <header>
      <identifier>oai:zenodo.org:580915</identifier>
      <datestamp>2017-05-18T08:00:10Z</datestamp>
      <setSpec>user-biosyslit</setSpec>
    </header>
    <header>
      <identifier>oai:zenodo.org:156976</identifier>
      <datestamp>2016-12-20T02:00:23Z</datestamp>
      <setSpec>user-biosyslit</setSpec>
    </header>
    <header>
      <identifier>oai:zenodo.org:156351</identifier>
      <datestamp>2016-12-20T02:00:25Z</datestamp>
      <setSpec>user-biosyslit</setSpec>
    </header>
    <header>
      <identifier>oai:zenodo.org:281191</identifier>
      <datestamp>2017-02-09T04:53:41Z</datestamp>
      <setSpec>user-biosyslit</setSpec>
    </header>
    <header>
      <identifier>oai:zenodo.org:156290</identifier>
      <datestamp>2016-12-20T02:00:42Z</datestamp>
      <setSpec>user-biosyslit</setSpec>
    </header>
    <header>
      <identifier>oai:zenodo.org:156629</identifier>
      <datestamp>2016-12-20T02:00:43Z</datestamp>
      <setSpec>user-biosyslit</setSpec>
    </header>
    <header>
      <identifier>oai:zenodo.org:156205</identifier>
      <datestamp>2016-12-20T02:00:24Z</datestamp>
      <setSpec>user-biosyslit</setSpec>
    </header>
    <header>
      <identifier>oai:zenodo.org:281088</identifier>
      <datestamp>2017-02-09T04:42:15Z</datestamp>
      <setSpec>user-biosyslit</setSpec>
    </header>
    <header>
      <identifier>oai:zenodo.org:156657</identifier>
      <datestamp>2016-09-28T00:04:29Z</datestamp>
      <setSpec>user-biosyslit</setSpec>
    </header>
    <header>
      <identifier>oai:zenodo.org:281557</identifier>
      <datestamp>2017-02-09T05:31:44Z</datestamp>
      <setSpec>user-biosyslit</setSpec>
    </header>
    <header>
      <identifier>oai:zenodo.org:156501</identifier>
      <datestamp>2016-12-20T02:00:20Z</datestamp>
      <setSpec>user-biosyslit</setSpec>
    </header>
    <header>
      <identifier>oai:zenodo.org:281881</identifier>
      <datestamp>2017-02-09T06:06:42Z</datestamp>
      <setSpec>user-biosyslit</setSpec>
    </header>
    <header>
      <identifier>oai:zenodo.org:281280</identifier>
      <datestamp>2017-02-09T05:04:26Z</datestamp>
      <setSpec>user-biosyslit</setSpec>
    </header>
    <header>
      <identifier>oai:zenodo.org:157245</identifier>
      <datestamp>2016-12-20T02:00:43Z</datestamp>
      <setSpec>user-biosyslit</setSpec>
    </header>
    <header>
      <identifier>oai:zenodo.org:157529</identifier>
      <datestamp>2016-12-20T02:00:25Z</datestamp>
      <setSpec>user-biosyslit</setSpec>
    </header>
    <header>
      <identifier>oai:zenodo.org:156774</identifier>
      <datestamp>2016-09-28T00:42:46Z</datestamp>
      <setSpec>user-biosyslit</setSpec>
    </header>
    <header>
      <identifier>oai:zenodo.org:220368</identifier>
      <datestamp>2016-12-23T02:41:06Z</datestamp>
      <setSpec>user-biosyslit</setSpec>
    </header>
    <header>
      <identifier>oai:zenodo.org:281918</identifier>
      <datestamp>2017-02-09T06:10:16Z</datestamp>
      <setSpec>user-biosyslit</setSpec>
    </header>
    <header>
      <identifier>oai:zenodo.org:157063</identifier>
      <datestamp>2016-09-28T02:35:09Z</datestamp>
      <setSpec>user-biosyslit</setSpec>
    </header>
    <header>
      <identifier>oai:zenodo.org:182562</identifier>
      <datestamp>2016-12-20T02:01:02Z</datestamp>
      <setSpec>user-biosyslit</setSpec>
    </header>
    <header>
      <identifier>oai:zenodo.org:157624</identifier>
      <datestamp>2016-12-20T02:00:25Z</datestamp>
      <setSpec>user-biosyslit</setSpec>
    </header>
    <header>
      <identifier>oai:zenodo.org:157298</identifier>
      <datestamp>2016-12-20T02:00:24Z</datestamp>
      <setSpec>user-biosyslit</setSpec>
    </header>
    <header>
      <identifier>oai:zenodo.org:182470</identifier>
      <datestamp>2016-12-20T02:00:50Z</datestamp>
      <setSpec>user-biosyslit</setSpec>
    </header>
    <header>
      <identifier>oai:zenodo.org:157439</identifier>
      <datestamp>2016-12-20T02:00:25Z</datestamp>
      <setSpec>user-biosyslit</setSpec>
    </header>
    <header>
      <identifier>oai:zenodo.org:281923</identifier>
      <datestamp>2017-02-09T06:10:54Z</datestamp>
      <setSpec>user-biosyslit</setSpec>
    </header>
    <header>
      <identifier>oai:zenodo.org:157225</identifier>
      <datestamp>2016-12-20T02:00:25Z</datestamp>
      <setSpec>user-biosyslit</setSpec>
    </header>
    <header>
      <identifier>oai:zenodo.org:157543</identifier>
      <datestamp>2016-09-28T14:47:18Z</datestamp>
      <setSpec>user-biosyslit</setSpec>
    </header>
    <header>
      <identifier>oai:zenodo.org:157053</identifier>
      <datestamp>2016-12-20T02:00:23Z</datestamp>
      <setSpec>user-biosyslit</setSpec>
    </header>
    <header>
      <identifier>oai:zenodo.org:157124</identifier>
      <datestamp>2016-12-20T02:00:25Z</datestamp>
      <setSpec>user-biosyslit</setSpec>
    </header>
    <header>
      <identifier>oai:zenodo.org:220013</identifier>
      <datestamp>2016-12-23T00:24:02Z</datestamp>
      <setSpec>user-biosyslit</setSpec>
    </header>
    <header>
      <identifier>oai:zenodo.org:157780</identifier>
      <datestamp>2016-12-20T02:00:24Z</datestamp>
      <setSpec>user-biosyslit</setSpec>
    </header>
    <resumptionToken expirationDate="2017-08-31T14:17:14Z" cursor="900" completeListSize="142507">.eJwVzWFvQ0AcgPHvcq9luTuKeteGSZf9iZ6jvFnsGJ1jhgXX9Lu3e_0kv-eGpqoqkYNfiLnfUYPsbIPa1MSmrqFJjD9SflyfHYlLIkUveeEnf-cuwRmtrcCdVnAzEsRchR1R7DWiF2Kv_Iq3KOZzps5rop8Whj0LVLSAqmnYlXroy_zTHxjvj5LRcgy9aGPkyHJdWBAf6NMj8D3MAjc8kPsvSE4ztB55TwGLpNzAm4-hAgwuGEE89KVqhjRdf7l8W3I-94VqPGjniP-_1MFCGhqKukIOIRpql2KsJ-Tc7vcHn19SNw.DImrcg.v9tDPKMvghsL07MhulRm--_Xioc</resumptionToken>
  </ListIdentifiers>
</OAI-PMH>
