<?xml version='1.0' encoding='UTF-8'?>
<?xml-stylesheet type="text/xsl" href="/static/xsl/oai2.v1.0.xsl"?>
<OAI-PMH xmlns="http://www.openarchives.org/OAI/2.0/" xmlns:xsi="http://www.w3.org/2001/XMLSchema-instance" xsi:schemaLocation="http://www.openarchives.org/OAI/2.0/ http://www.openarchives.org/OAI/2.0/OAI-PMH.xsd">
  <responseDate>2017-08-31T15:41:46Z</responseDate>
  <request verb="ListIdentifiers" resumptionToken=".eJyNyrEKgkAYAOB3-WeJO39TE1pCE4cUvZRsCVMR8zLxCvXEd6-luebvm0GUZQEWWSEa5lpDgrpBdVQ3mgIi7x-cX-qPQ35KeN7yOHOTV3RPSKpWhm-L8WCn6MuGBHcq2T5UT9Qc45pM4TF-pjIaE_QGRhzjIMPJv3mfV2Dg8vPV7Vjc7jhTiz5wwonRHTtj_n30zyd_PltsQYEuq0qwKDUVaIasrwRY87K8AdC7UW8.DIm_ug.CkECl9Y3j97BYUCvMxZaC5W3KyA">https://zenodo.org/oai2d</request>
  <ListIdentifiers>
    <header>
      <identifier>oai:zenodo.org:255176</identifier>
      <datestamp>2017-01-21T08:45:59Z</datestamp>
      <setSpec>user-biosyslit</setSpec>
    </header>
    <header>
      <identifier>oai:zenodo.org:255159</identifier>
      <datestamp>2017-01-21T08:33:36Z</datestamp>
      <setSpec>user-biosyslit</setSpec>
    </header>
    <header>
      <identifier>oai:zenodo.org:255523</identifier>
      <datestamp>2017-01-21T14:32:59Z</datestamp>
      <setSpec>user-biosyslit</setSpec>
    </header>
    <header>
      <identifier>oai:zenodo.org:255160</identifier>
      <datestamp>2017-01-21T08:33:40Z</datestamp>
      <setSpec>user-biosyslit</setSpec>
    </header>
    <header>
      <identifier>oai:zenodo.org:255684</identifier>
      <datestamp>2017-01-21T18:27:41Z</datestamp>
      <setSpec>user-biosyslit</setSpec>
    </header>
    <header>
      <identifier>oai:zenodo.org:256279</identifier>
      <datestamp>2017-01-22T10:19:39Z</datestamp>
      <setSpec>user-biosyslit</setSpec>
    </header>
    <header>
      <identifier>oai:zenodo.org:255170</identifier>
      <datestamp>2017-01-21T08:39:56Z</datestamp>
      <setSpec>user-biosyslit</setSpec>
    </header>
    <header>
      <identifier>oai:zenodo.org:255969</identifier>
      <datestamp>2017-01-22T00:51:08Z</datestamp>
      <setSpec>user-biosyslit</setSpec>
    </header>
    <header>
      <identifier>oai:zenodo.org:255601</identifier>
      <datestamp>2017-01-21T15:59:17Z</datestamp>
      <setSpec>user-biosyslit</setSpec>
    </header>
    <header>
      <identifier>oai:zenodo.org:255230</identifier>
      <datestamp>2017-01-21T10:00:30Z</datestamp>
      <setSpec>user-biosyslit</setSpec>
    </header>
    <header>
      <identifier>oai:zenodo.org:255727</identifier>
      <datestamp>2017-01-21T19:30:26Z</datestamp>
      <setSpec>user-biosyslit</setSpec>
    </header>
    <header>
      <identifier>oai:zenodo.org:255298</identifier>
      <datestamp>2017-01-21T11:04:44Z</datestamp>
      <setSpec>user-biosyslit</setSpec>
    </header>
    <header>
      <identifier>oai:zenodo.org:255552</identifier>
      <datestamp>2017-01-21T15:57:15Z</datestamp>
      <setSpec>user-biosyslit</setSpec>
    </header>
    <header>
      <identifier>oai:zenodo.org:255786</identifier>
      <datestamp>2017-01-21T22:10:15Z</datestamp>
      <setSpec>user-biosyslit</setSpec>
    </header>
    <header>
      <identifier>oai:zenodo.org:256411</identifier>
      <datestamp>2017-01-22T13:54:38Z</datestamp>
      <setSpec>user-biosyslit</setSpec>
    </header>
    <header>
      <identifier>oai:zenodo.org:255847</identifier>
      <datestamp>2017-01-21T22:57:18Z</datestamp>
      <setSpec>user-biosyslit</setSpec>
    </header>
    <header>
      <identifier>oai:zenodo.org:256163</identifier>
      <datestamp>2017-01-22T05:53:09Z</datestamp>
      <setSpec>user-biosyslit</setSpec>
    </header>
    <header>
      <identifier>oai:zenodo.org:256604</identifier>
      <datestamp>2017-01-22T18:35:52Z</datestamp>
      <setSpec>user-biosyslit</setSpec>
    </header>
    <header>
      <identifier>oai:zenodo.org:255887</identifier>
      <datestamp>2017-01-21T23:16:45Z</datestamp>
      <setSpec>user-biosyslit</setSpec>
    </header>
    <header>
      <identifier>oai:zenodo.org:273352</identifier>
      <datestamp>2017-02-08T09:05:13Z</datestamp>
      <setSpec>user-biosyslit</setSpec>
    </header>
    <header>
      <identifier>oai:zenodo.org:256454</identifier>
      <datestamp>2017-01-22T14:38:14Z</datestamp>
      <setSpec>user-biosyslit</setSpec>
    </header>
    <header>
      <identifier>oai:zenodo.org:256017</identifier>
      <datestamp>2017-01-22T02:27:52Z</datestamp>
      <setSpec>user-biosyslit</setSpec>
    </header>
    <header>
      <identifier>oai:zenodo.org:256679</identifier>
      <datestamp>2017-01-22T19:17:16Z</datestamp>
      <setSpec>user-biosyslit</setSpec>
    </header>
    <header>
      <identifier>oai:zenodo.org:256524</identifier>
      <datestamp>2017-01-22T16:42:30Z</datestamp>
      <setSpec>user-biosyslit</setSpec>
    </header>
    <header>
      <identifier>oai:zenodo.org:256464</identifier>
      <datestamp>2017-01-22T14:48:07Z</datestamp>
      <setSpec>user-biosyslit</setSpec>
    </header>
    <header>
      <identifier>oai:zenodo.org:256217</identifier>
      <datestamp>2017-01-22T07:10:32Z</datestamp>
      <setSpec>user-biosyslit</setSpec>
    </header>
    <header>
      <identifier>oai:zenodo.org:256476</identifier>
      <datestamp>2017-01-22T15:04:09Z</datestamp>
      <setSpec>user-biosyslit</setSpec>
    </header>
    <header>
      <identifier>oai:zenodo.org:257312</identifier>
      <datestamp>2017-01-23T05:10:43Z</datestamp>
      <setSpec>user-biosyslit</setSpec>
    </header>
    <header>
      <identifier>oai:zenodo.org:257500</identifier>
      <datestamp>2017-01-23T08:19:45Z</datestamp>
      <setSpec>user-biosyslit</setSpec>
    </header>
    <header>
      <identifier>oai:zenodo.org:258013</identifier>
      <datestamp>2017-01-23T15:12:57Z</datestamp>
      <setSpec>user-biosyslit</setSpec>
    </header>
    <header>
      <identifier>oai:zenodo.org:257537</identifier>
      <datestamp>2017-01-23T09:07:18Z</datestamp>
      <setSpec>user-biosyslit</setSpec>
    </header>
    <header>
      <identifier>oai:zenodo.org:256811</identifier>
      <datestamp>2017-01-22T21:17:35Z</datestamp>
      <setSpec>user-biosyslit</setSpec>
    </header>
    <header>
      <identifier>oai:zenodo.org:257409</identifier>
      <datestamp>2017-01-23T06:31:28Z</datestamp>
      <setSpec>user-biosyslit</setSpec>
    </header>
    <header>
      <identifier>oai:zenodo.org:258057</identifier>
      <datestamp>2017-01-23T15:43:07Z</datestamp>
      <setSpec>user-biosyslit</setSpec>
    </header>
    <header>
      <identifier>oai:zenodo.org:256666</identifier>
      <datestamp>2017-01-22T19:09:32Z</datestamp>
      <setSpec>user-biosyslit</setSpec>
    </header>
    <header>
      <identifier>oai:zenodo.org:256964</identifier>
      <datestamp>2017-01-22T23:38:39Z</datestamp>
      <setSpec>user-biosyslit</setSpec>
    </header>
    <header>
      <identifier>oai:zenodo.org:256787</identifier>
      <datestamp>2017-01-22T20:36:56Z</datestamp>
      <setSpec>user-biosyslit</setSpec>
    </header>
    <header>
      <identifier>oai:zenodo.org:257402</identifier>
      <datestamp>2017-01-23T06:31:09Z</datestamp>
      <setSpec>user-biosyslit</setSpec>
    </header>
    <header>
      <identifier>oai:zenodo.org:256610</identifier>
      <datestamp>2017-01-22T18:36:10Z</datestamp>
      <setSpec>user-biosyslit</setSpec>
    </header>
    <header>
      <identifier>oai:zenodo.org:256768</identifier>
      <datestamp>2017-01-22T20:24:34Z</datestamp>
      <setSpec>user-biosyslit</setSpec>
    </header>
    <header>
      <identifier>oai:zenodo.org:257029</identifier>
      <datestamp>2017-01-23T00:08:13Z</datestamp>
      <setSpec>user-biosyslit</setSpec>
    </header>
    <header>
      <identifier>oai:zenodo.org:256997</identifier>
      <datestamp>2017-01-22T23:40:23Z</datestamp>
      <setSpec>user-biosyslit</setSpec>
    </header>
    <header>
      <identifier>oai:zenodo.org:257250</identifier>
      <datestamp>2017-01-23T04:14:10Z</datestamp>
      <setSpec>user-biosyslit</setSpec>
    </header>
    <header>
      <identifier>oai:zenodo.org:257966</identifier>
      <datestamp>2017-01-23T14:44:12Z</datestamp>
      <setSpec>user-biosyslit</setSpec>
    </header>
    <header>
      <identifier>oai:zenodo.org:257494</identifier>
      <datestamp>2017-01-23T08:20:14Z</datestamp>
      <setSpec>user-biosyslit</setSpec>
    </header>
    <header>
      <identifier>oai:zenodo.org:258841</identifier>
      <datestamp>2017-01-24T05:41:13Z</datestamp>
      <setSpec>user-biosyslit</setSpec>
    </header>
    <header>
      <identifier>oai:zenodo.org:257456</identifier>
      <datestamp>2017-01-23T07:07:17Z</datestamp>
      <setSpec>user-biosyslit</setSpec>
    </header>
    <header>
      <identifier>oai:zenodo.org:257505</identifier>
      <datestamp>2017-01-23T08:20:03Z</datestamp>
      <setSpec>user-biosyslit</setSpec>
    </header>
    <header>
      <identifier>oai:zenodo.org:257595</identifier>
      <datestamp>2017-01-23T10:50:30Z</datestamp>
      <setSpec>user-biosyslit</setSpec>
    </header>
    <header>
      <identifier>oai:zenodo.org:257831</identifier>
      <datestamp>2017-01-23T13:31:24Z</datestamp>
      <setSpec>user-biosyslit</setSpec>
    </header>
    <header>
      <identifier>oai:zenodo.org:257654</identifier>
      <datestamp>2017-01-23T11:56:23Z</datestamp>
      <setSpec>user-biosyslit</setSpec>
    </header>
    <header>
      <identifier>oai:zenodo.org:258318</identifier>
      <datestamp>2017-01-23T20:43:54Z</datestamp>
      <setSpec>user-biosyslit</setSpec>
    </header>
    <header>
      <identifier>oai:zenodo.org:257837</identifier>
      <datestamp>2017-01-23T13:31:42Z</datestamp>
      <setSpec>user-biosyslit</setSpec>
    </header>
    <header>
      <identifier>oai:zenodo.org:257817</identifier>
      <datestamp>2017-01-23T13:30:41Z</datestamp>
      <setSpec>user-biosyslit</setSpec>
    </header>
    <header>
      <identifier>oai:zenodo.org:257787</identifier>
      <datestamp>2017-01-23T13:29:11Z</datestamp>
      <setSpec>user-biosyslit</setSpec>
    </header>
    <header>
      <identifier>oai:zenodo.org:257866</identifier>
      <datestamp>2017-01-23T13:33:13Z</datestamp>
      <setSpec>user-biosyslit</setSpec>
    </header>
    <header>
      <identifier>oai:zenodo.org:257876</identifier>
      <datestamp>2017-01-23T13:45:57Z</datestamp>
      <setSpec>user-biosyslit</setSpec>
    </header>
    <header>
      <identifier>oai:zenodo.org:258362</identifier>
      <datestamp>2017-01-23T21:29:57Z</datestamp>
      <setSpec>user-biosyslit</setSpec>
    </header>
    <header>
      <identifier>oai:zenodo.org:259647</identifier>
      <datestamp>2017-01-25T14:39:40Z</datestamp>
      <setSpec>user-biosyslit</setSpec>
    </header>
    <header>
      <identifier>oai:zenodo.org:258786</identifier>
      <datestamp>2017-01-24T04:54:47Z</datestamp>
      <setSpec>user-biosyslit</setSpec>
    </header>
    <header>
      <identifier>oai:zenodo.org:258332</identifier>
      <datestamp>2017-01-23T21:00:15Z</datestamp>
      <setSpec>user-biosyslit</setSpec>
    </header>
    <header>
      <identifier>oai:zenodo.org:259035</identifier>
      <datestamp>2017-01-24T07:31:21Z</datestamp>
      <setSpec>user-biosyslit</setSpec>
    </header>
    <header>
      <identifier>oai:zenodo.org:259065</identifier>
      <datestamp>2017-01-24T07:37:45Z</datestamp>
      <setSpec>user-biosyslit</setSpec>
    </header>
    <header>
      <identifier>oai:zenodo.org:258886</identifier>
      <datestamp>2017-01-24T05:51:12Z</datestamp>
      <setSpec>user-biosyslit</setSpec>
    </header>
    <header>
      <identifier>oai:zenodo.org:259790</identifier>
      <datestamp>2017-01-25T16:09:53Z</datestamp>
      <setSpec>user-biosyslit</setSpec>
    </header>
    <header>
      <identifier>oai:zenodo.org:259114</identifier>
      <datestamp>2017-01-24T07:49:46Z</datestamp>
      <setSpec>user-biosyslit</setSpec>
    </header>
    <header>
      <identifier>oai:zenodo.org:254794</identifier>
      <datestamp>2017-01-21T03:03:08Z</datestamp>
      <setSpec>user-biosyslit</setSpec>
    </header>
    <header>
      <identifier>oai:zenodo.org:256139</identifier>
      <datestamp>2017-01-22T04:59:52Z</datestamp>
      <setSpec>user-biosyslit</setSpec>
    </header>
    <header>
      <identifier>oai:zenodo.org:254793</identifier>
      <datestamp>2017-01-21T03:03:05Z</datestamp>
      <setSpec>user-biosyslit</setSpec>
    </header>
    <header>
      <identifier>oai:zenodo.org:254935</identifier>
      <datestamp>2017-01-21T05:13:47Z</datestamp>
      <setSpec>user-biosyslit</setSpec>
    </header>
    <header>
      <identifier>oai:zenodo.org:255623</identifier>
      <datestamp>2017-01-21T17:26:46Z</datestamp>
      <setSpec>user-biosyslit</setSpec>
    </header>
    <header>
      <identifier>oai:zenodo.org:254854</identifier>
      <datestamp>2017-01-21T03:59:55Z</datestamp>
      <setSpec>user-biosyslit</setSpec>
    </header>
    <header>
      <identifier>oai:zenodo.org:254877</identifier>
      <datestamp>2017-01-21T04:21:36Z</datestamp>
      <setSpec>user-biosyslit</setSpec>
    </header>
    <header>
      <identifier>oai:zenodo.org:254938</identifier>
      <datestamp>2017-01-21T05:13:59Z</datestamp>
      <setSpec>user-biosyslit</setSpec>
    </header>
    <header>
      <identifier>oai:zenodo.org:254957</identifier>
      <datestamp>2017-01-21T05:31:12Z</datestamp>
      <setSpec>user-biosyslit</setSpec>
    </header>
    <header>
      <identifier>oai:zenodo.org:255455</identifier>
      <datestamp>2017-01-21T13:28:56Z</datestamp>
      <setSpec>user-biosyslit</setSpec>
    </header>
    <header>
      <identifier>oai:zenodo.org:255539</identifier>
      <datestamp>2017-01-21T15:59:41Z</datestamp>
      <setSpec>user-biosyslit</setSpec>
    </header>
    <header>
      <identifier>oai:zenodo.org:255583</identifier>
      <datestamp>2017-01-21T15:58:24Z</datestamp>
      <setSpec>user-biosyslit</setSpec>
    </header>
    <header>
      <identifier>oai:zenodo.org:255026</identifier>
      <datestamp>2017-01-21T06:45:06Z</datestamp>
      <setSpec>user-biosyslit</setSpec>
    </header>
    <header>
      <identifier>oai:zenodo.org:255861</identifier>
      <datestamp>2017-01-21T23:07:02Z</datestamp>
      <setSpec>user-biosyslit</setSpec>
    </header>
    <header>
      <identifier>oai:zenodo.org:254960</identifier>
      <datestamp>2017-01-21T05:31:19Z</datestamp>
      <setSpec>user-biosyslit</setSpec>
    </header>
    <header>
      <identifier>oai:zenodo.org:254988</identifier>
      <datestamp>2017-01-21T06:14:48Z</datestamp>
      <setSpec>user-biosyslit</setSpec>
    </header>
    <header>
      <identifier>oai:zenodo.org:255192</identifier>
      <datestamp>2017-01-21T09:10:28Z</datestamp>
      <setSpec>user-biosyslit</setSpec>
    </header>
    <header>
      <identifier>oai:zenodo.org:255155</identifier>
      <datestamp>2017-01-21T08:33:20Z</datestamp>
      <setSpec>user-biosyslit</setSpec>
    </header>
    <header>
      <identifier>oai:zenodo.org:256076</identifier>
      <datestamp>2017-01-22T03:25:42Z</datestamp>
      <setSpec>user-biosyslit</setSpec>
    </header>
    <header>
      <identifier>oai:zenodo.org:255163</identifier>
      <datestamp>2017-01-21T08:33:59Z</datestamp>
      <setSpec>user-biosyslit</setSpec>
    </header>
    <header>
      <identifier>oai:zenodo.org:255178</identifier>
      <datestamp>2017-01-21T08:45:55Z</datestamp>
      <setSpec>user-biosyslit</setSpec>
    </header>
    <header>
      <identifier>oai:zenodo.org:255474</identifier>
      <datestamp>2017-01-21T13:45:56Z</datestamp>
      <setSpec>user-biosyslit</setSpec>
    </header>
    <header>
      <identifier>oai:zenodo.org:255462</identifier>
      <datestamp>2017-01-21T13:32:50Z</datestamp>
      <setSpec>user-biosyslit</setSpec>
    </header>
    <header>
      <identifier>oai:zenodo.org:255592</identifier>
      <datestamp>2017-01-21T15:58:43Z</datestamp>
      <setSpec>user-biosyslit</setSpec>
    </header>
    <header>
      <identifier>oai:zenodo.org:256579</identifier>
      <datestamp>2017-01-22T17:57:21Z</datestamp>
      <setSpec>user-biosyslit</setSpec>
    </header>
    <header>
      <identifier>oai:zenodo.org:256065</identifier>
      <datestamp>2017-01-22T03:08:03Z</datestamp>
      <setSpec>user-biosyslit</setSpec>
    </header>
    <header>
      <identifier>oai:zenodo.org:255803</identifier>
      <datestamp>2017-01-21T22:20:12Z</datestamp>
      <setSpec>user-biosyslit</setSpec>
    </header>
    <header>
      <identifier>oai:zenodo.org:256256</identifier>
      <datestamp>2017-01-22T09:57:16Z</datestamp>
      <setSpec>user-biosyslit</setSpec>
    </header>
    <header>
      <identifier>oai:zenodo.org:255480</identifier>
      <datestamp>2017-01-21T13:58:38Z</datestamp>
      <setSpec>user-biosyslit</setSpec>
    </header>
    <header>
      <identifier>oai:zenodo.org:256389</identifier>
      <datestamp>2017-01-22T13:52:06Z</datestamp>
      <setSpec>user-biosyslit</setSpec>
    </header>
    <header>
      <identifier>oai:zenodo.org:256824</identifier>
      <datestamp>2017-01-22T21:18:16Z</datestamp>
      <setSpec>user-biosyslit</setSpec>
    </header>
    <header>
      <identifier>oai:zenodo.org:257206</identifier>
      <datestamp>2017-01-23T03:40:26Z</datestamp>
      <setSpec>user-biosyslit</setSpec>
    </header>
    <header>
      <identifier>oai:zenodo.org:255874</identifier>
      <datestamp>2017-01-21T23:07:39Z</datestamp>
      <setSpec>user-biosyslit</setSpec>
    </header>
    <header>
      <identifier>oai:zenodo.org:255801</identifier>
      <datestamp>2017-01-21T22:20:30Z</datestamp>
      <setSpec>user-biosyslit</setSpec>
    </header>
    <resumptionToken expirationDate="2017-08-31T15:43:46Z" cursor="11700" completeListSize="77796">.eJyNysEKgjAYAOB3-c8S2_7QErqIJh5S1lLUS5iKWNPCFemkd69L5zp_3wyqriuwyQIpsdgKmbkkiGiZBqhyuEp5bD8MZZrIspdx4SePfZeQjDVW6Kpx52YY6guJOqrFlrOUrsa4JRM_xPdM78cEg6cgnrXTfArPwedVGPkyP_k3EfeOFKwaIo9Pgjoix_L76J9P_3yu2oABt6KpwaZ0bcDlWQyNAnt-vd6RCFEw.DIm_ug.NlH6cJ20yqk-XEleeczMdhUW0mI</resumptionToken>
  </ListIdentifiers>
</OAI-PMH>
