<?xml version='1.0' encoding='UTF-8'?>
<?xml-stylesheet type="text/xsl" href="/static/xsl/oai2.v1.0.xsl"?>
<OAI-PMH xmlns="http://www.openarchives.org/OAI/2.0/" xmlns:xsi="http://www.w3.org/2001/XMLSchema-instance" xsi:schemaLocation="http://www.openarchives.org/OAI/2.0/ http://www.openarchives.org/OAI/2.0/OAI-PMH.xsd">
  <responseDate>2017-08-31T15:46:06Z</responseDate>
  <request verb="ListIdentifiers" resumptionToken=".eJyNyssOQ0AUANB_uWtp5pHUI-lGqFggTAndNIqIGiqmDUb8e226btfnrCCqqgQDHSimOjnqGGmU6EQjVAFRjE_Ob83uUKQJL3oe507yjroEZaRWfUvMnpVRX7Yo6LBk55CkWJvjBi3hJX5lMpoT6k4M2aonw8V_uPsraeDw690ZWNybnJFyDOxwYdhkV1p8H_7zyZ_PEidQYMjrCgyV6Aq0Uz7WAox12z7Oa1F0.DInAvg.ziZZV-QQO1L0o5-DuFlBYnlc_Qk">https://zenodo.org/oai2d</request>
  <ListIdentifiers>
    <header>
      <identifier>oai:zenodo.org:283720</identifier>
      <datestamp>2017-02-09T09:31:56Z</datestamp>
      <setSpec>user-biosyslit</setSpec>
    </header>
    <header>
      <identifier>oai:zenodo.org:252474</identifier>
      <datestamp>2017-01-19T14:46:58Z</datestamp>
      <setSpec>user-biosyslit</setSpec>
    </header>
    <header>
      <identifier>oai:zenodo.org:252480</identifier>
      <datestamp>2017-01-19T14:47:20Z</datestamp>
      <setSpec>user-biosyslit</setSpec>
    </header>
    <header>
      <identifier>oai:zenodo.org:252479</identifier>
      <datestamp>2017-01-19T14:47:17Z</datestamp>
      <setSpec>user-biosyslit</setSpec>
    </header>
    <header>
      <identifier>oai:zenodo.org:283721</identifier>
      <datestamp>2017-02-09T09:31:58Z</datestamp>
      <setSpec>user-biosyslit</setSpec>
    </header>
    <header>
      <identifier>oai:zenodo.org:283723</identifier>
      <datestamp>2017-02-09T09:32:02Z</datestamp>
      <setSpec>user-biosyslit</setSpec>
    </header>
    <header>
      <identifier>oai:zenodo.org:283724</identifier>
      <datestamp>2017-02-09T09:32:04Z</datestamp>
      <setSpec>user-biosyslit</setSpec>
    </header>
    <header>
      <identifier>oai:zenodo.org:283726</identifier>
      <datestamp>2017-02-09T09:32:09Z</datestamp>
      <setSpec>user-biosyslit</setSpec>
    </header>
    <header>
      <identifier>oai:zenodo.org:283727</identifier>
      <datestamp>2017-02-09T09:32:11Z</datestamp>
      <setSpec>user-biosyslit</setSpec>
    </header>
    <header>
      <identifier>oai:zenodo.org:288239</identifier>
      <datestamp>2017-02-09T20:27:30Z</datestamp>
      <setSpec>user-biosyslit</setSpec>
    </header>
    <header>
      <identifier>oai:zenodo.org:288240</identifier>
      <datestamp>2017-02-09T20:27:32Z</datestamp>
      <setSpec>user-biosyslit</setSpec>
    </header>
    <header>
      <identifier>oai:zenodo.org:288241</identifier>
      <datestamp>2017-02-09T20:27:34Z</datestamp>
      <setSpec>user-biosyslit</setSpec>
    </header>
    <header>
      <identifier>oai:zenodo.org:288244</identifier>
      <datestamp>2017-02-09T20:27:41Z</datestamp>
      <setSpec>user-biosyslit</setSpec>
    </header>
    <header>
      <identifier>oai:zenodo.org:288283</identifier>
      <datestamp>2017-02-09T20:29:22Z</datestamp>
      <setSpec>user-biosyslit</setSpec>
    </header>
    <header>
      <identifier>oai:zenodo.org:288288</identifier>
      <datestamp>2017-02-09T20:29:36Z</datestamp>
      <setSpec>user-biosyslit</setSpec>
    </header>
    <header>
      <identifier>oai:zenodo.org:288285</identifier>
      <datestamp>2017-02-09T20:29:28Z</datestamp>
      <setSpec>user-biosyslit</setSpec>
    </header>
    <header>
      <identifier>oai:zenodo.org:250298</identifier>
      <datestamp>2017-01-18T08:15:05Z</datestamp>
      <setSpec>user-biosyslit</setSpec>
    </header>
    <header>
      <identifier>oai:zenodo.org:250306</identifier>
      <datestamp>2017-01-18T08:15:41Z</datestamp>
      <setSpec>user-biosyslit</setSpec>
    </header>
    <header>
      <identifier>oai:zenodo.org:267038</identifier>
      <datestamp>2017-02-01T18:30:51Z</datestamp>
      <setSpec>user-biosyslit</setSpec>
    </header>
    <header>
      <identifier>oai:zenodo.org:250308</identifier>
      <datestamp>2017-01-18T08:15:47Z</datestamp>
      <setSpec>user-biosyslit</setSpec>
    </header>
    <header>
      <identifier>oai:zenodo.org:250299</identifier>
      <datestamp>2017-01-18T08:15:10Z</datestamp>
      <setSpec>user-biosyslit</setSpec>
    </header>
    <header>
      <identifier>oai:zenodo.org:250305</identifier>
      <datestamp>2017-01-18T08:15:36Z</datestamp>
      <setSpec>user-biosyslit</setSpec>
    </header>
    <header>
      <identifier>oai:zenodo.org:250304</identifier>
      <datestamp>2017-01-18T08:15:32Z</datestamp>
      <setSpec>user-biosyslit</setSpec>
    </header>
    <header>
      <identifier>oai:zenodo.org:250303</identifier>
      <datestamp>2017-01-18T08:15:29Z</datestamp>
      <setSpec>user-biosyslit</setSpec>
    </header>
    <header>
      <identifier>oai:zenodo.org:267034</identifier>
      <datestamp>2017-02-01T18:30:42Z</datestamp>
      <setSpec>user-biosyslit</setSpec>
    </header>
    <header>
      <identifier>oai:zenodo.org:233787</identifier>
      <datestamp>2017-01-08T11:46:31Z</datestamp>
      <setSpec>user-biosyslit</setSpec>
    </header>
    <header>
      <identifier>oai:zenodo.org:233789</identifier>
      <datestamp>2017-01-08T11:46:38Z</datestamp>
      <setSpec>user-biosyslit</setSpec>
    </header>
    <header>
      <identifier>oai:zenodo.org:250310</identifier>
      <datestamp>2017-01-18T08:15:55Z</datestamp>
      <setSpec>user-biosyslit</setSpec>
    </header>
    <header>
      <identifier>oai:zenodo.org:233791</identifier>
      <datestamp>2017-01-08T11:46:46Z</datestamp>
      <setSpec>user-biosyslit</setSpec>
    </header>
    <header>
      <identifier>oai:zenodo.org:250311</identifier>
      <datestamp>2017-01-18T08:15:59Z</datestamp>
      <setSpec>user-biosyslit</setSpec>
    </header>
    <header>
      <identifier>oai:zenodo.org:283102</identifier>
      <datestamp>2017-02-09T08:09:20Z</datestamp>
      <setSpec>user-biosyslit</setSpec>
    </header>
    <header>
      <identifier>oai:zenodo.org:283101</identifier>
      <datestamp>2017-02-09T08:09:18Z</datestamp>
      <setSpec>user-biosyslit</setSpec>
    </header>
    <header>
      <identifier>oai:zenodo.org:233553</identifier>
      <datestamp>2017-01-08T08:32:04Z</datestamp>
      <setSpec>user-biosyslit</setSpec>
    </header>
    <header>
      <identifier>oai:zenodo.org:233561</identifier>
      <datestamp>2017-01-08T08:32:31Z</datestamp>
      <setSpec>user-biosyslit</setSpec>
    </header>
    <header>
      <identifier>oai:zenodo.org:233559</identifier>
      <datestamp>2017-01-08T08:32:24Z</datestamp>
      <setSpec>user-biosyslit</setSpec>
    </header>
    <header>
      <identifier>oai:zenodo.org:233567</identifier>
      <datestamp>2017-01-08T08:32:50Z</datestamp>
      <setSpec>user-biosyslit</setSpec>
    </header>
    <header>
      <identifier>oai:zenodo.org:233560</identifier>
      <datestamp>2017-01-08T08:32:27Z</datestamp>
      <setSpec>user-biosyslit</setSpec>
    </header>
    <header>
      <identifier>oai:zenodo.org:233556</identifier>
      <datestamp>2017-01-08T08:32:15Z</datestamp>
      <setSpec>user-biosyslit</setSpec>
    </header>
    <header>
      <identifier>oai:zenodo.org:233566</identifier>
      <datestamp>2017-01-08T08:32:47Z</datestamp>
      <setSpec>user-biosyslit</setSpec>
    </header>
    <header>
      <identifier>oai:zenodo.org:233565</identifier>
      <datestamp>2017-01-08T08:32:43Z</datestamp>
      <setSpec>user-biosyslit</setSpec>
    </header>
    <header>
      <identifier>oai:zenodo.org:283104</identifier>
      <datestamp>2017-02-09T08:09:25Z</datestamp>
      <setSpec>user-biosyslit</setSpec>
    </header>
    <header>
      <identifier>oai:zenodo.org:233552</identifier>
      <datestamp>2017-01-08T08:34:19Z</datestamp>
      <setSpec>user-biosyslit</setSpec>
    </header>
    <header>
      <identifier>oai:zenodo.org:281682</identifier>
      <datestamp>2017-02-09T05:45:39Z</datestamp>
      <setSpec>user-biosyslit</setSpec>
    </header>
    <header>
      <identifier>oai:zenodo.org:281701</identifier>
      <datestamp>2017-02-09T05:45:35Z</datestamp>
      <setSpec>user-biosyslit</setSpec>
    </header>
    <header>
      <identifier>oai:zenodo.org:281702</identifier>
      <datestamp>2017-02-09T05:45:37Z</datestamp>
      <setSpec>user-biosyslit</setSpec>
    </header>
    <header>
      <identifier>oai:zenodo.org:281695</identifier>
      <datestamp>2017-02-09T05:45:22Z</datestamp>
      <setSpec>user-biosyslit</setSpec>
    </header>
    <header>
      <identifier>oai:zenodo.org:281696</identifier>
      <datestamp>2017-02-09T05:45:24Z</datestamp>
      <setSpec>user-biosyslit</setSpec>
    </header>
    <header>
      <identifier>oai:zenodo.org:281699</identifier>
      <datestamp>2017-02-09T05:45:31Z</datestamp>
      <setSpec>user-biosyslit</setSpec>
    </header>
    <header>
      <identifier>oai:zenodo.org:278771</identifier>
      <datestamp>2017-02-08T23:51:49Z</datestamp>
      <setSpec>user-biosyslit</setSpec>
    </header>
    <header>
      <identifier>oai:zenodo.org:245247</identifier>
      <datestamp>2017-01-15T10:46:46Z</datestamp>
      <setSpec>user-biosyslit</setSpec>
    </header>
    <header>
      <identifier>oai:zenodo.org:245250</identifier>
      <datestamp>2017-01-15T10:46:53Z</datestamp>
      <setSpec>user-biosyslit</setSpec>
    </header>
    <header>
      <identifier>oai:zenodo.org:245249</identifier>
      <datestamp>2017-01-15T10:46:51Z</datestamp>
      <setSpec>user-biosyslit</setSpec>
    </header>
    <header>
      <identifier>oai:zenodo.org:245248</identifier>
      <datestamp>2017-01-15T10:46:49Z</datestamp>
      <setSpec>user-biosyslit</setSpec>
    </header>
    <header>
      <identifier>oai:zenodo.org:245251</identifier>
      <datestamp>2017-01-15T10:46:56Z</datestamp>
      <setSpec>user-biosyslit</setSpec>
    </header>
    <header>
      <identifier>oai:zenodo.org:274044</identifier>
      <datestamp>2017-02-08T11:58:13Z</datestamp>
      <setSpec>user-biosyslit</setSpec>
    </header>
    <header>
      <identifier>oai:zenodo.org:273407</identifier>
      <datestamp>2017-02-08T09:12:10Z</datestamp>
      <setSpec>user-biosyslit</setSpec>
    </header>
    <header>
      <identifier>oai:zenodo.org:274047</identifier>
      <datestamp>2017-02-08T11:58:07Z</datestamp>
      <setSpec>user-biosyslit</setSpec>
    </header>
    <header>
      <identifier>oai:zenodo.org:274045</identifier>
      <datestamp>2017-02-08T11:57:59Z</datestamp>
      <setSpec>user-biosyslit</setSpec>
    </header>
    <header>
      <identifier>oai:zenodo.org:274048</identifier>
      <datestamp>2017-02-08T11:58:10Z</datestamp>
      <setSpec>user-biosyslit</setSpec>
    </header>
    <header>
      <identifier>oai:zenodo.org:283539</identifier>
      <datestamp>2017-02-09T09:09:35Z</datestamp>
      <setSpec>user-biosyslit</setSpec>
    </header>
    <header>
      <identifier>oai:zenodo.org:244624</identifier>
      <datestamp>2017-01-15T00:14:22Z</datestamp>
      <setSpec>user-biosyslit</setSpec>
    </header>
    <header>
      <identifier>oai:zenodo.org:237944</identifier>
      <datestamp>2017-01-10T22:40:55Z</datestamp>
      <setSpec>user-biosyslit</setSpec>
    </header>
    <header>
      <identifier>oai:zenodo.org:237946</identifier>
      <datestamp>2017-01-10T22:41:23Z</datestamp>
      <setSpec>user-biosyslit</setSpec>
    </header>
    <header>
      <identifier>oai:zenodo.org:237942</identifier>
      <datestamp>2017-01-10T22:40:50Z</datestamp>
      <setSpec>user-biosyslit</setSpec>
    </header>
    <header>
      <identifier>oai:zenodo.org:246876</identifier>
      <datestamp>2017-01-16T09:31:05Z</datestamp>
      <setSpec>user-biosyslit</setSpec>
    </header>
    <header>
      <identifier>oai:zenodo.org:246880</identifier>
      <datestamp>2017-01-16T09:31:23Z</datestamp>
      <setSpec>user-biosyslit</setSpec>
    </header>
    <header>
      <identifier>oai:zenodo.org:246872</identifier>
      <datestamp>2017-01-16T09:30:44Z</datestamp>
      <setSpec>user-biosyslit</setSpec>
    </header>
    <header>
      <identifier>oai:zenodo.org:239459</identifier>
      <datestamp>2017-01-11T20:59:51Z</datestamp>
      <setSpec>user-biosyslit</setSpec>
    </header>
    <header>
      <identifier>oai:zenodo.org:239461</identifier>
      <datestamp>2017-01-11T20:59:58Z</datestamp>
      <setSpec>user-biosyslit</setSpec>
    </header>
    <header>
      <identifier>oai:zenodo.org:239458</identifier>
      <datestamp>2017-01-11T20:59:47Z</datestamp>
      <setSpec>user-biosyslit</setSpec>
    </header>
    <header>
      <identifier>oai:zenodo.org:239456</identifier>
      <datestamp>2017-01-11T20:59:40Z</datestamp>
      <setSpec>user-biosyslit</setSpec>
    </header>
    <header>
      <identifier>oai:zenodo.org:239455</identifier>
      <datestamp>2017-01-11T20:59:36Z</datestamp>
      <setSpec>user-biosyslit</setSpec>
    </header>
    <header>
      <identifier>oai:zenodo.org:277537</identifier>
      <datestamp>2017-02-08T21:20:31Z</datestamp>
      <setSpec>user-biosyslit</setSpec>
    </header>
    <header>
      <identifier>oai:zenodo.org:282750</identifier>
      <datestamp>2017-02-09T07:34:01Z</datestamp>
      <setSpec>user-biosyslit</setSpec>
    </header>
    <header>
      <identifier>oai:zenodo.org:244629</identifier>
      <datestamp>2017-01-15T00:14:01Z</datestamp>
      <setSpec>user-biosyslit</setSpec>
    </header>
    <header>
      <identifier>oai:zenodo.org:274453</identifier>
      <datestamp>2017-02-08T13:17:12Z</datestamp>
      <setSpec>user-biosyslit</setSpec>
    </header>
    <header>
      <identifier>oai:zenodo.org:244899</identifier>
      <datestamp>2017-01-15T04:50:42Z</datestamp>
      <setSpec>user-biosyslit</setSpec>
    </header>
    <header>
      <identifier>oai:zenodo.org:244628</identifier>
      <datestamp>2017-01-15T00:13:55Z</datestamp>
      <setSpec>user-biosyslit</setSpec>
    </header>
    <header>
      <identifier>oai:zenodo.org:283842</identifier>
      <datestamp>2017-02-09T09:55:47Z</datestamp>
      <setSpec>user-biosyslit</setSpec>
    </header>
    <header>
      <identifier>oai:zenodo.org:244626</identifier>
      <datestamp>2017-01-15T00:13:40Z</datestamp>
      <setSpec>user-biosyslit</setSpec>
    </header>
    <header>
      <identifier>oai:zenodo.org:244630</identifier>
      <datestamp>2017-01-15T00:14:06Z</datestamp>
      <setSpec>user-biosyslit</setSpec>
    </header>
    <header>
      <identifier>oai:zenodo.org:244627</identifier>
      <datestamp>2017-01-15T00:13:47Z</datestamp>
      <setSpec>user-biosyslit</setSpec>
    </header>
    <header>
      <identifier>oai:zenodo.org:250485</identifier>
      <datestamp>2017-01-18T10:53:19Z</datestamp>
      <setSpec>user-biosyslit</setSpec>
    </header>
    <header>
      <identifier>oai:zenodo.org:283207</identifier>
      <datestamp>2017-02-09T08:22:09Z</datestamp>
      <setSpec>user-biosyslit</setSpec>
    </header>
    <header>
      <identifier>oai:zenodo.org:250486</identifier>
      <datestamp>2017-01-18T10:53:00Z</datestamp>
      <setSpec>user-biosyslit</setSpec>
    </header>
    <header>
      <identifier>oai:zenodo.org:250487</identifier>
      <datestamp>2017-01-18T10:53:04Z</datestamp>
      <setSpec>user-biosyslit</setSpec>
    </header>
    <header>
      <identifier>oai:zenodo.org:250491</identifier>
      <datestamp>2017-01-18T10:53:18Z</datestamp>
      <setSpec>user-biosyslit</setSpec>
    </header>
    <header>
      <identifier>oai:zenodo.org:233810</identifier>
      <datestamp>2017-01-08T12:02:19Z</datestamp>
      <setSpec>user-biosyslit</setSpec>
    </header>
    <header>
      <identifier>oai:zenodo.org:257887</identifier>
      <datestamp>2017-01-23T13:56:13Z</datestamp>
      <setSpec>user-biosyslit</setSpec>
    </header>
    <header>
      <identifier>oai:zenodo.org:257888</identifier>
      <datestamp>2017-01-23T13:56:16Z</datestamp>
      <setSpec>user-biosyslit</setSpec>
    </header>
    <header>
      <identifier>oai:zenodo.org:257890</identifier>
      <datestamp>2017-01-23T13:56:22Z</datestamp>
      <setSpec>user-biosyslit</setSpec>
    </header>
    <header>
      <identifier>oai:zenodo.org:257892</identifier>
      <datestamp>2017-01-23T13:56:28Z</datestamp>
      <setSpec>user-biosyslit</setSpec>
    </header>
    <header>
      <identifier>oai:zenodo.org:257893</identifier>
      <datestamp>2017-01-23T13:56:30Z</datestamp>
      <setSpec>user-biosyslit</setSpec>
    </header>
    <header>
      <identifier>oai:zenodo.org:257895</identifier>
      <datestamp>2017-01-23T13:56:36Z</datestamp>
      <setSpec>user-biosyslit</setSpec>
    </header>
    <header>
      <identifier>oai:zenodo.org:257891</identifier>
      <datestamp>2017-01-23T13:56:25Z</datestamp>
      <setSpec>user-biosyslit</setSpec>
    </header>
    <header>
      <identifier>oai:zenodo.org:257918</identifier>
      <datestamp>2017-01-23T13:57:41Z</datestamp>
      <setSpec>user-biosyslit</setSpec>
    </header>
    <header>
      <identifier>oai:zenodo.org:274309</identifier>
      <datestamp>2017-02-08T12:48:41Z</datestamp>
      <setSpec>user-biosyslit</setSpec>
    </header>
    <header>
      <identifier>oai:zenodo.org:257914</identifier>
      <datestamp>2017-01-23T13:57:31Z</datestamp>
      <setSpec>user-biosyslit</setSpec>
    </header>
    <header>
      <identifier>oai:zenodo.org:243559</identifier>
      <datestamp>2017-01-14T07:32:52Z</datestamp>
      <setSpec>user-biosyslit</setSpec>
    </header>
    <header>
      <identifier>oai:zenodo.org:243562</identifier>
      <datestamp>2017-01-14T07:33:05Z</datestamp>
      <setSpec>user-biosyslit</setSpec>
    </header>
    <resumptionToken expirationDate="2017-08-31T15:48:06Z" cursor="72800" completeListSize="77796">.eJyNyk0LgjAYAOD_8p4l9qFMhC6iSQcVWxvqJUxFqvWBK9KJ_z0vnev8PBPotm3AQyvCsONg5NqUMOIybFug6_6u1OG0ONS5VPVNiSqSr91VooJ0LAn0EAcFTcwFpVds-CYjOXYHcUJjthfPwuwGSbdvjkIWm2xMztvlNTSNVHmMHlzcfMVJ06dhNnLs85LW34f_fObnC_QaLHhUXQseo8iCy7vqOw3eNM8fyjtRaA.DInAvg.xQ3Bqin93tIc7_ZFm3Ms4Xhp74U</resumptionToken>
  </ListIdentifiers>
</OAI-PMH>
