<?xml version='1.0' encoding='UTF-8'?>
<?xml-stylesheet type="text/xsl" href="/static/xsl/oai2.v1.0.xsl"?>
<OAI-PMH xmlns="http://www.openarchives.org/OAI/2.0/" xmlns:xsi="http://www.w3.org/2001/XMLSchema-instance" xsi:schemaLocation="http://www.openarchives.org/OAI/2.0/ http://www.openarchives.org/OAI/2.0/OAI-PMH.xsd">
  <responseDate>2017-08-31T14:25:54Z</responseDate>
  <request verb="ListIdentifiers" resumptionToken=".eJwVzdFOgzAYQOF36TUxbcHBuNsCkhl_CCstgxuDgDApiFADdNm7O69P8p0bmuu6Qi5-et45O4optkzTpJblGGgup28p36-PjMqLkOUgeRGI33MvcEYbO_TmFbyMhAnXUU80e4nphTgrv-ItTrjK9HkV5mlh2LdBxwvohkZ9ZUaBzD-CkfHhKBmtpsiPN0aOLDdLG5IDfXgEvkZV4paHcv8J4qSg88lbCrgU1Qa-OkYaMHhghck4VLod03T94fJ1ybkaCt360KmY_7_0wUYGGoumRi7ZG6hbiqmZkXu73_8AZCBSAw.DImtwQ.wkXESGynmifyihmzLPQnkeBaJlg">https://zenodo.org/oai2d</request>
  <ListIdentifiers>
    <header>
      <identifier>oai:zenodo.org:156972</identifier>
      <datestamp>2016-09-28T02:04:16Z</datestamp>
      <setSpec>user-biosyslit</setSpec>
    </header>
    <header>
      <identifier>oai:zenodo.org:156969</identifier>
      <datestamp>2016-09-28T02:02:28Z</datestamp>
      <setSpec>user-biosyslit</setSpec>
    </header>
    <header>
      <identifier>oai:zenodo.org:157065</identifier>
      <datestamp>2016-12-20T02:00:24Z</datestamp>
      <setSpec>user-biosyslit</setSpec>
    </header>
    <header>
      <identifier>oai:zenodo.org:157496</identifier>
      <datestamp>2016-12-20T02:00:25Z</datestamp>
      <setSpec>user-biosyslit</setSpec>
    </header>
    <header>
      <identifier>oai:zenodo.org:157206</identifier>
      <datestamp>2016-12-20T02:00:19Z</datestamp>
      <setSpec>user-biosyslit</setSpec>
    </header>
    <header>
      <identifier>oai:zenodo.org:157096</identifier>
      <datestamp>2016-12-20T02:00:25Z</datestamp>
      <setSpec>user-biosyslit</setSpec>
    </header>
    <header>
      <identifier>oai:zenodo.org:157435</identifier>
      <datestamp>2016-12-20T02:00:25Z</datestamp>
      <setSpec>user-biosyslit</setSpec>
    </header>
    <header>
      <identifier>oai:zenodo.org:156526</identifier>
      <datestamp>2016-12-20T02:00:24Z</datestamp>
      <setSpec>user-biosyslit</setSpec>
    </header>
    <header>
      <identifier>oai:zenodo.org:157432</identifier>
      <datestamp>2016-12-20T02:00:25Z</datestamp>
      <setSpec>user-biosyslit</setSpec>
    </header>
    <header>
      <identifier>oai:zenodo.org:220285</identifier>
      <datestamp>2016-12-23T02:10:41Z</datestamp>
      <setSpec>user-biosyslit</setSpec>
    </header>
    <header>
      <identifier>oai:zenodo.org:183231</identifier>
      <datestamp>2016-12-20T02:00:51Z</datestamp>
      <setSpec>user-biosyslit</setSpec>
    </header>
    <header>
      <identifier>oai:zenodo.org:157603</identifier>
      <datestamp>2016-12-20T02:00:09Z</datestamp>
      <setSpec>user-biosyslit</setSpec>
    </header>
    <header>
      <identifier>oai:zenodo.org:157719</identifier>
      <datestamp>2016-12-20T02:00:25Z</datestamp>
      <setSpec>user-biosyslit</setSpec>
    </header>
    <header>
      <identifier>oai:zenodo.org:182948</identifier>
      <datestamp>2016-12-20T02:01:02Z</datestamp>
      <setSpec>user-biosyslit</setSpec>
    </header>
    <header>
      <identifier>oai:zenodo.org:157804</identifier>
      <datestamp>2016-12-20T02:00:43Z</datestamp>
      <setSpec>user-biosyslit</setSpec>
    </header>
    <header>
      <identifier>oai:zenodo.org:182710</identifier>
      <datestamp>2016-12-20T02:00:56Z</datestamp>
      <setSpec>user-biosyslit</setSpec>
    </header>
    <header>
      <identifier>oai:zenodo.org:182828</identifier>
      <datestamp>2016-12-20T02:00:55Z</datestamp>
      <setSpec>user-biosyslit</setSpec>
    </header>
    <header>
      <identifier>oai:zenodo.org:282431</identifier>
      <datestamp>2017-02-09T06:59:39Z</datestamp>
      <setSpec>user-biosyslit</setSpec>
    </header>
    <header>
      <identifier>oai:zenodo.org:220234</identifier>
      <datestamp>2016-12-23T01:59:18Z</datestamp>
      <setSpec>user-biosyslit</setSpec>
    </header>
    <header>
      <identifier>oai:zenodo.org:220559</identifier>
      <datestamp>2016-12-23T04:06:22Z</datestamp>
      <setSpec>user-biosyslit</setSpec>
    </header>
    <header>
      <identifier>oai:zenodo.org:220321</identifier>
      <datestamp>2016-12-23T02:23:16Z</datestamp>
      <setSpec>user-biosyslit</setSpec>
    </header>
    <header>
      <identifier>oai:zenodo.org:195629</identifier>
      <datestamp>2016-12-20T02:01:53Z</datestamp>
      <setSpec>user-biosyslit</setSpec>
    </header>
    <header>
      <identifier>oai:zenodo.org:155415</identifier>
      <datestamp>2016-12-20T02:00:39Z</datestamp>
      <setSpec>user-biosyslit</setSpec>
    </header>
    <header>
      <identifier>oai:zenodo.org:155630</identifier>
      <datestamp>2016-12-20T02:00:25Z</datestamp>
      <setSpec>user-biosyslit</setSpec>
    </header>
    <header>
      <identifier>oai:zenodo.org:155507</identifier>
      <datestamp>2016-12-20T02:00:38Z</datestamp>
      <setSpec>user-biosyslit</setSpec>
    </header>
    <header>
      <identifier>oai:zenodo.org:155590</identifier>
      <datestamp>2016-09-27T13:15:37Z</datestamp>
      <setSpec>user-biosyslit</setSpec>
    </header>
    <header>
      <identifier>oai:zenodo.org:280440</identifier>
      <datestamp>2017-02-09T03:24:48Z</datestamp>
      <setSpec>user-biosyslit</setSpec>
    </header>
    <header>
      <identifier>oai:zenodo.org:579335</identifier>
      <datestamp>2017-05-18T07:02:50Z</datestamp>
      <setSpec>openaire</setSpec>
      <setSpec>user-biosyslit</setSpec>
    </header>
    <header>
      <identifier>oai:zenodo.org:280956</identifier>
      <datestamp>2017-02-09T04:28:45Z</datestamp>
      <setSpec>user-biosyslit</setSpec>
    </header>
    <header>
      <identifier>oai:zenodo.org:155903</identifier>
      <datestamp>2016-12-20T02:00:23Z</datestamp>
      <setSpec>user-biosyslit</setSpec>
    </header>
    <header>
      <identifier>oai:zenodo.org:281165</identifier>
      <datestamp>2017-02-09T04:50:00Z</datestamp>
      <setSpec>user-biosyslit</setSpec>
    </header>
    <header>
      <identifier>oai:zenodo.org:280654</identifier>
      <datestamp>2017-02-09T03:49:34Z</datestamp>
      <setSpec>user-biosyslit</setSpec>
    </header>
    <header>
      <identifier>oai:zenodo.org:155621</identifier>
      <datestamp>2016-12-20T02:00:25Z</datestamp>
      <setSpec>user-biosyslit</setSpec>
    </header>
    <header>
      <identifier>oai:zenodo.org:156238</identifier>
      <datestamp>2016-09-27T21:37:47Z</datestamp>
      <setSpec>user-biosyslit</setSpec>
    </header>
    <header>
      <identifier>oai:zenodo.org:580989</identifier>
      <datestamp>2017-05-18T09:05:26Z</datestamp>
      <setSpec>user-biosyslit</setSpec>
    </header>
    <header>
      <identifier>oai:zenodo.org:156505</identifier>
      <datestamp>2016-12-20T02:00:20Z</datestamp>
      <setSpec>user-biosyslit</setSpec>
    </header>
    <header>
      <identifier>oai:zenodo.org:280532</identifier>
      <datestamp>2017-02-09T03:35:11Z</datestamp>
      <setSpec>user-biosyslit</setSpec>
    </header>
    <header>
      <identifier>oai:zenodo.org:579446</identifier>
      <datestamp>2017-05-18T06:59:31Z</datestamp>
      <setSpec>openaire</setSpec>
      <setSpec>user-biosyslit</setSpec>
    </header>
    <header>
      <identifier>oai:zenodo.org:579439</identifier>
      <datestamp>2017-05-18T06:59:40Z</datestamp>
      <setSpec>openaire</setSpec>
      <setSpec>user-biosyslit</setSpec>
    </header>
    <header>
      <identifier>oai:zenodo.org:579496</identifier>
      <datestamp>2017-05-18T06:55:48Z</datestamp>
      <setSpec>openaire</setSpec>
      <setSpec>user-biosyslit</setSpec>
    </header>
    <header>
      <identifier>oai:zenodo.org:580910</identifier>
      <datestamp>2017-05-18T07:59:54Z</datestamp>
      <setSpec>user-biosyslit</setSpec>
    </header>
    <header>
      <identifier>oai:zenodo.org:156162</identifier>
      <datestamp>2016-12-20T02:00:25Z</datestamp>
      <setSpec>user-biosyslit</setSpec>
    </header>
    <header>
      <identifier>oai:zenodo.org:280882</identifier>
      <datestamp>2017-02-09T04:17:00Z</datestamp>
      <setSpec>user-biosyslit</setSpec>
    </header>
    <header>
      <identifier>oai:zenodo.org:155785</identifier>
      <datestamp>2016-12-20T02:00:39Z</datestamp>
      <setSpec>user-biosyslit</setSpec>
    </header>
    <header>
      <identifier>oai:zenodo.org:280513</identifier>
      <datestamp>2017-02-09T03:32:36Z</datestamp>
      <setSpec>user-biosyslit</setSpec>
    </header>
    <header>
      <identifier>oai:zenodo.org:281267</identifier>
      <datestamp>2017-02-09T05:02:54Z</datestamp>
      <setSpec>user-biosyslit</setSpec>
    </header>
    <header>
      <identifier>oai:zenodo.org:580162</identifier>
      <datestamp>2017-05-16T12:52:52Z</datestamp>
      <setSpec>user-biosyslit</setSpec>
    </header>
    <header>
      <identifier>oai:zenodo.org:182424</identifier>
      <datestamp>2016-12-20T02:00:51Z</datestamp>
      <setSpec>user-biosyslit</setSpec>
    </header>
    <header>
      <identifier>oai:zenodo.org:220148</identifier>
      <datestamp>2016-12-23T01:23:03Z</datestamp>
      <setSpec>user-biosyslit</setSpec>
    </header>
    <header>
      <identifier>oai:zenodo.org:157024</identifier>
      <datestamp>2016-12-20T02:00:25Z</datestamp>
      <setSpec>user-biosyslit</setSpec>
    </header>
    <header>
      <identifier>oai:zenodo.org:156772</identifier>
      <datestamp>2016-12-20T02:00:24Z</datestamp>
      <setSpec>user-biosyslit</setSpec>
    </header>
    <header>
      <identifier>oai:zenodo.org:156836</identifier>
      <datestamp>2016-12-20T02:00:20Z</datestamp>
      <setSpec>user-biosyslit</setSpec>
    </header>
    <header>
      <identifier>oai:zenodo.org:281030</identifier>
      <datestamp>2017-02-09T04:34:49Z</datestamp>
      <setSpec>user-biosyslit</setSpec>
    </header>
    <header>
      <identifier>oai:zenodo.org:281777</identifier>
      <datestamp>2017-02-09T05:54:09Z</datestamp>
      <setSpec>user-biosyslit</setSpec>
    </header>
    <header>
      <identifier>oai:zenodo.org:156624</identifier>
      <datestamp>2016-12-20T02:00:43Z</datestamp>
      <setSpec>user-biosyslit</setSpec>
    </header>
    <header>
      <identifier>oai:zenodo.org:580990</identifier>
      <datestamp>2017-05-18T09:05:29Z</datestamp>
      <setSpec>user-biosyslit</setSpec>
    </header>
    <header>
      <identifier>oai:zenodo.org:281219</identifier>
      <datestamp>2017-02-09T04:57:18Z</datestamp>
      <setSpec>user-biosyslit</setSpec>
    </header>
    <header>
      <identifier>oai:zenodo.org:156986</identifier>
      <datestamp>2016-12-20T02:00:24Z</datestamp>
      <setSpec>user-biosyslit</setSpec>
    </header>
    <header>
      <identifier>oai:zenodo.org:156762</identifier>
      <datestamp>2016-12-20T02:00:24Z</datestamp>
      <setSpec>user-biosyslit</setSpec>
    </header>
    <header>
      <identifier>oai:zenodo.org:156549</identifier>
      <datestamp>2016-12-20T02:00:43Z</datestamp>
      <setSpec>user-biosyslit</setSpec>
    </header>
    <header>
      <identifier>oai:zenodo.org:157348</identifier>
      <datestamp>2016-09-28T12:21:43Z</datestamp>
      <setSpec>user-biosyslit</setSpec>
    </header>
    <header>
      <identifier>oai:zenodo.org:157617</identifier>
      <datestamp>2016-12-20T02:00:25Z</datestamp>
      <setSpec>user-biosyslit</setSpec>
    </header>
    <header>
      <identifier>oai:zenodo.org:157207</identifier>
      <datestamp>2016-12-20T02:00:19Z</datestamp>
      <setSpec>user-biosyslit</setSpec>
    </header>
    <header>
      <identifier>oai:zenodo.org:182645</identifier>
      <datestamp>2016-12-20T02:00:57Z</datestamp>
      <setSpec>user-biosyslit</setSpec>
    </header>
    <header>
      <identifier>oai:zenodo.org:157465</identifier>
      <datestamp>2016-12-20T02:00:43Z</datestamp>
      <setSpec>user-biosyslit</setSpec>
    </header>
    <header>
      <identifier>oai:zenodo.org:157742</identifier>
      <datestamp>2016-12-20T02:00:23Z</datestamp>
      <setSpec>user-biosyslit</setSpec>
    </header>
    <header>
      <identifier>oai:zenodo.org:220003</identifier>
      <datestamp>2016-12-23T00:11:10Z</datestamp>
      <setSpec>user-biosyslit</setSpec>
    </header>
    <header>
      <identifier>oai:zenodo.org:157468</identifier>
      <datestamp>2016-12-20T02:00:43Z</datestamp>
      <setSpec>user-biosyslit</setSpec>
    </header>
    <header>
      <identifier>oai:zenodo.org:220396</identifier>
      <datestamp>2016-12-23T02:49:26Z</datestamp>
      <setSpec>user-biosyslit</setSpec>
    </header>
    <header>
      <identifier>oai:zenodo.org:220099</identifier>
      <datestamp>2016-12-23T00:59:41Z</datestamp>
      <setSpec>user-biosyslit</setSpec>
    </header>
    <header>
      <identifier>oai:zenodo.org:157916</identifier>
      <datestamp>2016-12-20T02:01:11Z</datestamp>
      <setSpec>user-biosyslit</setSpec>
    </header>
    <header>
      <identifier>oai:zenodo.org:157409</identifier>
      <datestamp>2016-12-20T02:00:24Z</datestamp>
      <setSpec>user-biosyslit</setSpec>
    </header>
    <header>
      <identifier>oai:zenodo.org:157596</identifier>
      <datestamp>2016-12-20T02:00:23Z</datestamp>
      <setSpec>user-biosyslit</setSpec>
    </header>
    <header>
      <identifier>oai:zenodo.org:157921</identifier>
      <datestamp>2016-09-28T18:13:42Z</datestamp>
      <setSpec>user-biosyslit</setSpec>
    </header>
    <header>
      <identifier>oai:zenodo.org:282023</identifier>
      <datestamp>2017-02-09T06:20:00Z</datestamp>
      <setSpec>user-biosyslit</setSpec>
    </header>
    <header>
      <identifier>oai:zenodo.org:158300</identifier>
      <datestamp>2016-12-20T02:00:25Z</datestamp>
      <setSpec>user-biosyslit</setSpec>
    </header>
    <header>
      <identifier>oai:zenodo.org:581329</identifier>
      <datestamp>2017-05-19T09:51:42Z</datestamp>
      <setSpec>user-biosyslit</setSpec>
    </header>
    <header>
      <identifier>oai:zenodo.org:158099</identifier>
      <datestamp>2016-12-20T02:00:43Z</datestamp>
      <setSpec>user-biosyslit</setSpec>
    </header>
    <header>
      <identifier>oai:zenodo.org:158338</identifier>
      <datestamp>2016-12-20T02:00:24Z</datestamp>
      <setSpec>user-biosyslit</setSpec>
    </header>
    <header>
      <identifier>oai:zenodo.org:220199</identifier>
      <datestamp>2016-12-23T01:43:51Z</datestamp>
      <setSpec>user-biosyslit</setSpec>
    </header>
    <header>
      <identifier>oai:zenodo.org:281438</identifier>
      <datestamp>2017-02-09T05:18:58Z</datestamp>
      <setSpec>user-biosyslit</setSpec>
    </header>
    <header>
      <identifier>oai:zenodo.org:158208</identifier>
      <datestamp>2016-12-20T02:00:44Z</datestamp>
      <setSpec>user-biosyslit</setSpec>
    </header>
    <header>
      <identifier>oai:zenodo.org:158176</identifier>
      <datestamp>2016-12-20T02:00:25Z</datestamp>
      <setSpec>user-biosyslit</setSpec>
    </header>
    <header>
      <identifier>oai:zenodo.org:158037</identifier>
      <datestamp>2016-12-20T02:01:04Z</datestamp>
      <setSpec>user-biosyslit</setSpec>
    </header>
    <header>
      <identifier>oai:zenodo.org:158207</identifier>
      <datestamp>2016-12-20T02:00:44Z</datestamp>
      <setSpec>user-biosyslit</setSpec>
    </header>
    <header>
      <identifier>oai:zenodo.org:158192</identifier>
      <datestamp>2016-12-20T02:00:43Z</datestamp>
      <setSpec>user-biosyslit</setSpec>
    </header>
    <header>
      <identifier>oai:zenodo.org:158415</identifier>
      <datestamp>2016-12-20T02:00:48Z</datestamp>
      <setSpec>user-biosyslit</setSpec>
    </header>
    <header>
      <identifier>oai:zenodo.org:158450</identifier>
      <datestamp>2016-12-20T02:01:10Z</datestamp>
      <setSpec>user-biosyslit</setSpec>
    </header>
    <header>
      <identifier>oai:zenodo.org:158811</identifier>
      <datestamp>2016-09-29T04:38:36Z</datestamp>
      <setSpec>user-biosyslit</setSpec>
    </header>
    <header>
      <identifier>oai:zenodo.org:158402</identifier>
      <datestamp>2016-12-20T02:00:24Z</datestamp>
      <setSpec>user-biosyslit</setSpec>
    </header>
    <header>
      <identifier>oai:zenodo.org:283057</identifier>
      <datestamp>2017-02-09T08:04:51Z</datestamp>
      <setSpec>user-biosyslit</setSpec>
    </header>
    <header>
      <identifier>oai:zenodo.org:158489</identifier>
      <datestamp>2016-12-20T02:00:25Z</datestamp>
      <setSpec>user-biosyslit</setSpec>
    </header>
    <header>
      <identifier>oai:zenodo.org:158672</identifier>
      <datestamp>2016-12-20T02:00:43Z</datestamp>
      <setSpec>user-biosyslit</setSpec>
    </header>
    <header>
      <identifier>oai:zenodo.org:158608</identifier>
      <datestamp>2016-12-20T02:00:24Z</datestamp>
      <setSpec>user-biosyslit</setSpec>
    </header>
    <header>
      <identifier>oai:zenodo.org:183059</identifier>
      <datestamp>2016-12-20T02:00:51Z</datestamp>
      <setSpec>user-biosyslit</setSpec>
    </header>
    <header>
      <identifier>oai:zenodo.org:158295</identifier>
      <datestamp>2016-12-20T02:00:43Z</datestamp>
      <setSpec>user-biosyslit</setSpec>
    </header>
    <header>
      <identifier>oai:zenodo.org:158847</identifier>
      <datestamp>2016-12-20T02:01:09Z</datestamp>
      <setSpec>user-biosyslit</setSpec>
    </header>
    <header>
      <identifier>oai:zenodo.org:183203</identifier>
      <datestamp>2016-12-20T02:00:55Z</datestamp>
      <setSpec>user-biosyslit</setSpec>
    </header>
    <header>
      <identifier>oai:zenodo.org:183537</identifier>
      <datestamp>2016-12-20T02:00:56Z</datestamp>
      <setSpec>user-biosyslit</setSpec>
    </header>
    <header>
      <identifier>oai:zenodo.org:158878</identifier>
      <datestamp>2016-12-20T02:00:24Z</datestamp>
      <setSpec>user-biosyslit</setSpec>
    </header>
    <resumptionToken expirationDate="2017-08-31T14:27:54Z" cursor="1800" completeListSize="142507">.eJwVzdFuREAYQOF3mWtpZgZl3a1Q2aY_sWPGctMoytZQRYPZ7Lt3e32S79zQXNcVcvCToevY1A3TtG1CDs_Y0NBcTt9Svl8fHZUXIctB8iIQv-de4Iw2VujNG3gZCROuop4o9hLTC7E3fsV7nPAlU-dN6KeVYd8CFa-gGhr1lR4FMv8IRsYHVzJaTZEf74y4LNdLC5IjfXgEvsalxC0P5eETxGmBzidvKeBSVDv4ixspwOCBESbjUKl2TNPth8vXNefLUKjWh26J-f9LHS2kobFoauRQrKFuLaZmRs7tfv8DnGxSNA.DImt8g.DUjS2wamA7QK9NcPXSuT1Hf6p98</resumptionToken>
  </ListIdentifiers>
</OAI-PMH>
