<?xml version='1.0' encoding='UTF-8'?>
<?xml-stylesheet type="text/xsl" href="/static/xsl/oai2.v1.0.xsl"?>
<OAI-PMH xmlns="http://www.openarchives.org/OAI/2.0/" xmlns:xsi="http://www.w3.org/2001/XMLSchema-instance" xsi:schemaLocation="http://www.openarchives.org/OAI/2.0/ http://www.openarchives.org/OAI/2.0/OAI-PMH.xsd">
  <responseDate>2017-08-31T15:41:38Z</responseDate>
  <request verb="ListIdentifiers" resumptionToken=".eJyNyjEPQ0AYgOH_8s3S3DlxSLo0WjEgXEl1aRQRdVRcG5z477V0bqd3eJ8FRFkWYKEd0ghFuko1U99iYkMBkQ9Pzm_19iG_JDzveJw5yTtqE5SqFfVtMXl2SnzZoKDFkp1C9YKNKa7RHJ7jVyqjKSHuyNCRejKc_Ye7uYIEDr_enZ7F3YEztRiCYzgzfGBXkn8d_tPJn84We1Cgz6oSLJMq0IzZUAmwlnX9AIGsUUU.DIm_sg.SWqkZ_O0IGPd8HPo1KK52g3XRl8">https://zenodo.org/oai2d</request>
  <ListIdentifiers>
    <header>
      <identifier>oai:zenodo.org:257593</identifier>
      <datestamp>2017-01-23T10:50:25Z</datestamp>
      <setSpec>user-biosyslit</setSpec>
    </header>
    <header>
      <identifier>oai:zenodo.org:258515</identifier>
      <datestamp>2017-01-24T00:01:54Z</datestamp>
      <setSpec>user-biosyslit</setSpec>
    </header>
    <header>
      <identifier>oai:zenodo.org:257195</identifier>
      <datestamp>2017-01-23T03:25:59Z</datestamp>
      <setSpec>user-biosyslit</setSpec>
    </header>
    <header>
      <identifier>oai:zenodo.org:257881</identifier>
      <datestamp>2017-01-23T13:49:14Z</datestamp>
      <setSpec>user-biosyslit</setSpec>
    </header>
    <header>
      <identifier>oai:zenodo.org:257699</identifier>
      <datestamp>2017-01-23T12:30:47Z</datestamp>
      <setSpec>user-biosyslit</setSpec>
    </header>
    <header>
      <identifier>oai:zenodo.org:257586</identifier>
      <datestamp>2017-01-23T10:50:10Z</datestamp>
      <setSpec>user-biosyslit</setSpec>
    </header>
    <header>
      <identifier>oai:zenodo.org:257407</identifier>
      <datestamp>2017-01-23T06:31:22Z</datestamp>
      <setSpec>user-biosyslit</setSpec>
    </header>
    <header>
      <identifier>oai:zenodo.org:258671</identifier>
      <datestamp>2017-01-24T02:53:30Z</datestamp>
      <setSpec>user-biosyslit</setSpec>
    </header>
    <header>
      <identifier>oai:zenodo.org:257800</identifier>
      <datestamp>2017-01-23T13:29:49Z</datestamp>
      <setSpec>user-biosyslit</setSpec>
    </header>
    <header>
      <identifier>oai:zenodo.org:257742</identifier>
      <datestamp>2017-01-23T12:56:30Z</datestamp>
      <setSpec>user-biosyslit</setSpec>
    </header>
    <header>
      <identifier>oai:zenodo.org:258717</identifier>
      <datestamp>2017-01-24T03:27:02Z</datestamp>
      <setSpec>user-biosyslit</setSpec>
    </header>
    <header>
      <identifier>oai:zenodo.org:259277</identifier>
      <datestamp>2017-01-24T09:35:41Z</datestamp>
      <setSpec>user-biosyslit</setSpec>
    </header>
    <header>
      <identifier>oai:zenodo.org:258366</identifier>
      <datestamp>2017-01-23T21:41:17Z</datestamp>
      <setSpec>user-biosyslit</setSpec>
    </header>
    <header>
      <identifier>oai:zenodo.org:258350</identifier>
      <datestamp>2017-01-23T21:21:57Z</datestamp>
      <setSpec>user-biosyslit</setSpec>
    </header>
    <header>
      <identifier>oai:zenodo.org:258767</identifier>
      <datestamp>2017-01-24T04:53:36Z</datestamp>
      <setSpec>user-biosyslit</setSpec>
    </header>
    <header>
      <identifier>oai:zenodo.org:259120</identifier>
      <datestamp>2017-01-24T07:53:06Z</datestamp>
      <setSpec>user-biosyslit</setSpec>
    </header>
    <header>
      <identifier>oai:zenodo.org:258164</identifier>
      <datestamp>2017-01-23T17:34:30Z</datestamp>
      <setSpec>user-biosyslit</setSpec>
    </header>
    <header>
      <identifier>oai:zenodo.org:258300</identifier>
      <datestamp>2017-01-23T20:26:10Z</datestamp>
      <setSpec>user-biosyslit</setSpec>
    </header>
    <header>
      <identifier>oai:zenodo.org:259049</identifier>
      <datestamp>2017-01-24T07:32:01Z</datestamp>
      <setSpec>user-biosyslit</setSpec>
    </header>
    <header>
      <identifier>oai:zenodo.org:258488</identifier>
      <datestamp>2017-01-23T23:40:52Z</datestamp>
      <setSpec>user-biosyslit</setSpec>
    </header>
    <header>
      <identifier>oai:zenodo.org:258858</identifier>
      <datestamp>2017-01-24T05:41:57Z</datestamp>
      <setSpec>user-biosyslit</setSpec>
    </header>
    <header>
      <identifier>oai:zenodo.org:258694</identifier>
      <datestamp>2017-01-24T03:04:59Z</datestamp>
      <setSpec>user-biosyslit</setSpec>
    </header>
    <header>
      <identifier>oai:zenodo.org:258542</identifier>
      <datestamp>2017-01-24T00:05:03Z</datestamp>
      <setSpec>user-biosyslit</setSpec>
    </header>
    <header>
      <identifier>oai:zenodo.org:258826</identifier>
      <datestamp>2017-01-24T05:22:53Z</datestamp>
      <setSpec>user-biosyslit</setSpec>
    </header>
    <header>
      <identifier>oai:zenodo.org:258775</identifier>
      <datestamp>2017-01-24T04:54:08Z</datestamp>
      <setSpec>user-biosyslit</setSpec>
    </header>
    <header>
      <identifier>oai:zenodo.org:258385</identifier>
      <datestamp>2017-01-23T21:51:23Z</datestamp>
      <setSpec>user-biosyslit</setSpec>
    </header>
    <header>
      <identifier>oai:zenodo.org:258983</identifier>
      <datestamp>2017-01-24T07:14:06Z</datestamp>
      <setSpec>user-biosyslit</setSpec>
    </header>
    <header>
      <identifier>oai:zenodo.org:259161</identifier>
      <datestamp>2017-01-24T08:20:47Z</datestamp>
      <setSpec>user-biosyslit</setSpec>
    </header>
    <header>
      <identifier>oai:zenodo.org:259710</identifier>
      <datestamp>2017-01-25T15:27:19Z</datestamp>
      <setSpec>user-biosyslit</setSpec>
    </header>
    <header>
      <identifier>oai:zenodo.org:258733</identifier>
      <datestamp>2017-01-24T04:11:30Z</datestamp>
      <setSpec>user-biosyslit</setSpec>
    </header>
    <header>
      <identifier>oai:zenodo.org:259108</identifier>
      <datestamp>2017-01-24T07:49:31Z</datestamp>
      <setSpec>user-biosyslit</setSpec>
    </header>
    <header>
      <identifier>oai:zenodo.org:259295</identifier>
      <datestamp>2017-01-24T09:50:10Z</datestamp>
      <setSpec>user-biosyslit</setSpec>
    </header>
    <header>
      <identifier>oai:zenodo.org:258750</identifier>
      <datestamp>2017-01-24T04:21:31Z</datestamp>
      <setSpec>user-biosyslit</setSpec>
    </header>
    <header>
      <identifier>oai:zenodo.org:260383</identifier>
      <datestamp>2017-02-01T12:49:05Z</datestamp>
      <setSpec>openaire</setSpec>
      <setSpec>user-biosyslit</setSpec>
    </header>
    <header>
      <identifier>oai:zenodo.org:259663</identifier>
      <datestamp>2017-01-25T15:01:46Z</datestamp>
      <setSpec>user-biosyslit</setSpec>
    </header>
    <header>
      <identifier>oai:zenodo.org:276393</identifier>
      <datestamp>2017-02-08T18:46:04Z</datestamp>
      <setSpec>user-biosyslit</setSpec>
    </header>
    <header>
      <identifier>oai:zenodo.org:259286</identifier>
      <datestamp>2017-01-24T09:49:47Z</datestamp>
      <setSpec>user-biosyslit</setSpec>
    </header>
    <header>
      <identifier>oai:zenodo.org:273794</identifier>
      <datestamp>2017-02-08T10:47:13Z</datestamp>
      <setSpec>user-biosyslit</setSpec>
    </header>
    <header>
      <identifier>oai:zenodo.org:259883</identifier>
      <datestamp>2017-01-25T17:11:12Z</datestamp>
      <setSpec>user-biosyslit</setSpec>
    </header>
    <header>
      <identifier>oai:zenodo.org:273485</identifier>
      <datestamp>2017-02-08T09:30:12Z</datestamp>
      <setSpec>user-biosyslit</setSpec>
    </header>
    <header>
      <identifier>oai:zenodo.org:259859</identifier>
      <datestamp>2017-01-25T17:00:27Z</datestamp>
      <setSpec>user-biosyslit</setSpec>
    </header>
    <header>
      <identifier>oai:zenodo.org:260454</identifier>
      <datestamp>2017-01-27T20:45:59Z</datestamp>
      <setSpec>user-biosyslit</setSpec>
    </header>
    <header>
      <identifier>oai:zenodo.org:259746</identifier>
      <datestamp>2017-01-25T15:39:44Z</datestamp>
      <setSpec>user-biosyslit</setSpec>
    </header>
    <header>
      <identifier>oai:zenodo.org:260939</identifier>
      <datestamp>2017-01-28T02:41:20Z</datestamp>
      <setSpec>user-biosyslit</setSpec>
    </header>
    <header>
      <identifier>oai:zenodo.org:260578</identifier>
      <datestamp>2017-01-27T22:07:19Z</datestamp>
      <setSpec>user-biosyslit</setSpec>
    </header>
    <header>
      <identifier>oai:zenodo.org:259863</identifier>
      <datestamp>2017-01-25T17:00:37Z</datestamp>
      <setSpec>user-biosyslit</setSpec>
    </header>
    <header>
      <identifier>oai:zenodo.org:274652</identifier>
      <datestamp>2017-02-08T13:54:19Z</datestamp>
      <setSpec>user-biosyslit</setSpec>
    </header>
    <header>
      <identifier>oai:zenodo.org:261224</identifier>
      <datestamp>2017-01-28T06:52:50Z</datestamp>
      <setSpec>user-biosyslit</setSpec>
    </header>
    <header>
      <identifier>oai:zenodo.org:261297</identifier>
      <datestamp>2017-01-28T07:43:28Z</datestamp>
      <setSpec>user-biosyslit</setSpec>
    </header>
    <header>
      <identifier>oai:zenodo.org:259936</identifier>
      <datestamp>2017-01-25T17:46:25Z</datestamp>
      <setSpec>user-biosyslit</setSpec>
    </header>
    <header>
      <identifier>oai:zenodo.org:254945</identifier>
      <datestamp>2017-01-21T05:30:31Z</datestamp>
      <setSpec>user-biosyslit</setSpec>
    </header>
    <header>
      <identifier>oai:zenodo.org:256498</identifier>
      <datestamp>2017-01-22T16:02:34Z</datestamp>
      <setSpec>user-biosyslit</setSpec>
    </header>
    <header>
      <identifier>oai:zenodo.org:255035</identifier>
      <datestamp>2017-01-21T06:50:20Z</datestamp>
      <setSpec>user-biosyslit</setSpec>
    </header>
    <header>
      <identifier>oai:zenodo.org:255151</identifier>
      <datestamp>2017-01-21T08:27:47Z</datestamp>
      <setSpec>user-biosyslit</setSpec>
    </header>
    <header>
      <identifier>oai:zenodo.org:255556</identifier>
      <datestamp>2017-01-21T15:57:24Z</datestamp>
      <setSpec>user-biosyslit</setSpec>
    </header>
    <header>
      <identifier>oai:zenodo.org:255930</identifier>
      <datestamp>2017-01-22T00:16:14Z</datestamp>
      <setSpec>user-biosyslit</setSpec>
    </header>
    <header>
      <identifier>oai:zenodo.org:254962</identifier>
      <datestamp>2017-01-21T05:31:25Z</datestamp>
      <setSpec>user-biosyslit</setSpec>
    </header>
    <header>
      <identifier>oai:zenodo.org:255351</identifier>
      <datestamp>2017-01-21T12:23:23Z</datestamp>
      <setSpec>user-biosyslit</setSpec>
    </header>
    <header>
      <identifier>oai:zenodo.org:255064</identifier>
      <datestamp>2017-01-21T07:26:58Z</datestamp>
      <setSpec>user-biosyslit</setSpec>
    </header>
    <header>
      <identifier>oai:zenodo.org:256762</identifier>
      <datestamp>2017-01-22T20:24:11Z</datestamp>
      <setSpec>user-biosyslit</setSpec>
    </header>
    <header>
      <identifier>oai:zenodo.org:255465</identifier>
      <datestamp>2017-01-21T13:37:56Z</datestamp>
      <setSpec>user-biosyslit</setSpec>
    </header>
    <header>
      <identifier>oai:zenodo.org:256444</identifier>
      <datestamp>2017-01-22T14:37:45Z</datestamp>
      <setSpec>user-biosyslit</setSpec>
    </header>
    <header>
      <identifier>oai:zenodo.org:255165</identifier>
      <datestamp>2017-01-21T08:39:58Z</datestamp>
      <setSpec>user-biosyslit</setSpec>
    </header>
    <header>
      <identifier>oai:zenodo.org:255233</identifier>
      <datestamp>2017-01-21T10:00:40Z</datestamp>
      <setSpec>user-biosyslit</setSpec>
    </header>
    <header>
      <identifier>oai:zenodo.org:256465</identifier>
      <datestamp>2017-01-22T14:48:10Z</datestamp>
      <setSpec>user-biosyslit</setSpec>
    </header>
    <header>
      <identifier>oai:zenodo.org:255568</identifier>
      <datestamp>2017-01-21T15:57:50Z</datestamp>
      <setSpec>user-biosyslit</setSpec>
    </header>
    <header>
      <identifier>oai:zenodo.org:256160</identifier>
      <datestamp>2017-01-22T05:27:00Z</datestamp>
      <setSpec>user-biosyslit</setSpec>
    </header>
    <header>
      <identifier>oai:zenodo.org:256936</identifier>
      <datestamp>2017-01-22T23:05:02Z</datestamp>
      <setSpec>user-biosyslit</setSpec>
    </header>
    <header>
      <identifier>oai:zenodo.org:256242</identifier>
      <datestamp>2017-01-22T07:56:25Z</datestamp>
      <setSpec>user-biosyslit</setSpec>
    </header>
    <header>
      <identifier>oai:zenodo.org:256005</identifier>
      <datestamp>2017-01-22T02:07:52Z</datestamp>
      <setSpec>user-biosyslit</setSpec>
    </header>
    <header>
      <identifier>oai:zenodo.org:256137</identifier>
      <datestamp>2017-01-22T04:57:54Z</datestamp>
      <setSpec>user-biosyslit</setSpec>
    </header>
    <header>
      <identifier>oai:zenodo.org:256510</identifier>
      <datestamp>2017-01-22T16:22:00Z</datestamp>
      <setSpec>user-biosyslit</setSpec>
    </header>
    <header>
      <identifier>oai:zenodo.org:257947</identifier>
      <datestamp>2017-01-23T14:42:59Z</datestamp>
      <setSpec>user-biosyslit</setSpec>
    </header>
    <header>
      <identifier>oai:zenodo.org:256442</identifier>
      <datestamp>2017-01-22T14:37:38Z</datestamp>
      <setSpec>user-biosyslit</setSpec>
    </header>
    <header>
      <identifier>oai:zenodo.org:256166</identifier>
      <datestamp>2017-01-22T06:04:00Z</datestamp>
      <setSpec>user-biosyslit</setSpec>
    </header>
    <header>
      <identifier>oai:zenodo.org:256830</identifier>
      <datestamp>2017-01-22T21:18:33Z</datestamp>
      <setSpec>user-biosyslit</setSpec>
    </header>
    <header>
      <identifier>oai:zenodo.org:257079</identifier>
      <datestamp>2017-01-23T00:42:26Z</datestamp>
      <setSpec>user-biosyslit</setSpec>
    </header>
    <header>
      <identifier>oai:zenodo.org:256832</identifier>
      <datestamp>2017-01-22T21:18:39Z</datestamp>
      <setSpec>user-biosyslit</setSpec>
    </header>
    <header>
      <identifier>oai:zenodo.org:257213</identifier>
      <datestamp>2017-01-23T03:40:44Z</datestamp>
      <setSpec>user-biosyslit</setSpec>
    </header>
    <header>
      <identifier>oai:zenodo.org:256996</identifier>
      <datestamp>2017-01-22T23:40:15Z</datestamp>
      <setSpec>user-biosyslit</setSpec>
    </header>
    <header>
      <identifier>oai:zenodo.org:273350</identifier>
      <datestamp>2017-02-08T09:04:30Z</datestamp>
      <setSpec>user-biosyslit</setSpec>
    </header>
    <header>
      <identifier>oai:zenodo.org:256995</identifier>
      <datestamp>2017-01-22T23:40:12Z</datestamp>
      <setSpec>user-biosyslit</setSpec>
    </header>
    <header>
      <identifier>oai:zenodo.org:256838</identifier>
      <datestamp>2017-01-22T21:18:57Z</datestamp>
      <setSpec>user-biosyslit</setSpec>
    </header>
    <header>
      <identifier>oai:zenodo.org:256461</identifier>
      <datestamp>2017-01-22T14:48:24Z</datestamp>
      <setSpec>user-biosyslit</setSpec>
    </header>
    <header>
      <identifier>oai:zenodo.org:256643</identifier>
      <datestamp>2017-01-22T18:53:14Z</datestamp>
      <setSpec>user-biosyslit</setSpec>
    </header>
    <header>
      <identifier>oai:zenodo.org:258149</identifier>
      <datestamp>2017-01-23T16:46:54Z</datestamp>
      <setSpec>user-biosyslit</setSpec>
    </header>
    <header>
      <identifier>oai:zenodo.org:257308</identifier>
      <datestamp>2017-01-23T05:07:46Z</datestamp>
      <setSpec>user-biosyslit</setSpec>
    </header>
    <header>
      <identifier>oai:zenodo.org:256628</identifier>
      <datestamp>2017-01-22T18:37:02Z</datestamp>
      <setSpec>user-biosyslit</setSpec>
    </header>
    <header>
      <identifier>oai:zenodo.org:256767</identifier>
      <datestamp>2017-01-22T20:24:30Z</datestamp>
      <setSpec>user-biosyslit</setSpec>
    </header>
    <header>
      <identifier>oai:zenodo.org:257082</identifier>
      <datestamp>2017-01-23T00:42:37Z</datestamp>
      <setSpec>user-biosyslit</setSpec>
    </header>
    <header>
      <identifier>oai:zenodo.org:257084</identifier>
      <datestamp>2017-01-23T00:42:43Z</datestamp>
      <setSpec>user-biosyslit</setSpec>
    </header>
    <header>
      <identifier>oai:zenodo.org:256900</identifier>
      <datestamp>2017-01-22T22:31:08Z</datestamp>
      <setSpec>user-biosyslit</setSpec>
    </header>
    <header>
      <identifier>oai:zenodo.org:257217</identifier>
      <datestamp>2017-01-23T03:40:54Z</datestamp>
      <setSpec>user-biosyslit</setSpec>
    </header>
    <header>
      <identifier>oai:zenodo.org:256834</identifier>
      <datestamp>2017-01-22T21:18:45Z</datestamp>
      <setSpec>user-biosyslit</setSpec>
    </header>
    <header>
      <identifier>oai:zenodo.org:257534</identifier>
      <datestamp>2017-01-23T09:07:11Z</datestamp>
      <setSpec>user-biosyslit</setSpec>
    </header>
    <header>
      <identifier>oai:zenodo.org:257852</identifier>
      <datestamp>2017-01-23T13:32:22Z</datestamp>
      <setSpec>user-biosyslit</setSpec>
    </header>
    <header>
      <identifier>oai:zenodo.org:257413</identifier>
      <datestamp>2017-01-23T06:36:47Z</datestamp>
      <setSpec>user-biosyslit</setSpec>
    </header>
    <header>
      <identifier>oai:zenodo.org:257320</identifier>
      <datestamp>2017-01-23T05:17:51Z</datestamp>
      <setSpec>user-biosyslit</setSpec>
    </header>
    <header>
      <identifier>oai:zenodo.org:259180</identifier>
      <datestamp>2017-01-24T08:34:32Z</datestamp>
      <setSpec>user-biosyslit</setSpec>
    </header>
    <header>
      <identifier>oai:zenodo.org:258309</identifier>
      <datestamp>2017-01-23T20:34:38Z</datestamp>
      <setSpec>user-biosyslit</setSpec>
    </header>
    <resumptionToken expirationDate="2017-08-31T15:43:38Z" cursor="9600" completeListSize="77796">.eJyNyssKgkAYQOF3-dcSM07lBdqIJi5UdFLSTZiKmKOJU6gjvntuWhec3fkW4GVZgI52WMUIqdp-60gOGpaA58OTsVu9bcivMcs7FmV2_A7bGCVypXgmn1wzIZ5okN9iQc-BfMXqFNVoDi7RKxHhFBNnpMhSXBHM3sPZXEF8m6V3u6dRZzAqF4NvBTPFBk1J_nX4Tyd-OpOfQII-q0rQNVWCZsyGioO-rOsHUvBRGA.DIm_sg.TRloFGNhXoSXqQAKtIayGmQYLMc</resumptionToken>
  </ListIdentifiers>
</OAI-PMH>
