<?xml version='1.0' encoding='UTF-8'?>
<?xml-stylesheet type="text/xsl" href="/static/xsl/oai2.v1.0.xsl"?>
<OAI-PMH xmlns="http://www.openarchives.org/OAI/2.0/" xmlns:xsi="http://www.w3.org/2001/XMLSchema-instance" xsi:schemaLocation="http://www.openarchives.org/OAI/2.0/ http://www.openarchives.org/OAI/2.0/OAI-PMH.xsd">
  <responseDate>2017-08-31T15:41:57Z</responseDate>
  <request verb="ListIdentifiers" resumptionToken=".eJyNysEOQzAYAOB3-c-ytMpskl2EiQNCR8ZlMURMmegWVLz7XHbezt-3AC_LAnS0UxUFKyo6alhTCSayBDwfnozd6o0hv8Ys71iU2fE7bGOUyJXmmXxyzYR4okF-iwU9B_IVH6aoRnNwiV6JCKeYOCNFluaKYPYezvYK4tssvds9jTqDUbkYfCuYKTZoSvLvw38-8fOZ_AQS9FlVgo6VvQTNmA0VB31Z1w-UGFEz.DIm_xQ.OQ6SL44zT-52Hh7bb_9akaBOImE">https://zenodo.org/oai2d</request>
  <ListIdentifiers>
    <header>
      <identifier>oai:zenodo.org:287302</identifier>
      <datestamp>2017-02-09T18:00:25Z</datestamp>
      <setSpec>user-biosyslit</setSpec>
    </header>
    <header>
      <identifier>oai:zenodo.org:288733</identifier>
      <datestamp>2017-02-09T21:49:42Z</datestamp>
      <setSpec>user-biosyslit</setSpec>
    </header>
    <header>
      <identifier>oai:zenodo.org:288508</identifier>
      <datestamp>2017-02-09T21:04:49Z</datestamp>
      <setSpec>user-biosyslit</setSpec>
    </header>
    <header>
      <identifier>oai:zenodo.org:288721</identifier>
      <datestamp>2017-02-09T21:49:08Z</datestamp>
      <setSpec>user-biosyslit</setSpec>
    </header>
    <header>
      <identifier>oai:zenodo.org:287854</identifier>
      <datestamp>2017-02-09T19:26:31Z</datestamp>
      <setSpec>user-biosyslit</setSpec>
    </header>
    <header>
      <identifier>oai:zenodo.org:289495</identifier>
      <datestamp>2017-02-09T23:44:42Z</datestamp>
      <setSpec>user-biosyslit</setSpec>
    </header>
    <header>
      <identifier>oai:zenodo.org:287945</identifier>
      <datestamp>2017-02-09T19:40:00Z</datestamp>
      <setSpec>user-biosyslit</setSpec>
    </header>
    <header>
      <identifier>oai:zenodo.org:227017</identifier>
      <datestamp>2017-01-01T08:09:29Z</datestamp>
      <setSpec>user-biosyslit</setSpec>
    </header>
    <header>
      <identifier>oai:zenodo.org:288670</identifier>
      <datestamp>2017-02-09T21:40:07Z</datestamp>
      <setSpec>user-biosyslit</setSpec>
    </header>
    <header>
      <identifier>oai:zenodo.org:227198</identifier>
      <datestamp>2017-01-01T18:02:34Z</datestamp>
      <setSpec>user-biosyslit</setSpec>
    </header>
    <header>
      <identifier>oai:zenodo.org:227424</identifier>
      <datestamp>2017-01-01T21:17:26Z</datestamp>
      <setSpec>user-biosyslit</setSpec>
    </header>
    <header>
      <identifier>oai:zenodo.org:227388</identifier>
      <datestamp>2017-01-01T20:04:30Z</datestamp>
      <setSpec>user-biosyslit</setSpec>
    </header>
    <header>
      <identifier>oai:zenodo.org:227429</identifier>
      <datestamp>2017-01-01T21:17:24Z</datestamp>
      <setSpec>user-biosyslit</setSpec>
    </header>
    <header>
      <identifier>oai:zenodo.org:227197</identifier>
      <datestamp>2017-01-01T18:02:31Z</datestamp>
      <setSpec>user-biosyslit</setSpec>
    </header>
    <header>
      <identifier>oai:zenodo.org:495064</identifier>
      <datestamp>2017-04-05T07:36:45Z</datestamp>
      <setSpec>user-biosyslit</setSpec>
    </header>
    <header>
      <identifier>oai:zenodo.org:228015</identifier>
      <datestamp>2017-01-02T08:49:40Z</datestamp>
      <setSpec>user-biosyslit</setSpec>
    </header>
    <header>
      <identifier>oai:zenodo.org:229977</identifier>
      <datestamp>2017-01-04T16:38:59Z</datestamp>
      <setSpec>user-biosyslit</setSpec>
    </header>
    <header>
      <identifier>oai:zenodo.org:227746</identifier>
      <datestamp>2017-01-02T03:26:48Z</datestamp>
      <setSpec>user-biosyslit</setSpec>
    </header>
    <header>
      <identifier>oai:zenodo.org:495293</identifier>
      <datestamp>2017-04-06T07:22:48Z</datestamp>
      <setSpec>user-biosyslit</setSpec>
    </header>
    <header>
      <identifier>oai:zenodo.org:227777</identifier>
      <datestamp>2017-01-02T04:28:37Z</datestamp>
      <setSpec>user-biosyslit</setSpec>
    </header>
    <header>
      <identifier>oai:zenodo.org:228295</identifier>
      <datestamp>2017-01-02T21:25:53Z</datestamp>
      <setSpec>user-biosyslit</setSpec>
    </header>
    <header>
      <identifier>oai:zenodo.org:495859</identifier>
      <datestamp>2017-04-10T07:55:44Z</datestamp>
      <setSpec>user-biosyslit</setSpec>
    </header>
    <header>
      <identifier>oai:zenodo.org:228388</identifier>
      <datestamp>2017-01-02T23:20:29Z</datestamp>
      <setSpec>user-biosyslit</setSpec>
    </header>
    <header>
      <identifier>oai:zenodo.org:495843</identifier>
      <datestamp>2017-04-10T07:21:30Z</datestamp>
      <setSpec>user-biosyslit</setSpec>
    </header>
    <header>
      <identifier>oai:zenodo.org:229612</identifier>
      <datestamp>2017-01-03T19:21:52Z</datestamp>
      <setSpec>user-biosyslit</setSpec>
    </header>
    <header>
      <identifier>oai:zenodo.org:228225</identifier>
      <datestamp>2017-01-02T20:05:10Z</datestamp>
      <setSpec>user-biosyslit</setSpec>
    </header>
    <header>
      <identifier>oai:zenodo.org:228709</identifier>
      <datestamp>2017-01-03T03:40:42Z</datestamp>
      <setSpec>user-biosyslit</setSpec>
    </header>
    <header>
      <identifier>oai:zenodo.org:227782</identifier>
      <datestamp>2017-01-02T04:33:19Z</datestamp>
      <setSpec>user-biosyslit</setSpec>
    </header>
    <header>
      <identifier>oai:zenodo.org:228106</identifier>
      <datestamp>2017-01-02T10:32:38Z</datestamp>
      <setSpec>user-biosyslit</setSpec>
    </header>
    <header>
      <identifier>oai:zenodo.org:229251</identifier>
      <datestamp>2017-01-03T13:13:47Z</datestamp>
      <setSpec>user-biosyslit</setSpec>
    </header>
    <header>
      <identifier>oai:zenodo.org:228220</identifier>
      <datestamp>2017-01-02T20:05:42Z</datestamp>
      <setSpec>user-biosyslit</setSpec>
    </header>
    <header>
      <identifier>oai:zenodo.org:270194</identifier>
      <datestamp>2017-02-07T22:30:50Z</datestamp>
      <setSpec>user-biosyslit</setSpec>
    </header>
    <header>
      <identifier>oai:zenodo.org:227947</identifier>
      <datestamp>2017-01-02T07:30:23Z</datestamp>
      <setSpec>user-biosyslit</setSpec>
    </header>
    <header>
      <identifier>oai:zenodo.org:229418</identifier>
      <datestamp>2017-01-03T15:31:21Z</datestamp>
      <setSpec>user-biosyslit</setSpec>
    </header>
    <header>
      <identifier>oai:zenodo.org:229571</identifier>
      <datestamp>2017-01-03T18:19:11Z</datestamp>
      <setSpec>user-biosyslit</setSpec>
    </header>
    <header>
      <identifier>oai:zenodo.org:496993</identifier>
      <datestamp>2017-04-11T07:48:16Z</datestamp>
      <setSpec>user-biosyslit</setSpec>
    </header>
    <header>
      <identifier>oai:zenodo.org:269702</identifier>
      <datestamp>2017-02-07T20:05:17Z</datestamp>
      <setSpec>user-biosyslit</setSpec>
    </header>
    <header>
      <identifier>oai:zenodo.org:269958</identifier>
      <datestamp>2017-02-07T21:54:07Z</datestamp>
      <setSpec>user-biosyslit</setSpec>
    </header>
    <header>
      <identifier>oai:zenodo.org:229589</identifier>
      <datestamp>2017-01-03T19:02:39Z</datestamp>
      <setSpec>user-biosyslit</setSpec>
    </header>
    <header>
      <identifier>oai:zenodo.org:228012</identifier>
      <datestamp>2017-01-02T08:49:30Z</datestamp>
      <setSpec>user-biosyslit</setSpec>
    </header>
    <header>
      <identifier>oai:zenodo.org:288768</identifier>
      <datestamp>2017-02-09T21:51:44Z</datestamp>
      <setSpec>user-biosyslit</setSpec>
    </header>
    <header>
      <identifier>oai:zenodo.org:270779</identifier>
      <datestamp>2017-02-07T23:55:51Z</datestamp>
      <setSpec>user-biosyslit</setSpec>
    </header>
    <header>
      <identifier>oai:zenodo.org:229635</identifier>
      <datestamp>2017-01-03T19:36:02Z</datestamp>
      <setSpec>user-biosyslit</setSpec>
    </header>
    <header>
      <identifier>oai:zenodo.org:229949</identifier>
      <datestamp>2017-01-04T16:13:33Z</datestamp>
      <setSpec>user-biosyslit</setSpec>
    </header>
    <header>
      <identifier>oai:zenodo.org:230460</identifier>
      <datestamp>2017-01-05T01:37:31Z</datestamp>
      <setSpec>user-biosyslit</setSpec>
    </header>
    <header>
      <identifier>oai:zenodo.org:230071</identifier>
      <datestamp>2017-01-04T18:52:03Z</datestamp>
      <setSpec>user-biosyslit</setSpec>
    </header>
    <header>
      <identifier>oai:zenodo.org:230653</identifier>
      <datestamp>2017-01-05T05:47:07Z</datestamp>
      <setSpec>user-biosyslit</setSpec>
    </header>
    <header>
      <identifier>oai:zenodo.org:229790</identifier>
      <datestamp>2017-01-04T07:21:24Z</datestamp>
      <setSpec>user-biosyslit</setSpec>
    </header>
    <header>
      <identifier>oai:zenodo.org:230765</identifier>
      <datestamp>2017-01-05T07:55:52Z</datestamp>
      <setSpec>user-biosyslit</setSpec>
    </header>
    <header>
      <identifier>oai:zenodo.org:230000</identifier>
      <datestamp>2017-01-04T17:04:55Z</datestamp>
      <setSpec>user-biosyslit</setSpec>
    </header>
    <header>
      <identifier>oai:zenodo.org:230094</identifier>
      <datestamp>2017-01-04T19:16:15Z</datestamp>
      <setSpec>user-biosyslit</setSpec>
    </header>
    <header>
      <identifier>oai:zenodo.org:269781</identifier>
      <datestamp>2017-02-07T20:18:31Z</datestamp>
      <setSpec>user-biosyslit</setSpec>
    </header>
    <header>
      <identifier>oai:zenodo.org:231180</identifier>
      <datestamp>2017-01-05T17:02:18Z</datestamp>
      <setSpec>user-biosyslit</setSpec>
    </header>
    <header>
      <identifier>oai:zenodo.org:230091</identifier>
      <datestamp>2017-01-04T19:11:41Z</datestamp>
      <setSpec>user-biosyslit</setSpec>
    </header>
    <header>
      <identifier>oai:zenodo.org:231230</identifier>
      <datestamp>2017-01-05T17:46:32Z</datestamp>
      <setSpec>user-biosyslit</setSpec>
    </header>
    <header>
      <identifier>oai:zenodo.org:231930</identifier>
      <datestamp>2017-01-06T08:50:13Z</datestamp>
      <setSpec>user-biosyslit</setSpec>
    </header>
    <header>
      <identifier>oai:zenodo.org:230804</identifier>
      <datestamp>2017-01-05T08:38:35Z</datestamp>
      <setSpec>user-biosyslit</setSpec>
    </header>
    <header>
      <identifier>oai:zenodo.org:231092</identifier>
      <datestamp>2017-01-05T14:21:56Z</datestamp>
      <setSpec>user-biosyslit</setSpec>
    </header>
    <header>
      <identifier>oai:zenodo.org:230551</identifier>
      <datestamp>2017-01-05T03:09:32Z</datestamp>
      <setSpec>user-biosyslit</setSpec>
    </header>
    <header>
      <identifier>oai:zenodo.org:269751</identifier>
      <datestamp>2017-02-07T20:17:00Z</datestamp>
      <setSpec>user-biosyslit</setSpec>
    </header>
    <header>
      <identifier>oai:zenodo.org:269957</identifier>
      <datestamp>2017-02-07T21:54:03Z</datestamp>
      <setSpec>user-biosyslit</setSpec>
    </header>
    <header>
      <identifier>oai:zenodo.org:231218</identifier>
      <datestamp>2017-01-05T17:24:01Z</datestamp>
      <setSpec>user-biosyslit</setSpec>
    </header>
    <header>
      <identifier>oai:zenodo.org:270317</identifier>
      <datestamp>2017-02-07T22:59:52Z</datestamp>
      <setSpec>user-biosyslit</setSpec>
    </header>
    <header>
      <identifier>oai:zenodo.org:231391</identifier>
      <datestamp>2017-01-06T01:19:49Z</datestamp>
      <setSpec>user-biosyslit</setSpec>
    </header>
    <header>
      <identifier>oai:zenodo.org:231137</identifier>
      <datestamp>2017-01-06T11:05:15Z</datestamp>
      <setSpec>openaire</setSpec>
      <setSpec>user-biosyslit</setSpec>
    </header>
    <header>
      <identifier>oai:zenodo.org:269842</identifier>
      <datestamp>2017-02-07T20:32:19Z</datestamp>
      <setSpec>user-biosyslit</setSpec>
    </header>
    <header>
      <identifier>oai:zenodo.org:270485</identifier>
      <datestamp>2017-02-07T23:17:47Z</datestamp>
      <setSpec>user-biosyslit</setSpec>
    </header>
    <header>
      <identifier>oai:zenodo.org:231687</identifier>
      <datestamp>2017-01-06T06:04:55Z</datestamp>
      <setSpec>user-biosyslit</setSpec>
    </header>
    <header>
      <identifier>oai:zenodo.org:288545</identifier>
      <datestamp>2017-02-09T21:06:27Z</datestamp>
      <setSpec>user-biosyslit</setSpec>
    </header>
    <header>
      <identifier>oai:zenodo.org:270231</identifier>
      <datestamp>2017-02-07T22:44:36Z</datestamp>
      <setSpec>user-biosyslit</setSpec>
    </header>
    <header>
      <identifier>oai:zenodo.org:231032</identifier>
      <datestamp>2017-01-05T12:32:56Z</datestamp>
      <setSpec>user-biosyslit</setSpec>
    </header>
    <header>
      <identifier>oai:zenodo.org:230883</identifier>
      <datestamp>2017-01-05T09:52:38Z</datestamp>
      <setSpec>user-biosyslit</setSpec>
    </header>
    <header>
      <identifier>oai:zenodo.org:231835</identifier>
      <datestamp>2017-01-06T07:48:31Z</datestamp>
      <setSpec>user-biosyslit</setSpec>
    </header>
    <header>
      <identifier>oai:zenodo.org:231843</identifier>
      <datestamp>2017-01-06T07:50:02Z</datestamp>
      <setSpec>user-biosyslit</setSpec>
    </header>
    <header>
      <identifier>oai:zenodo.org:232227</identifier>
      <datestamp>2017-01-06T14:00:23Z</datestamp>
      <setSpec>user-biosyslit</setSpec>
    </header>
    <header>
      <identifier>oai:zenodo.org:269999</identifier>
      <datestamp>2017-02-07T21:58:25Z</datestamp>
      <setSpec>user-biosyslit</setSpec>
    </header>
    <header>
      <identifier>oai:zenodo.org:270117</identifier>
      <datestamp>2017-02-07T22:24:05Z</datestamp>
      <setSpec>user-biosyslit</setSpec>
    </header>
    <header>
      <identifier>oai:zenodo.org:232130</identifier>
      <datestamp>2017-01-06T11:30:29Z</datestamp>
      <setSpec>user-biosyslit</setSpec>
    </header>
    <header>
      <identifier>oai:zenodo.org:270639</identifier>
      <datestamp>2017-02-07T23:40:36Z</datestamp>
      <setSpec>user-biosyslit</setSpec>
    </header>
    <header>
      <identifier>oai:zenodo.org:231899</identifier>
      <datestamp>2017-01-06T08:27:44Z</datestamp>
      <setSpec>user-biosyslit</setSpec>
    </header>
    <header>
      <identifier>oai:zenodo.org:232040</identifier>
      <datestamp>2017-01-06T10:37:36Z</datestamp>
      <setSpec>user-biosyslit</setSpec>
    </header>
    <header>
      <identifier>oai:zenodo.org:231929</identifier>
      <datestamp>2017-01-06T08:50:10Z</datestamp>
      <setSpec>user-biosyslit</setSpec>
    </header>
    <header>
      <identifier>oai:zenodo.org:270479</identifier>
      <datestamp>2017-02-07T23:17:29Z</datestamp>
      <setSpec>user-biosyslit</setSpec>
    </header>
    <header>
      <identifier>oai:zenodo.org:232209</identifier>
      <datestamp>2017-01-06T12:58:02Z</datestamp>
      <setSpec>user-biosyslit</setSpec>
    </header>
    <header>
      <identifier>oai:zenodo.org:232111</identifier>
      <datestamp>2017-01-06T11:13:00Z</datestamp>
      <setSpec>user-biosyslit</setSpec>
    </header>
    <header>
      <identifier>oai:zenodo.org:232242</identifier>
      <datestamp>2017-01-06T14:20:47Z</datestamp>
      <setSpec>user-biosyslit</setSpec>
    </header>
    <header>
      <identifier>oai:zenodo.org:270642</identifier>
      <datestamp>2017-02-07T23:40:42Z</datestamp>
      <setSpec>user-biosyslit</setSpec>
    </header>
    <header>
      <identifier>oai:zenodo.org:232104</identifier>
      <datestamp>2017-01-06T11:12:41Z</datestamp>
      <setSpec>user-biosyslit</setSpec>
    </header>
    <header>
      <identifier>oai:zenodo.org:233062</identifier>
      <datestamp>2017-01-07T23:38:29Z</datestamp>
      <setSpec>user-biosyslit</setSpec>
    </header>
    <header>
      <identifier>oai:zenodo.org:234515</identifier>
      <datestamp>2017-01-08T21:03:07Z</datestamp>
      <setSpec>user-biosyslit</setSpec>
    </header>
    <header>
      <identifier>oai:zenodo.org:233147</identifier>
      <datestamp>2017-01-08T01:20:45Z</datestamp>
      <setSpec>user-biosyslit</setSpec>
    </header>
    <header>
      <identifier>oai:zenodo.org:233772</identifier>
      <datestamp>2017-01-08T11:38:15Z</datestamp>
      <setSpec>user-biosyslit</setSpec>
    </header>
    <header>
      <identifier>oai:zenodo.org:232494</identifier>
      <datestamp>2017-01-06T18:37:09Z</datestamp>
      <setSpec>user-biosyslit</setSpec>
    </header>
    <header>
      <identifier>oai:zenodo.org:232716</identifier>
      <datestamp>2017-01-06T22:02:58Z</datestamp>
      <setSpec>user-biosyslit</setSpec>
    </header>
    <header>
      <identifier>oai:zenodo.org:289243</identifier>
      <datestamp>2017-02-09T23:03:50Z</datestamp>
      <setSpec>user-biosyslit</setSpec>
    </header>
    <header>
      <identifier>oai:zenodo.org:287930</identifier>
      <datestamp>2017-02-09T19:38:24Z</datestamp>
      <setSpec>user-biosyslit</setSpec>
    </header>
    <header>
      <identifier>oai:zenodo.org:288893</identifier>
      <datestamp>2017-02-09T22:07:21Z</datestamp>
      <setSpec>user-biosyslit</setSpec>
    </header>
    <header>
      <identifier>oai:zenodo.org:288557</identifier>
      <datestamp>2017-02-09T21:17:03Z</datestamp>
      <setSpec>user-biosyslit</setSpec>
    </header>
    <header>
      <identifier>oai:zenodo.org:288213</identifier>
      <datestamp>2017-02-09T20:20:24Z</datestamp>
      <setSpec>user-biosyslit</setSpec>
    </header>
    <header>
      <identifier>oai:zenodo.org:227389</identifier>
      <datestamp>2017-01-01T20:04:33Z</datestamp>
      <setSpec>user-biosyslit</setSpec>
    </header>
    <resumptionToken expirationDate="2017-08-31T15:43:57Z" cursor="14500" completeListSize="77796">.eJyNyj0PQ0AYAOD_8s7S3Iegki5CxYDolWBpFBF1VFybco3_Xkvndn6eN4i6rsBEO0Iw3SND0xDRKNqrRAFRTnfOL-3mUKYJLwceF27yPPUJykijB7aYfTujgexQ2GPJjhFJsTHHLVqic_zI5GlOqPdiyNF9GS3BzdteRUOX51d3ZPFgcUaqKXSihWGL5bT8Pvznkz-fLQ6gwFg0NZhY1RXoXsXUCDDf6_oBxqNRZg.DIm_xQ.BgJ1PIzJpSfXCuwXHjkLXvY6w-A</resumptionToken>
  </ListIdentifiers>
</OAI-PMH>
