<?xml version='1.0' encoding='UTF-8'?>
<?xml-stylesheet type="text/xsl" href="/static/xsl/oai2.v1.0.xsl"?>
<OAI-PMH xmlns="http://www.openarchives.org/OAI/2.0/" xmlns:xsi="http://www.w3.org/2001/XMLSchema-instance" xsi:schemaLocation="http://www.openarchives.org/OAI/2.0/ http://www.openarchives.org/OAI/2.0/OAI-PMH.xsd">
  <responseDate>2017-08-31T15:45:43Z</responseDate>
  <request verb="ListIdentifiers" resumptionToken=".eJyNyk0LgjAYAOD_8p4ltvkxE7qIJh5UdCnpJUxFzGniinTRf69L5zo_zxNE09RgoY2umYggA1Oi68jcagqIar5yfuo-DNUx49XI09LL7smQoZy0NHTEEji5GsoeRQOWbB-TIzaXtENrfEhvuUyWTPUfDLk0kPEaXvzPq9XI48XZm1g62pyReo7ceGXYZoVafR_-88mfzxE7UGAq2wYsg1IF-kc5twKs5-v1Bpj0UUE.DInApw.E-FJ9QgKYioLKusmG5yp4s3TfKs">https://zenodo.org/oai2d</request>
  <ListIdentifiers>
    <header>
      <identifier>oai:zenodo.org:247712</identifier>
      <datestamp>2017-01-16T18:51:43Z</datestamp>
      <setSpec>user-biosyslit</setSpec>
    </header>
    <header>
      <identifier>oai:zenodo.org:247715</identifier>
      <datestamp>2017-01-16T18:51:55Z</datestamp>
      <setSpec>user-biosyslit</setSpec>
    </header>
    <header>
      <identifier>oai:zenodo.org:241001</identifier>
      <datestamp>2017-01-12T18:48:18Z</datestamp>
      <setSpec>user-biosyslit</setSpec>
    </header>
    <header>
      <identifier>oai:zenodo.org:288878</identifier>
      <datestamp>2017-02-09T22:05:23Z</datestamp>
      <setSpec>user-biosyslit</setSpec>
    </header>
    <header>
      <identifier>oai:zenodo.org:288882</identifier>
      <datestamp>2017-02-09T22:05:35Z</datestamp>
      <setSpec>user-biosyslit</setSpec>
    </header>
    <header>
      <identifier>oai:zenodo.org:241002</identifier>
      <datestamp>2017-01-12T18:48:09Z</datestamp>
      <setSpec>user-biosyslit</setSpec>
    </header>
    <header>
      <identifier>oai:zenodo.org:288871</identifier>
      <datestamp>2017-02-09T22:05:07Z</datestamp>
      <setSpec>user-biosyslit</setSpec>
    </header>
    <header>
      <identifier>oai:zenodo.org:288879</identifier>
      <datestamp>2017-02-09T22:05:26Z</datestamp>
      <setSpec>user-biosyslit</setSpec>
    </header>
    <header>
      <identifier>oai:zenodo.org:288881</identifier>
      <datestamp>2017-02-09T22:05:33Z</datestamp>
      <setSpec>user-biosyslit</setSpec>
    </header>
    <header>
      <identifier>oai:zenodo.org:241003</identifier>
      <datestamp>2017-01-12T18:48:14Z</datestamp>
      <setSpec>user-biosyslit</setSpec>
    </header>
    <header>
      <identifier>oai:zenodo.org:248233</identifier>
      <datestamp>2017-01-17T01:31:13Z</datestamp>
      <setSpec>user-biosyslit</setSpec>
    </header>
    <header>
      <identifier>oai:zenodo.org:248242</identifier>
      <datestamp>2017-01-17T01:31:01Z</datestamp>
      <setSpec>user-biosyslit</setSpec>
    </header>
    <header>
      <identifier>oai:zenodo.org:248245</identifier>
      <datestamp>2017-01-17T01:31:11Z</datestamp>
      <setSpec>user-biosyslit</setSpec>
    </header>
    <header>
      <identifier>oai:zenodo.org:248244</identifier>
      <datestamp>2017-01-17T01:31:08Z</datestamp>
      <setSpec>user-biosyslit</setSpec>
    </header>
    <header>
      <identifier>oai:zenodo.org:290027</identifier>
      <datestamp>2017-02-10T01:08:39Z</datestamp>
      <setSpec>user-biosyslit</setSpec>
    </header>
    <header>
      <identifier>oai:zenodo.org:290028</identifier>
      <datestamp>2017-02-10T01:08:41Z</datestamp>
      <setSpec>user-biosyslit</setSpec>
    </header>
    <header>
      <identifier>oai:zenodo.org:290030</identifier>
      <datestamp>2017-02-10T01:08:46Z</datestamp>
      <setSpec>user-biosyslit</setSpec>
    </header>
    <header>
      <identifier>oai:zenodo.org:228956</identifier>
      <datestamp>2017-01-03T07:43:09Z</datestamp>
      <setSpec>user-biosyslit</setSpec>
    </header>
    <header>
      <identifier>oai:zenodo.org:228958</identifier>
      <datestamp>2017-01-03T07:43:19Z</datestamp>
      <setSpec>user-biosyslit</setSpec>
    </header>
    <header>
      <identifier>oai:zenodo.org:276185</identifier>
      <datestamp>2017-02-08T18:20:58Z</datestamp>
      <setSpec>user-biosyslit</setSpec>
    </header>
    <header>
      <identifier>oai:zenodo.org:276187</identifier>
      <datestamp>2017-02-08T18:21:04Z</datestamp>
      <setSpec>user-biosyslit</setSpec>
    </header>
    <header>
      <identifier>oai:zenodo.org:276188</identifier>
      <datestamp>2017-02-08T18:21:06Z</datestamp>
      <setSpec>user-biosyslit</setSpec>
    </header>
    <header>
      <identifier>oai:zenodo.org:284631</identifier>
      <datestamp>2017-02-09T11:38:43Z</datestamp>
      <setSpec>user-biosyslit</setSpec>
    </header>
    <header>
      <identifier>oai:zenodo.org:284633</identifier>
      <datestamp>2017-02-09T11:38:47Z</datestamp>
      <setSpec>user-biosyslit</setSpec>
    </header>
    <header>
      <identifier>oai:zenodo.org:284628</identifier>
      <datestamp>2017-02-09T11:38:35Z</datestamp>
      <setSpec>user-biosyslit</setSpec>
    </header>
    <header>
      <identifier>oai:zenodo.org:284629</identifier>
      <datestamp>2017-02-09T11:38:39Z</datestamp>
      <setSpec>user-biosyslit</setSpec>
    </header>
    <header>
      <identifier>oai:zenodo.org:284618</identifier>
      <datestamp>2017-02-09T11:38:15Z</datestamp>
      <setSpec>user-biosyslit</setSpec>
    </header>
    <header>
      <identifier>oai:zenodo.org:284623</identifier>
      <datestamp>2017-02-09T11:38:25Z</datestamp>
      <setSpec>user-biosyslit</setSpec>
    </header>
    <header>
      <identifier>oai:zenodo.org:284609</identifier>
      <datestamp>2017-02-09T11:37:58Z</datestamp>
      <setSpec>user-biosyslit</setSpec>
    </header>
    <header>
      <identifier>oai:zenodo.org:284620</identifier>
      <datestamp>2017-02-09T11:38:19Z</datestamp>
      <setSpec>user-biosyslit</setSpec>
    </header>
    <header>
      <identifier>oai:zenodo.org:284619</identifier>
      <datestamp>2017-02-09T11:38:17Z</datestamp>
      <setSpec>user-biosyslit</setSpec>
    </header>
    <header>
      <identifier>oai:zenodo.org:284612</identifier>
      <datestamp>2017-02-09T11:38:03Z</datestamp>
      <setSpec>user-biosyslit</setSpec>
    </header>
    <header>
      <identifier>oai:zenodo.org:284613</identifier>
      <datestamp>2017-02-09T11:38:05Z</datestamp>
      <setSpec>user-biosyslit</setSpec>
    </header>
    <header>
      <identifier>oai:zenodo.org:287873</identifier>
      <datestamp>2017-02-09T19:31:02Z</datestamp>
      <setSpec>user-biosyslit</setSpec>
    </header>
    <header>
      <identifier>oai:zenodo.org:270716</identifier>
      <datestamp>2017-02-07T23:51:36Z</datestamp>
      <setSpec>user-biosyslit</setSpec>
    </header>
    <header>
      <identifier>oai:zenodo.org:270710</identifier>
      <datestamp>2017-02-07T23:51:21Z</datestamp>
      <setSpec>user-biosyslit</setSpec>
    </header>
    <header>
      <identifier>oai:zenodo.org:270723</identifier>
      <datestamp>2017-02-07T23:51:56Z</datestamp>
      <setSpec>user-biosyslit</setSpec>
    </header>
    <header>
      <identifier>oai:zenodo.org:270717</identifier>
      <datestamp>2017-02-07T23:51:39Z</datestamp>
      <setSpec>user-biosyslit</setSpec>
    </header>
    <header>
      <identifier>oai:zenodo.org:270715</identifier>
      <datestamp>2017-02-07T23:51:34Z</datestamp>
      <setSpec>user-biosyslit</setSpec>
    </header>
    <header>
      <identifier>oai:zenodo.org:270720</identifier>
      <datestamp>2017-02-07T23:51:48Z</datestamp>
      <setSpec>user-biosyslit</setSpec>
    </header>
    <header>
      <identifier>oai:zenodo.org:270713</identifier>
      <datestamp>2017-02-07T23:51:29Z</datestamp>
      <setSpec>user-biosyslit</setSpec>
    </header>
    <header>
      <identifier>oai:zenodo.org:270712</identifier>
      <datestamp>2017-02-07T23:51:26Z</datestamp>
      <setSpec>user-biosyslit</setSpec>
    </header>
    <header>
      <identifier>oai:zenodo.org:246066</identifier>
      <datestamp>2017-01-15T21:32:44Z</datestamp>
      <setSpec>user-biosyslit</setSpec>
    </header>
    <header>
      <identifier>oai:zenodo.org:235834</identifier>
      <datestamp>2017-01-09T15:47:06Z</datestamp>
      <setSpec>user-biosyslit</setSpec>
    </header>
    <header>
      <identifier>oai:zenodo.org:293251</identifier>
      <datestamp>2017-02-19T13:25:59Z</datestamp>
      <setSpec>user-biosyslit</setSpec>
    </header>
    <header>
      <identifier>oai:zenodo.org:236369</identifier>
      <datestamp>2017-01-09T23:22:38Z</datestamp>
      <setSpec>user-biosyslit</setSpec>
    </header>
    <header>
      <identifier>oai:zenodo.org:253459</identifier>
      <datestamp>2017-01-20T07:19:07Z</datestamp>
      <setSpec>user-biosyslit</setSpec>
    </header>
    <header>
      <identifier>oai:zenodo.org:253462</identifier>
      <datestamp>2017-01-20T07:18:52Z</datestamp>
      <setSpec>user-biosyslit</setSpec>
    </header>
    <header>
      <identifier>oai:zenodo.org:253464</identifier>
      <datestamp>2017-01-20T07:18:58Z</datestamp>
      <setSpec>user-biosyslit</setSpec>
    </header>
    <header>
      <identifier>oai:zenodo.org:230265</identifier>
      <datestamp>2017-01-04T21:53:23Z</datestamp>
      <setSpec>user-biosyslit</setSpec>
    </header>
    <header>
      <identifier>oai:zenodo.org:253463</identifier>
      <datestamp>2017-01-20T07:18:55Z</datestamp>
      <setSpec>user-biosyslit</setSpec>
    </header>
    <header>
      <identifier>oai:zenodo.org:235440</identifier>
      <datestamp>2017-01-09T10:05:54Z</datestamp>
      <setSpec>user-biosyslit</setSpec>
    </header>
    <header>
      <identifier>oai:zenodo.org:253460</identifier>
      <datestamp>2017-01-20T07:18:46Z</datestamp>
      <setSpec>user-biosyslit</setSpec>
    </header>
    <header>
      <identifier>oai:zenodo.org:235439</identifier>
      <datestamp>2017-01-09T10:05:51Z</datestamp>
      <setSpec>user-biosyslit</setSpec>
    </header>
    <header>
      <identifier>oai:zenodo.org:274853</identifier>
      <datestamp>2017-02-08T14:36:08Z</datestamp>
      <setSpec>user-biosyslit</setSpec>
    </header>
    <header>
      <identifier>oai:zenodo.org:274854</identifier>
      <datestamp>2017-02-08T14:36:10Z</datestamp>
      <setSpec>user-biosyslit</setSpec>
    </header>
    <header>
      <identifier>oai:zenodo.org:274851</identifier>
      <datestamp>2017-02-08T14:36:02Z</datestamp>
      <setSpec>user-biosyslit</setSpec>
    </header>
    <header>
      <identifier>oai:zenodo.org:286317</identifier>
      <datestamp>2017-02-09T15:45:58Z</datestamp>
      <setSpec>user-biosyslit</setSpec>
    </header>
    <header>
      <identifier>oai:zenodo.org:286329</identifier>
      <datestamp>2017-02-09T15:46:22Z</datestamp>
      <setSpec>user-biosyslit</setSpec>
    </header>
    <header>
      <identifier>oai:zenodo.org:286331</identifier>
      <datestamp>2017-02-09T15:46:25Z</datestamp>
      <setSpec>user-biosyslit</setSpec>
    </header>
    <header>
      <identifier>oai:zenodo.org:286325</identifier>
      <datestamp>2017-02-09T15:46:14Z</datestamp>
      <setSpec>user-biosyslit</setSpec>
    </header>
    <header>
      <identifier>oai:zenodo.org:286326</identifier>
      <datestamp>2017-02-09T15:46:16Z</datestamp>
      <setSpec>user-biosyslit</setSpec>
    </header>
    <header>
      <identifier>oai:zenodo.org:286327</identifier>
      <datestamp>2017-02-09T15:46:17Z</datestamp>
      <setSpec>user-biosyslit</setSpec>
    </header>
    <header>
      <identifier>oai:zenodo.org:286332</identifier>
      <datestamp>2017-02-09T15:46:27Z</datestamp>
      <setSpec>user-biosyslit</setSpec>
    </header>
    <header>
      <identifier>oai:zenodo.org:286335</identifier>
      <datestamp>2017-02-09T15:46:35Z</datestamp>
      <setSpec>user-biosyslit</setSpec>
    </header>
    <header>
      <identifier>oai:zenodo.org:285085</identifier>
      <datestamp>2017-02-09T12:35:59Z</datestamp>
      <setSpec>user-biosyslit</setSpec>
    </header>
    <header>
      <identifier>oai:zenodo.org:285084</identifier>
      <datestamp>2017-02-09T12:35:57Z</datestamp>
      <setSpec>user-biosyslit</setSpec>
    </header>
    <header>
      <identifier>oai:zenodo.org:285086</identifier>
      <datestamp>2017-02-09T12:36:01Z</datestamp>
      <setSpec>user-biosyslit</setSpec>
    </header>
    <header>
      <identifier>oai:zenodo.org:285083</identifier>
      <datestamp>2017-02-09T12:35:55Z</datestamp>
      <setSpec>user-biosyslit</setSpec>
    </header>
    <header>
      <identifier>oai:zenodo.org:274555</identifier>
      <datestamp>2017-02-08T13:40:01Z</datestamp>
      <setSpec>user-biosyslit</setSpec>
    </header>
    <header>
      <identifier>oai:zenodo.org:274554</identifier>
      <datestamp>2017-02-08T13:39:58Z</datestamp>
      <setSpec>user-biosyslit</setSpec>
    </header>
    <header>
      <identifier>oai:zenodo.org:274553</identifier>
      <datestamp>2017-02-08T13:39:55Z</datestamp>
      <setSpec>user-biosyslit</setSpec>
    </header>
    <header>
      <identifier>oai:zenodo.org:274556</identifier>
      <datestamp>2017-02-08T13:40:03Z</datestamp>
      <setSpec>user-biosyslit</setSpec>
    </header>
    <header>
      <identifier>oai:zenodo.org:274557</identifier>
      <datestamp>2017-02-08T13:40:06Z</datestamp>
      <setSpec>user-biosyslit</setSpec>
    </header>
    <header>
      <identifier>oai:zenodo.org:277242</identifier>
      <datestamp>2017-02-08T20:41:20Z</datestamp>
      <setSpec>user-biosyslit</setSpec>
    </header>
    <header>
      <identifier>oai:zenodo.org:277245</identifier>
      <datestamp>2017-02-08T20:41:27Z</datestamp>
      <setSpec>user-biosyslit</setSpec>
    </header>
    <header>
      <identifier>oai:zenodo.org:277244</identifier>
      <datestamp>2017-02-08T20:41:24Z</datestamp>
      <setSpec>user-biosyslit</setSpec>
    </header>
    <header>
      <identifier>oai:zenodo.org:277249</identifier>
      <datestamp>2017-02-08T20:41:39Z</datestamp>
      <setSpec>user-biosyslit</setSpec>
    </header>
    <header>
      <identifier>oai:zenodo.org:277246</identifier>
      <datestamp>2017-02-08T20:41:30Z</datestamp>
      <setSpec>user-biosyslit</setSpec>
    </header>
    <header>
      <identifier>oai:zenodo.org:277250</identifier>
      <datestamp>2017-02-08T20:41:42Z</datestamp>
      <setSpec>user-biosyslit</setSpec>
    </header>
    <header>
      <identifier>oai:zenodo.org:230688</identifier>
      <datestamp>2017-01-05T06:47:54Z</datestamp>
      <setSpec>user-biosyslit</setSpec>
    </header>
    <header>
      <identifier>oai:zenodo.org:277085</identifier>
      <datestamp>2017-02-08T20:21:50Z</datestamp>
      <setSpec>user-biosyslit</setSpec>
    </header>
    <header>
      <identifier>oai:zenodo.org:235745</identifier>
      <datestamp>2017-01-09T14:31:49Z</datestamp>
      <setSpec>user-biosyslit</setSpec>
    </header>
    <header>
      <identifier>oai:zenodo.org:280378</identifier>
      <datestamp>2017-02-09T03:18:01Z</datestamp>
      <setSpec>user-biosyslit</setSpec>
    </header>
    <header>
      <identifier>oai:zenodo.org:230528</identifier>
      <datestamp>2017-01-05T02:38:14Z</datestamp>
      <setSpec>user-biosyslit</setSpec>
    </header>
    <header>
      <identifier>oai:zenodo.org:280382</identifier>
      <datestamp>2017-02-09T03:18:00Z</datestamp>
      <setSpec>user-biosyslit</setSpec>
    </header>
    <header>
      <identifier>oai:zenodo.org:280381</identifier>
      <datestamp>2017-02-09T03:17:58Z</datestamp>
      <setSpec>user-biosyslit</setSpec>
    </header>
    <header>
      <identifier>oai:zenodo.org:280380</identifier>
      <datestamp>2017-02-09T03:17:55Z</datestamp>
      <setSpec>user-biosyslit</setSpec>
    </header>
    <header>
      <identifier>oai:zenodo.org:235776</identifier>
      <datestamp>2017-01-09T14:31:47Z</datestamp>
      <setSpec>user-biosyslit</setSpec>
    </header>
    <header>
      <identifier>oai:zenodo.org:280379</identifier>
      <datestamp>2017-02-09T03:17:53Z</datestamp>
      <setSpec>user-biosyslit</setSpec>
    </header>
    <header>
      <identifier>oai:zenodo.org:254170</identifier>
      <datestamp>2017-01-20T16:23:19Z</datestamp>
      <setSpec>user-biosyslit</setSpec>
    </header>
    <header>
      <identifier>oai:zenodo.org:254189</identifier>
      <datestamp>2017-01-20T16:23:17Z</datestamp>
      <setSpec>user-biosyslit</setSpec>
    </header>
    <header>
      <identifier>oai:zenodo.org:288921</identifier>
      <datestamp>2017-02-09T22:10:07Z</datestamp>
      <setSpec>user-biosyslit</setSpec>
    </header>
    <header>
      <identifier>oai:zenodo.org:242105</identifier>
      <datestamp>2017-01-13T10:29:53Z</datestamp>
      <setSpec>user-biosyslit</setSpec>
    </header>
    <header>
      <identifier>oai:zenodo.org:254922</identifier>
      <datestamp>2017-01-21T04:47:06Z</datestamp>
      <setSpec>user-biosyslit</setSpec>
    </header>
    <header>
      <identifier>oai:zenodo.org:254919</identifier>
      <datestamp>2017-01-21T04:46:57Z</datestamp>
      <setSpec>user-biosyslit</setSpec>
    </header>
    <header>
      <identifier>oai:zenodo.org:254921</identifier>
      <datestamp>2017-01-21T04:47:02Z</datestamp>
      <setSpec>user-biosyslit</setSpec>
    </header>
    <header>
      <identifier>oai:zenodo.org:288924</identifier>
      <datestamp>2017-02-09T22:10:06Z</datestamp>
      <setSpec>user-biosyslit</setSpec>
    </header>
    <header>
      <identifier>oai:zenodo.org:237340</identifier>
      <datestamp>2017-01-10T14:30:52Z</datestamp>
      <setSpec>user-biosyslit</setSpec>
    </header>
    <header>
      <identifier>oai:zenodo.org:237341</identifier>
      <datestamp>2017-01-10T14:30:55Z</datestamp>
      <setSpec>user-biosyslit</setSpec>
    </header>
    <resumptionToken expirationDate="2017-08-31T15:47:43Z" cursor="67600" completeListSize="77796">.eJyNysEKgjAYAOB3-c8S28ymQhfRxIOKLSW9hKmIOU1ckU5897p0rvP3LSCqqgQTbTRjS5BhGDrGRKOUKiCK8c75pfkwFOeEFz2Pczd5HrsEpaSmgS0m307VQLYo7LBkh4icsT7FDZqjU_xI5XFKVO_FkEN9Gc3Bzfu8Ug1dnl3dgcW9xRkpx9CJZoYtlqnF9-E_n_z5bLEHBYa8rsDcUV2B9pWPtQBzWdc3qqNRVQ.DInApw.4k875HgnbZ3USHibHKzSgHVkhPs</resumptionToken>
  </ListIdentifiers>
</OAI-PMH>
