<?xml version='1.0' encoding='UTF-8'?>
<?xml-stylesheet type="text/xsl" href="/static/xsl/oai2.v1.0.xsl"?>
<OAI-PMH xmlns="http://www.openarchives.org/OAI/2.0/" xmlns:xsi="http://www.w3.org/2001/XMLSchema-instance" xsi:schemaLocation="http://www.openarchives.org/OAI/2.0/ http://www.openarchives.org/OAI/2.0/OAI-PMH.xsd">
  <responseDate>2017-08-31T15:44:05Z</responseDate>
  <request verb="ListIdentifiers" resumptionToken=".eJyNzzEPQ0AYgOH_crM0d74WlXQRKgaEKylLo4ioo-La4MR_r6VzO7_P8i6Il2WBdLwDFbSjrIJCFDhgUCTE8-HJ2K3eMsqvMcs7FmV2_A7bGCdypXomn1wzAU802G-JoOdAvhJtimo8B5folYhwisEZKbZUVwSz93A2V4Bvs_Ru9zTqDEblYvCtYKbEoCnkX0f-dOKnM_kJSajPqhLpe2W7asZsqDjSl3X9AJ6dUUM.DInARQ.3O_A29h4IGHrqrQDDPDhL6bRG1o">https://zenodo.org/oai2d</request>
  <ListIdentifiers>
    <header>
      <identifier>oai:zenodo.org:272209</identifier>
      <datestamp>2017-02-08T03:59:11Z</datestamp>
      <setSpec>user-biosyslit</setSpec>
    </header>
    <header>
      <identifier>oai:zenodo.org:271625</identifier>
      <datestamp>2017-02-08T02:05:36Z</datestamp>
      <setSpec>user-biosyslit</setSpec>
    </header>
    <header>
      <identifier>oai:zenodo.org:241357</identifier>
      <datestamp>2017-01-13T00:20:52Z</datestamp>
      <setSpec>user-biosyslit</setSpec>
    </header>
    <header>
      <identifier>oai:zenodo.org:271960</identifier>
      <datestamp>2017-02-08T03:10:25Z</datestamp>
      <setSpec>user-biosyslit</setSpec>
    </header>
    <header>
      <identifier>oai:zenodo.org:271832</identifier>
      <datestamp>2017-02-08T02:44:37Z</datestamp>
      <setSpec>user-biosyslit</setSpec>
    </header>
    <header>
      <identifier>oai:zenodo.org:272002</identifier>
      <datestamp>2017-02-08T03:18:59Z</datestamp>
      <setSpec>user-biosyslit</setSpec>
    </header>
    <header>
      <identifier>oai:zenodo.org:241692</identifier>
      <datestamp>2017-01-13T05:01:42Z</datestamp>
      <setSpec>user-biosyslit</setSpec>
    </header>
    <header>
      <identifier>oai:zenodo.org:290060</identifier>
      <datestamp>2017-02-10T01:12:34Z</datestamp>
      <setSpec>user-biosyslit</setSpec>
    </header>
    <header>
      <identifier>oai:zenodo.org:241861</identifier>
      <datestamp>2017-01-13T07:06:00Z</datestamp>
      <setSpec>user-biosyslit</setSpec>
    </header>
    <header>
      <identifier>oai:zenodo.org:241815</identifier>
      <datestamp>2017-01-13T06:35:20Z</datestamp>
      <setSpec>user-biosyslit</setSpec>
    </header>
    <header>
      <identifier>oai:zenodo.org:242157</identifier>
      <datestamp>2017-01-13T11:27:04Z</datestamp>
      <setSpec>user-biosyslit</setSpec>
    </header>
    <header>
      <identifier>oai:zenodo.org:272192</identifier>
      <datestamp>2017-02-08T03:58:30Z</datestamp>
      <setSpec>user-biosyslit</setSpec>
    </header>
    <header>
      <identifier>oai:zenodo.org:242095</identifier>
      <datestamp>2017-01-13T10:23:30Z</datestamp>
      <setSpec>user-biosyslit</setSpec>
    </header>
    <header>
      <identifier>oai:zenodo.org:237189</identifier>
      <datestamp>2017-01-10T11:57:08Z</datestamp>
      <setSpec>user-biosyslit</setSpec>
    </header>
    <header>
      <identifier>oai:zenodo.org:235260</identifier>
      <datestamp>2017-01-09T07:35:03Z</datestamp>
      <setSpec>user-biosyslit</setSpec>
    </header>
    <header>
      <identifier>oai:zenodo.org:270588</identifier>
      <datestamp>2017-02-07T23:33:13Z</datestamp>
      <setSpec>user-biosyslit</setSpec>
    </header>
    <header>
      <identifier>oai:zenodo.org:235690</identifier>
      <datestamp>2017-01-09T13:43:34Z</datestamp>
      <setSpec>user-biosyslit</setSpec>
    </header>
    <header>
      <identifier>oai:zenodo.org:235028</identifier>
      <datestamp>2017-01-09T04:46:32Z</datestamp>
      <setSpec>user-biosyslit</setSpec>
    </header>
    <header>
      <identifier>oai:zenodo.org:236591</identifier>
      <datestamp>2017-01-10T01:50:52Z</datestamp>
      <setSpec>user-biosyslit</setSpec>
    </header>
    <header>
      <identifier>oai:zenodo.org:235074</identifier>
      <datestamp>2017-01-09T05:27:32Z</datestamp>
      <setSpec>user-biosyslit</setSpec>
    </header>
    <header>
      <identifier>oai:zenodo.org:270653</identifier>
      <datestamp>2017-02-07T23:42:52Z</datestamp>
      <setSpec>user-biosyslit</setSpec>
    </header>
    <header>
      <identifier>oai:zenodo.org:235252</identifier>
      <datestamp>2017-01-09T07:29:06Z</datestamp>
      <setSpec>user-biosyslit</setSpec>
    </header>
    <header>
      <identifier>oai:zenodo.org:236391</identifier>
      <datestamp>2017-01-09T23:36:49Z</datestamp>
      <setSpec>user-biosyslit</setSpec>
    </header>
    <header>
      <identifier>oai:zenodo.org:236421</identifier>
      <datestamp>2017-01-10T00:05:59Z</datestamp>
      <setSpec>user-biosyslit</setSpec>
    </header>
    <header>
      <identifier>oai:zenodo.org:235541</identifier>
      <datestamp>2017-01-09T11:34:21Z</datestamp>
      <setSpec>user-biosyslit</setSpec>
    </header>
    <header>
      <identifier>oai:zenodo.org:236083</identifier>
      <datestamp>2017-01-09T18:31:35Z</datestamp>
      <setSpec>user-biosyslit</setSpec>
    </header>
    <header>
      <identifier>oai:zenodo.org:237196</identifier>
      <datestamp>2017-01-10T11:57:00Z</datestamp>
      <setSpec>user-biosyslit</setSpec>
    </header>
    <header>
      <identifier>oai:zenodo.org:236238</identifier>
      <datestamp>2017-01-09T20:00:51Z</datestamp>
      <setSpec>user-biosyslit</setSpec>
    </header>
    <header>
      <identifier>oai:zenodo.org:237885</identifier>
      <datestamp>2017-01-10T22:06:18Z</datestamp>
      <setSpec>user-biosyslit</setSpec>
    </header>
    <header>
      <identifier>oai:zenodo.org:236737</identifier>
      <datestamp>2017-01-10T03:58:36Z</datestamp>
      <setSpec>user-biosyslit</setSpec>
    </header>
    <header>
      <identifier>oai:zenodo.org:236960</identifier>
      <datestamp>2017-01-10T08:39:41Z</datestamp>
      <setSpec>user-biosyslit</setSpec>
    </header>
    <header>
      <identifier>oai:zenodo.org:237540</identifier>
      <datestamp>2017-01-10T16:48:31Z</datestamp>
      <setSpec>user-biosyslit</setSpec>
    </header>
    <header>
      <identifier>oai:zenodo.org:236562</identifier>
      <datestamp>2017-01-10T01:23:21Z</datestamp>
      <setSpec>user-biosyslit</setSpec>
    </header>
    <header>
      <identifier>oai:zenodo.org:236447</identifier>
      <datestamp>2017-01-10T00:15:50Z</datestamp>
      <setSpec>user-biosyslit</setSpec>
    </header>
    <header>
      <identifier>oai:zenodo.org:237879</identifier>
      <datestamp>2017-01-10T22:05:54Z</datestamp>
      <setSpec>user-biosyslit</setSpec>
    </header>
    <header>
      <identifier>oai:zenodo.org:237705</identifier>
      <datestamp>2017-01-10T18:59:38Z</datestamp>
      <setSpec>user-biosyslit</setSpec>
    </header>
    <header>
      <identifier>oai:zenodo.org:237214</identifier>
      <datestamp>2017-01-10T12:08:35Z</datestamp>
      <setSpec>user-biosyslit</setSpec>
    </header>
    <header>
      <identifier>oai:zenodo.org:237359</identifier>
      <datestamp>2017-01-10T14:40:08Z</datestamp>
      <setSpec>user-biosyslit</setSpec>
    </header>
    <header>
      <identifier>oai:zenodo.org:237048</identifier>
      <datestamp>2017-01-10T10:21:29Z</datestamp>
      <setSpec>user-biosyslit</setSpec>
    </header>
    <header>
      <identifier>oai:zenodo.org:236997</identifier>
      <datestamp>2017-01-10T09:17:53Z</datestamp>
      <setSpec>user-biosyslit</setSpec>
    </header>
    <header>
      <identifier>oai:zenodo.org:238303</identifier>
      <datestamp>2017-01-11T03:34:41Z</datestamp>
      <setSpec>user-biosyslit</setSpec>
    </header>
    <header>
      <identifier>oai:zenodo.org:236952</identifier>
      <datestamp>2017-01-10T08:39:15Z</datestamp>
      <setSpec>user-biosyslit</setSpec>
    </header>
    <header>
      <identifier>oai:zenodo.org:237117</identifier>
      <datestamp>2017-01-10T11:06:49Z</datestamp>
      <setSpec>user-biosyslit</setSpec>
    </header>
    <header>
      <identifier>oai:zenodo.org:237616</identifier>
      <datestamp>2017-01-10T18:01:50Z</datestamp>
      <setSpec>user-biosyslit</setSpec>
    </header>
    <header>
      <identifier>oai:zenodo.org:238122</identifier>
      <datestamp>2017-01-11T01:18:29Z</datestamp>
      <setSpec>user-biosyslit</setSpec>
    </header>
    <header>
      <identifier>oai:zenodo.org:271386</identifier>
      <datestamp>2017-02-08T01:34:25Z</datestamp>
      <setSpec>user-biosyslit</setSpec>
    </header>
    <header>
      <identifier>oai:zenodo.org:237664</identifier>
      <datestamp>2017-01-10T18:30:11Z</datestamp>
      <setSpec>user-biosyslit</setSpec>
    </header>
    <header>
      <identifier>oai:zenodo.org:238671</identifier>
      <datestamp>2017-01-11T09:04:18Z</datestamp>
      <setSpec>user-biosyslit</setSpec>
    </header>
    <header>
      <identifier>oai:zenodo.org:238296</identifier>
      <datestamp>2017-01-11T03:34:10Z</datestamp>
      <setSpec>user-biosyslit</setSpec>
    </header>
    <header>
      <identifier>oai:zenodo.org:238181</identifier>
      <datestamp>2017-01-11T01:57:01Z</datestamp>
      <setSpec>user-biosyslit</setSpec>
    </header>
    <header>
      <identifier>oai:zenodo.org:238608</identifier>
      <datestamp>2017-01-11T08:14:56Z</datestamp>
      <setSpec>user-biosyslit</setSpec>
    </header>
    <header>
      <identifier>oai:zenodo.org:237844</identifier>
      <datestamp>2017-01-10T21:21:11Z</datestamp>
      <setSpec>user-biosyslit</setSpec>
    </header>
    <header>
      <identifier>oai:zenodo.org:270983</identifier>
      <datestamp>2017-02-08T00:25:04Z</datestamp>
      <setSpec>user-biosyslit</setSpec>
    </header>
    <header>
      <identifier>oai:zenodo.org:237830</identifier>
      <datestamp>2017-01-10T21:13:13Z</datestamp>
      <setSpec>user-biosyslit</setSpec>
    </header>
    <header>
      <identifier>oai:zenodo.org:271122</identifier>
      <datestamp>2017-02-08T00:49:12Z</datestamp>
      <setSpec>user-biosyslit</setSpec>
    </header>
    <header>
      <identifier>oai:zenodo.org:238683</identifier>
      <datestamp>2017-01-11T09:26:55Z</datestamp>
      <setSpec>user-biosyslit</setSpec>
    </header>
    <header>
      <identifier>oai:zenodo.org:238825</identifier>
      <datestamp>2017-01-11T11:24:40Z</datestamp>
      <setSpec>user-biosyslit</setSpec>
    </header>
    <header>
      <identifier>oai:zenodo.org:238840</identifier>
      <datestamp>2017-01-11T11:31:21Z</datestamp>
      <setSpec>user-biosyslit</setSpec>
    </header>
    <header>
      <identifier>oai:zenodo.org:238467</identifier>
      <datestamp>2017-01-11T05:58:39Z</datestamp>
      <setSpec>user-biosyslit</setSpec>
    </header>
    <header>
      <identifier>oai:zenodo.org:238696</identifier>
      <datestamp>2017-01-11T09:46:11Z</datestamp>
      <setSpec>user-biosyslit</setSpec>
    </header>
    <header>
      <identifier>oai:zenodo.org:272301</identifier>
      <datestamp>2017-02-08T04:12:26Z</datestamp>
      <setSpec>user-biosyslit</setSpec>
    </header>
    <header>
      <identifier>oai:zenodo.org:239057</identifier>
      <datestamp>2017-01-11T15:53:29Z</datestamp>
      <setSpec>user-biosyslit</setSpec>
    </header>
    <header>
      <identifier>oai:zenodo.org:238379</identifier>
      <datestamp>2017-01-11T05:00:11Z</datestamp>
      <setSpec>user-biosyslit</setSpec>
    </header>
    <header>
      <identifier>oai:zenodo.org:239300</identifier>
      <datestamp>2017-01-11T18:49:53Z</datestamp>
      <setSpec>user-biosyslit</setSpec>
    </header>
    <header>
      <identifier>oai:zenodo.org:239249</identifier>
      <datestamp>2017-01-11T18:46:27Z</datestamp>
      <setSpec>user-biosyslit</setSpec>
    </header>
    <header>
      <identifier>oai:zenodo.org:239657</identifier>
      <datestamp>2017-01-11T23:21:05Z</datestamp>
      <setSpec>user-biosyslit</setSpec>
    </header>
    <header>
      <identifier>oai:zenodo.org:239411</identifier>
      <datestamp>2017-01-11T20:06:06Z</datestamp>
      <setSpec>user-biosyslit</setSpec>
    </header>
    <header>
      <identifier>oai:zenodo.org:239120</identifier>
      <datestamp>2017-01-11T16:46:12Z</datestamp>
      <setSpec>user-biosyslit</setSpec>
    </header>
    <header>
      <identifier>oai:zenodo.org:238842</identifier>
      <datestamp>2017-01-11T11:31:10Z</datestamp>
      <setSpec>user-biosyslit</setSpec>
    </header>
    <header>
      <identifier>oai:zenodo.org:240251</identifier>
      <datestamp>2017-01-12T06:34:35Z</datestamp>
      <setSpec>user-biosyslit</setSpec>
    </header>
    <header>
      <identifier>oai:zenodo.org:240088</identifier>
      <datestamp>2017-01-12T04:33:22Z</datestamp>
      <setSpec>user-biosyslit</setSpec>
    </header>
    <header>
      <identifier>oai:zenodo.org:239653</identifier>
      <datestamp>2017-01-11T23:20:51Z</datestamp>
      <setSpec>user-biosyslit</setSpec>
    </header>
    <header>
      <identifier>oai:zenodo.org:240620</identifier>
      <datestamp>2017-01-12T10:56:05Z</datestamp>
      <setSpec>user-biosyslit</setSpec>
    </header>
    <header>
      <identifier>oai:zenodo.org:271226</identifier>
      <datestamp>2017-02-08T01:05:51Z</datestamp>
      <setSpec>user-biosyslit</setSpec>
    </header>
    <header>
      <identifier>oai:zenodo.org:240451</identifier>
      <datestamp>2017-01-12T08:43:04Z</datestamp>
      <setSpec>user-biosyslit</setSpec>
    </header>
    <header>
      <identifier>oai:zenodo.org:239070</identifier>
      <datestamp>2017-01-11T16:05:23Z</datestamp>
      <setSpec>user-biosyslit</setSpec>
    </header>
    <header>
      <identifier>oai:zenodo.org:239511</identifier>
      <datestamp>2017-01-11T21:47:02Z</datestamp>
      <setSpec>user-biosyslit</setSpec>
    </header>
    <header>
      <identifier>oai:zenodo.org:240738</identifier>
      <datestamp>2017-01-12T13:19:02Z</datestamp>
      <setSpec>user-biosyslit</setSpec>
    </header>
    <header>
      <identifier>oai:zenodo.org:240108</identifier>
      <datestamp>2017-01-12T04:49:58Z</datestamp>
      <setSpec>user-biosyslit</setSpec>
    </header>
    <header>
      <identifier>oai:zenodo.org:240107</identifier>
      <datestamp>2017-01-12T04:50:19Z</datestamp>
      <setSpec>user-biosyslit</setSpec>
    </header>
    <header>
      <identifier>oai:zenodo.org:240261</identifier>
      <datestamp>2017-01-12T06:39:37Z</datestamp>
      <setSpec>user-biosyslit</setSpec>
    </header>
    <header>
      <identifier>oai:zenodo.org:240023</identifier>
      <datestamp>2017-01-12T03:50:08Z</datestamp>
      <setSpec>user-biosyslit</setSpec>
    </header>
    <header>
      <identifier>oai:zenodo.org:241562</identifier>
      <datestamp>2017-01-13T03:21:13Z</datestamp>
      <setSpec>user-biosyslit</setSpec>
    </header>
    <header>
      <identifier>oai:zenodo.org:271742</identifier>
      <datestamp>2017-02-08T02:31:16Z</datestamp>
      <setSpec>user-biosyslit</setSpec>
    </header>
    <header>
      <identifier>oai:zenodo.org:240030</identifier>
      <datestamp>2017-01-12T03:54:58Z</datestamp>
      <setSpec>user-biosyslit</setSpec>
    </header>
    <header>
      <identifier>oai:zenodo.org:240372</identifier>
      <datestamp>2017-01-12T07:53:02Z</datestamp>
      <setSpec>user-biosyslit</setSpec>
    </header>
    <header>
      <identifier>oai:zenodo.org:240494</identifier>
      <datestamp>2017-01-12T09:27:38Z</datestamp>
      <setSpec>user-biosyslit</setSpec>
    </header>
    <header>
      <identifier>oai:zenodo.org:241557</identifier>
      <datestamp>2017-01-13T03:16:35Z</datestamp>
      <setSpec>user-biosyslit</setSpec>
    </header>
    <header>
      <identifier>oai:zenodo.org:240203</identifier>
      <datestamp>2017-01-12T05:58:45Z</datestamp>
      <setSpec>user-biosyslit</setSpec>
    </header>
    <header>
      <identifier>oai:zenodo.org:240805</identifier>
      <datestamp>2017-01-12T14:18:25Z</datestamp>
      <setSpec>user-biosyslit</setSpec>
    </header>
    <header>
      <identifier>oai:zenodo.org:240722</identifier>
      <datestamp>2017-01-12T13:03:23Z</datestamp>
      <setSpec>user-biosyslit</setSpec>
    </header>
    <header>
      <identifier>oai:zenodo.org:241643</identifier>
      <datestamp>2017-01-13T04:12:20Z</datestamp>
      <setSpec>user-biosyslit</setSpec>
    </header>
    <header>
      <identifier>oai:zenodo.org:240958</identifier>
      <datestamp>2017-01-12T16:59:15Z</datestamp>
      <setSpec>user-biosyslit</setSpec>
    </header>
    <header>
      <identifier>oai:zenodo.org:271337</identifier>
      <datestamp>2017-02-08T01:22:04Z</datestamp>
      <setSpec>user-biosyslit</setSpec>
    </header>
    <header>
      <identifier>oai:zenodo.org:271644</identifier>
      <datestamp>2017-02-08T02:06:30Z</datestamp>
      <setSpec>user-biosyslit</setSpec>
    </header>
    <header>
      <identifier>oai:zenodo.org:271632</identifier>
      <datestamp>2017-02-08T02:05:57Z</datestamp>
      <setSpec>user-biosyslit</setSpec>
    </header>
    <header>
      <identifier>oai:zenodo.org:241270</identifier>
      <datestamp>2017-01-12T23:26:36Z</datestamp>
      <setSpec>user-biosyslit</setSpec>
    </header>
    <header>
      <identifier>oai:zenodo.org:241500</identifier>
      <datestamp>2017-01-13T02:17:48Z</datestamp>
      <setSpec>user-biosyslit</setSpec>
    </header>
    <header>
      <identifier>oai:zenodo.org:272172</identifier>
      <datestamp>2017-02-08T03:54:08Z</datestamp>
      <setSpec>user-biosyslit</setSpec>
    </header>
    <header>
      <identifier>oai:zenodo.org:241626</identifier>
      <datestamp>2017-01-13T04:11:31Z</datestamp>
      <setSpec>user-biosyslit</setSpec>
    </header>
    <resumptionToken expirationDate="2017-08-31T15:46:05Z" cursor="46500" completeListSize="77796">.eJyNyrEOQ0AYAOB3-WdpjlNU0kWoGBCuBEujiKij4trgxLvX0rmdv28FVlUl6OiAsXKUJUWTZe2EFA0LwIrxSemt2RmKJKZFT6Pcjt9hF6NUqlXPZLNrptjjLfI7kZNLICWiNkcNWoJr9Ep5OMfYmQiyVJcHi_dw9ldi36bZ3R5I1BuUSOXoW8FCRINkuPg-8c_Hfz6TnUGAIa8r0GVFFaCd8rFmoK_b9gGkwlFL.DInARQ.qCJc9rtXlsRbiyZnuybiYVafWF4</resumptionToken>
  </ListIdentifiers>
</OAI-PMH>
