<?xml version='1.0' encoding='UTF-8'?>
<?xml-stylesheet type="text/xsl" href="/static/xsl/oai2.v1.0.xsl"?>
<OAI-PMH xmlns="http://www.openarchives.org/OAI/2.0/" xmlns:xsi="http://www.w3.org/2001/XMLSchema-instance" xsi:schemaLocation="http://www.openarchives.org/OAI/2.0/ http://www.openarchives.org/OAI/2.0/OAI-PMH.xsd">
  <responseDate>2017-08-31T15:44:25Z</responseDate>
  <request verb="ListIdentifiers" resumptionToken=".eJyNyk0LgjAYAOD_8p4l9tGmCF3Ckg4qtibpJUxFymnhCnXhf69L5zo_zwt0VZXgogWi2OacU7IkjDnM4Rboor8pdbp8HIpjoopOydxPnvs2QSmp7dDTY-ClNDQNilpsxDYmR-yM8oKm-CAfqdmPCd0NAm3swMRTeN19XkkjX2Vn_y5kt1aClH20iSeB1yKjxffhP5_5-Ty9AgvueV2ByxCyoBnyvtbgvub5DdLiUW0.DInAWQ.VwLOKh02dlg2oihJ-qadtNUAJEo">https://zenodo.org/oai2d</request>
  <ListIdentifiers>
    <header>
      <identifier>oai:zenodo.org:277960</identifier>
      <datestamp>2017-02-08T22:09:46Z</datestamp>
      <setSpec>user-biosyslit</setSpec>
    </header>
    <header>
      <identifier>oai:zenodo.org:238060</identifier>
      <datestamp>2017-01-11T00:36:11Z</datestamp>
      <setSpec>user-biosyslit</setSpec>
    </header>
    <header>
      <identifier>oai:zenodo.org:277449</identifier>
      <datestamp>2017-02-08T21:09:09Z</datestamp>
      <setSpec>user-biosyslit</setSpec>
    </header>
    <header>
      <identifier>oai:zenodo.org:237302</identifier>
      <datestamp>2017-01-10T14:06:29Z</datestamp>
      <setSpec>user-biosyslit</setSpec>
    </header>
    <header>
      <identifier>oai:zenodo.org:277798</identifier>
      <datestamp>2017-02-08T21:50:34Z</datestamp>
      <setSpec>user-biosyslit</setSpec>
    </header>
    <header>
      <identifier>oai:zenodo.org:277528</identifier>
      <datestamp>2017-02-08T21:17:45Z</datestamp>
      <setSpec>user-biosyslit</setSpec>
    </header>
    <header>
      <identifier>oai:zenodo.org:278072</identifier>
      <datestamp>2017-02-08T22:23:22Z</datestamp>
      <setSpec>user-biosyslit</setSpec>
    </header>
    <header>
      <identifier>oai:zenodo.org:239114</identifier>
      <datestamp>2017-01-11T16:37:37Z</datestamp>
      <setSpec>user-biosyslit</setSpec>
    </header>
    <header>
      <identifier>oai:zenodo.org:238193</identifier>
      <datestamp>2017-01-11T02:01:03Z</datestamp>
      <setSpec>user-biosyslit</setSpec>
    </header>
    <header>
      <identifier>oai:zenodo.org:239415</identifier>
      <datestamp>2017-01-11T20:06:22Z</datestamp>
      <setSpec>user-biosyslit</setSpec>
    </header>
    <header>
      <identifier>oai:zenodo.org:271793</identifier>
      <datestamp>2017-02-08T02:41:17Z</datestamp>
      <setSpec>user-biosyslit</setSpec>
    </header>
    <header>
      <identifier>oai:zenodo.org:238041</identifier>
      <datestamp>2017-01-11T00:17:45Z</datestamp>
      <setSpec>user-biosyslit</setSpec>
    </header>
    <header>
      <identifier>oai:zenodo.org:278843</identifier>
      <datestamp>2017-02-08T23:59:06Z</datestamp>
      <setSpec>user-biosyslit</setSpec>
    </header>
    <header>
      <identifier>oai:zenodo.org:278495</identifier>
      <datestamp>2017-02-08T23:17:17Z</datestamp>
      <setSpec>user-biosyslit</setSpec>
    </header>
    <header>
      <identifier>oai:zenodo.org:239491</identifier>
      <datestamp>2017-01-11T21:22:06Z</datestamp>
      <setSpec>user-biosyslit</setSpec>
    </header>
    <header>
      <identifier>oai:zenodo.org:277948</identifier>
      <datestamp>2017-02-08T22:08:21Z</datestamp>
      <setSpec>user-biosyslit</setSpec>
    </header>
    <header>
      <identifier>oai:zenodo.org:279458</identifier>
      <datestamp>2017-02-09T01:22:37Z</datestamp>
      <setSpec>user-biosyslit</setSpec>
    </header>
    <header>
      <identifier>oai:zenodo.org:238621</identifier>
      <datestamp>2017-01-11T08:14:39Z</datestamp>
      <setSpec>user-biosyslit</setSpec>
    </header>
    <header>
      <identifier>oai:zenodo.org:240521</identifier>
      <datestamp>2017-01-12T09:49:46Z</datestamp>
      <setSpec>user-biosyslit</setSpec>
    </header>
    <header>
      <identifier>oai:zenodo.org:278073</identifier>
      <datestamp>2017-02-08T22:23:24Z</datestamp>
      <setSpec>user-biosyslit</setSpec>
    </header>
    <header>
      <identifier>oai:zenodo.org:266679</identifier>
      <datestamp>2017-02-01T13:34:35Z</datestamp>
      <setSpec>user-biosyslit</setSpec>
    </header>
    <header>
      <identifier>oai:zenodo.org:267881</identifier>
      <datestamp>2017-02-02T09:00:09Z</datestamp>
      <setSpec>user-biosyslit</setSpec>
    </header>
    <header>
      <identifier>oai:zenodo.org:266553</identifier>
      <datestamp>2017-02-01T12:02:40Z</datestamp>
      <setSpec>user-biosyslit</setSpec>
    </header>
    <header>
      <identifier>oai:zenodo.org:267179</identifier>
      <datestamp>2017-02-01T20:41:00Z</datestamp>
      <setSpec>user-biosyslit</setSpec>
    </header>
    <header>
      <identifier>oai:zenodo.org:266564</identifier>
      <datestamp>2017-02-01T12:03:11Z</datestamp>
      <setSpec>user-biosyslit</setSpec>
    </header>
    <header>
      <identifier>oai:zenodo.org:266741</identifier>
      <datestamp>2017-02-01T14:28:45Z</datestamp>
      <setSpec>user-biosyslit</setSpec>
    </header>
    <header>
      <identifier>oai:zenodo.org:267930</identifier>
      <datestamp>2017-02-02T11:11:11Z</datestamp>
      <setSpec>user-biosyslit</setSpec>
    </header>
    <header>
      <identifier>oai:zenodo.org:266946</identifier>
      <datestamp>2017-02-01T17:22:08Z</datestamp>
      <setSpec>user-biosyslit</setSpec>
    </header>
    <header>
      <identifier>oai:zenodo.org:266857</identifier>
      <datestamp>2017-02-01T15:55:58Z</datestamp>
      <setSpec>user-biosyslit</setSpec>
    </header>
    <header>
      <identifier>oai:zenodo.org:267586</identifier>
      <datestamp>2017-02-02T04:25:59Z</datestamp>
      <setSpec>user-biosyslit</setSpec>
    </header>
    <header>
      <identifier>oai:zenodo.org:267457</identifier>
      <datestamp>2017-02-02T02:28:58Z</datestamp>
      <setSpec>user-biosyslit</setSpec>
    </header>
    <header>
      <identifier>oai:zenodo.org:266865</identifier>
      <datestamp>2017-02-01T15:56:15Z</datestamp>
      <setSpec>user-biosyslit</setSpec>
    </header>
    <header>
      <identifier>oai:zenodo.org:267264</identifier>
      <datestamp>2017-02-01T23:35:52Z</datestamp>
      <setSpec>user-biosyslit</setSpec>
    </header>
    <header>
      <identifier>oai:zenodo.org:274808</identifier>
      <datestamp>2017-02-08T14:29:22Z</datestamp>
      <setSpec>user-biosyslit</setSpec>
    </header>
    <header>
      <identifier>oai:zenodo.org:267705</identifier>
      <datestamp>2017-02-02T06:05:46Z</datestamp>
      <setSpec>user-biosyslit</setSpec>
    </header>
    <header>
      <identifier>oai:zenodo.org:267293</identifier>
      <datestamp>2017-02-01T23:53:55Z</datestamp>
      <setSpec>user-biosyslit</setSpec>
    </header>
    <header>
      <identifier>oai:zenodo.org:267535</identifier>
      <datestamp>2017-02-02T03:44:18Z</datestamp>
      <setSpec>user-biosyslit</setSpec>
    </header>
    <header>
      <identifier>oai:zenodo.org:227383</identifier>
      <datestamp>2017-01-01T20:00:53Z</datestamp>
      <setSpec>user-biosyslit</setSpec>
    </header>
    <header>
      <identifier>oai:zenodo.org:267709</identifier>
      <datestamp>2017-02-02T06:13:12Z</datestamp>
      <setSpec>user-biosyslit</setSpec>
    </header>
    <header>
      <identifier>oai:zenodo.org:268060</identifier>
      <datestamp>2017-02-03T01:16:14Z</datestamp>
      <setSpec>user-biosyslit</setSpec>
    </header>
    <header>
      <identifier>oai:zenodo.org:227687</identifier>
      <datestamp>2017-01-02T02:17:19Z</datestamp>
      <setSpec>user-biosyslit</setSpec>
    </header>
    <header>
      <identifier>oai:zenodo.org:274779</identifier>
      <datestamp>2017-02-08T14:20:38Z</datestamp>
      <setSpec>user-biosyslit</setSpec>
    </header>
    <header>
      <identifier>oai:zenodo.org:227725</identifier>
      <datestamp>2017-01-02T02:39:55Z</datestamp>
      <setSpec>user-biosyslit</setSpec>
    </header>
    <header>
      <identifier>oai:zenodo.org:227560</identifier>
      <datestamp>2017-01-01T23:50:29Z</datestamp>
      <setSpec>user-biosyslit</setSpec>
    </header>
    <header>
      <identifier>oai:zenodo.org:274670</identifier>
      <datestamp>2017-02-08T13:57:17Z</datestamp>
      <setSpec>user-biosyslit</setSpec>
    </header>
    <header>
      <identifier>oai:zenodo.org:228075</identifier>
      <datestamp>2017-01-02T10:02:54Z</datestamp>
      <setSpec>user-biosyslit</setSpec>
    </header>
    <header>
      <identifier>oai:zenodo.org:228479</identifier>
      <datestamp>2017-01-03T00:22:18Z</datestamp>
      <setSpec>user-biosyslit</setSpec>
    </header>
    <header>
      <identifier>oai:zenodo.org:268362</identifier>
      <datestamp>2017-02-03T12:17:50Z</datestamp>
      <setSpec>user-biosyslit</setSpec>
    </header>
    <header>
      <identifier>oai:zenodo.org:228981</identifier>
      <datestamp>2017-01-03T07:59:15Z</datestamp>
      <setSpec>user-biosyslit</setSpec>
    </header>
    <header>
      <identifier>oai:zenodo.org:230349</identifier>
      <datestamp>2017-01-04T23:10:29Z</datestamp>
      <setSpec>user-biosyslit</setSpec>
    </header>
    <header>
      <identifier>oai:zenodo.org:228841</identifier>
      <datestamp>2017-01-03T05:47:23Z</datestamp>
      <setSpec>user-biosyslit</setSpec>
    </header>
    <header>
      <identifier>oai:zenodo.org:229243</identifier>
      <datestamp>2017-01-03T13:13:27Z</datestamp>
      <setSpec>user-biosyslit</setSpec>
    </header>
    <header>
      <identifier>oai:zenodo.org:228761</identifier>
      <datestamp>2017-01-03T04:27:56Z</datestamp>
      <setSpec>user-biosyslit</setSpec>
    </header>
    <header>
      <identifier>oai:zenodo.org:229191</identifier>
      <datestamp>2017-01-03T12:17:12Z</datestamp>
      <setSpec>user-biosyslit</setSpec>
    </header>
    <header>
      <identifier>oai:zenodo.org:274463</identifier>
      <datestamp>2017-02-08T13:18:25Z</datestamp>
      <setSpec>user-biosyslit</setSpec>
    </header>
    <header>
      <identifier>oai:zenodo.org:228578</identifier>
      <datestamp>2017-01-03T01:51:52Z</datestamp>
      <setSpec>user-biosyslit</setSpec>
    </header>
    <header>
      <identifier>oai:zenodo.org:229151</identifier>
      <datestamp>2017-01-03T11:05:56Z</datestamp>
      <setSpec>user-biosyslit</setSpec>
    </header>
    <header>
      <identifier>oai:zenodo.org:268237</identifier>
      <datestamp>2017-02-03T04:34:51Z</datestamp>
      <setSpec>user-biosyslit</setSpec>
    </header>
    <header>
      <identifier>oai:zenodo.org:270187</identifier>
      <datestamp>2017-02-07T22:30:19Z</datestamp>
      <setSpec>user-biosyslit</setSpec>
    </header>
    <header>
      <identifier>oai:zenodo.org:229680</identifier>
      <datestamp>2017-01-03T20:29:21Z</datestamp>
      <setSpec>user-biosyslit</setSpec>
    </header>
    <header>
      <identifier>oai:zenodo.org:230943</identifier>
      <datestamp>2017-01-05T11:34:44Z</datestamp>
      <setSpec>user-biosyslit</setSpec>
    </header>
    <header>
      <identifier>oai:zenodo.org:230643</identifier>
      <datestamp>2017-01-05T05:35:02Z</datestamp>
      <setSpec>user-biosyslit</setSpec>
    </header>
    <header>
      <identifier>oai:zenodo.org:269259</identifier>
      <datestamp>2017-02-06T23:44:29Z</datestamp>
      <setSpec>user-biosyslit</setSpec>
    </header>
    <header>
      <identifier>oai:zenodo.org:230424</identifier>
      <datestamp>2017-01-05T01:16:56Z</datestamp>
      <setSpec>user-biosyslit</setSpec>
    </header>
    <header>
      <identifier>oai:zenodo.org:229923</identifier>
      <datestamp>2017-01-04T16:02:05Z</datestamp>
      <setSpec>user-biosyslit</setSpec>
    </header>
    <header>
      <identifier>oai:zenodo.org:230620</identifier>
      <datestamp>2017-01-05T05:02:29Z</datestamp>
      <setSpec>user-biosyslit</setSpec>
    </header>
    <header>
      <identifier>oai:zenodo.org:269437</identifier>
      <datestamp>2017-02-07T00:33:39Z</datestamp>
      <setSpec>user-biosyslit</setSpec>
    </header>
    <header>
      <identifier>oai:zenodo.org:274977</identifier>
      <datestamp>2017-02-08T14:57:30Z</datestamp>
      <setSpec>user-biosyslit</setSpec>
    </header>
    <header>
      <identifier>oai:zenodo.org:269571</identifier>
      <datestamp>2017-02-07T01:00:54Z</datestamp>
      <setSpec>user-biosyslit</setSpec>
    </header>
    <header>
      <identifier>oai:zenodo.org:269984</identifier>
      <datestamp>2017-02-07T21:57:00Z</datestamp>
      <setSpec>user-biosyslit</setSpec>
    </header>
    <header>
      <identifier>oai:zenodo.org:269301</identifier>
      <datestamp>2017-02-06T23:50:24Z</datestamp>
      <setSpec>user-biosyslit</setSpec>
    </header>
    <header>
      <identifier>oai:zenodo.org:231981</identifier>
      <datestamp>2017-01-06T09:37:53Z</datestamp>
      <setSpec>user-biosyslit</setSpec>
    </header>
    <header>
      <identifier>oai:zenodo.org:231696</identifier>
      <datestamp>2017-01-06T06:04:43Z</datestamp>
      <setSpec>user-biosyslit</setSpec>
    </header>
    <header>
      <identifier>oai:zenodo.org:231474</identifier>
      <datestamp>2017-01-06T02:30:25Z</datestamp>
      <setSpec>user-biosyslit</setSpec>
    </header>
    <header>
      <identifier>oai:zenodo.org:231460</identifier>
      <datestamp>2017-01-06T02:14:17Z</datestamp>
      <setSpec>user-biosyslit</setSpec>
    </header>
    <header>
      <identifier>oai:zenodo.org:269169</identifier>
      <datestamp>2017-02-06T22:54:40Z</datestamp>
      <setSpec>user-biosyslit</setSpec>
    </header>
    <header>
      <identifier>oai:zenodo.org:231970</identifier>
      <datestamp>2017-01-06T09:37:16Z</datestamp>
      <setSpec>user-biosyslit</setSpec>
    </header>
    <header>
      <identifier>oai:zenodo.org:231067</identifier>
      <datestamp>2017-01-05T13:58:45Z</datestamp>
      <setSpec>user-biosyslit</setSpec>
    </header>
    <header>
      <identifier>oai:zenodo.org:269367</identifier>
      <datestamp>2017-02-06T23:58:50Z</datestamp>
      <setSpec>user-biosyslit</setSpec>
    </header>
    <header>
      <identifier>oai:zenodo.org:274826</identifier>
      <datestamp>2017-02-08T14:31:59Z</datestamp>
      <setSpec>user-biosyslit</setSpec>
    </header>
    <header>
      <identifier>oai:zenodo.org:274795</identifier>
      <datestamp>2017-02-08T14:27:01Z</datestamp>
      <setSpec>user-biosyslit</setSpec>
    </header>
    <header>
      <identifier>oai:zenodo.org:269497</identifier>
      <datestamp>2017-02-07T00:43:25Z</datestamp>
      <setSpec>user-biosyslit</setSpec>
    </header>
    <header>
      <identifier>oai:zenodo.org:270402</identifier>
      <datestamp>2017-02-07T23:09:57Z</datestamp>
      <setSpec>user-biosyslit</setSpec>
    </header>
    <header>
      <identifier>oai:zenodo.org:270437</identifier>
      <datestamp>2017-02-07T23:15:20Z</datestamp>
      <setSpec>user-biosyslit</setSpec>
    </header>
    <header>
      <identifier>oai:zenodo.org:275426</identifier>
      <datestamp>2017-02-08T16:20:12Z</datestamp>
      <setSpec>user-biosyslit</setSpec>
    </header>
    <header>
      <identifier>oai:zenodo.org:270456</identifier>
      <datestamp>2017-02-07T23:16:20Z</datestamp>
      <setSpec>user-biosyslit</setSpec>
    </header>
    <header>
      <identifier>oai:zenodo.org:270660</identifier>
      <datestamp>2017-02-07T23:43:36Z</datestamp>
      <setSpec>user-biosyslit</setSpec>
    </header>
    <header>
      <identifier>oai:zenodo.org:269508</identifier>
      <datestamp>2017-02-07T00:44:01Z</datestamp>
      <setSpec>user-biosyslit</setSpec>
    </header>
    <header>
      <identifier>oai:zenodo.org:270171</identifier>
      <datestamp>2017-02-07T22:29:04Z</datestamp>
      <setSpec>user-biosyslit</setSpec>
    </header>
    <header>
      <identifier>oai:zenodo.org:269426</identifier>
      <datestamp>2017-02-07T00:29:22Z</datestamp>
      <setSpec>user-biosyslit</setSpec>
    </header>
    <header>
      <identifier>oai:zenodo.org:232466</identifier>
      <datestamp>2017-01-06T18:12:28Z</datestamp>
      <setSpec>user-biosyslit</setSpec>
    </header>
    <header>
      <identifier>oai:zenodo.org:232077</identifier>
      <datestamp>2017-01-06T11:00:10Z</datestamp>
      <setSpec>user-biosyslit</setSpec>
    </header>
    <header>
      <identifier>oai:zenodo.org:275213</identifier>
      <datestamp>2017-02-08T15:42:54Z</datestamp>
      <setSpec>user-biosyslit</setSpec>
    </header>
    <header>
      <identifier>oai:zenodo.org:232686</identifier>
      <datestamp>2017-01-06T21:37:48Z</datestamp>
      <setSpec>user-biosyslit</setSpec>
    </header>
    <header>
      <identifier>oai:zenodo.org:232220</identifier>
      <datestamp>2017-01-07T12:29:12Z</datestamp>
      <setSpec>openaire</setSpec>
      <setSpec>user-biosyslit</setSpec>
    </header>
    <header>
      <identifier>oai:zenodo.org:275095</identifier>
      <datestamp>2017-02-08T15:17:03Z</datestamp>
      <setSpec>user-biosyslit</setSpec>
    </header>
    <header>
      <identifier>oai:zenodo.org:232235</identifier>
      <datestamp>2017-01-06T14:05:33Z</datestamp>
      <setSpec>user-biosyslit</setSpec>
    </header>
    <header>
      <identifier>oai:zenodo.org:276098</identifier>
      <datestamp>2017-02-08T18:07:35Z</datestamp>
      <setSpec>user-biosyslit</setSpec>
    </header>
    <header>
      <identifier>oai:zenodo.org:276225</identifier>
      <datestamp>2017-02-08T18:26:56Z</datestamp>
      <setSpec>user-biosyslit</setSpec>
    </header>
    <header>
      <identifier>oai:zenodo.org:233316</identifier>
      <datestamp>2017-01-08T03:23:34Z</datestamp>
      <setSpec>user-biosyslit</setSpec>
    </header>
    <resumptionToken expirationDate="2017-08-31T15:46:25Z" cursor="49900" completeListSize="77796">.eJyNyrEKgkAYAOB3-WeJ-71SEVrCEgcVvZR0CVMR8zTxCvXEd6-luebvW0CUZQEm2VDUdoQYuEUNDd3QFRD58OD8Wn8Y8kvM845HmR2_wjYmiVrpniUm10qoJxvityjZKVAvaExRTebgHD0TGU4xdUZGjrorg9m7O59XUN_m6c3uWdQdOFOLwT8GM8MDS2n-ffjnkz-fJfagQJ9VJZg7ggo0YzZUAsxlXd-X7FEz.DInAWQ.oI9qbS0WSFu7ofb1bnVCNWcl5Gc</resumptionToken>
  </ListIdentifiers>
</OAI-PMH>
