<?xml version='1.0' encoding='UTF-8'?>
<?xml-stylesheet type="text/xsl" href="/static/xsl/oai2.v1.0.xsl"?>
<OAI-PMH xmlns="http://www.openarchives.org/OAI/2.0/" xmlns:xsi="http://www.w3.org/2001/XMLSchema-instance" xsi:schemaLocation="http://www.openarchives.org/OAI/2.0/ http://www.openarchives.org/OAI/2.0/OAI-PMH.xsd">
  <responseDate>2017-08-31T15:45:55Z</responseDate>
  <request verb="ListIdentifiers" resumptionToken=".eJyNysEKgjAYAOB3-c8Sm8tcQpewpIPKXA71EqYi5TRxRbro3fPSuc7f9wJVVSU4aEHWiK4osSxq0TVeGqCK4Sbl6TIrFImQRSfj3BOPqBUoNWs7cNXouykJdIPCFmu-Z2aC6Rhf0MSO8T3V0SjI4cnRzvY1m4LrYX4lCT2Znb2ex91WcrMcwh2bON7yjBTfh_98-udz1QYM6PO6AsdGxIDmmQ-1Auf1fn8AdpNRFw.DInAsw.0d21LYXs7yh2WtifkGrrOqi0pnM">https://zenodo.org/oai2d</request>
  <ListIdentifiers>
    <header>
      <identifier>oai:zenodo.org:246255</identifier>
      <datestamp>2017-01-15T23:28:24Z</datestamp>
      <setSpec>user-biosyslit</setSpec>
    </header>
    <header>
      <identifier>oai:zenodo.org:246251</identifier>
      <datestamp>2017-01-15T23:28:12Z</datestamp>
      <setSpec>user-biosyslit</setSpec>
    </header>
    <header>
      <identifier>oai:zenodo.org:246256</identifier>
      <datestamp>2017-01-15T23:28:28Z</datestamp>
      <setSpec>user-biosyslit</setSpec>
    </header>
    <header>
      <identifier>oai:zenodo.org:246253</identifier>
      <datestamp>2017-01-15T23:28:16Z</datestamp>
      <setSpec>user-biosyslit</setSpec>
    </header>
    <header>
      <identifier>oai:zenodo.org:246257</identifier>
      <datestamp>2017-01-15T23:28:31Z</datestamp>
      <setSpec>user-biosyslit</setSpec>
    </header>
    <header>
      <identifier>oai:zenodo.org:246254</identifier>
      <datestamp>2017-01-15T23:28:21Z</datestamp>
      <setSpec>user-biosyslit</setSpec>
    </header>
    <header>
      <identifier>oai:zenodo.org:246250</identifier>
      <datestamp>2017-01-15T23:28:08Z</datestamp>
      <setSpec>user-biosyslit</setSpec>
    </header>
    <header>
      <identifier>oai:zenodo.org:229439</identifier>
      <datestamp>2017-01-03T15:54:44Z</datestamp>
      <setSpec>user-biosyslit</setSpec>
    </header>
    <header>
      <identifier>oai:zenodo.org:229443</identifier>
      <datestamp>2017-01-03T15:54:55Z</datestamp>
      <setSpec>user-biosyslit</setSpec>
    </header>
    <header>
      <identifier>oai:zenodo.org:229448</identifier>
      <datestamp>2017-01-03T15:55:08Z</datestamp>
      <setSpec>user-biosyslit</setSpec>
    </header>
    <header>
      <identifier>oai:zenodo.org:229444</identifier>
      <datestamp>2017-01-03T15:54:58Z</datestamp>
      <setSpec>user-biosyslit</setSpec>
    </header>
    <header>
      <identifier>oai:zenodo.org:229442</identifier>
      <datestamp>2017-01-03T15:54:52Z</datestamp>
      <setSpec>user-biosyslit</setSpec>
    </header>
    <header>
      <identifier>oai:zenodo.org:229450</identifier>
      <datestamp>2017-01-03T15:55:13Z</datestamp>
      <setSpec>user-biosyslit</setSpec>
    </header>
    <header>
      <identifier>oai:zenodo.org:229441</identifier>
      <datestamp>2017-01-03T15:54:49Z</datestamp>
      <setSpec>user-biosyslit</setSpec>
    </header>
    <header>
      <identifier>oai:zenodo.org:229446</identifier>
      <datestamp>2017-01-03T15:55:03Z</datestamp>
      <setSpec>user-biosyslit</setSpec>
    </header>
    <header>
      <identifier>oai:zenodo.org:229451</identifier>
      <datestamp>2017-01-03T15:55:16Z</datestamp>
      <setSpec>user-biosyslit</setSpec>
    </header>
    <header>
      <identifier>oai:zenodo.org:242130</identifier>
      <datestamp>2017-01-13T10:51:47Z</datestamp>
      <setSpec>user-biosyslit</setSpec>
    </header>
    <header>
      <identifier>oai:zenodo.org:274080</identifier>
      <datestamp>2017-02-08T12:04:39Z</datestamp>
      <setSpec>user-biosyslit</setSpec>
    </header>
    <header>
      <identifier>oai:zenodo.org:265852</identifier>
      <datestamp>2017-01-31T22:16:09Z</datestamp>
      <setSpec>user-biosyslit</setSpec>
    </header>
    <header>
      <identifier>oai:zenodo.org:265853</identifier>
      <datestamp>2017-01-31T22:16:04Z</datestamp>
      <setSpec>user-biosyslit</setSpec>
    </header>
    <header>
      <identifier>oai:zenodo.org:265854</identifier>
      <datestamp>2017-01-31T22:16:07Z</datestamp>
      <setSpec>user-biosyslit</setSpec>
    </header>
    <header>
      <identifier>oai:zenodo.org:238136</identifier>
      <datestamp>2017-01-11T01:28:00Z</datestamp>
      <setSpec>user-biosyslit</setSpec>
    </header>
    <header>
      <identifier>oai:zenodo.org:238964</identifier>
      <datestamp>2017-01-11T13:52:37Z</datestamp>
      <setSpec>user-biosyslit</setSpec>
    </header>
    <header>
      <identifier>oai:zenodo.org:238961</identifier>
      <datestamp>2017-01-11T13:52:28Z</datestamp>
      <setSpec>user-biosyslit</setSpec>
    </header>
    <header>
      <identifier>oai:zenodo.org:238960</identifier>
      <datestamp>2017-01-11T13:52:24Z</datestamp>
      <setSpec>user-biosyslit</setSpec>
    </header>
    <header>
      <identifier>oai:zenodo.org:238959</identifier>
      <datestamp>2017-01-11T13:52:21Z</datestamp>
      <setSpec>user-biosyslit</setSpec>
    </header>
    <header>
      <identifier>oai:zenodo.org:238962</identifier>
      <datestamp>2017-01-11T13:52:31Z</datestamp>
      <setSpec>user-biosyslit</setSpec>
    </header>
    <header>
      <identifier>oai:zenodo.org:238965</identifier>
      <datestamp>2017-01-11T13:52:41Z</datestamp>
      <setSpec>user-biosyslit</setSpec>
    </header>
    <header>
      <identifier>oai:zenodo.org:231308</identifier>
      <datestamp>2017-01-05T19:35:13Z</datestamp>
      <setSpec>user-biosyslit</setSpec>
    </header>
    <header>
      <identifier>oai:zenodo.org:231311</identifier>
      <datestamp>2017-01-05T19:35:26Z</datestamp>
      <setSpec>user-biosyslit</setSpec>
    </header>
    <header>
      <identifier>oai:zenodo.org:234408</identifier>
      <datestamp>2017-01-08T19:21:35Z</datestamp>
      <setSpec>user-biosyslit</setSpec>
    </header>
    <header>
      <identifier>oai:zenodo.org:230436</identifier>
      <datestamp>2017-01-05T01:22:40Z</datestamp>
      <setSpec>user-biosyslit</setSpec>
    </header>
    <header>
      <identifier>oai:zenodo.org:234391</identifier>
      <datestamp>2017-01-08T19:20:18Z</datestamp>
      <setSpec>user-biosyslit</setSpec>
    </header>
    <header>
      <identifier>oai:zenodo.org:234400</identifier>
      <datestamp>2017-01-08T19:21:01Z</datestamp>
      <setSpec>user-biosyslit</setSpec>
    </header>
    <header>
      <identifier>oai:zenodo.org:234396</identifier>
      <datestamp>2017-01-08T19:20:45Z</datestamp>
      <setSpec>user-biosyslit</setSpec>
    </header>
    <header>
      <identifier>oai:zenodo.org:234401</identifier>
      <datestamp>2017-01-08T19:21:06Z</datestamp>
      <setSpec>user-biosyslit</setSpec>
    </header>
    <header>
      <identifier>oai:zenodo.org:234393</identifier>
      <datestamp>2017-01-08T19:20:27Z</datestamp>
      <setSpec>user-biosyslit</setSpec>
    </header>
    <header>
      <identifier>oai:zenodo.org:234405</identifier>
      <datestamp>2017-01-08T19:21:22Z</datestamp>
      <setSpec>user-biosyslit</setSpec>
    </header>
    <header>
      <identifier>oai:zenodo.org:230437</identifier>
      <datestamp>2017-01-05T01:22:39Z</datestamp>
      <setSpec>user-biosyslit</setSpec>
    </header>
    <header>
      <identifier>oai:zenodo.org:250540</identifier>
      <datestamp>2017-01-18T11:39:58Z</datestamp>
      <setSpec>user-biosyslit</setSpec>
    </header>
    <header>
      <identifier>oai:zenodo.org:250534</identifier>
      <datestamp>2017-01-18T11:39:34Z</datestamp>
      <setSpec>user-biosyslit</setSpec>
    </header>
    <header>
      <identifier>oai:zenodo.org:250538</identifier>
      <datestamp>2017-01-18T11:39:48Z</datestamp>
      <setSpec>user-biosyslit</setSpec>
    </header>
    <header>
      <identifier>oai:zenodo.org:250541</identifier>
      <datestamp>2017-01-18T11:40:03Z</datestamp>
      <setSpec>user-biosyslit</setSpec>
    </header>
    <header>
      <identifier>oai:zenodo.org:250539</identifier>
      <datestamp>2017-01-18T11:39:52Z</datestamp>
      <setSpec>user-biosyslit</setSpec>
    </header>
    <header>
      <identifier>oai:zenodo.org:250537</identifier>
      <datestamp>2017-01-18T11:39:44Z</datestamp>
      <setSpec>user-biosyslit</setSpec>
    </header>
    <header>
      <identifier>oai:zenodo.org:287694</identifier>
      <datestamp>2017-02-09T18:59:24Z</datestamp>
      <setSpec>user-biosyslit</setSpec>
    </header>
    <header>
      <identifier>oai:zenodo.org:270936</identifier>
      <datestamp>2017-02-08T00:15:58Z</datestamp>
      <setSpec>user-biosyslit</setSpec>
    </header>
    <header>
      <identifier>oai:zenodo.org:270937</identifier>
      <datestamp>2017-02-08T00:16:03Z</datestamp>
      <setSpec>user-biosyslit</setSpec>
    </header>
    <header>
      <identifier>oai:zenodo.org:270940</identifier>
      <datestamp>2017-02-08T00:16:12Z</datestamp>
      <setSpec>user-biosyslit</setSpec>
    </header>
    <header>
      <identifier>oai:zenodo.org:270939</identifier>
      <datestamp>2017-02-08T00:16:09Z</datestamp>
      <setSpec>user-biosyslit</setSpec>
    </header>
    <header>
      <identifier>oai:zenodo.org:287695</identifier>
      <datestamp>2017-02-09T18:59:11Z</datestamp>
      <setSpec>user-biosyslit</setSpec>
    </header>
    <header>
      <identifier>oai:zenodo.org:270935</identifier>
      <datestamp>2017-02-08T00:16:21Z</datestamp>
      <setSpec>user-biosyslit</setSpec>
    </header>
    <header>
      <identifier>oai:zenodo.org:277723</identifier>
      <datestamp>2017-02-08T21:42:14Z</datestamp>
      <setSpec>user-biosyslit</setSpec>
    </header>
    <header>
      <identifier>oai:zenodo.org:277724</identifier>
      <datestamp>2017-02-08T21:42:16Z</datestamp>
      <setSpec>user-biosyslit</setSpec>
    </header>
    <header>
      <identifier>oai:zenodo.org:281582</identifier>
      <datestamp>2017-02-09T05:34:15Z</datestamp>
      <setSpec>user-biosyslit</setSpec>
    </header>
    <header>
      <identifier>oai:zenodo.org:270942</identifier>
      <datestamp>2017-02-08T00:16:19Z</datestamp>
      <setSpec>user-biosyslit</setSpec>
    </header>
    <header>
      <identifier>oai:zenodo.org:281580</identifier>
      <datestamp>2017-02-09T05:34:21Z</datestamp>
      <setSpec>user-biosyslit</setSpec>
    </header>
    <header>
      <identifier>oai:zenodo.org:277734</identifier>
      <datestamp>2017-02-08T21:42:43Z</datestamp>
      <setSpec>user-biosyslit</setSpec>
    </header>
    <header>
      <identifier>oai:zenodo.org:277742</identifier>
      <datestamp>2017-02-08T21:43:06Z</datestamp>
      <setSpec>user-biosyslit</setSpec>
    </header>
    <header>
      <identifier>oai:zenodo.org:277739</identifier>
      <datestamp>2017-02-08T21:42:58Z</datestamp>
      <setSpec>user-biosyslit</setSpec>
    </header>
    <header>
      <identifier>oai:zenodo.org:277730</identifier>
      <datestamp>2017-02-08T21:42:32Z</datestamp>
      <setSpec>user-biosyslit</setSpec>
    </header>
    <header>
      <identifier>oai:zenodo.org:277740</identifier>
      <datestamp>2017-02-08T21:43:00Z</datestamp>
      <setSpec>user-biosyslit</setSpec>
    </header>
    <header>
      <identifier>oai:zenodo.org:277737</identifier>
      <datestamp>2017-02-08T21:42:53Z</datestamp>
      <setSpec>user-biosyslit</setSpec>
    </header>
    <header>
      <identifier>oai:zenodo.org:277732</identifier>
      <datestamp>2017-02-08T21:42:37Z</datestamp>
      <setSpec>user-biosyslit</setSpec>
    </header>
    <header>
      <identifier>oai:zenodo.org:277738</identifier>
      <datestamp>2017-02-08T21:42:55Z</datestamp>
      <setSpec>user-biosyslit</setSpec>
    </header>
    <header>
      <identifier>oai:zenodo.org:277731</identifier>
      <datestamp>2017-02-08T21:42:35Z</datestamp>
      <setSpec>user-biosyslit</setSpec>
    </header>
    <header>
      <identifier>oai:zenodo.org:277744</identifier>
      <datestamp>2017-02-08T21:43:12Z</datestamp>
      <setSpec>user-biosyslit</setSpec>
    </header>
    <header>
      <identifier>oai:zenodo.org:277755</identifier>
      <datestamp>2017-02-08T21:43:45Z</datestamp>
      <setSpec>user-biosyslit</setSpec>
    </header>
    <header>
      <identifier>oai:zenodo.org:277754</identifier>
      <datestamp>2017-02-08T21:43:41Z</datestamp>
      <setSpec>user-biosyslit</setSpec>
    </header>
    <header>
      <identifier>oai:zenodo.org:277743</identifier>
      <datestamp>2017-02-08T21:43:09Z</datestamp>
      <setSpec>user-biosyslit</setSpec>
    </header>
    <header>
      <identifier>oai:zenodo.org:283600</identifier>
      <datestamp>2017-02-09T09:16:08Z</datestamp>
      <setSpec>user-biosyslit</setSpec>
    </header>
    <header>
      <identifier>oai:zenodo.org:277748</identifier>
      <datestamp>2017-02-08T21:43:23Z</datestamp>
      <setSpec>user-biosyslit</setSpec>
    </header>
    <header>
      <identifier>oai:zenodo.org:277746</identifier>
      <datestamp>2017-02-08T21:43:18Z</datestamp>
      <setSpec>user-biosyslit</setSpec>
    </header>
    <header>
      <identifier>oai:zenodo.org:277751</identifier>
      <datestamp>2017-02-08T21:43:32Z</datestamp>
      <setSpec>user-biosyslit</setSpec>
    </header>
    <header>
      <identifier>oai:zenodo.org:277750</identifier>
      <datestamp>2017-02-08T21:43:29Z</datestamp>
      <setSpec>user-biosyslit</setSpec>
    </header>
    <header>
      <identifier>oai:zenodo.org:283594</identifier>
      <datestamp>2017-02-09T09:16:15Z</datestamp>
      <setSpec>user-biosyslit</setSpec>
    </header>
    <header>
      <identifier>oai:zenodo.org:266332</identifier>
      <datestamp>2017-02-01T06:28:42Z</datestamp>
      <setSpec>user-biosyslit</setSpec>
    </header>
    <header>
      <identifier>oai:zenodo.org:254226</identifier>
      <datestamp>2017-01-20T16:58:15Z</datestamp>
      <setSpec>user-biosyslit</setSpec>
    </header>
    <header>
      <identifier>oai:zenodo.org:254232</identifier>
      <datestamp>2017-01-20T16:58:33Z</datestamp>
      <setSpec>user-biosyslit</setSpec>
    </header>
    <header>
      <identifier>oai:zenodo.org:254235</identifier>
      <datestamp>2017-01-20T16:58:42Z</datestamp>
      <setSpec>user-biosyslit</setSpec>
    </header>
    <header>
      <identifier>oai:zenodo.org:254227</identifier>
      <datestamp>2017-01-20T16:58:18Z</datestamp>
      <setSpec>user-biosyslit</setSpec>
    </header>
    <header>
      <identifier>oai:zenodo.org:254230</identifier>
      <datestamp>2017-01-20T16:58:26Z</datestamp>
      <setSpec>user-biosyslit</setSpec>
    </header>
    <header>
      <identifier>oai:zenodo.org:254228</identifier>
      <datestamp>2017-01-20T16:58:21Z</datestamp>
      <setSpec>user-biosyslit</setSpec>
    </header>
    <header>
      <identifier>oai:zenodo.org:266335</identifier>
      <datestamp>2017-02-01T06:28:38Z</datestamp>
      <setSpec>user-biosyslit</setSpec>
    </header>
    <header>
      <identifier>oai:zenodo.org:254224</identifier>
      <datestamp>2017-01-20T16:58:59Z</datestamp>
      <setSpec>user-biosyslit</setSpec>
    </header>
    <header>
      <identifier>oai:zenodo.org:254238</identifier>
      <datestamp>2017-01-20T16:58:52Z</datestamp>
      <setSpec>user-biosyslit</setSpec>
    </header>
    <header>
      <identifier>oai:zenodo.org:254236</identifier>
      <datestamp>2017-01-20T16:58:45Z</datestamp>
      <setSpec>user-biosyslit</setSpec>
    </header>
    <header>
      <identifier>oai:zenodo.org:254240</identifier>
      <datestamp>2017-01-20T16:58:58Z</datestamp>
      <setSpec>user-biosyslit</setSpec>
    </header>
    <header>
      <identifier>oai:zenodo.org:281956</identifier>
      <datestamp>2017-02-09T06:13:20Z</datestamp>
      <setSpec>user-biosyslit</setSpec>
    </header>
    <header>
      <identifier>oai:zenodo.org:281952</identifier>
      <datestamp>2017-02-09T06:13:11Z</datestamp>
      <setSpec>user-biosyslit</setSpec>
    </header>
    <header>
      <identifier>oai:zenodo.org:256203</identifier>
      <datestamp>2017-01-22T06:49:24Z</datestamp>
      <setSpec>user-biosyslit</setSpec>
    </header>
    <header>
      <identifier>oai:zenodo.org:243041</identifier>
      <datestamp>2017-01-13T22:30:54Z</datestamp>
      <setSpec>user-biosyslit</setSpec>
    </header>
    <header>
      <identifier>oai:zenodo.org:256202</identifier>
      <datestamp>2017-01-22T06:49:22Z</datestamp>
      <setSpec>user-biosyslit</setSpec>
    </header>
    <header>
      <identifier>oai:zenodo.org:256204</identifier>
      <datestamp>2017-01-22T06:49:27Z</datestamp>
      <setSpec>user-biosyslit</setSpec>
    </header>
    <header>
      <identifier>oai:zenodo.org:256205</identifier>
      <datestamp>2017-01-22T06:49:29Z</datestamp>
      <setSpec>user-biosyslit</setSpec>
    </header>
    <header>
      <identifier>oai:zenodo.org:243036</identifier>
      <datestamp>2017-01-13T22:30:40Z</datestamp>
      <setSpec>user-biosyslit</setSpec>
    </header>
    <header>
      <identifier>oai:zenodo.org:243038</identifier>
      <datestamp>2017-01-13T22:30:46Z</datestamp>
      <setSpec>user-biosyslit</setSpec>
    </header>
    <header>
      <identifier>oai:zenodo.org:282662</identifier>
      <datestamp>2017-02-09T07:24:47Z</datestamp>
      <setSpec>user-biosyslit</setSpec>
    </header>
    <header>
      <identifier>oai:zenodo.org:234545</identifier>
      <datestamp>2017-01-08T21:20:27Z</datestamp>
      <setSpec>user-biosyslit</setSpec>
    </header>
    <header>
      <identifier>oai:zenodo.org:282664</identifier>
      <datestamp>2017-02-09T07:24:38Z</datestamp>
      <setSpec>user-biosyslit</setSpec>
    </header>
    <resumptionToken expirationDate="2017-08-31T15:47:55Z" cursor="70200" completeListSize="77796">.eJyNyj0LgkAYAOD_8s4S95FdCi1hiYOKXUq6hJ0i5WXhFeqJ_z2X5pqfZwRVlgXYaGEyQpbYWlHLtNCKmQYo0T6kPF9nBnFKpGhknLvJ-3BPUEoqFjiq952UBrpG4R1rvo_ICa_7-IqG6Bi_Un3oE-p1HO2Yr6MhuHnzK2joyuziPnncbCUnRRvuooHjLc-o-D7859M_n6M2YMAzr0qwGVoaUHd5Wymwx2n6AKVYUUY.DInAsw.6VsSLjWKrLb14tAon05EW99XiwM</resumptionToken>
  </ListIdentifiers>
</OAI-PMH>
