<?xml version='1.0' encoding='UTF-8'?>
<?xml-stylesheet type="text/xsl" href="/static/xsl/oai2.v1.0.xsl"?>
<OAI-PMH xmlns="http://www.openarchives.org/OAI/2.0/" xmlns:xsi="http://www.w3.org/2001/XMLSchema-instance" xsi:schemaLocation="http://www.openarchives.org/OAI/2.0/ http://www.openarchives.org/OAI/2.0/OAI-PMH.xsd">
  <responseDate>2017-08-31T15:44:28Z</responseDate>
  <request verb="ListIdentifiers" resumptionToken=".eJyNyrsOgjAUANB_uTMxfSCvxIWAxEFIrSXCYhAIUasSqhFK-HdZnHU-ZwRV1xV4aOFYLkGmSS1iYZeapgGq7B5SHs8zQ3lIZXmXoojS1-6Woow0dhyofhtkNNZXlNyw5mtGDtjpxRkNbC-emd71Kd28OQrtrWZDfNnMr6JJJPNT1HJx9yUnVZeEbODY5zktvw__-fTPF6gVGNAWTQ3eEtkGXN9F1yjwxmn6AJ1nUT4.DInAXA.YibpVYxWe5VbhMh2g4qoZ_zyDmo">https://zenodo.org/oai2d</request>
  <ListIdentifiers>
    <header>
      <identifier>oai:zenodo.org:275193</identifier>
      <datestamp>2017-02-08T15:37:29Z</datestamp>
      <setSpec>user-biosyslit</setSpec>
    </header>
    <header>
      <identifier>oai:zenodo.org:274633</identifier>
      <datestamp>2017-02-08T13:50:49Z</datestamp>
      <setSpec>user-biosyslit</setSpec>
    </header>
    <header>
      <identifier>oai:zenodo.org:266526</identifier>
      <datestamp>2017-02-01T11:44:13Z</datestamp>
      <setSpec>user-biosyslit</setSpec>
    </header>
    <header>
      <identifier>oai:zenodo.org:266492</identifier>
      <datestamp>2017-02-01T10:55:28Z</datestamp>
      <setSpec>user-biosyslit</setSpec>
    </header>
    <header>
      <identifier>oai:zenodo.org:275037</identifier>
      <datestamp>2017-02-08T15:08:25Z</datestamp>
      <setSpec>user-biosyslit</setSpec>
    </header>
    <header>
      <identifier>oai:zenodo.org:274832</identifier>
      <datestamp>2017-02-08T14:33:16Z</datestamp>
      <setSpec>user-biosyslit</setSpec>
    </header>
    <header>
      <identifier>oai:zenodo.org:266487</identifier>
      <datestamp>2017-02-01T10:55:14Z</datestamp>
      <setSpec>user-biosyslit</setSpec>
    </header>
    <header>
      <identifier>oai:zenodo.org:267726</identifier>
      <datestamp>2017-02-02T06:23:17Z</datestamp>
      <setSpec>user-biosyslit</setSpec>
    </header>
    <header>
      <identifier>oai:zenodo.org:266834</identifier>
      <datestamp>2017-02-01T15:54:52Z</datestamp>
      <setSpec>user-biosyslit</setSpec>
    </header>
    <header>
      <identifier>oai:zenodo.org:266456</identifier>
      <datestamp>2017-02-01T10:12:51Z</datestamp>
      <setSpec>user-biosyslit</setSpec>
    </header>
    <header>
      <identifier>oai:zenodo.org:266937</identifier>
      <datestamp>2017-02-01T17:16:30Z</datestamp>
      <setSpec>user-biosyslit</setSpec>
    </header>
    <header>
      <identifier>oai:zenodo.org:267059</identifier>
      <datestamp>2017-02-01T18:48:17Z</datestamp>
      <setSpec>user-biosyslit</setSpec>
    </header>
    <header>
      <identifier>oai:zenodo.org:266874</identifier>
      <datestamp>2017-02-01T15:56:46Z</datestamp>
      <setSpec>user-biosyslit</setSpec>
    </header>
    <header>
      <identifier>oai:zenodo.org:267209</identifier>
      <datestamp>2017-02-01T22:28:19Z</datestamp>
      <setSpec>user-biosyslit</setSpec>
    </header>
    <header>
      <identifier>oai:zenodo.org:267199</identifier>
      <datestamp>2017-02-01T22:27:53Z</datestamp>
      <setSpec>user-biosyslit</setSpec>
    </header>
    <header>
      <identifier>oai:zenodo.org:267397</identifier>
      <datestamp>2017-02-02T01:41:54Z</datestamp>
      <setSpec>user-biosyslit</setSpec>
    </header>
    <header>
      <identifier>oai:zenodo.org:267054</identifier>
      <datestamp>2017-02-01T18:48:04Z</datestamp>
      <setSpec>user-biosyslit</setSpec>
    </header>
    <header>
      <identifier>oai:zenodo.org:267464</identifier>
      <datestamp>2017-02-02T02:43:18Z</datestamp>
      <setSpec>user-biosyslit</setSpec>
    </header>
    <header>
      <identifier>oai:zenodo.org:269131</identifier>
      <datestamp>2017-02-06T22:50:42Z</datestamp>
      <setSpec>user-biosyslit</setSpec>
    </header>
    <header>
      <identifier>oai:zenodo.org:267732</identifier>
      <datestamp>2017-02-02T06:31:03Z</datestamp>
      <setSpec>user-biosyslit</setSpec>
    </header>
    <header>
      <identifier>oai:zenodo.org:268277</identifier>
      <datestamp>2017-02-03T05:36:58Z</datestamp>
      <setSpec>user-biosyslit</setSpec>
    </header>
    <header>
      <identifier>oai:zenodo.org:267492</identifier>
      <datestamp>2017-02-02T02:59:35Z</datestamp>
      <setSpec>user-biosyslit</setSpec>
    </header>
    <header>
      <identifier>oai:zenodo.org:274792</identifier>
      <datestamp>2017-02-08T14:26:53Z</datestamp>
      <setSpec>user-biosyslit</setSpec>
    </header>
    <header>
      <identifier>oai:zenodo.org:268132</identifier>
      <datestamp>2017-02-03T02:57:57Z</datestamp>
      <setSpec>user-biosyslit</setSpec>
    </header>
    <header>
      <identifier>oai:zenodo.org:268099</identifier>
      <datestamp>2017-02-03T01:33:13Z</datestamp>
      <setSpec>user-biosyslit</setSpec>
    </header>
    <header>
      <identifier>oai:zenodo.org:268178</identifier>
      <datestamp>2017-02-03T02:56:46Z</datestamp>
      <setSpec>user-biosyslit</setSpec>
    </header>
    <header>
      <identifier>oai:zenodo.org:267715</identifier>
      <datestamp>2017-02-02T06:15:18Z</datestamp>
      <setSpec>user-biosyslit</setSpec>
    </header>
    <header>
      <identifier>oai:zenodo.org:227559</identifier>
      <datestamp>2017-01-01T23:50:24Z</datestamp>
      <setSpec>user-biosyslit</setSpec>
    </header>
    <header>
      <identifier>oai:zenodo.org:274449</identifier>
      <datestamp>2017-02-08T13:16:39Z</datestamp>
      <setSpec>user-biosyslit</setSpec>
    </header>
    <header>
      <identifier>oai:zenodo.org:227219</identifier>
      <datestamp>2017-01-01T18:22:20Z</datestamp>
      <setSpec>user-biosyslit</setSpec>
    </header>
    <header>
      <identifier>oai:zenodo.org:227911</identifier>
      <datestamp>2017-01-02T06:37:37Z</datestamp>
      <setSpec>user-biosyslit</setSpec>
    </header>
    <header>
      <identifier>oai:zenodo.org:268290</identifier>
      <datestamp>2017-02-03T05:37:47Z</datestamp>
      <setSpec>user-biosyslit</setSpec>
    </header>
    <header>
      <identifier>oai:zenodo.org:228393</identifier>
      <datestamp>2017-01-02T23:20:45Z</datestamp>
      <setSpec>user-biosyslit</setSpec>
    </header>
    <header>
      <identifier>oai:zenodo.org:227763</identifier>
      <datestamp>2017-01-02T04:16:50Z</datestamp>
      <setSpec>user-biosyslit</setSpec>
    </header>
    <header>
      <identifier>oai:zenodo.org:228505</identifier>
      <datestamp>2017-01-03T00:38:56Z</datestamp>
      <setSpec>user-biosyslit</setSpec>
    </header>
    <header>
      <identifier>oai:zenodo.org:268057</identifier>
      <datestamp>2017-02-03T00:56:02Z</datestamp>
      <setSpec>user-biosyslit</setSpec>
    </header>
    <header>
      <identifier>oai:zenodo.org:228085</identifier>
      <datestamp>2017-01-02T10:08:45Z</datestamp>
      <setSpec>user-biosyslit</setSpec>
    </header>
    <header>
      <identifier>oai:zenodo.org:268226</identifier>
      <datestamp>2017-02-03T04:28:47Z</datestamp>
      <setSpec>user-biosyslit</setSpec>
    </header>
    <header>
      <identifier>oai:zenodo.org:230240</identifier>
      <datestamp>2017-01-04T21:36:42Z</datestamp>
      <setSpec>user-biosyslit</setSpec>
    </header>
    <header>
      <identifier>oai:zenodo.org:229398</identifier>
      <datestamp>2017-01-03T15:15:11Z</datestamp>
      <setSpec>user-biosyslit</setSpec>
    </header>
    <header>
      <identifier>oai:zenodo.org:268244</identifier>
      <datestamp>2017-02-03T04:35:20Z</datestamp>
      <setSpec>user-biosyslit</setSpec>
    </header>
    <header>
      <identifier>oai:zenodo.org:269307</identifier>
      <datestamp>2017-02-06T23:52:07Z</datestamp>
      <setSpec>user-biosyslit</setSpec>
    </header>
    <header>
      <identifier>oai:zenodo.org:269563</identifier>
      <datestamp>2017-02-07T00:58:10Z</datestamp>
      <setSpec>user-biosyslit</setSpec>
    </header>
    <header>
      <identifier>oai:zenodo.org:269168</identifier>
      <datestamp>2017-02-06T22:54:38Z</datestamp>
      <setSpec>user-biosyslit</setSpec>
    </header>
    <header>
      <identifier>oai:zenodo.org:229041</identifier>
      <datestamp>2017-01-03T08:47:23Z</datestamp>
      <setSpec>user-biosyslit</setSpec>
    </header>
    <header>
      <identifier>oai:zenodo.org:268380</identifier>
      <datestamp>2017-02-03T12:39:31Z</datestamp>
      <setSpec>user-biosyslit</setSpec>
    </header>
    <header>
      <identifier>oai:zenodo.org:269740</identifier>
      <datestamp>2017-02-07T20:15:21Z</datestamp>
      <setSpec>user-biosyslit</setSpec>
    </header>
    <header>
      <identifier>oai:zenodo.org:269485</identifier>
      <datestamp>2017-02-07T00:42:48Z</datestamp>
      <setSpec>user-biosyslit</setSpec>
    </header>
    <header>
      <identifier>oai:zenodo.org:269977</identifier>
      <datestamp>2017-02-07T21:54:51Z</datestamp>
      <setSpec>user-biosyslit</setSpec>
    </header>
    <header>
      <identifier>oai:zenodo.org:229045</identifier>
      <datestamp>2017-01-03T08:47:08Z</datestamp>
      <setSpec>user-biosyslit</setSpec>
    </header>
    <header>
      <identifier>oai:zenodo.org:229355</identifier>
      <datestamp>2017-01-03T14:54:01Z</datestamp>
      <setSpec>user-biosyslit</setSpec>
    </header>
    <header>
      <identifier>oai:zenodo.org:269160</identifier>
      <datestamp>2017-02-06T22:54:21Z</datestamp>
      <setSpec>user-biosyslit</setSpec>
    </header>
    <header>
      <identifier>oai:zenodo.org:269161</identifier>
      <datestamp>2017-02-06T22:54:24Z</datestamp>
      <setSpec>user-biosyslit</setSpec>
    </header>
    <header>
      <identifier>oai:zenodo.org:274589</identifier>
      <datestamp>2017-02-08T13:45:15Z</datestamp>
      <setSpec>user-biosyslit</setSpec>
    </header>
    <header>
      <identifier>oai:zenodo.org:230769</identifier>
      <datestamp>2017-01-05T07:56:04Z</datestamp>
      <setSpec>user-biosyslit</setSpec>
    </header>
    <header>
      <identifier>oai:zenodo.org:269422</identifier>
      <datestamp>2017-02-07T00:28:04Z</datestamp>
      <setSpec>user-biosyslit</setSpec>
    </header>
    <header>
      <identifier>oai:zenodo.org:270157</identifier>
      <datestamp>2017-02-07T22:27:37Z</datestamp>
      <setSpec>user-biosyslit</setSpec>
    </header>
    <header>
      <identifier>oai:zenodo.org:231842</identifier>
      <datestamp>2017-01-06T07:49:58Z</datestamp>
      <setSpec>user-biosyslit</setSpec>
    </header>
    <header>
      <identifier>oai:zenodo.org:230101</identifier>
      <datestamp>2017-01-04T19:22:41Z</datestamp>
      <setSpec>user-biosyslit</setSpec>
    </header>
    <header>
      <identifier>oai:zenodo.org:231998</identifier>
      <datestamp>2017-01-06T19:59:58Z</datestamp>
      <setSpec>openaire</setSpec>
      <setSpec>user-biosyslit</setSpec>
    </header>
    <header>
      <identifier>oai:zenodo.org:269027</identifier>
      <datestamp>2017-02-06T22:34:37Z</datestamp>
      <setSpec>user-biosyslit</setSpec>
    </header>
    <header>
      <identifier>oai:zenodo.org:269152</identifier>
      <datestamp>2017-02-06T22:54:05Z</datestamp>
      <setSpec>user-biosyslit</setSpec>
    </header>
    <header>
      <identifier>oai:zenodo.org:269117</identifier>
      <datestamp>2017-02-06T22:47:31Z</datestamp>
      <setSpec>user-biosyslit</setSpec>
    </header>
    <header>
      <identifier>oai:zenodo.org:230121</identifier>
      <datestamp>2017-01-04T19:30:23Z</datestamp>
      <setSpec>user-biosyslit</setSpec>
    </header>
    <header>
      <identifier>oai:zenodo.org:269480</identifier>
      <datestamp>2017-02-07T00:42:36Z</datestamp>
      <setSpec>user-biosyslit</setSpec>
    </header>
    <header>
      <identifier>oai:zenodo.org:270116</identifier>
      <datestamp>2017-02-07T22:24:01Z</datestamp>
      <setSpec>user-biosyslit</setSpec>
    </header>
    <header>
      <identifier>oai:zenodo.org:230695</identifier>
      <datestamp>2017-01-05T06:54:28Z</datestamp>
      <setSpec>user-biosyslit</setSpec>
    </header>
    <header>
      <identifier>oai:zenodo.org:231182</identifier>
      <datestamp>2017-01-05T17:02:24Z</datestamp>
      <setSpec>user-biosyslit</setSpec>
    </header>
    <header>
      <identifier>oai:zenodo.org:269219</identifier>
      <datestamp>2017-02-06T23:30:38Z</datestamp>
      <setSpec>user-biosyslit</setSpec>
    </header>
    <header>
      <identifier>oai:zenodo.org:274678</identifier>
      <datestamp>2017-02-08T13:59:15Z</datestamp>
      <setSpec>user-biosyslit</setSpec>
    </header>
    <header>
      <identifier>oai:zenodo.org:231999</identifier>
      <datestamp>2017-01-06T10:08:13Z</datestamp>
      <setSpec>user-biosyslit</setSpec>
    </header>
    <header>
      <identifier>oai:zenodo.org:269870</identifier>
      <datestamp>2017-02-07T20:37:20Z</datestamp>
      <setSpec>user-biosyslit</setSpec>
    </header>
    <header>
      <identifier>oai:zenodo.org:274697</identifier>
      <datestamp>2017-02-08T14:02:46Z</datestamp>
      <setSpec>user-biosyslit</setSpec>
    </header>
    <header>
      <identifier>oai:zenodo.org:231463</identifier>
      <datestamp>2017-01-06T02:23:05Z</datestamp>
      <setSpec>user-biosyslit</setSpec>
    </header>
    <header>
      <identifier>oai:zenodo.org:269591</identifier>
      <datestamp>2017-02-07T01:05:30Z</datestamp>
      <setSpec>user-biosyslit</setSpec>
    </header>
    <header>
      <identifier>oai:zenodo.org:231802</identifier>
      <datestamp>2017-01-06T07:31:05Z</datestamp>
      <setSpec>user-biosyslit</setSpec>
    </header>
    <header>
      <identifier>oai:zenodo.org:275604</identifier>
      <datestamp>2017-02-08T16:47:18Z</datestamp>
      <setSpec>user-biosyslit</setSpec>
    </header>
    <header>
      <identifier>oai:zenodo.org:275600</identifier>
      <datestamp>2017-02-08T16:46:19Z</datestamp>
      <setSpec>user-biosyslit</setSpec>
    </header>
    <header>
      <identifier>oai:zenodo.org:275929</identifier>
      <datestamp>2017-02-08T17:22:39Z</datestamp>
      <setSpec>user-biosyslit</setSpec>
    </header>
    <header>
      <identifier>oai:zenodo.org:274998</identifier>
      <datestamp>2017-02-08T15:00:11Z</datestamp>
      <setSpec>user-biosyslit</setSpec>
    </header>
    <header>
      <identifier>oai:zenodo.org:275798</identifier>
      <datestamp>2017-02-08T17:05:39Z</datestamp>
      <setSpec>user-biosyslit</setSpec>
    </header>
    <header>
      <identifier>oai:zenodo.org:270781</identifier>
      <datestamp>2017-02-07T23:55:56Z</datestamp>
      <setSpec>user-biosyslit</setSpec>
    </header>
    <header>
      <identifier>oai:zenodo.org:269448</identifier>
      <datestamp>2017-02-07T00:37:51Z</datestamp>
      <setSpec>user-biosyslit</setSpec>
    </header>
    <header>
      <identifier>oai:zenodo.org:269504</identifier>
      <datestamp>2017-02-07T00:43:44Z</datestamp>
      <setSpec>user-biosyslit</setSpec>
    </header>
    <header>
      <identifier>oai:zenodo.org:269478</identifier>
      <datestamp>2017-02-07T00:42:31Z</datestamp>
      <setSpec>user-biosyslit</setSpec>
    </header>
    <header>
      <identifier>oai:zenodo.org:232191</identifier>
      <datestamp>2017-01-06T12:57:12Z</datestamp>
      <setSpec>user-biosyslit</setSpec>
    </header>
    <header>
      <identifier>oai:zenodo.org:232773</identifier>
      <datestamp>2017-01-06T22:51:04Z</datestamp>
      <setSpec>user-biosyslit</setSpec>
    </header>
    <header>
      <identifier>oai:zenodo.org:276199</identifier>
      <datestamp>2017-02-08T18:23:06Z</datestamp>
      <setSpec>user-biosyslit</setSpec>
    </header>
    <header>
      <identifier>oai:zenodo.org:271270</identifier>
      <datestamp>2017-02-08T01:14:12Z</datestamp>
      <setSpec>user-biosyslit</setSpec>
    </header>
    <header>
      <identifier>oai:zenodo.org:232267</identifier>
      <datestamp>2017-01-06T14:50:38Z</datestamp>
      <setSpec>user-biosyslit</setSpec>
    </header>
    <header>
      <identifier>oai:zenodo.org:233101</identifier>
      <datestamp>2017-01-08T00:16:06Z</datestamp>
      <setSpec>user-biosyslit</setSpec>
    </header>
    <header>
      <identifier>oai:zenodo.org:269606</identifier>
      <datestamp>2017-02-07T01:06:42Z</datestamp>
      <setSpec>user-biosyslit</setSpec>
    </header>
    <header>
      <identifier>oai:zenodo.org:232677</identifier>
      <datestamp>2017-01-06T21:31:29Z</datestamp>
      <setSpec>user-biosyslit</setSpec>
    </header>
    <header>
      <identifier>oai:zenodo.org:233026</identifier>
      <datestamp>2017-01-07T22:48:46Z</datestamp>
      <setSpec>user-biosyslit</setSpec>
    </header>
    <header>
      <identifier>oai:zenodo.org:232719</identifier>
      <datestamp>2017-01-06T22:06:40Z</datestamp>
      <setSpec>user-biosyslit</setSpec>
    </header>
    <header>
      <identifier>oai:zenodo.org:275186</identifier>
      <datestamp>2017-02-08T15:35:38Z</datestamp>
      <setSpec>user-biosyslit</setSpec>
    </header>
    <header>
      <identifier>oai:zenodo.org:232502</identifier>
      <datestamp>2017-01-06T18:44:39Z</datestamp>
      <setSpec>user-biosyslit</setSpec>
    </header>
    <header>
      <identifier>oai:zenodo.org:275639</identifier>
      <datestamp>2017-02-08T16:50:25Z</datestamp>
      <setSpec>user-biosyslit</setSpec>
    </header>
    <header>
      <identifier>oai:zenodo.org:234319</identifier>
      <datestamp>2017-01-08T18:26:36Z</datestamp>
      <setSpec>user-biosyslit</setSpec>
    </header>
    <header>
      <identifier>oai:zenodo.org:276952</identifier>
      <datestamp>2017-02-08T20:04:02Z</datestamp>
      <setSpec>user-biosyslit</setSpec>
    </header>
    <resumptionToken expirationDate="2017-08-31T15:46:28Z" cursor="50600" completeListSize="77796">.eJyNysEKgjAYAOB3-c8S2zRnQhexpIOKLiW9hKlIOU1coU5897x0rvP3zSDKsgATbXSdbDHVNMMgFNGdroDI-yfn1_vKkF9inrc8ypz4HTYxSkhFPVuMrp2onqyR32DJjgG5YGOM7mgKztErkeEYq6eBoQN1ZTB5j9P6CtV3eHpzOha1Fmek6P1DMDFssVTNvw__-eTPZ4s9KNBlVQnmFhkK1EPWVwLMeVk-p0VRSg.DInAXA.nsoLya7m2wroRD-zDwNfvr6eBMg</resumptionToken>
  </ListIdentifiers>
</OAI-PMH>
