<?xml version='1.0' encoding='UTF-8'?>
<?xml-stylesheet type="text/xsl" href="/static/xsl/oai2.v1.0.xsl"?>
<OAI-PMH xmlns="http://www.openarchives.org/OAI/2.0/" xmlns:xsi="http://www.w3.org/2001/XMLSchema-instance" xsi:schemaLocation="http://www.openarchives.org/OAI/2.0/ http://www.openarchives.org/OAI/2.0/OAI-PMH.xsd">
  <responseDate>2017-08-31T15:41:41Z</responseDate>
  <request verb="ListIdentifiers" resumptionToken=".eJyNyj0PQ0AYAOD_8s7S3DmNj6RLQ8WAcCVYGkVEHRXXBif-ey2d2_l5VuBVVYKBDoqqawQpuoIUrOsqkYAX45OxW7MzFEnMip5FuR2_wy5GqVyrnsln10yJJ1rkd1jQSyAnWJujBi3BNXqlIpxj4kwUWaorgsV7OPsriW-z7G4PNOrPjMrl6FvBQvGZZqT4PvznEz-fyU8gwZDXFRgYHSVop3ysORjrtn0ApiFRQg.DIm_tQ.K2xCnnFNStK2PJm012sRP0t7ucs">https://zenodo.org/oai2d</request>
  <ListIdentifiers>
    <header>
      <identifier>oai:zenodo.org:253168</identifier>
      <datestamp>2017-01-20T03:15:07Z</datestamp>
      <setSpec>user-biosyslit</setSpec>
    </header>
    <header>
      <identifier>oai:zenodo.org:253103</identifier>
      <datestamp>2017-01-20T02:33:34Z</datestamp>
      <setSpec>user-biosyslit</setSpec>
    </header>
    <header>
      <identifier>oai:zenodo.org:276056</identifier>
      <datestamp>2017-02-08T18:02:16Z</datestamp>
      <setSpec>user-biosyslit</setSpec>
    </header>
    <header>
      <identifier>oai:zenodo.org:250918</identifier>
      <datestamp>2017-01-18T16:13:00Z</datestamp>
      <setSpec>user-biosyslit</setSpec>
    </header>
    <header>
      <identifier>oai:zenodo.org:250637</identifier>
      <datestamp>2017-01-18T14:04:33Z</datestamp>
      <setSpec>user-biosyslit</setSpec>
    </header>
    <header>
      <identifier>oai:zenodo.org:251626</identifier>
      <datestamp>2017-01-19T02:47:36Z</datestamp>
      <setSpec>user-biosyslit</setSpec>
    </header>
    <header>
      <identifier>oai:zenodo.org:249949</identifier>
      <datestamp>2017-01-18T02:41:07Z</datestamp>
      <setSpec>user-biosyslit</setSpec>
    </header>
    <header>
      <identifier>oai:zenodo.org:250473</identifier>
      <datestamp>2017-01-18T10:40:18Z</datestamp>
      <setSpec>user-biosyslit</setSpec>
    </header>
    <header>
      <identifier>oai:zenodo.org:249983</identifier>
      <datestamp>2017-01-18T03:31:52Z</datestamp>
      <setSpec>user-biosyslit</setSpec>
    </header>
    <header>
      <identifier>oai:zenodo.org:250154</identifier>
      <datestamp>2017-01-18T05:29:12Z</datestamp>
      <setSpec>user-biosyslit</setSpec>
    </header>
    <header>
      <identifier>oai:zenodo.org:249847</identifier>
      <datestamp>2017-01-18T00:40:33Z</datestamp>
      <setSpec>user-biosyslit</setSpec>
    </header>
    <header>
      <identifier>oai:zenodo.org:250942</identifier>
      <datestamp>2017-01-18T16:43:35Z</datestamp>
      <setSpec>user-biosyslit</setSpec>
    </header>
    <header>
      <identifier>oai:zenodo.org:250415</identifier>
      <datestamp>2017-01-18T10:06:37Z</datestamp>
      <setSpec>user-biosyslit</setSpec>
    </header>
    <header>
      <identifier>oai:zenodo.org:250237</identifier>
      <datestamp>2017-01-18T07:17:42Z</datestamp>
      <setSpec>user-biosyslit</setSpec>
    </header>
    <header>
      <identifier>oai:zenodo.org:249969</identifier>
      <datestamp>2017-01-18T02:42:08Z</datestamp>
      <setSpec>user-biosyslit</setSpec>
    </header>
    <header>
      <identifier>oai:zenodo.org:250015</identifier>
      <datestamp>2017-01-18T03:31:17Z</datestamp>
      <setSpec>user-biosyslit</setSpec>
    </header>
    <header>
      <identifier>oai:zenodo.org:250889</identifier>
      <datestamp>2017-01-18T16:11:22Z</datestamp>
      <setSpec>user-biosyslit</setSpec>
    </header>
    <header>
      <identifier>oai:zenodo.org:251154</identifier>
      <datestamp>2017-01-18T19:31:20Z</datestamp>
      <setSpec>user-biosyslit</setSpec>
    </header>
    <header>
      <identifier>oai:zenodo.org:250842</identifier>
      <datestamp>2017-01-18T15:33:17Z</datestamp>
      <setSpec>user-biosyslit</setSpec>
    </header>
    <header>
      <identifier>oai:zenodo.org:251097</identifier>
      <datestamp>2017-01-18T18:44:03Z</datestamp>
      <setSpec>user-biosyslit</setSpec>
    </header>
    <header>
      <identifier>oai:zenodo.org:250143</identifier>
      <datestamp>2017-01-18T05:28:18Z</datestamp>
      <setSpec>user-biosyslit</setSpec>
    </header>
    <header>
      <identifier>oai:zenodo.org:251511</identifier>
      <datestamp>2017-01-19T01:15:31Z</datestamp>
      <setSpec>user-biosyslit</setSpec>
    </header>
    <header>
      <identifier>oai:zenodo.org:272586</identifier>
      <datestamp>2017-02-08T05:18:19Z</datestamp>
      <setSpec>user-biosyslit</setSpec>
    </header>
    <header>
      <identifier>oai:zenodo.org:272617</identifier>
      <datestamp>2017-02-08T05:44:31Z</datestamp>
      <setSpec>user-biosyslit</setSpec>
    </header>
    <header>
      <identifier>oai:zenodo.org:250695</identifier>
      <datestamp>2017-01-18T14:04:19Z</datestamp>
      <setSpec>user-biosyslit</setSpec>
    </header>
    <header>
      <identifier>oai:zenodo.org:251120</identifier>
      <datestamp>2017-01-18T18:51:57Z</datestamp>
      <setSpec>user-biosyslit</setSpec>
    </header>
    <header>
      <identifier>oai:zenodo.org:250662</identifier>
      <datestamp>2017-01-18T14:02:17Z</datestamp>
      <setSpec>user-biosyslit</setSpec>
    </header>
    <header>
      <identifier>oai:zenodo.org:250899</identifier>
      <datestamp>2017-01-18T16:11:52Z</datestamp>
      <setSpec>user-biosyslit</setSpec>
    </header>
    <header>
      <identifier>oai:zenodo.org:250962</identifier>
      <datestamp>2017-01-18T16:52:49Z</datestamp>
      <setSpec>user-biosyslit</setSpec>
    </header>
    <header>
      <identifier>oai:zenodo.org:251089</identifier>
      <datestamp>2017-01-18T18:44:47Z</datestamp>
      <setSpec>user-biosyslit</setSpec>
    </header>
    <header>
      <identifier>oai:zenodo.org:251058</identifier>
      <datestamp>2017-01-18T18:23:04Z</datestamp>
      <setSpec>user-biosyslit</setSpec>
    </header>
    <header>
      <identifier>oai:zenodo.org:272771</identifier>
      <datestamp>2017-02-08T06:26:43Z</datestamp>
      <setSpec>user-biosyslit</setSpec>
    </header>
    <header>
      <identifier>oai:zenodo.org:276368</identifier>
      <datestamp>2017-02-08T18:43:20Z</datestamp>
      <setSpec>user-biosyslit</setSpec>
    </header>
    <header>
      <identifier>oai:zenodo.org:251330</identifier>
      <datestamp>2017-01-18T21:21:48Z</datestamp>
      <setSpec>user-biosyslit</setSpec>
    </header>
    <header>
      <identifier>oai:zenodo.org:272870</identifier>
      <datestamp>2017-02-08T06:31:27Z</datestamp>
      <setSpec>user-biosyslit</setSpec>
    </header>
    <header>
      <identifier>oai:zenodo.org:251464</identifier>
      <datestamp>2017-01-19T00:39:48Z</datestamp>
      <setSpec>user-biosyslit</setSpec>
    </header>
    <header>
      <identifier>oai:zenodo.org:272763</identifier>
      <datestamp>2017-02-08T06:26:20Z</datestamp>
      <setSpec>user-biosyslit</setSpec>
    </header>
    <header>
      <identifier>oai:zenodo.org:275885</identifier>
      <datestamp>2017-02-08T17:19:00Z</datestamp>
      <setSpec>user-biosyslit</setSpec>
    </header>
    <header>
      <identifier>oai:zenodo.org:272961</identifier>
      <datestamp>2017-02-08T06:55:36Z</datestamp>
      <setSpec>user-biosyslit</setSpec>
    </header>
    <header>
      <identifier>oai:zenodo.org:275896</identifier>
      <datestamp>2017-02-08T17:20:15Z</datestamp>
      <setSpec>user-biosyslit</setSpec>
    </header>
    <header>
      <identifier>oai:zenodo.org:273093</identifier>
      <datestamp>2017-02-08T07:09:23Z</datestamp>
      <setSpec>user-biosyslit</setSpec>
    </header>
    <header>
      <identifier>oai:zenodo.org:275915</identifier>
      <datestamp>2017-02-08T17:22:10Z</datestamp>
      <setSpec>user-biosyslit</setSpec>
    </header>
    <header>
      <identifier>oai:zenodo.org:273073</identifier>
      <datestamp>2017-02-08T07:01:02Z</datestamp>
      <setSpec>user-biosyslit</setSpec>
    </header>
    <header>
      <identifier>oai:zenodo.org:276371</identifier>
      <datestamp>2017-02-08T18:43:28Z</datestamp>
      <setSpec>user-biosyslit</setSpec>
    </header>
    <header>
      <identifier>oai:zenodo.org:251770</identifier>
      <datestamp>2017-01-19T04:30:11Z</datestamp>
      <setSpec>user-biosyslit</setSpec>
    </header>
    <header>
      <identifier>oai:zenodo.org:276201</identifier>
      <datestamp>2017-02-08T18:23:11Z</datestamp>
      <setSpec>user-biosyslit</setSpec>
    </header>
    <header>
      <identifier>oai:zenodo.org:251783</identifier>
      <datestamp>2017-01-19T04:30:43Z</datestamp>
      <setSpec>user-biosyslit</setSpec>
    </header>
    <header>
      <identifier>oai:zenodo.org:273120</identifier>
      <datestamp>2017-02-08T07:10:44Z</datestamp>
      <setSpec>user-biosyslit</setSpec>
    </header>
    <header>
      <identifier>oai:zenodo.org:251797</identifier>
      <datestamp>2017-01-19T04:31:18Z</datestamp>
      <setSpec>user-biosyslit</setSpec>
    </header>
    <header>
      <identifier>oai:zenodo.org:276095</identifier>
      <datestamp>2017-02-08T18:07:22Z</datestamp>
      <setSpec>user-biosyslit</setSpec>
    </header>
    <header>
      <identifier>oai:zenodo.org:252261</identifier>
      <datestamp>2017-01-19T11:15:24Z</datestamp>
      <setSpec>user-biosyslit</setSpec>
    </header>
    <header>
      <identifier>oai:zenodo.org:252136</identifier>
      <datestamp>2017-01-19T09:41:11Z</datestamp>
      <setSpec>user-biosyslit</setSpec>
    </header>
    <header>
      <identifier>oai:zenodo.org:251937</identifier>
      <datestamp>2017-01-19T06:27:25Z</datestamp>
      <setSpec>user-biosyslit</setSpec>
    </header>
    <header>
      <identifier>oai:zenodo.org:252375</identifier>
      <datestamp>2017-01-19T12:48:15Z</datestamp>
      <setSpec>user-biosyslit</setSpec>
    </header>
    <header>
      <identifier>oai:zenodo.org:252267</identifier>
      <datestamp>2017-01-19T11:20:35Z</datestamp>
      <setSpec>user-biosyslit</setSpec>
    </header>
    <header>
      <identifier>oai:zenodo.org:252311</identifier>
      <datestamp>2017-01-19T11:56:08Z</datestamp>
      <setSpec>user-biosyslit</setSpec>
    </header>
    <header>
      <identifier>oai:zenodo.org:252825</identifier>
      <datestamp>2017-01-19T20:55:03Z</datestamp>
      <setSpec>user-biosyslit</setSpec>
    </header>
    <header>
      <identifier>oai:zenodo.org:252758</identifier>
      <datestamp>2017-01-19T19:33:35Z</datestamp>
      <setSpec>user-biosyslit</setSpec>
    </header>
    <header>
      <identifier>oai:zenodo.org:252384</identifier>
      <datestamp>2017-01-19T13:20:42Z</datestamp>
      <setSpec>user-biosyslit</setSpec>
    </header>
    <header>
      <identifier>oai:zenodo.org:253321</identifier>
      <datestamp>2017-01-20T05:31:30Z</datestamp>
      <setSpec>user-biosyslit</setSpec>
    </header>
    <header>
      <identifier>oai:zenodo.org:253471</identifier>
      <datestamp>2017-01-20T07:24:34Z</datestamp>
      <setSpec>user-biosyslit</setSpec>
    </header>
    <header>
      <identifier>oai:zenodo.org:253170</identifier>
      <datestamp>2017-01-20T03:15:19Z</datestamp>
      <setSpec>user-biosyslit</setSpec>
    </header>
    <header>
      <identifier>oai:zenodo.org:252934</identifier>
      <datestamp>2017-01-19T23:37:38Z</datestamp>
      <setSpec>user-biosyslit</setSpec>
    </header>
    <header>
      <identifier>oai:zenodo.org:247521</identifier>
      <datestamp>2017-01-16T16:47:00Z</datestamp>
      <setSpec>user-biosyslit</setSpec>
    </header>
    <header>
      <identifier>oai:zenodo.org:247433</identifier>
      <datestamp>2017-01-16T15:29:07Z</datestamp>
      <setSpec>user-biosyslit</setSpec>
    </header>
    <header>
      <identifier>oai:zenodo.org:247607</identifier>
      <datestamp>2017-01-16T17:28:51Z</datestamp>
      <setSpec>user-biosyslit</setSpec>
    </header>
    <header>
      <identifier>oai:zenodo.org:247531</identifier>
      <datestamp>2017-01-16T16:47:37Z</datestamp>
      <setSpec>user-biosyslit</setSpec>
    </header>
    <header>
      <identifier>oai:zenodo.org:248269</identifier>
      <datestamp>2017-01-17T02:16:16Z</datestamp>
      <setSpec>user-biosyslit</setSpec>
    </header>
    <header>
      <identifier>oai:zenodo.org:247913</identifier>
      <datestamp>2017-01-16T21:32:39Z</datestamp>
      <setSpec>user-biosyslit</setSpec>
    </header>
    <header>
      <identifier>oai:zenodo.org:247589</identifier>
      <datestamp>2017-01-16T17:13:51Z</datestamp>
      <setSpec>user-biosyslit</setSpec>
    </header>
    <header>
      <identifier>oai:zenodo.org:248154</identifier>
      <datestamp>2017-01-17T00:42:31Z</datestamp>
      <setSpec>user-biosyslit</setSpec>
    </header>
    <header>
      <identifier>oai:zenodo.org:248655</identifier>
      <datestamp>2017-01-17T08:00:08Z</datestamp>
      <setSpec>user-biosyslit</setSpec>
    </header>
    <header>
      <identifier>oai:zenodo.org:248164</identifier>
      <datestamp>2017-01-17T00:43:12Z</datestamp>
      <setSpec>user-biosyslit</setSpec>
    </header>
    <header>
      <identifier>oai:zenodo.org:248180</identifier>
      <datestamp>2017-01-17T00:43:59Z</datestamp>
      <setSpec>user-biosyslit</setSpec>
    </header>
    <header>
      <identifier>oai:zenodo.org:248688</identifier>
      <datestamp>2017-01-17T08:16:50Z</datestamp>
      <setSpec>user-biosyslit</setSpec>
    </header>
    <header>
      <identifier>oai:zenodo.org:248129</identifier>
      <datestamp>2017-01-17T00:25:47Z</datestamp>
      <setSpec>user-biosyslit</setSpec>
    </header>
    <header>
      <identifier>oai:zenodo.org:248353</identifier>
      <datestamp>2017-01-17T03:16:41Z</datestamp>
      <setSpec>user-biosyslit</setSpec>
    </header>
    <header>
      <identifier>oai:zenodo.org:248133</identifier>
      <datestamp>2017-01-17T00:25:59Z</datestamp>
      <setSpec>user-biosyslit</setSpec>
    </header>
    <header>
      <identifier>oai:zenodo.org:248168</identifier>
      <datestamp>2017-01-17T00:43:22Z</datestamp>
      <setSpec>user-biosyslit</setSpec>
    </header>
    <header>
      <identifier>oai:zenodo.org:249408</identifier>
      <datestamp>2017-01-17T19:47:24Z</datestamp>
      <setSpec>user-biosyslit</setSpec>
    </header>
    <header>
      <identifier>oai:zenodo.org:248634</identifier>
      <datestamp>2017-01-17T07:38:29Z</datestamp>
      <setSpec>user-biosyslit</setSpec>
    </header>
    <header>
      <identifier>oai:zenodo.org:250148</identifier>
      <datestamp>2017-01-18T05:28:45Z</datestamp>
      <setSpec>user-biosyslit</setSpec>
    </header>
    <header>
      <identifier>oai:zenodo.org:248719</identifier>
      <datestamp>2017-01-17T08:29:25Z</datestamp>
      <setSpec>user-biosyslit</setSpec>
    </header>
    <header>
      <identifier>oai:zenodo.org:249416</identifier>
      <datestamp>2017-01-17T19:47:54Z</datestamp>
      <setSpec>user-biosyslit</setSpec>
    </header>
    <header>
      <identifier>oai:zenodo.org:249417</identifier>
      <datestamp>2017-01-17T19:47:58Z</datestamp>
      <setSpec>user-biosyslit</setSpec>
    </header>
    <header>
      <identifier>oai:zenodo.org:272678</identifier>
      <datestamp>2017-02-08T06:13:22Z</datestamp>
      <setSpec>user-biosyslit</setSpec>
    </header>
    <header>
      <identifier>oai:zenodo.org:272513</identifier>
      <datestamp>2017-02-08T04:58:56Z</datestamp>
      <setSpec>user-biosyslit</setSpec>
    </header>
    <header>
      <identifier>oai:zenodo.org:250078</identifier>
      <datestamp>2017-01-18T04:35:39Z</datestamp>
      <setSpec>user-biosyslit</setSpec>
    </header>
    <header>
      <identifier>oai:zenodo.org:250030</identifier>
      <datestamp>2017-01-18T04:02:34Z</datestamp>
      <setSpec>user-biosyslit</setSpec>
    </header>
    <header>
      <identifier>oai:zenodo.org:249954</identifier>
      <datestamp>2017-01-18T02:41:25Z</datestamp>
      <setSpec>user-biosyslit</setSpec>
    </header>
    <header>
      <identifier>oai:zenodo.org:249837</identifier>
      <datestamp>2017-01-18T00:39:50Z</datestamp>
      <setSpec>user-biosyslit</setSpec>
    </header>
    <header>
      <identifier>oai:zenodo.org:275482</identifier>
      <datestamp>2017-02-08T16:32:58Z</datestamp>
      <setSpec>user-biosyslit</setSpec>
    </header>
    <header>
      <identifier>oai:zenodo.org:250199</identifier>
      <datestamp>2017-01-18T06:53:36Z</datestamp>
      <setSpec>user-biosyslit</setSpec>
    </header>
    <header>
      <identifier>oai:zenodo.org:249643</identifier>
      <datestamp>2017-01-17T22:02:13Z</datestamp>
      <setSpec>user-biosyslit</setSpec>
    </header>
    <header>
      <identifier>oai:zenodo.org:250005</identifier>
      <datestamp>2017-01-18T03:30:47Z</datestamp>
      <setSpec>user-biosyslit</setSpec>
    </header>
    <header>
      <identifier>oai:zenodo.org:250241</identifier>
      <datestamp>2017-01-18T07:28:39Z</datestamp>
      <setSpec>user-biosyslit</setSpec>
    </header>
    <header>
      <identifier>oai:zenodo.org:250587</identifier>
      <datestamp>2017-01-18T12:29:57Z</datestamp>
      <setSpec>user-biosyslit</setSpec>
    </header>
    <header>
      <identifier>oai:zenodo.org:250218</identifier>
      <datestamp>2017-01-18T07:16:53Z</datestamp>
      <setSpec>user-biosyslit</setSpec>
    </header>
    <header>
      <identifier>oai:zenodo.org:249903</identifier>
      <datestamp>2017-01-18T01:39:32Z</datestamp>
      <setSpec>user-biosyslit</setSpec>
    </header>
    <header>
      <identifier>oai:zenodo.org:250521</identifier>
      <datestamp>2017-01-18T11:22:55Z</datestamp>
      <setSpec>user-biosyslit</setSpec>
    </header>
    <resumptionToken expirationDate="2017-08-31T15:43:41Z" cursor="10400" completeListSize="77796">.eJyNyssKgkAUANB_uWuJefhCaBOauFDRSUk3YSpiTiVOoY7477lpXetzFhB1XYGFdrqOVFPVCNIoJhrVFBDl8OT80m4M5Tnl5YMnhZu-43uKMtIYgS0m385oIDsU3rFkx4icsTklLZqjU_LKZDyl1BsZcgxfRnNw87ZX0dDl-dXtWfI4cEaqIXSimeEDy2n5ffjPJ38-W-xBgb5oarAw0hXoxmJoBFjLun4Akg5RLQ.DIm_tQ.cMtCurs_trBKKDXWs0qCVC3r0QQ</resumptionToken>
  </ListIdentifiers>
</OAI-PMH>
