<?xml version='1.0' encoding='UTF-8'?>
<?xml-stylesheet type="text/xsl" href="/static/xsl/oai2.v1.0.xsl"?>
<OAI-PMH xmlns="http://www.openarchives.org/OAI/2.0/" xmlns:xsi="http://www.w3.org/2001/XMLSchema-instance" xsi:schemaLocation="http://www.openarchives.org/OAI/2.0/ http://www.openarchives.org/OAI/2.0/OAI-PMH.xsd">
  <responseDate>2017-08-31T15:41:30Z</responseDate>
  <request verb="ListIdentifiers" resumptionToken=".eJyNysEOQzAYAOB3-c-ytBoqkl0WJg4IHWGXxRAxZaJbUPHuc9l5O3_fCqKqSjDRgWgG1YimE6obBFNDAVGMT85vzc5QpAkveh7nTvKOugRlak19S8yelRFftijosGTnUE2xMccNWsJL_MpkNCfEnRiyqSfDxX-4-ytJ4PDr3RlY3J84U8sxsMOF4RO7kuL78J9P_nyWOIICQ15XYFJNgXbKx1qAuW7bB1sQURw.DIm_qg.VCkAuQUSjWrRuDPe8shqSeV-osE">https://zenodo.org/oai2d</request>
  <ListIdentifiers>
    <header>
      <identifier>oai:zenodo.org:269390</identifier>
      <datestamp>2017-02-07T00:07:22Z</datestamp>
      <setSpec>user-biosyslit</setSpec>
    </header>
    <header>
      <identifier>oai:zenodo.org:270392</identifier>
      <datestamp>2017-02-07T23:09:06Z</datestamp>
      <setSpec>user-biosyslit</setSpec>
    </header>
    <header>
      <identifier>oai:zenodo.org:228988</identifier>
      <datestamp>2017-01-03T08:10:24Z</datestamp>
      <setSpec>user-biosyslit</setSpec>
    </header>
    <header>
      <identifier>oai:zenodo.org:274564</identifier>
      <datestamp>2017-02-08T13:41:21Z</datestamp>
      <setSpec>user-biosyslit</setSpec>
    </header>
    <header>
      <identifier>oai:zenodo.org:282547</identifier>
      <datestamp>2017-02-09T07:12:14Z</datestamp>
      <setSpec>user-biosyslit</setSpec>
    </header>
    <header>
      <identifier>oai:zenodo.org:583937</identifier>
      <datestamp>2017-05-29T08:37:40Z</datestamp>
      <setSpec>user-biosyslit</setSpec>
    </header>
    <header>
      <identifier>oai:zenodo.org:282921</identifier>
      <datestamp>2017-02-09T07:51:13Z</datestamp>
      <setSpec>user-biosyslit</setSpec>
    </header>
    <header>
      <identifier>oai:zenodo.org:282923</identifier>
      <datestamp>2017-02-09T07:51:17Z</datestamp>
      <setSpec>user-biosyslit</setSpec>
    </header>
    <header>
      <identifier>oai:zenodo.org:283698</identifier>
      <datestamp>2017-02-09T09:28:56Z</datestamp>
      <setSpec>user-biosyslit</setSpec>
    </header>
    <header>
      <identifier>oai:zenodo.org:283138</identifier>
      <datestamp>2017-02-09T08:12:45Z</datestamp>
      <setSpec>user-biosyslit</setSpec>
    </header>
    <header>
      <identifier>oai:zenodo.org:283769</identifier>
      <datestamp>2017-02-09T09:39:48Z</datestamp>
      <setSpec>user-biosyslit</setSpec>
    </header>
    <header>
      <identifier>oai:zenodo.org:398729</identifier>
      <datestamp>2017-03-14T09:00:10Z</datestamp>
      <setSpec>user-biosyslit</setSpec>
    </header>
    <header>
      <identifier>oai:zenodo.org:376371</identifier>
      <datestamp>2017-03-10T08:20:53Z</datestamp>
      <setSpec>user-biosyslit</setSpec>
    </header>
    <header>
      <identifier>oai:zenodo.org:376425</identifier>
      <datestamp>2017-03-10T09:13:18Z</datestamp>
      <setSpec>user-biosyslit</setSpec>
    </header>
    <header>
      <identifier>oai:zenodo.org:282494</identifier>
      <datestamp>2017-02-09T07:08:33Z</datestamp>
      <setSpec>user-biosyslit</setSpec>
    </header>
    <header>
      <identifier>oai:zenodo.org:376679</identifier>
      <datestamp>2017-03-11T00:03:49Z</datestamp>
      <setSpec>user-biosyslit</setSpec>
    </header>
    <header>
      <identifier>oai:zenodo.org:164058</identifier>
      <datestamp>2017-05-16T12:56:24Z</datestamp>
      <setSpec>openaire</setSpec>
      <setSpec>user-biosyslit</setSpec>
    </header>
    <header>
      <identifier>oai:zenodo.org:282223</identifier>
      <datestamp>2017-02-09T06:38:24Z</datestamp>
      <setSpec>user-biosyslit</setSpec>
    </header>
    <header>
      <identifier>oai:zenodo.org:282939</identifier>
      <datestamp>2017-02-09T07:52:40Z</datestamp>
      <setSpec>user-biosyslit</setSpec>
    </header>
    <header>
      <identifier>oai:zenodo.org:282699</identifier>
      <datestamp>2017-02-09T07:28:37Z</datestamp>
      <setSpec>user-biosyslit</setSpec>
    </header>
    <header>
      <identifier>oai:zenodo.org:283133</identifier>
      <datestamp>2017-02-09T08:12:32Z</datestamp>
      <setSpec>user-biosyslit</setSpec>
    </header>
    <header>
      <identifier>oai:zenodo.org:283120</identifier>
      <datestamp>2017-02-09T08:13:27Z</datestamp>
      <setSpec>user-biosyslit</setSpec>
    </header>
    <header>
      <identifier>oai:zenodo.org:283367</identifier>
      <datestamp>2017-02-09T08:42:01Z</datestamp>
      <setSpec>user-biosyslit</setSpec>
    </header>
    <header>
      <identifier>oai:zenodo.org:227018</identifier>
      <datestamp>2017-01-01T08:09:34Z</datestamp>
      <setSpec>user-biosyslit</setSpec>
    </header>
    <header>
      <identifier>oai:zenodo.org:427412</identifier>
      <datestamp>2017-03-21T08:31:16Z</datestamp>
      <setSpec>user-biosyslit</setSpec>
    </header>
    <header>
      <identifier>oai:zenodo.org:437243</identifier>
      <datestamp>2017-03-22T08:45:06Z</datestamp>
      <setSpec>user-biosyslit</setSpec>
    </header>
    <header>
      <identifier>oai:zenodo.org:437299</identifier>
      <datestamp>2017-03-22T09:24:33Z</datestamp>
      <setSpec>user-biosyslit</setSpec>
    </header>
    <header>
      <identifier>oai:zenodo.org:284071</identifier>
      <datestamp>2017-02-09T10:20:42Z</datestamp>
      <setSpec>user-biosyslit</setSpec>
    </header>
    <header>
      <identifier>oai:zenodo.org:284303</identifier>
      <datestamp>2017-02-09T10:54:40Z</datestamp>
      <setSpec>user-biosyslit</setSpec>
    </header>
    <header>
      <identifier>oai:zenodo.org:426859</identifier>
      <datestamp>2017-03-21T08:24:25Z</datestamp>
      <setSpec>user-biosyslit</setSpec>
    </header>
    <header>
      <identifier>oai:zenodo.org:427419</identifier>
      <datestamp>2017-03-21T08:31:22Z</datestamp>
      <setSpec>user-biosyslit</setSpec>
    </header>
    <header>
      <identifier>oai:zenodo.org:426937</identifier>
      <datestamp>2017-03-21T08:25:18Z</datestamp>
      <setSpec>user-biosyslit</setSpec>
    </header>
    <header>
      <identifier>oai:zenodo.org:284544</identifier>
      <datestamp>2017-02-09T11:28:18Z</datestamp>
      <setSpec>user-biosyslit</setSpec>
    </header>
    <header>
      <identifier>oai:zenodo.org:437254</identifier>
      <datestamp>2017-03-22T08:45:04Z</datestamp>
      <setSpec>user-biosyslit</setSpec>
    </header>
    <header>
      <identifier>oai:zenodo.org:437278</identifier>
      <datestamp>2017-03-22T09:03:44Z</datestamp>
      <setSpec>user-biosyslit</setSpec>
    </header>
    <header>
      <identifier>oai:zenodo.org:437643</identifier>
      <datestamp>2017-03-23T10:09:59Z</datestamp>
      <setSpec>user-biosyslit</setSpec>
    </header>
    <header>
      <identifier>oai:zenodo.org:284397</identifier>
      <datestamp>2017-02-09T11:10:26Z</datestamp>
      <setSpec>user-biosyslit</setSpec>
    </header>
    <header>
      <identifier>oai:zenodo.org:437241</identifier>
      <datestamp>2017-03-22T08:41:47Z</datestamp>
      <setSpec>user-biosyslit</setSpec>
    </header>
    <header>
      <identifier>oai:zenodo.org:17428</identifier>
      <datestamp>2017-03-15T21:04:59Z</datestamp>
      <setSpec>user-biosyslit</setSpec>
    </header>
    <header>
      <identifier>oai:zenodo.org:438238</identifier>
      <datestamp>2017-03-27T07:55:06Z</datestamp>
      <setSpec>user-biosyslit</setSpec>
    </header>
    <header>
      <identifier>oai:zenodo.org:438230</identifier>
      <datestamp>2017-03-27T07:36:42Z</datestamp>
      <setSpec>user-biosyslit</setSpec>
    </header>
    <header>
      <identifier>oai:zenodo.org:438535</identifier>
      <datestamp>2017-03-28T07:14:26Z</datestamp>
      <setSpec>user-biosyslit</setSpec>
    </header>
    <header>
      <identifier>oai:zenodo.org:439459</identifier>
      <datestamp>2017-03-31T07:48:21Z</datestamp>
      <setSpec>user-biosyslit</setSpec>
    </header>
    <header>
      <identifier>oai:zenodo.org:322666</identifier>
      <datestamp>2017-04-03T10:01:37Z</datestamp>
      <setSpec>openaire</setSpec>
      <setSpec>user-biosyslit</setSpec>
    </header>
    <header>
      <identifier>oai:zenodo.org:284602</identifier>
      <datestamp>2017-02-09T11:35:02Z</datestamp>
      <setSpec>user-biosyslit</setSpec>
    </header>
    <header>
      <identifier>oai:zenodo.org:426845</identifier>
      <datestamp>2017-03-21T08:24:12Z</datestamp>
      <setSpec>user-biosyslit</setSpec>
    </header>
    <header>
      <identifier>oai:zenodo.org:284590</identifier>
      <datestamp>2017-02-09T11:34:24Z</datestamp>
      <setSpec>user-biosyslit</setSpec>
    </header>
    <header>
      <identifier>oai:zenodo.org:437257</identifier>
      <datestamp>2017-03-22T08:55:57Z</datestamp>
      <setSpec>user-biosyslit</setSpec>
    </header>
    <header>
      <identifier>oai:zenodo.org:437276</identifier>
      <datestamp>2017-03-22T09:03:40Z</datestamp>
      <setSpec>user-biosyslit</setSpec>
    </header>
    <header>
      <identifier>oai:zenodo.org:437290</identifier>
      <datestamp>2017-03-22T09:12:06Z</datestamp>
      <setSpec>user-biosyslit</setSpec>
    </header>
    <header>
      <identifier>oai:zenodo.org:429900</identifier>
      <datestamp>2017-03-21T09:03:14Z</datestamp>
      <setSpec>user-biosyslit</setSpec>
    </header>
    <header>
      <identifier>oai:zenodo.org:429902</identifier>
      <datestamp>2017-03-21T09:03:18Z</datestamp>
      <setSpec>user-biosyslit</setSpec>
    </header>
    <header>
      <identifier>oai:zenodo.org:284343</identifier>
      <datestamp>2017-02-09T11:05:11Z</datestamp>
      <setSpec>user-biosyslit</setSpec>
    </header>
    <header>
      <identifier>oai:zenodo.org:428751</identifier>
      <datestamp>2017-03-21T08:48:22Z</datestamp>
      <setSpec>user-biosyslit</setSpec>
    </header>
    <header>
      <identifier>oai:zenodo.org:17373</identifier>
      <datestamp>2017-03-15T21:07:22Z</datestamp>
      <setSpec>user-biosyslit</setSpec>
    </header>
    <header>
      <identifier>oai:zenodo.org:437645</identifier>
      <datestamp>2017-03-23T10:10:03Z</datestamp>
      <setSpec>user-biosyslit</setSpec>
    </header>
    <header>
      <identifier>oai:zenodo.org:284320</identifier>
      <datestamp>2017-02-09T11:01:10Z</datestamp>
      <setSpec>user-biosyslit</setSpec>
    </header>
    <header>
      <identifier>oai:zenodo.org:284378</identifier>
      <datestamp>2017-02-09T11:06:45Z</datestamp>
      <setSpec>user-biosyslit</setSpec>
    </header>
    <header>
      <identifier>oai:zenodo.org:428279</identifier>
      <datestamp>2017-03-21T08:42:22Z</datestamp>
      <setSpec>user-biosyslit</setSpec>
    </header>
    <header>
      <identifier>oai:zenodo.org:284908</identifier>
      <datestamp>2017-02-09T12:15:08Z</datestamp>
      <setSpec>user-biosyslit</setSpec>
    </header>
    <header>
      <identifier>oai:zenodo.org:432121</identifier>
      <datestamp>2017-03-21T09:32:05Z</datestamp>
      <setSpec>user-biosyslit</setSpec>
    </header>
    <header>
      <identifier>oai:zenodo.org:437677</identifier>
      <datestamp>2017-03-23T10:11:08Z</datestamp>
      <setSpec>user-biosyslit</setSpec>
    </header>
    <header>
      <identifier>oai:zenodo.org:437658</identifier>
      <datestamp>2017-03-23T10:10:30Z</datestamp>
      <setSpec>user-biosyslit</setSpec>
    </header>
    <header>
      <identifier>oai:zenodo.org:437664</identifier>
      <datestamp>2017-03-23T10:10:41Z</datestamp>
      <setSpec>user-biosyslit</setSpec>
    </header>
    <header>
      <identifier>oai:zenodo.org:437653</identifier>
      <datestamp>2017-03-23T10:10:21Z</datestamp>
      <setSpec>user-biosyslit</setSpec>
    </header>
    <header>
      <identifier>oai:zenodo.org:438274</identifier>
      <datestamp>2017-03-27T08:42:55Z</datestamp>
      <setSpec>user-biosyslit</setSpec>
    </header>
    <header>
      <identifier>oai:zenodo.org:438244</identifier>
      <datestamp>2017-03-27T08:04:29Z</datestamp>
      <setSpec>user-biosyslit</setSpec>
    </header>
    <header>
      <identifier>oai:zenodo.org:284587</identifier>
      <datestamp>2017-02-09T11:34:12Z</datestamp>
      <setSpec>user-biosyslit</setSpec>
    </header>
    <header>
      <identifier>oai:zenodo.org:437670</identifier>
      <datestamp>2017-03-23T10:10:53Z</datestamp>
      <setSpec>user-biosyslit</setSpec>
    </header>
    <header>
      <identifier>oai:zenodo.org:437959</identifier>
      <datestamp>2017-03-24T08:30:58Z</datestamp>
      <setSpec>user-biosyslit</setSpec>
    </header>
    <header>
      <identifier>oai:zenodo.org:438536</identifier>
      <datestamp>2017-03-28T07:14:28Z</datestamp>
      <setSpec>user-biosyslit</setSpec>
    </header>
    <header>
      <identifier>oai:zenodo.org:427424</identifier>
      <datestamp>2017-03-21T08:31:24Z</datestamp>
      <setSpec>user-biosyslit</setSpec>
    </header>
    <header>
      <identifier>oai:zenodo.org:426923</identifier>
      <datestamp>2017-03-21T08:25:10Z</datestamp>
      <setSpec>user-biosyslit</setSpec>
    </header>
    <header>
      <identifier>oai:zenodo.org:429909</identifier>
      <datestamp>2017-03-21T09:03:21Z</datestamp>
      <setSpec>user-biosyslit</setSpec>
    </header>
    <header>
      <identifier>oai:zenodo.org:427763</identifier>
      <datestamp>2017-03-21T08:35:54Z</datestamp>
      <setSpec>user-biosyslit</setSpec>
    </header>
    <header>
      <identifier>oai:zenodo.org:284394</identifier>
      <datestamp>2017-02-09T11:10:19Z</datestamp>
      <setSpec>user-biosyslit</setSpec>
    </header>
    <header>
      <identifier>oai:zenodo.org:437629</identifier>
      <datestamp>2017-03-23T10:09:23Z</datestamp>
      <setSpec>user-biosyslit</setSpec>
    </header>
    <header>
      <identifier>oai:zenodo.org:437974</identifier>
      <datestamp>2017-03-24T08:42:41Z</datestamp>
      <setSpec>user-biosyslit</setSpec>
    </header>
    <header>
      <identifier>oai:zenodo.org:438595</identifier>
      <datestamp>2017-03-28T07:44:44Z</datestamp>
      <setSpec>user-biosyslit</setSpec>
    </header>
    <header>
      <identifier>oai:zenodo.org:438578</identifier>
      <datestamp>2017-03-28T07:33:59Z</datestamp>
      <setSpec>user-biosyslit</setSpec>
    </header>
    <header>
      <identifier>oai:zenodo.org:322661</identifier>
      <datestamp>2017-04-03T10:01:37Z</datestamp>
      <setSpec>openaire</setSpec>
      <setSpec>user-biosyslit</setSpec>
    </header>
    <header>
      <identifier>oai:zenodo.org:284476</identifier>
      <datestamp>2017-02-09T11:21:48Z</datestamp>
      <setSpec>user-biosyslit</setSpec>
    </header>
    <header>
      <identifier>oai:zenodo.org:429898</identifier>
      <datestamp>2017-03-21T09:03:12Z</datestamp>
      <setSpec>user-biosyslit</setSpec>
    </header>
    <header>
      <identifier>oai:zenodo.org:284302</identifier>
      <datestamp>2017-02-09T10:54:37Z</datestamp>
      <setSpec>user-biosyslit</setSpec>
    </header>
    <header>
      <identifier>oai:zenodo.org:427411</identifier>
      <datestamp>2017-03-21T08:31:41Z</datestamp>
      <setSpec>user-biosyslit</setSpec>
    </header>
    <header>
      <identifier>oai:zenodo.org:426092</identifier>
      <datestamp>2017-03-21T08:14:29Z</datestamp>
      <setSpec>user-biosyslit</setSpec>
    </header>
    <header>
      <identifier>oai:zenodo.org:437615</identifier>
      <datestamp>2017-03-23T10:08:49Z</datestamp>
      <setSpec>user-biosyslit</setSpec>
    </header>
    <header>
      <identifier>oai:zenodo.org:437671</identifier>
      <datestamp>2017-03-23T10:10:56Z</datestamp>
      <setSpec>user-biosyslit</setSpec>
    </header>
    <header>
      <identifier>oai:zenodo.org:439169</identifier>
      <datestamp>2017-03-30T07:33:15Z</datestamp>
      <setSpec>user-biosyslit</setSpec>
    </header>
    <header>
      <identifier>oai:zenodo.org:438583</identifier>
      <datestamp>2017-03-28T07:34:11Z</datestamp>
      <setSpec>user-biosyslit</setSpec>
    </header>
    <header>
      <identifier>oai:zenodo.org:438880</identifier>
      <datestamp>2017-03-29T07:57:25Z</datestamp>
      <setSpec>user-biosyslit</setSpec>
    </header>
    <header>
      <identifier>oai:zenodo.org:439784</identifier>
      <datestamp>2017-04-03T07:24:51Z</datestamp>
      <setSpec>user-biosyslit</setSpec>
    </header>
    <header>
      <identifier>oai:zenodo.org:438563</identifier>
      <datestamp>2017-03-28T07:23:50Z</datestamp>
      <setSpec>user-biosyslit</setSpec>
    </header>
    <header>
      <identifier>oai:zenodo.org:322660</identifier>
      <datestamp>2017-04-03T10:01:38Z</datestamp>
      <setSpec>openaire</setSpec>
      <setSpec>user-biosyslit</setSpec>
    </header>
    <header>
      <identifier>oai:zenodo.org:439157</identifier>
      <datestamp>2017-03-30T07:27:30Z</datestamp>
      <setSpec>user-biosyslit</setSpec>
    </header>
    <header>
      <identifier>oai:zenodo.org:322671</identifier>
      <datestamp>2017-04-03T10:01:37Z</datestamp>
      <setSpec>openaire</setSpec>
      <setSpec>user-biosyslit</setSpec>
    </header>
    <header>
      <identifier>oai:zenodo.org:439456</identifier>
      <datestamp>2017-03-31T07:48:10Z</datestamp>
      <setSpec>user-biosyslit</setSpec>
    </header>
    <header>
      <identifier>oai:zenodo.org:439752</identifier>
      <datestamp>2017-04-02T21:16:05Z</datestamp>
      <setSpec>user-biosyslit</setSpec>
    </header>
    <header>
      <identifier>oai:zenodo.org:439168</identifier>
      <datestamp>2017-03-30T07:33:14Z</datestamp>
      <setSpec>user-biosyslit</setSpec>
    </header>
    <header>
      <identifier>oai:zenodo.org:438216</identifier>
      <datestamp>2017-03-27T07:17:48Z</datestamp>
      <setSpec>user-biosyslit</setSpec>
    </header>
    <resumptionToken expirationDate="2017-08-31T15:43:30Z" cursor="7400" completeListSize="77796">.eJyNysEKgjAYAOB3-c8Sm0udQhfRpIPKWpP0EqYi1rRwRbro3evSuc7f9wTVNDV4aLFELqXUpbaFXNMi2ABVjRcpD92HodpnshqkKKPsvu0zlJutkwRqioOcJPqM0h5rvmbmHtNJdGhmO3HL9XbKyObBUejEms3JafN5NUkjWRyjKxeDL7lZj2nIZo59XpDq-_CfT_98gVqBAdeybcBzbAPOj3JsFXjP1-sNW3dRHQ.DIm_qg.WCrbfxWQlX_6zv6Fu3CbiL32ixI</resumptionToken>
  </ListIdentifiers>
</OAI-PMH>
