<?xml version='1.0' encoding='UTF-8'?>
<?xml-stylesheet type="text/xsl" href="/static/xsl/oai2.v1.0.xsl"?>
<OAI-PMH xmlns="http://www.openarchives.org/OAI/2.0/" xmlns:xsi="http://www.w3.org/2001/XMLSchema-instance" xsi:schemaLocation="http://www.openarchives.org/OAI/2.0/ http://www.openarchives.org/OAI/2.0/OAI-PMH.xsd">
  <responseDate>2017-08-31T15:44:18Z</responseDate>
  <request verb="ListIdentifiers" resumptionToken=".eJyNysEKgjAYAOB3-c8S05VbQpewxIOKLiW9hKmIOU1coU5897x0rvP3zSCKIgcDbTDdE12nGOkYE7QjugIi65-c36rVIbtGPGt5mFrRO2giFGslcU0xOmaMXVkjr1ElO_vaVaVjWKHJv4SvWAZjhO2BoRNxpD-5D3t9OfYsntytjoXtkTMt772TPzH1yBKcfZ_655M_nykOoECXlgUYW0oVqIe0LwUY87J8AN2KUYY.DInAUg.7UAzsE6hS6zq97nPwrdK_49TLNg">https://zenodo.org/oai2d</request>
  <ListIdentifiers>
    <header>
      <identifier>oai:zenodo.org:438533</identifier>
      <datestamp>2017-03-28T07:14:20Z</datestamp>
      <setSpec>user-biosyslit</setSpec>
    </header>
    <header>
      <identifier>oai:zenodo.org:438529</identifier>
      <datestamp>2017-03-28T07:14:10Z</datestamp>
      <setSpec>user-biosyslit</setSpec>
    </header>
    <header>
      <identifier>oai:zenodo.org:438809</identifier>
      <datestamp>2017-03-29T07:14:20Z</datestamp>
      <setSpec>user-biosyslit</setSpec>
    </header>
    <header>
      <identifier>oai:zenodo.org:439788</identifier>
      <datestamp>2017-04-03T07:25:00Z</datestamp>
      <setSpec>user-biosyslit</setSpec>
    </header>
    <header>
      <identifier>oai:zenodo.org:427784</identifier>
      <datestamp>2017-03-21T08:36:02Z</datestamp>
      <setSpec>user-biosyslit</setSpec>
    </header>
    <header>
      <identifier>oai:zenodo.org:284154</identifier>
      <datestamp>2017-02-09T10:35:39Z</datestamp>
      <setSpec>user-biosyslit</setSpec>
    </header>
    <header>
      <identifier>oai:zenodo.org:426126</identifier>
      <datestamp>2017-03-21T08:14:14Z</datestamp>
      <setSpec>user-biosyslit</setSpec>
    </header>
    <header>
      <identifier>oai:zenodo.org:437231</identifier>
      <datestamp>2017-03-22T08:24:13Z</datestamp>
      <setSpec>user-biosyslit</setSpec>
    </header>
    <header>
      <identifier>oai:zenodo.org:284600</identifier>
      <datestamp>2017-02-09T11:34:58Z</datestamp>
      <setSpec>user-biosyslit</setSpec>
    </header>
    <header>
      <identifier>oai:zenodo.org:437642</identifier>
      <datestamp>2017-03-23T10:09:57Z</datestamp>
      <setSpec>user-biosyslit</setSpec>
    </header>
    <header>
      <identifier>oai:zenodo.org:437225</identifier>
      <datestamp>2017-03-22T08:13:28Z</datestamp>
      <setSpec>user-biosyslit</setSpec>
    </header>
    <header>
      <identifier>oai:zenodo.org:284398</identifier>
      <datestamp>2017-02-09T11:10:31Z</datestamp>
      <setSpec>user-biosyslit</setSpec>
    </header>
    <header>
      <identifier>oai:zenodo.org:284654</identifier>
      <datestamp>2017-02-09T11:43:22Z</datestamp>
      <setSpec>user-biosyslit</setSpec>
    </header>
    <header>
      <identifier>oai:zenodo.org:284298</identifier>
      <datestamp>2017-02-09T10:54:41Z</datestamp>
      <setSpec>user-biosyslit</setSpec>
    </header>
    <header>
      <identifier>oai:zenodo.org:426095</identifier>
      <datestamp>2017-03-21T08:13:50Z</datestamp>
      <setSpec>user-biosyslit</setSpec>
    </header>
    <header>
      <identifier>oai:zenodo.org:284399</identifier>
      <datestamp>2017-02-09T11:10:34Z</datestamp>
      <setSpec>user-biosyslit</setSpec>
    </header>
    <header>
      <identifier>oai:zenodo.org:428283</identifier>
      <datestamp>2017-03-21T08:42:26Z</datestamp>
      <setSpec>user-biosyslit</setSpec>
    </header>
    <header>
      <identifier>oai:zenodo.org:437662</identifier>
      <datestamp>2017-03-23T10:10:38Z</datestamp>
      <setSpec>user-biosyslit</setSpec>
    </header>
    <header>
      <identifier>oai:zenodo.org:437676</identifier>
      <datestamp>2017-03-23T10:11:06Z</datestamp>
      <setSpec>user-biosyslit</setSpec>
    </header>
    <header>
      <identifier>oai:zenodo.org:437283</identifier>
      <datestamp>2017-03-22T09:11:45Z</datestamp>
      <setSpec>user-biosyslit</setSpec>
    </header>
    <header>
      <identifier>oai:zenodo.org:437679</identifier>
      <datestamp>2017-03-23T10:11:12Z</datestamp>
      <setSpec>user-biosyslit</setSpec>
    </header>
    <header>
      <identifier>oai:zenodo.org:284570</identifier>
      <datestamp>2017-02-09T11:33:21Z</datestamp>
      <setSpec>user-biosyslit</setSpec>
    </header>
    <header>
      <identifier>oai:zenodo.org:437633</identifier>
      <datestamp>2017-03-23T10:09:32Z</datestamp>
      <setSpec>user-biosyslit</setSpec>
    </header>
    <header>
      <identifier>oai:zenodo.org:438273</identifier>
      <datestamp>2017-03-27T08:42:52Z</datestamp>
      <setSpec>user-biosyslit</setSpec>
    </header>
    <header>
      <identifier>oai:zenodo.org:438875</identifier>
      <datestamp>2017-03-29T07:57:13Z</datestamp>
      <setSpec>user-biosyslit</setSpec>
    </header>
    <header>
      <identifier>oai:zenodo.org:439310</identifier>
      <datestamp>2017-03-31T09:17:22Z</datestamp>
      <setSpec>user-biosyslit</setSpec>
    </header>
    <header>
      <identifier>oai:zenodo.org:283061</identifier>
      <datestamp>2017-02-09T08:05:17Z</datestamp>
      <setSpec>user-biosyslit</setSpec>
    </header>
    <header>
      <identifier>oai:zenodo.org:284479</identifier>
      <datestamp>2017-02-09T11:21:17Z</datestamp>
      <setSpec>user-biosyslit</setSpec>
    </header>
    <header>
      <identifier>oai:zenodo.org:282893</identifier>
      <datestamp>2017-02-09T07:48:19Z</datestamp>
      <setSpec>user-biosyslit</setSpec>
    </header>
    <header>
      <identifier>oai:zenodo.org:398771</identifier>
      <datestamp>2017-03-14T09:51:38Z</datestamp>
      <setSpec>user-biosyslit</setSpec>
    </header>
    <header>
      <identifier>oai:zenodo.org:283553</identifier>
      <datestamp>2017-02-09T09:10:56Z</datestamp>
      <setSpec>user-biosyslit</setSpec>
    </header>
    <header>
      <identifier>oai:zenodo.org:398919</identifier>
      <datestamp>2017-03-14T21:06:29Z</datestamp>
      <setSpec>user-biosyslit</setSpec>
    </header>
    <header>
      <identifier>oai:zenodo.org:283131</identifier>
      <datestamp>2017-02-09T08:12:27Z</datestamp>
      <setSpec>user-biosyslit</setSpec>
    </header>
    <header>
      <identifier>oai:zenodo.org:400175</identifier>
      <datestamp>2017-03-16T09:22:55Z</datestamp>
      <setSpec>user-biosyslit</setSpec>
    </header>
    <header>
      <identifier>oai:zenodo.org:283691</identifier>
      <datestamp>2017-02-09T09:27:59Z</datestamp>
      <setSpec>user-biosyslit</setSpec>
    </header>
    <header>
      <identifier>oai:zenodo.org:400173</identifier>
      <datestamp>2017-03-16T09:17:12Z</datestamp>
      <setSpec>user-biosyslit</setSpec>
    </header>
    <header>
      <identifier>oai:zenodo.org:282957</identifier>
      <datestamp>2017-02-09T07:54:34Z</datestamp>
      <setSpec>user-biosyslit</setSpec>
    </header>
    <header>
      <identifier>oai:zenodo.org:399787</identifier>
      <datestamp>2017-03-15T23:57:39Z</datestamp>
      <setSpec>user-biosyslit</setSpec>
    </header>
    <header>
      <identifier>oai:zenodo.org:399359</identifier>
      <datestamp>2017-03-15T20:03:51Z</datestamp>
      <setSpec>user-biosyslit</setSpec>
    </header>
    <header>
      <identifier>oai:zenodo.org:400642</identifier>
      <datestamp>2017-03-18T16:19:24Z</datestamp>
      <setSpec>user-biosyslit</setSpec>
    </header>
    <header>
      <identifier>oai:zenodo.org:400024</identifier>
      <datestamp>2017-03-16T07:32:42Z</datestamp>
      <setSpec>user-biosyslit</setSpec>
    </header>
    <header>
      <identifier>oai:zenodo.org:283205</identifier>
      <datestamp>2017-02-09T08:21:42Z</datestamp>
      <setSpec>user-biosyslit</setSpec>
    </header>
    <header>
      <identifier>oai:zenodo.org:283050</identifier>
      <datestamp>2017-02-09T08:04:20Z</datestamp>
      <setSpec>user-biosyslit</setSpec>
    </header>
    <header>
      <identifier>oai:zenodo.org:400435</identifier>
      <datestamp>2017-03-17T08:24:24Z</datestamp>
      <setSpec>user-biosyslit</setSpec>
    </header>
    <header>
      <identifier>oai:zenodo.org:399408</identifier>
      <datestamp>2017-03-15T20:53:32Z</datestamp>
      <setSpec>user-biosyslit</setSpec>
    </header>
    <header>
      <identifier>oai:zenodo.org:399772</identifier>
      <datestamp>2017-03-15T23:55:17Z</datestamp>
      <setSpec>user-biosyslit</setSpec>
    </header>
    <header>
      <identifier>oai:zenodo.org:399860</identifier>
      <datestamp>2017-03-16T01:29:20Z</datestamp>
      <setSpec>user-biosyslit</setSpec>
    </header>
    <header>
      <identifier>oai:zenodo.org:400199</identifier>
      <datestamp>2017-03-16T09:36:03Z</datestamp>
      <setSpec>user-biosyslit</setSpec>
    </header>
    <header>
      <identifier>oai:zenodo.org:400110</identifier>
      <datestamp>2017-03-16T08:22:45Z</datestamp>
      <setSpec>user-biosyslit</setSpec>
    </header>
    <header>
      <identifier>oai:zenodo.org:400400</identifier>
      <datestamp>2017-03-17T08:14:45Z</datestamp>
      <setSpec>user-biosyslit</setSpec>
    </header>
    <header>
      <identifier>oai:zenodo.org:399916</identifier>
      <datestamp>2017-03-16T01:32:13Z</datestamp>
      <setSpec>user-biosyslit</setSpec>
    </header>
    <header>
      <identifier>oai:zenodo.org:284371</identifier>
      <datestamp>2017-02-09T11:06:28Z</datestamp>
      <setSpec>user-biosyslit</setSpec>
    </header>
    <header>
      <identifier>oai:zenodo.org:283754</identifier>
      <datestamp>2017-02-09T09:35:06Z</datestamp>
      <setSpec>user-biosyslit</setSpec>
    </header>
    <header>
      <identifier>oai:zenodo.org:429888</identifier>
      <datestamp>2017-03-21T09:03:08Z</datestamp>
      <setSpec>user-biosyslit</setSpec>
    </header>
    <header>
      <identifier>oai:zenodo.org:427778</identifier>
      <datestamp>2017-03-21T08:36:00Z</datestamp>
      <setSpec>user-biosyslit</setSpec>
    </header>
    <header>
      <identifier>oai:zenodo.org:284566</identifier>
      <datestamp>2017-02-09T11:32:30Z</datestamp>
      <setSpec>user-biosyslit</setSpec>
    </header>
    <header>
      <identifier>oai:zenodo.org:284380</identifier>
      <datestamp>2017-02-09T11:06:55Z</datestamp>
      <setSpec>user-biosyslit</setSpec>
    </header>
    <header>
      <identifier>oai:zenodo.org:437296</identifier>
      <datestamp>2017-03-22T09:19:00Z</datestamp>
      <setSpec>user-biosyslit</setSpec>
    </header>
    <header>
      <identifier>oai:zenodo.org:284571</identifier>
      <datestamp>2017-02-09T11:33:23Z</datestamp>
      <setSpec>user-biosyslit</setSpec>
    </header>
    <header>
      <identifier>oai:zenodo.org:437669</identifier>
      <datestamp>2017-03-23T10:10:51Z</datestamp>
      <setSpec>user-biosyslit</setSpec>
    </header>
    <header>
      <identifier>oai:zenodo.org:437220</identifier>
      <datestamp>2017-03-22T08:13:10Z</datestamp>
      <setSpec>user-biosyslit</setSpec>
    </header>
    <header>
      <identifier>oai:zenodo.org:439635</identifier>
      <datestamp>2017-04-01T11:05:37Z</datestamp>
      <setSpec>user-biosyslit</setSpec>
    </header>
    <header>
      <identifier>oai:zenodo.org:322676</identifier>
      <datestamp>2017-04-03T10:01:35Z</datestamp>
      <setSpec>openaire</setSpec>
      <setSpec>user-biosyslit</setSpec>
    </header>
    <header>
      <identifier>oai:zenodo.org:439779</identifier>
      <datestamp>2017-04-03T07:11:36Z</datestamp>
      <setSpec>user-biosyslit</setSpec>
    </header>
    <header>
      <identifier>oai:zenodo.org:439178</identifier>
      <datestamp>2017-03-30T07:37:36Z</datestamp>
      <setSpec>user-biosyslit</setSpec>
    </header>
    <header>
      <identifier>oai:zenodo.org:439295</identifier>
      <datestamp>2017-03-31T09:17:46Z</datestamp>
      <setSpec>openaire_data</setSpec>
      <setSpec>user-biosyslit</setSpec>
    </header>
    <header>
      <identifier>oai:zenodo.org:437585</identifier>
      <datestamp>2017-03-23T08:32:48Z</datestamp>
      <setSpec>user-biosyslit</setSpec>
    </header>
    <header>
      <identifier>oai:zenodo.org:437620</identifier>
      <datestamp>2017-03-23T10:09:00Z</datestamp>
      <setSpec>user-biosyslit</setSpec>
    </header>
    <header>
      <identifier>oai:zenodo.org:437584</identifier>
      <datestamp>2017-03-23T08:32:53Z</datestamp>
      <setSpec>user-biosyslit</setSpec>
    </header>
    <header>
      <identifier>oai:zenodo.org:437962</identifier>
      <datestamp>2017-03-24T08:31:04Z</datestamp>
      <setSpec>user-biosyslit</setSpec>
    </header>
    <header>
      <identifier>oai:zenodo.org:438241</identifier>
      <datestamp>2017-03-27T07:55:04Z</datestamp>
      <setSpec>user-biosyslit</setSpec>
    </header>
    <header>
      <identifier>oai:zenodo.org:439313</identifier>
      <datestamp>2017-03-31T09:17:19Z</datestamp>
      <setSpec>user-biosyslit</setSpec>
    </header>
    <header>
      <identifier>oai:zenodo.org:438831</identifier>
      <datestamp>2017-03-29T07:20:12Z</datestamp>
      <setSpec>user-biosyslit</setSpec>
    </header>
    <header>
      <identifier>oai:zenodo.org:284592</identifier>
      <datestamp>2017-02-09T11:34:35Z</datestamp>
      <setSpec>user-biosyslit</setSpec>
    </header>
    <header>
      <identifier>oai:zenodo.org:438868</identifier>
      <datestamp>2017-03-29T07:37:00Z</datestamp>
      <setSpec>user-biosyslit</setSpec>
    </header>
    <header>
      <identifier>oai:zenodo.org:438224</identifier>
      <datestamp>2017-03-27T07:36:29Z</datestamp>
      <setSpec>user-biosyslit</setSpec>
    </header>
    <header>
      <identifier>oai:zenodo.org:438525</identifier>
      <datestamp>2017-03-28T07:13:59Z</datestamp>
      <setSpec>user-biosyslit</setSpec>
    </header>
    <header>
      <identifier>oai:zenodo.org:438210</identifier>
      <datestamp>2017-03-27T07:11:28Z</datestamp>
      <setSpec>user-biosyslit</setSpec>
    </header>
    <header>
      <identifier>oai:zenodo.org:439170</identifier>
      <datestamp>2017-03-30T07:33:18Z</datestamp>
      <setSpec>user-biosyslit</setSpec>
    </header>
    <header>
      <identifier>oai:zenodo.org:439319</identifier>
      <datestamp>2017-03-31T09:17:11Z</datestamp>
      <setSpec>user-biosyslit</setSpec>
    </header>
    <header>
      <identifier>oai:zenodo.org:439985</identifier>
      <datestamp>2017-04-03T22:55:46Z</datestamp>
      <setSpec>user-biosyslit</setSpec>
    </header>
    <header>
      <identifier>oai:zenodo.org:439300</identifier>
      <datestamp>2017-03-31T09:17:33Z</datestamp>
      <setSpec>user-biosyslit</setSpec>
    </header>
    <header>
      <identifier>oai:zenodo.org:437248</identifier>
      <datestamp>2017-03-22T08:44:48Z</datestamp>
      <setSpec>user-biosyslit</setSpec>
    </header>
    <header>
      <identifier>oai:zenodo.org:437618</identifier>
      <datestamp>2017-03-23T10:08:56Z</datestamp>
      <setSpec>user-biosyslit</setSpec>
    </header>
    <header>
      <identifier>oai:zenodo.org:284547</identifier>
      <datestamp>2017-02-09T11:28:15Z</datestamp>
      <setSpec>user-biosyslit</setSpec>
    </header>
    <header>
      <identifier>oai:zenodo.org:438606</identifier>
      <datestamp>2017-03-28T07:57:38Z</datestamp>
      <setSpec>user-biosyslit</setSpec>
    </header>
    <header>
      <identifier>oai:zenodo.org:438302</identifier>
      <datestamp>2017-03-27T18:01:28Z</datestamp>
      <setSpec>openaire</setSpec>
      <setSpec>user-biosyslit</setSpec>
    </header>
    <header>
      <identifier>oai:zenodo.org:398880</identifier>
      <datestamp>2017-03-14T21:01:59Z</datestamp>
      <setSpec>user-biosyslit</setSpec>
    </header>
    <header>
      <identifier>oai:zenodo.org:399890</identifier>
      <datestamp>2017-03-16T01:30:56Z</datestamp>
      <setSpec>user-biosyslit</setSpec>
    </header>
    <header>
      <identifier>oai:zenodo.org:400062</identifier>
      <datestamp>2017-03-16T07:32:07Z</datestamp>
      <setSpec>user-biosyslit</setSpec>
    </header>
    <header>
      <identifier>oai:zenodo.org:283910</identifier>
      <datestamp>2017-02-09T10:02:47Z</datestamp>
      <setSpec>user-biosyslit</setSpec>
    </header>
    <header>
      <identifier>oai:zenodo.org:399617</identifier>
      <datestamp>2017-03-15T22:59:52Z</datestamp>
      <setSpec>user-biosyslit</setSpec>
    </header>
    <header>
      <identifier>oai:zenodo.org:400426</identifier>
      <datestamp>2017-03-17T08:24:03Z</datestamp>
      <setSpec>user-biosyslit</setSpec>
    </header>
    <header>
      <identifier>oai:zenodo.org:399811</identifier>
      <datestamp>2017-03-15T23:58:50Z</datestamp>
      <setSpec>user-biosyslit</setSpec>
    </header>
    <header>
      <identifier>oai:zenodo.org:400074</identifier>
      <datestamp>2017-03-16T07:32:40Z</datestamp>
      <setSpec>user-biosyslit</setSpec>
    </header>
    <header>
      <identifier>oai:zenodo.org:399644</identifier>
      <datestamp>2017-03-15T23:06:01Z</datestamp>
      <setSpec>user-biosyslit</setSpec>
    </header>
    <header>
      <identifier>oai:zenodo.org:399511</identifier>
      <datestamp>2017-03-15T22:44:14Z</datestamp>
      <setSpec>user-biosyslit</setSpec>
    </header>
    <header>
      <identifier>oai:zenodo.org:400861</identifier>
      <datestamp>2017-03-20T08:39:53Z</datestamp>
      <setSpec>user-biosyslit</setSpec>
    </header>
    <header>
      <identifier>oai:zenodo.org:399588</identifier>
      <datestamp>2017-03-15T22:58:17Z</datestamp>
      <setSpec>user-biosyslit</setSpec>
    </header>
    <header>
      <identifier>oai:zenodo.org:399471</identifier>
      <datestamp>2017-03-15T21:07:16Z</datestamp>
      <setSpec>user-biosyslit</setSpec>
    </header>
    <resumptionToken expirationDate="2017-08-31T15:46:18Z" cursor="48700" completeListSize="77796">.eJyNysEKgjAYAOB3-c8Sm1OXQpfQxEOKrUl2CVMRc5m4Qp347nXpXOfvm0GWZQEOWhHLoqaBbUs3DRNji2og8_4hxKX-OOSnROSt4JmfvA73BKV6RUNXjns3JaFqUHTHiu1i_YTXI6_RFB_5M1WHMSHBwJBH9yqewlvweQWJfHG--h3j7VYwvegjL54Y3rIzyb8P__nUz-fKDWjQZVUJjrG2NWiGrK8kOPOyvAHVMVF-.DInAUg.3h1d1aN3rmDzb8temF-sesiGSEU</resumptionToken>
  </ListIdentifiers>
</OAI-PMH>
