<?xml version='1.0' encoding='UTF-8'?>
<?xml-stylesheet type="text/xsl" href="/static/xsl/oai2.v1.0.xsl"?>
<OAI-PMH xmlns="http://www.openarchives.org/OAI/2.0/" xmlns:xsi="http://www.w3.org/2001/XMLSchema-instance" xsi:schemaLocation="http://www.openarchives.org/OAI/2.0/ http://www.openarchives.org/OAI/2.0/OAI-PMH.xsd">
  <responseDate>2017-08-31T15:41:33Z</responseDate>
  <request verb="ListIdentifiers" resumptionToken=".eJyNyj0LgkAYAOD_8s4S91F5Ci1hiYOKXUq2hJ0i5mnhFeqJ_72W5pqfZwJVFDnYaLEk2GTMWpuIIbJaWQYo0d2lvFQfBnFKpGhlnLnJ69AkKCWlGThq8J2UBrpGYYM130fkhNkQV2iMjvEz1YchoV7P0c70dTQGN-_zchq68nx1Hzxut5KTvAt30cjxlp-p-D7859M_n6M2YMAjKwuwGTWg7rOuVGBP8_wGV1dRFw.DIm_rQ.iDX_b4KUcEWQoYJnInM6QDtj5E0">https://zenodo.org/oai2d</request>
  <ListIdentifiers>
    <header>
      <identifier>oai:zenodo.org:375470</identifier>
      <datestamp>2017-03-07T08:14:45Z</datestamp>
      <setSpec>user-biosyslit</setSpec>
    </header>
    <header>
      <identifier>oai:zenodo.org:282434</identifier>
      <datestamp>2017-02-09T06:59:46Z</datestamp>
      <setSpec>user-biosyslit</setSpec>
    </header>
    <header>
      <identifier>oai:zenodo.org:282446</identifier>
      <datestamp>2017-02-09T07:00:55Z</datestamp>
      <setSpec>user-biosyslit</setSpec>
    </header>
    <header>
      <identifier>oai:zenodo.org:375867</identifier>
      <datestamp>2017-03-08T13:23:30Z</datestamp>
      <setSpec>user-biosyslit</setSpec>
    </header>
    <header>
      <identifier>oai:zenodo.org:583209</identifier>
      <datestamp>2017-05-25T07:32:56Z</datestamp>
      <setSpec>user-biosyslit</setSpec>
    </header>
    <header>
      <identifier>oai:zenodo.org:376713</identifier>
      <datestamp>2017-03-11T00:05:13Z</datestamp>
      <setSpec>user-biosyslit</setSpec>
    </header>
    <header>
      <identifier>oai:zenodo.org:376945</identifier>
      <datestamp>2017-03-13T08:54:36Z</datestamp>
      <setSpec>user-biosyslit</setSpec>
    </header>
    <header>
      <identifier>oai:zenodo.org:282538</identifier>
      <datestamp>2017-02-09T07:11:54Z</datestamp>
      <setSpec>user-biosyslit</setSpec>
    </header>
    <header>
      <identifier>oai:zenodo.org:282930</identifier>
      <datestamp>2017-02-09T07:51:33Z</datestamp>
      <setSpec>user-biosyslit</setSpec>
    </header>
    <header>
      <identifier>oai:zenodo.org:283635</identifier>
      <datestamp>2017-02-09T09:20:00Z</datestamp>
      <setSpec>user-biosyslit</setSpec>
    </header>
    <header>
      <identifier>oai:zenodo.org:283084</identifier>
      <datestamp>2017-02-09T08:07:29Z</datestamp>
      <setSpec>user-biosyslit</setSpec>
    </header>
    <header>
      <identifier>oai:zenodo.org:226801</identifier>
      <datestamp>2017-01-01T03:34:19Z</datestamp>
      <setSpec>user-biosyslit</setSpec>
    </header>
    <header>
      <identifier>oai:zenodo.org:226794</identifier>
      <datestamp>2017-01-01T03:28:26Z</datestamp>
      <setSpec>user-biosyslit</setSpec>
    </header>
    <header>
      <identifier>oai:zenodo.org:282919</identifier>
      <datestamp>2017-02-09T07:51:49Z</datestamp>
      <setSpec>user-biosyslit</setSpec>
    </header>
    <header>
      <identifier>oai:zenodo.org:282898</identifier>
      <datestamp>2017-02-09T07:48:30Z</datestamp>
      <setSpec>user-biosyslit</setSpec>
    </header>
    <header>
      <identifier>oai:zenodo.org:283782</identifier>
      <datestamp>2017-02-09T09:42:48Z</datestamp>
      <setSpec>user-biosyslit</setSpec>
    </header>
    <header>
      <identifier>oai:zenodo.org:283537</identifier>
      <datestamp>2017-02-09T09:09:25Z</datestamp>
      <setSpec>user-biosyslit</setSpec>
    </header>
    <header>
      <identifier>oai:zenodo.org:282619</identifier>
      <datestamp>2017-02-09T07:19:19Z</datestamp>
      <setSpec>user-biosyslit</setSpec>
    </header>
    <header>
      <identifier>oai:zenodo.org:282053</identifier>
      <datestamp>2017-02-09T06:23:11Z</datestamp>
      <setSpec>user-biosyslit</setSpec>
    </header>
    <header>
      <identifier>oai:zenodo.org:283114</identifier>
      <datestamp>2017-02-09T08:10:25Z</datestamp>
      <setSpec>user-biosyslit</setSpec>
    </header>
    <header>
      <identifier>oai:zenodo.org:282928</identifier>
      <datestamp>2017-02-09T07:51:29Z</datestamp>
      <setSpec>user-biosyslit</setSpec>
    </header>
    <header>
      <identifier>oai:zenodo.org:282904</identifier>
      <datestamp>2017-02-09T07:49:21Z</datestamp>
      <setSpec>user-biosyslit</setSpec>
    </header>
    <header>
      <identifier>oai:zenodo.org:583827</identifier>
      <datestamp>2017-05-29T07:25:11Z</datestamp>
      <setSpec>user-biosyslit</setSpec>
    </header>
    <header>
      <identifier>oai:zenodo.org:282742</identifier>
      <datestamp>2017-02-09T07:33:10Z</datestamp>
      <setSpec>user-biosyslit</setSpec>
    </header>
    <header>
      <identifier>oai:zenodo.org:282851</identifier>
      <datestamp>2017-02-09T07:43:30Z</datestamp>
      <setSpec>user-biosyslit</setSpec>
    </header>
    <header>
      <identifier>oai:zenodo.org:583214</identifier>
      <datestamp>2017-05-25T07:33:09Z</datestamp>
      <setSpec>user-biosyslit</setSpec>
    </header>
    <header>
      <identifier>oai:zenodo.org:282410</identifier>
      <datestamp>2017-02-09T06:57:33Z</datestamp>
      <setSpec>user-biosyslit</setSpec>
    </header>
    <header>
      <identifier>oai:zenodo.org:376920</identifier>
      <datestamp>2017-03-13T08:39:17Z</datestamp>
      <setSpec>user-biosyslit</setSpec>
    </header>
    <header>
      <identifier>oai:zenodo.org:282534</identifier>
      <datestamp>2017-02-09T07:11:41Z</datestamp>
      <setSpec>user-biosyslit</setSpec>
    </header>
    <header>
      <identifier>oai:zenodo.org:282524</identifier>
      <datestamp>2017-02-09T07:10:58Z</datestamp>
      <setSpec>user-biosyslit</setSpec>
    </header>
    <header>
      <identifier>oai:zenodo.org:583933</identifier>
      <datestamp>2017-05-29T08:35:25Z</datestamp>
      <setSpec>user-biosyslit</setSpec>
    </header>
    <header>
      <identifier>oai:zenodo.org:282535</identifier>
      <datestamp>2017-02-09T07:11:47Z</datestamp>
      <setSpec>user-biosyslit</setSpec>
    </header>
    <header>
      <identifier>oai:zenodo.org:283219</identifier>
      <datestamp>2017-02-09T08:22:58Z</datestamp>
      <setSpec>user-biosyslit</setSpec>
    </header>
    <header>
      <identifier>oai:zenodo.org:375782</identifier>
      <datestamp>2017-03-08T08:34:30Z</datestamp>
      <setSpec>user-biosyslit</setSpec>
    </header>
    <header>
      <identifier>oai:zenodo.org:582468</identifier>
      <datestamp>2017-05-23T08:03:02Z</datestamp>
      <setSpec>user-biosyslit</setSpec>
    </header>
    <header>
      <identifier>oai:zenodo.org:375769</identifier>
      <datestamp>2017-03-08T08:33:58Z</datestamp>
      <setSpec>user-biosyslit</setSpec>
    </header>
    <header>
      <identifier>oai:zenodo.org:375976</identifier>
      <datestamp>2017-03-09T08:15:05Z</datestamp>
      <setSpec>user-biosyslit</setSpec>
    </header>
    <header>
      <identifier>oai:zenodo.org:375505</identifier>
      <datestamp>2017-03-07T08:35:16Z</datestamp>
      <setSpec>user-biosyslit</setSpec>
    </header>
    <header>
      <identifier>oai:zenodo.org:376013</identifier>
      <datestamp>2017-03-09T08:40:59Z</datestamp>
      <setSpec>user-biosyslit</setSpec>
    </header>
    <header>
      <identifier>oai:zenodo.org:376699</identifier>
      <datestamp>2017-03-11T00:04:37Z</datestamp>
      <setSpec>user-biosyslit</setSpec>
    </header>
    <header>
      <identifier>oai:zenodo.org:583206</identifier>
      <datestamp>2017-05-25T07:32:47Z</datestamp>
      <setSpec>user-biosyslit</setSpec>
    </header>
    <header>
      <identifier>oai:zenodo.org:583392</identifier>
      <datestamp>2017-05-26T08:02:27Z</datestamp>
      <setSpec>user-biosyslit</setSpec>
    </header>
    <header>
      <identifier>oai:zenodo.org:583393</identifier>
      <datestamp>2017-05-26T08:02:07Z</datestamp>
      <setSpec>user-biosyslit</setSpec>
    </header>
    <header>
      <identifier>oai:zenodo.org:283010</identifier>
      <datestamp>2017-02-09T08:00:52Z</datestamp>
      <setSpec>user-biosyslit</setSpec>
    </header>
    <header>
      <identifier>oai:zenodo.org:282935</identifier>
      <datestamp>2017-02-09T07:51:43Z</datestamp>
      <setSpec>user-biosyslit</setSpec>
    </header>
    <header>
      <identifier>oai:zenodo.org:583876</identifier>
      <datestamp>2017-05-29T08:08:50Z</datestamp>
      <setSpec>user-biosyslit</setSpec>
    </header>
    <header>
      <identifier>oai:zenodo.org:583820</identifier>
      <datestamp>2017-05-29T07:17:09Z</datestamp>
      <setSpec>user-biosyslit</setSpec>
    </header>
    <header>
      <identifier>oai:zenodo.org:282795</identifier>
      <datestamp>2017-02-09T07:38:33Z</datestamp>
      <setSpec>user-biosyslit</setSpec>
    </header>
    <header>
      <identifier>oai:zenodo.org:581992</identifier>
      <datestamp>2017-05-22T07:20:07Z</datestamp>
      <setSpec>user-biosyslit</setSpec>
    </header>
    <header>
      <identifier>oai:zenodo.org:281795</identifier>
      <datestamp>2017-02-09T05:55:59Z</datestamp>
      <setSpec>user-biosyslit</setSpec>
    </header>
    <header>
      <identifier>oai:zenodo.org:282015</identifier>
      <datestamp>2017-02-09T06:19:41Z</datestamp>
      <setSpec>user-biosyslit</setSpec>
    </header>
    <header>
      <identifier>oai:zenodo.org:282407</identifier>
      <datestamp>2017-02-09T06:57:27Z</datestamp>
      <setSpec>user-biosyslit</setSpec>
    </header>
    <header>
      <identifier>oai:zenodo.org:376015</identifier>
      <datestamp>2017-03-09T08:41:03Z</datestamp>
      <setSpec>user-biosyslit</setSpec>
    </header>
    <header>
      <identifier>oai:zenodo.org:376007</identifier>
      <datestamp>2017-03-09T08:33:38Z</datestamp>
      <setSpec>user-biosyslit</setSpec>
    </header>
    <header>
      <identifier>oai:zenodo.org:375890</identifier>
      <datestamp>2017-03-08T13:24:48Z</datestamp>
      <setSpec>user-biosyslit</setSpec>
    </header>
    <header>
      <identifier>oai:zenodo.org:376036</identifier>
      <datestamp>2017-03-09T09:05:09Z</datestamp>
      <setSpec>user-biosyslit</setSpec>
    </header>
    <header>
      <identifier>oai:zenodo.org:376210</identifier>
      <datestamp>2017-03-09T14:31:41Z</datestamp>
      <setSpec>user-biosyslit</setSpec>
    </header>
    <header>
      <identifier>oai:zenodo.org:582766</identifier>
      <datestamp>2017-05-24T08:11:01Z</datestamp>
      <setSpec>user-biosyslit</setSpec>
    </header>
    <header>
      <identifier>oai:zenodo.org:281962</identifier>
      <datestamp>2017-02-09T06:14:25Z</datestamp>
      <setSpec>user-biosyslit</setSpec>
    </header>
    <header>
      <identifier>oai:zenodo.org:282558</identifier>
      <datestamp>2017-02-09T07:12:42Z</datestamp>
      <setSpec>user-biosyslit</setSpec>
    </header>
    <header>
      <identifier>oai:zenodo.org:282625</identifier>
      <datestamp>2017-02-09T07:19:52Z</datestamp>
      <setSpec>user-biosyslit</setSpec>
    </header>
    <header>
      <identifier>oai:zenodo.org:376458</identifier>
      <datestamp>2017-03-10T09:33:48Z</datestamp>
      <setSpec>user-biosyslit</setSpec>
    </header>
    <header>
      <identifier>oai:zenodo.org:376900</identifier>
      <datestamp>2017-03-13T08:16:15Z</datestamp>
      <setSpec>user-biosyslit</setSpec>
    </header>
    <header>
      <identifier>oai:zenodo.org:282401</identifier>
      <datestamp>2017-02-09T06:56:47Z</datestamp>
      <setSpec>user-biosyslit</setSpec>
    </header>
    <header>
      <identifier>oai:zenodo.org:282292</identifier>
      <datestamp>2017-02-09T06:46:36Z</datestamp>
      <setSpec>user-biosyslit</setSpec>
    </header>
    <header>
      <identifier>oai:zenodo.org:283642</identifier>
      <datestamp>2017-02-09T09:20:16Z</datestamp>
      <setSpec>user-biosyslit</setSpec>
    </header>
    <header>
      <identifier>oai:zenodo.org:282952</identifier>
      <datestamp>2017-02-09T07:54:23Z</datestamp>
      <setSpec>user-biosyslit</setSpec>
    </header>
    <header>
      <identifier>oai:zenodo.org:283660</identifier>
      <datestamp>2017-02-09T09:22:14Z</datestamp>
      <setSpec>user-biosyslit</setSpec>
    </header>
    <header>
      <identifier>oai:zenodo.org:283621</identifier>
      <datestamp>2017-02-09T09:18:48Z</datestamp>
      <setSpec>user-biosyslit</setSpec>
    </header>
    <header>
      <identifier>oai:zenodo.org:376733</identifier>
      <datestamp>2017-03-11T00:06:11Z</datestamp>
      <setSpec>user-biosyslit</setSpec>
    </header>
    <header>
      <identifier>oai:zenodo.org:262520</identifier>
      <datestamp>2017-01-29T05:09:02Z</datestamp>
      <setSpec>user-biosyslit</setSpec>
    </header>
    <header>
      <identifier>oai:zenodo.org:263008</identifier>
      <datestamp>2017-01-29T14:43:07Z</datestamp>
      <setSpec>user-biosyslit</setSpec>
    </header>
    <header>
      <identifier>oai:zenodo.org:262554</identifier>
      <datestamp>2017-01-29T05:29:42Z</datestamp>
      <setSpec>user-biosyslit</setSpec>
    </header>
    <header>
      <identifier>oai:zenodo.org:263151</identifier>
      <datestamp>2017-01-29T17:45:59Z</datestamp>
      <setSpec>user-biosyslit</setSpec>
    </header>
    <header>
      <identifier>oai:zenodo.org:262593</identifier>
      <datestamp>2017-01-29T06:02:06Z</datestamp>
      <setSpec>user-biosyslit</setSpec>
    </header>
    <header>
      <identifier>oai:zenodo.org:262540</identifier>
      <datestamp>2017-01-29T05:22:59Z</datestamp>
      <setSpec>user-biosyslit</setSpec>
    </header>
    <header>
      <identifier>oai:zenodo.org:262958</identifier>
      <datestamp>2017-01-29T14:03:01Z</datestamp>
      <setSpec>user-biosyslit</setSpec>
    </header>
    <header>
      <identifier>oai:zenodo.org:262630</identifier>
      <datestamp>2017-01-29T06:27:45Z</datestamp>
      <setSpec>user-biosyslit</setSpec>
    </header>
    <header>
      <identifier>oai:zenodo.org:262734</identifier>
      <datestamp>2017-01-29T07:53:16Z</datestamp>
      <setSpec>user-biosyslit</setSpec>
    </header>
    <header>
      <identifier>oai:zenodo.org:262723</identifier>
      <datestamp>2017-01-29T07:52:48Z</datestamp>
      <setSpec>user-biosyslit</setSpec>
    </header>
    <header>
      <identifier>oai:zenodo.org:262653</identifier>
      <datestamp>2017-01-29T06:51:42Z</datestamp>
      <setSpec>user-biosyslit</setSpec>
    </header>
    <header>
      <identifier>oai:zenodo.org:262732</identifier>
      <datestamp>2017-01-29T07:53:10Z</datestamp>
      <setSpec>user-biosyslit</setSpec>
    </header>
    <header>
      <identifier>oai:zenodo.org:262717</identifier>
      <datestamp>2017-01-29T07:54:28Z</datestamp>
      <setSpec>user-biosyslit</setSpec>
    </header>
    <header>
      <identifier>oai:zenodo.org:263885</identifier>
      <datestamp>2017-01-30T09:48:27Z</datestamp>
      <setSpec>user-biosyslit</setSpec>
    </header>
    <header>
      <identifier>oai:zenodo.org:263105</identifier>
      <datestamp>2017-01-29T16:40:19Z</datestamp>
      <setSpec>user-biosyslit</setSpec>
    </header>
    <header>
      <identifier>oai:zenodo.org:264082</identifier>
      <datestamp>2017-01-30T12:36:58Z</datestamp>
      <setSpec>user-biosyslit</setSpec>
    </header>
    <header>
      <identifier>oai:zenodo.org:263186</identifier>
      <datestamp>2017-01-29T18:25:38Z</datestamp>
      <setSpec>user-biosyslit</setSpec>
    </header>
    <header>
      <identifier>oai:zenodo.org:262942</identifier>
      <datestamp>2017-01-29T13:33:41Z</datestamp>
      <setSpec>user-biosyslit</setSpec>
    </header>
    <header>
      <identifier>oai:zenodo.org:262859</identifier>
      <datestamp>2017-01-29T10:08:01Z</datestamp>
      <setSpec>user-biosyslit</setSpec>
    </header>
    <header>
      <identifier>oai:zenodo.org:263401</identifier>
      <datestamp>2017-01-29T22:30:56Z</datestamp>
      <setSpec>user-biosyslit</setSpec>
    </header>
    <header>
      <identifier>oai:zenodo.org:263620</identifier>
      <datestamp>2017-01-30T01:30:21Z</datestamp>
      <setSpec>user-biosyslit</setSpec>
    </header>
    <header>
      <identifier>oai:zenodo.org:263856</identifier>
      <datestamp>2017-01-30T09:06:34Z</datestamp>
      <setSpec>user-biosyslit</setSpec>
    </header>
    <header>
      <identifier>oai:zenodo.org:263426</identifier>
      <datestamp>2017-01-29T22:32:19Z</datestamp>
      <setSpec>user-biosyslit</setSpec>
    </header>
    <header>
      <identifier>oai:zenodo.org:264081</identifier>
      <datestamp>2017-01-30T12:36:55Z</datestamp>
      <setSpec>user-biosyslit</setSpec>
    </header>
    <header>
      <identifier>oai:zenodo.org:264035</identifier>
      <datestamp>2017-01-30T12:23:30Z</datestamp>
      <setSpec>user-biosyslit</setSpec>
    </header>
    <header>
      <identifier>oai:zenodo.org:263049</identifier>
      <datestamp>2017-01-29T15:36:21Z</datestamp>
      <setSpec>user-biosyslit</setSpec>
    </header>
    <header>
      <identifier>oai:zenodo.org:263613</identifier>
      <datestamp>2017-01-30T01:23:40Z</datestamp>
      <setSpec>user-biosyslit</setSpec>
    </header>
    <header>
      <identifier>oai:zenodo.org:263528</identifier>
      <datestamp>2017-01-29T23:50:36Z</datestamp>
      <setSpec>user-biosyslit</setSpec>
    </header>
    <header>
      <identifier>oai:zenodo.org:263358</identifier>
      <datestamp>2017-01-29T22:27:17Z</datestamp>
      <setSpec>user-biosyslit</setSpec>
    </header>
    <header>
      <identifier>oai:zenodo.org:263903</identifier>
      <datestamp>2017-01-30T09:58:08Z</datestamp>
      <setSpec>user-biosyslit</setSpec>
    </header>
    <resumptionToken expirationDate="2017-08-31T15:43:33Z" cursor="8200" completeListSize="77796">.eJyNysEKgjAYAOB3-c8S-zdDE7qEJR5UdCnZJUxFzGniCnXSu9elc52_bwFZlgVYZKVvqLFGnZpIGRqIGsh8uAtxqT8M-SkReSfizEmeUZuQlFaGb8vJs1Pmq4YELSp-COkJzSmuyRwe40eqoilh7sjJ3vBUOPs39_MKFjjifHV6Hnc7wWkxBPtw5rjjZ5Z_H_751M9nyy1o0GdVCZapa9CM2VBJsJbX6w1Cs1EB.DIm_rQ.oMiEyhEhirmPXQkWq4-vyjffD-A</resumptionToken>
  </ListIdentifiers>
</OAI-PMH>
