<?xml version='1.0' encoding='UTF-8'?>
<?xml-stylesheet type="text/xsl" href="/static/xsl/oai2.v1.0.xsl"?>
<OAI-PMH xmlns="http://www.openarchives.org/OAI/2.0/" xmlns:xsi="http://www.w3.org/2001/XMLSchema-instance" xsi:schemaLocation="http://www.openarchives.org/OAI/2.0/ http://www.openarchives.org/OAI/2.0/OAI-PMH.xsd">
  <responseDate>2017-08-31T15:43:03Z</responseDate>
  <request verb="ListIdentifiers" resumptionToken=".eJyNz00LgjAAgOH_srPEPkpD6BKaeFDRtaFewlTEnCauUCf-97x0rvP7XN4FyLIsgAl36AChTnSECMZ7iIkGZD48hbjVWwZ5zEXeCZY5_B21HCa4MnxLTp6VEF81MGiRopcQx-g4sRrO4ZW9EhVNnLgjhbbhqXD2H-7mChI4Ir07PWXdWVBcDIEdzhSdaUryr0N_OvXTWfIENNBnVQlMgrarZsyGSgJzWdcPf5BRGQ.DInABw.ZumlMtNsSqoacJ1-CqLY5Mq1JxE">https://zenodo.org/oai2d</request>
  <ListIdentifiers>
    <header>
      <identifier>oai:zenodo.org:231140</identifier>
      <datestamp>2017-01-05T15:16:36Z</datestamp>
      <setSpec>user-biosyslit</setSpec>
    </header>
    <header>
      <identifier>oai:zenodo.org:231141</identifier>
      <datestamp>2017-01-05T15:16:53Z</datestamp>
      <setSpec>user-biosyslit</setSpec>
    </header>
    <header>
      <identifier>oai:zenodo.org:283025</identifier>
      <datestamp>2017-02-09T08:02:11Z</datestamp>
      <setSpec>user-biosyslit</setSpec>
    </header>
    <header>
      <identifier>oai:zenodo.org:283024</identifier>
      <datestamp>2017-02-09T08:02:09Z</datestamp>
      <setSpec>user-biosyslit</setSpec>
    </header>
    <header>
      <identifier>oai:zenodo.org:283026</identifier>
      <datestamp>2017-02-09T08:02:14Z</datestamp>
      <setSpec>user-biosyslit</setSpec>
    </header>
    <header>
      <identifier>oai:zenodo.org:282265</identifier>
      <datestamp>2017-02-09T06:44:23Z</datestamp>
      <setSpec>user-biosyslit</setSpec>
    </header>
    <header>
      <identifier>oai:zenodo.org:227662</identifier>
      <datestamp>2017-01-02T02:07:37Z</datestamp>
      <setSpec>user-biosyslit</setSpec>
    </header>
    <header>
      <identifier>oai:zenodo.org:230409</identifier>
      <datestamp>2017-01-05T00:48:27Z</datestamp>
      <setSpec>user-biosyslit</setSpec>
    </header>
    <header>
      <identifier>oai:zenodo.org:230406</identifier>
      <datestamp>2017-01-05T00:48:16Z</datestamp>
      <setSpec>user-biosyslit</setSpec>
    </header>
    <header>
      <identifier>oai:zenodo.org:230412</identifier>
      <datestamp>2017-01-05T00:48:38Z</datestamp>
      <setSpec>user-biosyslit</setSpec>
    </header>
    <header>
      <identifier>oai:zenodo.org:227667</identifier>
      <datestamp>2017-01-02T02:07:35Z</datestamp>
      <setSpec>user-biosyslit</setSpec>
    </header>
    <header>
      <identifier>oai:zenodo.org:230408</identifier>
      <datestamp>2017-01-05T00:48:24Z</datestamp>
      <setSpec>user-biosyslit</setSpec>
    </header>
    <header>
      <identifier>oai:zenodo.org:230411</identifier>
      <datestamp>2017-01-05T00:48:34Z</datestamp>
      <setSpec>user-biosyslit</setSpec>
    </header>
    <header>
      <identifier>oai:zenodo.org:227666</identifier>
      <datestamp>2017-01-02T02:07:32Z</datestamp>
      <setSpec>user-biosyslit</setSpec>
    </header>
    <header>
      <identifier>oai:zenodo.org:227311</identifier>
      <datestamp>2017-01-01T19:23:01Z</datestamp>
      <setSpec>user-biosyslit</setSpec>
    </header>
    <header>
      <identifier>oai:zenodo.org:227314</identifier>
      <datestamp>2017-01-01T19:23:20Z</datestamp>
      <setSpec>user-biosyslit</setSpec>
    </header>
    <header>
      <identifier>oai:zenodo.org:273314</identifier>
      <datestamp>2017-02-08T08:59:05Z</datestamp>
      <setSpec>user-biosyslit</setSpec>
    </header>
    <header>
      <identifier>oai:zenodo.org:273321</identifier>
      <datestamp>2017-02-08T08:59:18Z</datestamp>
      <setSpec>user-biosyslit</setSpec>
    </header>
    <header>
      <identifier>oai:zenodo.org:226867</identifier>
      <datestamp>2017-01-01T04:52:53Z</datestamp>
      <setSpec>user-biosyslit</setSpec>
    </header>
    <header>
      <identifier>oai:zenodo.org:273319</identifier>
      <datestamp>2017-02-08T08:59:14Z</datestamp>
      <setSpec>user-biosyslit</setSpec>
    </header>
    <header>
      <identifier>oai:zenodo.org:273320</identifier>
      <datestamp>2017-02-08T08:59:16Z</datestamp>
      <setSpec>user-biosyslit</setSpec>
    </header>
    <header>
      <identifier>oai:zenodo.org:273317</identifier>
      <datestamp>2017-02-08T08:59:11Z</datestamp>
      <setSpec>user-biosyslit</setSpec>
    </header>
    <header>
      <identifier>oai:zenodo.org:229723</identifier>
      <datestamp>2017-01-03T20:55:34Z</datestamp>
      <setSpec>user-biosyslit</setSpec>
    </header>
    <header>
      <identifier>oai:zenodo.org:266337</identifier>
      <datestamp>2017-02-01T06:31:42Z</datestamp>
      <setSpec>user-biosyslit</setSpec>
    </header>
    <header>
      <identifier>oai:zenodo.org:266340</identifier>
      <datestamp>2017-02-01T06:31:40Z</datestamp>
      <setSpec>user-biosyslit</setSpec>
    </header>
    <header>
      <identifier>oai:zenodo.org:285235</identifier>
      <datestamp>2017-02-09T13:04:55Z</datestamp>
      <setSpec>user-biosyslit</setSpec>
    </header>
    <header>
      <identifier>oai:zenodo.org:228774</identifier>
      <datestamp>2017-01-03T04:48:08Z</datestamp>
      <setSpec>user-biosyslit</setSpec>
    </header>
    <header>
      <identifier>oai:zenodo.org:265120</identifier>
      <datestamp>2017-01-31T08:23:40Z</datestamp>
      <setSpec>user-biosyslit</setSpec>
    </header>
    <header>
      <identifier>oai:zenodo.org:276154</identifier>
      <datestamp>2017-02-08T18:14:37Z</datestamp>
      <setSpec>user-biosyslit</setSpec>
    </header>
    <header>
      <identifier>oai:zenodo.org:276156</identifier>
      <datestamp>2017-02-08T18:14:40Z</datestamp>
      <setSpec>user-biosyslit</setSpec>
    </header>
    <header>
      <identifier>oai:zenodo.org:276160</identifier>
      <datestamp>2017-02-08T18:14:54Z</datestamp>
      <setSpec>user-biosyslit</setSpec>
    </header>
    <header>
      <identifier>oai:zenodo.org:265123</identifier>
      <datestamp>2017-01-31T08:23:38Z</datestamp>
      <setSpec>user-biosyslit</setSpec>
    </header>
    <header>
      <identifier>oai:zenodo.org:265121</identifier>
      <datestamp>2017-01-31T08:23:31Z</datestamp>
      <setSpec>user-biosyslit</setSpec>
    </header>
    <header>
      <identifier>oai:zenodo.org:228468</identifier>
      <datestamp>2017-01-03T00:14:22Z</datestamp>
      <setSpec>user-biosyslit</setSpec>
    </header>
    <header>
      <identifier>oai:zenodo.org:228469</identifier>
      <datestamp>2017-01-03T00:14:26Z</datestamp>
      <setSpec>user-biosyslit</setSpec>
    </header>
    <header>
      <identifier>oai:zenodo.org:226996</identifier>
      <datestamp>2017-01-01T07:53:51Z</datestamp>
      <setSpec>user-biosyslit</setSpec>
    </header>
    <header>
      <identifier>oai:zenodo.org:237591</identifier>
      <datestamp>2017-01-10T17:31:37Z</datestamp>
      <setSpec>user-biosyslit</setSpec>
    </header>
    <header>
      <identifier>oai:zenodo.org:237594</identifier>
      <datestamp>2017-01-10T17:31:31Z</datestamp>
      <setSpec>user-biosyslit</setSpec>
    </header>
    <header>
      <identifier>oai:zenodo.org:227756</identifier>
      <datestamp>2017-01-02T04:12:54Z</datestamp>
      <setSpec>user-biosyslit</setSpec>
    </header>
    <header>
      <identifier>oai:zenodo.org:237592</identifier>
      <datestamp>2017-01-10T17:31:24Z</datestamp>
      <setSpec>user-biosyslit</setSpec>
    </header>
    <header>
      <identifier>oai:zenodo.org:267224</identifier>
      <datestamp>2017-02-01T23:07:34Z</datestamp>
      <setSpec>user-biosyslit</setSpec>
    </header>
    <header>
      <identifier>oai:zenodo.org:267225</identifier>
      <datestamp>2017-02-01T23:07:25Z</datestamp>
      <setSpec>user-biosyslit</setSpec>
    </header>
    <header>
      <identifier>oai:zenodo.org:267227</identifier>
      <datestamp>2017-02-01T23:07:30Z</datestamp>
      <setSpec>user-biosyslit</setSpec>
    </header>
    <header>
      <identifier>oai:zenodo.org:267226</identifier>
      <datestamp>2017-02-01T23:07:28Z</datestamp>
      <setSpec>user-biosyslit</setSpec>
    </header>
    <header>
      <identifier>oai:zenodo.org:230232</identifier>
      <datestamp>2017-01-04T21:27:11Z</datestamp>
      <setSpec>user-biosyslit</setSpec>
    </header>
    <header>
      <identifier>oai:zenodo.org:285393</identifier>
      <datestamp>2017-02-09T13:29:19Z</datestamp>
      <setSpec>user-biosyslit</setSpec>
    </header>
    <header>
      <identifier>oai:zenodo.org:273233</identifier>
      <datestamp>2017-02-08T08:41:09Z</datestamp>
      <setSpec>user-biosyslit</setSpec>
    </header>
    <header>
      <identifier>oai:zenodo.org:273234</identifier>
      <datestamp>2017-02-08T08:41:11Z</datestamp>
      <setSpec>user-biosyslit</setSpec>
    </header>
    <header>
      <identifier>oai:zenodo.org:273541</identifier>
      <datestamp>2017-02-08T09:36:50Z</datestamp>
      <setSpec>user-biosyslit</setSpec>
    </header>
    <header>
      <identifier>oai:zenodo.org:278755</identifier>
      <datestamp>2017-02-08T23:50:43Z</datestamp>
      <setSpec>user-biosyslit</setSpec>
    </header>
    <header>
      <identifier>oai:zenodo.org:278770</identifier>
      <datestamp>2017-02-08T23:50:42Z</datestamp>
      <setSpec>user-biosyslit</setSpec>
    </header>
    <header>
      <identifier>oai:zenodo.org:278767</identifier>
      <datestamp>2017-02-08T23:50:36Z</datestamp>
      <setSpec>user-biosyslit</setSpec>
    </header>
    <header>
      <identifier>oai:zenodo.org:278760</identifier>
      <datestamp>2017-02-08T23:50:20Z</datestamp>
      <setSpec>user-biosyslit</setSpec>
    </header>
    <header>
      <identifier>oai:zenodo.org:278763</identifier>
      <datestamp>2017-02-08T23:50:28Z</datestamp>
      <setSpec>user-biosyslit</setSpec>
    </header>
    <header>
      <identifier>oai:zenodo.org:278765</identifier>
      <datestamp>2017-02-08T23:50:32Z</datestamp>
      <setSpec>user-biosyslit</setSpec>
    </header>
    <header>
      <identifier>oai:zenodo.org:278758</identifier>
      <datestamp>2017-02-08T23:50:15Z</datestamp>
      <setSpec>user-biosyslit</setSpec>
    </header>
    <header>
      <identifier>oai:zenodo.org:278761</identifier>
      <datestamp>2017-02-08T23:50:22Z</datestamp>
      <setSpec>user-biosyslit</setSpec>
    </header>
    <header>
      <identifier>oai:zenodo.org:278769</identifier>
      <datestamp>2017-02-08T23:50:40Z</datestamp>
      <setSpec>user-biosyslit</setSpec>
    </header>
    <header>
      <identifier>oai:zenodo.org:285378</identifier>
      <datestamp>2017-02-09T13:27:51Z</datestamp>
      <setSpec>user-biosyslit</setSpec>
    </header>
    <header>
      <identifier>oai:zenodo.org:285382</identifier>
      <datestamp>2017-02-09T13:27:47Z</datestamp>
      <setSpec>user-biosyslit</setSpec>
    </header>
    <header>
      <identifier>oai:zenodo.org:285380</identifier>
      <datestamp>2017-02-09T13:27:42Z</datestamp>
      <setSpec>user-biosyslit</setSpec>
    </header>
    <header>
      <identifier>oai:zenodo.org:285379</identifier>
      <datestamp>2017-02-09T13:27:39Z</datestamp>
      <setSpec>user-biosyslit</setSpec>
    </header>
    <header>
      <identifier>oai:zenodo.org:275258</identifier>
      <datestamp>2017-02-08T15:49:05Z</datestamp>
      <setSpec>user-biosyslit</setSpec>
    </header>
    <header>
      <identifier>oai:zenodo.org:275256</identifier>
      <datestamp>2017-02-08T15:49:06Z</datestamp>
      <setSpec>user-biosyslit</setSpec>
    </header>
    <header>
      <identifier>oai:zenodo.org:248836</identifier>
      <datestamp>2017-01-17T12:31:41Z</datestamp>
      <setSpec>user-biosyslit</setSpec>
    </header>
    <header>
      <identifier>oai:zenodo.org:248845</identifier>
      <datestamp>2017-01-17T12:32:12Z</datestamp>
      <setSpec>user-biosyslit</setSpec>
    </header>
    <header>
      <identifier>oai:zenodo.org:248851</identifier>
      <datestamp>2017-01-17T12:32:36Z</datestamp>
      <setSpec>user-biosyslit</setSpec>
    </header>
    <header>
      <identifier>oai:zenodo.org:248850</identifier>
      <datestamp>2017-01-17T12:32:33Z</datestamp>
      <setSpec>user-biosyslit</setSpec>
    </header>
    <header>
      <identifier>oai:zenodo.org:248847</identifier>
      <datestamp>2017-01-17T12:32:19Z</datestamp>
      <setSpec>user-biosyslit</setSpec>
    </header>
    <header>
      <identifier>oai:zenodo.org:248843</identifier>
      <datestamp>2017-01-17T12:32:06Z</datestamp>
      <setSpec>user-biosyslit</setSpec>
    </header>
    <header>
      <identifier>oai:zenodo.org:248837</identifier>
      <datestamp>2017-01-17T12:31:45Z</datestamp>
      <setSpec>user-biosyslit</setSpec>
    </header>
    <header>
      <identifier>oai:zenodo.org:248840</identifier>
      <datestamp>2017-01-17T12:31:55Z</datestamp>
      <setSpec>user-biosyslit</setSpec>
    </header>
    <header>
      <identifier>oai:zenodo.org:248834</identifier>
      <datestamp>2017-01-17T12:31:33Z</datestamp>
      <setSpec>user-biosyslit</setSpec>
    </header>
    <header>
      <identifier>oai:zenodo.org:248860</identifier>
      <datestamp>2017-01-17T12:33:14Z</datestamp>
      <setSpec>user-biosyslit</setSpec>
    </header>
    <header>
      <identifier>oai:zenodo.org:248870</identifier>
      <datestamp>2017-01-17T12:33:59Z</datestamp>
      <setSpec>user-biosyslit</setSpec>
    </header>
    <header>
      <identifier>oai:zenodo.org:248854</identifier>
      <datestamp>2017-01-17T12:32:47Z</datestamp>
      <setSpec>user-biosyslit</setSpec>
    </header>
    <header>
      <identifier>oai:zenodo.org:248856</identifier>
      <datestamp>2017-01-17T12:32:54Z</datestamp>
      <setSpec>user-biosyslit</setSpec>
    </header>
    <header>
      <identifier>oai:zenodo.org:248857</identifier>
      <datestamp>2017-01-17T12:33:03Z</datestamp>
      <setSpec>user-biosyslit</setSpec>
    </header>
    <header>
      <identifier>oai:zenodo.org:248869</identifier>
      <datestamp>2017-01-17T12:33:56Z</datestamp>
      <setSpec>user-biosyslit</setSpec>
    </header>
    <header>
      <identifier>oai:zenodo.org:248859</identifier>
      <datestamp>2017-01-17T12:33:11Z</datestamp>
      <setSpec>user-biosyslit</setSpec>
    </header>
    <header>
      <identifier>oai:zenodo.org:248862</identifier>
      <datestamp>2017-01-17T12:33:22Z</datestamp>
      <setSpec>user-biosyslit</setSpec>
    </header>
    <header>
      <identifier>oai:zenodo.org:248858</identifier>
      <datestamp>2017-01-17T12:33:07Z</datestamp>
      <setSpec>user-biosyslit</setSpec>
    </header>
    <header>
      <identifier>oai:zenodo.org:247718</identifier>
      <datestamp>2017-01-16T19:04:25Z</datestamp>
      <setSpec>user-biosyslit</setSpec>
    </header>
    <header>
      <identifier>oai:zenodo.org:227479</identifier>
      <datestamp>2017-01-01T21:58:26Z</datestamp>
      <setSpec>user-biosyslit</setSpec>
    </header>
    <header>
      <identifier>oai:zenodo.org:234160</identifier>
      <datestamp>2017-01-08T15:41:10Z</datestamp>
      <setSpec>user-biosyslit</setSpec>
    </header>
    <header>
      <identifier>oai:zenodo.org:234159</identifier>
      <datestamp>2017-01-08T15:41:06Z</datestamp>
      <setSpec>user-biosyslit</setSpec>
    </header>
    <header>
      <identifier>oai:zenodo.org:236432</identifier>
      <datestamp>2017-01-10T00:12:06Z</datestamp>
      <setSpec>user-biosyslit</setSpec>
    </header>
    <header>
      <identifier>oai:zenodo.org:236438</identifier>
      <datestamp>2017-01-10T00:12:04Z</datestamp>
      <setSpec>user-biosyslit</setSpec>
    </header>
    <header>
      <identifier>oai:zenodo.org:253672</identifier>
      <datestamp>2017-01-20T09:46:26Z</datestamp>
      <setSpec>user-biosyslit</setSpec>
    </header>
    <header>
      <identifier>oai:zenodo.org:236722</identifier>
      <datestamp>2017-01-10T03:41:46Z</datestamp>
      <setSpec>user-biosyslit</setSpec>
    </header>
    <header>
      <identifier>oai:zenodo.org:258363</identifier>
      <datestamp>2017-01-23T21:36:38Z</datestamp>
      <setSpec>user-biosyslit</setSpec>
    </header>
    <header>
      <identifier>oai:zenodo.org:243361</identifier>
      <datestamp>2017-01-14T03:20:07Z</datestamp>
      <setSpec>user-biosyslit</setSpec>
    </header>
    <header>
      <identifier>oai:zenodo.org:245956</identifier>
      <datestamp>2017-01-15T19:47:50Z</datestamp>
      <setSpec>user-biosyslit</setSpec>
    </header>
    <header>
      <identifier>oai:zenodo.org:243366</identifier>
      <datestamp>2017-01-14T03:21:26Z</datestamp>
      <setSpec>user-biosyslit</setSpec>
    </header>
    <header>
      <identifier>oai:zenodo.org:243362</identifier>
      <datestamp>2017-01-14T03:20:31Z</datestamp>
      <setSpec>user-biosyslit</setSpec>
    </header>
    <header>
      <identifier>oai:zenodo.org:285534</identifier>
      <datestamp>2017-02-09T13:48:05Z</datestamp>
      <setSpec>user-biosyslit</setSpec>
    </header>
    <header>
      <identifier>oai:zenodo.org:285532</identifier>
      <datestamp>2017-02-09T13:48:00Z</datestamp>
      <setSpec>user-biosyslit</setSpec>
    </header>
    <header>
      <identifier>oai:zenodo.org:285539</identifier>
      <datestamp>2017-02-09T13:48:18Z</datestamp>
      <setSpec>user-biosyslit</setSpec>
    </header>
    <header>
      <identifier>oai:zenodo.org:245958</identifier>
      <datestamp>2017-01-15T19:47:57Z</datestamp>
      <setSpec>user-biosyslit</setSpec>
    </header>
    <header>
      <identifier>oai:zenodo.org:238981</identifier>
      <datestamp>2017-01-11T14:14:55Z</datestamp>
      <setSpec>user-biosyslit</setSpec>
    </header>
    <resumptionToken expirationDate="2017-08-31T15:45:03Z" cursor="31200" completeListSize="77796">.eJyNysEKgjAYAOB3-c8S-zdRE7qEJh5SbCnpJWyKVNPCFerCd69L5zp_3wtUXVfgkgUjiA5xrKWFJlJiGaBEf5PyeP4wiEMmRSfTMsieuzYjOW3syFPj1stZpK8kblHzTUIP6IzpmUzJPn3kejdmLBw48e2tTqboEn5exeJAFqfgztNuLTmt-thPJo5rXjDxffjn0z-fp1ZgwL1sanAZmgZch7JvFLiveX4DjytRKw.DInABw.KB0DvbJQ7ihomEiFKuo7nK74Y9E</resumptionToken>
  </ListIdentifiers>
</OAI-PMH>
