<?xml version='1.0' encoding='UTF-8'?>
<?xml-stylesheet type="text/xsl" href="/static/xsl/oai2.v1.0.xsl"?>
<OAI-PMH xmlns="http://www.openarchives.org/OAI/2.0/" xmlns:xsi="http://www.w3.org/2001/XMLSchema-instance" xsi:schemaLocation="http://www.openarchives.org/OAI/2.0/ http://www.openarchives.org/OAI/2.0/OAI-PMH.xsd">
  <responseDate>2017-08-31T15:45:35Z</responseDate>
  <request verb="ListIdentifiers" resumptionToken=".eJyNyj0PQ0AYAOD_8s7SnK-jki5CxYBwJWVpFBF1VFwbnPjvtXRu5-dZgVVVCQY6HJGmarqCsYIlpKqKAKwYn5Temp2huCa06GmcO8k76hKUSrXmW2z2rFT2eYuCTuTkHEpXUZ_jBi3hJX6lPJoT2Z0IsjWPh4v_cPdXyoFDs7szkLg3KZHKMbDDhYgmyeTi-8Q_H__5LHYCAYa8rsDAGAnQTvlYMzDWbfsAo_dRRQ.DInAnw.N8peH7cvYjzZJkLUfvwTGGSep1I">https://zenodo.org/oai2d</request>
  <ListIdentifiers>
    <header>
      <identifier>oai:zenodo.org:287605</identifier>
      <datestamp>2017-02-09T18:42:37Z</datestamp>
      <setSpec>user-biosyslit</setSpec>
    </header>
    <header>
      <identifier>oai:zenodo.org:287603</identifier>
      <datestamp>2017-02-09T18:42:32Z</datestamp>
      <setSpec>user-biosyslit</setSpec>
    </header>
    <header>
      <identifier>oai:zenodo.org:287602</identifier>
      <datestamp>2017-02-09T18:42:30Z</datestamp>
      <setSpec>user-biosyslit</setSpec>
    </header>
    <header>
      <identifier>oai:zenodo.org:273520</identifier>
      <datestamp>2017-02-08T09:35:00Z</datestamp>
      <setSpec>user-biosyslit</setSpec>
    </header>
    <header>
      <identifier>oai:zenodo.org:273523</identifier>
      <datestamp>2017-02-08T09:34:54Z</datestamp>
      <setSpec>user-biosyslit</setSpec>
    </header>
    <header>
      <identifier>oai:zenodo.org:273522</identifier>
      <datestamp>2017-02-08T09:34:52Z</datestamp>
      <setSpec>user-biosyslit</setSpec>
    </header>
    <header>
      <identifier>oai:zenodo.org:273524</identifier>
      <datestamp>2017-02-08T09:34:57Z</datestamp>
      <setSpec>user-biosyslit</setSpec>
    </header>
    <header>
      <identifier>oai:zenodo.org:273525</identifier>
      <datestamp>2017-02-08T09:34:59Z</datestamp>
      <setSpec>user-biosyslit</setSpec>
    </header>
    <header>
      <identifier>oai:zenodo.org:229261</identifier>
      <datestamp>2017-01-03T13:26:59Z</datestamp>
      <setSpec>user-biosyslit</setSpec>
    </header>
    <header>
      <identifier>oai:zenodo.org:233493</identifier>
      <datestamp>2017-01-08T07:17:52Z</datestamp>
      <setSpec>user-biosyslit</setSpec>
    </header>
    <header>
      <identifier>oai:zenodo.org:229266</identifier>
      <datestamp>2017-01-03T13:27:20Z</datestamp>
      <setSpec>user-biosyslit</setSpec>
    </header>
    <header>
      <identifier>oai:zenodo.org:229263</identifier>
      <datestamp>2017-01-03T13:27:10Z</datestamp>
      <setSpec>user-biosyslit</setSpec>
    </header>
    <header>
      <identifier>oai:zenodo.org:233497</identifier>
      <datestamp>2017-01-08T07:18:10Z</datestamp>
      <setSpec>user-biosyslit</setSpec>
    </header>
    <header>
      <identifier>oai:zenodo.org:233495</identifier>
      <datestamp>2017-01-08T07:18:02Z</datestamp>
      <setSpec>user-biosyslit</setSpec>
    </header>
    <header>
      <identifier>oai:zenodo.org:229267</identifier>
      <datestamp>2017-01-03T13:27:23Z</datestamp>
      <setSpec>user-biosyslit</setSpec>
    </header>
    <header>
      <identifier>oai:zenodo.org:229265</identifier>
      <datestamp>2017-01-03T13:27:15Z</datestamp>
      <setSpec>user-biosyslit</setSpec>
    </header>
    <header>
      <identifier>oai:zenodo.org:233494</identifier>
      <datestamp>2017-01-08T07:17:56Z</datestamp>
      <setSpec>user-biosyslit</setSpec>
    </header>
    <header>
      <identifier>oai:zenodo.org:278878</identifier>
      <datestamp>2017-02-09T00:02:25Z</datestamp>
      <setSpec>user-biosyslit</setSpec>
    </header>
    <header>
      <identifier>oai:zenodo.org:278874</identifier>
      <datestamp>2017-02-09T00:02:15Z</datestamp>
      <setSpec>user-biosyslit</setSpec>
    </header>
    <header>
      <identifier>oai:zenodo.org:278873</identifier>
      <datestamp>2017-02-09T00:02:12Z</datestamp>
      <setSpec>user-biosyslit</setSpec>
    </header>
    <header>
      <identifier>oai:zenodo.org:278885</identifier>
      <datestamp>2017-02-09T00:02:41Z</datestamp>
      <setSpec>user-biosyslit</setSpec>
    </header>
    <header>
      <identifier>oai:zenodo.org:278880</identifier>
      <datestamp>2017-02-09T00:02:31Z</datestamp>
      <setSpec>user-biosyslit</setSpec>
    </header>
    <header>
      <identifier>oai:zenodo.org:278875</identifier>
      <datestamp>2017-02-09T00:02:17Z</datestamp>
      <setSpec>user-biosyslit</setSpec>
    </header>
    <header>
      <identifier>oai:zenodo.org:278881</identifier>
      <datestamp>2017-02-09T00:02:33Z</datestamp>
      <setSpec>user-biosyslit</setSpec>
    </header>
    <header>
      <identifier>oai:zenodo.org:278877</identifier>
      <datestamp>2017-02-09T00:02:23Z</datestamp>
      <setSpec>user-biosyslit</setSpec>
    </header>
    <header>
      <identifier>oai:zenodo.org:278872</identifier>
      <datestamp>2017-02-09T00:02:10Z</datestamp>
      <setSpec>user-biosyslit</setSpec>
    </header>
    <header>
      <identifier>oai:zenodo.org:233262</identifier>
      <datestamp>2017-01-08T02:45:57Z</datestamp>
      <setSpec>user-biosyslit</setSpec>
    </header>
    <header>
      <identifier>oai:zenodo.org:233282</identifier>
      <datestamp>2017-01-08T02:45:55Z</datestamp>
      <setSpec>user-biosyslit</setSpec>
    </header>
    <header>
      <identifier>oai:zenodo.org:233280</identifier>
      <datestamp>2017-01-08T02:45:49Z</datestamp>
      <setSpec>user-biosyslit</setSpec>
    </header>
    <header>
      <identifier>oai:zenodo.org:233281</identifier>
      <datestamp>2017-01-08T02:45:52Z</datestamp>
      <setSpec>user-biosyslit</setSpec>
    </header>
    <header>
      <identifier>oai:zenodo.org:233277</identifier>
      <datestamp>2017-01-08T02:45:40Z</datestamp>
      <setSpec>user-biosyslit</setSpec>
    </header>
    <header>
      <identifier>oai:zenodo.org:228110</identifier>
      <datestamp>2017-01-02T10:38:49Z</datestamp>
      <setSpec>user-biosyslit</setSpec>
    </header>
    <header>
      <identifier>oai:zenodo.org:228111</identifier>
      <datestamp>2017-01-02T10:38:41Z</datestamp>
      <setSpec>user-biosyslit</setSpec>
    </header>
    <header>
      <identifier>oai:zenodo.org:253256</identifier>
      <datestamp>2017-01-20T04:46:00Z</datestamp>
      <setSpec>user-biosyslit</setSpec>
    </header>
    <header>
      <identifier>oai:zenodo.org:253252</identifier>
      <datestamp>2017-01-20T04:45:48Z</datestamp>
      <setSpec>user-biosyslit</setSpec>
    </header>
    <header>
      <identifier>oai:zenodo.org:253257</identifier>
      <datestamp>2017-01-20T04:46:02Z</datestamp>
      <setSpec>user-biosyslit</setSpec>
    </header>
    <header>
      <identifier>oai:zenodo.org:344572</identifier>
      <datestamp>2017-02-28T23:40:16Z</datestamp>
      <setSpec>user-biosyslit</setSpec>
    </header>
    <header>
      <identifier>oai:zenodo.org:344577</identifier>
      <datestamp>2017-02-28T23:40:31Z</datestamp>
      <setSpec>user-biosyslit</setSpec>
    </header>
    <header>
      <identifier>oai:zenodo.org:344575</identifier>
      <datestamp>2017-02-28T23:40:25Z</datestamp>
      <setSpec>user-biosyslit</setSpec>
    </header>
    <header>
      <identifier>oai:zenodo.org:344574</identifier>
      <datestamp>2017-02-28T23:40:22Z</datestamp>
      <setSpec>user-biosyslit</setSpec>
    </header>
    <header>
      <identifier>oai:zenodo.org:344568</identifier>
      <datestamp>2017-02-28T23:40:03Z</datestamp>
      <setSpec>user-biosyslit</setSpec>
    </header>
    <header>
      <identifier>oai:zenodo.org:344581</identifier>
      <datestamp>2017-02-28T23:40:43Z</datestamp>
      <setSpec>user-biosyslit</setSpec>
    </header>
    <header>
      <identifier>oai:zenodo.org:344567</identifier>
      <datestamp>2017-02-28T23:40:00Z</datestamp>
      <setSpec>user-biosyslit</setSpec>
    </header>
    <header>
      <identifier>oai:zenodo.org:344561</identifier>
      <datestamp>2017-02-28T23:39:38Z</datestamp>
      <setSpec>user-biosyslit</setSpec>
    </header>
    <header>
      <identifier>oai:zenodo.org:344565</identifier>
      <datestamp>2017-02-28T23:39:53Z</datestamp>
      <setSpec>user-biosyslit</setSpec>
    </header>
    <header>
      <identifier>oai:zenodo.org:286870</identifier>
      <datestamp>2017-02-09T17:00:19Z</datestamp>
      <setSpec>user-biosyslit</setSpec>
    </header>
    <header>
      <identifier>oai:zenodo.org:286883</identifier>
      <datestamp>2017-02-09T17:00:58Z</datestamp>
      <setSpec>user-biosyslit</setSpec>
    </header>
    <header>
      <identifier>oai:zenodo.org:286880</identifier>
      <datestamp>2017-02-09T17:00:49Z</datestamp>
      <setSpec>user-biosyslit</setSpec>
    </header>
    <header>
      <identifier>oai:zenodo.org:286884</identifier>
      <datestamp>2017-02-09T17:01:01Z</datestamp>
      <setSpec>user-biosyslit</setSpec>
    </header>
    <header>
      <identifier>oai:zenodo.org:286878</identifier>
      <datestamp>2017-02-09T17:00:43Z</datestamp>
      <setSpec>user-biosyslit</setSpec>
    </header>
    <header>
      <identifier>oai:zenodo.org:286874</identifier>
      <datestamp>2017-02-09T17:00:29Z</datestamp>
      <setSpec>user-biosyslit</setSpec>
    </header>
    <header>
      <identifier>oai:zenodo.org:228876</identifier>
      <datestamp>2017-01-03T06:35:00Z</datestamp>
      <setSpec>user-biosyslit</setSpec>
    </header>
    <header>
      <identifier>oai:zenodo.org:228879</identifier>
      <datestamp>2017-01-03T06:35:11Z</datestamp>
      <setSpec>user-biosyslit</setSpec>
    </header>
    <header>
      <identifier>oai:zenodo.org:228877</identifier>
      <datestamp>2017-01-03T06:35:04Z</datestamp>
      <setSpec>user-biosyslit</setSpec>
    </header>
    <header>
      <identifier>oai:zenodo.org:228873</identifier>
      <datestamp>2017-01-03T06:34:52Z</datestamp>
      <setSpec>user-biosyslit</setSpec>
    </header>
    <header>
      <identifier>oai:zenodo.org:228883</identifier>
      <datestamp>2017-01-03T06:35:25Z</datestamp>
      <setSpec>user-biosyslit</setSpec>
    </header>
    <header>
      <identifier>oai:zenodo.org:228892</identifier>
      <datestamp>2017-01-03T06:35:53Z</datestamp>
      <setSpec>user-biosyslit</setSpec>
    </header>
    <header>
      <identifier>oai:zenodo.org:228880</identifier>
      <datestamp>2017-01-03T06:35:16Z</datestamp>
      <setSpec>user-biosyslit</setSpec>
    </header>
    <header>
      <identifier>oai:zenodo.org:289152</identifier>
      <datestamp>2017-02-09T22:48:57Z</datestamp>
      <setSpec>user-biosyslit</setSpec>
    </header>
    <header>
      <identifier>oai:zenodo.org:289151</identifier>
      <datestamp>2017-02-09T22:48:54Z</datestamp>
      <setSpec>user-biosyslit</setSpec>
    </header>
    <header>
      <identifier>oai:zenodo.org:289153</identifier>
      <datestamp>2017-02-09T22:49:00Z</datestamp>
      <setSpec>user-biosyslit</setSpec>
    </header>
    <header>
      <identifier>oai:zenodo.org:289150</identifier>
      <datestamp>2017-02-09T22:48:52Z</datestamp>
      <setSpec>user-biosyslit</setSpec>
    </header>
    <header>
      <identifier>oai:zenodo.org:289161</identifier>
      <datestamp>2017-02-09T22:49:23Z</datestamp>
      <setSpec>user-biosyslit</setSpec>
    </header>
    <header>
      <identifier>oai:zenodo.org:289165</identifier>
      <datestamp>2017-02-09T22:49:34Z</datestamp>
      <setSpec>user-biosyslit</setSpec>
    </header>
    <header>
      <identifier>oai:zenodo.org:289159</identifier>
      <datestamp>2017-02-09T22:49:19Z</datestamp>
      <setSpec>user-biosyslit</setSpec>
    </header>
    <header>
      <identifier>oai:zenodo.org:289160</identifier>
      <datestamp>2017-02-09T22:49:21Z</datestamp>
      <setSpec>user-biosyslit</setSpec>
    </header>
    <header>
      <identifier>oai:zenodo.org:289158</identifier>
      <datestamp>2017-02-09T22:49:16Z</datestamp>
      <setSpec>user-biosyslit</setSpec>
    </header>
    <header>
      <identifier>oai:zenodo.org:282866</identifier>
      <datestamp>2017-02-09T07:44:46Z</datestamp>
      <setSpec>user-biosyslit</setSpec>
    </header>
    <header>
      <identifier>oai:zenodo.org:282858</identifier>
      <datestamp>2017-02-09T07:44:25Z</datestamp>
      <setSpec>user-biosyslit</setSpec>
    </header>
    <header>
      <identifier>oai:zenodo.org:282859</identifier>
      <datestamp>2017-02-09T07:44:28Z</datestamp>
      <setSpec>user-biosyslit</setSpec>
    </header>
    <header>
      <identifier>oai:zenodo.org:282860</identifier>
      <datestamp>2017-02-09T07:44:30Z</datestamp>
      <setSpec>user-biosyslit</setSpec>
    </header>
    <header>
      <identifier>oai:zenodo.org:277090</identifier>
      <datestamp>2017-02-08T20:23:25Z</datestamp>
      <setSpec>user-biosyslit</setSpec>
    </header>
    <header>
      <identifier>oai:zenodo.org:229666</identifier>
      <datestamp>2017-01-03T20:18:43Z</datestamp>
      <setSpec>user-biosyslit</setSpec>
    </header>
    <header>
      <identifier>oai:zenodo.org:277089</identifier>
      <datestamp>2017-02-08T20:23:23Z</datestamp>
      <setSpec>user-biosyslit</setSpec>
    </header>
    <header>
      <identifier>oai:zenodo.org:277092</identifier>
      <datestamp>2017-02-08T20:23:31Z</datestamp>
      <setSpec>user-biosyslit</setSpec>
    </header>
    <header>
      <identifier>oai:zenodo.org:244890</identifier>
      <datestamp>2017-01-15T04:47:32Z</datestamp>
      <setSpec>user-biosyslit</setSpec>
    </header>
    <header>
      <identifier>oai:zenodo.org:244892</identifier>
      <datestamp>2017-01-15T04:47:07Z</datestamp>
      <setSpec>user-biosyslit</setSpec>
    </header>
    <header>
      <identifier>oai:zenodo.org:246621</identifier>
      <datestamp>2017-01-16T04:52:28Z</datestamp>
      <setSpec>user-biosyslit</setSpec>
    </header>
    <header>
      <identifier>oai:zenodo.org:244897</identifier>
      <datestamp>2017-01-15T04:47:26Z</datestamp>
      <setSpec>user-biosyslit</setSpec>
    </header>
    <header>
      <identifier>oai:zenodo.org:244891</identifier>
      <datestamp>2017-01-15T04:47:04Z</datestamp>
      <setSpec>user-biosyslit</setSpec>
    </header>
    <header>
      <identifier>oai:zenodo.org:244895</identifier>
      <datestamp>2017-01-15T04:47:20Z</datestamp>
      <setSpec>user-biosyslit</setSpec>
    </header>
    <header>
      <identifier>oai:zenodo.org:253362</identifier>
      <datestamp>2017-01-20T05:53:50Z</datestamp>
      <setSpec>user-biosyslit</setSpec>
    </header>
    <header>
      <identifier>oai:zenodo.org:253360</identifier>
      <datestamp>2017-01-20T05:53:46Z</datestamp>
      <setSpec>user-biosyslit</setSpec>
    </header>
    <header>
      <identifier>oai:zenodo.org:253361</identifier>
      <datestamp>2017-01-20T05:53:48Z</datestamp>
      <setSpec>user-biosyslit</setSpec>
    </header>
    <header>
      <identifier>oai:zenodo.org:283033</identifier>
      <datestamp>2017-02-09T08:03:36Z</datestamp>
      <setSpec>user-biosyslit</setSpec>
    </header>
    <header>
      <identifier>oai:zenodo.org:283041</identifier>
      <datestamp>2017-02-09T08:03:28Z</datestamp>
      <setSpec>user-biosyslit</setSpec>
    </header>
    <header>
      <identifier>oai:zenodo.org:283040</identifier>
      <datestamp>2017-02-09T08:03:26Z</datestamp>
      <setSpec>user-biosyslit</setSpec>
    </header>
    <header>
      <identifier>oai:zenodo.org:283044</identifier>
      <datestamp>2017-02-09T08:03:34Z</datestamp>
      <setSpec>user-biosyslit</setSpec>
    </header>
    <header>
      <identifier>oai:zenodo.org:283043</identifier>
      <datestamp>2017-02-09T08:03:33Z</datestamp>
      <setSpec>user-biosyslit</setSpec>
    </header>
    <header>
      <identifier>oai:zenodo.org:251067</identifier>
      <datestamp>2017-01-18T18:29:17Z</datestamp>
      <setSpec>user-biosyslit</setSpec>
    </header>
    <header>
      <identifier>oai:zenodo.org:251066</identifier>
      <datestamp>2017-01-18T18:29:12Z</datestamp>
      <setSpec>user-biosyslit</setSpec>
    </header>
    <header>
      <identifier>oai:zenodo.org:251072</identifier>
      <datestamp>2017-01-18T18:29:31Z</datestamp>
      <setSpec>user-biosyslit</setSpec>
    </header>
    <header>
      <identifier>oai:zenodo.org:251065</identifier>
      <datestamp>2017-01-18T18:29:09Z</datestamp>
      <setSpec>user-biosyslit</setSpec>
    </header>
    <header>
      <identifier>oai:zenodo.org:251071</identifier>
      <datestamp>2017-01-18T18:29:28Z</datestamp>
      <setSpec>user-biosyslit</setSpec>
    </header>
    <header>
      <identifier>oai:zenodo.org:228280</identifier>
      <datestamp>2017-01-02T21:12:14Z</datestamp>
      <setSpec>user-biosyslit</setSpec>
    </header>
    <header>
      <identifier>oai:zenodo.org:228278</identifier>
      <datestamp>2017-01-02T21:12:06Z</datestamp>
      <setSpec>user-biosyslit</setSpec>
    </header>
    <header>
      <identifier>oai:zenodo.org:228286</identifier>
      <datestamp>2017-01-02T21:12:42Z</datestamp>
      <setSpec>user-biosyslit</setSpec>
    </header>
    <header>
      <identifier>oai:zenodo.org:228276</identifier>
      <datestamp>2017-01-02T21:11:57Z</datestamp>
      <setSpec>user-biosyslit</setSpec>
    </header>
    <header>
      <identifier>oai:zenodo.org:228282</identifier>
      <datestamp>2017-01-02T21:12:23Z</datestamp>
      <setSpec>user-biosyslit</setSpec>
    </header>
    <header>
      <identifier>oai:zenodo.org:228275</identifier>
      <datestamp>2017-01-02T21:11:54Z</datestamp>
      <setSpec>user-biosyslit</setSpec>
    </header>
    <resumptionToken expirationDate="2017-08-31T15:47:35Z" cursor="65900" completeListSize="77796">.eJyNysEOQzAYAOB3-c-ytCqYZJeFiQNCR3BZDBFTJroFFe8-l5238_etwKuqBAMdiI41oitIJYqCjrIiAS_GJ2O3ZmcokpgVPYtyO36HXYxSudY8k8-umRJPtMjvsKCXQE6wPkcNWoJr9EpFOMfEmSiyNFcEi_dw9lcS32bZ3R5o1J8ZlcvRt4KF4jPNSPF9-M8nfj6Tn0CCIa8rMFQVS9BO-VhzMNZt-wCY1lE6.DInAnw.1XW13bvq5G7agQV5sL7LlHXqoNk</resumptionToken>
  </ListIdentifiers>
</OAI-PMH>
