<?xml version='1.0' encoding='UTF-8'?>
<?xml-stylesheet type="text/xsl" href="/static/xsl/oai2.v1.0.xsl"?>
<OAI-PMH xmlns="http://www.openarchives.org/OAI/2.0/" xmlns:xsi="http://www.w3.org/2001/XMLSchema-instance" xsi:schemaLocation="http://www.openarchives.org/OAI/2.0/ http://www.openarchives.org/OAI/2.0/OAI-PMH.xsd">
  <responseDate>2017-08-31T15:46:17Z</responseDate>
  <request verb="ListIdentifiers" resumptionToken=".eJyNyssKgkAUANB_uWuJeRQ-oI1o4kLFJkXdhKmIOZo4RTriv-emda3PWUBUVQkG2lFVRxjhg64TQjDRFRDF-OD82mwMRRLzoudR7sSvcxejlNSqb4nJs1LqyxYFHZbsFJIEa1PUoDm8RM9UnqeYum-GbNWT4ezf3e2VNHB4dnMGFvUmZ6QcAzucGTZZRovvw38--fNZ4ggKDHldgaHuNQXadz7WAoxlXT-VZFE8.DInAyQ.rgOOGsCPfxZqollwztp_a2akA5k">https://zenodo.org/oai2d</request>
  <ListIdentifiers>
    <header>
      <identifier>oai:zenodo.org:236939</identifier>
      <datestamp>2017-01-10T08:15:57Z</datestamp>
      <setSpec>user-biosyslit</setSpec>
    </header>
    <header>
      <identifier>oai:zenodo.org:236926</identifier>
      <datestamp>2017-01-10T08:15:15Z</datestamp>
      <setSpec>user-biosyslit</setSpec>
    </header>
    <header>
      <identifier>oai:zenodo.org:236931</identifier>
      <datestamp>2017-01-10T08:15:31Z</datestamp>
      <setSpec>user-biosyslit</setSpec>
    </header>
    <header>
      <identifier>oai:zenodo.org:236934</identifier>
      <datestamp>2017-01-10T08:15:41Z</datestamp>
      <setSpec>user-biosyslit</setSpec>
    </header>
    <header>
      <identifier>oai:zenodo.org:288079</identifier>
      <datestamp>2017-02-09T19:58:08Z</datestamp>
      <setSpec>user-biosyslit</setSpec>
    </header>
    <header>
      <identifier>oai:zenodo.org:288076</identifier>
      <datestamp>2017-02-09T19:58:00Z</datestamp>
      <setSpec>user-biosyslit</setSpec>
    </header>
    <header>
      <identifier>oai:zenodo.org:288069</identifier>
      <datestamp>2017-02-09T19:57:33Z</datestamp>
      <setSpec>user-biosyslit</setSpec>
    </header>
    <header>
      <identifier>oai:zenodo.org:288080</identifier>
      <datestamp>2017-02-09T19:58:11Z</datestamp>
      <setSpec>user-biosyslit</setSpec>
    </header>
    <header>
      <identifier>oai:zenodo.org:288068</identifier>
      <datestamp>2017-02-09T19:57:31Z</datestamp>
      <setSpec>user-biosyslit</setSpec>
    </header>
    <header>
      <identifier>oai:zenodo.org:288078</identifier>
      <datestamp>2017-02-09T19:58:05Z</datestamp>
      <setSpec>user-biosyslit</setSpec>
    </header>
    <header>
      <identifier>oai:zenodo.org:288075</identifier>
      <datestamp>2017-02-09T19:57:56Z</datestamp>
      <setSpec>user-biosyslit</setSpec>
    </header>
    <header>
      <identifier>oai:zenodo.org:288073</identifier>
      <datestamp>2017-02-09T19:57:46Z</datestamp>
      <setSpec>user-biosyslit</setSpec>
    </header>
    <header>
      <identifier>oai:zenodo.org:288074</identifier>
      <datestamp>2017-02-09T19:57:49Z</datestamp>
      <setSpec>user-biosyslit</setSpec>
    </header>
    <header>
      <identifier>oai:zenodo.org:288091</identifier>
      <datestamp>2017-02-09T19:58:41Z</datestamp>
      <setSpec>user-biosyslit</setSpec>
    </header>
    <header>
      <identifier>oai:zenodo.org:288083</identifier>
      <datestamp>2017-02-09T19:58:22Z</datestamp>
      <setSpec>user-biosyslit</setSpec>
    </header>
    <header>
      <identifier>oai:zenodo.org:288088</identifier>
      <datestamp>2017-02-09T19:58:34Z</datestamp>
      <setSpec>user-biosyslit</setSpec>
    </header>
    <header>
      <identifier>oai:zenodo.org:288084</identifier>
      <datestamp>2017-02-09T19:58:24Z</datestamp>
      <setSpec>user-biosyslit</setSpec>
    </header>
    <header>
      <identifier>oai:zenodo.org:288090</identifier>
      <datestamp>2017-02-09T19:58:39Z</datestamp>
      <setSpec>user-biosyslit</setSpec>
    </header>
    <header>
      <identifier>oai:zenodo.org:288086</identifier>
      <datestamp>2017-02-09T19:58:29Z</datestamp>
      <setSpec>user-biosyslit</setSpec>
    </header>
    <header>
      <identifier>oai:zenodo.org:288085</identifier>
      <datestamp>2017-02-09T19:58:27Z</datestamp>
      <setSpec>user-biosyslit</setSpec>
    </header>
    <header>
      <identifier>oai:zenodo.org:288089</identifier>
      <datestamp>2017-02-09T19:58:37Z</datestamp>
      <setSpec>user-biosyslit</setSpec>
    </header>
    <header>
      <identifier>oai:zenodo.org:288082</identifier>
      <datestamp>2017-02-09T19:58:19Z</datestamp>
      <setSpec>user-biosyslit</setSpec>
    </header>
    <header>
      <identifier>oai:zenodo.org:248439</identifier>
      <datestamp>2017-01-17T04:11:47Z</datestamp>
      <setSpec>user-biosyslit</setSpec>
    </header>
    <header>
      <identifier>oai:zenodo.org:248436</identifier>
      <datestamp>2017-01-17T04:11:37Z</datestamp>
      <setSpec>user-biosyslit</setSpec>
    </header>
    <header>
      <identifier>oai:zenodo.org:248434</identifier>
      <datestamp>2017-01-17T04:11:29Z</datestamp>
      <setSpec>user-biosyslit</setSpec>
    </header>
    <header>
      <identifier>oai:zenodo.org:248433</identifier>
      <datestamp>2017-01-17T04:11:26Z</datestamp>
      <setSpec>user-biosyslit</setSpec>
    </header>
    <header>
      <identifier>oai:zenodo.org:248438</identifier>
      <datestamp>2017-01-17T04:11:43Z</datestamp>
      <setSpec>user-biosyslit</setSpec>
    </header>
    <header>
      <identifier>oai:zenodo.org:248435</identifier>
      <datestamp>2017-01-17T04:11:32Z</datestamp>
      <setSpec>user-biosyslit</setSpec>
    </header>
    <header>
      <identifier>oai:zenodo.org:248441</identifier>
      <datestamp>2017-01-17T04:11:53Z</datestamp>
      <setSpec>user-biosyslit</setSpec>
    </header>
    <header>
      <identifier>oai:zenodo.org:246552</identifier>
      <datestamp>2017-01-16T03:52:25Z</datestamp>
      <setSpec>user-biosyslit</setSpec>
    </header>
    <header>
      <identifier>oai:zenodo.org:246554</identifier>
      <datestamp>2017-01-16T03:52:39Z</datestamp>
      <setSpec>user-biosyslit</setSpec>
    </header>
    <header>
      <identifier>oai:zenodo.org:230452</identifier>
      <datestamp>2017-01-05T01:34:15Z</datestamp>
      <setSpec>user-biosyslit</setSpec>
    </header>
    <header>
      <identifier>oai:zenodo.org:230457</identifier>
      <datestamp>2017-01-05T01:34:36Z</datestamp>
      <setSpec>user-biosyslit</setSpec>
    </header>
    <header>
      <identifier>oai:zenodo.org:230451</identifier>
      <datestamp>2017-01-05T01:34:08Z</datestamp>
      <setSpec>user-biosyslit</setSpec>
    </header>
    <header>
      <identifier>oai:zenodo.org:230456</identifier>
      <datestamp>2017-01-05T01:34:33Z</datestamp>
      <setSpec>user-biosyslit</setSpec>
    </header>
    <header>
      <identifier>oai:zenodo.org:230454</identifier>
      <datestamp>2017-01-05T01:34:21Z</datestamp>
      <setSpec>user-biosyslit</setSpec>
    </header>
    <header>
      <identifier>oai:zenodo.org:234763</identifier>
      <datestamp>2017-01-09T02:00:07Z</datestamp>
      <setSpec>user-biosyslit</setSpec>
    </header>
    <header>
      <identifier>oai:zenodo.org:252780</identifier>
      <datestamp>2017-01-19T20:02:14Z</datestamp>
      <setSpec>user-biosyslit</setSpec>
    </header>
    <header>
      <identifier>oai:zenodo.org:252805</identifier>
      <datestamp>2017-01-19T20:02:13Z</datestamp>
      <setSpec>user-biosyslit</setSpec>
    </header>
    <header>
      <identifier>oai:zenodo.org:252804</identifier>
      <datestamp>2017-01-19T20:02:10Z</datestamp>
      <setSpec>user-biosyslit</setSpec>
    </header>
    <header>
      <identifier>oai:zenodo.org:249751</identifier>
      <datestamp>2017-01-17T23:45:17Z</datestamp>
      <setSpec>user-biosyslit</setSpec>
    </header>
    <header>
      <identifier>oai:zenodo.org:274361</identifier>
      <datestamp>2017-02-08T13:01:37Z</datestamp>
      <setSpec>user-biosyslit</setSpec>
    </header>
    <header>
      <identifier>oai:zenodo.org:274363</identifier>
      <datestamp>2017-02-08T13:01:42Z</datestamp>
      <setSpec>user-biosyslit</setSpec>
    </header>
    <header>
      <identifier>oai:zenodo.org:249782</identifier>
      <datestamp>2017-01-17T23:44:56Z</datestamp>
      <setSpec>user-biosyslit</setSpec>
    </header>
    <header>
      <identifier>oai:zenodo.org:249773</identifier>
      <datestamp>2017-01-17T23:44:18Z</datestamp>
      <setSpec>user-biosyslit</setSpec>
    </header>
    <header>
      <identifier>oai:zenodo.org:249775</identifier>
      <datestamp>2017-01-17T23:44:26Z</datestamp>
      <setSpec>user-biosyslit</setSpec>
    </header>
    <header>
      <identifier>oai:zenodo.org:249777</identifier>
      <datestamp>2017-01-17T23:44:34Z</datestamp>
      <setSpec>user-biosyslit</setSpec>
    </header>
    <header>
      <identifier>oai:zenodo.org:249785</identifier>
      <datestamp>2017-01-17T23:45:04Z</datestamp>
      <setSpec>user-biosyslit</setSpec>
    </header>
    <header>
      <identifier>oai:zenodo.org:249781</identifier>
      <datestamp>2017-01-17T23:44:53Z</datestamp>
      <setSpec>user-biosyslit</setSpec>
    </header>
    <header>
      <identifier>oai:zenodo.org:247784</identifier>
      <datestamp>2017-01-16T19:44:48Z</datestamp>
      <setSpec>user-biosyslit</setSpec>
    </header>
    <header>
      <identifier>oai:zenodo.org:247782</identifier>
      <datestamp>2017-01-16T19:44:44Z</datestamp>
      <setSpec>user-biosyslit</setSpec>
    </header>
    <header>
      <identifier>oai:zenodo.org:247785</identifier>
      <datestamp>2017-01-16T19:44:53Z</datestamp>
      <setSpec>user-biosyslit</setSpec>
    </header>
    <header>
      <identifier>oai:zenodo.org:247771</identifier>
      <datestamp>2017-01-16T19:44:09Z</datestamp>
      <setSpec>user-biosyslit</setSpec>
    </header>
    <header>
      <identifier>oai:zenodo.org:247779</identifier>
      <datestamp>2017-01-16T19:44:35Z</datestamp>
      <setSpec>user-biosyslit</setSpec>
    </header>
    <header>
      <identifier>oai:zenodo.org:247778</identifier>
      <datestamp>2017-01-16T19:44:32Z</datestamp>
      <setSpec>user-biosyslit</setSpec>
    </header>
    <header>
      <identifier>oai:zenodo.org:247770</identifier>
      <datestamp>2017-01-16T19:44:06Z</datestamp>
      <setSpec>user-biosyslit</setSpec>
    </header>
    <header>
      <identifier>oai:zenodo.org:247775</identifier>
      <datestamp>2017-01-16T19:44:21Z</datestamp>
      <setSpec>user-biosyslit</setSpec>
    </header>
    <header>
      <identifier>oai:zenodo.org:247773</identifier>
      <datestamp>2017-01-16T19:44:15Z</datestamp>
      <setSpec>user-biosyslit</setSpec>
    </header>
    <header>
      <identifier>oai:zenodo.org:275168</identifier>
      <datestamp>2017-02-08T15:26:43Z</datestamp>
      <setSpec>user-biosyslit</setSpec>
    </header>
    <header>
      <identifier>oai:zenodo.org:275155</identifier>
      <datestamp>2017-02-08T15:26:09Z</datestamp>
      <setSpec>user-biosyslit</setSpec>
    </header>
    <header>
      <identifier>oai:zenodo.org:275159</identifier>
      <datestamp>2017-02-08T15:26:19Z</datestamp>
      <setSpec>user-biosyslit</setSpec>
    </header>
    <header>
      <identifier>oai:zenodo.org:275166</identifier>
      <datestamp>2017-02-08T15:26:38Z</datestamp>
      <setSpec>user-biosyslit</setSpec>
    </header>
    <header>
      <identifier>oai:zenodo.org:275157</identifier>
      <datestamp>2017-02-08T15:26:14Z</datestamp>
      <setSpec>user-biosyslit</setSpec>
    </header>
    <header>
      <identifier>oai:zenodo.org:275160</identifier>
      <datestamp>2017-02-08T15:26:22Z</datestamp>
      <setSpec>user-biosyslit</setSpec>
    </header>
    <header>
      <identifier>oai:zenodo.org:275165</identifier>
      <datestamp>2017-02-08T15:26:36Z</datestamp>
      <setSpec>user-biosyslit</setSpec>
    </header>
    <header>
      <identifier>oai:zenodo.org:275164</identifier>
      <datestamp>2017-02-08T15:26:33Z</datestamp>
      <setSpec>user-biosyslit</setSpec>
    </header>
    <header>
      <identifier>oai:zenodo.org:275156</identifier>
      <datestamp>2017-02-08T15:26:12Z</datestamp>
      <setSpec>user-biosyslit</setSpec>
    </header>
    <header>
      <identifier>oai:zenodo.org:285905</identifier>
      <datestamp>2017-02-09T14:48:46Z</datestamp>
      <setSpec>user-biosyslit</setSpec>
    </header>
    <header>
      <identifier>oai:zenodo.org:234455</identifier>
      <datestamp>2017-01-08T20:21:27Z</datestamp>
      <setSpec>user-biosyslit</setSpec>
    </header>
    <header>
      <identifier>oai:zenodo.org:285908</identifier>
      <datestamp>2017-02-09T14:48:56Z</datestamp>
      <setSpec>user-biosyslit</setSpec>
    </header>
    <header>
      <identifier>oai:zenodo.org:234456</identifier>
      <datestamp>2017-01-08T20:21:31Z</datestamp>
      <setSpec>user-biosyslit</setSpec>
    </header>
    <header>
      <identifier>oai:zenodo.org:234458</identifier>
      <datestamp>2017-01-08T20:21:38Z</datestamp>
      <setSpec>user-biosyslit</setSpec>
    </header>
    <header>
      <identifier>oai:zenodo.org:285910</identifier>
      <datestamp>2017-02-09T14:49:01Z</datestamp>
      <setSpec>user-biosyslit</setSpec>
    </header>
    <header>
      <identifier>oai:zenodo.org:285909</identifier>
      <datestamp>2017-02-09T14:48:59Z</datestamp>
      <setSpec>user-biosyslit</setSpec>
    </header>
    <header>
      <identifier>oai:zenodo.org:285904</identifier>
      <datestamp>2017-02-09T14:48:43Z</datestamp>
      <setSpec>user-biosyslit</setSpec>
    </header>
    <header>
      <identifier>oai:zenodo.org:285901</identifier>
      <datestamp>2017-02-09T14:48:34Z</datestamp>
      <setSpec>user-biosyslit</setSpec>
    </header>
    <header>
      <identifier>oai:zenodo.org:259811</identifier>
      <datestamp>2017-01-25T16:32:54Z</datestamp>
      <setSpec>user-biosyslit</setSpec>
    </header>
    <header>
      <identifier>oai:zenodo.org:259820</identifier>
      <datestamp>2017-01-25T16:32:50Z</datestamp>
      <setSpec>user-biosyslit</setSpec>
    </header>
    <header>
      <identifier>oai:zenodo.org:259817</identifier>
      <datestamp>2017-01-25T16:32:40Z</datestamp>
      <setSpec>user-biosyslit</setSpec>
    </header>
    <header>
      <identifier>oai:zenodo.org:259819</identifier>
      <datestamp>2017-01-25T16:32:47Z</datestamp>
      <setSpec>user-biosyslit</setSpec>
    </header>
    <header>
      <identifier>oai:zenodo.org:277502</identifier>
      <datestamp>2017-02-08T21:14:51Z</datestamp>
      <setSpec>user-biosyslit</setSpec>
    </header>
    <header>
      <identifier>oai:zenodo.org:277498</identifier>
      <datestamp>2017-02-08T21:14:37Z</datestamp>
      <setSpec>user-biosyslit</setSpec>
    </header>
    <header>
      <identifier>oai:zenodo.org:277504</identifier>
      <datestamp>2017-02-08T21:14:59Z</datestamp>
      <setSpec>user-biosyslit</setSpec>
    </header>
    <header>
      <identifier>oai:zenodo.org:277505</identifier>
      <datestamp>2017-02-08T21:15:02Z</datestamp>
      <setSpec>user-biosyslit</setSpec>
    </header>
    <header>
      <identifier>oai:zenodo.org:277497</identifier>
      <datestamp>2017-02-08T21:14:34Z</datestamp>
      <setSpec>user-biosyslit</setSpec>
    </header>
    <header>
      <identifier>oai:zenodo.org:277506</identifier>
      <datestamp>2017-02-08T21:15:06Z</datestamp>
      <setSpec>user-biosyslit</setSpec>
    </header>
    <header>
      <identifier>oai:zenodo.org:277509</identifier>
      <datestamp>2017-02-08T21:15:16Z</datestamp>
      <setSpec>user-biosyslit</setSpec>
    </header>
    <header>
      <identifier>oai:zenodo.org:234412</identifier>
      <datestamp>2017-01-08T19:35:19Z</datestamp>
      <setSpec>user-biosyslit</setSpec>
    </header>
    <header>
      <identifier>oai:zenodo.org:277511</identifier>
      <datestamp>2017-02-08T21:15:21Z</datestamp>
      <setSpec>user-biosyslit</setSpec>
    </header>
    <header>
      <identifier>oai:zenodo.org:234410</identifier>
      <datestamp>2017-01-08T19:36:33Z</datestamp>
      <setSpec>user-biosyslit</setSpec>
    </header>
    <header>
      <identifier>oai:zenodo.org:234432</identifier>
      <datestamp>2017-01-08T19:36:26Z</datestamp>
      <setSpec>user-biosyslit</setSpec>
    </header>
    <header>
      <identifier>oai:zenodo.org:234434</identifier>
      <datestamp>2017-01-08T19:36:32Z</datestamp>
      <setSpec>user-biosyslit</setSpec>
    </header>
    <header>
      <identifier>oai:zenodo.org:234433</identifier>
      <datestamp>2017-01-08T19:36:29Z</datestamp>
      <setSpec>user-biosyslit</setSpec>
    </header>
    <header>
      <identifier>oai:zenodo.org:287325</identifier>
      <datestamp>2017-02-09T18:03:16Z</datestamp>
      <setSpec>user-biosyslit</setSpec>
    </header>
    <header>
      <identifier>oai:zenodo.org:287329</identifier>
      <datestamp>2017-02-09T18:03:34Z</datestamp>
      <setSpec>user-biosyslit</setSpec>
    </header>
    <header>
      <identifier>oai:zenodo.org:260547</identifier>
      <datestamp>2017-01-27T21:41:25Z</datestamp>
      <setSpec>user-biosyslit</setSpec>
    </header>
    <header>
      <identifier>oai:zenodo.org:260548</identifier>
      <datestamp>2017-01-27T21:41:28Z</datestamp>
      <setSpec>user-biosyslit</setSpec>
    </header>
    <header>
      <identifier>oai:zenodo.org:260550</identifier>
      <datestamp>2017-01-27T21:41:34Z</datestamp>
      <setSpec>user-biosyslit</setSpec>
    </header>
    <header>
      <identifier>oai:zenodo.org:260545</identifier>
      <datestamp>2017-01-27T21:41:17Z</datestamp>
      <setSpec>user-biosyslit</setSpec>
    </header>
    <header>
      <identifier>oai:zenodo.org:276941</identifier>
      <datestamp>2017-02-08T20:01:43Z</datestamp>
      <setSpec>user-biosyslit</setSpec>
    </header>
    <resumptionToken expirationDate="2017-08-31T15:48:17Z" cursor="74700" completeListSize="77796">.eJyNyj0LgkAYAOD_8s4S9xGcCi2hiYOKXkq2hJ0i5mniFepJ_72W5pqfZwVVVSXYaMMYIYhQQpmFCTOZAUqMdykvzYdBnDIpepkWXvZMugzlpGaho-bAyWmoWxR1WPNDTE7YnNMGLfExfeQ6mTPqTxy5LNDxEt78zytp5Mnz1Rt42u8lJ-UYufHC8Z6fqfg-_OfTP5-jdmDAUNQV2GxrGdBOxVgrsNfX6w2bpVFE.DInAyQ.pH-U4z9aAFct316LtzApruoc_F0</resumptionToken>
  </ListIdentifiers>
</OAI-PMH>
