<?xml version='1.0' encoding='UTF-8'?>
<?xml-stylesheet type="text/xsl" href="/static/xsl/oai2.v1.0.xsl"?>
<OAI-PMH xmlns="http://www.openarchives.org/OAI/2.0/" xmlns:xsi="http://www.w3.org/2001/XMLSchema-instance" xsi:schemaLocation="http://www.openarchives.org/OAI/2.0/ http://www.openarchives.org/OAI/2.0/OAI-PMH.xsd">
  <responseDate>2017-08-31T15:45:48Z</responseDate>
  <request verb="ListIdentifiers" resumptionToken=".eJyNyk0LgjAYAOD_8p4lNreaCF1EEw8paynqJWyKmOsDV6ST_ntdOtf5eWbQTVODixYOIUvKKMWMMQdTaoGWw1WpQ_dhkHmm5EWlVZg9ducMFXbLYl-PW78gselRcsZGbLidY2dMOzTxfXovzG7MSPQUKGBbw6f4FH1eTZJQlcfwJtKLp4RdD0nAJ4E9URL5ffjPZ34-X6_BglvVNuCuHGZB_6yGVoM7v15vo1ZRTQ.DInArA.90CACj_b469bd3r7_TZMaYg7Op8">https://zenodo.org/oai2d</request>
  <ListIdentifiers>
    <header>
      <identifier>oai:zenodo.org:398957</identifier>
      <datestamp>2017-03-14T21:09:56Z</datestamp>
      <setSpec>user-biosyslit</setSpec>
    </header>
    <header>
      <identifier>oai:zenodo.org:398959</identifier>
      <datestamp>2017-03-14T21:10:03Z</datestamp>
      <setSpec>user-biosyslit</setSpec>
    </header>
    <header>
      <identifier>oai:zenodo.org:398956</identifier>
      <datestamp>2017-03-14T21:09:52Z</datestamp>
      <setSpec>user-biosyslit</setSpec>
    </header>
    <header>
      <identifier>oai:zenodo.org:284460</identifier>
      <datestamp>2017-02-09T11:14:43Z</datestamp>
      <setSpec>user-biosyslit</setSpec>
    </header>
    <header>
      <identifier>oai:zenodo.org:284457</identifier>
      <datestamp>2017-02-09T11:14:36Z</datestamp>
      <setSpec>user-biosyslit</setSpec>
    </header>
    <header>
      <identifier>oai:zenodo.org:284449</identifier>
      <datestamp>2017-02-09T11:14:18Z</datestamp>
      <setSpec>user-biosyslit</setSpec>
    </header>
    <header>
      <identifier>oai:zenodo.org:284453</identifier>
      <datestamp>2017-02-09T11:14:28Z</datestamp>
      <setSpec>user-biosyslit</setSpec>
    </header>
    <header>
      <identifier>oai:zenodo.org:284446</identifier>
      <datestamp>2017-02-09T11:14:11Z</datestamp>
      <setSpec>user-biosyslit</setSpec>
    </header>
    <header>
      <identifier>oai:zenodo.org:284448</identifier>
      <datestamp>2017-02-09T11:14:16Z</datestamp>
      <setSpec>user-biosyslit</setSpec>
    </header>
    <header>
      <identifier>oai:zenodo.org:284450</identifier>
      <datestamp>2017-02-09T11:14:21Z</datestamp>
      <setSpec>user-biosyslit</setSpec>
    </header>
    <header>
      <identifier>oai:zenodo.org:284454</identifier>
      <datestamp>2017-02-09T11:14:30Z</datestamp>
      <setSpec>user-biosyslit</setSpec>
    </header>
    <header>
      <identifier>oai:zenodo.org:284456</identifier>
      <datestamp>2017-02-09T11:14:34Z</datestamp>
      <setSpec>user-biosyslit</setSpec>
    </header>
    <header>
      <identifier>oai:zenodo.org:264196</identifier>
      <datestamp>2017-01-30T14:40:53Z</datestamp>
      <setSpec>user-biosyslit</setSpec>
    </header>
    <header>
      <identifier>oai:zenodo.org:264197</identifier>
      <datestamp>2017-01-30T14:40:57Z</datestamp>
      <setSpec>user-biosyslit</setSpec>
    </header>
    <header>
      <identifier>oai:zenodo.org:264194</identifier>
      <datestamp>2017-01-30T14:40:48Z</datestamp>
      <setSpec>user-biosyslit</setSpec>
    </header>
    <header>
      <identifier>oai:zenodo.org:245816</identifier>
      <datestamp>2017-01-15T18:57:49Z</datestamp>
      <setSpec>user-biosyslit</setSpec>
    </header>
    <header>
      <identifier>oai:zenodo.org:245046</identifier>
      <datestamp>2017-01-15T07:05:09Z</datestamp>
      <setSpec>user-biosyslit</setSpec>
    </header>
    <header>
      <identifier>oai:zenodo.org:245049</identifier>
      <datestamp>2017-01-15T07:05:05Z</datestamp>
      <setSpec>user-biosyslit</setSpec>
    </header>
    <header>
      <identifier>oai:zenodo.org:245048</identifier>
      <datestamp>2017-01-15T07:04:58Z</datestamp>
      <setSpec>user-biosyslit</setSpec>
    </header>
    <header>
      <identifier>oai:zenodo.org:245050</identifier>
      <datestamp>2017-01-15T07:05:08Z</datestamp>
      <setSpec>user-biosyslit</setSpec>
    </header>
    <header>
      <identifier>oai:zenodo.org:237224</identifier>
      <datestamp>2017-01-10T12:12:31Z</datestamp>
      <setSpec>user-biosyslit</setSpec>
    </header>
    <header>
      <identifier>oai:zenodo.org:253484</identifier>
      <datestamp>2017-01-20T07:29:04Z</datestamp>
      <setSpec>user-biosyslit</setSpec>
    </header>
    <header>
      <identifier>oai:zenodo.org:237221</identifier>
      <datestamp>2017-01-10T12:12:20Z</datestamp>
      <setSpec>user-biosyslit</setSpec>
    </header>
    <header>
      <identifier>oai:zenodo.org:253481</identifier>
      <datestamp>2017-01-20T07:28:55Z</datestamp>
      <setSpec>user-biosyslit</setSpec>
    </header>
    <header>
      <identifier>oai:zenodo.org:253482</identifier>
      <datestamp>2017-01-20T07:28:58Z</datestamp>
      <setSpec>user-biosyslit</setSpec>
    </header>
    <header>
      <identifier>oai:zenodo.org:253478</identifier>
      <datestamp>2017-01-20T07:28:45Z</datestamp>
      <setSpec>user-biosyslit</setSpec>
    </header>
    <header>
      <identifier>oai:zenodo.org:253480</identifier>
      <datestamp>2017-01-20T07:28:52Z</datestamp>
      <setSpec>user-biosyslit</setSpec>
    </header>
    <header>
      <identifier>oai:zenodo.org:283608</identifier>
      <datestamp>2017-02-09T09:17:38Z</datestamp>
      <setSpec>user-biosyslit</setSpec>
    </header>
    <header>
      <identifier>oai:zenodo.org:283610</identifier>
      <datestamp>2017-02-09T09:17:30Z</datestamp>
      <setSpec>user-biosyslit</setSpec>
    </header>
    <header>
      <identifier>oai:zenodo.org:283609</identifier>
      <datestamp>2017-02-09T09:17:28Z</datestamp>
      <setSpec>user-biosyslit</setSpec>
    </header>
    <header>
      <identifier>oai:zenodo.org:283613</identifier>
      <datestamp>2017-02-09T09:17:37Z</datestamp>
      <setSpec>user-biosyslit</setSpec>
    </header>
    <header>
      <identifier>oai:zenodo.org:254385</identifier>
      <datestamp>2017-01-20T18:19:21Z</datestamp>
      <setSpec>user-biosyslit</setSpec>
    </header>
    <header>
      <identifier>oai:zenodo.org:254394</identifier>
      <datestamp>2017-01-20T18:19:45Z</datestamp>
      <setSpec>user-biosyslit</setSpec>
    </header>
    <header>
      <identifier>oai:zenodo.org:254392</identifier>
      <datestamp>2017-01-20T18:19:40Z</datestamp>
      <setSpec>user-biosyslit</setSpec>
    </header>
    <header>
      <identifier>oai:zenodo.org:254389</identifier>
      <datestamp>2017-01-20T18:19:32Z</datestamp>
      <setSpec>user-biosyslit</setSpec>
    </header>
    <header>
      <identifier>oai:zenodo.org:254390</identifier>
      <datestamp>2017-01-20T18:19:34Z</datestamp>
      <setSpec>user-biosyslit</setSpec>
    </header>
    <header>
      <identifier>oai:zenodo.org:254387</identifier>
      <datestamp>2017-01-20T18:19:26Z</datestamp>
      <setSpec>user-biosyslit</setSpec>
    </header>
    <header>
      <identifier>oai:zenodo.org:232309</identifier>
      <datestamp>2017-01-06T15:42:33Z</datestamp>
      <setSpec>user-biosyslit</setSpec>
    </header>
    <header>
      <identifier>oai:zenodo.org:232315</identifier>
      <datestamp>2017-01-06T15:42:53Z</datestamp>
      <setSpec>user-biosyslit</setSpec>
    </header>
    <header>
      <identifier>oai:zenodo.org:287550</identifier>
      <datestamp>2017-02-09T18:36:10Z</datestamp>
      <setSpec>user-biosyslit</setSpec>
    </header>
    <header>
      <identifier>oai:zenodo.org:287547</identifier>
      <datestamp>2017-02-09T18:36:04Z</datestamp>
      <setSpec>user-biosyslit</setSpec>
    </header>
    <header>
      <identifier>oai:zenodo.org:287551</identifier>
      <datestamp>2017-02-09T18:36:12Z</datestamp>
      <setSpec>user-biosyslit</setSpec>
    </header>
    <header>
      <identifier>oai:zenodo.org:287561</identifier>
      <datestamp>2017-02-09T18:36:36Z</datestamp>
      <setSpec>user-biosyslit</setSpec>
    </header>
    <header>
      <identifier>oai:zenodo.org:287565</identifier>
      <datestamp>2017-02-09T18:36:45Z</datestamp>
      <setSpec>user-biosyslit</setSpec>
    </header>
    <header>
      <identifier>oai:zenodo.org:287564</identifier>
      <datestamp>2017-02-09T18:36:43Z</datestamp>
      <setSpec>user-biosyslit</setSpec>
    </header>
    <header>
      <identifier>oai:zenodo.org:287553</identifier>
      <datestamp>2017-02-09T18:36:16Z</datestamp>
      <setSpec>user-biosyslit</setSpec>
    </header>
    <header>
      <identifier>oai:zenodo.org:287552</identifier>
      <datestamp>2017-02-09T18:36:14Z</datestamp>
      <setSpec>user-biosyslit</setSpec>
    </header>
    <header>
      <identifier>oai:zenodo.org:287556</identifier>
      <datestamp>2017-02-09T18:36:23Z</datestamp>
      <setSpec>user-biosyslit</setSpec>
    </header>
    <header>
      <identifier>oai:zenodo.org:249340</identifier>
      <datestamp>2017-01-17T19:04:13Z</datestamp>
      <setSpec>user-biosyslit</setSpec>
    </header>
    <header>
      <identifier>oai:zenodo.org:249369</identifier>
      <datestamp>2017-01-17T19:04:00Z</datestamp>
      <setSpec>user-biosyslit</setSpec>
    </header>
    <header>
      <identifier>oai:zenodo.org:249360</identifier>
      <datestamp>2017-01-17T19:03:37Z</datestamp>
      <setSpec>user-biosyslit</setSpec>
    </header>
    <header>
      <identifier>oai:zenodo.org:249373</identifier>
      <datestamp>2017-01-17T19:04:12Z</datestamp>
      <setSpec>user-biosyslit</setSpec>
    </header>
    <header>
      <identifier>oai:zenodo.org:249364</identifier>
      <datestamp>2017-01-17T19:03:45Z</datestamp>
      <setSpec>user-biosyslit</setSpec>
    </header>
    <header>
      <identifier>oai:zenodo.org:249365</identifier>
      <datestamp>2017-01-17T19:03:48Z</datestamp>
      <setSpec>user-biosyslit</setSpec>
    </header>
    <header>
      <identifier>oai:zenodo.org:249362</identifier>
      <datestamp>2017-01-17T19:03:39Z</datestamp>
      <setSpec>user-biosyslit</setSpec>
    </header>
    <header>
      <identifier>oai:zenodo.org:249372</identifier>
      <datestamp>2017-01-17T19:04:09Z</datestamp>
      <setSpec>user-biosyslit</setSpec>
    </header>
    <header>
      <identifier>oai:zenodo.org:816117</identifier>
      <datestamp>2017-06-22T13:24:15Z</datestamp>
      <setSpec>user-biosyslit</setSpec>
    </header>
    <header>
      <identifier>oai:zenodo.org:816109</identifier>
      <datestamp>2017-06-22T13:24:05Z</datestamp>
      <setSpec>user-biosyslit</setSpec>
    </header>
    <header>
      <identifier>oai:zenodo.org:816101</identifier>
      <datestamp>2017-06-22T13:23:49Z</datestamp>
      <setSpec>user-biosyslit</setSpec>
    </header>
    <header>
      <identifier>oai:zenodo.org:816107</identifier>
      <datestamp>2017-06-22T13:24:01Z</datestamp>
      <setSpec>user-biosyslit</setSpec>
    </header>
    <header>
      <identifier>oai:zenodo.org:816111</identifier>
      <datestamp>2017-06-22T13:24:08Z</datestamp>
      <setSpec>user-biosyslit</setSpec>
    </header>
    <header>
      <identifier>oai:zenodo.org:816097</identifier>
      <datestamp>2017-06-22T13:23:37Z</datestamp>
      <setSpec>user-biosyslit</setSpec>
    </header>
    <header>
      <identifier>oai:zenodo.org:816091</identifier>
      <datestamp>2017-06-22T13:23:31Z</datestamp>
      <setSpec>user-biosyslit</setSpec>
    </header>
    <header>
      <identifier>oai:zenodo.org:816095</identifier>
      <datestamp>2017-06-22T13:23:41Z</datestamp>
      <setSpec>user-biosyslit</setSpec>
    </header>
    <header>
      <identifier>oai:zenodo.org:232809</identifier>
      <datestamp>2017-01-06T23:25:53Z</datestamp>
      <setSpec>user-biosyslit</setSpec>
    </header>
    <header>
      <identifier>oai:zenodo.org:232813</identifier>
      <datestamp>2017-01-06T23:25:46Z</datestamp>
      <setSpec>user-biosyslit</setSpec>
    </header>
    <header>
      <identifier>oai:zenodo.org:232814</identifier>
      <datestamp>2017-01-06T23:25:52Z</datestamp>
      <setSpec>user-biosyslit</setSpec>
    </header>
    <header>
      <identifier>oai:zenodo.org:281539</identifier>
      <datestamp>2017-02-09T05:30:18Z</datestamp>
      <setSpec>user-biosyslit</setSpec>
    </header>
    <header>
      <identifier>oai:zenodo.org:281545</identifier>
      <datestamp>2017-02-09T05:30:15Z</datestamp>
      <setSpec>user-biosyslit</setSpec>
    </header>
    <header>
      <identifier>oai:zenodo.org:285696</identifier>
      <datestamp>2017-02-09T14:09:18Z</datestamp>
      <setSpec>user-biosyslit</setSpec>
    </header>
    <header>
      <identifier>oai:zenodo.org:285694</identifier>
      <datestamp>2017-02-09T14:09:13Z</datestamp>
      <setSpec>user-biosyslit</setSpec>
    </header>
    <header>
      <identifier>oai:zenodo.org:285697</identifier>
      <datestamp>2017-02-09T14:09:20Z</datestamp>
      <setSpec>user-biosyslit</setSpec>
    </header>
    <header>
      <identifier>oai:zenodo.org:238328</identifier>
      <datestamp>2017-01-11T04:22:02Z</datestamp>
      <setSpec>user-biosyslit</setSpec>
    </header>
    <header>
      <identifier>oai:zenodo.org:243377</identifier>
      <datestamp>2017-01-14T03:26:08Z</datestamp>
      <setSpec>user-biosyslit</setSpec>
    </header>
    <header>
      <identifier>oai:zenodo.org:243371</identifier>
      <datestamp>2017-01-14T03:25:50Z</datestamp>
      <setSpec>user-biosyslit</setSpec>
    </header>
    <header>
      <identifier>oai:zenodo.org:243381</identifier>
      <datestamp>2017-01-14T03:26:22Z</datestamp>
      <setSpec>user-biosyslit</setSpec>
    </header>
    <header>
      <identifier>oai:zenodo.org:243380</identifier>
      <datestamp>2017-01-14T03:26:18Z</datestamp>
      <setSpec>user-biosyslit</setSpec>
    </header>
    <header>
      <identifier>oai:zenodo.org:243374</identifier>
      <datestamp>2017-01-14T03:26:00Z</datestamp>
      <setSpec>user-biosyslit</setSpec>
    </header>
    <header>
      <identifier>oai:zenodo.org:243373</identifier>
      <datestamp>2017-01-14T03:25:56Z</datestamp>
      <setSpec>user-biosyslit</setSpec>
    </header>
    <header>
      <identifier>oai:zenodo.org:258967</identifier>
      <datestamp>2017-01-24T07:02:07Z</datestamp>
      <setSpec>user-biosyslit</setSpec>
    </header>
    <header>
      <identifier>oai:zenodo.org:258968</identifier>
      <datestamp>2017-01-24T07:01:17Z</datestamp>
      <setSpec>user-biosyslit</setSpec>
    </header>
    <header>
      <identifier>oai:zenodo.org:258972</identifier>
      <datestamp>2017-01-24T07:01:52Z</datestamp>
      <setSpec>user-biosyslit</setSpec>
    </header>
    <header>
      <identifier>oai:zenodo.org:258971</identifier>
      <datestamp>2017-01-24T07:01:23Z</datestamp>
      <setSpec>user-biosyslit</setSpec>
    </header>
    <header>
      <identifier>oai:zenodo.org:282774</identifier>
      <datestamp>2017-02-09T07:35:33Z</datestamp>
      <setSpec>user-biosyslit</setSpec>
    </header>
    <header>
      <identifier>oai:zenodo.org:282769</identifier>
      <datestamp>2017-02-09T07:35:22Z</datestamp>
      <setSpec>user-biosyslit</setSpec>
    </header>
    <header>
      <identifier>oai:zenodo.org:282771</identifier>
      <datestamp>2017-02-09T07:35:26Z</datestamp>
      <setSpec>user-biosyslit</setSpec>
    </header>
    <header>
      <identifier>oai:zenodo.org:282765</identifier>
      <datestamp>2017-02-09T07:35:12Z</datestamp>
      <setSpec>user-biosyslit</setSpec>
    </header>
    <header>
      <identifier>oai:zenodo.org:282775</identifier>
      <datestamp>2017-02-09T07:35:37Z</datestamp>
      <setSpec>user-biosyslit</setSpec>
    </header>
    <header>
      <identifier>oai:zenodo.org:279936</identifier>
      <datestamp>2017-02-09T02:19:01Z</datestamp>
      <setSpec>user-biosyslit</setSpec>
    </header>
    <header>
      <identifier>oai:zenodo.org:273894</identifier>
      <datestamp>2017-02-08T11:09:27Z</datestamp>
      <setSpec>user-biosyslit</setSpec>
    </header>
    <header>
      <identifier>oai:zenodo.org:273897</identifier>
      <datestamp>2017-02-08T11:09:34Z</datestamp>
      <setSpec>user-biosyslit</setSpec>
    </header>
    <header>
      <identifier>oai:zenodo.org:273895</identifier>
      <datestamp>2017-02-08T11:09:29Z</datestamp>
      <setSpec>user-biosyslit</setSpec>
    </header>
    <header>
      <identifier>oai:zenodo.org:273898</identifier>
      <datestamp>2017-02-08T11:09:37Z</datestamp>
      <setSpec>user-biosyslit</setSpec>
    </header>
    <header>
      <identifier>oai:zenodo.org:274050</identifier>
      <datestamp>2017-02-08T11:59:13Z</datestamp>
      <setSpec>user-biosyslit</setSpec>
    </header>
    <header>
      <identifier>oai:zenodo.org:236169</identifier>
      <datestamp>2017-01-09T19:10:22Z</datestamp>
      <setSpec>user-biosyslit</setSpec>
    </header>
    <header>
      <identifier>oai:zenodo.org:236180</identifier>
      <datestamp>2017-01-09T19:10:51Z</datestamp>
      <setSpec>user-biosyslit</setSpec>
    </header>
    <header>
      <identifier>oai:zenodo.org:236173</identifier>
      <datestamp>2017-01-09T19:10:29Z</datestamp>
      <setSpec>user-biosyslit</setSpec>
    </header>
    <header>
      <identifier>oai:zenodo.org:236176</identifier>
      <datestamp>2017-01-09T19:10:36Z</datestamp>
      <setSpec>user-biosyslit</setSpec>
    </header>
    <header>
      <identifier>oai:zenodo.org:236178</identifier>
      <datestamp>2017-01-09T19:10:42Z</datestamp>
      <setSpec>user-biosyslit</setSpec>
    </header>
    <header>
      <identifier>oai:zenodo.org:236177</identifier>
      <datestamp>2017-01-09T19:10:40Z</datestamp>
      <setSpec>user-biosyslit</setSpec>
    </header>
    <resumptionToken expirationDate="2017-08-31T15:47:48Z" cursor="68600" completeListSize="77796">.eJyNyrsOgjAUANB_uTMxfYBFEhcCEgchWCHAYrAQgtZHqEYo4d9lcdb5nBFUXVfgoAVl1MQMY4wsQlaWyQxQortLeWxnB5GlUtxkUgbpa39NUU4aFnqq33k5DfUFRVes-SYmGbb7pEVDfEieud73Kd2-OfLZTsdDeN7Or6JRIItT8ODJzZWcVF3kxwPHLi-o-D7859M_n6fWYMCjbGpwlrZtwOVddo0CZ5ymD8Y8UW8.DInArA.BTL6EBmu1IItbinxwOMFkcYcvXY</resumptionToken>
  </ListIdentifiers>
</OAI-PMH>
