<?xml version='1.0' encoding='UTF-8'?>
<?xml-stylesheet type="text/xsl" href="/static/xsl/oai2.v1.0.xsl"?>
<OAI-PMH xmlns="http://www.openarchives.org/OAI/2.0/" xmlns:xsi="http://www.w3.org/2001/XMLSchema-instance" xsi:schemaLocation="http://www.openarchives.org/OAI/2.0/ http://www.openarchives.org/OAI/2.0/OAI-PMH.xsd">
  <responseDate>2017-08-31T15:45:25Z</responseDate>
  <request verb="ListIdentifiers" resumptionToken=".eJyNyssKgkAYQOF3-dcSc0ktoU1Y4iJlmka0TZiKlGOJU6gjvntuWtfuwPlGUEWRg4MWS0pMbBGTmHOssWmAytqnlJfbvCGLI5k9pEi96H2sI5SQ0g5c1R_chAa6QmGNNd8zEuNVL25oYCfxSvSxj6jfcbSzD5oNwd2fXU5DT56vXsPFYys5ydtwxwaOt_xMs6_Dfzr907lqAwY0aVmAY9GVAVWXtqUCZ5ymD5NOUTg.DInAlQ.5Y5WJxG52o1b6wU7C1hDLLwVlQg">https://zenodo.org/oai2d</request>
  <ListIdentifiers>
    <header>
      <identifier>oai:zenodo.org:232008</identifier>
      <datestamp>2017-01-06T10:10:47Z</datestamp>
      <setSpec>user-biosyslit</setSpec>
    </header>
    <header>
      <identifier>oai:zenodo.org:232010</identifier>
      <datestamp>2017-01-06T10:10:54Z</datestamp>
      <setSpec>user-biosyslit</setSpec>
    </header>
    <header>
      <identifier>oai:zenodo.org:232009</identifier>
      <datestamp>2017-01-06T10:10:51Z</datestamp>
      <setSpec>user-biosyslit</setSpec>
    </header>
    <header>
      <identifier>oai:zenodo.org:260442</identifier>
      <datestamp>2017-01-27T20:19:47Z</datestamp>
      <setSpec>user-biosyslit</setSpec>
    </header>
    <header>
      <identifier>oai:zenodo.org:231358</identifier>
      <datestamp>2017-01-06T00:50:01Z</datestamp>
      <setSpec>user-biosyslit</setSpec>
    </header>
    <header>
      <identifier>oai:zenodo.org:232007</identifier>
      <datestamp>2017-01-06T10:10:44Z</datestamp>
      <setSpec>user-biosyslit</setSpec>
    </header>
    <header>
      <identifier>oai:zenodo.org:231355</identifier>
      <datestamp>2017-01-06T00:49:47Z</datestamp>
      <setSpec>user-biosyslit</setSpec>
    </header>
    <header>
      <identifier>oai:zenodo.org:230593</identifier>
      <datestamp>2017-01-05T04:15:38Z</datestamp>
      <setSpec>user-biosyslit</setSpec>
    </header>
    <header>
      <identifier>oai:zenodo.org:230596</identifier>
      <datestamp>2017-01-05T04:15:46Z</datestamp>
      <setSpec>user-biosyslit</setSpec>
    </header>
    <header>
      <identifier>oai:zenodo.org:230594</identifier>
      <datestamp>2017-01-05T04:15:41Z</datestamp>
      <setSpec>user-biosyslit</setSpec>
    </header>
    <header>
      <identifier>oai:zenodo.org:230589</identifier>
      <datestamp>2017-01-05T04:15:27Z</datestamp>
      <setSpec>user-biosyslit</setSpec>
    </header>
    <header>
      <identifier>oai:zenodo.org:237355</identifier>
      <datestamp>2017-01-10T14:37:17Z</datestamp>
      <setSpec>user-biosyslit</setSpec>
    </header>
    <header>
      <identifier>oai:zenodo.org:238231</identifier>
      <datestamp>2017-01-11T02:42:21Z</datestamp>
      <setSpec>user-biosyslit</setSpec>
    </header>
    <header>
      <identifier>oai:zenodo.org:238237</identifier>
      <datestamp>2017-01-11T02:42:12Z</datestamp>
      <setSpec>user-biosyslit</setSpec>
    </header>
    <header>
      <identifier>oai:zenodo.org:274547</identifier>
      <datestamp>2017-02-08T13:38:34Z</datestamp>
      <setSpec>user-biosyslit</setSpec>
    </header>
    <header>
      <identifier>oai:zenodo.org:274545</identifier>
      <datestamp>2017-02-08T13:38:35Z</datestamp>
      <setSpec>user-biosyslit</setSpec>
    </header>
    <header>
      <identifier>oai:zenodo.org:275227</identifier>
      <datestamp>2017-02-08T15:45:36Z</datestamp>
      <setSpec>user-biosyslit</setSpec>
    </header>
    <header>
      <identifier>oai:zenodo.org:263664</identifier>
      <datestamp>2017-01-30T02:41:23Z</datestamp>
      <setSpec>user-biosyslit</setSpec>
    </header>
    <header>
      <identifier>oai:zenodo.org:263663</identifier>
      <datestamp>2017-01-30T02:41:17Z</datestamp>
      <setSpec>user-biosyslit</setSpec>
    </header>
    <header>
      <identifier>oai:zenodo.org:263665</identifier>
      <datestamp>2017-01-30T02:41:34Z</datestamp>
      <setSpec>user-biosyslit</setSpec>
    </header>
    <header>
      <identifier>oai:zenodo.org:263666</identifier>
      <datestamp>2017-01-30T02:41:40Z</datestamp>
      <setSpec>user-biosyslit</setSpec>
    </header>
    <header>
      <identifier>oai:zenodo.org:230208</identifier>
      <datestamp>2017-01-04T21:06:37Z</datestamp>
      <setSpec>user-biosyslit</setSpec>
    </header>
    <header>
      <identifier>oai:zenodo.org:231722</identifier>
      <datestamp>2017-01-06T06:27:41Z</datestamp>
      <setSpec>user-biosyslit</setSpec>
    </header>
    <header>
      <identifier>oai:zenodo.org:232023</identifier>
      <datestamp>2017-01-06T10:23:09Z</datestamp>
      <setSpec>user-biosyslit</setSpec>
    </header>
    <header>
      <identifier>oai:zenodo.org:231726</identifier>
      <datestamp>2017-01-06T06:27:40Z</datestamp>
      <setSpec>user-biosyslit</setSpec>
    </header>
    <header>
      <identifier>oai:zenodo.org:233239</identifier>
      <datestamp>2017-01-08T02:27:15Z</datestamp>
      <setSpec>user-biosyslit</setSpec>
    </header>
    <header>
      <identifier>oai:zenodo.org:233244</identifier>
      <datestamp>2017-01-08T02:27:14Z</datestamp>
      <setSpec>user-biosyslit</setSpec>
    </header>
    <header>
      <identifier>oai:zenodo.org:233243</identifier>
      <datestamp>2017-01-08T02:27:10Z</datestamp>
      <setSpec>user-biosyslit</setSpec>
    </header>
    <header>
      <identifier>oai:zenodo.org:233240</identifier>
      <datestamp>2017-01-08T02:26:59Z</datestamp>
      <setSpec>user-biosyslit</setSpec>
    </header>
    <header>
      <identifier>oai:zenodo.org:275358</identifier>
      <datestamp>2017-02-08T16:09:11Z</datestamp>
      <setSpec>user-biosyslit</setSpec>
    </header>
    <header>
      <identifier>oai:zenodo.org:235202</identifier>
      <datestamp>2017-01-09T06:34:04Z</datestamp>
      <setSpec>user-biosyslit</setSpec>
    </header>
    <header>
      <identifier>oai:zenodo.org:235201</identifier>
      <datestamp>2017-01-09T06:33:59Z</datestamp>
      <setSpec>user-biosyslit</setSpec>
    </header>
    <header>
      <identifier>oai:zenodo.org:234948</identifier>
      <datestamp>2017-01-09T03:51:15Z</datestamp>
      <setSpec>user-biosyslit</setSpec>
    </header>
    <header>
      <identifier>oai:zenodo.org:226910</identifier>
      <datestamp>2017-01-01T06:21:22Z</datestamp>
      <setSpec>user-biosyslit</setSpec>
    </header>
    <header>
      <identifier>oai:zenodo.org:226912</identifier>
      <datestamp>2017-01-01T06:21:15Z</datestamp>
      <setSpec>user-biosyslit</setSpec>
    </header>
    <header>
      <identifier>oai:zenodo.org:226911</identifier>
      <datestamp>2017-01-01T06:21:12Z</datestamp>
      <setSpec>user-biosyslit</setSpec>
    </header>
    <header>
      <identifier>oai:zenodo.org:285010</identifier>
      <datestamp>2017-02-09T12:27:52Z</datestamp>
      <setSpec>user-biosyslit</setSpec>
    </header>
    <header>
      <identifier>oai:zenodo.org:277385</identifier>
      <datestamp>2017-02-08T21:01:27Z</datestamp>
      <setSpec>user-biosyslit</setSpec>
    </header>
    <header>
      <identifier>oai:zenodo.org:285008</identifier>
      <datestamp>2017-02-09T12:27:48Z</datestamp>
      <setSpec>user-biosyslit</setSpec>
    </header>
    <header>
      <identifier>oai:zenodo.org:285006</identifier>
      <datestamp>2017-02-09T12:27:43Z</datestamp>
      <setSpec>user-biosyslit</setSpec>
    </header>
    <header>
      <identifier>oai:zenodo.org:285007</identifier>
      <datestamp>2017-02-09T12:27:45Z</datestamp>
      <setSpec>user-biosyslit</setSpec>
    </header>
    <header>
      <identifier>oai:zenodo.org:270319</identifier>
      <datestamp>2017-02-07T23:00:26Z</datestamp>
      <setSpec>user-biosyslit</setSpec>
    </header>
    <header>
      <identifier>oai:zenodo.org:273821</identifier>
      <datestamp>2017-02-08T10:51:13Z</datestamp>
      <setSpec>user-biosyslit</setSpec>
    </header>
    <header>
      <identifier>oai:zenodo.org:270322</identifier>
      <datestamp>2017-02-07T23:00:25Z</datestamp>
      <setSpec>user-biosyslit</setSpec>
    </header>
    <header>
      <identifier>oai:zenodo.org:273822</identifier>
      <datestamp>2017-02-08T10:51:05Z</datestamp>
      <setSpec>user-biosyslit</setSpec>
    </header>
    <header>
      <identifier>oai:zenodo.org:231941</identifier>
      <datestamp>2017-01-06T09:09:35Z</datestamp>
      <setSpec>user-biosyslit</setSpec>
    </header>
    <header>
      <identifier>oai:zenodo.org:252644</identifier>
      <datestamp>2017-01-19T17:58:56Z</datestamp>
      <setSpec>user-biosyslit</setSpec>
    </header>
    <header>
      <identifier>oai:zenodo.org:237539</identifier>
      <datestamp>2017-01-10T16:39:29Z</datestamp>
      <setSpec>user-biosyslit</setSpec>
    </header>
    <header>
      <identifier>oai:zenodo.org:237537</identifier>
      <datestamp>2017-01-10T16:39:21Z</datestamp>
      <setSpec>user-biosyslit</setSpec>
    </header>
    <header>
      <identifier>oai:zenodo.org:237538</identifier>
      <datestamp>2017-01-10T16:39:25Z</datestamp>
      <setSpec>user-biosyslit</setSpec>
    </header>
    <header>
      <identifier>oai:zenodo.org:234631</identifier>
      <datestamp>2017-01-08T23:07:17Z</datestamp>
      <setSpec>user-biosyslit</setSpec>
    </header>
    <header>
      <identifier>oai:zenodo.org:234636</identifier>
      <datestamp>2017-01-08T23:07:31Z</datestamp>
      <setSpec>user-biosyslit</setSpec>
    </header>
    <header>
      <identifier>oai:zenodo.org:234630</identifier>
      <datestamp>2017-01-08T23:07:09Z</datestamp>
      <setSpec>user-biosyslit</setSpec>
    </header>
    <header>
      <identifier>oai:zenodo.org:234629</identifier>
      <datestamp>2017-01-08T23:07:05Z</datestamp>
      <setSpec>user-biosyslit</setSpec>
    </header>
    <header>
      <identifier>oai:zenodo.org:234632</identifier>
      <datestamp>2017-01-08T23:07:20Z</datestamp>
      <setSpec>user-biosyslit</setSpec>
    </header>
    <header>
      <identifier>oai:zenodo.org:250354</identifier>
      <datestamp>2017-01-18T08:46:28Z</datestamp>
      <setSpec>user-biosyslit</setSpec>
    </header>
    <header>
      <identifier>oai:zenodo.org:250353</identifier>
      <datestamp>2017-01-18T08:46:21Z</datestamp>
      <setSpec>user-biosyslit</setSpec>
    </header>
    <header>
      <identifier>oai:zenodo.org:250352</identifier>
      <datestamp>2017-01-18T08:46:16Z</datestamp>
      <setSpec>user-biosyslit</setSpec>
    </header>
    <header>
      <identifier>oai:zenodo.org:250355</identifier>
      <datestamp>2017-01-18T08:46:34Z</datestamp>
      <setSpec>user-biosyslit</setSpec>
    </header>
    <header>
      <identifier>oai:zenodo.org:250359</identifier>
      <datestamp>2017-01-18T08:46:53Z</datestamp>
      <setSpec>user-biosyslit</setSpec>
    </header>
    <header>
      <identifier>oai:zenodo.org:250350</identifier>
      <datestamp>2017-01-18T08:46:02Z</datestamp>
      <setSpec>user-biosyslit</setSpec>
    </header>
    <header>
      <identifier>oai:zenodo.org:250349</identifier>
      <datestamp>2017-01-18T08:45:59Z</datestamp>
      <setSpec>user-biosyslit</setSpec>
    </header>
    <header>
      <identifier>oai:zenodo.org:250356</identifier>
      <datestamp>2017-01-18T08:46:38Z</datestamp>
      <setSpec>user-biosyslit</setSpec>
    </header>
    <header>
      <identifier>oai:zenodo.org:250351</identifier>
      <datestamp>2017-01-18T08:46:07Z</datestamp>
      <setSpec>user-biosyslit</setSpec>
    </header>
    <header>
      <identifier>oai:zenodo.org:240034</identifier>
      <datestamp>2017-01-12T03:59:00Z</datestamp>
      <setSpec>user-biosyslit</setSpec>
    </header>
    <header>
      <identifier>oai:zenodo.org:281984</identifier>
      <datestamp>2017-02-09T06:15:53Z</datestamp>
      <setSpec>user-biosyslit</setSpec>
    </header>
    <header>
      <identifier>oai:zenodo.org:281987</identifier>
      <datestamp>2017-02-09T06:15:58Z</datestamp>
      <setSpec>user-biosyslit</setSpec>
    </header>
    <header>
      <identifier>oai:zenodo.org:281981</identifier>
      <datestamp>2017-02-09T06:15:46Z</datestamp>
      <setSpec>user-biosyslit</setSpec>
    </header>
    <header>
      <identifier>oai:zenodo.org:281980</identifier>
      <datestamp>2017-02-09T06:15:44Z</datestamp>
      <setSpec>user-biosyslit</setSpec>
    </header>
    <header>
      <identifier>oai:zenodo.org:281988</identifier>
      <datestamp>2017-02-09T06:16:01Z</datestamp>
      <setSpec>user-biosyslit</setSpec>
    </header>
    <header>
      <identifier>oai:zenodo.org:281989</identifier>
      <datestamp>2017-02-09T06:16:03Z</datestamp>
      <setSpec>user-biosyslit</setSpec>
    </header>
    <header>
      <identifier>oai:zenodo.org:281992</identifier>
      <datestamp>2017-02-09T06:16:09Z</datestamp>
      <setSpec>user-biosyslit</setSpec>
    </header>
    <header>
      <identifier>oai:zenodo.org:281991</identifier>
      <datestamp>2017-02-09T06:16:07Z</datestamp>
      <setSpec>user-biosyslit</setSpec>
    </header>
    <header>
      <identifier>oai:zenodo.org:247895</identifier>
      <datestamp>2017-01-16T21:23:49Z</datestamp>
      <setSpec>user-biosyslit</setSpec>
    </header>
    <header>
      <identifier>oai:zenodo.org:247903</identifier>
      <datestamp>2017-01-16T21:23:44Z</datestamp>
      <setSpec>user-biosyslit</setSpec>
    </header>
    <header>
      <identifier>oai:zenodo.org:247904</identifier>
      <datestamp>2017-01-16T21:23:48Z</datestamp>
      <setSpec>user-biosyslit</setSpec>
    </header>
    <header>
      <identifier>oai:zenodo.org:247899</identifier>
      <datestamp>2017-01-16T21:23:29Z</datestamp>
      <setSpec>user-biosyslit</setSpec>
    </header>
    <header>
      <identifier>oai:zenodo.org:247898</identifier>
      <datestamp>2017-01-16T21:23:26Z</datestamp>
      <setSpec>user-biosyslit</setSpec>
    </header>
    <header>
      <identifier>oai:zenodo.org:247901</identifier>
      <datestamp>2017-01-16T21:23:38Z</datestamp>
      <setSpec>user-biosyslit</setSpec>
    </header>
    <header>
      <identifier>oai:zenodo.org:247896</identifier>
      <datestamp>2017-01-16T21:23:16Z</datestamp>
      <setSpec>user-biosyslit</setSpec>
    </header>
    <header>
      <identifier>oai:zenodo.org:255039</identifier>
      <datestamp>2017-01-21T06:58:27Z</datestamp>
      <setSpec>user-biosyslit</setSpec>
    </header>
    <header>
      <identifier>oai:zenodo.org:227294</identifier>
      <datestamp>2017-01-01T19:08:28Z</datestamp>
      <setSpec>user-biosyslit</setSpec>
    </header>
    <header>
      <identifier>oai:zenodo.org:227296</identifier>
      <datestamp>2017-01-01T19:08:35Z</datestamp>
      <setSpec>user-biosyslit</setSpec>
    </header>
    <header>
      <identifier>oai:zenodo.org:227297</identifier>
      <datestamp>2017-01-01T19:08:39Z</datestamp>
      <setSpec>user-biosyslit</setSpec>
    </header>
    <header>
      <identifier>oai:zenodo.org:259931</identifier>
      <datestamp>2017-01-25T17:37:14Z</datestamp>
      <setSpec>user-biosyslit</setSpec>
    </header>
    <header>
      <identifier>oai:zenodo.org:239499</identifier>
      <datestamp>2017-01-11T21:25:41Z</datestamp>
      <setSpec>user-biosyslit</setSpec>
    </header>
    <header>
      <identifier>oai:zenodo.org:239497</identifier>
      <datestamp>2017-01-11T21:25:33Z</datestamp>
      <setSpec>user-biosyslit</setSpec>
    </header>
    <header>
      <identifier>oai:zenodo.org:239498</identifier>
      <datestamp>2017-01-11T21:25:37Z</datestamp>
      <setSpec>user-biosyslit</setSpec>
    </header>
    <header>
      <identifier>oai:zenodo.org:228903</identifier>
      <datestamp>2017-01-03T06:55:12Z</datestamp>
      <setSpec>user-biosyslit</setSpec>
    </header>
    <header>
      <identifier>oai:zenodo.org:228902</identifier>
      <datestamp>2017-01-03T06:55:08Z</datestamp>
      <setSpec>user-biosyslit</setSpec>
    </header>
    <header>
      <identifier>oai:zenodo.org:239934</identifier>
      <datestamp>2017-01-12T02:31:02Z</datestamp>
      <setSpec>user-biosyslit</setSpec>
    </header>
    <header>
      <identifier>oai:zenodo.org:239922</identifier>
      <datestamp>2017-01-12T02:30:19Z</datestamp>
      <setSpec>user-biosyslit</setSpec>
    </header>
    <header>
      <identifier>oai:zenodo.org:239917</identifier>
      <datestamp>2017-01-12T02:30:03Z</datestamp>
      <setSpec>user-biosyslit</setSpec>
    </header>
    <header>
      <identifier>oai:zenodo.org:239923</identifier>
      <datestamp>2017-01-12T02:30:23Z</datestamp>
      <setSpec>user-biosyslit</setSpec>
    </header>
    <header>
      <identifier>oai:zenodo.org:239932</identifier>
      <datestamp>2017-01-12T02:30:55Z</datestamp>
      <setSpec>user-biosyslit</setSpec>
    </header>
    <header>
      <identifier>oai:zenodo.org:239930</identifier>
      <datestamp>2017-01-12T02:30:49Z</datestamp>
      <setSpec>user-biosyslit</setSpec>
    </header>
    <header>
      <identifier>oai:zenodo.org:239928</identifier>
      <datestamp>2017-01-12T02:30:43Z</datestamp>
      <setSpec>user-biosyslit</setSpec>
    </header>
    <header>
      <identifier>oai:zenodo.org:257418</identifier>
      <datestamp>2017-01-23T06:44:09Z</datestamp>
      <setSpec>user-biosyslit</setSpec>
    </header>
    <header>
      <identifier>oai:zenodo.org:257428</identifier>
      <datestamp>2017-01-23T06:44:08Z</datestamp>
      <setSpec>user-biosyslit</setSpec>
    </header>
    <header>
      <identifier>oai:zenodo.org:266996</identifier>
      <datestamp>2017-02-01T17:55:52Z</datestamp>
      <setSpec>user-biosyslit</setSpec>
    </header>
    <resumptionToken expirationDate="2017-08-31T15:47:25Z" cursor="63700" completeListSize="77796">.eJyNysEKgjAYAOB3-c8Sc0M3hS5hiQcVW0p2CVMRc5q4Ip347nnpXOfvm0GWZQE22jCGDEoRZhampmUwDWQ-PIS41itDfk5E3ok4c5PXsU1QiisaOHL0nZQEqkFhqyt-iPBZZ2Ncoyk6xc9UHceEeG-O9tRX0RTcvfUVJHTF5eb2PO52guNiCPfRxPUdv5D8-_Q_n_r5HLkFDfqsKsE2iaVB886GSoI9L8sHr9pRWA.DInAlQ.jDJxWyWviHdM5da2IR1i-Q0H5uw</resumptionToken>
  </ListIdentifiers>
</OAI-PMH>
