<?xml version='1.0' encoding='UTF-8'?>
<?xml-stylesheet type="text/xsl" href="/static/xsl/oai2.v1.0.xsl"?>
<OAI-PMH xmlns="http://www.openarchives.org/OAI/2.0/" xmlns:xsi="http://www.w3.org/2001/XMLSchema-instance" xsi:schemaLocation="http://www.openarchives.org/OAI/2.0/ http://www.openarchives.org/OAI/2.0/OAI-PMH.xsd">
  <responseDate>2017-08-31T15:44:13Z</responseDate>
  <request verb="ListIdentifiers" resumptionToken=".eJyNyk0LgjAYAOD_8p4lNtfyA7qEJh5UbCnpJUxFzGniinTif89L5zo_zwyiLAsw0QbtNINSTKiOdELoliog8uHB-bVeHfJLzPOOR5kTv05tjBK10nxLjJ6VEF82KGixZMdQvWB9jGo0hefomcjTGBP3zZCteTKc_Lu7voIEDk9vTs-i7sCZWgyBHU4MH1hK8u_Dfz7581liDwr0WVWCudUMBZp3NlQCzHlZPtQnUXw.DInATQ.vJdXyKEqui5lj2FSecY_x5qvd5M">https://zenodo.org/oai2d</request>
  <ListIdentifiers>
    <header>
      <identifier>oai:zenodo.org:285555</identifier>
      <datestamp>2017-02-09T13:51:07Z</datestamp>
      <setSpec>user-biosyslit</setSpec>
    </header>
    <header>
      <identifier>oai:zenodo.org:285195</identifier>
      <datestamp>2017-02-09T12:55:40Z</datestamp>
      <setSpec>user-biosyslit</setSpec>
    </header>
    <header>
      <identifier>oai:zenodo.org:285551</identifier>
      <datestamp>2017-02-09T13:51:18Z</datestamp>
      <setSpec>user-biosyslit</setSpec>
    </header>
    <header>
      <identifier>oai:zenodo.org:285913</identifier>
      <datestamp>2017-02-09T14:51:46Z</datestamp>
      <setSpec>user-biosyslit</setSpec>
    </header>
    <header>
      <identifier>oai:zenodo.org:285236</identifier>
      <datestamp>2017-02-09T13:04:42Z</datestamp>
      <setSpec>user-biosyslit</setSpec>
    </header>
    <header>
      <identifier>oai:zenodo.org:285591</identifier>
      <datestamp>2017-02-09T13:54:31Z</datestamp>
      <setSpec>user-biosyslit</setSpec>
    </header>
    <header>
      <identifier>oai:zenodo.org:285565</identifier>
      <datestamp>2017-02-09T13:51:59Z</datestamp>
      <setSpec>user-biosyslit</setSpec>
    </header>
    <header>
      <identifier>oai:zenodo.org:286135</identifier>
      <datestamp>2017-02-09T15:18:01Z</datestamp>
      <setSpec>user-biosyslit</setSpec>
    </header>
    <header>
      <identifier>oai:zenodo.org:226948</identifier>
      <datestamp>2017-01-01T07:14:53Z</datestamp>
      <setSpec>user-biosyslit</setSpec>
    </header>
    <header>
      <identifier>oai:zenodo.org:286846</identifier>
      <datestamp>2017-02-09T16:57:22Z</datestamp>
      <setSpec>user-biosyslit</setSpec>
    </header>
    <header>
      <identifier>oai:zenodo.org:286960</identifier>
      <datestamp>2017-02-09T17:08:27Z</datestamp>
      <setSpec>user-biosyslit</setSpec>
    </header>
    <header>
      <identifier>oai:zenodo.org:285440</identifier>
      <datestamp>2017-02-09T13:35:51Z</datestamp>
      <setSpec>user-biosyslit</setSpec>
    </header>
    <header>
      <identifier>oai:zenodo.org:285670</identifier>
      <datestamp>2017-02-09T14:06:03Z</datestamp>
      <setSpec>user-biosyslit</setSpec>
    </header>
    <header>
      <identifier>oai:zenodo.org:226891</identifier>
      <datestamp>2017-01-01T05:24:42Z</datestamp>
      <setSpec>user-biosyslit</setSpec>
    </header>
    <header>
      <identifier>oai:zenodo.org:226720</identifier>
      <datestamp>2017-01-01T02:32:39Z</datestamp>
      <setSpec>user-biosyslit</setSpec>
    </header>
    <header>
      <identifier>oai:zenodo.org:286010</identifier>
      <datestamp>2017-02-09T15:01:49Z</datestamp>
      <setSpec>user-biosyslit</setSpec>
    </header>
    <header>
      <identifier>oai:zenodo.org:285680</identifier>
      <datestamp>2017-02-09T14:06:29Z</datestamp>
      <setSpec>user-biosyslit</setSpec>
    </header>
    <header>
      <identifier>oai:zenodo.org:285649</identifier>
      <datestamp>2017-02-09T14:03:43Z</datestamp>
      <setSpec>user-biosyslit</setSpec>
    </header>
    <header>
      <identifier>oai:zenodo.org:286133</identifier>
      <datestamp>2017-02-09T15:18:09Z</datestamp>
      <setSpec>user-biosyslit</setSpec>
    </header>
    <header>
      <identifier>oai:zenodo.org:286376</identifier>
      <datestamp>2017-02-09T15:54:19Z</datestamp>
      <setSpec>user-biosyslit</setSpec>
    </header>
    <header>
      <identifier>oai:zenodo.org:285561</identifier>
      <datestamp>2017-02-09T13:51:50Z</datestamp>
      <setSpec>user-biosyslit</setSpec>
    </header>
    <header>
      <identifier>oai:zenodo.org:285492</identifier>
      <datestamp>2017-02-09T13:42:33Z</datestamp>
      <setSpec>user-biosyslit</setSpec>
    </header>
    <header>
      <identifier>oai:zenodo.org:285977</identifier>
      <datestamp>2017-02-09T14:56:26Z</datestamp>
      <setSpec>user-biosyslit</setSpec>
    </header>
    <header>
      <identifier>oai:zenodo.org:226848</identifier>
      <datestamp>2017-01-01T04:25:39Z</datestamp>
      <setSpec>user-biosyslit</setSpec>
    </header>
    <header>
      <identifier>oai:zenodo.org:285473</identifier>
      <datestamp>2017-02-09T13:39:51Z</datestamp>
      <setSpec>user-biosyslit</setSpec>
    </header>
    <header>
      <identifier>oai:zenodo.org:285446</identifier>
      <datestamp>2017-02-09T13:36:11Z</datestamp>
      <setSpec>user-biosyslit</setSpec>
    </header>
    <header>
      <identifier>oai:zenodo.org:226775</identifier>
      <datestamp>2017-01-01T03:09:28Z</datestamp>
      <setSpec>user-biosyslit</setSpec>
    </header>
    <header>
      <identifier>oai:zenodo.org:285511</identifier>
      <datestamp>2017-02-09T13:44:59Z</datestamp>
      <setSpec>user-biosyslit</setSpec>
    </header>
    <header>
      <identifier>oai:zenodo.org:226951</identifier>
      <datestamp>2017-01-01T07:14:48Z</datestamp>
      <setSpec>user-biosyslit</setSpec>
    </header>
    <header>
      <identifier>oai:zenodo.org:208186</identifier>
      <datestamp>2017-02-16T10:00:42Z</datestamp>
      <setSpec>openaire</setSpec>
      <setSpec>user-biosyslit</setSpec>
    </header>
    <header>
      <identifier>oai:zenodo.org:286437</identifier>
      <datestamp>2017-02-09T15:59:46Z</datestamp>
      <setSpec>user-biosyslit</setSpec>
    </header>
    <header>
      <identifier>oai:zenodo.org:285554</identifier>
      <datestamp>2017-02-09T13:51:05Z</datestamp>
      <setSpec>user-biosyslit</setSpec>
    </header>
    <header>
      <identifier>oai:zenodo.org:226677</identifier>
      <datestamp>2017-01-01T01:43:00Z</datestamp>
      <setSpec>user-biosyslit</setSpec>
    </header>
    <header>
      <identifier>oai:zenodo.org:285926</identifier>
      <datestamp>2017-02-09T14:51:33Z</datestamp>
      <setSpec>user-biosyslit</setSpec>
    </header>
    <header>
      <identifier>oai:zenodo.org:285748</identifier>
      <datestamp>2017-02-09T14:25:26Z</datestamp>
      <setSpec>user-biosyslit</setSpec>
    </header>
    <header>
      <identifier>oai:zenodo.org:285761</identifier>
      <datestamp>2017-02-09T14:25:58Z</datestamp>
      <setSpec>user-biosyslit</setSpec>
    </header>
    <header>
      <identifier>oai:zenodo.org:285617</identifier>
      <datestamp>2017-02-09T13:59:54Z</datestamp>
      <setSpec>user-biosyslit</setSpec>
    </header>
    <header>
      <identifier>oai:zenodo.org:286509</identifier>
      <datestamp>2017-02-09T16:11:20Z</datestamp>
      <setSpec>user-biosyslit</setSpec>
    </header>
    <header>
      <identifier>oai:zenodo.org:286726</identifier>
      <datestamp>2017-02-09T16:39:57Z</datestamp>
      <setSpec>user-biosyslit</setSpec>
    </header>
    <header>
      <identifier>oai:zenodo.org:286954</identifier>
      <datestamp>2017-02-09T17:06:35Z</datestamp>
      <setSpec>user-biosyslit</setSpec>
    </header>
    <header>
      <identifier>oai:zenodo.org:286183</identifier>
      <datestamp>2017-02-09T15:27:06Z</datestamp>
      <setSpec>user-biosyslit</setSpec>
    </header>
    <header>
      <identifier>oai:zenodo.org:286444</identifier>
      <datestamp>2017-02-09T16:00:01Z</datestamp>
      <setSpec>user-biosyslit</setSpec>
    </header>
    <header>
      <identifier>oai:zenodo.org:287430</identifier>
      <datestamp>2017-02-09T18:19:18Z</datestamp>
      <setSpec>user-biosyslit</setSpec>
    </header>
    <header>
      <identifier>oai:zenodo.org:286460</identifier>
      <datestamp>2017-02-09T16:00:38Z</datestamp>
      <setSpec>user-biosyslit</setSpec>
    </header>
    <header>
      <identifier>oai:zenodo.org:287387</identifier>
      <datestamp>2017-02-09T18:12:08Z</datestamp>
      <setSpec>user-biosyslit</setSpec>
    </header>
    <header>
      <identifier>oai:zenodo.org:285487</identifier>
      <datestamp>2017-02-09T13:42:22Z</datestamp>
      <setSpec>user-biosyslit</setSpec>
    </header>
    <header>
      <identifier>oai:zenodo.org:286579</identifier>
      <datestamp>2017-02-09T16:23:30Z</datestamp>
      <setSpec>user-biosyslit</setSpec>
    </header>
    <header>
      <identifier>oai:zenodo.org:286203</identifier>
      <datestamp>2017-02-09T15:28:14Z</datestamp>
      <setSpec>user-biosyslit</setSpec>
    </header>
    <header>
      <identifier>oai:zenodo.org:286661</identifier>
      <datestamp>2017-02-09T16:31:50Z</datestamp>
      <setSpec>user-biosyslit</setSpec>
    </header>
    <header>
      <identifier>oai:zenodo.org:285618</identifier>
      <datestamp>2017-02-09T13:59:56Z</datestamp>
      <setSpec>user-biosyslit</setSpec>
    </header>
    <header>
      <identifier>oai:zenodo.org:286426</identifier>
      <datestamp>2017-02-09T15:57:56Z</datestamp>
      <setSpec>user-biosyslit</setSpec>
    </header>
    <header>
      <identifier>oai:zenodo.org:286440</identifier>
      <datestamp>2017-02-09T15:59:53Z</datestamp>
      <setSpec>user-biosyslit</setSpec>
    </header>
    <header>
      <identifier>oai:zenodo.org:286001</identifier>
      <datestamp>2017-02-09T15:01:27Z</datestamp>
      <setSpec>user-biosyslit</setSpec>
    </header>
    <header>
      <identifier>oai:zenodo.org:286839</identifier>
      <datestamp>2017-02-09T16:57:04Z</datestamp>
      <setSpec>user-biosyslit</setSpec>
    </header>
    <header>
      <identifier>oai:zenodo.org:287388</identifier>
      <datestamp>2017-02-09T18:12:12Z</datestamp>
      <setSpec>user-biosyslit</setSpec>
    </header>
    <header>
      <identifier>oai:zenodo.org:287688</identifier>
      <datestamp>2017-02-09T18:58:23Z</datestamp>
      <setSpec>user-biosyslit</setSpec>
    </header>
    <header>
      <identifier>oai:zenodo.org:287493</identifier>
      <datestamp>2017-02-09T18:27:49Z</datestamp>
      <setSpec>user-biosyslit</setSpec>
    </header>
    <header>
      <identifier>oai:zenodo.org:286621</identifier>
      <datestamp>2017-02-09T16:25:32Z</datestamp>
      <setSpec>user-biosyslit</setSpec>
    </header>
    <header>
      <identifier>oai:zenodo.org:287125</identifier>
      <datestamp>2017-02-09T17:31:00Z</datestamp>
      <setSpec>user-biosyslit</setSpec>
    </header>
    <header>
      <identifier>oai:zenodo.org:286760</identifier>
      <datestamp>2017-02-09T16:45:42Z</datestamp>
      <setSpec>user-biosyslit</setSpec>
    </header>
    <header>
      <identifier>oai:zenodo.org:287215</identifier>
      <datestamp>2017-02-09T17:47:07Z</datestamp>
      <setSpec>user-biosyslit</setSpec>
    </header>
    <header>
      <identifier>oai:zenodo.org:229159</identifier>
      <datestamp>2017-01-03T11:06:18Z</datestamp>
      <setSpec>user-biosyslit</setSpec>
    </header>
    <header>
      <identifier>oai:zenodo.org:228211</identifier>
      <datestamp>2017-01-02T19:46:45Z</datestamp>
      <setSpec>user-biosyslit</setSpec>
    </header>
    <header>
      <identifier>oai:zenodo.org:231247</identifier>
      <datestamp>2017-01-05T18:00:06Z</datestamp>
      <setSpec>user-biosyslit</setSpec>
    </header>
    <header>
      <identifier>oai:zenodo.org:229025</identifier>
      <datestamp>2017-01-03T08:34:19Z</datestamp>
      <setSpec>user-biosyslit</setSpec>
    </header>
    <header>
      <identifier>oai:zenodo.org:229414</identifier>
      <datestamp>2017-01-03T15:26:47Z</datestamp>
      <setSpec>user-biosyslit</setSpec>
    </header>
    <header>
      <identifier>oai:zenodo.org:230705</identifier>
      <datestamp>2017-01-05T07:00:09Z</datestamp>
      <setSpec>user-biosyslit</setSpec>
    </header>
    <header>
      <identifier>oai:zenodo.org:229685</identifier>
      <datestamp>2017-01-03T20:31:36Z</datestamp>
      <setSpec>user-biosyslit</setSpec>
    </header>
    <header>
      <identifier>oai:zenodo.org:229794</identifier>
      <datestamp>2017-01-04T07:21:41Z</datestamp>
      <setSpec>user-biosyslit</setSpec>
    </header>
    <header>
      <identifier>oai:zenodo.org:229684</identifier>
      <datestamp>2017-01-03T20:29:36Z</datestamp>
      <setSpec>user-biosyslit</setSpec>
    </header>
    <header>
      <identifier>oai:zenodo.org:288968</identifier>
      <datestamp>2017-02-09T22:16:28Z</datestamp>
      <setSpec>user-biosyslit</setSpec>
    </header>
    <header>
      <identifier>oai:zenodo.org:230090</identifier>
      <datestamp>2017-01-04T19:11:36Z</datestamp>
      <setSpec>user-biosyslit</setSpec>
    </header>
    <header>
      <identifier>oai:zenodo.org:230740</identifier>
      <datestamp>2017-01-05T07:37:47Z</datestamp>
      <setSpec>user-biosyslit</setSpec>
    </header>
    <header>
      <identifier>oai:zenodo.org:288491</identifier>
      <datestamp>2017-02-09T21:04:02Z</datestamp>
      <setSpec>user-biosyslit</setSpec>
    </header>
    <header>
      <identifier>oai:zenodo.org:230767</identifier>
      <datestamp>2017-01-05T07:55:58Z</datestamp>
      <setSpec>user-biosyslit</setSpec>
    </header>
    <header>
      <identifier>oai:zenodo.org:230365</identifier>
      <datestamp>2017-01-04T23:33:57Z</datestamp>
      <setSpec>user-biosyslit</setSpec>
    </header>
    <header>
      <identifier>oai:zenodo.org:269789</identifier>
      <datestamp>2017-02-07T20:18:58Z</datestamp>
      <setSpec>user-biosyslit</setSpec>
    </header>
    <header>
      <identifier>oai:zenodo.org:230008</identifier>
      <datestamp>2017-01-04T17:37:16Z</datestamp>
      <setSpec>user-biosyslit</setSpec>
    </header>
    <header>
      <identifier>oai:zenodo.org:231383</identifier>
      <datestamp>2017-01-06T01:15:39Z</datestamp>
      <setSpec>user-biosyslit</setSpec>
    </header>
    <header>
      <identifier>oai:zenodo.org:270247</identifier>
      <datestamp>2017-02-07T22:53:19Z</datestamp>
      <setSpec>user-biosyslit</setSpec>
    </header>
    <header>
      <identifier>oai:zenodo.org:230730</identifier>
      <datestamp>2017-01-05T07:36:31Z</datestamp>
      <setSpec>user-biosyslit</setSpec>
    </header>
    <header>
      <identifier>oai:zenodo.org:270861</identifier>
      <datestamp>2017-02-08T00:05:57Z</datestamp>
      <setSpec>user-biosyslit</setSpec>
    </header>
    <header>
      <identifier>oai:zenodo.org:230355</identifier>
      <datestamp>2017-01-04T23:10:28Z</datestamp>
      <setSpec>user-biosyslit</setSpec>
    </header>
    <header>
      <identifier>oai:zenodo.org:231870</identifier>
      <datestamp>2017-01-06T08:05:49Z</datestamp>
      <setSpec>user-biosyslit</setSpec>
    </header>
    <header>
      <identifier>oai:zenodo.org:231464</identifier>
      <datestamp>2017-01-06T02:23:07Z</datestamp>
      <setSpec>user-biosyslit</setSpec>
    </header>
    <header>
      <identifier>oai:zenodo.org:269962</identifier>
      <datestamp>2017-02-07T21:54:17Z</datestamp>
      <setSpec>user-biosyslit</setSpec>
    </header>
    <header>
      <identifier>oai:zenodo.org:231199</identifier>
      <datestamp>2017-01-05T17:13:00Z</datestamp>
      <setSpec>user-biosyslit</setSpec>
    </header>
    <header>
      <identifier>oai:zenodo.org:231388</identifier>
      <datestamp>2017-01-06T01:19:37Z</datestamp>
      <setSpec>user-biosyslit</setSpec>
    </header>
    <header>
      <identifier>oai:zenodo.org:269788</identifier>
      <datestamp>2017-02-07T20:18:56Z</datestamp>
      <setSpec>user-biosyslit</setSpec>
    </header>
    <header>
      <identifier>oai:zenodo.org:270128</identifier>
      <datestamp>2017-02-07T22:24:54Z</datestamp>
      <setSpec>user-biosyslit</setSpec>
    </header>
    <header>
      <identifier>oai:zenodo.org:269933</identifier>
      <datestamp>2017-02-07T20:44:28Z</datestamp>
      <setSpec>user-biosyslit</setSpec>
    </header>
    <header>
      <identifier>oai:zenodo.org:275347</identifier>
      <datestamp>2017-02-08T16:08:33Z</datestamp>
      <setSpec>user-biosyslit</setSpec>
    </header>
    <header>
      <identifier>oai:zenodo.org:231570</identifier>
      <datestamp>2017-01-06T04:12:05Z</datestamp>
      <setSpec>user-biosyslit</setSpec>
    </header>
    <header>
      <identifier>oai:zenodo.org:270795</identifier>
      <datestamp>2017-02-07T23:56:31Z</datestamp>
      <setSpec>user-biosyslit</setSpec>
    </header>
    <header>
      <identifier>oai:zenodo.org:270191</identifier>
      <datestamp>2017-02-07T22:30:38Z</datestamp>
      <setSpec>user-biosyslit</setSpec>
    </header>
    <header>
      <identifier>oai:zenodo.org:232240</identifier>
      <datestamp>2017-01-06T14:05:51Z</datestamp>
      <setSpec>user-biosyslit</setSpec>
    </header>
    <header>
      <identifier>oai:zenodo.org:270373</identifier>
      <datestamp>2017-02-07T23:06:23Z</datestamp>
      <setSpec>user-biosyslit</setSpec>
    </header>
    <header>
      <identifier>oai:zenodo.org:271372</identifier>
      <datestamp>2017-02-08T01:33:00Z</datestamp>
      <setSpec>user-biosyslit</setSpec>
    </header>
    <header>
      <identifier>oai:zenodo.org:232180</identifier>
      <datestamp>2017-01-06T12:56:35Z</datestamp>
      <setSpec>user-biosyslit</setSpec>
    </header>
    <header>
      <identifier>oai:zenodo.org:232797</identifier>
      <datestamp>2017-01-06T23:13:34Z</datestamp>
      <setSpec>user-biosyslit</setSpec>
    </header>
    <resumptionToken expirationDate="2017-08-31T15:46:13Z" cursor="47800" completeListSize="77796">.eJyNyj0LgkAYAOD_8s4S96EpQkto0qByXh7pEqYi1mniFelJ_72W5pqfZwFV1xW4aEWpjTGh2LbWlkWwaYAqx5uUp_bDUB6FLHuZFoF4JJ1AGWnsyFNT6GU00lcUd1jzHSNH7Expi2Z2SO-ZTiZB90-OfDvUbI4u-8-raBzI_BwMPO23kpNqjH02c7zlOS2_D__59M_nqQ0YMBRNDa7pIAOuz2JsFLjL6_UGj2xRLw.DInATQ.KdtPxumZEA_Te5OX2mONVuLuBTc</resumptionToken>
  </ListIdentifiers>
</OAI-PMH>
