<?xml version='1.0' encoding='UTF-8'?>
<?xml-stylesheet type="text/xsl" href="/static/xsl/oai2.v1.0.xsl"?>
<OAI-PMH xmlns="http://www.openarchives.org/OAI/2.0/" xmlns:xsi="http://www.w3.org/2001/XMLSchema-instance" xsi:schemaLocation="http://www.openarchives.org/OAI/2.0/ http://www.openarchives.org/OAI/2.0/OAI-PMH.xsd">
  <responseDate>2017-08-31T15:41:05Z</responseDate>
  <request verb="ListIdentifiers" resumptionToken=".eJyNysEKgjAYAOB3-c8Sv1u1ErqEJR1U1nKkl7ApUs0KV6iT3r0unev8fQOYsizAwxFFimzCxpMpEjKdk7EDRjU3rQ-nj4PaS62uOskD-dzWElNSscg3XeinNLIXjGvXijUne3fWJSfs-S55pHbbSbppBa5YaHkfnTefV9A40NkxuIvkutSCFE284r1wlyKj6vvcP5_9-XyzAAfueVWCN3Pg0uZNZcAbXq83KhlRBA.DIm_kQ._P8V1jV59yXuUBEjbZS55BlvIUE">https://zenodo.org/oai2d</request>
  <ListIdentifiers>
    <header>
      <identifier>oai:zenodo.org:281077</identifier>
      <datestamp>2017-02-09T04:41:16Z</datestamp>
      <setSpec>user-biosyslit</setSpec>
    </header>
    <header>
      <identifier>oai:zenodo.org:280345</identifier>
      <datestamp>2017-02-09T03:14:40Z</datestamp>
      <setSpec>user-biosyslit</setSpec>
    </header>
    <header>
      <identifier>oai:zenodo.org:580462</identifier>
      <datestamp>2017-05-17T07:16:15Z</datestamp>
      <setSpec>user-biosyslit</setSpec>
    </header>
    <header>
      <identifier>oai:zenodo.org:280764</identifier>
      <datestamp>2017-02-09T04:02:52Z</datestamp>
      <setSpec>user-biosyslit</setSpec>
    </header>
    <header>
      <identifier>oai:zenodo.org:579473</identifier>
      <datestamp>2017-05-18T06:56:15Z</datestamp>
      <setSpec>openaire</setSpec>
      <setSpec>user-biosyslit</setSpec>
    </header>
    <header>
      <identifier>oai:zenodo.org:280884</identifier>
      <datestamp>2017-02-09T04:16:38Z</datestamp>
      <setSpec>user-biosyslit</setSpec>
    </header>
    <header>
      <identifier>oai:zenodo.org:281730</identifier>
      <datestamp>2017-02-09T05:49:23Z</datestamp>
      <setSpec>user-biosyslit</setSpec>
    </header>
    <header>
      <identifier>oai:zenodo.org:280338</identifier>
      <datestamp>2017-02-09T03:12:57Z</datestamp>
      <setSpec>user-biosyslit</setSpec>
    </header>
    <header>
      <identifier>oai:zenodo.org:579370</identifier>
      <datestamp>2017-05-18T07:01:58Z</datestamp>
      <setSpec>openaire</setSpec>
      <setSpec>user-biosyslit</setSpec>
    </header>
    <header>
      <identifier>oai:zenodo.org:280616</identifier>
      <datestamp>2017-02-09T03:45:08Z</datestamp>
      <setSpec>user-biosyslit</setSpec>
    </header>
    <header>
      <identifier>oai:zenodo.org:579278</identifier>
      <datestamp>2017-05-18T07:04:09Z</datestamp>
      <setSpec>openaire</setSpec>
      <setSpec>user-biosyslit</setSpec>
    </header>
    <header>
      <identifier>oai:zenodo.org:579393</identifier>
      <datestamp>2017-05-18T07:01:17Z</datestamp>
      <setSpec>openaire</setSpec>
      <setSpec>user-biosyslit</setSpec>
    </header>
    <header>
      <identifier>oai:zenodo.org:579321</identifier>
      <datestamp>2017-05-18T07:03:11Z</datestamp>
      <setSpec>openaire</setSpec>
      <setSpec>user-biosyslit</setSpec>
    </header>
    <header>
      <identifier>oai:zenodo.org:280864</identifier>
      <datestamp>2017-02-09T04:14:40Z</datestamp>
      <setSpec>user-biosyslit</setSpec>
    </header>
    <header>
      <identifier>oai:zenodo.org:281142</identifier>
      <datestamp>2017-02-09T04:48:36Z</datestamp>
      <setSpec>user-biosyslit</setSpec>
    </header>
    <header>
      <identifier>oai:zenodo.org:282194</identifier>
      <datestamp>2017-02-09T06:36:13Z</datestamp>
      <setSpec>user-biosyslit</setSpec>
    </header>
    <header>
      <identifier>oai:zenodo.org:282554</identifier>
      <datestamp>2017-02-09T07:12:33Z</datestamp>
      <setSpec>user-biosyslit</setSpec>
    </header>
    <header>
      <identifier>oai:zenodo.org:580495</identifier>
      <datestamp>2017-05-17T08:08:13Z</datestamp>
      <setSpec>user-biosyslit</setSpec>
    </header>
    <header>
      <identifier>oai:zenodo.org:282398</identifier>
      <datestamp>2017-02-09T06:56:06Z</datestamp>
      <setSpec>user-biosyslit</setSpec>
    </header>
    <header>
      <identifier>oai:zenodo.org:281067</identifier>
      <datestamp>2017-02-09T04:40:05Z</datestamp>
      <setSpec>user-biosyslit</setSpec>
    </header>
    <header>
      <identifier>oai:zenodo.org:281510</identifier>
      <datestamp>2017-02-09T05:26:38Z</datestamp>
      <setSpec>user-biosyslit</setSpec>
    </header>
    <header>
      <identifier>oai:zenodo.org:281145</identifier>
      <datestamp>2017-02-09T04:48:59Z</datestamp>
      <setSpec>user-biosyslit</setSpec>
    </header>
    <header>
      <identifier>oai:zenodo.org:280037</identifier>
      <datestamp>2017-02-09T02:32:58Z</datestamp>
      <setSpec>user-biosyslit</setSpec>
    </header>
    <header>
      <identifier>oai:zenodo.org:280623</identifier>
      <datestamp>2017-02-09T03:45:35Z</datestamp>
      <setSpec>user-biosyslit</setSpec>
    </header>
    <header>
      <identifier>oai:zenodo.org:579925</identifier>
      <datestamp>2017-05-15T08:33:02Z</datestamp>
      <setSpec>user-biosyslit</setSpec>
    </header>
    <header>
      <identifier>oai:zenodo.org:280765</identifier>
      <datestamp>2017-02-09T04:02:55Z</datestamp>
      <setSpec>user-biosyslit</setSpec>
    </header>
    <header>
      <identifier>oai:zenodo.org:579289</identifier>
      <datestamp>2017-05-18T07:03:54Z</datestamp>
      <setSpec>openaire</setSpec>
      <setSpec>user-biosyslit</setSpec>
    </header>
    <header>
      <identifier>oai:zenodo.org:281851</identifier>
      <datestamp>2017-02-09T06:02:26Z</datestamp>
      <setSpec>user-biosyslit</setSpec>
    </header>
    <header>
      <identifier>oai:zenodo.org:281163</identifier>
      <datestamp>2017-02-09T04:49:55Z</datestamp>
      <setSpec>user-biosyslit</setSpec>
    </header>
    <header>
      <identifier>oai:zenodo.org:579511</identifier>
      <datestamp>2017-05-18T06:55:19Z</datestamp>
      <setSpec>openaire</setSpec>
      <setSpec>user-biosyslit</setSpec>
    </header>
    <header>
      <identifier>oai:zenodo.org:579448</identifier>
      <datestamp>2017-05-18T06:59:29Z</datestamp>
      <setSpec>openaire</setSpec>
      <setSpec>user-biosyslit</setSpec>
    </header>
    <header>
      <identifier>oai:zenodo.org:281045</identifier>
      <datestamp>2017-02-09T04:37:31Z</datestamp>
      <setSpec>user-biosyslit</setSpec>
    </header>
    <header>
      <identifier>oai:zenodo.org:281015</identifier>
      <datestamp>2017-02-09T04:34:09Z</datestamp>
      <setSpec>user-biosyslit</setSpec>
    </header>
    <header>
      <identifier>oai:zenodo.org:280866</identifier>
      <datestamp>2017-02-09T04:15:05Z</datestamp>
      <setSpec>user-biosyslit</setSpec>
    </header>
    <header>
      <identifier>oai:zenodo.org:281256</identifier>
      <datestamp>2017-02-09T05:01:22Z</datestamp>
      <setSpec>user-biosyslit</setSpec>
    </header>
    <header>
      <identifier>oai:zenodo.org:580875</identifier>
      <datestamp>2017-05-18T07:32:30Z</datestamp>
      <setSpec>user-biosyslit</setSpec>
    </header>
    <header>
      <identifier>oai:zenodo.org:281802</identifier>
      <datestamp>2017-02-09T05:56:55Z</datestamp>
      <setSpec>user-biosyslit</setSpec>
    </header>
    <header>
      <identifier>oai:zenodo.org:281171</identifier>
      <datestamp>2017-02-09T04:51:50Z</datestamp>
      <setSpec>user-biosyslit</setSpec>
    </header>
    <header>
      <identifier>oai:zenodo.org:281053</identifier>
      <datestamp>2017-02-09T04:37:58Z</datestamp>
      <setSpec>user-biosyslit</setSpec>
    </header>
    <header>
      <identifier>oai:zenodo.org:281164</identifier>
      <datestamp>2017-02-09T04:49:58Z</datestamp>
      <setSpec>user-biosyslit</setSpec>
    </header>
    <header>
      <identifier>oai:zenodo.org:281190</identifier>
      <datestamp>2017-02-09T04:53:38Z</datestamp>
      <setSpec>user-biosyslit</setSpec>
    </header>
    <header>
      <identifier>oai:zenodo.org:281772</identifier>
      <datestamp>2017-02-09T05:53:32Z</datestamp>
      <setSpec>user-biosyslit</setSpec>
    </header>
    <header>
      <identifier>oai:zenodo.org:282815</identifier>
      <datestamp>2017-02-09T07:40:20Z</datestamp>
      <setSpec>user-biosyslit</setSpec>
    </header>
    <header>
      <identifier>oai:zenodo.org:344394</identifier>
      <datestamp>2017-02-28T23:40:03Z</datestamp>
      <setSpec>user-biosyslit</setSpec>
    </header>
    <header>
      <identifier>oai:zenodo.org:345133</identifier>
      <datestamp>2017-03-03T10:01:02Z</datestamp>
      <setSpec>openaire</setSpec>
      <setSpec>user-biosyslit</setSpec>
    </header>
    <header>
      <identifier>oai:zenodo.org:344870</identifier>
      <datestamp>2017-03-02T07:46:41Z</datestamp>
      <setSpec>user-biosyslit</setSpec>
    </header>
    <header>
      <identifier>oai:zenodo.org:345279</identifier>
      <datestamp>2017-03-03T09:12:32Z</datestamp>
      <setSpec>user-biosyslit</setSpec>
    </header>
    <header>
      <identifier>oai:zenodo.org:280562</identifier>
      <datestamp>2017-02-09T03:38:17Z</datestamp>
      <setSpec>user-biosyslit</setSpec>
    </header>
    <header>
      <identifier>oai:zenodo.org:280231</identifier>
      <datestamp>2017-02-09T03:01:10Z</datestamp>
      <setSpec>user-biosyslit</setSpec>
    </header>
    <header>
      <identifier>oai:zenodo.org:280514</identifier>
      <datestamp>2017-02-09T03:32:39Z</datestamp>
      <setSpec>user-biosyslit</setSpec>
    </header>
    <header>
      <identifier>oai:zenodo.org:280145</identifier>
      <datestamp>2017-02-09T02:48:13Z</datestamp>
      <setSpec>user-biosyslit</setSpec>
    </header>
    <header>
      <identifier>oai:zenodo.org:280395</identifier>
      <datestamp>2017-02-09T03:19:57Z</datestamp>
      <setSpec>user-biosyslit</setSpec>
    </header>
    <header>
      <identifier>oai:zenodo.org:280150</identifier>
      <datestamp>2017-02-09T02:48:26Z</datestamp>
      <setSpec>user-biosyslit</setSpec>
    </header>
    <header>
      <identifier>oai:zenodo.org:281076</identifier>
      <datestamp>2017-02-09T04:41:24Z</datestamp>
      <setSpec>user-biosyslit</setSpec>
    </header>
    <header>
      <identifier>oai:zenodo.org:280147</identifier>
      <datestamp>2017-02-09T02:48:19Z</datestamp>
      <setSpec>user-biosyslit</setSpec>
    </header>
    <header>
      <identifier>oai:zenodo.org:280879</identifier>
      <datestamp>2017-02-09T04:15:47Z</datestamp>
      <setSpec>user-biosyslit</setSpec>
    </header>
    <header>
      <identifier>oai:zenodo.org:579428</identifier>
      <datestamp>2017-05-18T07:00:00Z</datestamp>
      <setSpec>openaire</setSpec>
      <setSpec>user-biosyslit</setSpec>
    </header>
    <header>
      <identifier>oai:zenodo.org:280228</identifier>
      <datestamp>2017-02-09T03:01:03Z</datestamp>
      <setSpec>user-biosyslit</setSpec>
    </header>
    <header>
      <identifier>oai:zenodo.org:579362</identifier>
      <datestamp>2017-05-18T07:02:07Z</datestamp>
      <setSpec>openaire</setSpec>
      <setSpec>user-biosyslit</setSpec>
    </header>
    <header>
      <identifier>oai:zenodo.org:280533</identifier>
      <datestamp>2017-02-09T03:35:06Z</datestamp>
      <setSpec>user-biosyslit</setSpec>
    </header>
    <header>
      <identifier>oai:zenodo.org:579306</identifier>
      <datestamp>2017-05-18T07:03:32Z</datestamp>
      <setSpec>openaire</setSpec>
      <setSpec>user-biosyslit</setSpec>
    </header>
    <header>
      <identifier>oai:zenodo.org:579512</identifier>
      <datestamp>2017-05-18T06:55:18Z</datestamp>
      <setSpec>openaire</setSpec>
      <setSpec>user-biosyslit</setSpec>
    </header>
    <header>
      <identifier>oai:zenodo.org:579236</identifier>
      <datestamp>2017-05-18T07:05:53Z</datestamp>
      <setSpec>openaire</setSpec>
      <setSpec>user-biosyslit</setSpec>
    </header>
    <header>
      <identifier>oai:zenodo.org:580160</identifier>
      <datestamp>2017-05-16T12:52:54Z</datestamp>
      <setSpec>user-biosyslit</setSpec>
    </header>
    <header>
      <identifier>oai:zenodo.org:579945</identifier>
      <datestamp>2017-05-15T08:47:17Z</datestamp>
      <setSpec>user-biosyslit</setSpec>
    </header>
    <header>
      <identifier>oai:zenodo.org:580205</identifier>
      <datestamp>2017-05-16T08:13:44Z</datestamp>
      <setSpec>user-biosyslit</setSpec>
    </header>
    <header>
      <identifier>oai:zenodo.org:580879</identifier>
      <datestamp>2017-05-18T07:32:54Z</datestamp>
      <setSpec>user-biosyslit</setSpec>
    </header>
    <header>
      <identifier>oai:zenodo.org:580175</identifier>
      <datestamp>2017-05-16T07:37:53Z</datestamp>
      <setSpec>user-biosyslit</setSpec>
    </header>
    <header>
      <identifier>oai:zenodo.org:280523</identifier>
      <datestamp>2017-02-09T03:34:02Z</datestamp>
      <setSpec>user-biosyslit</setSpec>
    </header>
    <header>
      <identifier>oai:zenodo.org:281524</identifier>
      <datestamp>2017-02-09T05:27:52Z</datestamp>
      <setSpec>user-biosyslit</setSpec>
    </header>
    <header>
      <identifier>oai:zenodo.org:280953</identifier>
      <datestamp>2017-02-09T04:28:13Z</datestamp>
      <setSpec>user-biosyslit</setSpec>
    </header>
    <header>
      <identifier>oai:zenodo.org:280763</identifier>
      <datestamp>2017-02-09T04:03:04Z</datestamp>
      <setSpec>user-biosyslit</setSpec>
    </header>
    <header>
      <identifier>oai:zenodo.org:282955</identifier>
      <datestamp>2017-02-09T07:54:30Z</datestamp>
      <setSpec>user-biosyslit</setSpec>
    </header>
    <header>
      <identifier>oai:zenodo.org:280886</identifier>
      <datestamp>2017-02-09T04:16:45Z</datestamp>
      <setSpec>user-biosyslit</setSpec>
    </header>
    <header>
      <identifier>oai:zenodo.org:282685</identifier>
      <datestamp>2017-02-09T07:27:18Z</datestamp>
      <setSpec>user-biosyslit</setSpec>
    </header>
    <header>
      <identifier>oai:zenodo.org:580877</identifier>
      <datestamp>2017-05-18T07:32:43Z</datestamp>
      <setSpec>user-biosyslit</setSpec>
    </header>
    <header>
      <identifier>oai:zenodo.org:281260</identifier>
      <datestamp>2017-02-09T05:01:32Z</datestamp>
      <setSpec>user-biosyslit</setSpec>
    </header>
    <header>
      <identifier>oai:zenodo.org:281588</identifier>
      <datestamp>2017-02-09T05:34:45Z</datestamp>
      <setSpec>user-biosyslit</setSpec>
    </header>
    <header>
      <identifier>oai:zenodo.org:281511</identifier>
      <datestamp>2017-02-09T05:26:41Z</datestamp>
      <setSpec>user-biosyslit</setSpec>
    </header>
    <header>
      <identifier>oai:zenodo.org:281187</identifier>
      <datestamp>2017-02-09T04:53:42Z</datestamp>
      <setSpec>user-biosyslit</setSpec>
    </header>
    <header>
      <identifier>oai:zenodo.org:281892</identifier>
      <datestamp>2017-02-09T06:07:36Z</datestamp>
      <setSpec>user-biosyslit</setSpec>
    </header>
    <header>
      <identifier>oai:zenodo.org:282743</identifier>
      <datestamp>2017-02-09T07:33:12Z</datestamp>
      <setSpec>user-biosyslit</setSpec>
    </header>
    <header>
      <identifier>oai:zenodo.org:280619</identifier>
      <datestamp>2017-02-09T03:45:02Z</datestamp>
      <setSpec>user-biosyslit</setSpec>
    </header>
    <header>
      <identifier>oai:zenodo.org:280797</identifier>
      <datestamp>2017-02-09T04:06:16Z</datestamp>
      <setSpec>user-biosyslit</setSpec>
    </header>
    <header>
      <identifier>oai:zenodo.org:281019</identifier>
      <datestamp>2017-02-09T04:34:20Z</datestamp>
      <setSpec>user-biosyslit</setSpec>
    </header>
    <header>
      <identifier>oai:zenodo.org:579903</identifier>
      <datestamp>2017-05-15T08:09:44Z</datestamp>
      <setSpec>user-biosyslit</setSpec>
    </header>
    <header>
      <identifier>oai:zenodo.org:280531</identifier>
      <datestamp>2017-02-09T03:34:23Z</datestamp>
      <setSpec>user-biosyslit</setSpec>
    </header>
    <header>
      <identifier>oai:zenodo.org:579203</identifier>
      <datestamp>2017-05-18T07:06:38Z</datestamp>
      <setSpec>openaire</setSpec>
      <setSpec>user-biosyslit</setSpec>
    </header>
    <header>
      <identifier>oai:zenodo.org:579913</identifier>
      <datestamp>2017-05-15T08:20:32Z</datestamp>
      <setSpec>user-biosyslit</setSpec>
    </header>
    <header>
      <identifier>oai:zenodo.org:579465</identifier>
      <datestamp>2017-05-18T06:56:24Z</datestamp>
      <setSpec>openaire</setSpec>
      <setSpec>user-biosyslit</setSpec>
    </header>
    <header>
      <identifier>oai:zenodo.org:280993</identifier>
      <datestamp>2017-02-09T04:32:32Z</datestamp>
      <setSpec>user-biosyslit</setSpec>
    </header>
    <header>
      <identifier>oai:zenodo.org:579858</identifier>
      <datestamp>2017-05-15T07:29:13Z</datestamp>
      <setSpec>user-biosyslit</setSpec>
    </header>
    <header>
      <identifier>oai:zenodo.org:280699</identifier>
      <datestamp>2017-02-09T03:54:02Z</datestamp>
      <setSpec>user-biosyslit</setSpec>
    </header>
    <header>
      <identifier>oai:zenodo.org:280793</identifier>
      <datestamp>2017-02-09T04:06:00Z</datestamp>
      <setSpec>user-biosyslit</setSpec>
    </header>
    <header>
      <identifier>oai:zenodo.org:579495</identifier>
      <datestamp>2017-05-18T06:55:48Z</datestamp>
      <setSpec>openaire</setSpec>
      <setSpec>user-biosyslit</setSpec>
    </header>
    <header>
      <identifier>oai:zenodo.org:580917</identifier>
      <datestamp>2017-05-18T08:00:16Z</datestamp>
      <setSpec>user-biosyslit</setSpec>
    </header>
    <header>
      <identifier>oai:zenodo.org:282907</identifier>
      <datestamp>2017-02-09T07:49:29Z</datestamp>
      <setSpec>user-biosyslit</setSpec>
    </header>
    <header>
      <identifier>oai:zenodo.org:580330</identifier>
      <datestamp>2017-05-17T14:02:23Z</datestamp>
      <setSpec>openaire</setSpec>
      <setSpec>user-biosyslit</setSpec>
    </header>
    <header>
      <identifier>oai:zenodo.org:280733</identifier>
      <datestamp>2017-02-09T03:59:33Z</datestamp>
      <setSpec>user-biosyslit</setSpec>
    </header>
    <header>
      <identifier>oai:zenodo.org:580938</identifier>
      <datestamp>2017-05-18T08:26:46Z</datestamp>
      <setSpec>user-biosyslit</setSpec>
    </header>
    <resumptionToken expirationDate="2017-08-31T15:43:05Z" cursor="700" completeListSize="77796">.eJyNyrsOgjAUANB_uTMxt9QHkrgYlDgAqbVEWAwWQpSChmqEGv5dFmedz3mDLoocXJzMkODcmZLpzEGbLKkFWrY3pU6XkUEeYyUbJTI_fu7rGBO7XISe7gIvoaGpMKqJ4VtmH4nTiQv27CAeidl3Md29OG4WgWF9eN2NL6eRr9Kzf-eiWStu5220YT0na55S-X3kz2d-Pk-vwIJ7VhbgLi2oXllbanDfw_AB8l9QzQ.DIm_kQ.sitKXxuw5G-yIlm3oBufITtvhkQ</resumptionToken>
  </ListIdentifiers>
</OAI-PMH>
