<?xml version='1.0' encoding='UTF-8'?>
<?xml-stylesheet type="text/xsl" href="/static/xsl/oai2.v1.0.xsl"?>
<OAI-PMH xmlns="http://www.openarchives.org/OAI/2.0/" xmlns:xsi="http://www.w3.org/2001/XMLSchema-instance" xsi:schemaLocation="http://www.openarchives.org/OAI/2.0/ http://www.openarchives.org/OAI/2.0/OAI-PMH.xsd">
  <responseDate>2017-08-31T15:45:45Z</responseDate>
  <request verb="ListIdentifiers" resumptionToken=".eJyNysEOQzAYAOB3-c-ytLphkl2EiQNCR8ZlMURMmegWVLz7XHbezt-3AC_LAnS0O2raQSYqIhgjZa-oEvB8eDJ2qzeG_BqzvGNRZsfvsI1RIleqZ_LJNRPiiQb5LRb0HMhXrE1RjebgEr0SEU4xcUaKLNUVwew9nO0VxLdZerd7GnUGo3Ix-FYwU2zQlOTfh_984ucz-Qkk6LOqBF3RkATNmA0VB31Z1w-cvVE_.DInAqA.1e-W58S_wFfRwA5rjAqk3LQmQ9g">https://zenodo.org/oai2d</request>
  <ListIdentifiers>
    <header>
      <identifier>oai:zenodo.org:278567</identifier>
      <datestamp>2017-02-08T23:25:14Z</datestamp>
      <setSpec>user-biosyslit</setSpec>
    </header>
    <header>
      <identifier>oai:zenodo.org:286544</identifier>
      <datestamp>2017-02-09T16:13:32Z</datestamp>
      <setSpec>user-biosyslit</setSpec>
    </header>
    <header>
      <identifier>oai:zenodo.org:286533</identifier>
      <datestamp>2017-02-09T16:13:04Z</datestamp>
      <setSpec>user-biosyslit</setSpec>
    </header>
    <header>
      <identifier>oai:zenodo.org:286550</identifier>
      <datestamp>2017-02-09T16:13:48Z</datestamp>
      <setSpec>user-biosyslit</setSpec>
    </header>
    <header>
      <identifier>oai:zenodo.org:286551</identifier>
      <datestamp>2017-02-09T16:13:51Z</datestamp>
      <setSpec>user-biosyslit</setSpec>
    </header>
    <header>
      <identifier>oai:zenodo.org:286546</identifier>
      <datestamp>2017-02-09T16:13:38Z</datestamp>
      <setSpec>user-biosyslit</setSpec>
    </header>
    <header>
      <identifier>oai:zenodo.org:286534</identifier>
      <datestamp>2017-02-09T16:13:07Z</datestamp>
      <setSpec>user-biosyslit</setSpec>
    </header>
    <header>
      <identifier>oai:zenodo.org:286542</identifier>
      <datestamp>2017-02-09T16:13:27Z</datestamp>
      <setSpec>user-biosyslit</setSpec>
    </header>
    <header>
      <identifier>oai:zenodo.org:286537</identifier>
      <datestamp>2017-02-09T16:13:14Z</datestamp>
      <setSpec>user-biosyslit</setSpec>
    </header>
    <header>
      <identifier>oai:zenodo.org:286532</identifier>
      <datestamp>2017-02-09T16:13:01Z</datestamp>
      <setSpec>user-biosyslit</setSpec>
    </header>
    <header>
      <identifier>oai:zenodo.org:235862</identifier>
      <datestamp>2017-01-09T16:01:33Z</datestamp>
      <setSpec>user-biosyslit</setSpec>
    </header>
    <header>
      <identifier>oai:zenodo.org:235861</identifier>
      <datestamp>2017-01-09T16:01:30Z</datestamp>
      <setSpec>user-biosyslit</setSpec>
    </header>
    <header>
      <identifier>oai:zenodo.org:235860</identifier>
      <datestamp>2017-01-09T16:01:25Z</datestamp>
      <setSpec>user-biosyslit</setSpec>
    </header>
    <header>
      <identifier>oai:zenodo.org:235864</identifier>
      <datestamp>2017-01-09T16:01:39Z</datestamp>
      <setSpec>user-biosyslit</setSpec>
    </header>
    <header>
      <identifier>oai:zenodo.org:236151</identifier>
      <datestamp>2017-01-09T18:56:15Z</datestamp>
      <setSpec>user-biosyslit</setSpec>
    </header>
    <header>
      <identifier>oai:zenodo.org:275986</identifier>
      <datestamp>2017-02-08T17:47:00Z</datestamp>
      <setSpec>user-biosyslit</setSpec>
    </header>
    <header>
      <identifier>oai:zenodo.org:275984</identifier>
      <datestamp>2017-02-08T17:46:55Z</datestamp>
      <setSpec>user-biosyslit</setSpec>
    </header>
    <header>
      <identifier>oai:zenodo.org:275988</identifier>
      <datestamp>2017-02-08T17:47:05Z</datestamp>
      <setSpec>user-biosyslit</setSpec>
    </header>
    <header>
      <identifier>oai:zenodo.org:275990</identifier>
      <datestamp>2017-02-08T17:47:09Z</datestamp>
      <setSpec>user-biosyslit</setSpec>
    </header>
    <header>
      <identifier>oai:zenodo.org:275991</identifier>
      <datestamp>2017-02-08T17:47:11Z</datestamp>
      <setSpec>user-biosyslit</setSpec>
    </header>
    <header>
      <identifier>oai:zenodo.org:275985</identifier>
      <datestamp>2017-02-08T17:46:58Z</datestamp>
      <setSpec>user-biosyslit</setSpec>
    </header>
    <header>
      <identifier>oai:zenodo.org:231211</identifier>
      <datestamp>2017-01-05T17:20:46Z</datestamp>
      <setSpec>user-biosyslit</setSpec>
    </header>
    <header>
      <identifier>oai:zenodo.org:238605</identifier>
      <datestamp>2017-01-11T08:05:39Z</datestamp>
      <setSpec>user-biosyslit</setSpec>
    </header>
    <header>
      <identifier>oai:zenodo.org:231215</identifier>
      <datestamp>2017-01-05T17:20:45Z</datestamp>
      <setSpec>user-biosyslit</setSpec>
    </header>
    <header>
      <identifier>oai:zenodo.org:260490</identifier>
      <datestamp>2017-01-27T21:27:59Z</datestamp>
      <setSpec>user-biosyslit</setSpec>
    </header>
    <header>
      <identifier>oai:zenodo.org:260522</identifier>
      <datestamp>2017-01-27T21:27:24Z</datestamp>
      <setSpec>user-biosyslit</setSpec>
    </header>
    <header>
      <identifier>oai:zenodo.org:260517</identifier>
      <datestamp>2017-01-27T21:27:10Z</datestamp>
      <setSpec>user-biosyslit</setSpec>
    </header>
    <header>
      <identifier>oai:zenodo.org:260524</identifier>
      <datestamp>2017-01-27T21:27:32Z</datestamp>
      <setSpec>user-biosyslit</setSpec>
    </header>
    <header>
      <identifier>oai:zenodo.org:260532</identifier>
      <datestamp>2017-01-27T21:27:57Z</datestamp>
      <setSpec>user-biosyslit</setSpec>
    </header>
    <header>
      <identifier>oai:zenodo.org:260528</identifier>
      <datestamp>2017-01-27T21:27:45Z</datestamp>
      <setSpec>user-biosyslit</setSpec>
    </header>
    <header>
      <identifier>oai:zenodo.org:260515</identifier>
      <datestamp>2017-01-27T21:27:03Z</datestamp>
      <setSpec>user-biosyslit</setSpec>
    </header>
    <header>
      <identifier>oai:zenodo.org:260527</identifier>
      <datestamp>2017-01-27T21:27:43Z</datestamp>
      <setSpec>user-biosyslit</setSpec>
    </header>
    <header>
      <identifier>oai:zenodo.org:241192</identifier>
      <datestamp>2017-01-12T21:49:29Z</datestamp>
      <setSpec>user-biosyslit</setSpec>
    </header>
    <header>
      <identifier>oai:zenodo.org:245721</identifier>
      <datestamp>2017-01-15T17:55:25Z</datestamp>
      <setSpec>user-biosyslit</setSpec>
    </header>
    <header>
      <identifier>oai:zenodo.org:245726</identifier>
      <datestamp>2017-01-15T17:55:20Z</datestamp>
      <setSpec>user-biosyslit</setSpec>
    </header>
    <header>
      <identifier>oai:zenodo.org:245724</identifier>
      <datestamp>2017-01-15T17:55:13Z</datestamp>
      <setSpec>user-biosyslit</setSpec>
    </header>
    <header>
      <identifier>oai:zenodo.org:245725</identifier>
      <datestamp>2017-01-15T17:55:16Z</datestamp>
      <setSpec>user-biosyslit</setSpec>
    </header>
    <header>
      <identifier>oai:zenodo.org:289471</identifier>
      <datestamp>2017-02-09T23:34:07Z</datestamp>
      <setSpec>user-biosyslit</setSpec>
    </header>
    <header>
      <identifier>oai:zenodo.org:289470</identifier>
      <datestamp>2017-02-09T23:34:04Z</datestamp>
      <setSpec>user-biosyslit</setSpec>
    </header>
    <header>
      <identifier>oai:zenodo.org:289467</identifier>
      <datestamp>2017-02-09T23:33:56Z</datestamp>
      <setSpec>user-biosyslit</setSpec>
    </header>
    <header>
      <identifier>oai:zenodo.org:289465</identifier>
      <datestamp>2017-02-09T23:33:51Z</datestamp>
      <setSpec>user-biosyslit</setSpec>
    </header>
    <header>
      <identifier>oai:zenodo.org:278525</identifier>
      <datestamp>2017-02-08T23:20:14Z</datestamp>
      <setSpec>user-biosyslit</setSpec>
    </header>
    <header>
      <identifier>oai:zenodo.org:278524</identifier>
      <datestamp>2017-02-08T23:20:11Z</datestamp>
      <setSpec>user-biosyslit</setSpec>
    </header>
    <header>
      <identifier>oai:zenodo.org:278530</identifier>
      <datestamp>2017-02-08T23:20:28Z</datestamp>
      <setSpec>user-biosyslit</setSpec>
    </header>
    <header>
      <identifier>oai:zenodo.org:278527</identifier>
      <datestamp>2017-02-08T23:20:19Z</datestamp>
      <setSpec>user-biosyslit</setSpec>
    </header>
    <header>
      <identifier>oai:zenodo.org:273305</identifier>
      <datestamp>2017-02-08T08:57:23Z</datestamp>
      <setSpec>user-biosyslit</setSpec>
    </header>
    <header>
      <identifier>oai:zenodo.org:271764</identifier>
      <datestamp>2017-02-08T02:34:29Z</datestamp>
      <setSpec>user-biosyslit</setSpec>
    </header>
    <header>
      <identifier>oai:zenodo.org:271765</identifier>
      <datestamp>2017-02-08T02:34:31Z</datestamp>
      <setSpec>user-biosyslit</setSpec>
    </header>
    <header>
      <identifier>oai:zenodo.org:234760</identifier>
      <datestamp>2017-01-09T01:52:54Z</datestamp>
      <setSpec>user-biosyslit</setSpec>
    </header>
    <header>
      <identifier>oai:zenodo.org:234759</identifier>
      <datestamp>2017-01-09T01:52:51Z</datestamp>
      <setSpec>user-biosyslit</setSpec>
    </header>
    <header>
      <identifier>oai:zenodo.org:270344</identifier>
      <datestamp>2017-02-07T23:02:44Z</datestamp>
      <setSpec>user-biosyslit</setSpec>
    </header>
    <header>
      <identifier>oai:zenodo.org:233534</identifier>
      <datestamp>2017-01-08T08:14:12Z</datestamp>
      <setSpec>user-biosyslit</setSpec>
    </header>
    <header>
      <identifier>oai:zenodo.org:233535</identifier>
      <datestamp>2017-01-08T08:14:16Z</datestamp>
      <setSpec>user-biosyslit</setSpec>
    </header>
    <header>
      <identifier>oai:zenodo.org:280298</identifier>
      <datestamp>2017-02-09T03:08:50Z</datestamp>
      <setSpec>user-biosyslit</setSpec>
    </header>
    <header>
      <identifier>oai:zenodo.org:280300</identifier>
      <datestamp>2017-02-09T03:08:55Z</datestamp>
      <setSpec>user-biosyslit</setSpec>
    </header>
    <header>
      <identifier>oai:zenodo.org:280299</identifier>
      <datestamp>2017-02-09T03:08:52Z</datestamp>
      <setSpec>user-biosyslit</setSpec>
    </header>
    <header>
      <identifier>oai:zenodo.org:280301</identifier>
      <datestamp>2017-02-09T03:08:57Z</datestamp>
      <setSpec>user-biosyslit</setSpec>
    </header>
    <header>
      <identifier>oai:zenodo.org:270345</identifier>
      <datestamp>2017-02-07T23:02:43Z</datestamp>
      <setSpec>user-biosyslit</setSpec>
    </header>
    <header>
      <identifier>oai:zenodo.org:235767</identifier>
      <datestamp>2017-01-09T14:31:12Z</datestamp>
      <setSpec>user-biosyslit</setSpec>
    </header>
    <header>
      <identifier>oai:zenodo.org:235773</identifier>
      <datestamp>2017-01-09T14:31:32Z</datestamp>
      <setSpec>user-biosyslit</setSpec>
    </header>
    <header>
      <identifier>oai:zenodo.org:235761</identifier>
      <datestamp>2017-01-09T14:30:48Z</datestamp>
      <setSpec>user-biosyslit</setSpec>
    </header>
    <header>
      <identifier>oai:zenodo.org:235760</identifier>
      <datestamp>2017-01-09T14:30:43Z</datestamp>
      <setSpec>user-biosyslit</setSpec>
    </header>
    <header>
      <identifier>oai:zenodo.org:235771</identifier>
      <datestamp>2017-01-09T14:31:24Z</datestamp>
      <setSpec>user-biosyslit</setSpec>
    </header>
    <header>
      <identifier>oai:zenodo.org:235770</identifier>
      <datestamp>2017-01-09T14:31:20Z</datestamp>
      <setSpec>user-biosyslit</setSpec>
    </header>
    <header>
      <identifier>oai:zenodo.org:235763</identifier>
      <datestamp>2017-01-09T14:30:56Z</datestamp>
      <setSpec>user-biosyslit</setSpec>
    </header>
    <header>
      <identifier>oai:zenodo.org:235765</identifier>
      <datestamp>2017-01-09T14:31:04Z</datestamp>
      <setSpec>user-biosyslit</setSpec>
    </header>
    <header>
      <identifier>oai:zenodo.org:235769</identifier>
      <datestamp>2017-01-09T14:31:16Z</datestamp>
      <setSpec>user-biosyslit</setSpec>
    </header>
    <header>
      <identifier>oai:zenodo.org:241144</identifier>
      <datestamp>2017-01-12T21:19:54Z</datestamp>
      <setSpec>user-biosyslit</setSpec>
    </header>
    <header>
      <identifier>oai:zenodo.org:279927</identifier>
      <datestamp>2017-02-09T02:18:21Z</datestamp>
      <setSpec>user-biosyslit</setSpec>
    </header>
    <header>
      <identifier>oai:zenodo.org:242852</identifier>
      <datestamp>2017-01-13T19:50:33Z</datestamp>
      <setSpec>user-biosyslit</setSpec>
    </header>
    <header>
      <identifier>oai:zenodo.org:283740</identifier>
      <datestamp>2017-02-09T09:34:30Z</datestamp>
      <setSpec>user-biosyslit</setSpec>
    </header>
    <header>
      <identifier>oai:zenodo.org:262609</identifier>
      <datestamp>2017-01-29T06:17:03Z</datestamp>
      <setSpec>user-biosyslit</setSpec>
    </header>
    <header>
      <identifier>oai:zenodo.org:283728</identifier>
      <datestamp>2017-02-09T09:33:37Z</datestamp>
      <setSpec>user-biosyslit</setSpec>
    </header>
    <header>
      <identifier>oai:zenodo.org:283731</identifier>
      <datestamp>2017-02-09T09:33:27Z</datestamp>
      <setSpec>user-biosyslit</setSpec>
    </header>
    <header>
      <identifier>oai:zenodo.org:283730</identifier>
      <datestamp>2017-02-09T09:33:24Z</datestamp>
      <setSpec>user-biosyslit</setSpec>
    </header>
    <header>
      <identifier>oai:zenodo.org:283735</identifier>
      <datestamp>2017-02-09T09:33:35Z</datestamp>
      <setSpec>user-biosyslit</setSpec>
    </header>
    <header>
      <identifier>oai:zenodo.org:281576</identifier>
      <datestamp>2017-02-09T05:33:38Z</datestamp>
      <setSpec>user-biosyslit</setSpec>
    </header>
    <header>
      <identifier>oai:zenodo.org:262614</identifier>
      <datestamp>2017-01-29T06:16:52Z</datestamp>
      <setSpec>user-biosyslit</setSpec>
    </header>
    <header>
      <identifier>oai:zenodo.org:262617</identifier>
      <datestamp>2017-01-29T06:17:01Z</datestamp>
      <setSpec>user-biosyslit</setSpec>
    </header>
    <header>
      <identifier>oai:zenodo.org:262615</identifier>
      <datestamp>2017-01-29T06:16:56Z</datestamp>
      <setSpec>user-biosyslit</setSpec>
    </header>
    <header>
      <identifier>oai:zenodo.org:236377</identifier>
      <datestamp>2017-01-09T23:30:30Z</datestamp>
      <setSpec>user-biosyslit</setSpec>
    </header>
    <header>
      <identifier>oai:zenodo.org:231149</identifier>
      <datestamp>2017-01-05T15:46:43Z</datestamp>
      <setSpec>user-biosyslit</setSpec>
    </header>
    <header>
      <identifier>oai:zenodo.org:231151</identifier>
      <datestamp>2017-01-05T15:46:23Z</datestamp>
      <setSpec>user-biosyslit</setSpec>
    </header>
    <header>
      <identifier>oai:zenodo.org:241966</identifier>
      <datestamp>2017-01-13T08:39:06Z</datestamp>
      <setSpec>user-biosyslit</setSpec>
    </header>
    <header>
      <identifier>oai:zenodo.org:236380</identifier>
      <datestamp>2017-01-09T23:30:28Z</datestamp>
      <setSpec>user-biosyslit</setSpec>
    </header>
    <header>
      <identifier>oai:zenodo.org:268219</identifier>
      <datestamp>2017-02-03T04:25:33Z</datestamp>
      <setSpec>user-biosyslit</setSpec>
    </header>
    <header>
      <identifier>oai:zenodo.org:240838</identifier>
      <datestamp>2017-01-12T14:51:31Z</datestamp>
      <setSpec>user-biosyslit</setSpec>
    </header>
    <header>
      <identifier>oai:zenodo.org:240837</identifier>
      <datestamp>2017-01-12T14:51:28Z</datestamp>
      <setSpec>user-biosyslit</setSpec>
    </header>
    <header>
      <identifier>oai:zenodo.org:240840</identifier>
      <datestamp>2017-01-12T14:51:37Z</datestamp>
      <setSpec>user-biosyslit</setSpec>
    </header>
    <header>
      <identifier>oai:zenodo.org:240841</identifier>
      <datestamp>2017-01-12T14:51:40Z</datestamp>
      <setSpec>user-biosyslit</setSpec>
    </header>
    <header>
      <identifier>oai:zenodo.org:283669</identifier>
      <datestamp>2017-02-09T09:22:50Z</datestamp>
      <setSpec>user-biosyslit</setSpec>
    </header>
    <header>
      <identifier>oai:zenodo.org:283668</identifier>
      <datestamp>2017-02-09T09:22:48Z</datestamp>
      <setSpec>user-biosyslit</setSpec>
    </header>
    <header>
      <identifier>oai:zenodo.org:240845</identifier>
      <datestamp>2017-01-12T14:52:06Z</datestamp>
      <setSpec>user-biosyslit</setSpec>
    </header>
    <header>
      <identifier>oai:zenodo.org:240847</identifier>
      <datestamp>2017-01-12T14:52:12Z</datestamp>
      <setSpec>user-biosyslit</setSpec>
    </header>
    <header>
      <identifier>oai:zenodo.org:240844</identifier>
      <datestamp>2017-01-12T14:52:03Z</datestamp>
      <setSpec>user-biosyslit</setSpec>
    </header>
    <header>
      <identifier>oai:zenodo.org:271230</identifier>
      <datestamp>2017-02-08T01:10:39Z</datestamp>
      <setSpec>user-biosyslit</setSpec>
    </header>
    <header>
      <identifier>oai:zenodo.org:271259</identifier>
      <datestamp>2017-02-08T01:10:29Z</datestamp>
      <setSpec>user-biosyslit</setSpec>
    </header>
    <header>
      <identifier>oai:zenodo.org:271261</identifier>
      <datestamp>2017-02-08T01:10:38Z</datestamp>
      <setSpec>user-biosyslit</setSpec>
    </header>
    <header>
      <identifier>oai:zenodo.org:271258</identifier>
      <datestamp>2017-02-08T01:10:27Z</datestamp>
      <setSpec>user-biosyslit</setSpec>
    </header>
    <header>
      <identifier>oai:zenodo.org:271253</identifier>
      <datestamp>2017-02-08T01:10:08Z</datestamp>
      <setSpec>user-biosyslit</setSpec>
    </header>
    <resumptionToken expirationDate="2017-08-31T15:47:45Z" cursor="67900" completeListSize="77796">.eJyNyssKgkAUANB_uWuJeeAT2oQmLlRsUtJNmIqYo4lTpCP-e25a1_qcBURVlWChHTWQQUyimZhQTVVVTQFRjA_Or83mUFwSXvQ8zt3kdeoSlJJaD2wx-XZKA9misMOSHSNywcYUN2iOzvEzlacpod6bIUf3ZTQHd297JQ1dnt3cgcX9gTNSjqETzQwfWEaL78N_Pvnz2WIPCgx5XYGlGViB9p2PtQBrWdcP1pNReg.DInAqQ.1LlfYYMMvKt4HpTjFI5kz7MXRGw</resumptionToken>
  </ListIdentifiers>
</OAI-PMH>
