<?xml version='1.0' encoding='UTF-8'?>
<?xml-stylesheet type="text/xsl" href="/static/xsl/oai2.v1.0.xsl"?>
<OAI-PMH xmlns="http://www.openarchives.org/OAI/2.0/" xmlns:xsi="http://www.w3.org/2001/XMLSchema-instance" xsi:schemaLocation="http://www.openarchives.org/OAI/2.0/ http://www.openarchives.org/OAI/2.0/OAI-PMH.xsd">
  <responseDate>2017-08-31T15:43:43Z</responseDate>
  <request verb="ListIdentifiers" resumptionToken=".eJyNysEKgjAYAOB3-c8Sm9OmQhexxEPKWo70EqYi5TJxRTrp3evSuc7fN4Oq6wo8tKCOZVsuWbqOTW1kUQNUOdykPJ4_DOVByLKTaRGKx-4qUGY2NA7UuA0yEusWJVes-YaZB-yM6RlNbJ_eM70bBYmeHK3pVrMpvkSfV5EklPkp7Hna-ZKb1ZCs2cSxz3NSfh_-8-mfL1ArMKAvmho8C9sGtM9iaBR48-v1Bq-xUVA.DInALw.FIPPuYLWVSrUz-PwV5lmnW67ZqU">https://zenodo.org/oai2d</request>
  <ListIdentifiers>
    <header>
      <identifier>oai:zenodo.org:256254</identifier>
      <datestamp>2017-01-22T09:57:10Z</datestamp>
      <setSpec>user-biosyslit</setSpec>
    </header>
    <header>
      <identifier>oai:zenodo.org:255767</identifier>
      <datestamp>2017-01-21T21:51:38Z</datestamp>
      <setSpec>user-biosyslit</setSpec>
    </header>
    <header>
      <identifier>oai:zenodo.org:256060</identifier>
      <datestamp>2017-01-22T03:07:47Z</datestamp>
      <setSpec>user-biosyslit</setSpec>
    </header>
    <header>
      <identifier>oai:zenodo.org:256207</identifier>
      <datestamp>2017-01-22T06:59:37Z</datestamp>
      <setSpec>user-biosyslit</setSpec>
    </header>
    <header>
      <identifier>oai:zenodo.org:255957</identifier>
      <datestamp>2017-01-22T00:39:14Z</datestamp>
      <setSpec>user-biosyslit</setSpec>
    </header>
    <header>
      <identifier>oai:zenodo.org:256008</identifier>
      <datestamp>2017-01-22T02:08:03Z</datestamp>
      <setSpec>user-biosyslit</setSpec>
    </header>
    <header>
      <identifier>oai:zenodo.org:257108</identifier>
      <datestamp>2017-01-23T01:20:50Z</datestamp>
      <setSpec>user-biosyslit</setSpec>
    </header>
    <header>
      <identifier>oai:zenodo.org:257611</identifier>
      <datestamp>2017-01-23T11:10:38Z</datestamp>
      <setSpec>user-biosyslit</setSpec>
    </header>
    <header>
      <identifier>oai:zenodo.org:257199</identifier>
      <datestamp>2017-01-23T03:40:09Z</datestamp>
      <setSpec>user-biosyslit</setSpec>
    </header>
    <header>
      <identifier>oai:zenodo.org:257642</identifier>
      <datestamp>2017-01-23T11:37:09Z</datestamp>
      <setSpec>user-biosyslit</setSpec>
    </header>
    <header>
      <identifier>oai:zenodo.org:258544</identifier>
      <datestamp>2017-01-24T00:05:14Z</datestamp>
      <setSpec>user-biosyslit</setSpec>
    </header>
    <header>
      <identifier>oai:zenodo.org:257348</identifier>
      <datestamp>2017-01-23T05:42:06Z</datestamp>
      <setSpec>user-biosyslit</setSpec>
    </header>
    <header>
      <identifier>oai:zenodo.org:257880</identifier>
      <datestamp>2017-01-23T13:47:37Z</datestamp>
      <setSpec>user-biosyslit</setSpec>
    </header>
    <header>
      <identifier>oai:zenodo.org:258463</identifier>
      <datestamp>2017-01-23T23:20:01Z</datestamp>
      <setSpec>user-biosyslit</setSpec>
    </header>
    <header>
      <identifier>oai:zenodo.org:257990</identifier>
      <datestamp>2017-01-23T15:05:57Z</datestamp>
      <setSpec>user-biosyslit</setSpec>
    </header>
    <header>
      <identifier>oai:zenodo.org:257770</identifier>
      <datestamp>2017-01-23T13:26:27Z</datestamp>
      <setSpec>user-biosyslit</setSpec>
    </header>
    <header>
      <identifier>oai:zenodo.org:259050</identifier>
      <datestamp>2017-01-24T07:32:04Z</datestamp>
      <setSpec>user-biosyslit</setSpec>
    </header>
    <header>
      <identifier>oai:zenodo.org:258125</identifier>
      <datestamp>2017-01-23T16:45:58Z</datestamp>
      <setSpec>user-biosyslit</setSpec>
    </header>
    <header>
      <identifier>oai:zenodo.org:259289</identifier>
      <datestamp>2017-01-24T09:49:54Z</datestamp>
      <setSpec>user-biosyslit</setSpec>
    </header>
    <header>
      <identifier>oai:zenodo.org:258464</identifier>
      <datestamp>2017-01-23T23:28:16Z</datestamp>
      <setSpec>user-biosyslit</setSpec>
    </header>
    <header>
      <identifier>oai:zenodo.org:258715</identifier>
      <datestamp>2017-01-24T03:27:09Z</datestamp>
      <setSpec>user-biosyslit</setSpec>
    </header>
    <header>
      <identifier>oai:zenodo.org:259036</identifier>
      <datestamp>2017-01-24T07:31:24Z</datestamp>
      <setSpec>user-biosyslit</setSpec>
    </header>
    <header>
      <identifier>oai:zenodo.org:259305</identifier>
      <datestamp>2017-01-24T09:50:44Z</datestamp>
      <setSpec>user-biosyslit</setSpec>
    </header>
    <header>
      <identifier>oai:zenodo.org:260688</identifier>
      <datestamp>2017-01-27T23:28:07Z</datestamp>
      <setSpec>user-biosyslit</setSpec>
    </header>
    <header>
      <identifier>oai:zenodo.org:261383</identifier>
      <datestamp>2017-01-28T08:29:35Z</datestamp>
      <setSpec>user-biosyslit</setSpec>
    </header>
    <header>
      <identifier>oai:zenodo.org:259849</identifier>
      <datestamp>2017-01-25T16:53:21Z</datestamp>
      <setSpec>user-biosyslit</setSpec>
    </header>
    <header>
      <identifier>oai:zenodo.org:261421</identifier>
      <datestamp>2017-01-28T08:45:20Z</datestamp>
      <setSpec>user-biosyslit</setSpec>
    </header>
    <header>
      <identifier>oai:zenodo.org:262162</identifier>
      <datestamp>2017-01-28T22:20:14Z</datestamp>
      <setSpec>user-biosyslit</setSpec>
    </header>
    <header>
      <identifier>oai:zenodo.org:260988</identifier>
      <datestamp>2017-01-28T03:36:31Z</datestamp>
      <setSpec>user-biosyslit</setSpec>
    </header>
    <header>
      <identifier>oai:zenodo.org:274136</identifier>
      <datestamp>2017-02-08T12:14:31Z</datestamp>
      <setSpec>user-biosyslit</setSpec>
    </header>
    <header>
      <identifier>oai:zenodo.org:261445</identifier>
      <datestamp>2017-01-28T08:46:21Z</datestamp>
      <setSpec>user-biosyslit</setSpec>
    </header>
    <header>
      <identifier>oai:zenodo.org:261285</identifier>
      <datestamp>2017-01-28T07:37:22Z</datestamp>
      <setSpec>user-biosyslit</setSpec>
    </header>
    <header>
      <identifier>oai:zenodo.org:260720</identifier>
      <datestamp>2017-01-28T00:00:09Z</datestamp>
      <setSpec>user-biosyslit</setSpec>
    </header>
    <header>
      <identifier>oai:zenodo.org:260843</identifier>
      <datestamp>2017-01-28T01:21:02Z</datestamp>
      <setSpec>user-biosyslit</setSpec>
    </header>
    <header>
      <identifier>oai:zenodo.org:261547</identifier>
      <datestamp>2017-01-28T10:42:17Z</datestamp>
      <setSpec>user-biosyslit</setSpec>
    </header>
    <header>
      <identifier>oai:zenodo.org:261117</identifier>
      <datestamp>2017-01-28T05:13:57Z</datestamp>
      <setSpec>user-biosyslit</setSpec>
    </header>
    <header>
      <identifier>oai:zenodo.org:260807</identifier>
      <datestamp>2017-01-28T01:11:39Z</datestamp>
      <setSpec>user-biosyslit</setSpec>
    </header>
    <header>
      <identifier>oai:zenodo.org:273493</identifier>
      <datestamp>2017-02-08T09:29:59Z</datestamp>
      <setSpec>user-biosyslit</setSpec>
    </header>
    <header>
      <identifier>oai:zenodo.org:261910</identifier>
      <datestamp>2017-01-28T17:20:53Z</datestamp>
      <setSpec>user-biosyslit</setSpec>
    </header>
    <header>
      <identifier>oai:zenodo.org:262469</identifier>
      <datestamp>2017-01-29T04:33:37Z</datestamp>
      <setSpec>user-biosyslit</setSpec>
    </header>
    <header>
      <identifier>oai:zenodo.org:261716</identifier>
      <datestamp>2017-01-28T13:33:48Z</datestamp>
      <setSpec>user-biosyslit</setSpec>
    </header>
    <header>
      <identifier>oai:zenodo.org:262022</identifier>
      <datestamp>2017-01-28T19:27:27Z</datestamp>
      <setSpec>user-biosyslit</setSpec>
    </header>
    <header>
      <identifier>oai:zenodo.org:262321</identifier>
      <datestamp>2017-01-29T01:58:36Z</datestamp>
      <setSpec>user-biosyslit</setSpec>
    </header>
    <header>
      <identifier>oai:zenodo.org:262005</identifier>
      <datestamp>2017-01-28T19:19:02Z</datestamp>
      <setSpec>user-biosyslit</setSpec>
    </header>
    <header>
      <identifier>oai:zenodo.org:262260</identifier>
      <datestamp>2017-01-29T01:13:47Z</datestamp>
      <setSpec>user-biosyslit</setSpec>
    </header>
    <header>
      <identifier>oai:zenodo.org:262147</identifier>
      <datestamp>2017-01-28T22:03:03Z</datestamp>
      <setSpec>user-biosyslit</setSpec>
    </header>
    <header>
      <identifier>oai:zenodo.org:262376</identifier>
      <datestamp>2017-01-29T02:48:32Z</datestamp>
      <setSpec>user-biosyslit</setSpec>
    </header>
    <header>
      <identifier>oai:zenodo.org:262377</identifier>
      <datestamp>2017-01-29T02:48:36Z</datestamp>
      <setSpec>user-biosyslit</setSpec>
    </header>
    <header>
      <identifier>oai:zenodo.org:262309</identifier>
      <datestamp>2017-01-29T01:57:54Z</datestamp>
      <setSpec>user-biosyslit</setSpec>
    </header>
    <header>
      <identifier>oai:zenodo.org:274224</identifier>
      <datestamp>2017-02-08T12:30:29Z</datestamp>
      <setSpec>user-biosyslit</setSpec>
    </header>
    <header>
      <identifier>oai:zenodo.org:262522</identifier>
      <datestamp>2017-01-29T05:09:08Z</datestamp>
      <setSpec>user-biosyslit</setSpec>
    </header>
    <header>
      <identifier>oai:zenodo.org:262621</identifier>
      <datestamp>2017-01-29T06:20:25Z</datestamp>
      <setSpec>user-biosyslit</setSpec>
    </header>
    <header>
      <identifier>oai:zenodo.org:263098</identifier>
      <datestamp>2017-01-29T16:39:59Z</datestamp>
      <setSpec>user-biosyslit</setSpec>
    </header>
    <header>
      <identifier>oai:zenodo.org:263281</identifier>
      <datestamp>2017-01-29T20:29:54Z</datestamp>
      <setSpec>user-biosyslit</setSpec>
    </header>
    <header>
      <identifier>oai:zenodo.org:263089</identifier>
      <datestamp>2017-01-29T16:39:26Z</datestamp>
      <setSpec>user-biosyslit</setSpec>
    </header>
    <header>
      <identifier>oai:zenodo.org:263033</identifier>
      <datestamp>2017-01-29T15:04:41Z</datestamp>
      <setSpec>user-biosyslit</setSpec>
    </header>
    <header>
      <identifier>oai:zenodo.org:263644</identifier>
      <datestamp>2017-01-30T02:16:11Z</datestamp>
      <setSpec>user-biosyslit</setSpec>
    </header>
    <header>
      <identifier>oai:zenodo.org:263164</identifier>
      <datestamp>2017-01-29T17:56:51Z</datestamp>
      <setSpec>user-biosyslit</setSpec>
    </header>
    <header>
      <identifier>oai:zenodo.org:264662</identifier>
      <datestamp>2017-01-31T00:56:24Z</datestamp>
      <setSpec>user-biosyslit</setSpec>
    </header>
    <header>
      <identifier>oai:zenodo.org:263738</identifier>
      <datestamp>2017-01-30T07:18:52Z</datestamp>
      <setSpec>user-biosyslit</setSpec>
    </header>
    <header>
      <identifier>oai:zenodo.org:264083</identifier>
      <datestamp>2017-01-30T12:37:00Z</datestamp>
      <setSpec>user-biosyslit</setSpec>
    </header>
    <header>
      <identifier>oai:zenodo.org:264438</identifier>
      <datestamp>2017-01-30T21:35:22Z</datestamp>
      <setSpec>user-biosyslit</setSpec>
    </header>
    <header>
      <identifier>oai:zenodo.org:281000</identifier>
      <datestamp>2017-02-09T04:32:50Z</datestamp>
      <setSpec>user-biosyslit</setSpec>
    </header>
    <header>
      <identifier>oai:zenodo.org:264556</identifier>
      <datestamp>2017-01-30T23:20:51Z</datestamp>
      <setSpec>user-biosyslit</setSpec>
    </header>
    <header>
      <identifier>oai:zenodo.org:264542</identifier>
      <datestamp>2017-01-30T23:11:13Z</datestamp>
      <setSpec>user-biosyslit</setSpec>
    </header>
    <header>
      <identifier>oai:zenodo.org:265304</identifier>
      <datestamp>2017-01-31T11:46:25Z</datestamp>
      <setSpec>user-biosyslit</setSpec>
    </header>
    <header>
      <identifier>oai:zenodo.org:266241</identifier>
      <datestamp>2017-02-01T03:28:38Z</datestamp>
      <setSpec>user-biosyslit</setSpec>
    </header>
    <header>
      <identifier>oai:zenodo.org:265604</identifier>
      <datestamp>2017-01-31T17:31:14Z</datestamp>
      <setSpec>user-biosyslit</setSpec>
    </header>
    <header>
      <identifier>oai:zenodo.org:265059</identifier>
      <datestamp>2017-01-31T07:07:10Z</datestamp>
      <setSpec>user-biosyslit</setSpec>
    </header>
    <header>
      <identifier>oai:zenodo.org:265090</identifier>
      <datestamp>2017-01-31T07:56:08Z</datestamp>
      <setSpec>user-biosyslit</setSpec>
    </header>
    <header>
      <identifier>oai:zenodo.org:265330</identifier>
      <datestamp>2017-01-31T12:16:07Z</datestamp>
      <setSpec>user-biosyslit</setSpec>
    </header>
    <header>
      <identifier>oai:zenodo.org:265646</identifier>
      <datestamp>2017-01-31T18:20:40Z</datestamp>
      <setSpec>user-biosyslit</setSpec>
    </header>
    <header>
      <identifier>oai:zenodo.org:265642</identifier>
      <datestamp>2017-01-31T18:20:58Z</datestamp>
      <setSpec>user-biosyslit</setSpec>
    </header>
    <header>
      <identifier>oai:zenodo.org:267456</identifier>
      <datestamp>2017-02-02T02:26:58Z</datestamp>
      <setSpec>user-biosyslit</setSpec>
    </header>
    <header>
      <identifier>oai:zenodo.org:266157</identifier>
      <datestamp>2017-02-01T01:28:29Z</datestamp>
      <setSpec>user-biosyslit</setSpec>
    </header>
    <header>
      <identifier>oai:zenodo.org:266911</identifier>
      <datestamp>2017-02-01T16:33:05Z</datestamp>
      <setSpec>user-biosyslit</setSpec>
    </header>
    <header>
      <identifier>oai:zenodo.org:266176</identifier>
      <datestamp>2017-02-01T01:41:20Z</datestamp>
      <setSpec>user-biosyslit</setSpec>
    </header>
    <header>
      <identifier>oai:zenodo.org:267854</identifier>
      <datestamp>2017-02-02T08:16:38Z</datestamp>
      <setSpec>user-biosyslit</setSpec>
    </header>
    <header>
      <identifier>oai:zenodo.org:266498</identifier>
      <datestamp>2017-02-01T11:08:02Z</datestamp>
      <setSpec>user-biosyslit</setSpec>
    </header>
    <header>
      <identifier>oai:zenodo.org:266734</identifier>
      <datestamp>2017-02-01T14:28:27Z</datestamp>
      <setSpec>user-biosyslit</setSpec>
    </header>
    <header>
      <identifier>oai:zenodo.org:266561</identifier>
      <datestamp>2017-02-01T12:03:03Z</datestamp>
      <setSpec>user-biosyslit</setSpec>
    </header>
    <header>
      <identifier>oai:zenodo.org:268358</identifier>
      <datestamp>2017-02-03T12:17:38Z</datestamp>
      <setSpec>user-biosyslit</setSpec>
    </header>
    <header>
      <identifier>oai:zenodo.org:266632</identifier>
      <datestamp>2017-02-01T12:48:00Z</datestamp>
      <setSpec>user-biosyslit</setSpec>
    </header>
    <header>
      <identifier>oai:zenodo.org:267475</identifier>
      <datestamp>2017-02-02T02:50:38Z</datestamp>
      <setSpec>user-biosyslit</setSpec>
    </header>
    <header>
      <identifier>oai:zenodo.org:267265</identifier>
      <datestamp>2017-02-01T23:35:55Z</datestamp>
      <setSpec>user-biosyslit</setSpec>
    </header>
    <header>
      <identifier>oai:zenodo.org:266912</identifier>
      <datestamp>2017-02-01T16:33:11Z</datestamp>
      <setSpec>user-biosyslit</setSpec>
    </header>
    <header>
      <identifier>oai:zenodo.org:268090</identifier>
      <datestamp>2017-02-03T01:32:53Z</datestamp>
      <setSpec>user-biosyslit</setSpec>
    </header>
    <header>
      <identifier>oai:zenodo.org:267684</identifier>
      <datestamp>2017-02-02T05:45:11Z</datestamp>
      <setSpec>user-biosyslit</setSpec>
    </header>
    <header>
      <identifier>oai:zenodo.org:267097</identifier>
      <datestamp>2017-02-01T19:12:45Z</datestamp>
      <setSpec>user-biosyslit</setSpec>
    </header>
    <header>
      <identifier>oai:zenodo.org:267835</identifier>
      <datestamp>2017-02-02T07:50:50Z</datestamp>
      <setSpec>user-biosyslit</setSpec>
    </header>
    <header>
      <identifier>oai:zenodo.org:269107</identifier>
      <datestamp>2017-02-06T22:45:28Z</datestamp>
      <setSpec>user-biosyslit</setSpec>
    </header>
    <header>
      <identifier>oai:zenodo.org:269158</identifier>
      <datestamp>2017-02-06T22:54:18Z</datestamp>
      <setSpec>user-biosyslit</setSpec>
    </header>
    <header>
      <identifier>oai:zenodo.org:268274</identifier>
      <datestamp>2017-02-03T05:37:57Z</datestamp>
      <setSpec>user-biosyslit</setSpec>
    </header>
    <header>
      <identifier>oai:zenodo.org:269357</identifier>
      <datestamp>2017-02-06T23:58:18Z</datestamp>
      <setSpec>user-biosyslit</setSpec>
    </header>
    <header>
      <identifier>oai:zenodo.org:269081</identifier>
      <datestamp>2017-02-06T22:41:09Z</datestamp>
      <setSpec>user-biosyslit</setSpec>
    </header>
    <header>
      <identifier>oai:zenodo.org:275212</identifier>
      <datestamp>2017-02-08T15:42:51Z</datestamp>
      <setSpec>user-biosyslit</setSpec>
    </header>
    <header>
      <identifier>oai:zenodo.org:275362</identifier>
      <datestamp>2017-02-08T16:10:09Z</datestamp>
      <setSpec>user-biosyslit</setSpec>
    </header>
    <header>
      <identifier>oai:zenodo.org:275131</identifier>
      <datestamp>2017-02-08T15:22:25Z</datestamp>
      <setSpec>user-biosyslit</setSpec>
    </header>
    <header>
      <identifier>oai:zenodo.org:269543</identifier>
      <datestamp>2017-02-07T00:53:08Z</datestamp>
      <setSpec>user-biosyslit</setSpec>
    </header>
    <header>
      <identifier>oai:zenodo.org:275285</identifier>
      <datestamp>2017-02-08T15:58:31Z</datestamp>
      <setSpec>user-biosyslit</setSpec>
    </header>
    <resumptionToken expirationDate="2017-08-31T15:45:43Z" cursor="41400" completeListSize="77796">.eJyNysEKgjAYAOB3-c8Sm5OaQpfQpIOKrol6CVMRc5q4Ip307nnpXOfvW0BWVQkW2uiYUJNSgigykUFMooEsxrsQl2Z1KJJYFL3guRs_oy5GqV7vfFtOnp0SX7Uo6LBix1BPMJ14g-bwzB-piqaYnF4MOTtPhbN_O62vJIErsqs7MN4fBNPLMXDCmeEDy0jxffjPp34-W-5BgyGvK7AMvNWgfeVjLcFa3u8P1INRdA.DInALw.Mxmc5RZ1ItNnll7z6B7i5U332sI</resumptionToken>
  </ListIdentifiers>
</OAI-PMH>
