<?xml version='1.0' encoding='UTF-8'?>
<?xml-stylesheet type="text/xsl" href="/static/xsl/oai2.v1.0.xsl"?>
<OAI-PMH xmlns="http://www.openarchives.org/OAI/2.0/" xmlns:xsi="http://www.w3.org/2001/XMLSchema-instance" xsi:schemaLocation="http://www.openarchives.org/OAI/2.0/ http://www.openarchives.org/OAI/2.0/OAI-PMH.xsd">
  <responseDate>2017-08-31T15:42:19Z</responseDate>
  <request verb="ListIdentifiers" resumptionToken=".eJyNz00PQzAAgOH_0rMs1TIfyS7CxAGhI-OyWImYMtEtqPjvc9l5O7_P5V0Br6oSmPCANPVoKArUNd1QVUPFEuB0fDJ2a_YO6DVltGdJ4abvuEthhmotsPns2xkORAvDThbkHKGrrM9JA5fokrwyEc8p9iYCHc0X0RI8vN2VOHRZfncHkvQWI6gcQydaiGyRHNOvk_904qez-QlIYCjqCpgI7lftVIw1B-a6bR_kp1GA.DIm_2w.3qXhAF32rL5IbyGWJCf6d5dcJck">https://zenodo.org/oai2d</request>
  <ListIdentifiers>
    <header>
      <identifier>oai:zenodo.org:246466</identifier>
      <datestamp>2017-01-16T02:29:24Z</datestamp>
      <setSpec>user-biosyslit</setSpec>
    </header>
    <header>
      <identifier>oai:zenodo.org:247077</identifier>
      <datestamp>2017-01-16T11:09:32Z</datestamp>
      <setSpec>user-biosyslit</setSpec>
    </header>
    <header>
      <identifier>oai:zenodo.org:246458</identifier>
      <datestamp>2017-01-16T02:29:43Z</datestamp>
      <setSpec>user-biosyslit</setSpec>
    </header>
    <header>
      <identifier>oai:zenodo.org:246728</identifier>
      <datestamp>2017-01-16T07:16:40Z</datestamp>
      <setSpec>user-biosyslit</setSpec>
    </header>
    <header>
      <identifier>oai:zenodo.org:246677</identifier>
      <datestamp>2017-01-16T06:58:20Z</datestamp>
      <setSpec>user-biosyslit</setSpec>
    </header>
    <header>
      <identifier>oai:zenodo.org:246768</identifier>
      <datestamp>2017-01-16T07:45:13Z</datestamp>
      <setSpec>user-biosyslit</setSpec>
    </header>
    <header>
      <identifier>oai:zenodo.org:246716</identifier>
      <datestamp>2017-01-16T07:00:16Z</datestamp>
      <setSpec>user-biosyslit</setSpec>
    </header>
    <header>
      <identifier>oai:zenodo.org:246927</identifier>
      <datestamp>2017-01-16T10:05:29Z</datestamp>
      <setSpec>user-biosyslit</setSpec>
    </header>
    <header>
      <identifier>oai:zenodo.org:246673</identifier>
      <datestamp>2017-01-16T06:58:09Z</datestamp>
      <setSpec>user-biosyslit</setSpec>
    </header>
    <header>
      <identifier>oai:zenodo.org:247439</identifier>
      <datestamp>2017-01-16T15:29:29Z</datestamp>
      <setSpec>user-biosyslit</setSpec>
    </header>
    <header>
      <identifier>oai:zenodo.org:246869</identifier>
      <datestamp>2017-01-16T09:22:20Z</datestamp>
      <setSpec>user-biosyslit</setSpec>
    </header>
    <header>
      <identifier>oai:zenodo.org:246993</identifier>
      <datestamp>2017-01-16T10:09:26Z</datestamp>
      <setSpec>user-biosyslit</setSpec>
    </header>
    <header>
      <identifier>oai:zenodo.org:246891</identifier>
      <datestamp>2017-01-16T10:03:28Z</datestamp>
      <setSpec>user-biosyslit</setSpec>
    </header>
    <header>
      <identifier>oai:zenodo.org:246680</identifier>
      <datestamp>2017-01-16T06:58:28Z</datestamp>
      <setSpec>user-biosyslit</setSpec>
    </header>
    <header>
      <identifier>oai:zenodo.org:247008</identifier>
      <datestamp>2017-01-16T10:22:34Z</datestamp>
      <setSpec>user-biosyslit</setSpec>
    </header>
    <header>
      <identifier>oai:zenodo.org:247309</identifier>
      <datestamp>2017-01-16T14:07:26Z</datestamp>
      <setSpec>user-biosyslit</setSpec>
    </header>
    <header>
      <identifier>oai:zenodo.org:807004</identifier>
      <datestamp>2017-06-13T07:57:49Z</datestamp>
      <setSpec>user-biosyslit</setSpec>
    </header>
    <header>
      <identifier>oai:zenodo.org:807008</identifier>
      <datestamp>2017-06-13T07:57:42Z</datestamp>
      <setSpec>user-biosyslit</setSpec>
    </header>
    <header>
      <identifier>oai:zenodo.org:807018</identifier>
      <datestamp>2017-06-13T08:03:17Z</datestamp>
      <setSpec>user-biosyslit</setSpec>
    </header>
    <header>
      <identifier>oai:zenodo.org:806953</identifier>
      <datestamp>2017-06-13T07:40:52Z</datestamp>
      <setSpec>user-biosyslit</setSpec>
    </header>
    <header>
      <identifier>oai:zenodo.org:806957</identifier>
      <datestamp>2017-06-13T07:40:26Z</datestamp>
      <setSpec>user-biosyslit</setSpec>
    </header>
    <header>
      <identifier>oai:zenodo.org:806981</identifier>
      <datestamp>2017-06-13T07:47:59Z</datestamp>
      <setSpec>user-biosyslit</setSpec>
    </header>
    <header>
      <identifier>oai:zenodo.org:806967</identifier>
      <datestamp>2017-06-13T07:40:42Z</datestamp>
      <setSpec>user-biosyslit</setSpec>
    </header>
    <header>
      <identifier>oai:zenodo.org:806969</identifier>
      <datestamp>2017-06-13T07:40:45Z</datestamp>
      <setSpec>user-biosyslit</setSpec>
    </header>
    <header>
      <identifier>oai:zenodo.org:806979</identifier>
      <datestamp>2017-06-13T07:47:56Z</datestamp>
      <setSpec>user-biosyslit</setSpec>
    </header>
    <header>
      <identifier>oai:zenodo.org:806925</identifier>
      <datestamp>2017-06-13T07:17:58Z</datestamp>
      <setSpec>user-biosyslit</setSpec>
    </header>
    <header>
      <identifier>oai:zenodo.org:806933</identifier>
      <datestamp>2017-06-13T07:17:39Z</datestamp>
      <setSpec>user-biosyslit</setSpec>
    </header>
    <header>
      <identifier>oai:zenodo.org:806927</identifier>
      <datestamp>2017-06-13T07:17:29Z</datestamp>
      <setSpec>user-biosyslit</setSpec>
    </header>
    <header>
      <identifier>oai:zenodo.org:806943</identifier>
      <datestamp>2017-06-13T07:17:55Z</datestamp>
      <setSpec>user-biosyslit</setSpec>
    </header>
    <header>
      <identifier>oai:zenodo.org:806977</identifier>
      <datestamp>2017-06-13T07:48:19Z</datestamp>
      <setSpec>user-biosyslit</setSpec>
    </header>
    <header>
      <identifier>oai:zenodo.org:806994</identifier>
      <datestamp>2017-06-13T07:53:29Z</datestamp>
      <setSpec>user-biosyslit</setSpec>
    </header>
    <header>
      <identifier>oai:zenodo.org:806998</identifier>
      <datestamp>2017-06-13T07:53:20Z</datestamp>
      <setSpec>user-biosyslit</setSpec>
    </header>
    <header>
      <identifier>oai:zenodo.org:807000</identifier>
      <datestamp>2017-06-13T07:53:23Z</datestamp>
      <setSpec>user-biosyslit</setSpec>
    </header>
    <header>
      <identifier>oai:zenodo.org:807006</identifier>
      <datestamp>2017-06-13T07:57:38Z</datestamp>
      <setSpec>user-biosyslit</setSpec>
    </header>
    <header>
      <identifier>oai:zenodo.org:806985</identifier>
      <datestamp>2017-06-13T07:48:06Z</datestamp>
      <setSpec>user-biosyslit</setSpec>
    </header>
    <header>
      <identifier>oai:zenodo.org:806987</identifier>
      <datestamp>2017-06-13T07:48:09Z</datestamp>
      <setSpec>user-biosyslit</setSpec>
    </header>
    <header>
      <identifier>oai:zenodo.org:276237</identifier>
      <datestamp>2017-02-08T18:29:41Z</datestamp>
      <setSpec>user-biosyslit</setSpec>
    </header>
    <header>
      <identifier>oai:zenodo.org:276236</identifier>
      <datestamp>2017-02-08T18:29:39Z</datestamp>
      <setSpec>user-biosyslit</setSpec>
    </header>
    <header>
      <identifier>oai:zenodo.org:276241</identifier>
      <datestamp>2017-02-08T18:29:53Z</datestamp>
      <setSpec>user-biosyslit</setSpec>
    </header>
    <header>
      <identifier>oai:zenodo.org:276240</identifier>
      <datestamp>2017-02-08T18:29:51Z</datestamp>
      <setSpec>user-biosyslit</setSpec>
    </header>
    <header>
      <identifier>oai:zenodo.org:276242</identifier>
      <datestamp>2017-02-08T18:29:55Z</datestamp>
      <setSpec>user-biosyslit</setSpec>
    </header>
    <header>
      <identifier>oai:zenodo.org:276247</identifier>
      <datestamp>2017-02-08T18:30:10Z</datestamp>
      <setSpec>user-biosyslit</setSpec>
    </header>
    <header>
      <identifier>oai:zenodo.org:276253</identifier>
      <datestamp>2017-02-08T18:30:25Z</datestamp>
      <setSpec>user-biosyslit</setSpec>
    </header>
    <header>
      <identifier>oai:zenodo.org:276244</identifier>
      <datestamp>2017-02-08T18:30:03Z</datestamp>
      <setSpec>user-biosyslit</setSpec>
    </header>
    <header>
      <identifier>oai:zenodo.org:276263</identifier>
      <datestamp>2017-02-08T18:30:48Z</datestamp>
      <setSpec>user-biosyslit</setSpec>
    </header>
    <header>
      <identifier>oai:zenodo.org:276245</identifier>
      <datestamp>2017-02-08T18:30:05Z</datestamp>
      <setSpec>user-biosyslit</setSpec>
    </header>
    <header>
      <identifier>oai:zenodo.org:276246</identifier>
      <datestamp>2017-02-08T18:30:08Z</datestamp>
      <setSpec>user-biosyslit</setSpec>
    </header>
    <header>
      <identifier>oai:zenodo.org:276254</identifier>
      <datestamp>2017-02-08T18:30:28Z</datestamp>
      <setSpec>user-biosyslit</setSpec>
    </header>
    <header>
      <identifier>oai:zenodo.org:276251</identifier>
      <datestamp>2017-02-08T18:30:20Z</datestamp>
      <setSpec>user-biosyslit</setSpec>
    </header>
    <header>
      <identifier>oai:zenodo.org:276248</identifier>
      <datestamp>2017-02-08T18:30:12Z</datestamp>
      <setSpec>user-biosyslit</setSpec>
    </header>
    <header>
      <identifier>oai:zenodo.org:276235</identifier>
      <datestamp>2017-02-08T18:31:05Z</datestamp>
      <setSpec>user-biosyslit</setSpec>
    </header>
    <header>
      <identifier>oai:zenodo.org:277353</identifier>
      <datestamp>2017-02-08T20:57:20Z</datestamp>
      <setSpec>user-biosyslit</setSpec>
    </header>
    <header>
      <identifier>oai:zenodo.org:277355</identifier>
      <datestamp>2017-02-08T20:57:25Z</datestamp>
      <setSpec>user-biosyslit</setSpec>
    </header>
    <header>
      <identifier>oai:zenodo.org:276264</identifier>
      <datestamp>2017-02-08T18:30:51Z</datestamp>
      <setSpec>user-biosyslit</setSpec>
    </header>
    <header>
      <identifier>oai:zenodo.org:276268</identifier>
      <datestamp>2017-02-08T18:31:00Z</datestamp>
      <setSpec>user-biosyslit</setSpec>
    </header>
    <header>
      <identifier>oai:zenodo.org:276266</identifier>
      <datestamp>2017-02-08T18:30:56Z</datestamp>
      <setSpec>user-biosyslit</setSpec>
    </header>
    <header>
      <identifier>oai:zenodo.org:276265</identifier>
      <datestamp>2017-02-08T18:30:53Z</datestamp>
      <setSpec>user-biosyslit</setSpec>
    </header>
    <header>
      <identifier>oai:zenodo.org:276269</identifier>
      <datestamp>2017-02-08T18:31:03Z</datestamp>
      <setSpec>user-biosyslit</setSpec>
    </header>
    <header>
      <identifier>oai:zenodo.org:277356</identifier>
      <datestamp>2017-02-08T20:57:28Z</datestamp>
      <setSpec>user-biosyslit</setSpec>
    </header>
    <header>
      <identifier>oai:zenodo.org:277348</identifier>
      <datestamp>2017-02-08T20:57:40Z</datestamp>
      <setSpec>user-biosyslit</setSpec>
    </header>
    <header>
      <identifier>oai:zenodo.org:277360</identifier>
      <datestamp>2017-02-08T20:57:39Z</datestamp>
      <setSpec>user-biosyslit</setSpec>
    </header>
    <header>
      <identifier>oai:zenodo.org:270491</identifier>
      <datestamp>2017-02-07T23:21:18Z</datestamp>
      <setSpec>user-biosyslit</setSpec>
    </header>
    <header>
      <identifier>oai:zenodo.org:270494</identifier>
      <datestamp>2017-02-07T23:21:31Z</datestamp>
      <setSpec>user-biosyslit</setSpec>
    </header>
    <header>
      <identifier>oai:zenodo.org:270496</identifier>
      <datestamp>2017-02-07T23:21:38Z</datestamp>
      <setSpec>user-biosyslit</setSpec>
    </header>
    <header>
      <identifier>oai:zenodo.org:270497</identifier>
      <datestamp>2017-02-07T23:21:41Z</datestamp>
      <setSpec>user-biosyslit</setSpec>
    </header>
    <header>
      <identifier>oai:zenodo.org:270495</identifier>
      <datestamp>2017-02-07T23:21:34Z</datestamp>
      <setSpec>user-biosyslit</setSpec>
    </header>
    <header>
      <identifier>oai:zenodo.org:270498</identifier>
      <datestamp>2017-02-07T23:21:44Z</datestamp>
      <setSpec>user-biosyslit</setSpec>
    </header>
    <header>
      <identifier>oai:zenodo.org:270502</identifier>
      <datestamp>2017-02-07T23:21:56Z</datestamp>
      <setSpec>user-biosyslit</setSpec>
    </header>
    <header>
      <identifier>oai:zenodo.org:270501</identifier>
      <datestamp>2017-02-07T23:21:53Z</datestamp>
      <setSpec>user-biosyslit</setSpec>
    </header>
    <header>
      <identifier>oai:zenodo.org:270490</identifier>
      <datestamp>2017-02-07T23:22:23Z</datestamp>
      <setSpec>user-biosyslit</setSpec>
    </header>
    <header>
      <identifier>oai:zenodo.org:270509</identifier>
      <datestamp>2017-02-07T23:22:14Z</datestamp>
      <setSpec>user-biosyslit</setSpec>
    </header>
    <header>
      <identifier>oai:zenodo.org:270507</identifier>
      <datestamp>2017-02-07T23:22:09Z</datestamp>
      <setSpec>user-biosyslit</setSpec>
    </header>
    <header>
      <identifier>oai:zenodo.org:270510</identifier>
      <datestamp>2017-02-07T23:22:16Z</datestamp>
      <setSpec>user-biosyslit</setSpec>
    </header>
    <header>
      <identifier>oai:zenodo.org:270511</identifier>
      <datestamp>2017-02-07T23:22:19Z</datestamp>
      <setSpec>user-biosyslit</setSpec>
    </header>
    <header>
      <identifier>oai:zenodo.org:270506</identifier>
      <datestamp>2017-02-07T23:22:07Z</datestamp>
      <setSpec>user-biosyslit</setSpec>
    </header>
    <header>
      <identifier>oai:zenodo.org:270512</identifier>
      <datestamp>2017-02-07T23:22:21Z</datestamp>
      <setSpec>user-biosyslit</setSpec>
    </header>
    <header>
      <identifier>oai:zenodo.org:262868</identifier>
      <datestamp>2017-01-29T10:39:30Z</datestamp>
      <setSpec>user-biosyslit</setSpec>
    </header>
    <header>
      <identifier>oai:zenodo.org:279123</identifier>
      <datestamp>2017-02-09T00:40:05Z</datestamp>
      <setSpec>user-biosyslit</setSpec>
    </header>
    <header>
      <identifier>oai:zenodo.org:279127</identifier>
      <datestamp>2017-02-09T00:40:03Z</datestamp>
      <setSpec>user-biosyslit</setSpec>
    </header>
    <header>
      <identifier>oai:zenodo.org:279126</identifier>
      <datestamp>2017-02-09T00:40:01Z</datestamp>
      <setSpec>user-biosyslit</setSpec>
    </header>
    <header>
      <identifier>oai:zenodo.org:279125</identifier>
      <datestamp>2017-02-09T00:39:59Z</datestamp>
      <setSpec>user-biosyslit</setSpec>
    </header>
    <header>
      <identifier>oai:zenodo.org:247749</identifier>
      <datestamp>2017-01-16T19:24:27Z</datestamp>
      <setSpec>user-biosyslit</setSpec>
    </header>
    <header>
      <identifier>oai:zenodo.org:247751</identifier>
      <datestamp>2017-01-16T19:24:12Z</datestamp>
      <setSpec>user-biosyslit</setSpec>
    </header>
    <header>
      <identifier>oai:zenodo.org:266082</identifier>
      <datestamp>2017-02-01T00:04:57Z</datestamp>
      <setSpec>user-biosyslit</setSpec>
    </header>
    <header>
      <identifier>oai:zenodo.org:247750</identifier>
      <datestamp>2017-01-16T19:24:07Z</datestamp>
      <setSpec>user-biosyslit</setSpec>
    </header>
    <header>
      <identifier>oai:zenodo.org:238242</identifier>
      <datestamp>2017-01-11T02:49:53Z</datestamp>
      <setSpec>user-biosyslit</setSpec>
    </header>
    <header>
      <identifier>oai:zenodo.org:238247</identifier>
      <datestamp>2017-01-11T02:50:11Z</datestamp>
      <setSpec>user-biosyslit</setSpec>
    </header>
    <header>
      <identifier>oai:zenodo.org:238241</identifier>
      <datestamp>2017-01-11T02:49:50Z</datestamp>
      <setSpec>user-biosyslit</setSpec>
    </header>
    <header>
      <identifier>oai:zenodo.org:238243</identifier>
      <datestamp>2017-01-11T02:49:57Z</datestamp>
      <setSpec>user-biosyslit</setSpec>
    </header>
    <header>
      <identifier>oai:zenodo.org:289000</identifier>
      <datestamp>2017-02-09T22:22:30Z</datestamp>
      <setSpec>user-biosyslit</setSpec>
    </header>
    <header>
      <identifier>oai:zenodo.org:289001</identifier>
      <datestamp>2017-02-09T22:22:26Z</datestamp>
      <setSpec>user-biosyslit</setSpec>
    </header>
    <header>
      <identifier>oai:zenodo.org:289002</identifier>
      <datestamp>2017-02-09T22:22:29Z</datestamp>
      <setSpec>user-biosyslit</setSpec>
    </header>
    <header>
      <identifier>oai:zenodo.org:273810</identifier>
      <datestamp>2017-02-08T10:49:08Z</datestamp>
      <setSpec>user-biosyslit</setSpec>
    </header>
    <header>
      <identifier>oai:zenodo.org:273812</identifier>
      <datestamp>2017-02-08T10:49:13Z</datestamp>
      <setSpec>user-biosyslit</setSpec>
    </header>
    <header>
      <identifier>oai:zenodo.org:236833</identifier>
      <datestamp>2017-01-10T06:12:20Z</datestamp>
      <setSpec>user-biosyslit</setSpec>
    </header>
    <header>
      <identifier>oai:zenodo.org:236816</identifier>
      <datestamp>2017-01-10T06:11:16Z</datestamp>
      <setSpec>user-biosyslit</setSpec>
    </header>
    <header>
      <identifier>oai:zenodo.org:236822</identifier>
      <datestamp>2017-01-10T06:11:38Z</datestamp>
      <setSpec>user-biosyslit</setSpec>
    </header>
    <header>
      <identifier>oai:zenodo.org:236828</identifier>
      <datestamp>2017-01-10T06:11:58Z</datestamp>
      <setSpec>user-biosyslit</setSpec>
    </header>
    <header>
      <identifier>oai:zenodo.org:236832</identifier>
      <datestamp>2017-01-10T06:12:16Z</datestamp>
      <setSpec>user-biosyslit</setSpec>
    </header>
    <header>
      <identifier>oai:zenodo.org:236827</identifier>
      <datestamp>2017-01-10T06:11:54Z</datestamp>
      <setSpec>user-biosyslit</setSpec>
    </header>
    <resumptionToken expirationDate="2017-08-31T15:44:19Z" cursor="20200" completeListSize="77796">.eJyNysEKgjAYAOB3-c8S29RmQhexpIPKWo70EqYi1TRxRTrx3evSuc7fN4GqqhJctFgtqWPbFqbUpgQ51ABV9HcpT5cPQ3EUsmhlkgfiuW8ESklNI18NoZ-akb6huMGabxk5YmdILmhkh-SR6v0gzN2Low0NNRuj6-7zSjMOZHYOOp60nuSk7OMNGzn2eGYW34f_fPrn89UaDOjyugKXIMuA2yvvawXuNM9vrMBRSQ.DIm_2w.34Yq-NBNVHem67UgBbAj-ls-D-k</resumptionToken>
  </ListIdentifiers>
</OAI-PMH>
