<?xml version='1.0' encoding='UTF-8'?>
<?xml-stylesheet type="text/xsl" href="/static/xsl/oai2.v1.0.xsl"?>
<OAI-PMH xmlns="http://www.openarchives.org/OAI/2.0/" xmlns:xsi="http://www.w3.org/2001/XMLSchema-instance" xsi:schemaLocation="http://www.openarchives.org/OAI/2.0/ http://www.openarchives.org/OAI/2.0/OAI-PMH.xsd">
  <responseDate>2017-08-31T14:18:03Z</responseDate>
  <request verb="ListIdentifiers" resumptionToken=".eJwVzWFvQ0AcgPHvcq9luTtV5V2FSZf9iXKnvFnsGJ1jhgXX9Lu3e_0kv-eGpqoqkY1fqLHbGwfDsggxTLI3dA1NYvyR8uP67EhcuBS9ZIXP_84dxxmtzcCdVnAzEiRMhR1R8WtEL-SwsiveooTNmTqvXD8tMfZMUNECqqZhV-qhL_NPf4hZ78iYlmPoRVtMnDjXhQnJkT49At_DLHDDAml9AT_N0HrkPQUseLmBNzuhAgwu7IJk6EvVDGm6_jL5tuRs7gvVeNDOEft_qaOJNDQUdYVsQjXULsVYT8i-3e8PqJ1SQg.DImrsA.3Zfe7AegbRWdnSuOXYZ4GYShwac">https://zenodo.org/oai2d</request>
  <ListIdentifiers>
    <header>
      <identifier>oai:zenodo.org:270254</identifier>
      <datestamp>2017-02-07T22:54:38Z</datestamp>
      <setSpec>user-biosyslit</setSpec>
    </header>
    <header>
      <identifier>oai:zenodo.org:276051</identifier>
      <datestamp>2017-02-08T18:02:04Z</datestamp>
      <setSpec>user-biosyslit</setSpec>
    </header>
    <header>
      <identifier>oai:zenodo.org:274843</identifier>
      <datestamp>2017-02-08T14:35:31Z</datestamp>
      <setSpec>user-biosyslit</setSpec>
    </header>
    <header>
      <identifier>oai:zenodo.org:270211</identifier>
      <datestamp>2017-02-07T22:32:19Z</datestamp>
      <setSpec>user-biosyslit</setSpec>
    </header>
    <header>
      <identifier>oai:zenodo.org:269382</identifier>
      <datestamp>2017-02-06T23:59:47Z</datestamp>
      <setSpec>user-biosyslit</setSpec>
    </header>
    <header>
      <identifier>oai:zenodo.org:269589</identifier>
      <datestamp>2017-02-07T01:04:12Z</datestamp>
      <setSpec>user-biosyslit</setSpec>
    </header>
    <header>
      <identifier>oai:zenodo.org:271070</identifier>
      <datestamp>2017-02-08T00:41:44Z</datestamp>
      <setSpec>user-biosyslit</setSpec>
    </header>
    <header>
      <identifier>oai:zenodo.org:269596</identifier>
      <datestamp>2017-02-07T01:05:19Z</datestamp>
      <setSpec>user-biosyslit</setSpec>
    </header>
    <header>
      <identifier>oai:zenodo.org:232208</identifier>
      <datestamp>2017-01-06T12:57:58Z</datestamp>
      <setSpec>user-biosyslit</setSpec>
    </header>
    <header>
      <identifier>oai:zenodo.org:275040</identifier>
      <datestamp>2017-02-08T15:08:33Z</datestamp>
      <setSpec>user-biosyslit</setSpec>
    </header>
    <header>
      <identifier>oai:zenodo.org:275325</identifier>
      <datestamp>2017-02-08T16:06:44Z</datestamp>
      <setSpec>user-biosyslit</setSpec>
    </header>
    <header>
      <identifier>oai:zenodo.org:270452</identifier>
      <datestamp>2017-02-07T23:16:08Z</datestamp>
      <setSpec>user-biosyslit</setSpec>
    </header>
    <header>
      <identifier>oai:zenodo.org:234605</identifier>
      <datestamp>2017-01-08T22:36:54Z</datestamp>
      <setSpec>user-biosyslit</setSpec>
    </header>
    <header>
      <identifier>oai:zenodo.org:232794</identifier>
      <datestamp>2017-01-06T23:13:54Z</datestamp>
      <setSpec>user-biosyslit</setSpec>
    </header>
    <header>
      <identifier>oai:zenodo.org:192621</identifier>
      <datestamp>2017-01-09T09:24:50Z</datestamp>
      <setSpec>user-biosyslit</setSpec>
    </header>
    <header>
      <identifier>oai:zenodo.org:276526</identifier>
      <datestamp>2017-02-08T19:05:36Z</datestamp>
      <setSpec>user-biosyslit</setSpec>
    </header>
    <header>
      <identifier>oai:zenodo.org:232841</identifier>
      <datestamp>2017-01-07T00:16:38Z</datestamp>
      <setSpec>user-biosyslit</setSpec>
    </header>
    <header>
      <identifier>oai:zenodo.org:276743</identifier>
      <datestamp>2017-02-08T19:34:08Z</datestamp>
      <setSpec>user-biosyslit</setSpec>
    </header>
    <header>
      <identifier>oai:zenodo.org:276915</identifier>
      <datestamp>2017-02-08T19:57:50Z</datestamp>
      <setSpec>user-biosyslit</setSpec>
    </header>
    <header>
      <identifier>oai:zenodo.org:277621</identifier>
      <datestamp>2017-02-08T21:30:11Z</datestamp>
      <setSpec>user-biosyslit</setSpec>
    </header>
    <header>
      <identifier>oai:zenodo.org:276830</identifier>
      <datestamp>2017-02-08T19:46:25Z</datestamp>
      <setSpec>user-biosyslit</setSpec>
    </header>
    <header>
      <identifier>oai:zenodo.org:233793</identifier>
      <datestamp>2017-01-08T11:53:20Z</datestamp>
      <setSpec>user-biosyslit</setSpec>
    </header>
    <header>
      <identifier>oai:zenodo.org:235210</identifier>
      <datestamp>2017-01-09T06:43:46Z</datestamp>
      <setSpec>user-biosyslit</setSpec>
    </header>
    <header>
      <identifier>oai:zenodo.org:276758</identifier>
      <datestamp>2017-02-08T19:37:55Z</datestamp>
      <setSpec>user-biosyslit</setSpec>
    </header>
    <header>
      <identifier>oai:zenodo.org:276824</identifier>
      <datestamp>2017-02-08T19:46:08Z</datestamp>
      <setSpec>user-biosyslit</setSpec>
    </header>
    <header>
      <identifier>oai:zenodo.org:277283</identifier>
      <datestamp>2017-02-08T20:47:29Z</datestamp>
      <setSpec>user-biosyslit</setSpec>
    </header>
    <header>
      <identifier>oai:zenodo.org:276925</identifier>
      <datestamp>2017-02-08T19:58:16Z</datestamp>
      <setSpec>user-biosyslit</setSpec>
    </header>
    <header>
      <identifier>oai:zenodo.org:234897</identifier>
      <datestamp>2017-01-09T03:13:47Z</datestamp>
      <setSpec>user-biosyslit</setSpec>
    </header>
    <header>
      <identifier>oai:zenodo.org:276871</identifier>
      <datestamp>2017-02-08T19:53:01Z</datestamp>
      <setSpec>user-biosyslit</setSpec>
    </header>
    <header>
      <identifier>oai:zenodo.org:235781</identifier>
      <datestamp>2017-01-09T14:43:38Z</datestamp>
      <setSpec>user-biosyslit</setSpec>
    </header>
    <header>
      <identifier>oai:zenodo.org:236844</identifier>
      <datestamp>2017-01-10T06:22:41Z</datestamp>
      <setSpec>user-biosyslit</setSpec>
    </header>
    <header>
      <identifier>oai:zenodo.org:236000</identifier>
      <datestamp>2017-01-09T17:48:44Z</datestamp>
      <setSpec>user-biosyslit</setSpec>
    </header>
    <header>
      <identifier>oai:zenodo.org:277444</identifier>
      <datestamp>2017-02-08T21:08:56Z</datestamp>
      <setSpec>user-biosyslit</setSpec>
    </header>
    <header>
      <identifier>oai:zenodo.org:236084</identifier>
      <datestamp>2017-01-09T18:31:42Z</datestamp>
      <setSpec>user-biosyslit</setSpec>
    </header>
    <header>
      <identifier>oai:zenodo.org:236640</identifier>
      <datestamp>2017-01-10T02:23:46Z</datestamp>
      <setSpec>user-biosyslit</setSpec>
    </header>
    <header>
      <identifier>oai:zenodo.org:277380</identifier>
      <datestamp>2017-02-08T21:00:29Z</datestamp>
      <setSpec>user-biosyslit</setSpec>
    </header>
    <header>
      <identifier>oai:zenodo.org:236108</identifier>
      <datestamp>2017-01-09T18:33:06Z</datestamp>
      <setSpec>user-biosyslit</setSpec>
    </header>
    <header>
      <identifier>oai:zenodo.org:277049</identifier>
      <datestamp>2017-02-08T20:16:39Z</datestamp>
      <setSpec>user-biosyslit</setSpec>
    </header>
    <header>
      <identifier>oai:zenodo.org:237317</identifier>
      <datestamp>2017-01-10T14:14:14Z</datestamp>
      <setSpec>user-biosyslit</setSpec>
    </header>
    <header>
      <identifier>oai:zenodo.org:278858</identifier>
      <datestamp>2017-02-09T00:00:05Z</datestamp>
      <setSpec>user-biosyslit</setSpec>
    </header>
    <header>
      <identifier>oai:zenodo.org:238254</identifier>
      <datestamp>2017-01-11T02:59:53Z</datestamp>
      <setSpec>user-biosyslit</setSpec>
    </header>
    <header>
      <identifier>oai:zenodo.org:276913</identifier>
      <datestamp>2017-02-08T19:57:45Z</datestamp>
      <setSpec>user-biosyslit</setSpec>
    </header>
    <header>
      <identifier>oai:zenodo.org:277402</identifier>
      <datestamp>2017-02-08T21:04:27Z</datestamp>
      <setSpec>user-biosyslit</setSpec>
    </header>
    <header>
      <identifier>oai:zenodo.org:276734</identifier>
      <datestamp>2017-02-08T19:33:06Z</datestamp>
      <setSpec>user-biosyslit</setSpec>
    </header>
    <header>
      <identifier>oai:zenodo.org:277390</identifier>
      <datestamp>2017-02-08T21:01:56Z</datestamp>
      <setSpec>user-biosyslit</setSpec>
    </header>
    <header>
      <identifier>oai:zenodo.org:237521</identifier>
      <datestamp>2017-01-10T16:29:38Z</datestamp>
      <setSpec>user-biosyslit</setSpec>
    </header>
    <header>
      <identifier>oai:zenodo.org:277327</identifier>
      <datestamp>2017-02-08T20:54:22Z</datestamp>
      <setSpec>user-biosyslit</setSpec>
    </header>
    <header>
      <identifier>oai:zenodo.org:237873</identifier>
      <datestamp>2017-01-10T22:05:13Z</datestamp>
      <setSpec>user-biosyslit</setSpec>
    </header>
    <header>
      <identifier>oai:zenodo.org:237280</identifier>
      <datestamp>2017-01-10T13:55:43Z</datestamp>
      <setSpec>user-biosyslit</setSpec>
    </header>
    <header>
      <identifier>oai:zenodo.org:278062</identifier>
      <datestamp>2017-02-08T22:21:53Z</datestamp>
      <setSpec>user-biosyslit</setSpec>
    </header>
    <header>
      <identifier>oai:zenodo.org:277586</identifier>
      <datestamp>2017-02-08T21:26:33Z</datestamp>
      <setSpec>user-biosyslit</setSpec>
    </header>
    <header>
      <identifier>oai:zenodo.org:238506</identifier>
      <datestamp>2017-01-11T06:52:53Z</datestamp>
      <setSpec>user-biosyslit</setSpec>
    </header>
    <header>
      <identifier>oai:zenodo.org:277899</identifier>
      <datestamp>2017-02-08T22:02:06Z</datestamp>
      <setSpec>user-biosyslit</setSpec>
    </header>
    <header>
      <identifier>oai:zenodo.org:237828</identifier>
      <datestamp>2017-01-10T21:13:03Z</datestamp>
      <setSpec>user-biosyslit</setSpec>
    </header>
    <header>
      <identifier>oai:zenodo.org:277439</identifier>
      <datestamp>2017-02-08T21:08:42Z</datestamp>
      <setSpec>user-biosyslit</setSpec>
    </header>
    <header>
      <identifier>oai:zenodo.org:239202</identifier>
      <datestamp>2017-01-11T17:46:03Z</datestamp>
      <setSpec>user-biosyslit</setSpec>
    </header>
    <header>
      <identifier>oai:zenodo.org:277446</identifier>
      <datestamp>2017-02-08T21:09:02Z</datestamp>
      <setSpec>user-biosyslit</setSpec>
    </header>
    <header>
      <identifier>oai:zenodo.org:238142</identifier>
      <datestamp>2017-01-11T01:33:40Z</datestamp>
      <setSpec>user-biosyslit</setSpec>
    </header>
    <header>
      <identifier>oai:zenodo.org:239350</identifier>
      <datestamp>2017-01-11T18:52:54Z</datestamp>
      <setSpec>user-biosyslit</setSpec>
    </header>
    <header>
      <identifier>oai:zenodo.org:277587</identifier>
      <datestamp>2017-02-08T21:26:35Z</datestamp>
      <setSpec>user-biosyslit</setSpec>
    </header>
    <header>
      <identifier>oai:zenodo.org:278423</identifier>
      <datestamp>2017-02-08T23:08:26Z</datestamp>
      <setSpec>user-biosyslit</setSpec>
    </header>
    <header>
      <identifier>oai:zenodo.org:238350</identifier>
      <datestamp>2017-01-11T04:39:10Z</datestamp>
      <setSpec>user-biosyslit</setSpec>
    </header>
    <header>
      <identifier>oai:zenodo.org:279042</identifier>
      <datestamp>2017-02-09T00:28:31Z</datestamp>
      <setSpec>user-biosyslit</setSpec>
    </header>
    <header>
      <identifier>oai:zenodo.org:278202</identifier>
      <datestamp>2017-02-08T22:39:44Z</datestamp>
      <setSpec>user-biosyslit</setSpec>
    </header>
    <header>
      <identifier>oai:zenodo.org:238693</identifier>
      <datestamp>2017-01-11T09:46:17Z</datestamp>
      <setSpec>user-biosyslit</setSpec>
    </header>
    <header>
      <identifier>oai:zenodo.org:239409</identifier>
      <datestamp>2017-01-11T20:05:59Z</datestamp>
      <setSpec>user-biosyslit</setSpec>
    </header>
    <header>
      <identifier>oai:zenodo.org:238995</identifier>
      <datestamp>2017-01-11T14:36:37Z</datestamp>
      <setSpec>user-biosyslit</setSpec>
    </header>
    <header>
      <identifier>oai:zenodo.org:278052</identifier>
      <datestamp>2017-02-08T22:21:14Z</datestamp>
      <setSpec>user-biosyslit</setSpec>
    </header>
    <header>
      <identifier>oai:zenodo.org:278492</identifier>
      <datestamp>2017-02-08T23:17:08Z</datestamp>
      <setSpec>user-biosyslit</setSpec>
    </header>
    <header>
      <identifier>oai:zenodo.org:239171</identifier>
      <datestamp>2017-01-11T17:16:48Z</datestamp>
      <setSpec>user-biosyslit</setSpec>
    </header>
    <header>
      <identifier>oai:zenodo.org:278186</identifier>
      <datestamp>2017-02-08T22:37:23Z</datestamp>
      <setSpec>user-biosyslit</setSpec>
    </header>
    <header>
      <identifier>oai:zenodo.org:278185</identifier>
      <datestamp>2017-02-08T22:37:20Z</datestamp>
      <setSpec>user-biosyslit</setSpec>
    </header>
    <header>
      <identifier>oai:zenodo.org:240499</identifier>
      <datestamp>2017-01-12T09:27:36Z</datestamp>
      <setSpec>user-biosyslit</setSpec>
    </header>
    <header>
      <identifier>oai:zenodo.org:278395</identifier>
      <datestamp>2017-02-08T23:05:21Z</datestamp>
      <setSpec>user-biosyslit</setSpec>
    </header>
    <header>
      <identifier>oai:zenodo.org:227267</identifier>
      <datestamp>2017-01-01T18:51:09Z</datestamp>
      <setSpec>user-biosyslit</setSpec>
    </header>
    <header>
      <identifier>oai:zenodo.org:227698</identifier>
      <datestamp>2017-01-02T02:23:30Z</datestamp>
      <setSpec>user-biosyslit</setSpec>
    </header>
    <header>
      <identifier>oai:zenodo.org:269337</identifier>
      <datestamp>2017-02-06T23:57:07Z</datestamp>
      <setSpec>user-biosyslit</setSpec>
    </header>
    <header>
      <identifier>oai:zenodo.org:274540</identifier>
      <datestamp>2017-02-08T13:37:56Z</datestamp>
      <setSpec>user-biosyslit</setSpec>
    </header>
    <header>
      <identifier>oai:zenodo.org:267871</identifier>
      <datestamp>2017-02-02T08:51:59Z</datestamp>
      <setSpec>user-biosyslit</setSpec>
    </header>
    <header>
      <identifier>oai:zenodo.org:268141</identifier>
      <datestamp>2017-02-03T02:55:11Z</datestamp>
      <setSpec>user-biosyslit</setSpec>
    </header>
    <header>
      <identifier>oai:zenodo.org:268255</identifier>
      <datestamp>2017-02-03T04:52:46Z</datestamp>
      <setSpec>user-biosyslit</setSpec>
    </header>
    <header>
      <identifier>oai:zenodo.org:268361</identifier>
      <datestamp>2017-02-03T12:17:47Z</datestamp>
      <setSpec>user-biosyslit</setSpec>
    </header>
    <header>
      <identifier>oai:zenodo.org:228045</identifier>
      <datestamp>2017-01-02T09:29:24Z</datestamp>
      <setSpec>user-biosyslit</setSpec>
    </header>
    <header>
      <identifier>oai:zenodo.org:230229</identifier>
      <datestamp>2017-01-04T21:21:53Z</datestamp>
      <setSpec>user-biosyslit</setSpec>
    </header>
    <header>
      <identifier>oai:zenodo.org:268325</identifier>
      <datestamp>2017-02-03T11:18:18Z</datestamp>
      <setSpec>user-biosyslit</setSpec>
    </header>
    <header>
      <identifier>oai:zenodo.org:269362</identifier>
      <datestamp>2017-02-06T23:58:35Z</datestamp>
      <setSpec>user-biosyslit</setSpec>
    </header>
    <header>
      <identifier>oai:zenodo.org:270186</identifier>
      <datestamp>2017-02-07T22:30:16Z</datestamp>
      <setSpec>user-biosyslit</setSpec>
    </header>
    <header>
      <identifier>oai:zenodo.org:230241</identifier>
      <datestamp>2017-01-04T21:36:49Z</datestamp>
      <setSpec>user-biosyslit</setSpec>
    </header>
    <header>
      <identifier>oai:zenodo.org:269701</identifier>
      <datestamp>2017-02-07T20:05:14Z</datestamp>
      <setSpec>user-biosyslit</setSpec>
    </header>
    <header>
      <identifier>oai:zenodo.org:269087</identifier>
      <datestamp>2017-02-06T22:41:26Z</datestamp>
      <setSpec>user-biosyslit</setSpec>
    </header>
    <header>
      <identifier>oai:zenodo.org:269174</identifier>
      <datestamp>2017-02-06T22:54:51Z</datestamp>
      <setSpec>user-biosyslit</setSpec>
    </header>
    <header>
      <identifier>oai:zenodo.org:269960</identifier>
      <datestamp>2017-02-07T21:54:13Z</datestamp>
      <setSpec>user-biosyslit</setSpec>
    </header>
    <header>
      <identifier>oai:zenodo.org:229811</identifier>
      <datestamp>2017-01-04T07:23:14Z</datestamp>
      <setSpec>user-biosyslit</setSpec>
    </header>
    <header>
      <identifier>oai:zenodo.org:230019</identifier>
      <datestamp>2017-01-04T17:37:49Z</datestamp>
      <setSpec>user-biosyslit</setSpec>
    </header>
    <header>
      <identifier>oai:zenodo.org:268950</identifier>
      <datestamp>2017-02-07T10:00:32Z</datestamp>
      <setSpec>openaire</setSpec>
      <setSpec>user-biosyslit</setSpec>
    </header>
    <header>
      <identifier>oai:zenodo.org:231881</identifier>
      <datestamp>2017-01-06T08:18:52Z</datestamp>
      <setSpec>user-biosyslit</setSpec>
    </header>
    <header>
      <identifier>oai:zenodo.org:230884</identifier>
      <datestamp>2017-01-05T09:52:42Z</datestamp>
      <setSpec>user-biosyslit</setSpec>
    </header>
    <header>
      <identifier>oai:zenodo.org:229920</identifier>
      <datestamp>2017-01-04T16:01:55Z</datestamp>
      <setSpec>user-biosyslit</setSpec>
    </header>
    <header>
      <identifier>oai:zenodo.org:270027</identifier>
      <datestamp>2017-02-07T22:08:57Z</datestamp>
      <setSpec>user-biosyslit</setSpec>
    </header>
    <header>
      <identifier>oai:zenodo.org:269914</identifier>
      <datestamp>2017-02-07T20:43:47Z</datestamp>
      <setSpec>user-biosyslit</setSpec>
    </header>
    <resumptionToken expirationDate="2017-08-31T14:20:03Z" cursor="1100" completeListSize="142507">.eJwVzd1OgzAYgOF76TExbVn4OxsByYwfhEHL4MRgQZgURMAAXXbvm8dv8rw3NNd1hRz8YukHg5r2wbYNw7CIqaFZTD9SflyfGYkLl2KQrAz437nnOKeNGXrzBl5OwpSpqCcqeY3phVgbu-I9TtmSq_PG9dOaYN8EFa-gGhr1lR4FsvgMxoQNrkxoNUV-vCfETQpdmJAe6dMj8D0uArcslPYX8NMCnU_eM8CCVzv4ixspwODBIUzHoVLtmGXbL5Nva8GWoVStD90Ss_-XOppIQ2PZ1Mghuoa6tZyaGTm3-_0Bg7xSIA.DImsGw.AhpuOiCnPD1OIJeCr3WroXDc4vc</resumptionToken>
  </ListIdentifiers>
</OAI-PMH>
