<?xml version='1.0' encoding='UTF-8'?>
<?xml-stylesheet type="text/xsl" href="/static/xsl/oai2.v1.0.xsl"?>
<OAI-PMH xmlns="http://www.openarchives.org/OAI/2.0/" xmlns:xsi="http://www.w3.org/2001/XMLSchema-instance" xsi:schemaLocation="http://www.openarchives.org/OAI/2.0/ http://www.openarchives.org/OAI/2.0/OAI-PMH.xsd">
  <responseDate>2017-08-31T15:44:53Z</responseDate>
  <request verb="ListIdentifiers" resumptionToken=".eJyNys8PQlAcAPD_5Xu29n6EsnUxMgeMF4tLE2byqHk1vOZ_z6VznT-fN4iqKsFAG6KSnU6Rqu41TdtjfauAKIY755dmdSjOCS96HudO8oq6BKWk1n1LTJ6VUl-2KOiwZMeQnPFuihs0h6f4mcpoSqg7MmTrngxn_-aur6SBw7Or82Bxb3JGyiGww5lhk2W0-D7855M_nyUOoMAjryswVI0q0I75UAsw3svyAdr2UX4.DInAdQ.I2Qp2g2PsjmQSZJi7hqVgviWanI">https://zenodo.org/oai2d</request>
  <ListIdentifiers>
    <header>
      <identifier>oai:zenodo.org:582454</identifier>
      <datestamp>2017-05-23T07:48:15Z</datestamp>
      <setSpec>user-biosyslit</setSpec>
    </header>
    <header>
      <identifier>oai:zenodo.org:376455</identifier>
      <datestamp>2017-03-10T09:33:41Z</datestamp>
      <setSpec>user-biosyslit</setSpec>
    </header>
    <header>
      <identifier>oai:zenodo.org:376084</identifier>
      <datestamp>2017-03-09T09:44:33Z</datestamp>
      <setSpec>user-biosyslit</setSpec>
    </header>
    <header>
      <identifier>oai:zenodo.org:375489</identifier>
      <datestamp>2017-03-07T08:21:02Z</datestamp>
      <setSpec>user-biosyslit</setSpec>
    </header>
    <header>
      <identifier>oai:zenodo.org:582790</identifier>
      <datestamp>2017-05-24T08:40:31Z</datestamp>
      <setSpec>user-biosyslit</setSpec>
    </header>
    <header>
      <identifier>oai:zenodo.org:582490</identifier>
      <datestamp>2017-05-23T08:53:31Z</datestamp>
      <setSpec>user-biosyslit</setSpec>
    </header>
    <header>
      <identifier>oai:zenodo.org:375754</identifier>
      <datestamp>2017-03-08T08:21:49Z</datestamp>
      <setSpec>user-biosyslit</setSpec>
    </header>
    <header>
      <identifier>oai:zenodo.org:375463</identifier>
      <datestamp>2017-03-07T08:14:26Z</datestamp>
      <setSpec>user-biosyslit</setSpec>
    </header>
    <header>
      <identifier>oai:zenodo.org:375480</identifier>
      <datestamp>2017-03-07T08:15:09Z</datestamp>
      <setSpec>user-biosyslit</setSpec>
    </header>
    <header>
      <identifier>oai:zenodo.org:375873</identifier>
      <datestamp>2017-03-08T13:24:01Z</datestamp>
      <setSpec>user-biosyslit</setSpec>
    </header>
    <header>
      <identifier>oai:zenodo.org:376711</identifier>
      <datestamp>2017-03-11T00:05:07Z</datestamp>
      <setSpec>user-biosyslit</setSpec>
    </header>
    <header>
      <identifier>oai:zenodo.org:583381</identifier>
      <datestamp>2017-05-26T07:43:39Z</datestamp>
      <setSpec>user-biosyslit</setSpec>
    </header>
    <header>
      <identifier>oai:zenodo.org:375691</identifier>
      <datestamp>2017-03-08T01:16:47Z</datestamp>
      <setSpec>user-biosyslit</setSpec>
    </header>
    <header>
      <identifier>oai:zenodo.org:375756</identifier>
      <datestamp>2017-03-08T08:21:53Z</datestamp>
      <setSpec>user-biosyslit</setSpec>
    </header>
    <header>
      <identifier>oai:zenodo.org:582430</identifier>
      <datestamp>2017-05-23T07:30:54Z</datestamp>
      <setSpec>user-biosyslit</setSpec>
    </header>
    <header>
      <identifier>oai:zenodo.org:376220</identifier>
      <datestamp>2017-03-09T14:32:06Z</datestamp>
      <setSpec>user-biosyslit</setSpec>
    </header>
    <header>
      <identifier>oai:zenodo.org:375847</identifier>
      <datestamp>2017-03-08T12:37:57Z</datestamp>
      <setSpec>user-biosyslit</setSpec>
    </header>
    <header>
      <identifier>oai:zenodo.org:582435</identifier>
      <datestamp>2017-05-23T07:31:06Z</datestamp>
      <setSpec>user-biosyslit</setSpec>
    </header>
    <header>
      <identifier>oai:zenodo.org:376045</identifier>
      <datestamp>2017-03-09T09:05:34Z</datestamp>
      <setSpec>user-biosyslit</setSpec>
    </header>
    <header>
      <identifier>oai:zenodo.org:582434</identifier>
      <datestamp>2017-05-23T07:31:04Z</datestamp>
      <setSpec>user-biosyslit</setSpec>
    </header>
    <header>
      <identifier>oai:zenodo.org:376003</identifier>
      <datestamp>2017-03-09T08:33:27Z</datestamp>
      <setSpec>user-biosyslit</setSpec>
    </header>
    <header>
      <identifier>oai:zenodo.org:375468</identifier>
      <datestamp>2017-03-07T08:14:39Z</datestamp>
      <setSpec>user-biosyslit</setSpec>
    </header>
    <header>
      <identifier>oai:zenodo.org:376080</identifier>
      <datestamp>2017-03-09T09:31:01Z</datestamp>
      <setSpec>user-biosyslit</setSpec>
    </header>
    <header>
      <identifier>oai:zenodo.org:376460</identifier>
      <datestamp>2017-03-10T09:33:54Z</datestamp>
      <setSpec>user-biosyslit</setSpec>
    </header>
    <header>
      <identifier>oai:zenodo.org:583197</identifier>
      <datestamp>2017-05-25T07:32:16Z</datestamp>
      <setSpec>user-biosyslit</setSpec>
    </header>
    <header>
      <identifier>oai:zenodo.org:583377</identifier>
      <datestamp>2017-05-26T07:27:39Z</datestamp>
      <setSpec>user-biosyslit</setSpec>
    </header>
    <header>
      <identifier>oai:zenodo.org:583374</identifier>
      <datestamp>2017-05-26T07:27:31Z</datestamp>
      <setSpec>user-biosyslit</setSpec>
    </header>
    <header>
      <identifier>oai:zenodo.org:583379</identifier>
      <datestamp>2017-05-26T07:36:22Z</datestamp>
      <setSpec>user-biosyslit</setSpec>
    </header>
    <header>
      <identifier>oai:zenodo.org:583372</identifier>
      <datestamp>2017-05-26T07:27:25Z</datestamp>
      <setSpec>user-biosyslit</setSpec>
    </header>
    <header>
      <identifier>oai:zenodo.org:583847</identifier>
      <datestamp>2017-05-29T07:46:24Z</datestamp>
      <setSpec>user-biosyslit</setSpec>
    </header>
    <header>
      <identifier>oai:zenodo.org:583828</identifier>
      <datestamp>2017-05-29T07:25:14Z</datestamp>
      <setSpec>user-biosyslit</setSpec>
    </header>
    <header>
      <identifier>oai:zenodo.org:583931</identifier>
      <datestamp>2017-05-29T08:27:22Z</datestamp>
      <setSpec>user-biosyslit</setSpec>
    </header>
    <header>
      <identifier>oai:zenodo.org:584046</identifier>
      <datestamp>2017-05-29T13:53:33Z</datestamp>
      <setSpec>user-biosyslit</setSpec>
    </header>
    <header>
      <identifier>oai:zenodo.org:584066</identifier>
      <datestamp>2017-05-29T13:55:32Z</datestamp>
      <setSpec>user-biosyslit</setSpec>
    </header>
    <header>
      <identifier>oai:zenodo.org:398924</identifier>
      <datestamp>2017-03-14T21:06:39Z</datestamp>
      <setSpec>user-biosyslit</setSpec>
    </header>
    <header>
      <identifier>oai:zenodo.org:583862</identifier>
      <datestamp>2017-05-29T08:02:14Z</datestamp>
      <setSpec>user-biosyslit</setSpec>
    </header>
    <header>
      <identifier>oai:zenodo.org:398926</identifier>
      <datestamp>2017-03-14T21:06:46Z</datestamp>
      <setSpec>user-biosyslit</setSpec>
    </header>
    <header>
      <identifier>oai:zenodo.org:399868</identifier>
      <datestamp>2017-03-16T01:29:50Z</datestamp>
      <setSpec>user-biosyslit</setSpec>
    </header>
    <header>
      <identifier>oai:zenodo.org:399081</identifier>
      <datestamp>2017-03-15T08:17:51Z</datestamp>
      <setSpec>user-biosyslit</setSpec>
    </header>
    <header>
      <identifier>oai:zenodo.org:399738</identifier>
      <datestamp>2017-03-15T23:48:18Z</datestamp>
      <setSpec>user-biosyslit</setSpec>
    </header>
    <header>
      <identifier>oai:zenodo.org:398943</identifier>
      <datestamp>2017-03-14T21:07:25Z</datestamp>
      <setSpec>user-biosyslit</setSpec>
    </header>
    <header>
      <identifier>oai:zenodo.org:398999</identifier>
      <datestamp>2017-03-14T22:54:24Z</datestamp>
      <setSpec>user-biosyslit</setSpec>
    </header>
    <header>
      <identifier>oai:zenodo.org:556267</identifier>
      <datestamp>2017-04-20T07:12:22Z</datestamp>
      <setSpec>user-biosyslit</setSpec>
    </header>
    <header>
      <identifier>oai:zenodo.org:400737</identifier>
      <datestamp>2017-03-22T09:32:33Z</datestamp>
      <setSpec>openaire</setSpec>
      <setSpec>user-biosyslit</setSpec>
      <setSpec>user-zenodo</setSpec>
    </header>
    <header>
      <identifier>oai:zenodo.org:400210</identifier>
      <datestamp>2017-03-16T09:48:31Z</datestamp>
      <setSpec>user-biosyslit</setSpec>
    </header>
    <header>
      <identifier>oai:zenodo.org:399930</identifier>
      <datestamp>2017-03-16T01:32:53Z</datestamp>
      <setSpec>user-biosyslit</setSpec>
    </header>
    <header>
      <identifier>oai:zenodo.org:399627</identifier>
      <datestamp>2017-03-15T23:00:24Z</datestamp>
      <setSpec>user-biosyslit</setSpec>
    </header>
    <header>
      <identifier>oai:zenodo.org:399517</identifier>
      <datestamp>2017-03-15T22:41:48Z</datestamp>
      <setSpec>user-biosyslit</setSpec>
    </header>
    <header>
      <identifier>oai:zenodo.org:399423</identifier>
      <datestamp>2017-03-15T20:55:24Z</datestamp>
      <setSpec>user-biosyslit</setSpec>
    </header>
    <header>
      <identifier>oai:zenodo.org:398913</identifier>
      <datestamp>2017-03-14T21:06:08Z</datestamp>
      <setSpec>user-biosyslit</setSpec>
    </header>
    <header>
      <identifier>oai:zenodo.org:398935</identifier>
      <datestamp>2017-03-14T21:07:07Z</datestamp>
      <setSpec>user-biosyslit</setSpec>
    </header>
    <header>
      <identifier>oai:zenodo.org:398704</identifier>
      <datestamp>2017-03-14T08:36:21Z</datestamp>
      <setSpec>user-biosyslit</setSpec>
    </header>
    <header>
      <identifier>oai:zenodo.org:399924</identifier>
      <datestamp>2017-03-16T01:32:38Z</datestamp>
      <setSpec>user-biosyslit</setSpec>
    </header>
    <header>
      <identifier>oai:zenodo.org:399559</identifier>
      <datestamp>2017-03-15T22:43:44Z</datestamp>
      <setSpec>user-biosyslit</setSpec>
    </header>
    <header>
      <identifier>oai:zenodo.org:399346</identifier>
      <datestamp>2017-03-15T19:51:14Z</datestamp>
      <setSpec>user-biosyslit</setSpec>
    </header>
    <header>
      <identifier>oai:zenodo.org:398962</identifier>
      <datestamp>2017-03-14T21:10:14Z</datestamp>
      <setSpec>user-biosyslit</setSpec>
    </header>
    <header>
      <identifier>oai:zenodo.org:400103</identifier>
      <datestamp>2017-03-16T08:22:31Z</datestamp>
      <setSpec>user-biosyslit</setSpec>
    </header>
    <header>
      <identifier>oai:zenodo.org:556020</identifier>
      <datestamp>2017-04-19T07:17:45Z</datestamp>
      <setSpec>user-biosyslit</setSpec>
    </header>
    <header>
      <identifier>oai:zenodo.org:398967</identifier>
      <datestamp>2017-03-14T21:10:30Z</datestamp>
      <setSpec>user-biosyslit</setSpec>
    </header>
    <header>
      <identifier>oai:zenodo.org:399926</identifier>
      <datestamp>2017-03-16T01:32:43Z</datestamp>
      <setSpec>user-biosyslit</setSpec>
    </header>
    <header>
      <identifier>oai:zenodo.org:556021</identifier>
      <datestamp>2017-04-19T07:17:47Z</datestamp>
      <setSpec>user-biosyslit</setSpec>
    </header>
    <header>
      <identifier>oai:zenodo.org:400892</identifier>
      <datestamp>2017-03-20T09:29:13Z</datestamp>
      <setSpec>user-biosyslit</setSpec>
    </header>
    <header>
      <identifier>oai:zenodo.org:400430</identifier>
      <datestamp>2017-03-17T08:24:13Z</datestamp>
      <setSpec>user-biosyslit</setSpec>
    </header>
    <header>
      <identifier>oai:zenodo.org:399637</identifier>
      <datestamp>2017-03-15T23:05:03Z</datestamp>
      <setSpec>user-biosyslit</setSpec>
    </header>
    <header>
      <identifier>oai:zenodo.org:399892</identifier>
      <datestamp>2017-03-16T01:31:02Z</datestamp>
      <setSpec>user-biosyslit</setSpec>
    </header>
    <header>
      <identifier>oai:zenodo.org:400468</identifier>
      <datestamp>2017-03-17T09:12:17Z</datestamp>
      <setSpec>user-biosyslit</setSpec>
    </header>
    <header>
      <identifier>oai:zenodo.org:399429</identifier>
      <datestamp>2017-03-15T20:55:39Z</datestamp>
      <setSpec>user-biosyslit</setSpec>
    </header>
    <header>
      <identifier>oai:zenodo.org:399997</identifier>
      <datestamp>2017-03-16T02:04:36Z</datestamp>
      <setSpec>user-biosyslit</setSpec>
    </header>
    <header>
      <identifier>oai:zenodo.org:556274</identifier>
      <datestamp>2017-04-20T07:25:43Z</datestamp>
      <setSpec>user-biosyslit</setSpec>
    </header>
    <header>
      <identifier>oai:zenodo.org:556055</identifier>
      <datestamp>2017-04-19T07:48:53Z</datestamp>
      <setSpec>user-biosyslit</setSpec>
    </header>
    <header>
      <identifier>oai:zenodo.org:431558</identifier>
      <datestamp>2017-03-21T09:25:02Z</datestamp>
      <setSpec>user-biosyslit</setSpec>
    </header>
    <header>
      <identifier>oai:zenodo.org:556071</identifier>
      <datestamp>2017-04-19T08:03:55Z</datestamp>
      <setSpec>user-biosyslit</setSpec>
    </header>
    <header>
      <identifier>oai:zenodo.org:556890</identifier>
      <datestamp>2017-04-24T08:06:43Z</datestamp>
      <setSpec>user-biosyslit</setSpec>
    </header>
    <header>
      <identifier>oai:zenodo.org:432659</identifier>
      <datestamp>2017-03-21T09:39:03Z</datestamp>
      <setSpec>user-biosyslit</setSpec>
    </header>
    <header>
      <identifier>oai:zenodo.org:437250</identifier>
      <datestamp>2017-03-22T08:44:53Z</datestamp>
      <setSpec>user-biosyslit</setSpec>
    </header>
    <header>
      <identifier>oai:zenodo.org:437994</identifier>
      <datestamp>2017-03-24T09:01:07Z</datestamp>
      <setSpec>user-biosyslit</setSpec>
    </header>
    <header>
      <identifier>oai:zenodo.org:556891</identifier>
      <datestamp>2017-04-24T08:06:47Z</datestamp>
      <setSpec>user-biosyslit</setSpec>
    </header>
    <header>
      <identifier>oai:zenodo.org:556493</identifier>
      <datestamp>2017-04-21T08:46:00Z</datestamp>
      <setSpec>user-biosyslit</setSpec>
    </header>
    <header>
      <identifier>oai:zenodo.org:437234</identifier>
      <datestamp>2017-03-22T08:24:00Z</datestamp>
      <setSpec>user-biosyslit</setSpec>
    </header>
    <header>
      <identifier>oai:zenodo.org:437586</identifier>
      <datestamp>2017-03-23T08:32:50Z</datestamp>
      <setSpec>user-biosyslit</setSpec>
    </header>
    <header>
      <identifier>oai:zenodo.org:438560</identifier>
      <datestamp>2017-03-28T07:23:32Z</datestamp>
      <setSpec>user-biosyslit</setSpec>
    </header>
    <header>
      <identifier>oai:zenodo.org:438600</identifier>
      <datestamp>2017-03-28T07:53:34Z</datestamp>
      <setSpec>user-biosyslit</setSpec>
    </header>
    <header>
      <identifier>oai:zenodo.org:437993</identifier>
      <datestamp>2017-03-24T08:59:46Z</datestamp>
      <setSpec>user-biosyslit</setSpec>
    </header>
    <header>
      <identifier>oai:zenodo.org:437982</identifier>
      <datestamp>2017-03-24T08:50:08Z</datestamp>
      <setSpec>user-biosyslit</setSpec>
    </header>
    <header>
      <identifier>oai:zenodo.org:437995</identifier>
      <datestamp>2017-03-24T09:01:03Z</datestamp>
      <setSpec>user-biosyslit</setSpec>
    </header>
    <header>
      <identifier>oai:zenodo.org:438523</identifier>
      <datestamp>2017-03-28T07:13:55Z</datestamp>
      <setSpec>user-biosyslit</setSpec>
    </header>
    <header>
      <identifier>oai:zenodo.org:439858</identifier>
      <datestamp>2017-04-03T09:39:13Z</datestamp>
      <setSpec>user-biosyslit</setSpec>
    </header>
    <header>
      <identifier>oai:zenodo.org:439801</identifier>
      <datestamp>2017-04-03T07:51:34Z</datestamp>
      <setSpec>user-biosyslit</setSpec>
    </header>
    <header>
      <identifier>oai:zenodo.org:439790</identifier>
      <datestamp>2017-04-03T07:25:05Z</datestamp>
      <setSpec>user-biosyslit</setSpec>
    </header>
    <header>
      <identifier>oai:zenodo.org:439182</identifier>
      <datestamp>2017-03-30T07:43:12Z</datestamp>
      <setSpec>user-biosyslit</setSpec>
    </header>
    <header>
      <identifier>oai:zenodo.org:438806</identifier>
      <datestamp>2017-03-29T07:14:11Z</datestamp>
      <setSpec>user-biosyslit</setSpec>
    </header>
    <header>
      <identifier>oai:zenodo.org:439877</identifier>
      <datestamp>2017-04-03T10:36:37Z</datestamp>
      <setSpec>user-biosyslit</setSpec>
    </header>
    <header>
      <identifier>oai:zenodo.org:438912</identifier>
      <datestamp>2017-03-29T08:40:50Z</datestamp>
      <setSpec>user-biosyslit</setSpec>
    </header>
    <header>
      <identifier>oai:zenodo.org:451008</identifier>
      <datestamp>2017-04-04T07:17:12Z</datestamp>
      <setSpec>user-biosyslit</setSpec>
    </header>
    <header>
      <identifier>oai:zenodo.org:495059</identifier>
      <datestamp>2017-04-05T07:30:21Z</datestamp>
      <setSpec>user-biosyslit</setSpec>
    </header>
    <header>
      <identifier>oai:zenodo.org:495278</identifier>
      <datestamp>2017-04-06T07:16:24Z</datestamp>
      <setSpec>user-biosyslit</setSpec>
    </header>
    <header>
      <identifier>oai:zenodo.org:495872</identifier>
      <datestamp>2017-04-10T08:08:27Z</datestamp>
      <setSpec>user-biosyslit</setSpec>
    </header>
    <header>
      <identifier>oai:zenodo.org:495543</identifier>
      <datestamp>2017-04-07T07:46:11Z</datestamp>
      <setSpec>user-biosyslit</setSpec>
    </header>
    <header>
      <identifier>oai:zenodo.org:495902</identifier>
      <datestamp>2017-04-28T10:57:54Z</datestamp>
      <setSpec>openaire</setSpec>
      <setSpec>user-biosyslit</setSpec>
    </header>
    <header>
      <identifier>oai:zenodo.org:495899</identifier>
      <datestamp>2017-04-28T10:57:56Z</datestamp>
      <setSpec>openaire</setSpec>
      <setSpec>user-biosyslit</setSpec>
    </header>
    <resumptionToken expirationDate="2017-08-31T15:46:53Z" cursor="56200" completeListSize="77796">.eJyNyj0LgkAYAOD_8s4S91GeCS2iiYOKXUq6hKmIeVp4RXrhf8-luebneYOsqhJMtGKUGAwTTBjWibGlGshiuAlxbhaG4pSIohdx7ibPQ5eglNQssOXo2ykNVIvCDiu-j8gJG2PcoCk6xo9UHcaEei-OHOaraAqu3vJKGroiu7h3HveW4KQcQieaOLZ4Rovvw38-9fPZcgca3PO6AnOjrzVoX_lQSzDf8_wBm4dRPw.DInAdQ.RwzA0aaJLGg9lr-k3jgU8RPu2Fk</resumptionToken>
  </ListIdentifiers>
</OAI-PMH>
