<?xml version='1.0' encoding='UTF-8'?>
<?xml-stylesheet type="text/xsl" href="/static/xsl/oai2.v1.0.xsl"?>
<OAI-PMH xmlns="http://www.openarchives.org/OAI/2.0/" xmlns:xsi="http://www.w3.org/2001/XMLSchema-instance" xsi:schemaLocation="http://www.openarchives.org/OAI/2.0/ http://www.openarchives.org/OAI/2.0/OAI-PMH.xsd">
  <responseDate>2017-08-31T15:44:14Z</responseDate>
  <request verb="ListIdentifiers" resumptionToken=".eJyNz00PQzAAgOH_0rMsrYqvZBdh4oBUR3BZDBFTJroFFf99Ljtv5_e5vBvgdV0BE55Uw1Aw1DSMVB1CA0mAl9OTsVt7ZFCmCSsHFhdu8o76BGZyowU2X3w7w4HoYNgjQS9ETpG-xC1cyTV-ZSJaEuzNFDqaL8gaPLzDVTh0WX53RxoPFqNyNYUOWSmyaI7Lr0N_OvHT2fwMJDAWTQ1MRT-uurmYGg7Mbd8_n4BRQQ.DInATg.2Siwr344ZTz6rgXF2mKZm2kqjNk">https://zenodo.org/oai2d</request>
  <ListIdentifiers>
    <header>
      <identifier>oai:zenodo.org:289280</identifier>
      <datestamp>2017-02-09T23:09:24Z</datestamp>
      <setSpec>user-biosyslit</setSpec>
    </header>
    <header>
      <identifier>oai:zenodo.org:237930</identifier>
      <datestamp>2017-01-10T22:30:40Z</datestamp>
      <setSpec>user-biosyslit</setSpec>
    </header>
    <header>
      <identifier>oai:zenodo.org:239750</identifier>
      <datestamp>2017-01-12T00:18:27Z</datestamp>
      <setSpec>user-biosyslit</setSpec>
    </header>
    <header>
      <identifier>oai:zenodo.org:238042</identifier>
      <datestamp>2017-01-11T00:17:47Z</datestamp>
      <setSpec>user-biosyslit</setSpec>
    </header>
    <header>
      <identifier>oai:zenodo.org:238067</identifier>
      <datestamp>2017-01-11T00:42:02Z</datestamp>
      <setSpec>user-biosyslit</setSpec>
    </header>
    <header>
      <identifier>oai:zenodo.org:238305</identifier>
      <datestamp>2017-01-11T03:34:47Z</datestamp>
      <setSpec>user-biosyslit</setSpec>
    </header>
    <header>
      <identifier>oai:zenodo.org:239620</identifier>
      <datestamp>2017-01-11T22:48:18Z</datestamp>
      <setSpec>user-biosyslit</setSpec>
    </header>
    <header>
      <identifier>oai:zenodo.org:238301</identifier>
      <datestamp>2017-01-11T03:34:34Z</datestamp>
      <setSpec>user-biosyslit</setSpec>
    </header>
    <header>
      <identifier>oai:zenodo.org:289719</identifier>
      <datestamp>2017-02-10T00:22:07Z</datestamp>
      <setSpec>user-biosyslit</setSpec>
    </header>
    <header>
      <identifier>oai:zenodo.org:239024</identifier>
      <datestamp>2017-01-11T14:57:34Z</datestamp>
      <setSpec>user-biosyslit</setSpec>
    </header>
    <header>
      <identifier>oai:zenodo.org:239479</identifier>
      <datestamp>2017-01-11T21:14:17Z</datestamp>
      <setSpec>user-biosyslit</setSpec>
    </header>
    <header>
      <identifier>oai:zenodo.org:289770</identifier>
      <datestamp>2017-02-10T00:27:17Z</datestamp>
      <setSpec>user-biosyslit</setSpec>
    </header>
    <header>
      <identifier>oai:zenodo.org:238259</identifier>
      <datestamp>2017-01-11T03:00:11Z</datestamp>
      <setSpec>user-biosyslit</setSpec>
    </header>
    <header>
      <identifier>oai:zenodo.org:271338</identifier>
      <datestamp>2017-02-08T01:22:07Z</datestamp>
      <setSpec>user-biosyslit</setSpec>
    </header>
    <header>
      <identifier>oai:zenodo.org:238672</identifier>
      <datestamp>2017-01-11T09:04:20Z</datestamp>
      <setSpec>user-biosyslit</setSpec>
    </header>
    <header>
      <identifier>oai:zenodo.org:238464</identifier>
      <datestamp>2017-01-11T05:58:22Z</datestamp>
      <setSpec>user-biosyslit</setSpec>
    </header>
    <header>
      <identifier>oai:zenodo.org:238302</identifier>
      <datestamp>2017-01-11T03:34:37Z</datestamp>
      <setSpec>user-biosyslit</setSpec>
    </header>
    <header>
      <identifier>oai:zenodo.org:239390</identifier>
      <datestamp>2017-01-11T19:52:59Z</datestamp>
      <setSpec>user-biosyslit</setSpec>
    </header>
    <header>
      <identifier>oai:zenodo.org:238477</identifier>
      <datestamp>2017-01-11T06:03:53Z</datestamp>
      <setSpec>user-biosyslit</setSpec>
    </header>
    <header>
      <identifier>oai:zenodo.org:238688</identifier>
      <datestamp>2017-01-11T09:41:42Z</datestamp>
      <setSpec>user-biosyslit</setSpec>
    </header>
    <header>
      <identifier>oai:zenodo.org:238832</identifier>
      <datestamp>2017-01-11T11:25:06Z</datestamp>
      <setSpec>user-biosyslit</setSpec>
    </header>
    <header>
      <identifier>oai:zenodo.org:239152</identifier>
      <datestamp>2017-01-11T17:08:13Z</datestamp>
      <setSpec>user-biosyslit</setSpec>
    </header>
    <header>
      <identifier>oai:zenodo.org:239049</identifier>
      <datestamp>2017-01-11T15:52:59Z</datestamp>
      <setSpec>user-biosyslit</setSpec>
    </header>
    <header>
      <identifier>oai:zenodo.org:239863</identifier>
      <datestamp>2017-01-12T01:58:26Z</datestamp>
      <setSpec>user-biosyslit</setSpec>
    </header>
    <header>
      <identifier>oai:zenodo.org:238976</identifier>
      <datestamp>2017-01-11T14:08:39Z</datestamp>
      <setSpec>user-biosyslit</setSpec>
    </header>
    <header>
      <identifier>oai:zenodo.org:238993</identifier>
      <datestamp>2017-01-11T14:36:23Z</datestamp>
      <setSpec>user-biosyslit</setSpec>
    </header>
    <header>
      <identifier>oai:zenodo.org:239288</identifier>
      <datestamp>2017-01-11T18:49:04Z</datestamp>
      <setSpec>user-biosyslit</setSpec>
    </header>
    <header>
      <identifier>oai:zenodo.org:239019</identifier>
      <datestamp>2017-01-11T14:57:14Z</datestamp>
      <setSpec>user-biosyslit</setSpec>
    </header>
    <header>
      <identifier>oai:zenodo.org:241632</identifier>
      <datestamp>2017-01-13T04:11:48Z</datestamp>
      <setSpec>user-biosyslit</setSpec>
    </header>
    <header>
      <identifier>oai:zenodo.org:271278</identifier>
      <datestamp>2017-02-08T01:15:11Z</datestamp>
      <setSpec>user-biosyslit</setSpec>
    </header>
    <header>
      <identifier>oai:zenodo.org:273209</identifier>
      <datestamp>2017-02-08T08:28:25Z</datestamp>
      <setSpec>user-biosyslit</setSpec>
    </header>
    <header>
      <identifier>oai:zenodo.org:239528</identifier>
      <datestamp>2017-01-11T21:47:57Z</datestamp>
      <setSpec>user-biosyslit</setSpec>
    </header>
    <header>
      <identifier>oai:zenodo.org:239628</identifier>
      <datestamp>2017-01-11T22:51:58Z</datestamp>
      <setSpec>user-biosyslit</setSpec>
    </header>
    <header>
      <identifier>oai:zenodo.org:239851</identifier>
      <datestamp>2017-01-12T01:49:01Z</datestamp>
      <setSpec>user-biosyslit</setSpec>
    </header>
    <header>
      <identifier>oai:zenodo.org:239728</identifier>
      <datestamp>2017-01-12T00:01:44Z</datestamp>
      <setSpec>user-biosyslit</setSpec>
    </header>
    <header>
      <identifier>oai:zenodo.org:240179</identifier>
      <datestamp>2017-01-12T05:32:14Z</datestamp>
      <setSpec>user-biosyslit</setSpec>
    </header>
    <header>
      <identifier>oai:zenodo.org:240142</identifier>
      <datestamp>2017-01-12T05:09:29Z</datestamp>
      <setSpec>user-biosyslit</setSpec>
    </header>
    <header>
      <identifier>oai:zenodo.org:271094</identifier>
      <datestamp>2017-02-08T00:45:00Z</datestamp>
      <setSpec>user-biosyslit</setSpec>
    </header>
    <header>
      <identifier>oai:zenodo.org:239716</identifier>
      <datestamp>2017-01-12T00:01:03Z</datestamp>
      <setSpec>user-biosyslit</setSpec>
    </header>
    <header>
      <identifier>oai:zenodo.org:241110</identifier>
      <datestamp>2017-01-12T20:12:39Z</datestamp>
      <setSpec>user-biosyslit</setSpec>
    </header>
    <header>
      <identifier>oai:zenodo.org:239860</identifier>
      <datestamp>2017-01-12T01:58:13Z</datestamp>
      <setSpec>user-biosyslit</setSpec>
    </header>
    <header>
      <identifier>oai:zenodo.org:241649</identifier>
      <datestamp>2017-01-13T04:12:39Z</datestamp>
      <setSpec>user-biosyslit</setSpec>
    </header>
    <header>
      <identifier>oai:zenodo.org:240688</identifier>
      <datestamp>2017-01-12T12:43:55Z</datestamp>
      <setSpec>user-biosyslit</setSpec>
    </header>
    <header>
      <identifier>oai:zenodo.org:240470</identifier>
      <datestamp>2017-01-12T09:04:45Z</datestamp>
      <setSpec>user-biosyslit</setSpec>
    </header>
    <header>
      <identifier>oai:zenodo.org:271181</identifier>
      <datestamp>2017-02-08T00:58:02Z</datestamp>
      <setSpec>user-biosyslit</setSpec>
    </header>
    <header>
      <identifier>oai:zenodo.org:240699</identifier>
      <datestamp>2017-01-12T12:43:44Z</datestamp>
      <setSpec>user-biosyslit</setSpec>
    </header>
    <header>
      <identifier>oai:zenodo.org:271284</identifier>
      <datestamp>2017-02-08T01:15:27Z</datestamp>
      <setSpec>user-biosyslit</setSpec>
    </header>
    <header>
      <identifier>oai:zenodo.org:271313</identifier>
      <datestamp>2017-02-08T01:18:25Z</datestamp>
      <setSpec>user-biosyslit</setSpec>
    </header>
    <header>
      <identifier>oai:zenodo.org:272454</identifier>
      <datestamp>2017-02-08T04:42:01Z</datestamp>
      <setSpec>user-biosyslit</setSpec>
    </header>
    <header>
      <identifier>oai:zenodo.org:240796</identifier>
      <datestamp>2017-01-12T14:04:52Z</datestamp>
      <setSpec>user-biosyslit</setSpec>
    </header>
    <header>
      <identifier>oai:zenodo.org:271264</identifier>
      <datestamp>2017-02-08T01:12:59Z</datestamp>
      <setSpec>user-biosyslit</setSpec>
    </header>
    <header>
      <identifier>oai:zenodo.org:241082</identifier>
      <datestamp>2017-01-12T19:37:01Z</datestamp>
      <setSpec>user-biosyslit</setSpec>
    </header>
    <header>
      <identifier>oai:zenodo.org:271531</identifier>
      <datestamp>2017-02-08T01:53:30Z</datestamp>
      <setSpec>user-biosyslit</setSpec>
    </header>
    <header>
      <identifier>oai:zenodo.org:241630</identifier>
      <datestamp>2017-01-13T04:11:42Z</datestamp>
      <setSpec>user-biosyslit</setSpec>
    </header>
    <header>
      <identifier>oai:zenodo.org:241606</identifier>
      <datestamp>2017-01-13T03:49:12Z</datestamp>
      <setSpec>user-biosyslit</setSpec>
    </header>
    <header>
      <identifier>oai:zenodo.org:272375</identifier>
      <datestamp>2017-02-08T04:22:49Z</datestamp>
      <setSpec>user-biosyslit</setSpec>
    </header>
    <header>
      <identifier>oai:zenodo.org:270206</identifier>
      <datestamp>2017-02-07T22:31:54Z</datestamp>
      <setSpec>user-biosyslit</setSpec>
    </header>
    <header>
      <identifier>oai:zenodo.org:232058</identifier>
      <datestamp>2017-01-06T10:47:56Z</datestamp>
      <setSpec>user-biosyslit</setSpec>
    </header>
    <header>
      <identifier>oai:zenodo.org:231773</identifier>
      <datestamp>2017-01-06T07:13:10Z</datestamp>
      <setSpec>user-biosyslit</setSpec>
    </header>
    <header>
      <identifier>oai:zenodo.org:289170</identifier>
      <datestamp>2017-02-09T22:51:25Z</datestamp>
      <setSpec>user-biosyslit</setSpec>
    </header>
    <header>
      <identifier>oai:zenodo.org:232121</identifier>
      <datestamp>2017-01-06T11:21:47Z</datestamp>
      <setSpec>user-biosyslit</setSpec>
    </header>
    <header>
      <identifier>oai:zenodo.org:232907</identifier>
      <datestamp>2017-01-07T01:16:43Z</datestamp>
      <setSpec>user-biosyslit</setSpec>
    </header>
    <header>
      <identifier>oai:zenodo.org:232409</identifier>
      <datestamp>2017-01-06T17:08:47Z</datestamp>
      <setSpec>user-biosyslit</setSpec>
    </header>
    <header>
      <identifier>oai:zenodo.org:232367</identifier>
      <datestamp>2017-01-06T16:35:43Z</datestamp>
      <setSpec>user-biosyslit</setSpec>
    </header>
    <header>
      <identifier>oai:zenodo.org:233172</identifier>
      <datestamp>2017-01-08T01:39:36Z</datestamp>
      <setSpec>user-biosyslit</setSpec>
    </header>
    <header>
      <identifier>oai:zenodo.org:232512</identifier>
      <datestamp>2017-01-06T18:55:55Z</datestamp>
      <setSpec>user-biosyslit</setSpec>
    </header>
    <header>
      <identifier>oai:zenodo.org:232453</identifier>
      <datestamp>2017-01-06T17:57:58Z</datestamp>
      <setSpec>user-biosyslit</setSpec>
    </header>
    <header>
      <identifier>oai:zenodo.org:232763</identifier>
      <datestamp>2017-01-06T22:45:34Z</datestamp>
      <setSpec>user-biosyslit</setSpec>
    </header>
    <header>
      <identifier>oai:zenodo.org:233260</identifier>
      <datestamp>2017-01-08T02:35:44Z</datestamp>
      <setSpec>user-biosyslit</setSpec>
    </header>
    <header>
      <identifier>oai:zenodo.org:233035</identifier>
      <datestamp>2017-01-07T22:49:16Z</datestamp>
      <setSpec>user-biosyslit</setSpec>
    </header>
    <header>
      <identifier>oai:zenodo.org:232426</identifier>
      <datestamp>2017-01-06T17:23:09Z</datestamp>
      <setSpec>user-biosyslit</setSpec>
    </header>
    <header>
      <identifier>oai:zenodo.org:234358</identifier>
      <datestamp>2017-01-08T18:47:26Z</datestamp>
      <setSpec>user-biosyslit</setSpec>
    </header>
    <header>
      <identifier>oai:zenodo.org:233304</identifier>
      <datestamp>2017-01-08T03:15:55Z</datestamp>
      <setSpec>user-biosyslit</setSpec>
    </header>
    <header>
      <identifier>oai:zenodo.org:232421</identifier>
      <datestamp>2017-01-06T17:19:29Z</datestamp>
      <setSpec>user-biosyslit</setSpec>
    </header>
    <header>
      <identifier>oai:zenodo.org:233039</identifier>
      <datestamp>2017-01-07T23:12:08Z</datestamp>
      <setSpec>user-biosyslit</setSpec>
    </header>
    <header>
      <identifier>oai:zenodo.org:233253</identifier>
      <datestamp>2017-01-08T02:35:15Z</datestamp>
      <setSpec>user-biosyslit</setSpec>
    </header>
    <header>
      <identifier>oai:zenodo.org:233170</identifier>
      <datestamp>2017-01-08T01:39:29Z</datestamp>
      <setSpec>user-biosyslit</setSpec>
    </header>
    <header>
      <identifier>oai:zenodo.org:270465</identifier>
      <datestamp>2017-02-07T23:16:46Z</datestamp>
      <setSpec>user-biosyslit</setSpec>
    </header>
    <header>
      <identifier>oai:zenodo.org:234046</identifier>
      <datestamp>2017-01-08T14:19:49Z</datestamp>
      <setSpec>user-biosyslit</setSpec>
    </header>
    <header>
      <identifier>oai:zenodo.org:288762</identifier>
      <datestamp>2017-02-09T21:51:21Z</datestamp>
      <setSpec>user-biosyslit</setSpec>
    </header>
    <header>
      <identifier>oai:zenodo.org:234361</identifier>
      <datestamp>2017-01-08T18:47:37Z</datestamp>
      <setSpec>user-biosyslit</setSpec>
    </header>
    <header>
      <identifier>oai:zenodo.org:232715</identifier>
      <datestamp>2017-01-06T22:02:54Z</datestamp>
      <setSpec>user-biosyslit</setSpec>
    </header>
    <header>
      <identifier>oai:zenodo.org:270618</identifier>
      <datestamp>2017-02-07T23:36:41Z</datestamp>
      <setSpec>user-biosyslit</setSpec>
    </header>
    <header>
      <identifier>oai:zenodo.org:235251</identifier>
      <datestamp>2017-01-09T07:29:02Z</datestamp>
      <setSpec>user-biosyslit</setSpec>
    </header>
    <header>
      <identifier>oai:zenodo.org:233652</identifier>
      <datestamp>2017-01-08T09:20:01Z</datestamp>
      <setSpec>user-biosyslit</setSpec>
    </header>
    <header>
      <identifier>oai:zenodo.org:234320</identifier>
      <datestamp>2017-01-08T18:26:00Z</datestamp>
      <setSpec>user-biosyslit</setSpec>
    </header>
    <header>
      <identifier>oai:zenodo.org:234837</identifier>
      <datestamp>2017-01-09T02:40:05Z</datestamp>
      <setSpec>user-biosyslit</setSpec>
    </header>
    <header>
      <identifier>oai:zenodo.org:234806</identifier>
      <datestamp>2017-01-09T02:21:27Z</datestamp>
      <setSpec>user-biosyslit</setSpec>
    </header>
    <header>
      <identifier>oai:zenodo.org:233747</identifier>
      <datestamp>2017-01-08T11:18:53Z</datestamp>
      <setSpec>user-biosyslit</setSpec>
    </header>
    <header>
      <identifier>oai:zenodo.org:235262</identifier>
      <datestamp>2017-01-09T07:35:10Z</datestamp>
      <setSpec>user-biosyslit</setSpec>
    </header>
    <header>
      <identifier>oai:zenodo.org:234074</identifier>
      <datestamp>2017-01-08T14:39:05Z</datestamp>
      <setSpec>user-biosyslit</setSpec>
    </header>
    <header>
      <identifier>oai:zenodo.org:234357</identifier>
      <datestamp>2017-01-08T18:47:18Z</datestamp>
      <setSpec>user-biosyslit</setSpec>
    </header>
    <header>
      <identifier>oai:zenodo.org:236428</identifier>
      <datestamp>2017-01-10T00:06:36Z</datestamp>
      <setSpec>user-biosyslit</setSpec>
    </header>
    <header>
      <identifier>oai:zenodo.org:235821</identifier>
      <datestamp>2017-01-09T15:30:06Z</datestamp>
      <setSpec>user-biosyslit</setSpec>
    </header>
    <header>
      <identifier>oai:zenodo.org:235818</identifier>
      <datestamp>2017-01-09T15:29:56Z</datestamp>
      <setSpec>user-biosyslit</setSpec>
    </header>
    <header>
      <identifier>oai:zenodo.org:236411</identifier>
      <datestamp>2017-01-09T23:55:57Z</datestamp>
      <setSpec>user-biosyslit</setSpec>
    </header>
    <header>
      <identifier>oai:zenodo.org:236553</identifier>
      <datestamp>2017-01-10T01:22:55Z</datestamp>
      <setSpec>user-biosyslit</setSpec>
    </header>
    <header>
      <identifier>oai:zenodo.org:236283</identifier>
      <datestamp>2017-01-09T21:39:53Z</datestamp>
      <setSpec>user-biosyslit</setSpec>
    </header>
    <header>
      <identifier>oai:zenodo.org:270786</identifier>
      <datestamp>2017-02-07T23:56:08Z</datestamp>
      <setSpec>user-biosyslit</setSpec>
    </header>
    <header>
      <identifier>oai:zenodo.org:236076</identifier>
      <datestamp>2017-01-09T18:31:13Z</datestamp>
      <setSpec>user-biosyslit</setSpec>
    </header>
    <resumptionToken expirationDate="2017-08-31T15:46:14Z" cursor="48000" completeListSize="77796">.eJyNyssKgkAUANB_uWuJeVg-oI1o4kLFppF0E6Yi1mjhFOpI_16b1rU-ZwFZ1xXYaGVSbFkbtLHwWkcY6RrIcrgJcWo_DOUxFWUveOGnz32Xoow0RuTKKXQzGqkrijus2C4hR2xOvEVzcuCPTO2nlAYjQ54RqmSOLsHnVTT2RX7274z3jmCkGmIvmRl2WE7L78N_PvXzuXILGtyLpgZbN4kG17EYGgn28nq9AZk1UTs.DInATg.l3maiGuryCdU1tk6q3g7Q8rBhSQ</resumptionToken>
  </ListIdentifiers>
</OAI-PMH>
