<?xml version='1.0' encoding='UTF-8'?>
<?xml-stylesheet type="text/xsl" href="/static/xsl/oai2.v1.0.xsl"?>
<OAI-PMH xmlns="http://www.openarchives.org/OAI/2.0/" xmlns:xsi="http://www.w3.org/2001/XMLSchema-instance" xsi:schemaLocation="http://www.openarchives.org/OAI/2.0/ http://www.openarchives.org/OAI/2.0/OAI-PMH.xsd">
  <responseDate>2017-08-31T15:41:54Z</responseDate>
  <request verb="ListIdentifiers" resumptionToken=".eJyNysEKgjAYAOB3-c8Sm9OmQhfRpIPKWkp6CZsi1bJwhTrp3evSuc7fN4Nqmho8tLCoY1m269iuuXSRbVMDlOhvUh5OHwexz6XoZFZF-XN7zVFhtjQJ1BgHBUn0BaVXrPmamXvsjNkJTWyXPQq9HXOyGTgKaazZlJw3n1eTNJLlMbrzrPMlN-s-DdnEsc9LIr4P__n0zxeoFRhwr9oGPEwcAy5D1bcKvPn1egPmI1GI.DIm_wg.Xo6RJeRCNJM-h7_imlH9rKkjxQQ">https://zenodo.org/oai2d</request>
  <ListIdentifiers>
    <header>
      <identifier>oai:zenodo.org:232761</identifier>
      <datestamp>2017-01-06T22:36:54Z</datestamp>
      <setSpec>user-biosyslit</setSpec>
    </header>
    <header>
      <identifier>oai:zenodo.org:234903</identifier>
      <datestamp>2017-01-09T03:17:16Z</datestamp>
      <setSpec>user-biosyslit</setSpec>
    </header>
    <header>
      <identifier>oai:zenodo.org:233042</identifier>
      <datestamp>2017-01-07T23:12:18Z</datestamp>
      <setSpec>user-biosyslit</setSpec>
    </header>
    <header>
      <identifier>oai:zenodo.org:232653</identifier>
      <datestamp>2017-01-06T21:10:23Z</datestamp>
      <setSpec>user-biosyslit</setSpec>
    </header>
    <header>
      <identifier>oai:zenodo.org:232694</identifier>
      <datestamp>2017-01-06T21:38:15Z</datestamp>
      <setSpec>user-biosyslit</setSpec>
    </header>
    <header>
      <identifier>oai:zenodo.org:233168</identifier>
      <datestamp>2017-01-08T01:39:21Z</datestamp>
      <setSpec>user-biosyslit</setSpec>
    </header>
    <header>
      <identifier>oai:zenodo.org:233066</identifier>
      <datestamp>2017-01-07T23:38:41Z</datestamp>
      <setSpec>user-biosyslit</setSpec>
    </header>
    <header>
      <identifier>oai:zenodo.org:233148</identifier>
      <datestamp>2017-01-08T01:20:48Z</datestamp>
      <setSpec>user-biosyslit</setSpec>
    </header>
    <header>
      <identifier>oai:zenodo.org:232842</identifier>
      <datestamp>2017-01-07T00:16:42Z</datestamp>
      <setSpec>user-biosyslit</setSpec>
    </header>
    <header>
      <identifier>oai:zenodo.org:289748</identifier>
      <datestamp>2017-02-10T00:25:28Z</datestamp>
      <setSpec>user-biosyslit</setSpec>
    </header>
    <header>
      <identifier>oai:zenodo.org:233171</identifier>
      <datestamp>2017-01-08T01:39:33Z</datestamp>
      <setSpec>user-biosyslit</setSpec>
    </header>
    <header>
      <identifier>oai:zenodo.org:236450</identifier>
      <datestamp>2017-01-10T00:19:04Z</datestamp>
      <setSpec>user-biosyslit</setSpec>
    </header>
    <header>
      <identifier>oai:zenodo.org:289544</identifier>
      <datestamp>2017-02-09T23:49:18Z</datestamp>
      <setSpec>user-biosyslit</setSpec>
    </header>
    <header>
      <identifier>oai:zenodo.org:233519</identifier>
      <datestamp>2017-01-08T07:46:23Z</datestamp>
      <setSpec>user-biosyslit</setSpec>
    </header>
    <header>
      <identifier>oai:zenodo.org:495323</identifier>
      <datestamp>2017-04-06T07:53:56Z</datestamp>
      <setSpec>user-biosyslit</setSpec>
    </header>
    <header>
      <identifier>oai:zenodo.org:228753</identifier>
      <datestamp>2017-01-03T04:20:38Z</datestamp>
      <setSpec>user-biosyslit</setSpec>
    </header>
    <header>
      <identifier>oai:zenodo.org:495285</identifier>
      <datestamp>2017-04-06T07:16:47Z</datestamp>
      <setSpec>user-biosyslit</setSpec>
    </header>
    <header>
      <identifier>oai:zenodo.org:228074</identifier>
      <datestamp>2017-01-02T09:58:04Z</datestamp>
      <setSpec>user-biosyslit</setSpec>
    </header>
    <header>
      <identifier>oai:zenodo.org:229975</identifier>
      <datestamp>2017-01-04T16:38:48Z</datestamp>
      <setSpec>user-biosyslit</setSpec>
    </header>
    <header>
      <identifier>oai:zenodo.org:289788</identifier>
      <datestamp>2017-02-10T00:30:35Z</datestamp>
      <setSpec>user-biosyslit</setSpec>
    </header>
    <header>
      <identifier>oai:zenodo.org:227815</identifier>
      <datestamp>2017-01-02T05:31:15Z</datestamp>
      <setSpec>user-biosyslit</setSpec>
    </header>
    <header>
      <identifier>oai:zenodo.org:275363</identifier>
      <datestamp>2017-02-08T16:09:52Z</datestamp>
      <setSpec>user-biosyslit</setSpec>
    </header>
    <header>
      <identifier>oai:zenodo.org:495563</identifier>
      <datestamp>2017-04-07T08:02:46Z</datestamp>
      <setSpec>user-biosyslit</setSpec>
    </header>
    <header>
      <identifier>oai:zenodo.org:228751</identifier>
      <datestamp>2017-01-03T04:20:32Z</datestamp>
      <setSpec>user-biosyslit</setSpec>
    </header>
    <header>
      <identifier>oai:zenodo.org:495836</identifier>
      <datestamp>2017-04-10T07:21:13Z</datestamp>
      <setSpec>user-biosyslit</setSpec>
    </header>
    <header>
      <identifier>oai:zenodo.org:495845</identifier>
      <datestamp>2017-04-10T07:27:20Z</datestamp>
      <setSpec>user-biosyslit</setSpec>
    </header>
    <header>
      <identifier>oai:zenodo.org:229031</identifier>
      <datestamp>2017-01-03T08:37:49Z</datestamp>
      <setSpec>user-biosyslit</setSpec>
    </header>
    <header>
      <identifier>oai:zenodo.org:228394</identifier>
      <datestamp>2017-01-02T23:27:32Z</datestamp>
      <setSpec>user-biosyslit</setSpec>
    </header>
    <header>
      <identifier>oai:zenodo.org:228977</identifier>
      <datestamp>2017-01-03T07:53:53Z</datestamp>
      <setSpec>user-biosyslit</setSpec>
    </header>
    <header>
      <identifier>oai:zenodo.org:228487</identifier>
      <datestamp>2017-01-03T00:32:09Z</datestamp>
      <setSpec>user-biosyslit</setSpec>
    </header>
    <header>
      <identifier>oai:zenodo.org:229250</identifier>
      <datestamp>2017-01-03T13:13:45Z</datestamp>
      <setSpec>user-biosyslit</setSpec>
    </header>
    <header>
      <identifier>oai:zenodo.org:229557</identifier>
      <datestamp>2017-01-03T18:06:08Z</datestamp>
      <setSpec>user-biosyslit</setSpec>
    </header>
    <header>
      <identifier>oai:zenodo.org:228541</identifier>
      <datestamp>2017-01-03T01:14:48Z</datestamp>
      <setSpec>user-biosyslit</setSpec>
    </header>
    <header>
      <identifier>oai:zenodo.org:228071</identifier>
      <datestamp>2017-01-02T09:57:54Z</datestamp>
      <setSpec>user-biosyslit</setSpec>
    </header>
    <header>
      <identifier>oai:zenodo.org:496982</identifier>
      <datestamp>2017-04-11T07:48:09Z</datestamp>
      <setSpec>user-biosyslit</setSpec>
    </header>
    <header>
      <identifier>oai:zenodo.org:230212</identifier>
      <datestamp>2017-01-04T21:16:51Z</datestamp>
      <setSpec>user-biosyslit</setSpec>
    </header>
    <header>
      <identifier>oai:zenodo.org:230053</identifier>
      <datestamp>2017-01-04T18:30:23Z</datestamp>
      <setSpec>user-biosyslit</setSpec>
    </header>
    <header>
      <identifier>oai:zenodo.org:227953</identifier>
      <datestamp>2017-01-02T07:48:45Z</datestamp>
      <setSpec>user-biosyslit</setSpec>
    </header>
    <header>
      <identifier>oai:zenodo.org:229832</identifier>
      <datestamp>2017-01-04T07:50:35Z</datestamp>
      <setSpec>user-biosyslit</setSpec>
    </header>
    <header>
      <identifier>oai:zenodo.org:230581</identifier>
      <datestamp>2017-01-05T04:07:57Z</datestamp>
      <setSpec>user-biosyslit</setSpec>
    </header>
    <header>
      <identifier>oai:zenodo.org:231424</identifier>
      <datestamp>2017-01-06T01:39:43Z</datestamp>
      <setSpec>user-biosyslit</setSpec>
    </header>
    <header>
      <identifier>oai:zenodo.org:230697</identifier>
      <datestamp>2017-01-05T06:54:17Z</datestamp>
      <setSpec>user-biosyslit</setSpec>
    </header>
    <header>
      <identifier>oai:zenodo.org:230065</identifier>
      <datestamp>2017-01-04T18:50:17Z</datestamp>
      <setSpec>user-biosyslit</setSpec>
    </header>
    <header>
      <identifier>oai:zenodo.org:230816</identifier>
      <datestamp>2017-01-05T08:46:38Z</datestamp>
      <setSpec>user-biosyslit</setSpec>
    </header>
    <header>
      <identifier>oai:zenodo.org:230283</identifier>
      <datestamp>2017-01-04T22:12:40Z</datestamp>
      <setSpec>user-biosyslit</setSpec>
    </header>
    <header>
      <identifier>oai:zenodo.org:230113</identifier>
      <datestamp>2017-01-04T19:23:16Z</datestamp>
      <setSpec>user-biosyslit</setSpec>
    </header>
    <header>
      <identifier>oai:zenodo.org:230052</identifier>
      <datestamp>2017-01-04T18:30:19Z</datestamp>
      <setSpec>user-biosyslit</setSpec>
    </header>
    <header>
      <identifier>oai:zenodo.org:229998</identifier>
      <datestamp>2017-01-04T17:04:50Z</datestamp>
      <setSpec>user-biosyslit</setSpec>
    </header>
    <header>
      <identifier>oai:zenodo.org:231778</identifier>
      <datestamp>2017-01-06T07:13:23Z</datestamp>
      <setSpec>user-biosyslit</setSpec>
    </header>
    <header>
      <identifier>oai:zenodo.org:231250</identifier>
      <datestamp>2017-01-05T17:59:59Z</datestamp>
      <setSpec>user-biosyslit</setSpec>
    </header>
    <header>
      <identifier>oai:zenodo.org:269888</identifier>
      <datestamp>2017-02-07T20:39:30Z</datestamp>
      <setSpec>user-biosyslit</setSpec>
    </header>
    <header>
      <identifier>oai:zenodo.org:231052</identifier>
      <datestamp>2017-01-05T13:06:32Z</datestamp>
      <setSpec>user-biosyslit</setSpec>
    </header>
    <header>
      <identifier>oai:zenodo.org:231926</identifier>
      <datestamp>2017-01-06T08:50:01Z</datestamp>
      <setSpec>user-biosyslit</setSpec>
    </header>
    <header>
      <identifier>oai:zenodo.org:231864</identifier>
      <datestamp>2017-01-06T07:59:51Z</datestamp>
      <setSpec>user-biosyslit</setSpec>
    </header>
    <header>
      <identifier>oai:zenodo.org:231235</identifier>
      <datestamp>2017-01-05T17:52:06Z</datestamp>
      <setSpec>user-biosyslit</setSpec>
    </header>
    <header>
      <identifier>oai:zenodo.org:231497</identifier>
      <datestamp>2017-01-06T02:46:51Z</datestamp>
      <setSpec>user-biosyslit</setSpec>
    </header>
    <header>
      <identifier>oai:zenodo.org:270543</identifier>
      <datestamp>2017-02-07T23:26:40Z</datestamp>
      <setSpec>user-biosyslit</setSpec>
    </header>
    <header>
      <identifier>oai:zenodo.org:231798</identifier>
      <datestamp>2017-01-06T07:30:46Z</datestamp>
      <setSpec>user-biosyslit</setSpec>
    </header>
    <header>
      <identifier>oai:zenodo.org:230738</identifier>
      <datestamp>2017-01-05T07:37:35Z</datestamp>
      <setSpec>user-biosyslit</setSpec>
    </header>
    <header>
      <identifier>oai:zenodo.org:230655</identifier>
      <datestamp>2017-01-05T05:47:18Z</datestamp>
      <setSpec>user-biosyslit</setSpec>
    </header>
    <header>
      <identifier>oai:zenodo.org:230990</identifier>
      <datestamp>2017-01-05T12:00:24Z</datestamp>
      <setSpec>user-biosyslit</setSpec>
    </header>
    <header>
      <identifier>oai:zenodo.org:288344</identifier>
      <datestamp>2017-02-09T20:41:41Z</datestamp>
      <setSpec>user-biosyslit</setSpec>
    </header>
    <header>
      <identifier>oai:zenodo.org:231098</identifier>
      <datestamp>2017-01-05T14:22:16Z</datestamp>
      <setSpec>user-biosyslit</setSpec>
    </header>
    <header>
      <identifier>oai:zenodo.org:230651</identifier>
      <datestamp>2017-01-05T05:47:00Z</datestamp>
      <setSpec>user-biosyslit</setSpec>
    </header>
    <header>
      <identifier>oai:zenodo.org:288512</identifier>
      <datestamp>2017-02-09T21:04:59Z</datestamp>
      <setSpec>user-biosyslit</setSpec>
    </header>
    <header>
      <identifier>oai:zenodo.org:270951</identifier>
      <datestamp>2017-02-08T00:20:42Z</datestamp>
      <setSpec>user-biosyslit</setSpec>
    </header>
    <header>
      <identifier>oai:zenodo.org:270033</identifier>
      <datestamp>2017-02-07T22:10:59Z</datestamp>
      <setSpec>user-biosyslit</setSpec>
    </header>
    <header>
      <identifier>oai:zenodo.org:270246</identifier>
      <datestamp>2017-02-07T22:53:13Z</datestamp>
      <setSpec>user-biosyslit</setSpec>
    </header>
    <header>
      <identifier>oai:zenodo.org:231750</identifier>
      <datestamp>2017-01-06T06:46:45Z</datestamp>
      <setSpec>user-biosyslit</setSpec>
    </header>
    <header>
      <identifier>oai:zenodo.org:270241</identifier>
      <datestamp>2017-02-07T22:53:40Z</datestamp>
      <setSpec>user-biosyslit</setSpec>
    </header>
    <header>
      <identifier>oai:zenodo.org:270155</identifier>
      <datestamp>2017-02-07T22:27:25Z</datestamp>
      <setSpec>user-biosyslit</setSpec>
    </header>
    <header>
      <identifier>oai:zenodo.org:275514</identifier>
      <datestamp>2017-02-08T16:36:40Z</datestamp>
      <setSpec>user-biosyslit</setSpec>
    </header>
    <header>
      <identifier>oai:zenodo.org:270464</identifier>
      <datestamp>2017-02-07T23:16:43Z</datestamp>
      <setSpec>user-biosyslit</setSpec>
    </header>
    <header>
      <identifier>oai:zenodo.org:288532</identifier>
      <datestamp>2017-02-09T21:05:50Z</datestamp>
      <setSpec>user-biosyslit</setSpec>
    </header>
    <header>
      <identifier>oai:zenodo.org:270423</identifier>
      <datestamp>2017-02-07T23:13:24Z</datestamp>
      <setSpec>user-biosyslit</setSpec>
    </header>
    <header>
      <identifier>oai:zenodo.org:232003</identifier>
      <datestamp>2017-01-06T10:07:56Z</datestamp>
      <setSpec>user-biosyslit</setSpec>
    </header>
    <header>
      <identifier>oai:zenodo.org:233314</identifier>
      <datestamp>2017-01-08T03:23:29Z</datestamp>
      <setSpec>user-biosyslit</setSpec>
    </header>
    <header>
      <identifier>oai:zenodo.org:232141</identifier>
      <datestamp>2017-01-06T11:31:23Z</datestamp>
      <setSpec>user-biosyslit</setSpec>
    </header>
    <header>
      <identifier>oai:zenodo.org:232046</identifier>
      <datestamp>2017-01-06T10:42:45Z</datestamp>
      <setSpec>user-biosyslit</setSpec>
    </header>
    <header>
      <identifier>oai:zenodo.org:232458</identifier>
      <datestamp>2017-01-06T17:57:54Z</datestamp>
      <setSpec>user-biosyslit</setSpec>
    </header>
    <header>
      <identifier>oai:zenodo.org:232114</identifier>
      <datestamp>2017-01-06T11:13:09Z</datestamp>
      <setSpec>user-biosyslit</setSpec>
    </header>
    <header>
      <identifier>oai:zenodo.org:232374</identifier>
      <datestamp>2017-01-06T16:36:07Z</datestamp>
      <setSpec>user-biosyslit</setSpec>
    </header>
    <header>
      <identifier>oai:zenodo.org:232370</identifier>
      <datestamp>2017-01-06T16:35:56Z</datestamp>
      <setSpec>user-biosyslit</setSpec>
    </header>
    <header>
      <identifier>oai:zenodo.org:233525</identifier>
      <datestamp>2017-01-08T08:07:31Z</datestamp>
      <setSpec>user-biosyslit</setSpec>
    </header>
    <header>
      <identifier>oai:zenodo.org:232846</identifier>
      <datestamp>2017-01-07T00:16:59Z</datestamp>
      <setSpec>user-biosyslit</setSpec>
    </header>
    <header>
      <identifier>oai:zenodo.org:232828</identifier>
      <datestamp>2017-01-06T23:42:05Z</datestamp>
      <setSpec>user-biosyslit</setSpec>
    </header>
    <header>
      <identifier>oai:zenodo.org:233522</identifier>
      <datestamp>2017-01-08T08:04:00Z</datestamp>
      <setSpec>user-biosyslit</setSpec>
    </header>
    <header>
      <identifier>oai:zenodo.org:289055</identifier>
      <datestamp>2017-02-09T22:32:44Z</datestamp>
      <setSpec>user-biosyslit</setSpec>
    </header>
    <header>
      <identifier>oai:zenodo.org:233041</identifier>
      <datestamp>2017-01-07T23:12:16Z</datestamp>
      <setSpec>user-biosyslit</setSpec>
    </header>
    <header>
      <identifier>oai:zenodo.org:232772</identifier>
      <datestamp>2017-01-06T22:51:01Z</datestamp>
      <setSpec>user-biosyslit</setSpec>
    </header>
    <header>
      <identifier>oai:zenodo.org:233817</identifier>
      <datestamp>2017-01-08T12:10:03Z</datestamp>
      <setSpec>user-biosyslit</setSpec>
    </header>
    <header>
      <identifier>oai:zenodo.org:232898</identifier>
      <datestamp>2017-01-07T01:08:40Z</datestamp>
      <setSpec>user-biosyslit</setSpec>
    </header>
    <header>
      <identifier>oai:zenodo.org:233252</identifier>
      <datestamp>2017-01-08T02:35:11Z</datestamp>
      <setSpec>user-biosyslit</setSpec>
    </header>
    <header>
      <identifier>oai:zenodo.org:232843</identifier>
      <datestamp>2017-01-07T00:16:44Z</datestamp>
      <setSpec>user-biosyslit</setSpec>
    </header>
    <header>
      <identifier>oai:zenodo.org:234043</identifier>
      <datestamp>2017-01-08T14:13:46Z</datestamp>
      <setSpec>user-biosyslit</setSpec>
    </header>
    <header>
      <identifier>oai:zenodo.org:232897</identifier>
      <datestamp>2017-01-07T01:08:36Z</datestamp>
      <setSpec>user-biosyslit</setSpec>
    </header>
    <header>
      <identifier>oai:zenodo.org:233765</identifier>
      <datestamp>2017-01-08T11:34:17Z</datestamp>
      <setSpec>user-biosyslit</setSpec>
    </header>
    <header>
      <identifier>oai:zenodo.org:234184</identifier>
      <datestamp>2017-01-08T15:56:15Z</datestamp>
      <setSpec>user-biosyslit</setSpec>
    </header>
    <header>
      <identifier>oai:zenodo.org:234028</identifier>
      <datestamp>2017-01-08T14:13:03Z</datestamp>
      <setSpec>user-biosyslit</setSpec>
    </header>
    <header>
      <identifier>oai:zenodo.org:233814</identifier>
      <datestamp>2017-01-08T12:09:39Z</datestamp>
      <setSpec>user-biosyslit</setSpec>
    </header>
    <resumptionToken expirationDate="2017-08-31T15:43:54Z" cursor="13700" completeListSize="77796">.eJyNz7EOgjAUQNF_6UzMK1VAEheCEgYhUCHAYrAQghQlVAOU8O-yOOt8z3JnJMqyQCZsdtggoJEdaABbDHsFCdY_Ob_Wa0YsiTl78Ch34nfYxpCqle7ZYjzbKfFkA36LJT0FaoKNMaphCi7RK5XhGBN3oHDUzzKYvLu7uoL4Ds9uTkejh8WpWvT-MZgotmhG2NfhP5386WxxQArq8qpEJibrVTPkfSWQOS_LB4r8USs.DIm_wg.OQBnh-D4V9zq1EDIBZhaD62W9Lo</resumptionToken>
  </ListIdentifiers>
</OAI-PMH>
