<?xml version='1.0' encoding='UTF-8'?>
<?xml-stylesheet type="text/xsl" href="/static/xsl/oai2.v1.0.xsl"?>
<OAI-PMH xmlns="http://www.openarchives.org/OAI/2.0/" xmlns:xsi="http://www.w3.org/2001/XMLSchema-instance" xsi:schemaLocation="http://www.openarchives.org/OAI/2.0/ http://www.openarchives.org/OAI/2.0/OAI-PMH.xsd">
  <responseDate>2017-08-31T15:41:50Z</responseDate>
  <request verb="ListIdentifiers" resumptionToken=".eJyNyssKgkAYQOF3-dcScxE0oU1o4kJlnJRsEzaKmGOJU6gjvXu1aF1wdudbQFVVCQ5aWRQjk6w_mTbC2AAlhpuUp-a9QRwyKa4yLfzskXQZykltRa6aQjenkW5R3GHNd4wcsD2lDZrZPr3nOpkyGowceVao2RxdgrcraezL49nveXrdSk7KIfbYzPGWH6n4Ovyn0z-dqzZgQF_UFTiYrA1ox2KoFTjL8_kCkklRMg.DIm_vg.6FaniuNNdg4A9GkOz00SjhL9Ws8">https://zenodo.org/oai2d</request>
  <ListIdentifiers>
    <header>
      <identifier>oai:zenodo.org:231599</identifier>
      <datestamp>2017-01-06T04:43:42Z</datestamp>
      <setSpec>user-biosyslit</setSpec>
    </header>
    <header>
      <identifier>oai:zenodo.org:270429</identifier>
      <datestamp>2017-02-07T23:13:39Z</datestamp>
      <setSpec>user-biosyslit</setSpec>
    </header>
    <header>
      <identifier>oai:zenodo.org:231220</identifier>
      <datestamp>2017-01-05T17:24:08Z</datestamp>
      <setSpec>user-biosyslit</setSpec>
    </header>
    <header>
      <identifier>oai:zenodo.org:231257</identifier>
      <datestamp>2017-01-05T18:05:44Z</datestamp>
      <setSpec>user-biosyslit</setSpec>
    </header>
    <header>
      <identifier>oai:zenodo.org:230781</identifier>
      <datestamp>2017-01-05T08:12:02Z</datestamp>
      <setSpec>user-biosyslit</setSpec>
    </header>
    <header>
      <identifier>oai:zenodo.org:231797</identifier>
      <datestamp>2017-01-06T07:30:40Z</datestamp>
      <setSpec>user-biosyslit</setSpec>
    </header>
    <header>
      <identifier>oai:zenodo.org:231475</identifier>
      <datestamp>2017-01-06T02:30:15Z</datestamp>
      <setSpec>user-biosyslit</setSpec>
    </header>
    <header>
      <identifier>oai:zenodo.org:270466</identifier>
      <datestamp>2017-02-07T23:16:49Z</datestamp>
      <setSpec>user-biosyslit</setSpec>
    </header>
    <header>
      <identifier>oai:zenodo.org:275429</identifier>
      <datestamp>2017-02-08T16:20:05Z</datestamp>
      <setSpec>user-biosyslit</setSpec>
    </header>
    <header>
      <identifier>oai:zenodo.org:230954</identifier>
      <datestamp>2017-01-05T11:44:20Z</datestamp>
      <setSpec>user-biosyslit</setSpec>
    </header>
    <header>
      <identifier>oai:zenodo.org:230663</identifier>
      <datestamp>2017-01-05T05:57:52Z</datestamp>
      <setSpec>user-biosyslit</setSpec>
    </header>
    <header>
      <identifier>oai:zenodo.org:270802</identifier>
      <datestamp>2017-02-07T23:56:49Z</datestamp>
      <setSpec>user-biosyslit</setSpec>
    </header>
    <header>
      <identifier>oai:zenodo.org:269922</identifier>
      <datestamp>2017-02-07T20:44:04Z</datestamp>
      <setSpec>user-biosyslit</setSpec>
    </header>
    <header>
      <identifier>oai:zenodo.org:231601</identifier>
      <datestamp>2017-01-06T04:43:48Z</datestamp>
      <setSpec>user-biosyslit</setSpec>
    </header>
    <header>
      <identifier>oai:zenodo.org:270201</identifier>
      <datestamp>2017-02-07T22:31:29Z</datestamp>
      <setSpec>user-biosyslit</setSpec>
    </header>
    <header>
      <identifier>oai:zenodo.org:270279</identifier>
      <datestamp>2017-02-07T22:56:48Z</datestamp>
      <setSpec>user-biosyslit</setSpec>
    </header>
    <header>
      <identifier>oai:zenodo.org:270100</identifier>
      <datestamp>2017-02-07T22:18:53Z</datestamp>
      <setSpec>user-biosyslit</setSpec>
    </header>
    <header>
      <identifier>oai:zenodo.org:270434</identifier>
      <datestamp>2017-02-07T23:15:09Z</datestamp>
      <setSpec>user-biosyslit</setSpec>
    </header>
    <header>
      <identifier>oai:zenodo.org:231691</identifier>
      <datestamp>2017-01-06T06:04:25Z</datestamp>
      <setSpec>user-biosyslit</setSpec>
    </header>
    <header>
      <identifier>oai:zenodo.org:270357</identifier>
      <datestamp>2017-02-07T23:05:20Z</datestamp>
      <setSpec>user-biosyslit</setSpec>
    </header>
    <header>
      <identifier>oai:zenodo.org:270451</identifier>
      <datestamp>2017-02-07T23:16:05Z</datestamp>
      <setSpec>user-biosyslit</setSpec>
    </header>
    <header>
      <identifier>oai:zenodo.org:270262</identifier>
      <datestamp>2017-02-07T22:55:30Z</datestamp>
      <setSpec>user-biosyslit</setSpec>
    </header>
    <header>
      <identifier>oai:zenodo.org:270478</identifier>
      <datestamp>2017-02-07T23:17:26Z</datestamp>
      <setSpec>user-biosyslit</setSpec>
    </header>
    <header>
      <identifier>oai:zenodo.org:270165</identifier>
      <datestamp>2017-02-07T22:28:24Z</datestamp>
      <setSpec>user-biosyslit</setSpec>
    </header>
    <header>
      <identifier>oai:zenodo.org:270967</identifier>
      <datestamp>2017-02-08T00:22:50Z</datestamp>
      <setSpec>user-biosyslit</setSpec>
    </header>
    <header>
      <identifier>oai:zenodo.org:270137</identifier>
      <datestamp>2017-02-07T22:25:43Z</datestamp>
      <setSpec>user-biosyslit</setSpec>
    </header>
    <header>
      <identifier>oai:zenodo.org:232231</identifier>
      <datestamp>2017-01-06T14:05:19Z</datestamp>
      <setSpec>user-biosyslit</setSpec>
    </header>
    <header>
      <identifier>oai:zenodo.org:232120</identifier>
      <datestamp>2017-01-06T11:18:52Z</datestamp>
      <setSpec>user-biosyslit</setSpec>
    </header>
    <header>
      <identifier>oai:zenodo.org:232148</identifier>
      <datestamp>2017-01-06T11:45:18Z</datestamp>
      <setSpec>user-biosyslit</setSpec>
    </header>
    <header>
      <identifier>oai:zenodo.org:270387</identifier>
      <datestamp>2017-02-07T23:08:48Z</datestamp>
      <setSpec>user-biosyslit</setSpec>
    </header>
    <header>
      <identifier>oai:zenodo.org:232701</identifier>
      <datestamp>2017-01-06T21:55:47Z</datestamp>
      <setSpec>user-biosyslit</setSpec>
    </header>
    <header>
      <identifier>oai:zenodo.org:232683</identifier>
      <datestamp>2017-01-06T21:37:40Z</datestamp>
      <setSpec>user-biosyslit</setSpec>
    </header>
    <header>
      <identifier>oai:zenodo.org:233369</identifier>
      <datestamp>2017-01-08T04:02:26Z</datestamp>
      <setSpec>user-biosyslit</setSpec>
    </header>
    <header>
      <identifier>oai:zenodo.org:233311</identifier>
      <datestamp>2017-01-08T03:23:49Z</datestamp>
      <setSpec>user-biosyslit</setSpec>
    </header>
    <header>
      <identifier>oai:zenodo.org:234191</identifier>
      <datestamp>2017-01-08T16:04:58Z</datestamp>
      <setSpec>user-biosyslit</setSpec>
    </header>
    <header>
      <identifier>oai:zenodo.org:232747</identifier>
      <datestamp>2017-01-06T22:28:17Z</datestamp>
      <setSpec>user-biosyslit</setSpec>
    </header>
    <header>
      <identifier>oai:zenodo.org:232619</identifier>
      <datestamp>2017-01-06T20:40:33Z</datestamp>
      <setSpec>user-biosyslit</setSpec>
    </header>
    <header>
      <identifier>oai:zenodo.org:233185</identifier>
      <datestamp>2017-01-08T01:57:30Z</datestamp>
      <setSpec>user-biosyslit</setSpec>
    </header>
    <header>
      <identifier>oai:zenodo.org:233250</identifier>
      <datestamp>2017-01-08T02:35:46Z</datestamp>
      <setSpec>user-biosyslit</setSpec>
    </header>
    <header>
      <identifier>oai:zenodo.org:234581</identifier>
      <datestamp>2017-01-08T22:10:57Z</datestamp>
      <setSpec>user-biosyslit</setSpec>
    </header>
    <header>
      <identifier>oai:zenodo.org:233819</identifier>
      <datestamp>2017-01-08T12:10:12Z</datestamp>
      <setSpec>user-biosyslit</setSpec>
    </header>
    <header>
      <identifier>oai:zenodo.org:234880</identifier>
      <datestamp>2017-01-09T02:58:37Z</datestamp>
      <setSpec>user-biosyslit</setSpec>
    </header>
    <header>
      <identifier>oai:zenodo.org:234970</identifier>
      <datestamp>2017-01-09T04:08:29Z</datestamp>
      <setSpec>user-biosyslit</setSpec>
    </header>
    <header>
      <identifier>oai:zenodo.org:234874</identifier>
      <datestamp>2017-01-09T02:58:15Z</datestamp>
      <setSpec>user-biosyslit</setSpec>
    </header>
    <header>
      <identifier>oai:zenodo.org:234117</identifier>
      <datestamp>2017-01-08T15:13:42Z</datestamp>
      <setSpec>user-biosyslit</setSpec>
    </header>
    <header>
      <identifier>oai:zenodo.org:234339</identifier>
      <datestamp>2017-01-08T18:34:49Z</datestamp>
      <setSpec>user-biosyslit</setSpec>
    </header>
    <header>
      <identifier>oai:zenodo.org:235534</identifier>
      <datestamp>2017-01-09T11:33:56Z</datestamp>
      <setSpec>user-biosyslit</setSpec>
    </header>
    <header>
      <identifier>oai:zenodo.org:234640</identifier>
      <datestamp>2017-01-08T23:10:57Z</datestamp>
      <setSpec>user-biosyslit</setSpec>
    </header>
    <header>
      <identifier>oai:zenodo.org:237134</identifier>
      <datestamp>2017-01-10T11:24:30Z</datestamp>
      <setSpec>user-biosyslit</setSpec>
    </header>
    <header>
      <identifier>oai:zenodo.org:235078</identifier>
      <datestamp>2017-01-09T05:26:40Z</datestamp>
      <setSpec>user-biosyslit</setSpec>
    </header>
    <header>
      <identifier>oai:zenodo.org:235544</identifier>
      <datestamp>2017-01-09T11:34:33Z</datestamp>
      <setSpec>user-biosyslit</setSpec>
    </header>
    <header>
      <identifier>oai:zenodo.org:235784</identifier>
      <datestamp>2017-01-09T14:43:50Z</datestamp>
      <setSpec>user-biosyslit</setSpec>
    </header>
    <header>
      <identifier>oai:zenodo.org:235320</identifier>
      <datestamp>2017-01-09T08:50:30Z</datestamp>
      <setSpec>user-biosyslit</setSpec>
    </header>
    <header>
      <identifier>oai:zenodo.org:234811</identifier>
      <datestamp>2017-01-09T02:21:48Z</datestamp>
      <setSpec>user-biosyslit</setSpec>
    </header>
    <header>
      <identifier>oai:zenodo.org:236883</identifier>
      <datestamp>2017-01-10T07:21:07Z</datestamp>
      <setSpec>user-biosyslit</setSpec>
    </header>
    <header>
      <identifier>oai:zenodo.org:235915</identifier>
      <datestamp>2017-01-09T16:55:40Z</datestamp>
      <setSpec>user-biosyslit</setSpec>
    </header>
    <header>
      <identifier>oai:zenodo.org:235959</identifier>
      <datestamp>2017-01-09T17:14:23Z</datestamp>
      <setSpec>user-biosyslit</setSpec>
    </header>
    <header>
      <identifier>oai:zenodo.org:236245</identifier>
      <datestamp>2017-01-09T20:20:27Z</datestamp>
      <setSpec>user-biosyslit</setSpec>
    </header>
    <header>
      <identifier>oai:zenodo.org:236676</identifier>
      <datestamp>2017-01-10T02:45:12Z</datestamp>
      <setSpec>user-biosyslit</setSpec>
    </header>
    <header>
      <identifier>oai:zenodo.org:237049</identifier>
      <datestamp>2017-01-10T10:21:34Z</datestamp>
      <setSpec>user-biosyslit</setSpec>
    </header>
    <header>
      <identifier>oai:zenodo.org:236534</identifier>
      <datestamp>2017-01-10T01:23:25Z</datestamp>
      <setSpec>user-biosyslit</setSpec>
    </header>
    <header>
      <identifier>oai:zenodo.org:289197</identifier>
      <datestamp>2017-02-09T22:56:01Z</datestamp>
      <setSpec>user-biosyslit</setSpec>
    </header>
    <header>
      <identifier>oai:zenodo.org:236685</identifier>
      <datestamp>2017-01-10T02:52:58Z</datestamp>
      <setSpec>user-biosyslit</setSpec>
    </header>
    <header>
      <identifier>oai:zenodo.org:235585</identifier>
      <datestamp>2017-01-09T12:30:56Z</datestamp>
      <setSpec>user-biosyslit</setSpec>
    </header>
    <header>
      <identifier>oai:zenodo.org:235694</identifier>
      <datestamp>2017-01-09T13:43:47Z</datestamp>
      <setSpec>user-biosyslit</setSpec>
    </header>
    <header>
      <identifier>oai:zenodo.org:235540</identifier>
      <datestamp>2017-01-09T11:34:18Z</datestamp>
      <setSpec>user-biosyslit</setSpec>
    </header>
    <header>
      <identifier>oai:zenodo.org:236297</identifier>
      <datestamp>2017-01-09T21:46:23Z</datestamp>
      <setSpec>user-biosyslit</setSpec>
    </header>
    <header>
      <identifier>oai:zenodo.org:236285</identifier>
      <datestamp>2017-01-09T21:39:59Z</datestamp>
      <setSpec>user-biosyslit</setSpec>
    </header>
    <header>
      <identifier>oai:zenodo.org:236578</identifier>
      <datestamp>2017-01-10T01:40:34Z</datestamp>
      <setSpec>user-biosyslit</setSpec>
    </header>
    <header>
      <identifier>oai:zenodo.org:236604</identifier>
      <datestamp>2017-01-10T01:59:24Z</datestamp>
      <setSpec>user-biosyslit</setSpec>
    </header>
    <header>
      <identifier>oai:zenodo.org:236675</identifier>
      <datestamp>2017-01-10T02:45:08Z</datestamp>
      <setSpec>user-biosyslit</setSpec>
    </header>
    <header>
      <identifier>oai:zenodo.org:237809</identifier>
      <datestamp>2017-01-10T20:57:18Z</datestamp>
      <setSpec>user-biosyslit</setSpec>
    </header>
    <header>
      <identifier>oai:zenodo.org:237559</identifier>
      <datestamp>2017-01-10T17:00:31Z</datestamp>
      <setSpec>user-biosyslit</setSpec>
    </header>
    <header>
      <identifier>oai:zenodo.org:238123</identifier>
      <datestamp>2017-01-11T01:18:31Z</datestamp>
      <setSpec>user-biosyslit</setSpec>
    </header>
    <header>
      <identifier>oai:zenodo.org:238466</identifier>
      <datestamp>2017-01-11T05:58:28Z</datestamp>
      <setSpec>user-biosyslit</setSpec>
    </header>
    <header>
      <identifier>oai:zenodo.org:238066</identifier>
      <datestamp>2017-01-11T00:41:59Z</datestamp>
      <setSpec>user-biosyslit</setSpec>
    </header>
    <header>
      <identifier>oai:zenodo.org:238352</identifier>
      <datestamp>2017-01-11T04:39:16Z</datestamp>
      <setSpec>user-biosyslit</setSpec>
    </header>
    <header>
      <identifier>oai:zenodo.org:238219</identifier>
      <datestamp>2017-01-11T02:23:35Z</datestamp>
      <setSpec>user-biosyslit</setSpec>
    </header>
    <header>
      <identifier>oai:zenodo.org:238551</identifier>
      <datestamp>2017-01-11T07:21:38Z</datestamp>
      <setSpec>user-biosyslit</setSpec>
    </header>
    <header>
      <identifier>oai:zenodo.org:229653</identifier>
      <datestamp>2017-01-03T19:55:13Z</datestamp>
      <setSpec>user-biosyslit</setSpec>
    </header>
    <header>
      <identifier>oai:zenodo.org:229067</identifier>
      <datestamp>2017-01-03T09:02:14Z</datestamp>
      <setSpec>user-biosyslit</setSpec>
    </header>
    <header>
      <identifier>oai:zenodo.org:228771</identifier>
      <datestamp>2017-01-03T04:38:04Z</datestamp>
      <setSpec>user-biosyslit</setSpec>
    </header>
    <header>
      <identifier>oai:zenodo.org:228392</identifier>
      <datestamp>2017-01-02T23:20:41Z</datestamp>
      <setSpec>user-biosyslit</setSpec>
    </header>
    <header>
      <identifier>oai:zenodo.org:229208</identifier>
      <datestamp>2017-01-03T12:25:29Z</datestamp>
      <setSpec>user-biosyslit</setSpec>
    </header>
    <header>
      <identifier>oai:zenodo.org:270003</identifier>
      <datestamp>2017-02-07T21:59:44Z</datestamp>
      <setSpec>user-biosyslit</setSpec>
    </header>
    <header>
      <identifier>oai:zenodo.org:229063</identifier>
      <datestamp>2017-01-03T09:02:01Z</datestamp>
      <setSpec>user-biosyslit</setSpec>
    </header>
    <header>
      <identifier>oai:zenodo.org:229824</identifier>
      <datestamp>2017-01-04T07:35:15Z</datestamp>
      <setSpec>user-biosyslit</setSpec>
    </header>
    <header>
      <identifier>oai:zenodo.org:229378</identifier>
      <datestamp>2017-01-03T15:03:33Z</datestamp>
      <setSpec>user-biosyslit</setSpec>
    </header>
    <header>
      <identifier>oai:zenodo.org:230087</identifier>
      <datestamp>2017-01-04T19:07:19Z</datestamp>
      <setSpec>user-biosyslit</setSpec>
    </header>
    <header>
      <identifier>oai:zenodo.org:230242</identifier>
      <datestamp>2017-01-04T21:36:56Z</datestamp>
      <setSpec>user-biosyslit</setSpec>
    </header>
    <header>
      <identifier>oai:zenodo.org:229614</identifier>
      <datestamp>2017-01-03T19:22:04Z</datestamp>
      <setSpec>user-biosyslit</setSpec>
    </header>
    <header>
      <identifier>oai:zenodo.org:229389</identifier>
      <datestamp>2017-01-03T15:07:59Z</datestamp>
      <setSpec>user-biosyslit</setSpec>
    </header>
    <header>
      <identifier>oai:zenodo.org:229677</identifier>
      <datestamp>2017-01-03T20:25:39Z</datestamp>
      <setSpec>user-biosyslit</setSpec>
    </header>
    <header>
      <identifier>oai:zenodo.org:269872</identifier>
      <datestamp>2017-02-07T20:37:46Z</datestamp>
      <setSpec>user-biosyslit</setSpec>
    </header>
    <header>
      <identifier>oai:zenodo.org:230181</identifier>
      <datestamp>2017-01-04T20:45:10Z</datestamp>
      <setSpec>user-biosyslit</setSpec>
    </header>
    <header>
      <identifier>oai:zenodo.org:231689</identifier>
      <datestamp>2017-01-06T06:04:17Z</datestamp>
      <setSpec>user-biosyslit</setSpec>
    </header>
    <header>
      <identifier>oai:zenodo.org:231536</identifier>
      <datestamp>2017-01-06T03:34:39Z</datestamp>
      <setSpec>user-biosyslit</setSpec>
    </header>
    <header>
      <identifier>oai:zenodo.org:231099</identifier>
      <datestamp>2017-01-05T14:22:19Z</datestamp>
      <setSpec>user-biosyslit</setSpec>
    </header>
    <header>
      <identifier>oai:zenodo.org:230001</identifier>
      <datestamp>2017-01-04T17:04:58Z</datestamp>
      <setSpec>user-biosyslit</setSpec>
    </header>
    <header>
      <identifier>oai:zenodo.org:230700</identifier>
      <datestamp>2017-01-05T06:54:27Z</datestamp>
      <setSpec>user-biosyslit</setSpec>
    </header>
    <resumptionToken expirationDate="2017-08-31T15:43:50Z" cursor="12800" completeListSize="77796">.eJyNysEKgjAYAOB3-c8SmyPXhC6hSQcVW5P0EjZFrFnhinTiu-elc52_bwRdVSW4aMGYwxhyMKWU4SW2LdCyuyt1amYGeUyVvClRBOlr36Yos2saeboPvYxE5oriFhu-TewjXvWiQUNyEM_M7PuU7N4c-TQ0yRBddvMrSRyo_Bw8uLhtFLfLLvaTgeMNz4n8PvznMz-fp9dgwaOoK3AxQRZc30VXa3DHafoArOxRRw.DIm_vg.9Zhof6TiZ62yBFMlbGlqB11YoRk</resumptionToken>
  </ListIdentifiers>
</OAI-PMH>
