<?xml version='1.0' encoding='UTF-8'?>
<?xml-stylesheet type="text/xsl" href="/static/xsl/oai2.v1.0.xsl"?>
<OAI-PMH xmlns="http://www.openarchives.org/OAI/2.0/" xmlns:xsi="http://www.w3.org/2001/XMLSchema-instance" xsi:schemaLocation="http://www.openarchives.org/OAI/2.0/ http://www.openarchives.org/OAI/2.0/OAI-PMH.xsd">
  <responseDate>2017-08-31T15:45:42Z</responseDate>
  <request verb="ListIdentifiers" resumptionToken=".eJyNz00PQzAAgOH_0rMsrfpOdhEmDggdwWUxREyZ6BZU_Pe57Lyd3-fyboDVdQUMeJJ0iEQsS0iXoaZoUBYAK6cnpbf26KBME1oONC6c5B31CczERvUttnhWhn3ewaBHnFxCMUXaErdwDa_xK-PRkmB3JtBWPR6u_sM9XIUDh-Z3ZyTxYFIiVlNghytBJslx-XXoT8d_OoudgQDGoqmBoajHVTcXU8OAse37B81pUXM.DInApg.QkZB3hwm3OCsysMF5mTcyQyzvgA">https://zenodo.org/oai2d</request>
  <ListIdentifiers>
    <header>
      <identifier>oai:zenodo.org:232490</identifier>
      <datestamp>2017-01-06T18:31:20Z</datestamp>
      <setSpec>user-biosyslit</setSpec>
    </header>
    <header>
      <identifier>oai:zenodo.org:232486</identifier>
      <datestamp>2017-01-06T18:31:06Z</datestamp>
      <setSpec>user-biosyslit</setSpec>
    </header>
    <header>
      <identifier>oai:zenodo.org:232488</identifier>
      <datestamp>2017-01-06T18:31:12Z</datestamp>
      <setSpec>user-biosyslit</setSpec>
    </header>
    <header>
      <identifier>oai:zenodo.org:241727</identifier>
      <datestamp>2017-01-13T05:20:32Z</datestamp>
      <setSpec>user-biosyslit</setSpec>
    </header>
    <header>
      <identifier>oai:zenodo.org:241729</identifier>
      <datestamp>2017-01-13T05:20:40Z</datestamp>
      <setSpec>user-biosyslit</setSpec>
    </header>
    <header>
      <identifier>oai:zenodo.org:241730</identifier>
      <datestamp>2017-01-13T05:20:44Z</datestamp>
      <setSpec>user-biosyslit</setSpec>
    </header>
    <header>
      <identifier>oai:zenodo.org:241726</identifier>
      <datestamp>2017-01-13T05:20:29Z</datestamp>
      <setSpec>user-biosyslit</setSpec>
    </header>
    <header>
      <identifier>oai:zenodo.org:246528</identifier>
      <datestamp>2017-01-16T03:29:50Z</datestamp>
      <setSpec>user-biosyslit</setSpec>
    </header>
    <header>
      <identifier>oai:zenodo.org:246531</identifier>
      <datestamp>2017-01-16T03:30:02Z</datestamp>
      <setSpec>user-biosyslit</setSpec>
    </header>
    <header>
      <identifier>oai:zenodo.org:267779</identifier>
      <datestamp>2017-02-02T07:09:36Z</datestamp>
      <setSpec>user-biosyslit</setSpec>
    </header>
    <header>
      <identifier>oai:zenodo.org:241769</identifier>
      <datestamp>2017-01-13T05:39:41Z</datestamp>
      <setSpec>user-biosyslit</setSpec>
    </header>
    <header>
      <identifier>oai:zenodo.org:241770</identifier>
      <datestamp>2017-01-13T05:39:45Z</datestamp>
      <setSpec>user-biosyslit</setSpec>
    </header>
    <header>
      <identifier>oai:zenodo.org:293948</identifier>
      <datestamp>2017-02-20T19:01:57Z</datestamp>
      <setSpec>user-biosyslit</setSpec>
    </header>
    <header>
      <identifier>oai:zenodo.org:241772</identifier>
      <datestamp>2017-01-13T05:39:52Z</datestamp>
      <setSpec>user-biosyslit</setSpec>
    </header>
    <header>
      <identifier>oai:zenodo.org:275308</identifier>
      <datestamp>2017-02-08T16:03:42Z</datestamp>
      <setSpec>user-biosyslit</setSpec>
    </header>
    <header>
      <identifier>oai:zenodo.org:275307</identifier>
      <datestamp>2017-02-08T16:03:43Z</datestamp>
      <setSpec>user-biosyslit</setSpec>
    </header>
    <header>
      <identifier>oai:zenodo.org:253020</identifier>
      <datestamp>2017-01-20T01:31:33Z</datestamp>
      <setSpec>user-biosyslit</setSpec>
    </header>
    <header>
      <identifier>oai:zenodo.org:253017</identifier>
      <datestamp>2017-01-20T01:31:24Z</datestamp>
      <setSpec>user-biosyslit</setSpec>
    </header>
    <header>
      <identifier>oai:zenodo.org:281575</identifier>
      <datestamp>2017-02-09T05:33:49Z</datestamp>
      <setSpec>user-biosyslit</setSpec>
    </header>
    <header>
      <identifier>oai:zenodo.org:281577</identifier>
      <datestamp>2017-02-09T05:33:41Z</datestamp>
      <setSpec>user-biosyslit</setSpec>
    </header>
    <header>
      <identifier>oai:zenodo.org:281579</identifier>
      <datestamp>2017-02-09T05:33:48Z</datestamp>
      <setSpec>user-biosyslit</setSpec>
    </header>
    <header>
      <identifier>oai:zenodo.org:261091</identifier>
      <datestamp>2017-01-28T04:51:33Z</datestamp>
      <setSpec>user-biosyslit</setSpec>
    </header>
    <header>
      <identifier>oai:zenodo.org:261094</identifier>
      <datestamp>2017-01-28T04:51:29Z</datestamp>
      <setSpec>user-biosyslit</setSpec>
    </header>
    <header>
      <identifier>oai:zenodo.org:261092</identifier>
      <datestamp>2017-01-28T04:51:25Z</datestamp>
      <setSpec>user-biosyslit</setSpec>
    </header>
    <header>
      <identifier>oai:zenodo.org:229087</identifier>
      <datestamp>2017-01-03T09:21:11Z</datestamp>
      <setSpec>user-biosyslit</setSpec>
    </header>
    <header>
      <identifier>oai:zenodo.org:261095</identifier>
      <datestamp>2017-01-28T04:51:32Z</datestamp>
      <setSpec>user-biosyslit</setSpec>
    </header>
    <header>
      <identifier>oai:zenodo.org:240750</identifier>
      <datestamp>2017-01-12T13:37:30Z</datestamp>
      <setSpec>user-biosyslit</setSpec>
    </header>
    <header>
      <identifier>oai:zenodo.org:240760</identifier>
      <datestamp>2017-01-12T13:37:22Z</datestamp>
      <setSpec>user-biosyslit</setSpec>
    </header>
    <header>
      <identifier>oai:zenodo.org:240761</identifier>
      <datestamp>2017-01-12T13:37:26Z</datestamp>
      <setSpec>user-biosyslit</setSpec>
    </header>
    <header>
      <identifier>oai:zenodo.org:240758</identifier>
      <datestamp>2017-01-12T13:37:17Z</datestamp>
      <setSpec>user-biosyslit</setSpec>
    </header>
    <header>
      <identifier>oai:zenodo.org:240755</identifier>
      <datestamp>2017-01-12T13:37:08Z</datestamp>
      <setSpec>user-biosyslit</setSpec>
    </header>
    <header>
      <identifier>oai:zenodo.org:240759</identifier>
      <datestamp>2017-01-12T13:37:20Z</datestamp>
      <setSpec>user-biosyslit</setSpec>
    </header>
    <header>
      <identifier>oai:zenodo.org:240756</identifier>
      <datestamp>2017-01-12T13:37:11Z</datestamp>
      <setSpec>user-biosyslit</setSpec>
    </header>
    <header>
      <identifier>oai:zenodo.org:240754</identifier>
      <datestamp>2017-01-12T13:37:05Z</datestamp>
      <setSpec>user-biosyslit</setSpec>
    </header>
    <header>
      <identifier>oai:zenodo.org:268221</identifier>
      <datestamp>2017-02-03T04:25:37Z</datestamp>
      <setSpec>user-biosyslit</setSpec>
    </header>
    <header>
      <identifier>oai:zenodo.org:268224</identifier>
      <datestamp>2017-02-03T04:25:48Z</datestamp>
      <setSpec>user-biosyslit</setSpec>
    </header>
    <header>
      <identifier>oai:zenodo.org:294126</identifier>
      <datestamp>2017-02-20T19:20:58Z</datestamp>
      <setSpec>user-biosyslit</setSpec>
    </header>
    <header>
      <identifier>oai:zenodo.org:275815</identifier>
      <datestamp>2017-02-08T17:07:57Z</datestamp>
      <setSpec>user-biosyslit</setSpec>
    </header>
    <header>
      <identifier>oai:zenodo.org:275819</identifier>
      <datestamp>2017-02-08T17:08:05Z</datestamp>
      <setSpec>user-biosyslit</setSpec>
    </header>
    <header>
      <identifier>oai:zenodo.org:275814</identifier>
      <datestamp>2017-02-08T17:07:55Z</datestamp>
      <setSpec>user-biosyslit</setSpec>
    </header>
    <header>
      <identifier>oai:zenodo.org:275817</identifier>
      <datestamp>2017-02-08T17:08:01Z</datestamp>
      <setSpec>user-biosyslit</setSpec>
    </header>
    <header>
      <identifier>oai:zenodo.org:255511</identifier>
      <datestamp>2017-01-21T14:27:46Z</datestamp>
      <setSpec>user-biosyslit</setSpec>
    </header>
    <header>
      <identifier>oai:zenodo.org:239207</identifier>
      <datestamp>2017-01-11T17:53:14Z</datestamp>
      <setSpec>user-biosyslit</setSpec>
    </header>
    <header>
      <identifier>oai:zenodo.org:239208</identifier>
      <datestamp>2017-01-11T17:53:19Z</datestamp>
      <setSpec>user-biosyslit</setSpec>
    </header>
    <header>
      <identifier>oai:zenodo.org:276207</identifier>
      <datestamp>2017-02-08T18:24:39Z</datestamp>
      <setSpec>user-biosyslit</setSpec>
    </header>
    <header>
      <identifier>oai:zenodo.org:276208</identifier>
      <datestamp>2017-02-08T18:24:42Z</datestamp>
      <setSpec>user-biosyslit</setSpec>
    </header>
    <header>
      <identifier>oai:zenodo.org:239210</identifier>
      <datestamp>2017-01-11T17:53:28Z</datestamp>
      <setSpec>user-biosyslit</setSpec>
    </header>
    <header>
      <identifier>oai:zenodo.org:239213</identifier>
      <datestamp>2017-01-11T17:53:37Z</datestamp>
      <setSpec>user-biosyslit</setSpec>
    </header>
    <header>
      <identifier>oai:zenodo.org:276209</identifier>
      <datestamp>2017-02-08T18:24:45Z</datestamp>
      <setSpec>user-biosyslit</setSpec>
    </header>
    <header>
      <identifier>oai:zenodo.org:231669</identifier>
      <datestamp>2017-01-06T05:42:16Z</datestamp>
      <setSpec>user-biosyslit</setSpec>
    </header>
    <header>
      <identifier>oai:zenodo.org:271144</identifier>
      <datestamp>2017-02-08T00:53:31Z</datestamp>
      <setSpec>user-biosyslit</setSpec>
    </header>
    <header>
      <identifier>oai:zenodo.org:271143</identifier>
      <datestamp>2017-02-08T00:53:28Z</datestamp>
      <setSpec>user-biosyslit</setSpec>
    </header>
    <header>
      <identifier>oai:zenodo.org:271150</identifier>
      <datestamp>2017-02-08T00:53:54Z</datestamp>
      <setSpec>user-biosyslit</setSpec>
    </header>
    <header>
      <identifier>oai:zenodo.org:271149</identifier>
      <datestamp>2017-02-08T00:53:48Z</datestamp>
      <setSpec>user-biosyslit</setSpec>
    </header>
    <header>
      <identifier>oai:zenodo.org:283185</identifier>
      <datestamp>2017-02-09T08:18:10Z</datestamp>
      <setSpec>user-biosyslit</setSpec>
    </header>
    <header>
      <identifier>oai:zenodo.org:283188</identifier>
      <datestamp>2017-02-09T08:18:18Z</datestamp>
      <setSpec>user-biosyslit</setSpec>
    </header>
    <header>
      <identifier>oai:zenodo.org:283187</identifier>
      <datestamp>2017-02-09T08:18:14Z</datestamp>
      <setSpec>user-biosyslit</setSpec>
    </header>
    <header>
      <identifier>oai:zenodo.org:283189</identifier>
      <datestamp>2017-02-09T08:18:21Z</datestamp>
      <setSpec>user-biosyslit</setSpec>
    </header>
    <header>
      <identifier>oai:zenodo.org:283186</identifier>
      <datestamp>2017-02-09T08:18:12Z</datestamp>
      <setSpec>user-biosyslit</setSpec>
    </header>
    <header>
      <identifier>oai:zenodo.org:232073</identifier>
      <datestamp>2017-01-06T10:55:38Z</datestamp>
      <setSpec>user-biosyslit</setSpec>
    </header>
    <header>
      <identifier>oai:zenodo.org:232072</identifier>
      <datestamp>2017-01-06T10:55:35Z</datestamp>
      <setSpec>user-biosyslit</setSpec>
    </header>
    <header>
      <identifier>oai:zenodo.org:265156</identifier>
      <datestamp>2017-01-31T09:22:40Z</datestamp>
      <setSpec>user-biosyslit</setSpec>
    </header>
    <header>
      <identifier>oai:zenodo.org:232070</identifier>
      <datestamp>2017-01-06T10:55:28Z</datestamp>
      <setSpec>user-biosyslit</setSpec>
    </header>
    <header>
      <identifier>oai:zenodo.org:265155</identifier>
      <datestamp>2017-01-31T09:22:35Z</datestamp>
      <setSpec>user-biosyslit</setSpec>
    </header>
    <header>
      <identifier>oai:zenodo.org:227120</identifier>
      <datestamp>2017-01-01T17:16:02Z</datestamp>
      <setSpec>user-biosyslit</setSpec>
    </header>
    <header>
      <identifier>oai:zenodo.org:233249</identifier>
      <datestamp>2017-01-08T02:30:13Z</datestamp>
      <setSpec>user-biosyslit</setSpec>
    </header>
    <header>
      <identifier>oai:zenodo.org:233246</identifier>
      <datestamp>2017-01-08T02:30:02Z</datestamp>
      <setSpec>user-biosyslit</setSpec>
    </header>
    <header>
      <identifier>oai:zenodo.org:227128</identifier>
      <datestamp>2017-01-01T17:16:30Z</datestamp>
      <setSpec>user-biosyslit</setSpec>
    </header>
    <header>
      <identifier>oai:zenodo.org:227127</identifier>
      <datestamp>2017-01-01T17:16:27Z</datestamp>
      <setSpec>user-biosyslit</setSpec>
    </header>
    <header>
      <identifier>oai:zenodo.org:227121</identifier>
      <datestamp>2017-01-01T17:16:07Z</datestamp>
      <setSpec>user-biosyslit</setSpec>
    </header>
    <header>
      <identifier>oai:zenodo.org:227129</identifier>
      <datestamp>2017-01-01T17:16:34Z</datestamp>
      <setSpec>user-biosyslit</setSpec>
    </header>
    <header>
      <identifier>oai:zenodo.org:276444</identifier>
      <datestamp>2017-02-08T18:50:37Z</datestamp>
      <setSpec>user-biosyslit</setSpec>
    </header>
    <header>
      <identifier>oai:zenodo.org:286105</identifier>
      <datestamp>2017-02-09T15:14:38Z</datestamp>
      <setSpec>user-biosyslit</setSpec>
    </header>
    <header>
      <identifier>oai:zenodo.org:276440</identifier>
      <datestamp>2017-02-08T18:50:27Z</datestamp>
      <setSpec>user-biosyslit</setSpec>
    </header>
    <header>
      <identifier>oai:zenodo.org:276446</identifier>
      <datestamp>2017-02-08T18:50:44Z</datestamp>
      <setSpec>user-biosyslit</setSpec>
    </header>
    <header>
      <identifier>oai:zenodo.org:286097</identifier>
      <datestamp>2017-02-09T15:14:17Z</datestamp>
      <setSpec>user-biosyslit</setSpec>
    </header>
    <header>
      <identifier>oai:zenodo.org:286102</identifier>
      <datestamp>2017-02-09T15:14:30Z</datestamp>
      <setSpec>user-biosyslit</setSpec>
    </header>
    <header>
      <identifier>oai:zenodo.org:286094</identifier>
      <datestamp>2017-02-09T15:14:10Z</datestamp>
      <setSpec>user-biosyslit</setSpec>
    </header>
    <header>
      <identifier>oai:zenodo.org:286101</identifier>
      <datestamp>2017-02-09T15:14:27Z</datestamp>
      <setSpec>user-biosyslit</setSpec>
    </header>
    <header>
      <identifier>oai:zenodo.org:281649</identifier>
      <datestamp>2017-02-09T05:41:34Z</datestamp>
      <setSpec>user-biosyslit</setSpec>
    </header>
    <header>
      <identifier>oai:zenodo.org:281651</identifier>
      <datestamp>2017-02-09T05:41:38Z</datestamp>
      <setSpec>user-biosyslit</setSpec>
    </header>
    <header>
      <identifier>oai:zenodo.org:815792</identifier>
      <datestamp>2017-06-22T07:54:37Z</datestamp>
      <setSpec>user-biosyslit</setSpec>
    </header>
    <header>
      <identifier>oai:zenodo.org:815804</identifier>
      <datestamp>2017-06-22T07:54:28Z</datestamp>
      <setSpec>user-biosyslit</setSpec>
    </header>
    <header>
      <identifier>oai:zenodo.org:815806</identifier>
      <datestamp>2017-06-22T07:54:33Z</datestamp>
      <setSpec>user-biosyslit</setSpec>
    </header>
    <header>
      <identifier>oai:zenodo.org:277040</identifier>
      <datestamp>2017-02-08T20:15:41Z</datestamp>
      <setSpec>user-biosyslit</setSpec>
    </header>
    <header>
      <identifier>oai:zenodo.org:281608</identifier>
      <datestamp>2017-02-09T05:36:46Z</datestamp>
      <setSpec>user-biosyslit</setSpec>
    </header>
    <header>
      <identifier>oai:zenodo.org:277042</identifier>
      <datestamp>2017-02-08T20:15:45Z</datestamp>
      <setSpec>user-biosyslit</setSpec>
    </header>
    <header>
      <identifier>oai:zenodo.org:246048</identifier>
      <datestamp>2017-01-15T21:32:45Z</datestamp>
      <setSpec>user-biosyslit</setSpec>
    </header>
    <header>
      <identifier>oai:zenodo.org:246060</identifier>
      <datestamp>2017-01-15T21:32:29Z</datestamp>
      <setSpec>user-biosyslit</setSpec>
    </header>
    <header>
      <identifier>oai:zenodo.org:246061</identifier>
      <datestamp>2017-01-15T21:32:32Z</datestamp>
      <setSpec>user-biosyslit</setSpec>
    </header>
    <header>
      <identifier>oai:zenodo.org:246053</identifier>
      <datestamp>2017-01-15T21:32:12Z</datestamp>
      <setSpec>user-biosyslit</setSpec>
    </header>
    <header>
      <identifier>oai:zenodo.org:246050</identifier>
      <datestamp>2017-01-15T21:32:00Z</datestamp>
      <setSpec>user-biosyslit</setSpec>
    </header>
    <header>
      <identifier>oai:zenodo.org:230633</identifier>
      <datestamp>2017-01-05T05:14:07Z</datestamp>
      <setSpec>user-biosyslit</setSpec>
    </header>
    <header>
      <identifier>oai:zenodo.org:230631</identifier>
      <datestamp>2017-01-05T05:13:59Z</datestamp>
      <setSpec>user-biosyslit</setSpec>
    </header>
    <header>
      <identifier>oai:zenodo.org:230632</identifier>
      <datestamp>2017-01-05T05:14:04Z</datestamp>
      <setSpec>user-biosyslit</setSpec>
    </header>
    <header>
      <identifier>oai:zenodo.org:246055</identifier>
      <datestamp>2017-01-15T21:32:18Z</datestamp>
      <setSpec>user-biosyslit</setSpec>
    </header>
    <header>
      <identifier>oai:zenodo.org:275979</identifier>
      <datestamp>2017-02-08T17:46:40Z</datestamp>
      <setSpec>user-biosyslit</setSpec>
    </header>
    <header>
      <identifier>oai:zenodo.org:275975</identifier>
      <datestamp>2017-02-08T17:46:27Z</datestamp>
      <setSpec>user-biosyslit</setSpec>
    </header>
    <header>
      <identifier>oai:zenodo.org:275981</identifier>
      <datestamp>2017-02-08T17:46:46Z</datestamp>
      <setSpec>user-biosyslit</setSpec>
    </header>
    <header>
      <identifier>oai:zenodo.org:275971</identifier>
      <datestamp>2017-02-08T17:46:14Z</datestamp>
      <setSpec>user-biosyslit</setSpec>
    </header>
    <resumptionToken expirationDate="2017-08-31T15:47:42Z" cursor="67400" completeListSize="77796">.eJyNyssKgkAUANB_uWuJeWQ-oI1Y4kLFJkXdhI0i5mThFOpE_56b1rU-5wWyriuw0UrH2LSQaeiUkjWx1hpIPtyEOLULA89SwXuRlF76PFxTlJPGCF05BW5OQ9Wh6IoV28ckw-aUtGiOj8kjV4cppf7I0M4IVDyHF395FY08UZy9O0t6RzBSDdEunhl2WEH59-E_n_r5XLkFDe5lU4O9MTYadGM5NBLs1_v9AZ2mUUU.DInApg.cMlB0SmoO3VqmPoNRpBrgEWv_is</resumptionToken>
  </ListIdentifiers>
</OAI-PMH>
