<?xml version='1.0' encoding='UTF-8'?>
<?xml-stylesheet type="text/xsl" href="/static/xsl/oai2.v1.0.xsl"?>
<OAI-PMH xmlns="http://www.openarchives.org/OAI/2.0/" xmlns:xsi="http://www.w3.org/2001/XMLSchema-instance" xsi:schemaLocation="http://www.openarchives.org/OAI/2.0/ http://www.openarchives.org/OAI/2.0/OAI-PMH.xsd">
  <responseDate>2017-08-31T15:41:29Z</responseDate>
  <request verb="ListIdentifiers" resumptionToken=".eJyNysEOQzAYAOB3-c-yVBtqkl3EJg4IHWGXxRAxZaJb0MW7z2Xn7fx9bxBVVYKJdphq-z2hiCLdQBrWFRDF-OD82mwMRZrwoudx7iSvqEtQhmvq22L27Iz4skVBp0p2CnGqGnPcoCU8x89MRnNC3ImhI_VkuPh3d3slCRx-uTkDi3uLM1yOwTFcmGqxCym-T_3zyZ_PFgdQYMjrCkxKFGinfKwFmO91_QBS8VER.DIm_qQ.Abf1aNnQrPIE_5hQG9iNu5Hj4O4">https://zenodo.org/oai2d</request>
  <ListIdentifiers>
    <header>
      <identifier>oai:zenodo.org:269329</identifier>
      <datestamp>2017-02-06T23:55:11Z</datestamp>
      <setSpec>user-biosyslit</setSpec>
    </header>
    <header>
      <identifier>oai:zenodo.org:269050</identifier>
      <datestamp>2017-02-06T22:36:24Z</datestamp>
      <setSpec>user-biosyslit</setSpec>
    </header>
    <header>
      <identifier>oai:zenodo.org:230089</identifier>
      <datestamp>2017-01-04T19:11:55Z</datestamp>
      <setSpec>user-biosyslit</setSpec>
    </header>
    <header>
      <identifier>oai:zenodo.org:269193</identifier>
      <datestamp>2017-02-06T23:03:23Z</datestamp>
      <setSpec>user-biosyslit</setSpec>
    </header>
    <header>
      <identifier>oai:zenodo.org:230172</identifier>
      <datestamp>2017-01-04T20:44:35Z</datestamp>
      <setSpec>user-biosyslit</setSpec>
    </header>
    <header>
      <identifier>oai:zenodo.org:230285</identifier>
      <datestamp>2017-01-04T22:12:47Z</datestamp>
      <setSpec>user-biosyslit</setSpec>
    </header>
    <header>
      <identifier>oai:zenodo.org:270023</identifier>
      <datestamp>2017-02-08T16:00:34Z</datestamp>
      <setSpec>openaire</setSpec>
      <setSpec>user-biosyslit</setSpec>
    </header>
    <header>
      <identifier>oai:zenodo.org:230302</identifier>
      <datestamp>2017-01-04T22:32:31Z</datestamp>
      <setSpec>user-biosyslit</setSpec>
    </header>
    <header>
      <identifier>oai:zenodo.org:269103</identifier>
      <datestamp>2017-02-06T22:44:10Z</datestamp>
      <setSpec>user-biosyslit</setSpec>
    </header>
    <header>
      <identifier>oai:zenodo.org:231871</identifier>
      <datestamp>2017-01-06T08:05:53Z</datestamp>
      <setSpec>user-biosyslit</setSpec>
    </header>
    <header>
      <identifier>oai:zenodo.org:231692</identifier>
      <datestamp>2017-01-06T06:04:30Z</datestamp>
      <setSpec>user-biosyslit</setSpec>
    </header>
    <header>
      <identifier>oai:zenodo.org:231766</identifier>
      <datestamp>2017-01-06T07:12:47Z</datestamp>
      <setSpec>user-biosyslit</setSpec>
    </header>
    <header>
      <identifier>oai:zenodo.org:230811</identifier>
      <datestamp>2017-01-05T08:40:53Z</datestamp>
      <setSpec>user-biosyslit</setSpec>
    </header>
    <header>
      <identifier>oai:zenodo.org:230953</identifier>
      <datestamp>2017-01-05T11:41:00Z</datestamp>
      <setSpec>user-biosyslit</setSpec>
    </header>
    <header>
      <identifier>oai:zenodo.org:270433</identifier>
      <datestamp>2017-02-07T23:15:07Z</datestamp>
      <setSpec>user-biosyslit</setSpec>
    </header>
    <header>
      <identifier>oai:zenodo.org:269260</identifier>
      <datestamp>2017-02-06T23:44:09Z</datestamp>
      <setSpec>user-biosyslit</setSpec>
    </header>
    <header>
      <identifier>oai:zenodo.org:231387</identifier>
      <datestamp>2017-01-06T01:19:50Z</datestamp>
      <setSpec>user-biosyslit</setSpec>
    </header>
    <header>
      <identifier>oai:zenodo.org:231908</identifier>
      <datestamp>2017-01-06T08:34:00Z</datestamp>
      <setSpec>user-biosyslit</setSpec>
    </header>
    <header>
      <identifier>oai:zenodo.org:275135</identifier>
      <datestamp>2017-02-08T15:22:57Z</datestamp>
      <setSpec>user-biosyslit</setSpec>
    </header>
    <header>
      <identifier>oai:zenodo.org:270265</identifier>
      <datestamp>2017-02-07T22:55:37Z</datestamp>
      <setSpec>user-biosyslit</setSpec>
    </header>
    <header>
      <identifier>oai:zenodo.org:275521</identifier>
      <datestamp>2017-02-08T16:37:34Z</datestamp>
      <setSpec>user-biosyslit</setSpec>
    </header>
    <header>
      <identifier>oai:zenodo.org:231496</identifier>
      <datestamp>2017-01-06T02:46:49Z</datestamp>
      <setSpec>user-biosyslit</setSpec>
    </header>
    <header>
      <identifier>oai:zenodo.org:271162</identifier>
      <datestamp>2017-02-08T00:55:29Z</datestamp>
      <setSpec>user-biosyslit</setSpec>
    </header>
    <header>
      <identifier>oai:zenodo.org:270541</identifier>
      <datestamp>2017-02-07T23:26:36Z</datestamp>
      <setSpec>user-biosyslit</setSpec>
    </header>
    <header>
      <identifier>oai:zenodo.org:269494</identifier>
      <datestamp>2017-02-07T00:43:16Z</datestamp>
      <setSpec>user-biosyslit</setSpec>
    </header>
    <header>
      <identifier>oai:zenodo.org:275588</identifier>
      <datestamp>2017-02-08T16:45:25Z</datestamp>
      <setSpec>user-biosyslit</setSpec>
    </header>
    <header>
      <identifier>oai:zenodo.org:276070</identifier>
      <datestamp>2017-02-08T18:02:57Z</datestamp>
      <setSpec>user-biosyslit</setSpec>
    </header>
    <header>
      <identifier>oai:zenodo.org:269562</identifier>
      <datestamp>2017-02-07T00:58:07Z</datestamp>
      <setSpec>user-biosyslit</setSpec>
    </header>
    <header>
      <identifier>oai:zenodo.org:275628</identifier>
      <datestamp>2017-02-08T16:49:40Z</datestamp>
      <setSpec>user-biosyslit</setSpec>
    </header>
    <header>
      <identifier>oai:zenodo.org:275319</identifier>
      <datestamp>2017-02-10T16:20:19Z</datestamp>
      <setSpec>openaire</setSpec>
      <setSpec>user-biosyslit</setSpec>
    </header>
    <header>
      <identifier>oai:zenodo.org:275430</identifier>
      <datestamp>2017-02-08T16:20:08Z</datestamp>
      <setSpec>user-biosyslit</setSpec>
    </header>
    <header>
      <identifier>oai:zenodo.org:275304</identifier>
      <datestamp>2017-02-08T16:03:06Z</datestamp>
      <setSpec>user-biosyslit</setSpec>
    </header>
    <header>
      <identifier>oai:zenodo.org:233718</identifier>
      <datestamp>2017-01-08T10:46:41Z</datestamp>
      <setSpec>user-biosyslit</setSpec>
    </header>
    <header>
      <identifier>oai:zenodo.org:234040</identifier>
      <datestamp>2017-01-08T14:13:36Z</datestamp>
      <setSpec>user-biosyslit</setSpec>
    </header>
    <header>
      <identifier>oai:zenodo.org:233207</identifier>
      <datestamp>2017-01-08T02:12:30Z</datestamp>
      <setSpec>user-biosyslit</setSpec>
    </header>
    <header>
      <identifier>oai:zenodo.org:270947</identifier>
      <datestamp>2017-02-08T00:19:24Z</datestamp>
      <setSpec>user-biosyslit</setSpec>
    </header>
    <header>
      <identifier>oai:zenodo.org:233732</identifier>
      <datestamp>2017-01-08T11:08:44Z</datestamp>
      <setSpec>user-biosyslit</setSpec>
    </header>
    <header>
      <identifier>oai:zenodo.org:233201</identifier>
      <datestamp>2017-01-08T02:04:35Z</datestamp>
      <setSpec>user-biosyslit</setSpec>
    </header>
    <header>
      <identifier>oai:zenodo.org:276792</identifier>
      <datestamp>2017-02-08T19:40:37Z</datestamp>
      <setSpec>user-biosyslit</setSpec>
    </header>
    <header>
      <identifier>oai:zenodo.org:276499</identifier>
      <datestamp>2017-02-08T18:58:09Z</datestamp>
      <setSpec>user-biosyslit</setSpec>
    </header>
    <header>
      <identifier>oai:zenodo.org:271124</identifier>
      <datestamp>2017-02-08T00:50:26Z</datestamp>
      <setSpec>user-biosyslit</setSpec>
    </header>
    <header>
      <identifier>oai:zenodo.org:277007</identifier>
      <datestamp>2017-02-08T20:10:18Z</datestamp>
      <setSpec>user-biosyslit</setSpec>
    </header>
    <header>
      <identifier>oai:zenodo.org:270819</identifier>
      <datestamp>2017-02-07T23:57:26Z</datestamp>
      <setSpec>user-biosyslit</setSpec>
    </header>
    <header>
      <identifier>oai:zenodo.org:234359</identifier>
      <datestamp>2017-01-08T18:47:30Z</datestamp>
      <setSpec>user-biosyslit</setSpec>
    </header>
    <header>
      <identifier>oai:zenodo.org:234875</identifier>
      <datestamp>2017-01-09T02:58:18Z</datestamp>
      <setSpec>user-biosyslit</setSpec>
    </header>
    <header>
      <identifier>oai:zenodo.org:236880</identifier>
      <datestamp>2017-01-10T07:20:58Z</datestamp>
      <setSpec>user-biosyslit</setSpec>
    </header>
    <header>
      <identifier>oai:zenodo.org:277017</identifier>
      <datestamp>2017-02-08T20:12:20Z</datestamp>
      <setSpec>user-biosyslit</setSpec>
    </header>
    <header>
      <identifier>oai:zenodo.org:236735</identifier>
      <datestamp>2017-01-10T03:58:27Z</datestamp>
      <setSpec>user-biosyslit</setSpec>
    </header>
    <header>
      <identifier>oai:zenodo.org:235538</identifier>
      <datestamp>2017-01-09T11:34:11Z</datestamp>
      <setSpec>user-biosyslit</setSpec>
    </header>
    <header>
      <identifier>oai:zenodo.org:236648</identifier>
      <datestamp>2017-01-10T02:26:55Z</datestamp>
      <setSpec>user-biosyslit</setSpec>
    </header>
    <header>
      <identifier>oai:zenodo.org:277238</identifier>
      <datestamp>2017-02-08T20:40:18Z</datestamp>
      <setSpec>user-biosyslit</setSpec>
    </header>
    <header>
      <identifier>oai:zenodo.org:270797</identifier>
      <datestamp>2017-02-07T23:56:36Z</datestamp>
      <setSpec>user-biosyslit</setSpec>
    </header>
    <header>
      <identifier>oai:zenodo.org:236971</identifier>
      <datestamp>2017-01-10T09:00:06Z</datestamp>
      <setSpec>user-biosyslit</setSpec>
    </header>
    <header>
      <identifier>oai:zenodo.org:236293</identifier>
      <datestamp>2017-01-09T21:46:12Z</datestamp>
      <setSpec>user-biosyslit</setSpec>
    </header>
    <header>
      <identifier>oai:zenodo.org:236656</identifier>
      <datestamp>2017-01-10T02:30:18Z</datestamp>
      <setSpec>user-biosyslit</setSpec>
    </header>
    <header>
      <identifier>oai:zenodo.org:237555</identifier>
      <datestamp>2017-01-10T16:57:06Z</datestamp>
      <setSpec>user-biosyslit</setSpec>
    </header>
    <header>
      <identifier>oai:zenodo.org:236579</identifier>
      <datestamp>2017-01-10T01:40:39Z</datestamp>
      <setSpec>user-biosyslit</setSpec>
    </header>
    <header>
      <identifier>oai:zenodo.org:237351</identifier>
      <datestamp>2017-01-10T14:34:01Z</datestamp>
      <setSpec>user-biosyslit</setSpec>
    </header>
    <header>
      <identifier>oai:zenodo.org:277072</identifier>
      <datestamp>2017-02-08T20:19:25Z</datestamp>
      <setSpec>user-biosyslit</setSpec>
    </header>
    <header>
      <identifier>oai:zenodo.org:277678</identifier>
      <datestamp>2017-02-08T21:36:20Z</datestamp>
      <setSpec>user-biosyslit</setSpec>
    </header>
    <header>
      <identifier>oai:zenodo.org:276757</identifier>
      <datestamp>2017-02-08T19:38:17Z</datestamp>
      <setSpec>user-biosyslit</setSpec>
    </header>
    <header>
      <identifier>oai:zenodo.org:236858</identifier>
      <datestamp>2017-01-10T06:33:31Z</datestamp>
      <setSpec>user-biosyslit</setSpec>
    </header>
    <header>
      <identifier>oai:zenodo.org:238211</identifier>
      <datestamp>2017-01-11T02:17:19Z</datestamp>
      <setSpec>user-biosyslit</setSpec>
    </header>
    <header>
      <identifier>oai:zenodo.org:237247</identifier>
      <datestamp>2017-01-10T12:55:01Z</datestamp>
      <setSpec>user-biosyslit</setSpec>
    </header>
    <header>
      <identifier>oai:zenodo.org:238062</identifier>
      <datestamp>2017-01-11T00:36:20Z</datestamp>
      <setSpec>user-biosyslit</setSpec>
    </header>
    <header>
      <identifier>oai:zenodo.org:271824</identifier>
      <datestamp>2017-02-08T02:44:08Z</datestamp>
      <setSpec>user-biosyslit</setSpec>
    </header>
    <header>
      <identifier>oai:zenodo.org:271354</identifier>
      <datestamp>2017-02-08T01:30:50Z</datestamp>
      <setSpec>user-biosyslit</setSpec>
    </header>
    <header>
      <identifier>oai:zenodo.org:237733</identifier>
      <datestamp>2017-01-10T19:14:16Z</datestamp>
      <setSpec>user-biosyslit</setSpec>
    </header>
    <header>
      <identifier>oai:zenodo.org:272068</identifier>
      <datestamp>2017-02-08T03:27:24Z</datestamp>
      <setSpec>user-biosyslit</setSpec>
    </header>
    <header>
      <identifier>oai:zenodo.org:278215</identifier>
      <datestamp>2017-02-08T22:40:23Z</datestamp>
      <setSpec>user-biosyslit</setSpec>
    </header>
    <header>
      <identifier>oai:zenodo.org:239185</identifier>
      <datestamp>2017-01-11T17:29:52Z</datestamp>
      <setSpec>user-biosyslit</setSpec>
    </header>
    <header>
      <identifier>oai:zenodo.org:239696</identifier>
      <datestamp>2017-01-11T23:48:43Z</datestamp>
      <setSpec>user-biosyslit</setSpec>
    </header>
    <header>
      <identifier>oai:zenodo.org:238616</identifier>
      <datestamp>2017-01-11T08:14:23Z</datestamp>
      <setSpec>user-biosyslit</setSpec>
    </header>
    <header>
      <identifier>oai:zenodo.org:271127</identifier>
      <datestamp>2017-02-08T00:50:43Z</datestamp>
      <setSpec>user-biosyslit</setSpec>
    </header>
    <header>
      <identifier>oai:zenodo.org:278422</identifier>
      <datestamp>2017-02-08T23:08:23Z</datestamp>
      <setSpec>user-biosyslit</setSpec>
    </header>
    <header>
      <identifier>oai:zenodo.org:239625</identifier>
      <datestamp>2017-01-11T22:51:47Z</datestamp>
      <setSpec>user-biosyslit</setSpec>
    </header>
    <header>
      <identifier>oai:zenodo.org:239623</identifier>
      <datestamp>2017-01-11T22:48:31Z</datestamp>
      <setSpec>user-biosyslit</setSpec>
    </header>
    <header>
      <identifier>oai:zenodo.org:271312</identifier>
      <datestamp>2017-02-08T01:18:23Z</datestamp>
      <setSpec>user-biosyslit</setSpec>
    </header>
    <header>
      <identifier>oai:zenodo.org:238823</identifier>
      <datestamp>2017-01-11T11:24:33Z</datestamp>
      <setSpec>user-biosyslit</setSpec>
    </header>
    <header>
      <identifier>oai:zenodo.org:278070</identifier>
      <datestamp>2017-02-08T22:23:13Z</datestamp>
      <setSpec>user-biosyslit</setSpec>
    </header>
    <header>
      <identifier>oai:zenodo.org:278211</identifier>
      <datestamp>2017-02-08T22:40:11Z</datestamp>
      <setSpec>user-biosyslit</setSpec>
    </header>
    <header>
      <identifier>oai:zenodo.org:278083</identifier>
      <datestamp>2017-02-08T22:24:33Z</datestamp>
      <setSpec>user-biosyslit</setSpec>
    </header>
    <header>
      <identifier>oai:zenodo.org:278576</identifier>
      <datestamp>2017-02-08T23:27:05Z</datestamp>
      <setSpec>user-biosyslit</setSpec>
    </header>
    <header>
      <identifier>oai:zenodo.org:269090</identifier>
      <datestamp>2017-02-06T22:41:32Z</datestamp>
      <setSpec>user-biosyslit</setSpec>
    </header>
    <header>
      <identifier>oai:zenodo.org:268282</identifier>
      <datestamp>2017-02-03T05:37:17Z</datestamp>
      <setSpec>user-biosyslit</setSpec>
    </header>
    <header>
      <identifier>oai:zenodo.org:269805</identifier>
      <datestamp>2017-02-07T20:23:39Z</datestamp>
      <setSpec>user-biosyslit</setSpec>
    </header>
    <header>
      <identifier>oai:zenodo.org:269810</identifier>
      <datestamp>2017-02-07T20:25:01Z</datestamp>
      <setSpec>user-biosyslit</setSpec>
    </header>
    <header>
      <identifier>oai:zenodo.org:269923</identifier>
      <datestamp>2017-02-07T20:44:06Z</datestamp>
      <setSpec>user-biosyslit</setSpec>
    </header>
    <header>
      <identifier>oai:zenodo.org:276766</identifier>
      <datestamp>2017-02-08T19:38:11Z</datestamp>
      <setSpec>user-biosyslit</setSpec>
    </header>
    <header>
      <identifier>oai:zenodo.org:234989</identifier>
      <datestamp>2017-01-09T04:28:00Z</datestamp>
      <setSpec>user-biosyslit</setSpec>
    </header>
    <header>
      <identifier>oai:zenodo.org:277202</identifier>
      <datestamp>2017-02-08T20:34:58Z</datestamp>
      <setSpec>user-biosyslit</setSpec>
    </header>
    <header>
      <identifier>oai:zenodo.org:276790</identifier>
      <datestamp>2017-02-08T19:40:32Z</datestamp>
      <setSpec>user-biosyslit</setSpec>
    </header>
    <header>
      <identifier>oai:zenodo.org:274681</identifier>
      <datestamp>2017-02-08T13:59:21Z</datestamp>
      <setSpec>user-biosyslit</setSpec>
    </header>
    <header>
      <identifier>oai:zenodo.org:276825</identifier>
      <datestamp>2017-02-08T19:46:12Z</datestamp>
      <setSpec>user-biosyslit</setSpec>
    </header>
    <header>
      <identifier>oai:zenodo.org:269376</identifier>
      <datestamp>2017-02-06T23:59:29Z</datestamp>
      <setSpec>user-biosyslit</setSpec>
    </header>
    <header>
      <identifier>oai:zenodo.org:235698</identifier>
      <datestamp>2017-01-09T13:43:58Z</datestamp>
      <setSpec>user-biosyslit</setSpec>
    </header>
    <header>
      <identifier>oai:zenodo.org:234386</identifier>
      <datestamp>2017-01-08T19:01:43Z</datestamp>
      <setSpec>user-biosyslit</setSpec>
    </header>
    <header>
      <identifier>oai:zenodo.org:276906</identifier>
      <datestamp>2017-02-08T19:57:28Z</datestamp>
      <setSpec>user-biosyslit</setSpec>
    </header>
    <header>
      <identifier>oai:zenodo.org:234987</identifier>
      <datestamp>2017-01-09T04:27:53Z</datestamp>
      <setSpec>user-biosyslit</setSpec>
    </header>
    <header>
      <identifier>oai:zenodo.org:231950</identifier>
      <datestamp>2017-01-06T09:15:06Z</datestamp>
      <setSpec>user-biosyslit</setSpec>
    </header>
    <resumptionToken expirationDate="2017-08-31T15:43:29Z" cursor="7200" completeListSize="77796">.eJyNyj0PQ0AYAOD_8s7S3IfQSLoIFQPCldClUUTUUXFtcOK_19K5nZ9nBVFVJRjogDVEkKpRjLBGqU4UEMX45PzW7AxFmvCi53HuJO-oS1BGat23xOxZGfVli4IOS3YOSYqPc9ygJbzEr0xGc0LdiSFb92S4-A93fyUNHH69OwOLe5MzUo6BHS4Mm-xKi-_Dfz7581niBAoMeV2BoasKtFM-1gKMdds-NkVQ8w.DIm_qQ.k6bvvvuadhFAZdhx5ujbVQCuDXg</resumptionToken>
  </ListIdentifiers>
</OAI-PMH>
