<?xml version='1.0' encoding='UTF-8'?>
<?xml-stylesheet type="text/xsl" href="/static/xsl/oai2.v1.0.xsl"?>
<OAI-PMH xmlns="http://www.openarchives.org/OAI/2.0/" xmlns:xsi="http://www.w3.org/2001/XMLSchema-instance" xsi:schemaLocation="http://www.openarchives.org/OAI/2.0/ http://www.openarchives.org/OAI/2.0/OAI-PMH.xsd">
  <responseDate>2017-08-31T15:42:06Z</responseDate>
  <request verb="ListIdentifiers" resumptionToken=".eJyNzz0PQ0AAgOH_crM095FDJV0aKgaEK8HSKCLqqLg2OPHfa-nczu-zvCsQVVUCAx4oVSmmREMYUqLTowJEMT45vzV7BkUS86LnUW7H77CLYYprzTPF7Jop8WQL_Q5JdglwgvQ5auASXKNXKsM5Js7EoKW5Mli8h7O7kvg2z-72wKL-zBkuR98KFobOLCPF16E_nfzpTHECChjyugIGUverdsrHWgBj3bYPnV5RQg.DIm_zg.hNpdfeX_r1nLiV-Gyaap5ma1GqY">https://zenodo.org/oai2d</request>
  <ListIdentifiers>
    <header>
      <identifier>oai:zenodo.org:376172</identifier>
      <datestamp>2017-03-09T13:24:01Z</datestamp>
      <setSpec>user-biosyslit</setSpec>
    </header>
    <header>
      <identifier>oai:zenodo.org:376212</identifier>
      <datestamp>2017-03-09T14:31:46Z</datestamp>
      <setSpec>user-biosyslit</setSpec>
    </header>
    <header>
      <identifier>oai:zenodo.org:375903</identifier>
      <datestamp>2017-03-08T13:25:20Z</datestamp>
      <setSpec>user-biosyslit</setSpec>
    </header>
    <header>
      <identifier>oai:zenodo.org:375762</identifier>
      <datestamp>2017-03-08T08:33:38Z</datestamp>
      <setSpec>user-biosyslit</setSpec>
    </header>
    <header>
      <identifier>oai:zenodo.org:582757</identifier>
      <datestamp>2017-05-24T07:55:51Z</datestamp>
      <setSpec>user-biosyslit</setSpec>
    </header>
    <header>
      <identifier>oai:zenodo.org:376457</identifier>
      <datestamp>2017-03-10T09:33:46Z</datestamp>
      <setSpec>user-biosyslit</setSpec>
    </header>
    <header>
      <identifier>oai:zenodo.org:376389</identifier>
      <datestamp>2017-03-10T08:38:12Z</datestamp>
      <setSpec>user-biosyslit</setSpec>
    </header>
    <header>
      <identifier>oai:zenodo.org:375888</identifier>
      <datestamp>2017-03-08T13:24:43Z</datestamp>
      <setSpec>user-biosyslit</setSpec>
    </header>
    <header>
      <identifier>oai:zenodo.org:376471</identifier>
      <datestamp>2017-03-10T09:45:13Z</datestamp>
      <setSpec>user-biosyslit</setSpec>
    </header>
    <header>
      <identifier>oai:zenodo.org:583201</identifier>
      <datestamp>2017-05-25T07:32:30Z</datestamp>
      <setSpec>user-biosyslit</setSpec>
    </header>
    <header>
      <identifier>oai:zenodo.org:376906</identifier>
      <datestamp>2017-03-13T08:24:24Z</datestamp>
      <setSpec>user-biosyslit</setSpec>
    </header>
    <header>
      <identifier>oai:zenodo.org:376919</identifier>
      <datestamp>2017-03-13T08:39:15Z</datestamp>
      <setSpec>user-biosyslit</setSpec>
    </header>
    <header>
      <identifier>oai:zenodo.org:583378</identifier>
      <datestamp>2017-05-26T07:27:43Z</datestamp>
      <setSpec>user-biosyslit</setSpec>
    </header>
    <header>
      <identifier>oai:zenodo.org:376894</identifier>
      <datestamp>2017-03-13T08:15:56Z</datestamp>
      <setSpec>user-biosyslit</setSpec>
    </header>
    <header>
      <identifier>oai:zenodo.org:583347</identifier>
      <datestamp>2017-05-26T07:19:50Z</datestamp>
      <setSpec>user-biosyslit</setSpec>
    </header>
    <header>
      <identifier>oai:zenodo.org:376912</identifier>
      <datestamp>2017-03-13T08:24:37Z</datestamp>
      <setSpec>user-biosyslit</setSpec>
    </header>
    <header>
      <identifier>oai:zenodo.org:583368</identifier>
      <datestamp>2017-05-26T07:27:06Z</datestamp>
      <setSpec>user-biosyslit</setSpec>
    </header>
    <header>
      <identifier>oai:zenodo.org:583892</identifier>
      <datestamp>2017-05-29T08:15:58Z</datestamp>
      <setSpec>user-biosyslit</setSpec>
    </header>
    <header>
      <identifier>oai:zenodo.org:556029</identifier>
      <datestamp>2017-04-19T07:18:14Z</datestamp>
      <setSpec>user-biosyslit</setSpec>
    </header>
    <header>
      <identifier>oai:zenodo.org:557181</identifier>
      <datestamp>2017-04-25T09:17:48Z</datestamp>
      <setSpec>user-biosyslit</setSpec>
    </header>
    <header>
      <identifier>oai:zenodo.org:583826</identifier>
      <datestamp>2017-05-29T07:25:06Z</datestamp>
      <setSpec>user-biosyslit</setSpec>
    </header>
    <header>
      <identifier>oai:zenodo.org:583922</identifier>
      <datestamp>2017-05-29T08:21:35Z</datestamp>
      <setSpec>user-biosyslit</setSpec>
    </header>
    <header>
      <identifier>oai:zenodo.org:583853</identifier>
      <datestamp>2017-05-29T07:53:57Z</datestamp>
      <setSpec>user-biosyslit</setSpec>
    </header>
    <header>
      <identifier>oai:zenodo.org:399415</identifier>
      <datestamp>2017-03-15T20:55:00Z</datestamp>
      <setSpec>user-biosyslit</setSpec>
    </header>
    <header>
      <identifier>oai:zenodo.org:398716</identifier>
      <datestamp>2017-03-14T08:59:36Z</datestamp>
      <setSpec>user-biosyslit</setSpec>
    </header>
    <header>
      <identifier>oai:zenodo.org:400324</identifier>
      <datestamp>2017-03-16T19:13:41Z</datestamp>
      <setSpec>user-biosyslit</setSpec>
    </header>
    <header>
      <identifier>oai:zenodo.org:398888</identifier>
      <datestamp>2017-03-14T21:02:19Z</datestamp>
      <setSpec>user-biosyslit</setSpec>
    </header>
    <header>
      <identifier>oai:zenodo.org:398739</identifier>
      <datestamp>2017-03-14T09:00:34Z</datestamp>
      <setSpec>user-biosyslit</setSpec>
    </header>
    <header>
      <identifier>oai:zenodo.org:400058</identifier>
      <datestamp>2017-03-16T07:31:57Z</datestamp>
      <setSpec>user-biosyslit</setSpec>
    </header>
    <header>
      <identifier>oai:zenodo.org:399509</identifier>
      <datestamp>2017-03-15T22:40:23Z</datestamp>
      <setSpec>user-biosyslit</setSpec>
    </header>
    <header>
      <identifier>oai:zenodo.org:400349</identifier>
      <datestamp>2017-03-16T20:01:05Z</datestamp>
      <setSpec>user-biosyslit</setSpec>
    </header>
    <header>
      <identifier>oai:zenodo.org:399354</identifier>
      <datestamp>2017-03-15T19:52:36Z</datestamp>
      <setSpec>user-biosyslit</setSpec>
    </header>
    <header>
      <identifier>oai:zenodo.org:400458</identifier>
      <datestamp>2017-03-17T09:05:39Z</datestamp>
      <setSpec>user-biosyslit</setSpec>
    </header>
    <header>
      <identifier>oai:zenodo.org:398978</identifier>
      <datestamp>2017-03-14T21:12:45Z</datestamp>
      <setSpec>user-biosyslit</setSpec>
    </header>
    <header>
      <identifier>oai:zenodo.org:399888</identifier>
      <datestamp>2017-03-16T01:30:52Z</datestamp>
      <setSpec>user-biosyslit</setSpec>
    </header>
    <header>
      <identifier>oai:zenodo.org:556064</identifier>
      <datestamp>2017-04-19T07:55:55Z</datestamp>
      <setSpec>user-biosyslit</setSpec>
    </header>
    <header>
      <identifier>oai:zenodo.org:399540</identifier>
      <datestamp>2017-03-15T22:42:56Z</datestamp>
      <setSpec>user-biosyslit</setSpec>
    </header>
    <header>
      <identifier>oai:zenodo.org:398743</identifier>
      <datestamp>2017-03-14T09:12:31Z</datestamp>
      <setSpec>user-biosyslit</setSpec>
    </header>
    <header>
      <identifier>oai:zenodo.org:399011</identifier>
      <datestamp>2017-03-14T23:48:29Z</datestamp>
      <setSpec>user-biosyslit</setSpec>
    </header>
    <header>
      <identifier>oai:zenodo.org:400346</identifier>
      <datestamp>2017-03-16T20:00:58Z</datestamp>
      <setSpec>user-biosyslit</setSpec>
    </header>
    <header>
      <identifier>oai:zenodo.org:399592</identifier>
      <datestamp>2017-03-15T22:58:29Z</datestamp>
      <setSpec>user-biosyslit</setSpec>
    </header>
    <header>
      <identifier>oai:zenodo.org:399914</identifier>
      <datestamp>2017-03-16T01:32:10Z</datestamp>
      <setSpec>user-biosyslit</setSpec>
    </header>
    <header>
      <identifier>oai:zenodo.org:399848</identifier>
      <datestamp>2017-03-16T01:28:42Z</datestamp>
      <setSpec>user-biosyslit</setSpec>
    </header>
    <header>
      <identifier>oai:zenodo.org:399539</identifier>
      <datestamp>2017-03-15T22:42:52Z</datestamp>
      <setSpec>user-biosyslit</setSpec>
    </header>
    <header>
      <identifier>oai:zenodo.org:399459</identifier>
      <datestamp>2017-03-15T21:05:34Z</datestamp>
      <setSpec>user-biosyslit</setSpec>
    </header>
    <header>
      <identifier>oai:zenodo.org:399090</identifier>
      <datestamp>2017-03-15T08:17:35Z</datestamp>
      <setSpec>user-biosyslit</setSpec>
    </header>
    <header>
      <identifier>oai:zenodo.org:399711</identifier>
      <datestamp>2017-03-15T23:26:00Z</datestamp>
      <setSpec>user-biosyslit</setSpec>
    </header>
    <header>
      <identifier>oai:zenodo.org:400163</identifier>
      <datestamp>2017-03-16T09:16:38Z</datestamp>
      <setSpec>user-biosyslit</setSpec>
    </header>
    <header>
      <identifier>oai:zenodo.org:400860</identifier>
      <datestamp>2017-03-20T08:39:51Z</datestamp>
      <setSpec>user-biosyslit</setSpec>
    </header>
    <header>
      <identifier>oai:zenodo.org:556461</identifier>
      <datestamp>2017-04-20T21:23:40Z</datestamp>
      <setSpec>user-biosyslit</setSpec>
    </header>
    <header>
      <identifier>oai:zenodo.org:399767</identifier>
      <datestamp>2017-03-15T23:55:05Z</datestamp>
      <setSpec>user-biosyslit</setSpec>
    </header>
    <header>
      <identifier>oai:zenodo.org:400044</identifier>
      <datestamp>2017-03-16T07:31:19Z</datestamp>
      <setSpec>user-biosyslit</setSpec>
    </header>
    <header>
      <identifier>oai:zenodo.org:399581</identifier>
      <datestamp>2017-03-15T22:57:49Z</datestamp>
      <setSpec>user-biosyslit</setSpec>
    </header>
    <header>
      <identifier>oai:zenodo.org:399784</identifier>
      <datestamp>2017-03-15T23:57:30Z</datestamp>
      <setSpec>user-biosyslit</setSpec>
    </header>
    <header>
      <identifier>oai:zenodo.org:399613</identifier>
      <datestamp>2017-03-15T22:59:27Z</datestamp>
      <setSpec>user-biosyslit</setSpec>
    </header>
    <header>
      <identifier>oai:zenodo.org:556066</identifier>
      <datestamp>2017-04-19T07:56:03Z</datestamp>
      <setSpec>user-biosyslit</setSpec>
    </header>
    <header>
      <identifier>oai:zenodo.org:556094</identifier>
      <datestamp>2017-04-19T09:40:13Z</datestamp>
      <setSpec>user-biosyslit</setSpec>
    </header>
    <header>
      <identifier>oai:zenodo.org:432145</identifier>
      <datestamp>2017-03-21T09:32:17Z</datestamp>
      <setSpec>user-biosyslit</setSpec>
    </header>
    <header>
      <identifier>oai:zenodo.org:432663</identifier>
      <datestamp>2017-03-21T09:39:06Z</datestamp>
      <setSpec>user-biosyslit</setSpec>
    </header>
    <header>
      <identifier>oai:zenodo.org:437306</identifier>
      <datestamp>2017-03-22T09:30:44Z</datestamp>
      <setSpec>user-biosyslit</setSpec>
    </header>
    <header>
      <identifier>oai:zenodo.org:437668</identifier>
      <datestamp>2017-03-23T10:10:49Z</datestamp>
      <setSpec>user-biosyslit</setSpec>
    </header>
    <header>
      <identifier>oai:zenodo.org:437656</identifier>
      <datestamp>2017-03-23T10:10:28Z</datestamp>
      <setSpec>user-biosyslit</setSpec>
    </header>
    <header>
      <identifier>oai:zenodo.org:437628</identifier>
      <datestamp>2017-03-23T10:09:21Z</datestamp>
      <setSpec>user-biosyslit</setSpec>
    </header>
    <header>
      <identifier>oai:zenodo.org:438553</identifier>
      <datestamp>2017-03-28T07:23:13Z</datestamp>
      <setSpec>user-biosyslit</setSpec>
    </header>
    <header>
      <identifier>oai:zenodo.org:438000</identifier>
      <datestamp>2017-03-24T09:07:00Z</datestamp>
      <setSpec>user-biosyslit</setSpec>
    </header>
    <header>
      <identifier>oai:zenodo.org:438246</identifier>
      <datestamp>2017-03-27T08:04:33Z</datestamp>
      <setSpec>user-biosyslit</setSpec>
    </header>
    <header>
      <identifier>oai:zenodo.org:439154</identifier>
      <datestamp>2017-03-30T07:27:22Z</datestamp>
      <setSpec>user-biosyslit</setSpec>
    </header>
    <header>
      <identifier>oai:zenodo.org:557191</identifier>
      <datestamp>2017-04-25T09:18:14Z</datestamp>
      <setSpec>user-biosyslit</setSpec>
    </header>
    <header>
      <identifier>oai:zenodo.org:439796</identifier>
      <datestamp>2017-04-03T07:40:10Z</datestamp>
      <setSpec>user-biosyslit</setSpec>
    </header>
    <header>
      <identifier>oai:zenodo.org:439780</identifier>
      <datestamp>2017-04-03T07:25:06Z</datestamp>
      <setSpec>user-biosyslit</setSpec>
    </header>
    <header>
      <identifier>oai:zenodo.org:439299</identifier>
      <datestamp>2017-03-31T09:17:56Z</datestamp>
      <setSpec>user-biosyslit</setSpec>
    </header>
    <header>
      <identifier>oai:zenodo.org:495289</identifier>
      <datestamp>2017-04-06T07:22:37Z</datestamp>
      <setSpec>user-biosyslit</setSpec>
    </header>
    <header>
      <identifier>oai:zenodo.org:495545</identifier>
      <datestamp>2017-04-07T07:46:02Z</datestamp>
      <setSpec>user-biosyslit</setSpec>
    </header>
    <header>
      <identifier>oai:zenodo.org:496114</identifier>
      <datestamp>2017-04-28T10:58:32Z</datestamp>
      <setSpec>openaire</setSpec>
      <setSpec>user-biosyslit</setSpec>
    </header>
    <header>
      <identifier>oai:zenodo.org:495287</identifier>
      <datestamp>2017-04-06T07:22:51Z</datestamp>
      <setSpec>user-biosyslit</setSpec>
    </header>
    <header>
      <identifier>oai:zenodo.org:495275</identifier>
      <datestamp>2017-04-06T07:09:07Z</datestamp>
      <setSpec>user-biosyslit</setSpec>
    </header>
    <header>
      <identifier>oai:zenodo.org:495539</identifier>
      <datestamp>2017-04-07T07:38:10Z</datestamp>
      <setSpec>user-biosyslit</setSpec>
    </header>
    <header>
      <identifier>oai:zenodo.org:495903</identifier>
      <datestamp>2017-04-28T10:57:53Z</datestamp>
      <setSpec>openaire</setSpec>
      <setSpec>user-biosyslit</setSpec>
    </header>
    <header>
      <identifier>oai:zenodo.org:496974</identifier>
      <datestamp>2017-04-11T07:48:05Z</datestamp>
      <setSpec>user-biosyslit</setSpec>
    </header>
    <header>
      <identifier>oai:zenodo.org:546832</identifier>
      <datestamp>2017-04-18T07:40:04Z</datestamp>
      <setSpec>user-biosyslit</setSpec>
    </header>
    <header>
      <identifier>oai:zenodo.org:556047</identifier>
      <datestamp>2017-04-19T07:37:20Z</datestamp>
      <setSpec>user-biosyslit</setSpec>
    </header>
    <header>
      <identifier>oai:zenodo.org:556288</identifier>
      <datestamp>2017-04-20T07:49:40Z</datestamp>
      <setSpec>user-biosyslit</setSpec>
    </header>
    <header>
      <identifier>oai:zenodo.org:557163</identifier>
      <datestamp>2017-04-25T09:16:48Z</datestamp>
      <setSpec>user-biosyslit</setSpec>
    </header>
    <header>
      <identifier>oai:zenodo.org:272037</identifier>
      <datestamp>2017-02-08T03:23:16Z</datestamp>
      <setSpec>user-biosyslit</setSpec>
    </header>
    <header>
      <identifier>oai:zenodo.org:238994</identifier>
      <datestamp>2017-01-11T14:36:28Z</datestamp>
      <setSpec>user-biosyslit</setSpec>
    </header>
    <header>
      <identifier>oai:zenodo.org:238533</identifier>
      <datestamp>2017-01-11T07:10:07Z</datestamp>
      <setSpec>user-biosyslit</setSpec>
    </header>
    <header>
      <identifier>oai:zenodo.org:239349</identifier>
      <datestamp>2017-01-11T18:52:49Z</datestamp>
      <setSpec>user-biosyslit</setSpec>
    </header>
    <header>
      <identifier>oai:zenodo.org:239074</identifier>
      <datestamp>2017-01-11T16:05:34Z</datestamp>
      <setSpec>user-biosyslit</setSpec>
    </header>
    <header>
      <identifier>oai:zenodo.org:239669</identifier>
      <datestamp>2017-01-11T23:33:31Z</datestamp>
      <setSpec>user-biosyslit</setSpec>
    </header>
    <header>
      <identifier>oai:zenodo.org:238682</identifier>
      <datestamp>2017-01-11T09:26:52Z</datestamp>
      <setSpec>user-biosyslit</setSpec>
    </header>
    <header>
      <identifier>oai:zenodo.org:239425</identifier>
      <datestamp>2017-01-11T20:16:10Z</datestamp>
      <setSpec>user-biosyslit</setSpec>
    </header>
    <header>
      <identifier>oai:zenodo.org:239515</identifier>
      <datestamp>2017-01-11T21:47:17Z</datestamp>
      <setSpec>user-biosyslit</setSpec>
    </header>
    <header>
      <identifier>oai:zenodo.org:238833</identifier>
      <datestamp>2017-01-11T11:25:09Z</datestamp>
      <setSpec>user-biosyslit</setSpec>
    </header>
    <header>
      <identifier>oai:zenodo.org:271851</identifier>
      <datestamp>2017-02-08T02:45:33Z</datestamp>
      <setSpec>user-biosyslit</setSpec>
    </header>
    <header>
      <identifier>oai:zenodo.org:271025</identifier>
      <datestamp>2017-02-08T00:36:47Z</datestamp>
      <setSpec>user-biosyslit</setSpec>
    </header>
    <header>
      <identifier>oai:zenodo.org:239347</identifier>
      <datestamp>2017-01-11T18:52:41Z</datestamp>
      <setSpec>user-biosyslit</setSpec>
    </header>
    <header>
      <identifier>oai:zenodo.org:239780</identifier>
      <datestamp>2017-01-12T00:46:01Z</datestamp>
      <setSpec>user-biosyslit</setSpec>
    </header>
    <header>
      <identifier>oai:zenodo.org:271177</identifier>
      <datestamp>2017-02-08T00:57:33Z</datestamp>
      <setSpec>user-biosyslit</setSpec>
    </header>
    <header>
      <identifier>oai:zenodo.org:239586</identifier>
      <datestamp>2017-01-11T22:30:09Z</datestamp>
      <setSpec>user-biosyslit</setSpec>
    </header>
    <header>
      <identifier>oai:zenodo.org:271392</identifier>
      <datestamp>2017-02-08T01:35:39Z</datestamp>
      <setSpec>user-biosyslit</setSpec>
    </header>
    <resumptionToken expirationDate="2017-08-31T15:44:06Z" cursor="16800" completeListSize="77796">.eJyNyk0LgjAYAOD_8p4lNkfbErqIJh5SdCnqJUxFyvWBK9SF_z0vnev8PG9QTVODhVaEck7QmlGO6IZjaoCq-ruUx_PCUGWprG4yKb30FV9TlJstCxw17p2cBLpD4RVrsYvMDPMxOaMpOiTPXMdjSvxBIJftdTQFF395NQk9WZy8h0huthRm3YduNAlsi4JU34f_fPrnc9QWDHiUbQMWZsiAbij7VoH1nucPqPVRRw.DIm_zg.UjkkYXa5-FYby45MPfDZgD4TVFc</resumptionToken>
  </ListIdentifiers>
</OAI-PMH>
