<?xml version='1.0' encoding='UTF-8'?>
<?xml-stylesheet type="text/xsl" href="/static/xsl/oai2.v1.0.xsl"?>
<OAI-PMH xmlns="http://www.openarchives.org/OAI/2.0/" xmlns:xsi="http://www.w3.org/2001/XMLSchema-instance" xsi:schemaLocation="http://www.openarchives.org/OAI/2.0/ http://www.openarchives.org/OAI/2.0/OAI-PMH.xsd">
  <responseDate>2017-08-31T14:38:44Z</responseDate>
  <request verb="ListIdentifiers" resumptionToken=".eJwVzd1uREAYgOF7mWNpZob1d7ZCZZt-xDIsJ40OZWuoosFs9t53e_wmz3tDc11XyMYv-oHqJtGJftBMS7N0Bc18-hHi4_rMiF9SwQfBSj_9O_cpzmljBO68gZuTIGEy7ImMXyN6IebGrniPErbk8ryl6mmNsWeAjFaQDQ37Sg19UXz6Y8wGR8S0mkIv2mPixIXKDUiO9OkR-B4XjlsWCOsL0tMCnUfeM8A8rXbwFieUgMEFLUjGoZLtmGXbLxNva8GWoZStB90Ssf-XPBpIQWPZ1MhWNQV1azk1M7Jv9_sDe35SGg.DImwwQ.BNCv_MbF4cq4xVqwnMh8kKT-wtg">https://zenodo.org/oai2d</request>
  <ListIdentifiers>
    <header>
      <identifier>oai:zenodo.org:252112</identifier>
      <datestamp>2017-01-19T09:21:46Z</datestamp>
      <setSpec>user-biosyslit</setSpec>
    </header>
    <header>
      <identifier>oai:zenodo.org:252143</identifier>
      <datestamp>2017-01-19T09:41:35Z</datestamp>
      <setSpec>user-biosyslit</setSpec>
    </header>
    <header>
      <identifier>oai:zenodo.org:252258</identifier>
      <datestamp>2017-01-19T11:15:15Z</datestamp>
      <setSpec>user-biosyslit</setSpec>
    </header>
    <header>
      <identifier>oai:zenodo.org:252619</identifier>
      <datestamp>2017-01-19T17:47:53Z</datestamp>
      <setSpec>user-biosyslit</setSpec>
    </header>
    <header>
      <identifier>oai:zenodo.org:279429</identifier>
      <datestamp>2017-02-09T01:21:17Z</datestamp>
      <setSpec>user-biosyslit</setSpec>
    </header>
    <header>
      <identifier>oai:zenodo.org:252899</identifier>
      <datestamp>2017-01-19T22:49:02Z</datestamp>
      <setSpec>user-biosyslit</setSpec>
    </header>
    <header>
      <identifier>oai:zenodo.org:252937</identifier>
      <datestamp>2017-01-19T23:37:46Z</datestamp>
      <setSpec>user-biosyslit</setSpec>
    </header>
    <header>
      <identifier>oai:zenodo.org:252725</identifier>
      <datestamp>2017-01-19T19:00:06Z</datestamp>
      <setSpec>user-biosyslit</setSpec>
    </header>
    <header>
      <identifier>oai:zenodo.org:253794</identifier>
      <datestamp>2017-01-20T11:19:38Z</datestamp>
      <setSpec>user-biosyslit</setSpec>
    </header>
    <header>
      <identifier>oai:zenodo.org:255603</identifier>
      <datestamp>2017-01-21T15:59:26Z</datestamp>
      <setSpec>user-biosyslit</setSpec>
    </header>
    <header>
      <identifier>oai:zenodo.org:255193</identifier>
      <datestamp>2017-01-21T09:10:00Z</datestamp>
      <setSpec>user-biosyslit</setSpec>
    </header>
    <header>
      <identifier>oai:zenodo.org:254926</identifier>
      <datestamp>2017-01-21T05:04:55Z</datestamp>
      <setSpec>user-biosyslit</setSpec>
    </header>
    <header>
      <identifier>oai:zenodo.org:256004</identifier>
      <datestamp>2017-01-22T02:08:17Z</datestamp>
      <setSpec>user-biosyslit</setSpec>
    </header>
    <header>
      <identifier>oai:zenodo.org:255493</identifier>
      <datestamp>2017-01-21T14:16:24Z</datestamp>
      <setSpec>user-biosyslit</setSpec>
    </header>
    <header>
      <identifier>oai:zenodo.org:255729</identifier>
      <datestamp>2017-01-21T19:30:31Z</datestamp>
      <setSpec>user-biosyslit</setSpec>
    </header>
    <header>
      <identifier>oai:zenodo.org:257643</identifier>
      <datestamp>2017-01-23T11:37:12Z</datestamp>
      <setSpec>user-biosyslit</setSpec>
    </header>
    <header>
      <identifier>oai:zenodo.org:256619</identifier>
      <datestamp>2017-01-22T18:36:37Z</datestamp>
      <setSpec>user-biosyslit</setSpec>
    </header>
    <header>
      <identifier>oai:zenodo.org:256337</identifier>
      <datestamp>2017-01-22T12:52:52Z</datestamp>
      <setSpec>user-biosyslit</setSpec>
    </header>
    <header>
      <identifier>oai:zenodo.org:257248</identifier>
      <datestamp>2017-01-23T04:14:17Z</datestamp>
      <setSpec>user-biosyslit</setSpec>
    </header>
    <header>
      <identifier>oai:zenodo.org:257001</identifier>
      <datestamp>2017-01-22T23:40:37Z</datestamp>
      <setSpec>user-biosyslit</setSpec>
    </header>
    <header>
      <identifier>oai:zenodo.org:233362</identifier>
      <datestamp>2017-01-08T03:53:52Z</datestamp>
      <setSpec>user-biosyslit</setSpec>
    </header>
    <header>
      <identifier>oai:zenodo.org:234318</identifier>
      <datestamp>2017-01-08T18:21:29Z</datestamp>
      <setSpec>user-biosyslit</setSpec>
    </header>
    <header>
      <identifier>oai:zenodo.org:276741</identifier>
      <datestamp>2017-02-08T19:34:02Z</datestamp>
      <setSpec>user-biosyslit</setSpec>
    </header>
    <header>
      <identifier>oai:zenodo.org:276731</identifier>
      <datestamp>2017-02-08T19:32:58Z</datestamp>
      <setSpec>user-biosyslit</setSpec>
    </header>
    <header>
      <identifier>oai:zenodo.org:276846</identifier>
      <datestamp>2017-02-08T19:48:46Z</datestamp>
      <setSpec>user-biosyslit</setSpec>
    </header>
    <header>
      <identifier>oai:zenodo.org:276587</identifier>
      <datestamp>2017-02-08T19:16:48Z</datestamp>
      <setSpec>user-biosyslit</setSpec>
    </header>
    <header>
      <identifier>oai:zenodo.org:277961</identifier>
      <datestamp>2017-02-08T22:10:12Z</datestamp>
      <setSpec>user-biosyslit</setSpec>
    </header>
    <header>
      <identifier>oai:zenodo.org:276505</identifier>
      <datestamp>2017-02-08T19:00:27Z</datestamp>
      <setSpec>user-biosyslit</setSpec>
    </header>
    <header>
      <identifier>oai:zenodo.org:276867</identifier>
      <datestamp>2017-02-08T19:52:47Z</datestamp>
      <setSpec>user-biosyslit</setSpec>
    </header>
    <header>
      <identifier>oai:zenodo.org:276534</identifier>
      <datestamp>2017-02-08T19:05:59Z</datestamp>
      <setSpec>user-biosyslit</setSpec>
    </header>
    <header>
      <identifier>oai:zenodo.org:235226</identifier>
      <datestamp>2017-01-09T07:04:55Z</datestamp>
      <setSpec>user-biosyslit</setSpec>
    </header>
    <header>
      <identifier>oai:zenodo.org:234822</identifier>
      <datestamp>2017-01-09T02:30:24Z</datestamp>
      <setSpec>user-biosyslit</setSpec>
    </header>
    <header>
      <identifier>oai:zenodo.org:234643</identifier>
      <datestamp>2017-01-08T23:11:05Z</datestamp>
      <setSpec>user-biosyslit</setSpec>
    </header>
    <header>
      <identifier>oai:zenodo.org:276512</identifier>
      <datestamp>2017-02-08T19:02:45Z</datestamp>
      <setSpec>user-biosyslit</setSpec>
    </header>
    <header>
      <identifier>oai:zenodo.org:276525</identifier>
      <datestamp>2017-02-08T19:05:33Z</datestamp>
      <setSpec>user-biosyslit</setSpec>
    </header>
    <header>
      <identifier>oai:zenodo.org:237332</identifier>
      <datestamp>2017-01-10T14:23:57Z</datestamp>
      <setSpec>user-biosyslit</setSpec>
    </header>
    <header>
      <identifier>oai:zenodo.org:235076</identifier>
      <datestamp>2017-01-09T05:26:30Z</datestamp>
      <setSpec>user-biosyslit</setSpec>
    </header>
    <header>
      <identifier>oai:zenodo.org:235939</identifier>
      <datestamp>2017-01-09T16:56:42Z</datestamp>
      <setSpec>user-biosyslit</setSpec>
    </header>
    <header>
      <identifier>oai:zenodo.org:235844</identifier>
      <datestamp>2017-01-13T07:38:05Z</datestamp>
      <setSpec>openaire</setSpec>
      <setSpec>user-biosyslit</setSpec>
    </header>
    <header>
      <identifier>oai:zenodo.org:235843</identifier>
      <datestamp>2017-01-13T07:38:06Z</datestamp>
      <setSpec>openaire</setSpec>
      <setSpec>user-biosyslit</setSpec>
    </header>
    <header>
      <identifier>oai:zenodo.org:235737</identifier>
      <datestamp>2017-01-09T14:17:03Z</datestamp>
      <setSpec>user-biosyslit</setSpec>
    </header>
    <header>
      <identifier>oai:zenodo.org:276685</identifier>
      <datestamp>2017-02-08T19:28:06Z</datestamp>
      <setSpec>user-biosyslit</setSpec>
    </header>
    <header>
      <identifier>oai:zenodo.org:276868</identifier>
      <datestamp>2017-02-08T19:52:50Z</datestamp>
      <setSpec>user-biosyslit</setSpec>
    </header>
    <header>
      <identifier>oai:zenodo.org:270777</identifier>
      <datestamp>2017-02-07T23:55:45Z</datestamp>
      <setSpec>user-biosyslit</setSpec>
    </header>
    <header>
      <identifier>oai:zenodo.org:235214</identifier>
      <datestamp>2017-01-09T06:43:39Z</datestamp>
      <setSpec>user-biosyslit</setSpec>
    </header>
    <header>
      <identifier>oai:zenodo.org:236070</identifier>
      <datestamp>2017-01-09T18:30:53Z</datestamp>
      <setSpec>user-biosyslit</setSpec>
    </header>
    <header>
      <identifier>oai:zenodo.org:276661</identifier>
      <datestamp>2017-02-08T19:25:01Z</datestamp>
      <setSpec>user-biosyslit</setSpec>
    </header>
    <header>
      <identifier>oai:zenodo.org:277424</identifier>
      <datestamp>2017-02-08T21:07:15Z</datestamp>
      <setSpec>user-biosyslit</setSpec>
    </header>
    <header>
      <identifier>oai:zenodo.org:236115</identifier>
      <datestamp>2017-01-09T18:33:24Z</datestamp>
      <setSpec>user-biosyslit</setSpec>
    </header>
    <header>
      <identifier>oai:zenodo.org:277442</identifier>
      <datestamp>2017-02-08T21:08:50Z</datestamp>
      <setSpec>user-biosyslit</setSpec>
    </header>
    <header>
      <identifier>oai:zenodo.org:277336</identifier>
      <datestamp>2017-02-08T20:55:24Z</datestamp>
      <setSpec>user-biosyslit</setSpec>
    </header>
    <header>
      <identifier>oai:zenodo.org:277412</identifier>
      <datestamp>2017-02-08T21:04:59Z</datestamp>
      <setSpec>user-biosyslit</setSpec>
    </header>
    <header>
      <identifier>oai:zenodo.org:236416</identifier>
      <datestamp>2017-01-09T23:59:51Z</datestamp>
      <setSpec>user-biosyslit</setSpec>
    </header>
    <header>
      <identifier>oai:zenodo.org:276788</identifier>
      <datestamp>2017-02-08T19:40:27Z</datestamp>
      <setSpec>user-biosyslit</setSpec>
    </header>
    <header>
      <identifier>oai:zenodo.org:278026</identifier>
      <datestamp>2017-02-08T22:18:14Z</datestamp>
      <setSpec>user-biosyslit</setSpec>
    </header>
    <header>
      <identifier>oai:zenodo.org:277631</identifier>
      <datestamp>2017-02-08T21:30:39Z</datestamp>
      <setSpec>user-biosyslit</setSpec>
    </header>
    <header>
      <identifier>oai:zenodo.org:237553</identifier>
      <datestamp>2017-01-10T16:56:59Z</datestamp>
      <setSpec>user-biosyslit</setSpec>
    </header>
    <header>
      <identifier>oai:zenodo.org:277416</identifier>
      <datestamp>2017-02-08T21:05:09Z</datestamp>
      <setSpec>user-biosyslit</setSpec>
    </header>
    <header>
      <identifier>oai:zenodo.org:237829</identifier>
      <datestamp>2017-01-10T21:13:10Z</datestamp>
      <setSpec>user-biosyslit</setSpec>
    </header>
    <header>
      <identifier>oai:zenodo.org:277374</identifier>
      <datestamp>2017-02-08T21:00:09Z</datestamp>
      <setSpec>user-biosyslit</setSpec>
    </header>
    <header>
      <identifier>oai:zenodo.org:238106</identifier>
      <datestamp>2017-01-11T01:06:20Z</datestamp>
      <setSpec>user-biosyslit</setSpec>
    </header>
    <header>
      <identifier>oai:zenodo.org:238039</identifier>
      <datestamp>2017-01-11T00:17:40Z</datestamp>
      <setSpec>user-biosyslit</setSpec>
    </header>
    <header>
      <identifier>oai:zenodo.org:239315</identifier>
      <datestamp>2017-01-11T18:50:57Z</datestamp>
      <setSpec>user-biosyslit</setSpec>
    </header>
    <header>
      <identifier>oai:zenodo.org:238095</identifier>
      <datestamp>2017-01-11T00:57:52Z</datestamp>
      <setSpec>user-biosyslit</setSpec>
    </header>
    <header>
      <identifier>oai:zenodo.org:277382</identifier>
      <datestamp>2017-02-08T21:00:35Z</datestamp>
      <setSpec>user-biosyslit</setSpec>
    </header>
    <header>
      <identifier>oai:zenodo.org:277388</identifier>
      <datestamp>2017-02-08T21:01:51Z</datestamp>
      <setSpec>user-biosyslit</setSpec>
    </header>
    <header>
      <identifier>oai:zenodo.org:238157</identifier>
      <datestamp>2017-01-11T01:43:50Z</datestamp>
      <setSpec>user-biosyslit</setSpec>
    </header>
    <header>
      <identifier>oai:zenodo.org:239631</identifier>
      <datestamp>2017-01-11T22:56:36Z</datestamp>
      <setSpec>user-biosyslit</setSpec>
    </header>
    <header>
      <identifier>oai:zenodo.org:237898</identifier>
      <datestamp>2017-01-10T22:07:07Z</datestamp>
      <setSpec>user-biosyslit</setSpec>
    </header>
    <header>
      <identifier>oai:zenodo.org:278150</identifier>
      <datestamp>2017-02-08T22:32:29Z</datestamp>
      <setSpec>user-biosyslit</setSpec>
    </header>
    <header>
      <identifier>oai:zenodo.org:270959</identifier>
      <datestamp>2017-02-08T00:20:27Z</datestamp>
      <setSpec>user-biosyslit</setSpec>
    </header>
    <header>
      <identifier>oai:zenodo.org:238919</identifier>
      <datestamp>2017-01-11T12:40:20Z</datestamp>
      <setSpec>user-biosyslit</setSpec>
    </header>
    <header>
      <identifier>oai:zenodo.org:238611</identifier>
      <datestamp>2017-01-11T08:14:07Z</datestamp>
      <setSpec>user-biosyslit</setSpec>
    </header>
    <header>
      <identifier>oai:zenodo.org:238689</identifier>
      <datestamp>2017-01-11T09:41:46Z</datestamp>
      <setSpec>user-biosyslit</setSpec>
    </header>
    <header>
      <identifier>oai:zenodo.org:278536</identifier>
      <datestamp>2017-02-08T23:21:59Z</datestamp>
      <setSpec>user-biosyslit</setSpec>
    </header>
    <header>
      <identifier>oai:zenodo.org:240629</identifier>
      <datestamp>2017-01-12T11:00:12Z</datestamp>
      <setSpec>user-biosyslit</setSpec>
    </header>
    <header>
      <identifier>oai:zenodo.org:239125</identifier>
      <datestamp>2017-01-11T16:46:28Z</datestamp>
      <setSpec>user-biosyslit</setSpec>
    </header>
    <header>
      <identifier>oai:zenodo.org:239770</identifier>
      <datestamp>2017-01-12T00:45:13Z</datestamp>
      <setSpec>user-biosyslit</setSpec>
    </header>
    <header>
      <identifier>oai:zenodo.org:239301</identifier>
      <datestamp>2017-01-11T18:49:56Z</datestamp>
      <setSpec>user-biosyslit</setSpec>
    </header>
    <header>
      <identifier>oai:zenodo.org:271364</identifier>
      <datestamp>2017-02-08T01:32:35Z</datestamp>
      <setSpec>user-biosyslit</setSpec>
    </header>
    <header>
      <identifier>oai:zenodo.org:241631</identifier>
      <datestamp>2017-01-13T04:11:46Z</datestamp>
      <setSpec>user-biosyslit</setSpec>
    </header>
    <header>
      <identifier>oai:zenodo.org:239079</identifier>
      <datestamp>2017-01-11T16:05:47Z</datestamp>
      <setSpec>user-biosyslit</setSpec>
    </header>
    <header>
      <identifier>oai:zenodo.org:271071</identifier>
      <datestamp>2017-02-08T00:41:46Z</datestamp>
      <setSpec>user-biosyslit</setSpec>
    </header>
    <header>
      <identifier>oai:zenodo.org:240014</identifier>
      <datestamp>2017-01-12T03:40:04Z</datestamp>
      <setSpec>user-biosyslit</setSpec>
    </header>
    <header>
      <identifier>oai:zenodo.org:278500</identifier>
      <datestamp>2017-02-08T23:17:30Z</datestamp>
      <setSpec>user-biosyslit</setSpec>
    </header>
    <header>
      <identifier>oai:zenodo.org:271199</identifier>
      <datestamp>2017-02-08T01:00:29Z</datestamp>
      <setSpec>user-biosyslit</setSpec>
    </header>
    <header>
      <identifier>oai:zenodo.org:240903</identifier>
      <datestamp>2017-01-12T15:46:03Z</datestamp>
      <setSpec>user-biosyslit</setSpec>
    </header>
    <header>
      <identifier>oai:zenodo.org:241109</identifier>
      <datestamp>2017-01-12T20:08:09Z</datestamp>
      <setSpec>user-biosyslit</setSpec>
    </header>
    <header>
      <identifier>oai:zenodo.org:240510</identifier>
      <datestamp>2017-01-12T09:44:37Z</datestamp>
      <setSpec>user-biosyslit</setSpec>
    </header>
    <header>
      <identifier>oai:zenodo.org:278577</identifier>
      <datestamp>2017-02-08T23:27:07Z</datestamp>
      <setSpec>user-biosyslit</setSpec>
    </header>
    <header>
      <identifier>oai:zenodo.org:279052</identifier>
      <datestamp>2017-02-09T00:30:50Z</datestamp>
      <setSpec>user-biosyslit</setSpec>
    </header>
    <header>
      <identifier>oai:zenodo.org:278801</identifier>
      <datestamp>2017-02-08T23:54:34Z</datestamp>
      <setSpec>user-biosyslit</setSpec>
    </header>
    <header>
      <identifier>oai:zenodo.org:278407</identifier>
      <datestamp>2017-02-08T23:05:56Z</datestamp>
      <setSpec>user-biosyslit</setSpec>
    </header>
    <header>
      <identifier>oai:zenodo.org:278453</identifier>
      <datestamp>2017-02-08T23:11:54Z</datestamp>
      <setSpec>user-biosyslit</setSpec>
    </header>
    <header>
      <identifier>oai:zenodo.org:241207</identifier>
      <datestamp>2017-01-12T22:06:00Z</datestamp>
      <setSpec>user-biosyslit</setSpec>
    </header>
    <header>
      <identifier>oai:zenodo.org:278404</identifier>
      <datestamp>2017-02-08T23:05:49Z</datestamp>
      <setSpec>user-biosyslit</setSpec>
    </header>
    <header>
      <identifier>oai:zenodo.org:240911</identifier>
      <datestamp>2017-01-12T15:46:28Z</datestamp>
      <setSpec>user-biosyslit</setSpec>
    </header>
    <header>
      <identifier>oai:zenodo.org:271334</identifier>
      <datestamp>2017-02-08T01:21:54Z</datestamp>
      <setSpec>user-biosyslit</setSpec>
    </header>
    <header>
      <identifier>oai:zenodo.org:278958</identifier>
      <datestamp>2017-02-09T00:16:53Z</datestamp>
      <setSpec>user-biosyslit</setSpec>
    </header>
    <header>
      <identifier>oai:zenodo.org:271566</identifier>
      <datestamp>2017-02-08T01:55:13Z</datestamp>
      <setSpec>user-biosyslit</setSpec>
    </header>
    <resumptionToken expirationDate="2017-08-31T14:40:44Z" cursor="3300" completeListSize="142507">.eJwVjUFvREAYQP_LnKWZoWvUbYXKNv2IHTOWS6MoW0MVDWaz_3319A4vee-GpqoqkY2fLGoeiIlNyzAx3aGhqRh_pPy47hoVFyGLXvLcF3_nTuBUr2ngTiu4KQlirsKOKPYa6RdirfyKtyjmc6rOqzBOC8MeBRUtoGo97Eoj9GX26Q-M945kejmGXrQx4rDMKCjER33vEfge5gI3PJAvXyBOM7QeeU8AF6LcwJudUAEGF56DeOhL1QxJsv5y-bZkfO5z1XjQzhH_f6kjRRoa8rpCtnHQULvkYz0h-3a_PwBzpVIS.DImw9A.f9MlDRLd2kW_a55IhNIv-dEI7dc</resumptionToken>
  </ListIdentifiers>
</OAI-PMH>
