<?xml version='1.0' encoding='UTF-8'?>
<?xml-stylesheet type="text/xsl" href="/static/xsl/oai2.v1.0.xsl"?>
<OAI-PMH xmlns="http://www.openarchives.org/OAI/2.0/" xmlns:xsi="http://www.w3.org/2001/XMLSchema-instance" xsi:schemaLocation="http://www.openarchives.org/OAI/2.0/ http://www.openarchives.org/OAI/2.0/OAI-PMH.xsd">
  <responseDate>2017-08-31T15:44:22Z</responseDate>
  <request verb="ListIdentifiers" resumptionToken=".eJyNyj0LgkAYAOD_8s4S92HaCS2iSYOKXUq6hKlIeZp4hXrSf6-luebnWUBWVQkWWq2ZQbCB8IYxRgkzNJDFcBfifP0wFKdEFJ2Icy95HtoEpaQ2A0dOvpPSQDUobLHiu4ic8GaKr2iOjvEjVYcpofuRI9f0VTQHt_3nlTT0RHbxeh53tuCkHEI3mjm2eUaL78N_PvXzOXILGvR5XYGlM12DZsyHWoK1vF5vqkVRUQ.DInAVQ.-aHA1e7CI7o5z_doXdMQZnAQWDU">https://zenodo.org/oai2d</request>
  <ListIdentifiers>
    <header>
      <identifier>oai:zenodo.org:426097</identifier>
      <datestamp>2017-03-21T08:13:52Z</datestamp>
      <setSpec>user-biosyslit</setSpec>
    </header>
    <header>
      <identifier>oai:zenodo.org:284336</identifier>
      <datestamp>2017-02-09T11:04:56Z</datestamp>
      <setSpec>user-biosyslit</setSpec>
    </header>
    <header>
      <identifier>oai:zenodo.org:283435</identifier>
      <datestamp>2017-02-09T08:54:44Z</datestamp>
      <setSpec>user-biosyslit</setSpec>
    </header>
    <header>
      <identifier>oai:zenodo.org:283432</identifier>
      <datestamp>2017-02-09T08:54:38Z</datestamp>
      <setSpec>user-biosyslit</setSpec>
    </header>
    <header>
      <identifier>oai:zenodo.org:284478</identifier>
      <datestamp>2017-02-09T11:21:15Z</datestamp>
      <setSpec>user-biosyslit</setSpec>
    </header>
    <header>
      <identifier>oai:zenodo.org:283952</identifier>
      <datestamp>2017-02-09T10:07:20Z</datestamp>
      <setSpec>user-biosyslit</setSpec>
    </header>
    <header>
      <identifier>oai:zenodo.org:283989</identifier>
      <datestamp>2017-02-09T10:09:40Z</datestamp>
      <setSpec>user-biosyslit</setSpec>
    </header>
    <header>
      <identifier>oai:zenodo.org:283966</identifier>
      <datestamp>2017-02-09T10:08:35Z</datestamp>
      <setSpec>user-biosyslit</setSpec>
    </header>
    <header>
      <identifier>oai:zenodo.org:283976</identifier>
      <datestamp>2017-02-09T10:09:00Z</datestamp>
      <setSpec>user-biosyslit</setSpec>
    </header>
    <header>
      <identifier>oai:zenodo.org:426951</identifier>
      <datestamp>2017-03-21T08:25:24Z</datestamp>
      <setSpec>user-biosyslit</setSpec>
    </header>
    <header>
      <identifier>oai:zenodo.org:284182</identifier>
      <datestamp>2017-02-09T10:37:59Z</datestamp>
      <setSpec>user-biosyslit</setSpec>
    </header>
    <header>
      <identifier>oai:zenodo.org:284155</identifier>
      <datestamp>2017-02-09T10:35:24Z</datestamp>
      <setSpec>user-biosyslit</setSpec>
    </header>
    <header>
      <identifier>oai:zenodo.org:285022</identifier>
      <datestamp>2017-02-09T12:29:56Z</datestamp>
      <setSpec>user-biosyslit</setSpec>
    </header>
    <header>
      <identifier>oai:zenodo.org:283871</identifier>
      <datestamp>2017-02-09T09:58:35Z</datestamp>
      <setSpec>user-biosyslit</setSpec>
    </header>
    <header>
      <identifier>oai:zenodo.org:284010</identifier>
      <datestamp>2017-02-09T10:10:35Z</datestamp>
      <setSpec>user-biosyslit</setSpec>
    </header>
    <header>
      <identifier>oai:zenodo.org:283969</identifier>
      <datestamp>2017-02-09T10:08:42Z</datestamp>
      <setSpec>user-biosyslit</setSpec>
    </header>
    <header>
      <identifier>oai:zenodo.org:284151</identifier>
      <datestamp>2017-02-09T10:34:50Z</datestamp>
      <setSpec>user-biosyslit</setSpec>
    </header>
    <header>
      <identifier>oai:zenodo.org:283917</identifier>
      <datestamp>2017-02-09T10:03:04Z</datestamp>
      <setSpec>user-biosyslit</setSpec>
    </header>
    <header>
      <identifier>oai:zenodo.org:284344</identifier>
      <datestamp>2017-02-09T11:05:14Z</datestamp>
      <setSpec>user-biosyslit</setSpec>
    </header>
    <header>
      <identifier>oai:zenodo.org:427454</identifier>
      <datestamp>2017-03-21T08:31:38Z</datestamp>
      <setSpec>user-biosyslit</setSpec>
    </header>
    <header>
      <identifier>oai:zenodo.org:426102</identifier>
      <datestamp>2017-03-21T08:13:57Z</datestamp>
      <setSpec>user-biosyslit</setSpec>
    </header>
    <header>
      <identifier>oai:zenodo.org:283749</identifier>
      <datestamp>2017-02-09T09:34:57Z</datestamp>
      <setSpec>user-biosyslit</setSpec>
    </header>
    <header>
      <identifier>oai:zenodo.org:284200</identifier>
      <datestamp>2017-02-09T10:38:43Z</datestamp>
      <setSpec>user-biosyslit</setSpec>
    </header>
    <header>
      <identifier>oai:zenodo.org:283739</identifier>
      <datestamp>2017-02-09T09:34:09Z</datestamp>
      <setSpec>user-biosyslit</setSpec>
    </header>
    <header>
      <identifier>oai:zenodo.org:284942</identifier>
      <datestamp>2017-02-09T12:20:17Z</datestamp>
      <setSpec>user-biosyslit</setSpec>
    </header>
    <header>
      <identifier>oai:zenodo.org:285571</identifier>
      <datestamp>2017-02-09T13:52:14Z</datestamp>
      <setSpec>user-biosyslit</setSpec>
    </header>
    <header>
      <identifier>oai:zenodo.org:285615</identifier>
      <datestamp>2017-02-09T13:59:42Z</datestamp>
      <setSpec>user-biosyslit</setSpec>
    </header>
    <header>
      <identifier>oai:zenodo.org:229073</identifier>
      <datestamp>2017-01-03T09:13:34Z</datestamp>
      <setSpec>user-biosyslit</setSpec>
    </header>
    <header>
      <identifier>oai:zenodo.org:274691</identifier>
      <datestamp>2017-02-08T14:02:23Z</datestamp>
      <setSpec>user-biosyslit</setSpec>
    </header>
    <header>
      <identifier>oai:zenodo.org:268291</identifier>
      <datestamp>2017-02-03T05:37:51Z</datestamp>
      <setSpec>user-biosyslit</setSpec>
    </header>
    <header>
      <identifier>oai:zenodo.org:275248</identifier>
      <datestamp>2017-02-08T15:47:40Z</datestamp>
      <setSpec>user-biosyslit</setSpec>
    </header>
    <header>
      <identifier>oai:zenodo.org:275283</identifier>
      <datestamp>2017-02-08T15:58:35Z</datestamp>
      <setSpec>user-biosyslit</setSpec>
    </header>
    <header>
      <identifier>oai:zenodo.org:229150</identifier>
      <datestamp>2017-01-03T11:05:53Z</datestamp>
      <setSpec>user-biosyslit</setSpec>
    </header>
    <header>
      <identifier>oai:zenodo.org:229683</identifier>
      <datestamp>2017-01-03T20:29:30Z</datestamp>
      <setSpec>user-biosyslit</setSpec>
    </header>
    <header>
      <identifier>oai:zenodo.org:227998</identifier>
      <datestamp>2017-01-02T08:15:59Z</datestamp>
      <setSpec>user-biosyslit</setSpec>
    </header>
    <header>
      <identifier>oai:zenodo.org:228692</identifier>
      <datestamp>2017-01-03T03:28:56Z</datestamp>
      <setSpec>user-biosyslit</setSpec>
    </header>
    <header>
      <identifier>oai:zenodo.org:268105</identifier>
      <datestamp>2017-02-03T01:33:28Z</datestamp>
      <setSpec>user-biosyslit</setSpec>
    </header>
    <header>
      <identifier>oai:zenodo.org:274471</identifier>
      <datestamp>2017-02-08T13:19:51Z</datestamp>
      <setSpec>user-biosyslit</setSpec>
    </header>
    <header>
      <identifier>oai:zenodo.org:269108</identifier>
      <datestamp>2017-02-06T22:45:31Z</datestamp>
      <setSpec>user-biosyslit</setSpec>
    </header>
    <header>
      <identifier>oai:zenodo.org:274466</identifier>
      <datestamp>2017-02-08T13:18:35Z</datestamp>
      <setSpec>user-biosyslit</setSpec>
    </header>
    <header>
      <identifier>oai:zenodo.org:229326</identifier>
      <datestamp>2017-01-03T14:22:17Z</datestamp>
      <setSpec>user-biosyslit</setSpec>
    </header>
    <header>
      <identifier>oai:zenodo.org:228590</identifier>
      <datestamp>2017-01-03T02:04:12Z</datestamp>
      <setSpec>user-biosyslit</setSpec>
    </header>
    <header>
      <identifier>oai:zenodo.org:269578</identifier>
      <datestamp>2017-02-07T01:02:17Z</datestamp>
      <setSpec>user-biosyslit</setSpec>
    </header>
    <header>
      <identifier>oai:zenodo.org:227913</identifier>
      <datestamp>2017-01-02T06:37:44Z</datestamp>
      <setSpec>user-biosyslit</setSpec>
    </header>
    <header>
      <identifier>oai:zenodo.org:269127</identifier>
      <datestamp>2017-02-06T22:50:43Z</datestamp>
      <setSpec>user-biosyslit</setSpec>
    </header>
    <header>
      <identifier>oai:zenodo.org:268374</identifier>
      <datestamp>2017-02-03T12:29:18Z</datestamp>
      <setSpec>user-biosyslit</setSpec>
    </header>
    <header>
      <identifier>oai:zenodo.org:269177</identifier>
      <datestamp>2017-02-06T23:01:13Z</datestamp>
      <setSpec>user-biosyslit</setSpec>
    </header>
    <header>
      <identifier>oai:zenodo.org:270552</identifier>
      <datestamp>2017-02-07T23:27:08Z</datestamp>
      <setSpec>user-biosyslit</setSpec>
    </header>
    <header>
      <identifier>oai:zenodo.org:229115</identifier>
      <datestamp>2017-01-03T09:47:15Z</datestamp>
      <setSpec>user-biosyslit</setSpec>
    </header>
    <header>
      <identifier>oai:zenodo.org:269134</identifier>
      <datestamp>2017-02-06T22:51:49Z</datestamp>
      <setSpec>user-biosyslit</setSpec>
    </header>
    <header>
      <identifier>oai:zenodo.org:230367</identifier>
      <datestamp>2017-01-04T23:33:41Z</datestamp>
      <setSpec>user-biosyslit</setSpec>
    </header>
    <header>
      <identifier>oai:zenodo.org:230272</identifier>
      <datestamp>2017-01-04T22:03:18Z</datestamp>
      <setSpec>user-biosyslit</setSpec>
    </header>
    <header>
      <identifier>oai:zenodo.org:269178</identifier>
      <datestamp>2017-02-06T23:01:15Z</datestamp>
      <setSpec>user-biosyslit</setSpec>
    </header>
    <header>
      <identifier>oai:zenodo.org:269594</identifier>
      <datestamp>2017-02-07T01:05:14Z</datestamp>
      <setSpec>user-biosyslit</setSpec>
    </header>
    <header>
      <identifier>oai:zenodo.org:268943</identifier>
      <datestamp>2017-02-07T10:00:32Z</datestamp>
      <setSpec>openaire</setSpec>
      <setSpec>user-biosyslit</setSpec>
    </header>
    <header>
      <identifier>oai:zenodo.org:230849</identifier>
      <datestamp>2017-01-05T09:10:32Z</datestamp>
      <setSpec>user-biosyslit</setSpec>
    </header>
    <header>
      <identifier>oai:zenodo.org:269759</identifier>
      <datestamp>2017-02-07T20:17:29Z</datestamp>
      <setSpec>user-biosyslit</setSpec>
    </header>
    <header>
      <identifier>oai:zenodo.org:269420</identifier>
      <datestamp>2017-02-07T00:27:26Z</datestamp>
      <setSpec>user-biosyslit</setSpec>
    </header>
    <header>
      <identifier>oai:zenodo.org:269300</identifier>
      <datestamp>2017-02-06T23:50:22Z</datestamp>
      <setSpec>user-biosyslit</setSpec>
    </header>
    <header>
      <identifier>oai:zenodo.org:275369</identifier>
      <datestamp>2017-02-08T16:10:08Z</datestamp>
      <setSpec>user-biosyslit</setSpec>
    </header>
    <header>
      <identifier>oai:zenodo.org:269986</identifier>
      <datestamp>2017-02-07T21:57:06Z</datestamp>
      <setSpec>user-biosyslit</setSpec>
    </header>
    <header>
      <identifier>oai:zenodo.org:269505</identifier>
      <datestamp>2017-02-07T00:43:47Z</datestamp>
      <setSpec>user-biosyslit</setSpec>
    </header>
    <header>
      <identifier>oai:zenodo.org:269267</identifier>
      <datestamp>2017-02-06T23:44:28Z</datestamp>
      <setSpec>user-biosyslit</setSpec>
    </header>
    <header>
      <identifier>oai:zenodo.org:274741</identifier>
      <datestamp>2017-02-08T14:09:20Z</datestamp>
      <setSpec>user-biosyslit</setSpec>
    </header>
    <header>
      <identifier>oai:zenodo.org:270537</identifier>
      <datestamp>2017-02-07T23:26:00Z</datestamp>
      <setSpec>user-biosyslit</setSpec>
    </header>
    <header>
      <identifier>oai:zenodo.org:270110</identifier>
      <datestamp>2017-02-07T22:22:28Z</datestamp>
      <setSpec>user-biosyslit</setSpec>
    </header>
    <header>
      <identifier>oai:zenodo.org:270121</identifier>
      <datestamp>2017-02-07T22:24:21Z</datestamp>
      <setSpec>user-biosyslit</setSpec>
    </header>
    <header>
      <identifier>oai:zenodo.org:269555</identifier>
      <datestamp>2017-02-07T00:57:46Z</datestamp>
      <setSpec>user-biosyslit</setSpec>
    </header>
    <header>
      <identifier>oai:zenodo.org:231979</identifier>
      <datestamp>2017-01-06T09:37:40Z</datestamp>
      <setSpec>user-biosyslit</setSpec>
    </header>
    <header>
      <identifier>oai:zenodo.org:269919</identifier>
      <datestamp>2017-02-07T20:43:57Z</datestamp>
      <setSpec>user-biosyslit</setSpec>
    </header>
    <header>
      <identifier>oai:zenodo.org:274834</identifier>
      <datestamp>2017-02-08T14:33:21Z</datestamp>
      <setSpec>user-biosyslit</setSpec>
    </header>
    <header>
      <identifier>oai:zenodo.org:269295</identifier>
      <datestamp>2017-02-06T23:48:46Z</datestamp>
      <setSpec>user-biosyslit</setSpec>
    </header>
    <header>
      <identifier>oai:zenodo.org:269532</identifier>
      <datestamp>2017-02-07T00:45:23Z</datestamp>
      <setSpec>user-biosyslit</setSpec>
    </header>
    <header>
      <identifier>oai:zenodo.org:232004</identifier>
      <datestamp>2017-01-06T10:08:07Z</datestamp>
      <setSpec>user-biosyslit</setSpec>
    </header>
    <header>
      <identifier>oai:zenodo.org:231975</identifier>
      <datestamp>2017-01-06T09:37:29Z</datestamp>
      <setSpec>user-biosyslit</setSpec>
    </header>
    <header>
      <identifier>oai:zenodo.org:269450</identifier>
      <datestamp>2017-02-07T00:37:12Z</datestamp>
      <setSpec>user-biosyslit</setSpec>
    </header>
    <header>
      <identifier>oai:zenodo.org:231792</identifier>
      <datestamp>2017-01-06T07:26:51Z</datestamp>
      <setSpec>user-biosyslit</setSpec>
    </header>
    <header>
      <identifier>oai:zenodo.org:269542</identifier>
      <datestamp>2017-02-07T00:53:04Z</datestamp>
      <setSpec>user-biosyslit</setSpec>
    </header>
    <header>
      <identifier>oai:zenodo.org:270353</identifier>
      <datestamp>2017-02-07T23:03:32Z</datestamp>
      <setSpec>user-biosyslit</setSpec>
    </header>
    <header>
      <identifier>oai:zenodo.org:232264</identifier>
      <datestamp>2017-01-06T14:50:29Z</datestamp>
      <setSpec>user-biosyslit</setSpec>
    </header>
    <header>
      <identifier>oai:zenodo.org:269528</identifier>
      <datestamp>2017-02-07T00:45:11Z</datestamp>
      <setSpec>user-biosyslit</setSpec>
    </header>
    <header>
      <identifier>oai:zenodo.org:232151</identifier>
      <datestamp>2017-01-06T11:44:55Z</datestamp>
      <setSpec>user-biosyslit</setSpec>
    </header>
    <header>
      <identifier>oai:zenodo.org:232214</identifier>
      <datestamp>2017-01-07T12:29:32Z</datestamp>
      <setSpec>openaire</setSpec>
      <setSpec>user-biosyslit</setSpec>
    </header>
    <header>
      <identifier>oai:zenodo.org:232338</identifier>
      <datestamp>2017-01-06T16:02:42Z</datestamp>
      <setSpec>user-biosyslit</setSpec>
    </header>
    <header>
      <identifier>oai:zenodo.org:269530</identifier>
      <datestamp>2017-02-07T00:45:17Z</datestamp>
      <setSpec>user-biosyslit</setSpec>
    </header>
    <header>
      <identifier>oai:zenodo.org:269521</identifier>
      <datestamp>2017-02-07T00:44:43Z</datestamp>
      <setSpec>user-biosyslit</setSpec>
    </header>
    <header>
      <identifier>oai:zenodo.org:275054</identifier>
      <datestamp>2017-02-08T15:09:08Z</datestamp>
      <setSpec>user-biosyslit</setSpec>
    </header>
    <header>
      <identifier>oai:zenodo.org:233756</identifier>
      <datestamp>2017-01-08T11:28:28Z</datestamp>
      <setSpec>user-biosyslit</setSpec>
    </header>
    <header>
      <identifier>oai:zenodo.org:275321</identifier>
      <datestamp>2017-02-08T16:05:36Z</datestamp>
      <setSpec>user-biosyslit</setSpec>
    </header>
    <header>
      <identifier>oai:zenodo.org:232468</identifier>
      <datestamp>2017-01-06T18:12:39Z</datestamp>
      <setSpec>user-biosyslit</setSpec>
    </header>
    <header>
      <identifier>oai:zenodo.org:234019</identifier>
      <datestamp>2017-01-08T14:04:31Z</datestamp>
      <setSpec>user-biosyslit</setSpec>
    </header>
    <header>
      <identifier>oai:zenodo.org:234027</identifier>
      <datestamp>2017-01-08T14:13:00Z</datestamp>
      <setSpec>user-biosyslit</setSpec>
    </header>
    <header>
      <identifier>oai:zenodo.org:276902</identifier>
      <datestamp>2017-02-08T19:57:14Z</datestamp>
      <setSpec>user-biosyslit</setSpec>
    </header>
    <header>
      <identifier>oai:zenodo.org:270654</identifier>
      <datestamp>2017-02-07T23:42:44Z</datestamp>
      <setSpec>user-biosyslit</setSpec>
    </header>
    <header>
      <identifier>oai:zenodo.org:232792</identifier>
      <datestamp>2017-01-06T23:09:18Z</datestamp>
      <setSpec>user-biosyslit</setSpec>
    </header>
    <header>
      <identifier>oai:zenodo.org:276783</identifier>
      <datestamp>2017-02-08T19:41:04Z</datestamp>
      <setSpec>user-biosyslit</setSpec>
    </header>
    <header>
      <identifier>oai:zenodo.org:278082</identifier>
      <datestamp>2017-02-08T22:24:47Z</datestamp>
      <setSpec>user-biosyslit</setSpec>
    </header>
    <header>
      <identifier>oai:zenodo.org:234322</identifier>
      <datestamp>2017-01-08T18:26:09Z</datestamp>
      <setSpec>user-biosyslit</setSpec>
    </header>
    <header>
      <identifier>oai:zenodo.org:277117</identifier>
      <datestamp>2017-02-08T20:26:32Z</datestamp>
      <setSpec>user-biosyslit</setSpec>
    </header>
    <header>
      <identifier>oai:zenodo.org:234996</identifier>
      <datestamp>2017-01-09T04:28:26Z</datestamp>
      <setSpec>user-biosyslit</setSpec>
    </header>
    <resumptionToken expirationDate="2017-08-31T15:46:22Z" cursor="49300" completeListSize="77796">.eJyNyj0LgkAYAOD_8s4S92F1CS1iiYPKeSnpEqYi5mnhFepF_72W5pqf5wmqqkqw0IJtTIxNQlYUE5MtmQGqGK5SnpoPQ3FMZNHLOHeTR9QlKCX1OnDU5DspDXSLwg5rsefkiNkUN2jmh_ie6mhKqDcKtFv7ms_Bxfu8koauzM7uTcS9LQUph3DHZ4FtkdHi-_CfT_98jtqCAbe8rsAyN0sD2jEfagXW8_V6A5rRUUE.DInAVg.p4U-Izp8m84kGgxoR6O6m_cIhgI</resumptionToken>
  </ListIdentifiers>
</OAI-PMH>
