<?xml version='1.0' encoding='UTF-8'?>
<?xml-stylesheet type="text/xsl" href="/static/xsl/oai2.v1.0.xsl"?>
<OAI-PMH xmlns="http://www.openarchives.org/OAI/2.0/" xmlns:xsi="http://www.w3.org/2001/XMLSchema-instance" xsi:schemaLocation="http://www.openarchives.org/OAI/2.0/ http://www.openarchives.org/OAI/2.0/OAI-PMH.xsd">
  <responseDate>2017-08-31T15:46:28Z</responseDate>
  <request verb="ListIdentifiers" resumptionToken=".eJyNysEOQzAYAOB3-c-yVCuKZBdhsgNiHcFlMUQ2ZaJbRsW7z2Xn7fx9C4i6rsBCOw3rCJuGaSCDEt3UdAVEOT44v9w2hzJNeNnzuPCS16lLUIYbGjhi8p2MBLJFYadKdohwqhpTfENzdI6fmTxNCTm-GXKpL6M5uB-3V5HQ4_nVG1jc25zhagzdaGaqzXJSfp_655M_nyP2oMBQNDVYlGoKtO9ibARYy7p-AOCqUYg.DInA1A.m3MWVF9_THmSW_FlTyd5p3WwJvA">https://zenodo.org/oai2d</request>
  <ListIdentifiers>
    <header>
      <identifier>oai:zenodo.org:841454</identifier>
      <datestamp>2017-08-11T06:47:04Z</datestamp>
      <setSpec>user-biosyslit</setSpec>
    </header>
    <header>
      <identifier>oai:zenodo.org:841438</identifier>
      <datestamp>2017-08-11T06:45:32Z</datestamp>
      <setSpec>user-biosyslit</setSpec>
    </header>
    <header>
      <identifier>oai:zenodo.org:841488</identifier>
      <datestamp>2017-08-11T06:49:28Z</datestamp>
      <setSpec>user-biosyslit</setSpec>
    </header>
    <header>
      <identifier>oai:zenodo.org:841458</identifier>
      <datestamp>2017-08-11T06:47:12Z</datestamp>
      <setSpec>user-biosyslit</setSpec>
    </header>
    <header>
      <identifier>oai:zenodo.org:841466</identifier>
      <datestamp>2017-08-11T06:47:27Z</datestamp>
      <setSpec>user-biosyslit</setSpec>
    </header>
    <header>
      <identifier>oai:zenodo.org:841460</identifier>
      <datestamp>2017-08-11T06:47:15Z</datestamp>
      <setSpec>user-biosyslit</setSpec>
    </header>
    <header>
      <identifier>oai:zenodo.org:841472</identifier>
      <datestamp>2017-08-11T06:47:38Z</datestamp>
      <setSpec>user-biosyslit</setSpec>
    </header>
    <header>
      <identifier>oai:zenodo.org:841474</identifier>
      <datestamp>2017-08-11T06:47:41Z</datestamp>
      <setSpec>user-biosyslit</setSpec>
    </header>
    <header>
      <identifier>oai:zenodo.org:841490</identifier>
      <datestamp>2017-08-11T06:49:32Z</datestamp>
      <setSpec>user-biosyslit</setSpec>
    </header>
    <header>
      <identifier>oai:zenodo.org:841486</identifier>
      <datestamp>2017-08-11T06:49:25Z</datestamp>
      <setSpec>user-biosyslit</setSpec>
    </header>
    <header>
      <identifier>oai:zenodo.org:841476</identifier>
      <datestamp>2017-08-11T06:47:45Z</datestamp>
      <setSpec>user-biosyslit</setSpec>
    </header>
    <header>
      <identifier>oai:zenodo.org:841492</identifier>
      <datestamp>2017-08-11T06:50:21Z</datestamp>
      <setSpec>user-biosyslit</setSpec>
    </header>
    <header>
      <identifier>oai:zenodo.org:841502</identifier>
      <datestamp>2017-08-11T06:50:12Z</datestamp>
      <setSpec>user-biosyslit</setSpec>
    </header>
    <header>
      <identifier>oai:zenodo.org:841514</identifier>
      <datestamp>2017-08-11T06:51:04Z</datestamp>
      <setSpec>user-biosyslit</setSpec>
    </header>
    <header>
      <identifier>oai:zenodo.org:841516</identifier>
      <datestamp>2017-08-11T06:51:07Z</datestamp>
      <setSpec>user-biosyslit</setSpec>
    </header>
    <header>
      <identifier>oai:zenodo.org:841532</identifier>
      <datestamp>2017-08-11T06:52:16Z</datestamp>
      <setSpec>user-biosyslit</setSpec>
    </header>
    <header>
      <identifier>oai:zenodo.org:841528</identifier>
      <datestamp>2017-08-11T06:52:08Z</datestamp>
      <setSpec>user-biosyslit</setSpec>
    </header>
    <header>
      <identifier>oai:zenodo.org:841522</identifier>
      <datestamp>2017-08-11T06:51:18Z</datestamp>
      <setSpec>user-biosyslit</setSpec>
    </header>
    <header>
      <identifier>oai:zenodo.org:841494</identifier>
      <datestamp>2017-08-11T06:49:59Z</datestamp>
      <setSpec>user-biosyslit</setSpec>
    </header>
    <header>
      <identifier>oai:zenodo.org:841510</identifier>
      <datestamp>2017-08-11T06:50:57Z</datestamp>
      <setSpec>user-biosyslit</setSpec>
    </header>
    <header>
      <identifier>oai:zenodo.org:841564</identifier>
      <datestamp>2017-08-11T06:53:12Z</datestamp>
      <setSpec>user-biosyslit</setSpec>
    </header>
    <header>
      <identifier>oai:zenodo.org:841578</identifier>
      <datestamp>2017-08-11T06:54:57Z</datestamp>
      <setSpec>user-biosyslit</setSpec>
    </header>
    <header>
      <identifier>oai:zenodo.org:841560</identifier>
      <datestamp>2017-08-11T06:53:06Z</datestamp>
      <setSpec>user-biosyslit</setSpec>
    </header>
    <header>
      <identifier>oai:zenodo.org:841576</identifier>
      <datestamp>2017-08-11T06:54:54Z</datestamp>
      <setSpec>user-biosyslit</setSpec>
    </header>
    <header>
      <identifier>oai:zenodo.org:841552</identifier>
      <datestamp>2017-08-11T06:52:51Z</datestamp>
      <setSpec>user-biosyslit</setSpec>
    </header>
    <header>
      <identifier>oai:zenodo.org:841534</identifier>
      <datestamp>2017-08-11T06:52:19Z</datestamp>
      <setSpec>user-biosyslit</setSpec>
    </header>
    <header>
      <identifier>oai:zenodo.org:841566</identifier>
      <datestamp>2017-08-11T06:53:16Z</datestamp>
      <setSpec>user-biosyslit</setSpec>
    </header>
    <header>
      <identifier>oai:zenodo.org:841544</identifier>
      <datestamp>2017-08-11T06:52:35Z</datestamp>
      <setSpec>user-biosyslit</setSpec>
    </header>
    <header>
      <identifier>oai:zenodo.org:841574</identifier>
      <datestamp>2017-08-11T06:54:51Z</datestamp>
      <setSpec>user-biosyslit</setSpec>
    </header>
    <header>
      <identifier>oai:zenodo.org:841570</identifier>
      <datestamp>2017-08-11T06:55:07Z</datestamp>
      <setSpec>user-biosyslit</setSpec>
    </header>
    <header>
      <identifier>oai:zenodo.org:841586</identifier>
      <datestamp>2017-08-11T06:55:42Z</datestamp>
      <setSpec>user-biosyslit</setSpec>
    </header>
    <header>
      <identifier>oai:zenodo.org:841580</identifier>
      <datestamp>2017-08-11T06:55:01Z</datestamp>
      <setSpec>user-biosyslit</setSpec>
    </header>
    <header>
      <identifier>oai:zenodo.org:841667</identifier>
      <datestamp>2017-08-11T08:50:00Z</datestamp>
      <setSpec>user-biosyslit</setSpec>
    </header>
    <header>
      <identifier>oai:zenodo.org:841665</identifier>
      <datestamp>2017-08-11T08:49:57Z</datestamp>
      <setSpec>user-biosyslit</setSpec>
    </header>
    <header>
      <identifier>oai:zenodo.org:841671</identifier>
      <datestamp>2017-08-11T08:50:08Z</datestamp>
      <setSpec>user-biosyslit</setSpec>
    </header>
    <header>
      <identifier>oai:zenodo.org:841677</identifier>
      <datestamp>2017-08-11T08:50:16Z</datestamp>
      <setSpec>user-biosyslit</setSpec>
    </header>
    <header>
      <identifier>oai:zenodo.org:841679</identifier>
      <datestamp>2017-08-11T08:50:19Z</datestamp>
      <setSpec>user-biosyslit</setSpec>
    </header>
    <header>
      <identifier>oai:zenodo.org:841669</identifier>
      <datestamp>2017-08-11T08:50:05Z</datestamp>
      <setSpec>user-biosyslit</setSpec>
    </header>
    <header>
      <identifier>oai:zenodo.org:841661</identifier>
      <datestamp>2017-08-11T09:50:16Z</datestamp>
      <setSpec>openaire</setSpec>
      <setSpec>user-biosyslit</setSpec>
    </header>
    <header>
      <identifier>oai:zenodo.org:839880</identifier>
      <datestamp>2017-08-07T23:29:52Z</datestamp>
      <setSpec>user-biosyslit</setSpec>
    </header>
    <header>
      <identifier>oai:zenodo.org:839904</identifier>
      <datestamp>2017-08-07T23:28:51Z</datestamp>
      <setSpec>user-biosyslit</setSpec>
    </header>
    <header>
      <identifier>oai:zenodo.org:839918</identifier>
      <datestamp>2017-08-07T23:29:17Z</datestamp>
      <setSpec>user-biosyslit</setSpec>
    </header>
    <header>
      <identifier>oai:zenodo.org:839900</identifier>
      <datestamp>2017-08-07T23:28:43Z</datestamp>
      <setSpec>user-biosyslit</setSpec>
    </header>
    <header>
      <identifier>oai:zenodo.org:839906</identifier>
      <datestamp>2017-08-07T23:28:54Z</datestamp>
      <setSpec>user-biosyslit</setSpec>
    </header>
    <header>
      <identifier>oai:zenodo.org:839902</identifier>
      <datestamp>2017-08-07T23:28:47Z</datestamp>
      <setSpec>user-biosyslit</setSpec>
    </header>
    <header>
      <identifier>oai:zenodo.org:839908</identifier>
      <datestamp>2017-08-07T23:28:58Z</datestamp>
      <setSpec>user-biosyslit</setSpec>
    </header>
    <header>
      <identifier>oai:zenodo.org:839896</identifier>
      <datestamp>2017-08-07T23:28:36Z</datestamp>
      <setSpec>user-biosyslit</setSpec>
    </header>
    <header>
      <identifier>oai:zenodo.org:839892</identifier>
      <datestamp>2017-08-07T23:28:30Z</datestamp>
      <setSpec>user-biosyslit</setSpec>
    </header>
    <header>
      <identifier>oai:zenodo.org:839890</identifier>
      <datestamp>2017-08-07T23:28:26Z</datestamp>
      <setSpec>user-biosyslit</setSpec>
    </header>
    <header>
      <identifier>oai:zenodo.org:839926</identifier>
      <datestamp>2017-08-07T23:29:34Z</datestamp>
      <setSpec>user-biosyslit</setSpec>
    </header>
    <header>
      <identifier>oai:zenodo.org:839932</identifier>
      <datestamp>2017-08-07T23:29:48Z</datestamp>
      <setSpec>user-biosyslit</setSpec>
    </header>
    <header>
      <identifier>oai:zenodo.org:839930</identifier>
      <datestamp>2017-08-07T23:29:44Z</datestamp>
      <setSpec>user-biosyslit</setSpec>
    </header>
    <header>
      <identifier>oai:zenodo.org:839920</identifier>
      <datestamp>2017-08-07T23:29:21Z</datestamp>
      <setSpec>user-biosyslit</setSpec>
    </header>
    <header>
      <identifier>oai:zenodo.org:839928</identifier>
      <datestamp>2017-08-07T23:29:38Z</datestamp>
      <setSpec>user-biosyslit</setSpec>
    </header>
    <header>
      <identifier>oai:zenodo.org:840096</identifier>
      <datestamp>2017-08-08T13:42:40Z</datestamp>
      <setSpec>user-biosyslit</setSpec>
    </header>
    <header>
      <identifier>oai:zenodo.org:840260</identifier>
      <datestamp>2017-08-08T16:10:48Z</datestamp>
      <setSpec>user-biosyslit</setSpec>
    </header>
    <header>
      <identifier>oai:zenodo.org:840246</identifier>
      <datestamp>2017-08-08T16:10:25Z</datestamp>
      <setSpec>user-biosyslit</setSpec>
    </header>
    <header>
      <identifier>oai:zenodo.org:840262</identifier>
      <datestamp>2017-08-08T16:10:51Z</datestamp>
      <setSpec>user-biosyslit</setSpec>
    </header>
    <header>
      <identifier>oai:zenodo.org:840276</identifier>
      <datestamp>2017-08-08T16:11:15Z</datestamp>
      <setSpec>user-biosyslit</setSpec>
    </header>
    <header>
      <identifier>oai:zenodo.org:840244</identifier>
      <datestamp>2017-08-08T16:10:22Z</datestamp>
      <setSpec>user-biosyslit</setSpec>
    </header>
    <header>
      <identifier>oai:zenodo.org:840252</identifier>
      <datestamp>2017-08-08T16:10:35Z</datestamp>
      <setSpec>user-biosyslit</setSpec>
    </header>
    <header>
      <identifier>oai:zenodo.org:840264</identifier>
      <datestamp>2017-08-08T16:10:54Z</datestamp>
      <setSpec>user-biosyslit</setSpec>
    </header>
    <header>
      <identifier>oai:zenodo.org:840274</identifier>
      <datestamp>2017-08-08T16:11:11Z</datestamp>
      <setSpec>user-biosyslit</setSpec>
    </header>
    <header>
      <identifier>oai:zenodo.org:840240</identifier>
      <datestamp>2017-08-08T16:10:16Z</datestamp>
      <setSpec>user-biosyslit</setSpec>
    </header>
    <header>
      <identifier>oai:zenodo.org:840212</identifier>
      <datestamp>2017-08-08T16:12:57Z</datestamp>
      <setSpec>user-biosyslit</setSpec>
    </header>
    <header>
      <identifier>oai:zenodo.org:840315</identifier>
      <datestamp>2017-08-08T16:12:26Z</datestamp>
      <setSpec>user-biosyslit</setSpec>
    </header>
    <header>
      <identifier>oai:zenodo.org:840329</identifier>
      <datestamp>2017-08-08T16:12:49Z</datestamp>
      <setSpec>user-biosyslit</setSpec>
    </header>
    <header>
      <identifier>oai:zenodo.org:840325</identifier>
      <datestamp>2017-08-08T16:12:41Z</datestamp>
      <setSpec>user-biosyslit</setSpec>
    </header>
    <header>
      <identifier>oai:zenodo.org:840313</identifier>
      <datestamp>2017-08-08T16:12:23Z</datestamp>
      <setSpec>user-biosyslit</setSpec>
    </header>
    <header>
      <identifier>oai:zenodo.org:840319</identifier>
      <datestamp>2017-08-08T16:12:32Z</datestamp>
      <setSpec>user-biosyslit</setSpec>
    </header>
    <header>
      <identifier>oai:zenodo.org:840311</identifier>
      <datestamp>2017-08-08T16:12:19Z</datestamp>
      <setSpec>user-biosyslit</setSpec>
    </header>
    <header>
      <identifier>oai:zenodo.org:840317</identifier>
      <datestamp>2017-08-08T16:12:29Z</datestamp>
      <setSpec>user-biosyslit</setSpec>
    </header>
    <header>
      <identifier>oai:zenodo.org:840425</identifier>
      <datestamp>2017-08-08T19:52:51Z</datestamp>
      <setSpec>user-biosyslit</setSpec>
    </header>
    <header>
      <identifier>oai:zenodo.org:840431</identifier>
      <datestamp>2017-08-08T19:53:02Z</datestamp>
      <setSpec>user-biosyslit</setSpec>
    </header>
    <header>
      <identifier>oai:zenodo.org:840433</identifier>
      <datestamp>2017-08-08T19:53:05Z</datestamp>
      <setSpec>user-biosyslit</setSpec>
    </header>
    <header>
      <identifier>oai:zenodo.org:840456</identifier>
      <datestamp>2017-08-08T20:02:51Z</datestamp>
      <setSpec>user-biosyslit</setSpec>
    </header>
    <header>
      <identifier>oai:zenodo.org:840437</identifier>
      <datestamp>2017-08-08T19:53:11Z</datestamp>
      <setSpec>user-biosyslit</setSpec>
    </header>
    <header>
      <identifier>oai:zenodo.org:840439</identifier>
      <datestamp>2017-08-08T19:53:14Z</datestamp>
      <setSpec>user-biosyslit</setSpec>
    </header>
    <header>
      <identifier>oai:zenodo.org:840443</identifier>
      <datestamp>2017-08-08T19:53:20Z</datestamp>
      <setSpec>user-biosyslit</setSpec>
    </header>
    <header>
      <identifier>oai:zenodo.org:840449</identifier>
      <datestamp>2017-08-08T19:53:31Z</datestamp>
      <setSpec>user-biosyslit</setSpec>
    </header>
    <header>
      <identifier>oai:zenodo.org:840447</identifier>
      <datestamp>2017-08-08T19:53:27Z</datestamp>
      <setSpec>user-biosyslit</setSpec>
    </header>
    <header>
      <identifier>oai:zenodo.org:840445</identifier>
      <datestamp>2017-08-08T19:53:23Z</datestamp>
      <setSpec>user-biosyslit</setSpec>
    </header>
    <header>
      <identifier>oai:zenodo.org:840472</identifier>
      <datestamp>2017-08-08T20:11:30Z</datestamp>
      <setSpec>user-biosyslit</setSpec>
    </header>
    <header>
      <identifier>oai:zenodo.org:840506</identifier>
      <datestamp>2017-08-08T20:13:57Z</datestamp>
      <setSpec>user-biosyslit</setSpec>
    </header>
    <header>
      <identifier>oai:zenodo.org:840512</identifier>
      <datestamp>2017-08-08T20:14:08Z</datestamp>
      <setSpec>user-biosyslit</setSpec>
    </header>
    <header>
      <identifier>oai:zenodo.org:840510</identifier>
      <datestamp>2017-08-08T20:14:05Z</datestamp>
      <setSpec>user-biosyslit</setSpec>
    </header>
    <header>
      <identifier>oai:zenodo.org:840492</identifier>
      <datestamp>2017-08-08T20:11:16Z</datestamp>
      <setSpec>user-biosyslit</setSpec>
    </header>
    <header>
      <identifier>oai:zenodo.org:840496</identifier>
      <datestamp>2017-08-08T20:11:21Z</datestamp>
      <setSpec>user-biosyslit</setSpec>
    </header>
    <header>
      <identifier>oai:zenodo.org:840490</identifier>
      <datestamp>2017-08-08T20:11:12Z</datestamp>
      <setSpec>user-biosyslit</setSpec>
    </header>
    <header>
      <identifier>oai:zenodo.org:840500</identifier>
      <datestamp>2017-08-08T20:11:27Z</datestamp>
      <setSpec>user-biosyslit</setSpec>
    </header>
    <header>
      <identifier>oai:zenodo.org:840488</identifier>
      <datestamp>2017-08-08T20:11:10Z</datestamp>
      <setSpec>user-biosyslit</setSpec>
    </header>
    <header>
      <identifier>oai:zenodo.org:840502</identifier>
      <datestamp>2017-08-08T20:14:25Z</datestamp>
      <setSpec>user-biosyslit</setSpec>
    </header>
    <header>
      <identifier>oai:zenodo.org:840528</identifier>
      <datestamp>2017-08-08T20:19:29Z</datestamp>
      <setSpec>user-biosyslit</setSpec>
    </header>
    <header>
      <identifier>oai:zenodo.org:840522</identifier>
      <datestamp>2017-08-08T20:19:17Z</datestamp>
      <setSpec>user-biosyslit</setSpec>
    </header>
    <header>
      <identifier>oai:zenodo.org:840532</identifier>
      <datestamp>2017-08-08T20:23:46Z</datestamp>
      <setSpec>user-biosyslit</setSpec>
    </header>
    <header>
      <identifier>oai:zenodo.org:840552</identifier>
      <datestamp>2017-08-08T20:31:28Z</datestamp>
      <setSpec>user-biosyslit</setSpec>
    </header>
    <header>
      <identifier>oai:zenodo.org:840540</identifier>
      <datestamp>2017-08-08T20:24:04Z</datestamp>
      <setSpec>user-biosyslit</setSpec>
    </header>
    <header>
      <identifier>oai:zenodo.org:840534</identifier>
      <datestamp>2017-08-08T20:23:51Z</datestamp>
      <setSpec>user-biosyslit</setSpec>
    </header>
    <header>
      <identifier>oai:zenodo.org:840544</identifier>
      <datestamp>2017-08-08T20:31:14Z</datestamp>
      <setSpec>user-biosyslit</setSpec>
    </header>
    <header>
      <identifier>oai:zenodo.org:840524</identifier>
      <datestamp>2017-08-08T20:19:21Z</datestamp>
      <setSpec>user-biosyslit</setSpec>
    </header>
    <resumptionToken expirationDate="2017-08-31T15:48:28Z" cursor="77300" completeListSize="77796">.eJyNysEKgjAYAOB3-c8Sm9OWQhfRxIOKLiW9hKmIuUxcoU5697p0rvP3rSDqugITbTREdYy2GlENw0DaVgFRjnfOz-2HoTylvOx5UrjpM76lKFMbGthi9u2MBLJD4Q1LdojUE97NSYuW6Jg8MhnPKfEmhhzqy2gJrt7nVSR0eX5xB5b0FmdqNYZOtDBssZyU34f_fPLns8UeFBiKpgaTUl2BbirGRoC5vl5vm5dRQw.DInA1A.EJC3EYGh_nlty4WhTb3noRRIXX8</resumptionToken>
  </ListIdentifiers>
</OAI-PMH>
