<?xml version='1.0' encoding='UTF-8'?>
<?xml-stylesheet type="text/xsl" href="/static/xsl/oai2.v1.0.xsl"?>
<OAI-PMH xmlns="http://www.openarchives.org/OAI/2.0/" xmlns:xsi="http://www.w3.org/2001/XMLSchema-instance" xsi:schemaLocation="http://www.openarchives.org/OAI/2.0/ http://www.openarchives.org/OAI/2.0/OAI-PMH.xsd">
  <responseDate>2017-08-31T15:45:53Z</responseDate>
  <request verb="ListIdentifiers" resumptionToken=".eJyNyj0PQ0AYAOD_8s7S3B2pj6RLQ8WAcCVYGkVEHRXXBif-ey2d2_l5VuBVVYKBDoqCVKQpOiYqUggmEvBifDJ2a3aGIolZ0bMot-N32MUoJbXqmXx2zVT2RIv8Dgt6CUiCtTlq0BJco1cqwjmWnYkiS3VFsHgPZ3-l7Nssu9sDjfozo6QcfStYKD7TTC6-D__5xM9n8hNIMOR1BcZR1yRop3ysORjrtn0Aj11ROQ.DInAsQ.uZOBvhTIMf-M2GS-1wPptHG0pug">https://zenodo.org/oai2d</request>
  <ListIdentifiers>
    <header>
      <identifier>oai:zenodo.org:254352</identifier>
      <datestamp>2017-01-20T18:10:47Z</datestamp>
      <setSpec>user-biosyslit</setSpec>
    </header>
    <header>
      <identifier>oai:zenodo.org:254373</identifier>
      <datestamp>2017-01-20T18:10:40Z</datestamp>
      <setSpec>user-biosyslit</setSpec>
    </header>
    <header>
      <identifier>oai:zenodo.org:254375</identifier>
      <datestamp>2017-01-20T18:10:46Z</datestamp>
      <setSpec>user-biosyslit</setSpec>
    </header>
    <header>
      <identifier>oai:zenodo.org:250164</identifier>
      <datestamp>2017-01-18T05:37:12Z</datestamp>
      <setSpec>user-biosyslit</setSpec>
    </header>
    <header>
      <identifier>oai:zenodo.org:250163</identifier>
      <datestamp>2017-01-18T05:37:07Z</datestamp>
      <setSpec>user-biosyslit</setSpec>
    </header>
    <header>
      <identifier>oai:zenodo.org:243395</identifier>
      <datestamp>2017-01-14T03:41:12Z</datestamp>
      <setSpec>user-biosyslit</setSpec>
    </header>
    <header>
      <identifier>oai:zenodo.org:237979</identifier>
      <datestamp>2017-01-10T23:13:36Z</datestamp>
      <setSpec>user-biosyslit</setSpec>
    </header>
    <header>
      <identifier>oai:zenodo.org:229649</identifier>
      <datestamp>2017-01-03T19:50:23Z</datestamp>
      <setSpec>user-biosyslit</setSpec>
    </header>
    <header>
      <identifier>oai:zenodo.org:237983</identifier>
      <datestamp>2017-01-10T23:13:19Z</datestamp>
      <setSpec>user-biosyslit</setSpec>
    </header>
    <header>
      <identifier>oai:zenodo.org:237986</identifier>
      <datestamp>2017-01-10T23:13:30Z</datestamp>
      <setSpec>user-biosyslit</setSpec>
    </header>
    <header>
      <identifier>oai:zenodo.org:237985</identifier>
      <datestamp>2017-01-10T23:13:26Z</datestamp>
      <setSpec>user-biosyslit</setSpec>
    </header>
    <header>
      <identifier>oai:zenodo.org:237984</identifier>
      <datestamp>2017-01-10T23:13:22Z</datestamp>
      <setSpec>user-biosyslit</setSpec>
    </header>
    <header>
      <identifier>oai:zenodo.org:229652</identifier>
      <datestamp>2017-01-03T19:50:22Z</datestamp>
      <setSpec>user-biosyslit</setSpec>
    </header>
    <header>
      <identifier>oai:zenodo.org:229650</identifier>
      <datestamp>2017-01-03T19:50:15Z</datestamp>
      <setSpec>user-biosyslit</setSpec>
    </header>
    <header>
      <identifier>oai:zenodo.org:228212</identifier>
      <datestamp>2017-01-02T19:52:29Z</datestamp>
      <setSpec>user-biosyslit</setSpec>
    </header>
    <header>
      <identifier>oai:zenodo.org:278439</identifier>
      <datestamp>2017-02-08T23:10:54Z</datestamp>
      <setSpec>user-biosyslit</setSpec>
    </header>
    <header>
      <identifier>oai:zenodo.org:228215</identifier>
      <datestamp>2017-01-02T19:52:16Z</datestamp>
      <setSpec>user-biosyslit</setSpec>
    </header>
    <header>
      <identifier>oai:zenodo.org:228218</identifier>
      <datestamp>2017-01-02T19:52:27Z</datestamp>
      <setSpec>user-biosyslit</setSpec>
    </header>
    <header>
      <identifier>oai:zenodo.org:278438</identifier>
      <datestamp>2017-02-08T23:10:52Z</datestamp>
      <setSpec>user-biosyslit</setSpec>
    </header>
    <header>
      <identifier>oai:zenodo.org:271185</identifier>
      <datestamp>2017-02-08T00:59:06Z</datestamp>
      <setSpec>user-biosyslit</setSpec>
    </header>
    <header>
      <identifier>oai:zenodo.org:271191</identifier>
      <datestamp>2017-02-08T00:58:56Z</datestamp>
      <setSpec>user-biosyslit</setSpec>
    </header>
    <header>
      <identifier>oai:zenodo.org:271193</identifier>
      <datestamp>2017-02-08T00:59:02Z</datestamp>
      <setSpec>user-biosyslit</setSpec>
    </header>
    <header>
      <identifier>oai:zenodo.org:271188</identifier>
      <datestamp>2017-02-08T00:58:44Z</datestamp>
      <setSpec>user-biosyslit</setSpec>
    </header>
    <header>
      <identifier>oai:zenodo.org:271189</identifier>
      <datestamp>2017-02-08T00:58:48Z</datestamp>
      <setSpec>user-biosyslit</setSpec>
    </header>
    <header>
      <identifier>oai:zenodo.org:271190</identifier>
      <datestamp>2017-02-08T00:58:51Z</datestamp>
      <setSpec>user-biosyslit</setSpec>
    </header>
    <header>
      <identifier>oai:zenodo.org:281532</identifier>
      <datestamp>2017-02-09T05:29:23Z</datestamp>
      <setSpec>user-biosyslit</setSpec>
    </header>
    <header>
      <identifier>oai:zenodo.org:233942</identifier>
      <datestamp>2017-01-08T13:12:46Z</datestamp>
      <setSpec>user-biosyslit</setSpec>
    </header>
    <header>
      <identifier>oai:zenodo.org:233943</identifier>
      <datestamp>2017-01-08T13:12:49Z</datestamp>
      <setSpec>user-biosyslit</setSpec>
    </header>
    <header>
      <identifier>oai:zenodo.org:231300</identifier>
      <datestamp>2017-01-05T19:25:28Z</datestamp>
      <setSpec>user-biosyslit</setSpec>
    </header>
    <header>
      <identifier>oai:zenodo.org:232013</identifier>
      <datestamp>2017-01-06T10:16:01Z</datestamp>
      <setSpec>user-biosyslit</setSpec>
    </header>
    <header>
      <identifier>oai:zenodo.org:232015</identifier>
      <datestamp>2017-01-06T10:15:54Z</datestamp>
      <setSpec>user-biosyslit</setSpec>
    </header>
    <header>
      <identifier>oai:zenodo.org:238008</identifier>
      <datestamp>2017-01-10T23:47:05Z</datestamp>
      <setSpec>user-biosyslit</setSpec>
    </header>
    <header>
      <identifier>oai:zenodo.org:238005</identifier>
      <datestamp>2017-01-10T23:46:50Z</datestamp>
      <setSpec>user-biosyslit</setSpec>
    </header>
    <header>
      <identifier>oai:zenodo.org:232016</identifier>
      <datestamp>2017-01-06T10:16:00Z</datestamp>
      <setSpec>user-biosyslit</setSpec>
    </header>
    <header>
      <identifier>oai:zenodo.org:238013</identifier>
      <datestamp>2017-01-10T23:47:26Z</datestamp>
      <setSpec>user-biosyslit</setSpec>
    </header>
    <header>
      <identifier>oai:zenodo.org:238010</identifier>
      <datestamp>2017-01-10T23:47:16Z</datestamp>
      <setSpec>user-biosyslit</setSpec>
    </header>
    <header>
      <identifier>oai:zenodo.org:238012</identifier>
      <datestamp>2017-01-10T23:47:23Z</datestamp>
      <setSpec>user-biosyslit</setSpec>
    </header>
    <header>
      <identifier>oai:zenodo.org:277015</identifier>
      <datestamp>2017-02-08T20:12:07Z</datestamp>
      <setSpec>user-biosyslit</setSpec>
    </header>
    <header>
      <identifier>oai:zenodo.org:273336</identifier>
      <datestamp>2017-02-08T09:00:43Z</datestamp>
      <setSpec>user-biosyslit</setSpec>
    </header>
    <header>
      <identifier>oai:zenodo.org:231060</identifier>
      <datestamp>2017-01-05T13:32:22Z</datestamp>
      <setSpec>user-biosyslit</setSpec>
    </header>
    <header>
      <identifier>oai:zenodo.org:231057</identifier>
      <datestamp>2017-01-05T13:32:13Z</datestamp>
      <setSpec>user-biosyslit</setSpec>
    </header>
    <header>
      <identifier>oai:zenodo.org:231059</identifier>
      <datestamp>2017-01-05T13:32:19Z</datestamp>
      <setSpec>user-biosyslit</setSpec>
    </header>
    <header>
      <identifier>oai:zenodo.org:231061</identifier>
      <datestamp>2017-01-05T13:32:25Z</datestamp>
      <setSpec>user-biosyslit</setSpec>
    </header>
    <header>
      <identifier>oai:zenodo.org:282325</identifier>
      <datestamp>2017-02-09T06:50:22Z</datestamp>
      <setSpec>user-biosyslit</setSpec>
    </header>
    <header>
      <identifier>oai:zenodo.org:282337</identifier>
      <datestamp>2017-02-09T06:50:02Z</datestamp>
      <setSpec>user-biosyslit</setSpec>
    </header>
    <header>
      <identifier>oai:zenodo.org:267689</identifier>
      <datestamp>2017-02-02T05:50:23Z</datestamp>
      <setSpec>user-biosyslit</setSpec>
    </header>
    <header>
      <identifier>oai:zenodo.org:267690</identifier>
      <datestamp>2017-02-02T05:50:26Z</datestamp>
      <setSpec>user-biosyslit</setSpec>
    </header>
    <header>
      <identifier>oai:zenodo.org:267693</identifier>
      <datestamp>2017-02-02T05:50:38Z</datestamp>
      <setSpec>user-biosyslit</setSpec>
    </header>
    <header>
      <identifier>oai:zenodo.org:282339</identifier>
      <datestamp>2017-02-09T06:50:07Z</datestamp>
      <setSpec>user-biosyslit</setSpec>
    </header>
    <header>
      <identifier>oai:zenodo.org:282345</identifier>
      <datestamp>2017-02-09T06:50:21Z</datestamp>
      <setSpec>user-biosyslit</setSpec>
    </header>
    <header>
      <identifier>oai:zenodo.org:281379</identifier>
      <datestamp>2017-02-09T05:13:04Z</datestamp>
      <setSpec>user-biosyslit</setSpec>
    </header>
    <header>
      <identifier>oai:zenodo.org:242355</identifier>
      <datestamp>2017-01-13T13:55:02Z</datestamp>
      <setSpec>user-biosyslit</setSpec>
    </header>
    <header>
      <identifier>oai:zenodo.org:242354</identifier>
      <datestamp>2017-01-13T13:54:59Z</datestamp>
      <setSpec>user-biosyslit</setSpec>
    </header>
    <header>
      <identifier>oai:zenodo.org:241960</identifier>
      <datestamp>2017-01-13T08:22:42Z</datestamp>
      <setSpec>user-biosyslit</setSpec>
    </header>
    <header>
      <identifier>oai:zenodo.org:242356</identifier>
      <datestamp>2017-01-13T13:55:05Z</datestamp>
      <setSpec>user-biosyslit</setSpec>
    </header>
    <header>
      <identifier>oai:zenodo.org:242363</identifier>
      <datestamp>2017-01-13T13:55:37Z</datestamp>
      <setSpec>user-biosyslit</setSpec>
    </header>
    <header>
      <identifier>oai:zenodo.org:242360</identifier>
      <datestamp>2017-01-13T13:55:26Z</datestamp>
      <setSpec>user-biosyslit</setSpec>
    </header>
    <header>
      <identifier>oai:zenodo.org:242362</identifier>
      <datestamp>2017-01-13T13:55:35Z</datestamp>
      <setSpec>user-biosyslit</setSpec>
    </header>
    <header>
      <identifier>oai:zenodo.org:242361</identifier>
      <datestamp>2017-01-13T13:55:29Z</datestamp>
      <setSpec>user-biosyslit</setSpec>
    </header>
    <header>
      <identifier>oai:zenodo.org:242350</identifier>
      <datestamp>2017-01-13T13:54:47Z</datestamp>
      <setSpec>user-biosyslit</setSpec>
    </header>
    <header>
      <identifier>oai:zenodo.org:257138</identifier>
      <datestamp>2017-01-23T02:40:53Z</datestamp>
      <setSpec>user-biosyslit</setSpec>
    </header>
    <header>
      <identifier>oai:zenodo.org:257142</identifier>
      <datestamp>2017-01-23T02:41:04Z</datestamp>
      <setSpec>user-biosyslit</setSpec>
    </header>
    <header>
      <identifier>oai:zenodo.org:257143</identifier>
      <datestamp>2017-01-23T02:41:06Z</datestamp>
      <setSpec>user-biosyslit</setSpec>
    </header>
    <header>
      <identifier>oai:zenodo.org:257137</identifier>
      <datestamp>2017-01-23T02:41:08Z</datestamp>
      <setSpec>user-biosyslit</setSpec>
    </header>
    <header>
      <identifier>oai:zenodo.org:256909</identifier>
      <datestamp>2017-01-22T22:53:08Z</datestamp>
      <setSpec>user-biosyslit</setSpec>
    </header>
    <header>
      <identifier>oai:zenodo.org:256912</identifier>
      <datestamp>2017-01-22T22:53:15Z</datestamp>
      <setSpec>user-biosyslit</setSpec>
    </header>
    <header>
      <identifier>oai:zenodo.org:256915</identifier>
      <datestamp>2017-01-22T22:53:24Z</datestamp>
      <setSpec>user-biosyslit</setSpec>
    </header>
    <header>
      <identifier>oai:zenodo.org:256910</identifier>
      <datestamp>2017-01-22T22:53:10Z</datestamp>
      <setSpec>user-biosyslit</setSpec>
    </header>
    <header>
      <identifier>oai:zenodo.org:256914</identifier>
      <datestamp>2017-01-22T22:53:21Z</datestamp>
      <setSpec>user-biosyslit</setSpec>
    </header>
    <header>
      <identifier>oai:zenodo.org:256913</identifier>
      <datestamp>2017-01-22T22:53:18Z</datestamp>
      <setSpec>user-biosyslit</setSpec>
    </header>
    <header>
      <identifier>oai:zenodo.org:256908</identifier>
      <datestamp>2017-01-22T22:53:05Z</datestamp>
      <setSpec>user-biosyslit</setSpec>
    </header>
    <header>
      <identifier>oai:zenodo.org:256907</identifier>
      <datestamp>2017-01-22T22:53:27Z</datestamp>
      <setSpec>user-biosyslit</setSpec>
    </header>
    <header>
      <identifier>oai:zenodo.org:239790</identifier>
      <datestamp>2017-01-12T00:58:28Z</datestamp>
      <setSpec>user-biosyslit</setSpec>
    </header>
    <header>
      <identifier>oai:zenodo.org:239791</identifier>
      <datestamp>2017-01-12T00:58:33Z</datestamp>
      <setSpec>user-biosyslit</setSpec>
    </header>
    <header>
      <identifier>oai:zenodo.org:239792</identifier>
      <datestamp>2017-01-12T00:58:37Z</datestamp>
      <setSpec>user-biosyslit</setSpec>
    </header>
    <header>
      <identifier>oai:zenodo.org:256916</identifier>
      <datestamp>2017-01-22T22:53:26Z</datestamp>
      <setSpec>user-biosyslit</setSpec>
    </header>
    <header>
      <identifier>oai:zenodo.org:279002</identifier>
      <datestamp>2017-02-09T00:24:11Z</datestamp>
      <setSpec>user-biosyslit</setSpec>
    </header>
    <header>
      <identifier>oai:zenodo.org:266078</identifier>
      <datestamp>2017-02-01T00:00:39Z</datestamp>
      <setSpec>user-biosyslit</setSpec>
    </header>
    <header>
      <identifier>oai:zenodo.org:279007</identifier>
      <datestamp>2017-02-09T00:24:25Z</datestamp>
      <setSpec>user-biosyslit</setSpec>
    </header>
    <header>
      <identifier>oai:zenodo.org:279008</identifier>
      <datestamp>2017-02-09T00:24:27Z</datestamp>
      <setSpec>user-biosyslit</setSpec>
    </header>
    <header>
      <identifier>oai:zenodo.org:279004</identifier>
      <datestamp>2017-02-09T00:24:16Z</datestamp>
      <setSpec>user-biosyslit</setSpec>
    </header>
    <header>
      <identifier>oai:zenodo.org:255765</identifier>
      <datestamp>2017-01-21T21:41:31Z</datestamp>
      <setSpec>user-biosyslit</setSpec>
    </header>
    <header>
      <identifier>oai:zenodo.org:255764</identifier>
      <datestamp>2017-01-21T21:41:28Z</datestamp>
      <setSpec>user-biosyslit</setSpec>
    </header>
    <header>
      <identifier>oai:zenodo.org:277687</identifier>
      <datestamp>2017-02-08T21:38:07Z</datestamp>
      <setSpec>user-biosyslit</setSpec>
    </header>
    <header>
      <identifier>oai:zenodo.org:277691</identifier>
      <datestamp>2017-02-08T21:38:17Z</datestamp>
      <setSpec>user-biosyslit</setSpec>
    </header>
    <header>
      <identifier>oai:zenodo.org:255751</identifier>
      <datestamp>2017-01-21T21:40:53Z</datestamp>
      <setSpec>user-biosyslit</setSpec>
    </header>
    <header>
      <identifier>oai:zenodo.org:255759</identifier>
      <datestamp>2017-01-21T21:41:13Z</datestamp>
      <setSpec>user-biosyslit</setSpec>
    </header>
    <header>
      <identifier>oai:zenodo.org:255760</identifier>
      <datestamp>2017-01-21T21:41:16Z</datestamp>
      <setSpec>user-biosyslit</setSpec>
    </header>
    <header>
      <identifier>oai:zenodo.org:255753</identifier>
      <datestamp>2017-01-21T21:40:57Z</datestamp>
      <setSpec>user-biosyslit</setSpec>
    </header>
    <header>
      <identifier>oai:zenodo.org:237509</identifier>
      <datestamp>2017-01-10T16:25:24Z</datestamp>
      <setSpec>user-biosyslit</setSpec>
    </header>
    <header>
      <identifier>oai:zenodo.org:277693</identifier>
      <datestamp>2017-02-08T21:38:21Z</datestamp>
      <setSpec>user-biosyslit</setSpec>
    </header>
    <header>
      <identifier>oai:zenodo.org:277692</identifier>
      <datestamp>2017-02-08T21:38:19Z</datestamp>
      <setSpec>user-biosyslit</setSpec>
    </header>
    <header>
      <identifier>oai:zenodo.org:277697</identifier>
      <datestamp>2017-02-08T21:38:30Z</datestamp>
      <setSpec>user-biosyslit</setSpec>
    </header>
    <header>
      <identifier>oai:zenodo.org:237511</identifier>
      <datestamp>2017-01-10T16:25:03Z</datestamp>
      <setSpec>user-biosyslit</setSpec>
    </header>
    <header>
      <identifier>oai:zenodo.org:237514</identifier>
      <datestamp>2017-01-10T16:25:13Z</datestamp>
      <setSpec>user-biosyslit</setSpec>
    </header>
    <header>
      <identifier>oai:zenodo.org:255780</identifier>
      <datestamp>2017-01-21T21:59:26Z</datestamp>
      <setSpec>user-biosyslit</setSpec>
    </header>
    <header>
      <identifier>oai:zenodo.org:237512</identifier>
      <datestamp>2017-01-10T16:25:06Z</datestamp>
      <setSpec>user-biosyslit</setSpec>
    </header>
    <header>
      <identifier>oai:zenodo.org:237517</identifier>
      <datestamp>2017-01-10T16:25:23Z</datestamp>
      <setSpec>user-biosyslit</setSpec>
    </header>
    <header>
      <identifier>oai:zenodo.org:255777</identifier>
      <datestamp>2017-01-21T21:59:37Z</datestamp>
      <setSpec>user-biosyslit</setSpec>
    </header>
    <header>
      <identifier>oai:zenodo.org:281960</identifier>
      <datestamp>2017-02-09T06:14:03Z</datestamp>
      <setSpec>user-biosyslit</setSpec>
    </header>
    <resumptionToken expirationDate="2017-08-31T15:47:53Z" cursor="69700" completeListSize="77796">.eJyNysEKgjAYAOB3-c8SmyunQpewpIPKXI70EqYi1TRxRbrw3fPSub7z9wZVVSW4aIGws7QsusJLigihFNsGqKK_S3m6zAGKo5BFK5PcF8-4ESg1axp6agi8lIT6hqIGa75j5hHbQ3JBIzskj1THgyD7F0dbGmg2htf9_EoS-TI7-x1P2o3kZtlHWzZyvOEZKb4P__n0z-epNRjQ5XUFruU4BtxeeV8rcN_T9AEHLlGy.DInAsQ.kkhmYmchgw313ACLm_DwOGf2Olk</resumptionToken>
  </ListIdentifiers>
</OAI-PMH>
