<?xml version='1.0' encoding='UTF-8'?>
<?xml-stylesheet type="text/xsl" href="/static/xsl/oai2.v1.0.xsl"?>
<OAI-PMH xmlns="http://www.openarchives.org/OAI/2.0/" xmlns:xsi="http://www.w3.org/2001/XMLSchema-instance" xsi:schemaLocation="http://www.openarchives.org/OAI/2.0/ http://www.openarchives.org/OAI/2.0/OAI-PMH.xsd">
  <responseDate>2017-08-31T15:42:09Z</responseDate>
  <request verb="ListIdentifiers" resumptionToken=".eJyNz7EOgjAUQNF_eTMxLQWqJC4GJQ5AsJYIi8FCCFrQUA1Q4r_L4qzzPcudQJVlAS5arBCm1LFtB1uWiSxigBLdXcpzPWcQp0SKVvLcT16HJkGpWdHQU0PgpSTUNxQ1WLNdbJ7wcuA1GuMjf6b6MCRk3zO0pYGOx_C6n11BIl9mF__BeLuRzCy6aBuPDG9YRsTX4T-d_uk8tQYDHnlVgjsPGnDr865S4E7v9weXPlE6.DIm_0Q.Ach94Db0wf9Z3JbvY_ZIqfWcnlo">https://zenodo.org/oai2d</request>
  <ListIdentifiers>
    <header>
      <identifier>oai:zenodo.org:313168</identifier>
      <datestamp>2017-02-21T00:55:52Z</datestamp>
      <setSpec>user-biosyslit</setSpec>
    </header>
    <header>
      <identifier>oai:zenodo.org:311416</identifier>
      <datestamp>2017-02-21T00:22:16Z</datestamp>
      <setSpec>user-biosyslit</setSpec>
    </header>
    <header>
      <identifier>oai:zenodo.org:311041</identifier>
      <datestamp>2017-02-21T00:14:49Z</datestamp>
      <setSpec>user-biosyslit</setSpec>
    </header>
    <header>
      <identifier>oai:zenodo.org:322331</identifier>
      <datestamp>2017-02-24T09:47:22Z</datestamp>
      <setSpec>user-biosyslit</setSpec>
    </header>
    <header>
      <identifier>oai:zenodo.org:313294</identifier>
      <datestamp>2017-02-21T00:58:19Z</datestamp>
      <setSpec>user-biosyslit</setSpec>
    </header>
    <header>
      <identifier>oai:zenodo.org:322101</identifier>
      <datestamp>2017-02-24T07:30:26Z</datestamp>
      <setSpec>user-biosyslit</setSpec>
    </header>
    <header>
      <identifier>oai:zenodo.org:321264</identifier>
      <datestamp>2017-02-21T09:22:06Z</datestamp>
      <setSpec>user-biosyslit</setSpec>
    </header>
    <header>
      <identifier>oai:zenodo.org:321779</identifier>
      <datestamp>2017-02-23T08:49:49Z</datestamp>
      <setSpec>user-biosyslit</setSpec>
    </header>
    <header>
      <identifier>oai:zenodo.org:321349</identifier>
      <datestamp>2017-02-21T14:24:05Z</datestamp>
      <setSpec>user-biosyslit</setSpec>
    </header>
    <header>
      <identifier>oai:zenodo.org:321982</identifier>
      <datestamp>2017-02-24T07:21:08Z</datestamp>
      <setSpec>user-biosyslit</setSpec>
    </header>
    <header>
      <identifier>oai:zenodo.org:322317</identifier>
      <datestamp>2017-02-24T09:36:08Z</datestamp>
      <setSpec>user-biosyslit</setSpec>
    </header>
    <header>
      <identifier>oai:zenodo.org:321255</identifier>
      <datestamp>2017-02-21T14:00:47Z</datestamp>
      <setSpec>openaire</setSpec>
      <setSpec>user-biosyslit</setSpec>
    </header>
    <header>
      <identifier>oai:zenodo.org:320162</identifier>
      <datestamp>2017-02-21T03:27:06Z</datestamp>
      <setSpec>user-biosyslit</setSpec>
    </header>
    <header>
      <identifier>oai:zenodo.org:321771</identifier>
      <datestamp>2017-02-23T08:35:48Z</datestamp>
      <setSpec>user-biosyslit</setSpec>
    </header>
    <header>
      <identifier>oai:zenodo.org:246002</identifier>
      <datestamp>2017-01-15T20:44:40Z</datestamp>
      <setSpec>user-biosyslit</setSpec>
    </header>
    <header>
      <identifier>oai:zenodo.org:244998</identifier>
      <datestamp>2017-01-15T06:15:12Z</datestamp>
      <setSpec>user-biosyslit</setSpec>
    </header>
    <header>
      <identifier>oai:zenodo.org:245288</identifier>
      <datestamp>2017-01-15T11:16:09Z</datestamp>
      <setSpec>user-biosyslit</setSpec>
    </header>
    <header>
      <identifier>oai:zenodo.org:245213</identifier>
      <datestamp>2017-01-15T10:05:39Z</datestamp>
      <setSpec>user-biosyslit</setSpec>
    </header>
    <header>
      <identifier>oai:zenodo.org:245638</identifier>
      <datestamp>2017-01-15T16:40:48Z</datestamp>
      <setSpec>user-biosyslit</setSpec>
    </header>
    <header>
      <identifier>oai:zenodo.org:289850</identifier>
      <datestamp>2017-02-10T00:43:08Z</datestamp>
      <setSpec>user-biosyslit</setSpec>
    </header>
    <header>
      <identifier>oai:zenodo.org:290018</identifier>
      <datestamp>2017-02-10T01:06:03Z</datestamp>
      <setSpec>user-biosyslit</setSpec>
    </header>
    <header>
      <identifier>oai:zenodo.org:289285</identifier>
      <datestamp>2017-02-09T23:09:38Z</datestamp>
      <setSpec>user-biosyslit</setSpec>
    </header>
    <header>
      <identifier>oai:zenodo.org:289089</identifier>
      <datestamp>2017-02-09T22:36:36Z</datestamp>
      <setSpec>user-biosyslit</setSpec>
    </header>
    <header>
      <identifier>oai:zenodo.org:289081</identifier>
      <datestamp>2017-02-09T22:36:13Z</datestamp>
      <setSpec>user-biosyslit</setSpec>
    </header>
    <header>
      <identifier>oai:zenodo.org:289886</identifier>
      <datestamp>2017-02-10T00:45:26Z</datestamp>
      <setSpec>user-biosyslit</setSpec>
    </header>
    <header>
      <identifier>oai:zenodo.org:289438</identifier>
      <datestamp>2017-02-09T23:30:37Z</datestamp>
      <setSpec>user-biosyslit</setSpec>
    </header>
    <header>
      <identifier>oai:zenodo.org:289510</identifier>
      <datestamp>2017-02-09T23:43:22Z</datestamp>
      <setSpec>user-biosyslit</setSpec>
    </header>
    <header>
      <identifier>oai:zenodo.org:289574</identifier>
      <datestamp>2017-02-09T23:51:05Z</datestamp>
      <setSpec>user-biosyslit</setSpec>
    </header>
    <header>
      <identifier>oai:zenodo.org:289897</identifier>
      <datestamp>2017-02-10T00:45:56Z</datestamp>
      <setSpec>user-biosyslit</setSpec>
    </header>
    <header>
      <identifier>oai:zenodo.org:289784</identifier>
      <datestamp>2017-02-10T00:30:23Z</datestamp>
      <setSpec>user-biosyslit</setSpec>
    </header>
    <header>
      <identifier>oai:zenodo.org:289965</identifier>
      <datestamp>2017-02-10T00:53:32Z</datestamp>
      <setSpec>user-biosyslit</setSpec>
    </header>
    <header>
      <identifier>oai:zenodo.org:289568</identifier>
      <datestamp>2017-02-09T23:50:44Z</datestamp>
      <setSpec>user-biosyslit</setSpec>
    </header>
    <header>
      <identifier>oai:zenodo.org:290015</identifier>
      <datestamp>2017-02-10T01:05:57Z</datestamp>
      <setSpec>user-biosyslit</setSpec>
    </header>
    <header>
      <identifier>oai:zenodo.org:289929</identifier>
      <datestamp>2017-02-10T00:47:23Z</datestamp>
      <setSpec>user-biosyslit</setSpec>
    </header>
    <header>
      <identifier>oai:zenodo.org:289908</identifier>
      <datestamp>2017-02-10T00:46:25Z</datestamp>
      <setSpec>user-biosyslit</setSpec>
    </header>
    <header>
      <identifier>oai:zenodo.org:289875</identifier>
      <datestamp>2017-02-10T00:43:06Z</datestamp>
      <setSpec>user-biosyslit</setSpec>
    </header>
    <header>
      <identifier>oai:zenodo.org:289882</identifier>
      <datestamp>2017-02-10T00:45:15Z</datestamp>
      <setSpec>user-biosyslit</setSpec>
    </header>
    <header>
      <identifier>oai:zenodo.org:290066</identifier>
      <datestamp>2017-02-10T01:12:52Z</datestamp>
      <setSpec>user-biosyslit</setSpec>
    </header>
    <header>
      <identifier>oai:zenodo.org:291284</identifier>
      <datestamp>2017-02-13T20:39:47Z</datestamp>
      <setSpec>user-biosyslit</setSpec>
    </header>
    <header>
      <identifier>oai:zenodo.org:291250</identifier>
      <datestamp>2017-02-13T20:36:14Z</datestamp>
      <setSpec>user-biosyslit</setSpec>
    </header>
    <header>
      <identifier>oai:zenodo.org:291278</identifier>
      <datestamp>2017-02-13T20:39:57Z</datestamp>
      <setSpec>user-biosyslit</setSpec>
    </header>
    <header>
      <identifier>oai:zenodo.org:291306</identifier>
      <datestamp>2017-02-13T20:42:11Z</datestamp>
      <setSpec>user-biosyslit</setSpec>
    </header>
    <header>
      <identifier>oai:zenodo.org:291386</identifier>
      <datestamp>2017-02-14T05:45:40Z</datestamp>
      <setSpec>user-biosyslit</setSpec>
    </header>
    <header>
      <identifier>oai:zenodo.org:291242</identifier>
      <datestamp>2017-02-13T20:35:38Z</datestamp>
      <setSpec>user-biosyslit</setSpec>
    </header>
    <header>
      <identifier>oai:zenodo.org:292584</identifier>
      <datestamp>2017-02-20T08:18:39Z</datestamp>
      <setSpec>openaire</setSpec>
      <setSpec>user-biosyslit</setSpec>
    </header>
    <header>
      <identifier>oai:zenodo.org:292412</identifier>
      <datestamp>2017-02-20T08:28:24Z</datestamp>
      <setSpec>openaire</setSpec>
      <setSpec>user-biosyslit</setSpec>
    </header>
    <header>
      <identifier>oai:zenodo.org:292467</identifier>
      <datestamp>2017-02-20T08:19:25Z</datestamp>
      <setSpec>user-biosyslit</setSpec>
    </header>
    <header>
      <identifier>oai:zenodo.org:292291</identifier>
      <datestamp>2017-02-20T08:30:40Z</datestamp>
      <setSpec>user-biosyslit</setSpec>
    </header>
    <header>
      <identifier>oai:zenodo.org:292921</identifier>
      <datestamp>2017-02-16T19:00:11Z</datestamp>
      <setSpec>user-biosyslit</setSpec>
    </header>
    <header>
      <identifier>oai:zenodo.org:292726</identifier>
      <datestamp>2017-02-16T18:33:38Z</datestamp>
      <setSpec>user-biosyslit</setSpec>
    </header>
    <header>
      <identifier>oai:zenodo.org:292413</identifier>
      <datestamp>2017-02-20T08:28:18Z</datestamp>
      <setSpec>openaire</setSpec>
      <setSpec>user-biosyslit</setSpec>
    </header>
    <header>
      <identifier>oai:zenodo.org:292712</identifier>
      <datestamp>2017-02-16T18:31:24Z</datestamp>
      <setSpec>user-biosyslit</setSpec>
    </header>
    <header>
      <identifier>oai:zenodo.org:292507</identifier>
      <datestamp>2017-02-20T08:18:51Z</datestamp>
      <setSpec>user-biosyslit</setSpec>
    </header>
    <header>
      <identifier>oai:zenodo.org:292576</identifier>
      <datestamp>2017-02-20T08:32:06Z</datestamp>
      <setSpec>user-biosyslit</setSpec>
    </header>
    <header>
      <identifier>oai:zenodo.org:292781</identifier>
      <datestamp>2017-02-16T18:38:51Z</datestamp>
      <setSpec>user-biosyslit</setSpec>
    </header>
    <header>
      <identifier>oai:zenodo.org:292844</identifier>
      <datestamp>2017-02-16T18:46:08Z</datestamp>
      <setSpec>user-biosyslit</setSpec>
    </header>
    <header>
      <identifier>oai:zenodo.org:293461</identifier>
      <datestamp>2017-02-19T13:44:15Z</datestamp>
      <setSpec>user-biosyslit</setSpec>
    </header>
    <header>
      <identifier>oai:zenodo.org:293864</identifier>
      <datestamp>2017-02-20T18:52:08Z</datestamp>
      <setSpec>user-biosyslit</setSpec>
    </header>
    <header>
      <identifier>oai:zenodo.org:293057</identifier>
      <datestamp>2017-02-19T11:35:56Z</datestamp>
      <setSpec>openaire</setSpec>
      <setSpec>user-neilreichia</setSpec>
      <setSpec>user-biosyslit</setSpec>
    </header>
    <header>
      <identifier>oai:zenodo.org:293865</identifier>
      <datestamp>2017-02-20T18:52:10Z</datestamp>
      <setSpec>user-biosyslit</setSpec>
    </header>
    <header>
      <identifier>oai:zenodo.org:293623</identifier>
      <datestamp>2017-02-19T13:54:33Z</datestamp>
      <setSpec>user-biosyslit</setSpec>
    </header>
    <header>
      <identifier>oai:zenodo.org:293831</identifier>
      <datestamp>2017-02-20T20:21:11Z</datestamp>
      <setSpec>openaire</setSpec>
      <setSpec>user-biosyslit</setSpec>
    </header>
    <header>
      <identifier>oai:zenodo.org:293346</identifier>
      <datestamp>2017-02-19T13:32:26Z</datestamp>
      <setSpec>user-biosyslit</setSpec>
    </header>
    <header>
      <identifier>oai:zenodo.org:294184</identifier>
      <datestamp>2017-02-20T19:26:22Z</datestamp>
      <setSpec>user-biosyslit</setSpec>
    </header>
    <header>
      <identifier>oai:zenodo.org:294256</identifier>
      <datestamp>2017-02-20T19:34:06Z</datestamp>
      <setSpec>user-biosyslit</setSpec>
    </header>
    <header>
      <identifier>oai:zenodo.org:303133</identifier>
      <datestamp>2017-02-20T22:01:34Z</datestamp>
      <setSpec>user-biosyslit</setSpec>
    </header>
    <header>
      <identifier>oai:zenodo.org:294311</identifier>
      <datestamp>2017-02-20T19:36:01Z</datestamp>
      <setSpec>user-biosyslit</setSpec>
    </header>
    <header>
      <identifier>oai:zenodo.org:294465</identifier>
      <datestamp>2017-02-20T19:39:06Z</datestamp>
      <setSpec>user-biosyslit</setSpec>
    </header>
    <header>
      <identifier>oai:zenodo.org:296590</identifier>
      <datestamp>2017-02-20T20:15:26Z</datestamp>
      <setSpec>user-biosyslit</setSpec>
    </header>
    <header>
      <identifier>oai:zenodo.org:301081</identifier>
      <datestamp>2017-02-20T21:28:59Z</datestamp>
      <setSpec>user-biosyslit</setSpec>
    </header>
    <header>
      <identifier>oai:zenodo.org:295979</identifier>
      <datestamp>2017-02-20T20:05:13Z</datestamp>
      <setSpec>user-biosyslit</setSpec>
    </header>
    <header>
      <identifier>oai:zenodo.org:311768</identifier>
      <datestamp>2017-02-21T00:28:48Z</datestamp>
      <setSpec>user-biosyslit</setSpec>
    </header>
    <header>
      <identifier>oai:zenodo.org:305299</identifier>
      <datestamp>2017-02-20T22:37:58Z</datestamp>
      <setSpec>user-biosyslit</setSpec>
    </header>
    <header>
      <identifier>oai:zenodo.org:312329</identifier>
      <datestamp>2017-02-21T00:42:04Z</datestamp>
      <setSpec>user-biosyslit</setSpec>
    </header>
    <header>
      <identifier>oai:zenodo.org:313141</identifier>
      <datestamp>2017-02-21T00:55:30Z</datestamp>
      <setSpec>user-biosyslit</setSpec>
    </header>
    <header>
      <identifier>oai:zenodo.org:306070</identifier>
      <datestamp>2017-02-20T22:50:44Z</datestamp>
      <setSpec>user-biosyslit</setSpec>
    </header>
    <header>
      <identifier>oai:zenodo.org:311659</identifier>
      <datestamp>2017-02-21T00:27:11Z</datestamp>
      <setSpec>user-biosyslit</setSpec>
    </header>
    <header>
      <identifier>oai:zenodo.org:312467</identifier>
      <datestamp>2017-02-21T00:44:21Z</datestamp>
      <setSpec>user-biosyslit</setSpec>
    </header>
    <header>
      <identifier>oai:zenodo.org:311713</identifier>
      <datestamp>2017-02-21T00:27:50Z</datestamp>
      <setSpec>user-biosyslit</setSpec>
    </header>
    <header>
      <identifier>oai:zenodo.org:311085</identifier>
      <datestamp>2017-02-21T00:15:58Z</datestamp>
      <setSpec>user-biosyslit</setSpec>
    </header>
    <header>
      <identifier>oai:zenodo.org:306926</identifier>
      <datestamp>2017-02-20T23:04:33Z</datestamp>
      <setSpec>user-biosyslit</setSpec>
    </header>
    <header>
      <identifier>oai:zenodo.org:311136</identifier>
      <datestamp>2017-02-21T00:16:45Z</datestamp>
      <setSpec>user-biosyslit</setSpec>
    </header>
    <header>
      <identifier>oai:zenodo.org:310982</identifier>
      <datestamp>2017-02-21T00:13:19Z</datestamp>
      <setSpec>user-biosyslit</setSpec>
    </header>
    <header>
      <identifier>oai:zenodo.org:311541</identifier>
      <datestamp>2017-02-21T00:24:32Z</datestamp>
      <setSpec>user-biosyslit</setSpec>
    </header>
    <header>
      <identifier>oai:zenodo.org:321239</identifier>
      <datestamp>2017-02-21T03:50:55Z</datestamp>
      <setSpec>user-biosyslit</setSpec>
    </header>
    <header>
      <identifier>oai:zenodo.org:311114</identifier>
      <datestamp>2017-02-21T00:16:25Z</datestamp>
      <setSpec>user-biosyslit</setSpec>
    </header>
    <header>
      <identifier>oai:zenodo.org:312278</identifier>
      <datestamp>2017-02-21T00:41:04Z</datestamp>
      <setSpec>user-biosyslit</setSpec>
    </header>
    <header>
      <identifier>oai:zenodo.org:322146</identifier>
      <datestamp>2017-02-24T07:35:03Z</datestamp>
      <setSpec>user-biosyslit</setSpec>
    </header>
    <header>
      <identifier>oai:zenodo.org:322306</identifier>
      <datestamp>2017-02-24T09:15:35Z</datestamp>
      <setSpec>user-biosyslit</setSpec>
    </header>
    <header>
      <identifier>oai:zenodo.org:320224</identifier>
      <datestamp>2017-02-21T03:28:32Z</datestamp>
      <setSpec>user-biosyslit</setSpec>
    </header>
    <header>
      <identifier>oai:zenodo.org:321918</identifier>
      <datestamp>2017-02-23T21:24:55Z</datestamp>
      <setSpec>user-biosyslit</setSpec>
    </header>
    <header>
      <identifier>oai:zenodo.org:322006</identifier>
      <datestamp>2017-02-24T07:23:32Z</datestamp>
      <setSpec>user-biosyslit</setSpec>
    </header>
    <header>
      <identifier>oai:zenodo.org:322217</identifier>
      <datestamp>2017-02-24T07:38:05Z</datestamp>
      <setSpec>user-biosyslit</setSpec>
    </header>
    <header>
      <identifier>oai:zenodo.org:322013</identifier>
      <datestamp>2017-02-24T07:23:49Z</datestamp>
      <setSpec>user-biosyslit</setSpec>
    </header>
    <header>
      <identifier>oai:zenodo.org:322202</identifier>
      <datestamp>2017-02-24T07:37:29Z</datestamp>
      <setSpec>user-biosyslit</setSpec>
    </header>
    <header>
      <identifier>oai:zenodo.org:322215</identifier>
      <datestamp>2017-02-24T07:38:01Z</datestamp>
      <setSpec>user-biosyslit</setSpec>
    </header>
    <header>
      <identifier>oai:zenodo.org:322336</identifier>
      <datestamp>2017-02-24T09:51:26Z</datestamp>
      <setSpec>user-biosyslit</setSpec>
    </header>
    <header>
      <identifier>oai:zenodo.org:322226</identifier>
      <datestamp>2017-02-24T07:38:28Z</datestamp>
      <setSpec>user-biosyslit</setSpec>
    </header>
    <header>
      <identifier>oai:zenodo.org:322723</identifier>
      <datestamp>2017-02-27T09:56:01Z</datestamp>
      <setSpec>user-biosyslit</setSpec>
    </header>
    <header>
      <identifier>oai:zenodo.org:322731</identifier>
      <datestamp>2017-02-27T09:56:21Z</datestamp>
      <setSpec>user-biosyslit</setSpec>
    </header>
    <resumptionToken expirationDate="2017-08-31T15:44:09Z" cursor="17600" completeListSize="77796">.eJyNyssKgkAUANB_uWuJeahjQpvQxEWKToq2CVMRc3rgFOmI_56b1rU-ZwJZ1xXYaKUT02CmSaixZlhfG7oGsuzvQpzaxaHMUlHeRFJ46Su-pignDQscOeydnAaqQ-EVK76LSIatIWnRGB2SZ67iIaX-myOX7VU0Bhd_eRUNPXE8ew-e3LaCk6oP3WjkeMuPtPw-_OdTP58jN6DBo2hqsDGzNOjeRd9IsKd5_gDbJ1GA.DIm_0Q.JZRK4pyk7-QAptoeoTP6VlHEpZ4</resumptionToken>
  </ListIdentifiers>
</OAI-PMH>
