<?xml version='1.0' encoding='UTF-8'?>
<?xml-stylesheet type="text/xsl" href="/static/xsl/oai2.v1.0.xsl"?>
<OAI-PMH xmlns="http://www.openarchives.org/OAI/2.0/" xmlns:xsi="http://www.w3.org/2001/XMLSchema-instance" xsi:schemaLocation="http://www.openarchives.org/OAI/2.0/ http://www.openarchives.org/OAI/2.0/OAI-PMH.xsd">
  <responseDate>2017-08-31T15:43:57Z</responseDate>
  <request verb="ListIdentifiers" resumptionToken=".eJyNysEKgjAYAOB3-c8S0y11QpfQxIOKLiW7hKmIOU1coU5697p0rvP3rSCqqgQLbbBJKMHUMAnSKdbpVgFRjHfOL83HoTilvOh5krvpM-5SlGm1Edhi9u0MB7JFYadKdoi0k2rOSYOW6Jg8MhnPKfYmhhzDl9ES3LzPK3Ho8vPVHVjS7znTyjF0ooWpe3bGxfepfz7589liBwoMeV2BRQhVoJ3ysRZgra_XG-ZRUY0.DInAPQ.QEIDTNrqwFVlNrxjga3FgZ3QwVI">https://zenodo.org/oai2d</request>
  <ListIdentifiers>
    <header>
      <identifier>oai:zenodo.org:271406</identifier>
      <datestamp>2017-02-08T01:36:10Z</datestamp>
      <setSpec>user-biosyslit</setSpec>
    </header>
    <header>
      <identifier>oai:zenodo.org:241542</identifier>
      <datestamp>2017-01-13T02:58:36Z</datestamp>
      <setSpec>user-biosyslit</setSpec>
    </header>
    <header>
      <identifier>oai:zenodo.org:271322</identifier>
      <datestamp>2017-02-08T01:21:01Z</datestamp>
      <setSpec>user-biosyslit</setSpec>
    </header>
    <header>
      <identifier>oai:zenodo.org:271786</identifier>
      <datestamp>2017-02-08T02:39:49Z</datestamp>
      <setSpec>user-biosyslit</setSpec>
    </header>
    <header>
      <identifier>oai:zenodo.org:271499</identifier>
      <datestamp>2017-02-08T01:49:25Z</datestamp>
      <setSpec>user-biosyslit</setSpec>
    </header>
    <header>
      <identifier>oai:zenodo.org:271592</identifier>
      <datestamp>2017-02-08T02:00:35Z</datestamp>
      <setSpec>user-biosyslit</setSpec>
    </header>
    <header>
      <identifier>oai:zenodo.org:241980</identifier>
      <datestamp>2017-01-13T09:01:20Z</datestamp>
      <setSpec>user-biosyslit</setSpec>
    </header>
    <header>
      <identifier>oai:zenodo.org:241977</identifier>
      <datestamp>2017-01-13T09:01:10Z</datestamp>
      <setSpec>user-biosyslit</setSpec>
    </header>
    <header>
      <identifier>oai:zenodo.org:275411</identifier>
      <datestamp>2017-02-08T16:16:54Z</datestamp>
      <setSpec>user-biosyslit</setSpec>
    </header>
    <header>
      <identifier>oai:zenodo.org:241763</identifier>
      <datestamp>2017-01-13T05:36:44Z</datestamp>
      <setSpec>user-biosyslit</setSpec>
    </header>
    <header>
      <identifier>oai:zenodo.org:242039</identifier>
      <datestamp>2017-01-13T09:37:12Z</datestamp>
      <setSpec>user-biosyslit</setSpec>
    </header>
    <header>
      <identifier>oai:zenodo.org:242324</identifier>
      <datestamp>2017-01-13T13:51:49Z</datestamp>
      <setSpec>user-biosyslit</setSpec>
    </header>
    <header>
      <identifier>oai:zenodo.org:242322</identifier>
      <datestamp>2017-01-13T13:52:26Z</datestamp>
      <setSpec>user-biosyslit</setSpec>
    </header>
    <header>
      <identifier>oai:zenodo.org:242456</identifier>
      <datestamp>2017-01-13T15:29:01Z</datestamp>
      <setSpec>user-biosyslit</setSpec>
    </header>
    <header>
      <identifier>oai:zenodo.org:242406</identifier>
      <datestamp>2017-01-13T15:08:46Z</datestamp>
      <setSpec>user-biosyslit</setSpec>
    </header>
    <header>
      <identifier>oai:zenodo.org:242881</identifier>
      <datestamp>2017-01-13T20:13:44Z</datestamp>
      <setSpec>user-biosyslit</setSpec>
    </header>
    <header>
      <identifier>oai:zenodo.org:243607</identifier>
      <datestamp>2017-01-14T08:11:59Z</datestamp>
      <setSpec>user-biosyslit</setSpec>
    </header>
    <header>
      <identifier>oai:zenodo.org:272468</identifier>
      <datestamp>2017-02-08T04:45:16Z</datestamp>
      <setSpec>user-biosyslit</setSpec>
    </header>
    <header>
      <identifier>oai:zenodo.org:242895</identifier>
      <datestamp>2017-01-13T20:34:07Z</datestamp>
      <setSpec>user-biosyslit</setSpec>
    </header>
    <header>
      <identifier>oai:zenodo.org:242854</identifier>
      <datestamp>2017-01-13T19:53:35Z</datestamp>
      <setSpec>user-biosyslit</setSpec>
    </header>
    <header>
      <identifier>oai:zenodo.org:243164</identifier>
      <datestamp>2017-01-14T00:03:35Z</datestamp>
      <setSpec>user-biosyslit</setSpec>
    </header>
    <header>
      <identifier>oai:zenodo.org:243545</identifier>
      <datestamp>2017-01-14T07:14:07Z</datestamp>
      <setSpec>user-biosyslit</setSpec>
    </header>
    <header>
      <identifier>oai:zenodo.org:243104</identifier>
      <datestamp>2017-01-13T23:28:00Z</datestamp>
      <setSpec>user-biosyslit</setSpec>
    </header>
    <header>
      <identifier>oai:zenodo.org:243069</identifier>
      <datestamp>2017-01-13T22:55:39Z</datestamp>
      <setSpec>user-biosyslit</setSpec>
    </header>
    <header>
      <identifier>oai:zenodo.org:243741</identifier>
      <datestamp>2017-01-14T10:08:45Z</datestamp>
      <setSpec>user-biosyslit</setSpec>
    </header>
    <header>
      <identifier>oai:zenodo.org:243616</identifier>
      <datestamp>2017-01-14T08:12:29Z</datestamp>
      <setSpec>user-biosyslit</setSpec>
    </header>
    <header>
      <identifier>oai:zenodo.org:243847</identifier>
      <datestamp>2017-01-14T11:46:25Z</datestamp>
      <setSpec>user-biosyslit</setSpec>
    </header>
    <header>
      <identifier>oai:zenodo.org:271965</identifier>
      <datestamp>2017-02-08T03:10:39Z</datestamp>
      <setSpec>user-biosyslit</setSpec>
    </header>
    <header>
      <identifier>oai:zenodo.org:243609</identifier>
      <datestamp>2017-01-14T08:12:07Z</datestamp>
      <setSpec>user-biosyslit</setSpec>
    </header>
    <header>
      <identifier>oai:zenodo.org:243716</identifier>
      <datestamp>2017-01-14T09:53:18Z</datestamp>
      <setSpec>user-biosyslit</setSpec>
    </header>
    <header>
      <identifier>oai:zenodo.org:244413</identifier>
      <datestamp>2017-01-14T21:26:23Z</datestamp>
      <setSpec>user-biosyslit</setSpec>
    </header>
    <header>
      <identifier>oai:zenodo.org:243537</identifier>
      <datestamp>2017-01-14T07:03:29Z</datestamp>
      <setSpec>user-biosyslit</setSpec>
    </header>
    <header>
      <identifier>oai:zenodo.org:244807</identifier>
      <datestamp>2017-01-15T02:44:42Z</datestamp>
      <setSpec>user-biosyslit</setSpec>
    </header>
    <header>
      <identifier>oai:zenodo.org:272114</identifier>
      <datestamp>2017-02-08T03:46:04Z</datestamp>
      <setSpec>user-biosyslit</setSpec>
    </header>
    <header>
      <identifier>oai:zenodo.org:244092</identifier>
      <datestamp>2017-01-14T16:11:01Z</datestamp>
      <setSpec>user-biosyslit</setSpec>
    </header>
    <header>
      <identifier>oai:zenodo.org:244062</identifier>
      <datestamp>2017-01-14T15:55:52Z</datestamp>
      <setSpec>user-biosyslit</setSpec>
    </header>
    <header>
      <identifier>oai:zenodo.org:244656</identifier>
      <datestamp>2017-01-15T00:31:00Z</datestamp>
      <setSpec>user-biosyslit</setSpec>
    </header>
    <header>
      <identifier>oai:zenodo.org:244803</identifier>
      <datestamp>2017-01-15T02:44:28Z</datestamp>
      <setSpec>user-biosyslit</setSpec>
    </header>
    <header>
      <identifier>oai:zenodo.org:272142</identifier>
      <datestamp>2017-02-08T03:48:33Z</datestamp>
      <setSpec>user-biosyslit</setSpec>
    </header>
    <header>
      <identifier>oai:zenodo.org:245870</identifier>
      <datestamp>2017-01-15T19:12:07Z</datestamp>
      <setSpec>user-biosyslit</setSpec>
    </header>
    <header>
      <identifier>oai:zenodo.org:273267</identifier>
      <datestamp>2017-02-08T08:48:31Z</datestamp>
      <setSpec>user-biosyslit</setSpec>
    </header>
    <header>
      <identifier>oai:zenodo.org:244525</identifier>
      <datestamp>2017-01-14T23:05:30Z</datestamp>
      <setSpec>user-biosyslit</setSpec>
    </header>
    <header>
      <identifier>oai:zenodo.org:244511</identifier>
      <datestamp>2017-01-14T22:57:08Z</datestamp>
      <setSpec>user-biosyslit</setSpec>
    </header>
    <header>
      <identifier>oai:zenodo.org:244608</identifier>
      <datestamp>2017-01-15T00:04:47Z</datestamp>
      <setSpec>user-biosyslit</setSpec>
    </header>
    <header>
      <identifier>oai:zenodo.org:244938</identifier>
      <datestamp>2017-01-15T05:40:53Z</datestamp>
      <setSpec>user-biosyslit</setSpec>
    </header>
    <header>
      <identifier>oai:zenodo.org:245779</identifier>
      <datestamp>2017-01-15T18:34:41Z</datestamp>
      <setSpec>user-biosyslit</setSpec>
    </header>
    <header>
      <identifier>oai:zenodo.org:272299</identifier>
      <datestamp>2017-02-08T04:11:52Z</datestamp>
      <setSpec>user-biosyslit</setSpec>
    </header>
    <header>
      <identifier>oai:zenodo.org:245620</identifier>
      <datestamp>2017-01-15T16:39:49Z</datestamp>
      <setSpec>user-biosyslit</setSpec>
    </header>
    <header>
      <identifier>oai:zenodo.org:272351</identifier>
      <datestamp>2017-02-08T04:21:31Z</datestamp>
      <setSpec>user-biosyslit</setSpec>
    </header>
    <header>
      <identifier>oai:zenodo.org:245157</identifier>
      <datestamp>2017-01-15T08:36:15Z</datestamp>
      <setSpec>user-biosyslit</setSpec>
    </header>
    <header>
      <identifier>oai:zenodo.org:272399</identifier>
      <datestamp>2017-02-08T04:27:38Z</datestamp>
      <setSpec>user-biosyslit</setSpec>
    </header>
    <header>
      <identifier>oai:zenodo.org:289502</identifier>
      <datestamp>2017-02-09T23:42:43Z</datestamp>
      <setSpec>user-biosyslit</setSpec>
    </header>
    <header>
      <identifier>oai:zenodo.org:245895</identifier>
      <datestamp>2017-01-15T19:21:21Z</datestamp>
      <setSpec>user-biosyslit</setSpec>
    </header>
    <header>
      <identifier>oai:zenodo.org:289121</identifier>
      <datestamp>2017-02-09T22:45:36Z</datestamp>
      <setSpec>user-biosyslit</setSpec>
    </header>
    <header>
      <identifier>oai:zenodo.org:245887</identifier>
      <datestamp>2017-01-15T19:22:00Z</datestamp>
      <setSpec>user-biosyslit</setSpec>
    </header>
    <header>
      <identifier>oai:zenodo.org:289017</identifier>
      <datestamp>2017-02-09T22:24:56Z</datestamp>
      <setSpec>user-biosyslit</setSpec>
    </header>
    <header>
      <identifier>oai:zenodo.org:289274</identifier>
      <datestamp>2017-02-09T23:07:19Z</datestamp>
      <setSpec>user-biosyslit</setSpec>
    </header>
    <header>
      <identifier>oai:zenodo.org:289711</identifier>
      <datestamp>2017-02-10T00:21:47Z</datestamp>
      <setSpec>user-biosyslit</setSpec>
    </header>
    <header>
      <identifier>oai:zenodo.org:289890</identifier>
      <datestamp>2017-02-10T00:45:37Z</datestamp>
      <setSpec>user-biosyslit</setSpec>
    </header>
    <header>
      <identifier>oai:zenodo.org:289473</identifier>
      <datestamp>2017-02-09T23:39:18Z</datestamp>
      <setSpec>user-biosyslit</setSpec>
    </header>
    <header>
      <identifier>oai:zenodo.org:289515</identifier>
      <datestamp>2017-02-09T23:43:44Z</datestamp>
      <setSpec>user-biosyslit</setSpec>
    </header>
    <header>
      <identifier>oai:zenodo.org:291318</identifier>
      <datestamp>2017-02-13T20:43:19Z</datestamp>
      <setSpec>user-biosyslit</setSpec>
    </header>
    <header>
      <identifier>oai:zenodo.org:289950</identifier>
      <datestamp>2017-02-10T00:51:14Z</datestamp>
      <setSpec>user-biosyslit</setSpec>
    </header>
    <header>
      <identifier>oai:zenodo.org:289787</identifier>
      <datestamp>2017-02-10T00:30:30Z</datestamp>
      <setSpec>user-biosyslit</setSpec>
    </header>
    <header>
      <identifier>oai:zenodo.org:289738</identifier>
      <datestamp>2017-02-10T00:22:59Z</datestamp>
      <setSpec>user-biosyslit</setSpec>
    </header>
    <header>
      <identifier>oai:zenodo.org:289907</identifier>
      <datestamp>2017-02-10T00:46:22Z</datestamp>
      <setSpec>user-biosyslit</setSpec>
    </header>
    <header>
      <identifier>oai:zenodo.org:289878</identifier>
      <datestamp>2017-02-10T00:45:05Z</datestamp>
      <setSpec>user-biosyslit</setSpec>
    </header>
    <header>
      <identifier>oai:zenodo.org:289917</identifier>
      <datestamp>2017-02-10T00:46:46Z</datestamp>
      <setSpec>user-biosyslit</setSpec>
    </header>
    <header>
      <identifier>oai:zenodo.org:291225</identifier>
      <datestamp>2017-02-13T20:34:26Z</datestamp>
      <setSpec>user-biosyslit</setSpec>
    </header>
    <header>
      <identifier>oai:zenodo.org:243096</identifier>
      <datestamp>2017-01-13T23:19:35Z</datestamp>
      <setSpec>user-biosyslit</setSpec>
    </header>
    <header>
      <identifier>oai:zenodo.org:242198</identifier>
      <datestamp>2017-01-13T12:01:46Z</datestamp>
      <setSpec>user-biosyslit</setSpec>
    </header>
    <header>
      <identifier>oai:zenodo.org:242205</identifier>
      <datestamp>2017-01-13T12:02:21Z</datestamp>
      <setSpec>user-biosyslit</setSpec>
    </header>
    <header>
      <identifier>oai:zenodo.org:243135</identifier>
      <datestamp>2017-01-13T23:48:15Z</datestamp>
      <setSpec>user-biosyslit</setSpec>
    </header>
    <header>
      <identifier>oai:zenodo.org:243249</identifier>
      <datestamp>2017-01-14T01:39:42Z</datestamp>
      <setSpec>user-biosyslit</setSpec>
    </header>
    <header>
      <identifier>oai:zenodo.org:243658</identifier>
      <datestamp>2017-01-14T08:53:07Z</datestamp>
      <setSpec>user-biosyslit</setSpec>
    </header>
    <header>
      <identifier>oai:zenodo.org:244025</identifier>
      <datestamp>2017-01-14T15:20:43Z</datestamp>
      <setSpec>user-biosyslit</setSpec>
    </header>
    <header>
      <identifier>oai:zenodo.org:244122</identifier>
      <datestamp>2017-01-14T16:31:30Z</datestamp>
      <setSpec>user-biosyslit</setSpec>
    </header>
    <header>
      <identifier>oai:zenodo.org:243526</identifier>
      <datestamp>2017-01-14T07:02:43Z</datestamp>
      <setSpec>user-biosyslit</setSpec>
    </header>
    <header>
      <identifier>oai:zenodo.org:242998</identifier>
      <datestamp>2017-01-13T21:50:58Z</datestamp>
      <setSpec>user-biosyslit</setSpec>
    </header>
    <header>
      <identifier>oai:zenodo.org:243102</identifier>
      <datestamp>2017-01-13T23:27:53Z</datestamp>
      <setSpec>user-biosyslit</setSpec>
    </header>
    <header>
      <identifier>oai:zenodo.org:272134</identifier>
      <datestamp>2017-02-08T03:48:09Z</datestamp>
      <setSpec>user-biosyslit</setSpec>
    </header>
    <header>
      <identifier>oai:zenodo.org:272187</identifier>
      <datestamp>2017-02-08T03:59:16Z</datestamp>
      <setSpec>user-biosyslit</setSpec>
    </header>
    <header>
      <identifier>oai:zenodo.org:243072</identifier>
      <datestamp>2017-01-13T22:55:29Z</datestamp>
      <setSpec>user-biosyslit</setSpec>
    </header>
    <header>
      <identifier>oai:zenodo.org:243915</identifier>
      <datestamp>2017-01-14T13:07:41Z</datestamp>
      <setSpec>user-biosyslit</setSpec>
    </header>
    <header>
      <identifier>oai:zenodo.org:245056</identifier>
      <datestamp>2017-01-15T07:08:53Z</datestamp>
      <setSpec>user-biosyslit</setSpec>
    </header>
    <header>
      <identifier>oai:zenodo.org:272045</identifier>
      <datestamp>2017-02-08T03:24:41Z</datestamp>
      <setSpec>user-biosyslit</setSpec>
    </header>
    <header>
      <identifier>oai:zenodo.org:243941</identifier>
      <datestamp>2017-01-14T13:43:12Z</datestamp>
      <setSpec>user-biosyslit</setSpec>
    </header>
    <header>
      <identifier>oai:zenodo.org:244962</identifier>
      <datestamp>2017-01-15T05:57:07Z</datestamp>
      <setSpec>user-biosyslit</setSpec>
    </header>
    <header>
      <identifier>oai:zenodo.org:272349</identifier>
      <datestamp>2017-02-08T04:21:25Z</datestamp>
      <setSpec>user-biosyslit</setSpec>
    </header>
    <header>
      <identifier>oai:zenodo.org:243722</identifier>
      <datestamp>2017-01-14T09:53:37Z</datestamp>
      <setSpec>user-biosyslit</setSpec>
    </header>
    <header>
      <identifier>oai:zenodo.org:243975</identifier>
      <datestamp>2017-01-14T14:45:06Z</datestamp>
      <setSpec>user-biosyslit</setSpec>
    </header>
    <header>
      <identifier>oai:zenodo.org:272098</identifier>
      <datestamp>2017-02-08T03:40:04Z</datestamp>
      <setSpec>user-biosyslit</setSpec>
    </header>
    <header>
      <identifier>oai:zenodo.org:244678</identifier>
      <datestamp>2017-01-15T01:10:10Z</datestamp>
      <setSpec>user-biosyslit</setSpec>
    </header>
    <header>
      <identifier>oai:zenodo.org:243917</identifier>
      <datestamp>2017-01-14T13:07:49Z</datestamp>
      <setSpec>user-biosyslit</setSpec>
    </header>
    <header>
      <identifier>oai:zenodo.org:244324</identifier>
      <datestamp>2017-01-14T19:50:55Z</datestamp>
      <setSpec>user-biosyslit</setSpec>
    </header>
    <header>
      <identifier>oai:zenodo.org:244810</identifier>
      <datestamp>2017-01-15T02:44:53Z</datestamp>
      <setSpec>user-biosyslit</setSpec>
    </header>
    <header>
      <identifier>oai:zenodo.org:272242</identifier>
      <datestamp>2017-02-08T04:04:32Z</datestamp>
      <setSpec>user-biosyslit</setSpec>
    </header>
    <header>
      <identifier>oai:zenodo.org:272238</identifier>
      <datestamp>2017-02-08T04:05:11Z</datestamp>
      <setSpec>user-biosyslit</setSpec>
    </header>
    <header>
      <identifier>oai:zenodo.org:244864</identifier>
      <datestamp>2017-01-15T04:19:51Z</datestamp>
      <setSpec>user-biosyslit</setSpec>
    </header>
    <header>
      <identifier>oai:zenodo.org:245616</identifier>
      <datestamp>2017-01-15T16:39:33Z</datestamp>
      <setSpec>user-biosyslit</setSpec>
    </header>
    <resumptionToken expirationDate="2017-08-31T15:45:57Z" cursor="44800" completeListSize="77796">.eJyNysEKgjAYAOB3-c8S_1y2ErqIJR5SbCnpJWyKlMvEFenCd89L5zp_3xtUWRZg42y1QqRIFowRy2KmAUp0dylPl0lBHBMpGhnnXvLc3xJMzYoFrup3bkoDXWN4I5pvI_NIln18wSE6xI9U7_uE-i-OG7bT0RBc_ekVNPRkdvZaHjeO5GbRhZto4MThGRXfR_58-udz1RoMaPOqBHtuoQH1K-8qBfZ7HD9kLVEC.DInAPQ.s1LXaKpxG1Dhwv7ZHbmEZdq5Hzo</resumptionToken>
  </ListIdentifiers>
</OAI-PMH>
