<?xml version='1.0' encoding='UTF-8'?>
<?xml-stylesheet type="text/xsl" href="/static/xsl/oai2.v1.0.xsl"?>
<OAI-PMH xmlns="http://www.openarchives.org/OAI/2.0/" xmlns:xsi="http://www.w3.org/2001/XMLSchema-instance" xsi:schemaLocation="http://www.openarchives.org/OAI/2.0/ http://www.openarchives.org/OAI/2.0/OAI-PMH.xsd">
  <responseDate>2017-08-31T15:43:50Z</responseDate>
  <request verb="ListIdentifiers" resumptionToken=".eJyNyssKgkAUANB_uWuJeZQvaCOWuFCxySHdhKmIOVo4hTrSv9emda3PWUBWVQk2WlnmBm0s09KxoZtYpxrIYrgJcW4-DMWJi6IXSe7x56HjKCW1EbpyCtyUhqpFUYcV28fkhM0padAcH5NHqg4Tp_7I0M4IVDyHV__zShp5Irt4d5b0jmCkHKJdPDPssIwW34f_fOrnc-UWNLjndQX2mhIN2jEfagn28nq9Aa-4UU8.DInANg.bFEHBqRX0i7rXySOjHB3SJpdPRU">https://zenodo.org/oai2d</request>
  <ListIdentifiers>
    <header>
      <identifier>oai:zenodo.org:345945</identifier>
      <datestamp>2017-03-07T07:05:15Z</datestamp>
      <setSpec>openaire</setSpec>
      <setSpec>user-biosyslit</setSpec>
    </header>
    <header>
      <identifier>oai:zenodo.org:280525</identifier>
      <datestamp>2017-02-09T03:34:07Z</datestamp>
      <setSpec>user-biosyslit</setSpec>
    </header>
    <header>
      <identifier>oai:zenodo.org:280521</identifier>
      <datestamp>2017-02-09T03:33:57Z</datestamp>
      <setSpec>user-biosyslit</setSpec>
    </header>
    <header>
      <identifier>oai:zenodo.org:280374</identifier>
      <datestamp>2017-02-09T03:16:28Z</datestamp>
      <setSpec>user-biosyslit</setSpec>
    </header>
    <header>
      <identifier>oai:zenodo.org:279942</identifier>
      <datestamp>2017-02-09T02:20:49Z</datestamp>
      <setSpec>user-biosyslit</setSpec>
    </header>
    <header>
      <identifier>oai:zenodo.org:280384</identifier>
      <datestamp>2017-02-09T03:18:22Z</datestamp>
      <setSpec>user-biosyslit</setSpec>
    </header>
    <header>
      <identifier>oai:zenodo.org:280683</identifier>
      <datestamp>2017-02-09T03:51:39Z</datestamp>
      <setSpec>user-biosyslit</setSpec>
    </header>
    <header>
      <identifier>oai:zenodo.org:344083</identifier>
      <datestamp>2017-02-28T23:48:38Z</datestamp>
      <setSpec>user-biosyslit</setSpec>
    </header>
    <header>
      <identifier>oai:zenodo.org:344303</identifier>
      <datestamp>2017-02-28T23:42:10Z</datestamp>
      <setSpec>user-biosyslit</setSpec>
    </header>
    <header>
      <identifier>oai:zenodo.org:344373</identifier>
      <datestamp>2017-02-28T23:40:33Z</datestamp>
      <setSpec>user-biosyslit</setSpec>
    </header>
    <header>
      <identifier>oai:zenodo.org:344286</identifier>
      <datestamp>2017-02-28T23:42:31Z</datestamp>
      <setSpec>user-biosyslit</setSpec>
    </header>
    <header>
      <identifier>oai:zenodo.org:344769</identifier>
      <datestamp>2017-03-01T08:54:25Z</datestamp>
      <setSpec>user-biosyslit</setSpec>
    </header>
    <header>
      <identifier>oai:zenodo.org:344871</identifier>
      <datestamp>2017-03-02T07:46:39Z</datestamp>
      <setSpec>user-biosyslit</setSpec>
    </header>
    <header>
      <identifier>oai:zenodo.org:345198</identifier>
      <datestamp>2017-03-03T08:18:34Z</datestamp>
      <setSpec>user-biosyslit</setSpec>
    </header>
    <header>
      <identifier>oai:zenodo.org:345821</identifier>
      <datestamp>2017-03-06T09:15:21Z</datestamp>
      <setSpec>user-biosyslit</setSpec>
    </header>
    <header>
      <identifier>oai:zenodo.org:281047</identifier>
      <datestamp>2017-02-09T04:37:38Z</datestamp>
      <setSpec>user-biosyslit</setSpec>
    </header>
    <header>
      <identifier>oai:zenodo.org:281286</identifier>
      <datestamp>2017-02-09T05:04:25Z</datestamp>
      <setSpec>user-biosyslit</setSpec>
    </header>
    <header>
      <identifier>oai:zenodo.org:280447</identifier>
      <datestamp>2017-02-09T03:25:04Z</datestamp>
      <setSpec>user-biosyslit</setSpec>
    </header>
    <header>
      <identifier>oai:zenodo.org:280439</identifier>
      <datestamp>2017-02-09T03:24:46Z</datestamp>
      <setSpec>user-biosyslit</setSpec>
    </header>
    <header>
      <identifier>oai:zenodo.org:280130</identifier>
      <datestamp>2017-02-09T02:45:52Z</datestamp>
      <setSpec>user-biosyslit</setSpec>
    </header>
    <header>
      <identifier>oai:zenodo.org:280258</identifier>
      <datestamp>2017-02-09T03:04:23Z</datestamp>
      <setSpec>user-biosyslit</setSpec>
    </header>
    <header>
      <identifier>oai:zenodo.org:280509</identifier>
      <datestamp>2017-02-09T03:32:20Z</datestamp>
      <setSpec>user-biosyslit</setSpec>
    </header>
    <header>
      <identifier>oai:zenodo.org:280040</identifier>
      <datestamp>2017-02-09T02:33:09Z</datestamp>
      <setSpec>user-biosyslit</setSpec>
    </header>
    <header>
      <identifier>oai:zenodo.org:280995</identifier>
      <datestamp>2017-02-09T04:32:37Z</datestamp>
      <setSpec>user-biosyslit</setSpec>
    </header>
    <header>
      <identifier>oai:zenodo.org:281446</identifier>
      <datestamp>2017-02-09T05:19:19Z</datestamp>
      <setSpec>user-biosyslit</setSpec>
    </header>
    <header>
      <identifier>oai:zenodo.org:280386</identifier>
      <datestamp>2017-02-09T03:18:29Z</datestamp>
      <setSpec>user-biosyslit</setSpec>
    </header>
    <header>
      <identifier>oai:zenodo.org:280889</identifier>
      <datestamp>2017-02-09T04:16:52Z</datestamp>
      <setSpec>user-biosyslit</setSpec>
    </header>
    <header>
      <identifier>oai:zenodo.org:579871</identifier>
      <datestamp>2017-05-16T12:53:07Z</datestamp>
      <setSpec>openaire</setSpec>
      <setSpec>user-biosyslit</setSpec>
    </header>
    <header>
      <identifier>oai:zenodo.org:155562</identifier>
      <datestamp>2017-05-16T12:56:44Z</datestamp>
      <setSpec>openaire</setSpec>
      <setSpec>user-biosyslit</setSpec>
    </header>
    <header>
      <identifier>oai:zenodo.org:281147</identifier>
      <datestamp>2017-02-09T04:49:07Z</datestamp>
      <setSpec>user-biosyslit</setSpec>
    </header>
    <header>
      <identifier>oai:zenodo.org:280960</identifier>
      <datestamp>2017-02-09T04:28:58Z</datestamp>
      <setSpec>user-biosyslit</setSpec>
    </header>
    <header>
      <identifier>oai:zenodo.org:579367</identifier>
      <datestamp>2017-05-18T07:02:01Z</datestamp>
      <setSpec>openaire</setSpec>
      <setSpec>user-biosyslit</setSpec>
    </header>
    <header>
      <identifier>oai:zenodo.org:579408</identifier>
      <datestamp>2017-05-18T07:00:56Z</datestamp>
      <setSpec>openaire</setSpec>
      <setSpec>user-biosyslit</setSpec>
    </header>
    <header>
      <identifier>oai:zenodo.org:280885</identifier>
      <datestamp>2017-02-09T04:16:41Z</datestamp>
      <setSpec>user-biosyslit</setSpec>
    </header>
    <header>
      <identifier>oai:zenodo.org:579257</identifier>
      <datestamp>2017-05-18T07:05:27Z</datestamp>
      <setSpec>openaire</setSpec>
      <setSpec>user-biosyslit</setSpec>
    </header>
    <header>
      <identifier>oai:zenodo.org:579200</identifier>
      <datestamp>2017-05-18T07:06:42Z</datestamp>
      <setSpec>openaire</setSpec>
      <setSpec>user-biosyslit</setSpec>
    </header>
    <header>
      <identifier>oai:zenodo.org:579254</identifier>
      <datestamp>2017-05-18T07:05:29Z</datestamp>
      <setSpec>openaire</setSpec>
      <setSpec>user-biosyslit</setSpec>
    </header>
    <header>
      <identifier>oai:zenodo.org:579305</identifier>
      <datestamp>2017-05-18T07:03:33Z</datestamp>
      <setSpec>openaire</setSpec>
      <setSpec>user-biosyslit</setSpec>
    </header>
    <header>
      <identifier>oai:zenodo.org:579190</identifier>
      <datestamp>2017-05-23T13:27:00Z</datestamp>
      <setSpec>openaire</setSpec>
      <setSpec>user-biosyslit</setSpec>
    </header>
    <header>
      <identifier>oai:zenodo.org:580334</identifier>
      <datestamp>2017-05-17T14:02:22Z</datestamp>
      <setSpec>openaire</setSpec>
      <setSpec>user-biosyslit</setSpec>
    </header>
    <header>
      <identifier>oai:zenodo.org:280661</identifier>
      <datestamp>2017-02-09T03:49:14Z</datestamp>
      <setSpec>user-biosyslit</setSpec>
    </header>
    <header>
      <identifier>oai:zenodo.org:580192</identifier>
      <datestamp>2017-05-16T07:49:58Z</datestamp>
      <setSpec>user-biosyslit</setSpec>
    </header>
    <header>
      <identifier>oai:zenodo.org:282011</identifier>
      <datestamp>2017-02-09T06:19:32Z</datestamp>
      <setSpec>user-biosyslit</setSpec>
    </header>
    <header>
      <identifier>oai:zenodo.org:282572</identifier>
      <datestamp>2017-02-09T07:15:11Z</datestamp>
      <setSpec>user-biosyslit</setSpec>
    </header>
    <header>
      <identifier>oai:zenodo.org:281513</identifier>
      <datestamp>2017-02-09T05:26:46Z</datestamp>
      <setSpec>user-biosyslit</setSpec>
    </header>
    <header>
      <identifier>oai:zenodo.org:580546</identifier>
      <datestamp>2017-05-17T08:50:42Z</datestamp>
      <setSpec>user-biosyslit</setSpec>
    </header>
    <header>
      <identifier>oai:zenodo.org:281302</identifier>
      <datestamp>2017-02-09T05:05:59Z</datestamp>
      <setSpec>user-biosyslit</setSpec>
    </header>
    <header>
      <identifier>oai:zenodo.org:279785</identifier>
      <datestamp>2017-02-09T02:03:21Z</datestamp>
      <setSpec>user-biosyslit</setSpec>
    </header>
    <header>
      <identifier>oai:zenodo.org:579537</identifier>
      <datestamp>2017-05-18T06:54:40Z</datestamp>
      <setSpec>openaire</setSpec>
      <setSpec>user-biosyslit</setSpec>
    </header>
    <header>
      <identifier>oai:zenodo.org:280461</identifier>
      <datestamp>2017-02-09T03:27:13Z</datestamp>
      <setSpec>user-biosyslit</setSpec>
    </header>
    <header>
      <identifier>oai:zenodo.org:345219</identifier>
      <datestamp>2017-03-03T08:19:35Z</datestamp>
      <setSpec>user-biosyslit</setSpec>
    </header>
    <header>
      <identifier>oai:zenodo.org:344554</identifier>
      <datestamp>2017-02-28T22:59:44Z</datestamp>
      <setSpec>user-biosyslit</setSpec>
    </header>
    <header>
      <identifier>oai:zenodo.org:345018</identifier>
      <datestamp>2017-03-02T08:46:15Z</datestamp>
      <setSpec>user-biosyslit</setSpec>
    </header>
    <header>
      <identifier>oai:zenodo.org:345032</identifier>
      <datestamp>2017-03-02T08:51:40Z</datestamp>
      <setSpec>user-biosyslit</setSpec>
    </header>
    <header>
      <identifier>oai:zenodo.org:344763</identifier>
      <datestamp>2017-03-01T08:49:46Z</datestamp>
      <setSpec>user-biosyslit</setSpec>
    </header>
    <header>
      <identifier>oai:zenodo.org:345238</identifier>
      <datestamp>2017-03-03T08:36:43Z</datestamp>
      <setSpec>user-biosyslit</setSpec>
    </header>
    <header>
      <identifier>oai:zenodo.org:575642</identifier>
      <datestamp>2017-05-12T08:28:55Z</datestamp>
      <setSpec>user-biosyslit</setSpec>
    </header>
    <header>
      <identifier>oai:zenodo.org:345787</identifier>
      <datestamp>2017-03-06T08:33:13Z</datestamp>
      <setSpec>user-biosyslit</setSpec>
    </header>
    <header>
      <identifier>oai:zenodo.org:279824</identifier>
      <datestamp>2017-02-09T02:07:00Z</datestamp>
      <setSpec>user-biosyslit</setSpec>
    </header>
    <header>
      <identifier>oai:zenodo.org:279768</identifier>
      <datestamp>2017-02-09T02:00:43Z</datestamp>
      <setSpec>user-biosyslit</setSpec>
    </header>
    <header>
      <identifier>oai:zenodo.org:279811</identifier>
      <datestamp>2017-02-09T02:05:34Z</datestamp>
      <setSpec>user-biosyslit</setSpec>
    </header>
    <header>
      <identifier>oai:zenodo.org:279941</identifier>
      <datestamp>2017-02-09T02:20:56Z</datestamp>
      <setSpec>user-biosyslit</setSpec>
    </header>
    <header>
      <identifier>oai:zenodo.org:280339</identifier>
      <datestamp>2017-02-09T03:12:59Z</datestamp>
      <setSpec>user-biosyslit</setSpec>
    </header>
    <header>
      <identifier>oai:zenodo.org:280139</identifier>
      <datestamp>2017-02-09T02:47:19Z</datestamp>
      <setSpec>user-biosyslit</setSpec>
    </header>
    <header>
      <identifier>oai:zenodo.org:280445</identifier>
      <datestamp>2017-02-09T03:25:00Z</datestamp>
      <setSpec>user-biosyslit</setSpec>
    </header>
    <header>
      <identifier>oai:zenodo.org:579255</identifier>
      <datestamp>2017-05-18T07:05:28Z</datestamp>
      <setSpec>openaire</setSpec>
      <setSpec>user-biosyslit</setSpec>
    </header>
    <header>
      <identifier>oai:zenodo.org:579369</identifier>
      <datestamp>2017-05-18T07:01:59Z</datestamp>
      <setSpec>openaire</setSpec>
      <setSpec>user-biosyslit</setSpec>
    </header>
    <header>
      <identifier>oai:zenodo.org:579391</identifier>
      <datestamp>2017-05-18T07:01:19Z</datestamp>
      <setSpec>openaire</setSpec>
      <setSpec>user-biosyslit</setSpec>
    </header>
    <header>
      <identifier>oai:zenodo.org:579531</identifier>
      <datestamp>2017-05-18T06:54:48Z</datestamp>
      <setSpec>openaire</setSpec>
      <setSpec>user-biosyslit</setSpec>
    </header>
    <header>
      <identifier>oai:zenodo.org:280823</identifier>
      <datestamp>2017-02-09T04:09:13Z</datestamp>
      <setSpec>user-biosyslit</setSpec>
    </header>
    <header>
      <identifier>oai:zenodo.org:280688</identifier>
      <datestamp>2017-02-09T03:51:50Z</datestamp>
      <setSpec>user-biosyslit</setSpec>
    </header>
    <header>
      <identifier>oai:zenodo.org:281014</identifier>
      <datestamp>2017-02-09T04:34:07Z</datestamp>
      <setSpec>user-biosyslit</setSpec>
    </header>
    <header>
      <identifier>oai:zenodo.org:280547</identifier>
      <datestamp>2017-02-09T03:36:56Z</datestamp>
      <setSpec>user-biosyslit</setSpec>
    </header>
    <header>
      <identifier>oai:zenodo.org:579343</identifier>
      <datestamp>2017-05-18T07:02:32Z</datestamp>
      <setSpec>openaire</setSpec>
      <setSpec>user-biosyslit</setSpec>
    </header>
    <header>
      <identifier>oai:zenodo.org:579947</identifier>
      <datestamp>2017-05-15T08:58:38Z</datestamp>
      <setSpec>user-biosyslit</setSpec>
    </header>
    <header>
      <identifier>oai:zenodo.org:580216</identifier>
      <datestamp>2017-05-16T08:16:22Z</datestamp>
      <setSpec>user-biosyslit</setSpec>
    </header>
    <header>
      <identifier>oai:zenodo.org:579412</identifier>
      <datestamp>2017-05-18T07:00:30Z</datestamp>
      <setSpec>openaire</setSpec>
      <setSpec>user-biosyslit</setSpec>
    </header>
    <header>
      <identifier>oai:zenodo.org:579325</identifier>
      <datestamp>2017-05-18T07:03:06Z</datestamp>
      <setSpec>openaire</setSpec>
      <setSpec>user-biosyslit</setSpec>
    </header>
    <header>
      <identifier>oai:zenodo.org:580928</identifier>
      <datestamp>2017-05-18T08:14:58Z</datestamp>
      <setSpec>user-biosyslit</setSpec>
    </header>
    <header>
      <identifier>oai:zenodo.org:580563</identifier>
      <datestamp>2017-05-17T09:11:33Z</datestamp>
      <setSpec>user-biosyslit</setSpec>
    </header>
    <header>
      <identifier>oai:zenodo.org:580873</identifier>
      <datestamp>2017-05-18T07:32:22Z</datestamp>
      <setSpec>user-biosyslit</setSpec>
    </header>
    <header>
      <identifier>oai:zenodo.org:580174</identifier>
      <datestamp>2017-05-16T07:37:50Z</datestamp>
      <setSpec>user-biosyslit</setSpec>
    </header>
    <header>
      <identifier>oai:zenodo.org:281151</identifier>
      <datestamp>2017-02-09T04:49:17Z</datestamp>
      <setSpec>user-biosyslit</setSpec>
    </header>
    <header>
      <identifier>oai:zenodo.org:580244</identifier>
      <datestamp>2017-05-16T08:42:46Z</datestamp>
      <setSpec>user-biosyslit</setSpec>
    </header>
    <header>
      <identifier>oai:zenodo.org:580253</identifier>
      <datestamp>2017-05-16T08:49:47Z</datestamp>
      <setSpec>user-biosyslit</setSpec>
    </header>
    <header>
      <identifier>oai:zenodo.org:281065</identifier>
      <datestamp>2017-02-09T04:40:00Z</datestamp>
      <setSpec>user-biosyslit</setSpec>
    </header>
    <header>
      <identifier>oai:zenodo.org:280958</identifier>
      <datestamp>2017-02-09T04:28:52Z</datestamp>
      <setSpec>user-biosyslit</setSpec>
    </header>
    <header>
      <identifier>oai:zenodo.org:580932</identifier>
      <datestamp>2017-05-18T08:15:14Z</datestamp>
      <setSpec>user-biosyslit</setSpec>
    </header>
    <header>
      <identifier>oai:zenodo.org:280766</identifier>
      <datestamp>2017-02-09T04:02:58Z</datestamp>
      <setSpec>user-biosyslit</setSpec>
    </header>
    <header>
      <identifier>oai:zenodo.org:281024</identifier>
      <datestamp>2017-02-09T04:34:32Z</datestamp>
      <setSpec>user-biosyslit</setSpec>
    </header>
    <header>
      <identifier>oai:zenodo.org:280178</identifier>
      <datestamp>2017-02-09T02:53:50Z</datestamp>
      <setSpec>user-biosyslit</setSpec>
    </header>
    <header>
      <identifier>oai:zenodo.org:279937</identifier>
      <datestamp>2017-02-09T02:19:49Z</datestamp>
      <setSpec>user-biosyslit</setSpec>
    </header>
    <header>
      <identifier>oai:zenodo.org:280098</identifier>
      <datestamp>2017-02-09T02:42:19Z</datestamp>
      <setSpec>user-biosyslit</setSpec>
    </header>
    <header>
      <identifier>oai:zenodo.org:280729</identifier>
      <datestamp>2017-02-09T03:58:35Z</datestamp>
      <setSpec>user-biosyslit</setSpec>
    </header>
    <header>
      <identifier>oai:zenodo.org:280657</identifier>
      <datestamp>2017-02-09T03:48:57Z</datestamp>
      <setSpec>user-biosyslit</setSpec>
    </header>
    <header>
      <identifier>oai:zenodo.org:281069</identifier>
      <datestamp>2017-02-09T04:40:10Z</datestamp>
      <setSpec>user-biosyslit</setSpec>
    </header>
    <header>
      <identifier>oai:zenodo.org:280666</identifier>
      <datestamp>2017-02-09T03:49:26Z</datestamp>
      <setSpec>user-biosyslit</setSpec>
    </header>
    <header>
      <identifier>oai:zenodo.org:280957</identifier>
      <datestamp>2017-02-09T04:28:48Z</datestamp>
      <setSpec>user-biosyslit</setSpec>
    </header>
    <header>
      <identifier>oai:zenodo.org:579234</identifier>
      <datestamp>2017-05-18T07:05:56Z</datestamp>
      <setSpec>openaire</setSpec>
      <setSpec>user-biosyslit</setSpec>
    </header>
    <header>
      <identifier>oai:zenodo.org:579292</identifier>
      <datestamp>2017-05-18T07:03:51Z</datestamp>
      <setSpec>openaire</setSpec>
      <setSpec>user-biosyslit</setSpec>
    </header>
    <resumptionToken expirationDate="2017-08-31T15:45:50Z" cursor="43100" completeListSize="77796">.eJyNykELgjAYxvHv8p4lNicpQhfRxIOKLod2CVMRc5q4Qp343fPSueA5_OH5rSCqqgQTHY6GYag62bcH0XQFRDE-Ob81-w1FynjR8yR32TvuGMrUWg9sMft2RgLZorDDkp4jNcXGnDRoiS7JK5PxzIg3UeTovoyW4OHtriShy693d6BJb3GqlmPoRAvFFr2S4uvwn07-dLY4gQJDXldgaoQo0E75WAsw1237ALCMUVE.DInANg.0otvI-JRYSNdVsZB2_Xi5SAt_iw</resumptionToken>
  </ListIdentifiers>
</OAI-PMH>
