<?xml version='1.0' encoding='UTF-8'?>
<?xml-stylesheet type="text/xsl" href="/static/xsl/oai2.v1.0.xsl"?>
<OAI-PMH xmlns="http://www.openarchives.org/OAI/2.0/" xmlns:xsi="http://www.w3.org/2001/XMLSchema-instance" xsi:schemaLocation="http://www.openarchives.org/OAI/2.0/ http://www.openarchives.org/OAI/2.0/OAI-PMH.xsd">
  <responseDate>2017-08-31T15:41:37Z</responseDate>
  <request verb="ListIdentifiers" resumptionToken=".eJyNyk0LgjAYAOD_8p4lNmfYhC5iiYeUtRzaJWyKmOsDV6QT_3teOtf5eUbQVVWChxYUOZS6NqEEO9glSwu07O5KnZqZQWZCyZtKi1C89leBcrt240D3uyAnsWlRcsWGb5md4VWfNmhgh_SZm30vSPTmaOPuDBviSzS_kiShOp7DB09vvuJ22SUbNnDs8yOR34f_fObnC_QaLHgUdQUedSxo30VXa_DGafoAUylRFA.DIm_sQ.uwsiUHX5Cwz94sDorm4e5L1d3eo">https://zenodo.org/oai2d</request>
  <ListIdentifiers>
    <header>
      <identifier>oai:zenodo.org:257814</identifier>
      <datestamp>2017-01-23T13:30:35Z</datestamp>
      <setSpec>user-biosyslit</setSpec>
    </header>
    <header>
      <identifier>oai:zenodo.org:256952</identifier>
      <datestamp>2017-01-22T23:38:03Z</datestamp>
      <setSpec>user-biosyslit</setSpec>
    </header>
    <header>
      <identifier>oai:zenodo.org:257946</identifier>
      <datestamp>2017-01-23T14:26:03Z</datestamp>
      <setSpec>user-biosyslit</setSpec>
    </header>
    <header>
      <identifier>oai:zenodo.org:258808</identifier>
      <datestamp>2017-01-24T04:55:59Z</datestamp>
      <setSpec>user-biosyslit</setSpec>
    </header>
    <header>
      <identifier>oai:zenodo.org:257202</identifier>
      <datestamp>2017-01-23T03:40:16Z</datestamp>
      <setSpec>user-biosyslit</setSpec>
    </header>
    <header>
      <identifier>oai:zenodo.org:257193</identifier>
      <datestamp>2017-01-23T03:26:01Z</datestamp>
      <setSpec>user-biosyslit</setSpec>
    </header>
    <header>
      <identifier>oai:zenodo.org:258283</identifier>
      <datestamp>2017-01-23T20:19:19Z</datestamp>
      <setSpec>user-biosyslit</setSpec>
    </header>
    <header>
      <identifier>oai:zenodo.org:257657</identifier>
      <datestamp>2017-01-23T11:56:35Z</datestamp>
      <setSpec>user-biosyslit</setSpec>
    </header>
    <header>
      <identifier>oai:zenodo.org:257937</identifier>
      <datestamp>2017-01-23T14:09:59Z</datestamp>
      <setSpec>user-biosyslit</setSpec>
    </header>
    <header>
      <identifier>oai:zenodo.org:258312</identifier>
      <datestamp>2017-01-23T20:39:35Z</datestamp>
      <setSpec>user-biosyslit</setSpec>
    </header>
    <header>
      <identifier>oai:zenodo.org:257608</identifier>
      <datestamp>2017-01-23T11:10:29Z</datestamp>
      <setSpec>user-biosyslit</setSpec>
    </header>
    <header>
      <identifier>oai:zenodo.org:257976</identifier>
      <datestamp>2017-01-23T15:04:42Z</datestamp>
      <setSpec>user-biosyslit</setSpec>
    </header>
    <header>
      <identifier>oai:zenodo.org:259039</identifier>
      <datestamp>2017-01-24T07:31:31Z</datestamp>
      <setSpec>user-biosyslit</setSpec>
    </header>
    <header>
      <identifier>oai:zenodo.org:257690</identifier>
      <datestamp>2017-01-23T12:18:57Z</datestamp>
      <setSpec>user-biosyslit</setSpec>
    </header>
    <header>
      <identifier>oai:zenodo.org:257877</identifier>
      <datestamp>2017-01-23T13:46:03Z</datestamp>
      <setSpec>user-biosyslit</setSpec>
    </header>
    <header>
      <identifier>oai:zenodo.org:258692</identifier>
      <datestamp>2017-01-24T03:04:51Z</datestamp>
      <setSpec>user-biosyslit</setSpec>
    </header>
    <header>
      <identifier>oai:zenodo.org:258571</identifier>
      <datestamp>2017-01-24T00:49:41Z</datestamp>
      <setSpec>user-biosyslit</setSpec>
    </header>
    <header>
      <identifier>oai:zenodo.org:258069</identifier>
      <datestamp>2017-01-23T15:43:33Z</datestamp>
      <setSpec>user-biosyslit</setSpec>
    </header>
    <header>
      <identifier>oai:zenodo.org:258759</identifier>
      <datestamp>2017-01-24T04:28:08Z</datestamp>
      <setSpec>user-biosyslit</setSpec>
    </header>
    <header>
      <identifier>oai:zenodo.org:258008</identifier>
      <datestamp>2017-01-23T15:12:42Z</datestamp>
      <setSpec>user-biosyslit</setSpec>
    </header>
    <header>
      <identifier>oai:zenodo.org:259616</identifier>
      <datestamp>2017-01-28T12:00:21Z</datestamp>
      <setSpec>user-biosyslit</setSpec>
    </header>
    <header>
      <identifier>oai:zenodo.org:258504</identifier>
      <datestamp>2017-01-23T23:51:06Z</datestamp>
      <setSpec>user-biosyslit</setSpec>
    </header>
    <header>
      <identifier>oai:zenodo.org:259266</identifier>
      <datestamp>2017-01-24T09:31:17Z</datestamp>
      <setSpec>user-biosyslit</setSpec>
    </header>
    <header>
      <identifier>oai:zenodo.org:258872</identifier>
      <datestamp>2017-01-24T05:43:05Z</datestamp>
      <setSpec>user-biosyslit</setSpec>
    </header>
    <header>
      <identifier>oai:zenodo.org:259087</identifier>
      <datestamp>2017-01-24T07:49:50Z</datestamp>
      <setSpec>user-biosyslit</setSpec>
    </header>
    <header>
      <identifier>oai:zenodo.org:258749</identifier>
      <datestamp>2017-01-24T04:21:28Z</datestamp>
      <setSpec>user-biosyslit</setSpec>
    </header>
    <header>
      <identifier>oai:zenodo.org:273693</identifier>
      <datestamp>2017-02-08T10:22:07Z</datestamp>
      <setSpec>user-biosyslit</setSpec>
    </header>
    <header>
      <identifier>oai:zenodo.org:259306</identifier>
      <datestamp>2017-01-24T09:50:46Z</datestamp>
      <setSpec>user-biosyslit</setSpec>
    </header>
    <header>
      <identifier>oai:zenodo.org:258766</identifier>
      <datestamp>2017-01-24T04:56:42Z</datestamp>
      <setSpec>user-biosyslit</setSpec>
    </header>
    <header>
      <identifier>oai:zenodo.org:258748</identifier>
      <datestamp>2017-01-24T04:21:22Z</datestamp>
      <setSpec>user-biosyslit</setSpec>
    </header>
    <header>
      <identifier>oai:zenodo.org:259110</identifier>
      <datestamp>2017-01-24T07:49:36Z</datestamp>
      <setSpec>user-biosyslit</setSpec>
    </header>
    <header>
      <identifier>oai:zenodo.org:259293</identifier>
      <datestamp>2017-01-24T09:50:05Z</datestamp>
      <setSpec>user-biosyslit</setSpec>
    </header>
    <header>
      <identifier>oai:zenodo.org:259031</identifier>
      <datestamp>2017-01-24T07:31:08Z</datestamp>
      <setSpec>user-biosyslit</setSpec>
    </header>
    <header>
      <identifier>oai:zenodo.org:259695</identifier>
      <datestamp>2017-01-25T15:15:17Z</datestamp>
      <setSpec>user-biosyslit</setSpec>
    </header>
    <header>
      <identifier>oai:zenodo.org:260458</identifier>
      <datestamp>2017-01-27T20:46:08Z</datestamp>
      <setSpec>user-biosyslit</setSpec>
    </header>
    <header>
      <identifier>oai:zenodo.org:260462</identifier>
      <datestamp>2017-01-27T20:46:18Z</datestamp>
      <setSpec>user-biosyslit</setSpec>
    </header>
    <header>
      <identifier>oai:zenodo.org:259714</identifier>
      <datestamp>2017-01-25T15:27:30Z</datestamp>
      <setSpec>user-biosyslit</setSpec>
    </header>
    <header>
      <identifier>oai:zenodo.org:260583</identifier>
      <datestamp>2017-01-27T22:07:30Z</datestamp>
      <setSpec>user-biosyslit</setSpec>
    </header>
    <header>
      <identifier>oai:zenodo.org:260640</identifier>
      <datestamp>2017-01-27T22:54:11Z</datestamp>
      <setSpec>user-biosyslit</setSpec>
    </header>
    <header>
      <identifier>oai:zenodo.org:261975</identifier>
      <datestamp>2017-01-28T18:40:49Z</datestamp>
      <setSpec>user-biosyslit</setSpec>
    </header>
    <header>
      <identifier>oai:zenodo.org:274200</identifier>
      <datestamp>2017-02-08T12:22:34Z</datestamp>
      <setSpec>user-biosyslit</setSpec>
    </header>
    <header>
      <identifier>oai:zenodo.org:261522</identifier>
      <datestamp>2017-01-28T09:59:08Z</datestamp>
      <setSpec>user-biosyslit</setSpec>
    </header>
    <header>
      <identifier>oai:zenodo.org:260881</identifier>
      <datestamp>2017-01-28T01:58:54Z</datestamp>
      <setSpec>user-biosyslit</setSpec>
    </header>
    <header>
      <identifier>oai:zenodo.org:260485</identifier>
      <datestamp>2017-01-27T20:47:10Z</datestamp>
      <setSpec>user-biosyslit</setSpec>
    </header>
    <header>
      <identifier>oai:zenodo.org:273392</identifier>
      <datestamp>2017-02-08T09:09:39Z</datestamp>
      <setSpec>user-biosyslit</setSpec>
    </header>
    <header>
      <identifier>oai:zenodo.org:260686</identifier>
      <datestamp>2017-01-27T23:28:02Z</datestamp>
      <setSpec>user-biosyslit</setSpec>
    </header>
    <header>
      <identifier>oai:zenodo.org:273724</identifier>
      <datestamp>2017-02-08T10:28:49Z</datestamp>
      <setSpec>user-biosyslit</setSpec>
    </header>
    <header>
      <identifier>oai:zenodo.org:260642</identifier>
      <datestamp>2017-01-27T22:56:45Z</datestamp>
      <setSpec>user-biosyslit</setSpec>
    </header>
    <header>
      <identifier>oai:zenodo.org:260659</identifier>
      <datestamp>2017-01-27T23:05:30Z</datestamp>
      <setSpec>user-biosyslit</setSpec>
    </header>
    <header>
      <identifier>oai:zenodo.org:274822</identifier>
      <datestamp>2017-02-08T14:30:26Z</datestamp>
      <setSpec>user-biosyslit</setSpec>
    </header>
    <header>
      <identifier>oai:zenodo.org:261687</identifier>
      <datestamp>2017-01-28T13:10:35Z</datestamp>
      <setSpec>user-biosyslit</setSpec>
    </header>
    <header>
      <identifier>oai:zenodo.org:260759</identifier>
      <datestamp>2017-01-28T00:53:02Z</datestamp>
      <setSpec>user-biosyslit</setSpec>
    </header>
    <header>
      <identifier>oai:zenodo.org:273560</identifier>
      <datestamp>2017-02-08T09:53:01Z</datestamp>
      <setSpec>user-biosyslit</setSpec>
    </header>
    <header>
      <identifier>oai:zenodo.org:262043</identifier>
      <datestamp>2017-01-28T19:42:21Z</datestamp>
      <setSpec>user-biosyslit</setSpec>
    </header>
    <header>
      <identifier>oai:zenodo.org:261035</identifier>
      <datestamp>2017-01-28T04:15:27Z</datestamp>
      <setSpec>user-biosyslit</setSpec>
    </header>
    <header>
      <identifier>oai:zenodo.org:260476</identifier>
      <datestamp>2017-01-27T20:46:50Z</datestamp>
      <setSpec>user-biosyslit</setSpec>
    </header>
    <header>
      <identifier>oai:zenodo.org:260742</identifier>
      <datestamp>2017-01-28T00:18:20Z</datestamp>
      <setSpec>user-biosyslit</setSpec>
    </header>
    <header>
      <identifier>oai:zenodo.org:260691</identifier>
      <datestamp>2017-01-27T23:28:15Z</datestamp>
      <setSpec>user-biosyslit</setSpec>
    </header>
    <header>
      <identifier>oai:zenodo.org:260694</identifier>
      <datestamp>2017-01-27T23:28:25Z</datestamp>
      <setSpec>user-biosyslit</setSpec>
    </header>
    <header>
      <identifier>oai:zenodo.org:260737</identifier>
      <datestamp>2017-01-28T00:18:22Z</datestamp>
      <setSpec>user-biosyslit</setSpec>
    </header>
    <header>
      <identifier>oai:zenodo.org:260814</identifier>
      <datestamp>2017-01-28T01:12:13Z</datestamp>
      <setSpec>user-biosyslit</setSpec>
    </header>
    <header>
      <identifier>oai:zenodo.org:261073</identifier>
      <datestamp>2017-01-28T04:46:50Z</datestamp>
      <setSpec>user-biosyslit</setSpec>
    </header>
    <header>
      <identifier>oai:zenodo.org:261068</identifier>
      <datestamp>2017-01-28T04:39:25Z</datestamp>
      <setSpec>user-biosyslit</setSpec>
    </header>
    <header>
      <identifier>oai:zenodo.org:261079</identifier>
      <datestamp>2017-01-28T04:46:01Z</datestamp>
      <setSpec>user-biosyslit</setSpec>
    </header>
    <header>
      <identifier>oai:zenodo.org:261650</identifier>
      <datestamp>2017-01-28T12:14:19Z</datestamp>
      <setSpec>user-biosyslit</setSpec>
    </header>
    <header>
      <identifier>oai:zenodo.org:261039</identifier>
      <datestamp>2017-01-28T04:15:38Z</datestamp>
      <setSpec>user-biosyslit</setSpec>
    </header>
    <header>
      <identifier>oai:zenodo.org:273543</identifier>
      <datestamp>2017-02-08T09:40:09Z</datestamp>
      <setSpec>user-biosyslit</setSpec>
    </header>
    <header>
      <identifier>oai:zenodo.org:261701</identifier>
      <datestamp>2017-01-28T13:22:09Z</datestamp>
      <setSpec>user-biosyslit</setSpec>
    </header>
    <header>
      <identifier>oai:zenodo.org:261371</identifier>
      <datestamp>2017-01-28T08:28:57Z</datestamp>
      <setSpec>user-biosyslit</setSpec>
    </header>
    <header>
      <identifier>oai:zenodo.org:255042</identifier>
      <datestamp>2017-01-21T07:00:45Z</datestamp>
      <setSpec>user-biosyslit</setSpec>
    </header>
    <header>
      <identifier>oai:zenodo.org:255471</identifier>
      <datestamp>2017-01-21T13:46:07Z</datestamp>
      <setSpec>user-biosyslit</setSpec>
    </header>
    <header>
      <identifier>oai:zenodo.org:255796</identifier>
      <datestamp>2017-01-21T22:10:55Z</datestamp>
      <setSpec>user-biosyslit</setSpec>
    </header>
    <header>
      <identifier>oai:zenodo.org:255158</identifier>
      <datestamp>2017-01-21T08:33:32Z</datestamp>
      <setSpec>user-biosyslit</setSpec>
    </header>
    <header>
      <identifier>oai:zenodo.org:255505</identifier>
      <datestamp>2017-01-21T14:25:08Z</datestamp>
      <setSpec>user-biosyslit</setSpec>
    </header>
    <header>
      <identifier>oai:zenodo.org:255358</identifier>
      <datestamp>2017-01-21T12:32:14Z</datestamp>
      <setSpec>user-biosyslit</setSpec>
    </header>
    <header>
      <identifier>oai:zenodo.org:255399</identifier>
      <datestamp>2017-01-21T12:52:39Z</datestamp>
      <setSpec>user-biosyslit</setSpec>
    </header>
    <header>
      <identifier>oai:zenodo.org:255249</identifier>
      <datestamp>2017-01-21T10:16:34Z</datestamp>
      <setSpec>user-biosyslit</setSpec>
    </header>
    <header>
      <identifier>oai:zenodo.org:255923</identifier>
      <datestamp>2017-01-22T00:15:04Z</datestamp>
      <setSpec>user-biosyslit</setSpec>
    </header>
    <header>
      <identifier>oai:zenodo.org:256286</identifier>
      <datestamp>2017-01-22T10:34:52Z</datestamp>
      <setSpec>user-biosyslit</setSpec>
    </header>
    <header>
      <identifier>oai:zenodo.org:255959</identifier>
      <datestamp>2017-01-22T00:45:21Z</datestamp>
      <setSpec>user-biosyslit</setSpec>
    </header>
    <header>
      <identifier>oai:zenodo.org:257318</identifier>
      <datestamp>2017-01-23T05:14:38Z</datestamp>
      <setSpec>user-biosyslit</setSpec>
    </header>
    <header>
      <identifier>oai:zenodo.org:256567</identifier>
      <datestamp>2017-01-22T17:46:57Z</datestamp>
      <setSpec>user-biosyslit</setSpec>
    </header>
    <header>
      <identifier>oai:zenodo.org:192626</identifier>
      <datestamp>2017-01-09T09:59:08Z</datestamp>
      <setSpec>user-biosyslit</setSpec>
    </header>
    <header>
      <identifier>oai:zenodo.org:257311</identifier>
      <datestamp>2017-01-23T05:10:48Z</datestamp>
      <setSpec>user-biosyslit</setSpec>
    </header>
    <header>
      <identifier>oai:zenodo.org:257403</identifier>
      <datestamp>2017-01-23T06:31:12Z</datestamp>
      <setSpec>user-biosyslit</setSpec>
    </header>
    <header>
      <identifier>oai:zenodo.org:256599</identifier>
      <datestamp>2017-01-22T18:35:38Z</datestamp>
      <setSpec>user-biosyslit</setSpec>
    </header>
    <header>
      <identifier>oai:zenodo.org:256358</identifier>
      <datestamp>2017-01-22T13:18:12Z</datestamp>
      <setSpec>user-biosyslit</setSpec>
    </header>
    <header>
      <identifier>oai:zenodo.org:256852</identifier>
      <datestamp>2017-01-22T21:35:42Z</datestamp>
      <setSpec>user-biosyslit</setSpec>
    </header>
    <header>
      <identifier>oai:zenodo.org:256955</identifier>
      <datestamp>2017-01-22T23:38:11Z</datestamp>
      <setSpec>user-biosyslit</setSpec>
    </header>
    <header>
      <identifier>oai:zenodo.org:257178</identifier>
      <datestamp>2017-01-23T03:15:48Z</datestamp>
      <setSpec>user-biosyslit</setSpec>
    </header>
    <header>
      <identifier>oai:zenodo.org:273355</identifier>
      <datestamp>2017-02-08T09:05:31Z</datestamp>
      <setSpec>user-biosyslit</setSpec>
    </header>
    <header>
      <identifier>oai:zenodo.org:256950</identifier>
      <datestamp>2017-01-22T23:37:57Z</datestamp>
      <setSpec>user-biosyslit</setSpec>
    </header>
    <header>
      <identifier>oai:zenodo.org:257352</identifier>
      <datestamp>2017-01-23T05:42:17Z</datestamp>
      <setSpec>user-biosyslit</setSpec>
    </header>
    <header>
      <identifier>oai:zenodo.org:257014</identifier>
      <datestamp>2017-01-22T23:41:16Z</datestamp>
      <setSpec>user-biosyslit</setSpec>
    </header>
    <header>
      <identifier>oai:zenodo.org:257109</identifier>
      <datestamp>2017-01-23T01:20:53Z</datestamp>
      <setSpec>user-biosyslit</setSpec>
    </header>
    <header>
      <identifier>oai:zenodo.org:256784</identifier>
      <datestamp>2017-01-22T20:36:46Z</datestamp>
      <setSpec>user-biosyslit</setSpec>
    </header>
    <header>
      <identifier>oai:zenodo.org:257718</identifier>
      <datestamp>2017-01-23T12:38:53Z</datestamp>
      <setSpec>user-biosyslit</setSpec>
    </header>
    <header>
      <identifier>oai:zenodo.org:257571</identifier>
      <datestamp>2017-01-23T10:27:21Z</datestamp>
      <setSpec>user-biosyslit</setSpec>
    </header>
    <header>
      <identifier>oai:zenodo.org:257363</identifier>
      <datestamp>2017-01-23T05:42:47Z</datestamp>
      <setSpec>user-biosyslit</setSpec>
    </header>
    <header>
      <identifier>oai:zenodo.org:257259</identifier>
      <datestamp>2017-01-23T04:19:55Z</datestamp>
      <setSpec>user-biosyslit</setSpec>
    </header>
    <resumptionToken expirationDate="2017-08-31T15:43:37Z" cursor="9300" completeListSize="77796">.eJyNz00PQzAAgOH_0rMsrfqaZBdh4oDQkXFZrERMmegWVPz3uey8nd_n8q6AV1UJTHiAWFYMDSJV0Q2IFU2VAKfjk7Fbs3dArymjPUsKN33HXQozudYDm8--neFAtDDskCDnSL4iY04auESX5JWJeE6xNxHo6L6IluDh7a7EocvyuzuQpLcYkcsxdKKFIIvkmH4d-tOJn87mJyCBoagrYB73qXYqxpoDc922D3pDUTs.DIm_sQ.ew2dXkWesot33B3-SYDaMKL2f7I</resumptionToken>
  </ListIdentifiers>
</OAI-PMH>
