<?xml version='1.0' encoding='UTF-8'?>
<?xml-stylesheet type="text/xsl" href="/static/xsl/oai2.v1.0.xsl"?>
<OAI-PMH xmlns="http://www.openarchives.org/OAI/2.0/" xmlns:xsi="http://www.w3.org/2001/XMLSchema-instance" xsi:schemaLocation="http://www.openarchives.org/OAI/2.0/ http://www.openarchives.org/OAI/2.0/OAI-PMH.xsd">
  <responseDate>2017-08-31T15:41:49Z</responseDate>
  <request verb="ListIdentifiers" resumptionToken=".eJyNyj0LgkAYAOD_8s4S91GZQotY4qCil5IuYaeIeZp4hXrSf6-luebnWUCWZQEmWmFEjQ1G-poQHSNjY2gg-XAX4lJ_HPg5EbwTce4kz6hNUEoq3bfl5Nkp9VWDghYrdgzJGe-muEZzeIofqYqmhLojQwfdU-Hs39zPK2jgiOzq9CzuLMFIMQSHcGbYYhnl34f_fOrns-UeNOjzqgQTk60GzZgPlQRzeb3eyAtRZQ.DIm_vQ.8NQQUofyE98IusKIqmqq8AfW7O4">https://zenodo.org/oai2d</request>
  <ListIdentifiers>
    <header>
      <identifier>oai:zenodo.org:236577</identifier>
      <datestamp>2017-01-10T01:40:29Z</datestamp>
      <setSpec>user-biosyslit</setSpec>
    </header>
    <header>
      <identifier>oai:zenodo.org:236543</identifier>
      <datestamp>2017-01-10T01:22:22Z</datestamp>
      <setSpec>user-biosyslit</setSpec>
    </header>
    <header>
      <identifier>oai:zenodo.org:237663</identifier>
      <datestamp>2017-01-10T18:30:05Z</datestamp>
      <setSpec>user-biosyslit</setSpec>
    </header>
    <header>
      <identifier>oai:zenodo.org:236899</identifier>
      <datestamp>2017-01-10T07:57:38Z</datestamp>
      <setSpec>user-biosyslit</setSpec>
    </header>
    <header>
      <identifier>oai:zenodo.org:236598</identifier>
      <datestamp>2017-01-10T01:59:42Z</datestamp>
      <setSpec>user-biosyslit</setSpec>
    </header>
    <header>
      <identifier>oai:zenodo.org:236958</identifier>
      <datestamp>2017-01-10T08:39:35Z</datestamp>
      <setSpec>user-biosyslit</setSpec>
    </header>
    <header>
      <identifier>oai:zenodo.org:289710</identifier>
      <datestamp>2017-02-10T00:21:44Z</datestamp>
      <setSpec>user-biosyslit</setSpec>
    </header>
    <header>
      <identifier>oai:zenodo.org:236900</identifier>
      <datestamp>2017-01-10T07:57:41Z</datestamp>
      <setSpec>user-biosyslit</setSpec>
    </header>
    <header>
      <identifier>oai:zenodo.org:238051</identifier>
      <datestamp>2017-01-11T00:25:21Z</datestamp>
      <setSpec>user-biosyslit</setSpec>
    </header>
    <header>
      <identifier>oai:zenodo.org:237336</identifier>
      <datestamp>2017-01-10T14:27:05Z</datestamp>
      <setSpec>user-biosyslit</setSpec>
    </header>
    <header>
      <identifier>oai:zenodo.org:237543</identifier>
      <datestamp>2017-01-10T16:48:14Z</datestamp>
      <setSpec>user-biosyslit</setSpec>
    </header>
    <header>
      <identifier>oai:zenodo.org:237419</identifier>
      <datestamp>2017-01-13T07:38:02Z</datestamp>
      <setSpec>openaire</setSpec>
      <setSpec>user-biosyslit</setSpec>
    </header>
    <header>
      <identifier>oai:zenodo.org:237135</identifier>
      <datestamp>2017-01-10T11:24:33Z</datestamp>
      <setSpec>user-biosyslit</setSpec>
    </header>
    <header>
      <identifier>oai:zenodo.org:237230</identifier>
      <datestamp>2017-01-10T12:44:39Z</datestamp>
      <setSpec>user-biosyslit</setSpec>
    </header>
    <header>
      <identifier>oai:zenodo.org:237215</identifier>
      <datestamp>2017-01-10T12:08:38Z</datestamp>
      <setSpec>user-biosyslit</setSpec>
    </header>
    <header>
      <identifier>oai:zenodo.org:237232</identifier>
      <datestamp>2017-01-10T12:44:38Z</datestamp>
      <setSpec>user-biosyslit</setSpec>
    </header>
    <header>
      <identifier>oai:zenodo.org:237693</identifier>
      <datestamp>2017-01-10T18:46:31Z</datestamp>
      <setSpec>user-biosyslit</setSpec>
    </header>
    <header>
      <identifier>oai:zenodo.org:238220</identifier>
      <datestamp>2017-01-11T02:23:39Z</datestamp>
      <setSpec>user-biosyslit</setSpec>
    </header>
    <header>
      <identifier>oai:zenodo.org:289714</identifier>
      <datestamp>2017-02-10T00:21:55Z</datestamp>
      <setSpec>user-biosyslit</setSpec>
    </header>
    <header>
      <identifier>oai:zenodo.org:239157</identifier>
      <datestamp>2017-01-11T17:08:32Z</datestamp>
      <setSpec>user-biosyslit</setSpec>
    </header>
    <header>
      <identifier>oai:zenodo.org:239026</identifier>
      <datestamp>2017-01-11T14:57:41Z</datestamp>
      <setSpec>user-biosyslit</setSpec>
    </header>
    <header>
      <identifier>oai:zenodo.org:238835</identifier>
      <datestamp>2017-01-11T11:25:16Z</datestamp>
      <setSpec>user-biosyslit</setSpec>
    </header>
    <header>
      <identifier>oai:zenodo.org:237951</identifier>
      <datestamp>2017-01-10T22:50:34Z</datestamp>
      <setSpec>user-biosyslit</setSpec>
    </header>
    <header>
      <identifier>oai:zenodo.org:271332</identifier>
      <datestamp>2017-02-08T01:21:48Z</datestamp>
      <setSpec>user-biosyslit</setSpec>
    </header>
    <header>
      <identifier>oai:zenodo.org:238097</identifier>
      <datestamp>2017-01-11T00:58:00Z</datestamp>
      <setSpec>user-biosyslit</setSpec>
    </header>
    <header>
      <identifier>oai:zenodo.org:239016</identifier>
      <datestamp>2017-01-11T14:58:13Z</datestamp>
      <setSpec>user-biosyslit</setSpec>
    </header>
    <header>
      <identifier>oai:zenodo.org:238150</identifier>
      <datestamp>2017-01-11T01:44:05Z</datestamp>
      <setSpec>user-biosyslit</setSpec>
    </header>
    <header>
      <identifier>oai:zenodo.org:239311</identifier>
      <datestamp>2017-01-11T18:50:43Z</datestamp>
      <setSpec>user-biosyslit</setSpec>
    </header>
    <header>
      <identifier>oai:zenodo.org:238592</identifier>
      <datestamp>2017-01-11T07:58:08Z</datestamp>
      <setSpec>user-biosyslit</setSpec>
    </header>
    <header>
      <identifier>oai:zenodo.org:239238</identifier>
      <datestamp>2017-01-11T18:45:50Z</datestamp>
      <setSpec>user-biosyslit</setSpec>
    </header>
    <header>
      <identifier>oai:zenodo.org:239307</identifier>
      <datestamp>2017-01-11T18:50:23Z</datestamp>
      <setSpec>user-biosyslit</setSpec>
    </header>
    <header>
      <identifier>oai:zenodo.org:239406</identifier>
      <datestamp>2017-01-11T20:05:47Z</datestamp>
      <setSpec>user-biosyslit</setSpec>
    </header>
    <header>
      <identifier>oai:zenodo.org:238587</identifier>
      <datestamp>2017-01-11T07:58:22Z</datestamp>
      <setSpec>user-biosyslit</setSpec>
    </header>
    <header>
      <identifier>oai:zenodo.org:239401</identifier>
      <datestamp>2017-01-11T20:05:28Z</datestamp>
      <setSpec>user-biosyslit</setSpec>
    </header>
    <header>
      <identifier>oai:zenodo.org:240543</identifier>
      <datestamp>2017-01-12T10:03:34Z</datestamp>
      <setSpec>user-biosyslit</setSpec>
    </header>
    <header>
      <identifier>oai:zenodo.org:239041</identifier>
      <datestamp>2017-01-11T15:45:31Z</datestamp>
      <setSpec>user-biosyslit</setSpec>
    </header>
    <header>
      <identifier>oai:zenodo.org:239998</identifier>
      <datestamp>2017-01-12T03:22:42Z</datestamp>
      <setSpec>user-biosyslit</setSpec>
    </header>
    <header>
      <identifier>oai:zenodo.org:241027</identifier>
      <datestamp>2017-01-12T19:07:02Z</datestamp>
      <setSpec>user-biosyslit</setSpec>
    </header>
    <header>
      <identifier>oai:zenodo.org:239768</identifier>
      <datestamp>2017-01-12T00:45:03Z</datestamp>
      <setSpec>user-biosyslit</setSpec>
    </header>
    <header>
      <identifier>oai:zenodo.org:240028</identifier>
      <datestamp>2017-01-12T03:54:59Z</datestamp>
      <setSpec>user-biosyslit</setSpec>
    </header>
    <header>
      <identifier>oai:zenodo.org:239662</identifier>
      <datestamp>2017-01-11T23:27:36Z</datestamp>
      <setSpec>user-biosyslit</setSpec>
    </header>
    <header>
      <identifier>oai:zenodo.org:240111</identifier>
      <datestamp>2017-01-12T04:50:07Z</datestamp>
      <setSpec>user-biosyslit</setSpec>
    </header>
    <header>
      <identifier>oai:zenodo.org:240488</identifier>
      <datestamp>2017-01-12T09:05:34Z</datestamp>
      <setSpec>user-biosyslit</setSpec>
    </header>
    <header>
      <identifier>oai:zenodo.org:239834</identifier>
      <datestamp>2017-01-12T01:30:28Z</datestamp>
      <setSpec>user-biosyslit</setSpec>
    </header>
    <header>
      <identifier>oai:zenodo.org:240768</identifier>
      <datestamp>2017-01-12T13:43:46Z</datestamp>
      <setSpec>user-biosyslit</setSpec>
    </header>
    <header>
      <identifier>oai:zenodo.org:241094</identifier>
      <datestamp>2017-01-12T19:58:24Z</datestamp>
      <setSpec>user-biosyslit</setSpec>
    </header>
    <header>
      <identifier>oai:zenodo.org:240643</identifier>
      <datestamp>2017-01-12T11:08:32Z</datestamp>
      <setSpec>user-biosyslit</setSpec>
    </header>
    <header>
      <identifier>oai:zenodo.org:241021</identifier>
      <datestamp>2017-01-12T19:06:40Z</datestamp>
      <setSpec>user-biosyslit</setSpec>
    </header>
    <header>
      <identifier>oai:zenodo.org:240112</identifier>
      <datestamp>2017-01-12T04:50:09Z</datestamp>
      <setSpec>user-biosyslit</setSpec>
    </header>
    <header>
      <identifier>oai:zenodo.org:240813</identifier>
      <datestamp>2017-01-12T14:19:07Z</datestamp>
      <setSpec>user-biosyslit</setSpec>
    </header>
    <header>
      <identifier>oai:zenodo.org:240833</identifier>
      <datestamp>2017-01-12T14:44:06Z</datestamp>
      <setSpec>user-biosyslit</setSpec>
    </header>
    <header>
      <identifier>oai:zenodo.org:271303</identifier>
      <datestamp>2017-02-08T01:16:16Z</datestamp>
      <setSpec>user-biosyslit</setSpec>
    </header>
    <header>
      <identifier>oai:zenodo.org:241642</identifier>
      <datestamp>2017-01-13T04:12:18Z</datestamp>
      <setSpec>user-biosyslit</setSpec>
    </header>
    <header>
      <identifier>oai:zenodo.org:241079</identifier>
      <datestamp>2017-01-12T19:37:03Z</datestamp>
      <setSpec>user-biosyslit</setSpec>
    </header>
    <header>
      <identifier>oai:zenodo.org:240507</identifier>
      <datestamp>2017-01-12T09:44:29Z</datestamp>
      <setSpec>user-biosyslit</setSpec>
    </header>
    <header>
      <identifier>oai:zenodo.org:271336</identifier>
      <datestamp>2017-02-08T01:22:01Z</datestamp>
      <setSpec>user-biosyslit</setSpec>
    </header>
    <header>
      <identifier>oai:zenodo.org:240482</identifier>
      <datestamp>2017-01-12T09:05:19Z</datestamp>
      <setSpec>user-biosyslit</setSpec>
    </header>
    <header>
      <identifier>oai:zenodo.org:241339</identifier>
      <datestamp>2017-01-13T00:11:44Z</datestamp>
      <setSpec>user-biosyslit</setSpec>
    </header>
    <header>
      <identifier>oai:zenodo.org:272027</identifier>
      <datestamp>2017-02-08T03:21:47Z</datestamp>
      <setSpec>user-biosyslit</setSpec>
    </header>
    <header>
      <identifier>oai:zenodo.org:276322</identifier>
      <datestamp>2017-02-08T18:38:01Z</datestamp>
      <setSpec>user-biosyslit</setSpec>
    </header>
    <header>
      <identifier>oai:zenodo.org:271590</identifier>
      <datestamp>2017-02-08T02:00:28Z</datestamp>
      <setSpec>user-biosyslit</setSpec>
    </header>
    <header>
      <identifier>oai:zenodo.org:271378</identifier>
      <datestamp>2017-02-08T01:34:05Z</datestamp>
      <setSpec>user-biosyslit</setSpec>
    </header>
    <header>
      <identifier>oai:zenodo.org:289312</identifier>
      <datestamp>2017-02-09T23:12:00Z</datestamp>
      <setSpec>user-biosyslit</setSpec>
    </header>
    <header>
      <identifier>oai:zenodo.org:271854</identifier>
      <datestamp>2017-02-08T02:45:42Z</datestamp>
      <setSpec>user-biosyslit</setSpec>
    </header>
    <header>
      <identifier>oai:zenodo.org:241561</identifier>
      <datestamp>2017-01-13T03:21:10Z</datestamp>
      <setSpec>user-biosyslit</setSpec>
    </header>
    <header>
      <identifier>oai:zenodo.org:271996</identifier>
      <datestamp>2017-02-08T03:15:47Z</datestamp>
      <setSpec>user-biosyslit</setSpec>
    </header>
    <header>
      <identifier>oai:zenodo.org:272099</identifier>
      <datestamp>2017-02-08T03:40:06Z</datestamp>
      <setSpec>user-biosyslit</setSpec>
    </header>
    <header>
      <identifier>oai:zenodo.org:288729</identifier>
      <datestamp>2017-02-09T21:49:30Z</datestamp>
      <setSpec>user-biosyslit</setSpec>
    </header>
    <header>
      <identifier>oai:zenodo.org:271613</identifier>
      <datestamp>2017-02-08T02:03:35Z</datestamp>
      <setSpec>user-biosyslit</setSpec>
    </header>
    <header>
      <identifier>oai:zenodo.org:272069</identifier>
      <datestamp>2017-02-08T03:27:28Z</datestamp>
      <setSpec>user-biosyslit</setSpec>
    </header>
    <header>
      <identifier>oai:zenodo.org:233351</identifier>
      <datestamp>2017-01-08T03:44:09Z</datestamp>
      <setSpec>user-biosyslit</setSpec>
    </header>
    <header>
      <identifier>oai:zenodo.org:233074</identifier>
      <datestamp>2017-01-07T23:49:55Z</datestamp>
      <setSpec>user-biosyslit</setSpec>
    </header>
    <header>
      <identifier>oai:zenodo.org:235119</identifier>
      <datestamp>2017-01-09T05:44:39Z</datestamp>
      <setSpec>user-biosyslit</setSpec>
    </header>
    <header>
      <identifier>oai:zenodo.org:233811</identifier>
      <datestamp>2017-01-08T12:10:13Z</datestamp>
      <setSpec>user-biosyslit</setSpec>
    </header>
    <header>
      <identifier>oai:zenodo.org:233666</identifier>
      <datestamp>2017-01-08T09:26:07Z</datestamp>
      <setSpec>user-biosyslit</setSpec>
    </header>
    <header>
      <identifier>oai:zenodo.org:233146</identifier>
      <datestamp>2017-01-08T01:20:50Z</datestamp>
      <setSpec>user-biosyslit</setSpec>
    </header>
    <header>
      <identifier>oai:zenodo.org:234384</identifier>
      <datestamp>2017-01-08T19:01:34Z</datestamp>
      <setSpec>user-biosyslit</setSpec>
    </header>
    <header>
      <identifier>oai:zenodo.org:270755</identifier>
      <datestamp>2017-02-07T23:55:00Z</datestamp>
      <setSpec>user-biosyslit</setSpec>
    </header>
    <header>
      <identifier>oai:zenodo.org:234810</identifier>
      <datestamp>2017-01-09T02:21:39Z</datestamp>
      <setSpec>user-biosyslit</setSpec>
    </header>
    <header>
      <identifier>oai:zenodo.org:234115</identifier>
      <datestamp>2017-01-08T15:13:47Z</datestamp>
      <setSpec>user-biosyslit</setSpec>
    </header>
    <header>
      <identifier>oai:zenodo.org:233759</identifier>
      <datestamp>2017-01-08T11:28:36Z</datestamp>
      <setSpec>user-biosyslit</setSpec>
    </header>
    <header>
      <identifier>oai:zenodo.org:235429</identifier>
      <datestamp>2017-01-09T09:59:39Z</datestamp>
      <setSpec>user-biosyslit</setSpec>
    </header>
    <header>
      <identifier>oai:zenodo.org:235114</identifier>
      <datestamp>2017-01-09T05:44:21Z</datestamp>
      <setSpec>user-biosyslit</setSpec>
    </header>
    <header>
      <identifier>oai:zenodo.org:234641</identifier>
      <datestamp>2017-01-08T23:11:00Z</datestamp>
      <setSpec>user-biosyslit</setSpec>
    </header>
    <header>
      <identifier>oai:zenodo.org:234604</identifier>
      <datestamp>2017-01-08T22:36:49Z</datestamp>
      <setSpec>user-biosyslit</setSpec>
    </header>
    <header>
      <identifier>oai:zenodo.org:235123</identifier>
      <datestamp>2017-01-09T05:44:52Z</datestamp>
      <setSpec>user-biosyslit</setSpec>
    </header>
    <header>
      <identifier>oai:zenodo.org:235529</identifier>
      <datestamp>2017-01-09T11:33:34Z</datestamp>
      <setSpec>user-biosyslit</setSpec>
    </header>
    <header>
      <identifier>oai:zenodo.org:235111</identifier>
      <datestamp>2017-01-09T05:37:34Z</datestamp>
      <setSpec>user-biosyslit</setSpec>
    </header>
    <header>
      <identifier>oai:zenodo.org:288728</identifier>
      <datestamp>2017-02-09T21:49:28Z</datestamp>
      <setSpec>user-biosyslit</setSpec>
    </header>
    <header>
      <identifier>oai:zenodo.org:234899</identifier>
      <datestamp>2017-01-09T03:13:54Z</datestamp>
      <setSpec>user-biosyslit</setSpec>
    </header>
    <header>
      <identifier>oai:zenodo.org:236602</identifier>
      <datestamp>2017-01-10T01:59:17Z</datestamp>
      <setSpec>user-biosyslit</setSpec>
    </header>
    <header>
      <identifier>oai:zenodo.org:235499</identifier>
      <datestamp>2017-01-09T10:41:59Z</datestamp>
      <setSpec>user-biosyslit</setSpec>
    </header>
    <header>
      <identifier>oai:zenodo.org:236683</identifier>
      <datestamp>2017-01-10T02:53:18Z</datestamp>
      <setSpec>user-biosyslit</setSpec>
    </header>
    <header>
      <identifier>oai:zenodo.org:235433</identifier>
      <datestamp>2017-01-09T09:59:49Z</datestamp>
      <setSpec>user-biosyslit</setSpec>
    </header>
    <header>
      <identifier>oai:zenodo.org:270853</identifier>
      <datestamp>2017-02-08T00:06:15Z</datestamp>
      <setSpec>user-biosyslit</setSpec>
    </header>
    <header>
      <identifier>oai:zenodo.org:237062</identifier>
      <datestamp>2017-01-10T10:23:02Z</datestamp>
      <setSpec>user-biosyslit</setSpec>
    </header>
    <header>
      <identifier>oai:zenodo.org:236740</identifier>
      <datestamp>2017-01-10T03:58:48Z</datestamp>
      <setSpec>user-biosyslit</setSpec>
    </header>
    <header>
      <identifier>oai:zenodo.org:237874</identifier>
      <datestamp>2017-01-10T22:05:27Z</datestamp>
      <setSpec>user-biosyslit</setSpec>
    </header>
    <header>
      <identifier>oai:zenodo.org:235645</identifier>
      <datestamp>2017-01-09T13:12:05Z</datestamp>
      <setSpec>user-biosyslit</setSpec>
    </header>
    <header>
      <identifier>oai:zenodo.org:236392</identifier>
      <datestamp>2017-01-09T23:39:34Z</datestamp>
      <setSpec>user-biosyslit</setSpec>
    </header>
    <resumptionToken expirationDate="2017-08-31T15:43:49Z" cursor="12500" completeListSize="77796">.eJyNyjEPQ0AYgOH_8s3S3DlCJV0aKgaEK8HSKCLqqLg2OPHfa-ncLu_yPivwqirBQAdCdFVFRwXtIQSrigS8GJ-M3Zr9Q5HErOhZlNvxO-xilMq15pl8ds2UeKJFfocFvQRygvU5atASXKNXKsI5Js5EkaW5Ili8h7O7kvg2y-72QKP-zKhcjr4VLBSfaUaKr8N_OvHTmfwEEgx5XYGBZU2CdsrHmoOxbtsHymhRaA.DIm_vQ.GC6YzomYEo9G-I7qCyNSOMV72L4</resumptionToken>
  </ListIdentifiers>
</OAI-PMH>
