<?xml version='1.0' encoding='UTF-8'?>
<?xml-stylesheet type="text/xsl" href="/static/xsl/oai2.v1.0.xsl"?>
<OAI-PMH xmlns="http://www.openarchives.org/OAI/2.0/" xmlns:xsi="http://www.w3.org/2001/XMLSchema-instance" xsi:schemaLocation="http://www.openarchives.org/OAI/2.0/ http://www.openarchives.org/OAI/2.0/OAI-PMH.xsd">
  <responseDate>2017-08-31T15:42:04Z</responseDate>
  <request verb="ListIdentifiers" resumptionToken=".eJyNz8EOQzAAgOF36VmWVk1NsoswcUDoCC6LIWLKRLeg4t3nsvN2_r_LvwJeVSXQ4UFRCVE0qB5PCKpEwRLgxfhk7NbsGRRJzIqeRbkdv8MuhqlcE8_ks2um2BMt9Dsk6CWQE6TNUQOX4Bq9UhHOMXYmCi3iimDxHs7uSuzbLLvbA416g1G5HH0rWCgyaIaLr0N_OvHTmfwMJDDkdQV0pO5X7ZSPNQf6um0fotRRQg.DIm_yw.PPUaT7a36l-4d59m5_GYciP0uKs">https://zenodo.org/oai2d</request>
  <ListIdentifiers>
    <header>
      <identifier>oai:zenodo.org:292697</identifier>
      <datestamp>2017-02-16T18:31:43Z</datestamp>
      <setSpec>user-biosyslit</setSpec>
    </header>
    <header>
      <identifier>oai:zenodo.org:292739</identifier>
      <datestamp>2017-02-16T18:34:57Z</datestamp>
      <setSpec>user-biosyslit</setSpec>
    </header>
    <header>
      <identifier>oai:zenodo.org:293616</identifier>
      <datestamp>2017-02-19T13:53:52Z</datestamp>
      <setSpec>user-biosyslit</setSpec>
    </header>
    <header>
      <identifier>oai:zenodo.org:293149</identifier>
      <datestamp>2017-02-18T19:43:49Z</datestamp>
      <setSpec>user-biosyslit</setSpec>
    </header>
    <header>
      <identifier>oai:zenodo.org:293117</identifier>
      <datestamp>2017-02-18T19:32:57Z</datestamp>
      <setSpec>user-biosyslit</setSpec>
    </header>
    <header>
      <identifier>oai:zenodo.org:293171</identifier>
      <datestamp>2017-02-18T19:52:24Z</datestamp>
      <setSpec>user-biosyslit</setSpec>
    </header>
    <header>
      <identifier>oai:zenodo.org:293405</identifier>
      <datestamp>2017-02-19T13:37:18Z</datestamp>
      <setSpec>user-biosyslit</setSpec>
    </header>
    <header>
      <identifier>oai:zenodo.org:293942</identifier>
      <datestamp>2017-02-20T19:01:34Z</datestamp>
      <setSpec>user-biosyslit</setSpec>
    </header>
    <header>
      <identifier>oai:zenodo.org:293476</identifier>
      <datestamp>2017-02-19T13:44:13Z</datestamp>
      <setSpec>user-biosyslit</setSpec>
    </header>
    <header>
      <identifier>oai:zenodo.org:294019</identifier>
      <datestamp>2017-02-20T19:09:09Z</datestamp>
      <setSpec>user-biosyslit</setSpec>
    </header>
    <header>
      <identifier>oai:zenodo.org:306216</identifier>
      <datestamp>2017-02-20T22:52:31Z</datestamp>
      <setSpec>user-biosyslit</setSpec>
    </header>
    <header>
      <identifier>oai:zenodo.org:294144</identifier>
      <datestamp>2017-02-20T19:24:10Z</datestamp>
      <setSpec>user-biosyslit</setSpec>
    </header>
    <header>
      <identifier>oai:zenodo.org:293926</identifier>
      <datestamp>2017-02-20T18:59:50Z</datestamp>
      <setSpec>user-biosyslit</setSpec>
    </header>
    <header>
      <identifier>oai:zenodo.org:294204</identifier>
      <datestamp>2017-02-20T19:28:40Z</datestamp>
      <setSpec>user-biosyslit</setSpec>
    </header>
    <header>
      <identifier>oai:zenodo.org:294171</identifier>
      <datestamp>2017-02-20T19:23:59Z</datestamp>
      <setSpec>user-biosyslit</setSpec>
    </header>
    <header>
      <identifier>oai:zenodo.org:296596</identifier>
      <datestamp>2017-02-20T20:15:29Z</datestamp>
      <setSpec>user-biosyslit</setSpec>
    </header>
    <header>
      <identifier>oai:zenodo.org:296570</identifier>
      <datestamp>2017-02-20T20:15:47Z</datestamp>
      <setSpec>user-biosyslit</setSpec>
    </header>
    <header>
      <identifier>oai:zenodo.org:306148</identifier>
      <datestamp>2017-02-20T22:52:35Z</datestamp>
      <setSpec>user-biosyslit</setSpec>
    </header>
    <header>
      <identifier>oai:zenodo.org:294167</identifier>
      <datestamp>2017-02-20T19:23:51Z</datestamp>
      <setSpec>user-biosyslit</setSpec>
    </header>
    <header>
      <identifier>oai:zenodo.org:305349</identifier>
      <datestamp>2017-02-20T22:38:33Z</datestamp>
      <setSpec>user-biosyslit</setSpec>
    </header>
    <header>
      <identifier>oai:zenodo.org:301100</identifier>
      <datestamp>2017-02-20T21:29:12Z</datestamp>
      <setSpec>user-biosyslit</setSpec>
    </header>
    <header>
      <identifier>oai:zenodo.org:311468</identifier>
      <datestamp>2017-02-21T00:23:10Z</datestamp>
      <setSpec>user-biosyslit</setSpec>
    </header>
    <header>
      <identifier>oai:zenodo.org:312957</identifier>
      <datestamp>2017-02-21T00:52:21Z</datestamp>
      <setSpec>user-biosyslit</setSpec>
    </header>
    <header>
      <identifier>oai:zenodo.org:313311</identifier>
      <datestamp>2017-02-21T00:58:33Z</datestamp>
      <setSpec>user-biosyslit</setSpec>
    </header>
    <header>
      <identifier>oai:zenodo.org:306820</identifier>
      <datestamp>2017-02-20T23:02:39Z</datestamp>
      <setSpec>user-biosyslit</setSpec>
    </header>
    <header>
      <identifier>oai:zenodo.org:313172</identifier>
      <datestamp>2017-02-21T00:55:57Z</datestamp>
      <setSpec>user-biosyslit</setSpec>
    </header>
    <header>
      <identifier>oai:zenodo.org:311102</identifier>
      <datestamp>2017-02-21T00:16:14Z</datestamp>
      <setSpec>user-biosyslit</setSpec>
    </header>
    <header>
      <identifier>oai:zenodo.org:311695</identifier>
      <datestamp>2017-02-21T00:27:59Z</datestamp>
      <setSpec>user-biosyslit</setSpec>
    </header>
    <header>
      <identifier>oai:zenodo.org:312279</identifier>
      <datestamp>2017-02-21T00:41:06Z</datestamp>
      <setSpec>user-biosyslit</setSpec>
    </header>
    <header>
      <identifier>oai:zenodo.org:311155</identifier>
      <datestamp>2017-02-21T00:17:05Z</datestamp>
      <setSpec>user-biosyslit</setSpec>
    </header>
    <header>
      <identifier>oai:zenodo.org:321776</identifier>
      <datestamp>2017-02-23T08:49:41Z</datestamp>
      <setSpec>user-biosyslit</setSpec>
    </header>
    <header>
      <identifier>oai:zenodo.org:313003</identifier>
      <datestamp>2017-02-21T00:52:59Z</datestamp>
      <setSpec>user-biosyslit</setSpec>
    </header>
    <header>
      <identifier>oai:zenodo.org:319969</identifier>
      <datestamp>2017-02-21T03:24:09Z</datestamp>
      <setSpec>user-biosyslit</setSpec>
    </header>
    <header>
      <identifier>oai:zenodo.org:322116</identifier>
      <datestamp>2017-02-24T07:38:30Z</datestamp>
      <setSpec>user-biosyslit</setSpec>
    </header>
    <header>
      <identifier>oai:zenodo.org:322329</identifier>
      <datestamp>2017-02-24T09:47:17Z</datestamp>
      <setSpec>user-biosyslit</setSpec>
    </header>
    <header>
      <identifier>oai:zenodo.org:321295</identifier>
      <datestamp>2017-02-21T12:12:56Z</datestamp>
      <setSpec>user-biosyslit</setSpec>
    </header>
    <header>
      <identifier>oai:zenodo.org:322247</identifier>
      <datestamp>2017-02-24T08:30:56Z</datestamp>
      <setSpec>user-biosyslit</setSpec>
    </header>
    <header>
      <identifier>oai:zenodo.org:321796</identifier>
      <datestamp>2017-02-23T09:09:14Z</datestamp>
      <setSpec>user-biosyslit</setSpec>
    </header>
    <header>
      <identifier>oai:zenodo.org:322069</identifier>
      <datestamp>2017-02-24T07:29:07Z</datestamp>
      <setSpec>user-biosyslit</setSpec>
    </header>
    <header>
      <identifier>oai:zenodo.org:321312</identifier>
      <datestamp>2017-02-21T12:16:34Z</datestamp>
      <setSpec>user-biosyslit</setSpec>
    </header>
    <header>
      <identifier>oai:zenodo.org:322155</identifier>
      <datestamp>2017-02-24T07:35:27Z</datestamp>
      <setSpec>user-biosyslit</setSpec>
    </header>
    <header>
      <identifier>oai:zenodo.org:322082</identifier>
      <datestamp>2017-02-24T07:29:45Z</datestamp>
      <setSpec>user-biosyslit</setSpec>
    </header>
    <header>
      <identifier>oai:zenodo.org:322400</identifier>
      <datestamp>2017-02-24T15:54:17Z</datestamp>
      <setSpec>user-biosyslit</setSpec>
    </header>
    <header>
      <identifier>oai:zenodo.org:321702</identifier>
      <datestamp>2017-02-23T00:15:07Z</datestamp>
      <setSpec>user-biosyslit</setSpec>
    </header>
    <header>
      <identifier>oai:zenodo.org:322405</identifier>
      <datestamp>2017-02-24T15:54:30Z</datestamp>
      <setSpec>user-biosyslit</setSpec>
    </header>
    <header>
      <identifier>oai:zenodo.org:322708</identifier>
      <datestamp>2017-02-27T09:14:04Z</datestamp>
      <setSpec>user-biosyslit</setSpec>
    </header>
    <header>
      <identifier>oai:zenodo.org:573659</identifier>
      <datestamp>2017-05-10T08:33:12Z</datestamp>
      <setSpec>user-biosyslit</setSpec>
    </header>
    <header>
      <identifier>oai:zenodo.org:573649</identifier>
      <datestamp>2017-05-10T08:02:37Z</datestamp>
      <setSpec>user-biosyslit</setSpec>
    </header>
    <header>
      <identifier>oai:zenodo.org:573664</identifier>
      <datestamp>2017-05-10T08:33:33Z</datestamp>
      <setSpec>user-biosyslit</setSpec>
    </header>
    <header>
      <identifier>oai:zenodo.org:573609</identifier>
      <datestamp>2017-05-10T07:26:33Z</datestamp>
      <setSpec>user-biosyslit</setSpec>
    </header>
    <header>
      <identifier>oai:zenodo.org:343828</identifier>
      <datestamp>2017-02-28T09:05:55Z</datestamp>
      <setSpec>user-biosyslit</setSpec>
    </header>
    <header>
      <identifier>oai:zenodo.org:545894</identifier>
      <datestamp>2017-04-13T07:56:55Z</datestamp>
      <setSpec>user-biosyslit</setSpec>
    </header>
    <header>
      <identifier>oai:zenodo.org:344081</identifier>
      <datestamp>2017-02-28T23:48:42Z</datestamp>
      <setSpec>openaire</setSpec>
      <setSpec>user-biosyslit</setSpec>
    </header>
    <header>
      <identifier>oai:zenodo.org:343958</identifier>
      <datestamp>2017-02-28T23:50:31Z</datestamp>
      <setSpec>user-biosyslit</setSpec>
    </header>
    <header>
      <identifier>oai:zenodo.org:575659</identifier>
      <datestamp>2017-05-12T08:29:58Z</datestamp>
      <setSpec>user-biosyslit</setSpec>
    </header>
    <header>
      <identifier>oai:zenodo.org:575648</identifier>
      <datestamp>2017-05-12T08:29:18Z</datestamp>
      <setSpec>user-biosyslit</setSpec>
    </header>
    <header>
      <identifier>oai:zenodo.org:344320</identifier>
      <datestamp>2017-02-28T23:41:47Z</datestamp>
      <setSpec>user-biosyslit</setSpec>
    </header>
    <header>
      <identifier>oai:zenodo.org:344438</identifier>
      <datestamp>2017-02-28T23:25:34Z</datestamp>
      <setSpec>user-biosyslit</setSpec>
    </header>
    <header>
      <identifier>oai:zenodo.org:344131</identifier>
      <datestamp>2017-02-28T23:43:23Z</datestamp>
      <setSpec>user-biosyslit</setSpec>
    </header>
    <header>
      <identifier>oai:zenodo.org:344255</identifier>
      <datestamp>2017-02-28T23:42:52Z</datestamp>
      <setSpec>user-biosyslit</setSpec>
    </header>
    <header>
      <identifier>oai:zenodo.org:344379</identifier>
      <datestamp>2017-02-28T23:40:27Z</datestamp>
      <setSpec>user-biosyslit</setSpec>
    </header>
    <header>
      <identifier>oai:zenodo.org:344366</identifier>
      <datestamp>2017-02-28T23:40:42Z</datestamp>
      <setSpec>user-biosyslit</setSpec>
    </header>
    <header>
      <identifier>oai:zenodo.org:344442</identifier>
      <datestamp>2017-02-28T23:25:28Z</datestamp>
      <setSpec>user-biosyslit</setSpec>
    </header>
    <header>
      <identifier>oai:zenodo.org:344780</identifier>
      <datestamp>2017-03-01T09:10:28Z</datestamp>
      <setSpec>user-biosyslit</setSpec>
    </header>
    <header>
      <identifier>oai:zenodo.org:344833</identifier>
      <datestamp>2017-03-01T12:09:14Z</datestamp>
      <setSpec>user-biosyslit</setSpec>
    </header>
    <header>
      <identifier>oai:zenodo.org:344994</identifier>
      <datestamp>2017-03-02T08:15:33Z</datestamp>
      <setSpec>user-biosyslit</setSpec>
    </header>
    <header>
      <identifier>oai:zenodo.org:344422</identifier>
      <datestamp>2017-02-28T23:26:22Z</datestamp>
      <setSpec>openaire</setSpec>
      <setSpec>user-biosyslit</setSpec>
    </header>
    <header>
      <identifier>oai:zenodo.org:344311</identifier>
      <datestamp>2017-02-28T23:42:02Z</datestamp>
      <setSpec>user-biosyslit</setSpec>
    </header>
    <header>
      <identifier>oai:zenodo.org:344707</identifier>
      <datestamp>2017-03-01T08:17:58Z</datestamp>
      <setSpec>user-biosyslit</setSpec>
    </header>
    <header>
      <identifier>oai:zenodo.org:344774</identifier>
      <datestamp>2017-03-01T09:04:27Z</datestamp>
      <setSpec>user-biosyslit</setSpec>
    </header>
    <header>
      <identifier>oai:zenodo.org:545895</identifier>
      <datestamp>2017-04-13T07:56:59Z</datestamp>
      <setSpec>user-biosyslit</setSpec>
    </header>
    <header>
      <identifier>oai:zenodo.org:345284</identifier>
      <datestamp>2017-03-03T09:16:36Z</datestamp>
      <setSpec>user-biosyslit</setSpec>
    </header>
    <header>
      <identifier>oai:zenodo.org:545761</identifier>
      <datestamp>2017-04-12T08:20:10Z</datestamp>
      <setSpec>user-biosyslit</setSpec>
    </header>
    <header>
      <identifier>oai:zenodo.org:344767</identifier>
      <datestamp>2017-03-01T08:53:03Z</datestamp>
      <setSpec>user-biosyslit</setSpec>
    </header>
    <header>
      <identifier>oai:zenodo.org:345040</identifier>
      <datestamp>2017-03-02T09:01:15Z</datestamp>
      <setSpec>user-biosyslit</setSpec>
    </header>
    <header>
      <identifier>oai:zenodo.org:344982</identifier>
      <datestamp>2017-03-02T08:15:01Z</datestamp>
      <setSpec>user-biosyslit</setSpec>
    </header>
    <header>
      <identifier>oai:zenodo.org:545693</identifier>
      <datestamp>2017-04-12T07:15:26Z</datestamp>
      <setSpec>user-biosyslit</setSpec>
    </header>
    <header>
      <identifier>oai:zenodo.org:345340</identifier>
      <datestamp>2017-03-03T14:01:02Z</datestamp>
      <setSpec>openaire</setSpec>
      <setSpec>user-biosyslit</setSpec>
    </header>
    <header>
      <identifier>oai:zenodo.org:345290</identifier>
      <datestamp>2017-03-03T09:22:13Z</datestamp>
      <setSpec>user-biosyslit</setSpec>
    </header>
    <header>
      <identifier>oai:zenodo.org:345774</identifier>
      <datestamp>2017-03-06T08:20:35Z</datestamp>
      <setSpec>user-biosyslit</setSpec>
    </header>
    <header>
      <identifier>oai:zenodo.org:345790</identifier>
      <datestamp>2017-03-06T08:33:25Z</datestamp>
      <setSpec>user-biosyslit</setSpec>
    </header>
    <header>
      <identifier>oai:zenodo.org:545870</identifier>
      <datestamp>2017-04-13T07:27:08Z</datestamp>
      <setSpec>user-biosyslit</setSpec>
    </header>
    <header>
      <identifier>oai:zenodo.org:545686</identifier>
      <datestamp>2017-04-12T05:26:09Z</datestamp>
      <setSpec>user-biosyslit</setSpec>
    </header>
    <header>
      <identifier>oai:zenodo.org:545714</identifier>
      <datestamp>2017-04-12T07:34:55Z</datestamp>
      <setSpec>user-biosyslit</setSpec>
    </header>
    <header>
      <identifier>oai:zenodo.org:579481</identifier>
      <datestamp>2017-05-18T06:56:07Z</datestamp>
      <setSpec>openaire</setSpec>
      <setSpec>user-biosyslit</setSpec>
    </header>
    <header>
      <identifier>oai:zenodo.org:545896</identifier>
      <datestamp>2017-04-13T07:57:01Z</datestamp>
      <setSpec>user-biosyslit</setSpec>
    </header>
    <header>
      <identifier>oai:zenodo.org:579268</identifier>
      <datestamp>2017-05-18T07:04:24Z</datestamp>
      <setSpec>openaire</setSpec>
      <setSpec>user-biosyslit</setSpec>
    </header>
    <header>
      <identifier>oai:zenodo.org:344035</identifier>
      <datestamp>2017-02-28T23:49:07Z</datestamp>
      <setSpec>openaire</setSpec>
      <setSpec>user-biosyslit</setSpec>
    </header>
    <header>
      <identifier>oai:zenodo.org:344086</identifier>
      <datestamp>2017-02-28T23:48:35Z</datestamp>
      <setSpec>user-biosyslit</setSpec>
    </header>
    <header>
      <identifier>oai:zenodo.org:575336</identifier>
      <datestamp>2017-05-12T08:06:51Z</datestamp>
      <setSpec>user-biosyslit</setSpec>
    </header>
    <header>
      <identifier>oai:zenodo.org:344037</identifier>
      <datestamp>2017-02-28T23:49:06Z</datestamp>
      <setSpec>openaire</setSpec>
      <setSpec>user-biosyslit</setSpec>
    </header>
    <header>
      <identifier>oai:zenodo.org:344306</identifier>
      <datestamp>2017-02-28T23:42:07Z</datestamp>
      <setSpec>user-biosyslit</setSpec>
    </header>
    <header>
      <identifier>oai:zenodo.org:545916</identifier>
      <datestamp>2017-04-13T08:11:47Z</datestamp>
      <setSpec>user-biosyslit</setSpec>
    </header>
    <header>
      <identifier>oai:zenodo.org:344139</identifier>
      <datestamp>2017-02-28T23:43:13Z</datestamp>
      <setSpec>user-biosyslit</setSpec>
    </header>
    <header>
      <identifier>oai:zenodo.org:345215</identifier>
      <datestamp>2017-03-03T08:19:24Z</datestamp>
      <setSpec>user-biosyslit</setSpec>
    </header>
    <header>
      <identifier>oai:zenodo.org:344292</identifier>
      <datestamp>2017-02-28T23:42:25Z</datestamp>
      <setSpec>user-biosyslit</setSpec>
    </header>
    <header>
      <identifier>oai:zenodo.org:344682</identifier>
      <datestamp>2017-03-01T08:05:22Z</datestamp>
      <setSpec>user-biosyslit</setSpec>
    </header>
    <header>
      <identifier>oai:zenodo.org:344705</identifier>
      <datestamp>2017-03-01T08:17:54Z</datestamp>
      <setSpec>user-biosyslit</setSpec>
    </header>
    <header>
      <identifier>oai:zenodo.org:344385</identifier>
      <datestamp>2017-02-28T23:40:16Z</datestamp>
      <setSpec>user-biosyslit</setSpec>
    </header>
    <header>
      <identifier>oai:zenodo.org:344322</identifier>
      <datestamp>2017-02-28T23:41:43Z</datestamp>
      <setSpec>user-biosyslit</setSpec>
    </header>
    <resumptionToken expirationDate="2017-08-31T15:44:04Z" cursor="16200" completeListSize="77796">.eJyNzz0PQ0AAgOH_crM09yGopEtDxYBwPcHSKCLqqLg2OPHfa-nczu-zvCsQVVUCEx4wxLqBiaYfVdXQNKgqQBTjk_Nbs3dQJDEves5yJ35HXQxTXOu-JWbPSokvWxh0SNJLiBNkzKyBS3hlr1RGc0zciUJb92S4-A93dyUJHJ7dnYGy_swpLsfADheKzjQjxdehP5386SxxAgoY8roCJtL2q3bKx1oAc922D9RUUXQ.DIm_zA.ra0KbVtTfkN5yYMhcC7w-xmBKBI</resumptionToken>
  </ListIdentifiers>
</OAI-PMH>
