<?xml version='1.0' encoding='UTF-8'?>
<?xml-stylesheet type="text/xsl" href="/static/xsl/oai2.v1.0.xsl"?>
<OAI-PMH xmlns="http://www.openarchives.org/OAI/2.0/" xmlns:xsi="http://www.w3.org/2001/XMLSchema-instance" xsi:schemaLocation="http://www.openarchives.org/OAI/2.0/ http://www.openarchives.org/OAI/2.0/OAI-PMH.xsd">
  <responseDate>2017-08-31T15:42:33Z</responseDate>
  <request verb="ListIdentifiers" resumptionToken=".eJyNyj0LgkAYAOD_8s4S95GdCC2iSYOKXoq6hKlIeZV4hXrif8-luebnmUHWdQUm2hCEdYIoI8aW6lhnOw1k2T-FOF9XhzJNRPkQceEm7-ieoIw0zLfl6NkZ9VWLgjtW_BCSFBtjfEVTeIpfmYrGhB4HjhzmqXDyb8f1VTRwRX5xOx4_LMFJ1QdOOHFs8ZyW34f_fOrns-UeNOiKpgaTUKZBOxR9I8Gcl-UDxHZRZA.DIm_6Q.CbYP2Wohnp2o4P5S-V9cO892NN4">https://zenodo.org/oai2d</request>
  <ListIdentifiers>
    <header>
      <identifier>oai:zenodo.org:286273</identifier>
      <datestamp>2017-02-09T15:39:36Z</datestamp>
      <setSpec>user-biosyslit</setSpec>
    </header>
    <header>
      <identifier>oai:zenodo.org:279945</identifier>
      <datestamp>2017-02-09T02:21:51Z</datestamp>
      <setSpec>user-biosyslit</setSpec>
    </header>
    <header>
      <identifier>oai:zenodo.org:280497</identifier>
      <datestamp>2017-02-09T03:31:00Z</datestamp>
      <setSpec>user-biosyslit</setSpec>
    </header>
    <header>
      <identifier>oai:zenodo.org:279947</identifier>
      <datestamp>2017-02-09T02:21:20Z</datestamp>
      <setSpec>user-biosyslit</setSpec>
    </header>
    <header>
      <identifier>oai:zenodo.org:279949</identifier>
      <datestamp>2017-02-09T02:21:25Z</datestamp>
      <setSpec>user-biosyslit</setSpec>
    </header>
    <header>
      <identifier>oai:zenodo.org:279953</identifier>
      <datestamp>2017-02-09T02:21:36Z</datestamp>
      <setSpec>user-biosyslit</setSpec>
    </header>
    <header>
      <identifier>oai:zenodo.org:279956</identifier>
      <datestamp>2017-02-09T02:21:49Z</datestamp>
      <setSpec>user-biosyslit</setSpec>
    </header>
    <header>
      <identifier>oai:zenodo.org:258266</identifier>
      <datestamp>2017-01-23T20:04:08Z</datestamp>
      <setSpec>user-biosyslit</setSpec>
    </header>
    <header>
      <identifier>oai:zenodo.org:258270</identifier>
      <datestamp>2017-01-23T20:03:40Z</datestamp>
      <setSpec>user-biosyslit</setSpec>
    </header>
    <header>
      <identifier>oai:zenodo.org:258272</identifier>
      <datestamp>2017-01-23T20:03:46Z</datestamp>
      <setSpec>user-biosyslit</setSpec>
    </header>
    <header>
      <identifier>oai:zenodo.org:258274</identifier>
      <datestamp>2017-01-23T20:03:52Z</datestamp>
      <setSpec>user-biosyslit</setSpec>
    </header>
    <header>
      <identifier>oai:zenodo.org:258279</identifier>
      <datestamp>2017-01-23T20:04:05Z</datestamp>
      <setSpec>user-biosyslit</setSpec>
    </header>
    <header>
      <identifier>oai:zenodo.org:258269</identifier>
      <datestamp>2017-01-23T20:03:36Z</datestamp>
      <setSpec>user-biosyslit</setSpec>
    </header>
    <header>
      <identifier>oai:zenodo.org:258273</identifier>
      <datestamp>2017-01-23T20:03:48Z</datestamp>
      <setSpec>user-biosyslit</setSpec>
    </header>
    <header>
      <identifier>oai:zenodo.org:258280</identifier>
      <datestamp>2017-01-23T20:04:07Z</datestamp>
      <setSpec>user-biosyslit</setSpec>
    </header>
    <header>
      <identifier>oai:zenodo.org:253427</identifier>
      <datestamp>2017-01-20T06:56:20Z</datestamp>
      <setSpec>user-biosyslit</setSpec>
    </header>
    <header>
      <identifier>oai:zenodo.org:283171</identifier>
      <datestamp>2017-02-09T08:16:58Z</datestamp>
      <setSpec>user-biosyslit</setSpec>
    </header>
    <header>
      <identifier>oai:zenodo.org:253423</identifier>
      <datestamp>2017-01-20T06:56:09Z</datestamp>
      <setSpec>user-biosyslit</setSpec>
    </header>
    <header>
      <identifier>oai:zenodo.org:253424</identifier>
      <datestamp>2017-01-20T06:56:12Z</datestamp>
      <setSpec>user-biosyslit</setSpec>
    </header>
    <header>
      <identifier>oai:zenodo.org:253420</identifier>
      <datestamp>2017-01-20T06:56:00Z</datestamp>
      <setSpec>user-biosyslit</setSpec>
    </header>
    <header>
      <identifier>oai:zenodo.org:250932</identifier>
      <datestamp>2017-01-18T16:34:14Z</datestamp>
      <setSpec>user-biosyslit</setSpec>
    </header>
    <header>
      <identifier>oai:zenodo.org:250938</identifier>
      <datestamp>2017-01-18T16:34:10Z</datestamp>
      <setSpec>user-biosyslit</setSpec>
    </header>
    <header>
      <identifier>oai:zenodo.org:250933</identifier>
      <datestamp>2017-01-18T16:33:45Z</datestamp>
      <setSpec>user-biosyslit</setSpec>
    </header>
    <header>
      <identifier>oai:zenodo.org:248105</identifier>
      <datestamp>2017-01-17T00:04:49Z</datestamp>
      <setSpec>user-biosyslit</setSpec>
    </header>
    <header>
      <identifier>oai:zenodo.org:280901</identifier>
      <datestamp>2017-02-09T04:19:12Z</datestamp>
      <setSpec>user-biosyslit</setSpec>
    </header>
    <header>
      <identifier>oai:zenodo.org:236041</identifier>
      <datestamp>2017-01-09T18:10:44Z</datestamp>
      <setSpec>user-biosyslit</setSpec>
    </header>
    <header>
      <identifier>oai:zenodo.org:236044</identifier>
      <datestamp>2017-01-09T18:10:53Z</datestamp>
      <setSpec>user-biosyslit</setSpec>
    </header>
    <header>
      <identifier>oai:zenodo.org:280914</identifier>
      <datestamp>2017-02-09T04:19:10Z</datestamp>
      <setSpec>user-biosyslit</setSpec>
    </header>
    <header>
      <identifier>oai:zenodo.org:280910</identifier>
      <datestamp>2017-02-09T04:19:00Z</datestamp>
      <setSpec>user-biosyslit</setSpec>
    </header>
    <header>
      <identifier>oai:zenodo.org:281392</identifier>
      <datestamp>2017-02-09T05:14:16Z</datestamp>
      <setSpec>user-biosyslit</setSpec>
    </header>
    <header>
      <identifier>oai:zenodo.org:281391</identifier>
      <datestamp>2017-02-09T05:14:14Z</datestamp>
      <setSpec>user-biosyslit</setSpec>
    </header>
    <header>
      <identifier>oai:zenodo.org:281388</identifier>
      <datestamp>2017-02-09T05:14:08Z</datestamp>
      <setSpec>user-biosyslit</setSpec>
    </header>
    <header>
      <identifier>oai:zenodo.org:281387</identifier>
      <datestamp>2017-02-09T05:14:06Z</datestamp>
      <setSpec>user-biosyslit</setSpec>
    </header>
    <header>
      <identifier>oai:zenodo.org:284101</identifier>
      <datestamp>2017-02-09T10:28:07Z</datestamp>
      <setSpec>user-biosyslit</setSpec>
    </header>
    <header>
      <identifier>oai:zenodo.org:284114</identifier>
      <datestamp>2017-02-09T10:28:03Z</datestamp>
      <setSpec>user-biosyslit</setSpec>
    </header>
    <header>
      <identifier>oai:zenodo.org:284112</identifier>
      <datestamp>2017-02-09T10:27:58Z</datestamp>
      <setSpec>user-biosyslit</setSpec>
    </header>
    <header>
      <identifier>oai:zenodo.org:284108</identifier>
      <datestamp>2017-02-09T10:27:48Z</datestamp>
      <setSpec>user-biosyslit</setSpec>
    </header>
    <header>
      <identifier>oai:zenodo.org:239102</identifier>
      <datestamp>2017-01-11T16:30:59Z</datestamp>
      <setSpec>user-biosyslit</setSpec>
    </header>
    <header>
      <identifier>oai:zenodo.org:239103</identifier>
      <datestamp>2017-01-11T16:30:53Z</datestamp>
      <setSpec>user-biosyslit</setSpec>
    </header>
    <header>
      <identifier>oai:zenodo.org:238229</identifier>
      <datestamp>2017-01-11T02:34:32Z</datestamp>
      <setSpec>user-biosyslit</setSpec>
    </header>
    <header>
      <identifier>oai:zenodo.org:238228</identifier>
      <datestamp>2017-01-11T02:34:29Z</datestamp>
      <setSpec>user-biosyslit</setSpec>
    </header>
    <header>
      <identifier>oai:zenodo.org:271711</identifier>
      <datestamp>2017-02-08T02:25:53Z</datestamp>
      <setSpec>user-biosyslit</setSpec>
    </header>
    <header>
      <identifier>oai:zenodo.org:271715</identifier>
      <datestamp>2017-02-08T02:26:03Z</datestamp>
      <setSpec>user-biosyslit</setSpec>
    </header>
    <header>
      <identifier>oai:zenodo.org:271713</identifier>
      <datestamp>2017-02-08T02:25:58Z</datestamp>
      <setSpec>user-biosyslit</setSpec>
    </header>
    <header>
      <identifier>oai:zenodo.org:271712</identifier>
      <datestamp>2017-02-08T02:25:55Z</datestamp>
      <setSpec>user-biosyslit</setSpec>
    </header>
    <header>
      <identifier>oai:zenodo.org:271717</identifier>
      <datestamp>2017-02-08T02:26:08Z</datestamp>
      <setSpec>user-biosyslit</setSpec>
    </header>
    <header>
      <identifier>oai:zenodo.org:271716</identifier>
      <datestamp>2017-02-08T02:26:06Z</datestamp>
      <setSpec>user-biosyslit</setSpec>
    </header>
    <header>
      <identifier>oai:zenodo.org:271709</identifier>
      <datestamp>2017-02-08T02:25:47Z</datestamp>
      <setSpec>user-biosyslit</setSpec>
    </header>
    <header>
      <identifier>oai:zenodo.org:271719</identifier>
      <datestamp>2017-02-08T02:26:16Z</datestamp>
      <setSpec>user-biosyslit</setSpec>
    </header>
    <header>
      <identifier>oai:zenodo.org:271714</identifier>
      <datestamp>2017-02-08T02:26:00Z</datestamp>
      <setSpec>user-biosyslit</setSpec>
    </header>
    <header>
      <identifier>oai:zenodo.org:253944</identifier>
      <datestamp>2017-01-20T12:54:44Z</datestamp>
      <setSpec>user-biosyslit</setSpec>
    </header>
    <header>
      <identifier>oai:zenodo.org:253961</identifier>
      <datestamp>2017-01-20T12:54:19Z</datestamp>
      <setSpec>user-biosyslit</setSpec>
    </header>
    <header>
      <identifier>oai:zenodo.org:253955</identifier>
      <datestamp>2017-01-20T12:54:04Z</datestamp>
      <setSpec>user-biosyslit</setSpec>
    </header>
    <header>
      <identifier>oai:zenodo.org:253964</identifier>
      <datestamp>2017-01-20T12:54:29Z</datestamp>
      <setSpec>user-biosyslit</setSpec>
    </header>
    <header>
      <identifier>oai:zenodo.org:253967</identifier>
      <datestamp>2017-01-20T12:54:37Z</datestamp>
      <setSpec>user-biosyslit</setSpec>
    </header>
    <header>
      <identifier>oai:zenodo.org:253959</identifier>
      <datestamp>2017-01-20T12:54:15Z</datestamp>
      <setSpec>user-biosyslit</setSpec>
    </header>
    <header>
      <identifier>oai:zenodo.org:253968</identifier>
      <datestamp>2017-01-20T12:54:40Z</datestamp>
      <setSpec>user-biosyslit</setSpec>
    </header>
    <header>
      <identifier>oai:zenodo.org:235198</identifier>
      <datestamp>2017-01-09T06:25:00Z</datestamp>
      <setSpec>user-biosyslit</setSpec>
    </header>
    <header>
      <identifier>oai:zenodo.org:235186</identifier>
      <datestamp>2017-01-09T06:24:18Z</datestamp>
      <setSpec>user-biosyslit</setSpec>
    </header>
    <header>
      <identifier>oai:zenodo.org:235193</identifier>
      <datestamp>2017-01-09T06:24:44Z</datestamp>
      <setSpec>user-biosyslit</setSpec>
    </header>
    <header>
      <identifier>oai:zenodo.org:235189</identifier>
      <datestamp>2017-01-09T06:24:32Z</datestamp>
      <setSpec>user-biosyslit</setSpec>
    </header>
    <header>
      <identifier>oai:zenodo.org:235196</identifier>
      <datestamp>2017-01-09T06:24:53Z</datestamp>
      <setSpec>user-biosyslit</setSpec>
    </header>
    <header>
      <identifier>oai:zenodo.org:235187</identifier>
      <datestamp>2017-01-09T06:24:22Z</datestamp>
      <setSpec>user-biosyslit</setSpec>
    </header>
    <header>
      <identifier>oai:zenodo.org:235195</identifier>
      <datestamp>2017-01-09T06:24:50Z</datestamp>
      <setSpec>user-biosyslit</setSpec>
    </header>
    <header>
      <identifier>oai:zenodo.org:235188</identifier>
      <datestamp>2017-01-09T06:24:25Z</datestamp>
      <setSpec>user-biosyslit</setSpec>
    </header>
    <header>
      <identifier>oai:zenodo.org:250733</identifier>
      <datestamp>2017-01-18T14:50:08Z</datestamp>
      <setSpec>user-biosyslit</setSpec>
    </header>
    <header>
      <identifier>oai:zenodo.org:250736</identifier>
      <datestamp>2017-01-18T14:50:16Z</datestamp>
      <setSpec>user-biosyslit</setSpec>
    </header>
    <header>
      <identifier>oai:zenodo.org:250735</identifier>
      <datestamp>2017-01-18T14:50:13Z</datestamp>
      <setSpec>user-biosyslit</setSpec>
    </header>
    <header>
      <identifier>oai:zenodo.org:250732</identifier>
      <datestamp>2017-01-18T14:50:06Z</datestamp>
      <setSpec>user-biosyslit</setSpec>
    </header>
    <header>
      <identifier>oai:zenodo.org:250730</identifier>
      <datestamp>2017-01-18T14:50:01Z</datestamp>
      <setSpec>user-biosyslit</setSpec>
    </header>
    <header>
      <identifier>oai:zenodo.org:280781</identifier>
      <datestamp>2017-02-09T04:04:30Z</datestamp>
      <setSpec>user-biosyslit</setSpec>
    </header>
    <header>
      <identifier>oai:zenodo.org:280783</identifier>
      <datestamp>2017-02-09T04:04:34Z</datestamp>
      <setSpec>user-biosyslit</setSpec>
    </header>
    <header>
      <identifier>oai:zenodo.org:304486</identifier>
      <datestamp>2017-02-20T22:23:55Z</datestamp>
      <setSpec>user-biosyslit</setSpec>
    </header>
    <header>
      <identifier>oai:zenodo.org:283558</identifier>
      <datestamp>2017-02-09T09:11:06Z</datestamp>
      <setSpec>user-biosyslit</setSpec>
    </header>
    <header>
      <identifier>oai:zenodo.org:250800</identifier>
      <datestamp>2017-01-18T14:52:56Z</datestamp>
      <setSpec>user-biosyslit</setSpec>
    </header>
    <header>
      <identifier>oai:zenodo.org:250799</identifier>
      <datestamp>2017-01-18T14:52:53Z</datestamp>
      <setSpec>user-biosyslit</setSpec>
    </header>
    <header>
      <identifier>oai:zenodo.org:250812</identifier>
      <datestamp>2017-01-18T14:53:29Z</datestamp>
      <setSpec>user-biosyslit</setSpec>
    </header>
    <header>
      <identifier>oai:zenodo.org:250801</identifier>
      <datestamp>2017-01-18T14:52:58Z</datestamp>
      <setSpec>user-biosyslit</setSpec>
    </header>
    <header>
      <identifier>oai:zenodo.org:250811</identifier>
      <datestamp>2017-01-18T14:53:27Z</datestamp>
      <setSpec>user-biosyslit</setSpec>
    </header>
    <header>
      <identifier>oai:zenodo.org:250809</identifier>
      <datestamp>2017-01-18T14:53:20Z</datestamp>
      <setSpec>user-biosyslit</setSpec>
    </header>
    <header>
      <identifier>oai:zenodo.org:250803</identifier>
      <datestamp>2017-01-18T14:53:04Z</datestamp>
      <setSpec>user-biosyslit</setSpec>
    </header>
    <header>
      <identifier>oai:zenodo.org:250802</identifier>
      <datestamp>2017-01-18T14:53:01Z</datestamp>
      <setSpec>user-biosyslit</setSpec>
    </header>
    <header>
      <identifier>oai:zenodo.org:250813</identifier>
      <datestamp>2017-01-18T14:53:32Z</datestamp>
      <setSpec>user-biosyslit</setSpec>
    </header>
    <header>
      <identifier>oai:zenodo.org:287729</identifier>
      <datestamp>2017-02-09T19:08:55Z</datestamp>
      <setSpec>user-biosyslit</setSpec>
    </header>
    <header>
      <identifier>oai:zenodo.org:286731</identifier>
      <datestamp>2017-02-09T16:40:46Z</datestamp>
      <setSpec>user-biosyslit</setSpec>
    </header>
    <header>
      <identifier>oai:zenodo.org:286733</identifier>
      <datestamp>2017-02-09T16:40:51Z</datestamp>
      <setSpec>user-biosyslit</setSpec>
    </header>
    <header>
      <identifier>oai:zenodo.org:286742</identifier>
      <datestamp>2017-02-09T16:41:14Z</datestamp>
      <setSpec>user-biosyslit</setSpec>
    </header>
    <header>
      <identifier>oai:zenodo.org:286741</identifier>
      <datestamp>2017-02-09T16:41:12Z</datestamp>
      <setSpec>user-biosyslit</setSpec>
    </header>
    <header>
      <identifier>oai:zenodo.org:286739</identifier>
      <datestamp>2017-02-09T16:41:05Z</datestamp>
      <setSpec>user-biosyslit</setSpec>
    </header>
    <header>
      <identifier>oai:zenodo.org:250411</identifier>
      <datestamp>2017-01-18T09:58:49Z</datestamp>
      <setSpec>user-biosyslit</setSpec>
    </header>
    <header>
      <identifier>oai:zenodo.org:250409</identifier>
      <datestamp>2017-01-18T09:58:42Z</datestamp>
      <setSpec>user-biosyslit</setSpec>
    </header>
    <header>
      <identifier>oai:zenodo.org:286740</identifier>
      <datestamp>2017-02-09T16:41:10Z</datestamp>
      <setSpec>user-biosyslit</setSpec>
    </header>
    <header>
      <identifier>oai:zenodo.org:250407</identifier>
      <datestamp>2017-01-18T09:58:29Z</datestamp>
      <setSpec>user-biosyslit</setSpec>
    </header>
    <header>
      <identifier>oai:zenodo.org:267788</identifier>
      <datestamp>2017-02-02T07:17:37Z</datestamp>
      <setSpec>user-biosyslit</setSpec>
    </header>
    <header>
      <identifier>oai:zenodo.org:267811</identifier>
      <datestamp>2017-02-02T07:17:35Z</datestamp>
      <setSpec>user-biosyslit</setSpec>
    </header>
    <header>
      <identifier>oai:zenodo.org:255980</identifier>
      <datestamp>2017-01-22T01:26:54Z</datestamp>
      <setSpec>user-biosyslit</setSpec>
    </header>
    <header>
      <identifier>oai:zenodo.org:255981</identifier>
      <datestamp>2017-01-22T01:26:58Z</datestamp>
      <setSpec>user-biosyslit</setSpec>
    </header>
    <header>
      <identifier>oai:zenodo.org:255982</identifier>
      <datestamp>2017-01-22T01:27:00Z</datestamp>
      <setSpec>user-biosyslit</setSpec>
    </header>
    <header>
      <identifier>oai:zenodo.org:284723</identifier>
      <datestamp>2017-02-09T11:51:11Z</datestamp>
      <setSpec>user-biosyslit</setSpec>
    </header>
    <header>
      <identifier>oai:zenodo.org:284720</identifier>
      <datestamp>2017-02-09T11:51:04Z</datestamp>
      <setSpec>user-biosyslit</setSpec>
    </header>
    <resumptionToken expirationDate="2017-08-31T15:44:33Z" cursor="23600" completeListSize="77796">.eJyNyk0LgjAYAOD_8p4l9hGbCV1CEw8qtibpJUxFzPWBK9SF_70unev8PC_QdV2BgxZsaTNGOOcMr5YMEwt02d-UOrYfhvKQqvKqZOGnz90lRRlpeOTqMXQzGpkOxRdsxDYhB2yPskVTspePzOzGlAaDQB4PTTJF5-DzKhr7Kj_5dyGvGyVI1cdeMgm8ETktvw__-czP5-o1WHAvmhocQm0LuqHoGw3Oa57fp6pRSg.DIm_6Q.oYQai0qgkMZEaMcqcsqWj42SHb8</resumptionToken>
  </ListIdentifiers>
</OAI-PMH>
