<?xml version='1.0' encoding='UTF-8'?>
<?xml-stylesheet type="text/xsl" href="/static/xsl/oai2.v1.0.xsl"?>
<OAI-PMH xmlns="http://www.openarchives.org/OAI/2.0/" xmlns:xsi="http://www.w3.org/2001/XMLSchema-instance" xsi:schemaLocation="http://www.openarchives.org/OAI/2.0/ http://www.openarchives.org/OAI/2.0/OAI-PMH.xsd">
  <responseDate>2017-08-31T15:44:35Z</responseDate>
  <request verb="ListIdentifiers" resumptionToken=".eJyNzzEPQ0AYgOH_8s3SnEOVpItQMSBcCZZGEVFHxbXBif9eS-d2fp_lXYFVVQk6OqhHTcGqgrGGNFlGsgCsGJ-U3po9Q5HEtOhplNvxO-xilOJa9Uw2u2YqebxFfidycglwIp7mqEFLcI1eKQ_nWHImgizV5cHiPZzdlZJv0-xuDyTqDUpwOfpWsBDRIJlUfJ34p-M_ncnOIMCQ1xXo-5wA7ZSPNQN93bYPoRhRPw.DInAYw.zGmYVfGRfdi2fMWpFJPxMfSBNI8">https://zenodo.org/oai2d</request>
  <ListIdentifiers>
    <header>
      <identifier>oai:zenodo.org:240118</identifier>
      <datestamp>2017-01-12T04:53:11Z</datestamp>
      <setSpec>user-biosyslit</setSpec>
    </header>
    <header>
      <identifier>oai:zenodo.org:240879</identifier>
      <datestamp>2017-01-12T15:18:25Z</datestamp>
      <setSpec>user-biosyslit</setSpec>
    </header>
    <header>
      <identifier>oai:zenodo.org:278624</identifier>
      <datestamp>2017-02-08T23:33:06Z</datestamp>
      <setSpec>user-biosyslit</setSpec>
    </header>
    <header>
      <identifier>oai:zenodo.org:240368</identifier>
      <datestamp>2017-01-12T07:52:48Z</datestamp>
      <setSpec>user-biosyslit</setSpec>
    </header>
    <header>
      <identifier>oai:zenodo.org:279097</identifier>
      <datestamp>2017-02-09T00:36:13Z</datestamp>
      <setSpec>user-biosyslit</setSpec>
    </header>
    <header>
      <identifier>oai:zenodo.org:278587</identifier>
      <datestamp>2017-02-08T23:28:28Z</datestamp>
      <setSpec>user-biosyslit</setSpec>
    </header>
    <header>
      <identifier>oai:zenodo.org:278531</identifier>
      <datestamp>2017-02-08T23:22:45Z</datestamp>
      <setSpec>user-biosyslit</setSpec>
    </header>
    <header>
      <identifier>oai:zenodo.org:278533</identifier>
      <datestamp>2017-02-08T23:21:49Z</datestamp>
      <setSpec>user-biosyslit</setSpec>
    </header>
    <header>
      <identifier>oai:zenodo.org:279664</identifier>
      <datestamp>2017-02-09T01:47:29Z</datestamp>
      <setSpec>user-biosyslit</setSpec>
    </header>
    <header>
      <identifier>oai:zenodo.org:278615</identifier>
      <datestamp>2017-02-08T23:33:34Z</datestamp>
      <setSpec>user-biosyslit</setSpec>
    </header>
    <header>
      <identifier>oai:zenodo.org:278546</identifier>
      <datestamp>2017-02-08T23:22:34Z</datestamp>
      <setSpec>user-biosyslit</setSpec>
    </header>
    <header>
      <identifier>oai:zenodo.org:279202</identifier>
      <datestamp>2017-02-09T00:48:23Z</datestamp>
      <setSpec>user-biosyslit</setSpec>
    </header>
    <header>
      <identifier>oai:zenodo.org:240355</identifier>
      <datestamp>2017-01-12T07:43:56Z</datestamp>
      <setSpec>user-biosyslit</setSpec>
    </header>
    <header>
      <identifier>oai:zenodo.org:240541</identifier>
      <datestamp>2017-01-12T10:03:19Z</datestamp>
      <setSpec>user-biosyslit</setSpec>
    </header>
    <header>
      <identifier>oai:zenodo.org:278374</identifier>
      <datestamp>2017-02-08T23:03:11Z</datestamp>
      <setSpec>user-biosyslit</setSpec>
    </header>
    <header>
      <identifier>oai:zenodo.org:272364</identifier>
      <datestamp>2017-02-08T04:22:13Z</datestamp>
      <setSpec>user-biosyslit</setSpec>
    </header>
    <header>
      <identifier>oai:zenodo.org:280768</identifier>
      <datestamp>2017-02-09T04:03:02Z</datestamp>
      <setSpec>user-biosyslit</setSpec>
    </header>
    <header>
      <identifier>oai:zenodo.org:280364</identifier>
      <datestamp>2017-02-09T03:16:01Z</datestamp>
      <setSpec>user-biosyslit</setSpec>
    </header>
    <header>
      <identifier>oai:zenodo.org:271488</identifier>
      <datestamp>2017-02-08T01:48:54Z</datestamp>
      <setSpec>user-biosyslit</setSpec>
    </header>
    <header>
      <identifier>oai:zenodo.org:272122</identifier>
      <datestamp>2017-02-08T03:46:24Z</datestamp>
      <setSpec>user-biosyslit</setSpec>
    </header>
    <header>
      <identifier>oai:zenodo.org:271411</identifier>
      <datestamp>2017-02-08T01:36:23Z</datestamp>
      <setSpec>user-biosyslit</setSpec>
    </header>
    <header>
      <identifier>oai:zenodo.org:271894</identifier>
      <datestamp>2017-02-08T02:54:53Z</datestamp>
      <setSpec>user-biosyslit</setSpec>
    </header>
    <header>
      <identifier>oai:zenodo.org:272504</identifier>
      <datestamp>2017-02-08T04:58:00Z</datestamp>
      <setSpec>user-biosyslit</setSpec>
    </header>
    <header>
      <identifier>oai:zenodo.org:272131</identifier>
      <datestamp>2017-02-08T03:47:59Z</datestamp>
      <setSpec>user-biosyslit</setSpec>
    </header>
    <header>
      <identifier>oai:zenodo.org:271843</identifier>
      <datestamp>2017-02-08T02:45:10Z</datestamp>
      <setSpec>user-biosyslit</setSpec>
    </header>
    <header>
      <identifier>oai:zenodo.org:278860</identifier>
      <datestamp>2017-02-09T00:00:10Z</datestamp>
      <setSpec>user-biosyslit</setSpec>
    </header>
    <header>
      <identifier>oai:zenodo.org:271553</identifier>
      <datestamp>2017-02-08T01:54:31Z</datestamp>
      <setSpec>user-biosyslit</setSpec>
    </header>
    <header>
      <identifier>oai:zenodo.org:278949</identifier>
      <datestamp>2017-02-09T00:13:43Z</datestamp>
      <setSpec>user-biosyslit</setSpec>
    </header>
    <header>
      <identifier>oai:zenodo.org:272124</identifier>
      <datestamp>2017-02-08T03:46:29Z</datestamp>
      <setSpec>user-biosyslit</setSpec>
    </header>
    <header>
      <identifier>oai:zenodo.org:272167</identifier>
      <datestamp>2017-02-08T03:53:31Z</datestamp>
      <setSpec>user-biosyslit</setSpec>
    </header>
    <header>
      <identifier>oai:zenodo.org:278993</identifier>
      <datestamp>2017-02-09T00:22:06Z</datestamp>
      <setSpec>user-biosyslit</setSpec>
    </header>
    <header>
      <identifier>oai:zenodo.org:241740</identifier>
      <datestamp>2017-01-13T05:31:02Z</datestamp>
      <setSpec>user-biosyslit</setSpec>
    </header>
    <header>
      <identifier>oai:zenodo.org:243345</identifier>
      <datestamp>2017-01-14T03:00:45Z</datestamp>
      <setSpec>user-biosyslit</setSpec>
    </header>
    <header>
      <identifier>oai:zenodo.org:279045</identifier>
      <datestamp>2017-02-09T00:28:40Z</datestamp>
      <setSpec>user-biosyslit</setSpec>
    </header>
    <header>
      <identifier>oai:zenodo.org:280337</identifier>
      <datestamp>2017-02-09T03:12:54Z</datestamp>
      <setSpec>user-biosyslit</setSpec>
    </header>
    <header>
      <identifier>oai:zenodo.org:279305</identifier>
      <datestamp>2017-02-09T01:02:06Z</datestamp>
      <setSpec>user-biosyslit</setSpec>
    </header>
    <header>
      <identifier>oai:zenodo.org:243421</identifier>
      <datestamp>2017-01-14T05:35:45Z</datestamp>
      <setSpec>user-biosyslit</setSpec>
    </header>
    <header>
      <identifier>oai:zenodo.org:243176</identifier>
      <datestamp>2017-01-14T00:18:01Z</datestamp>
      <setSpec>user-biosyslit</setSpec>
    </header>
    <header>
      <identifier>oai:zenodo.org:242566</identifier>
      <datestamp>2017-01-13T16:57:43Z</datestamp>
      <setSpec>user-biosyslit</setSpec>
    </header>
    <header>
      <identifier>oai:zenodo.org:243331</identifier>
      <datestamp>2017-01-14T02:44:38Z</datestamp>
      <setSpec>user-biosyslit</setSpec>
    </header>
    <header>
      <identifier>oai:zenodo.org:272302</identifier>
      <datestamp>2017-02-08T04:12:15Z</datestamp>
      <setSpec>user-biosyslit</setSpec>
    </header>
    <header>
      <identifier>oai:zenodo.org:272316</identifier>
      <datestamp>2017-02-08T04:14:55Z</datestamp>
      <setSpec>user-biosyslit</setSpec>
    </header>
    <header>
      <identifier>oai:zenodo.org:280880</identifier>
      <datestamp>2017-02-09T04:15:50Z</datestamp>
      <setSpec>user-biosyslit</setSpec>
    </header>
    <header>
      <identifier>oai:zenodo.org:243042</identifier>
      <datestamp>2017-01-13T22:36:50Z</datestamp>
      <setSpec>user-biosyslit</setSpec>
    </header>
    <header>
      <identifier>oai:zenodo.org:243258</identifier>
      <datestamp>2017-01-14T01:45:04Z</datestamp>
      <setSpec>user-biosyslit</setSpec>
    </header>
    <header>
      <identifier>oai:zenodo.org:243855</identifier>
      <datestamp>2017-01-14T11:49:27Z</datestamp>
      <setSpec>user-biosyslit</setSpec>
    </header>
    <header>
      <identifier>oai:zenodo.org:243556</identifier>
      <datestamp>2017-01-14T07:25:07Z</datestamp>
      <setSpec>user-biosyslit</setSpec>
    </header>
    <header>
      <identifier>oai:zenodo.org:243611</identifier>
      <datestamp>2017-01-14T08:12:13Z</datestamp>
      <setSpec>user-biosyslit</setSpec>
    </header>
    <header>
      <identifier>oai:zenodo.org:244943</identifier>
      <datestamp>2017-01-15T05:40:45Z</datestamp>
      <setSpec>user-biosyslit</setSpec>
    </header>
    <header>
      <identifier>oai:zenodo.org:245615</identifier>
      <datestamp>2017-01-15T16:39:28Z</datestamp>
      <setSpec>user-biosyslit</setSpec>
    </header>
    <header>
      <identifier>oai:zenodo.org:244049</identifier>
      <datestamp>2017-01-14T15:42:45Z</datestamp>
      <setSpec>user-biosyslit</setSpec>
    </header>
    <header>
      <identifier>oai:zenodo.org:244740</identifier>
      <datestamp>2017-01-15T01:50:01Z</datestamp>
      <setSpec>user-biosyslit</setSpec>
    </header>
    <header>
      <identifier>oai:zenodo.org:245428</identifier>
      <datestamp>2017-01-15T13:01:13Z</datestamp>
      <setSpec>user-biosyslit</setSpec>
    </header>
    <header>
      <identifier>oai:zenodo.org:245232</identifier>
      <datestamp>2017-01-15T10:19:21Z</datestamp>
      <setSpec>user-biosyslit</setSpec>
    </header>
    <header>
      <identifier>oai:zenodo.org:245729</identifier>
      <datestamp>2017-01-15T17:59:39Z</datestamp>
      <setSpec>user-biosyslit</setSpec>
    </header>
    <header>
      <identifier>oai:zenodo.org:246331</identifier>
      <datestamp>2017-01-16T01:15:54Z</datestamp>
      <setSpec>user-biosyslit</setSpec>
    </header>
    <header>
      <identifier>oai:zenodo.org:246985</identifier>
      <datestamp>2017-01-16T10:08:59Z</datestamp>
      <setSpec>user-biosyslit</setSpec>
    </header>
    <header>
      <identifier>oai:zenodo.org:246900</identifier>
      <datestamp>2017-01-16T10:04:02Z</datestamp>
      <setSpec>user-biosyslit</setSpec>
    </header>
    <header>
      <identifier>oai:zenodo.org:245838</identifier>
      <datestamp>2017-01-15T19:10:03Z</datestamp>
      <setSpec>user-biosyslit</setSpec>
    </header>
    <header>
      <identifier>oai:zenodo.org:245836</identifier>
      <datestamp>2017-01-15T19:09:53Z</datestamp>
      <setSpec>user-biosyslit</setSpec>
    </header>
    <header>
      <identifier>oai:zenodo.org:246588</identifier>
      <datestamp>2017-01-16T04:20:26Z</datestamp>
      <setSpec>user-biosyslit</setSpec>
    </header>
    <header>
      <identifier>oai:zenodo.org:246948</identifier>
      <datestamp>2017-01-16T10:06:43Z</datestamp>
      <setSpec>user-biosyslit</setSpec>
    </header>
    <header>
      <identifier>oai:zenodo.org:246462</identifier>
      <datestamp>2017-01-16T02:29:09Z</datestamp>
      <setSpec>user-biosyslit</setSpec>
    </header>
    <header>
      <identifier>oai:zenodo.org:247397</identifier>
      <datestamp>2017-01-16T15:26:30Z</datestamp>
      <setSpec>user-biosyslit</setSpec>
    </header>
    <header>
      <identifier>oai:zenodo.org:246299</identifier>
      <datestamp>2017-01-16T00:13:41Z</datestamp>
      <setSpec>user-biosyslit</setSpec>
    </header>
    <header>
      <identifier>oai:zenodo.org:246660</identifier>
      <datestamp>2017-01-16T06:57:33Z</datestamp>
      <setSpec>user-biosyslit</setSpec>
    </header>
    <header>
      <identifier>oai:zenodo.org:247562</identifier>
      <datestamp>2017-01-16T17:12:27Z</datestamp>
      <setSpec>user-biosyslit</setSpec>
    </header>
    <header>
      <identifier>oai:zenodo.org:247261</identifier>
      <datestamp>2017-01-16T13:30:39Z</datestamp>
      <setSpec>user-biosyslit</setSpec>
    </header>
    <header>
      <identifier>oai:zenodo.org:248203</identifier>
      <datestamp>2017-01-17T01:09:31Z</datestamp>
      <setSpec>user-biosyslit</setSpec>
    </header>
    <header>
      <identifier>oai:zenodo.org:247214</identifier>
      <datestamp>2017-01-16T12:53:31Z</datestamp>
      <setSpec>user-biosyslit</setSpec>
    </header>
    <header>
      <identifier>oai:zenodo.org:247348</identifier>
      <datestamp>2017-01-16T14:30:27Z</datestamp>
      <setSpec>user-biosyslit</setSpec>
    </header>
    <header>
      <identifier>oai:zenodo.org:247585</identifier>
      <datestamp>2017-01-16T17:13:39Z</datestamp>
      <setSpec>user-biosyslit</setSpec>
    </header>
    <header>
      <identifier>oai:zenodo.org:248640</identifier>
      <datestamp>2017-01-17T07:38:51Z</datestamp>
      <setSpec>user-biosyslit</setSpec>
    </header>
    <header>
      <identifier>oai:zenodo.org:247999</identifier>
      <datestamp>2017-01-16T22:34:19Z</datestamp>
      <setSpec>user-biosyslit</setSpec>
    </header>
    <header>
      <identifier>oai:zenodo.org:248635</identifier>
      <datestamp>2017-01-17T07:38:33Z</datestamp>
      <setSpec>user-biosyslit</setSpec>
    </header>
    <header>
      <identifier>oai:zenodo.org:269567</identifier>
      <datestamp>2017-02-07T00:58:24Z</datestamp>
      <setSpec>user-biosyslit</setSpec>
    </header>
    <header>
      <identifier>oai:zenodo.org:233400</identifier>
      <datestamp>2017-01-08T04:16:34Z</datestamp>
      <setSpec>user-biosyslit</setSpec>
    </header>
    <header>
      <identifier>oai:zenodo.org:234048</identifier>
      <datestamp>2017-01-08T14:19:42Z</datestamp>
      <setSpec>user-biosyslit</setSpec>
    </header>
    <header>
      <identifier>oai:zenodo.org:276548</identifier>
      <datestamp>2017-02-08T19:10:40Z</datestamp>
      <setSpec>user-biosyslit</setSpec>
    </header>
    <header>
      <identifier>oai:zenodo.org:270748</identifier>
      <datestamp>2017-02-07T23:54:46Z</datestamp>
      <setSpec>user-biosyslit</setSpec>
    </header>
    <header>
      <identifier>oai:zenodo.org:270811</identifier>
      <datestamp>2017-02-07T23:57:07Z</datestamp>
      <setSpec>user-biosyslit</setSpec>
    </header>
    <header>
      <identifier>oai:zenodo.org:278156</identifier>
      <datestamp>2017-02-08T22:34:33Z</datestamp>
      <setSpec>user-biosyslit</setSpec>
    </header>
    <header>
      <identifier>oai:zenodo.org:277965</identifier>
      <datestamp>2017-02-08T22:10:11Z</datestamp>
      <setSpec>user-biosyslit</setSpec>
    </header>
    <header>
      <identifier>oai:zenodo.org:234032</identifier>
      <datestamp>2017-01-08T14:13:17Z</datestamp>
      <setSpec>user-biosyslit</setSpec>
    </header>
    <header>
      <identifier>oai:zenodo.org:277200</identifier>
      <datestamp>2017-02-08T20:34:53Z</datestamp>
      <setSpec>user-biosyslit</setSpec>
    </header>
    <header>
      <identifier>oai:zenodo.org:276864</identifier>
      <datestamp>2017-02-08T19:52:36Z</datestamp>
      <setSpec>user-biosyslit</setSpec>
    </header>
    <header>
      <identifier>oai:zenodo.org:277037</identifier>
      <datestamp>2017-02-08T20:15:07Z</datestamp>
      <setSpec>user-biosyslit</setSpec>
    </header>
    <header>
      <identifier>oai:zenodo.org:234819</identifier>
      <datestamp>2017-01-09T02:26:38Z</datestamp>
      <setSpec>user-biosyslit</setSpec>
    </header>
    <header>
      <identifier>oai:zenodo.org:277198</identifier>
      <datestamp>2017-02-08T20:34:46Z</datestamp>
      <setSpec>user-biosyslit</setSpec>
    </header>
    <header>
      <identifier>oai:zenodo.org:277288</identifier>
      <datestamp>2017-02-08T20:47:44Z</datestamp>
      <setSpec>user-biosyslit</setSpec>
    </header>
    <header>
      <identifier>oai:zenodo.org:277618</identifier>
      <datestamp>2017-02-08T21:30:04Z</datestamp>
      <setSpec>user-biosyslit</setSpec>
    </header>
    <header>
      <identifier>oai:zenodo.org:270874</identifier>
      <datestamp>2017-02-08T00:07:39Z</datestamp>
      <setSpec>user-biosyslit</setSpec>
    </header>
    <header>
      <identifier>oai:zenodo.org:234828</identifier>
      <datestamp>2017-01-09T02:30:19Z</datestamp>
      <setSpec>user-biosyslit</setSpec>
    </header>
    <header>
      <identifier>oai:zenodo.org:277846</identifier>
      <datestamp>2017-02-08T21:55:52Z</datestamp>
      <setSpec>user-biosyslit</setSpec>
    </header>
    <header>
      <identifier>oai:zenodo.org:234869</identifier>
      <datestamp>2017-01-09T02:57:54Z</datestamp>
      <setSpec>user-biosyslit</setSpec>
    </header>
    <header>
      <identifier>oai:zenodo.org:192620</identifier>
      <datestamp>2017-01-09T09:20:24Z</datestamp>
      <setSpec>user-biosyslit</setSpec>
    </header>
    <header>
      <identifier>oai:zenodo.org:276617</identifier>
      <datestamp>2017-02-08T19:20:14Z</datestamp>
      <setSpec>user-biosyslit</setSpec>
    </header>
    <header>
      <identifier>oai:zenodo.org:276753</identifier>
      <datestamp>2017-02-08T19:37:17Z</datestamp>
      <setSpec>user-biosyslit</setSpec>
    </header>
    <header>
      <identifier>oai:zenodo.org:237133</identifier>
      <datestamp>2017-01-10T11:24:27Z</datestamp>
      <setSpec>user-biosyslit</setSpec>
    </header>
    <header>
      <identifier>oai:zenodo.org:235081</identifier>
      <datestamp>2017-01-09T05:26:49Z</datestamp>
      <setSpec>user-biosyslit</setSpec>
    </header>
    <resumptionToken expirationDate="2017-08-31T15:46:35Z" cursor="52100" completeListSize="77796">.eJyNyssKgkAUANB_uWuJeSg-oE1o4kLFJiXdhKmIOZo4RTriv-emda3PWUBUVQkW2hnYNDWiYqyrRFMNQwFRjA_Or83GUFwSXvQ8zt3kdeoSlJJaD2wx-XZKA9misMOSHSNywcYUN2iOzvEzlacpod6bIUf3ZTQHd297JQ1dnt3cgcX9gTNSjqETzQwfWEaL78N_Pvnz2WIPCgx5XYGlEapA-87HWoC1rOsHo5lRQw.DInAYw.68IVJwHftrW-PUar_0rPzctgNiw</resumptionToken>
  </ListIdentifiers>
</OAI-PMH>
