<?xml version='1.0' encoding='UTF-8'?>
<?xml-stylesheet type="text/xsl" href="/static/xsl/oai2.v1.0.xsl"?>
<OAI-PMH xmlns="http://www.openarchives.org/OAI/2.0/" xmlns:xsi="http://www.w3.org/2001/XMLSchema-instance" xsi:schemaLocation="http://www.openarchives.org/OAI/2.0/ http://www.openarchives.org/OAI/2.0/OAI-PMH.xsd">
  <responseDate>2017-08-31T14:31:53Z</responseDate>
  <request verb="ListIdentifiers" resumptionToken=".eJwVzdFugjAYQOF36TVZ2qIWudPAiMt-CEKLcLOwwsBRGAMWoMZ3112f5Ds3NJZlgWz8sqNkS6w925iYmVuLGWiUw49SH9dnRvIilOwUzz3xd24FTmnFfGdcwEmJH3MdtERHryG9EGvhV7yGMZ9SfV6EeZoj7DLQ4Qy6okFbmIGnsk-vj3h3VBEthsAN14gco8yUDOIDfXoEvvtJ4pr7av8F4jRB45L3BLAUxQrudAw0YHBg48d9V-i6T5Lll6u3OeNTl-vahWYK-f9LHxgyUJ9XJbLpzkDNnA_ViOzb_f4AcmtSEQ.DImvJQ.mY9fOTthcQ6HE5LPPuyZqf_fNxM">https://zenodo.org/oai2d</request>
  <ListIdentifiers>
    <header>
      <identifier>oai:zenodo.org:294186</identifier>
      <datestamp>2017-02-20T19:26:50Z</datestamp>
      <setSpec>user-biosyslit</setSpec>
    </header>
    <header>
      <identifier>oai:zenodo.org:311676</identifier>
      <datestamp>2017-02-21T00:27:10Z</datestamp>
      <setSpec>user-biosyslit</setSpec>
    </header>
    <header>
      <identifier>oai:zenodo.org:322078</identifier>
      <datestamp>2017-02-24T07:29:33Z</datestamp>
      <setSpec>user-biosyslit</setSpec>
    </header>
    <header>
      <identifier>oai:zenodo.org:321802</identifier>
      <datestamp>2017-02-23T09:19:21Z</datestamp>
      <setSpec>user-biosyslit</setSpec>
    </header>
    <header>
      <identifier>oai:zenodo.org:322303</identifier>
      <datestamp>2017-02-24T09:15:36Z</datestamp>
      <setSpec>user-biosyslit</setSpec>
    </header>
    <header>
      <identifier>oai:zenodo.org:322043</identifier>
      <datestamp>2017-02-24T07:27:02Z</datestamp>
      <setSpec>user-biosyslit</setSpec>
    </header>
    <header>
      <identifier>oai:zenodo.org:322399</identifier>
      <datestamp>2017-02-24T15:54:15Z</datestamp>
      <setSpec>user-biosyslit</setSpec>
    </header>
    <header>
      <identifier>oai:zenodo.org:322710</identifier>
      <datestamp>2017-02-27T09:14:14Z</datestamp>
      <setSpec>user-biosyslit</setSpec>
    </header>
    <header>
      <identifier>oai:zenodo.org:218692</identifier>
      <datestamp>2016-12-22T16:05:21Z</datestamp>
      <setSpec>user-biosyslit</setSpec>
    </header>
    <header>
      <identifier>oai:zenodo.org:9892</identifier>
      <datestamp>2016-09-12T05:57:47Z</datestamp>
      <setSpec>user-biosyslit</setSpec>
      <setSpec>user-zenodo</setSpec>
      <setSpec>openaire</setSpec>
    </header>
    <header>
      <identifier>oai:zenodo.org:218788</identifier>
      <datestamp>2016-12-22T16:38:13Z</datestamp>
      <setSpec>user-biosyslit</setSpec>
    </header>
    <header>
      <identifier>oai:zenodo.org:180137</identifier>
      <datestamp>2016-12-20T02:00:37Z</datestamp>
      <setSpec>user-biosyslit</setSpec>
    </header>
    <header>
      <identifier>oai:zenodo.org:180392</identifier>
      <datestamp>2016-12-20T02:00:11Z</datestamp>
      <setSpec>user-biosyslit</setSpec>
    </header>
    <header>
      <identifier>oai:zenodo.org:218699</identifier>
      <datestamp>2016-12-22T16:09:02Z</datestamp>
      <setSpec>user-biosyslit</setSpec>
    </header>
    <header>
      <identifier>oai:zenodo.org:180479</identifier>
      <datestamp>2016-11-29T00:30:51Z</datestamp>
      <setSpec>user-biosyslit</setSpec>
    </header>
    <header>
      <identifier>oai:zenodo.org:180276</identifier>
      <datestamp>2016-12-20T02:00:37Z</datestamp>
      <setSpec>user-biosyslit</setSpec>
    </header>
    <header>
      <identifier>oai:zenodo.org:218730</identifier>
      <datestamp>2016-12-22T16:16:18Z</datestamp>
      <setSpec>user-biosyslit</setSpec>
    </header>
    <header>
      <identifier>oai:zenodo.org:180376</identifier>
      <datestamp>2016-12-20T02:00:16Z</datestamp>
      <setSpec>user-biosyslit</setSpec>
    </header>
    <header>
      <identifier>oai:zenodo.org:218755</identifier>
      <datestamp>2016-12-22T16:26:40Z</datestamp>
      <setSpec>user-biosyslit</setSpec>
    </header>
    <header>
      <identifier>oai:zenodo.org:219053</identifier>
      <datestamp>2016-12-22T18:00:43Z</datestamp>
      <setSpec>user-biosyslit</setSpec>
    </header>
    <header>
      <identifier>oai:zenodo.org:180543</identifier>
      <datestamp>2016-12-20T02:00:08Z</datestamp>
      <setSpec>user-biosyslit</setSpec>
    </header>
    <header>
      <identifier>oai:zenodo.org:180481</identifier>
      <datestamp>2016-12-20T02:00:26Z</datestamp>
      <setSpec>user-biosyslit</setSpec>
    </header>
    <header>
      <identifier>oai:zenodo.org:180482</identifier>
      <datestamp>2016-12-20T02:00:31Z</datestamp>
      <setSpec>user-biosyslit</setSpec>
    </header>
    <header>
      <identifier>oai:zenodo.org:181183</identifier>
      <datestamp>2016-12-20T02:00:55Z</datestamp>
      <setSpec>user-biosyslit</setSpec>
    </header>
    <header>
      <identifier>oai:zenodo.org:180829</identifier>
      <datestamp>2016-12-20T02:01:02Z</datestamp>
      <setSpec>user-biosyslit</setSpec>
    </header>
    <header>
      <identifier>oai:zenodo.org:195465</identifier>
      <datestamp>2016-12-20T02:01:30Z</datestamp>
      <setSpec>user-biosyslit</setSpec>
    </header>
    <header>
      <identifier>oai:zenodo.org:574237</identifier>
      <datestamp>2017-05-11T07:24:27Z</datestamp>
      <setSpec>user-biosyslit</setSpec>
    </header>
    <header>
      <identifier>oai:zenodo.org:196012</identifier>
      <datestamp>2016-12-20T02:01:21Z</datestamp>
      <setSpec>user-biosyslit</setSpec>
    </header>
    <header>
      <identifier>oai:zenodo.org:280527</identifier>
      <datestamp>2017-02-09T03:34:12Z</datestamp>
      <setSpec>user-biosyslit</setSpec>
    </header>
    <header>
      <identifier>oai:zenodo.org:573590</identifier>
      <datestamp>2017-05-10T07:25:27Z</datestamp>
      <setSpec>user-biosyslit</setSpec>
    </header>
    <header>
      <identifier>oai:zenodo.org:182033</identifier>
      <datestamp>2016-12-20T02:00:50Z</datestamp>
      <setSpec>user-biosyslit</setSpec>
    </header>
    <header>
      <identifier>oai:zenodo.org:181348</identifier>
      <datestamp>2016-12-20T02:00:55Z</datestamp>
      <setSpec>user-biosyslit</setSpec>
    </header>
    <header>
      <identifier>oai:zenodo.org:573672</identifier>
      <datestamp>2017-05-10T08:45:37Z</datestamp>
      <setSpec>user-biosyslit</setSpec>
    </header>
    <header>
      <identifier>oai:zenodo.org:197293</identifier>
      <datestamp>2016-12-20T02:01:53Z</datestamp>
      <setSpec>user-biosyslit</setSpec>
    </header>
    <header>
      <identifier>oai:zenodo.org:180923</identifier>
      <datestamp>2016-12-20T02:01:02Z</datestamp>
      <setSpec>user-biosyslit</setSpec>
    </header>
    <header>
      <identifier>oai:zenodo.org:219356</identifier>
      <datestamp>2016-12-22T19:30:27Z</datestamp>
      <setSpec>user-biosyslit</setSpec>
    </header>
    <header>
      <identifier>oai:zenodo.org:219451</identifier>
      <datestamp>2016-12-22T20:16:56Z</datestamp>
      <setSpec>user-biosyslit</setSpec>
    </header>
    <header>
      <identifier>oai:zenodo.org:219257</identifier>
      <datestamp>2016-12-22T18:58:23Z</datestamp>
      <setSpec>user-biosyslit</setSpec>
    </header>
    <header>
      <identifier>oai:zenodo.org:154509</identifier>
      <datestamp>2016-12-13T12:01:30Z</datestamp>
      <setSpec>openaire</setSpec>
      <setSpec>user-biosyslit</setSpec>
    </header>
    <header>
      <identifier>oai:zenodo.org:219066</identifier>
      <datestamp>2016-12-22T18:06:47Z</datestamp>
      <setSpec>user-biosyslit</setSpec>
    </header>
    <header>
      <identifier>oai:zenodo.org:280146</identifier>
      <datestamp>2017-02-09T02:48:16Z</datestamp>
      <setSpec>user-biosyslit</setSpec>
    </header>
    <header>
      <identifier>oai:zenodo.org:219047</identifier>
      <datestamp>2016-12-22T18:00:16Z</datestamp>
      <setSpec>user-biosyslit</setSpec>
    </header>
    <header>
      <identifier>oai:zenodo.org:343763</identifier>
      <datestamp>2017-02-28T08:26:02Z</datestamp>
      <setSpec>user-biosyslit</setSpec>
    </header>
    <header>
      <identifier>oai:zenodo.org:219090</identifier>
      <datestamp>2016-12-22T18:10:30Z</datestamp>
      <setSpec>user-biosyslit</setSpec>
    </header>
    <header>
      <identifier>oai:zenodo.org:343883</identifier>
      <datestamp>2017-02-28T10:16:11Z</datestamp>
      <setSpec>user-biosyslit</setSpec>
    </header>
    <header>
      <identifier>oai:zenodo.org:279739</identifier>
      <datestamp>2017-02-09T01:58:27Z</datestamp>
      <setSpec>user-biosyslit</setSpec>
    </header>
    <header>
      <identifier>oai:zenodo.org:279665</identifier>
      <datestamp>2017-02-09T01:47:32Z</datestamp>
      <setSpec>user-biosyslit</setSpec>
    </header>
    <header>
      <identifier>oai:zenodo.org:279684</identifier>
      <datestamp>2017-02-09T01:51:06Z</datestamp>
      <setSpec>user-biosyslit</setSpec>
    </header>
    <header>
      <identifier>oai:zenodo.org:181571</identifier>
      <datestamp>2016-12-20T02:00:50Z</datestamp>
      <setSpec>user-biosyslit</setSpec>
    </header>
    <header>
      <identifier>oai:zenodo.org:344039</identifier>
      <datestamp>2017-02-28T23:49:04Z</datestamp>
      <setSpec>user-biosyslit</setSpec>
    </header>
    <header>
      <identifier>oai:zenodo.org:343764</identifier>
      <datestamp>2017-02-28T08:26:05Z</datestamp>
      <setSpec>user-biosyslit</setSpec>
    </header>
    <header>
      <identifier>oai:zenodo.org:279749</identifier>
      <datestamp>2017-02-09T01:59:53Z</datestamp>
      <setSpec>user-biosyslit</setSpec>
    </header>
    <header>
      <identifier>oai:zenodo.org:181666</identifier>
      <datestamp>2016-12-20T02:00:56Z</datestamp>
      <setSpec>user-biosyslit</setSpec>
    </header>
    <header>
      <identifier>oai:zenodo.org:181573</identifier>
      <datestamp>2016-12-20T02:00:18Z</datestamp>
      <setSpec>user-biosyslit</setSpec>
    </header>
    <header>
      <identifier>oai:zenodo.org:278601</identifier>
      <datestamp>2017-02-08T23:29:44Z</datestamp>
      <setSpec>user-biosyslit</setSpec>
    </header>
    <header>
      <identifier>oai:zenodo.org:278595</identifier>
      <datestamp>2017-02-08T23:29:22Z</datestamp>
      <setSpec>user-biosyslit</setSpec>
    </header>
    <header>
      <identifier>oai:zenodo.org:279651</identifier>
      <datestamp>2017-02-09T01:46:49Z</datestamp>
      <setSpec>user-biosyslit</setSpec>
    </header>
    <header>
      <identifier>oai:zenodo.org:279463</identifier>
      <datestamp>2017-02-09T01:24:41Z</datestamp>
      <setSpec>user-biosyslit</setSpec>
    </header>
    <header>
      <identifier>oai:zenodo.org:280945</identifier>
      <datestamp>2017-02-09T04:23:38Z</datestamp>
      <setSpec>user-biosyslit</setSpec>
    </header>
    <header>
      <identifier>oai:zenodo.org:280346</identifier>
      <datestamp>2017-02-09T03:14:21Z</datestamp>
      <setSpec>user-biosyslit</setSpec>
    </header>
    <header>
      <identifier>oai:zenodo.org:282576</identifier>
      <datestamp>2017-02-09T07:15:20Z</datestamp>
      <setSpec>user-biosyslit</setSpec>
    </header>
    <header>
      <identifier>oai:zenodo.org:281525</identifier>
      <datestamp>2017-02-09T05:27:54Z</datestamp>
      <setSpec>user-biosyslit</setSpec>
    </header>
    <header>
      <identifier>oai:zenodo.org:282110</identifier>
      <datestamp>2017-02-09T06:28:03Z</datestamp>
      <setSpec>user-biosyslit</setSpec>
    </header>
    <header>
      <identifier>oai:zenodo.org:282396</identifier>
      <datestamp>2017-02-09T06:56:02Z</datestamp>
      <setSpec>user-biosyslit</setSpec>
    </header>
    <header>
      <identifier>oai:zenodo.org:281771</identifier>
      <datestamp>2017-02-09T05:53:30Z</datestamp>
      <setSpec>user-biosyslit</setSpec>
    </header>
    <header>
      <identifier>oai:zenodo.org:282741</identifier>
      <datestamp>2017-02-09T07:33:08Z</datestamp>
      <setSpec>user-biosyslit</setSpec>
    </header>
    <header>
      <identifier>oai:zenodo.org:283347</identifier>
      <datestamp>2017-02-09T08:37:26Z</datestamp>
      <setSpec>user-biosyslit</setSpec>
    </header>
    <header>
      <identifier>oai:zenodo.org:284384</identifier>
      <datestamp>2017-02-09T11:09:50Z</datestamp>
      <setSpec>user-biosyslit</setSpec>
    </header>
    <header>
      <identifier>oai:zenodo.org:284915</identifier>
      <datestamp>2017-02-09T12:15:27Z</datestamp>
      <setSpec>user-biosyslit</setSpec>
    </header>
    <header>
      <identifier>oai:zenodo.org:284332</identifier>
      <datestamp>2017-02-09T11:04:46Z</datestamp>
      <setSpec>user-biosyslit</setSpec>
    </header>
    <header>
      <identifier>oai:zenodo.org:284402</identifier>
      <datestamp>2017-02-09T11:10:44Z</datestamp>
      <setSpec>user-biosyslit</setSpec>
    </header>
    <header>
      <identifier>oai:zenodo.org:285193</identifier>
      <datestamp>2017-02-09T12:55:35Z</datestamp>
      <setSpec>user-biosyslit</setSpec>
    </header>
    <header>
      <identifier>oai:zenodo.org:286434</identifier>
      <datestamp>2017-02-09T15:59:40Z</datestamp>
      <setSpec>user-biosyslit</setSpec>
    </header>
    <header>
      <identifier>oai:zenodo.org:285434</identifier>
      <datestamp>2017-02-09T13:35:32Z</datestamp>
      <setSpec>user-biosyslit</setSpec>
    </header>
    <header>
      <identifier>oai:zenodo.org:286383</identifier>
      <datestamp>2017-02-09T15:54:34Z</datestamp>
      <setSpec>user-biosyslit</setSpec>
    </header>
    <header>
      <identifier>oai:zenodo.org:285286</identifier>
      <datestamp>2017-02-09T13:11:20Z</datestamp>
      <setSpec>user-biosyslit</setSpec>
    </header>
    <header>
      <identifier>oai:zenodo.org:286626</identifier>
      <datestamp>2017-02-09T16:25:43Z</datestamp>
      <setSpec>user-biosyslit</setSpec>
    </header>
    <header>
      <identifier>oai:zenodo.org:287094</identifier>
      <datestamp>2017-02-09T17:28:17Z</datestamp>
      <setSpec>user-biosyslit</setSpec>
    </header>
    <header>
      <identifier>oai:zenodo.org:287213</identifier>
      <datestamp>2017-02-09T17:47:03Z</datestamp>
      <setSpec>user-biosyslit</setSpec>
    </header>
    <header>
      <identifier>oai:zenodo.org:286683</identifier>
      <datestamp>2017-02-09T16:32:52Z</datestamp>
      <setSpec>user-biosyslit</setSpec>
    </header>
    <header>
      <identifier>oai:zenodo.org:286764</identifier>
      <datestamp>2017-02-09T16:45:51Z</datestamp>
      <setSpec>user-biosyslit</setSpec>
    </header>
    <header>
      <identifier>oai:zenodo.org:287440</identifier>
      <datestamp>2017-02-09T18:19:15Z</datestamp>
      <setSpec>user-biosyslit</setSpec>
    </header>
    <header>
      <identifier>oai:zenodo.org:289880</identifier>
      <datestamp>2017-02-10T00:45:10Z</datestamp>
      <setSpec>user-biosyslit</setSpec>
    </header>
    <header>
      <identifier>oai:zenodo.org:288467</identifier>
      <datestamp>2017-02-09T21:01:50Z</datestamp>
      <setSpec>user-biosyslit</setSpec>
    </header>
    <header>
      <identifier>oai:zenodo.org:289564</identifier>
      <datestamp>2017-02-09T23:50:31Z</datestamp>
      <setSpec>user-biosyslit</setSpec>
    </header>
    <header>
      <identifier>oai:zenodo.org:288520</identifier>
      <datestamp>2017-02-09T21:05:18Z</datestamp>
      <setSpec>user-biosyslit</setSpec>
    </header>
    <header>
      <identifier>oai:zenodo.org:289079</identifier>
      <datestamp>2017-02-09T22:34:15Z</datestamp>
      <setSpec>user-biosyslit</setSpec>
    </header>
    <header>
      <identifier>oai:zenodo.org:289284</identifier>
      <datestamp>2017-02-09T23:09:34Z</datestamp>
      <setSpec>user-biosyslit</setSpec>
    </header>
    <header>
      <identifier>oai:zenodo.org:291352</identifier>
      <datestamp>2017-02-13T20:46:21Z</datestamp>
      <setSpec>user-biosyslit</setSpec>
    </header>
    <header>
      <identifier>oai:zenodo.org:289190</identifier>
      <datestamp>2017-02-09T22:55:43Z</datestamp>
      <setSpec>user-biosyslit</setSpec>
    </header>
    <header>
      <identifier>oai:zenodo.org:290009</identifier>
      <datestamp>2017-02-10T01:05:16Z</datestamp>
      <setSpec>user-biosyslit</setSpec>
    </header>
    <header>
      <identifier>oai:zenodo.org:294074</identifier>
      <datestamp>2017-02-20T19:14:47Z</datestamp>
      <setSpec>user-biosyslit</setSpec>
    </header>
    <header>
      <identifier>oai:zenodo.org:321366</identifier>
      <datestamp>2017-02-22T10:00:49Z</datestamp>
      <setSpec>openaire</setSpec>
      <setSpec>user-biosyslit</setSpec>
      <setSpec>user-neilreichia</setSpec>
    </header>
    <header>
      <identifier>oai:zenodo.org:322192</identifier>
      <datestamp>2017-02-24T07:37:06Z</datestamp>
      <setSpec>user-biosyslit</setSpec>
    </header>
    <header>
      <identifier>oai:zenodo.org:322047</identifier>
      <datestamp>2017-02-24T07:27:11Z</datestamp>
      <setSpec>user-biosyslit</setSpec>
    </header>
    <header>
      <identifier>oai:zenodo.org:574213</identifier>
      <datestamp>2017-05-11T07:23:26Z</datestamp>
      <setSpec>user-biosyslit</setSpec>
    </header>
    <header>
      <identifier>oai:zenodo.org:322022</identifier>
      <datestamp>2017-02-24T07:24:49Z</datestamp>
      <setSpec>user-biosyslit</setSpec>
    </header>
    <header>
      <identifier>oai:zenodo.org:322659</identifier>
      <datestamp>2017-04-03T10:01:38Z</datestamp>
      <setSpec>openaire</setSpec>
      <setSpec>user-biosyslit</setSpec>
    </header>
    <header>
      <identifier>oai:zenodo.org:180146</identifier>
      <datestamp>2016-12-20T02:00:38Z</datestamp>
      <setSpec>user-biosyslit</setSpec>
    </header>
    <header>
      <identifier>oai:zenodo.org:180158</identifier>
      <datestamp>2016-12-20T02:00:38Z</datestamp>
      <setSpec>user-biosyslit</setSpec>
    </header>
    <resumptionToken expirationDate="2017-08-31T14:33:53Z" cursor="2500" completeListSize="142507">.eJwVzdFOgzAYQOF36TUxbZkWuNsCkhl_CCstgxuDgDApiIABuuzdN69P8p0rmqqqRA5-erbxDtuWxUxG8YtJDDQV449SH5dHRsVZqqJXIvfl36mTOKU1C9xpBTclQSx02BHNXyN6JtYqLniLYjGn-rRK87hw7DHQ0QK6pmFXmqGvsk9_4KI_KE7LMfSijZMDz8yCQbynD4_A9zAXuBGBsr9AHmdoPfKeAC5kuYE3H0INGFzYBfHQl7oZkmT9FeptycTc57rxoJ0j8f_Se4YMNOR1hRzKDNQu-VhPyLnebndvPVIO.DImvWQ._SZFmPebbQKSnqrq2DKmUmHeiFQ</resumptionToken>
  </ListIdentifiers>
</OAI-PMH>
