<?xml version='1.0' encoding='UTF-8'?>
<?xml-stylesheet type="text/xsl" href="/static/xsl/oai2.v1.0.xsl"?>
<OAI-PMH xmlns="http://www.openarchives.org/OAI/2.0/" xmlns:xsi="http://www.w3.org/2001/XMLSchema-instance" xsi:schemaLocation="http://www.openarchives.org/OAI/2.0/ http://www.openarchives.org/OAI/2.0/OAI-PMH.xsd">
  <responseDate>2017-08-31T15:42:35Z</responseDate>
  <request verb="ListIdentifiers" resumptionToken=".eJyNyrEKgkAYAOB3-WeJ-0_NElpEEwcVu5R0CVMR87TwivTCd8-luebve4OoqhJMstJwa-hr1JEi6pSgAqIYbpyfm4WhOCW86Hmcu8nz0CUkpbUR2GL07VQNZEvCDiXbR_SEmzFuyBQd40cqD2Oiei9GHMOX0RRcveWVaujy7OLeWdxbnNFyCJ1oYmixTC2-D_988uezxQ4UuOd1BSbVqALtKx9qAeZ7nj-LCVEm.DIm_6w.OV4FHnSAbywkLBdnaF8HiCxoAS4">https://zenodo.org/oai2d</request>
  <ListIdentifiers>
    <header>
      <identifier>oai:zenodo.org:277773</identifier>
      <datestamp>2017-02-08T21:47:26Z</datestamp>
      <setSpec>user-biosyslit</setSpec>
    </header>
    <header>
      <identifier>oai:zenodo.org:234054</identifier>
      <datestamp>2017-01-08T14:30:25Z</datestamp>
      <setSpec>user-biosyslit</setSpec>
    </header>
    <header>
      <identifier>oai:zenodo.org:234058</identifier>
      <datestamp>2017-01-08T14:30:42Z</datestamp>
      <setSpec>user-biosyslit</setSpec>
    </header>
    <header>
      <identifier>oai:zenodo.org:277774</identifier>
      <datestamp>2017-02-08T21:47:30Z</datestamp>
      <setSpec>user-biosyslit</setSpec>
    </header>
    <header>
      <identifier>oai:zenodo.org:236850</identifier>
      <datestamp>2017-01-10T06:28:25Z</datestamp>
      <setSpec>user-biosyslit</setSpec>
    </header>
    <header>
      <identifier>oai:zenodo.org:236585</identifier>
      <datestamp>2017-01-10T01:44:24Z</datestamp>
      <setSpec>user-biosyslit</setSpec>
    </header>
    <header>
      <identifier>oai:zenodo.org:236852</identifier>
      <datestamp>2017-01-10T06:28:24Z</datestamp>
      <setSpec>user-biosyslit</setSpec>
    </header>
    <header>
      <identifier>oai:zenodo.org:236587</identifier>
      <datestamp>2017-01-10T01:44:20Z</datestamp>
      <setSpec>user-biosyslit</setSpec>
    </header>
    <header>
      <identifier>oai:zenodo.org:253689</identifier>
      <datestamp>2017-01-20T09:52:44Z</datestamp>
      <setSpec>user-biosyslit</setSpec>
    </header>
    <header>
      <identifier>oai:zenodo.org:253685</identifier>
      <datestamp>2017-01-20T09:52:31Z</datestamp>
      <setSpec>user-biosyslit</setSpec>
    </header>
    <header>
      <identifier>oai:zenodo.org:253686</identifier>
      <datestamp>2017-01-20T09:52:34Z</datestamp>
      <setSpec>user-biosyslit</setSpec>
    </header>
    <header>
      <identifier>oai:zenodo.org:253687</identifier>
      <datestamp>2017-01-20T09:52:37Z</datestamp>
      <setSpec>user-biosyslit</setSpec>
    </header>
    <header>
      <identifier>oai:zenodo.org:283173</identifier>
      <datestamp>2017-02-09T08:17:03Z</datestamp>
      <setSpec>user-biosyslit</setSpec>
    </header>
    <header>
      <identifier>oai:zenodo.org:281336</identifier>
      <datestamp>2017-02-09T05:08:51Z</datestamp>
      <setSpec>user-biosyslit</setSpec>
    </header>
    <header>
      <identifier>oai:zenodo.org:281329</identifier>
      <datestamp>2017-02-09T05:08:32Z</datestamp>
      <setSpec>user-biosyslit</setSpec>
    </header>
    <header>
      <identifier>oai:zenodo.org:281327</identifier>
      <datestamp>2017-02-09T05:08:22Z</datestamp>
      <setSpec>user-biosyslit</setSpec>
    </header>
    <header>
      <identifier>oai:zenodo.org:281341</identifier>
      <datestamp>2017-02-09T05:09:03Z</datestamp>
      <setSpec>user-biosyslit</setSpec>
    </header>
    <header>
      <identifier>oai:zenodo.org:281340</identifier>
      <datestamp>2017-02-09T05:09:01Z</datestamp>
      <setSpec>user-biosyslit</setSpec>
    </header>
    <header>
      <identifier>oai:zenodo.org:281332</identifier>
      <datestamp>2017-02-09T05:08:39Z</datestamp>
      <setSpec>user-biosyslit</setSpec>
    </header>
    <header>
      <identifier>oai:zenodo.org:281328</identifier>
      <datestamp>2017-02-09T05:08:30Z</datestamp>
      <setSpec>user-biosyslit</setSpec>
    </header>
    <header>
      <identifier>oai:zenodo.org:281337</identifier>
      <datestamp>2017-02-09T05:08:54Z</datestamp>
      <setSpec>user-biosyslit</setSpec>
    </header>
    <header>
      <identifier>oai:zenodo.org:243117</identifier>
      <datestamp>2017-01-13T23:34:51Z</datestamp>
      <setSpec>user-biosyslit</setSpec>
    </header>
    <header>
      <identifier>oai:zenodo.org:264887</identifier>
      <datestamp>2017-01-31T03:55:01Z</datestamp>
      <setSpec>user-biosyslit</setSpec>
    </header>
    <header>
      <identifier>oai:zenodo.org:264883</identifier>
      <datestamp>2017-01-31T03:54:50Z</datestamp>
      <setSpec>user-biosyslit</setSpec>
    </header>
    <header>
      <identifier>oai:zenodo.org:264884</identifier>
      <datestamp>2017-01-31T03:54:53Z</datestamp>
      <setSpec>user-biosyslit</setSpec>
    </header>
    <header>
      <identifier>oai:zenodo.org:264882</identifier>
      <datestamp>2017-01-31T03:54:46Z</datestamp>
      <setSpec>user-biosyslit</setSpec>
    </header>
    <header>
      <identifier>oai:zenodo.org:264880</identifier>
      <datestamp>2017-01-31T03:54:40Z</datestamp>
      <setSpec>user-biosyslit</setSpec>
    </header>
    <header>
      <identifier>oai:zenodo.org:264879</identifier>
      <datestamp>2017-01-31T03:54:36Z</datestamp>
      <setSpec>user-biosyslit</setSpec>
    </header>
    <header>
      <identifier>oai:zenodo.org:243119</identifier>
      <datestamp>2017-01-13T23:34:59Z</datestamp>
      <setSpec>user-biosyslit</setSpec>
    </header>
    <header>
      <identifier>oai:zenodo.org:243120</identifier>
      <datestamp>2017-01-13T23:35:02Z</datestamp>
      <setSpec>user-biosyslit</setSpec>
    </header>
    <header>
      <identifier>oai:zenodo.org:236039</identifier>
      <datestamp>2017-01-09T18:11:26Z</datestamp>
      <setSpec>user-biosyslit</setSpec>
    </header>
    <header>
      <identifier>oai:zenodo.org:236051</identifier>
      <datestamp>2017-01-09T18:11:16Z</datestamp>
      <setSpec>user-biosyslit</setSpec>
    </header>
    <header>
      <identifier>oai:zenodo.org:276008</identifier>
      <datestamp>2017-02-08T17:51:28Z</datestamp>
      <setSpec>user-biosyslit</setSpec>
    </header>
    <header>
      <identifier>oai:zenodo.org:275998</identifier>
      <datestamp>2017-02-08T17:50:55Z</datestamp>
      <setSpec>user-biosyslit</setSpec>
    </header>
    <header>
      <identifier>oai:zenodo.org:236054</identifier>
      <datestamp>2017-01-09T18:11:24Z</datestamp>
      <setSpec>user-biosyslit</setSpec>
    </header>
    <header>
      <identifier>oai:zenodo.org:276006</identifier>
      <datestamp>2017-02-08T17:51:22Z</datestamp>
      <setSpec>user-biosyslit</setSpec>
    </header>
    <header>
      <identifier>oai:zenodo.org:276003</identifier>
      <datestamp>2017-02-08T17:51:12Z</datestamp>
      <setSpec>user-biosyslit</setSpec>
    </header>
    <header>
      <identifier>oai:zenodo.org:276007</identifier>
      <datestamp>2017-02-08T17:51:24Z</datestamp>
      <setSpec>user-biosyslit</setSpec>
    </header>
    <header>
      <identifier>oai:zenodo.org:281398</identifier>
      <datestamp>2017-02-09T05:14:30Z</datestamp>
      <setSpec>user-biosyslit</setSpec>
    </header>
    <header>
      <identifier>oai:zenodo.org:281397</identifier>
      <datestamp>2017-02-09T05:14:27Z</datestamp>
      <setSpec>user-biosyslit</setSpec>
    </header>
    <header>
      <identifier>oai:zenodo.org:281400</identifier>
      <datestamp>2017-02-09T05:14:34Z</datestamp>
      <setSpec>user-biosyslit</setSpec>
    </header>
    <header>
      <identifier>oai:zenodo.org:281395</identifier>
      <datestamp>2017-02-09T05:14:23Z</datestamp>
      <setSpec>user-biosyslit</setSpec>
    </header>
    <header>
      <identifier>oai:zenodo.org:281394</identifier>
      <datestamp>2017-02-09T05:14:20Z</datestamp>
      <setSpec>user-biosyslit</setSpec>
    </header>
    <header>
      <identifier>oai:zenodo.org:281393</identifier>
      <datestamp>2017-02-09T05:14:18Z</datestamp>
      <setSpec>user-biosyslit</setSpec>
    </header>
    <header>
      <identifier>oai:zenodo.org:281396</identifier>
      <datestamp>2017-02-09T05:14:25Z</datestamp>
      <setSpec>user-biosyslit</setSpec>
    </header>
    <header>
      <identifier>oai:zenodo.org:284103</identifier>
      <datestamp>2017-02-09T10:27:37Z</datestamp>
      <setSpec>user-biosyslit</setSpec>
    </header>
    <header>
      <identifier>oai:zenodo.org:284104</identifier>
      <datestamp>2017-02-09T10:27:40Z</datestamp>
      <setSpec>user-biosyslit</setSpec>
    </header>
    <header>
      <identifier>oai:zenodo.org:284107</identifier>
      <datestamp>2017-02-09T10:27:45Z</datestamp>
      <setSpec>user-biosyslit</setSpec>
    </header>
    <header>
      <identifier>oai:zenodo.org:284106</identifier>
      <datestamp>2017-02-09T10:27:44Z</datestamp>
      <setSpec>user-biosyslit</setSpec>
    </header>
    <header>
      <identifier>oai:zenodo.org:252235</identifier>
      <datestamp>2017-01-19T10:58:47Z</datestamp>
      <setSpec>user-biosyslit</setSpec>
    </header>
    <header>
      <identifier>oai:zenodo.org:284102</identifier>
      <datestamp>2017-02-09T10:27:33Z</datestamp>
      <setSpec>user-biosyslit</setSpec>
    </header>
    <header>
      <identifier>oai:zenodo.org:252238</identifier>
      <datestamp>2017-01-19T10:58:54Z</datestamp>
      <setSpec>user-biosyslit</setSpec>
    </header>
    <header>
      <identifier>oai:zenodo.org:258429</identifier>
      <datestamp>2017-01-23T22:34:49Z</datestamp>
      <setSpec>user-biosyslit</setSpec>
    </header>
    <header>
      <identifier>oai:zenodo.org:240003</identifier>
      <datestamp>2017-01-12T03:30:06Z</datestamp>
      <setSpec>user-biosyslit</setSpec>
    </header>
    <header>
      <identifier>oai:zenodo.org:258431</identifier>
      <datestamp>2017-01-23T22:34:56Z</datestamp>
      <setSpec>user-biosyslit</setSpec>
    </header>
    <header>
      <identifier>oai:zenodo.org:258425</identifier>
      <datestamp>2017-01-23T22:34:39Z</datestamp>
      <setSpec>user-biosyslit</setSpec>
    </header>
    <header>
      <identifier>oai:zenodo.org:258426</identifier>
      <datestamp>2017-01-23T22:34:42Z</datestamp>
      <setSpec>user-biosyslit</setSpec>
    </header>
    <header>
      <identifier>oai:zenodo.org:254066</identifier>
      <datestamp>2017-01-20T14:03:35Z</datestamp>
      <setSpec>user-biosyslit</setSpec>
    </header>
    <header>
      <identifier>oai:zenodo.org:229255</identifier>
      <datestamp>2017-01-03T13:23:54Z</datestamp>
      <setSpec>user-biosyslit</setSpec>
    </header>
    <header>
      <identifier>oai:zenodo.org:229257</identifier>
      <datestamp>2017-01-03T13:23:46Z</datestamp>
      <setSpec>user-biosyslit</setSpec>
    </header>
    <header>
      <identifier>oai:zenodo.org:229256</identifier>
      <datestamp>2017-01-03T13:23:43Z</datestamp>
      <setSpec>user-biosyslit</setSpec>
    </header>
    <header>
      <identifier>oai:zenodo.org:229259</identifier>
      <datestamp>2017-01-03T13:23:53Z</datestamp>
      <setSpec>user-biosyslit</setSpec>
    </header>
    <header>
      <identifier>oai:zenodo.org:274015</identifier>
      <datestamp>2017-02-08T11:48:33Z</datestamp>
      <setSpec>user-biosyslit</setSpec>
    </header>
    <header>
      <identifier>oai:zenodo.org:229104</identifier>
      <datestamp>2017-01-03T09:40:05Z</datestamp>
      <setSpec>user-biosyslit</setSpec>
    </header>
    <header>
      <identifier>oai:zenodo.org:229105</identifier>
      <datestamp>2017-01-03T09:40:09Z</datestamp>
      <setSpec>user-biosyslit</setSpec>
    </header>
    <header>
      <identifier>oai:zenodo.org:229103</identifier>
      <datestamp>2017-01-03T09:40:02Z</datestamp>
      <setSpec>user-biosyslit</setSpec>
    </header>
    <header>
      <identifier>oai:zenodo.org:229102</identifier>
      <datestamp>2017-01-03T09:39:57Z</datestamp>
      <setSpec>user-biosyslit</setSpec>
    </header>
    <header>
      <identifier>oai:zenodo.org:273838</identifier>
      <datestamp>2017-02-08T10:53:31Z</datestamp>
      <setSpec>user-biosyslit</setSpec>
    </header>
    <header>
      <identifier>oai:zenodo.org:273832</identifier>
      <datestamp>2017-02-08T10:53:15Z</datestamp>
      <setSpec>user-biosyslit</setSpec>
    </header>
    <header>
      <identifier>oai:zenodo.org:273837</identifier>
      <datestamp>2017-02-08T10:53:27Z</datestamp>
      <setSpec>user-biosyslit</setSpec>
    </header>
    <header>
      <identifier>oai:zenodo.org:273834</identifier>
      <datestamp>2017-02-08T10:53:20Z</datestamp>
      <setSpec>user-biosyslit</setSpec>
    </header>
    <header>
      <identifier>oai:zenodo.org:273835</identifier>
      <datestamp>2017-02-08T10:53:22Z</datestamp>
      <setSpec>user-biosyslit</setSpec>
    </header>
    <header>
      <identifier>oai:zenodo.org:244950</identifier>
      <datestamp>2017-01-15T05:46:51Z</datestamp>
      <setSpec>user-biosyslit</setSpec>
    </header>
    <header>
      <identifier>oai:zenodo.org:244947</identifier>
      <datestamp>2017-01-15T05:46:37Z</datestamp>
      <setSpec>user-biosyslit</setSpec>
    </header>
    <header>
      <identifier>oai:zenodo.org:248222</identifier>
      <datestamp>2017-01-17T01:20:37Z</datestamp>
      <setSpec>user-biosyslit</setSpec>
    </header>
    <header>
      <identifier>oai:zenodo.org:248223</identifier>
      <datestamp>2017-01-17T01:20:41Z</datestamp>
      <setSpec>user-biosyslit</setSpec>
    </header>
    <header>
      <identifier>oai:zenodo.org:248219</identifier>
      <datestamp>2017-01-17T01:20:25Z</datestamp>
      <setSpec>user-biosyslit</setSpec>
    </header>
    <header>
      <identifier>oai:zenodo.org:248227</identifier>
      <datestamp>2017-01-17T01:20:55Z</datestamp>
      <setSpec>user-biosyslit</setSpec>
    </header>
    <header>
      <identifier>oai:zenodo.org:273745</identifier>
      <datestamp>2017-02-08T10:38:53Z</datestamp>
      <setSpec>user-biosyslit</setSpec>
    </header>
    <header>
      <identifier>oai:zenodo.org:281616</identifier>
      <datestamp>2017-02-09T05:37:57Z</datestamp>
      <setSpec>user-biosyslit</setSpec>
    </header>
    <header>
      <identifier>oai:zenodo.org:245332</identifier>
      <datestamp>2017-01-15T11:53:30Z</datestamp>
      <setSpec>user-biosyslit</setSpec>
    </header>
    <header>
      <identifier>oai:zenodo.org:245335</identifier>
      <datestamp>2017-01-15T11:53:28Z</datestamp>
      <setSpec>user-biosyslit</setSpec>
    </header>
    <header>
      <identifier>oai:zenodo.org:248188</identifier>
      <datestamp>2017-01-17T00:56:45Z</datestamp>
      <setSpec>user-biosyslit</setSpec>
    </header>
    <header>
      <identifier>oai:zenodo.org:248189</identifier>
      <datestamp>2017-01-17T00:56:51Z</datestamp>
      <setSpec>user-biosyslit</setSpec>
    </header>
    <header>
      <identifier>oai:zenodo.org:245333</identifier>
      <datestamp>2017-01-15T11:53:21Z</datestamp>
      <setSpec>user-biosyslit</setSpec>
    </header>
    <header>
      <identifier>oai:zenodo.org:227905</identifier>
      <datestamp>2017-01-02T06:33:24Z</datestamp>
      <setSpec>user-biosyslit</setSpec>
    </header>
    <header>
      <identifier>oai:zenodo.org:257755</identifier>
      <datestamp>2017-01-23T13:06:19Z</datestamp>
      <setSpec>user-biosyslit</setSpec>
    </header>
    <header>
      <identifier>oai:zenodo.org:257757</identifier>
      <datestamp>2017-01-23T13:06:25Z</datestamp>
      <setSpec>user-biosyslit</setSpec>
    </header>
    <header>
      <identifier>oai:zenodo.org:273737</identifier>
      <datestamp>2017-02-08T10:36:09Z</datestamp>
      <setSpec>user-biosyslit</setSpec>
    </header>
    <header>
      <identifier>oai:zenodo.org:257761</identifier>
      <datestamp>2017-01-23T13:06:36Z</datestamp>
      <setSpec>user-biosyslit</setSpec>
    </header>
    <header>
      <identifier>oai:zenodo.org:273736</identifier>
      <datestamp>2017-02-08T10:36:07Z</datestamp>
      <setSpec>user-biosyslit</setSpec>
    </header>
    <header>
      <identifier>oai:zenodo.org:257760</identifier>
      <datestamp>2017-01-23T13:06:33Z</datestamp>
      <setSpec>user-biosyslit</setSpec>
    </header>
    <header>
      <identifier>oai:zenodo.org:257752</identifier>
      <datestamp>2017-01-23T13:06:11Z</datestamp>
      <setSpec>user-biosyslit</setSpec>
    </header>
    <header>
      <identifier>oai:zenodo.org:257754</identifier>
      <datestamp>2017-01-23T13:06:17Z</datestamp>
      <setSpec>user-biosyslit</setSpec>
    </header>
    <header>
      <identifier>oai:zenodo.org:273735</identifier>
      <datestamp>2017-02-08T10:36:04Z</datestamp>
      <setSpec>user-biosyslit</setSpec>
    </header>
    <header>
      <identifier>oai:zenodo.org:282829</identifier>
      <datestamp>2017-02-09T07:42:03Z</datestamp>
      <setSpec>user-biosyslit</setSpec>
    </header>
    <header>
      <identifier>oai:zenodo.org:229059</identifier>
      <datestamp>2017-01-03T08:57:45Z</datestamp>
      <setSpec>user-biosyslit</setSpec>
    </header>
    <header>
      <identifier>oai:zenodo.org:277306</identifier>
      <datestamp>2017-02-08T20:50:20Z</datestamp>
      <setSpec>user-biosyslit</setSpec>
    </header>
    <header>
      <identifier>oai:zenodo.org:277307</identifier>
      <datestamp>2017-02-08T20:50:19Z</datestamp>
      <setSpec>user-biosyslit</setSpec>
    </header>
    <header>
      <identifier>oai:zenodo.org:274773</identifier>
      <datestamp>2017-02-08T14:19:50Z</datestamp>
      <setSpec>user-biosyslit</setSpec>
    </header>
    <resumptionToken expirationDate="2017-08-31T15:44:35Z" cursor="24100" completeListSize="77796">.eJyNyk0LgjAYAOD_8p4lNmd-QRexpEOKrol6CZsi5TJxhbrov-elc52f5wWyritw0WqNTcdwELaQTSxjbWog-XAX4nRZGHiWCt4JVgbpM7mlKNcbK_TldPBzEqoWRTes6C7WM2xP7ILm-MgeuUqmlOxHirbWQcVzeN0vryJRIIpz0FPWeYLq1RBt45lijxaEfx_-86mfz5cb0KAvmxpc3SAatGM5NBLc1_v9AaC5UT8.DIm_6w.rKuKkEsfcPz-mgI4LZD5RqLW-ko</resumptionToken>
  </ListIdentifiers>
</OAI-PMH>
