<?xml version='1.0' encoding='UTF-8'?>
<?xml-stylesheet type="text/xsl" href="/static/xsl/oai2.v1.0.xsl"?>
<OAI-PMH xmlns="http://www.openarchives.org/OAI/2.0/" xmlns:xsi="http://www.w3.org/2001/XMLSchema-instance" xsi:schemaLocation="http://www.openarchives.org/OAI/2.0/ http://www.openarchives.org/OAI/2.0/OAI-PMH.xsd">
  <responseDate>2017-08-31T15:44:46Z</responseDate>
  <request verb="ListIdentifiers" resumptionToken=".eJyNysEOQzAYAOB3-c-ytKUjkl0WJg4IHRmXxRAxZaJbUPHu22Xn7fx9K4iqKsFEO43oBGGKdI1QZFCNKiCK8cH5tfk4FJeEFz2Pcyd5RV2CUlLrviVmz0pVX7Yo6LBkp5BcsDHHDVrCc_xMZTQnqjsxZOueDBf_7n5eqQYOz27OwOL-yBkpx8AOF4aPLFOL78N_PvnzWeIACgx5XYFJtb0C7ZSPtQBz3bY3xOJRZw.DInAbg.ajc1m9ELAWuH_M3JgoGq8QZz5aY">https://zenodo.org/oai2d</request>
  <ListIdentifiers>
    <header>
      <identifier>oai:zenodo.org:256548</identifier>
      <datestamp>2017-01-22T17:20:44Z</datestamp>
      <setSpec>user-biosyslit</setSpec>
    </header>
    <header>
      <identifier>oai:zenodo.org:257296</identifier>
      <datestamp>2017-01-23T04:54:57Z</datestamp>
      <setSpec>user-biosyslit</setSpec>
    </header>
    <header>
      <identifier>oai:zenodo.org:257135</identifier>
      <datestamp>2017-01-23T02:34:26Z</datestamp>
      <setSpec>user-biosyslit</setSpec>
    </header>
    <header>
      <identifier>oai:zenodo.org:257503</identifier>
      <datestamp>2017-01-23T08:19:56Z</datestamp>
      <setSpec>user-biosyslit</setSpec>
    </header>
    <header>
      <identifier>oai:zenodo.org:257487</identifier>
      <datestamp>2017-01-23T07:32:44Z</datestamp>
      <setSpec>user-biosyslit</setSpec>
    </header>
    <header>
      <identifier>oai:zenodo.org:256976</identifier>
      <datestamp>2017-01-22T23:39:18Z</datestamp>
      <setSpec>user-biosyslit</setSpec>
    </header>
    <header>
      <identifier>oai:zenodo.org:258755</identifier>
      <datestamp>2017-01-24T04:24:36Z</datestamp>
      <setSpec>user-biosyslit</setSpec>
    </header>
    <header>
      <identifier>oai:zenodo.org:258152</identifier>
      <datestamp>2017-01-23T17:20:39Z</datestamp>
      <setSpec>user-biosyslit</setSpec>
    </header>
    <header>
      <identifier>oai:zenodo.org:257488</identifier>
      <datestamp>2017-01-23T07:32:35Z</datestamp>
      <setSpec>user-biosyslit</setSpec>
    </header>
    <header>
      <identifier>oai:zenodo.org:257346</identifier>
      <datestamp>2017-01-23T05:42:01Z</datestamp>
      <setSpec>user-biosyslit</setSpec>
    </header>
    <header>
      <identifier>oai:zenodo.org:257796</identifier>
      <datestamp>2017-01-23T13:29:39Z</datestamp>
      <setSpec>user-biosyslit</setSpec>
    </header>
    <header>
      <identifier>oai:zenodo.org:257951</identifier>
      <datestamp>2017-01-23T14:43:18Z</datestamp>
      <setSpec>user-biosyslit</setSpec>
    </header>
    <header>
      <identifier>oai:zenodo.org:259045</identifier>
      <datestamp>2017-01-24T07:31:50Z</datestamp>
      <setSpec>user-biosyslit</setSpec>
    </header>
    <header>
      <identifier>oai:zenodo.org:257496</identifier>
      <datestamp>2017-01-23T08:19:32Z</datestamp>
      <setSpec>user-biosyslit</setSpec>
    </header>
    <header>
      <identifier>oai:zenodo.org:258346</identifier>
      <datestamp>2017-01-23T21:18:13Z</datestamp>
      <setSpec>user-biosyslit</setSpec>
    </header>
    <header>
      <identifier>oai:zenodo.org:257798</identifier>
      <datestamp>2017-01-23T13:29:43Z</datestamp>
      <setSpec>user-biosyslit</setSpec>
    </header>
    <header>
      <identifier>oai:zenodo.org:258034</identifier>
      <datestamp>2017-01-23T15:33:25Z</datestamp>
      <setSpec>user-biosyslit</setSpec>
    </header>
    <header>
      <identifier>oai:zenodo.org:258026</identifier>
      <datestamp>2017-01-23T15:25:45Z</datestamp>
      <setSpec>user-biosyslit</setSpec>
    </header>
    <header>
      <identifier>oai:zenodo.org:258499</identifier>
      <datestamp>2017-01-23T23:51:11Z</datestamp>
      <setSpec>user-biosyslit</setSpec>
    </header>
    <header>
      <identifier>oai:zenodo.org:258236</identifier>
      <datestamp>2017-01-23T18:52:21Z</datestamp>
      <setSpec>user-biosyslit</setSpec>
    </header>
    <header>
      <identifier>oai:zenodo.org:258659</identifier>
      <datestamp>2017-01-24T02:41:54Z</datestamp>
      <setSpec>user-biosyslit</setSpec>
    </header>
    <header>
      <identifier>oai:zenodo.org:258338</identifier>
      <datestamp>2017-01-23T21:00:29Z</datestamp>
      <setSpec>user-biosyslit</setSpec>
    </header>
    <header>
      <identifier>oai:zenodo.org:258538</identifier>
      <datestamp>2017-01-24T00:04:48Z</datestamp>
      <setSpec>user-biosyslit</setSpec>
    </header>
    <header>
      <identifier>oai:zenodo.org:258368</identifier>
      <datestamp>2017-01-23T21:41:29Z</datestamp>
      <setSpec>user-biosyslit</setSpec>
    </header>
    <header>
      <identifier>oai:zenodo.org:258285</identifier>
      <datestamp>2017-01-23T20:19:27Z</datestamp>
      <setSpec>user-biosyslit</setSpec>
    </header>
    <header>
      <identifier>oai:zenodo.org:258532</identifier>
      <datestamp>2017-01-24T00:04:22Z</datestamp>
      <setSpec>user-biosyslit</setSpec>
    </header>
    <header>
      <identifier>oai:zenodo.org:258282</identifier>
      <datestamp>2017-01-23T20:19:14Z</datestamp>
      <setSpec>user-biosyslit</setSpec>
    </header>
    <header>
      <identifier>oai:zenodo.org:258516</identifier>
      <datestamp>2017-01-24T00:01:57Z</datestamp>
      <setSpec>user-biosyslit</setSpec>
    </header>
    <header>
      <identifier>oai:zenodo.org:258409</identifier>
      <datestamp>2017-01-23T22:05:16Z</datestamp>
      <setSpec>user-biosyslit</setSpec>
    </header>
    <header>
      <identifier>oai:zenodo.org:258575</identifier>
      <datestamp>2017-01-24T00:50:14Z</datestamp>
      <setSpec>user-biosyslit</setSpec>
    </header>
    <header>
      <identifier>oai:zenodo.org:259000</identifier>
      <datestamp>2017-01-24T07:28:58Z</datestamp>
      <setSpec>user-biosyslit</setSpec>
    </header>
    <header>
      <identifier>oai:zenodo.org:258745</identifier>
      <datestamp>2017-01-24T04:21:12Z</datestamp>
      <setSpec>user-biosyslit</setSpec>
    </header>
    <header>
      <identifier>oai:zenodo.org:258661</identifier>
      <datestamp>2017-01-24T02:41:52Z</datestamp>
      <setSpec>user-biosyslit</setSpec>
    </header>
    <header>
      <identifier>oai:zenodo.org:260452</identifier>
      <datestamp>2017-01-27T20:45:55Z</datestamp>
      <setSpec>user-biosyslit</setSpec>
    </header>
    <header>
      <identifier>oai:zenodo.org:258875</identifier>
      <datestamp>2017-01-24T05:43:16Z</datestamp>
      <setSpec>user-biosyslit</setSpec>
    </header>
    <header>
      <identifier>oai:zenodo.org:259118</identifier>
      <datestamp>2017-01-24T07:53:00Z</datestamp>
      <setSpec>user-biosyslit</setSpec>
    </header>
    <header>
      <identifier>oai:zenodo.org:259221</identifier>
      <datestamp>2017-01-24T08:58:41Z</datestamp>
      <setSpec>user-biosyslit</setSpec>
    </header>
    <header>
      <identifier>oai:zenodo.org:259178</identifier>
      <datestamp>2017-01-24T08:34:24Z</datestamp>
      <setSpec>user-biosyslit</setSpec>
    </header>
    <header>
      <identifier>oai:zenodo.org:254688</identifier>
      <datestamp>2017-01-21T01:34:40Z</datestamp>
      <setSpec>user-biosyslit</setSpec>
    </header>
    <header>
      <identifier>oai:zenodo.org:254946</identifier>
      <datestamp>2017-01-21T05:30:34Z</datestamp>
      <setSpec>user-biosyslit</setSpec>
    </header>
    <header>
      <identifier>oai:zenodo.org:255602</identifier>
      <datestamp>2017-01-21T15:59:23Z</datestamp>
      <setSpec>user-biosyslit</setSpec>
    </header>
    <header>
      <identifier>oai:zenodo.org:256796</identifier>
      <datestamp>2017-01-22T20:49:57Z</datestamp>
      <setSpec>user-biosyslit</setSpec>
    </header>
    <header>
      <identifier>oai:zenodo.org:255726</identifier>
      <datestamp>2017-01-21T19:30:24Z</datestamp>
      <setSpec>user-biosyslit</setSpec>
    </header>
    <header>
      <identifier>oai:zenodo.org:255255</identifier>
      <datestamp>2017-01-21T10:24:54Z</datestamp>
      <setSpec>user-biosyslit</setSpec>
    </header>
    <header>
      <identifier>oai:zenodo.org:255217</identifier>
      <datestamp>2017-01-21T09:59:47Z</datestamp>
      <setSpec>user-biosyslit</setSpec>
    </header>
    <header>
      <identifier>oai:zenodo.org:255114</identifier>
      <datestamp>2017-01-21T08:08:31Z</datestamp>
      <setSpec>user-biosyslit</setSpec>
    </header>
    <header>
      <identifier>oai:zenodo.org:255627</identifier>
      <datestamp>2017-01-21T17:31:06Z</datestamp>
      <setSpec>user-biosyslit</setSpec>
    </header>
    <header>
      <identifier>oai:zenodo.org:256186</identifier>
      <datestamp>2017-01-22T06:36:07Z</datestamp>
      <setSpec>user-biosyslit</setSpec>
    </header>
    <header>
      <identifier>oai:zenodo.org:256218</identifier>
      <datestamp>2017-01-22T07:10:34Z</datestamp>
      <setSpec>user-biosyslit</setSpec>
    </header>
    <header>
      <identifier>oai:zenodo.org:256188</identifier>
      <datestamp>2017-01-22T06:38:35Z</datestamp>
      <setSpec>user-biosyslit</setSpec>
    </header>
    <header>
      <identifier>oai:zenodo.org:256033</identifier>
      <datestamp>2017-01-22T02:36:38Z</datestamp>
      <setSpec>user-biosyslit</setSpec>
    </header>
    <header>
      <identifier>oai:zenodo.org:255574</identifier>
      <datestamp>2017-01-21T15:58:03Z</datestamp>
      <setSpec>user-biosyslit</setSpec>
    </header>
    <header>
      <identifier>oai:zenodo.org:256827</identifier>
      <datestamp>2017-01-22T21:18:24Z</datestamp>
      <setSpec>user-biosyslit</setSpec>
    </header>
    <header>
      <identifier>oai:zenodo.org:256158</identifier>
      <datestamp>2017-01-22T05:26:55Z</datestamp>
      <setSpec>user-biosyslit</setSpec>
    </header>
    <header>
      <identifier>oai:zenodo.org:255881</identifier>
      <datestamp>2017-01-21T23:07:59Z</datestamp>
      <setSpec>user-biosyslit</setSpec>
    </header>
    <header>
      <identifier>oai:zenodo.org:256556</identifier>
      <datestamp>2017-01-22T17:21:07Z</datestamp>
      <setSpec>user-biosyslit</setSpec>
    </header>
    <header>
      <identifier>oai:zenodo.org:256088</identifier>
      <datestamp>2017-01-22T03:54:18Z</datestamp>
      <setSpec>user-biosyslit</setSpec>
    </header>
    <header>
      <identifier>oai:zenodo.org:256788</identifier>
      <datestamp>2017-01-22T20:36:59Z</datestamp>
      <setSpec>user-biosyslit</setSpec>
    </header>
    <header>
      <identifier>oai:zenodo.org:256070</identifier>
      <datestamp>2017-01-22T03:25:21Z</datestamp>
      <setSpec>user-biosyslit</setSpec>
    </header>
    <header>
      <identifier>oai:zenodo.org:256342</identifier>
      <datestamp>2017-01-22T13:01:03Z</datestamp>
      <setSpec>user-biosyslit</setSpec>
    </header>
    <header>
      <identifier>oai:zenodo.org:256667</identifier>
      <datestamp>2017-01-22T19:09:35Z</datestamp>
      <setSpec>user-biosyslit</setSpec>
    </header>
    <header>
      <identifier>oai:zenodo.org:257275</identifier>
      <datestamp>2017-01-23T04:30:54Z</datestamp>
      <setSpec>user-biosyslit</setSpec>
    </header>
    <header>
      <identifier>oai:zenodo.org:256600</identifier>
      <datestamp>2017-01-22T18:35:40Z</datestamp>
      <setSpec>user-biosyslit</setSpec>
    </header>
    <header>
      <identifier>oai:zenodo.org:256760</identifier>
      <datestamp>2017-01-22T20:24:02Z</datestamp>
      <setSpec>user-biosyslit</setSpec>
    </header>
    <header>
      <identifier>oai:zenodo.org:256605</identifier>
      <datestamp>2017-01-22T18:35:55Z</datestamp>
      <setSpec>user-biosyslit</setSpec>
    </header>
    <header>
      <identifier>oai:zenodo.org:256626</identifier>
      <datestamp>2017-01-22T18:36:57Z</datestamp>
      <setSpec>user-biosyslit</setSpec>
    </header>
    <header>
      <identifier>oai:zenodo.org:257933</identifier>
      <datestamp>2017-01-23T14:08:02Z</datestamp>
      <setSpec>user-biosyslit</setSpec>
    </header>
    <header>
      <identifier>oai:zenodo.org:257340</identifier>
      <datestamp>2017-01-23T05:41:43Z</datestamp>
      <setSpec>user-biosyslit</setSpec>
    </header>
    <header>
      <identifier>oai:zenodo.org:256986</identifier>
      <datestamp>2017-01-22T23:39:47Z</datestamp>
      <setSpec>user-biosyslit</setSpec>
    </header>
    <header>
      <identifier>oai:zenodo.org:257856</identifier>
      <datestamp>2017-01-23T13:32:34Z</datestamp>
      <setSpec>user-biosyslit</setSpec>
    </header>
    <header>
      <identifier>oai:zenodo.org:257745</identifier>
      <datestamp>2017-01-23T12:56:39Z</datestamp>
      <setSpec>user-biosyslit</setSpec>
    </header>
    <header>
      <identifier>oai:zenodo.org:256954</identifier>
      <datestamp>2017-01-22T23:38:08Z</datestamp>
      <setSpec>user-biosyslit</setSpec>
    </header>
    <header>
      <identifier>oai:zenodo.org:257851</identifier>
      <datestamp>2017-01-23T13:32:19Z</datestamp>
      <setSpec>user-biosyslit</setSpec>
    </header>
    <header>
      <identifier>oai:zenodo.org:257620</identifier>
      <datestamp>2017-01-23T11:11:12Z</datestamp>
      <setSpec>user-biosyslit</setSpec>
    </header>
    <header>
      <identifier>oai:zenodo.org:258155</identifier>
      <datestamp>2017-01-23T17:26:22Z</datestamp>
      <setSpec>user-biosyslit</setSpec>
    </header>
    <header>
      <identifier>oai:zenodo.org:257256</identifier>
      <datestamp>2017-01-23T04:19:43Z</datestamp>
      <setSpec>user-biosyslit</setSpec>
    </header>
    <header>
      <identifier>oai:zenodo.org:257545</identifier>
      <datestamp>2017-01-23T09:26:37Z</datestamp>
      <setSpec>user-biosyslit</setSpec>
    </header>
    <header>
      <identifier>oai:zenodo.org:257155</identifier>
      <datestamp>2017-01-23T02:57:08Z</datestamp>
      <setSpec>user-biosyslit</setSpec>
    </header>
    <header>
      <identifier>oai:zenodo.org:257165</identifier>
      <datestamp>2017-01-23T03:05:55Z</datestamp>
      <setSpec>user-biosyslit</setSpec>
    </header>
    <header>
      <identifier>oai:zenodo.org:257604</identifier>
      <datestamp>2017-01-23T11:10:20Z</datestamp>
      <setSpec>user-biosyslit</setSpec>
    </header>
    <header>
      <identifier>oai:zenodo.org:258070</identifier>
      <datestamp>2017-01-23T15:43:35Z</datestamp>
      <setSpec>user-biosyslit</setSpec>
    </header>
    <header>
      <identifier>oai:zenodo.org:257380</identifier>
      <datestamp>2017-01-23T06:18:42Z</datestamp>
      <setSpec>user-biosyslit</setSpec>
    </header>
    <header>
      <identifier>oai:zenodo.org:258387</identifier>
      <datestamp>2017-01-23T21:54:57Z</datestamp>
      <setSpec>user-biosyslit</setSpec>
    </header>
    <header>
      <identifier>oai:zenodo.org:257812</identifier>
      <datestamp>2017-01-23T13:30:30Z</datestamp>
      <setSpec>user-biosyslit</setSpec>
    </header>
    <header>
      <identifier>oai:zenodo.org:259218</identifier>
      <datestamp>2017-01-24T08:58:33Z</datestamp>
      <setSpec>user-biosyslit</setSpec>
    </header>
    <header>
      <identifier>oai:zenodo.org:257999</identifier>
      <datestamp>2017-01-23T15:12:12Z</datestamp>
      <setSpec>user-biosyslit</setSpec>
    </header>
    <header>
      <identifier>oai:zenodo.org:257692</identifier>
      <datestamp>2017-01-23T12:19:02Z</datestamp>
      <setSpec>user-biosyslit</setSpec>
    </header>
    <header>
      <identifier>oai:zenodo.org:258735</identifier>
      <datestamp>2017-01-24T04:11:37Z</datestamp>
      <setSpec>user-biosyslit</setSpec>
    </header>
    <header>
      <identifier>oai:zenodo.org:257867</identifier>
      <datestamp>2017-01-23T13:33:16Z</datestamp>
      <setSpec>user-biosyslit</setSpec>
    </header>
    <header>
      <identifier>oai:zenodo.org:258737</identifier>
      <datestamp>2017-01-24T04:15:39Z</datestamp>
      <setSpec>user-biosyslit</setSpec>
    </header>
    <header>
      <identifier>oai:zenodo.org:258577</identifier>
      <datestamp>2017-01-24T00:50:33Z</datestamp>
      <setSpec>user-biosyslit</setSpec>
    </header>
    <header>
      <identifier>oai:zenodo.org:258365</identifier>
      <datestamp>2017-01-23T21:41:58Z</datestamp>
      <setSpec>user-biosyslit</setSpec>
    </header>
    <header>
      <identifier>oai:zenodo.org:257980</identifier>
      <datestamp>2017-01-23T15:04:51Z</datestamp>
      <setSpec>user-biosyslit</setSpec>
    </header>
    <header>
      <identifier>oai:zenodo.org:258546</identifier>
      <datestamp>2017-01-24T00:05:20Z</datestamp>
      <setSpec>user-biosyslit</setSpec>
    </header>
    <header>
      <identifier>oai:zenodo.org:258757</identifier>
      <datestamp>2017-01-24T04:24:40Z</datestamp>
      <setSpec>user-biosyslit</setSpec>
    </header>
    <header>
      <identifier>oai:zenodo.org:258520</identifier>
      <datestamp>2017-01-24T00:02:10Z</datestamp>
      <setSpec>user-biosyslit</setSpec>
    </header>
    <header>
      <identifier>oai:zenodo.org:258675</identifier>
      <datestamp>2017-01-24T02:53:52Z</datestamp>
      <setSpec>user-biosyslit</setSpec>
    </header>
    <header>
      <identifier>oai:zenodo.org:259179</identifier>
      <datestamp>2017-01-24T08:34:28Z</datestamp>
      <setSpec>user-biosyslit</setSpec>
    </header>
    <header>
      <identifier>oai:zenodo.org:258943</identifier>
      <datestamp>2017-01-24T06:36:55Z</datestamp>
      <setSpec>user-biosyslit</setSpec>
    </header>
    <header>
      <identifier>oai:zenodo.org:259671</identifier>
      <datestamp>2017-01-25T15:00:55Z</datestamp>
      <setSpec>user-biosyslit</setSpec>
    </header>
    <resumptionToken expirationDate="2017-08-31T15:46:46Z" cursor="54500" completeListSize="77796">.eJyNyj0LgkAYAOD_8s4S92GeCC1hSYOKXSfpEqYi5WniFemJ_z2X5pqfZwJVlgU4aLXGxLQtShiizKTEMkDl_UPKy21hyM-xzFspMi9-HZsYJaRigasG301ooGsUNljzfUTO2B7EDY3RSTwTfRxienhztGO-jsbgflheQUNPplev46LdSk6KPtxFI8dbntL8-_CfT_98rtqAAV1WleCsTWZA_c76SoEzzfMHlhtROg.DInAbg.XUh8p5GdYwFz4bU0gcsF6AstaRM</resumptionToken>
  </ListIdentifiers>
</OAI-PMH>
