<?xml version='1.0' encoding='UTF-8'?>
<?xml-stylesheet type="text/xsl" href="/static/xsl/oai2.v1.0.xsl"?>
<OAI-PMH xmlns="http://www.openarchives.org/OAI/2.0/" xmlns:xsi="http://www.w3.org/2001/XMLSchema-instance" xsi:schemaLocation="http://www.openarchives.org/OAI/2.0/ http://www.openarchives.org/OAI/2.0/OAI-PMH.xsd">
  <responseDate>2017-08-31T15:43:15Z</responseDate>
  <request verb="ListIdentifiers" resumptionToken=".eJyNyssKgkAUANB_uWuJeZgvaBOauFDRSck2YSpijiZOkU7477lpXetz3iCqqgQLbTAmpmYQ3TRVzdhqlCggivHO-aVZHYpTyoueJ7mbPuMuRRmp9cAWk29nNJAtCjss2SEiJ2xMSYPm6Jg8MhlPKfVeDDm6L6M5uHnrK2no8vPVHVjS7zkj5Rg60czwnp1p8X34zyd_PlvsQIEhryuwqEoVaF_5WAuw3svyAd2MUX0.DInAEw.ZbwVw2kQgInfUEMOwsLlqDi1P6o">https://zenodo.org/oai2d</request>
  <ListIdentifiers>
    <header>
      <identifier>oai:zenodo.org:251439</identifier>
      <datestamp>2017-01-18T23:14:31Z</datestamp>
      <setSpec>user-biosyslit</setSpec>
    </header>
    <header>
      <identifier>oai:zenodo.org:245133</identifier>
      <datestamp>2017-01-15T08:11:18Z</datestamp>
      <setSpec>user-biosyslit</setSpec>
    </header>
    <header>
      <identifier>oai:zenodo.org:245136</identifier>
      <datestamp>2017-01-15T08:11:08Z</datestamp>
      <setSpec>user-biosyslit</setSpec>
    </header>
    <header>
      <identifier>oai:zenodo.org:267337</identifier>
      <datestamp>2017-02-02T00:34:29Z</datestamp>
      <setSpec>user-biosyslit</setSpec>
    </header>
    <header>
      <identifier>oai:zenodo.org:245137</identifier>
      <datestamp>2017-01-15T08:11:13Z</datestamp>
      <setSpec>user-biosyslit</setSpec>
    </header>
    <header>
      <identifier>oai:zenodo.org:245134</identifier>
      <datestamp>2017-01-15T08:11:02Z</datestamp>
      <setSpec>user-biosyslit</setSpec>
    </header>
    <header>
      <identifier>oai:zenodo.org:245135</identifier>
      <datestamp>2017-01-15T08:11:05Z</datestamp>
      <setSpec>user-biosyslit</setSpec>
    </header>
    <header>
      <identifier>oai:zenodo.org:239393</identifier>
      <datestamp>2017-01-11T19:54:38Z</datestamp>
      <setSpec>user-biosyslit</setSpec>
    </header>
    <header>
      <identifier>oai:zenodo.org:242910</identifier>
      <datestamp>2017-01-13T20:40:13Z</datestamp>
      <setSpec>user-biosyslit</setSpec>
    </header>
    <header>
      <identifier>oai:zenodo.org:242913</identifier>
      <datestamp>2017-01-13T20:40:22Z</datestamp>
      <setSpec>user-biosyslit</setSpec>
    </header>
    <header>
      <identifier>oai:zenodo.org:242912</identifier>
      <datestamp>2017-01-13T20:40:18Z</datestamp>
      <setSpec>user-biosyslit</setSpec>
    </header>
    <header>
      <identifier>oai:zenodo.org:242911</identifier>
      <datestamp>2017-01-13T20:40:16Z</datestamp>
      <setSpec>user-biosyslit</setSpec>
    </header>
    <header>
      <identifier>oai:zenodo.org:247142</identifier>
      <datestamp>2017-01-16T11:52:21Z</datestamp>
      <setSpec>user-biosyslit</setSpec>
    </header>
    <header>
      <identifier>oai:zenodo.org:230324</identifier>
      <datestamp>2017-01-04T22:50:17Z</datestamp>
      <setSpec>user-biosyslit</setSpec>
    </header>
    <header>
      <identifier>oai:zenodo.org:247169</identifier>
      <datestamp>2017-01-16T11:51:47Z</datestamp>
      <setSpec>user-biosyslit</setSpec>
    </header>
    <header>
      <identifier>oai:zenodo.org:247166</identifier>
      <datestamp>2017-01-16T11:51:36Z</datestamp>
      <setSpec>user-biosyslit</setSpec>
    </header>
    <header>
      <identifier>oai:zenodo.org:230325</identifier>
      <datestamp>2017-01-04T22:50:21Z</datestamp>
      <setSpec>user-biosyslit</setSpec>
    </header>
    <header>
      <identifier>oai:zenodo.org:247176</identifier>
      <datestamp>2017-01-16T11:52:05Z</datestamp>
      <setSpec>user-biosyslit</setSpec>
    </header>
    <header>
      <identifier>oai:zenodo.org:247167</identifier>
      <datestamp>2017-01-16T11:51:40Z</datestamp>
      <setSpec>user-biosyslit</setSpec>
    </header>
    <header>
      <identifier>oai:zenodo.org:247179</identifier>
      <datestamp>2017-01-16T11:52:16Z</datestamp>
      <setSpec>user-biosyslit</setSpec>
    </header>
    <header>
      <identifier>oai:zenodo.org:247180</identifier>
      <datestamp>2017-01-16T11:52:19Z</datestamp>
      <setSpec>user-biosyslit</setSpec>
    </header>
    <header>
      <identifier>oai:zenodo.org:243087</identifier>
      <datestamp>2017-01-13T23:11:15Z</datestamp>
      <setSpec>user-biosyslit</setSpec>
    </header>
    <header>
      <identifier>oai:zenodo.org:243086</identifier>
      <datestamp>2017-01-13T23:11:11Z</datestamp>
      <setSpec>user-biosyslit</setSpec>
    </header>
    <header>
      <identifier>oai:zenodo.org:230610</identifier>
      <datestamp>2017-01-05T04:26:07Z</datestamp>
      <setSpec>user-biosyslit</setSpec>
    </header>
    <header>
      <identifier>oai:zenodo.org:243085</identifier>
      <datestamp>2017-01-13T23:11:05Z</datestamp>
      <setSpec>user-biosyslit</setSpec>
    </header>
    <header>
      <identifier>oai:zenodo.org:230608</identifier>
      <datestamp>2017-01-05T04:26:02Z</datestamp>
      <setSpec>user-biosyslit</setSpec>
    </header>
    <header>
      <identifier>oai:zenodo.org:230606</identifier>
      <datestamp>2017-01-05T04:25:55Z</datestamp>
      <setSpec>user-biosyslit</setSpec>
    </header>
    <header>
      <identifier>oai:zenodo.org:230609</identifier>
      <datestamp>2017-01-05T04:26:04Z</datestamp>
      <setSpec>user-biosyslit</setSpec>
    </header>
    <header>
      <identifier>oai:zenodo.org:230601</identifier>
      <datestamp>2017-01-05T04:25:36Z</datestamp>
      <setSpec>user-biosyslit</setSpec>
    </header>
    <header>
      <identifier>oai:zenodo.org:243713</identifier>
      <datestamp>2017-01-14T09:49:14Z</datestamp>
      <setSpec>user-biosyslit</setSpec>
    </header>
    <header>
      <identifier>oai:zenodo.org:278261</identifier>
      <datestamp>2017-02-08T22:45:37Z</datestamp>
      <setSpec>user-biosyslit</setSpec>
    </header>
    <header>
      <identifier>oai:zenodo.org:278266</identifier>
      <datestamp>2017-02-08T22:45:33Z</datestamp>
      <setSpec>user-biosyslit</setSpec>
    </header>
    <header>
      <identifier>oai:zenodo.org:278267</identifier>
      <datestamp>2017-02-08T22:45:35Z</datestamp>
      <setSpec>user-biosyslit</setSpec>
    </header>
    <header>
      <identifier>oai:zenodo.org:278265</identifier>
      <datestamp>2017-02-08T22:45:27Z</datestamp>
      <setSpec>user-biosyslit</setSpec>
    </header>
    <header>
      <identifier>oai:zenodo.org:278263</identifier>
      <datestamp>2017-02-08T22:45:22Z</datestamp>
      <setSpec>user-biosyslit</setSpec>
    </header>
    <header>
      <identifier>oai:zenodo.org:254534</identifier>
      <datestamp>2017-01-20T20:43:59Z</datestamp>
      <setSpec>user-biosyslit</setSpec>
    </header>
    <header>
      <identifier>oai:zenodo.org:242486</identifier>
      <datestamp>2017-01-13T15:43:09Z</datestamp>
      <setSpec>user-biosyslit</setSpec>
    </header>
    <header>
      <identifier>oai:zenodo.org:242488</identifier>
      <datestamp>2017-01-13T15:43:18Z</datestamp>
      <setSpec>user-biosyslit</setSpec>
    </header>
    <header>
      <identifier>oai:zenodo.org:242483</identifier>
      <datestamp>2017-01-13T15:42:56Z</datestamp>
      <setSpec>user-biosyslit</setSpec>
    </header>
    <header>
      <identifier>oai:zenodo.org:254551</identifier>
      <datestamp>2017-01-20T20:43:40Z</datestamp>
      <setSpec>user-biosyslit</setSpec>
    </header>
    <header>
      <identifier>oai:zenodo.org:254547</identifier>
      <datestamp>2017-01-20T20:43:30Z</datestamp>
      <setSpec>user-biosyslit</setSpec>
    </header>
    <header>
      <identifier>oai:zenodo.org:254549</identifier>
      <datestamp>2017-01-20T20:43:35Z</datestamp>
      <setSpec>user-biosyslit</setSpec>
    </header>
    <header>
      <identifier>oai:zenodo.org:242487</identifier>
      <datestamp>2017-01-13T15:43:13Z</datestamp>
      <setSpec>user-biosyslit</setSpec>
    </header>
    <header>
      <identifier>oai:zenodo.org:254556</identifier>
      <datestamp>2017-01-20T20:43:53Z</datestamp>
      <setSpec>user-biosyslit</setSpec>
    </header>
    <header>
      <identifier>oai:zenodo.org:231782</identifier>
      <datestamp>2017-01-06T07:15:34Z</datestamp>
      <setSpec>user-biosyslit</setSpec>
    </header>
    <header>
      <identifier>oai:zenodo.org:287886</identifier>
      <datestamp>2017-02-09T19:34:03Z</datestamp>
      <setSpec>user-biosyslit</setSpec>
    </header>
    <header>
      <identifier>oai:zenodo.org:249734</identifier>
      <datestamp>2017-01-17T23:22:21Z</datestamp>
      <setSpec>user-biosyslit</setSpec>
    </header>
    <header>
      <identifier>oai:zenodo.org:249733</identifier>
      <datestamp>2017-01-17T23:22:16Z</datestamp>
      <setSpec>user-biosyslit</setSpec>
    </header>
    <header>
      <identifier>oai:zenodo.org:249738</identifier>
      <datestamp>2017-01-17T23:22:39Z</datestamp>
      <setSpec>user-biosyslit</setSpec>
    </header>
    <header>
      <identifier>oai:zenodo.org:249739</identifier>
      <datestamp>2017-01-17T23:22:44Z</datestamp>
      <setSpec>user-biosyslit</setSpec>
    </header>
    <header>
      <identifier>oai:zenodo.org:249744</identifier>
      <datestamp>2017-01-17T23:23:05Z</datestamp>
      <setSpec>user-biosyslit</setSpec>
    </header>
    <header>
      <identifier>oai:zenodo.org:249742</identifier>
      <datestamp>2017-01-17T23:22:56Z</datestamp>
      <setSpec>user-biosyslit</setSpec>
    </header>
    <header>
      <identifier>oai:zenodo.org:249737</identifier>
      <datestamp>2017-01-17T23:22:34Z</datestamp>
      <setSpec>user-biosyslit</setSpec>
    </header>
    <header>
      <identifier>oai:zenodo.org:249736</identifier>
      <datestamp>2017-01-17T23:22:30Z</datestamp>
      <setSpec>user-biosyslit</setSpec>
    </header>
    <header>
      <identifier>oai:zenodo.org:241424</identifier>
      <datestamp>2017-01-13T01:12:17Z</datestamp>
      <setSpec>user-biosyslit</setSpec>
    </header>
    <header>
      <identifier>oai:zenodo.org:241431</identifier>
      <datestamp>2017-01-13T01:11:48Z</datestamp>
      <setSpec>user-biosyslit</setSpec>
    </header>
    <header>
      <identifier>oai:zenodo.org:241439</identifier>
      <datestamp>2017-01-13T01:12:13Z</datestamp>
      <setSpec>user-biosyslit</setSpec>
    </header>
    <header>
      <identifier>oai:zenodo.org:241434</identifier>
      <datestamp>2017-01-13T01:12:01Z</datestamp>
      <setSpec>user-biosyslit</setSpec>
    </header>
    <header>
      <identifier>oai:zenodo.org:241428</identifier>
      <datestamp>2017-01-13T01:11:40Z</datestamp>
      <setSpec>user-biosyslit</setSpec>
    </header>
    <header>
      <identifier>oai:zenodo.org:241438</identifier>
      <datestamp>2017-01-13T01:12:10Z</datestamp>
      <setSpec>user-biosyslit</setSpec>
    </header>
    <header>
      <identifier>oai:zenodo.org:241435</identifier>
      <datestamp>2017-01-13T01:12:03Z</datestamp>
      <setSpec>user-biosyslit</setSpec>
    </header>
    <header>
      <identifier>oai:zenodo.org:241432</identifier>
      <datestamp>2017-01-13T01:11:53Z</datestamp>
      <setSpec>user-biosyslit</setSpec>
    </header>
    <header>
      <identifier>oai:zenodo.org:233405</identifier>
      <datestamp>2017-01-08T04:29:22Z</datestamp>
      <setSpec>user-biosyslit</setSpec>
    </header>
    <header>
      <identifier>oai:zenodo.org:233402</identifier>
      <datestamp>2017-01-08T04:29:16Z</datestamp>
      <setSpec>user-biosyslit</setSpec>
    </header>
    <header>
      <identifier>oai:zenodo.org:233404</identifier>
      <datestamp>2017-01-08T04:29:19Z</datestamp>
      <setSpec>user-biosyslit</setSpec>
    </header>
    <header>
      <identifier>oai:zenodo.org:249541</identifier>
      <datestamp>2017-01-17T21:03:48Z</datestamp>
      <setSpec>user-biosyslit</setSpec>
    </header>
    <header>
      <identifier>oai:zenodo.org:233111</identifier>
      <datestamp>2017-01-08T00:31:31Z</datestamp>
      <setSpec>user-biosyslit</setSpec>
    </header>
    <header>
      <identifier>oai:zenodo.org:249545</identifier>
      <datestamp>2017-01-17T21:03:11Z</datestamp>
      <setSpec>user-biosyslit</setSpec>
    </header>
    <header>
      <identifier>oai:zenodo.org:249546</identifier>
      <datestamp>2017-01-17T21:03:15Z</datestamp>
      <setSpec>user-biosyslit</setSpec>
    </header>
    <header>
      <identifier>oai:zenodo.org:233114</identifier>
      <datestamp>2017-01-08T00:31:21Z</datestamp>
      <setSpec>user-biosyslit</setSpec>
    </header>
    <header>
      <identifier>oai:zenodo.org:249542</identifier>
      <datestamp>2017-01-17T21:02:55Z</datestamp>
      <setSpec>user-biosyslit</setSpec>
    </header>
    <header>
      <identifier>oai:zenodo.org:233115</identifier>
      <datestamp>2017-01-08T00:31:27Z</datestamp>
      <setSpec>user-biosyslit</setSpec>
    </header>
    <header>
      <identifier>oai:zenodo.org:248787</identifier>
      <datestamp>2017-01-17T11:02:56Z</datestamp>
      <setSpec>user-biosyslit</setSpec>
    </header>
    <header>
      <identifier>oai:zenodo.org:248781</identifier>
      <datestamp>2017-01-17T11:02:38Z</datestamp>
      <setSpec>user-biosyslit</setSpec>
    </header>
    <header>
      <identifier>oai:zenodo.org:248789</identifier>
      <datestamp>2017-01-17T11:03:02Z</datestamp>
      <setSpec>user-biosyslit</setSpec>
    </header>
    <header>
      <identifier>oai:zenodo.org:248784</identifier>
      <datestamp>2017-01-17T11:02:47Z</datestamp>
      <setSpec>user-biosyslit</setSpec>
    </header>
    <header>
      <identifier>oai:zenodo.org:248780</identifier>
      <datestamp>2017-01-17T11:02:35Z</datestamp>
      <setSpec>user-biosyslit</setSpec>
    </header>
    <header>
      <identifier>oai:zenodo.org:248790</identifier>
      <datestamp>2017-01-17T11:03:04Z</datestamp>
      <setSpec>user-biosyslit</setSpec>
    </header>
    <header>
      <identifier>oai:zenodo.org:248793</identifier>
      <datestamp>2017-01-17T11:03:13Z</datestamp>
      <setSpec>user-biosyslit</setSpec>
    </header>
    <header>
      <identifier>oai:zenodo.org:248792</identifier>
      <datestamp>2017-01-17T11:03:09Z</datestamp>
      <setSpec>user-biosyslit</setSpec>
    </header>
    <header>
      <identifier>oai:zenodo.org:248791</identifier>
      <datestamp>2017-01-17T11:03:07Z</datestamp>
      <setSpec>user-biosyslit</setSpec>
    </header>
    <header>
      <identifier>oai:zenodo.org:238955</identifier>
      <datestamp>2017-01-11T13:50:57Z</datestamp>
      <setSpec>user-biosyslit</setSpec>
    </header>
    <header>
      <identifier>oai:zenodo.org:231699</identifier>
      <datestamp>2017-01-06T06:13:20Z</datestamp>
      <setSpec>user-biosyslit</setSpec>
    </header>
    <header>
      <identifier>oai:zenodo.org:231704</identifier>
      <datestamp>2017-01-06T06:13:08Z</datestamp>
      <setSpec>user-biosyslit</setSpec>
    </header>
    <header>
      <identifier>oai:zenodo.org:231706</identifier>
      <datestamp>2017-01-06T06:13:15Z</datestamp>
      <setSpec>user-biosyslit</setSpec>
    </header>
    <header>
      <identifier>oai:zenodo.org:231705</identifier>
      <datestamp>2017-01-06T06:13:11Z</datestamp>
      <setSpec>user-biosyslit</setSpec>
    </header>
    <header>
      <identifier>oai:zenodo.org:226687</identifier>
      <datestamp>2017-01-01T02:00:02Z</datestamp>
      <setSpec>user-biosyslit</setSpec>
    </header>
    <header>
      <identifier>oai:zenodo.org:226693</identifier>
      <datestamp>2017-01-01T02:00:16Z</datestamp>
      <setSpec>user-biosyslit</setSpec>
    </header>
    <header>
      <identifier>oai:zenodo.org:230073</identifier>
      <datestamp>2017-01-04T18:56:18Z</datestamp>
      <setSpec>user-biosyslit</setSpec>
    </header>
    <header>
      <identifier>oai:zenodo.org:253997</identifier>
      <datestamp>2017-01-20T13:15:53Z</datestamp>
      <setSpec>user-biosyslit</setSpec>
    </header>
    <header>
      <identifier>oai:zenodo.org:230075</identifier>
      <datestamp>2017-01-04T18:56:04Z</datestamp>
      <setSpec>user-biosyslit</setSpec>
    </header>
    <header>
      <identifier>oai:zenodo.org:230077</identifier>
      <datestamp>2017-01-04T18:56:11Z</datestamp>
      <setSpec>user-biosyslit</setSpec>
    </header>
    <header>
      <identifier>oai:zenodo.org:230078</identifier>
      <datestamp>2017-01-04T18:56:16Z</datestamp>
      <setSpec>user-biosyslit</setSpec>
    </header>
    <header>
      <identifier>oai:zenodo.org:230074</identifier>
      <datestamp>2017-01-04T18:56:01Z</datestamp>
      <setSpec>user-biosyslit</setSpec>
    </header>
    <header>
      <identifier>oai:zenodo.org:253993</identifier>
      <datestamp>2017-01-20T13:15:39Z</datestamp>
      <setSpec>user-biosyslit</setSpec>
    </header>
    <header>
      <identifier>oai:zenodo.org:283281</identifier>
      <datestamp>2017-02-09T08:32:15Z</datestamp>
      <setSpec>user-biosyslit</setSpec>
    </header>
    <header>
      <identifier>oai:zenodo.org:283287</identifier>
      <datestamp>2017-02-09T08:31:53Z</datestamp>
      <setSpec>user-biosyslit</setSpec>
    </header>
    <header>
      <identifier>oai:zenodo.org:283294</identifier>
      <datestamp>2017-02-09T08:32:11Z</datestamp>
      <setSpec>user-biosyslit</setSpec>
    </header>
    <header>
      <identifier>oai:zenodo.org:283285</identifier>
      <datestamp>2017-02-09T08:31:48Z</datestamp>
      <setSpec>user-biosyslit</setSpec>
    </header>
    <header>
      <identifier>oai:zenodo.org:283295</identifier>
      <datestamp>2017-02-09T08:32:14Z</datestamp>
      <setSpec>user-biosyslit</setSpec>
    </header>
    <resumptionToken expirationDate="2017-08-31T15:45:15Z" cursor="34200" completeListSize="77796">.eJyNyj0LgkAYAOD_8s4S91WW0CKWOKjYpaRL2ClSniZekZ7432tprvl5JlBlWYCFFhtClsxEK7xheE0oMUCJ_i7l-fphEKdEilbGuZs8D02CUlKZgaMG30lpoGsUNljzfUROeD3EVzRGx_iR6sOQUO_F0c70dTQGN-_zChq6Mru4HY9bW3JS9OEuGjm2eUbF9-E_n_75HLUFA7q8KsGijBlQv_K-UmBN8_wGl9ZRNw.DInAEw.wq_aXxL-B50Cm9FcNEdGb4-j7UA</resumptionToken>
  </ListIdentifiers>
</OAI-PMH>
