<?xml version='1.0' encoding='UTF-8'?>
<?xml-stylesheet type="text/xsl" href="/static/xsl/oai2.v1.0.xsl"?>
<OAI-PMH xmlns="http://www.openarchives.org/OAI/2.0/" xmlns:xsi="http://www.w3.org/2001/XMLSchema-instance" xsi:schemaLocation="http://www.openarchives.org/OAI/2.0/ http://www.openarchives.org/OAI/2.0/OAI-PMH.xsd">
  <responseDate>2017-08-31T15:44:40Z</responseDate>
  <request verb="ListIdentifiers" resumptionToken=".eJyNyrsOgjAUANB_uTMxfYgCiQtBCYOQUiHCYrAQgtZHqAYo4d9lcdb5nBFUVZXgoAVamcheYttaIpNgi5oGKNE-pDw1s4M4plLcZVL46Tu-pSgj9Tr0VL_3MhrqK4puWPMdI0ds9UmDBnZIXpmO-5QGHUfb9V6zIbwE8ytp5Mv87D95cnclJ2UbbdnAsctzKr4P__n0z-epDRjwLOoKHJNSA65d0dYKnHGaPs0dUWw.DInAZw.kv_TWluqyZE-UuXsdBIyV0LDmTo">https://zenodo.org/oai2d</request>
  <ListIdentifiers>
    <header>
      <identifier>oai:zenodo.org:253826</identifier>
      <datestamp>2017-01-20T11:35:01Z</datestamp>
      <setSpec>user-biosyslit</setSpec>
    </header>
    <header>
      <identifier>oai:zenodo.org:253579</identifier>
      <datestamp>2017-01-20T08:36:34Z</datestamp>
      <setSpec>user-biosyslit</setSpec>
    </header>
    <header>
      <identifier>oai:zenodo.org:254268</identifier>
      <datestamp>2017-01-20T17:17:41Z</datestamp>
      <setSpec>user-biosyslit</setSpec>
    </header>
    <header>
      <identifier>oai:zenodo.org:255379</identifier>
      <datestamp>2017-01-21T12:40:23Z</datestamp>
      <setSpec>user-biosyslit</setSpec>
    </header>
    <header>
      <identifier>oai:zenodo.org:254720</identifier>
      <datestamp>2017-01-21T02:15:22Z</datestamp>
      <setSpec>user-biosyslit</setSpec>
    </header>
    <header>
      <identifier>oai:zenodo.org:255202</identifier>
      <datestamp>2017-01-21T09:29:18Z</datestamp>
      <setSpec>user-biosyslit</setSpec>
    </header>
    <header>
      <identifier>oai:zenodo.org:254778</identifier>
      <datestamp>2017-01-21T02:44:04Z</datestamp>
      <setSpec>user-biosyslit</setSpec>
    </header>
    <header>
      <identifier>oai:zenodo.org:254984</identifier>
      <datestamp>2017-01-21T06:14:36Z</datestamp>
      <setSpec>user-biosyslit</setSpec>
    </header>
    <header>
      <identifier>oai:zenodo.org:255867</identifier>
      <datestamp>2017-01-21T23:07:17Z</datestamp>
      <setSpec>user-biosyslit</setSpec>
    </header>
    <header>
      <identifier>oai:zenodo.org:255004</identifier>
      <datestamp>2017-01-21T06:30:26Z</datestamp>
      <setSpec>user-biosyslit</setSpec>
    </header>
    <header>
      <identifier>oai:zenodo.org:255237</identifier>
      <datestamp>2017-01-21T10:00:56Z</datestamp>
      <setSpec>user-biosyslit</setSpec>
    </header>
    <header>
      <identifier>oai:zenodo.org:255423</identifier>
      <datestamp>2017-01-21T13:08:11Z</datestamp>
      <setSpec>user-biosyslit</setSpec>
    </header>
    <header>
      <identifier>oai:zenodo.org:256523</identifier>
      <datestamp>2017-01-22T16:42:27Z</datestamp>
      <setSpec>user-biosyslit</setSpec>
    </header>
    <header>
      <identifier>oai:zenodo.org:256120</identifier>
      <datestamp>2017-01-22T04:31:21Z</datestamp>
      <setSpec>user-biosyslit</setSpec>
    </header>
    <header>
      <identifier>oai:zenodo.org:255084</identifier>
      <datestamp>2017-01-21T07:41:54Z</datestamp>
      <setSpec>user-biosyslit</setSpec>
    </header>
    <header>
      <identifier>oai:zenodo.org:255951</identifier>
      <datestamp>2017-01-22T00:39:19Z</datestamp>
      <setSpec>user-biosyslit</setSpec>
    </header>
    <header>
      <identifier>oai:zenodo.org:255252</identifier>
      <datestamp>2017-01-21T10:25:00Z</datestamp>
      <setSpec>user-biosyslit</setSpec>
    </header>
    <header>
      <identifier>oai:zenodo.org:255735</identifier>
      <datestamp>2017-01-21T19:35:11Z</datestamp>
      <setSpec>user-biosyslit</setSpec>
    </header>
    <header>
      <identifier>oai:zenodo.org:255246</identifier>
      <datestamp>2017-01-21T10:16:25Z</datestamp>
      <setSpec>user-biosyslit</setSpec>
    </header>
    <header>
      <identifier>oai:zenodo.org:255490</identifier>
      <datestamp>2017-01-21T14:13:23Z</datestamp>
      <setSpec>user-biosyslit</setSpec>
    </header>
    <header>
      <identifier>oai:zenodo.org:256101</identifier>
      <datestamp>2017-01-22T04:02:50Z</datestamp>
      <setSpec>user-biosyslit</setSpec>
    </header>
    <header>
      <identifier>oai:zenodo.org:256806</identifier>
      <datestamp>2017-01-22T21:19:32Z</datestamp>
      <setSpec>user-biosyslit</setSpec>
    </header>
    <header>
      <identifier>oai:zenodo.org:255883</identifier>
      <datestamp>2017-01-21T23:16:58Z</datestamp>
      <setSpec>user-biosyslit</setSpec>
    </header>
    <header>
      <identifier>oai:zenodo.org:256581</identifier>
      <datestamp>2017-01-22T17:57:27Z</datestamp>
      <setSpec>user-biosyslit</setSpec>
    </header>
    <header>
      <identifier>oai:zenodo.org:256565</identifier>
      <datestamp>2017-01-22T17:47:04Z</datestamp>
      <setSpec>user-biosyslit</setSpec>
    </header>
    <header>
      <identifier>oai:zenodo.org:255704</identifier>
      <datestamp>2017-01-21T18:47:54Z</datestamp>
      <setSpec>user-biosyslit</setSpec>
    </header>
    <header>
      <identifier>oai:zenodo.org:257019</identifier>
      <datestamp>2017-01-22T23:41:31Z</datestamp>
      <setSpec>user-biosyslit</setSpec>
    </header>
    <header>
      <identifier>oai:zenodo.org:256957</identifier>
      <datestamp>2017-01-22T23:38:18Z</datestamp>
      <setSpec>user-biosyslit</setSpec>
    </header>
    <header>
      <identifier>oai:zenodo.org:256383</identifier>
      <datestamp>2017-01-22T13:51:25Z</datestamp>
      <setSpec>user-biosyslit</setSpec>
    </header>
    <header>
      <identifier>oai:zenodo.org:256110</identifier>
      <datestamp>2017-01-22T04:17:58Z</datestamp>
      <setSpec>user-biosyslit</setSpec>
    </header>
    <header>
      <identifier>oai:zenodo.org:255922</identifier>
      <datestamp>2017-01-22T00:15:01Z</datestamp>
      <setSpec>user-biosyslit</setSpec>
    </header>
    <header>
      <identifier>oai:zenodo.org:256449</identifier>
      <datestamp>2017-01-22T14:37:59Z</datestamp>
      <setSpec>user-biosyslit</setSpec>
    </header>
    <header>
      <identifier>oai:zenodo.org:256292</identifier>
      <datestamp>2017-01-22T11:12:00Z</datestamp>
      <setSpec>user-biosyslit</setSpec>
    </header>
    <header>
      <identifier>oai:zenodo.org:256103</identifier>
      <datestamp>2017-01-22T04:03:01Z</datestamp>
      <setSpec>user-biosyslit</setSpec>
    </header>
    <header>
      <identifier>oai:zenodo.org:256326</identifier>
      <datestamp>2017-01-22T12:39:16Z</datestamp>
      <setSpec>user-biosyslit</setSpec>
    </header>
    <header>
      <identifier>oai:zenodo.org:257090</identifier>
      <datestamp>2017-01-23T01:00:41Z</datestamp>
      <setSpec>user-biosyslit</setSpec>
    </header>
    <header>
      <identifier>oai:zenodo.org:256598</identifier>
      <datestamp>2017-01-22T18:35:35Z</datestamp>
      <setSpec>user-biosyslit</setSpec>
    </header>
    <header>
      <identifier>oai:zenodo.org:256640</identifier>
      <datestamp>2017-01-22T18:48:49Z</datestamp>
      <setSpec>user-biosyslit</setSpec>
    </header>
    <header>
      <identifier>oai:zenodo.org:256818</identifier>
      <datestamp>2017-01-22T21:17:57Z</datestamp>
      <setSpec>user-biosyslit</setSpec>
    </header>
    <header>
      <identifier>oai:zenodo.org:256973</identifier>
      <datestamp>2017-01-22T23:39:10Z</datestamp>
      <setSpec>user-biosyslit</setSpec>
    </header>
    <header>
      <identifier>oai:zenodo.org:257862</identifier>
      <datestamp>2017-01-23T13:32:54Z</datestamp>
      <setSpec>user-biosyslit</setSpec>
    </header>
    <header>
      <identifier>oai:zenodo.org:257655</identifier>
      <datestamp>2017-01-23T11:56:26Z</datestamp>
      <setSpec>user-biosyslit</setSpec>
    </header>
    <header>
      <identifier>oai:zenodo.org:256689</identifier>
      <datestamp>2017-01-22T19:23:58Z</datestamp>
      <setSpec>user-biosyslit</setSpec>
    </header>
    <header>
      <identifier>oai:zenodo.org:257385</identifier>
      <datestamp>2017-01-23T06:18:40Z</datestamp>
      <setSpec>user-biosyslit</setSpec>
    </header>
    <header>
      <identifier>oai:zenodo.org:253549</identifier>
      <datestamp>2017-01-20T08:24:32Z</datestamp>
      <setSpec>user-biosyslit</setSpec>
    </header>
    <header>
      <identifier>oai:zenodo.org:253800</identifier>
      <datestamp>2017-01-20T11:19:57Z</datestamp>
      <setSpec>user-biosyslit</setSpec>
    </header>
    <header>
      <identifier>oai:zenodo.org:254656</identifier>
      <datestamp>2017-01-21T01:08:40Z</datestamp>
      <setSpec>user-biosyslit</setSpec>
    </header>
    <header>
      <identifier>oai:zenodo.org:254838</identifier>
      <datestamp>2017-01-21T03:46:03Z</datestamp>
      <setSpec>user-biosyslit</setSpec>
    </header>
    <header>
      <identifier>oai:zenodo.org:254053</identifier>
      <datestamp>2017-01-20T13:40:48Z</datestamp>
      <setSpec>user-biosyslit</setSpec>
    </header>
    <header>
      <identifier>oai:zenodo.org:255588</identifier>
      <datestamp>2017-01-21T15:58:35Z</datestamp>
      <setSpec>user-biosyslit</setSpec>
    </header>
    <header>
      <identifier>oai:zenodo.org:255308</identifier>
      <datestamp>2017-01-21T11:11:18Z</datestamp>
      <setSpec>user-biosyslit</setSpec>
    </header>
    <header>
      <identifier>oai:zenodo.org:254841</identifier>
      <datestamp>2017-01-21T03:46:13Z</datestamp>
      <setSpec>user-biosyslit</setSpec>
    </header>
    <header>
      <identifier>oai:zenodo.org:254848</identifier>
      <datestamp>2017-01-21T03:59:40Z</datestamp>
      <setSpec>user-biosyslit</setSpec>
    </header>
    <header>
      <identifier>oai:zenodo.org:254867</identifier>
      <datestamp>2017-01-21T04:17:41Z</datestamp>
      <setSpec>user-biosyslit</setSpec>
    </header>
    <header>
      <identifier>oai:zenodo.org:254864</identifier>
      <datestamp>2017-01-21T04:13:14Z</datestamp>
      <setSpec>user-biosyslit</setSpec>
    </header>
    <header>
      <identifier>oai:zenodo.org:254901</identifier>
      <datestamp>2017-01-21T04:37:36Z</datestamp>
      <setSpec>user-biosyslit</setSpec>
    </header>
    <header>
      <identifier>oai:zenodo.org:255262</identifier>
      <datestamp>2017-01-21T10:34:29Z</datestamp>
      <setSpec>user-biosyslit</setSpec>
    </header>
    <header>
      <identifier>oai:zenodo.org:255571</identifier>
      <datestamp>2017-01-21T15:57:57Z</datestamp>
      <setSpec>user-biosyslit</setSpec>
    </header>
    <header>
      <identifier>oai:zenodo.org:254866</identifier>
      <datestamp>2017-01-21T04:13:20Z</datestamp>
      <setSpec>user-biosyslit</setSpec>
    </header>
    <header>
      <identifier>oai:zenodo.org:254846</identifier>
      <datestamp>2017-01-21T03:59:36Z</datestamp>
      <setSpec>user-biosyslit</setSpec>
    </header>
    <header>
      <identifier>oai:zenodo.org:255067</identifier>
      <datestamp>2017-01-21T07:27:08Z</datestamp>
      <setSpec>user-biosyslit</setSpec>
    </header>
    <header>
      <identifier>oai:zenodo.org:254961</identifier>
      <datestamp>2017-01-21T05:31:22Z</datestamp>
      <setSpec>user-biosyslit</setSpec>
    </header>
    <header>
      <identifier>oai:zenodo.org:255932</identifier>
      <datestamp>2017-01-22T00:16:20Z</datestamp>
      <setSpec>user-biosyslit</setSpec>
    </header>
    <header>
      <identifier>oai:zenodo.org:255092</identifier>
      <datestamp>2017-01-21T07:49:54Z</datestamp>
      <setSpec>user-biosyslit</setSpec>
    </header>
    <header>
      <identifier>oai:zenodo.org:256078</identifier>
      <datestamp>2017-01-22T03:33:35Z</datestamp>
      <setSpec>user-biosyslit</setSpec>
    </header>
    <header>
      <identifier>oai:zenodo.org:256344</identifier>
      <datestamp>2017-01-22T13:01:10Z</datestamp>
      <setSpec>user-biosyslit</setSpec>
    </header>
    <header>
      <identifier>oai:zenodo.org:254968</identifier>
      <datestamp>2017-01-21T05:54:56Z</datestamp>
      <setSpec>user-biosyslit</setSpec>
    </header>
    <header>
      <identifier>oai:zenodo.org:255060</identifier>
      <datestamp>2017-01-21T07:11:44Z</datestamp>
      <setSpec>user-biosyslit</setSpec>
    </header>
    <header>
      <identifier>oai:zenodo.org:255361</identifier>
      <datestamp>2017-01-21T12:31:45Z</datestamp>
      <setSpec>user-biosyslit</setSpec>
    </header>
    <header>
      <identifier>oai:zenodo.org:255108</identifier>
      <datestamp>2017-01-21T08:04:09Z</datestamp>
      <setSpec>user-biosyslit</setSpec>
    </header>
    <header>
      <identifier>oai:zenodo.org:255700</identifier>
      <datestamp>2017-01-21T18:48:09Z</datestamp>
      <setSpec>user-biosyslit</setSpec>
    </header>
    <header>
      <identifier>oai:zenodo.org:255986</identifier>
      <datestamp>2017-01-22T01:33:12Z</datestamp>
      <setSpec>user-biosyslit</setSpec>
    </header>
    <header>
      <identifier>oai:zenodo.org:255316</identifier>
      <datestamp>2017-01-21T11:29:55Z</datestamp>
      <setSpec>user-biosyslit</setSpec>
    </header>
    <header>
      <identifier>oai:zenodo.org:255241</identifier>
      <datestamp>2017-01-21T10:01:09Z</datestamp>
      <setSpec>user-biosyslit</setSpec>
    </header>
    <header>
      <identifier>oai:zenodo.org:255625</identifier>
      <datestamp>2017-01-21T17:30:59Z</datestamp>
      <setSpec>user-biosyslit</setSpec>
    </header>
    <header>
      <identifier>oai:zenodo.org:255483</identifier>
      <datestamp>2017-01-21T14:11:30Z</datestamp>
      <setSpec>user-biosyslit</setSpec>
    </header>
    <header>
      <identifier>oai:zenodo.org:255553</identifier>
      <datestamp>2017-01-21T15:57:17Z</datestamp>
      <setSpec>user-biosyslit</setSpec>
    </header>
    <header>
      <identifier>oai:zenodo.org:256451</identifier>
      <datestamp>2017-01-22T14:38:06Z</datestamp>
      <setSpec>user-biosyslit</setSpec>
    </header>
    <header>
      <identifier>oai:zenodo.org:255545</identifier>
      <datestamp>2017-01-21T15:56:57Z</datestamp>
      <setSpec>user-biosyslit</setSpec>
    </header>
    <header>
      <identifier>oai:zenodo.org:256032</identifier>
      <datestamp>2017-01-22T02:36:35Z</datestamp>
      <setSpec>user-biosyslit</setSpec>
    </header>
    <header>
      <identifier>oai:zenodo.org:255591</identifier>
      <datestamp>2017-01-21T15:58:41Z</datestamp>
      <setSpec>user-biosyslit</setSpec>
    </header>
    <header>
      <identifier>oai:zenodo.org:256150</identifier>
      <datestamp>2017-01-22T05:10:30Z</datestamp>
      <setSpec>user-biosyslit</setSpec>
    </header>
    <header>
      <identifier>oai:zenodo.org:273341</identifier>
      <datestamp>2017-02-08T09:01:05Z</datestamp>
      <setSpec>user-biosyslit</setSpec>
    </header>
    <header>
      <identifier>oai:zenodo.org:256924</identifier>
      <datestamp>2017-01-22T23:05:15Z</datestamp>
      <setSpec>user-biosyslit</setSpec>
    </header>
    <header>
      <identifier>oai:zenodo.org:254809</identifier>
      <datestamp>2017-01-21T03:22:27Z</datestamp>
      <setSpec>user-biosyslit</setSpec>
    </header>
    <header>
      <identifier>oai:zenodo.org:254713</identifier>
      <datestamp>2017-01-21T02:14:59Z</datestamp>
      <setSpec>user-biosyslit</setSpec>
    </header>
    <header>
      <identifier>oai:zenodo.org:254434</identifier>
      <datestamp>2017-01-20T18:49:16Z</datestamp>
      <setSpec>user-biosyslit</setSpec>
    </header>
    <header>
      <identifier>oai:zenodo.org:254693</identifier>
      <datestamp>2017-01-21T01:46:08Z</datestamp>
      <setSpec>user-biosyslit</setSpec>
    </header>
    <header>
      <identifier>oai:zenodo.org:254509</identifier>
      <datestamp>2017-01-20T19:47:24Z</datestamp>
      <setSpec>user-biosyslit</setSpec>
    </header>
    <header>
      <identifier>oai:zenodo.org:254790</identifier>
      <datestamp>2017-01-21T02:52:52Z</datestamp>
      <setSpec>user-biosyslit</setSpec>
    </header>
    <header>
      <identifier>oai:zenodo.org:254582</identifier>
      <datestamp>2017-01-20T22:36:39Z</datestamp>
      <setSpec>user-biosyslit</setSpec>
    </header>
    <header>
      <identifier>oai:zenodo.org:254941</identifier>
      <datestamp>2017-01-21T05:30:19Z</datestamp>
      <setSpec>user-biosyslit</setSpec>
    </header>
    <header>
      <identifier>oai:zenodo.org:254673</identifier>
      <datestamp>2017-01-21T01:21:54Z</datestamp>
      <setSpec>user-biosyslit</setSpec>
    </header>
    <header>
      <identifier>oai:zenodo.org:254884</identifier>
      <datestamp>2017-01-21T04:25:54Z</datestamp>
      <setSpec>user-biosyslit</setSpec>
    </header>
    <header>
      <identifier>oai:zenodo.org:254870</identifier>
      <datestamp>2017-01-21T04:17:29Z</datestamp>
      <setSpec>user-biosyslit</setSpec>
    </header>
    <header>
      <identifier>oai:zenodo.org:254722</identifier>
      <datestamp>2017-01-21T02:15:34Z</datestamp>
      <setSpec>user-biosyslit</setSpec>
    </header>
    <header>
      <identifier>oai:zenodo.org:254818</identifier>
      <datestamp>2017-01-21T03:22:56Z</datestamp>
      <setSpec>user-biosyslit</setSpec>
    </header>
    <header>
      <identifier>oai:zenodo.org:255400</identifier>
      <datestamp>2017-01-21T12:52:42Z</datestamp>
      <setSpec>user-biosyslit</setSpec>
    </header>
    <header>
      <identifier>oai:zenodo.org:255069</identifier>
      <datestamp>2017-01-21T07:27:14Z</datestamp>
      <setSpec>user-biosyslit</setSpec>
    </header>
    <header>
      <identifier>oai:zenodo.org:255578</identifier>
      <datestamp>2017-01-21T15:58:14Z</datestamp>
      <setSpec>user-biosyslit</setSpec>
    </header>
    <resumptionToken expirationDate="2017-08-31T15:46:40Z" cursor="53200" completeListSize="77796">.eJyNysEKgjAYAOB3-c8Sc2tqQhfRxIPKWkp6CVMRc1a4Ip347nXpXOfvm0HWdQU2WhGKkEEpMjbUotgyTA1kOdyEOLUfh_KYivIqksJPn_s-RRluzMiVY-hmJFIdintd8R3DR90akxZN7JA8MrUfUxK8OPLMULEpugSfV5HYF_nZv_Pk6giOqyH22MR1h-ek_D79z6d-PlduQYN70dRgU7LWoHsVQyPBnpflDdX-UXc.DInAaA.i6nqi1JV3gpzM4EDrm76x1GAkTQ</resumptionToken>
  </ListIdentifiers>
</OAI-PMH>
