<?xml version='1.0' encoding='UTF-8'?>
<?xml-stylesheet type="text/xsl" href="/static/xsl/oai2.v1.0.xsl"?>
<OAI-PMH xmlns="http://www.openarchives.org/OAI/2.0/" xmlns:xsi="http://www.w3.org/2001/XMLSchema-instance" xsi:schemaLocation="http://www.openarchives.org/OAI/2.0/ http://www.openarchives.org/OAI/2.0/OAI-PMH.xsd">
  <responseDate>2017-08-31T15:44:26Z</responseDate>
  <request verb="ListIdentifiers" resumptionToken=".eJyNyj0LgkAYAOD_8s4S94GcCS2hiYOKXUq2hJ0i5mnhFeqJ_z2X5pqfZwZVlgXYaIMR2xKLYGpRRpiJiAFK9A8pr_XqIM6pFJ1Mci99H9sUZaRioaPGwMloqBsUtVjzQ0zO2BqTGk3xKXll-jim1B84clmg4ym8--sraOTJy8178qTbS06KPnLjieM9v1DxffjPp38-R-3AgGdelWCbiBrQDHlfKbDnZfkAyj5RZg.DInAWg.mk6J3bAEdEjT2HlgzLDMY7l2Hfk">https://zenodo.org/oai2d</request>
  <ListIdentifiers>
    <header>
      <identifier>oai:zenodo.org:270770</identifier>
      <datestamp>2017-02-07T23:55:29Z</datestamp>
      <setSpec>user-biosyslit</setSpec>
    </header>
    <header>
      <identifier>oai:zenodo.org:269597</identifier>
      <datestamp>2017-02-07T01:05:22Z</datestamp>
      <setSpec>user-biosyslit</setSpec>
    </header>
    <header>
      <identifier>oai:zenodo.org:274916</identifier>
      <datestamp>2017-02-08T14:48:40Z</datestamp>
      <setSpec>user-biosyslit</setSpec>
    </header>
    <header>
      <identifier>oai:zenodo.org:232203</identifier>
      <datestamp>2017-01-06T12:57:45Z</datestamp>
      <setSpec>user-biosyslit</setSpec>
    </header>
    <header>
      <identifier>oai:zenodo.org:232259</identifier>
      <datestamp>2017-01-06T14:49:38Z</datestamp>
      <setSpec>user-biosyslit</setSpec>
    </header>
    <header>
      <identifier>oai:zenodo.org:232206</identifier>
      <datestamp>2017-01-06T12:57:53Z</datestamp>
      <setSpec>user-biosyslit</setSpec>
    </header>
    <header>
      <identifier>oai:zenodo.org:275097</identifier>
      <datestamp>2017-02-08T15:17:41Z</datestamp>
      <setSpec>user-biosyslit</setSpec>
    </header>
    <header>
      <identifier>oai:zenodo.org:275181</identifier>
      <datestamp>2017-02-08T15:35:40Z</datestamp>
      <setSpec>user-biosyslit</setSpec>
    </header>
    <header>
      <identifier>oai:zenodo.org:275036</identifier>
      <datestamp>2017-02-08T15:08:22Z</datestamp>
      <setSpec>user-biosyslit</setSpec>
    </header>
    <header>
      <identifier>oai:zenodo.org:275009</identifier>
      <datestamp>2017-02-08T15:03:32Z</datestamp>
      <setSpec>user-biosyslit</setSpec>
    </header>
    <header>
      <identifier>oai:zenodo.org:234116</identifier>
      <datestamp>2017-01-08T15:13:39Z</datestamp>
      <setSpec>user-biosyslit</setSpec>
    </header>
    <header>
      <identifier>oai:zenodo.org:234010</identifier>
      <datestamp>2017-01-08T13:59:25Z</datestamp>
      <setSpec>user-biosyslit</setSpec>
    </header>
    <header>
      <identifier>oai:zenodo.org:233813</identifier>
      <datestamp>2017-01-08T12:09:36Z</datestamp>
      <setSpec>user-biosyslit</setSpec>
    </header>
    <header>
      <identifier>oai:zenodo.org:276550</identifier>
      <datestamp>2017-02-08T19:10:46Z</datestamp>
      <setSpec>user-biosyslit</setSpec>
    </header>
    <header>
      <identifier>oai:zenodo.org:234847</identifier>
      <datestamp>2017-01-09T02:40:43Z</datestamp>
      <setSpec>user-biosyslit</setSpec>
    </header>
    <header>
      <identifier>oai:zenodo.org:276901</identifier>
      <datestamp>2017-02-08T19:57:10Z</datestamp>
      <setSpec>user-biosyslit</setSpec>
    </header>
    <header>
      <identifier>oai:zenodo.org:234853</identifier>
      <datestamp>2017-01-09T02:41:06Z</datestamp>
      <setSpec>user-biosyslit</setSpec>
    </header>
    <header>
      <identifier>oai:zenodo.org:234333</identifier>
      <datestamp>2017-01-08T18:30:24Z</datestamp>
      <setSpec>user-biosyslit</setSpec>
    </header>
    <header>
      <identifier>oai:zenodo.org:234745</identifier>
      <datestamp>2017-01-09T01:42:59Z</datestamp>
      <setSpec>user-biosyslit</setSpec>
    </header>
    <header>
      <identifier>oai:zenodo.org:276799</identifier>
      <datestamp>2017-02-08T19:40:58Z</datestamp>
      <setSpec>user-biosyslit</setSpec>
    </header>
    <header>
      <identifier>oai:zenodo.org:276961</identifier>
      <datestamp>2017-02-08T20:04:26Z</datestamp>
      <setSpec>user-biosyslit</setSpec>
    </header>
    <header>
      <identifier>oai:zenodo.org:276955</identifier>
      <datestamp>2017-02-08T20:04:10Z</datestamp>
      <setSpec>user-biosyslit</setSpec>
    </header>
    <header>
      <identifier>oai:zenodo.org:235421</identifier>
      <datestamp>2017-01-09T09:58:04Z</datestamp>
      <setSpec>user-biosyslit</setSpec>
    </header>
    <header>
      <identifier>oai:zenodo.org:234603</identifier>
      <datestamp>2017-01-08T22:37:06Z</datestamp>
      <setSpec>user-biosyslit</setSpec>
    </header>
    <header>
      <identifier>oai:zenodo.org:234891</identifier>
      <datestamp>2017-01-09T03:13:59Z</datestamp>
      <setSpec>user-biosyslit</setSpec>
    </header>
    <header>
      <identifier>oai:zenodo.org:277184</identifier>
      <datestamp>2017-02-08T20:34:06Z</datestamp>
      <setSpec>user-biosyslit</setSpec>
    </header>
    <header>
      <identifier>oai:zenodo.org:276831</identifier>
      <datestamp>2017-02-08T19:46:29Z</datestamp>
      <setSpec>user-biosyslit</setSpec>
    </header>
    <header>
      <identifier>oai:zenodo.org:276730</identifier>
      <datestamp>2017-02-08T19:32:55Z</datestamp>
      <setSpec>user-biosyslit</setSpec>
    </header>
    <header>
      <identifier>oai:zenodo.org:277205</identifier>
      <datestamp>2017-02-08T20:35:07Z</datestamp>
      <setSpec>user-biosyslit</setSpec>
    </header>
    <header>
      <identifier>oai:zenodo.org:236005</identifier>
      <datestamp>2017-01-09T17:49:00Z</datestamp>
      <setSpec>user-biosyslit</setSpec>
    </header>
    <header>
      <identifier>oai:zenodo.org:276975</identifier>
      <datestamp>2017-02-08T20:06:18Z</datestamp>
      <setSpec>user-biosyslit</setSpec>
    </header>
    <header>
      <identifier>oai:zenodo.org:276999</identifier>
      <datestamp>2017-02-08T20:09:55Z</datestamp>
      <setSpec>user-biosyslit</setSpec>
    </header>
    <header>
      <identifier>oai:zenodo.org:277403</identifier>
      <datestamp>2017-02-08T21:04:29Z</datestamp>
      <setSpec>user-biosyslit</setSpec>
    </header>
    <header>
      <identifier>oai:zenodo.org:277526</identifier>
      <datestamp>2017-02-08T21:17:40Z</datestamp>
      <setSpec>user-biosyslit</setSpec>
    </header>
    <header>
      <identifier>oai:zenodo.org:236857</identifier>
      <datestamp>2017-01-10T06:33:44Z</datestamp>
      <setSpec>user-biosyslit</setSpec>
    </header>
    <header>
      <identifier>oai:zenodo.org:236948</identifier>
      <datestamp>2017-01-10T08:38:58Z</datestamp>
      <setSpec>user-biosyslit</setSpec>
    </header>
    <header>
      <identifier>oai:zenodo.org:236009</identifier>
      <datestamp>2017-01-09T17:49:13Z</datestamp>
      <setSpec>user-biosyslit</setSpec>
    </header>
    <header>
      <identifier>oai:zenodo.org:265764</identifier>
      <datestamp>2017-01-31T20:06:16Z</datestamp>
      <setSpec>user-biosyslit</setSpec>
    </header>
    <header>
      <identifier>oai:zenodo.org:266598</identifier>
      <datestamp>2017-02-01T12:19:42Z</datestamp>
      <setSpec>user-biosyslit</setSpec>
    </header>
    <header>
      <identifier>oai:zenodo.org:266605</identifier>
      <datestamp>2017-02-01T12:28:55Z</datestamp>
      <setSpec>user-biosyslit</setSpec>
    </header>
    <header>
      <identifier>oai:zenodo.org:266570</identifier>
      <datestamp>2017-02-01T12:03:54Z</datestamp>
      <setSpec>user-biosyslit</setSpec>
    </header>
    <header>
      <identifier>oai:zenodo.org:266961</identifier>
      <datestamp>2017-02-01T17:32:51Z</datestamp>
      <setSpec>user-biosyslit</setSpec>
    </header>
    <header>
      <identifier>oai:zenodo.org:274954</identifier>
      <datestamp>2017-02-08T14:54:41Z</datestamp>
      <setSpec>user-biosyslit</setSpec>
    </header>
    <header>
      <identifier>oai:zenodo.org:266533</identifier>
      <datestamp>2017-02-01T11:43:52Z</datestamp>
      <setSpec>user-biosyslit</setSpec>
    </header>
    <header>
      <identifier>oai:zenodo.org:267217</identifier>
      <datestamp>2017-02-01T22:59:59Z</datestamp>
      <setSpec>user-biosyslit</setSpec>
    </header>
    <header>
      <identifier>oai:zenodo.org:266392</identifier>
      <datestamp>2017-02-01T07:43:05Z</datestamp>
      <setSpec>user-biosyslit</setSpec>
    </header>
    <header>
      <identifier>oai:zenodo.org:266580</identifier>
      <datestamp>2017-02-01T12:04:23Z</datestamp>
      <setSpec>user-biosyslit</setSpec>
    </header>
    <header>
      <identifier>oai:zenodo.org:266656</identifier>
      <datestamp>2017-02-01T13:06:39Z</datestamp>
      <setSpec>user-biosyslit</setSpec>
    </header>
    <header>
      <identifier>oai:zenodo.org:267201</identifier>
      <datestamp>2017-02-01T22:27:59Z</datestamp>
      <setSpec>user-biosyslit</setSpec>
    </header>
    <header>
      <identifier>oai:zenodo.org:267470</identifier>
      <datestamp>2017-02-02T02:43:11Z</datestamp>
      <setSpec>user-biosyslit</setSpec>
    </header>
    <header>
      <identifier>oai:zenodo.org:275241</identifier>
      <datestamp>2017-02-08T15:47:42Z</datestamp>
      <setSpec>user-biosyslit</setSpec>
    </header>
    <header>
      <identifier>oai:zenodo.org:266891</identifier>
      <datestamp>2017-02-01T15:57:49Z</datestamp>
      <setSpec>user-biosyslit</setSpec>
    </header>
    <header>
      <identifier>oai:zenodo.org:267711</identifier>
      <datestamp>2017-02-02T06:15:20Z</datestamp>
      <setSpec>user-biosyslit</setSpec>
    </header>
    <header>
      <identifier>oai:zenodo.org:267490</identifier>
      <datestamp>2017-02-02T02:59:28Z</datestamp>
      <setSpec>user-biosyslit</setSpec>
    </header>
    <header>
      <identifier>oai:zenodo.org:267741</identifier>
      <datestamp>2017-02-02T06:35:36Z</datestamp>
      <setSpec>user-biosyslit</setSpec>
    </header>
    <header>
      <identifier>oai:zenodo.org:267414</identifier>
      <datestamp>2017-02-02T01:42:44Z</datestamp>
      <setSpec>user-biosyslit</setSpec>
    </header>
    <header>
      <identifier>oai:zenodo.org:275008</identifier>
      <datestamp>2017-02-08T15:03:34Z</datestamp>
      <setSpec>user-biosyslit</setSpec>
    </header>
    <header>
      <identifier>oai:zenodo.org:268167</identifier>
      <datestamp>2017-02-03T02:56:18Z</datestamp>
      <setSpec>user-biosyslit</setSpec>
    </header>
    <header>
      <identifier>oai:zenodo.org:269599</identifier>
      <datestamp>2017-02-07T01:05:28Z</datestamp>
      <setSpec>user-biosyslit</setSpec>
    </header>
    <header>
      <identifier>oai:zenodo.org:268094</identifier>
      <datestamp>2017-02-03T01:33:02Z</datestamp>
      <setSpec>user-biosyslit</setSpec>
    </header>
    <header>
      <identifier>oai:zenodo.org:267907</identifier>
      <datestamp>2017-02-02T09:18:30Z</datestamp>
      <setSpec>user-biosyslit</setSpec>
    </header>
    <header>
      <identifier>oai:zenodo.org:268241</identifier>
      <datestamp>2017-02-03T04:35:10Z</datestamp>
      <setSpec>user-biosyslit</setSpec>
    </header>
    <header>
      <identifier>oai:zenodo.org:227216</identifier>
      <datestamp>2017-01-01T18:22:04Z</datestamp>
      <setSpec>user-biosyslit</setSpec>
    </header>
    <header>
      <identifier>oai:zenodo.org:267847</identifier>
      <datestamp>2017-02-02T08:11:35Z</datestamp>
      <setSpec>user-biosyslit</setSpec>
    </header>
    <header>
      <identifier>oai:zenodo.org:227250</identifier>
      <datestamp>2017-01-01T18:50:09Z</datestamp>
      <setSpec>user-biosyslit</setSpec>
    </header>
    <header>
      <identifier>oai:zenodo.org:274891</identifier>
      <datestamp>2017-02-08T14:43:43Z</datestamp>
      <setSpec>user-biosyslit</setSpec>
    </header>
    <header>
      <identifier>oai:zenodo.org:268118</identifier>
      <datestamp>2017-02-03T01:33:56Z</datestamp>
      <setSpec>user-biosyslit</setSpec>
    </header>
    <header>
      <identifier>oai:zenodo.org:230149</identifier>
      <datestamp>2017-01-04T20:26:27Z</datestamp>
      <setSpec>user-biosyslit</setSpec>
    </header>
    <header>
      <identifier>oai:zenodo.org:275115</identifier>
      <datestamp>2017-02-08T15:20:10Z</datestamp>
      <setSpec>user-biosyslit</setSpec>
    </header>
    <header>
      <identifier>oai:zenodo.org:228572</identifier>
      <datestamp>2017-01-03T01:47:43Z</datestamp>
      <setSpec>user-biosyslit</setSpec>
    </header>
    <header>
      <identifier>oai:zenodo.org:227938</identifier>
      <datestamp>2017-01-02T07:29:56Z</datestamp>
      <setSpec>user-biosyslit</setSpec>
    </header>
    <header>
      <identifier>oai:zenodo.org:269327</identifier>
      <datestamp>2017-02-06T23:55:06Z</datestamp>
      <setSpec>user-biosyslit</setSpec>
    </header>
    <header>
      <identifier>oai:zenodo.org:268147</identifier>
      <datestamp>2017-02-03T02:55:26Z</datestamp>
      <setSpec>user-biosyslit</setSpec>
    </header>
    <header>
      <identifier>oai:zenodo.org:268342</identifier>
      <datestamp>2017-02-03T12:06:15Z</datestamp>
      <setSpec>user-biosyslit</setSpec>
    </header>
    <header>
      <identifier>oai:zenodo.org:228931</identifier>
      <datestamp>2017-01-03T07:11:39Z</datestamp>
      <setSpec>user-biosyslit</setSpec>
    </header>
    <header>
      <identifier>oai:zenodo.org:229799</identifier>
      <datestamp>2017-01-04T07:22:15Z</datestamp>
      <setSpec>user-biosyslit</setSpec>
    </header>
    <header>
      <identifier>oai:zenodo.org:275633</identifier>
      <datestamp>2017-02-08T16:49:49Z</datestamp>
      <setSpec>user-biosyslit</setSpec>
    </header>
    <header>
      <identifier>oai:zenodo.org:230007</identifier>
      <datestamp>2017-01-04T17:37:13Z</datestamp>
      <setSpec>user-biosyslit</setSpec>
    </header>
    <header>
      <identifier>oai:zenodo.org:227979</identifier>
      <datestamp>2017-01-02T08:04:38Z</datestamp>
      <setSpec>user-biosyslit</setSpec>
    </header>
    <header>
      <identifier>oai:zenodo.org:274467</identifier>
      <datestamp>2017-02-08T13:19:57Z</datestamp>
      <setSpec>user-biosyslit</setSpec>
    </header>
    <header>
      <identifier>oai:zenodo.org:270585</identifier>
      <datestamp>2017-02-07T23:33:22Z</datestamp>
      <setSpec>user-biosyslit</setSpec>
    </header>
    <header>
      <identifier>oai:zenodo.org:229467</identifier>
      <datestamp>2017-01-03T16:33:32Z</datestamp>
      <setSpec>user-biosyslit</setSpec>
    </header>
    <header>
      <identifier>oai:zenodo.org:275393</identifier>
      <datestamp>2017-02-08T16:12:29Z</datestamp>
      <setSpec>user-biosyslit</setSpec>
    </header>
    <header>
      <identifier>oai:zenodo.org:269269</identifier>
      <datestamp>2017-02-06T23:45:48Z</datestamp>
      <setSpec>user-biosyslit</setSpec>
    </header>
    <header>
      <identifier>oai:zenodo.org:228795</identifier>
      <datestamp>2017-01-03T05:01:14Z</datestamp>
      <setSpec>user-biosyslit</setSpec>
    </header>
    <header>
      <identifier>oai:zenodo.org:270564</identifier>
      <datestamp>2017-02-07T23:30:27Z</datestamp>
      <setSpec>user-biosyslit</setSpec>
    </header>
    <header>
      <identifier>oai:zenodo.org:270029</identifier>
      <datestamp>2017-02-07T22:09:59Z</datestamp>
      <setSpec>user-biosyslit</setSpec>
    </header>
    <header>
      <identifier>oai:zenodo.org:274672</identifier>
      <datestamp>2017-02-08T13:57:54Z</datestamp>
      <setSpec>user-biosyslit</setSpec>
    </header>
    <header>
      <identifier>oai:zenodo.org:270193</identifier>
      <datestamp>2017-02-07T22:30:46Z</datestamp>
      <setSpec>user-biosyslit</setSpec>
    </header>
    <header>
      <identifier>oai:zenodo.org:229559</identifier>
      <datestamp>2017-01-03T18:05:37Z</datestamp>
      <setSpec>user-biosyslit</setSpec>
    </header>
    <header>
      <identifier>oai:zenodo.org:230230</identifier>
      <datestamp>2017-01-04T21:21:56Z</datestamp>
      <setSpec>user-biosyslit</setSpec>
    </header>
    <header>
      <identifier>oai:zenodo.org:274835</identifier>
      <datestamp>2017-02-08T14:33:25Z</datestamp>
      <setSpec>user-biosyslit</setSpec>
    </header>
    <header>
      <identifier>oai:zenodo.org:269179</identifier>
      <datestamp>2017-02-06T23:01:18Z</datestamp>
      <setSpec>user-biosyslit</setSpec>
    </header>
    <header>
      <identifier>oai:zenodo.org:269069</identifier>
      <datestamp>2017-02-06T22:40:38Z</datestamp>
      <setSpec>user-biosyslit</setSpec>
    </header>
    <header>
      <identifier>oai:zenodo.org:269235</identifier>
      <datestamp>2017-02-06T23:35:29Z</datestamp>
      <setSpec>user-biosyslit</setSpec>
    </header>
    <header>
      <identifier>oai:zenodo.org:274806</identifier>
      <datestamp>2017-02-08T14:29:16Z</datestamp>
      <setSpec>user-biosyslit</setSpec>
    </header>
    <header>
      <identifier>oai:zenodo.org:230819</identifier>
      <datestamp>2017-01-05T08:46:57Z</datestamp>
      <setSpec>user-biosyslit</setSpec>
    </header>
    <header>
      <identifier>oai:zenodo.org:269112</identifier>
      <datestamp>2017-02-06T22:45:40Z</datestamp>
      <setSpec>user-biosyslit</setSpec>
    </header>
    <header>
      <identifier>oai:zenodo.org:269374</identifier>
      <datestamp>2017-02-06T23:59:16Z</datestamp>
      <setSpec>user-biosyslit</setSpec>
    </header>
    <header>
      <identifier>oai:zenodo.org:269203</identifier>
      <datestamp>2017-02-06T23:07:16Z</datestamp>
      <setSpec>user-biosyslit</setSpec>
    </header>
    <resumptionToken expirationDate="2017-08-31T15:46:26Z" cursor="50200" completeListSize="77796">.eJyNyk0LgjAYAOD_8p4lNj_YFLqIJh5UbDnUS5iKmKvEFemk_16XznV-nhVk2zbgoA0hOqGmZZuY2tRGlgaynm5CHPsPQ51zUV9FVgX8sb9wVOgdiT05R15hxGpAyQUrtkv1HNM569GSHrJ7ofYzN8InQz6JVLrE5_DzGiMJRHkKRpZdXcH0Zkr8dGHYZaVRfx_-86mfz5Nb0GCsuhYcC5kaDM9q6iQ46-v1BrFhUVE.DInAWg.mX5SVoP0fC65ZJg6Gz_s3kAFD3g</resumptionToken>
  </ListIdentifiers>
</OAI-PMH>
