<?xml version='1.0' encoding='UTF-8'?>
<?xml-stylesheet type="text/xsl" href="/static/xsl/oai2.v1.0.xsl"?>
<OAI-PMH xmlns="http://www.openarchives.org/OAI/2.0/" xmlns:xsi="http://www.w3.org/2001/XMLSchema-instance" xsi:schemaLocation="http://www.openarchives.org/OAI/2.0/ http://www.openarchives.org/OAI/2.0/OAI-PMH.xsd">
  <responseDate>2017-08-31T15:43:28Z</responseDate>
  <request verb="ListIdentifiers" resumptionToken=".eJyNykEPQzAYgOH_8p1lKSVKsstiEweErjK7LIaIKRPdgor_Ppedt_f6PguIsizARjtLJ4a1hS3DIgbRFRD58OT8Vm8b8kvC846zzE3ecZugVKvMwBGT76Q4kA0KW1XSU6RdVDKxGs3Rmb1SGU8J9kaKjqYvozl4eJsrcOjy693tKesOnGrFEB6jmaoHesX516l_OvnTOWIPCvRZVYKNTaJAM2ZDJcBe1vUDxFdRbg.DInAIA.wWq3PRs_TDLsEadwluPIOoZwVNg">https://zenodo.org/oai2d</request>
  <ListIdentifiers>
    <header>
      <identifier>oai:zenodo.org:839196</identifier>
      <datestamp>2017-08-05T11:41:53Z</datestamp>
      <setSpec>user-biosyslit</setSpec>
    </header>
    <header>
      <identifier>oai:zenodo.org:839210</identifier>
      <datestamp>2017-08-05T11:42:17Z</datestamp>
      <setSpec>user-biosyslit</setSpec>
    </header>
    <header>
      <identifier>oai:zenodo.org:839200</identifier>
      <datestamp>2017-08-05T11:42:00Z</datestamp>
      <setSpec>user-biosyslit</setSpec>
    </header>
    <header>
      <identifier>oai:zenodo.org:839188</identifier>
      <datestamp>2017-08-05T11:00:42Z</datestamp>
      <setSpec>user-biosyslit</setSpec>
    </header>
    <header>
      <identifier>oai:zenodo.org:839186</identifier>
      <datestamp>2017-08-05T11:00:40Z</datestamp>
      <setSpec>user-biosyslit</setSpec>
    </header>
    <header>
      <identifier>oai:zenodo.org:839268</identifier>
      <datestamp>2017-08-05T17:16:18Z</datestamp>
      <setSpec>user-biosyslit</setSpec>
    </header>
    <header>
      <identifier>oai:zenodo.org:839270</identifier>
      <datestamp>2017-08-05T17:16:20Z</datestamp>
      <setSpec>user-biosyslit</setSpec>
    </header>
    <header>
      <identifier>oai:zenodo.org:839272</identifier>
      <datestamp>2017-08-05T17:16:23Z</datestamp>
      <setSpec>user-biosyslit</setSpec>
    </header>
    <header>
      <identifier>oai:zenodo.org:839184</identifier>
      <datestamp>2017-08-05T11:00:37Z</datestamp>
      <setSpec>user-biosyslit</setSpec>
    </header>
    <header>
      <identifier>oai:zenodo.org:839180</identifier>
      <datestamp>2017-08-05T11:00:28Z</datestamp>
      <setSpec>user-biosyslit</setSpec>
    </header>
    <header>
      <identifier>oai:zenodo.org:839278</identifier>
      <datestamp>2017-08-05T17:19:19Z</datestamp>
      <setSpec>user-biosyslit</setSpec>
    </header>
    <header>
      <identifier>oai:zenodo.org:839266</identifier>
      <datestamp>2017-08-05T17:16:34Z</datestamp>
      <setSpec>user-biosyslit</setSpec>
    </header>
    <header>
      <identifier>oai:zenodo.org:839274</identifier>
      <datestamp>2017-08-05T17:16:27Z</datestamp>
      <setSpec>user-biosyslit</setSpec>
    </header>
    <header>
      <identifier>oai:zenodo.org:839286</identifier>
      <datestamp>2017-08-05T17:19:00Z</datestamp>
      <setSpec>user-biosyslit</setSpec>
    </header>
    <header>
      <identifier>oai:zenodo.org:839308</identifier>
      <datestamp>2017-08-05T17:23:18Z</datestamp>
      <setSpec>user-biosyslit</setSpec>
    </header>
    <header>
      <identifier>oai:zenodo.org:839310</identifier>
      <datestamp>2017-08-05T17:23:20Z</datestamp>
      <setSpec>user-biosyslit</setSpec>
    </header>
    <header>
      <identifier>oai:zenodo.org:839304</identifier>
      <datestamp>2017-08-05T17:23:12Z</datestamp>
      <setSpec>user-biosyslit</setSpec>
    </header>
    <header>
      <identifier>oai:zenodo.org:839298</identifier>
      <datestamp>2017-08-05T17:22:51Z</datestamp>
      <setSpec>user-biosyslit</setSpec>
    </header>
    <header>
      <identifier>oai:zenodo.org:839398</identifier>
      <datestamp>2017-08-06T07:45:52Z</datestamp>
      <setSpec>user-biosyslit</setSpec>
    </header>
    <header>
      <identifier>oai:zenodo.org:839412</identifier>
      <datestamp>2017-08-06T07:51:25Z</datestamp>
      <setSpec>user-biosyslit</setSpec>
    </header>
    <header>
      <identifier>oai:zenodo.org:839408</identifier>
      <datestamp>2017-08-06T07:45:46Z</datestamp>
      <setSpec>user-biosyslit</setSpec>
    </header>
    <header>
      <identifier>oai:zenodo.org:839414</identifier>
      <datestamp>2017-08-06T07:51:29Z</datestamp>
      <setSpec>user-biosyslit</setSpec>
    </header>
    <header>
      <identifier>oai:zenodo.org:839400</identifier>
      <datestamp>2017-08-06T07:45:31Z</datestamp>
      <setSpec>user-biosyslit</setSpec>
    </header>
    <header>
      <identifier>oai:zenodo.org:839381</identifier>
      <datestamp>2017-08-06T07:51:32Z</datestamp>
      <setSpec>user-biosyslit</setSpec>
    </header>
    <header>
      <identifier>oai:zenodo.org:839428</identifier>
      <datestamp>2017-08-06T09:20:13Z</datestamp>
      <setSpec>user-biosyslit</setSpec>
    </header>
    <header>
      <identifier>oai:zenodo.org:839426</identifier>
      <datestamp>2017-08-06T09:20:09Z</datestamp>
      <setSpec>user-biosyslit</setSpec>
    </header>
    <header>
      <identifier>oai:zenodo.org:839424</identifier>
      <datestamp>2017-08-06T09:20:05Z</datestamp>
      <setSpec>user-biosyslit</setSpec>
    </header>
    <header>
      <identifier>oai:zenodo.org:839434</identifier>
      <datestamp>2017-08-06T09:20:22Z</datestamp>
      <setSpec>user-biosyslit</setSpec>
    </header>
    <header>
      <identifier>oai:zenodo.org:839422</identifier>
      <datestamp>2017-08-06T09:20:01Z</datestamp>
      <setSpec>user-biosyslit</setSpec>
    </header>
    <header>
      <identifier>oai:zenodo.org:839430</identifier>
      <datestamp>2017-08-06T09:20:16Z</datestamp>
      <setSpec>user-biosyslit</setSpec>
    </header>
    <header>
      <identifier>oai:zenodo.org:839420</identifier>
      <datestamp>2017-08-06T09:20:30Z</datestamp>
      <setSpec>user-biosyslit</setSpec>
    </header>
    <header>
      <identifier>oai:zenodo.org:839436</identifier>
      <datestamp>2017-08-06T09:20:25Z</datestamp>
      <setSpec>user-biosyslit</setSpec>
    </header>
    <header>
      <identifier>oai:zenodo.org:839442</identifier>
      <datestamp>2017-08-06T09:24:27Z</datestamp>
      <setSpec>user-biosyslit</setSpec>
    </header>
    <header>
      <identifier>oai:zenodo.org:839458</identifier>
      <datestamp>2017-08-06T09:26:02Z</datestamp>
      <setSpec>user-biosyslit</setSpec>
    </header>
    <header>
      <identifier>oai:zenodo.org:839452</identifier>
      <datestamp>2017-08-06T09:25:53Z</datestamp>
      <setSpec>user-biosyslit</setSpec>
    </header>
    <header>
      <identifier>oai:zenodo.org:839460</identifier>
      <datestamp>2017-08-06T09:26:05Z</datestamp>
      <setSpec>user-biosyslit</setSpec>
    </header>
    <header>
      <identifier>oai:zenodo.org:839454</identifier>
      <datestamp>2017-08-06T09:25:56Z</datestamp>
      <setSpec>user-biosyslit</setSpec>
    </header>
    <header>
      <identifier>oai:zenodo.org:839456</identifier>
      <datestamp>2017-08-06T09:25:59Z</datestamp>
      <setSpec>user-biosyslit</setSpec>
    </header>
    <header>
      <identifier>oai:zenodo.org:839444</identifier>
      <datestamp>2017-08-06T09:24:33Z</datestamp>
      <setSpec>user-biosyslit</setSpec>
    </header>
    <header>
      <identifier>oai:zenodo.org:839482</identifier>
      <datestamp>2017-08-06T09:46:22Z</datestamp>
      <setSpec>user-biosyslit</setSpec>
    </header>
    <header>
      <identifier>oai:zenodo.org:839462</identifier>
      <datestamp>2017-08-06T09:26:08Z</datestamp>
      <setSpec>user-biosyslit</setSpec>
    </header>
    <header>
      <identifier>oai:zenodo.org:839504</identifier>
      <datestamp>2017-08-06T09:50:51Z</datestamp>
      <setSpec>user-biosyslit</setSpec>
    </header>
    <header>
      <identifier>oai:zenodo.org:839474</identifier>
      <datestamp>2017-08-06T09:46:02Z</datestamp>
      <setSpec>user-biosyslit</setSpec>
    </header>
    <header>
      <identifier>oai:zenodo.org:839496</identifier>
      <datestamp>2017-08-06T09:50:36Z</datestamp>
      <setSpec>user-biosyslit</setSpec>
    </header>
    <header>
      <identifier>oai:zenodo.org:839468</identifier>
      <datestamp>2017-08-06T09:26:16Z</datestamp>
      <setSpec>user-biosyslit</setSpec>
    </header>
    <header>
      <identifier>oai:zenodo.org:839480</identifier>
      <datestamp>2017-08-06T09:46:20Z</datestamp>
      <setSpec>user-biosyslit</setSpec>
    </header>
    <header>
      <identifier>oai:zenodo.org:839466</identifier>
      <datestamp>2017-08-06T09:26:13Z</datestamp>
      <setSpec>user-biosyslit</setSpec>
    </header>
    <header>
      <identifier>oai:zenodo.org:839506</identifier>
      <datestamp>2017-08-06T09:50:55Z</datestamp>
      <setSpec>user-biosyslit</setSpec>
    </header>
    <header>
      <identifier>oai:zenodo.org:839508</identifier>
      <datestamp>2017-08-06T09:50:59Z</datestamp>
      <setSpec>user-biosyslit</setSpec>
    </header>
    <header>
      <identifier>oai:zenodo.org:831682</identifier>
      <datestamp>2017-07-18T16:22:40Z</datestamp>
      <setSpec>user-biosyslit</setSpec>
    </header>
    <header>
      <identifier>oai:zenodo.org:831686</identifier>
      <datestamp>2017-07-18T16:22:36Z</datestamp>
      <setSpec>user-biosyslit</setSpec>
    </header>
    <header>
      <identifier>oai:zenodo.org:831684</identifier>
      <datestamp>2017-07-18T16:22:32Z</datestamp>
      <setSpec>user-biosyslit</setSpec>
    </header>
    <header>
      <identifier>oai:zenodo.org:831730</identifier>
      <datestamp>2017-07-18T17:25:43Z</datestamp>
      <setSpec>user-biosyslit</setSpec>
    </header>
    <header>
      <identifier>oai:zenodo.org:831720</identifier>
      <datestamp>2017-07-18T17:01:03Z</datestamp>
      <setSpec>user-biosyslit</setSpec>
    </header>
    <header>
      <identifier>oai:zenodo.org:831736</identifier>
      <datestamp>2017-07-18T17:25:35Z</datestamp>
      <setSpec>user-biosyslit</setSpec>
    </header>
    <header>
      <identifier>oai:zenodo.org:831734</identifier>
      <datestamp>2017-07-18T17:25:31Z</datestamp>
      <setSpec>user-biosyslit</setSpec>
    </header>
    <header>
      <identifier>oai:zenodo.org:831761</identifier>
      <datestamp>2017-07-18T18:06:19Z</datestamp>
      <setSpec>user-biosyslit</setSpec>
    </header>
    <header>
      <identifier>oai:zenodo.org:831772</identifier>
      <datestamp>2017-07-18T18:37:00Z</datestamp>
      <setSpec>user-biosyslit</setSpec>
    </header>
    <header>
      <identifier>oai:zenodo.org:831792</identifier>
      <datestamp>2017-07-18T20:01:49Z</datestamp>
      <setSpec>user-biosyslit</setSpec>
    </header>
    <header>
      <identifier>oai:zenodo.org:831562</identifier>
      <datestamp>2017-07-18T13:09:21Z</datestamp>
      <setSpec>user-biosyslit</setSpec>
    </header>
    <header>
      <identifier>oai:zenodo.org:831564</identifier>
      <datestamp>2017-07-18T13:09:24Z</datestamp>
      <setSpec>user-biosyslit</setSpec>
    </header>
    <header>
      <identifier>oai:zenodo.org:831566</identifier>
      <datestamp>2017-07-18T13:09:27Z</datestamp>
      <setSpec>user-biosyslit</setSpec>
    </header>
    <header>
      <identifier>oai:zenodo.org:831576</identifier>
      <datestamp>2017-07-18T13:33:48Z</datestamp>
      <setSpec>user-biosyslit</setSpec>
    </header>
    <header>
      <identifier>oai:zenodo.org:831578</identifier>
      <datestamp>2017-07-18T13:33:52Z</datestamp>
      <setSpec>user-biosyslit</setSpec>
    </header>
    <header>
      <identifier>oai:zenodo.org:831574</identifier>
      <datestamp>2017-07-18T13:33:42Z</datestamp>
      <setSpec>user-biosyslit</setSpec>
    </header>
    <header>
      <identifier>oai:zenodo.org:831572</identifier>
      <datestamp>2017-07-18T13:33:56Z</datestamp>
      <setSpec>user-biosyslit</setSpec>
    </header>
    <header>
      <identifier>oai:zenodo.org:831599</identifier>
      <datestamp>2017-07-18T14:26:58Z</datestamp>
      <setSpec>user-biosyslit</setSpec>
    </header>
    <header>
      <identifier>oai:zenodo.org:831625</identifier>
      <datestamp>2017-07-18T14:26:55Z</datestamp>
      <setSpec>user-biosyslit</setSpec>
    </header>
    <header>
      <identifier>oai:zenodo.org:831619</identifier>
      <datestamp>2017-07-18T14:26:44Z</datestamp>
      <setSpec>user-biosyslit</setSpec>
    </header>
    <header>
      <identifier>oai:zenodo.org:831611</identifier>
      <datestamp>2017-07-18T14:26:29Z</datestamp>
      <setSpec>user-biosyslit</setSpec>
    </header>
    <header>
      <identifier>oai:zenodo.org:831621</identifier>
      <datestamp>2017-07-18T14:26:47Z</datestamp>
      <setSpec>user-biosyslit</setSpec>
    </header>
    <header>
      <identifier>oai:zenodo.org:831546</identifier>
      <datestamp>2017-07-18T13:08:50Z</datestamp>
      <setSpec>user-biosyslit</setSpec>
    </header>
    <header>
      <identifier>oai:zenodo.org:831560</identifier>
      <datestamp>2017-07-18T13:09:17Z</datestamp>
      <setSpec>user-biosyslit</setSpec>
    </header>
    <header>
      <identifier>oai:zenodo.org:831550</identifier>
      <datestamp>2017-07-18T13:09:00Z</datestamp>
      <setSpec>user-biosyslit</setSpec>
    </header>
    <header>
      <identifier>oai:zenodo.org:831556</identifier>
      <datestamp>2017-07-18T13:09:09Z</datestamp>
      <setSpec>user-biosyslit</setSpec>
    </header>
    <header>
      <identifier>oai:zenodo.org:831544</identifier>
      <datestamp>2017-07-18T13:08:47Z</datestamp>
      <setSpec>user-biosyslit</setSpec>
    </header>
    <header>
      <identifier>oai:zenodo.org:831542</identifier>
      <datestamp>2017-07-18T13:08:43Z</datestamp>
      <setSpec>user-biosyslit</setSpec>
    </header>
    <header>
      <identifier>oai:zenodo.org:831558</identifier>
      <datestamp>2017-07-18T13:09:12Z</datestamp>
      <setSpec>user-biosyslit</setSpec>
    </header>
    <header>
      <identifier>oai:zenodo.org:831582</identifier>
      <datestamp>2017-07-18T13:58:10Z</datestamp>
      <setSpec>user-biosyslit</setSpec>
    </header>
    <header>
      <identifier>oai:zenodo.org:831607</identifier>
      <datestamp>2017-07-18T14:26:21Z</datestamp>
      <setSpec>user-biosyslit</setSpec>
    </header>
    <header>
      <identifier>oai:zenodo.org:831609</identifier>
      <datestamp>2017-07-18T14:26:24Z</datestamp>
      <setSpec>user-biosyslit</setSpec>
    </header>
    <header>
      <identifier>oai:zenodo.org:831584</identifier>
      <datestamp>2017-07-18T13:58:03Z</datestamp>
      <setSpec>user-biosyslit</setSpec>
    </header>
    <header>
      <identifier>oai:zenodo.org:831650</identifier>
      <datestamp>2017-07-18T15:14:47Z</datestamp>
      <setSpec>user-biosyslit</setSpec>
    </header>
    <header>
      <identifier>oai:zenodo.org:831670</identifier>
      <datestamp>2017-07-18T15:57:15Z</datestamp>
      <setSpec>user-biosyslit</setSpec>
    </header>
    <header>
      <identifier>oai:zenodo.org:831798</identifier>
      <datestamp>2017-07-18T20:02:07Z</datestamp>
      <setSpec>user-biosyslit</setSpec>
    </header>
    <header>
      <identifier>oai:zenodo.org:831796</identifier>
      <datestamp>2017-07-18T20:02:02Z</datestamp>
      <setSpec>user-biosyslit</setSpec>
    </header>
    <header>
      <identifier>oai:zenodo.org:831819</identifier>
      <datestamp>2017-07-18T20:53:26Z</datestamp>
      <setSpec>user-biosyslit</setSpec>
    </header>
    <header>
      <identifier>oai:zenodo.org:831815</identifier>
      <datestamp>2017-07-18T20:53:21Z</datestamp>
      <setSpec>user-biosyslit</setSpec>
    </header>
    <header>
      <identifier>oai:zenodo.org:831794</identifier>
      <datestamp>2017-07-18T20:01:55Z</datestamp>
      <setSpec>user-biosyslit</setSpec>
    </header>
    <header>
      <identifier>oai:zenodo.org:831817</identifier>
      <datestamp>2017-07-18T20:53:23Z</datestamp>
      <setSpec>user-biosyslit</setSpec>
    </header>
    <header>
      <identifier>oai:zenodo.org:831872</identifier>
      <datestamp>2017-07-19T00:26:17Z</datestamp>
      <setSpec>user-biosyslit</setSpec>
    </header>
    <header>
      <identifier>oai:zenodo.org:831886</identifier>
      <datestamp>2017-07-19T00:26:14Z</datestamp>
      <setSpec>user-biosyslit</setSpec>
    </header>
    <header>
      <identifier>oai:zenodo.org:831894</identifier>
      <datestamp>2017-07-19T00:50:23Z</datestamp>
      <setSpec>user-biosyslit</setSpec>
    </header>
    <header>
      <identifier>oai:zenodo.org:831874</identifier>
      <datestamp>2017-07-19T00:25:58Z</datestamp>
      <setSpec>user-biosyslit</setSpec>
    </header>
    <header>
      <identifier>oai:zenodo.org:831884</identifier>
      <datestamp>2017-07-19T00:26:11Z</datestamp>
      <setSpec>user-biosyslit</setSpec>
    </header>
    <header>
      <identifier>oai:zenodo.org:831882</identifier>
      <datestamp>2017-07-19T00:26:07Z</datestamp>
      <setSpec>user-biosyslit</setSpec>
    </header>
    <header>
      <identifier>oai:zenodo.org:831878</identifier>
      <datestamp>2017-07-19T00:26:04Z</datestamp>
      <setSpec>user-biosyslit</setSpec>
    </header>
    <header>
      <identifier>oai:zenodo.org:831890</identifier>
      <datestamp>2017-07-19T00:50:15Z</datestamp>
      <setSpec>user-biosyslit</setSpec>
    </header>
    <header>
      <identifier>oai:zenodo.org:831866</identifier>
      <datestamp>2017-07-19T00:00:01Z</datestamp>
      <setSpec>user-biosyslit</setSpec>
    </header>
    <header>
      <identifier>oai:zenodo.org:831862</identifier>
      <datestamp>2017-07-18T23:59:54Z</datestamp>
      <setSpec>user-biosyslit</setSpec>
    </header>
    <resumptionToken expirationDate="2017-08-31T15:45:28Z" cursor="37700" completeListSize="77796">.eJyNysEKgjAYAOB3-c8Sm6M2hS6iiYcUW4p6CVMRa5q4Ip347nnpXOfvm0FWVQkm2jCKiYERQ2zHtpRqIIvhIcSlWRWKJBZFJ6LcjV-nNkapXlPfluPRTomv7ihoseKHUE8wG6MGTeE5eqbqNMbEe3Pk0KMKJ__mra8kgSuyq9vzqLME18shcMKJY4tnpPg-_OdTP58t96BBn9cVmIQaGtzf-VBLMOdl-QBzQVEc.DInAIA.yR15tMfmrFME9_0DP8yBHDL5Aqk</resumptionToken>
  </ListIdentifiers>
</OAI-PMH>
