<?xml version='1.0' encoding='UTF-8'?>
<?xml-stylesheet type="text/xsl" href="/static/xsl/oai2.v1.0.xsl"?>
<OAI-PMH xmlns="http://www.openarchives.org/OAI/2.0/" xmlns:xsi="http://www.w3.org/2001/XMLSchema-instance" xsi:schemaLocation="http://www.openarchives.org/OAI/2.0/ http://www.openarchives.org/OAI/2.0/OAI-PMH.xsd">
  <responseDate>2017-08-31T15:44:01Z</responseDate>
  <request verb="ListIdentifiers" resumptionToken=".eJyNyj0LgkAYAOD_8s4S99GpCS2iSYOKXUq6hJ0i5WniFelF_72W5pqf5wmqritw0IKazGbMpAgzRswVMw1QYrxKeTx_HMQhk6KXaRlk912XoZw0VuSpKfRyGukWxR3WfJOQA7an9IzmZJ_ecr2bMrp9cORboU7m6LL9vIrGgSxOwcDT3pWcVGPsJzPHLi-o-D7859M_n6fWYMBQNjU4S2YZ0D7KsVHgPF-vN9aWUXs.DInAQQ.-l3mrwDOC3zOWEs0_YqOfJvq81I">https://zenodo.org/oai2d</request>
  <ListIdentifiers>
    <header>
      <identifier>oai:zenodo.org:237025</identifier>
      <datestamp>2017-01-10T09:41:13Z</datestamp>
      <setSpec>user-biosyslit</setSpec>
    </header>
    <header>
      <identifier>oai:zenodo.org:235406</identifier>
      <datestamp>2017-01-09T09:46:04Z</datestamp>
      <setSpec>user-biosyslit</setSpec>
    </header>
    <header>
      <identifier>oai:zenodo.org:236442</identifier>
      <datestamp>2017-01-10T00:15:26Z</datestamp>
      <setSpec>user-biosyslit</setSpec>
    </header>
    <header>
      <identifier>oai:zenodo.org:237065</identifier>
      <datestamp>2017-01-10T10:23:09Z</datestamp>
      <setSpec>user-biosyslit</setSpec>
    </header>
    <header>
      <identifier>oai:zenodo.org:288815</identifier>
      <datestamp>2017-02-09T22:00:10Z</datestamp>
      <setSpec>user-biosyslit</setSpec>
    </header>
    <header>
      <identifier>oai:zenodo.org:237063</identifier>
      <datestamp>2017-01-10T10:23:07Z</datestamp>
      <setSpec>user-biosyslit</setSpec>
    </header>
    <header>
      <identifier>oai:zenodo.org:238843</identifier>
      <datestamp>2017-01-11T11:31:14Z</datestamp>
      <setSpec>user-biosyslit</setSpec>
    </header>
    <header>
      <identifier>oai:zenodo.org:270813</identifier>
      <datestamp>2017-02-07T23:57:12Z</datestamp>
      <setSpec>user-biosyslit</setSpec>
    </header>
    <header>
      <identifier>oai:zenodo.org:237240</identifier>
      <datestamp>2017-01-10T12:51:12Z</datestamp>
      <setSpec>user-biosyslit</setSpec>
    </header>
    <header>
      <identifier>oai:zenodo.org:236860</identifier>
      <datestamp>2017-01-10T06:33:40Z</datestamp>
      <setSpec>user-biosyslit</setSpec>
    </header>
    <header>
      <identifier>oai:zenodo.org:237045</identifier>
      <datestamp>2017-01-10T10:23:19Z</datestamp>
      <setSpec>user-biosyslit</setSpec>
    </header>
    <header>
      <identifier>oai:zenodo.org:237066</identifier>
      <datestamp>2017-01-10T10:23:13Z</datestamp>
      <setSpec>user-biosyslit</setSpec>
    </header>
    <header>
      <identifier>oai:zenodo.org:236502</identifier>
      <datestamp>2017-01-10T00:54:39Z</datestamp>
      <setSpec>user-biosyslit</setSpec>
    </header>
    <header>
      <identifier>oai:zenodo.org:238094</identifier>
      <datestamp>2017-01-11T00:57:48Z</datestamp>
      <setSpec>user-biosyslit</setSpec>
    </header>
    <header>
      <identifier>oai:zenodo.org:237120</identifier>
      <datestamp>2017-01-10T11:06:41Z</datestamp>
      <setSpec>user-biosyslit</setSpec>
    </header>
    <header>
      <identifier>oai:zenodo.org:237674</identifier>
      <datestamp>2017-01-10T18:30:52Z</datestamp>
      <setSpec>user-biosyslit</setSpec>
    </header>
    <header>
      <identifier>oai:zenodo.org:236647</identifier>
      <datestamp>2017-01-10T02:26:53Z</datestamp>
      <setSpec>user-biosyslit</setSpec>
    </header>
    <header>
      <identifier>oai:zenodo.org:288026</identifier>
      <datestamp>2017-02-09T19:50:00Z</datestamp>
      <setSpec>user-biosyslit</setSpec>
    </header>
    <header>
      <identifier>oai:zenodo.org:287923</identifier>
      <datestamp>2017-02-09T19:37:21Z</datestamp>
      <setSpec>user-biosyslit</setSpec>
    </header>
    <header>
      <identifier>oai:zenodo.org:289736</identifier>
      <datestamp>2017-02-10T00:22:54Z</datestamp>
      <setSpec>user-biosyslit</setSpec>
    </header>
    <header>
      <identifier>oai:zenodo.org:289782</identifier>
      <datestamp>2017-02-10T00:30:18Z</datestamp>
      <setSpec>user-biosyslit</setSpec>
    </header>
    <header>
      <identifier>oai:zenodo.org:227576</identifier>
      <datestamp>2017-01-01T23:58:42Z</datestamp>
      <setSpec>user-biosyslit</setSpec>
    </header>
    <header>
      <identifier>oai:zenodo.org:227232</identifier>
      <datestamp>2017-01-01T18:34:18Z</datestamp>
      <setSpec>user-biosyslit</setSpec>
    </header>
    <header>
      <identifier>oai:zenodo.org:288811</identifier>
      <datestamp>2017-02-09T21:54:01Z</datestamp>
      <setSpec>user-biosyslit</setSpec>
    </header>
    <header>
      <identifier>oai:zenodo.org:227284</identifier>
      <datestamp>2017-01-01T18:56:45Z</datestamp>
      <setSpec>user-biosyslit</setSpec>
    </header>
    <header>
      <identifier>oai:zenodo.org:227271</identifier>
      <datestamp>2017-01-01T18:51:24Z</datestamp>
      <setSpec>user-biosyslit</setSpec>
    </header>
    <header>
      <identifier>oai:zenodo.org:227730</identifier>
      <datestamp>2017-01-02T02:39:51Z</datestamp>
      <setSpec>user-biosyslit</setSpec>
    </header>
    <header>
      <identifier>oai:zenodo.org:227632</identifier>
      <datestamp>2017-01-02T01:11:54Z</datestamp>
      <setSpec>user-biosyslit</setSpec>
    </header>
    <header>
      <identifier>oai:zenodo.org:227741</identifier>
      <datestamp>2017-01-02T03:26:33Z</datestamp>
      <setSpec>user-biosyslit</setSpec>
    </header>
    <header>
      <identifier>oai:zenodo.org:228714</identifier>
      <datestamp>2017-01-03T03:47:47Z</datestamp>
      <setSpec>user-biosyslit</setSpec>
    </header>
    <header>
      <identifier>oai:zenodo.org:495326</identifier>
      <datestamp>2017-04-06T07:54:07Z</datestamp>
      <setSpec>user-biosyslit</setSpec>
    </header>
    <header>
      <identifier>oai:zenodo.org:229808</identifier>
      <datestamp>2017-01-04T07:22:59Z</datestamp>
      <setSpec>user-biosyslit</setSpec>
    </header>
    <header>
      <identifier>oai:zenodo.org:495330</identifier>
      <datestamp>2017-04-06T08:00:00Z</datestamp>
      <setSpec>user-biosyslit</setSpec>
    </header>
    <header>
      <identifier>oai:zenodo.org:495491</identifier>
      <datestamp>2017-04-07T05:35:16Z</datestamp>
      <setSpec>openaire</setSpec>
      <setSpec>user-modphytomorphol</setSpec>
      <setSpec>user-biosyslit</setSpec>
    </header>
    <header>
      <identifier>oai:zenodo.org:229815</identifier>
      <datestamp>2017-01-04T07:23:32Z</datestamp>
      <setSpec>user-biosyslit</setSpec>
    </header>
    <header>
      <identifier>oai:zenodo.org:228384</identifier>
      <datestamp>2017-01-02T23:20:17Z</datestamp>
      <setSpec>user-biosyslit</setSpec>
    </header>
    <header>
      <identifier>oai:zenodo.org:229411</identifier>
      <datestamp>2017-01-03T15:26:36Z</datestamp>
      <setSpec>user-biosyslit</setSpec>
    </header>
    <header>
      <identifier>oai:zenodo.org:229327</identifier>
      <datestamp>2017-01-03T14:22:02Z</datestamp>
      <setSpec>user-biosyslit</setSpec>
    </header>
    <header>
      <identifier>oai:zenodo.org:495529</identifier>
      <datestamp>2017-04-07T07:31:00Z</datestamp>
      <setSpec>user-biosyslit</setSpec>
    </header>
    <header>
      <identifier>oai:zenodo.org:228096</identifier>
      <datestamp>2017-01-02T10:18:53Z</datestamp>
      <setSpec>user-biosyslit</setSpec>
    </header>
    <header>
      <identifier>oai:zenodo.org:228521</identifier>
      <datestamp>2017-01-03T00:54:45Z</datestamp>
      <setSpec>user-biosyslit</setSpec>
    </header>
    <header>
      <identifier>oai:zenodo.org:227776</identifier>
      <datestamp>2017-01-02T04:28:34Z</datestamp>
      <setSpec>user-biosyslit</setSpec>
    </header>
    <header>
      <identifier>oai:zenodo.org:228622</identifier>
      <datestamp>2017-01-03T02:36:23Z</datestamp>
      <setSpec>user-biosyslit</setSpec>
    </header>
    <header>
      <identifier>oai:zenodo.org:228836</identifier>
      <datestamp>2017-01-03T05:47:08Z</datestamp>
      <setSpec>user-biosyslit</setSpec>
    </header>
    <header>
      <identifier>oai:zenodo.org:228974</identifier>
      <datestamp>2017-01-03T07:53:42Z</datestamp>
      <setSpec>user-biosyslit</setSpec>
    </header>
    <header>
      <identifier>oai:zenodo.org:228289</identifier>
      <datestamp>2017-01-02T21:22:33Z</datestamp>
      <setSpec>user-biosyslit</setSpec>
    </header>
    <header>
      <identifier>oai:zenodo.org:227809</identifier>
      <datestamp>2017-01-02T05:27:36Z</datestamp>
      <setSpec>user-biosyslit</setSpec>
    </header>
    <header>
      <identifier>oai:zenodo.org:228496</identifier>
      <datestamp>2017-01-03T00:31:52Z</datestamp>
      <setSpec>user-biosyslit</setSpec>
    </header>
    <header>
      <identifier>oai:zenodo.org:228824</identifier>
      <datestamp>2017-01-03T05:22:50Z</datestamp>
      <setSpec>user-biosyslit</setSpec>
    </header>
    <header>
      <identifier>oai:zenodo.org:229731</identifier>
      <datestamp>2017-01-03T21:23:19Z</datestamp>
      <setSpec>user-biosyslit</setSpec>
    </header>
    <header>
      <identifier>oai:zenodo.org:228234</identifier>
      <datestamp>2017-01-02T20:05:36Z</datestamp>
      <setSpec>user-biosyslit</setSpec>
    </header>
    <header>
      <identifier>oai:zenodo.org:269839</identifier>
      <datestamp>2017-02-07T20:32:49Z</datestamp>
      <setSpec>user-biosyslit</setSpec>
    </header>
    <header>
      <identifier>oai:zenodo.org:229413</identifier>
      <datestamp>2017-01-03T15:26:43Z</datestamp>
      <setSpec>user-biosyslit</setSpec>
    </header>
    <header>
      <identifier>oai:zenodo.org:229922</identifier>
      <datestamp>2017-01-04T16:02:02Z</datestamp>
      <setSpec>user-biosyslit</setSpec>
    </header>
    <header>
      <identifier>oai:zenodo.org:228077</identifier>
      <datestamp>2017-01-02T10:02:53Z</datestamp>
      <setSpec>user-biosyslit</setSpec>
    </header>
    <header>
      <identifier>oai:zenodo.org:227910</identifier>
      <datestamp>2017-01-02T06:37:30Z</datestamp>
      <setSpec>user-biosyslit</setSpec>
    </header>
    <header>
      <identifier>oai:zenodo.org:269744</identifier>
      <datestamp>2017-02-07T20:15:13Z</datestamp>
      <setSpec>user-biosyslit</setSpec>
    </header>
    <header>
      <identifier>oai:zenodo.org:270405</identifier>
      <datestamp>2017-02-07T23:10:22Z</datestamp>
      <setSpec>user-biosyslit</setSpec>
    </header>
    <header>
      <identifier>oai:zenodo.org:289308</identifier>
      <datestamp>2017-02-09T23:11:49Z</datestamp>
      <setSpec>user-biosyslit</setSpec>
    </header>
    <header>
      <identifier>oai:zenodo.org:229421</identifier>
      <datestamp>2017-01-03T15:31:31Z</datestamp>
      <setSpec>user-biosyslit</setSpec>
    </header>
    <header>
      <identifier>oai:zenodo.org:229469</identifier>
      <datestamp>2017-01-03T16:33:37Z</datestamp>
      <setSpec>user-biosyslit</setSpec>
    </header>
    <header>
      <identifier>oai:zenodo.org:288454</identifier>
      <datestamp>2017-02-09T20:58:38Z</datestamp>
      <setSpec>user-biosyslit</setSpec>
    </header>
    <header>
      <identifier>oai:zenodo.org:229384</identifier>
      <datestamp>2017-01-03T15:07:43Z</datestamp>
      <setSpec>user-biosyslit</setSpec>
    </header>
    <header>
      <identifier>oai:zenodo.org:229542</identifier>
      <datestamp>2017-01-03T17:55:41Z</datestamp>
      <setSpec>user-biosyslit</setSpec>
    </header>
    <header>
      <identifier>oai:zenodo.org:230780</identifier>
      <datestamp>2017-01-05T08:06:18Z</datestamp>
      <setSpec>user-biosyslit</setSpec>
    </header>
    <header>
      <identifier>oai:zenodo.org:229618</identifier>
      <datestamp>2017-01-03T19:25:49Z</datestamp>
      <setSpec>user-biosyslit</setSpec>
    </header>
    <header>
      <identifier>oai:zenodo.org:270293</identifier>
      <datestamp>2017-02-07T22:57:23Z</datestamp>
      <setSpec>user-biosyslit</setSpec>
    </header>
    <header>
      <identifier>oai:zenodo.org:229792</identifier>
      <datestamp>2017-01-04T07:21:32Z</datestamp>
      <setSpec>user-biosyslit</setSpec>
    </header>
    <header>
      <identifier>oai:zenodo.org:229502</identifier>
      <datestamp>2017-01-03T17:12:08Z</datestamp>
      <setSpec>user-biosyslit</setSpec>
    </header>
    <header>
      <identifier>oai:zenodo.org:230342</identifier>
      <datestamp>2017-01-04T23:03:19Z</datestamp>
      <setSpec>user-biosyslit</setSpec>
    </header>
    <header>
      <identifier>oai:zenodo.org:229801</identifier>
      <datestamp>2017-01-04T07:22:25Z</datestamp>
      <setSpec>user-biosyslit</setSpec>
    </header>
    <header>
      <identifier>oai:zenodo.org:230300</identifier>
      <datestamp>2017-01-04T22:32:24Z</datestamp>
      <setSpec>user-biosyslit</setSpec>
    </header>
    <header>
      <identifier>oai:zenodo.org:269978</identifier>
      <datestamp>2017-02-07T21:54:54Z</datestamp>
      <setSpec>user-biosyslit</setSpec>
    </header>
    <header>
      <identifier>oai:zenodo.org:231181</identifier>
      <datestamp>2017-01-05T17:02:21Z</datestamp>
      <setSpec>user-biosyslit</setSpec>
    </header>
    <header>
      <identifier>oai:zenodo.org:230683</identifier>
      <datestamp>2017-01-05T06:30:46Z</datestamp>
      <setSpec>user-biosyslit</setSpec>
    </header>
    <header>
      <identifier>oai:zenodo.org:269777</identifier>
      <datestamp>2017-02-07T20:18:18Z</datestamp>
      <setSpec>user-biosyslit</setSpec>
    </header>
    <header>
      <identifier>oai:zenodo.org:269916</identifier>
      <datestamp>2017-02-07T20:43:52Z</datestamp>
      <setSpec>user-biosyslit</setSpec>
    </header>
    <header>
      <identifier>oai:zenodo.org:231501</identifier>
      <datestamp>2017-01-06T03:05:13Z</datestamp>
      <setSpec>user-biosyslit</setSpec>
    </header>
    <header>
      <identifier>oai:zenodo.org:231236</identifier>
      <datestamp>2017-01-05T17:52:09Z</datestamp>
      <setSpec>user-biosyslit</setSpec>
    </header>
    <header>
      <identifier>oai:zenodo.org:270179</identifier>
      <datestamp>2017-02-07T22:29:43Z</datestamp>
      <setSpec>user-biosyslit</setSpec>
    </header>
    <header>
      <identifier>oai:zenodo.org:231502</identifier>
      <datestamp>2017-01-06T03:05:17Z</datestamp>
      <setSpec>user-biosyslit</setSpec>
    </header>
    <header>
      <identifier>oai:zenodo.org:230813</identifier>
      <datestamp>2017-01-05T08:42:27Z</datestamp>
      <setSpec>user-biosyslit</setSpec>
    </header>
    <header>
      <identifier>oai:zenodo.org:230766</identifier>
      <datestamp>2017-01-05T07:55:55Z</datestamp>
      <setSpec>user-biosyslit</setSpec>
    </header>
    <header>
      <identifier>oai:zenodo.org:230818</identifier>
      <datestamp>2017-01-05T08:46:51Z</datestamp>
      <setSpec>user-biosyslit</setSpec>
    </header>
    <header>
      <identifier>oai:zenodo.org:269908</identifier>
      <datestamp>2017-02-07T20:44:34Z</datestamp>
      <setSpec>user-biosyslit</setSpec>
    </header>
    <header>
      <identifier>oai:zenodo.org:231207</identifier>
      <datestamp>2017-01-05T17:13:29Z</datestamp>
      <setSpec>user-biosyslit</setSpec>
    </header>
    <header>
      <identifier>oai:zenodo.org:269885</identifier>
      <datestamp>2017-02-07T20:39:16Z</datestamp>
      <setSpec>user-biosyslit</setSpec>
    </header>
    <header>
      <identifier>oai:zenodo.org:270820</identifier>
      <datestamp>2017-02-07T23:57:29Z</datestamp>
      <setSpec>user-biosyslit</setSpec>
    </header>
    <header>
      <identifier>oai:zenodo.org:231811</identifier>
      <datestamp>2017-01-06T07:37:10Z</datestamp>
      <setSpec>user-biosyslit</setSpec>
    </header>
    <header>
      <identifier>oai:zenodo.org:270135</identifier>
      <datestamp>2017-02-07T22:25:30Z</datestamp>
      <setSpec>user-biosyslit</setSpec>
    </header>
    <header>
      <identifier>oai:zenodo.org:270309</identifier>
      <datestamp>2017-02-07T22:59:08Z</datestamp>
      <setSpec>user-biosyslit</setSpec>
    </header>
    <header>
      <identifier>oai:zenodo.org:270134</identifier>
      <datestamp>2017-02-07T22:25:27Z</datestamp>
      <setSpec>user-biosyslit</setSpec>
    </header>
    <header>
      <identifier>oai:zenodo.org:270267</identifier>
      <datestamp>2017-02-07T22:55:41Z</datestamp>
      <setSpec>user-biosyslit</setSpec>
    </header>
    <header>
      <identifier>oai:zenodo.org:231735</identifier>
      <datestamp>2017-01-06T06:35:56Z</datestamp>
      <setSpec>user-biosyslit</setSpec>
    </header>
    <header>
      <identifier>oai:zenodo.org:270277</identifier>
      <datestamp>2017-02-07T22:56:45Z</datestamp>
      <setSpec>user-biosyslit</setSpec>
    </header>
    <header>
      <identifier>oai:zenodo.org:270312</identifier>
      <datestamp>2017-02-07T22:59:55Z</datestamp>
      <setSpec>user-biosyslit</setSpec>
    </header>
    <header>
      <identifier>oai:zenodo.org:232424</identifier>
      <datestamp>2017-01-06T17:23:22Z</datestamp>
      <setSpec>user-biosyslit</setSpec>
    </header>
    <header>
      <identifier>oai:zenodo.org:270374</identifier>
      <datestamp>2017-02-07T23:06:25Z</datestamp>
      <setSpec>user-biosyslit</setSpec>
    </header>
    <header>
      <identifier>oai:zenodo.org:232253</identifier>
      <datestamp>2017-01-06T14:49:22Z</datestamp>
      <setSpec>user-biosyslit</setSpec>
    </header>
    <header>
      <identifier>oai:zenodo.org:232826</identifier>
      <datestamp>2017-01-06T23:41:54Z</datestamp>
      <setSpec>user-biosyslit</setSpec>
    </header>
    <resumptionToken expirationDate="2017-08-31T15:46:01Z" cursor="45600" completeListSize="77796">.eJyNyssKgkAUANB_uWuJeWhTQhuxxEXKNCnqJkxFyumBU6gj_ntuWhdne0ZQVVWCjRbIskyGTYvQNZthsjRAFe1DytNlDlAksSzuMsq9-H24xSglNQtc1e_dlAa6QeENa7HjJMGrPrqggR-jV6oPfUz9TqAt22s-BFd_fiUNPZmdvaeI7o4UpGzDLR8EdkRGi-_Dfz7987lqAwY887oC27RWBjRd3tYK7HGaPg0WUbI.DInAQQ.OPQd_IGToc4aydJHxxS_Lyqrzkg</resumptionToken>
  </ListIdentifiers>
</OAI-PMH>
