<?xml version='1.0' encoding='UTF-8'?>
<?xml-stylesheet type="text/xsl" href="/static/xsl/oai2.v1.0.xsl"?>
<OAI-PMH xmlns="http://www.openarchives.org/OAI/2.0/" xmlns:xsi="http://www.w3.org/2001/XMLSchema-instance" xsi:schemaLocation="http://www.openarchives.org/OAI/2.0/ http://www.openarchives.org/OAI/2.0/OAI-PMH.xsd">
  <responseDate>2017-08-31T15:43:20Z</responseDate>
  <request verb="ListIdentifiers" resumptionToken=".eJyNysEKgjAYAOB3-c8Sm8uWQhfRxIOKLiW9hKmIOU1ckS5897x0ru_8vUFUVQkG2iCkkp2mY4Ip1bZIp7oCohjvnF-aNUBxTnjR8zh3kmfUJShVa-pbYvKslPiyRUGHJTuG6hnvp7hBc3iKH6mMpoS4L4Zs6slw9m_u-koSODy7OgOLe5MztRwDO5wZNllGiu_Dfz7581niAAoMeV2BQTSqQPvKx1qA8V6WDwVEUag.DInAGA.6wwvlpV1OyGzlFGEpIB9CLo4UzM">https://zenodo.org/oai2d</request>
  <ListIdentifiers>
    <header>
      <identifier>oai:zenodo.org:260531</identifier>
      <datestamp>2017-01-27T21:27:54Z</datestamp>
      <setSpec>user-biosyslit</setSpec>
    </header>
    <header>
      <identifier>oai:zenodo.org:260521</identifier>
      <datestamp>2017-01-27T21:27:22Z</datestamp>
      <setSpec>user-biosyslit</setSpec>
    </header>
    <header>
      <identifier>oai:zenodo.org:260530</identifier>
      <datestamp>2017-01-27T21:27:51Z</datestamp>
      <setSpec>user-biosyslit</setSpec>
    </header>
    <header>
      <identifier>oai:zenodo.org:260529</identifier>
      <datestamp>2017-01-27T21:27:48Z</datestamp>
      <setSpec>user-biosyslit</setSpec>
    </header>
    <header>
      <identifier>oai:zenodo.org:260525</identifier>
      <datestamp>2017-01-27T21:27:36Z</datestamp>
      <setSpec>user-biosyslit</setSpec>
    </header>
    <header>
      <identifier>oai:zenodo.org:281571</identifier>
      <datestamp>2017-02-09T05:32:57Z</datestamp>
      <setSpec>user-biosyslit</setSpec>
    </header>
    <header>
      <identifier>oai:zenodo.org:271111</identifier>
      <datestamp>2017-02-08T00:47:31Z</datestamp>
      <setSpec>user-biosyslit</setSpec>
    </header>
    <header>
      <identifier>oai:zenodo.org:271108</identifier>
      <datestamp>2017-02-08T00:47:24Z</datestamp>
      <setSpec>user-biosyslit</setSpec>
    </header>
    <header>
      <identifier>oai:zenodo.org:271115</identifier>
      <datestamp>2017-02-08T00:47:41Z</datestamp>
      <setSpec>user-biosyslit</setSpec>
    </header>
    <header>
      <identifier>oai:zenodo.org:281574</identifier>
      <datestamp>2017-02-09T05:33:04Z</datestamp>
      <setSpec>user-biosyslit</setSpec>
    </header>
    <header>
      <identifier>oai:zenodo.org:285316</identifier>
      <datestamp>2017-02-09T13:15:57Z</datestamp>
      <setSpec>user-biosyslit</setSpec>
    </header>
    <header>
      <identifier>oai:zenodo.org:285314</identifier>
      <datestamp>2017-02-09T13:15:53Z</datestamp>
      <setSpec>user-biosyslit</setSpec>
    </header>
    <header>
      <identifier>oai:zenodo.org:285312</identifier>
      <datestamp>2017-02-09T13:15:47Z</datestamp>
      <setSpec>user-biosyslit</setSpec>
    </header>
    <header>
      <identifier>oai:zenodo.org:285311</identifier>
      <datestamp>2017-02-09T13:15:45Z</datestamp>
      <setSpec>user-biosyslit</setSpec>
    </header>
    <header>
      <identifier>oai:zenodo.org:278582</identifier>
      <datestamp>2017-02-08T23:27:48Z</datestamp>
      <setSpec>user-biosyslit</setSpec>
    </header>
    <header>
      <identifier>oai:zenodo.org:278583</identifier>
      <datestamp>2017-02-08T23:27:51Z</datestamp>
      <setSpec>user-biosyslit</setSpec>
    </header>
    <header>
      <identifier>oai:zenodo.org:238644</identifier>
      <datestamp>2017-01-11T08:36:59Z</datestamp>
      <setSpec>user-biosyslit</setSpec>
    </header>
    <header>
      <identifier>oai:zenodo.org:238650</identifier>
      <datestamp>2017-01-11T08:36:57Z</datestamp>
      <setSpec>user-biosyslit</setSpec>
    </header>
    <header>
      <identifier>oai:zenodo.org:277248</identifier>
      <datestamp>2017-02-08T20:41:36Z</datestamp>
      <setSpec>user-biosyslit</setSpec>
    </header>
    <header>
      <identifier>oai:zenodo.org:277243</identifier>
      <datestamp>2017-02-08T20:41:22Z</datestamp>
      <setSpec>user-biosyslit</setSpec>
    </header>
    <header>
      <identifier>oai:zenodo.org:277241</identifier>
      <datestamp>2017-02-08T20:41:16Z</datestamp>
      <setSpec>user-biosyslit</setSpec>
    </header>
    <header>
      <identifier>oai:zenodo.org:277247</identifier>
      <datestamp>2017-02-08T20:41:33Z</datestamp>
      <setSpec>user-biosyslit</setSpec>
    </header>
    <header>
      <identifier>oai:zenodo.org:265518</identifier>
      <datestamp>2017-01-31T15:38:24Z</datestamp>
      <setSpec>user-biosyslit</setSpec>
    </header>
    <header>
      <identifier>oai:zenodo.org:244919</identifier>
      <datestamp>2017-01-15T05:15:54Z</datestamp>
      <setSpec>user-biosyslit</setSpec>
    </header>
    <header>
      <identifier>oai:zenodo.org:244921</identifier>
      <datestamp>2017-01-15T05:16:00Z</datestamp>
      <setSpec>user-biosyslit</setSpec>
    </header>
    <header>
      <identifier>oai:zenodo.org:245085</identifier>
      <datestamp>2017-01-15T07:40:25Z</datestamp>
      <setSpec>user-biosyslit</setSpec>
    </header>
    <header>
      <identifier>oai:zenodo.org:245086</identifier>
      <datestamp>2017-01-15T07:39:38Z</datestamp>
      <setSpec>user-biosyslit</setSpec>
    </header>
    <header>
      <identifier>oai:zenodo.org:279931</identifier>
      <datestamp>2017-02-09T02:18:20Z</datestamp>
      <setSpec>user-biosyslit</setSpec>
    </header>
    <header>
      <identifier>oai:zenodo.org:245093</identifier>
      <datestamp>2017-01-15T07:40:07Z</datestamp>
      <setSpec>user-biosyslit</setSpec>
    </header>
    <header>
      <identifier>oai:zenodo.org:245098</identifier>
      <datestamp>2017-01-15T07:40:24Z</datestamp>
      <setSpec>user-biosyslit</setSpec>
    </header>
    <header>
      <identifier>oai:zenodo.org:245088</identifier>
      <datestamp>2017-01-15T07:39:45Z</datestamp>
      <setSpec>user-biosyslit</setSpec>
    </header>
    <header>
      <identifier>oai:zenodo.org:245089</identifier>
      <datestamp>2017-01-15T07:39:50Z</datestamp>
      <setSpec>user-biosyslit</setSpec>
    </header>
    <header>
      <identifier>oai:zenodo.org:246529</identifier>
      <datestamp>2017-01-16T03:29:54Z</datestamp>
      <setSpec>user-biosyslit</setSpec>
    </header>
    <header>
      <identifier>oai:zenodo.org:246533</identifier>
      <datestamp>2017-01-16T03:30:10Z</datestamp>
      <setSpec>user-biosyslit</setSpec>
    </header>
    <header>
      <identifier>oai:zenodo.org:267786</identifier>
      <datestamp>2017-02-02T07:09:32Z</datestamp>
      <setSpec>user-biosyslit</setSpec>
    </header>
    <header>
      <identifier>oai:zenodo.org:267784</identifier>
      <datestamp>2017-02-02T07:09:25Z</datestamp>
      <setSpec>user-biosyslit</setSpec>
    </header>
    <header>
      <identifier>oai:zenodo.org:267780</identifier>
      <datestamp>2017-02-02T07:09:15Z</datestamp>
      <setSpec>user-biosyslit</setSpec>
    </header>
    <header>
      <identifier>oai:zenodo.org:267783</identifier>
      <datestamp>2017-02-02T07:09:22Z</datestamp>
      <setSpec>user-biosyslit</setSpec>
    </header>
    <header>
      <identifier>oai:zenodo.org:267785</identifier>
      <datestamp>2017-02-02T07:09:29Z</datestamp>
      <setSpec>user-biosyslit</setSpec>
    </header>
    <header>
      <identifier>oai:zenodo.org:274436</identifier>
      <datestamp>2017-02-08T13:12:47Z</datestamp>
      <setSpec>user-biosyslit</setSpec>
    </header>
    <header>
      <identifier>oai:zenodo.org:274438</identifier>
      <datestamp>2017-02-08T13:12:45Z</datestamp>
      <setSpec>user-biosyslit</setSpec>
    </header>
    <header>
      <identifier>oai:zenodo.org:274437</identifier>
      <datestamp>2017-02-08T13:12:41Z</datestamp>
      <setSpec>user-biosyslit</setSpec>
    </header>
    <header>
      <identifier>oai:zenodo.org:237998</identifier>
      <datestamp>2017-01-10T23:36:05Z</datestamp>
      <setSpec>user-biosyslit</setSpec>
    </header>
    <header>
      <identifier>oai:zenodo.org:238003</identifier>
      <datestamp>2017-01-10T23:36:04Z</datestamp>
      <setSpec>user-biosyslit</setSpec>
    </header>
    <header>
      <identifier>oai:zenodo.org:238002</identifier>
      <datestamp>2017-01-10T23:35:59Z</datestamp>
      <setSpec>user-biosyslit</setSpec>
    </header>
    <header>
      <identifier>oai:zenodo.org:237999</identifier>
      <datestamp>2017-01-10T23:35:41Z</datestamp>
      <setSpec>user-biosyslit</setSpec>
    </header>
    <header>
      <identifier>oai:zenodo.org:252584</identifier>
      <datestamp>2017-01-19T17:08:45Z</datestamp>
      <setSpec>user-biosyslit</setSpec>
    </header>
    <header>
      <identifier>oai:zenodo.org:252594</identifier>
      <datestamp>2017-01-19T17:09:31Z</datestamp>
      <setSpec>user-biosyslit</setSpec>
    </header>
    <header>
      <identifier>oai:zenodo.org:252590</identifier>
      <datestamp>2017-01-19T17:09:08Z</datestamp>
      <setSpec>user-biosyslit</setSpec>
    </header>
    <header>
      <identifier>oai:zenodo.org:252586</identifier>
      <datestamp>2017-01-19T17:08:51Z</datestamp>
      <setSpec>user-biosyslit</setSpec>
    </header>
    <header>
      <identifier>oai:zenodo.org:252589</identifier>
      <datestamp>2017-01-19T17:09:07Z</datestamp>
      <setSpec>user-biosyslit</setSpec>
    </header>
    <header>
      <identifier>oai:zenodo.org:252588</identifier>
      <datestamp>2017-01-19T17:09:04Z</datestamp>
      <setSpec>user-biosyslit</setSpec>
    </header>
    <header>
      <identifier>oai:zenodo.org:252581</identifier>
      <datestamp>2017-01-19T17:08:37Z</datestamp>
      <setSpec>user-biosyslit</setSpec>
    </header>
    <header>
      <identifier>oai:zenodo.org:271466</identifier>
      <datestamp>2017-02-08T01:47:21Z</datestamp>
      <setSpec>user-biosyslit</setSpec>
    </header>
    <header>
      <identifier>oai:zenodo.org:237338</identifier>
      <datestamp>2017-01-10T14:31:08Z</datestamp>
      <setSpec>user-biosyslit</setSpec>
    </header>
    <header>
      <identifier>oai:zenodo.org:271474</identifier>
      <datestamp>2017-02-08T01:47:10Z</datestamp>
      <setSpec>user-biosyslit</setSpec>
    </header>
    <header>
      <identifier>oai:zenodo.org:271475</identifier>
      <datestamp>2017-02-08T01:47:17Z</datestamp>
      <setSpec>user-biosyslit</setSpec>
    </header>
    <header>
      <identifier>oai:zenodo.org:271471</identifier>
      <datestamp>2017-02-08T01:46:56Z</datestamp>
      <setSpec>user-biosyslit</setSpec>
    </header>
    <header>
      <identifier>oai:zenodo.org:271477</identifier>
      <datestamp>2017-02-08T01:47:20Z</datestamp>
      <setSpec>user-biosyslit</setSpec>
    </header>
    <header>
      <identifier>oai:zenodo.org:271473</identifier>
      <datestamp>2017-02-08T01:47:07Z</datestamp>
      <setSpec>user-biosyslit</setSpec>
    </header>
    <header>
      <identifier>oai:zenodo.org:237345</identifier>
      <datestamp>2017-01-10T14:31:06Z</datestamp>
      <setSpec>user-biosyslit</setSpec>
    </header>
    <header>
      <identifier>oai:zenodo.org:271468</identifier>
      <datestamp>2017-02-08T01:46:45Z</datestamp>
      <setSpec>user-biosyslit</setSpec>
    </header>
    <header>
      <identifier>oai:zenodo.org:268218</identifier>
      <datestamp>2017-02-03T04:25:52Z</datestamp>
      <setSpec>user-biosyslit</setSpec>
    </header>
    <header>
      <identifier>oai:zenodo.org:268225</identifier>
      <datestamp>2017-02-03T04:25:51Z</datestamp>
      <setSpec>user-biosyslit</setSpec>
    </header>
    <header>
      <identifier>oai:zenodo.org:268220</identifier>
      <datestamp>2017-02-03T04:25:35Z</datestamp>
      <setSpec>user-biosyslit</setSpec>
    </header>
    <header>
      <identifier>oai:zenodo.org:268223</identifier>
      <datestamp>2017-02-03T04:25:45Z</datestamp>
      <setSpec>user-biosyslit</setSpec>
    </header>
    <header>
      <identifier>oai:zenodo.org:268222</identifier>
      <datestamp>2017-02-03T04:25:40Z</datestamp>
      <setSpec>user-biosyslit</setSpec>
    </header>
    <header>
      <identifier>oai:zenodo.org:286171</identifier>
      <datestamp>2017-02-09T15:26:26Z</datestamp>
      <setSpec>user-biosyslit</setSpec>
    </header>
    <header>
      <identifier>oai:zenodo.org:275810</identifier>
      <datestamp>2017-02-08T17:08:09Z</datestamp>
      <setSpec>user-biosyslit</setSpec>
    </header>
    <header>
      <identifier>oai:zenodo.org:275820</identifier>
      <datestamp>2017-02-08T17:08:07Z</datestamp>
      <setSpec>user-biosyslit</setSpec>
    </header>
    <header>
      <identifier>oai:zenodo.org:286176</identifier>
      <datestamp>2017-02-09T15:26:16Z</datestamp>
      <setSpec>user-biosyslit</setSpec>
    </header>
    <header>
      <identifier>oai:zenodo.org:286175</identifier>
      <datestamp>2017-02-09T15:26:14Z</datestamp>
      <setSpec>user-biosyslit</setSpec>
    </header>
    <header>
      <identifier>oai:zenodo.org:286174</identifier>
      <datestamp>2017-02-09T15:26:11Z</datestamp>
      <setSpec>user-biosyslit</setSpec>
    </header>
    <header>
      <identifier>oai:zenodo.org:286178</identifier>
      <datestamp>2017-02-09T15:26:21Z</datestamp>
      <setSpec>user-biosyslit</setSpec>
    </header>
    <header>
      <identifier>oai:zenodo.org:286179</identifier>
      <datestamp>2017-02-09T15:26:23Z</datestamp>
      <setSpec>user-biosyslit</setSpec>
    </header>
    <header>
      <identifier>oai:zenodo.org:253380</identifier>
      <datestamp>2017-01-20T06:26:13Z</datestamp>
      <setSpec>user-biosyslit</setSpec>
    </header>
    <header>
      <identifier>oai:zenodo.org:253387</identifier>
      <datestamp>2017-01-20T06:26:02Z</datestamp>
      <setSpec>user-biosyslit</setSpec>
    </header>
    <header>
      <identifier>oai:zenodo.org:253391</identifier>
      <datestamp>2017-01-20T06:26:12Z</datestamp>
      <setSpec>user-biosyslit</setSpec>
    </header>
    <header>
      <identifier>oai:zenodo.org:253384</identifier>
      <datestamp>2017-01-20T06:25:54Z</datestamp>
      <setSpec>user-biosyslit</setSpec>
    </header>
    <header>
      <identifier>oai:zenodo.org:266227</identifier>
      <datestamp>2017-02-01T03:15:35Z</datestamp>
      <setSpec>user-biosyslit</setSpec>
    </header>
    <header>
      <identifier>oai:zenodo.org:279133</identifier>
      <datestamp>2017-02-09T00:41:11Z</datestamp>
      <setSpec>user-biosyslit</setSpec>
    </header>
    <header>
      <identifier>oai:zenodo.org:266228</identifier>
      <datestamp>2017-02-01T03:15:09Z</datestamp>
      <setSpec>user-biosyslit</setSpec>
    </header>
    <header>
      <identifier>oai:zenodo.org:266232</identifier>
      <datestamp>2017-02-01T03:15:23Z</datestamp>
      <setSpec>user-biosyslit</setSpec>
    </header>
    <header>
      <identifier>oai:zenodo.org:266231</identifier>
      <datestamp>2017-02-01T03:15:19Z</datestamp>
      <setSpec>user-biosyslit</setSpec>
    </header>
    <header>
      <identifier>oai:zenodo.org:266233</identifier>
      <datestamp>2017-02-01T03:15:26Z</datestamp>
      <setSpec>user-biosyslit</setSpec>
    </header>
    <header>
      <identifier>oai:zenodo.org:284504</identifier>
      <datestamp>2017-02-09T11:23:18Z</datestamp>
      <setSpec>user-biosyslit</setSpec>
    </header>
    <header>
      <identifier>oai:zenodo.org:284505</identifier>
      <datestamp>2017-02-09T11:23:20Z</datestamp>
      <setSpec>user-biosyslit</setSpec>
    </header>
    <header>
      <identifier>oai:zenodo.org:232879</identifier>
      <datestamp>2017-01-07T00:54:37Z</datestamp>
      <setSpec>user-biosyslit</setSpec>
    </header>
    <header>
      <identifier>oai:zenodo.org:287772</identifier>
      <datestamp>2017-02-09T19:15:17Z</datestamp>
      <setSpec>user-biosyslit</setSpec>
    </header>
    <header>
      <identifier>oai:zenodo.org:264859</identifier>
      <datestamp>2017-01-31T03:39:30Z</datestamp>
      <setSpec>user-biosyslit</setSpec>
    </header>
    <header>
      <identifier>oai:zenodo.org:264858</identifier>
      <datestamp>2017-01-31T03:39:27Z</datestamp>
      <setSpec>user-biosyslit</setSpec>
    </header>
    <header>
      <identifier>oai:zenodo.org:264855</identifier>
      <datestamp>2017-01-31T03:39:16Z</datestamp>
      <setSpec>user-biosyslit</setSpec>
    </header>
    <header>
      <identifier>oai:zenodo.org:264857</identifier>
      <datestamp>2017-01-31T03:39:25Z</datestamp>
      <setSpec>user-biosyslit</setSpec>
    </header>
    <header>
      <identifier>oai:zenodo.org:277458</identifier>
      <datestamp>2017-02-08T21:12:12Z</datestamp>
      <setSpec>user-biosyslit</setSpec>
    </header>
    <header>
      <identifier>oai:zenodo.org:276213</identifier>
      <datestamp>2017-02-08T18:26:18Z</datestamp>
      <setSpec>user-biosyslit</setSpec>
    </header>
    <header>
      <identifier>oai:zenodo.org:227122</identifier>
      <datestamp>2017-01-01T17:16:10Z</datestamp>
      <setSpec>user-biosyslit</setSpec>
    </header>
    <header>
      <identifier>oai:zenodo.org:227123</identifier>
      <datestamp>2017-01-01T17:16:14Z</datestamp>
      <setSpec>user-biosyslit</setSpec>
    </header>
    <header>
      <identifier>oai:zenodo.org:277482</identifier>
      <datestamp>2017-02-08T21:12:09Z</datestamp>
      <setSpec>user-biosyslit</setSpec>
    </header>
    <header>
      <identifier>oai:zenodo.org:276217</identifier>
      <datestamp>2017-02-08T18:26:14Z</datestamp>
      <setSpec>user-biosyslit</setSpec>
    </header>
    <header>
      <identifier>oai:zenodo.org:227117</identifier>
      <datestamp>2017-01-01T17:15:52Z</datestamp>
      <setSpec>user-biosyslit</setSpec>
    </header>
    <resumptionToken expirationDate="2017-08-31T15:45:20Z" cursor="35600" completeListSize="77796">.eJyNz8EOQzAAgOF36VmWVklNssvCxAGhq-CyGCKmTHQLKt59Ljtv5_-7_CsQVVUCEx4I0TBWjSPUNQ1CQwGiGJ-c35q9giKJedFzljvxO-pimKo18S0xe1aKfdnCoEOSXkI1QcbMGriEV_ZKZTTH2J0otIknw8V_uLsrceDw7O4MlPVnTtVyDOxwoehMM1x8HfrTyZ_OEieggCGvK2Bifb9qp3ysBTDXbfsAZpNRCw.DInAGA.9nScpA0ueQG52K8FTrtgsM6OQ68</resumptionToken>
  </ListIdentifiers>
</OAI-PMH>
