<?xml version='1.0' encoding='UTF-8'?>
<?xml-stylesheet type="text/xsl" href="/static/xsl/oai2.v1.0.xsl"?>
<OAI-PMH xmlns="http://www.openarchives.org/OAI/2.0/" xmlns:xsi="http://www.w3.org/2001/XMLSchema-instance" xsi:schemaLocation="http://www.openarchives.org/OAI/2.0/ http://www.openarchives.org/OAI/2.0/OAI-PMH.xsd">
  <responseDate>2017-08-31T15:42:40Z</responseDate>
  <request verb="ListIdentifiers" resumptionToken=".eJyNysEKgjAYAOB3-c8S28w5hC5hiYcUXQ71EqYi1jRxRbro3fPSuc7f9wJV1xU4aGUzwii1qM2stYUJM0CV403KU7swlKmQZS-TwhOPuBMoI40duGo6uJkZ6CsKO6z5PiIpZlPSojk6JvdMx5Mw_SdHO_ugozm4-MurzNCT-dkbeNJvJSfVGO6imeMtz83y-_CfT_98rtqAAUPR1OAQixpwfRZjo8B5vd8frSlRUA.DIm_8A.L022fkgSNX8TBZ9iO_Vgk3G4Efw">https://zenodo.org/oai2d</request>
  <ListIdentifiers>
    <header>
      <identifier>oai:zenodo.org:249041</identifier>
      <datestamp>2017-01-17T15:18:40Z</datestamp>
      <setSpec>user-biosyslit</setSpec>
    </header>
    <header>
      <identifier>oai:zenodo.org:249039</identifier>
      <datestamp>2017-01-17T15:18:32Z</datestamp>
      <setSpec>user-biosyslit</setSpec>
    </header>
    <header>
      <identifier>oai:zenodo.org:249034</identifier>
      <datestamp>2017-01-17T15:18:11Z</datestamp>
      <setSpec>user-biosyslit</setSpec>
    </header>
    <header>
      <identifier>oai:zenodo.org:249042</identifier>
      <datestamp>2017-01-17T15:18:44Z</datestamp>
      <setSpec>user-biosyslit</setSpec>
    </header>
    <header>
      <identifier>oai:zenodo.org:249044</identifier>
      <datestamp>2017-01-17T15:18:53Z</datestamp>
      <setSpec>user-biosyslit</setSpec>
    </header>
    <header>
      <identifier>oai:zenodo.org:249040</identifier>
      <datestamp>2017-01-17T15:18:36Z</datestamp>
      <setSpec>user-biosyslit</setSpec>
    </header>
    <header>
      <identifier>oai:zenodo.org:263508</identifier>
      <datestamp>2017-01-29T23:42:22Z</datestamp>
      <setSpec>user-biosyslit</setSpec>
    </header>
    <header>
      <identifier>oai:zenodo.org:263517</identifier>
      <datestamp>2017-01-29T23:42:47Z</datestamp>
      <setSpec>user-biosyslit</setSpec>
    </header>
    <header>
      <identifier>oai:zenodo.org:263509</identifier>
      <datestamp>2017-01-29T23:42:24Z</datestamp>
      <setSpec>user-biosyslit</setSpec>
    </header>
    <header>
      <identifier>oai:zenodo.org:263512</identifier>
      <datestamp>2017-01-29T23:42:32Z</datestamp>
      <setSpec>user-biosyslit</setSpec>
    </header>
    <header>
      <identifier>oai:zenodo.org:263515</identifier>
      <datestamp>2017-01-29T23:42:42Z</datestamp>
      <setSpec>user-biosyslit</setSpec>
    </header>
    <header>
      <identifier>oai:zenodo.org:263504</identifier>
      <datestamp>2017-01-29T23:42:10Z</datestamp>
      <setSpec>user-biosyslit</setSpec>
    </header>
    <header>
      <identifier>oai:zenodo.org:263513</identifier>
      <datestamp>2017-01-29T23:42:34Z</datestamp>
      <setSpec>user-biosyslit</setSpec>
    </header>
    <header>
      <identifier>oai:zenodo.org:263500</identifier>
      <datestamp>2017-01-29T23:41:56Z</datestamp>
      <setSpec>user-biosyslit</setSpec>
    </header>
    <header>
      <identifier>oai:zenodo.org:263505</identifier>
      <datestamp>2017-01-29T23:42:14Z</datestamp>
      <setSpec>user-biosyslit</setSpec>
    </header>
    <header>
      <identifier>oai:zenodo.org:261243</identifier>
      <datestamp>2017-01-28T07:08:48Z</datestamp>
      <setSpec>user-biosyslit</setSpec>
    </header>
    <header>
      <identifier>oai:zenodo.org:261244</identifier>
      <datestamp>2017-01-28T07:08:50Z</datestamp>
      <setSpec>user-biosyslit</setSpec>
    </header>
    <header>
      <identifier>oai:zenodo.org:288868</identifier>
      <datestamp>2017-02-09T22:02:33Z</datestamp>
      <setSpec>user-biosyslit</setSpec>
    </header>
    <header>
      <identifier>oai:zenodo.org:288861</identifier>
      <datestamp>2017-02-09T22:02:14Z</datestamp>
      <setSpec>user-biosyslit</setSpec>
    </header>
    <header>
      <identifier>oai:zenodo.org:288860</identifier>
      <datestamp>2017-02-09T22:02:11Z</datestamp>
      <setSpec>user-biosyslit</setSpec>
    </header>
    <header>
      <identifier>oai:zenodo.org:247034</identifier>
      <datestamp>2017-01-16T10:43:17Z</datestamp>
      <setSpec>user-biosyslit</setSpec>
    </header>
    <header>
      <identifier>oai:zenodo.org:288862</identifier>
      <datestamp>2017-02-09T22:02:16Z</datestamp>
      <setSpec>user-biosyslit</setSpec>
    </header>
    <header>
      <identifier>oai:zenodo.org:288863</identifier>
      <datestamp>2017-02-09T22:02:18Z</datestamp>
      <setSpec>user-biosyslit</setSpec>
    </header>
    <header>
      <identifier>oai:zenodo.org:288864</identifier>
      <datestamp>2017-02-09T22:02:21Z</datestamp>
      <setSpec>user-biosyslit</setSpec>
    </header>
    <header>
      <identifier>oai:zenodo.org:288865</identifier>
      <datestamp>2017-02-09T22:02:24Z</datestamp>
      <setSpec>user-biosyslit</setSpec>
    </header>
    <header>
      <identifier>oai:zenodo.org:288867</identifier>
      <datestamp>2017-02-09T22:02:30Z</datestamp>
      <setSpec>user-biosyslit</setSpec>
    </header>
    <header>
      <identifier>oai:zenodo.org:232637</identifier>
      <datestamp>2017-01-06T20:57:06Z</datestamp>
      <setSpec>user-biosyslit</setSpec>
    </header>
    <header>
      <identifier>oai:zenodo.org:232646</identifier>
      <datestamp>2017-01-06T20:57:04Z</datestamp>
      <setSpec>user-biosyslit</setSpec>
    </header>
    <header>
      <identifier>oai:zenodo.org:232639</identifier>
      <datestamp>2017-01-06T20:56:37Z</datestamp>
      <setSpec>user-biosyslit</setSpec>
    </header>
    <header>
      <identifier>oai:zenodo.org:242752</identifier>
      <datestamp>2017-01-13T19:30:31Z</datestamp>
      <setSpec>user-biosyslit</setSpec>
    </header>
    <header>
      <identifier>oai:zenodo.org:242750</identifier>
      <datestamp>2017-01-13T19:30:25Z</datestamp>
      <setSpec>user-biosyslit</setSpec>
    </header>
    <header>
      <identifier>oai:zenodo.org:242757</identifier>
      <datestamp>2017-01-13T19:30:46Z</datestamp>
      <setSpec>user-biosyslit</setSpec>
    </header>
    <header>
      <identifier>oai:zenodo.org:242754</identifier>
      <datestamp>2017-01-13T19:30:37Z</datestamp>
      <setSpec>user-biosyslit</setSpec>
    </header>
    <header>
      <identifier>oai:zenodo.org:242742</identifier>
      <datestamp>2017-01-13T19:30:01Z</datestamp>
      <setSpec>user-biosyslit</setSpec>
    </header>
    <header>
      <identifier>oai:zenodo.org:242740</identifier>
      <datestamp>2017-01-13T19:29:54Z</datestamp>
      <setSpec>user-biosyslit</setSpec>
    </header>
    <header>
      <identifier>oai:zenodo.org:242738</identifier>
      <datestamp>2017-01-13T19:29:49Z</datestamp>
      <setSpec>user-biosyslit</setSpec>
    </header>
    <header>
      <identifier>oai:zenodo.org:242755</identifier>
      <datestamp>2017-01-13T19:30:40Z</datestamp>
      <setSpec>user-biosyslit</setSpec>
    </header>
    <header>
      <identifier>oai:zenodo.org:242741</identifier>
      <datestamp>2017-01-13T19:29:57Z</datestamp>
      <setSpec>user-biosyslit</setSpec>
    </header>
    <header>
      <identifier>oai:zenodo.org:242800</identifier>
      <datestamp>2017-01-13T19:33:03Z</datestamp>
      <setSpec>user-biosyslit</setSpec>
    </header>
    <header>
      <identifier>oai:zenodo.org:242790</identifier>
      <datestamp>2017-01-13T19:32:35Z</datestamp>
      <setSpec>user-biosyslit</setSpec>
    </header>
    <header>
      <identifier>oai:zenodo.org:242799</identifier>
      <datestamp>2017-01-13T19:33:00Z</datestamp>
      <setSpec>user-biosyslit</setSpec>
    </header>
    <header>
      <identifier>oai:zenodo.org:242794</identifier>
      <datestamp>2017-01-13T19:32:46Z</datestamp>
      <setSpec>user-biosyslit</setSpec>
    </header>
    <header>
      <identifier>oai:zenodo.org:242791</identifier>
      <datestamp>2017-01-13T19:32:38Z</datestamp>
      <setSpec>user-biosyslit</setSpec>
    </header>
    <header>
      <identifier>oai:zenodo.org:242797</identifier>
      <datestamp>2017-01-13T19:32:55Z</datestamp>
      <setSpec>user-biosyslit</setSpec>
    </header>
    <header>
      <identifier>oai:zenodo.org:242796</identifier>
      <datestamp>2017-01-13T19:32:52Z</datestamp>
      <setSpec>user-biosyslit</setSpec>
    </header>
    <header>
      <identifier>oai:zenodo.org:242792</identifier>
      <datestamp>2017-01-13T19:32:41Z</datestamp>
      <setSpec>user-biosyslit</setSpec>
    </header>
    <header>
      <identifier>oai:zenodo.org:242795</identifier>
      <datestamp>2017-01-13T19:32:50Z</datestamp>
      <setSpec>user-biosyslit</setSpec>
    </header>
    <header>
      <identifier>oai:zenodo.org:253598</identifier>
      <datestamp>2017-01-20T08:53:41Z</datestamp>
      <setSpec>user-biosyslit</setSpec>
    </header>
    <header>
      <identifier>oai:zenodo.org:253596</identifier>
      <datestamp>2017-01-20T08:53:34Z</datestamp>
      <setSpec>user-biosyslit</setSpec>
    </header>
    <header>
      <identifier>oai:zenodo.org:253597</identifier>
      <datestamp>2017-01-20T08:53:37Z</datestamp>
      <setSpec>user-biosyslit</setSpec>
    </header>
    <header>
      <identifier>oai:zenodo.org:253599</identifier>
      <datestamp>2017-01-20T08:53:44Z</datestamp>
      <setSpec>user-biosyslit</setSpec>
    </header>
    <header>
      <identifier>oai:zenodo.org:253602</identifier>
      <datestamp>2017-01-20T08:53:56Z</datestamp>
      <setSpec>user-biosyslit</setSpec>
    </header>
    <header>
      <identifier>oai:zenodo.org:253600</identifier>
      <datestamp>2017-01-20T08:53:47Z</datestamp>
      <setSpec>user-biosyslit</setSpec>
    </header>
    <header>
      <identifier>oai:zenodo.org:253603</identifier>
      <datestamp>2017-01-20T08:54:00Z</datestamp>
      <setSpec>user-biosyslit</setSpec>
    </header>
    <header>
      <identifier>oai:zenodo.org:242842</identifier>
      <datestamp>2017-01-13T19:35:21Z</datestamp>
      <setSpec>user-biosyslit</setSpec>
    </header>
    <header>
      <identifier>oai:zenodo.org:278946</identifier>
      <datestamp>2017-02-09T00:12:43Z</datestamp>
      <setSpec>user-biosyslit</setSpec>
    </header>
    <header>
      <identifier>oai:zenodo.org:278944</identifier>
      <datestamp>2017-02-09T00:12:38Z</datestamp>
      <setSpec>user-biosyslit</setSpec>
    </header>
    <header>
      <identifier>oai:zenodo.org:278938</identifier>
      <datestamp>2017-02-09T00:12:23Z</datestamp>
      <setSpec>user-biosyslit</setSpec>
    </header>
    <header>
      <identifier>oai:zenodo.org:244225</identifier>
      <datestamp>2017-01-14T17:43:02Z</datestamp>
      <setSpec>user-biosyslit</setSpec>
    </header>
    <header>
      <identifier>oai:zenodo.org:289204</identifier>
      <datestamp>2017-02-09T22:57:12Z</datestamp>
      <setSpec>user-biosyslit</setSpec>
    </header>
    <header>
      <identifier>oai:zenodo.org:289203</identifier>
      <datestamp>2017-02-09T22:57:09Z</datestamp>
      <setSpec>user-biosyslit</setSpec>
    </header>
    <header>
      <identifier>oai:zenodo.org:289207</identifier>
      <datestamp>2017-02-09T22:57:23Z</datestamp>
      <setSpec>user-biosyslit</setSpec>
    </header>
    <header>
      <identifier>oai:zenodo.org:289211</identifier>
      <datestamp>2017-02-09T22:57:33Z</datestamp>
      <setSpec>user-biosyslit</setSpec>
    </header>
    <header>
      <identifier>oai:zenodo.org:289202</identifier>
      <datestamp>2017-02-09T22:57:07Z</datestamp>
      <setSpec>user-biosyslit</setSpec>
    </header>
    <header>
      <identifier>oai:zenodo.org:289201</identifier>
      <datestamp>2017-02-09T22:57:05Z</datestamp>
      <setSpec>user-biosyslit</setSpec>
    </header>
    <header>
      <identifier>oai:zenodo.org:275336</identifier>
      <datestamp>2017-02-08T16:07:17Z</datestamp>
      <setSpec>user-biosyslit</setSpec>
    </header>
    <header>
      <identifier>oai:zenodo.org:275335</identifier>
      <datestamp>2017-02-08T16:07:14Z</datestamp>
      <setSpec>user-biosyslit</setSpec>
    </header>
    <header>
      <identifier>oai:zenodo.org:275338</identifier>
      <datestamp>2017-02-08T16:07:21Z</datestamp>
      <setSpec>user-biosyslit</setSpec>
    </header>
    <header>
      <identifier>oai:zenodo.org:275328</identifier>
      <datestamp>2017-02-08T16:06:58Z</datestamp>
      <setSpec>user-biosyslit</setSpec>
    </header>
    <header>
      <identifier>oai:zenodo.org:284260</identifier>
      <datestamp>2017-02-09T10:49:51Z</datestamp>
      <setSpec>user-biosyslit</setSpec>
    </header>
    <header>
      <identifier>oai:zenodo.org:275332</identifier>
      <datestamp>2017-02-08T16:07:07Z</datestamp>
      <setSpec>user-biosyslit</setSpec>
    </header>
    <header>
      <identifier>oai:zenodo.org:275334</identifier>
      <datestamp>2017-02-08T16:07:12Z</datestamp>
      <setSpec>user-biosyslit</setSpec>
    </header>
    <header>
      <identifier>oai:zenodo.org:248416</identifier>
      <datestamp>2017-01-17T03:50:37Z</datestamp>
      <setSpec>user-biosyslit</setSpec>
    </header>
    <header>
      <identifier>oai:zenodo.org:248412</identifier>
      <datestamp>2017-01-17T03:50:20Z</datestamp>
      <setSpec>user-biosyslit</setSpec>
    </header>
    <header>
      <identifier>oai:zenodo.org:248413</identifier>
      <datestamp>2017-01-17T03:50:24Z</datestamp>
      <setSpec>user-biosyslit</setSpec>
    </header>
    <header>
      <identifier>oai:zenodo.org:248414</identifier>
      <datestamp>2017-01-17T03:50:28Z</datestamp>
      <setSpec>user-biosyslit</setSpec>
    </header>
    <header>
      <identifier>oai:zenodo.org:248411</identifier>
      <datestamp>2017-01-17T03:51:07Z</datestamp>
      <setSpec>user-biosyslit</setSpec>
    </header>
    <header>
      <identifier>oai:zenodo.org:248419</identifier>
      <datestamp>2017-01-17T03:50:53Z</datestamp>
      <setSpec>user-biosyslit</setSpec>
    </header>
    <header>
      <identifier>oai:zenodo.org:248420</identifier>
      <datestamp>2017-01-17T03:50:58Z</datestamp>
      <setSpec>user-biosyslit</setSpec>
    </header>
    <header>
      <identifier>oai:zenodo.org:248418</identifier>
      <datestamp>2017-01-17T03:50:49Z</datestamp>
      <setSpec>user-biosyslit</setSpec>
    </header>
    <header>
      <identifier>oai:zenodo.org:248423</identifier>
      <datestamp>2017-01-17T03:51:06Z</datestamp>
      <setSpec>user-biosyslit</setSpec>
    </header>
    <header>
      <identifier>oai:zenodo.org:248422</identifier>
      <datestamp>2017-01-17T03:51:03Z</datestamp>
      <setSpec>user-biosyslit</setSpec>
    </header>
    <header>
      <identifier>oai:zenodo.org:248421</identifier>
      <datestamp>2017-01-17T03:51:00Z</datestamp>
      <setSpec>user-biosyslit</setSpec>
    </header>
    <header>
      <identifier>oai:zenodo.org:276177</identifier>
      <datestamp>2017-02-08T18:18:01Z</datestamp>
      <setSpec>user-biosyslit</setSpec>
    </header>
    <header>
      <identifier>oai:zenodo.org:276179</identifier>
      <datestamp>2017-02-08T18:18:07Z</datestamp>
      <setSpec>user-biosyslit</setSpec>
    </header>
    <header>
      <identifier>oai:zenodo.org:276175</identifier>
      <datestamp>2017-02-08T18:17:55Z</datestamp>
      <setSpec>user-biosyslit</setSpec>
    </header>
    <header>
      <identifier>oai:zenodo.org:276180</identifier>
      <datestamp>2017-02-08T18:18:10Z</datestamp>
      <setSpec>user-biosyslit</setSpec>
    </header>
    <header>
      <identifier>oai:zenodo.org:276176</identifier>
      <datestamp>2017-02-08T18:17:58Z</datestamp>
      <setSpec>user-biosyslit</setSpec>
    </header>
    <header>
      <identifier>oai:zenodo.org:276171</identifier>
      <datestamp>2017-02-08T18:18:16Z</datestamp>
      <setSpec>user-biosyslit</setSpec>
    </header>
    <header>
      <identifier>oai:zenodo.org:276182</identifier>
      <datestamp>2017-02-08T18:18:15Z</datestamp>
      <setSpec>user-biosyslit</setSpec>
    </header>
    <header>
      <identifier>oai:zenodo.org:276181</identifier>
      <datestamp>2017-02-08T18:18:12Z</datestamp>
      <setSpec>user-biosyslit</setSpec>
    </header>
    <header>
      <identifier>oai:zenodo.org:243233</identifier>
      <datestamp>2017-01-14T01:16:44Z</datestamp>
      <setSpec>user-biosyslit</setSpec>
    </header>
    <header>
      <identifier>oai:zenodo.org:243240</identifier>
      <datestamp>2017-01-14T01:16:40Z</datestamp>
      <setSpec>user-biosyslit</setSpec>
    </header>
    <header>
      <identifier>oai:zenodo.org:243235</identifier>
      <datestamp>2017-01-14T01:16:24Z</datestamp>
      <setSpec>user-biosyslit</setSpec>
    </header>
    <header>
      <identifier>oai:zenodo.org:243238</identifier>
      <datestamp>2017-01-14T01:16:34Z</datestamp>
      <setSpec>user-biosyslit</setSpec>
    </header>
    <header>
      <identifier>oai:zenodo.org:243236</identifier>
      <datestamp>2017-01-14T01:16:27Z</datestamp>
      <setSpec>user-biosyslit</setSpec>
    </header>
    <header>
      <identifier>oai:zenodo.org:244498</identifier>
      <datestamp>2017-01-14T22:43:29Z</datestamp>
      <setSpec>user-biosyslit</setSpec>
    </header>
    <header>
      <identifier>oai:zenodo.org:244501</identifier>
      <datestamp>2017-01-14T22:43:43Z</datestamp>
      <setSpec>user-biosyslit</setSpec>
    </header>
    <header>
      <identifier>oai:zenodo.org:289998</identifier>
      <datestamp>2017-02-10T01:04:11Z</datestamp>
      <setSpec>user-biosyslit</setSpec>
    </header>
    <header>
      <identifier>oai:zenodo.org:244502</identifier>
      <datestamp>2017-01-14T22:43:46Z</datestamp>
      <setSpec>user-biosyslit</setSpec>
    </header>
    <resumptionToken expirationDate="2017-08-31T15:44:40Z" cursor="25500" completeListSize="77796">.eJyNyssKgkAUANB_uWuJefgIoU1o4kLFphF1E6Yi5mjhFOlI_56b1rU-ZwFZ1xXYaEORYeqGpVOsm4gYGshyvAlxbleFMk1EOQheeMnz2CcoI40VOnIKnIyGqkNRjxU7xCTF24m3aI5P_JGp45RQ_8WQawUqnsOrv76KRp7IL96d8WEvGKnGyI1nhvcsp-X34T-f-vkcuQMN7kVTg00MS4PuVYyNBHt5vz9eC1EA.DIm_8A.8hd8rts1ZXWTcclbTvmwHFXkzrk</resumptionToken>
  </ListIdentifiers>
</OAI-PMH>
