<?xml version='1.0' encoding='UTF-8'?>
<?xml-stylesheet type="text/xsl" href="/static/xsl/oai2.v1.0.xsl"?>
<OAI-PMH xmlns="http://www.openarchives.org/OAI/2.0/" xmlns:xsi="http://www.w3.org/2001/XMLSchema-instance" xsi:schemaLocation="http://www.openarchives.org/OAI/2.0/ http://www.openarchives.org/OAI/2.0/OAI-PMH.xsd">
  <responseDate>2017-08-31T15:46:14Z</responseDate>
  <request verb="ListIdentifiers" resumptionToken=".eJyNyjEPQ0AYgOH_8s3S3DlFJF0aKgaEK8HSKCLqqLg2OPHfa-ncbm_yPivwqirBQAeCVUQU5Yh1XVX2lIAX45OxW7NvKJKYFT2Lcjt-h12MUrnWPJPPrpkST7TI77Cgl0BOsD5HDVqCa_RKRTjHxJkosjRXBIv3cHZXEt9m2d0eaNSfGZXL0beCheIzzUjxdfhPJ346k59AgiGvKzA0RZagnfKx5mCs2_YBlOxRNg.DInAxg.EhKJ1SZGMb7_jo3e_4Q-tcKlajw">https://zenodo.org/oai2d</request>
  <ListIdentifiers>
    <header>
      <identifier>oai:zenodo.org:247666</identifier>
      <datestamp>2017-01-16T18:13:51Z</datestamp>
      <setSpec>user-biosyslit</setSpec>
    </header>
    <header>
      <identifier>oai:zenodo.org:247665</identifier>
      <datestamp>2017-01-16T18:13:47Z</datestamp>
      <setSpec>user-biosyslit</setSpec>
    </header>
    <header>
      <identifier>oai:zenodo.org:247668</identifier>
      <datestamp>2017-01-16T18:13:56Z</datestamp>
      <setSpec>user-biosyslit</setSpec>
    </header>
    <header>
      <identifier>oai:zenodo.org:247659</identifier>
      <datestamp>2017-01-16T18:13:28Z</datestamp>
      <setSpec>user-biosyslit</setSpec>
    </header>
    <header>
      <identifier>oai:zenodo.org:247675</identifier>
      <datestamp>2017-01-16T18:14:18Z</datestamp>
      <setSpec>user-biosyslit</setSpec>
    </header>
    <header>
      <identifier>oai:zenodo.org:247678</identifier>
      <datestamp>2017-01-16T18:14:29Z</datestamp>
      <setSpec>user-biosyslit</setSpec>
    </header>
    <header>
      <identifier>oai:zenodo.org:247673</identifier>
      <datestamp>2017-01-16T18:14:13Z</datestamp>
      <setSpec>user-biosyslit</setSpec>
    </header>
    <header>
      <identifier>oai:zenodo.org:247679</identifier>
      <datestamp>2017-01-16T18:14:31Z</datestamp>
      <setSpec>user-biosyslit</setSpec>
    </header>
    <header>
      <identifier>oai:zenodo.org:228370</identifier>
      <datestamp>2017-01-02T23:09:32Z</datestamp>
      <setSpec>user-biosyslit</setSpec>
    </header>
    <header>
      <identifier>oai:zenodo.org:284096</identifier>
      <datestamp>2017-02-09T10:22:28Z</datestamp>
      <setSpec>user-biosyslit</setSpec>
    </header>
    <header>
      <identifier>oai:zenodo.org:284093</identifier>
      <datestamp>2017-02-09T10:22:29Z</datestamp>
      <setSpec>user-biosyslit</setSpec>
    </header>
    <header>
      <identifier>oai:zenodo.org:275703</identifier>
      <datestamp>2017-02-08T16:56:54Z</datestamp>
      <setSpec>user-biosyslit</setSpec>
    </header>
    <header>
      <identifier>oai:zenodo.org:275709</identifier>
      <datestamp>2017-02-08T16:57:07Z</datestamp>
      <setSpec>user-biosyslit</setSpec>
    </header>
    <header>
      <identifier>oai:zenodo.org:275706</identifier>
      <datestamp>2017-02-08T16:57:01Z</datestamp>
      <setSpec>user-biosyslit</setSpec>
    </header>
    <header>
      <identifier>oai:zenodo.org:228900</identifier>
      <datestamp>2017-01-03T06:52:27Z</datestamp>
      <setSpec>user-biosyslit</setSpec>
    </header>
    <header>
      <identifier>oai:zenodo.org:228899</identifier>
      <datestamp>2017-01-03T06:52:29Z</datestamp>
      <setSpec>user-biosyslit</setSpec>
    </header>
    <header>
      <identifier>oai:zenodo.org:275875</identifier>
      <datestamp>2017-02-08T17:18:28Z</datestamp>
      <setSpec>user-biosyslit</setSpec>
    </header>
    <header>
      <identifier>oai:zenodo.org:275878</identifier>
      <datestamp>2017-02-08T17:18:22Z</datestamp>
      <setSpec>user-biosyslit</setSpec>
    </header>
    <header>
      <identifier>oai:zenodo.org:281405</identifier>
      <datestamp>2017-02-09T05:15:28Z</datestamp>
      <setSpec>user-biosyslit</setSpec>
    </header>
    <header>
      <identifier>oai:zenodo.org:281402</identifier>
      <datestamp>2017-02-09T05:15:22Z</datestamp>
      <setSpec>user-biosyslit</setSpec>
    </header>
    <header>
      <identifier>oai:zenodo.org:275835</identifier>
      <datestamp>2017-02-08T17:11:52Z</datestamp>
      <setSpec>user-biosyslit</setSpec>
    </header>
    <header>
      <identifier>oai:zenodo.org:273739</identifier>
      <datestamp>2017-02-08T10:36:49Z</datestamp>
      <setSpec>user-biosyslit</setSpec>
    </header>
    <header>
      <identifier>oai:zenodo.org:273741</identifier>
      <datestamp>2017-02-08T10:36:55Z</datestamp>
      <setSpec>user-biosyslit</setSpec>
    </header>
    <header>
      <identifier>oai:zenodo.org:281668</identifier>
      <datestamp>2017-02-09T05:42:43Z</datestamp>
      <setSpec>user-biosyslit</setSpec>
    </header>
    <header>
      <identifier>oai:zenodo.org:281667</identifier>
      <datestamp>2017-02-09T05:42:41Z</datestamp>
      <setSpec>user-biosyslit</setSpec>
    </header>
    <header>
      <identifier>oai:zenodo.org:227830</identifier>
      <datestamp>2017-01-02T05:45:26Z</datestamp>
      <setSpec>user-biosyslit</setSpec>
    </header>
    <header>
      <identifier>oai:zenodo.org:227831</identifier>
      <datestamp>2017-01-02T05:44:52Z</datestamp>
      <setSpec>user-biosyslit</setSpec>
    </header>
    <header>
      <identifier>oai:zenodo.org:227834</identifier>
      <datestamp>2017-01-02T05:45:02Z</datestamp>
      <setSpec>user-biosyslit</setSpec>
    </header>
    <header>
      <identifier>oai:zenodo.org:227836</identifier>
      <datestamp>2017-01-02T05:45:08Z</datestamp>
      <setSpec>user-biosyslit</setSpec>
    </header>
    <header>
      <identifier>oai:zenodo.org:228656</identifier>
      <datestamp>2017-01-03T03:01:01Z</datestamp>
      <setSpec>user-biosyslit</setSpec>
    </header>
    <header>
      <identifier>oai:zenodo.org:228657</identifier>
      <datestamp>2017-01-03T03:01:03Z</datestamp>
      <setSpec>user-biosyslit</setSpec>
    </header>
    <header>
      <identifier>oai:zenodo.org:228658</identifier>
      <datestamp>2017-01-03T03:01:07Z</datestamp>
      <setSpec>user-biosyslit</setSpec>
    </header>
    <header>
      <identifier>oai:zenodo.org:227832</identifier>
      <datestamp>2017-01-02T05:44:56Z</datestamp>
      <setSpec>user-biosyslit</setSpec>
    </header>
    <header>
      <identifier>oai:zenodo.org:227841</identifier>
      <datestamp>2017-01-02T05:45:23Z</datestamp>
      <setSpec>user-biosyslit</setSpec>
    </header>
    <header>
      <identifier>oai:zenodo.org:243995</identifier>
      <datestamp>2017-01-14T14:59:46Z</datestamp>
      <setSpec>user-biosyslit</setSpec>
    </header>
    <header>
      <identifier>oai:zenodo.org:243999</identifier>
      <datestamp>2017-01-14T14:59:44Z</datestamp>
      <setSpec>user-biosyslit</setSpec>
    </header>
    <header>
      <identifier>oai:zenodo.org:286241</identifier>
      <datestamp>2017-02-09T15:37:11Z</datestamp>
      <setSpec>user-biosyslit</setSpec>
    </header>
    <header>
      <identifier>oai:zenodo.org:230386</identifier>
      <datestamp>2017-01-04T23:49:09Z</datestamp>
      <setSpec>user-biosyslit</setSpec>
    </header>
    <header>
      <identifier>oai:zenodo.org:230390</identifier>
      <datestamp>2017-01-04T23:49:22Z</datestamp>
      <setSpec>user-biosyslit</setSpec>
    </header>
    <header>
      <identifier>oai:zenodo.org:230388</identifier>
      <datestamp>2017-01-04T23:49:15Z</datestamp>
      <setSpec>user-biosyslit</setSpec>
    </header>
    <header>
      <identifier>oai:zenodo.org:230382</identifier>
      <datestamp>2017-01-04T23:48:56Z</datestamp>
      <setSpec>user-biosyslit</setSpec>
    </header>
    <header>
      <identifier>oai:zenodo.org:260683</identifier>
      <datestamp>2017-01-27T23:23:17Z</datestamp>
      <setSpec>user-biosyslit</setSpec>
    </header>
    <header>
      <identifier>oai:zenodo.org:282457</identifier>
      <datestamp>2017-02-09T07:02:28Z</datestamp>
      <setSpec>user-biosyslit</setSpec>
    </header>
    <header>
      <identifier>oai:zenodo.org:227827</identifier>
      <datestamp>2017-01-02T05:37:18Z</datestamp>
      <setSpec>user-biosyslit</setSpec>
    </header>
    <header>
      <identifier>oai:zenodo.org:227824</identifier>
      <datestamp>2017-01-02T05:37:07Z</datestamp>
      <setSpec>user-biosyslit</setSpec>
    </header>
    <header>
      <identifier>oai:zenodo.org:227829</identifier>
      <datestamp>2017-01-02T05:37:25Z</datestamp>
      <setSpec>user-biosyslit</setSpec>
    </header>
    <header>
      <identifier>oai:zenodo.org:281094</identifier>
      <datestamp>2017-02-09T04:42:58Z</datestamp>
      <setSpec>user-biosyslit</setSpec>
    </header>
    <header>
      <identifier>oai:zenodo.org:281099</identifier>
      <datestamp>2017-02-09T04:43:12Z</datestamp>
      <setSpec>user-biosyslit</setSpec>
    </header>
    <header>
      <identifier>oai:zenodo.org:281093</identifier>
      <datestamp>2017-02-09T04:42:55Z</datestamp>
      <setSpec>user-biosyslit</setSpec>
    </header>
    <header>
      <identifier>oai:zenodo.org:281095</identifier>
      <datestamp>2017-02-09T04:43:01Z</datestamp>
      <setSpec>user-biosyslit</setSpec>
    </header>
    <header>
      <identifier>oai:zenodo.org:281092</identifier>
      <datestamp>2017-02-09T04:42:52Z</datestamp>
      <setSpec>user-biosyslit</setSpec>
    </header>
    <header>
      <identifier>oai:zenodo.org:281097</identifier>
      <datestamp>2017-02-09T04:43:07Z</datestamp>
      <setSpec>user-biosyslit</setSpec>
    </header>
    <header>
      <identifier>oai:zenodo.org:281091</identifier>
      <datestamp>2017-02-09T04:42:48Z</datestamp>
      <setSpec>user-biosyslit</setSpec>
    </header>
    <header>
      <identifier>oai:zenodo.org:245125</identifier>
      <datestamp>2017-01-15T08:04:37Z</datestamp>
      <setSpec>user-biosyslit</setSpec>
    </header>
    <header>
      <identifier>oai:zenodo.org:281090</identifier>
      <datestamp>2017-02-09T04:42:45Z</datestamp>
      <setSpec>user-biosyslit</setSpec>
    </header>
    <header>
      <identifier>oai:zenodo.org:232522</identifier>
      <datestamp>2017-01-06T19:00:51Z</datestamp>
      <setSpec>user-biosyslit</setSpec>
    </header>
    <header>
      <identifier>oai:zenodo.org:232523</identifier>
      <datestamp>2017-01-06T19:00:39Z</datestamp>
      <setSpec>user-biosyslit</setSpec>
    </header>
    <header>
      <identifier>oai:zenodo.org:232526</identifier>
      <datestamp>2017-01-06T19:00:50Z</datestamp>
      <setSpec>user-biosyslit</setSpec>
    </header>
    <header>
      <identifier>oai:zenodo.org:231117</identifier>
      <datestamp>2017-01-05T14:39:54Z</datestamp>
      <setSpec>user-biosyslit</setSpec>
    </header>
    <header>
      <identifier>oai:zenodo.org:283819</identifier>
      <datestamp>2017-02-09T09:52:08Z</datestamp>
      <setSpec>user-biosyslit</setSpec>
    </header>
    <header>
      <identifier>oai:zenodo.org:236487</identifier>
      <datestamp>2017-01-10T00:43:01Z</datestamp>
      <setSpec>user-biosyslit</setSpec>
    </header>
    <header>
      <identifier>oai:zenodo.org:236485</identifier>
      <datestamp>2017-01-10T00:42:52Z</datestamp>
      <setSpec>user-biosyslit</setSpec>
    </header>
    <header>
      <identifier>oai:zenodo.org:236489</identifier>
      <datestamp>2017-01-10T00:43:10Z</datestamp>
      <setSpec>user-biosyslit</setSpec>
    </header>
    <header>
      <identifier>oai:zenodo.org:236479</identifier>
      <datestamp>2017-01-10T00:42:22Z</datestamp>
      <setSpec>user-biosyslit</setSpec>
    </header>
    <header>
      <identifier>oai:zenodo.org:236476</identifier>
      <datestamp>2017-01-10T00:42:09Z</datestamp>
      <setSpec>user-biosyslit</setSpec>
    </header>
    <header>
      <identifier>oai:zenodo.org:236483</identifier>
      <datestamp>2017-01-10T00:42:43Z</datestamp>
      <setSpec>user-biosyslit</setSpec>
    </header>
    <header>
      <identifier>oai:zenodo.org:275540</identifier>
      <datestamp>2017-02-08T16:39:29Z</datestamp>
      <setSpec>user-biosyslit</setSpec>
    </header>
    <header>
      <identifier>oai:zenodo.org:275541</identifier>
      <datestamp>2017-02-08T16:39:31Z</datestamp>
      <setSpec>user-biosyslit</setSpec>
    </header>
    <header>
      <identifier>oai:zenodo.org:275543</identifier>
      <datestamp>2017-02-08T16:39:36Z</datestamp>
      <setSpec>user-biosyslit</setSpec>
    </header>
    <header>
      <identifier>oai:zenodo.org:275542</identifier>
      <datestamp>2017-02-08T16:39:33Z</datestamp>
      <setSpec>user-biosyslit</setSpec>
    </header>
    <header>
      <identifier>oai:zenodo.org:240922</identifier>
      <datestamp>2017-01-12T16:15:33Z</datestamp>
      <setSpec>user-biosyslit</setSpec>
    </header>
    <header>
      <identifier>oai:zenodo.org:240925</identifier>
      <datestamp>2017-01-12T16:15:26Z</datestamp>
      <setSpec>user-biosyslit</setSpec>
    </header>
    <header>
      <identifier>oai:zenodo.org:239658</identifier>
      <datestamp>2017-01-11T23:23:48Z</datestamp>
      <setSpec>user-biosyslit</setSpec>
    </header>
    <header>
      <identifier>oai:zenodo.org:230211</identifier>
      <datestamp>2017-01-04T21:09:58Z</datestamp>
      <setSpec>user-biosyslit</setSpec>
    </header>
    <header>
      <identifier>oai:zenodo.org:287082</identifier>
      <datestamp>2017-02-09T17:26:20Z</datestamp>
      <setSpec>user-biosyslit</setSpec>
    </header>
    <header>
      <identifier>oai:zenodo.org:287087</identifier>
      <datestamp>2017-02-09T17:26:30Z</datestamp>
      <setSpec>user-biosyslit</setSpec>
    </header>
    <header>
      <identifier>oai:zenodo.org:287088</identifier>
      <datestamp>2017-02-09T17:26:33Z</datestamp>
      <setSpec>user-biosyslit</setSpec>
    </header>
    <header>
      <identifier>oai:zenodo.org:287079</identifier>
      <datestamp>2017-02-09T17:26:13Z</datestamp>
      <setSpec>user-biosyslit</setSpec>
    </header>
    <header>
      <identifier>oai:zenodo.org:287089</identifier>
      <datestamp>2017-02-09T17:26:35Z</datestamp>
      <setSpec>user-biosyslit</setSpec>
    </header>
    <header>
      <identifier>oai:zenodo.org:287091</identifier>
      <datestamp>2017-02-09T17:26:41Z</datestamp>
      <setSpec>user-biosyslit</setSpec>
    </header>
    <header>
      <identifier>oai:zenodo.org:287080</identifier>
      <datestamp>2017-02-09T17:26:15Z</datestamp>
      <setSpec>user-biosyslit</setSpec>
    </header>
    <header>
      <identifier>oai:zenodo.org:287085</identifier>
      <datestamp>2017-02-09T17:26:26Z</datestamp>
      <setSpec>user-biosyslit</setSpec>
    </header>
    <header>
      <identifier>oai:zenodo.org:287078</identifier>
      <datestamp>2017-02-09T17:26:11Z</datestamp>
      <setSpec>user-biosyslit</setSpec>
    </header>
    <header>
      <identifier>oai:zenodo.org:234466</identifier>
      <datestamp>2017-01-08T20:26:41Z</datestamp>
      <setSpec>user-biosyslit</setSpec>
    </header>
    <header>
      <identifier>oai:zenodo.org:234469</identifier>
      <datestamp>2017-01-08T20:26:51Z</datestamp>
      <setSpec>user-biosyslit</setSpec>
    </header>
    <header>
      <identifier>oai:zenodo.org:277590</identifier>
      <datestamp>2017-02-08T21:26:55Z</datestamp>
      <setSpec>user-biosyslit</setSpec>
    </header>
    <header>
      <identifier>oai:zenodo.org:284100</identifier>
      <datestamp>2017-02-09T10:22:54Z</datestamp>
      <setSpec>user-biosyslit</setSpec>
    </header>
    <header>
      <identifier>oai:zenodo.org:277589</identifier>
      <datestamp>2017-02-08T21:26:49Z</datestamp>
      <setSpec>user-biosyslit</setSpec>
    </header>
    <header>
      <identifier>oai:zenodo.org:240016</identifier>
      <datestamp>2017-01-12T03:44:10Z</datestamp>
      <setSpec>user-biosyslit</setSpec>
    </header>
    <header>
      <identifier>oai:zenodo.org:253710</identifier>
      <datestamp>2017-01-20T10:19:40Z</datestamp>
      <setSpec>user-biosyslit</setSpec>
    </header>
    <header>
      <identifier>oai:zenodo.org:232911</identifier>
      <datestamp>2017-01-07T01:29:12Z</datestamp>
      <setSpec>user-biosyslit</setSpec>
    </header>
    <header>
      <identifier>oai:zenodo.org:253726</identifier>
      <datestamp>2017-01-20T10:19:25Z</datestamp>
      <setSpec>user-biosyslit</setSpec>
    </header>
    <header>
      <identifier>oai:zenodo.org:253724</identifier>
      <datestamp>2017-01-20T10:19:21Z</datestamp>
      <setSpec>user-biosyslit</setSpec>
    </header>
    <header>
      <identifier>oai:zenodo.org:253727</identifier>
      <datestamp>2017-01-20T10:19:27Z</datestamp>
      <setSpec>user-biosyslit</setSpec>
    </header>
    <header>
      <identifier>oai:zenodo.org:232914</identifier>
      <datestamp>2017-01-07T01:29:05Z</datestamp>
      <setSpec>user-biosyslit</setSpec>
    </header>
    <header>
      <identifier>oai:zenodo.org:253729</identifier>
      <datestamp>2017-01-20T10:19:32Z</datestamp>
      <setSpec>user-biosyslit</setSpec>
    </header>
    <header>
      <identifier>oai:zenodo.org:232915</identifier>
      <datestamp>2017-01-07T01:29:08Z</datestamp>
      <setSpec>user-biosyslit</setSpec>
    </header>
    <header>
      <identifier>oai:zenodo.org:253731</identifier>
      <datestamp>2017-01-20T10:19:36Z</datestamp>
      <setSpec>user-biosyslit</setSpec>
    </header>
    <header>
      <identifier>oai:zenodo.org:253920</identifier>
      <datestamp>2017-01-20T12:36:07Z</datestamp>
      <setSpec>user-biosyslit</setSpec>
    </header>
    <header>
      <identifier>oai:zenodo.org:253927</identifier>
      <datestamp>2017-01-20T12:36:28Z</datestamp>
      <setSpec>user-biosyslit</setSpec>
    </header>
    <resumptionToken expirationDate="2017-08-31T15:48:14Z" cursor="74100" completeListSize="77796">.eJyNyj0PQ0AYAOD_8s7S3IeUSLoIFQPCldClUUTUUXFtcOK_19K5nZ9nBVFVJRjooCKM0FEnRCMEYxUrIIrxyfmt2RmKNOFFz-PcSd5Rl6CM1JpvidmzMurLFgUdluwckhTrc9ygJbzEr0xGc0LdiSFb82S4-A93fyUNHH69OwOLe5MzUo6BHS4Mm-xKi-_Dfz7581niBAoMeV2BoalUgXbKx1qAsW7bB4HJUSI.DInAxg.8XZyS_xqyqruRjUAWKrm_NsUgTs</resumptionToken>
  </ListIdentifiers>
</OAI-PMH>
