<?xml version='1.0' encoding='UTF-8'?>
<?xml-stylesheet type="text/xsl" href="/static/xsl/oai2.v1.0.xsl"?>
<OAI-PMH xmlns="http://www.openarchives.org/OAI/2.0/" xmlns:xsi="http://www.w3.org/2001/XMLSchema-instance" xsi:schemaLocation="http://www.openarchives.org/OAI/2.0/ http://www.openarchives.org/OAI/2.0/OAI-PMH.xsd">
  <responseDate>2017-08-31T15:42:18Z</responseDate>
  <request verb="ListIdentifiers" resumptionToken=".eJyNyssKgkAUANB_uWuJO6PgA9qEJi5UbFK0TZiKmKOJU6Qj_ntuWtf6nAVEVZVg4Q51pKapUYJUp5phaAqIYnxwfm02hyJNeNHzOHeT16lLMKO1Hthi8u1MDWSLYUckO0Y0JcYUNzhH5_iZydOUqN6boaP7MpqDu7e9Ug1dfrm5A4v7A2e0HEMnmhk5sItafB_588mfzxZ7UGDI6wosikSB9p2PtQBrWdcPy4lRYw.DIm_2g.KuHChjvnc-vQdFVUf7heJHI8YGA">https://zenodo.org/oai2d</request>
  <ListIdentifiers>
    <header>
      <identifier>oai:zenodo.org:801936</identifier>
      <datestamp>2017-06-02T07:34:52Z</datestamp>
      <setSpec>user-biosyslit</setSpec>
    </header>
    <header>
      <identifier>oai:zenodo.org:801948</identifier>
      <datestamp>2017-06-02T07:35:08Z</datestamp>
      <setSpec>user-biosyslit</setSpec>
    </header>
    <header>
      <identifier>oai:zenodo.org:801932</identifier>
      <datestamp>2017-06-02T07:34:45Z</datestamp>
      <setSpec>user-biosyslit</setSpec>
    </header>
    <header>
      <identifier>oai:zenodo.org:801944</identifier>
      <datestamp>2017-06-02T07:35:02Z</datestamp>
      <setSpec>user-biosyslit</setSpec>
    </header>
    <header>
      <identifier>oai:zenodo.org:801928</identifier>
      <datestamp>2017-06-02T07:34:29Z</datestamp>
      <setSpec>user-biosyslit</setSpec>
    </header>
    <header>
      <identifier>oai:zenodo.org:801970</identifier>
      <datestamp>2017-06-02T07:42:53Z</datestamp>
      <setSpec>user-biosyslit</setSpec>
    </header>
    <header>
      <identifier>oai:zenodo.org:801972</identifier>
      <datestamp>2017-06-02T07:43:00Z</datestamp>
      <setSpec>user-biosyslit</setSpec>
    </header>
    <header>
      <identifier>oai:zenodo.org:801974</identifier>
      <datestamp>2017-06-02T07:43:03Z</datestamp>
      <setSpec>user-biosyslit</setSpec>
    </header>
    <header>
      <identifier>oai:zenodo.org:802008</identifier>
      <datestamp>2017-06-02T07:53:13Z</datestamp>
      <setSpec>user-biosyslit</setSpec>
    </header>
    <header>
      <identifier>oai:zenodo.org:802018</identifier>
      <datestamp>2017-06-02T07:53:32Z</datestamp>
      <setSpec>user-biosyslit</setSpec>
    </header>
    <header>
      <identifier>oai:zenodo.org:802016</identifier>
      <datestamp>2017-06-02T07:53:27Z</datestamp>
      <setSpec>user-biosyslit</setSpec>
    </header>
    <header>
      <identifier>oai:zenodo.org:802010</identifier>
      <datestamp>2017-06-02T07:53:16Z</datestamp>
      <setSpec>user-biosyslit</setSpec>
    </header>
    <header>
      <identifier>oai:zenodo.org:802020</identifier>
      <datestamp>2017-06-02T07:53:36Z</datestamp>
      <setSpec>user-biosyslit</setSpec>
    </header>
    <header>
      <identifier>oai:zenodo.org:802022</identifier>
      <datestamp>2017-06-02T07:53:41Z</datestamp>
      <setSpec>user-biosyslit</setSpec>
    </header>
    <header>
      <identifier>oai:zenodo.org:802060</identifier>
      <datestamp>2017-06-02T08:14:53Z</datestamp>
      <setSpec>user-biosyslit</setSpec>
    </header>
    <header>
      <identifier>oai:zenodo.org:802028</identifier>
      <datestamp>2017-06-02T07:59:59Z</datestamp>
      <setSpec>user-biosyslit</setSpec>
    </header>
    <header>
      <identifier>oai:zenodo.org:802034</identifier>
      <datestamp>2017-06-02T08:00:06Z</datestamp>
      <setSpec>user-biosyslit</setSpec>
    </header>
    <header>
      <identifier>oai:zenodo.org:802068</identifier>
      <datestamp>2017-06-02T08:14:48Z</datestamp>
      <setSpec>user-biosyslit</setSpec>
    </header>
    <header>
      <identifier>oai:zenodo.org:802070</identifier>
      <datestamp>2017-06-02T08:14:50Z</datestamp>
      <setSpec>user-biosyslit</setSpec>
    </header>
    <header>
      <identifier>oai:zenodo.org:245891</identifier>
      <datestamp>2017-01-15T19:21:08Z</datestamp>
      <setSpec>user-biosyslit</setSpec>
    </header>
    <header>
      <identifier>oai:zenodo.org:246596</identifier>
      <datestamp>2017-01-16T04:43:06Z</datestamp>
      <setSpec>user-biosyslit</setSpec>
    </header>
    <header>
      <identifier>oai:zenodo.org:246759</identifier>
      <datestamp>2017-01-16T07:44:44Z</datestamp>
      <setSpec>user-biosyslit</setSpec>
    </header>
    <header>
      <identifier>oai:zenodo.org:246069</identifier>
      <datestamp>2017-01-15T21:41:03Z</datestamp>
      <setSpec>user-biosyslit</setSpec>
    </header>
    <header>
      <identifier>oai:zenodo.org:245904</identifier>
      <datestamp>2017-01-15T19:21:49Z</datestamp>
      <setSpec>user-biosyslit</setSpec>
    </header>
    <header>
      <identifier>oai:zenodo.org:246752</identifier>
      <datestamp>2017-01-16T07:17:41Z</datestamp>
      <setSpec>user-biosyslit</setSpec>
    </header>
    <header>
      <identifier>oai:zenodo.org:245630</identifier>
      <datestamp>2017-01-15T16:40:23Z</datestamp>
      <setSpec>user-biosyslit</setSpec>
    </header>
    <header>
      <identifier>oai:zenodo.org:245627</identifier>
      <datestamp>2017-01-15T16:40:14Z</datestamp>
      <setSpec>user-biosyslit</setSpec>
    </header>
    <header>
      <identifier>oai:zenodo.org:245693</identifier>
      <datestamp>2017-01-15T17:32:29Z</datestamp>
      <setSpec>user-biosyslit</setSpec>
    </header>
    <header>
      <identifier>oai:zenodo.org:245983</identifier>
      <datestamp>2017-01-15T20:25:34Z</datestamp>
      <setSpec>user-biosyslit</setSpec>
    </header>
    <header>
      <identifier>oai:zenodo.org:245946</identifier>
      <datestamp>2017-01-15T19:40:41Z</datestamp>
      <setSpec>user-biosyslit</setSpec>
    </header>
    <header>
      <identifier>oai:zenodo.org:245999</identifier>
      <datestamp>2017-01-15T20:44:32Z</datestamp>
      <setSpec>user-biosyslit</setSpec>
    </header>
    <header>
      <identifier>oai:zenodo.org:246400</identifier>
      <datestamp>2017-01-16T01:50:25Z</datestamp>
      <setSpec>user-biosyslit</setSpec>
    </header>
    <header>
      <identifier>oai:zenodo.org:245878</identifier>
      <datestamp>2017-01-15T19:12:44Z</datestamp>
      <setSpec>user-biosyslit</setSpec>
    </header>
    <header>
      <identifier>oai:zenodo.org:246780</identifier>
      <datestamp>2017-01-16T08:01:37Z</datestamp>
      <setSpec>user-biosyslit</setSpec>
    </header>
    <header>
      <identifier>oai:zenodo.org:11736</identifier>
      <datestamp>2017-01-06T09:53:35Z</datestamp>
      <setSpec>openaire</setSpec>
      <setSpec>user-zenodo</setSpec>
      <setSpec>user-biosyslit</setSpec>
    </header>
    <header>
      <identifier>oai:zenodo.org:245812</identifier>
      <datestamp>2017-01-15T18:55:17Z</datestamp>
      <setSpec>user-biosyslit</setSpec>
    </header>
    <header>
      <identifier>oai:zenodo.org:245496</identifier>
      <datestamp>2017-01-15T14:31:29Z</datestamp>
      <setSpec>user-biosyslit</setSpec>
    </header>
    <header>
      <identifier>oai:zenodo.org:245678</identifier>
      <datestamp>2017-01-15T17:14:19Z</datestamp>
      <setSpec>user-biosyslit</setSpec>
    </header>
    <header>
      <identifier>oai:zenodo.org:245673</identifier>
      <datestamp>2017-01-15T17:14:04Z</datestamp>
      <setSpec>user-biosyslit</setSpec>
    </header>
    <header>
      <identifier>oai:zenodo.org:272335</identifier>
      <datestamp>2017-02-08T04:18:00Z</datestamp>
      <setSpec>user-biosyslit</setSpec>
    </header>
    <header>
      <identifier>oai:zenodo.org:246122</identifier>
      <datestamp>2017-01-15T22:18:53Z</datestamp>
      <setSpec>user-biosyslit</setSpec>
    </header>
    <header>
      <identifier>oai:zenodo.org:245844</identifier>
      <datestamp>2017-01-15T19:10:34Z</datestamp>
      <setSpec>user-biosyslit</setSpec>
    </header>
    <header>
      <identifier>oai:zenodo.org:245848</identifier>
      <datestamp>2017-01-15T19:10:46Z</datestamp>
      <setSpec>user-biosyslit</setSpec>
    </header>
    <header>
      <identifier>oai:zenodo.org:245980</identifier>
      <datestamp>2017-01-15T20:25:27Z</datestamp>
      <setSpec>user-biosyslit</setSpec>
    </header>
    <header>
      <identifier>oai:zenodo.org:245772</identifier>
      <datestamp>2017-01-15T18:28:53Z</datestamp>
      <setSpec>user-biosyslit</setSpec>
    </header>
    <header>
      <identifier>oai:zenodo.org:245989</identifier>
      <datestamp>2017-01-15T20:30:07Z</datestamp>
      <setSpec>user-biosyslit</setSpec>
    </header>
    <header>
      <identifier>oai:zenodo.org:245916</identifier>
      <datestamp>2017-01-15T19:26:38Z</datestamp>
      <setSpec>user-biosyslit</setSpec>
    </header>
    <header>
      <identifier>oai:zenodo.org:246354</identifier>
      <datestamp>2017-01-16T01:15:33Z</datestamp>
      <setSpec>user-biosyslit</setSpec>
    </header>
    <header>
      <identifier>oai:zenodo.org:245851</identifier>
      <datestamp>2017-01-15T19:10:56Z</datestamp>
      <setSpec>user-biosyslit</setSpec>
    </header>
    <header>
      <identifier>oai:zenodo.org:245672</identifier>
      <datestamp>2017-01-15T17:14:01Z</datestamp>
      <setSpec>user-biosyslit</setSpec>
    </header>
    <header>
      <identifier>oai:zenodo.org:15482</identifier>
      <datestamp>2017-03-14T21:07:50Z</datestamp>
      <setSpec>user-biosyslit</setSpec>
    </header>
    <header>
      <identifier>oai:zenodo.org:245324</identifier>
      <datestamp>2017-01-15T11:43:56Z</datestamp>
      <setSpec>user-biosyslit</setSpec>
    </header>
    <header>
      <identifier>oai:zenodo.org:246288</identifier>
      <datestamp>2017-01-15T23:47:01Z</datestamp>
      <setSpec>user-biosyslit</setSpec>
    </header>
    <header>
      <identifier>oai:zenodo.org:246287</identifier>
      <datestamp>2017-01-15T23:46:57Z</datestamp>
      <setSpec>user-biosyslit</setSpec>
    </header>
    <header>
      <identifier>oai:zenodo.org:245625</identifier>
      <datestamp>2017-01-15T16:40:09Z</datestamp>
      <setSpec>user-biosyslit</setSpec>
    </header>
    <header>
      <identifier>oai:zenodo.org:245886</identifier>
      <datestamp>2017-01-15T19:20:24Z</datestamp>
      <setSpec>user-biosyslit</setSpec>
    </header>
    <header>
      <identifier>oai:zenodo.org:245180</identifier>
      <datestamp>2017-01-15T09:23:08Z</datestamp>
      <setSpec>user-biosyslit</setSpec>
    </header>
    <header>
      <identifier>oai:zenodo.org:245207</identifier>
      <datestamp>2017-01-15T10:05:16Z</datestamp>
      <setSpec>user-biosyslit</setSpec>
    </header>
    <header>
      <identifier>oai:zenodo.org:246014</identifier>
      <datestamp>2017-01-15T21:02:40Z</datestamp>
      <setSpec>user-biosyslit</setSpec>
    </header>
    <header>
      <identifier>oai:zenodo.org:245702</identifier>
      <datestamp>2017-01-15T17:36:27Z</datestamp>
      <setSpec>user-biosyslit</setSpec>
    </header>
    <header>
      <identifier>oai:zenodo.org:245808</identifier>
      <datestamp>2017-01-15T18:55:07Z</datestamp>
      <setSpec>user-biosyslit</setSpec>
    </header>
    <header>
      <identifier>oai:zenodo.org:246045</identifier>
      <datestamp>2017-01-15T21:23:29Z</datestamp>
      <setSpec>user-biosyslit</setSpec>
    </header>
    <header>
      <identifier>oai:zenodo.org:245998</identifier>
      <datestamp>2017-01-15T20:44:29Z</datestamp>
      <setSpec>user-biosyslit</setSpec>
    </header>
    <header>
      <identifier>oai:zenodo.org:246043</identifier>
      <datestamp>2017-01-15T21:23:24Z</datestamp>
      <setSpec>user-biosyslit</setSpec>
    </header>
    <header>
      <identifier>oai:zenodo.org:245505</identifier>
      <datestamp>2017-01-15T14:31:24Z</datestamp>
      <setSpec>user-biosyslit</setSpec>
    </header>
    <header>
      <identifier>oai:zenodo.org:245778</identifier>
      <datestamp>2017-01-15T18:34:56Z</datestamp>
      <setSpec>user-biosyslit</setSpec>
    </header>
    <header>
      <identifier>oai:zenodo.org:245828</identifier>
      <datestamp>2017-01-15T19:09:27Z</datestamp>
      <setSpec>user-biosyslit</setSpec>
    </header>
    <header>
      <identifier>oai:zenodo.org:245881</identifier>
      <datestamp>2017-01-15T19:12:58Z</datestamp>
      <setSpec>user-biosyslit</setSpec>
    </header>
    <header>
      <identifier>oai:zenodo.org:245857</identifier>
      <datestamp>2017-01-15T19:11:18Z</datestamp>
      <setSpec>user-biosyslit</setSpec>
    </header>
    <header>
      <identifier>oai:zenodo.org:247106</identifier>
      <datestamp>2017-01-16T11:28:15Z</datestamp>
      <setSpec>user-biosyslit</setSpec>
    </header>
    <header>
      <identifier>oai:zenodo.org:245629</identifier>
      <datestamp>2017-01-15T16:40:20Z</datestamp>
      <setSpec>user-biosyslit</setSpec>
    </header>
    <header>
      <identifier>oai:zenodo.org:246117</identifier>
      <datestamp>2017-01-15T22:18:14Z</datestamp>
      <setSpec>user-biosyslit</setSpec>
    </header>
    <header>
      <identifier>oai:zenodo.org:246327</identifier>
      <datestamp>2017-01-16T00:44:28Z</datestamp>
      <setSpec>user-biosyslit</setSpec>
    </header>
    <header>
      <identifier>oai:zenodo.org:246293</identifier>
      <datestamp>2017-01-15T23:47:17Z</datestamp>
      <setSpec>user-biosyslit</setSpec>
    </header>
    <header>
      <identifier>oai:zenodo.org:245901</identifier>
      <datestamp>2017-01-15T19:21:40Z</datestamp>
      <setSpec>user-biosyslit</setSpec>
    </header>
    <header>
      <identifier>oai:zenodo.org:246161</identifier>
      <datestamp>2017-01-15T22:46:25Z</datestamp>
      <setSpec>user-biosyslit</setSpec>
    </header>
    <header>
      <identifier>oai:zenodo.org:246009</identifier>
      <datestamp>2017-01-15T20:59:38Z</datestamp>
      <setSpec>user-biosyslit</setSpec>
    </header>
    <header>
      <identifier>oai:zenodo.org:246717</identifier>
      <datestamp>2017-01-16T07:00:20Z</datestamp>
      <setSpec>user-biosyslit</setSpec>
    </header>
    <header>
      <identifier>oai:zenodo.org:245918</identifier>
      <datestamp>2017-01-15T19:26:45Z</datestamp>
      <setSpec>user-biosyslit</setSpec>
    </header>
    <header>
      <identifier>oai:zenodo.org:246046</identifier>
      <datestamp>2017-01-15T21:23:33Z</datestamp>
      <setSpec>user-biosyslit</setSpec>
    </header>
    <header>
      <identifier>oai:zenodo.org:245865</identifier>
      <datestamp>2017-01-15T19:11:50Z</datestamp>
      <setSpec>user-biosyslit</setSpec>
    </header>
    <header>
      <identifier>oai:zenodo.org:246008</identifier>
      <datestamp>2017-01-15T20:59:52Z</datestamp>
      <setSpec>user-biosyslit</setSpec>
    </header>
    <header>
      <identifier>oai:zenodo.org:246325</identifier>
      <datestamp>2017-01-16T00:44:21Z</datestamp>
      <setSpec>user-biosyslit</setSpec>
    </header>
    <header>
      <identifier>oai:zenodo.org:246076</identifier>
      <datestamp>2017-01-15T21:47:54Z</datestamp>
      <setSpec>user-biosyslit</setSpec>
    </header>
    <header>
      <identifier>oai:zenodo.org:245945</identifier>
      <datestamp>2017-01-15T19:40:38Z</datestamp>
      <setSpec>user-biosyslit</setSpec>
    </header>
    <header>
      <identifier>oai:zenodo.org:246729</identifier>
      <datestamp>2017-01-16T07:16:42Z</datestamp>
      <setSpec>user-biosyslit</setSpec>
    </header>
    <header>
      <identifier>oai:zenodo.org:245897</identifier>
      <datestamp>2017-01-15T19:21:27Z</datestamp>
      <setSpec>user-biosyslit</setSpec>
    </header>
    <header>
      <identifier>oai:zenodo.org:246100</identifier>
      <datestamp>2017-01-15T22:03:06Z</datestamp>
      <setSpec>user-biosyslit</setSpec>
    </header>
    <header>
      <identifier>oai:zenodo.org:246739</identifier>
      <datestamp>2017-01-16T07:17:07Z</datestamp>
      <setSpec>user-biosyslit</setSpec>
    </header>
    <header>
      <identifier>oai:zenodo.org:245831</identifier>
      <datestamp>2017-01-15T19:09:36Z</datestamp>
      <setSpec>user-biosyslit</setSpec>
    </header>
    <header>
      <identifier>oai:zenodo.org:246460</identifier>
      <datestamp>2017-01-16T02:29:01Z</datestamp>
      <setSpec>user-biosyslit</setSpec>
    </header>
    <header>
      <identifier>oai:zenodo.org:246304</identifier>
      <datestamp>2017-01-16T00:14:21Z</datestamp>
      <setSpec>user-biosyslit</setSpec>
    </header>
    <header>
      <identifier>oai:zenodo.org:246409</identifier>
      <datestamp>2017-01-16T01:50:57Z</datestamp>
      <setSpec>user-biosyslit</setSpec>
    </header>
    <header>
      <identifier>oai:zenodo.org:246399</identifier>
      <datestamp>2017-01-16T01:51:37Z</datestamp>
      <setSpec>user-biosyslit</setSpec>
    </header>
    <header>
      <identifier>oai:zenodo.org:246932</identifier>
      <datestamp>2017-01-16T10:05:44Z</datestamp>
      <setSpec>user-biosyslit</setSpec>
    </header>
    <header>
      <identifier>oai:zenodo.org:245920</identifier>
      <datestamp>2017-01-15T19:26:51Z</datestamp>
      <setSpec>user-biosyslit</setSpec>
    </header>
    <header>
      <identifier>oai:zenodo.org:246910</identifier>
      <datestamp>2017-01-16T10:04:33Z</datestamp>
      <setSpec>user-biosyslit</setSpec>
    </header>
    <header>
      <identifier>oai:zenodo.org:245860</identifier>
      <datestamp>2017-01-15T19:11:32Z</datestamp>
      <setSpec>user-biosyslit</setSpec>
    </header>
    <header>
      <identifier>oai:zenodo.org:246837</identifier>
      <datestamp>2017-01-16T09:09:31Z</datestamp>
      <setSpec>user-biosyslit</setSpec>
    </header>
    <header>
      <identifier>oai:zenodo.org:246358</identifier>
      <datestamp>2017-01-16T01:15:46Z</datestamp>
      <setSpec>user-biosyslit</setSpec>
    </header>
    <resumptionToken expirationDate="2017-08-31T15:44:18Z" cursor="20000" completeListSize="77796">.eJyNyssKgkAUANB_uWuJeRQ-oI1o4kLFJkXdhKmIOZo4RTriv-emda3PWUBUVQkG2h10He-JpqqYIKxRrIAoxgfn12ZjKJKYFz2Pcid-nbsYpaRWfUtMnpVSX7Yo6LBkp5AkWJuiBs3hJXqm8jzF1H0zZKueDGf_7m6vpIHDs5szsKg3OSPlGNjhzLDJMlp8H_7zyZ_PEkdQYMjrCgyCiALtOx9rAcayrh-abFEz.DIm_2g.cPGQT2kwAbynOkKsJGuDfwxuPAc</resumptionToken>
  </ListIdentifiers>
</OAI-PMH>
