<?xml version='1.0' encoding='UTF-8'?>
<?xml-stylesheet type="text/xsl" href="/static/xsl/oai2.v1.0.xsl"?>
<OAI-PMH xmlns="http://www.openarchives.org/OAI/2.0/" xmlns:xsi="http://www.w3.org/2001/XMLSchema-instance" xsi:schemaLocation="http://www.openarchives.org/OAI/2.0/ http://www.openarchives.org/OAI/2.0/OAI-PMH.xsd">
  <responseDate>2017-08-31T15:46:20Z</responseDate>
  <request verb="ListIdentifiers" resumptionToken=".eJyNz8EOQzAAgOF36VmWVkk7yS4LEweEjuCyGCKmTHQLKt59Ljtv5_-7_CsQVVUCAx4QphokGsRHTBGhVFeAKMYn57dm76BIYl70PMrt-B12MUzVmnimmF0zxZ5sod8hyS6BmiA6Rw1cgmv0SmU4x9iZGLSIK4PFezi7K7Fv8-xuDyzqz5yp5ehbwcLQmWW4-Dr0p5M_nSlOQAFDXlfAIPp-1U75WAtgrNv2AdVtUXs.DInAzA.pCi4zKVkTm4P83Umi47xOvdWqWw">https://zenodo.org/oai2d</request>
  <ListIdentifiers>
    <header>
      <identifier>oai:zenodo.org:255275</identifier>
      <datestamp>2017-01-21T10:41:40Z</datestamp>
      <setSpec>user-biosyslit</setSpec>
    </header>
    <header>
      <identifier>oai:zenodo.org:244161</identifier>
      <datestamp>2017-01-14T17:01:44Z</datestamp>
      <setSpec>user-biosyslit</setSpec>
    </header>
    <header>
      <identifier>oai:zenodo.org:244163</identifier>
      <datestamp>2017-01-14T17:01:50Z</datestamp>
      <setSpec>user-biosyslit</setSpec>
    </header>
    <header>
      <identifier>oai:zenodo.org:244160</identifier>
      <datestamp>2017-01-14T17:01:40Z</datestamp>
      <setSpec>user-biosyslit</setSpec>
    </header>
    <header>
      <identifier>oai:zenodo.org:244162</identifier>
      <datestamp>2017-01-14T17:01:47Z</datestamp>
      <setSpec>user-biosyslit</setSpec>
    </header>
    <header>
      <identifier>oai:zenodo.org:245739</identifier>
      <datestamp>2017-01-15T18:04:26Z</datestamp>
      <setSpec>user-biosyslit</setSpec>
    </header>
    <header>
      <identifier>oai:zenodo.org:244165</identifier>
      <datestamp>2017-01-14T17:01:56Z</datestamp>
      <setSpec>user-biosyslit</setSpec>
    </header>
    <header>
      <identifier>oai:zenodo.org:230333</identifier>
      <datestamp>2017-01-04T22:56:54Z</datestamp>
      <setSpec>user-biosyslit</setSpec>
    </header>
    <header>
      <identifier>oai:zenodo.org:230334</identifier>
      <datestamp>2017-01-04T22:56:57Z</datestamp>
      <setSpec>user-biosyslit</setSpec>
    </header>
    <header>
      <identifier>oai:zenodo.org:245738</identifier>
      <datestamp>2017-01-15T18:04:21Z</datestamp>
      <setSpec>user-biosyslit</setSpec>
    </header>
    <header>
      <identifier>oai:zenodo.org:285592</identifier>
      <datestamp>2017-02-09T13:57:54Z</datestamp>
      <setSpec>user-biosyslit</setSpec>
    </header>
    <header>
      <identifier>oai:zenodo.org:285596</identifier>
      <datestamp>2017-02-09T13:57:43Z</datestamp>
      <setSpec>user-biosyslit</setSpec>
    </header>
    <header>
      <identifier>oai:zenodo.org:285595</identifier>
      <datestamp>2017-02-09T13:57:41Z</datestamp>
      <setSpec>user-biosyslit</setSpec>
    </header>
    <header>
      <identifier>oai:zenodo.org:285598</identifier>
      <datestamp>2017-02-09T13:57:49Z</datestamp>
      <setSpec>user-biosyslit</setSpec>
    </header>
    <header>
      <identifier>oai:zenodo.org:285600</identifier>
      <datestamp>2017-02-09T13:57:53Z</datestamp>
      <setSpec>user-biosyslit</setSpec>
    </header>
    <header>
      <identifier>oai:zenodo.org:234929</identifier>
      <datestamp>2017-01-09T03:39:13Z</datestamp>
      <setSpec>user-biosyslit</setSpec>
    </header>
    <header>
      <identifier>oai:zenodo.org:285599</identifier>
      <datestamp>2017-02-09T13:57:51Z</datestamp>
      <setSpec>user-biosyslit</setSpec>
    </header>
    <header>
      <identifier>oai:zenodo.org:234933</identifier>
      <datestamp>2017-01-09T03:39:29Z</datestamp>
      <setSpec>user-biosyslit</setSpec>
    </header>
    <header>
      <identifier>oai:zenodo.org:234932</identifier>
      <datestamp>2017-01-09T03:39:25Z</datestamp>
      <setSpec>user-biosyslit</setSpec>
    </header>
    <header>
      <identifier>oai:zenodo.org:283299</identifier>
      <datestamp>2017-02-09T08:33:15Z</datestamp>
      <setSpec>user-biosyslit</setSpec>
    </header>
    <header>
      <identifier>oai:zenodo.org:283303</identifier>
      <datestamp>2017-02-09T08:33:24Z</datestamp>
      <setSpec>user-biosyslit</setSpec>
    </header>
    <header>
      <identifier>oai:zenodo.org:283301</identifier>
      <datestamp>2017-02-09T08:33:19Z</datestamp>
      <setSpec>user-biosyslit</setSpec>
    </header>
    <header>
      <identifier>oai:zenodo.org:253739</identifier>
      <datestamp>2017-01-20T10:33:05Z</datestamp>
      <setSpec>user-biosyslit</setSpec>
    </header>
    <header>
      <identifier>oai:zenodo.org:283817</identifier>
      <datestamp>2017-02-09T09:51:52Z</datestamp>
      <setSpec>user-biosyslit</setSpec>
    </header>
    <header>
      <identifier>oai:zenodo.org:228809</identifier>
      <datestamp>2017-01-03T05:12:01Z</datestamp>
      <setSpec>user-biosyslit</setSpec>
    </header>
    <header>
      <identifier>oai:zenodo.org:228808</identifier>
      <datestamp>2017-01-03T05:11:58Z</datestamp>
      <setSpec>user-biosyslit</setSpec>
    </header>
    <header>
      <identifier>oai:zenodo.org:228807</identifier>
      <datestamp>2017-01-03T05:11:54Z</datestamp>
      <setSpec>user-biosyslit</setSpec>
    </header>
    <header>
      <identifier>oai:zenodo.org:242983</identifier>
      <datestamp>2017-01-13T21:25:05Z</datestamp>
      <setSpec>user-biosyslit</setSpec>
    </header>
    <header>
      <identifier>oai:zenodo.org:242978</identifier>
      <datestamp>2017-01-13T21:24:37Z</datestamp>
      <setSpec>user-biosyslit</setSpec>
    </header>
    <header>
      <identifier>oai:zenodo.org:242979</identifier>
      <datestamp>2017-01-13T21:24:42Z</datestamp>
      <setSpec>user-biosyslit</setSpec>
    </header>
    <header>
      <identifier>oai:zenodo.org:242980</identifier>
      <datestamp>2017-01-13T21:24:46Z</datestamp>
      <setSpec>user-biosyslit</setSpec>
    </header>
    <header>
      <identifier>oai:zenodo.org:283230</identifier>
      <datestamp>2017-02-09T08:25:43Z</datestamp>
      <setSpec>user-biosyslit</setSpec>
    </header>
    <header>
      <identifier>oai:zenodo.org:283255</identifier>
      <datestamp>2017-02-09T08:25:35Z</datestamp>
      <setSpec>user-biosyslit</setSpec>
    </header>
    <header>
      <identifier>oai:zenodo.org:283250</identifier>
      <datestamp>2017-02-09T08:25:24Z</datestamp>
      <setSpec>user-biosyslit</setSpec>
    </header>
    <header>
      <identifier>oai:zenodo.org:283240</identifier>
      <datestamp>2017-02-09T08:25:01Z</datestamp>
      <setSpec>user-biosyslit</setSpec>
    </header>
    <header>
      <identifier>oai:zenodo.org:283242</identifier>
      <datestamp>2017-02-09T08:25:05Z</datestamp>
      <setSpec>user-biosyslit</setSpec>
    </header>
    <header>
      <identifier>oai:zenodo.org:283253</identifier>
      <datestamp>2017-02-09T08:25:30Z</datestamp>
      <setSpec>user-biosyslit</setSpec>
    </header>
    <header>
      <identifier>oai:zenodo.org:283241</identifier>
      <datestamp>2017-02-09T08:25:02Z</datestamp>
      <setSpec>user-biosyslit</setSpec>
    </header>
    <header>
      <identifier>oai:zenodo.org:283248</identifier>
      <datestamp>2017-02-09T08:25:20Z</datestamp>
      <setSpec>user-biosyslit</setSpec>
    </header>
    <header>
      <identifier>oai:zenodo.org:283249</identifier>
      <datestamp>2017-02-09T08:25:22Z</datestamp>
      <setSpec>user-biosyslit</setSpec>
    </header>
    <header>
      <identifier>oai:zenodo.org:270681</identifier>
      <datestamp>2017-02-07T23:47:36Z</datestamp>
      <setSpec>user-biosyslit</setSpec>
    </header>
    <header>
      <identifier>oai:zenodo.org:247755</identifier>
      <datestamp>2017-01-16T19:32:44Z</datestamp>
      <setSpec>user-biosyslit</setSpec>
    </header>
    <header>
      <identifier>oai:zenodo.org:270683</identifier>
      <datestamp>2017-02-07T23:47:42Z</datestamp>
      <setSpec>user-biosyslit</setSpec>
    </header>
    <header>
      <identifier>oai:zenodo.org:270680</identifier>
      <datestamp>2017-02-07T23:47:34Z</datestamp>
      <setSpec>user-biosyslit</setSpec>
    </header>
    <header>
      <identifier>oai:zenodo.org:270684</identifier>
      <datestamp>2017-02-07T23:47:44Z</datestamp>
      <setSpec>user-biosyslit</setSpec>
    </header>
    <header>
      <identifier>oai:zenodo.org:247758</identifier>
      <datestamp>2017-01-16T19:32:54Z</datestamp>
      <setSpec>user-biosyslit</setSpec>
    </header>
    <header>
      <identifier>oai:zenodo.org:247757</identifier>
      <datestamp>2017-01-16T19:32:50Z</datestamp>
      <setSpec>user-biosyslit</setSpec>
    </header>
    <header>
      <identifier>oai:zenodo.org:247756</identifier>
      <datestamp>2017-01-16T19:32:47Z</datestamp>
      <setSpec>user-biosyslit</setSpec>
    </header>
    <header>
      <identifier>oai:zenodo.org:270685</identifier>
      <datestamp>2017-02-07T23:47:48Z</datestamp>
      <setSpec>user-biosyslit</setSpec>
    </header>
    <header>
      <identifier>oai:zenodo.org:233599</identifier>
      <datestamp>2017-01-08T08:52:41Z</datestamp>
      <setSpec>user-biosyslit</setSpec>
    </header>
    <header>
      <identifier>oai:zenodo.org:233602</identifier>
      <datestamp>2017-01-08T08:52:53Z</datestamp>
      <setSpec>user-biosyslit</setSpec>
    </header>
    <header>
      <identifier>oai:zenodo.org:243954</identifier>
      <datestamp>2017-01-14T14:25:18Z</datestamp>
      <setSpec>user-biosyslit</setSpec>
    </header>
    <header>
      <identifier>oai:zenodo.org:243955</identifier>
      <datestamp>2017-01-14T14:25:21Z</datestamp>
      <setSpec>user-biosyslit</setSpec>
    </header>
    <header>
      <identifier>oai:zenodo.org:243958</identifier>
      <datestamp>2017-01-14T14:25:33Z</datestamp>
      <setSpec>user-biosyslit</setSpec>
    </header>
    <header>
      <identifier>oai:zenodo.org:233606</identifier>
      <datestamp>2017-01-08T08:53:05Z</datestamp>
      <setSpec>user-biosyslit</setSpec>
    </header>
    <header>
      <identifier>oai:zenodo.org:238482</identifier>
      <datestamp>2017-01-11T06:07:07Z</datestamp>
      <setSpec>user-biosyslit</setSpec>
    </header>
    <header>
      <identifier>oai:zenodo.org:238481</identifier>
      <datestamp>2017-01-11T06:07:03Z</datestamp>
      <setSpec>user-biosyslit</setSpec>
    </header>
    <header>
      <identifier>oai:zenodo.org:233597</identifier>
      <datestamp>2017-01-08T08:53:53Z</datestamp>
      <setSpec>user-biosyslit</setSpec>
    </header>
    <header>
      <identifier>oai:zenodo.org:233613</identifier>
      <datestamp>2017-01-08T08:53:29Z</datestamp>
      <setSpec>user-biosyslit</setSpec>
    </header>
    <header>
      <identifier>oai:zenodo.org:233619</identifier>
      <datestamp>2017-01-08T08:53:51Z</datestamp>
      <setSpec>user-biosyslit</setSpec>
    </header>
    <header>
      <identifier>oai:zenodo.org:233612</identifier>
      <datestamp>2017-01-08T08:53:26Z</datestamp>
      <setSpec>user-biosyslit</setSpec>
    </header>
    <header>
      <identifier>oai:zenodo.org:233608</identifier>
      <datestamp>2017-01-08T08:53:12Z</datestamp>
      <setSpec>user-biosyslit</setSpec>
    </header>
    <header>
      <identifier>oai:zenodo.org:233617</identifier>
      <datestamp>2017-01-08T08:53:44Z</datestamp>
      <setSpec>user-biosyslit</setSpec>
    </header>
    <header>
      <identifier>oai:zenodo.org:233610</identifier>
      <datestamp>2017-01-08T08:53:18Z</datestamp>
      <setSpec>user-biosyslit</setSpec>
    </header>
    <header>
      <identifier>oai:zenodo.org:233615</identifier>
      <datestamp>2017-01-08T08:53:37Z</datestamp>
      <setSpec>user-biosyslit</setSpec>
    </header>
    <header>
      <identifier>oai:zenodo.org:233618</identifier>
      <datestamp>2017-01-08T08:53:47Z</datestamp>
      <setSpec>user-biosyslit</setSpec>
    </header>
    <header>
      <identifier>oai:zenodo.org:271597</identifier>
      <datestamp>2017-02-08T02:02:07Z</datestamp>
      <setSpec>user-biosyslit</setSpec>
    </header>
    <header>
      <identifier>oai:zenodo.org:265897</identifier>
      <datestamp>2017-01-31T23:10:39Z</datestamp>
      <setSpec>user-biosyslit</setSpec>
    </header>
    <header>
      <identifier>oai:zenodo.org:265906</identifier>
      <datestamp>2017-01-31T23:10:32Z</datestamp>
      <setSpec>user-biosyslit</setSpec>
    </header>
    <header>
      <identifier>oai:zenodo.org:271604</identifier>
      <datestamp>2017-02-08T02:02:05Z</datestamp>
      <setSpec>user-biosyslit</setSpec>
    </header>
    <header>
      <identifier>oai:zenodo.org:271599</identifier>
      <datestamp>2017-02-08T02:01:52Z</datestamp>
      <setSpec>user-biosyslit</setSpec>
    </header>
    <header>
      <identifier>oai:zenodo.org:271601</identifier>
      <datestamp>2017-02-08T02:01:57Z</datestamp>
      <setSpec>user-biosyslit</setSpec>
    </header>
    <header>
      <identifier>oai:zenodo.org:271602</identifier>
      <datestamp>2017-02-08T02:01:59Z</datestamp>
      <setSpec>user-biosyslit</setSpec>
    </header>
    <header>
      <identifier>oai:zenodo.org:280575</identifier>
      <datestamp>2017-02-09T03:40:41Z</datestamp>
      <setSpec>user-biosyslit</setSpec>
    </header>
    <header>
      <identifier>oai:zenodo.org:246232</identifier>
      <datestamp>2017-01-15T23:17:04Z</datestamp>
      <setSpec>user-biosyslit</setSpec>
    </header>
    <header>
      <identifier>oai:zenodo.org:280580</identifier>
      <datestamp>2017-02-09T03:40:36Z</datestamp>
      <setSpec>user-biosyslit</setSpec>
    </header>
    <header>
      <identifier>oai:zenodo.org:246238</identifier>
      <datestamp>2017-01-15T23:17:27Z</datestamp>
      <setSpec>user-biosyslit</setSpec>
    </header>
    <header>
      <identifier>oai:zenodo.org:246237</identifier>
      <datestamp>2017-01-15T23:17:24Z</datestamp>
      <setSpec>user-biosyslit</setSpec>
    </header>
    <header>
      <identifier>oai:zenodo.org:235711</identifier>
      <datestamp>2017-01-09T13:53:03Z</datestamp>
      <setSpec>user-biosyslit</setSpec>
    </header>
    <header>
      <identifier>oai:zenodo.org:235707</identifier>
      <datestamp>2017-01-09T13:52:46Z</datestamp>
      <setSpec>user-biosyslit</setSpec>
    </header>
    <header>
      <identifier>oai:zenodo.org:287471</identifier>
      <datestamp>2017-02-09T18:25:46Z</datestamp>
      <setSpec>user-biosyslit</setSpec>
    </header>
    <header>
      <identifier>oai:zenodo.org:287469</identifier>
      <datestamp>2017-02-09T18:25:42Z</datestamp>
      <setSpec>user-biosyslit</setSpec>
    </header>
    <header>
      <identifier>oai:zenodo.org:287472</identifier>
      <datestamp>2017-02-09T18:25:48Z</datestamp>
      <setSpec>user-biosyslit</setSpec>
    </header>
    <header>
      <identifier>oai:zenodo.org:287470</identifier>
      <datestamp>2017-02-09T18:25:44Z</datestamp>
      <setSpec>user-biosyslit</setSpec>
    </header>
    <header>
      <identifier>oai:zenodo.org:287477</identifier>
      <datestamp>2017-02-09T18:25:58Z</datestamp>
      <setSpec>user-biosyslit</setSpec>
    </header>
    <header>
      <identifier>oai:zenodo.org:287476</identifier>
      <datestamp>2017-02-09T18:25:56Z</datestamp>
      <setSpec>user-biosyslit</setSpec>
    </header>
    <header>
      <identifier>oai:zenodo.org:803147</identifier>
      <datestamp>2017-06-06T08:22:00Z</datestamp>
      <setSpec>user-biosyslit</setSpec>
    </header>
    <header>
      <identifier>oai:zenodo.org:803165</identifier>
      <datestamp>2017-06-06T08:22:33Z</datestamp>
      <setSpec>user-biosyslit</setSpec>
    </header>
    <header>
      <identifier>oai:zenodo.org:803163</identifier>
      <datestamp>2017-06-06T08:22:30Z</datestamp>
      <setSpec>user-biosyslit</setSpec>
    </header>
    <header>
      <identifier>oai:zenodo.org:803161</identifier>
      <datestamp>2017-06-06T08:22:26Z</datestamp>
      <setSpec>user-biosyslit</setSpec>
    </header>
    <header>
      <identifier>oai:zenodo.org:803145</identifier>
      <datestamp>2017-06-06T08:21:57Z</datestamp>
      <setSpec>user-biosyslit</setSpec>
    </header>
    <header>
      <identifier>oai:zenodo.org:803143</identifier>
      <datestamp>2017-06-06T08:22:45Z</datestamp>
      <setSpec>user-biosyslit</setSpec>
    </header>
    <header>
      <identifier>oai:zenodo.org:583413</identifier>
      <datestamp>2017-05-26T08:15:43Z</datestamp>
      <setSpec>user-biosyslit</setSpec>
    </header>
    <header>
      <identifier>oai:zenodo.org:583412</identifier>
      <datestamp>2017-05-26T08:15:41Z</datestamp>
      <setSpec>user-biosyslit</setSpec>
    </header>
    <header>
      <identifier>oai:zenodo.org:583408</identifier>
      <datestamp>2017-05-26T08:15:30Z</datestamp>
      <setSpec>user-biosyslit</setSpec>
    </header>
    <header>
      <identifier>oai:zenodo.org:583411</identifier>
      <datestamp>2017-05-26T08:15:39Z</datestamp>
      <setSpec>user-biosyslit</setSpec>
    </header>
    <header>
      <identifier>oai:zenodo.org:583410</identifier>
      <datestamp>2017-05-26T08:15:36Z</datestamp>
      <setSpec>user-biosyslit</setSpec>
    </header>
    <header>
      <identifier>oai:zenodo.org:256146</identifier>
      <datestamp>2017-01-22T05:04:53Z</datestamp>
      <setSpec>user-biosyslit</setSpec>
    </header>
    <header>
      <identifier>oai:zenodo.org:256145</identifier>
      <datestamp>2017-01-22T05:04:51Z</datestamp>
      <setSpec>user-biosyslit</setSpec>
    </header>
    <header>
      <identifier>oai:zenodo.org:232350</identifier>
      <datestamp>2017-01-06T16:17:49Z</datestamp>
      <setSpec>user-biosyslit</setSpec>
    </header>
    <resumptionToken expirationDate="2017-08-31T15:48:20Z" cursor="75400" completeListSize="77796">.eJyNyrsOgjAUANB_uTMxt61aIHEhKGEQAhUiLAaBEKU-QjVCDf8ui7Oe-bxB1XUFNs6QEgstggwtkxNrjtwAVXY3KQ-nKUC5T2V5lUnhpc_4kmJGGx64qt-6GQt0i-GFaLGJ6J6YfXLCIdolj0zHfcr8l8A13-poCM7-9CoWejI_eneRXB0paNWF62gQxBE5K7-P_Pn0z-eqFRhwL5oabL5YGtC-iq5RYL_H8QP-QFGj.DInAzA.omjKh9chSeMVsF_dpKbpLY2khvk</resumptionToken>
  </ListIdentifiers>
</OAI-PMH>
