<?xml version='1.0' encoding='UTF-8'?>
<?xml-stylesheet type="text/xsl" href="/static/xsl/oai2.v1.0.xsl"?>
<OAI-PMH xmlns="http://www.openarchives.org/OAI/2.0/" xmlns:xsi="http://www.w3.org/2001/XMLSchema-instance" xsi:schemaLocation="http://www.openarchives.org/OAI/2.0/ http://www.openarchives.org/OAI/2.0/OAI-PMH.xsd">
  <responseDate>2017-08-31T15:46:18Z</responseDate>
  <request verb="ListIdentifiers" resumptionToken=".eJyNyssKgkAUANB_uWuJeSQ-oE1Y4kJFp5FsE6Yi5mjiFOqI_16b1rU-ZwFZlgXYaIMJwcS0TIp0y6BbnWgg8-EhxLX-OOTnROSd4JmbvOI2QSmpjMCRk--kNFANClus2DEiZ2xOvEZzdOLPVMVTQr2RoYPhq2gO7t7nFTR0xeXm9ox3e8FIMYSHaGZ4zy40_z7851M_nyN3oEGfVSXYho41aMZsqCTYy7q-Ac37UW8.DInAyg.mUq2fIytlGW3FOvcwtEwQe-uVJU">https://zenodo.org/oai2d</request>
  <ListIdentifiers>
    <header>
      <identifier>oai:zenodo.org:247787</identifier>
      <datestamp>2017-01-16T19:45:10Z</datestamp>
      <setSpec>user-biosyslit</setSpec>
    </header>
    <header>
      <identifier>oai:zenodo.org:275147</identifier>
      <datestamp>2017-02-08T15:25:48Z</datestamp>
      <setSpec>user-biosyslit</setSpec>
    </header>
    <header>
      <identifier>oai:zenodo.org:275146</identifier>
      <datestamp>2017-02-08T15:25:45Z</datestamp>
      <setSpec>user-biosyslit</setSpec>
    </header>
    <header>
      <identifier>oai:zenodo.org:275153</identifier>
      <datestamp>2017-02-08T15:26:04Z</datestamp>
      <setSpec>user-biosyslit</setSpec>
    </header>
    <header>
      <identifier>oai:zenodo.org:275150</identifier>
      <datestamp>2017-02-08T15:25:56Z</datestamp>
      <setSpec>user-biosyslit</setSpec>
    </header>
    <header>
      <identifier>oai:zenodo.org:285894</identifier>
      <datestamp>2017-02-09T14:48:07Z</datestamp>
      <setSpec>user-biosyslit</setSpec>
    </header>
    <header>
      <identifier>oai:zenodo.org:285900</identifier>
      <datestamp>2017-02-09T14:48:29Z</datestamp>
      <setSpec>user-biosyslit</setSpec>
    </header>
    <header>
      <identifier>oai:zenodo.org:285890</identifier>
      <datestamp>2017-02-09T14:47:58Z</datestamp>
      <setSpec>user-biosyslit</setSpec>
    </header>
    <header>
      <identifier>oai:zenodo.org:285889</identifier>
      <datestamp>2017-02-09T14:47:55Z</datestamp>
      <setSpec>user-biosyslit</setSpec>
    </header>
    <header>
      <identifier>oai:zenodo.org:248644</identifier>
      <datestamp>2017-01-17T07:45:20Z</datestamp>
      <setSpec>user-biosyslit</setSpec>
    </header>
    <header>
      <identifier>oai:zenodo.org:285895</identifier>
      <datestamp>2017-02-09T14:48:10Z</datestamp>
      <setSpec>user-biosyslit</setSpec>
    </header>
    <header>
      <identifier>oai:zenodo.org:285897</identifier>
      <datestamp>2017-02-09T14:48:18Z</datestamp>
      <setSpec>user-biosyslit</setSpec>
    </header>
    <header>
      <identifier>oai:zenodo.org:248645</identifier>
      <datestamp>2017-01-17T07:45:22Z</datestamp>
      <setSpec>user-biosyslit</setSpec>
    </header>
    <header>
      <identifier>oai:zenodo.org:259814</identifier>
      <datestamp>2017-01-25T16:32:33Z</datestamp>
      <setSpec>user-biosyslit</setSpec>
    </header>
    <header>
      <identifier>oai:zenodo.org:259812</identifier>
      <datestamp>2017-01-25T16:32:29Z</datestamp>
      <setSpec>user-biosyslit</setSpec>
    </header>
    <header>
      <identifier>oai:zenodo.org:259813</identifier>
      <datestamp>2017-01-25T16:32:31Z</datestamp>
      <setSpec>user-biosyslit</setSpec>
    </header>
    <header>
      <identifier>oai:zenodo.org:287904</identifier>
      <datestamp>2017-02-09T19:35:00Z</datestamp>
      <setSpec>user-biosyslit</setSpec>
    </header>
    <header>
      <identifier>oai:zenodo.org:287909</identifier>
      <datestamp>2017-02-09T19:35:15Z</datestamp>
      <setSpec>user-biosyslit</setSpec>
    </header>
    <header>
      <identifier>oai:zenodo.org:234423</identifier>
      <datestamp>2017-01-08T19:35:53Z</datestamp>
      <setSpec>user-biosyslit</setSpec>
    </header>
    <header>
      <identifier>oai:zenodo.org:234430</identifier>
      <datestamp>2017-01-08T19:36:20Z</datestamp>
      <setSpec>user-biosyslit</setSpec>
    </header>
    <header>
      <identifier>oai:zenodo.org:234422</identifier>
      <datestamp>2017-01-08T19:35:50Z</datestamp>
      <setSpec>user-biosyslit</setSpec>
    </header>
    <header>
      <identifier>oai:zenodo.org:234425</identifier>
      <datestamp>2017-01-08T19:35:59Z</datestamp>
      <setSpec>user-biosyslit</setSpec>
    </header>
    <header>
      <identifier>oai:zenodo.org:234427</identifier>
      <datestamp>2017-01-08T19:36:11Z</datestamp>
      <setSpec>user-biosyslit</setSpec>
    </header>
    <header>
      <identifier>oai:zenodo.org:234426</identifier>
      <datestamp>2017-01-08T19:36:08Z</datestamp>
      <setSpec>user-biosyslit</setSpec>
    </header>
    <header>
      <identifier>oai:zenodo.org:234429</identifier>
      <datestamp>2017-01-08T19:36:17Z</datestamp>
      <setSpec>user-biosyslit</setSpec>
    </header>
    <header>
      <identifier>oai:zenodo.org:234418</identifier>
      <datestamp>2017-01-08T19:35:39Z</datestamp>
      <setSpec>user-biosyslit</setSpec>
    </header>
    <header>
      <identifier>oai:zenodo.org:234428</identifier>
      <datestamp>2017-01-08T19:36:14Z</datestamp>
      <setSpec>user-biosyslit</setSpec>
    </header>
    <header>
      <identifier>oai:zenodo.org:255401</identifier>
      <datestamp>2017-01-21T12:57:58Z</datestamp>
      <setSpec>user-biosyslit</setSpec>
    </header>
    <header>
      <identifier>oai:zenodo.org:270531</identifier>
      <datestamp>2017-02-07T23:25:43Z</datestamp>
      <setSpec>user-biosyslit</setSpec>
    </header>
    <header>
      <identifier>oai:zenodo.org:255402</identifier>
      <datestamp>2017-01-21T12:57:21Z</datestamp>
      <setSpec>user-biosyslit</setSpec>
    </header>
    <header>
      <identifier>oai:zenodo.org:255411</identifier>
      <datestamp>2017-01-21T12:57:49Z</datestamp>
      <setSpec>user-biosyslit</setSpec>
    </header>
    <header>
      <identifier>oai:zenodo.org:270532</identifier>
      <datestamp>2017-02-07T23:25:39Z</datestamp>
      <setSpec>user-biosyslit</setSpec>
    </header>
    <header>
      <identifier>oai:zenodo.org:255408</identifier>
      <datestamp>2017-01-21T12:57:40Z</datestamp>
      <setSpec>user-biosyslit</setSpec>
    </header>
    <header>
      <identifier>oai:zenodo.org:255403</identifier>
      <datestamp>2017-01-21T12:57:24Z</datestamp>
      <setSpec>user-biosyslit</setSpec>
    </header>
    <header>
      <identifier>oai:zenodo.org:238266</identifier>
      <datestamp>2017-01-11T03:11:09Z</datestamp>
      <setSpec>user-biosyslit</setSpec>
    </header>
    <header>
      <identifier>oai:zenodo.org:238267</identifier>
      <datestamp>2017-01-11T03:11:13Z</datestamp>
      <setSpec>user-biosyslit</setSpec>
    </header>
    <header>
      <identifier>oai:zenodo.org:238273</identifier>
      <datestamp>2017-01-11T03:11:30Z</datestamp>
      <setSpec>user-biosyslit</setSpec>
    </header>
    <header>
      <identifier>oai:zenodo.org:238270</identifier>
      <datestamp>2017-01-11T03:11:22Z</datestamp>
      <setSpec>user-biosyslit</setSpec>
    </header>
    <header>
      <identifier>oai:zenodo.org:238269</identifier>
      <datestamp>2017-01-11T03:11:19Z</datestamp>
      <setSpec>user-biosyslit</setSpec>
    </header>
    <header>
      <identifier>oai:zenodo.org:238268</identifier>
      <datestamp>2017-01-11T03:11:16Z</datestamp>
      <setSpec>user-biosyslit</setSpec>
    </header>
    <header>
      <identifier>oai:zenodo.org:238274</identifier>
      <datestamp>2017-01-11T03:11:35Z</datestamp>
      <setSpec>user-biosyslit</setSpec>
    </header>
    <header>
      <identifier>oai:zenodo.org:238271</identifier>
      <datestamp>2017-01-11T03:11:25Z</datestamp>
      <setSpec>user-biosyslit</setSpec>
    </header>
    <header>
      <identifier>oai:zenodo.org:280155</identifier>
      <datestamp>2017-02-09T02:50:21Z</datestamp>
      <setSpec>user-biosyslit</setSpec>
    </header>
    <header>
      <identifier>oai:zenodo.org:280170</identifier>
      <datestamp>2017-02-09T02:50:10Z</datestamp>
      <setSpec>user-biosyslit</setSpec>
    </header>
    <header>
      <identifier>oai:zenodo.org:280172</identifier>
      <datestamp>2017-02-09T02:50:15Z</datestamp>
      <setSpec>user-biosyslit</setSpec>
    </header>
    <header>
      <identifier>oai:zenodo.org:280174</identifier>
      <datestamp>2017-02-09T02:50:19Z</datestamp>
      <setSpec>user-biosyslit</setSpec>
    </header>
    <header>
      <identifier>oai:zenodo.org:242231</identifier>
      <datestamp>2017-01-13T12:24:54Z</datestamp>
      <setSpec>user-biosyslit</setSpec>
    </header>
    <header>
      <identifier>oai:zenodo.org:242232</identifier>
      <datestamp>2017-01-13T12:25:01Z</datestamp>
      <setSpec>user-biosyslit</setSpec>
    </header>
    <header>
      <identifier>oai:zenodo.org:260553</identifier>
      <datestamp>2017-01-27T21:41:44Z</datestamp>
      <setSpec>user-biosyslit</setSpec>
    </header>
    <header>
      <identifier>oai:zenodo.org:260554</identifier>
      <datestamp>2017-01-27T21:41:46Z</datestamp>
      <setSpec>user-biosyslit</setSpec>
    </header>
    <header>
      <identifier>oai:zenodo.org:287608</identifier>
      <datestamp>2017-02-09T18:43:38Z</datestamp>
      <setSpec>user-biosyslit</setSpec>
    </header>
    <header>
      <identifier>oai:zenodo.org:242245</identifier>
      <datestamp>2017-01-13T12:25:54Z</datestamp>
      <setSpec>user-biosyslit</setSpec>
    </header>
    <header>
      <identifier>oai:zenodo.org:242244</identifier>
      <datestamp>2017-01-13T12:25:50Z</datestamp>
      <setSpec>user-biosyslit</setSpec>
    </header>
    <header>
      <identifier>oai:zenodo.org:242234</identifier>
      <datestamp>2017-01-13T12:25:14Z</datestamp>
      <setSpec>user-biosyslit</setSpec>
    </header>
    <header>
      <identifier>oai:zenodo.org:273246</identifier>
      <datestamp>2017-02-08T08:43:46Z</datestamp>
      <setSpec>user-biosyslit</setSpec>
    </header>
    <header>
      <identifier>oai:zenodo.org:242236</identifier>
      <datestamp>2017-01-13T12:25:21Z</datestamp>
      <setSpec>user-biosyslit</setSpec>
    </header>
    <header>
      <identifier>oai:zenodo.org:242237</identifier>
      <datestamp>2017-01-13T12:25:25Z</datestamp>
      <setSpec>user-biosyslit</setSpec>
    </header>
    <header>
      <identifier>oai:zenodo.org:242242</identifier>
      <datestamp>2017-01-13T12:25:43Z</datestamp>
      <setSpec>user-biosyslit</setSpec>
    </header>
    <header>
      <identifier>oai:zenodo.org:240538</identifier>
      <datestamp>2017-01-12T09:58:05Z</datestamp>
      <setSpec>user-biosyslit</setSpec>
    </header>
    <header>
      <identifier>oai:zenodo.org:240536</identifier>
      <datestamp>2017-01-12T09:57:59Z</datestamp>
      <setSpec>user-biosyslit</setSpec>
    </header>
    <header>
      <identifier>oai:zenodo.org:240535</identifier>
      <datestamp>2017-01-12T09:57:56Z</datestamp>
      <setSpec>user-biosyslit</setSpec>
    </header>
    <header>
      <identifier>oai:zenodo.org:264848</identifier>
      <datestamp>2017-01-31T03:28:28Z</datestamp>
      <setSpec>user-biosyslit</setSpec>
    </header>
    <header>
      <identifier>oai:zenodo.org:264847</identifier>
      <datestamp>2017-01-31T03:28:25Z</datestamp>
      <setSpec>user-biosyslit</setSpec>
    </header>
    <header>
      <identifier>oai:zenodo.org:264844</identifier>
      <datestamp>2017-01-31T03:28:15Z</datestamp>
      <setSpec>user-biosyslit</setSpec>
    </header>
    <header>
      <identifier>oai:zenodo.org:272941</identifier>
      <datestamp>2017-02-08T06:44:35Z</datestamp>
      <setSpec>user-biosyslit</setSpec>
    </header>
    <header>
      <identifier>oai:zenodo.org:272942</identifier>
      <datestamp>2017-02-08T06:44:38Z</datestamp>
      <setSpec>user-biosyslit</setSpec>
    </header>
    <header>
      <identifier>oai:zenodo.org:272940</identifier>
      <datestamp>2017-02-08T06:44:32Z</datestamp>
      <setSpec>user-biosyslit</setSpec>
    </header>
    <header>
      <identifier>oai:zenodo.org:272948</identifier>
      <datestamp>2017-02-08T06:44:54Z</datestamp>
      <setSpec>user-biosyslit</setSpec>
    </header>
    <header>
      <identifier>oai:zenodo.org:272945</identifier>
      <datestamp>2017-02-08T06:44:46Z</datestamp>
      <setSpec>user-biosyslit</setSpec>
    </header>
    <header>
      <identifier>oai:zenodo.org:272937</identifier>
      <datestamp>2017-02-08T06:44:23Z</datestamp>
      <setSpec>user-biosyslit</setSpec>
    </header>
    <header>
      <identifier>oai:zenodo.org:285629</identifier>
      <datestamp>2017-02-09T14:01:33Z</datestamp>
      <setSpec>user-biosyslit</setSpec>
    </header>
    <header>
      <identifier>oai:zenodo.org:285630</identifier>
      <datestamp>2017-02-09T14:01:36Z</datestamp>
      <setSpec>user-biosyslit</setSpec>
    </header>
    <header>
      <identifier>oai:zenodo.org:275582</identifier>
      <datestamp>2017-02-08T16:43:24Z</datestamp>
      <setSpec>user-biosyslit</setSpec>
    </header>
    <header>
      <identifier>oai:zenodo.org:275581</identifier>
      <datestamp>2017-02-08T16:43:21Z</datestamp>
      <setSpec>user-biosyslit</setSpec>
    </header>
    <header>
      <identifier>oai:zenodo.org:246329</identifier>
      <datestamp>2017-01-16T01:00:06Z</datestamp>
      <setSpec>user-biosyslit</setSpec>
    </header>
    <header>
      <identifier>oai:zenodo.org:275201</identifier>
      <datestamp>2017-02-08T15:38:43Z</datestamp>
      <setSpec>user-biosyslit</setSpec>
    </header>
    <header>
      <identifier>oai:zenodo.org:251338</identifier>
      <datestamp>2017-01-18T23:09:40Z</datestamp>
      <setSpec>user-biosyslit</setSpec>
    </header>
    <header>
      <identifier>oai:zenodo.org:275202</identifier>
      <datestamp>2017-02-08T15:38:45Z</datestamp>
      <setSpec>user-biosyslit</setSpec>
    </header>
    <header>
      <identifier>oai:zenodo.org:251337</identifier>
      <datestamp>2017-01-18T23:15:25Z</datestamp>
      <setSpec>user-biosyslit</setSpec>
    </header>
    <header>
      <identifier>oai:zenodo.org:251438</identifier>
      <datestamp>2017-01-18T23:14:29Z</datestamp>
      <setSpec>user-biosyslit</setSpec>
    </header>
    <header>
      <identifier>oai:zenodo.org:251436</identifier>
      <datestamp>2017-01-18T23:14:24Z</datestamp>
      <setSpec>user-biosyslit</setSpec>
    </header>
    <header>
      <identifier>oai:zenodo.org:251450</identifier>
      <datestamp>2017-01-18T23:15:03Z</datestamp>
      <setSpec>user-biosyslit</setSpec>
    </header>
    <header>
      <identifier>oai:zenodo.org:251455</identifier>
      <datestamp>2017-01-18T23:15:23Z</datestamp>
      <setSpec>user-biosyslit</setSpec>
    </header>
    <header>
      <identifier>oai:zenodo.org:251451</identifier>
      <datestamp>2017-01-18T23:15:06Z</datestamp>
      <setSpec>user-biosyslit</setSpec>
    </header>
    <header>
      <identifier>oai:zenodo.org:251448</identifier>
      <datestamp>2017-01-18T23:14:55Z</datestamp>
      <setSpec>user-biosyslit</setSpec>
    </header>
    <header>
      <identifier>oai:zenodo.org:251447</identifier>
      <datestamp>2017-01-18T23:14:52Z</datestamp>
      <setSpec>user-biosyslit</setSpec>
    </header>
    <header>
      <identifier>oai:zenodo.org:288324</identifier>
      <datestamp>2017-02-09T20:40:07Z</datestamp>
      <setSpec>user-biosyslit</setSpec>
    </header>
    <header>
      <identifier>oai:zenodo.org:288332</identifier>
      <datestamp>2017-02-09T20:40:00Z</datestamp>
      <setSpec>user-biosyslit</setSpec>
    </header>
    <header>
      <identifier>oai:zenodo.org:288334</identifier>
      <datestamp>2017-02-09T20:40:04Z</datestamp>
      <setSpec>user-biosyslit</setSpec>
    </header>
    <header>
      <identifier>oai:zenodo.org:288333</identifier>
      <datestamp>2017-02-09T20:40:02Z</datestamp>
      <setSpec>user-biosyslit</setSpec>
    </header>
    <header>
      <identifier>oai:zenodo.org:288335</identifier>
      <datestamp>2017-02-09T20:40:06Z</datestamp>
      <setSpec>user-biosyslit</setSpec>
    </header>
    <header>
      <identifier>oai:zenodo.org:267343</identifier>
      <datestamp>2017-02-02T00:34:51Z</datestamp>
      <setSpec>user-biosyslit</setSpec>
    </header>
    <header>
      <identifier>oai:zenodo.org:267340</identifier>
      <datestamp>2017-02-02T00:34:40Z</datestamp>
      <setSpec>user-biosyslit</setSpec>
    </header>
    <header>
      <identifier>oai:zenodo.org:267341</identifier>
      <datestamp>2017-02-02T00:34:44Z</datestamp>
      <setSpec>user-biosyslit</setSpec>
    </header>
    <header>
      <identifier>oai:zenodo.org:267336</identifier>
      <datestamp>2017-02-02T00:34:25Z</datestamp>
      <setSpec>user-biosyslit</setSpec>
    </header>
    <header>
      <identifier>oai:zenodo.org:267342</identifier>
      <datestamp>2017-02-02T00:34:48Z</datestamp>
      <setSpec>user-biosyslit</setSpec>
    </header>
    <header>
      <identifier>oai:zenodo.org:267339</identifier>
      <datestamp>2017-02-02T00:34:37Z</datestamp>
      <setSpec>user-biosyslit</setSpec>
    </header>
    <header>
      <identifier>oai:zenodo.org:267338</identifier>
      <datestamp>2017-02-02T00:34:34Z</datestamp>
      <setSpec>user-biosyslit</setSpec>
    </header>
    <header>
      <identifier>oai:zenodo.org:267335</identifier>
      <datestamp>2017-02-02T00:35:19Z</datestamp>
      <setSpec>user-biosyslit</setSpec>
    </header>
    <header>
      <identifier>oai:zenodo.org:267347</identifier>
      <datestamp>2017-02-02T00:35:02Z</datestamp>
      <setSpec>user-biosyslit</setSpec>
    </header>
    <resumptionToken expirationDate="2017-08-31T15:48:18Z" cursor="75000" completeListSize="77796">.eJyNyk0LgjAYAOD_8p4l9qHMhC5hiYcUXRvpJUxFrFXiCnXhf69L5zo_zwt0XVfgoYVNHIps23ExXRLMXAt02d-VOrYfhvIgVXlTogjkM71KlJGGRb4ed35GI3NB8RUbvk3IAbujaNGU7MUjM-koaThwtGE7k0zROfy8isaByk9Bx8VtrTip-niTTByveU7L78N_PvPz-XoFFnRFU4PHHGLBZSj6RoP3muc3mI9ROw.DInAyg.6mJiwLrfaVDtuYCIKC0584MSv38</resumptionToken>
  </ListIdentifiers>
</OAI-PMH>
