<?xml version='1.0' encoding='UTF-8'?>
<?xml-stylesheet type="text/xsl" href="/static/xsl/oai2.v1.0.xsl"?>
<OAI-PMH xmlns="http://www.openarchives.org/OAI/2.0/" xmlns:xsi="http://www.w3.org/2001/XMLSchema-instance" xsi:schemaLocation="http://www.openarchives.org/OAI/2.0/ http://www.openarchives.org/OAI/2.0/OAI-PMH.xsd">
  <responseDate>2017-08-31T15:41:56Z</responseDate>
  <request verb="ListIdentifiers" resumptionToken=".eJyNz00PQzAAgOH_0rMsrTIfyS7CxAGhI-OyWImYMtEtqPjvc9l5O7_P5V0Br6oSmPBwNLCuGDrWDayq0MAS4HR8MnZr9gzoNWW0Z0nhpu-4S2Em11pg89m3MxyIFoYdEuQcyVekz0kDl-iSvDIRzyn2JgIdzRfREjy83ZU4dFl-dweS9BYjcjmGTrQQZJEc069Dfzrx09n8BCQwFHUFTKTsV-1UjDUH5rptH7CTUU8.DIm_xA.O_Gn25qS5sOJycmdHys4QpWOfak">https://zenodo.org/oai2d</request>
  <ListIdentifiers>
    <header>
      <identifier>oai:zenodo.org:232182</identifier>
      <datestamp>2017-01-06T12:56:42Z</datestamp>
      <setSpec>user-biosyslit</setSpec>
    </header>
    <header>
      <identifier>oai:zenodo.org:232105</identifier>
      <datestamp>2017-01-06T11:12:44Z</datestamp>
      <setSpec>user-biosyslit</setSpec>
    </header>
    <header>
      <identifier>oai:zenodo.org:232257</identifier>
      <datestamp>2017-01-06T14:49:33Z</datestamp>
      <setSpec>user-biosyslit</setSpec>
    </header>
    <header>
      <identifier>oai:zenodo.org:232564</identifier>
      <datestamp>2017-01-06T19:50:25Z</datestamp>
      <setSpec>user-biosyslit</setSpec>
    </header>
    <header>
      <identifier>oai:zenodo.org:232065</identifier>
      <datestamp>2017-01-06T10:48:17Z</datestamp>
      <setSpec>user-biosyslit</setSpec>
    </header>
    <header>
      <identifier>oai:zenodo.org:232226</identifier>
      <datestamp>2017-01-06T14:00:19Z</datestamp>
      <setSpec>user-biosyslit</setSpec>
    </header>
    <header>
      <identifier>oai:zenodo.org:232422</identifier>
      <datestamp>2017-01-06T17:19:24Z</datestamp>
      <setSpec>user-biosyslit</setSpec>
    </header>
    <header>
      <identifier>oai:zenodo.org:232470</identifier>
      <datestamp>2017-01-06T18:12:47Z</datestamp>
      <setSpec>user-biosyslit</setSpec>
    </header>
    <header>
      <identifier>oai:zenodo.org:232265</identifier>
      <datestamp>2017-01-06T14:50:32Z</datestamp>
      <setSpec>user-biosyslit</setSpec>
    </header>
    <header>
      <identifier>oai:zenodo.org:234004</identifier>
      <datestamp>2017-01-08T13:59:27Z</datestamp>
      <setSpec>user-biosyslit</setSpec>
    </header>
    <header>
      <identifier>oai:zenodo.org:232679</identifier>
      <datestamp>2017-01-06T21:31:36Z</datestamp>
      <setSpec>user-biosyslit</setSpec>
    </header>
    <header>
      <identifier>oai:zenodo.org:233330</identifier>
      <datestamp>2017-01-08T03:33:18Z</datestamp>
      <setSpec>user-biosyslit</setSpec>
    </header>
    <header>
      <identifier>oai:zenodo.org:232454</identifier>
      <datestamp>2017-01-06T17:57:36Z</datestamp>
      <setSpec>user-biosyslit</setSpec>
    </header>
    <header>
      <identifier>oai:zenodo.org:232438</identifier>
      <datestamp>2017-01-06T17:35:14Z</datestamp>
      <setSpec>user-biosyslit</setSpec>
    </header>
    <header>
      <identifier>oai:zenodo.org:232705</identifier>
      <datestamp>2017-01-06T21:55:15Z</datestamp>
      <setSpec>user-biosyslit</setSpec>
    </header>
    <header>
      <identifier>oai:zenodo.org:233258</identifier>
      <datestamp>2017-01-08T02:35:38Z</datestamp>
      <setSpec>user-biosyslit</setSpec>
    </header>
    <header>
      <identifier>oai:zenodo.org:233375</identifier>
      <datestamp>2017-01-08T04:02:45Z</datestamp>
      <setSpec>user-biosyslit</setSpec>
    </header>
    <header>
      <identifier>oai:zenodo.org:234030</identifier>
      <datestamp>2017-01-08T14:13:11Z</datestamp>
      <setSpec>user-biosyslit</setSpec>
    </header>
    <header>
      <identifier>oai:zenodo.org:270960</identifier>
      <datestamp>2017-02-08T00:20:30Z</datestamp>
      <setSpec>user-biosyslit</setSpec>
    </header>
    <header>
      <identifier>oai:zenodo.org:234832</identifier>
      <datestamp>2017-01-09T02:39:47Z</datestamp>
      <setSpec>user-biosyslit</setSpec>
    </header>
    <header>
      <identifier>oai:zenodo.org:233724</identifier>
      <datestamp>2017-01-08T10:47:00Z</datestamp>
      <setSpec>user-biosyslit</setSpec>
    </header>
    <header>
      <identifier>oai:zenodo.org:234044</identifier>
      <datestamp>2017-01-08T14:13:49Z</datestamp>
      <setSpec>user-biosyslit</setSpec>
    </header>
    <header>
      <identifier>oai:zenodo.org:235419</identifier>
      <datestamp>2017-01-09T09:57:59Z</datestamp>
      <setSpec>user-biosyslit</setSpec>
    </header>
    <header>
      <identifier>oai:zenodo.org:234959</identifier>
      <datestamp>2017-01-09T03:57:59Z</datestamp>
      <setSpec>user-biosyslit</setSpec>
    </header>
    <header>
      <identifier>oai:zenodo.org:232213</identifier>
      <datestamp>2017-01-07T12:29:33Z</datestamp>
      <setSpec>openaire</setSpec>
      <setSpec>user-biosyslit</setSpec>
    </header>
    <header>
      <identifier>oai:zenodo.org:232699</identifier>
      <datestamp>2017-01-06T21:46:03Z</datestamp>
      <setSpec>user-biosyslit</setSpec>
    </header>
    <header>
      <identifier>oai:zenodo.org:232410</identifier>
      <datestamp>2017-01-06T17:08:49Z</datestamp>
      <setSpec>user-biosyslit</setSpec>
    </header>
    <header>
      <identifier>oai:zenodo.org:232647</identifier>
      <datestamp>2017-01-06T21:04:32Z</datestamp>
      <setSpec>user-biosyslit</setSpec>
    </header>
    <header>
      <identifier>oai:zenodo.org:233050</identifier>
      <datestamp>2017-01-07T23:19:23Z</datestamp>
      <setSpec>user-biosyslit</setSpec>
    </header>
    <header>
      <identifier>oai:zenodo.org:233102</identifier>
      <datestamp>2017-01-08T00:16:09Z</datestamp>
      <setSpec>user-biosyslit</setSpec>
    </header>
    <header>
      <identifier>oai:zenodo.org:232704</identifier>
      <datestamp>2017-01-06T21:55:11Z</datestamp>
      <setSpec>user-biosyslit</setSpec>
    </header>
    <header>
      <identifier>oai:zenodo.org:233315</identifier>
      <datestamp>2017-01-08T03:23:31Z</datestamp>
      <setSpec>user-biosyslit</setSpec>
    </header>
    <header>
      <identifier>oai:zenodo.org:234473</identifier>
      <datestamp>2017-01-08T20:30:18Z</datestamp>
      <setSpec>user-biosyslit</setSpec>
    </header>
    <header>
      <identifier>oai:zenodo.org:232684</identifier>
      <datestamp>2017-01-06T21:37:42Z</datestamp>
      <setSpec>user-biosyslit</setSpec>
    </header>
    <header>
      <identifier>oai:zenodo.org:233153</identifier>
      <datestamp>2017-01-08T01:26:57Z</datestamp>
      <setSpec>user-biosyslit</setSpec>
    </header>
    <header>
      <identifier>oai:zenodo.org:233771</identifier>
      <datestamp>2017-01-08T11:34:38Z</datestamp>
      <setSpec>user-biosyslit</setSpec>
    </header>
    <header>
      <identifier>oai:zenodo.org:232802</identifier>
      <datestamp>2017-01-06T23:13:52Z</datestamp>
      <setSpec>user-biosyslit</setSpec>
    </header>
    <header>
      <identifier>oai:zenodo.org:232718</identifier>
      <datestamp>2017-01-06T22:06:37Z</datestamp>
      <setSpec>user-biosyslit</setSpec>
    </header>
    <header>
      <identifier>oai:zenodo.org:233098</identifier>
      <datestamp>2017-01-08T00:16:11Z</datestamp>
      <setSpec>user-biosyslit</setSpec>
    </header>
    <header>
      <identifier>oai:zenodo.org:233189</identifier>
      <datestamp>2017-01-08T01:57:42Z</datestamp>
      <setSpec>user-biosyslit</setSpec>
    </header>
    <header>
      <identifier>oai:zenodo.org:233331</identifier>
      <datestamp>2017-01-08T03:33:23Z</datestamp>
      <setSpec>user-biosyslit</setSpec>
    </header>
    <header>
      <identifier>oai:zenodo.org:288802</identifier>
      <datestamp>2017-02-09T21:53:37Z</datestamp>
      <setSpec>user-biosyslit</setSpec>
    </header>
    <header>
      <identifier>oai:zenodo.org:234041</identifier>
      <datestamp>2017-01-08T14:13:40Z</datestamp>
      <setSpec>user-biosyslit</setSpec>
    </header>
    <header>
      <identifier>oai:zenodo.org:235082</identifier>
      <datestamp>2017-01-09T05:26:54Z</datestamp>
      <setSpec>user-biosyslit</setSpec>
    </header>
    <header>
      <identifier>oai:zenodo.org:233660</identifier>
      <datestamp>2017-01-08T09:25:50Z</datestamp>
      <setSpec>user-biosyslit</setSpec>
    </header>
    <header>
      <identifier>oai:zenodo.org:270799</identifier>
      <datestamp>2017-02-07T23:56:41Z</datestamp>
      <setSpec>user-biosyslit</setSpec>
    </header>
    <header>
      <identifier>oai:zenodo.org:288358</identifier>
      <datestamp>2017-02-09T20:44:03Z</datestamp>
      <setSpec>user-biosyslit</setSpec>
    </header>
    <header>
      <identifier>oai:zenodo.org:234178</identifier>
      <datestamp>2017-01-08T15:55:51Z</datestamp>
      <setSpec>user-biosyslit</setSpec>
    </header>
    <header>
      <identifier>oai:zenodo.org:270789</identifier>
      <datestamp>2017-02-07T23:56:17Z</datestamp>
      <setSpec>user-biosyslit</setSpec>
    </header>
    <header>
      <identifier>oai:zenodo.org:234332</identifier>
      <datestamp>2017-01-08T18:30:19Z</datestamp>
      <setSpec>user-biosyslit</setSpec>
    </header>
    <header>
      <identifier>oai:zenodo.org:235014</identifier>
      <datestamp>2017-01-09T04:45:44Z</datestamp>
      <setSpec>user-biosyslit</setSpec>
    </header>
    <header>
      <identifier>oai:zenodo.org:234873</identifier>
      <datestamp>2017-01-09T02:58:10Z</datestamp>
      <setSpec>user-biosyslit</setSpec>
    </header>
    <header>
      <identifier>oai:zenodo.org:234886</identifier>
      <datestamp>2017-01-09T03:09:27Z</datestamp>
      <setSpec>user-biosyslit</setSpec>
    </header>
    <header>
      <identifier>oai:zenodo.org:235211</identifier>
      <datestamp>2017-01-09T06:43:30Z</datestamp>
      <setSpec>user-biosyslit</setSpec>
    </header>
    <header>
      <identifier>oai:zenodo.org:235333</identifier>
      <datestamp>2017-01-09T08:59:21Z</datestamp>
      <setSpec>user-biosyslit</setSpec>
    </header>
    <header>
      <identifier>oai:zenodo.org:192631</identifier>
      <datestamp>2017-01-09T10:27:04Z</datestamp>
      <setSpec>user-biosyslit</setSpec>
    </header>
    <header>
      <identifier>oai:zenodo.org:288800</identifier>
      <datestamp>2017-02-09T21:53:31Z</datestamp>
      <setSpec>user-biosyslit</setSpec>
    </header>
    <header>
      <identifier>oai:zenodo.org:236136</identifier>
      <datestamp>2017-01-09T18:46:55Z</datestamp>
      <setSpec>user-biosyslit</setSpec>
    </header>
    <header>
      <identifier>oai:zenodo.org:236448</identifier>
      <datestamp>2017-01-10T00:15:56Z</datestamp>
      <setSpec>user-biosyslit</setSpec>
    </header>
    <header>
      <identifier>oai:zenodo.org:236564</identifier>
      <datestamp>2017-01-10T01:31:40Z</datestamp>
      <setSpec>user-biosyslit</setSpec>
    </header>
    <header>
      <identifier>oai:zenodo.org:236603</identifier>
      <datestamp>2017-01-10T01:59:22Z</datestamp>
      <setSpec>user-biosyslit</setSpec>
    </header>
    <header>
      <identifier>oai:zenodo.org:235331</identifier>
      <datestamp>2017-01-09T08:50:29Z</datestamp>
      <setSpec>user-biosyslit</setSpec>
    </header>
    <header>
      <identifier>oai:zenodo.org:236663</identifier>
      <datestamp>2017-01-10T02:35:21Z</datestamp>
      <setSpec>user-biosyslit</setSpec>
    </header>
    <header>
      <identifier>oai:zenodo.org:235539</identifier>
      <datestamp>2017-01-09T11:34:15Z</datestamp>
      <setSpec>user-biosyslit</setSpec>
    </header>
    <header>
      <identifier>oai:zenodo.org:235952</identifier>
      <datestamp>2017-01-09T17:09:35Z</datestamp>
      <setSpec>user-biosyslit</setSpec>
    </header>
    <header>
      <identifier>oai:zenodo.org:270756</identifier>
      <datestamp>2017-02-07T23:55:02Z</datestamp>
      <setSpec>user-biosyslit</setSpec>
    </header>
    <header>
      <identifier>oai:zenodo.org:237333</identifier>
      <datestamp>2017-01-10T14:24:01Z</datestamp>
      <setSpec>user-biosyslit</setSpec>
    </header>
    <header>
      <identifier>oai:zenodo.org:236992</identifier>
      <datestamp>2017-01-10T09:17:35Z</datestamp>
      <setSpec>user-biosyslit</setSpec>
    </header>
    <header>
      <identifier>oai:zenodo.org:236088</identifier>
      <datestamp>2017-01-09T18:31:55Z</datestamp>
      <setSpec>user-biosyslit</setSpec>
    </header>
    <header>
      <identifier>oai:zenodo.org:236110</identifier>
      <datestamp>2017-01-09T18:33:10Z</datestamp>
      <setSpec>user-biosyslit</setSpec>
    </header>
    <header>
      <identifier>oai:zenodo.org:270875</identifier>
      <datestamp>2017-02-08T00:08:25Z</datestamp>
      <setSpec>user-biosyslit</setSpec>
    </header>
    <header>
      <identifier>oai:zenodo.org:237921</identifier>
      <datestamp>2017-01-10T22:25:40Z</datestamp>
      <setSpec>user-biosyslit</setSpec>
    </header>
    <header>
      <identifier>oai:zenodo.org:289525</identifier>
      <datestamp>2017-02-09T23:44:33Z</datestamp>
      <setSpec>user-biosyslit</setSpec>
    </header>
    <header>
      <identifier>oai:zenodo.org:237195</identifier>
      <datestamp>2017-01-10T11:56:56Z</datestamp>
      <setSpec>user-biosyslit</setSpec>
    </header>
    <header>
      <identifier>oai:zenodo.org:288630</identifier>
      <datestamp>2017-02-09T21:35:33Z</datestamp>
      <setSpec>user-biosyslit</setSpec>
    </header>
    <header>
      <identifier>oai:zenodo.org:237278</identifier>
      <datestamp>2017-01-10T13:56:14Z</datestamp>
      <setSpec>user-biosyslit</setSpec>
    </header>
    <header>
      <identifier>oai:zenodo.org:239727</identifier>
      <datestamp>2017-01-12T00:01:39Z</datestamp>
      <setSpec>user-biosyslit</setSpec>
    </header>
    <header>
      <identifier>oai:zenodo.org:237203</identifier>
      <datestamp>2017-01-10T12:03:49Z</datestamp>
      <setSpec>user-biosyslit</setSpec>
    </header>
    <header>
      <identifier>oai:zenodo.org:289537</identifier>
      <datestamp>2017-02-09T23:48:45Z</datestamp>
      <setSpec>user-biosyslit</setSpec>
    </header>
    <header>
      <identifier>oai:zenodo.org:237518</identifier>
      <datestamp>2017-01-10T16:29:42Z</datestamp>
      <setSpec>user-biosyslit</setSpec>
    </header>
    <header>
      <identifier>oai:zenodo.org:237192</identifier>
      <datestamp>2017-01-10T11:56:29Z</datestamp>
      <setSpec>user-biosyslit</setSpec>
    </header>
    <header>
      <identifier>oai:zenodo.org:238300</identifier>
      <datestamp>2017-01-11T03:34:30Z</datestamp>
      <setSpec>user-biosyslit</setSpec>
    </header>
    <header>
      <identifier>oai:zenodo.org:237897</identifier>
      <datestamp>2017-01-10T22:07:04Z</datestamp>
      <setSpec>user-biosyslit</setSpec>
    </header>
    <header>
      <identifier>oai:zenodo.org:270981</identifier>
      <datestamp>2017-02-08T00:24:57Z</datestamp>
      <setSpec>user-biosyslit</setSpec>
    </header>
    <header>
      <identifier>oai:zenodo.org:271911</identifier>
      <datestamp>2017-02-08T03:01:07Z</datestamp>
      <setSpec>user-biosyslit</setSpec>
    </header>
    <header>
      <identifier>oai:zenodo.org:227891</identifier>
      <datestamp>2017-01-02T06:21:07Z</datestamp>
      <setSpec>user-biosyslit</setSpec>
    </header>
    <header>
      <identifier>oai:zenodo.org:228540</identifier>
      <datestamp>2017-01-03T01:14:44Z</datestamp>
      <setSpec>user-biosyslit</setSpec>
    </header>
    <header>
      <identifier>oai:zenodo.org:228979</identifier>
      <datestamp>2017-01-03T07:59:09Z</datestamp>
      <setSpec>user-biosyslit</setSpec>
    </header>
    <header>
      <identifier>oai:zenodo.org:275515</identifier>
      <datestamp>2017-02-08T16:36:43Z</datestamp>
      <setSpec>user-biosyslit</setSpec>
    </header>
    <header>
      <identifier>oai:zenodo.org:230269</identifier>
      <datestamp>2017-01-04T22:03:36Z</datestamp>
      <setSpec>user-biosyslit</setSpec>
    </header>
    <header>
      <identifier>oai:zenodo.org:227952</identifier>
      <datestamp>2017-01-02T07:30:44Z</datestamp>
      <setSpec>user-biosyslit</setSpec>
    </header>
    <header>
      <identifier>oai:zenodo.org:227957</identifier>
      <datestamp>2017-01-02T07:51:00Z</datestamp>
      <setSpec>user-biosyslit</setSpec>
    </header>
    <header>
      <identifier>oai:zenodo.org:229239</identifier>
      <datestamp>2017-01-03T13:13:16Z</datestamp>
      <setSpec>user-biosyslit</setSpec>
    </header>
    <header>
      <identifier>oai:zenodo.org:230217</identifier>
      <datestamp>2017-01-04T21:16:32Z</datestamp>
      <setSpec>user-biosyslit</setSpec>
    </header>
    <header>
      <identifier>oai:zenodo.org:228973</identifier>
      <datestamp>2017-01-03T07:53:39Z</datestamp>
      <setSpec>user-biosyslit</setSpec>
    </header>
    <header>
      <identifier>oai:zenodo.org:230093</identifier>
      <datestamp>2017-01-04T19:11:52Z</datestamp>
      <setSpec>user-biosyslit</setSpec>
    </header>
    <header>
      <identifier>oai:zenodo.org:229470</identifier>
      <datestamp>2017-01-03T16:33:39Z</datestamp>
      <setSpec>user-biosyslit</setSpec>
    </header>
    <header>
      <identifier>oai:zenodo.org:230722</identifier>
      <datestamp>2017-01-05T07:35:34Z</datestamp>
      <setSpec>user-biosyslit</setSpec>
    </header>
    <header>
      <identifier>oai:zenodo.org:229302</identifier>
      <datestamp>2017-01-03T14:01:07Z</datestamp>
      <setSpec>user-biosyslit</setSpec>
    </header>
    <header>
      <identifier>oai:zenodo.org:231595</identifier>
      <datestamp>2017-01-06T04:43:32Z</datestamp>
      <setSpec>user-biosyslit</setSpec>
    </header>
    <resumptionToken expirationDate="2017-08-31T15:43:56Z" cursor="14200" completeListSize="77796">.eJyNysEKgjAYAOB3-c8Sm9M0oUtY4kFlLUd6CVMRc5q4Il347nnpXOfve4MsywIctCIGQtZmbWET2ybaYFMDmQ93IS714pCfucg7EWcefx5bjhK9skJXjoGbkFA1KGqxYgeqn7E9xjWa6Cl-JOo4cuK_GNpbgaJTePOXV5DIE-nV61nc7QTTiyHa04nhHUtJ_n34z6d-PlduQYM-q0pwsGFo0LyyoZLgvOf5A83WUWs.DIm_xA.lsVwf0kiHECegMdVa5zsfKYdl_A</resumptionToken>
  </ListIdentifiers>
</OAI-PMH>
