<?xml version='1.0' encoding='UTF-8'?>
<?xml-stylesheet type="text/xsl" href="/static/xsl/oai2.v1.0.xsl"?>
<OAI-PMH xmlns="http://www.openarchives.org/OAI/2.0/" xmlns:xsi="http://www.w3.org/2001/XMLSchema-instance" xsi:schemaLocation="http://www.openarchives.org/OAI/2.0/ http://www.openarchives.org/OAI/2.0/OAI-PMH.xsd">
  <responseDate>2017-08-31T15:46:25Z</responseDate>
  <request verb="ListIdentifiers" resumptionToken=".eJyNyrsOgjAUANB_uTMxfQhVEhcCEgchUCHAYrAQotZHqAYo4d9lcdb5nBFUXVdgo8USYUTMFTEZMy1K1qYBSrQPKY_n2UFkqRR3mZR--o5vKcpJwwJX9Xs3p4G-ovCGNd9GJMOrPjmjITokr1zHfUp3HUce2-toCC67-VU09GVx8p88uTuSk6oNvWjg2OEFFd-H_3z653PVBgx4lk0NNrMsA65d2TYK7HGaPs4bUXU.DInA0Q.YrrYAEygwO9tOGma8GqrS333XMs">https://zenodo.org/oai2d</request>
  <ListIdentifiers>
    <header>
      <identifier>oai:zenodo.org:830986</identifier>
      <datestamp>2017-07-17T17:20:56Z</datestamp>
      <setSpec>user-biosyslit</setSpec>
    </header>
    <header>
      <identifier>oai:zenodo.org:831006</identifier>
      <datestamp>2017-07-17T17:21:07Z</datestamp>
      <setSpec>user-biosyslit</setSpec>
    </header>
    <header>
      <identifier>oai:zenodo.org:830978</identifier>
      <datestamp>2017-07-17T17:19:55Z</datestamp>
      <setSpec>user-biosyslit</setSpec>
    </header>
    <header>
      <identifier>oai:zenodo.org:830972</identifier>
      <datestamp>2017-07-17T17:19:43Z</datestamp>
      <setSpec>user-biosyslit</setSpec>
    </header>
    <header>
      <identifier>oai:zenodo.org:830974</identifier>
      <datestamp>2017-07-17T17:19:47Z</datestamp>
      <setSpec>user-biosyslit</setSpec>
    </header>
    <header>
      <identifier>oai:zenodo.org:830998</identifier>
      <datestamp>2017-07-17T17:20:41Z</datestamp>
      <setSpec>user-biosyslit</setSpec>
    </header>
    <header>
      <identifier>oai:zenodo.org:830996</identifier>
      <datestamp>2017-07-17T17:20:37Z</datestamp>
      <setSpec>user-biosyslit</setSpec>
    </header>
    <header>
      <identifier>oai:zenodo.org:831002</identifier>
      <datestamp>2017-07-17T17:20:49Z</datestamp>
      <setSpec>user-biosyslit</setSpec>
    </header>
    <header>
      <identifier>oai:zenodo.org:831540</identifier>
      <datestamp>2017-07-18T13:09:34Z</datestamp>
      <setSpec>user-biosyslit</setSpec>
    </header>
    <header>
      <identifier>oai:zenodo.org:831548</identifier>
      <datestamp>2017-07-18T13:08:54Z</datestamp>
      <setSpec>user-biosyslit</setSpec>
    </header>
    <header>
      <identifier>oai:zenodo.org:831568</identifier>
      <datestamp>2017-07-18T13:09:30Z</datestamp>
      <setSpec>user-biosyslit</setSpec>
    </header>
    <header>
      <identifier>oai:zenodo.org:831554</identifier>
      <datestamp>2017-07-18T13:09:06Z</datestamp>
      <setSpec>user-biosyslit</setSpec>
    </header>
    <header>
      <identifier>oai:zenodo.org:831552</identifier>
      <datestamp>2017-07-18T13:09:03Z</datestamp>
      <setSpec>user-biosyslit</setSpec>
    </header>
    <header>
      <identifier>oai:zenodo.org:831860</identifier>
      <datestamp>2017-07-19T00:00:09Z</datestamp>
      <setSpec>user-biosyslit</setSpec>
    </header>
    <header>
      <identifier>oai:zenodo.org:831892</identifier>
      <datestamp>2017-07-19T00:50:19Z</datestamp>
      <setSpec>user-biosyslit</setSpec>
    </header>
    <header>
      <identifier>oai:zenodo.org:831864</identifier>
      <datestamp>2017-07-18T23:59:58Z</datestamp>
      <setSpec>user-biosyslit</setSpec>
    </header>
    <header>
      <identifier>oai:zenodo.org:831876</identifier>
      <datestamp>2017-07-19T00:26:01Z</datestamp>
      <setSpec>user-biosyslit</setSpec>
    </header>
    <header>
      <identifier>oai:zenodo.org:831898</identifier>
      <datestamp>2017-07-19T00:50:31Z</datestamp>
      <setSpec>user-biosyslit</setSpec>
    </header>
    <header>
      <identifier>oai:zenodo.org:831888</identifier>
      <datestamp>2017-07-19T00:50:34Z</datestamp>
      <setSpec>user-biosyslit</setSpec>
    </header>
    <header>
      <identifier>oai:zenodo.org:830672</identifier>
      <datestamp>2017-07-17T17:08:23Z</datestamp>
      <setSpec>user-biosyslit</setSpec>
    </header>
    <header>
      <identifier>oai:zenodo.org:830656</identifier>
      <datestamp>2017-07-17T17:07:48Z</datestamp>
      <setSpec>user-biosyslit</setSpec>
    </header>
    <header>
      <identifier>oai:zenodo.org:830650</identifier>
      <datestamp>2017-07-17T17:07:33Z</datestamp>
      <setSpec>user-biosyslit</setSpec>
    </header>
    <header>
      <identifier>oai:zenodo.org:830652</identifier>
      <datestamp>2017-07-17T17:07:37Z</datestamp>
      <setSpec>user-biosyslit</setSpec>
    </header>
    <header>
      <identifier>oai:zenodo.org:830662</identifier>
      <datestamp>2017-07-17T17:07:58Z</datestamp>
      <setSpec>user-biosyslit</setSpec>
    </header>
    <header>
      <identifier>oai:zenodo.org:830658</identifier>
      <datestamp>2017-07-17T17:07:52Z</datestamp>
      <setSpec>user-biosyslit</setSpec>
    </header>
    <header>
      <identifier>oai:zenodo.org:830664</identifier>
      <datestamp>2017-07-17T17:08:07Z</datestamp>
      <setSpec>user-biosyslit</setSpec>
    </header>
    <header>
      <identifier>oai:zenodo.org:830802</identifier>
      <datestamp>2017-07-17T17:13:14Z</datestamp>
      <setSpec>user-biosyslit</setSpec>
    </header>
    <header>
      <identifier>oai:zenodo.org:830800</identifier>
      <datestamp>2017-07-17T17:13:10Z</datestamp>
      <setSpec>user-biosyslit</setSpec>
    </header>
    <header>
      <identifier>oai:zenodo.org:830798</identifier>
      <datestamp>2017-07-17T17:13:07Z</datestamp>
      <setSpec>user-biosyslit</setSpec>
    </header>
    <header>
      <identifier>oai:zenodo.org:830788</identifier>
      <datestamp>2017-07-17T17:12:46Z</datestamp>
      <setSpec>user-biosyslit</setSpec>
    </header>
    <header>
      <identifier>oai:zenodo.org:830806</identifier>
      <datestamp>2017-07-17T17:13:22Z</datestamp>
      <setSpec>user-biosyslit</setSpec>
    </header>
    <header>
      <identifier>oai:zenodo.org:830790</identifier>
      <datestamp>2017-07-17T17:12:51Z</datestamp>
      <setSpec>user-biosyslit</setSpec>
    </header>
    <header>
      <identifier>oai:zenodo.org:830784</identifier>
      <datestamp>2017-07-17T17:12:34Z</datestamp>
      <setSpec>user-biosyslit</setSpec>
    </header>
    <header>
      <identifier>oai:zenodo.org:830792</identifier>
      <datestamp>2017-07-17T17:12:55Z</datestamp>
      <setSpec>user-biosyslit</setSpec>
    </header>
    <header>
      <identifier>oai:zenodo.org:830952</identifier>
      <datestamp>2017-07-17T17:18:48Z</datestamp>
      <setSpec>user-biosyslit</setSpec>
    </header>
    <header>
      <identifier>oai:zenodo.org:830946</identifier>
      <datestamp>2017-07-17T17:18:20Z</datestamp>
      <setSpec>user-biosyslit</setSpec>
    </header>
    <header>
      <identifier>oai:zenodo.org:830944</identifier>
      <datestamp>2017-07-17T17:18:15Z</datestamp>
      <setSpec>user-biosyslit</setSpec>
    </header>
    <header>
      <identifier>oai:zenodo.org:830956</identifier>
      <datestamp>2017-07-17T17:19:03Z</datestamp>
      <setSpec>user-biosyslit</setSpec>
    </header>
    <header>
      <identifier>oai:zenodo.org:830970</identifier>
      <datestamp>2017-07-17T17:19:38Z</datestamp>
      <setSpec>user-biosyslit</setSpec>
    </header>
    <header>
      <identifier>oai:zenodo.org:830942</identifier>
      <datestamp>2017-07-17T17:18:12Z</datestamp>
      <setSpec>user-biosyslit</setSpec>
    </header>
    <header>
      <identifier>oai:zenodo.org:830948</identifier>
      <datestamp>2017-07-17T17:18:26Z</datestamp>
      <setSpec>user-biosyslit</setSpec>
    </header>
    <header>
      <identifier>oai:zenodo.org:830966</identifier>
      <datestamp>2017-07-17T17:19:29Z</datestamp>
      <setSpec>user-biosyslit</setSpec>
    </header>
    <header>
      <identifier>oai:zenodo.org:831130</identifier>
      <datestamp>2017-07-17T17:25:06Z</datestamp>
      <setSpec>user-biosyslit</setSpec>
    </header>
    <header>
      <identifier>oai:zenodo.org:831122</identifier>
      <datestamp>2017-07-17T17:24:46Z</datestamp>
      <setSpec>user-biosyslit</setSpec>
    </header>
    <header>
      <identifier>oai:zenodo.org:831124</identifier>
      <datestamp>2017-07-17T17:24:49Z</datestamp>
      <setSpec>user-biosyslit</setSpec>
    </header>
    <header>
      <identifier>oai:zenodo.org:831134</identifier>
      <datestamp>2017-07-17T17:25:20Z</datestamp>
      <setSpec>user-biosyslit</setSpec>
    </header>
    <header>
      <identifier>oai:zenodo.org:831150</identifier>
      <datestamp>2017-07-17T17:25:47Z</datestamp>
      <setSpec>user-biosyslit</setSpec>
    </header>
    <header>
      <identifier>oai:zenodo.org:831132</identifier>
      <datestamp>2017-07-17T17:25:16Z</datestamp>
      <setSpec>user-biosyslit</setSpec>
    </header>
    <header>
      <identifier>oai:zenodo.org:831140</identifier>
      <datestamp>2017-07-17T17:25:30Z</datestamp>
      <setSpec>user-biosyslit</setSpec>
    </header>
    <header>
      <identifier>oai:zenodo.org:831142</identifier>
      <datestamp>2017-07-17T17:25:33Z</datestamp>
      <setSpec>user-biosyslit</setSpec>
    </header>
    <header>
      <identifier>oai:zenodo.org:831146</identifier>
      <datestamp>2017-07-17T17:25:40Z</datestamp>
      <setSpec>user-biosyslit</setSpec>
    </header>
    <header>
      <identifier>oai:zenodo.org:831640</identifier>
      <datestamp>2017-07-18T15:14:54Z</datestamp>
      <setSpec>user-biosyslit</setSpec>
    </header>
    <header>
      <identifier>oai:zenodo.org:832797</identifier>
      <datestamp>2017-07-20T13:16:38Z</datestamp>
      <setSpec>user-biosyslit</setSpec>
    </header>
    <header>
      <identifier>oai:zenodo.org:832807</identifier>
      <datestamp>2017-07-20T13:16:29Z</datestamp>
      <setSpec>user-biosyslit</setSpec>
    </header>
    <header>
      <identifier>oai:zenodo.org:832801</identifier>
      <datestamp>2017-07-20T13:16:15Z</datestamp>
      <setSpec>user-biosyslit</setSpec>
    </header>
    <header>
      <identifier>oai:zenodo.org:832809</identifier>
      <datestamp>2017-07-20T13:16:34Z</datestamp>
      <setSpec>user-biosyslit</setSpec>
    </header>
    <header>
      <identifier>oai:zenodo.org:832799</identifier>
      <datestamp>2017-07-20T13:16:13Z</datestamp>
      <setSpec>user-biosyslit</setSpec>
    </header>
    <header>
      <identifier>oai:zenodo.org:832834</identifier>
      <datestamp>2017-07-20T14:06:51Z</datestamp>
      <setSpec>user-biosyslit</setSpec>
    </header>
    <header>
      <identifier>oai:zenodo.org:832840</identifier>
      <datestamp>2017-07-20T14:06:47Z</datestamp>
      <setSpec>user-biosyslit</setSpec>
    </header>
    <header>
      <identifier>oai:zenodo.org:832871</identifier>
      <datestamp>2017-07-20T14:38:16Z</datestamp>
      <setSpec>user-biosyslit</setSpec>
    </header>
    <header>
      <identifier>oai:zenodo.org:832859</identifier>
      <datestamp>2017-07-20T14:27:10Z</datestamp>
      <setSpec>user-biosyslit</setSpec>
    </header>
    <header>
      <identifier>oai:zenodo.org:832857</identifier>
      <datestamp>2017-07-20T14:27:03Z</datestamp>
      <setSpec>user-biosyslit</setSpec>
    </header>
    <header>
      <identifier>oai:zenodo.org:822666</identifier>
      <datestamp>2017-07-20T07:13:02Z</datestamp>
      <setSpec>openaire</setSpec>
      <setSpec>user-biosyslit</setSpec>
    </header>
    <header>
      <identifier>oai:zenodo.org:832475</identifier>
      <datestamp>2017-07-20T08:28:07Z</datestamp>
      <setSpec>user-biosyslit</setSpec>
    </header>
    <header>
      <identifier>oai:zenodo.org:832487</identifier>
      <datestamp>2017-07-20T08:28:04Z</datestamp>
      <setSpec>user-biosyslit</setSpec>
    </header>
    <header>
      <identifier>oai:zenodo.org:832502</identifier>
      <datestamp>2017-07-20T08:55:23Z</datestamp>
      <setSpec>user-biosyslit</setSpec>
    </header>
    <header>
      <identifier>oai:zenodo.org:832528</identifier>
      <datestamp>2017-07-20T08:59:16Z</datestamp>
      <setSpec>user-biosyslit</setSpec>
    </header>
    <header>
      <identifier>oai:zenodo.org:832506</identifier>
      <datestamp>2017-07-20T08:54:48Z</datestamp>
      <setSpec>user-biosyslit</setSpec>
    </header>
    <header>
      <identifier>oai:zenodo.org:832504</identifier>
      <datestamp>2017-07-20T08:54:45Z</datestamp>
      <setSpec>user-biosyslit</setSpec>
    </header>
    <header>
      <identifier>oai:zenodo.org:832522</identifier>
      <datestamp>2017-07-20T08:55:19Z</datestamp>
      <setSpec>user-biosyslit</setSpec>
    </header>
    <header>
      <identifier>oai:zenodo.org:832524</identifier>
      <datestamp>2017-07-20T08:56:36Z</datestamp>
      <setSpec>user-biosyslit</setSpec>
    </header>
    <header>
      <identifier>oai:zenodo.org:832566</identifier>
      <datestamp>2017-07-20T09:35:29Z</datestamp>
      <setSpec>user-biosyslit</setSpec>
    </header>
    <header>
      <identifier>oai:zenodo.org:832568</identifier>
      <datestamp>2017-07-20T09:35:34Z</datestamp>
      <setSpec>user-biosyslit</setSpec>
    </header>
    <header>
      <identifier>oai:zenodo.org:832564</identifier>
      <datestamp>2017-07-20T09:35:23Z</datestamp>
      <setSpec>user-biosyslit</setSpec>
    </header>
    <header>
      <identifier>oai:zenodo.org:832548</identifier>
      <datestamp>2017-07-20T09:16:25Z</datestamp>
      <setSpec>user-biosyslit</setSpec>
    </header>
    <header>
      <identifier>oai:zenodo.org:832562</identifier>
      <datestamp>2017-07-20T09:35:19Z</datestamp>
      <setSpec>user-biosyslit</setSpec>
    </header>
    <header>
      <identifier>oai:zenodo.org:832640</identifier>
      <datestamp>2017-07-20T10:51:36Z</datestamp>
      <setSpec>user-biosyslit</setSpec>
    </header>
    <header>
      <identifier>oai:zenodo.org:832624</identifier>
      <datestamp>2017-07-20T10:50:23Z</datestamp>
      <setSpec>user-biosyslit</setSpec>
    </header>
    <header>
      <identifier>oai:zenodo.org:832632</identifier>
      <datestamp>2017-07-20T10:50:43Z</datestamp>
      <setSpec>user-biosyslit</setSpec>
    </header>
    <header>
      <identifier>oai:zenodo.org:832618</identifier>
      <datestamp>2017-07-20T10:50:09Z</datestamp>
      <setSpec>user-biosyslit</setSpec>
    </header>
    <header>
      <identifier>oai:zenodo.org:832638</identifier>
      <datestamp>2017-07-20T10:51:33Z</datestamp>
      <setSpec>user-biosyslit</setSpec>
    </header>
    <header>
      <identifier>oai:zenodo.org:832656</identifier>
      <datestamp>2017-07-20T11:17:04Z</datestamp>
      <setSpec>user-biosyslit</setSpec>
    </header>
    <header>
      <identifier>oai:zenodo.org:832660</identifier>
      <datestamp>2017-07-20T11:16:58Z</datestamp>
      <setSpec>user-biosyslit</setSpec>
    </header>
    <header>
      <identifier>oai:zenodo.org:832674</identifier>
      <datestamp>2017-07-20T11:31:25Z</datestamp>
      <setSpec>user-biosyslit</setSpec>
    </header>
    <header>
      <identifier>oai:zenodo.org:832672</identifier>
      <datestamp>2017-07-20T11:31:22Z</datestamp>
      <setSpec>user-biosyslit</setSpec>
    </header>
    <header>
      <identifier>oai:zenodo.org:832670</identifier>
      <datestamp>2017-07-20T11:31:19Z</datestamp>
      <setSpec>user-biosyslit</setSpec>
    </header>
    <header>
      <identifier>oai:zenodo.org:832668</identifier>
      <datestamp>2017-07-20T11:31:14Z</datestamp>
      <setSpec>user-biosyslit</setSpec>
    </header>
    <header>
      <identifier>oai:zenodo.org:832666</identifier>
      <datestamp>2017-07-20T11:31:33Z</datestamp>
      <setSpec>user-biosyslit</setSpec>
    </header>
    <header>
      <identifier>oai:zenodo.org:832704</identifier>
      <datestamp>2017-07-20T11:44:43Z</datestamp>
      <setSpec>user-biosyslit</setSpec>
    </header>
    <header>
      <identifier>oai:zenodo.org:832696</identifier>
      <datestamp>2017-07-20T11:44:28Z</datestamp>
      <setSpec>user-biosyslit</setSpec>
    </header>
    <header>
      <identifier>oai:zenodo.org:832700</identifier>
      <datestamp>2017-07-20T11:44:35Z</datestamp>
      <setSpec>user-biosyslit</setSpec>
    </header>
    <header>
      <identifier>oai:zenodo.org:832774</identifier>
      <datestamp>2017-07-20T12:52:04Z</datestamp>
      <setSpec>user-biosyslit</setSpec>
    </header>
    <header>
      <identifier>oai:zenodo.org:832780</identifier>
      <datestamp>2017-07-20T12:51:57Z</datestamp>
      <setSpec>user-biosyslit</setSpec>
    </header>
    <header>
      <identifier>oai:zenodo.org:832782</identifier>
      <datestamp>2017-07-20T12:52:00Z</datestamp>
      <setSpec>user-biosyslit</setSpec>
    </header>
    <header>
      <identifier>oai:zenodo.org:832873</identifier>
      <datestamp>2017-07-20T14:38:19Z</datestamp>
      <setSpec>user-biosyslit</setSpec>
    </header>
    <header>
      <identifier>oai:zenodo.org:832875</identifier>
      <datestamp>2017-07-20T14:38:23Z</datestamp>
      <setSpec>user-biosyslit</setSpec>
    </header>
    <header>
      <identifier>oai:zenodo.org:583995</identifier>
      <datestamp>2017-05-29T11:58:21Z</datestamp>
      <setSpec>user-biosyslit</setSpec>
    </header>
    <header>
      <identifier>oai:zenodo.org:807467</identifier>
      <datestamp>2017-06-13T11:00:33Z</datestamp>
      <setSpec>user-biosyslit</setSpec>
    </header>
    <header>
      <identifier>oai:zenodo.org:556139</identifier>
      <datestamp>2017-04-19T13:23:14Z</datestamp>
      <setSpec>user-biosyslit</setSpec>
    </header>
    <header>
      <identifier>oai:zenodo.org:160600</identifier>
      <datestamp>2017-07-17T13:14:40Z</datestamp>
      <setSpec>openaire</setSpec>
      <setSpec>user-biosyslit</setSpec>
    </header>
    <resumptionToken expirationDate="2017-08-31T15:48:25Z" cursor="76500" completeListSize="77796">.eJyNyrsOgjAUANB_uTMxpRcskrgQkDAIgQoRFoNACFIfoRqgxn_XxVnnc54gm6YGmywoRYPgyjIpmogGszSQ1XAV4tB9HKp9JqqLSEs_eyTnjOS0ZaErp62bY6h6Ep11xTcx3evWlHZkjnfpPVfJlGEwcuKxrYrn8BR8Xo2RL4qjf-PpxRGc1kPkxTPXHV5g9X36n0_9fK5cgwa3sm3AZkumQT-WQyvBfr5eb85EUXY.DInA0Q.YXSE7g9H2sx3cZtgGJ1aVQv1aEE</resumptionToken>
  </ListIdentifiers>
</OAI-PMH>
