<?xml version='1.0' encoding='UTF-8'?>
<?xml-stylesheet type="text/xsl" href="/static/xsl/oai2.v1.0.xsl"?>
<OAI-PMH xmlns="http://www.openarchives.org/OAI/2.0/" xmlns:xsi="http://www.w3.org/2001/XMLSchema-instance" xsi:schemaLocation="http://www.openarchives.org/OAI/2.0/ http://www.openarchives.org/OAI/2.0/OAI-PMH.xsd">
  <responseDate>2017-08-31T15:43:23Z</responseDate>
  <request verb="ListIdentifiers" resumptionToken=".eJyNysEKgjAYAOB3-c8Sm1NXQhfRpIOKLkW9hKlIOU1coS5697x0rvP3vUDUdQUm2uga0SjaqZRqOqaGroAoxzvn5-vKUKYJL3seF27yjLoEZWpDfVvMnp0RX7Yo6LBkh1BN8XaOr2gJT_Ejk9GckOPEkEM9GS7-7bi-igQuzy_uwOLe4kytxsAJF4YtlpPy-_CfT_58ttiDAkPR1GASQ1OgnYqxEWC-3u8PodNRRA.DInAGw.I0sR0E5tWh6tuaEC5BMsLj9RH_I">https://zenodo.org/oai2d</request>
  <ListIdentifiers>
    <header>
      <identifier>oai:zenodo.org:232355</identifier>
      <datestamp>2017-01-06T16:18:10Z</datestamp>
      <setSpec>user-biosyslit</setSpec>
    </header>
    <header>
      <identifier>oai:zenodo.org:232353</identifier>
      <datestamp>2017-01-06T16:18:00Z</datestamp>
      <setSpec>user-biosyslit</setSpec>
    </header>
    <header>
      <identifier>oai:zenodo.org:260897</identifier>
      <datestamp>2017-01-28T02:09:09Z</datestamp>
      <setSpec>user-biosyslit</setSpec>
    </header>
    <header>
      <identifier>oai:zenodo.org:400338</identifier>
      <datestamp>2017-03-16T19:35:29Z</datestamp>
      <setSpec>user-biosyslit</setSpec>
    </header>
    <header>
      <identifier>oai:zenodo.org:260896</identifier>
      <datestamp>2017-01-28T02:09:05Z</datestamp>
      <setSpec>user-biosyslit</setSpec>
    </header>
    <header>
      <identifier>oai:zenodo.org:260901</identifier>
      <datestamp>2017-01-28T02:09:23Z</datestamp>
      <setSpec>user-biosyslit</setSpec>
    </header>
    <header>
      <identifier>oai:zenodo.org:260900</identifier>
      <datestamp>2017-01-28T02:09:20Z</datestamp>
      <setSpec>user-biosyslit</setSpec>
    </header>
    <header>
      <identifier>oai:zenodo.org:260899</identifier>
      <datestamp>2017-01-28T02:09:16Z</datestamp>
      <setSpec>user-biosyslit</setSpec>
    </header>
    <header>
      <identifier>oai:zenodo.org:269949</identifier>
      <datestamp>2017-02-07T21:52:50Z</datestamp>
      <setSpec>user-biosyslit</setSpec>
    </header>
    <header>
      <identifier>oai:zenodo.org:269946</identifier>
      <datestamp>2017-02-07T21:52:43Z</datestamp>
      <setSpec>user-biosyslit</setSpec>
    </header>
    <header>
      <identifier>oai:zenodo.org:269948</identifier>
      <datestamp>2017-02-07T21:52:49Z</datestamp>
      <setSpec>user-biosyslit</setSpec>
    </header>
    <header>
      <identifier>oai:zenodo.org:269953</identifier>
      <datestamp>2017-02-07T21:52:59Z</datestamp>
      <setSpec>user-biosyslit</setSpec>
    </header>
    <header>
      <identifier>oai:zenodo.org:269950</identifier>
      <datestamp>2017-02-07T21:52:52Z</datestamp>
      <setSpec>user-biosyslit</setSpec>
    </header>
    <header>
      <identifier>oai:zenodo.org:269954</identifier>
      <datestamp>2017-02-07T21:53:01Z</datestamp>
      <setSpec>user-biosyslit</setSpec>
    </header>
    <header>
      <identifier>oai:zenodo.org:283878</identifier>
      <datestamp>2017-02-09T09:59:05Z</datestamp>
      <setSpec>user-biosyslit</setSpec>
    </header>
    <header>
      <identifier>oai:zenodo.org:283877</identifier>
      <datestamp>2017-02-09T09:59:03Z</datestamp>
      <setSpec>user-biosyslit</setSpec>
    </header>
    <header>
      <identifier>oai:zenodo.org:270677</identifier>
      <datestamp>2017-02-07T23:47:26Z</datestamp>
      <setSpec>user-biosyslit</setSpec>
    </header>
    <header>
      <identifier>oai:zenodo.org:270679</identifier>
      <datestamp>2017-02-07T23:47:31Z</datestamp>
      <setSpec>user-biosyslit</setSpec>
    </header>
    <header>
      <identifier>oai:zenodo.org:270678</identifier>
      <datestamp>2017-02-07T23:47:29Z</datestamp>
      <setSpec>user-biosyslit</setSpec>
    </header>
    <header>
      <identifier>oai:zenodo.org:243949</identifier>
      <datestamp>2017-01-14T14:25:35Z</datestamp>
      <setSpec>user-biosyslit</setSpec>
    </header>
    <header>
      <identifier>oai:zenodo.org:238480</identifier>
      <datestamp>2017-01-11T06:07:08Z</datestamp>
      <setSpec>user-biosyslit</setSpec>
    </header>
    <header>
      <identifier>oai:zenodo.org:233605</identifier>
      <datestamp>2017-01-08T08:53:02Z</datestamp>
      <setSpec>user-biosyslit</setSpec>
    </header>
    <header>
      <identifier>oai:zenodo.org:233603</identifier>
      <datestamp>2017-01-08T08:52:55Z</datestamp>
      <setSpec>user-biosyslit</setSpec>
    </header>
    <header>
      <identifier>oai:zenodo.org:233607</identifier>
      <datestamp>2017-01-08T08:53:09Z</datestamp>
      <setSpec>user-biosyslit</setSpec>
    </header>
    <header>
      <identifier>oai:zenodo.org:233600</identifier>
      <datestamp>2017-01-08T08:52:44Z</datestamp>
      <setSpec>user-biosyslit</setSpec>
    </header>
    <header>
      <identifier>oai:zenodo.org:233604</identifier>
      <datestamp>2017-01-08T08:52:59Z</datestamp>
      <setSpec>user-biosyslit</setSpec>
    </header>
    <header>
      <identifier>oai:zenodo.org:233601</identifier>
      <datestamp>2017-01-08T08:52:49Z</datestamp>
      <setSpec>user-biosyslit</setSpec>
    </header>
    <header>
      <identifier>oai:zenodo.org:233598</identifier>
      <datestamp>2017-01-08T08:52:38Z</datestamp>
      <setSpec>user-biosyslit</setSpec>
    </header>
    <header>
      <identifier>oai:zenodo.org:265899</identifier>
      <datestamp>2017-01-31T23:10:04Z</datestamp>
      <setSpec>user-biosyslit</setSpec>
    </header>
    <header>
      <identifier>oai:zenodo.org:265902</identifier>
      <datestamp>2017-01-31T23:10:16Z</datestamp>
      <setSpec>user-biosyslit</setSpec>
    </header>
    <header>
      <identifier>oai:zenodo.org:271598</identifier>
      <datestamp>2017-02-08T02:01:50Z</datestamp>
      <setSpec>user-biosyslit</setSpec>
    </header>
    <header>
      <identifier>oai:zenodo.org:265907</identifier>
      <datestamp>2017-01-31T23:10:36Z</datestamp>
      <setSpec>user-biosyslit</setSpec>
    </header>
    <header>
      <identifier>oai:zenodo.org:271603</identifier>
      <datestamp>2017-02-08T02:02:02Z</datestamp>
      <setSpec>user-biosyslit</setSpec>
    </header>
    <header>
      <identifier>oai:zenodo.org:271600</identifier>
      <datestamp>2017-02-08T02:01:55Z</datestamp>
      <setSpec>user-biosyslit</setSpec>
    </header>
    <header>
      <identifier>oai:zenodo.org:265900</identifier>
      <datestamp>2017-01-31T23:10:09Z</datestamp>
      <setSpec>user-biosyslit</setSpec>
    </header>
    <header>
      <identifier>oai:zenodo.org:246221</identifier>
      <datestamp>2017-01-15T23:16:29Z</datestamp>
      <setSpec>user-biosyslit</setSpec>
    </header>
    <header>
      <identifier>oai:zenodo.org:246220</identifier>
      <datestamp>2017-01-15T23:16:25Z</datestamp>
      <setSpec>user-biosyslit</setSpec>
    </header>
    <header>
      <identifier>oai:zenodo.org:287461</identifier>
      <datestamp>2017-02-09T18:25:22Z</datestamp>
      <setSpec>user-biosyslit</setSpec>
    </header>
    <header>
      <identifier>oai:zenodo.org:287462</identifier>
      <datestamp>2017-02-09T18:25:23Z</datestamp>
      <setSpec>user-biosyslit</setSpec>
    </header>
    <header>
      <identifier>oai:zenodo.org:287463</identifier>
      <datestamp>2017-02-09T18:25:26Z</datestamp>
      <setSpec>user-biosyslit</setSpec>
    </header>
    <header>
      <identifier>oai:zenodo.org:287466</identifier>
      <datestamp>2017-02-09T18:25:35Z</datestamp>
      <setSpec>user-biosyslit</setSpec>
    </header>
    <header>
      <identifier>oai:zenodo.org:287468</identifier>
      <datestamp>2017-02-09T18:25:40Z</datestamp>
      <setSpec>user-biosyslit</setSpec>
    </header>
    <header>
      <identifier>oai:zenodo.org:287473</identifier>
      <datestamp>2017-02-09T18:25:51Z</datestamp>
      <setSpec>user-biosyslit</setSpec>
    </header>
    <header>
      <identifier>oai:zenodo.org:278242</identifier>
      <datestamp>2017-02-08T22:42:39Z</datestamp>
      <setSpec>user-biosyslit</setSpec>
    </header>
    <header>
      <identifier>oai:zenodo.org:803167</identifier>
      <datestamp>2017-06-06T08:22:36Z</datestamp>
      <setSpec>user-biosyslit</setSpec>
    </header>
    <header>
      <identifier>oai:zenodo.org:803169</identifier>
      <datestamp>2017-06-06T08:22:40Z</datestamp>
      <setSpec>user-biosyslit</setSpec>
    </header>
    <header>
      <identifier>oai:zenodo.org:803157</identifier>
      <datestamp>2017-06-06T08:22:18Z</datestamp>
      <setSpec>user-biosyslit</setSpec>
    </header>
    <header>
      <identifier>oai:zenodo.org:803155</identifier>
      <datestamp>2017-06-06T08:22:15Z</datestamp>
      <setSpec>user-biosyslit</setSpec>
    </header>
    <header>
      <identifier>oai:zenodo.org:803159</identifier>
      <datestamp>2017-06-06T08:22:22Z</datestamp>
      <setSpec>user-biosyslit</setSpec>
    </header>
    <header>
      <identifier>oai:zenodo.org:278243</identifier>
      <datestamp>2017-02-08T22:42:35Z</datestamp>
      <setSpec>user-biosyslit</setSpec>
    </header>
    <header>
      <identifier>oai:zenodo.org:278244</identifier>
      <datestamp>2017-02-08T22:42:38Z</datestamp>
      <setSpec>user-biosyslit</setSpec>
    </header>
    <header>
      <identifier>oai:zenodo.org:256142</identifier>
      <datestamp>2017-01-22T05:04:57Z</datestamp>
      <setSpec>user-biosyslit</setSpec>
    </header>
    <header>
      <identifier>oai:zenodo.org:583406</identifier>
      <datestamp>2017-05-26T08:15:46Z</datestamp>
      <setSpec>user-biosyslit</setSpec>
    </header>
    <header>
      <identifier>oai:zenodo.org:232351</identifier>
      <datestamp>2017-01-06T16:17:53Z</datestamp>
      <setSpec>user-biosyslit</setSpec>
    </header>
    <header>
      <identifier>oai:zenodo.org:583407</identifier>
      <datestamp>2017-05-26T08:15:27Z</datestamp>
      <setSpec>user-biosyslit</setSpec>
    </header>
    <header>
      <identifier>oai:zenodo.org:583409</identifier>
      <datestamp>2017-05-26T08:15:33Z</datestamp>
      <setSpec>user-biosyslit</setSpec>
    </header>
    <header>
      <identifier>oai:zenodo.org:256147</identifier>
      <datestamp>2017-01-22T05:04:56Z</datestamp>
      <setSpec>user-biosyslit</setSpec>
    </header>
    <header>
      <identifier>oai:zenodo.org:256144</identifier>
      <datestamp>2017-01-22T05:04:49Z</datestamp>
      <setSpec>user-biosyslit</setSpec>
    </header>
    <header>
      <identifier>oai:zenodo.org:232352</identifier>
      <datestamp>2017-01-06T16:17:57Z</datestamp>
      <setSpec>user-biosyslit</setSpec>
    </header>
    <header>
      <identifier>oai:zenodo.org:256143</identifier>
      <datestamp>2017-01-22T05:04:46Z</datestamp>
      <setSpec>user-biosyslit</setSpec>
    </header>
    <header>
      <identifier>oai:zenodo.org:245239</identifier>
      <datestamp>2017-01-15T10:30:32Z</datestamp>
      <setSpec>user-biosyslit</setSpec>
    </header>
    <header>
      <identifier>oai:zenodo.org:245241</identifier>
      <datestamp>2017-01-15T10:30:22Z</datestamp>
      <setSpec>user-biosyslit</setSpec>
    </header>
    <header>
      <identifier>oai:zenodo.org:245243</identifier>
      <datestamp>2017-01-15T10:30:27Z</datestamp>
      <setSpec>user-biosyslit</setSpec>
    </header>
    <header>
      <identifier>oai:zenodo.org:238496</identifier>
      <datestamp>2017-01-11T06:25:52Z</datestamp>
      <setSpec>user-biosyslit</setSpec>
    </header>
    <header>
      <identifier>oai:zenodo.org:238497</identifier>
      <datestamp>2017-01-11T06:25:56Z</datestamp>
      <setSpec>user-biosyslit</setSpec>
    </header>
    <header>
      <identifier>oai:zenodo.org:245244</identifier>
      <datestamp>2017-01-15T10:30:31Z</datestamp>
      <setSpec>user-biosyslit</setSpec>
    </header>
    <header>
      <identifier>oai:zenodo.org:234649</identifier>
      <datestamp>2017-01-08T23:21:11Z</datestamp>
      <setSpec>user-biosyslit</setSpec>
    </header>
    <header>
      <identifier>oai:zenodo.org:234650</identifier>
      <datestamp>2017-01-08T23:20:38Z</datestamp>
      <setSpec>user-biosyslit</setSpec>
    </header>
    <header>
      <identifier>oai:zenodo.org:234658</identifier>
      <datestamp>2017-01-08T23:21:09Z</datestamp>
      <setSpec>user-biosyslit</setSpec>
    </header>
    <header>
      <identifier>oai:zenodo.org:234657</identifier>
      <datestamp>2017-01-08T23:21:06Z</datestamp>
      <setSpec>user-biosyslit</setSpec>
    </header>
    <header>
      <identifier>oai:zenodo.org:234652</identifier>
      <datestamp>2017-01-08T23:20:45Z</datestamp>
      <setSpec>user-biosyslit</setSpec>
    </header>
    <header>
      <identifier>oai:zenodo.org:234655</identifier>
      <datestamp>2017-01-08T23:20:57Z</datestamp>
      <setSpec>user-biosyslit</setSpec>
    </header>
    <header>
      <identifier>oai:zenodo.org:247989</identifier>
      <datestamp>2017-01-16T22:26:49Z</datestamp>
      <setSpec>user-biosyslit</setSpec>
    </header>
    <header>
      <identifier>oai:zenodo.org:247984</identifier>
      <datestamp>2017-01-16T22:25:46Z</datestamp>
      <setSpec>user-biosyslit</setSpec>
    </header>
    <header>
      <identifier>oai:zenodo.org:247986</identifier>
      <datestamp>2017-01-16T22:26:38Z</datestamp>
      <setSpec>user-biosyslit</setSpec>
    </header>
    <header>
      <identifier>oai:zenodo.org:247985</identifier>
      <datestamp>2017-01-16T22:26:17Z</datestamp>
      <setSpec>user-biosyslit</setSpec>
    </header>
    <header>
      <identifier>oai:zenodo.org:247987</identifier>
      <datestamp>2017-01-16T22:26:43Z</datestamp>
      <setSpec>user-biosyslit</setSpec>
    </header>
    <header>
      <identifier>oai:zenodo.org:247981</identifier>
      <datestamp>2017-01-16T22:24:49Z</datestamp>
      <setSpec>user-biosyslit</setSpec>
    </header>
    <header>
      <identifier>oai:zenodo.org:247980</identifier>
      <datestamp>2017-01-16T22:26:50Z</datestamp>
      <setSpec>user-biosyslit</setSpec>
    </header>
    <header>
      <identifier>oai:zenodo.org:275126</identifier>
      <datestamp>2017-02-08T15:21:12Z</datestamp>
      <setSpec>user-biosyslit</setSpec>
    </header>
    <header>
      <identifier>oai:zenodo.org:275125</identifier>
      <datestamp>2017-02-08T15:21:10Z</datestamp>
      <setSpec>user-biosyslit</setSpec>
    </header>
    <header>
      <identifier>oai:zenodo.org:275124</identifier>
      <datestamp>2017-02-08T15:21:07Z</datestamp>
      <setSpec>user-biosyslit</setSpec>
    </header>
    <header>
      <identifier>oai:zenodo.org:275123</identifier>
      <datestamp>2017-02-08T15:21:04Z</datestamp>
      <setSpec>user-biosyslit</setSpec>
    </header>
    <header>
      <identifier>oai:zenodo.org:280581</identifier>
      <datestamp>2017-02-09T03:40:37Z</datestamp>
      <setSpec>user-biosyslit</setSpec>
    </header>
    <header>
      <identifier>oai:zenodo.org:280577</identifier>
      <datestamp>2017-02-09T03:40:29Z</datestamp>
      <setSpec>user-biosyslit</setSpec>
    </header>
    <header>
      <identifier>oai:zenodo.org:280576</identifier>
      <datestamp>2017-02-09T03:40:27Z</datestamp>
      <setSpec>user-biosyslit</setSpec>
    </header>
    <header>
      <identifier>oai:zenodo.org:280582</identifier>
      <datestamp>2017-02-09T03:40:40Z</datestamp>
      <setSpec>user-biosyslit</setSpec>
    </header>
    <header>
      <identifier>oai:zenodo.org:280578</identifier>
      <datestamp>2017-02-09T03:40:32Z</datestamp>
      <setSpec>user-biosyslit</setSpec>
    </header>
    <header>
      <identifier>oai:zenodo.org:280579</identifier>
      <datestamp>2017-02-09T03:40:33Z</datestamp>
      <setSpec>user-biosyslit</setSpec>
    </header>
    <header>
      <identifier>oai:zenodo.org:803149</identifier>
      <datestamp>2017-06-06T08:22:05Z</datestamp>
      <setSpec>user-biosyslit</setSpec>
    </header>
    <header>
      <identifier>oai:zenodo.org:803153</identifier>
      <datestamp>2017-06-06T08:22:12Z</datestamp>
      <setSpec>user-biosyslit</setSpec>
    </header>
    <header>
      <identifier>oai:zenodo.org:803151</identifier>
      <datestamp>2017-06-06T08:22:08Z</datestamp>
      <setSpec>user-biosyslit</setSpec>
    </header>
    <header>
      <identifier>oai:zenodo.org:321971</identifier>
      <datestamp>2017-02-24T07:20:18Z</datestamp>
      <setSpec>user-biosyslit</setSpec>
    </header>
    <header>
      <identifier>oai:zenodo.org:321973</identifier>
      <datestamp>2017-02-24T07:20:13Z</datestamp>
      <setSpec>user-biosyslit</setSpec>
    </header>
    <header>
      <identifier>oai:zenodo.org:230442</identifier>
      <datestamp>2017-01-05T01:26:01Z</datestamp>
      <setSpec>user-biosyslit</setSpec>
    </header>
    <header>
      <identifier>oai:zenodo.org:230440</identifier>
      <datestamp>2017-01-05T01:25:51Z</datestamp>
      <setSpec>user-biosyslit</setSpec>
    </header>
    <header>
      <identifier>oai:zenodo.org:230439</identifier>
      <datestamp>2017-01-05T01:25:48Z</datestamp>
      <setSpec>user-biosyslit</setSpec>
    </header>
    <header>
      <identifier>oai:zenodo.org:275296</identifier>
      <datestamp>2017-02-08T16:02:20Z</datestamp>
      <setSpec>user-biosyslit</setSpec>
    </header>
    <header>
      <identifier>oai:zenodo.org:825207</identifier>
      <datestamp>2017-07-10T15:14:44Z</datestamp>
      <setSpec>user-biosyslit</setSpec>
    </header>
    <header>
      <identifier>oai:zenodo.org:825203</identifier>
      <datestamp>2017-07-10T15:49:38Z</datestamp>
      <setSpec>openaire</setSpec>
      <setSpec>user-biosyslit</setSpec>
    </header>
    <resumptionToken expirationDate="2017-08-31T15:45:23Z" cursor="36300" completeListSize="77796">.eJyNysEKgjAYAOB3-c8Sm0NNoYtY4iFlrQ3tEqYi5jJxRbrw3fPSuc7f9wZVVSV4aGVj5FouwS6x3bXtYANUMdylPDcLQ5EKWXSS56F4Hm4CZWbtxIEa90FGYt2i5IY121EzxeuRN2iiR_7I9GEUJHoxtHX2mk7xNVpeSZJQni5hz3jnS2aWQ7KlE8M-O5Hi-_CfT_98gdqAAX1eV-AR2zKgfeVDrcB7z_MHqEFRTA.DInAGw.zt243uh3LzBv-ncz6pG5712dnUA</resumptionToken>
  </ListIdentifiers>
</OAI-PMH>
