<?xml version='1.0' encoding='UTF-8'?>
<?xml-stylesheet type="text/xsl" href="/static/xsl/oai2.v1.0.xsl"?>
<OAI-PMH xmlns="http://www.openarchives.org/OAI/2.0/" xmlns:xsi="http://www.w3.org/2001/XMLSchema-instance" xsi:schemaLocation="http://www.openarchives.org/OAI/2.0/ http://www.openarchives.org/OAI/2.0/OAI-PMH.xsd">
  <responseDate>2017-08-31T15:45:38Z</responseDate>
  <request verb="ListIdentifiers" resumptionToken=".eJyNysEOQzAYAOB3-c-ytGqIZJeFiQNCR3BZDBFTJroFFe8-l5238_etwKuqBAMddISxeiREJwQpqoIl4MX4ZOzW7AxFErOiZ1Fux--wi1Eq15pn8tk1U-KJFvkdFvQSyAnW56hBS3CNXqkI55g4E0WW5opg8R7O_kri2yy72wON-jOjcjn6VrBQfKYZKb4P__nEz2fyE0gw5HUFhqpqErRTPtYcjHXbPo_oUTY.DInAog.fcznHQ-XxRpLShCFxNWTQBRltas">https://zenodo.org/oai2d</request>
  <ListIdentifiers>
    <header>
      <identifier>oai:zenodo.org:253340</identifier>
      <datestamp>2017-01-20T05:52:56Z</datestamp>
      <setSpec>user-biosyslit</setSpec>
    </header>
    <header>
      <identifier>oai:zenodo.org:253354</identifier>
      <datestamp>2017-01-20T05:53:32Z</datestamp>
      <setSpec>user-biosyslit</setSpec>
    </header>
    <header>
      <identifier>oai:zenodo.org:253351</identifier>
      <datestamp>2017-01-20T05:53:24Z</datestamp>
      <setSpec>user-biosyslit</setSpec>
    </header>
    <header>
      <identifier>oai:zenodo.org:253347</identifier>
      <datestamp>2017-01-20T05:53:15Z</datestamp>
      <setSpec>user-biosyslit</setSpec>
    </header>
    <header>
      <identifier>oai:zenodo.org:253344</identifier>
      <datestamp>2017-01-20T05:53:07Z</datestamp>
      <setSpec>user-biosyslit</setSpec>
    </header>
    <header>
      <identifier>oai:zenodo.org:249867</identifier>
      <datestamp>2017-01-18T01:00:49Z</datestamp>
      <setSpec>user-biosyslit</setSpec>
    </header>
    <header>
      <identifier>oai:zenodo.org:249866</identifier>
      <datestamp>2017-01-18T01:00:44Z</datestamp>
      <setSpec>user-biosyslit</setSpec>
    </header>
    <header>
      <identifier>oai:zenodo.org:271061</identifier>
      <datestamp>2017-02-08T00:39:18Z</datestamp>
      <setSpec>user-biosyslit</setSpec>
    </header>
    <header>
      <identifier>oai:zenodo.org:271059</identifier>
      <datestamp>2017-02-08T00:39:11Z</datestamp>
      <setSpec>user-biosyslit</setSpec>
    </header>
    <header>
      <identifier>oai:zenodo.org:271062</identifier>
      <datestamp>2017-02-08T00:39:20Z</datestamp>
      <setSpec>user-biosyslit</setSpec>
    </header>
    <header>
      <identifier>oai:zenodo.org:271056</identifier>
      <datestamp>2017-02-08T00:39:05Z</datestamp>
      <setSpec>user-biosyslit</setSpec>
    </header>
    <header>
      <identifier>oai:zenodo.org:271055</identifier>
      <datestamp>2017-02-08T00:39:02Z</datestamp>
      <setSpec>user-biosyslit</setSpec>
    </header>
    <header>
      <identifier>oai:zenodo.org:271053</identifier>
      <datestamp>2017-02-08T00:38:56Z</datestamp>
      <setSpec>user-biosyslit</setSpec>
    </header>
    <header>
      <identifier>oai:zenodo.org:283117</identifier>
      <datestamp>2017-02-09T08:11:22Z</datestamp>
      <setSpec>user-biosyslit</setSpec>
    </header>
    <header>
      <identifier>oai:zenodo.org:287404</identifier>
      <datestamp>2017-02-09T18:14:30Z</datestamp>
      <setSpec>user-biosyslit</setSpec>
    </header>
    <header>
      <identifier>oai:zenodo.org:287409</identifier>
      <datestamp>2017-02-09T18:14:29Z</datestamp>
      <setSpec>user-biosyslit</setSpec>
    </header>
    <header>
      <identifier>oai:zenodo.org:226812</identifier>
      <datestamp>2017-01-01T03:39:26Z</datestamp>
      <setSpec>user-biosyslit</setSpec>
    </header>
    <header>
      <identifier>oai:zenodo.org:287406</identifier>
      <datestamp>2017-02-09T18:14:22Z</datestamp>
      <setSpec>user-biosyslit</setSpec>
    </header>
    <header>
      <identifier>oai:zenodo.org:253772</identifier>
      <datestamp>2017-01-20T10:58:56Z</datestamp>
      <setSpec>user-biosyslit</setSpec>
    </header>
    <header>
      <identifier>oai:zenodo.org:253766</identifier>
      <datestamp>2017-01-20T10:58:43Z</datestamp>
      <setSpec>user-biosyslit</setSpec>
    </header>
    <header>
      <identifier>oai:zenodo.org:226813</identifier>
      <datestamp>2017-01-01T03:39:31Z</datestamp>
      <setSpec>user-biosyslit</setSpec>
    </header>
    <header>
      <identifier>oai:zenodo.org:273553</identifier>
      <datestamp>2017-02-08T09:52:42Z</datestamp>
      <setSpec>user-biosyslit</setSpec>
    </header>
    <header>
      <identifier>oai:zenodo.org:273554</identifier>
      <datestamp>2017-02-08T09:52:34Z</datestamp>
      <setSpec>user-biosyslit</setSpec>
    </header>
    <header>
      <identifier>oai:zenodo.org:293953</identifier>
      <datestamp>2017-02-20T19:03:07Z</datestamp>
      <setSpec>user-biosyslit</setSpec>
    </header>
    <header>
      <identifier>oai:zenodo.org:288574</identifier>
      <datestamp>2017-02-09T21:24:20Z</datestamp>
      <setSpec>user-biosyslit</setSpec>
    </header>
    <header>
      <identifier>oai:zenodo.org:288575</identifier>
      <datestamp>2017-02-09T21:24:22Z</datestamp>
      <setSpec>user-biosyslit</setSpec>
    </header>
    <header>
      <identifier>oai:zenodo.org:293959</identifier>
      <datestamp>2017-02-20T19:03:01Z</datestamp>
      <setSpec>user-biosyslit</setSpec>
    </header>
    <header>
      <identifier>oai:zenodo.org:278365</identifier>
      <datestamp>2017-02-08T23:02:17Z</datestamp>
      <setSpec>user-biosyslit</setSpec>
    </header>
    <header>
      <identifier>oai:zenodo.org:293957</identifier>
      <datestamp>2017-02-20T19:02:57Z</datestamp>
      <setSpec>user-biosyslit</setSpec>
    </header>
    <header>
      <identifier>oai:zenodo.org:293960</identifier>
      <datestamp>2017-02-20T19:03:03Z</datestamp>
      <setSpec>user-biosyslit</setSpec>
    </header>
    <header>
      <identifier>oai:zenodo.org:280633</identifier>
      <datestamp>2017-02-09T03:46:23Z</datestamp>
      <setSpec>user-biosyslit</setSpec>
    </header>
    <header>
      <identifier>oai:zenodo.org:280628</identifier>
      <datestamp>2017-02-09T03:46:07Z</datestamp>
      <setSpec>user-biosyslit</setSpec>
    </header>
    <header>
      <identifier>oai:zenodo.org:280629</identifier>
      <datestamp>2017-02-09T03:46:11Z</datestamp>
      <setSpec>user-biosyslit</setSpec>
    </header>
    <header>
      <identifier>oai:zenodo.org:235969</identifier>
      <datestamp>2017-01-09T17:25:24Z</datestamp>
      <setSpec>user-biosyslit</setSpec>
    </header>
    <header>
      <identifier>oai:zenodo.org:235976</identifier>
      <datestamp>2017-01-09T17:25:58Z</datestamp>
      <setSpec>user-biosyslit</setSpec>
    </header>
    <header>
      <identifier>oai:zenodo.org:235974</identifier>
      <datestamp>2017-01-09T17:25:48Z</datestamp>
      <setSpec>user-biosyslit</setSpec>
    </header>
    <header>
      <identifier>oai:zenodo.org:278355</identifier>
      <datestamp>2017-02-08T23:01:12Z</datestamp>
      <setSpec>user-biosyslit</setSpec>
    </header>
    <header>
      <identifier>oai:zenodo.org:278359</identifier>
      <datestamp>2017-02-08T23:01:09Z</datestamp>
      <setSpec>user-biosyslit</setSpec>
    </header>
    <header>
      <identifier>oai:zenodo.org:278360</identifier>
      <datestamp>2017-02-08T23:01:11Z</datestamp>
      <setSpec>user-biosyslit</setSpec>
    </header>
    <header>
      <identifier>oai:zenodo.org:233293</identifier>
      <datestamp>2017-01-08T03:02:33Z</datestamp>
      <setSpec>user-biosyslit</setSpec>
    </header>
    <header>
      <identifier>oai:zenodo.org:233291</identifier>
      <datestamp>2017-01-08T03:02:27Z</datestamp>
      <setSpec>user-biosyslit</setSpec>
    </header>
    <header>
      <identifier>oai:zenodo.org:243298</identifier>
      <datestamp>2017-01-14T02:16:34Z</datestamp>
      <setSpec>user-biosyslit</setSpec>
    </header>
    <header>
      <identifier>oai:zenodo.org:243304</identifier>
      <datestamp>2017-01-14T02:16:53Z</datestamp>
      <setSpec>user-biosyslit</setSpec>
    </header>
    <header>
      <identifier>oai:zenodo.org:243302</identifier>
      <datestamp>2017-01-14T02:16:47Z</datestamp>
      <setSpec>user-biosyslit</setSpec>
    </header>
    <header>
      <identifier>oai:zenodo.org:243300</identifier>
      <datestamp>2017-01-14T02:16:41Z</datestamp>
      <setSpec>user-biosyslit</setSpec>
    </header>
    <header>
      <identifier>oai:zenodo.org:234501</identifier>
      <datestamp>2017-01-08T20:52:03Z</datestamp>
      <setSpec>user-biosyslit</setSpec>
    </header>
    <header>
      <identifier>oai:zenodo.org:234500</identifier>
      <datestamp>2017-01-08T20:51:59Z</datestamp>
      <setSpec>user-biosyslit</setSpec>
    </header>
    <header>
      <identifier>oai:zenodo.org:243305</identifier>
      <datestamp>2017-01-14T02:16:55Z</datestamp>
      <setSpec>user-biosyslit</setSpec>
    </header>
    <header>
      <identifier>oai:zenodo.org:266288</identifier>
      <datestamp>2017-02-01T04:38:25Z</datestamp>
      <setSpec>user-biosyslit</setSpec>
    </header>
    <header>
      <identifier>oai:zenodo.org:278245</identifier>
      <datestamp>2017-02-08T22:43:41Z</datestamp>
      <setSpec>user-biosyslit</setSpec>
    </header>
    <header>
      <identifier>oai:zenodo.org:248573</identifier>
      <datestamp>2017-01-17T05:52:21Z</datestamp>
      <setSpec>user-biosyslit</setSpec>
    </header>
    <header>
      <identifier>oai:zenodo.org:289985</identifier>
      <datestamp>2017-02-10T01:00:55Z</datestamp>
      <setSpec>user-biosyslit</setSpec>
    </header>
    <header>
      <identifier>oai:zenodo.org:230914</identifier>
      <datestamp>2017-01-05T10:45:44Z</datestamp>
      <setSpec>user-biosyslit</setSpec>
    </header>
    <header>
      <identifier>oai:zenodo.org:230905</identifier>
      <datestamp>2017-01-05T10:45:19Z</datestamp>
      <setSpec>user-biosyslit</setSpec>
    </header>
    <header>
      <identifier>oai:zenodo.org:230904</identifier>
      <datestamp>2017-01-05T10:45:16Z</datestamp>
      <setSpec>user-biosyslit</setSpec>
    </header>
    <header>
      <identifier>oai:zenodo.org:230909</identifier>
      <datestamp>2017-01-05T10:45:31Z</datestamp>
      <setSpec>user-biosyslit</setSpec>
    </header>
    <header>
      <identifier>oai:zenodo.org:230910</identifier>
      <datestamp>2017-01-05T10:45:34Z</datestamp>
      <setSpec>user-biosyslit</setSpec>
    </header>
    <header>
      <identifier>oai:zenodo.org:230906</identifier>
      <datestamp>2017-01-05T10:45:22Z</datestamp>
      <setSpec>user-biosyslit</setSpec>
    </header>
    <header>
      <identifier>oai:zenodo.org:230915</identifier>
      <datestamp>2017-01-05T10:45:47Z</datestamp>
      <setSpec>user-biosyslit</setSpec>
    </header>
    <header>
      <identifier>oai:zenodo.org:230912</identifier>
      <datestamp>2017-01-05T10:45:39Z</datestamp>
      <setSpec>user-biosyslit</setSpec>
    </header>
    <header>
      <identifier>oai:zenodo.org:230903</identifier>
      <datestamp>2017-01-05T10:45:14Z</datestamp>
      <setSpec>user-biosyslit</setSpec>
    </header>
    <header>
      <identifier>oai:zenodo.org:244606</identifier>
      <datestamp>2017-01-14T23:56:44Z</datestamp>
      <setSpec>user-biosyslit</setSpec>
    </header>
    <header>
      <identifier>oai:zenodo.org:279316</identifier>
      <datestamp>2017-02-09T01:03:37Z</datestamp>
      <setSpec>user-biosyslit</setSpec>
    </header>
    <header>
      <identifier>oai:zenodo.org:279314</identifier>
      <datestamp>2017-02-09T01:03:29Z</datestamp>
      <setSpec>user-biosyslit</setSpec>
    </header>
    <header>
      <identifier>oai:zenodo.org:279318</identifier>
      <datestamp>2017-02-09T01:03:45Z</datestamp>
      <setSpec>user-biosyslit</setSpec>
    </header>
    <header>
      <identifier>oai:zenodo.org:279310</identifier>
      <datestamp>2017-02-09T01:03:18Z</datestamp>
      <setSpec>user-biosyslit</setSpec>
    </header>
    <header>
      <identifier>oai:zenodo.org:279317</identifier>
      <datestamp>2017-02-09T01:03:41Z</datestamp>
      <setSpec>user-biosyslit</setSpec>
    </header>
    <header>
      <identifier>oai:zenodo.org:244605</identifier>
      <datestamp>2017-01-14T23:56:39Z</datestamp>
      <setSpec>user-biosyslit</setSpec>
    </header>
    <header>
      <identifier>oai:zenodo.org:279313</identifier>
      <datestamp>2017-02-09T01:03:27Z</datestamp>
      <setSpec>user-biosyslit</setSpec>
    </header>
    <header>
      <identifier>oai:zenodo.org:279319</identifier>
      <datestamp>2017-02-09T01:03:49Z</datestamp>
      <setSpec>user-biosyslit</setSpec>
    </header>
    <header>
      <identifier>oai:zenodo.org:284269</identifier>
      <datestamp>2017-02-09T10:52:17Z</datestamp>
      <setSpec>user-biosyslit</setSpec>
    </header>
    <header>
      <identifier>oai:zenodo.org:284287</identifier>
      <datestamp>2017-02-09T10:52:09Z</datestamp>
      <setSpec>user-biosyslit</setSpec>
    </header>
    <header>
      <identifier>oai:zenodo.org:284282</identifier>
      <datestamp>2017-02-09T10:51:58Z</datestamp>
      <setSpec>user-biosyslit</setSpec>
    </header>
    <header>
      <identifier>oai:zenodo.org:284283</identifier>
      <datestamp>2017-02-09T10:52:01Z</datestamp>
      <setSpec>user-biosyslit</setSpec>
    </header>
    <header>
      <identifier>oai:zenodo.org:284285</identifier>
      <datestamp>2017-02-09T10:52:04Z</datestamp>
      <setSpec>user-biosyslit</setSpec>
    </header>
    <header>
      <identifier>oai:zenodo.org:284284</identifier>
      <datestamp>2017-02-09T10:52:02Z</datestamp>
      <setSpec>user-biosyslit</setSpec>
    </header>
    <header>
      <identifier>oai:zenodo.org:284289</identifier>
      <datestamp>2017-02-09T10:52:14Z</datestamp>
      <setSpec>user-biosyslit</setSpec>
    </header>
    <header>
      <identifier>oai:zenodo.org:228594</identifier>
      <datestamp>2017-01-03T02:09:25Z</datestamp>
      <setSpec>user-biosyslit</setSpec>
    </header>
    <header>
      <identifier>oai:zenodo.org:282099</identifier>
      <datestamp>2017-02-09T06:27:28Z</datestamp>
      <setSpec>user-biosyslit</setSpec>
    </header>
    <header>
      <identifier>oai:zenodo.org:282106</identifier>
      <datestamp>2017-02-09T06:27:25Z</datestamp>
      <setSpec>user-biosyslit</setSpec>
    </header>
    <header>
      <identifier>oai:zenodo.org:282105</identifier>
      <datestamp>2017-02-09T06:27:22Z</datestamp>
      <setSpec>user-biosyslit</setSpec>
    </header>
    <header>
      <identifier>oai:zenodo.org:282104</identifier>
      <datestamp>2017-02-09T06:27:19Z</datestamp>
      <setSpec>user-biosyslit</setSpec>
    </header>
    <header>
      <identifier>oai:zenodo.org:282103</identifier>
      <datestamp>2017-02-09T06:27:17Z</datestamp>
      <setSpec>user-biosyslit</setSpec>
    </header>
    <header>
      <identifier>oai:zenodo.org:248069</identifier>
      <datestamp>2017-01-16T23:19:13Z</datestamp>
      <setSpec>user-biosyslit</setSpec>
    </header>
    <header>
      <identifier>oai:zenodo.org:248066</identifier>
      <datestamp>2017-01-16T23:19:02Z</datestamp>
      <setSpec>user-biosyslit</setSpec>
    </header>
    <header>
      <identifier>oai:zenodo.org:248074</identifier>
      <datestamp>2017-01-16T23:19:32Z</datestamp>
      <setSpec>user-biosyslit</setSpec>
    </header>
    <header>
      <identifier>oai:zenodo.org:248072</identifier>
      <datestamp>2017-01-16T23:19:24Z</datestamp>
      <setSpec>user-biosyslit</setSpec>
    </header>
    <header>
      <identifier>oai:zenodo.org:248073</identifier>
      <datestamp>2017-01-16T23:19:29Z</datestamp>
      <setSpec>user-biosyslit</setSpec>
    </header>
    <header>
      <identifier>oai:zenodo.org:248068</identifier>
      <datestamp>2017-01-16T23:19:10Z</datestamp>
      <setSpec>user-biosyslit</setSpec>
    </header>
    <header>
      <identifier>oai:zenodo.org:248065</identifier>
      <datestamp>2017-01-16T23:18:59Z</datestamp>
      <setSpec>user-biosyslit</setSpec>
    </header>
    <header>
      <identifier>oai:zenodo.org:248070</identifier>
      <datestamp>2017-01-16T23:19:16Z</datestamp>
      <setSpec>user-biosyslit</setSpec>
    </header>
    <header>
      <identifier>oai:zenodo.org:245541</identifier>
      <datestamp>2017-01-15T15:04:11Z</datestamp>
      <setSpec>user-biosyslit</setSpec>
    </header>
    <header>
      <identifier>oai:zenodo.org:245543</identifier>
      <datestamp>2017-01-15T15:04:28Z</datestamp>
      <setSpec>user-biosyslit</setSpec>
    </header>
    <header>
      <identifier>oai:zenodo.org:245544</identifier>
      <datestamp>2017-01-15T15:04:31Z</datestamp>
      <setSpec>user-biosyslit</setSpec>
    </header>
    <header>
      <identifier>oai:zenodo.org:245546</identifier>
      <datestamp>2017-01-15T15:04:44Z</datestamp>
      <setSpec>user-biosyslit</setSpec>
    </header>
    <header>
      <identifier>oai:zenodo.org:245547</identifier>
      <datestamp>2017-01-15T15:04:49Z</datestamp>
      <setSpec>user-biosyslit</setSpec>
    </header>
    <header>
      <identifier>oai:zenodo.org:278802</identifier>
      <datestamp>2017-02-08T23:56:17Z</datestamp>
      <setSpec>user-biosyslit</setSpec>
    </header>
    <header>
      <identifier>oai:zenodo.org:277161</identifier>
      <datestamp>2017-02-08T20:31:47Z</datestamp>
      <setSpec>user-biosyslit</setSpec>
    </header>
    <header>
      <identifier>oai:zenodo.org:278825</identifier>
      <datestamp>2017-02-08T23:56:07Z</datestamp>
      <setSpec>user-biosyslit</setSpec>
    </header>
    <header>
      <identifier>oai:zenodo.org:278828</identifier>
      <datestamp>2017-02-08T23:56:14Z</datestamp>
      <setSpec>user-biosyslit</setSpec>
    </header>
    <resumptionToken expirationDate="2017-08-31T15:47:38Z" cursor="66600" completeListSize="77796">.eJyNyjEPQ0AYgOH_8s3SHFdHJF0aKgaEK8HSKCLqqLg2OPHfa-ncjm_eZwVeVSUY6ID1IyaarhJFJdoeEvBifDJ2a_YNRRKzomdRbsfvsItRqtSaZ_LZNVPsiRb5nSzoJVASWZ-jBi3BNXqlIpxj7EwUWZorgsV7OLsrsW-z7G4PNOrPjCrl6FvBQuUzzXDxdfKfTvx0Jj-BBENeV2AQokvQTvlYczDWbfsAqpRRVA.DInAog.X9torhnLby8NzCaw64xyy6X420s</resumptionToken>
  </ListIdentifiers>
</OAI-PMH>
