<?xml version='1.0' encoding='UTF-8'?>
<?xml-stylesheet type="text/xsl" href="/static/xsl/oai2.v1.0.xsl"?>
<OAI-PMH xmlns="http://www.openarchives.org/OAI/2.0/" xmlns:xsi="http://www.w3.org/2001/XMLSchema-instance" xsi:schemaLocation="http://www.openarchives.org/OAI/2.0/ http://www.openarchives.org/OAI/2.0/OAI-PMH.xsd">
  <responseDate>2017-08-31T15:40:43Z</responseDate>
  <request verb="ListIdentifiers" resumptionToken=".eJwNzN1ugjAAQOF36TVZyr-QeCEBHISWAKUDbhZWkAnVGcsC1vjucn2-nCcQfd8BF36o1s4xNcPRLGjapmEqQLD7H-ff5y0DVlHOrrxsj_Q_v1BYa4ONfSGxH6kpmaxGZ0ZLuWh5XLAjTRpNGLkfJ2UYXzspVuTXOpbskV5UWYSZVqm7tTzDR0bKuZb5SvVoKWBgI3LQNqcjcpsZ_C0xd06IRjOaAjX5QpDR7oGC2UtlsOCRbc-D9VPhiPrNqZJhkZDYw4U64s-wYqOXZEQs6bLfAwXc2qEHrmEoYFra-yCA-3y93ouJUkg.DIm_ew.NlTYGJqpxI2k90mO_zsLTjDev7k">https://zenodo.org/oai2d</request>
  <ListIdentifiers>
    <header>
      <identifier>oai:zenodo.org:285654</identifier>
      <datestamp>2017-02-09T14:05:07Z</datestamp>
      <setSpec>user-biosyslit</setSpec>
    </header>
    <header>
      <identifier>oai:zenodo.org:285661</identifier>
      <datestamp>2017-02-09T14:05:35Z</datestamp>
      <setSpec>user-biosyslit</setSpec>
    </header>
    <header>
      <identifier>oai:zenodo.org:286724</identifier>
      <datestamp>2017-02-09T16:39:53Z</datestamp>
      <setSpec>user-biosyslit</setSpec>
    </header>
    <header>
      <identifier>oai:zenodo.org:285430</identifier>
      <datestamp>2017-02-09T13:35:14Z</datestamp>
      <setSpec>user-biosyslit</setSpec>
    </header>
    <header>
      <identifier>oai:zenodo.org:286599</identifier>
      <datestamp>2017-02-09T16:24:27Z</datestamp>
      <setSpec>user-biosyslit</setSpec>
    </header>
    <header>
      <identifier>oai:zenodo.org:286587</identifier>
      <datestamp>2017-02-09T16:23:49Z</datestamp>
      <setSpec>user-biosyslit</setSpec>
    </header>
    <header>
      <identifier>oai:zenodo.org:287338</identifier>
      <datestamp>2017-02-09T18:04:42Z</datestamp>
      <setSpec>user-biosyslit</setSpec>
    </header>
    <header>
      <identifier>oai:zenodo.org:286556</identifier>
      <datestamp>2017-02-09T16:18:59Z</datestamp>
      <setSpec>user-biosyslit</setSpec>
    </header>
    <header>
      <identifier>oai:zenodo.org:286558</identifier>
      <datestamp>2017-02-09T16:18:41Z</datestamp>
      <setSpec>user-biosyslit</setSpec>
    </header>
    <header>
      <identifier>oai:zenodo.org:279677</identifier>
      <datestamp>2017-02-09T01:48:07Z</datestamp>
      <setSpec>user-biosyslit</setSpec>
    </header>
    <header>
      <identifier>oai:zenodo.org:575327</identifier>
      <datestamp>2017-05-12T08:06:40Z</datestamp>
      <setSpec>user-biosyslit</setSpec>
    </header>
    <header>
      <identifier>oai:zenodo.org:182204</identifier>
      <datestamp>2016-11-29T08:29:16Z</datestamp>
      <setSpec>user-biosyslit</setSpec>
    </header>
    <header>
      <identifier>oai:zenodo.org:181934</identifier>
      <datestamp>2016-12-20T02:00:51Z</datestamp>
      <setSpec>user-biosyslit</setSpec>
    </header>
    <header>
      <identifier>oai:zenodo.org:344540</identifier>
      <datestamp>2017-02-28T21:44:15Z</datestamp>
      <setSpec>user-biosyslit</setSpec>
    </header>
    <header>
      <identifier>oai:zenodo.org:344316</identifier>
      <datestamp>2017-02-28T23:41:56Z</datestamp>
      <setSpec>user-biosyslit</setSpec>
    </header>
    <header>
      <identifier>oai:zenodo.org:344612</identifier>
      <datestamp>2017-03-01T00:13:07Z</datestamp>
      <setSpec>user-biosyslit</setSpec>
    </header>
    <header>
      <identifier>oai:zenodo.org:344765</identifier>
      <datestamp>2017-03-01T08:52:58Z</datestamp>
      <setSpec>user-biosyslit</setSpec>
    </header>
    <header>
      <identifier>oai:zenodo.org:344783</identifier>
      <datestamp>2017-03-01T09:10:25Z</datestamp>
      <setSpec>user-biosyslit</setSpec>
    </header>
    <header>
      <identifier>oai:zenodo.org:344607</identifier>
      <datestamp>2017-03-01T08:00:58Z</datestamp>
      <setSpec>openaire</setSpec>
      <setSpec>user-biosyslit</setSpec>
    </header>
    <header>
      <identifier>oai:zenodo.org:345217</identifier>
      <datestamp>2017-03-03T08:19:30Z</datestamp>
      <setSpec>user-biosyslit</setSpec>
    </header>
    <header>
      <identifier>oai:zenodo.org:344665</identifier>
      <datestamp>2017-03-01T08:05:46Z</datestamp>
      <setSpec>user-biosyslit</setSpec>
    </header>
    <header>
      <identifier>oai:zenodo.org:345235</identifier>
      <datestamp>2017-03-03T08:36:34Z</datestamp>
      <setSpec>user-biosyslit</setSpec>
    </header>
    <header>
      <identifier>oai:zenodo.org:280556</identifier>
      <datestamp>2017-02-09T03:37:34Z</datestamp>
      <setSpec>user-biosyslit</setSpec>
    </header>
    <header>
      <identifier>oai:zenodo.org:181919</identifier>
      <datestamp>2016-11-29T06:57:48Z</datestamp>
      <setSpec>user-biosyslit</setSpec>
    </header>
    <header>
      <identifier>oai:zenodo.org:183182</identifier>
      <datestamp>2016-12-20T02:00:56Z</datestamp>
      <setSpec>user-biosyslit</setSpec>
    </header>
    <header>
      <identifier>oai:zenodo.org:182002</identifier>
      <datestamp>2016-12-20T02:00:56Z</datestamp>
      <setSpec>user-biosyslit</setSpec>
    </header>
    <header>
      <identifier>oai:zenodo.org:219724</identifier>
      <datestamp>2016-12-22T22:12:04Z</datestamp>
      <setSpec>user-biosyslit</setSpec>
    </header>
    <header>
      <identifier>oai:zenodo.org:219680</identifier>
      <datestamp>2016-12-22T22:00:10Z</datestamp>
      <setSpec>user-biosyslit</setSpec>
    </header>
    <header>
      <identifier>oai:zenodo.org:155278</identifier>
      <datestamp>2016-12-20T02:00:25Z</datestamp>
      <setSpec>user-biosyslit</setSpec>
    </header>
    <header>
      <identifier>oai:zenodo.org:219888</identifier>
      <datestamp>2016-12-22T23:25:25Z</datestamp>
      <setSpec>user-biosyslit</setSpec>
    </header>
    <header>
      <identifier>oai:zenodo.org:345785</identifier>
      <datestamp>2017-03-06T08:27:24Z</datestamp>
      <setSpec>user-biosyslit</setSpec>
    </header>
    <header>
      <identifier>oai:zenodo.org:155157</identifier>
      <datestamp>2017-02-20T22:44:23Z</datestamp>
      <setSpec>user-biosyslit</setSpec>
    </header>
    <header>
      <identifier>oai:zenodo.org:182547</identifier>
      <datestamp>2016-12-20T02:00:56Z</datestamp>
      <setSpec>user-biosyslit</setSpec>
    </header>
    <header>
      <identifier>oai:zenodo.org:182231</identifier>
      <datestamp>2016-12-20T02:00:55Z</datestamp>
      <setSpec>user-biosyslit</setSpec>
    </header>
    <header>
      <identifier>oai:zenodo.org:219790</identifier>
      <datestamp>2016-12-22T22:41:23Z</datestamp>
      <setSpec>user-biosyslit</setSpec>
    </header>
    <header>
      <identifier>oai:zenodo.org:182159</identifier>
      <datestamp>2016-12-20T02:01:02Z</datestamp>
      <setSpec>user-biosyslit</setSpec>
    </header>
    <header>
      <identifier>oai:zenodo.org:219975</identifier>
      <datestamp>2016-12-23T00:03:04Z</datestamp>
      <setSpec>user-biosyslit</setSpec>
    </header>
    <header>
      <identifier>oai:zenodo.org:182529</identifier>
      <datestamp>2016-12-20T02:00:57Z</datestamp>
      <setSpec>user-biosyslit</setSpec>
    </header>
    <header>
      <identifier>oai:zenodo.org:182717</identifier>
      <datestamp>2016-12-20T02:00:55Z</datestamp>
      <setSpec>user-biosyslit</setSpec>
    </header>
    <header>
      <identifier>oai:zenodo.org:279920</identifier>
      <datestamp>2017-02-09T02:17:07Z</datestamp>
      <setSpec>user-biosyslit</setSpec>
    </header>
    <header>
      <identifier>oai:zenodo.org:280506</identifier>
      <datestamp>2017-02-09T03:32:58Z</datestamp>
      <setSpec>user-biosyslit</setSpec>
    </header>
    <header>
      <identifier>oai:zenodo.org:220010</identifier>
      <datestamp>2016-12-23T00:24:32Z</datestamp>
      <setSpec>user-biosyslit</setSpec>
    </header>
    <header>
      <identifier>oai:zenodo.org:280459</identifier>
      <datestamp>2017-02-09T03:27:08Z</datestamp>
      <setSpec>user-biosyslit</setSpec>
    </header>
    <header>
      <identifier>oai:zenodo.org:182309</identifier>
      <datestamp>2016-12-20T02:00:51Z</datestamp>
      <setSpec>user-biosyslit</setSpec>
    </header>
    <header>
      <identifier>oai:zenodo.org:182472</identifier>
      <datestamp>2016-12-20T02:00:50Z</datestamp>
      <setSpec>user-biosyslit</setSpec>
    </header>
    <header>
      <identifier>oai:zenodo.org:155362</identifier>
      <datestamp>2016-12-13T12:02:45Z</datestamp>
      <setSpec>openaire</setSpec>
      <setSpec>user-biosyslit</setSpec>
      <setSpec>user-modphytomorphol</setSpec>
    </header>
    <header>
      <identifier>oai:zenodo.org:155952</identifier>
      <datestamp>2016-12-20T02:00:39Z</datestamp>
      <setSpec>user-biosyslit</setSpec>
    </header>
    <header>
      <identifier>oai:zenodo.org:155554</identifier>
      <datestamp>2016-12-20T02:00:39Z</datestamp>
      <setSpec>user-biosyslit</setSpec>
    </header>
    <header>
      <identifier>oai:zenodo.org:155508</identifier>
      <datestamp>2016-12-20T02:00:38Z</datestamp>
      <setSpec>user-biosyslit</setSpec>
    </header>
    <header>
      <identifier>oai:zenodo.org:155537</identifier>
      <datestamp>2016-12-20T02:00:39Z</datestamp>
      <setSpec>user-biosyslit</setSpec>
    </header>
    <header>
      <identifier>oai:zenodo.org:155469</identifier>
      <datestamp>2016-12-20T02:00:39Z</datestamp>
      <setSpec>user-biosyslit</setSpec>
    </header>
    <header>
      <identifier>oai:zenodo.org:281181</identifier>
      <datestamp>2017-02-09T04:52:40Z</datestamp>
      <setSpec>user-biosyslit</setSpec>
    </header>
    <header>
      <identifier>oai:zenodo.org:155917</identifier>
      <datestamp>2016-12-20T02:00:19Z</datestamp>
      <setSpec>user-biosyslit</setSpec>
    </header>
    <header>
      <identifier>oai:zenodo.org:155440</identifier>
      <datestamp>2016-12-20T02:00:38Z</datestamp>
      <setSpec>user-biosyslit</setSpec>
    </header>
    <header>
      <identifier>oai:zenodo.org:155482</identifier>
      <datestamp>2016-12-20T02:00:25Z</datestamp>
      <setSpec>user-biosyslit</setSpec>
    </header>
    <header>
      <identifier>oai:zenodo.org:280336</identifier>
      <datestamp>2017-02-09T03:12:51Z</datestamp>
      <setSpec>user-biosyslit</setSpec>
    </header>
    <header>
      <identifier>oai:zenodo.org:156034</identifier>
      <datestamp>2016-12-20T02:00:38Z</datestamp>
      <setSpec>user-biosyslit</setSpec>
    </header>
    <header>
      <identifier>oai:zenodo.org:281455</identifier>
      <datestamp>2017-02-09T05:19:43Z</datestamp>
      <setSpec>user-biosyslit</setSpec>
    </header>
    <header>
      <identifier>oai:zenodo.org:155536</identifier>
      <datestamp>2016-09-27T12:56:52Z</datestamp>
      <setSpec>user-biosyslit</setSpec>
    </header>
    <header>
      <identifier>oai:zenodo.org:155543</identifier>
      <datestamp>2016-12-20T02:00:39Z</datestamp>
      <setSpec>user-biosyslit</setSpec>
    </header>
    <header>
      <identifier>oai:zenodo.org:155606</identifier>
      <datestamp>2016-12-20T02:00:39Z</datestamp>
      <setSpec>user-biosyslit</setSpec>
    </header>
    <header>
      <identifier>oai:zenodo.org:155872</identifier>
      <datestamp>2016-12-20T02:00:38Z</datestamp>
      <setSpec>user-biosyslit</setSpec>
    </header>
    <header>
      <identifier>oai:zenodo.org:156015</identifier>
      <datestamp>2016-12-20T02:00:39Z</datestamp>
      <setSpec>user-biosyslit</setSpec>
    </header>
    <header>
      <identifier>oai:zenodo.org:156000</identifier>
      <datestamp>2016-12-20T02:00:38Z</datestamp>
      <setSpec>user-biosyslit</setSpec>
    </header>
    <header>
      <identifier>oai:zenodo.org:219940</identifier>
      <datestamp>2016-12-22T23:49:16Z</datestamp>
      <setSpec>user-biosyslit</setSpec>
    </header>
    <header>
      <identifier>oai:zenodo.org:579382</identifier>
      <datestamp>2017-05-18T07:01:42Z</datestamp>
      <setSpec>openaire</setSpec>
      <setSpec>user-biosyslit</setSpec>
    </header>
    <header>
      <identifier>oai:zenodo.org:579389</identifier>
      <datestamp>2017-05-18T07:01:22Z</datestamp>
      <setSpec>openaire</setSpec>
      <setSpec>user-biosyslit</setSpec>
    </header>
    <header>
      <identifier>oai:zenodo.org:579329</identifier>
      <datestamp>2017-05-18T07:02:57Z</datestamp>
      <setSpec>openaire</setSpec>
      <setSpec>user-biosyslit</setSpec>
    </header>
    <header>
      <identifier>oai:zenodo.org:155656</identifier>
      <datestamp>2016-12-20T02:00:25Z</datestamp>
      <setSpec>user-biosyslit</setSpec>
    </header>
    <header>
      <identifier>oai:zenodo.org:155995</identifier>
      <datestamp>2016-12-20T02:00:38Z</datestamp>
      <setSpec>user-biosyslit</setSpec>
    </header>
    <header>
      <identifier>oai:zenodo.org:155883</identifier>
      <datestamp>2016-12-20T02:00:42Z</datestamp>
      <setSpec>user-biosyslit</setSpec>
    </header>
    <header>
      <identifier>oai:zenodo.org:156137</identifier>
      <datestamp>2016-12-20T02:00:39Z</datestamp>
      <setSpec>user-biosyslit</setSpec>
    </header>
    <header>
      <identifier>oai:zenodo.org:280469</identifier>
      <datestamp>2017-02-09T03:27:32Z</datestamp>
      <setSpec>user-biosyslit</setSpec>
    </header>
    <header>
      <identifier>oai:zenodo.org:155829</identifier>
      <datestamp>2016-09-27T14:25:57Z</datestamp>
      <setSpec>user-biosyslit</setSpec>
    </header>
    <header>
      <identifier>oai:zenodo.org:579299</identifier>
      <datestamp>2017-05-18T07:03:43Z</datestamp>
      <setSpec>openaire</setSpec>
      <setSpec>user-biosyslit</setSpec>
    </header>
    <header>
      <identifier>oai:zenodo.org:156274</identifier>
      <datestamp>2016-12-20T02:00:42Z</datestamp>
      <setSpec>user-biosyslit</setSpec>
    </header>
    <header>
      <identifier>oai:zenodo.org:580548</identifier>
      <datestamp>2017-05-17T08:50:40Z</datestamp>
      <setSpec>user-biosyslit</setSpec>
    </header>
    <header>
      <identifier>oai:zenodo.org:157347</identifier>
      <datestamp>2016-12-20T02:00:43Z</datestamp>
      <setSpec>user-biosyslit</setSpec>
    </header>
    <header>
      <identifier>oai:zenodo.org:579279</identifier>
      <datestamp>2017-05-18T07:04:07Z</datestamp>
      <setSpec>openaire</setSpec>
      <setSpec>user-biosyslit</setSpec>
    </header>
    <header>
      <identifier>oai:zenodo.org:579374</identifier>
      <datestamp>2017-05-18T07:01:53Z</datestamp>
      <setSpec>openaire</setSpec>
      <setSpec>user-biosyslit</setSpec>
    </header>
    <header>
      <identifier>oai:zenodo.org:156281</identifier>
      <datestamp>2016-12-20T02:00:43Z</datestamp>
      <setSpec>user-biosyslit</setSpec>
    </header>
    <header>
      <identifier>oai:zenodo.org:579522</identifier>
      <datestamp>2017-05-18T06:55:07Z</datestamp>
      <setSpec>openaire</setSpec>
      <setSpec>user-biosyslit</setSpec>
    </header>
    <header>
      <identifier>oai:zenodo.org:156263</identifier>
      <datestamp>2016-12-20T02:00:43Z</datestamp>
      <setSpec>user-biosyslit</setSpec>
    </header>
    <header>
      <identifier>oai:zenodo.org:580927</identifier>
      <datestamp>2017-05-18T08:14:56Z</datestamp>
      <setSpec>user-biosyslit</setSpec>
    </header>
    <header>
      <identifier>oai:zenodo.org:579529</identifier>
      <datestamp>2017-05-18T06:54:49Z</datestamp>
      <setSpec>openaire</setSpec>
      <setSpec>user-biosyslit</setSpec>
    </header>
    <header>
      <identifier>oai:zenodo.org:155897</identifier>
      <datestamp>2016-12-20T02:00:39Z</datestamp>
      <setSpec>user-biosyslit</setSpec>
    </header>
    <header>
      <identifier>oai:zenodo.org:156357</identifier>
      <datestamp>2016-09-27T22:15:44Z</datestamp>
      <setSpec>user-biosyslit</setSpec>
    </header>
    <header>
      <identifier>oai:zenodo.org:280887</identifier>
      <datestamp>2017-02-09T04:16:47Z</datestamp>
      <setSpec>user-biosyslit</setSpec>
    </header>
    <header>
      <identifier>oai:zenodo.org:580493</identifier>
      <datestamp>2017-05-17T08:08:06Z</datestamp>
      <setSpec>user-biosyslit</setSpec>
    </header>
    <header>
      <identifier>oai:zenodo.org:155962</identifier>
      <datestamp>2016-12-20T02:00:39Z</datestamp>
      <setSpec>user-biosyslit</setSpec>
    </header>
    <header>
      <identifier>oai:zenodo.org:281252</identifier>
      <datestamp>2017-02-09T05:01:12Z</datestamp>
      <setSpec>user-biosyslit</setSpec>
    </header>
    <header>
      <identifier>oai:zenodo.org:155907</identifier>
      <datestamp>2016-12-20T02:00:23Z</datestamp>
      <setSpec>user-biosyslit</setSpec>
    </header>
    <header>
      <identifier>oai:zenodo.org:156224</identifier>
      <datestamp>2016-12-20T02:00:24Z</datestamp>
      <setSpec>user-biosyslit</setSpec>
    </header>
    <header>
      <identifier>oai:zenodo.org:281606</identifier>
      <datestamp>2017-02-09T05:36:28Z</datestamp>
      <setSpec>user-biosyslit</setSpec>
    </header>
    <header>
      <identifier>oai:zenodo.org:281255</identifier>
      <datestamp>2017-02-09T05:01:20Z</datestamp>
      <setSpec>user-biosyslit</setSpec>
    </header>
    <header>
      <identifier>oai:zenodo.org:281158</identifier>
      <datestamp>2017-02-09T04:49:40Z</datestamp>
      <setSpec>user-biosyslit</setSpec>
    </header>
    <header>
      <identifier>oai:zenodo.org:580458</identifier>
      <datestamp>2017-05-17T07:16:06Z</datestamp>
      <setSpec>user-biosyslit</setSpec>
    </header>
    <header>
      <identifier>oai:zenodo.org:156275</identifier>
      <datestamp>2016-12-20T02:00:42Z</datestamp>
      <setSpec>user-biosyslit</setSpec>
    </header>
    <header>
      <identifier>oai:zenodo.org:157054</identifier>
      <datestamp>2016-12-20T02:00:24Z</datestamp>
      <setSpec>user-biosyslit</setSpec>
    </header>
    <header>
      <identifier>oai:zenodo.org:156300</identifier>
      <datestamp>2016-12-20T02:00:25Z</datestamp>
      <setSpec>user-biosyslit</setSpec>
    </header>
    <resumptionToken expirationDate="2017-08-31T15:42:43Z" cursor="4300" completeListSize="142507">.eJwNzNtugjAAgOF36TVZSkFOiRcSwEFoCacOuFlYQSZUZywLWOO7y_X_5X8C0fcdcOCHbZhohyxkW4Zp69BUgGD3P86_z1sGrKKcXXnZHul_dqGwRoNJPCGJF6pJMRmNxvSWctHyKGdHGjdI6JkXxWUQXTspVuzVGpHskVxUmQcpqlRrLc_wkRblXMtspVq45NA3cXFAm9NwcZsZ_C0Jt0-YhjOefDX-wpDR7oH92U2kv5CRbc-D8VORkHrNqZJBHheRS3J1JJ9BxUY3TguxJMt-DxRwa4ceOPpOAdPS3gcBnOfr9QaXuFJW.DIm_ew.ruVbE9lfBqYqN8ouKuY_aIcP4Vc</resumptionToken>
  </ListIdentifiers>
</OAI-PMH>
