<?xml version='1.0' encoding='UTF-8'?>
<?xml-stylesheet type="text/xsl" href="/static/xsl/oai2.v1.0.xsl"?>
<OAI-PMH xmlns="http://www.openarchives.org/OAI/2.0/" xmlns:xsi="http://www.w3.org/2001/XMLSchema-instance" xsi:schemaLocation="http://www.openarchives.org/OAI/2.0/ http://www.openarchives.org/OAI/2.0/OAI-PMH.xsd">
  <responseDate>2017-08-31T15:41:08Z</responseDate>
  <request verb="ListIdentifiers" resumptionToken=".eJyNykELgjAYgOH_8p0lNhdNhS6hiQcVXUp6CVMRc5q4Qp343_PSuW4vvM8CoiwLMNBO1_cI65RqRKdbqwqIfHhyfqu3Dfk15nnHo8yO32Ebo0StqGeKyTUT4skG-S2W7ByoV6xNUY3m4BK9EhlOMXFGhizqymD2Hs7mCuLbPL3bPYu6E2dqMfhWMDN8YinJvw7_6eRPZ4ojKNBnVQkGPijQjNlQCTCWdf0AZdFRIw.DIm_lA.IDF2s4Iqzx1RhsReOXue6Rx5rbM">https://zenodo.org/oai2d</request>
  <ListIdentifiers>
    <header>
      <identifier>oai:zenodo.org:266154</identifier>
      <datestamp>2017-02-01T01:28:39Z</datestamp>
      <setSpec>user-biosyslit</setSpec>
    </header>
    <header>
      <identifier>oai:zenodo.org:266099</identifier>
      <datestamp>2017-02-01T00:25:09Z</datestamp>
      <setSpec>user-biosyslit</setSpec>
    </header>
    <header>
      <identifier>oai:zenodo.org:266319</identifier>
      <datestamp>2017-02-01T06:16:54Z</datestamp>
      <setSpec>user-biosyslit</setSpec>
    </header>
    <header>
      <identifier>oai:zenodo.org:266525</identifier>
      <datestamp>2017-02-01T11:32:37Z</datestamp>
      <setSpec>user-biosyslit</setSpec>
    </header>
    <header>
      <identifier>oai:zenodo.org:266519</identifier>
      <datestamp>2017-02-01T11:25:05Z</datestamp>
      <setSpec>user-biosyslit</setSpec>
    </header>
    <header>
      <identifier>oai:zenodo.org:266510</identifier>
      <datestamp>2017-02-01T11:17:51Z</datestamp>
      <setSpec>user-biosyslit</setSpec>
    </header>
    <header>
      <identifier>oai:zenodo.org:267011</identifier>
      <datestamp>2017-02-01T18:10:33Z</datestamp>
      <setSpec>user-biosyslit</setSpec>
    </header>
    <header>
      <identifier>oai:zenodo.org:267441</identifier>
      <datestamp>2017-02-02T02:11:55Z</datestamp>
      <setSpec>user-biosyslit</setSpec>
    </header>
    <header>
      <identifier>oai:zenodo.org:267258</identifier>
      <datestamp>2017-02-01T23:24:12Z</datestamp>
      <setSpec>user-biosyslit</setSpec>
    </header>
    <header>
      <identifier>oai:zenodo.org:267400</identifier>
      <datestamp>2017-02-02T01:42:01Z</datestamp>
      <setSpec>user-biosyslit</setSpec>
    </header>
    <header>
      <identifier>oai:zenodo.org:266922</identifier>
      <datestamp>2017-02-01T17:07:02Z</datestamp>
      <setSpec>user-biosyslit</setSpec>
    </header>
    <header>
      <identifier>oai:zenodo.org:267019</identifier>
      <datestamp>2017-02-01T18:19:52Z</datestamp>
      <setSpec>user-biosyslit</setSpec>
    </header>
    <header>
      <identifier>oai:zenodo.org:267218</identifier>
      <datestamp>2017-02-01T23:00:02Z</datestamp>
      <setSpec>user-biosyslit</setSpec>
    </header>
    <header>
      <identifier>oai:zenodo.org:267729</identifier>
      <datestamp>2017-02-02T06:23:24Z</datestamp>
      <setSpec>user-biosyslit</setSpec>
    </header>
    <header>
      <identifier>oai:zenodo.org:267596</identifier>
      <datestamp>2017-02-02T04:48:28Z</datestamp>
      <setSpec>user-biosyslit</setSpec>
    </header>
    <header>
      <identifier>oai:zenodo.org:268080</identifier>
      <datestamp>2017-02-03T01:32:29Z</datestamp>
      <setSpec>user-biosyslit</setSpec>
    </header>
    <header>
      <identifier>oai:zenodo.org:268079</identifier>
      <datestamp>2017-02-03T01:32:27Z</datestamp>
      <setSpec>user-biosyslit</setSpec>
    </header>
    <header>
      <identifier>oai:zenodo.org:267920</identifier>
      <datestamp>2017-02-02T10:12:34Z</datestamp>
      <setSpec>user-biosyslit</setSpec>
    </header>
    <header>
      <identifier>oai:zenodo.org:267883</identifier>
      <datestamp>2017-02-02T09:00:17Z</datestamp>
      <setSpec>user-biosyslit</setSpec>
    </header>
    <header>
      <identifier>oai:zenodo.org:267873</identifier>
      <datestamp>2017-02-02T08:51:42Z</datestamp>
      <setSpec>user-biosyslit</setSpec>
    </header>
    <header>
      <identifier>oai:zenodo.org:269217</identifier>
      <datestamp>2017-02-06T23:30:32Z</datestamp>
      <setSpec>user-biosyslit</setSpec>
    </header>
    <header>
      <identifier>oai:zenodo.org:268313</identifier>
      <datestamp>2017-02-03T11:03:38Z</datestamp>
      <setSpec>user-biosyslit</setSpec>
    </header>
    <header>
      <identifier>oai:zenodo.org:269066</identifier>
      <datestamp>2017-02-06T22:40:30Z</datestamp>
      <setSpec>user-biosyslit</setSpec>
    </header>
    <header>
      <identifier>oai:zenodo.org:275048</identifier>
      <datestamp>2017-02-08T15:08:53Z</datestamp>
      <setSpec>user-biosyslit</setSpec>
    </header>
    <header>
      <identifier>oai:zenodo.org:276370</identifier>
      <datestamp>2017-02-08T18:43:25Z</datestamp>
      <setSpec>user-biosyslit</setSpec>
    </header>
    <header>
      <identifier>oai:zenodo.org:275926</identifier>
      <datestamp>2017-02-08T17:22:34Z</datestamp>
      <setSpec>user-biosyslit</setSpec>
    </header>
    <header>
      <identifier>oai:zenodo.org:275563</identifier>
      <datestamp>2017-02-08T16:42:22Z</datestamp>
      <setSpec>user-biosyslit</setSpec>
    </header>
    <header>
      <identifier>oai:zenodo.org:269615</identifier>
      <datestamp>2017-03-08T12:01:05Z</datestamp>
      <setSpec>openaire</setSpec>
      <setSpec>user-biosyslit</setSpec>
    </header>
    <header>
      <identifier>oai:zenodo.org:275759</identifier>
      <datestamp>2017-02-08T17:02:12Z</datestamp>
      <setSpec>user-biosyslit</setSpec>
    </header>
    <header>
      <identifier>oai:zenodo.org:277637</identifier>
      <datestamp>2017-02-08T21:30:53Z</datestamp>
      <setSpec>user-biosyslit</setSpec>
    </header>
    <header>
      <identifier>oai:zenodo.org:278951</identifier>
      <datestamp>2017-02-09T00:13:51Z</datestamp>
      <setSpec>user-biosyslit</setSpec>
    </header>
    <header>
      <identifier>oai:zenodo.org:277957</identifier>
      <datestamp>2017-02-08T22:09:14Z</datestamp>
      <setSpec>user-biosyslit</setSpec>
    </header>
    <header>
      <identifier>oai:zenodo.org:279215</identifier>
      <datestamp>2017-02-09T00:49:01Z</datestamp>
      <setSpec>user-biosyslit</setSpec>
    </header>
    <header>
      <identifier>oai:zenodo.org:278799</identifier>
      <datestamp>2017-02-08T23:54:29Z</datestamp>
      <setSpec>user-biosyslit</setSpec>
    </header>
    <header>
      <identifier>oai:zenodo.org:278539</identifier>
      <datestamp>2017-02-08T23:22:09Z</datestamp>
      <setSpec>user-biosyslit</setSpec>
    </header>
    <header>
      <identifier>oai:zenodo.org:280772</identifier>
      <datestamp>2017-02-09T04:03:33Z</datestamp>
      <setSpec>user-biosyslit</setSpec>
    </header>
    <header>
      <identifier>oai:zenodo.org:283950</identifier>
      <datestamp>2017-02-09T10:07:24Z</datestamp>
      <setSpec>user-biosyslit</setSpec>
    </header>
    <header>
      <identifier>oai:zenodo.org:281847</identifier>
      <datestamp>2017-02-09T06:01:02Z</datestamp>
      <setSpec>user-biosyslit</setSpec>
    </header>
    <header>
      <identifier>oai:zenodo.org:282373</identifier>
      <datestamp>2017-02-09T06:54:18Z</datestamp>
      <setSpec>user-biosyslit</setSpec>
    </header>
    <header>
      <identifier>oai:zenodo.org:282623</identifier>
      <datestamp>2017-02-09T07:19:47Z</datestamp>
      <setSpec>user-biosyslit</setSpec>
    </header>
    <header>
      <identifier>oai:zenodo.org:282871</identifier>
      <datestamp>2017-02-09T07:45:38Z</datestamp>
      <setSpec>user-biosyslit</setSpec>
    </header>
    <header>
      <identifier>oai:zenodo.org:283700</identifier>
      <datestamp>2017-02-09T09:28:53Z</datestamp>
      <setSpec>user-biosyslit</setSpec>
    </header>
    <header>
      <identifier>oai:zenodo.org:283416</identifier>
      <datestamp>2017-02-09T08:51:20Z</datestamp>
      <setSpec>user-biosyslit</setSpec>
    </header>
    <header>
      <identifier>oai:zenodo.org:284029</identifier>
      <datestamp>2017-02-09T10:11:28Z</datestamp>
      <setSpec>user-biosyslit</setSpec>
    </header>
    <header>
      <identifier>oai:zenodo.org:286961</identifier>
      <datestamp>2017-02-09T17:08:29Z</datestamp>
      <setSpec>user-biosyslit</setSpec>
    </header>
    <header>
      <identifier>oai:zenodo.org:285503</identifier>
      <datestamp>2017-02-09T13:43:55Z</datestamp>
      <setSpec>user-biosyslit</setSpec>
    </header>
    <header>
      <identifier>oai:zenodo.org:286200</identifier>
      <datestamp>2017-02-09T15:28:06Z</datestamp>
      <setSpec>user-biosyslit</setSpec>
    </header>
    <header>
      <identifier>oai:zenodo.org:286572</identifier>
      <datestamp>2017-02-09T16:23:13Z</datestamp>
      <setSpec>user-biosyslit</setSpec>
    </header>
    <header>
      <identifier>oai:zenodo.org:285655</identifier>
      <datestamp>2017-02-09T14:05:09Z</datestamp>
      <setSpec>user-biosyslit</setSpec>
    </header>
    <header>
      <identifier>oai:zenodo.org:286651</identifier>
      <datestamp>2017-02-09T16:31:29Z</datestamp>
      <setSpec>user-biosyslit</setSpec>
    </header>
    <header>
      <identifier>oai:zenodo.org:286006</identifier>
      <datestamp>2017-02-09T15:01:40Z</datestamp>
      <setSpec>user-biosyslit</setSpec>
    </header>
    <header>
      <identifier>oai:zenodo.org:286061</identifier>
      <datestamp>2017-02-09T15:09:13Z</datestamp>
      <setSpec>user-biosyslit</setSpec>
    </header>
    <header>
      <identifier>oai:zenodo.org:287336</identifier>
      <datestamp>2017-02-09T18:04:37Z</datestamp>
      <setSpec>user-biosyslit</setSpec>
    </header>
    <header>
      <identifier>oai:zenodo.org:286758</identifier>
      <datestamp>2017-02-09T16:45:39Z</datestamp>
      <setSpec>user-biosyslit</setSpec>
    </header>
    <header>
      <identifier>oai:zenodo.org:286483</identifier>
      <datestamp>2017-02-09T16:06:40Z</datestamp>
      <setSpec>user-biosyslit</setSpec>
    </header>
    <header>
      <identifier>oai:zenodo.org:286754</identifier>
      <datestamp>2017-02-09T16:45:30Z</datestamp>
      <setSpec>user-biosyslit</setSpec>
    </header>
    <header>
      <identifier>oai:zenodo.org:287277</identifier>
      <datestamp>2017-02-09T17:56:58Z</datestamp>
      <setSpec>user-biosyslit</setSpec>
    </header>
    <header>
      <identifier>oai:zenodo.org:286843</identifier>
      <datestamp>2017-02-09T16:57:13Z</datestamp>
      <setSpec>user-biosyslit</setSpec>
    </header>
    <header>
      <identifier>oai:zenodo.org:288799</identifier>
      <datestamp>2017-02-09T21:53:28Z</datestamp>
      <setSpec>user-biosyslit</setSpec>
    </header>
    <header>
      <identifier>oai:zenodo.org:287855</identifier>
      <datestamp>2017-02-09T19:26:34Z</datestamp>
      <setSpec>user-biosyslit</setSpec>
    </header>
    <header>
      <identifier>oai:zenodo.org:288367</identifier>
      <datestamp>2017-02-09T20:44:59Z</datestamp>
      <setSpec>user-biosyslit</setSpec>
    </header>
    <header>
      <identifier>oai:zenodo.org:288302</identifier>
      <datestamp>2017-02-09T20:33:05Z</datestamp>
      <setSpec>user-biosyslit</setSpec>
    </header>
    <header>
      <identifier>oai:zenodo.org:287659</identifier>
      <datestamp>2017-02-09T18:52:13Z</datestamp>
      <setSpec>user-biosyslit</setSpec>
    </header>
    <header>
      <identifier>oai:zenodo.org:287859</identifier>
      <datestamp>2017-02-09T19:26:44Z</datestamp>
      <setSpec>user-biosyslit</setSpec>
    </header>
    <header>
      <identifier>oai:zenodo.org:287830</identifier>
      <datestamp>2017-02-09T19:24:03Z</datestamp>
      <setSpec>user-biosyslit</setSpec>
    </header>
    <header>
      <identifier>oai:zenodo.org:288780</identifier>
      <datestamp>2017-02-09T21:52:26Z</datestamp>
      <setSpec>user-biosyslit</setSpec>
    </header>
    <header>
      <identifier>oai:zenodo.org:288048</identifier>
      <datestamp>2017-02-09T19:55:10Z</datestamp>
      <setSpec>user-biosyslit</setSpec>
    </header>
    <header>
      <identifier>oai:zenodo.org:288041</identifier>
      <datestamp>2017-02-09T19:54:52Z</datestamp>
      <setSpec>user-biosyslit</setSpec>
    </header>
    <header>
      <identifier>oai:zenodo.org:288616</identifier>
      <datestamp>2017-02-09T21:34:51Z</datestamp>
      <setSpec>user-biosyslit</setSpec>
    </header>
    <header>
      <identifier>oai:zenodo.org:289637</identifier>
      <datestamp>2017-02-10T00:01:41Z</datestamp>
      <setSpec>user-biosyslit</setSpec>
    </header>
    <header>
      <identifier>oai:zenodo.org:289758</identifier>
      <datestamp>2017-02-10T00:25:51Z</datestamp>
      <setSpec>user-biosyslit</setSpec>
    </header>
    <header>
      <identifier>oai:zenodo.org:289954</identifier>
      <datestamp>2017-02-10T00:51:24Z</datestamp>
      <setSpec>user-biosyslit</setSpec>
    </header>
    <header>
      <identifier>oai:zenodo.org:294430</identifier>
      <datestamp>2017-02-20T19:38:22Z</datestamp>
      <setSpec>user-biosyslit</setSpec>
    </header>
    <header>
      <identifier>oai:zenodo.org:311043</identifier>
      <datestamp>2017-02-21T00:14:52Z</datestamp>
      <setSpec>user-biosyslit</setSpec>
    </header>
    <header>
      <identifier>oai:zenodo.org:264948</identifier>
      <datestamp>2017-01-31T05:02:13Z</datestamp>
      <setSpec>user-biosyslit</setSpec>
    </header>
    <header>
      <identifier>oai:zenodo.org:265317</identifier>
      <datestamp>2017-01-31T12:15:30Z</datestamp>
      <setSpec>user-biosyslit</setSpec>
    </header>
    <header>
      <identifier>oai:zenodo.org:265398</identifier>
      <datestamp>2017-01-31T13:36:20Z</datestamp>
      <setSpec>user-biosyslit</setSpec>
    </header>
    <header>
      <identifier>oai:zenodo.org:266476</identifier>
      <datestamp>2017-02-01T10:35:43Z</datestamp>
      <setSpec>user-biosyslit</setSpec>
    </header>
    <header>
      <identifier>oai:zenodo.org:267276</identifier>
      <datestamp>2017-02-01T23:36:31Z</datestamp>
      <setSpec>user-biosyslit</setSpec>
    </header>
    <header>
      <identifier>oai:zenodo.org:266237</identifier>
      <datestamp>2017-02-01T03:25:25Z</datestamp>
      <setSpec>user-biosyslit</setSpec>
    </header>
    <header>
      <identifier>oai:zenodo.org:266293</identifier>
      <datestamp>2017-02-01T05:40:37Z</datestamp>
      <setSpec>user-biosyslit</setSpec>
    </header>
    <header>
      <identifier>oai:zenodo.org:266686</identifier>
      <datestamp>2017-02-01T13:41:42Z</datestamp>
      <setSpec>user-biosyslit</setSpec>
    </header>
    <header>
      <identifier>oai:zenodo.org:266625</identifier>
      <datestamp>2017-02-01T12:47:43Z</datestamp>
      <setSpec>user-biosyslit</setSpec>
    </header>
    <header>
      <identifier>oai:zenodo.org:267316</identifier>
      <datestamp>2017-02-02T00:11:45Z</datestamp>
      <setSpec>user-biosyslit</setSpec>
    </header>
    <header>
      <identifier>oai:zenodo.org:268208</identifier>
      <datestamp>2017-02-03T04:10:09Z</datestamp>
      <setSpec>user-biosyslit</setSpec>
    </header>
    <header>
      <identifier>oai:zenodo.org:267174</identifier>
      <datestamp>2017-02-01T20:33:12Z</datestamp>
      <setSpec>user-biosyslit</setSpec>
    </header>
    <header>
      <identifier>oai:zenodo.org:267706</identifier>
      <datestamp>2017-02-02T06:05:48Z</datestamp>
      <setSpec>user-biosyslit</setSpec>
    </header>
    <header>
      <identifier>oai:zenodo.org:267212</identifier>
      <datestamp>2017-02-01T22:28:27Z</datestamp>
      <setSpec>user-biosyslit</setSpec>
    </header>
    <header>
      <identifier>oai:zenodo.org:274368</identifier>
      <datestamp>2017-02-08T13:02:36Z</datestamp>
      <setSpec>user-biosyslit</setSpec>
    </header>
    <header>
      <identifier>oai:zenodo.org:268185</identifier>
      <datestamp>2017-02-03T02:57:03Z</datestamp>
      <setSpec>user-biosyslit</setSpec>
    </header>
    <header>
      <identifier>oai:zenodo.org:269039</identifier>
      <datestamp>2017-02-06T22:35:58Z</datestamp>
      <setSpec>user-biosyslit</setSpec>
    </header>
    <header>
      <identifier>oai:zenodo.org:269304</identifier>
      <datestamp>2017-02-06T23:50:38Z</datestamp>
      <setSpec>user-biosyslit</setSpec>
    </header>
    <header>
      <identifier>oai:zenodo.org:274643</identifier>
      <datestamp>2017-02-08T13:52:35Z</datestamp>
      <setSpec>user-biosyslit</setSpec>
    </header>
    <header>
      <identifier>oai:zenodo.org:269167</identifier>
      <datestamp>2017-02-06T22:54:35Z</datestamp>
      <setSpec>user-biosyslit</setSpec>
    </header>
    <header>
      <identifier>oai:zenodo.org:274827</identifier>
      <datestamp>2017-02-08T14:32:01Z</datestamp>
      <setSpec>user-biosyslit</setSpec>
    </header>
    <header>
      <identifier>oai:zenodo.org:274732</identifier>
      <datestamp>2017-02-08T14:08:06Z</datestamp>
      <setSpec>user-biosyslit</setSpec>
    </header>
    <header>
      <identifier>oai:zenodo.org:276062</identifier>
      <datestamp>2017-02-08T18:02:33Z</datestamp>
      <setSpec>user-biosyslit</setSpec>
    </header>
    <header>
      <identifier>oai:zenodo.org:275397</identifier>
      <datestamp>2017-02-08T16:13:12Z</datestamp>
      <setSpec>user-biosyslit</setSpec>
    </header>
    <header>
      <identifier>oai:zenodo.org:275754</identifier>
      <datestamp>2017-02-08T17:02:00Z</datestamp>
      <setSpec>user-biosyslit</setSpec>
    </header>
    <header>
      <identifier>oai:zenodo.org:276104</identifier>
      <datestamp>2017-02-08T18:07:51Z</datestamp>
      <setSpec>user-biosyslit</setSpec>
    </header>
    <resumptionToken expirationDate="2017-08-31T15:43:08Z" cursor="1500" completeListSize="77796">.eJyNysEKgjAYAOB3-c8S_xw4E7qEJh5UdCnZJUxFzGniCnXSu9elc52_bwVZVSVYuCGGgQwZI_rWQDSYqYEsxrsQl-bjUJxSUfQiyd30GXcpZnrNAlvOvp3RQLUYdkTxQ6SfiDknDS7RMXlkKp5T6k0cHearaAlu3ueVNHTF-eoOPOn3guvlGDrRwsmen2nxfeTPp34-W-5AgyGvK7AI06Cd8rGWYK2v1xuAW1E8.DIm_lA.P67TGpkpO2XzIPSTAq4fCH0Ey3A</resumptionToken>
  </ListIdentifiers>
</OAI-PMH>
