<?xml version='1.0' encoding='UTF-8'?>
<?xml-stylesheet type="text/xsl" href="/static/xsl/oai2.v1.0.xsl"?>
<OAI-PMH xmlns="http://www.openarchives.org/OAI/2.0/" xmlns:xsi="http://www.w3.org/2001/XMLSchema-instance" xsi:schemaLocation="http://www.openarchives.org/OAI/2.0/ http://www.openarchives.org/OAI/2.0/OAI-PMH.xsd">
  <responseDate>2017-08-31T15:43:59Z</responseDate>
  <request verb="ListIdentifiers" resumptionToken=".eJyNyssKgkAUANB_uWuJeZQvaBOWtFDRSVE3YSpSjiZOoY7477lpXetzZhBlWYCJNgZFGKkaobqKNdXQFRB5_-T8el8Z8jjiecvDzI7eQROhhFSaa4nRsRLqyhp5DZbs5JMY62N4R5N_CV-JDMaIngeGjpoj_cl9nNdXUM_m6c3uWNgeOCNF7x39ieEDS2n-ffjPJ38-S-xBgS6rSjC3O6JAPWR9JcCcl-UDoW9RQg.DInAPg.bzmg5tQqtpLUQelSK-oX_eWKClY">https://zenodo.org/oai2d</request>
  <ListIdentifiers>
    <header>
      <identifier>oai:zenodo.org:288527</identifier>
      <datestamp>2017-02-09T21:05:36Z</datestamp>
      <setSpec>user-biosyslit</setSpec>
    </header>
    <header>
      <identifier>oai:zenodo.org:227527</identifier>
      <datestamp>2017-01-01T23:19:53Z</datestamp>
      <setSpec>user-biosyslit</setSpec>
    </header>
    <header>
      <identifier>oai:zenodo.org:288188</identifier>
      <datestamp>2017-02-09T20:16:04Z</datestamp>
      <setSpec>user-biosyslit</setSpec>
    </header>
    <header>
      <identifier>oai:zenodo.org:495055</identifier>
      <datestamp>2017-04-05T07:30:08Z</datestamp>
      <setSpec>user-biosyslit</setSpec>
    </header>
    <header>
      <identifier>oai:zenodo.org:227532</identifier>
      <datestamp>2017-01-01T23:19:49Z</datestamp>
      <setSpec>user-biosyslit</setSpec>
    </header>
    <header>
      <identifier>oai:zenodo.org:227734</identifier>
      <datestamp>2017-01-02T03:26:11Z</datestamp>
      <setSpec>user-biosyslit</setSpec>
    </header>
    <header>
      <identifier>oai:zenodo.org:227430</identifier>
      <datestamp>2017-01-01T21:20:56Z</datestamp>
      <setSpec>user-biosyslit</setSpec>
    </header>
    <header>
      <identifier>oai:zenodo.org:227571</identifier>
      <datestamp>2017-01-01T23:58:46Z</datestamp>
      <setSpec>user-biosyslit</setSpec>
    </header>
    <header>
      <identifier>oai:zenodo.org:229224</identifier>
      <datestamp>2017-01-03T12:38:29Z</datestamp>
      <setSpec>user-biosyslit</setSpec>
    </header>
    <header>
      <identifier>oai:zenodo.org:228007</identifier>
      <datestamp>2017-01-02T08:21:57Z</datestamp>
      <setSpec>user-biosyslit</setSpec>
    </header>
    <header>
      <identifier>oai:zenodo.org:227818</identifier>
      <datestamp>2017-01-02T05:31:10Z</datestamp>
      <setSpec>user-biosyslit</setSpec>
    </header>
    <header>
      <identifier>oai:zenodo.org:495312</identifier>
      <datestamp>2017-04-06T07:47:00Z</datestamp>
      <setSpec>user-biosyslit</setSpec>
    </header>
    <header>
      <identifier>oai:zenodo.org:228926</identifier>
      <datestamp>2017-01-03T07:11:24Z</datestamp>
      <setSpec>user-biosyslit</setSpec>
    </header>
    <header>
      <identifier>oai:zenodo.org:228708</identifier>
      <datestamp>2017-01-03T03:40:43Z</datestamp>
      <setSpec>user-biosyslit</setSpec>
    </header>
    <header>
      <identifier>oai:zenodo.org:227759</identifier>
      <datestamp>2017-01-02T04:16:32Z</datestamp>
      <setSpec>user-biosyslit</setSpec>
    </header>
    <header>
      <identifier>oai:zenodo.org:229149</identifier>
      <datestamp>2017-01-03T11:05:47Z</datestamp>
      <setSpec>user-biosyslit</setSpec>
    </header>
    <header>
      <identifier>oai:zenodo.org:227996</identifier>
      <datestamp>2017-01-02T08:15:52Z</datestamp>
      <setSpec>user-biosyslit</setSpec>
    </header>
    <header>
      <identifier>oai:zenodo.org:229800</identifier>
      <datestamp>2017-01-04T07:22:19Z</datestamp>
      <setSpec>user-biosyslit</setSpec>
    </header>
    <header>
      <identifier>oai:zenodo.org:229202</identifier>
      <datestamp>2017-01-03T12:22:08Z</datestamp>
      <setSpec>user-biosyslit</setSpec>
    </header>
    <header>
      <identifier>oai:zenodo.org:227811</identifier>
      <datestamp>2017-01-02T05:27:43Z</datestamp>
      <setSpec>user-biosyslit</setSpec>
    </header>
    <header>
      <identifier>oai:zenodo.org:495877</identifier>
      <datestamp>2017-04-10T08:08:22Z</datestamp>
      <setSpec>user-biosyslit</setSpec>
    </header>
    <header>
      <identifier>oai:zenodo.org:228985</identifier>
      <datestamp>2017-01-03T08:05:10Z</datestamp>
      <setSpec>user-biosyslit</setSpec>
    </header>
    <header>
      <identifier>oai:zenodo.org:288300</identifier>
      <datestamp>2017-02-09T20:32:59Z</datestamp>
      <setSpec>user-biosyslit</setSpec>
    </header>
    <header>
      <identifier>oai:zenodo.org:228791</identifier>
      <datestamp>2017-01-03T05:01:16Z</datestamp>
      <setSpec>user-biosyslit</setSpec>
    </header>
    <header>
      <identifier>oai:zenodo.org:229392</identifier>
      <datestamp>2017-01-03T15:14:50Z</datestamp>
      <setSpec>user-biosyslit</setSpec>
    </header>
    <header>
      <identifier>oai:zenodo.org:227945</identifier>
      <datestamp>2017-01-02T07:30:18Z</datestamp>
      <setSpec>user-biosyslit</setSpec>
    </header>
    <header>
      <identifier>oai:zenodo.org:228062</identifier>
      <datestamp>2017-01-02T09:46:12Z</datestamp>
      <setSpec>user-biosyslit</setSpec>
    </header>
    <header>
      <identifier>oai:zenodo.org:229193</identifier>
      <datestamp>2017-01-03T12:16:55Z</datestamp>
      <setSpec>user-biosyslit</setSpec>
    </header>
    <header>
      <identifier>oai:zenodo.org:269790</identifier>
      <datestamp>2017-02-07T20:19:02Z</datestamp>
      <setSpec>user-biosyslit</setSpec>
    </header>
    <header>
      <identifier>oai:zenodo.org:229882</identifier>
      <datestamp>2017-01-06T11:06:03Z</datestamp>
      <setSpec>openaire</setSpec>
      <setSpec>user-biosyslit</setSpec>
    </header>
    <header>
      <identifier>oai:zenodo.org:228485</identifier>
      <datestamp>2017-01-03T00:25:27Z</datestamp>
      <setSpec>user-biosyslit</setSpec>
    </header>
    <header>
      <identifier>oai:zenodo.org:227944</identifier>
      <datestamp>2017-01-02T07:30:15Z</datestamp>
      <setSpec>user-biosyslit</setSpec>
    </header>
    <header>
      <identifier>oai:zenodo.org:228026</identifier>
      <datestamp>2017-01-02T09:15:04Z</datestamp>
      <setSpec>user-biosyslit</setSpec>
    </header>
    <header>
      <identifier>oai:zenodo.org:229078</identifier>
      <datestamp>2017-01-03T09:16:28Z</datestamp>
      <setSpec>user-biosyslit</setSpec>
    </header>
    <header>
      <identifier>oai:zenodo.org:229147</identifier>
      <datestamp>2017-01-03T11:05:42Z</datestamp>
      <setSpec>user-biosyslit</setSpec>
    </header>
    <header>
      <identifier>oai:zenodo.org:289455</identifier>
      <datestamp>2017-02-09T23:32:33Z</datestamp>
      <setSpec>user-biosyslit</setSpec>
    </header>
    <header>
      <identifier>oai:zenodo.org:269703</identifier>
      <datestamp>2017-02-07T20:05:20Z</datestamp>
      <setSpec>user-biosyslit</setSpec>
    </header>
    <header>
      <identifier>oai:zenodo.org:228669</identifier>
      <datestamp>2017-01-03T03:09:04Z</datestamp>
      <setSpec>user-biosyslit</setSpec>
    </header>
    <header>
      <identifier>oai:zenodo.org:229925</identifier>
      <datestamp>2017-01-06T11:05:55Z</datestamp>
      <setSpec>openaire</setSpec>
      <setSpec>user-biosyslit</setSpec>
    </header>
    <header>
      <identifier>oai:zenodo.org:230277</identifier>
      <datestamp>2017-01-04T22:08:41Z</datestamp>
      <setSpec>user-biosyslit</setSpec>
    </header>
    <header>
      <identifier>oai:zenodo.org:229611</identifier>
      <datestamp>2017-01-03T19:21:47Z</datestamp>
      <setSpec>user-biosyslit</setSpec>
    </header>
    <header>
      <identifier>oai:zenodo.org:269783</identifier>
      <datestamp>2017-02-07T20:18:39Z</datestamp>
      <setSpec>user-biosyslit</setSpec>
    </header>
    <header>
      <identifier>oai:zenodo.org:269850</identifier>
      <datestamp>2017-02-07T20:32:40Z</datestamp>
      <setSpec>user-biosyslit</setSpec>
    </header>
    <header>
      <identifier>oai:zenodo.org:230095</identifier>
      <datestamp>2017-01-04T19:16:00Z</datestamp>
      <setSpec>user-biosyslit</setSpec>
    </header>
    <header>
      <identifier>oai:zenodo.org:230187</identifier>
      <datestamp>2017-01-04T20:54:09Z</datestamp>
      <setSpec>user-biosyslit</setSpec>
    </header>
    <header>
      <identifier>oai:zenodo.org:231016</identifier>
      <datestamp>2017-01-05T12:22:51Z</datestamp>
      <setSpec>user-biosyslit</setSpec>
    </header>
    <header>
      <identifier>oai:zenodo.org:230162</identifier>
      <datestamp>2017-01-04T20:36:17Z</datestamp>
      <setSpec>user-biosyslit</setSpec>
    </header>
    <header>
      <identifier>oai:zenodo.org:230706</identifier>
      <datestamp>2017-01-05T07:00:12Z</datestamp>
      <setSpec>user-biosyslit</setSpec>
    </header>
    <header>
      <identifier>oai:zenodo.org:269756</identifier>
      <datestamp>2017-02-07T20:17:20Z</datestamp>
      <setSpec>user-biosyslit</setSpec>
    </header>
    <header>
      <identifier>oai:zenodo.org:231855</identifier>
      <datestamp>2017-01-06T07:59:52Z</datestamp>
      <setSpec>user-biosyslit</setSpec>
    </header>
    <header>
      <identifier>oai:zenodo.org:231169</identifier>
      <datestamp>2017-01-05T16:58:18Z</datestamp>
      <setSpec>user-biosyslit</setSpec>
    </header>
    <header>
      <identifier>oai:zenodo.org:231135</identifier>
      <datestamp>2017-01-06T11:05:18Z</datestamp>
      <setSpec>openaire</setSpec>
      <setSpec>user-biosyslit</setSpec>
    </header>
    <header>
      <identifier>oai:zenodo.org:269917</identifier>
      <datestamp>2017-02-07T20:43:54Z</datestamp>
      <setSpec>user-biosyslit</setSpec>
    </header>
    <header>
      <identifier>oai:zenodo.org:269898</identifier>
      <datestamp>2017-02-07T20:41:14Z</datestamp>
      <setSpec>user-biosyslit</setSpec>
    </header>
    <header>
      <identifier>oai:zenodo.org:230717</identifier>
      <datestamp>2017-01-05T07:38:27Z</datestamp>
      <setSpec>user-biosyslit</setSpec>
    </header>
    <header>
      <identifier>oai:zenodo.org:269780</identifier>
      <datestamp>2017-02-07T20:18:27Z</datestamp>
      <setSpec>user-biosyslit</setSpec>
    </header>
    <header>
      <identifier>oai:zenodo.org:270316</identifier>
      <datestamp>2017-02-07T22:59:50Z</datestamp>
      <setSpec>user-biosyslit</setSpec>
    </header>
    <header>
      <identifier>oai:zenodo.org:230960</identifier>
      <datestamp>2017-01-05T11:44:13Z</datestamp>
      <setSpec>user-biosyslit</setSpec>
    </header>
    <header>
      <identifier>oai:zenodo.org:269836</identifier>
      <datestamp>2017-02-07T20:31:27Z</datestamp>
      <setSpec>user-biosyslit</setSpec>
    </header>
    <header>
      <identifier>oai:zenodo.org:270467</identifier>
      <datestamp>2017-02-07T23:16:52Z</datestamp>
      <setSpec>user-biosyslit</setSpec>
    </header>
    <header>
      <identifier>oai:zenodo.org:231790</identifier>
      <datestamp>2017-01-06T07:26:56Z</datestamp>
      <setSpec>user-biosyslit</setSpec>
    </header>
    <header>
      <identifier>oai:zenodo.org:270655</identifier>
      <datestamp>2017-02-07T23:42:49Z</datestamp>
      <setSpec>user-biosyslit</setSpec>
    </header>
    <header>
      <identifier>oai:zenodo.org:270696</identifier>
      <datestamp>2017-02-07T23:49:11Z</datestamp>
      <setSpec>user-biosyslit</setSpec>
    </header>
    <header>
      <identifier>oai:zenodo.org:270259</identifier>
      <datestamp>2017-02-07T22:54:52Z</datestamp>
      <setSpec>user-biosyslit</setSpec>
    </header>
    <header>
      <identifier>oai:zenodo.org:270863</identifier>
      <datestamp>2017-02-08T00:06:04Z</datestamp>
      <setSpec>user-biosyslit</setSpec>
    </header>
    <header>
      <identifier>oai:zenodo.org:231820</identifier>
      <datestamp>2017-01-06T07:39:19Z</datestamp>
      <setSpec>user-biosyslit</setSpec>
    </header>
    <header>
      <identifier>oai:zenodo.org:231875</identifier>
      <datestamp>2017-01-06T08:11:25Z</datestamp>
      <setSpec>user-biosyslit</setSpec>
    </header>
    <header>
      <identifier>oai:zenodo.org:232186</identifier>
      <datestamp>2017-01-06T12:56:58Z</datestamp>
      <setSpec>user-biosyslit</setSpec>
    </header>
    <header>
      <identifier>oai:zenodo.org:270793</identifier>
      <datestamp>2017-02-07T23:56:26Z</datestamp>
      <setSpec>user-biosyslit</setSpec>
    </header>
    <header>
      <identifier>oai:zenodo.org:270425</identifier>
      <datestamp>2017-02-07T23:13:29Z</datestamp>
      <setSpec>user-biosyslit</setSpec>
    </header>
    <header>
      <identifier>oai:zenodo.org:232039</identifier>
      <datestamp>2017-01-06T10:37:41Z</datestamp>
      <setSpec>user-biosyslit</setSpec>
    </header>
    <header>
      <identifier>oai:zenodo.org:270745</identifier>
      <datestamp>2017-02-07T23:54:40Z</datestamp>
      <setSpec>user-biosyslit</setSpec>
    </header>
    <header>
      <identifier>oai:zenodo.org:288664</identifier>
      <datestamp>2017-02-09T21:39:50Z</datestamp>
      <setSpec>user-biosyslit</setSpec>
    </header>
    <header>
      <identifier>oai:zenodo.org:270758</identifier>
      <datestamp>2017-02-07T23:55:06Z</datestamp>
      <setSpec>user-biosyslit</setSpec>
    </header>
    <header>
      <identifier>oai:zenodo.org:232170</identifier>
      <datestamp>2017-01-06T12:56:00Z</datestamp>
      <setSpec>user-biosyslit</setSpec>
    </header>
    <header>
      <identifier>oai:zenodo.org:270397</identifier>
      <datestamp>2017-02-07T23:09:20Z</datestamp>
      <setSpec>user-biosyslit</setSpec>
    </header>
    <header>
      <identifier>oai:zenodo.org:232034</identifier>
      <datestamp>2017-01-06T10:33:07Z</datestamp>
      <setSpec>user-biosyslit</setSpec>
    </header>
    <header>
      <identifier>oai:zenodo.org:232703</identifier>
      <datestamp>2017-01-06T21:55:08Z</datestamp>
      <setSpec>user-biosyslit</setSpec>
    </header>
    <header>
      <identifier>oai:zenodo.org:270757</identifier>
      <datestamp>2017-02-07T23:55:04Z</datestamp>
      <setSpec>user-biosyslit</setSpec>
    </header>
    <header>
      <identifier>oai:zenodo.org:232237</identifier>
      <datestamp>2017-01-06T14:05:40Z</datestamp>
      <setSpec>user-biosyslit</setSpec>
    </header>
    <header>
      <identifier>oai:zenodo.org:232115</identifier>
      <datestamp>2017-01-06T11:13:12Z</datestamp>
      <setSpec>user-biosyslit</setSpec>
    </header>
    <header>
      <identifier>oai:zenodo.org:232256</identifier>
      <datestamp>2017-01-06T14:49:31Z</datestamp>
      <setSpec>user-biosyslit</setSpec>
    </header>
    <header>
      <identifier>oai:zenodo.org:232364</identifier>
      <datestamp>2017-01-06T16:35:33Z</datestamp>
      <setSpec>user-biosyslit</setSpec>
    </header>
    <header>
      <identifier>oai:zenodo.org:232241</identifier>
      <datestamp>2017-01-06T14:21:15Z</datestamp>
      <setSpec>user-biosyslit</setSpec>
    </header>
    <header>
      <identifier>oai:zenodo.org:233031</identifier>
      <datestamp>2017-01-07T22:49:05Z</datestamp>
      <setSpec>user-biosyslit</setSpec>
    </header>
    <header>
      <identifier>oai:zenodo.org:232262</identifier>
      <datestamp>2017-01-06T14:49:49Z</datestamp>
      <setSpec>user-biosyslit</setSpec>
    </header>
    <header>
      <identifier>oai:zenodo.org:270787</identifier>
      <datestamp>2017-02-07T23:56:11Z</datestamp>
      <setSpec>user-biosyslit</setSpec>
    </header>
    <header>
      <identifier>oai:zenodo.org:233773</identifier>
      <datestamp>2017-01-08T11:38:13Z</datestamp>
      <setSpec>user-biosyslit</setSpec>
    </header>
    <header>
      <identifier>oai:zenodo.org:233169</identifier>
      <datestamp>2017-01-08T01:39:26Z</datestamp>
      <setSpec>user-biosyslit</setSpec>
    </header>
    <header>
      <identifier>oai:zenodo.org:289689</identifier>
      <datestamp>2017-02-10T00:11:04Z</datestamp>
      <setSpec>user-biosyslit</setSpec>
    </header>
    <header>
      <identifier>oai:zenodo.org:232838</identifier>
      <datestamp>2017-01-07T00:16:30Z</datestamp>
      <setSpec>user-biosyslit</setSpec>
    </header>
    <header>
      <identifier>oai:zenodo.org:232774</identifier>
      <datestamp>2017-01-06T22:51:07Z</datestamp>
      <setSpec>user-biosyslit</setSpec>
    </header>
    <header>
      <identifier>oai:zenodo.org:232799</identifier>
      <datestamp>2017-01-06T23:13:40Z</datestamp>
      <setSpec>user-biosyslit</setSpec>
    </header>
    <header>
      <identifier>oai:zenodo.org:233657</identifier>
      <datestamp>2017-01-08T09:20:16Z</datestamp>
      <setSpec>user-biosyslit</setSpec>
    </header>
    <header>
      <identifier>oai:zenodo.org:233367</identifier>
      <datestamp>2017-01-08T04:02:20Z</datestamp>
      <setSpec>user-biosyslit</setSpec>
    </header>
    <header>
      <identifier>oai:zenodo.org:287485</identifier>
      <datestamp>2017-02-09T18:27:06Z</datestamp>
      <setSpec>user-biosyslit</setSpec>
    </header>
    <header>
      <identifier>oai:zenodo.org:287932</identifier>
      <datestamp>2017-02-09T19:38:30Z</datestamp>
      <setSpec>user-biosyslit</setSpec>
    </header>
    <header>
      <identifier>oai:zenodo.org:287498</identifier>
      <datestamp>2017-02-09T18:28:22Z</datestamp>
      <setSpec>user-biosyslit</setSpec>
    </header>
    <header>
      <identifier>oai:zenodo.org:287536</identifier>
      <datestamp>2017-02-09T18:32:56Z</datestamp>
      <setSpec>user-biosyslit</setSpec>
    </header>
    <header>
      <identifier>oai:zenodo.org:288374</identifier>
      <datestamp>2017-02-09T20:45:41Z</datestamp>
      <setSpec>user-biosyslit</setSpec>
    </header>
    <resumptionToken expirationDate="2017-08-31T15:45:59Z" cursor="45100" completeListSize="77796">.eJyNysEKgjAYAOB3-c8Sm5suhC5hiYeUuZTsEqYi5jJxhbrw3fPSuc7f9wZVlgU4aEXXFqPUYohhy0YU2QaovH9IeakXh_yUyLyVceYlr-ieoNSsWOCq8eCmJNANCu9Yiz03T3g9xjWa-DF-pjoaE-IPAu3YQfMpuPnLK0joyfPV60TcbqUwiz7c8UngrTiT_Pvwn0__fK7agAFdVpXgUIsY0AxZXylw3vP8AdBHUXA.DInAPw.Ltv2BLrh4zA2QyGJ3lCLdgQU9vw</resumptionToken>
  </ListIdentifiers>
</OAI-PMH>
