<?xml version='1.0' encoding='UTF-8'?>
<?xml-stylesheet type="text/xsl" href="/static/xsl/oai2.v1.0.xsl"?>
<OAI-PMH xmlns="http://www.openarchives.org/OAI/2.0/" xmlns:xsi="http://www.w3.org/2001/XMLSchema-instance" xsi:schemaLocation="http://www.openarchives.org/OAI/2.0/ http://www.openarchives.org/OAI/2.0/OAI-PMH.xsd">
  <responseDate>2017-08-31T15:44:34Z</responseDate>
  <request verb="ListIdentifiers" resumptionToken=".eJyNyssKgkAUANB_uWuJ6ww-EtqEJi5UdFLUTZiKmFOJU6Qj_XtuWtf6nAVE09Rg4UZHE01CdCQaNZBsFRDVeOf81K0MVZby6saT0k2f8TXFnLRGYIvJt3MayB7DqyrZISKZak5Jh3N0TB65jKeUei-GjuHLaA4u3vpqGrq8OLsDS257zkg9hk40M3XPClp9n_rnkz-fLXagwFC2DVgaQQX6Vzm2Aqzl_f4AktVRLg.DInAYg.RPJiZNjc5GuzyW6cdVqXJ5VJKnE">https://zenodo.org/oai2d</request>
  <ListIdentifiers>
    <header>
      <identifier>oai:zenodo.org:270168</identifier>
      <datestamp>2017-02-07T22:28:47Z</datestamp>
      <setSpec>user-biosyslit</setSpec>
    </header>
    <header>
      <identifier>oai:zenodo.org:274844</identifier>
      <datestamp>2017-02-08T14:35:27Z</datestamp>
      <setSpec>user-biosyslit</setSpec>
    </header>
    <header>
      <identifier>oai:zenodo.org:269549</identifier>
      <datestamp>2017-02-07T00:57:25Z</datestamp>
      <setSpec>user-biosyslit</setSpec>
    </header>
    <header>
      <identifier>oai:zenodo.org:270644</identifier>
      <datestamp>2017-02-07T23:41:49Z</datestamp>
      <setSpec>user-biosyslit</setSpec>
    </header>
    <header>
      <identifier>oai:zenodo.org:231793</identifier>
      <datestamp>2017-01-06T07:26:54Z</datestamp>
      <setSpec>user-biosyslit</setSpec>
    </header>
    <header>
      <identifier>oai:zenodo.org:274879</identifier>
      <datestamp>2017-02-08T14:41:06Z</datestamp>
      <setSpec>user-biosyslit</setSpec>
    </header>
    <header>
      <identifier>oai:zenodo.org:271881</identifier>
      <datestamp>2017-02-08T02:53:24Z</datestamp>
      <setSpec>user-biosyslit</setSpec>
    </header>
    <header>
      <identifier>oai:zenodo.org:269440</identifier>
      <datestamp>2017-02-07T00:33:30Z</datestamp>
      <setSpec>user-biosyslit</setSpec>
    </header>
    <header>
      <identifier>oai:zenodo.org:232193</identifier>
      <datestamp>2017-01-06T12:57:18Z</datestamp>
      <setSpec>user-biosyslit</setSpec>
    </header>
    <header>
      <identifier>oai:zenodo.org:232125</identifier>
      <datestamp>2017-01-06T11:23:54Z</datestamp>
      <setSpec>user-biosyslit</setSpec>
    </header>
    <header>
      <identifier>oai:zenodo.org:232150</identifier>
      <datestamp>2017-01-06T11:44:51Z</datestamp>
      <setSpec>user-biosyslit</setSpec>
    </header>
    <header>
      <identifier>oai:zenodo.org:232255</identifier>
      <datestamp>2017-01-06T14:49:28Z</datestamp>
      <setSpec>user-biosyslit</setSpec>
    </header>
    <header>
      <identifier>oai:zenodo.org:275027</identifier>
      <datestamp>2017-02-08T15:07:44Z</datestamp>
      <setSpec>user-biosyslit</setSpec>
    </header>
    <header>
      <identifier>oai:zenodo.org:233378</identifier>
      <datestamp>2017-01-08T04:02:58Z</datestamp>
      <setSpec>user-biosyslit</setSpec>
    </header>
    <header>
      <identifier>oai:zenodo.org:275478</identifier>
      <datestamp>2017-02-08T16:32:22Z</datestamp>
      <setSpec>user-biosyslit</setSpec>
    </header>
    <header>
      <identifier>oai:zenodo.org:233730</identifier>
      <datestamp>2017-01-08T11:03:52Z</datestamp>
      <setSpec>user-biosyslit</setSpec>
    </header>
    <header>
      <identifier>oai:zenodo.org:275243</identifier>
      <datestamp>2017-02-08T15:47:26Z</datestamp>
      <setSpec>user-biosyslit</setSpec>
    </header>
    <header>
      <identifier>oai:zenodo.org:276524</identifier>
      <datestamp>2017-02-08T19:05:30Z</datestamp>
      <setSpec>user-biosyslit</setSpec>
    </header>
    <header>
      <identifier>oai:zenodo.org:277073</identifier>
      <datestamp>2017-02-08T20:19:27Z</datestamp>
      <setSpec>user-biosyslit</setSpec>
    </header>
    <header>
      <identifier>oai:zenodo.org:277815</identifier>
      <datestamp>2017-02-08T21:52:16Z</datestamp>
      <setSpec>user-biosyslit</setSpec>
    </header>
    <header>
      <identifier>oai:zenodo.org:278631</identifier>
      <datestamp>2017-02-08T23:33:25Z</datestamp>
      <setSpec>user-biosyslit</setSpec>
    </header>
    <header>
      <identifier>oai:zenodo.org:277118</identifier>
      <datestamp>2017-02-08T20:26:35Z</datestamp>
      <setSpec>user-biosyslit</setSpec>
    </header>
    <header>
      <identifier>oai:zenodo.org:277962</identifier>
      <datestamp>2017-02-08T22:10:04Z</datestamp>
      <setSpec>user-biosyslit</setSpec>
    </header>
    <header>
      <identifier>oai:zenodo.org:278274</identifier>
      <datestamp>2017-02-08T22:46:24Z</datestamp>
      <setSpec>user-biosyslit</setSpec>
    </header>
    <header>
      <identifier>oai:zenodo.org:277050</identifier>
      <datestamp>2017-02-08T20:16:42Z</datestamp>
      <setSpec>user-biosyslit</setSpec>
    </header>
    <header>
      <identifier>oai:zenodo.org:276538</identifier>
      <datestamp>2017-02-08T19:06:13Z</datestamp>
      <setSpec>user-biosyslit</setSpec>
    </header>
    <header>
      <identifier>oai:zenodo.org:278535</identifier>
      <datestamp>2017-02-08T23:21:56Z</datestamp>
      <setSpec>user-biosyslit</setSpec>
    </header>
    <header>
      <identifier>oai:zenodo.org:276793</identifier>
      <datestamp>2017-02-08T19:40:40Z</datestamp>
      <setSpec>user-biosyslit</setSpec>
    </header>
    <header>
      <identifier>oai:zenodo.org:236662</identifier>
      <datestamp>2017-01-10T02:35:16Z</datestamp>
      <setSpec>user-biosyslit</setSpec>
    </header>
    <header>
      <identifier>oai:zenodo.org:236090</identifier>
      <datestamp>2017-01-09T18:32:02Z</datestamp>
      <setSpec>user-biosyslit</setSpec>
    </header>
    <header>
      <identifier>oai:zenodo.org:277044</identifier>
      <datestamp>2017-02-08T20:16:03Z</datestamp>
      <setSpec>user-biosyslit</setSpec>
    </header>
    <header>
      <identifier>oai:zenodo.org:235842</identifier>
      <datestamp>2017-01-13T07:38:06Z</datestamp>
      <setSpec>openaire</setSpec>
      <setSpec>user-biosyslit</setSpec>
    </header>
    <header>
      <identifier>oai:zenodo.org:236100</identifier>
      <datestamp>2017-01-09T18:32:37Z</datestamp>
      <setSpec>user-biosyslit</setSpec>
    </header>
    <header>
      <identifier>oai:zenodo.org:278397</identifier>
      <datestamp>2017-02-08T23:05:28Z</datestamp>
      <setSpec>user-biosyslit</setSpec>
    </header>
    <header>
      <identifier>oai:zenodo.org:236404</identifier>
      <datestamp>2017-01-09T23:49:35Z</datestamp>
      <setSpec>user-biosyslit</setSpec>
    </header>
    <header>
      <identifier>oai:zenodo.org:271090</identifier>
      <datestamp>2017-02-08T00:44:49Z</datestamp>
      <setSpec>user-biosyslit</setSpec>
    </header>
    <header>
      <identifier>oai:zenodo.org:238033</identifier>
      <datestamp>2017-01-11T00:17:22Z</datestamp>
      <setSpec>user-biosyslit</setSpec>
    </header>
    <header>
      <identifier>oai:zenodo.org:236073</identifier>
      <datestamp>2017-01-09T18:31:02Z</datestamp>
      <setSpec>user-biosyslit</setSpec>
    </header>
    <header>
      <identifier>oai:zenodo.org:237914</identifier>
      <datestamp>2017-01-10T22:23:54Z</datestamp>
      <setSpec>user-biosyslit</setSpec>
    </header>
    <header>
      <identifier>oai:zenodo.org:239487</identifier>
      <datestamp>2017-01-11T21:21:48Z</datestamp>
      <setSpec>user-biosyslit</setSpec>
    </header>
    <header>
      <identifier>oai:zenodo.org:276826</identifier>
      <datestamp>2017-02-08T19:46:14Z</datestamp>
      <setSpec>user-biosyslit</setSpec>
    </header>
    <header>
      <identifier>oai:zenodo.org:238065</identifier>
      <datestamp>2017-01-11T00:41:56Z</datestamp>
      <setSpec>user-biosyslit</setSpec>
    </header>
    <header>
      <identifier>oai:zenodo.org:237198</identifier>
      <datestamp>2017-01-10T11:57:07Z</datestamp>
      <setSpec>user-biosyslit</setSpec>
    </header>
    <header>
      <identifier>oai:zenodo.org:237906</identifier>
      <datestamp>2017-01-10T22:21:48Z</datestamp>
      <setSpec>user-biosyslit</setSpec>
    </header>
    <header>
      <identifier>oai:zenodo.org:237358</identifier>
      <datestamp>2017-01-10T14:40:04Z</datestamp>
      <setSpec>user-biosyslit</setSpec>
    </header>
    <header>
      <identifier>oai:zenodo.org:270857</identifier>
      <datestamp>2017-02-08T00:05:47Z</datestamp>
      <setSpec>user-biosyslit</setSpec>
    </header>
    <header>
      <identifier>oai:zenodo.org:277375</identifier>
      <datestamp>2017-02-08T21:00:12Z</datestamp>
      <setSpec>user-biosyslit</setSpec>
    </header>
    <header>
      <identifier>oai:zenodo.org:239030</identifier>
      <datestamp>2017-01-11T14:57:57Z</datestamp>
      <setSpec>user-biosyslit</setSpec>
    </header>
    <header>
      <identifier>oai:zenodo.org:238089</identifier>
      <datestamp>2017-01-11T00:52:05Z</datestamp>
      <setSpec>user-biosyslit</setSpec>
    </header>
    <header>
      <identifier>oai:zenodo.org:239284</identifier>
      <datestamp>2017-01-11T18:48:50Z</datestamp>
      <setSpec>user-biosyslit</setSpec>
    </header>
    <header>
      <identifier>oai:zenodo.org:239306</identifier>
      <datestamp>2017-01-11T18:50:20Z</datestamp>
      <setSpec>user-biosyslit</setSpec>
    </header>
    <header>
      <identifier>oai:zenodo.org:239394</identifier>
      <datestamp>2017-01-11T19:57:20Z</datestamp>
      <setSpec>user-biosyslit</setSpec>
    </header>
    <header>
      <identifier>oai:zenodo.org:239163</identifier>
      <datestamp>2017-01-11T17:08:53Z</datestamp>
      <setSpec>user-biosyslit</setSpec>
    </header>
    <header>
      <identifier>oai:zenodo.org:277796</identifier>
      <datestamp>2017-02-08T21:50:05Z</datestamp>
      <setSpec>user-biosyslit</setSpec>
    </header>
    <header>
      <identifier>oai:zenodo.org:238284</identifier>
      <datestamp>2017-01-11T03:22:19Z</datestamp>
      <setSpec>user-biosyslit</setSpec>
    </header>
    <header>
      <identifier>oai:zenodo.org:278367</identifier>
      <datestamp>2017-02-08T23:02:42Z</datestamp>
      <setSpec>user-biosyslit</setSpec>
    </header>
    <header>
      <identifier>oai:zenodo.org:238307</identifier>
      <datestamp>2017-01-11T03:34:53Z</datestamp>
      <setSpec>user-biosyslit</setSpec>
    </header>
    <header>
      <identifier>oai:zenodo.org:278281</identifier>
      <datestamp>2017-02-08T22:46:45Z</datestamp>
      <setSpec>user-biosyslit</setSpec>
    </header>
    <header>
      <identifier>oai:zenodo.org:278912</identifier>
      <datestamp>2017-02-09T00:06:02Z</datestamp>
      <setSpec>user-biosyslit</setSpec>
    </header>
    <header>
      <identifier>oai:zenodo.org:278965</identifier>
      <datestamp>2017-02-09T00:19:47Z</datestamp>
      <setSpec>user-biosyslit</setSpec>
    </header>
    <header>
      <identifier>oai:zenodo.org:240807</identifier>
      <datestamp>2017-01-12T14:18:43Z</datestamp>
      <setSpec>user-biosyslit</setSpec>
    </header>
    <header>
      <identifier>oai:zenodo.org:278798</identifier>
      <datestamp>2017-02-08T23:54:26Z</datestamp>
      <setSpec>user-biosyslit</setSpec>
    </header>
    <header>
      <identifier>oai:zenodo.org:278410</identifier>
      <datestamp>2017-02-08T23:07:37Z</datestamp>
      <setSpec>user-biosyslit</setSpec>
    </header>
    <header>
      <identifier>oai:zenodo.org:239772</identifier>
      <datestamp>2017-01-12T00:45:28Z</datestamp>
      <setSpec>user-biosyslit</setSpec>
    </header>
    <header>
      <identifier>oai:zenodo.org:278590</identifier>
      <datestamp>2017-02-08T23:29:04Z</datestamp>
      <setSpec>user-biosyslit</setSpec>
    </header>
    <header>
      <identifier>oai:zenodo.org:279733</identifier>
      <datestamp>2017-02-09T01:58:09Z</datestamp>
      <setSpec>user-biosyslit</setSpec>
    </header>
    <header>
      <identifier>oai:zenodo.org:278964</identifier>
      <datestamp>2017-02-09T00:16:52Z</datestamp>
      <setSpec>user-biosyslit</setSpec>
    </header>
    <header>
      <identifier>oai:zenodo.org:271325</identifier>
      <datestamp>2017-02-08T01:21:15Z</datestamp>
      <setSpec>user-biosyslit</setSpec>
    </header>
    <header>
      <identifier>oai:zenodo.org:278604</identifier>
      <datestamp>2017-02-08T23:29:53Z</datestamp>
      <setSpec>user-biosyslit</setSpec>
    </header>
    <header>
      <identifier>oai:zenodo.org:278842</identifier>
      <datestamp>2017-02-08T23:59:04Z</datestamp>
      <setSpec>user-biosyslit</setSpec>
    </header>
    <header>
      <identifier>oai:zenodo.org:241615</identifier>
      <datestamp>2017-01-13T04:10:52Z</datestamp>
      <setSpec>user-biosyslit</setSpec>
    </header>
    <header>
      <identifier>oai:zenodo.org:279209</identifier>
      <datestamp>2017-02-09T00:48:43Z</datestamp>
      <setSpec>user-biosyslit</setSpec>
    </header>
    <header>
      <identifier>oai:zenodo.org:279456</identifier>
      <datestamp>2017-02-09T01:22:33Z</datestamp>
      <setSpec>user-biosyslit</setSpec>
    </header>
    <header>
      <identifier>oai:zenodo.org:279611</identifier>
      <datestamp>2017-02-09T01:43:34Z</datestamp>
      <setSpec>user-biosyslit</setSpec>
    </header>
    <header>
      <identifier>oai:zenodo.org:241601</identifier>
      <datestamp>2017-01-13T03:48:55Z</datestamp>
      <setSpec>user-biosyslit</setSpec>
    </header>
    <header>
      <identifier>oai:zenodo.org:280362</identifier>
      <datestamp>2017-02-09T03:15:55Z</datestamp>
      <setSpec>user-biosyslit</setSpec>
    </header>
    <header>
      <identifier>oai:zenodo.org:271550</identifier>
      <datestamp>2017-02-08T01:54:20Z</datestamp>
      <setSpec>user-biosyslit</setSpec>
    </header>
    <header>
      <identifier>oai:zenodo.org:279728</identifier>
      <datestamp>2017-02-09T01:57:29Z</datestamp>
      <setSpec>user-biosyslit</setSpec>
    </header>
    <header>
      <identifier>oai:zenodo.org:279105</identifier>
      <datestamp>2017-02-09T00:36:55Z</datestamp>
      <setSpec>user-biosyslit</setSpec>
    </header>
    <header>
      <identifier>oai:zenodo.org:241651</identifier>
      <datestamp>2017-01-13T04:12:45Z</datestamp>
      <setSpec>user-biosyslit</setSpec>
    </header>
    <header>
      <identifier>oai:zenodo.org:278990</identifier>
      <datestamp>2017-02-09T00:21:56Z</datestamp>
      <setSpec>user-biosyslit</setSpec>
    </header>
    <header>
      <identifier>oai:zenodo.org:242720</identifier>
      <datestamp>2017-01-13T19:01:45Z</datestamp>
      <setSpec>user-biosyslit</setSpec>
    </header>
    <header>
      <identifier>oai:zenodo.org:279403</identifier>
      <datestamp>2017-02-09T01:14:39Z</datestamp>
      <setSpec>user-biosyslit</setSpec>
    </header>
    <header>
      <identifier>oai:zenodo.org:279452</identifier>
      <datestamp>2017-02-09T01:22:20Z</datestamp>
      <setSpec>user-biosyslit</setSpec>
    </header>
    <header>
      <identifier>oai:zenodo.org:243452</identifier>
      <datestamp>2017-01-14T05:55:50Z</datestamp>
      <setSpec>user-biosyslit</setSpec>
    </header>
    <header>
      <identifier>oai:zenodo.org:279210</identifier>
      <datestamp>2017-02-09T00:48:45Z</datestamp>
      <setSpec>user-biosyslit</setSpec>
    </header>
    <header>
      <identifier>oai:zenodo.org:271870</identifier>
      <datestamp>2017-02-08T02:47:00Z</datestamp>
      <setSpec>user-biosyslit</setSpec>
    </header>
    <header>
      <identifier>oai:zenodo.org:280044</identifier>
      <datestamp>2017-02-09T02:33:30Z</datestamp>
      <setSpec>user-biosyslit</setSpec>
    </header>
    <header>
      <identifier>oai:zenodo.org:242634</identifier>
      <datestamp>2017-01-13T18:01:31Z</datestamp>
      <setSpec>user-biosyslit</setSpec>
    </header>
    <header>
      <identifier>oai:zenodo.org:243505</identifier>
      <datestamp>2017-01-14T06:42:36Z</datestamp>
      <setSpec>user-biosyslit</setSpec>
    </header>
    <header>
      <identifier>oai:zenodo.org:243108</identifier>
      <datestamp>2017-01-13T23:28:14Z</datestamp>
      <setSpec>user-biosyslit</setSpec>
    </header>
    <header>
      <identifier>oai:zenodo.org:237241</identifier>
      <datestamp>2017-01-10T12:51:15Z</datestamp>
      <setSpec>user-biosyslit</setSpec>
    </header>
    <header>
      <identifier>oai:zenodo.org:276578</identifier>
      <datestamp>2017-02-08T19:16:05Z</datestamp>
      <setSpec>user-biosyslit</setSpec>
    </header>
    <header>
      <identifier>oai:zenodo.org:276588</identifier>
      <datestamp>2017-02-08T19:16:51Z</datestamp>
      <setSpec>user-biosyslit</setSpec>
    </header>
    <header>
      <identifier>oai:zenodo.org:278236</identifier>
      <datestamp>2017-02-08T22:41:56Z</datestamp>
      <setSpec>user-biosyslit</setSpec>
    </header>
    <header>
      <identifier>oai:zenodo.org:236365</identifier>
      <datestamp>2017-01-09T23:12:38Z</datestamp>
      <setSpec>user-biosyslit</setSpec>
    </header>
    <header>
      <identifier>oai:zenodo.org:277026</identifier>
      <datestamp>2017-02-08T20:14:17Z</datestamp>
      <setSpec>user-biosyslit</setSpec>
    </header>
    <header>
      <identifier>oai:zenodo.org:277337</identifier>
      <datestamp>2017-02-08T20:55:27Z</datestamp>
      <setSpec>user-biosyslit</setSpec>
    </header>
    <header>
      <identifier>oai:zenodo.org:277670</identifier>
      <datestamp>2017-02-08T21:36:01Z</datestamp>
      <setSpec>user-biosyslit</setSpec>
    </header>
    <header>
      <identifier>oai:zenodo.org:237334</identifier>
      <datestamp>2017-01-10T14:27:07Z</datestamp>
      <setSpec>user-biosyslit</setSpec>
    </header>
    <resumptionToken expirationDate="2017-08-31T15:46:34Z" cursor="51900" completeListSize="77796">.eJyNyssKgkAUANB_uWuJeTC-oE1o4kLFJiXdhKmIOZU4RTriv-emda3PmUHWdQU22mBKTGYZVDcZsxDTLQ1kOTyEOLerQ3lKRXkXSeGlr8MtRRlpjNCRY-BkNFQdim5Y8X1MTtgckxZN8TF5ZuowptR_c-QagYqn8Oqvr6KRJ_KL1_PkvhOcVEPkxhPHO57T8vvwn0_9fI7cggZ90dRgM4I16N7F0Eiw52X5AOAUUX4.DInAYg.2SA02OcxkXsAg1FtjrdA6j8AASQ</resumptionToken>
  </ListIdentifiers>
</OAI-PMH>
