<?xml version='1.0' encoding='UTF-8'?>
<?xml-stylesheet type="text/xsl" href="/static/xsl/oai2.v1.0.xsl"?>
<OAI-PMH xmlns="http://www.openarchives.org/OAI/2.0/" xmlns:xsi="http://www.w3.org/2001/XMLSchema-instance" xsi:schemaLocation="http://www.openarchives.org/OAI/2.0/ http://www.openarchives.org/OAI/2.0/OAI-PMH.xsd">
  <responseDate>2017-08-31T15:42:46Z</responseDate>
  <request verb="ListIdentifiers" resumptionToken=".eJyNysEKgjAYAOB3-c8S28RmQhexxIPKWg71EqYi5ipxRbrw3fPSub7z9wZV1xU4aIUsTKlF1psNxdQmyFoboMrhLuWpXQKUqZDlTSaFL56Hq0AZaWjkqTH0MjPSHYqvWPM9Iym2x6RFEzsmj0wfRmEGL452NNRsii7B8ioz9mV-9nue3FzJSTXEOzZx7PLcLL8P__n0z-epLRjQF00NDqHEgO5VDI0C5z3PHw3ZUa0.DIm_9g.QhgvEl4owOEr2R7QZzLhbrcJvMo">https://zenodo.org/oai2d</request>
  <ListIdentifiers>
    <header>
      <identifier>oai:zenodo.org:247642</identifier>
      <datestamp>2017-01-16T18:14:32Z</datestamp>
      <setSpec>user-biosyslit</setSpec>
    </header>
    <header>
      <identifier>oai:zenodo.org:247677</identifier>
      <datestamp>2017-01-16T18:14:26Z</datestamp>
      <setSpec>user-biosyslit</setSpec>
    </header>
    <header>
      <identifier>oai:zenodo.org:247676</identifier>
      <datestamp>2017-01-16T18:14:24Z</datestamp>
      <setSpec>user-biosyslit</setSpec>
    </header>
    <header>
      <identifier>oai:zenodo.org:258947</identifier>
      <datestamp>2017-01-24T06:41:04Z</datestamp>
      <setSpec>user-biosyslit</setSpec>
    </header>
    <header>
      <identifier>oai:zenodo.org:275704</identifier>
      <datestamp>2017-02-08T16:56:57Z</datestamp>
      <setSpec>user-biosyslit</setSpec>
    </header>
    <header>
      <identifier>oai:zenodo.org:275705</identifier>
      <datestamp>2017-02-08T16:56:59Z</datestamp>
      <setSpec>user-biosyslit</setSpec>
    </header>
    <header>
      <identifier>oai:zenodo.org:275707</identifier>
      <datestamp>2017-02-08T16:57:02Z</datestamp>
      <setSpec>user-biosyslit</setSpec>
    </header>
    <header>
      <identifier>oai:zenodo.org:282916</identifier>
      <datestamp>2017-02-09T07:50:28Z</datestamp>
      <setSpec>user-biosyslit</setSpec>
    </header>
    <header>
      <identifier>oai:zenodo.org:282914</identifier>
      <datestamp>2017-02-09T07:50:22Z</datestamp>
      <setSpec>user-biosyslit</setSpec>
    </header>
    <header>
      <identifier>oai:zenodo.org:280829</identifier>
      <datestamp>2017-02-09T04:09:53Z</datestamp>
      <setSpec>user-biosyslit</setSpec>
    </header>
    <header>
      <identifier>oai:zenodo.org:275876</identifier>
      <datestamp>2017-02-08T17:18:17Z</datestamp>
      <setSpec>user-biosyslit</setSpec>
    </header>
    <header>
      <identifier>oai:zenodo.org:275877</identifier>
      <datestamp>2017-02-08T17:18:19Z</datestamp>
      <setSpec>user-biosyslit</setSpec>
    </header>
    <header>
      <identifier>oai:zenodo.org:275879</identifier>
      <datestamp>2017-02-08T17:18:25Z</datestamp>
      <setSpec>user-biosyslit</setSpec>
    </header>
    <header>
      <identifier>oai:zenodo.org:275880</identifier>
      <datestamp>2017-02-08T17:18:27Z</datestamp>
      <setSpec>user-biosyslit</setSpec>
    </header>
    <header>
      <identifier>oai:zenodo.org:814867</identifier>
      <datestamp>2017-06-20T13:22:17Z</datestamp>
      <setSpec>user-biosyslit</setSpec>
    </header>
    <header>
      <identifier>oai:zenodo.org:814869</identifier>
      <datestamp>2017-06-20T13:22:22Z</datestamp>
      <setSpec>user-biosyslit</setSpec>
    </header>
    <header>
      <identifier>oai:zenodo.org:814892</identifier>
      <datestamp>2017-06-20T13:47:05Z</datestamp>
      <setSpec>user-biosyslit</setSpec>
    </header>
    <header>
      <identifier>oai:zenodo.org:814935</identifier>
      <datestamp>2017-06-20T15:49:16Z</datestamp>
      <setSpec>openaire</setSpec>
      <setSpec>user-biosyslit</setSpec>
    </header>
    <header>
      <identifier>oai:zenodo.org:814937</identifier>
      <datestamp>2017-06-20T15:38:58Z</datestamp>
      <setSpec>user-biosyslit</setSpec>
    </header>
    <header>
      <identifier>oai:zenodo.org:230391</identifier>
      <datestamp>2017-01-04T23:55:49Z</datestamp>
      <setSpec>user-biosyslit</setSpec>
    </header>
    <header>
      <identifier>oai:zenodo.org:230393</identifier>
      <datestamp>2017-01-04T23:55:33Z</datestamp>
      <setSpec>user-biosyslit</setSpec>
    </header>
    <header>
      <identifier>oai:zenodo.org:230396</identifier>
      <datestamp>2017-01-04T23:55:45Z</datestamp>
      <setSpec>user-biosyslit</setSpec>
    </header>
    <header>
      <identifier>oai:zenodo.org:248939</identifier>
      <datestamp>2017-01-17T14:05:23Z</datestamp>
      <setSpec>user-biosyslit</setSpec>
    </header>
    <header>
      <identifier>oai:zenodo.org:248942</identifier>
      <datestamp>2017-01-17T14:05:34Z</datestamp>
      <setSpec>user-biosyslit</setSpec>
    </header>
    <header>
      <identifier>oai:zenodo.org:248945</identifier>
      <datestamp>2017-01-17T14:05:45Z</datestamp>
      <setSpec>user-biosyslit</setSpec>
    </header>
    <header>
      <identifier>oai:zenodo.org:248940</identifier>
      <datestamp>2017-01-17T14:05:26Z</datestamp>
      <setSpec>user-biosyslit</setSpec>
    </header>
    <header>
      <identifier>oai:zenodo.org:248943</identifier>
      <datestamp>2017-01-17T14:05:37Z</datestamp>
      <setSpec>user-biosyslit</setSpec>
    </header>
    <header>
      <identifier>oai:zenodo.org:248949</identifier>
      <datestamp>2017-01-17T14:06:03Z</datestamp>
      <setSpec>user-biosyslit</setSpec>
    </header>
    <header>
      <identifier>oai:zenodo.org:248936</identifier>
      <datestamp>2017-01-17T14:06:56Z</datestamp>
      <setSpec>user-biosyslit</setSpec>
    </header>
    <header>
      <identifier>oai:zenodo.org:248959</identifier>
      <datestamp>2017-01-17T14:06:40Z</datestamp>
      <setSpec>user-biosyslit</setSpec>
    </header>
    <header>
      <identifier>oai:zenodo.org:248951</identifier>
      <datestamp>2017-01-17T14:06:10Z</datestamp>
      <setSpec>user-biosyslit</setSpec>
    </header>
    <header>
      <identifier>oai:zenodo.org:248961</identifier>
      <datestamp>2017-01-17T14:06:46Z</datestamp>
      <setSpec>user-biosyslit</setSpec>
    </header>
    <header>
      <identifier>oai:zenodo.org:248958</identifier>
      <datestamp>2017-01-17T14:06:36Z</datestamp>
      <setSpec>user-biosyslit</setSpec>
    </header>
    <header>
      <identifier>oai:zenodo.org:248953</identifier>
      <datestamp>2017-01-17T14:06:17Z</datestamp>
      <setSpec>user-biosyslit</setSpec>
    </header>
    <header>
      <identifier>oai:zenodo.org:248962</identifier>
      <datestamp>2017-01-17T14:06:49Z</datestamp>
      <setSpec>user-biosyslit</setSpec>
    </header>
    <header>
      <identifier>oai:zenodo.org:248963</identifier>
      <datestamp>2017-01-17T14:06:52Z</datestamp>
      <setSpec>user-biosyslit</setSpec>
    </header>
    <header>
      <identifier>oai:zenodo.org:234218</identifier>
      <datestamp>2017-01-08T16:58:45Z</datestamp>
      <setSpec>user-biosyslit</setSpec>
    </header>
    <header>
      <identifier>oai:zenodo.org:252776</identifier>
      <datestamp>2017-01-19T19:46:09Z</datestamp>
      <setSpec>user-biosyslit</setSpec>
    </header>
    <header>
      <identifier>oai:zenodo.org:252774</identifier>
      <datestamp>2017-01-19T19:46:03Z</datestamp>
      <setSpec>user-biosyslit</setSpec>
    </header>
    <header>
      <identifier>oai:zenodo.org:252771</identifier>
      <datestamp>2017-01-19T19:45:53Z</datestamp>
      <setSpec>user-biosyslit</setSpec>
    </header>
    <header>
      <identifier>oai:zenodo.org:234222</identifier>
      <datestamp>2017-01-08T16:58:29Z</datestamp>
      <setSpec>user-biosyslit</setSpec>
    </header>
    <header>
      <identifier>oai:zenodo.org:234221</identifier>
      <datestamp>2017-01-08T16:58:25Z</datestamp>
      <setSpec>user-biosyslit</setSpec>
    </header>
    <header>
      <identifier>oai:zenodo.org:234226</identifier>
      <datestamp>2017-01-08T16:58:41Z</datestamp>
      <setSpec>user-biosyslit</setSpec>
    </header>
    <header>
      <identifier>oai:zenodo.org:239099</identifier>
      <datestamp>2017-01-11T16:27:49Z</datestamp>
      <setSpec>user-biosyslit</setSpec>
    </header>
    <header>
      <identifier>oai:zenodo.org:234220</identifier>
      <datestamp>2017-01-08T16:58:21Z</datestamp>
      <setSpec>user-biosyslit</setSpec>
    </header>
    <header>
      <identifier>oai:zenodo.org:252769</identifier>
      <datestamp>2017-01-19T19:46:20Z</datestamp>
      <setSpec>user-biosyslit</setSpec>
    </header>
    <header>
      <identifier>oai:zenodo.org:252779</identifier>
      <datestamp>2017-01-19T19:46:19Z</datestamp>
      <setSpec>user-biosyslit</setSpec>
    </header>
    <header>
      <identifier>oai:zenodo.org:248508</identifier>
      <datestamp>2017-01-17T04:55:45Z</datestamp>
      <setSpec>user-biosyslit</setSpec>
    </header>
    <header>
      <identifier>oai:zenodo.org:248501</identifier>
      <datestamp>2017-01-17T04:55:24Z</datestamp>
      <setSpec>user-biosyslit</setSpec>
    </header>
    <header>
      <identifier>oai:zenodo.org:248497</identifier>
      <datestamp>2017-01-17T04:55:10Z</datestamp>
      <setSpec>user-biosyslit</setSpec>
    </header>
    <header>
      <identifier>oai:zenodo.org:248502</identifier>
      <datestamp>2017-01-17T04:55:27Z</datestamp>
      <setSpec>user-biosyslit</setSpec>
    </header>
    <header>
      <identifier>oai:zenodo.org:248499</identifier>
      <datestamp>2017-01-17T04:55:17Z</datestamp>
      <setSpec>user-biosyslit</setSpec>
    </header>
    <header>
      <identifier>oai:zenodo.org:248504</identifier>
      <datestamp>2017-01-17T04:55:33Z</datestamp>
      <setSpec>user-biosyslit</setSpec>
    </header>
    <header>
      <identifier>oai:zenodo.org:235266</identifier>
      <datestamp>2017-01-09T07:48:18Z</datestamp>
      <setSpec>user-biosyslit</setSpec>
    </header>
    <header>
      <identifier>oai:zenodo.org:235264</identifier>
      <datestamp>2017-01-09T07:48:09Z</datestamp>
      <setSpec>user-biosyslit</setSpec>
    </header>
    <header>
      <identifier>oai:zenodo.org:286803</identifier>
      <datestamp>2017-02-09T16:51:31Z</datestamp>
      <setSpec>user-biosyslit</setSpec>
    </header>
    <header>
      <identifier>oai:zenodo.org:286799</identifier>
      <datestamp>2017-02-09T16:51:21Z</datestamp>
      <setSpec>user-biosyslit</setSpec>
    </header>
    <header>
      <identifier>oai:zenodo.org:286800</identifier>
      <datestamp>2017-02-09T16:51:23Z</datestamp>
      <setSpec>user-biosyslit</setSpec>
    </header>
    <header>
      <identifier>oai:zenodo.org:286804</identifier>
      <datestamp>2017-02-09T16:51:35Z</datestamp>
      <setSpec>user-biosyslit</setSpec>
    </header>
    <header>
      <identifier>oai:zenodo.org:286806</identifier>
      <datestamp>2017-02-09T16:51:41Z</datestamp>
      <setSpec>user-biosyslit</setSpec>
    </header>
    <header>
      <identifier>oai:zenodo.org:286802</identifier>
      <datestamp>2017-02-09T16:51:29Z</datestamp>
      <setSpec>user-biosyslit</setSpec>
    </header>
    <header>
      <identifier>oai:zenodo.org:286792</identifier>
      <datestamp>2017-02-09T16:52:02Z</datestamp>
      <setSpec>user-biosyslit</setSpec>
    </header>
    <header>
      <identifier>oai:zenodo.org:286812</identifier>
      <datestamp>2017-02-09T16:51:55Z</datestamp>
      <setSpec>user-biosyslit</setSpec>
    </header>
    <header>
      <identifier>oai:zenodo.org:229262</identifier>
      <datestamp>2017-01-03T13:27:06Z</datestamp>
      <setSpec>user-biosyslit</setSpec>
    </header>
    <header>
      <identifier>oai:zenodo.org:286809</identifier>
      <datestamp>2017-02-09T16:51:48Z</datestamp>
      <setSpec>user-biosyslit</setSpec>
    </header>
    <header>
      <identifier>oai:zenodo.org:231037</identifier>
      <datestamp>2017-01-05T12:39:12Z</datestamp>
      <setSpec>user-biosyslit</setSpec>
    </header>
    <header>
      <identifier>oai:zenodo.org:229264</identifier>
      <datestamp>2017-01-03T13:27:13Z</datestamp>
      <setSpec>user-biosyslit</setSpec>
    </header>
    <header>
      <identifier>oai:zenodo.org:286810</identifier>
      <datestamp>2017-02-09T16:51:50Z</datestamp>
      <setSpec>user-biosyslit</setSpec>
    </header>
    <header>
      <identifier>oai:zenodo.org:286808</identifier>
      <datestamp>2017-02-09T16:51:46Z</datestamp>
      <setSpec>user-biosyslit</setSpec>
    </header>
    <header>
      <identifier>oai:zenodo.org:231038</identifier>
      <datestamp>2017-01-05T12:39:07Z</datestamp>
      <setSpec>user-biosyslit</setSpec>
    </header>
    <header>
      <identifier>oai:zenodo.org:233492</identifier>
      <datestamp>2017-01-08T07:18:56Z</datestamp>
      <setSpec>user-biosyslit</setSpec>
    </header>
    <header>
      <identifier>oai:zenodo.org:273961</identifier>
      <datestamp>2017-02-08T11:40:36Z</datestamp>
      <setSpec>user-biosyslit</setSpec>
    </header>
    <header>
      <identifier>oai:zenodo.org:278879</identifier>
      <datestamp>2017-02-09T00:02:27Z</datestamp>
      <setSpec>user-biosyslit</setSpec>
    </header>
    <header>
      <identifier>oai:zenodo.org:278876</identifier>
      <datestamp>2017-02-09T00:02:21Z</datestamp>
      <setSpec>user-biosyslit</setSpec>
    </header>
    <header>
      <identifier>oai:zenodo.org:273962</identifier>
      <datestamp>2017-02-08T11:40:27Z</datestamp>
      <setSpec>user-biosyslit</setSpec>
    </header>
    <header>
      <identifier>oai:zenodo.org:273963</identifier>
      <datestamp>2017-02-08T11:40:30Z</datestamp>
      <setSpec>user-biosyslit</setSpec>
    </header>
    <header>
      <identifier>oai:zenodo.org:278882</identifier>
      <datestamp>2017-02-09T00:02:34Z</datestamp>
      <setSpec>user-biosyslit</setSpec>
    </header>
    <header>
      <identifier>oai:zenodo.org:233279</identifier>
      <datestamp>2017-01-08T02:45:46Z</datestamp>
      <setSpec>user-biosyslit</setSpec>
    </header>
    <header>
      <identifier>oai:zenodo.org:282791</identifier>
      <datestamp>2017-02-09T07:37:51Z</datestamp>
      <setSpec>user-biosyslit</setSpec>
    </header>
    <header>
      <identifier>oai:zenodo.org:282794</identifier>
      <datestamp>2017-02-09T07:37:58Z</datestamp>
      <setSpec>user-biosyslit</setSpec>
    </header>
    <header>
      <identifier>oai:zenodo.org:282790</identifier>
      <datestamp>2017-02-09T07:37:49Z</datestamp>
      <setSpec>user-biosyslit</setSpec>
    </header>
    <header>
      <identifier>oai:zenodo.org:282789</identifier>
      <datestamp>2017-02-09T07:37:47Z</datestamp>
      <setSpec>user-biosyslit</setSpec>
    </header>
    <header>
      <identifier>oai:zenodo.org:282793</identifier>
      <datestamp>2017-02-09T07:37:55Z</datestamp>
      <setSpec>user-biosyslit</setSpec>
    </header>
    <header>
      <identifier>oai:zenodo.org:229598</identifier>
      <datestamp>2017-01-03T19:11:50Z</datestamp>
      <setSpec>user-biosyslit</setSpec>
    </header>
    <header>
      <identifier>oai:zenodo.org:229601</identifier>
      <datestamp>2017-01-03T19:11:49Z</datestamp>
      <setSpec>user-biosyslit</setSpec>
    </header>
    <header>
      <identifier>oai:zenodo.org:229600</identifier>
      <datestamp>2017-01-03T19:11:44Z</datestamp>
      <setSpec>user-biosyslit</setSpec>
    </header>
    <header>
      <identifier>oai:zenodo.org:229599</identifier>
      <datestamp>2017-01-03T19:11:40Z</datestamp>
      <setSpec>user-biosyslit</setSpec>
    </header>
    <header>
      <identifier>oai:zenodo.org:254477</identifier>
      <datestamp>2017-01-20T19:06:24Z</datestamp>
      <setSpec>user-biosyslit</setSpec>
    </header>
    <header>
      <identifier>oai:zenodo.org:254472</identifier>
      <datestamp>2017-01-20T19:06:09Z</datestamp>
      <setSpec>user-biosyslit</setSpec>
    </header>
    <header>
      <identifier>oai:zenodo.org:230908</identifier>
      <datestamp>2017-01-05T10:45:28Z</datestamp>
      <setSpec>user-biosyslit</setSpec>
    </header>
    <header>
      <identifier>oai:zenodo.org:230907</identifier>
      <datestamp>2017-01-05T10:45:26Z</datestamp>
      <setSpec>user-biosyslit</setSpec>
    </header>
    <header>
      <identifier>oai:zenodo.org:230911</identifier>
      <datestamp>2017-01-05T10:45:36Z</datestamp>
      <setSpec>user-biosyslit</setSpec>
    </header>
    <header>
      <identifier>oai:zenodo.org:230916</identifier>
      <datestamp>2017-01-05T10:45:49Z</datestamp>
      <setSpec>user-biosyslit</setSpec>
    </header>
    <header>
      <identifier>oai:zenodo.org:230913</identifier>
      <datestamp>2017-01-05T10:45:42Z</datestamp>
      <setSpec>user-biosyslit</setSpec>
    </header>
    <header>
      <identifier>oai:zenodo.org:279325</identifier>
      <datestamp>2017-02-09T01:04:10Z</datestamp>
      <setSpec>user-biosyslit</setSpec>
    </header>
    <header>
      <identifier>oai:zenodo.org:279331</identifier>
      <datestamp>2017-02-09T01:04:25Z</datestamp>
      <setSpec>user-biosyslit</setSpec>
    </header>
    <header>
      <identifier>oai:zenodo.org:279333</identifier>
      <datestamp>2017-02-09T01:04:31Z</datestamp>
      <setSpec>user-biosyslit</setSpec>
    </header>
    <header>
      <identifier>oai:zenodo.org:279322</identifier>
      <datestamp>2017-02-09T01:04:01Z</datestamp>
      <setSpec>user-biosyslit</setSpec>
    </header>
    <header>
      <identifier>oai:zenodo.org:279326</identifier>
      <datestamp>2017-02-09T01:04:12Z</datestamp>
      <setSpec>user-biosyslit</setSpec>
    </header>
    <header>
      <identifier>oai:zenodo.org:279324</identifier>
      <datestamp>2017-02-09T01:04:07Z</datestamp>
      <setSpec>user-biosyslit</setSpec>
    </header>
    <resumptionToken expirationDate="2017-08-31T15:44:46Z" cursor="27100" completeListSize="77796">.eJyNyj0LgkAYAOD_8s4S96GdCS2iiUOKXYq6hJ0i1lXiFelF_z2X5pqf5wWqaWpw0MK02IpahC0xYtgktgFKDDcpD93MIPJMiqtMqyB77C4ZKkjLIk-NW6-gkT6j-II13yQkx_aYdmhK9um90Lsxo-GTI59tdTJFp3B-NY0DWR6DnqdXV3JSD7GfTBy7vKTi-_CfT_98nlqDAX3VNuAQRg04P6uhVeC83u8PnW1RPg.DIm_9g.ms7MwgiMA9gFj5fXvKCIdfQcAGE</resumptionToken>
  </ListIdentifiers>
</OAI-PMH>
