<?xml version='1.0' encoding='UTF-8'?>
<?xml-stylesheet type="text/xsl" href="/static/xsl/oai2.v1.0.xsl"?>
<OAI-PMH xmlns="http://www.openarchives.org/OAI/2.0/" xmlns:xsi="http://www.w3.org/2001/XMLSchema-instance" xsi:schemaLocation="http://www.openarchives.org/OAI/2.0/ http://www.openarchives.org/OAI/2.0/OAI-PMH.xsd">
  <responseDate>2017-08-31T15:46:03Z</responseDate>
  <request verb="ListIdentifiers" resumptionToken=".eJyNyk0LgjAcgPHv8j9LzK25ErqIJh1S5lLSS9gUKdcLrlAXffe8dK7bA8_vBbquK3DRjC7pnCKGqONMSagFWnY3pQ6naYPcZ0peVVqG2TO5ZCjHDYt8PWz9nESmRfHFNmLN8d5eDOkJjXyXPnKTDBnZ9AIFbGv4GJ03k6tIHKriGN5FevWUwFUXB3wUticKIr_O_tOZn87XK7DgXjY1uAxjC9q-7BoN7uv9_gCkllFF.DInAuw.e1VcUM_UfHBZue0E6rex6BKZR0s">https://zenodo.org/oai2d</request>
  <ListIdentifiers>
    <header>
      <identifier>oai:zenodo.org:230182</identifier>
      <datestamp>2017-01-04T20:49:21Z</datestamp>
      <setSpec>user-biosyslit</setSpec>
    </header>
    <header>
      <identifier>oai:zenodo.org:230184</identifier>
      <datestamp>2017-01-04T20:49:19Z</datestamp>
      <setSpec>user-biosyslit</setSpec>
    </header>
    <header>
      <identifier>oai:zenodo.org:282668</identifier>
      <datestamp>2017-02-09T07:26:10Z</datestamp>
      <setSpec>user-biosyslit</setSpec>
    </header>
    <header>
      <identifier>oai:zenodo.org:273946</identifier>
      <datestamp>2017-02-08T11:31:15Z</datestamp>
      <setSpec>user-biosyslit</setSpec>
    </header>
    <header>
      <identifier>oai:zenodo.org:273947</identifier>
      <datestamp>2017-02-08T11:31:18Z</datestamp>
      <setSpec>user-biosyslit</setSpec>
    </header>
    <header>
      <identifier>oai:zenodo.org:234783</identifier>
      <datestamp>2017-01-09T02:13:12Z</datestamp>
      <setSpec>user-biosyslit</setSpec>
    </header>
    <header>
      <identifier>oai:zenodo.org:234796</identifier>
      <datestamp>2017-01-09T02:13:07Z</datestamp>
      <setSpec>user-biosyslit</setSpec>
    </header>
    <header>
      <identifier>oai:zenodo.org:234795</identifier>
      <datestamp>2017-01-09T02:13:04Z</datestamp>
      <setSpec>user-biosyslit</setSpec>
    </header>
    <header>
      <identifier>oai:zenodo.org:253622</identifier>
      <datestamp>2017-01-20T09:05:02Z</datestamp>
      <setSpec>user-biosyslit</setSpec>
    </header>
    <header>
      <identifier>oai:zenodo.org:253614</identifier>
      <datestamp>2017-01-20T09:04:42Z</datestamp>
      <setSpec>user-biosyslit</setSpec>
    </header>
    <header>
      <identifier>oai:zenodo.org:253619</identifier>
      <datestamp>2017-01-20T09:04:52Z</datestamp>
      <setSpec>user-biosyslit</setSpec>
    </header>
    <header>
      <identifier>oai:zenodo.org:234794</identifier>
      <datestamp>2017-01-09T02:13:01Z</datestamp>
      <setSpec>user-biosyslit</setSpec>
    </header>
    <header>
      <identifier>oai:zenodo.org:253623</identifier>
      <datestamp>2017-01-20T09:05:05Z</datestamp>
      <setSpec>user-biosyslit</setSpec>
    </header>
    <header>
      <identifier>oai:zenodo.org:253617</identifier>
      <datestamp>2017-01-20T09:04:50Z</datestamp>
      <setSpec>user-biosyslit</setSpec>
    </header>
    <header>
      <identifier>oai:zenodo.org:289031</identifier>
      <datestamp>2017-02-09T22:31:21Z</datestamp>
      <setSpec>user-biosyslit</setSpec>
    </header>
    <header>
      <identifier>oai:zenodo.org:275553</identifier>
      <datestamp>2017-02-08T16:41:12Z</datestamp>
      <setSpec>user-biosyslit</setSpec>
    </header>
    <header>
      <identifier>oai:zenodo.org:275556</identifier>
      <datestamp>2017-02-08T16:41:07Z</datestamp>
      <setSpec>user-biosyslit</setSpec>
    </header>
    <header>
      <identifier>oai:zenodo.org:289043</identifier>
      <datestamp>2017-02-09T22:31:18Z</datestamp>
      <setSpec>user-biosyslit</setSpec>
    </header>
    <header>
      <identifier>oai:zenodo.org:275555</identifier>
      <datestamp>2017-02-08T16:41:05Z</datestamp>
      <setSpec>user-biosyslit</setSpec>
    </header>
    <header>
      <identifier>oai:zenodo.org:275557</identifier>
      <datestamp>2017-02-08T16:41:10Z</datestamp>
      <setSpec>user-biosyslit</setSpec>
    </header>
    <header>
      <identifier>oai:zenodo.org:261004</identifier>
      <datestamp>2017-01-28T03:45:38Z</datestamp>
      <setSpec>user-biosyslit</setSpec>
    </header>
    <header>
      <identifier>oai:zenodo.org:261005</identifier>
      <datestamp>2017-01-28T03:45:41Z</datestamp>
      <setSpec>user-biosyslit</setSpec>
    </header>
    <header>
      <identifier>oai:zenodo.org:248385</identifier>
      <datestamp>2017-01-17T03:30:07Z</datestamp>
      <setSpec>user-biosyslit</setSpec>
    </header>
    <header>
      <identifier>oai:zenodo.org:248389</identifier>
      <datestamp>2017-01-17T03:30:28Z</datestamp>
      <setSpec>user-biosyslit</setSpec>
    </header>
    <header>
      <identifier>oai:zenodo.org:248388</identifier>
      <datestamp>2017-01-17T03:30:25Z</datestamp>
      <setSpec>user-biosyslit</setSpec>
    </header>
    <header>
      <identifier>oai:zenodo.org:248384</identifier>
      <datestamp>2017-01-17T03:30:03Z</datestamp>
      <setSpec>user-biosyslit</setSpec>
    </header>
    <header>
      <identifier>oai:zenodo.org:248387</identifier>
      <datestamp>2017-01-17T03:30:20Z</datestamp>
      <setSpec>user-biosyslit</setSpec>
    </header>
    <header>
      <identifier>oai:zenodo.org:248380</identifier>
      <datestamp>2017-01-17T03:29:43Z</datestamp>
      <setSpec>user-biosyslit</setSpec>
    </header>
    <header>
      <identifier>oai:zenodo.org:248391</identifier>
      <datestamp>2017-01-17T03:30:37Z</datestamp>
      <setSpec>user-biosyslit</setSpec>
    </header>
    <header>
      <identifier>oai:zenodo.org:248392</identifier>
      <datestamp>2017-01-17T03:30:42Z</datestamp>
      <setSpec>user-biosyslit</setSpec>
    </header>
    <header>
      <identifier>oai:zenodo.org:248378</identifier>
      <datestamp>2017-01-17T03:29:34Z</datestamp>
      <setSpec>user-biosyslit</setSpec>
    </header>
    <header>
      <identifier>oai:zenodo.org:254343</identifier>
      <datestamp>2017-01-20T17:54:00Z</datestamp>
      <setSpec>user-biosyslit</setSpec>
    </header>
    <header>
      <identifier>oai:zenodo.org:254336</identifier>
      <datestamp>2017-01-20T17:53:39Z</datestamp>
      <setSpec>user-biosyslit</setSpec>
    </header>
    <header>
      <identifier>oai:zenodo.org:254337</identifier>
      <datestamp>2017-01-20T17:53:42Z</datestamp>
      <setSpec>user-biosyslit</setSpec>
    </header>
    <header>
      <identifier>oai:zenodo.org:254340</identifier>
      <datestamp>2017-01-20T17:53:51Z</datestamp>
      <setSpec>user-biosyslit</setSpec>
    </header>
    <header>
      <identifier>oai:zenodo.org:254328</identifier>
      <datestamp>2017-01-20T17:53:17Z</datestamp>
      <setSpec>user-biosyslit</setSpec>
    </header>
    <header>
      <identifier>oai:zenodo.org:254333</identifier>
      <datestamp>2017-01-20T17:53:30Z</datestamp>
      <setSpec>user-biosyslit</setSpec>
    </header>
    <header>
      <identifier>oai:zenodo.org:254329</identifier>
      <datestamp>2017-01-20T17:53:20Z</datestamp>
      <setSpec>user-biosyslit</setSpec>
    </header>
    <header>
      <identifier>oai:zenodo.org:254341</identifier>
      <datestamp>2017-01-20T17:53:54Z</datestamp>
      <setSpec>user-biosyslit</setSpec>
    </header>
    <header>
      <identifier>oai:zenodo.org:254332</identifier>
      <datestamp>2017-01-20T17:53:27Z</datestamp>
      <setSpec>user-biosyslit</setSpec>
    </header>
    <header>
      <identifier>oai:zenodo.org:273650</identifier>
      <datestamp>2017-02-08T10:09:44Z</datestamp>
      <setSpec>user-biosyslit</setSpec>
    </header>
    <header>
      <identifier>oai:zenodo.org:273649</identifier>
      <datestamp>2017-02-08T10:09:41Z</datestamp>
      <setSpec>user-biosyslit</setSpec>
    </header>
    <header>
      <identifier>oai:zenodo.org:247925</identifier>
      <datestamp>2017-01-16T21:43:52Z</datestamp>
      <setSpec>user-biosyslit</setSpec>
    </header>
    <header>
      <identifier>oai:zenodo.org:247929</identifier>
      <datestamp>2017-01-16T21:43:13Z</datestamp>
      <setSpec>user-biosyslit</setSpec>
    </header>
    <header>
      <identifier>oai:zenodo.org:247936</identifier>
      <datestamp>2017-01-16T21:43:37Z</datestamp>
      <setSpec>user-biosyslit</setSpec>
    </header>
    <header>
      <identifier>oai:zenodo.org:247934</identifier>
      <datestamp>2017-01-16T21:43:30Z</datestamp>
      <setSpec>user-biosyslit</setSpec>
    </header>
    <header>
      <identifier>oai:zenodo.org:247933</identifier>
      <datestamp>2017-01-16T21:43:26Z</datestamp>
      <setSpec>user-biosyslit</setSpec>
    </header>
    <header>
      <identifier>oai:zenodo.org:247938</identifier>
      <datestamp>2017-01-16T21:43:43Z</datestamp>
      <setSpec>user-biosyslit</setSpec>
    </header>
    <header>
      <identifier>oai:zenodo.org:242061</identifier>
      <datestamp>2017-01-13T09:55:14Z</datestamp>
      <setSpec>user-biosyslit</setSpec>
    </header>
    <header>
      <identifier>oai:zenodo.org:242060</identifier>
      <datestamp>2017-01-13T09:55:11Z</datestamp>
      <setSpec>user-biosyslit</setSpec>
    </header>
    <header>
      <identifier>oai:zenodo.org:242059</identifier>
      <datestamp>2017-01-13T09:55:06Z</datestamp>
      <setSpec>user-biosyslit</setSpec>
    </header>
    <header>
      <identifier>oai:zenodo.org:242058</identifier>
      <datestamp>2017-01-13T09:55:02Z</datestamp>
      <setSpec>user-biosyslit</setSpec>
    </header>
    <header>
      <identifier>oai:zenodo.org:231831</identifier>
      <datestamp>2017-01-06T07:41:15Z</datestamp>
      <setSpec>user-biosyslit</setSpec>
    </header>
    <header>
      <identifier>oai:zenodo.org:231825</identifier>
      <datestamp>2017-01-06T07:40:58Z</datestamp>
      <setSpec>user-biosyslit</setSpec>
    </header>
    <header>
      <identifier>oai:zenodo.org:231829</identifier>
      <datestamp>2017-01-06T07:41:08Z</datestamp>
      <setSpec>user-biosyslit</setSpec>
    </header>
    <header>
      <identifier>oai:zenodo.org:247747</identifier>
      <datestamp>2017-01-16T19:15:06Z</datestamp>
      <setSpec>user-biosyslit</setSpec>
    </header>
    <header>
      <identifier>oai:zenodo.org:247745</identifier>
      <datestamp>2017-01-16T19:14:58Z</datestamp>
      <setSpec>user-biosyslit</setSpec>
    </header>
    <header>
      <identifier>oai:zenodo.org:260600</identifier>
      <datestamp>2017-01-27T22:22:46Z</datestamp>
      <setSpec>user-biosyslit</setSpec>
    </header>
    <header>
      <identifier>oai:zenodo.org:260601</identifier>
      <datestamp>2017-01-27T22:22:29Z</datestamp>
      <setSpec>user-biosyslit</setSpec>
    </header>
    <header>
      <identifier>oai:zenodo.org:260604</identifier>
      <datestamp>2017-01-27T22:22:38Z</datestamp>
      <setSpec>user-biosyslit</setSpec>
    </header>
    <header>
      <identifier>oai:zenodo.org:244715</identifier>
      <datestamp>2017-01-15T01:33:34Z</datestamp>
      <setSpec>user-biosyslit</setSpec>
    </header>
    <header>
      <identifier>oai:zenodo.org:260607</identifier>
      <datestamp>2017-01-27T22:22:45Z</datestamp>
      <setSpec>user-biosyslit</setSpec>
    </header>
    <header>
      <identifier>oai:zenodo.org:244713</identifier>
      <datestamp>2017-01-15T01:33:28Z</datestamp>
      <setSpec>user-biosyslit</setSpec>
    </header>
    <header>
      <identifier>oai:zenodo.org:231144</identifier>
      <datestamp>2017-01-05T15:17:36Z</datestamp>
      <setSpec>user-biosyslit</setSpec>
    </header>
    <header>
      <identifier>oai:zenodo.org:282266</identifier>
      <datestamp>2017-02-09T06:44:19Z</datestamp>
      <setSpec>user-biosyslit</setSpec>
    </header>
    <header>
      <identifier>oai:zenodo.org:231499</identifier>
      <datestamp>2017-01-06T02:56:31Z</datestamp>
      <setSpec>user-biosyslit</setSpec>
    </header>
    <header>
      <identifier>oai:zenodo.org:227664</identifier>
      <datestamp>2017-01-02T02:07:26Z</datestamp>
      <setSpec>user-biosyslit</setSpec>
    </header>
    <header>
      <identifier>oai:zenodo.org:227665</identifier>
      <datestamp>2017-01-02T02:07:29Z</datestamp>
      <setSpec>user-biosyslit</setSpec>
    </header>
    <header>
      <identifier>oai:zenodo.org:227663</identifier>
      <datestamp>2017-01-02T02:07:22Z</datestamp>
      <setSpec>user-biosyslit</setSpec>
    </header>
    <header>
      <identifier>oai:zenodo.org:282267</identifier>
      <datestamp>2017-02-09T06:44:21Z</datestamp>
      <setSpec>user-biosyslit</setSpec>
    </header>
    <header>
      <identifier>oai:zenodo.org:241231</identifier>
      <datestamp>2017-01-12T22:36:01Z</datestamp>
      <setSpec>user-biosyslit</setSpec>
    </header>
    <header>
      <identifier>oai:zenodo.org:241240</identifier>
      <datestamp>2017-01-12T22:35:59Z</datestamp>
      <setSpec>user-biosyslit</setSpec>
    </header>
    <header>
      <identifier>oai:zenodo.org:241235</identifier>
      <datestamp>2017-01-12T22:35:40Z</datestamp>
      <setSpec>user-biosyslit</setSpec>
    </header>
    <header>
      <identifier>oai:zenodo.org:241234</identifier>
      <datestamp>2017-01-12T22:35:36Z</datestamp>
      <setSpec>user-biosyslit</setSpec>
    </header>
    <header>
      <identifier>oai:zenodo.org:241238</identifier>
      <datestamp>2017-01-12T22:35:51Z</datestamp>
      <setSpec>user-biosyslit</setSpec>
    </header>
    <header>
      <identifier>oai:zenodo.org:241236</identifier>
      <datestamp>2017-01-12T22:35:43Z</datestamp>
      <setSpec>user-biosyslit</setSpec>
    </header>
    <header>
      <identifier>oai:zenodo.org:241239</identifier>
      <datestamp>2017-01-12T22:35:55Z</datestamp>
      <setSpec>user-biosyslit</setSpec>
    </header>
    <header>
      <identifier>oai:zenodo.org:276153</identifier>
      <datestamp>2017-02-08T18:15:02Z</datestamp>
      <setSpec>user-biosyslit</setSpec>
    </header>
    <header>
      <identifier>oai:zenodo.org:264364</identifier>
      <datestamp>2017-01-30T19:50:43Z</datestamp>
      <setSpec>user-biosyslit</setSpec>
    </header>
    <header>
      <identifier>oai:zenodo.org:276163</identifier>
      <datestamp>2017-02-08T18:15:01Z</datestamp>
      <setSpec>user-biosyslit</setSpec>
    </header>
    <header>
      <identifier>oai:zenodo.org:276159</identifier>
      <datestamp>2017-02-08T18:14:50Z</datestamp>
      <setSpec>user-biosyslit</setSpec>
    </header>
    <header>
      <identifier>oai:zenodo.org:265122</identifier>
      <datestamp>2017-01-31T08:23:33Z</datestamp>
      <setSpec>user-biosyslit</setSpec>
    </header>
    <header>
      <identifier>oai:zenodo.org:276161</identifier>
      <datestamp>2017-02-08T18:14:56Z</datestamp>
      <setSpec>user-biosyslit</setSpec>
    </header>
    <header>
      <identifier>oai:zenodo.org:276158</identifier>
      <datestamp>2017-02-08T18:14:47Z</datestamp>
      <setSpec>user-biosyslit</setSpec>
    </header>
    <header>
      <identifier>oai:zenodo.org:264361</identifier>
      <datestamp>2017-01-30T19:50:35Z</datestamp>
      <setSpec>user-biosyslit</setSpec>
    </header>
    <header>
      <identifier>oai:zenodo.org:276162</identifier>
      <datestamp>2017-02-08T18:14:59Z</datestamp>
      <setSpec>user-biosyslit</setSpec>
    </header>
    <header>
      <identifier>oai:zenodo.org:279281</identifier>
      <datestamp>2017-02-09T00:59:12Z</datestamp>
      <setSpec>user-biosyslit</setSpec>
    </header>
    <header>
      <identifier>oai:zenodo.org:231287</identifier>
      <datestamp>2017-01-05T18:30:58Z</datestamp>
      <setSpec>user-biosyslit</setSpec>
    </header>
    <header>
      <identifier>oai:zenodo.org:279286</identifier>
      <datestamp>2017-02-09T00:59:03Z</datestamp>
      <setSpec>user-biosyslit</setSpec>
    </header>
    <header>
      <identifier>oai:zenodo.org:279288</identifier>
      <datestamp>2017-02-09T00:59:09Z</datestamp>
      <setSpec>user-biosyslit</setSpec>
    </header>
    <header>
      <identifier>oai:zenodo.org:279287</identifier>
      <datestamp>2017-02-09T00:59:06Z</datestamp>
      <setSpec>user-biosyslit</setSpec>
    </header>
    <header>
      <identifier>oai:zenodo.org:275370</identifier>
      <datestamp>2017-02-08T16:11:05Z</datestamp>
      <setSpec>user-biosyslit</setSpec>
    </header>
    <header>
      <identifier>oai:zenodo.org:275376</identifier>
      <datestamp>2017-02-08T16:10:53Z</datestamp>
      <setSpec>user-biosyslit</setSpec>
    </header>
    <header>
      <identifier>oai:zenodo.org:275377</identifier>
      <datestamp>2017-02-08T16:10:55Z</datestamp>
      <setSpec>user-biosyslit</setSpec>
    </header>
    <header>
      <identifier>oai:zenodo.org:275378</identifier>
      <datestamp>2017-02-08T16:10:57Z</datestamp>
      <setSpec>user-biosyslit</setSpec>
    </header>
    <header>
      <identifier>oai:zenodo.org:275372</identifier>
      <datestamp>2017-02-08T16:10:43Z</datestamp>
      <setSpec>user-biosyslit</setSpec>
    </header>
    <header>
      <identifier>oai:zenodo.org:275381</identifier>
      <datestamp>2017-02-08T16:11:03Z</datestamp>
      <setSpec>user-biosyslit</setSpec>
    </header>
    <header>
      <identifier>oai:zenodo.org:275374</identifier>
      <datestamp>2017-02-08T16:10:48Z</datestamp>
      <setSpec>user-biosyslit</setSpec>
    </header>
    <header>
      <identifier>oai:zenodo.org:275373</identifier>
      <datestamp>2017-02-08T16:10:46Z</datestamp>
      <setSpec>user-biosyslit</setSpec>
    </header>
    <header>
      <identifier>oai:zenodo.org:236631</identifier>
      <datestamp>2017-01-10T02:14:16Z</datestamp>
      <setSpec>user-biosyslit</setSpec>
    </header>
    <resumptionToken expirationDate="2017-08-31T15:48:03Z" cursor="72100" completeListSize="77796">.eJyNyssKgkAUANB_uWuJeeQT2ogmLlRsUtJNmIqYo4VTqCP9e21a1_qcFURdV2ChDTY1YlATEbqlpmpoqgKiHG-cn9uPQ3lKeTnwpPDS56FPUUYaPXTEHDgZDWWHoh5Lto_JCRtz0qIlPiaPTB7mlPoTQ64eyHgJr_7nVTTyeH7x7iwZbM5INUZuvDBss5yW34f_fPLnc8QOFLgXTQ2WTqgC3VSMjQBrfb3e2RFReg.DInAuw.UYkgA5h49t0c4VTtjRJFQTxHAQc</resumptionToken>
  </ListIdentifiers>
</OAI-PMH>
