<?xml version='1.0' encoding='UTF-8'?>
<?xml-stylesheet type="text/xsl" href="/static/xsl/oai2.v1.0.xsl"?>
<OAI-PMH xmlns="http://www.openarchives.org/OAI/2.0/" xmlns:xsi="http://www.w3.org/2001/XMLSchema-instance" xsi:schemaLocation="http://www.openarchives.org/OAI/2.0/ http://www.openarchives.org/OAI/2.0/OAI-PMH.xsd">
  <responseDate>2017-08-31T15:42:07Z</responseDate>
  <request verb="ListIdentifiers" resumptionToken=".eJyNyj0LgkAYAOD_8s4S92FeCi1iSYOKXkq6hKlIdZp4hXrif6-luebnmUFWVQkWWhGGTYOayFjrTMeYaiCL_iHE-fphKE6JKFoR527yipoEpaRmviNHz0mpr-4oaLDi-5Cc8GaMr2gKj_EzVdGY0MPA0Y55Kpz82-HzShq4Iru4HY9bW3BS9sEunDi2eUaL78N_PvXzOXILGnR5XYGFGdHgPuR9LcGal-UNmpVROQ.DIm_zw.huPX_hVhvdT1s_oI9X-SYnl0DJo">https://zenodo.org/oai2d</request>
  <ListIdentifiers>
    <header>
      <identifier>oai:zenodo.org:399012</identifier>
      <datestamp>2017-03-14T23:48:32Z</datestamp>
      <setSpec>user-biosyslit</setSpec>
    </header>
    <header>
      <identifier>oai:zenodo.org:399420</identifier>
      <datestamp>2017-03-15T20:55:17Z</datestamp>
      <setSpec>user-biosyslit</setSpec>
    </header>
    <header>
      <identifier>oai:zenodo.org:399763</identifier>
      <datestamp>2017-03-15T23:54:55Z</datestamp>
      <setSpec>user-biosyslit</setSpec>
    </header>
    <header>
      <identifier>oai:zenodo.org:400038</identifier>
      <datestamp>2017-03-16T07:31:03Z</datestamp>
      <setSpec>user-biosyslit</setSpec>
    </header>
    <header>
      <identifier>oai:zenodo.org:399451</identifier>
      <datestamp>2017-03-15T20:56:36Z</datestamp>
      <setSpec>user-biosyslit</setSpec>
    </header>
    <header>
      <identifier>oai:zenodo.org:556062</identifier>
      <datestamp>2017-04-19T07:56:04Z</datestamp>
      <setSpec>user-biosyslit</setSpec>
    </header>
    <header>
      <identifier>oai:zenodo.org:399640</identifier>
      <datestamp>2017-03-15T23:05:50Z</datestamp>
      <setSpec>user-biosyslit</setSpec>
    </header>
    <header>
      <identifier>oai:zenodo.org:556261</identifier>
      <datestamp>2017-04-20T07:12:09Z</datestamp>
      <setSpec>user-biosyslit</setSpec>
    </header>
    <header>
      <identifier>oai:zenodo.org:400475</identifier>
      <datestamp>2017-03-17T09:17:06Z</datestamp>
      <setSpec>user-biosyslit</setSpec>
    </header>
    <header>
      <identifier>oai:zenodo.org:556059</identifier>
      <datestamp>2017-04-19T07:49:05Z</datestamp>
      <setSpec>user-biosyslit</setSpec>
    </header>
    <header>
      <identifier>oai:zenodo.org:432656</identifier>
      <datestamp>2017-03-21T09:39:01Z</datestamp>
      <setSpec>user-biosyslit</setSpec>
    </header>
    <header>
      <identifier>oai:zenodo.org:437294</identifier>
      <datestamp>2017-03-22T09:18:56Z</datestamp>
      <setSpec>user-biosyslit</setSpec>
    </header>
    <header>
      <identifier>oai:zenodo.org:556010</identifier>
      <datestamp>2017-04-19T07:18:29Z</datestamp>
      <setSpec>user-biosyslit</setSpec>
    </header>
    <header>
      <identifier>oai:zenodo.org:437291</identifier>
      <datestamp>2017-03-22T09:12:08Z</datestamp>
      <setSpec>user-biosyslit</setSpec>
    </header>
    <header>
      <identifier>oai:zenodo.org:432648</identifier>
      <datestamp>2017-03-21T09:39:11Z</datestamp>
      <setSpec>user-biosyslit</setSpec>
    </header>
    <header>
      <identifier>oai:zenodo.org:439317</identifier>
      <datestamp>2017-03-31T09:17:15Z</datestamp>
      <setSpec>user-biosyslit</setSpec>
    </header>
    <header>
      <identifier>oai:zenodo.org:437265</identifier>
      <datestamp>2017-03-22T08:56:22Z</datestamp>
      <setSpec>user-biosyslit</setSpec>
    </header>
    <header>
      <identifier>oai:zenodo.org:556279</identifier>
      <datestamp>2017-04-20T07:41:48Z</datestamp>
      <setSpec>user-biosyslit</setSpec>
    </header>
    <header>
      <identifier>oai:zenodo.org:437644</identifier>
      <datestamp>2017-03-23T10:10:01Z</datestamp>
      <setSpec>user-biosyslit</setSpec>
    </header>
    <header>
      <identifier>oai:zenodo.org:438813</identifier>
      <datestamp>2017-03-29T07:14:32Z</datestamp>
      <setSpec>user-biosyslit</setSpec>
    </header>
    <header>
      <identifier>oai:zenodo.org:556879</identifier>
      <datestamp>2017-04-24T08:06:07Z</datestamp>
      <setSpec>user-biosyslit</setSpec>
    </header>
    <header>
      <identifier>oai:zenodo.org:438260</identifier>
      <datestamp>2017-03-27T08:23:49Z</datestamp>
      <setSpec>user-biosyslit</setSpec>
    </header>
    <header>
      <identifier>oai:zenodo.org:581981</identifier>
      <datestamp>2017-05-22T07:19:38Z</datestamp>
      <setSpec>user-biosyslit</setSpec>
    </header>
    <header>
      <identifier>oai:zenodo.org:582466</identifier>
      <datestamp>2017-05-23T07:48:54Z</datestamp>
      <setSpec>user-biosyslit</setSpec>
    </header>
    <header>
      <identifier>oai:zenodo.org:582750</identifier>
      <datestamp>2017-05-24T07:55:27Z</datestamp>
      <setSpec>user-biosyslit</setSpec>
    </header>
    <header>
      <identifier>oai:zenodo.org:376396</identifier>
      <datestamp>2017-03-10T08:45:37Z</datestamp>
      <setSpec>user-biosyslit</setSpec>
    </header>
    <header>
      <identifier>oai:zenodo.org:376446</identifier>
      <datestamp>2017-03-10T09:27:43Z</datestamp>
      <setSpec>user-biosyslit</setSpec>
    </header>
    <header>
      <identifier>oai:zenodo.org:376432</identifier>
      <datestamp>2017-03-10T09:21:37Z</datestamp>
      <setSpec>user-biosyslit</setSpec>
    </header>
    <header>
      <identifier>oai:zenodo.org:375989</identifier>
      <datestamp>2017-03-09T08:15:04Z</datestamp>
      <setSpec>user-biosyslit</setSpec>
    </header>
    <header>
      <identifier>oai:zenodo.org:375995</identifier>
      <datestamp>2017-03-09T08:25:27Z</datestamp>
      <setSpec>user-biosyslit</setSpec>
    </header>
    <header>
      <identifier>oai:zenodo.org:375761</identifier>
      <datestamp>2017-03-08T08:33:36Z</datestamp>
      <setSpec>user-biosyslit</setSpec>
    </header>
    <header>
      <identifier>oai:zenodo.org:376029</identifier>
      <datestamp>2017-03-09T08:51:36Z</datestamp>
      <setSpec>user-biosyslit</setSpec>
    </header>
    <header>
      <identifier>oai:zenodo.org:375891</identifier>
      <datestamp>2017-03-08T13:24:51Z</datestamp>
      <setSpec>user-biosyslit</setSpec>
    </header>
    <header>
      <identifier>oai:zenodo.org:375999</identifier>
      <datestamp>2017-03-09T08:33:39Z</datestamp>
      <setSpec>user-biosyslit</setSpec>
    </header>
    <header>
      <identifier>oai:zenodo.org:376090</identifier>
      <datestamp>2017-03-09T09:50:40Z</datestamp>
      <setSpec>user-biosyslit</setSpec>
    </header>
    <header>
      <identifier>oai:zenodo.org:376020</identifier>
      <datestamp>2017-03-09T08:41:13Z</datestamp>
      <setSpec>user-biosyslit</setSpec>
    </header>
    <header>
      <identifier>oai:zenodo.org:375755</identifier>
      <datestamp>2017-03-08T08:21:51Z</datestamp>
      <setSpec>user-biosyslit</setSpec>
    </header>
    <header>
      <identifier>oai:zenodo.org:376368</identifier>
      <datestamp>2017-03-10T08:20:44Z</datestamp>
      <setSpec>user-biosyslit</setSpec>
    </header>
    <header>
      <identifier>oai:zenodo.org:376712</identifier>
      <datestamp>2017-03-11T00:05:10Z</datestamp>
      <setSpec>user-biosyslit</setSpec>
    </header>
    <header>
      <identifier>oai:zenodo.org:375896</identifier>
      <datestamp>2017-03-08T13:25:03Z</datestamp>
      <setSpec>user-biosyslit</setSpec>
    </header>
    <header>
      <identifier>oai:zenodo.org:376673</identifier>
      <datestamp>2017-03-11T00:03:34Z</datestamp>
      <setSpec>user-biosyslit</setSpec>
    </header>
    <header>
      <identifier>oai:zenodo.org:376930</identifier>
      <datestamp>2017-03-13T08:48:13Z</datestamp>
      <setSpec>user-biosyslit</setSpec>
    </header>
    <header>
      <identifier>oai:zenodo.org:376710</identifier>
      <datestamp>2017-03-11T00:05:05Z</datestamp>
      <setSpec>user-biosyslit</setSpec>
    </header>
    <header>
      <identifier>oai:zenodo.org:376989</identifier>
      <datestamp>2017-03-13T09:47:52Z</datestamp>
      <setSpec>user-biosyslit</setSpec>
    </header>
    <header>
      <identifier>oai:zenodo.org:583385</identifier>
      <datestamp>2017-05-26T07:43:34Z</datestamp>
      <setSpec>user-biosyslit</setSpec>
    </header>
    <header>
      <identifier>oai:zenodo.org:583355</identifier>
      <datestamp>2017-05-26T07:20:31Z</datestamp>
      <setSpec>user-biosyslit</setSpec>
    </header>
    <header>
      <identifier>oai:zenodo.org:583845</identifier>
      <datestamp>2017-05-29T07:46:19Z</datestamp>
      <setSpec>user-biosyslit</setSpec>
    </header>
    <header>
      <identifier>oai:zenodo.org:400217</identifier>
      <datestamp>2017-03-16T09:54:12Z</datestamp>
      <setSpec>user-biosyslit</setSpec>
    </header>
    <header>
      <identifier>oai:zenodo.org:399563</identifier>
      <datestamp>2017-03-15T22:43:54Z</datestamp>
      <setSpec>user-biosyslit</setSpec>
    </header>
    <header>
      <identifier>oai:zenodo.org:399112</identifier>
      <datestamp>2017-03-15T08:26:27Z</datestamp>
      <setSpec>user-biosyslit</setSpec>
    </header>
    <header>
      <identifier>oai:zenodo.org:398922</identifier>
      <datestamp>2017-03-14T21:06:36Z</datestamp>
      <setSpec>user-biosyslit</setSpec>
    </header>
    <header>
      <identifier>oai:zenodo.org:398762</identifier>
      <datestamp>2017-03-14T09:42:02Z</datestamp>
      <setSpec>user-biosyslit</setSpec>
    </header>
    <header>
      <identifier>oai:zenodo.org:399896</identifier>
      <datestamp>2017-03-16T01:31:17Z</datestamp>
      <setSpec>user-biosyslit</setSpec>
    </header>
    <header>
      <identifier>oai:zenodo.org:399803</identifier>
      <datestamp>2017-03-15T23:58:26Z</datestamp>
      <setSpec>user-biosyslit</setSpec>
    </header>
    <header>
      <identifier>oai:zenodo.org:398741</identifier>
      <datestamp>2017-03-14T09:00:39Z</datestamp>
      <setSpec>user-biosyslit</setSpec>
    </header>
    <header>
      <identifier>oai:zenodo.org:400133</identifier>
      <datestamp>2017-03-16T08:49:18Z</datestamp>
      <setSpec>user-biosyslit</setSpec>
    </header>
    <header>
      <identifier>oai:zenodo.org:400109</identifier>
      <datestamp>2017-03-16T08:22:44Z</datestamp>
      <setSpec>user-biosyslit</setSpec>
    </header>
    <header>
      <identifier>oai:zenodo.org:400721</identifier>
      <datestamp>2017-03-19T11:23:17Z</datestamp>
      <setSpec>user-biosyslit</setSpec>
    </header>
    <header>
      <identifier>oai:zenodo.org:400077</identifier>
      <datestamp>2017-03-16T07:32:52Z</datestamp>
      <setSpec>user-biosyslit</setSpec>
    </header>
    <header>
      <identifier>oai:zenodo.org:399715</identifier>
      <datestamp>2017-03-15T23:26:10Z</datestamp>
      <setSpec>user-biosyslit</setSpec>
    </header>
    <header>
      <identifier>oai:zenodo.org:399783</identifier>
      <datestamp>2017-03-15T23:57:28Z</datestamp>
      <setSpec>user-biosyslit</setSpec>
    </header>
    <header>
      <identifier>oai:zenodo.org:399850</identifier>
      <datestamp>2017-03-16T01:28:47Z</datestamp>
      <setSpec>user-biosyslit</setSpec>
    </header>
    <header>
      <identifier>oai:zenodo.org:398719</identifier>
      <datestamp>2017-03-14T08:59:44Z</datestamp>
      <setSpec>user-biosyslit</setSpec>
    </header>
    <header>
      <identifier>oai:zenodo.org:556308</identifier>
      <datestamp>2017-04-20T08:04:22Z</datestamp>
      <setSpec>user-biosyslit</setSpec>
    </header>
    <header>
      <identifier>oai:zenodo.org:399136</identifier>
      <datestamp>2017-03-15T08:36:17Z</datestamp>
      <setSpec>user-biosyslit</setSpec>
    </header>
    <header>
      <identifier>oai:zenodo.org:400719</identifier>
      <datestamp>2017-03-19T11:23:35Z</datestamp>
      <setSpec>user-biosyslit</setSpec>
    </header>
    <header>
      <identifier>oai:zenodo.org:398775</identifier>
      <datestamp>2017-03-14T09:51:48Z</datestamp>
      <setSpec>user-biosyslit</setSpec>
    </header>
    <header>
      <identifier>oai:zenodo.org:400115</identifier>
      <datestamp>2017-03-16T08:39:45Z</datestamp>
      <setSpec>user-biosyslit</setSpec>
    </header>
    <header>
      <identifier>oai:zenodo.org:398938</identifier>
      <datestamp>2017-03-14T21:07:13Z</datestamp>
      <setSpec>user-biosyslit</setSpec>
    </header>
    <header>
      <identifier>oai:zenodo.org:400473</identifier>
      <datestamp>2017-03-17T09:17:02Z</datestamp>
      <setSpec>user-biosyslit</setSpec>
    </header>
    <header>
      <identifier>oai:zenodo.org:399638</identifier>
      <datestamp>2017-03-15T23:06:16Z</datestamp>
      <setSpec>user-biosyslit</setSpec>
    </header>
    <header>
      <identifier>oai:zenodo.org:399736</identifier>
      <datestamp>2017-03-15T23:48:09Z</datestamp>
      <setSpec>user-biosyslit</setSpec>
    </header>
    <header>
      <identifier>oai:zenodo.org:400909</identifier>
      <datestamp>2017-03-20T09:57:50Z</datestamp>
      <setSpec>user-biosyslit</setSpec>
    </header>
    <header>
      <identifier>oai:zenodo.org:400055</identifier>
      <datestamp>2017-03-16T07:31:48Z</datestamp>
      <setSpec>user-biosyslit</setSpec>
    </header>
    <header>
      <identifier>oai:zenodo.org:437266</identifier>
      <datestamp>2017-03-22T08:56:25Z</datestamp>
      <setSpec>user-biosyslit</setSpec>
    </header>
    <header>
      <identifier>oai:zenodo.org:427453</identifier>
      <datestamp>2017-03-21T08:31:37Z</datestamp>
      <setSpec>user-biosyslit</setSpec>
    </header>
    <header>
      <identifier>oai:zenodo.org:437626</identifier>
      <datestamp>2017-03-23T10:09:16Z</datestamp>
      <setSpec>user-biosyslit</setSpec>
    </header>
    <header>
      <identifier>oai:zenodo.org:430635</identifier>
      <datestamp>2017-03-21T09:12:41Z</datestamp>
      <setSpec>user-biosyslit</setSpec>
    </header>
    <header>
      <identifier>oai:zenodo.org:437613</identifier>
      <datestamp>2017-03-23T10:08:45Z</datestamp>
      <setSpec>user-biosyslit</setSpec>
    </header>
    <header>
      <identifier>oai:zenodo.org:437235</identifier>
      <datestamp>2017-03-22T08:24:02Z</datestamp>
      <setSpec>user-biosyslit</setSpec>
    </header>
    <header>
      <identifier>oai:zenodo.org:438820</identifier>
      <datestamp>2017-03-29T07:14:54Z</datestamp>
      <setSpec>user-biosyslit</setSpec>
    </header>
    <header>
      <identifier>oai:zenodo.org:437946</identifier>
      <datestamp>2017-03-24T08:24:38Z</datestamp>
      <setSpec>user-biosyslit</setSpec>
    </header>
    <header>
      <identifier>oai:zenodo.org:438254</identifier>
      <datestamp>2017-03-27T08:12:19Z</datestamp>
      <setSpec>user-biosyslit</setSpec>
    </header>
    <header>
      <identifier>oai:zenodo.org:437978</identifier>
      <datestamp>2017-03-24T08:46:52Z</datestamp>
      <setSpec>user-biosyslit</setSpec>
    </header>
    <header>
      <identifier>oai:zenodo.org:437941</identifier>
      <datestamp>2017-03-24T08:16:00Z</datestamp>
      <setSpec>user-biosyslit</setSpec>
    </header>
    <header>
      <identifier>oai:zenodo.org:438223</identifier>
      <datestamp>2017-03-27T07:36:27Z</datestamp>
      <setSpec>user-biosyslit</setSpec>
    </header>
    <header>
      <identifier>oai:zenodo.org:438225</identifier>
      <datestamp>2017-03-27T07:36:32Z</datestamp>
      <setSpec>user-biosyslit</setSpec>
    </header>
    <header>
      <identifier>oai:zenodo.org:557189</identifier>
      <datestamp>2017-04-25T09:18:09Z</datestamp>
      <setSpec>user-biosyslit</setSpec>
    </header>
    <header>
      <identifier>oai:zenodo.org:438569</identifier>
      <datestamp>2017-03-28T07:32:59Z</datestamp>
      <setSpec>user-biosyslit</setSpec>
    </header>
    <header>
      <identifier>oai:zenodo.org:439329</identifier>
      <datestamp>2017-03-31T09:16:59Z</datestamp>
      <setSpec>user-biosyslit</setSpec>
    </header>
    <header>
      <identifier>oai:zenodo.org:439330</identifier>
      <datestamp>2017-03-31T09:16:58Z</datestamp>
      <setSpec>user-biosyslit</setSpec>
    </header>
    <header>
      <identifier>oai:zenodo.org:439753</identifier>
      <datestamp>2017-04-02T21:16:07Z</datestamp>
      <setSpec>user-biosyslit</setSpec>
    </header>
    <header>
      <identifier>oai:zenodo.org:495550</identifier>
      <datestamp>2017-04-07T07:51:45Z</datestamp>
      <setSpec>user-biosyslit</setSpec>
    </header>
    <header>
      <identifier>oai:zenodo.org:495854</identifier>
      <datestamp>2017-04-10T07:50:07Z</datestamp>
      <setSpec>user-biosyslit</setSpec>
    </header>
    <header>
      <identifier>oai:zenodo.org:546819</identifier>
      <datestamp>2017-04-18T07:31:09Z</datestamp>
      <setSpec>user-biosyslit</setSpec>
    </header>
    <header>
      <identifier>oai:zenodo.org:545708</identifier>
      <datestamp>2017-04-12T07:34:40Z</datestamp>
      <setSpec>user-biosyslit</setSpec>
    </header>
    <header>
      <identifier>oai:zenodo.org:546866</identifier>
      <datestamp>2017-04-18T08:41:53Z</datestamp>
      <setSpec>user-biosyslit</setSpec>
    </header>
    <header>
      <identifier>oai:zenodo.org:556495</identifier>
      <datestamp>2017-04-21T08:46:06Z</datestamp>
      <setSpec>user-biosyslit</setSpec>
    </header>
    <header>
      <identifier>oai:zenodo.org:556499</identifier>
      <datestamp>2017-04-21T08:46:16Z</datestamp>
      <setSpec>user-biosyslit</setSpec>
    </header>
    <header>
      <identifier>oai:zenodo.org:556886</identifier>
      <datestamp>2017-04-24T08:06:29Z</datestamp>
      <setSpec>user-biosyslit</setSpec>
    </header>
    <resumptionToken expirationDate="2017-08-31T15:44:07Z" cursor="17100" completeListSize="77796">.eJyNyk0LgjAYAOD_8p4l9hFNhS6hSYcUXQ71EjZFqlXiCnXhf89L5zo_zxt0XVfgogVBtuMgm5ElQ6uVQ2wLtOweSh3Ps4PMhJJ3lZaBeCU3gXLSsNDTw97LaWiuKLphw7cxybA9pGc0xof0mZtkEHTXc-SzvYnH8LKbX0WjQBWnoOXpfaM4qbrIj0eON7yg8vvwn8_8fJ5egwVt2dTgYkYtuPZl12hw39P0AdyrUX0.DIm_zw.Vq7kC6SL859iFoIi32Gm53aRPjM</resumptionToken>
  </ListIdentifiers>
</OAI-PMH>
