<?xml version='1.0' encoding='UTF-8'?>
<?xml-stylesheet type="text/xsl" href="/static/xsl/oai2.v1.0.xsl"?>
<OAI-PMH xmlns="http://www.openarchives.org/OAI/2.0/" xmlns:xsi="http://www.w3.org/2001/XMLSchema-instance" xsi:schemaLocation="http://www.openarchives.org/OAI/2.0/ http://www.openarchives.org/OAI/2.0/OAI-PMH.xsd">
  <responseDate>2017-08-31T15:45:58Z</responseDate>
  <request verb="ListIdentifiers" resumptionToken=".eJyNz7EOgjAUQNF_eTMxpUWKJC4EJQ5AoJYIi8FCiFrUUA1Q4r_L4qzzPcudQNV1BS5aOJRQtLItG9tLalFqgBLdXcrjec4gDpkUN8nLIHulbYZy3NDIV0Po5yTSVxS3pmbbBB9MZ-BnNCZ7_sx1OmRk1zO0oaFOxuiym11F4kAWp-DB-M2TDFddvElGZnqsIOLrzD-d_ul8tQYDHmVTgzv_GXDty65R4E7v9wetHlFT.DInAtg.MUwbZU8Uxct_FCTalGJSn9VmyyY">https://zenodo.org/oai2d</request>
  <ListIdentifiers>
    <header>
      <identifier>oai:zenodo.org:241313</identifier>
      <datestamp>2017-01-12T23:52:00Z</datestamp>
      <setSpec>user-biosyslit</setSpec>
    </header>
    <header>
      <identifier>oai:zenodo.org:241314</identifier>
      <datestamp>2017-01-12T23:52:05Z</datestamp>
      <setSpec>user-biosyslit</setSpec>
    </header>
    <header>
      <identifier>oai:zenodo.org:230569</identifier>
      <datestamp>2017-01-05T03:54:39Z</datestamp>
      <setSpec>user-biosyslit</setSpec>
    </header>
    <header>
      <identifier>oai:zenodo.org:286785</identifier>
      <datestamp>2017-02-09T16:48:32Z</datestamp>
      <setSpec>user-biosyslit</setSpec>
    </header>
    <header>
      <identifier>oai:zenodo.org:286784</identifier>
      <datestamp>2017-02-09T16:48:29Z</datestamp>
      <setSpec>user-biosyslit</setSpec>
    </header>
    <header>
      <identifier>oai:zenodo.org:286783</identifier>
      <datestamp>2017-02-09T16:48:23Z</datestamp>
      <setSpec>user-biosyslit</setSpec>
    </header>
    <header>
      <identifier>oai:zenodo.org:286781</identifier>
      <datestamp>2017-02-09T16:48:17Z</datestamp>
      <setSpec>user-biosyslit</setSpec>
    </header>
    <header>
      <identifier>oai:zenodo.org:286789</identifier>
      <datestamp>2017-02-09T16:48:41Z</datestamp>
      <setSpec>user-biosyslit</setSpec>
    </header>
    <header>
      <identifier>oai:zenodo.org:286788</identifier>
      <datestamp>2017-02-09T16:48:39Z</datestamp>
      <setSpec>user-biosyslit</setSpec>
    </header>
    <header>
      <identifier>oai:zenodo.org:286790</identifier>
      <datestamp>2017-02-09T16:48:43Z</datestamp>
      <setSpec>user-biosyslit</setSpec>
    </header>
    <header>
      <identifier>oai:zenodo.org:239137</identifier>
      <datestamp>2017-01-11T16:56:41Z</datestamp>
      <setSpec>user-biosyslit</setSpec>
    </header>
    <header>
      <identifier>oai:zenodo.org:239138</identifier>
      <datestamp>2017-01-11T16:56:45Z</datestamp>
      <setSpec>user-biosyslit</setSpec>
    </header>
    <header>
      <identifier>oai:zenodo.org:261559</identifier>
      <datestamp>2017-01-28T10:55:15Z</datestamp>
      <setSpec>user-biosyslit</setSpec>
    </header>
    <header>
      <identifier>oai:zenodo.org:229482</identifier>
      <datestamp>2017-01-03T16:59:25Z</datestamp>
      <setSpec>user-biosyslit</setSpec>
    </header>
    <header>
      <identifier>oai:zenodo.org:229488</identifier>
      <datestamp>2017-01-03T16:59:46Z</datestamp>
      <setSpec>user-biosyslit</setSpec>
    </header>
    <header>
      <identifier>oai:zenodo.org:229485</identifier>
      <datestamp>2017-01-03T16:59:35Z</datestamp>
      <setSpec>user-biosyslit</setSpec>
    </header>
    <header>
      <identifier>oai:zenodo.org:229486</identifier>
      <datestamp>2017-01-03T16:59:38Z</datestamp>
      <setSpec>user-biosyslit</setSpec>
    </header>
    <header>
      <identifier>oai:zenodo.org:229481</identifier>
      <datestamp>2017-01-03T16:59:21Z</datestamp>
      <setSpec>user-biosyslit</setSpec>
    </header>
    <header>
      <identifier>oai:zenodo.org:229484</identifier>
      <datestamp>2017-01-03T16:59:32Z</datestamp>
      <setSpec>user-biosyslit</setSpec>
    </header>
    <header>
      <identifier>oai:zenodo.org:229487</identifier>
      <datestamp>2017-01-03T16:59:42Z</datestamp>
      <setSpec>user-biosyslit</setSpec>
    </header>
    <header>
      <identifier>oai:zenodo.org:261560</identifier>
      <datestamp>2017-01-28T10:55:17Z</datestamp>
      <setSpec>user-biosyslit</setSpec>
    </header>
    <header>
      <identifier>oai:zenodo.org:249522</identifier>
      <datestamp>2017-01-17T20:51:20Z</datestamp>
      <setSpec>user-biosyslit</setSpec>
    </header>
    <header>
      <identifier>oai:zenodo.org:249524</identifier>
      <datestamp>2017-01-17T20:51:26Z</datestamp>
      <setSpec>user-biosyslit</setSpec>
    </header>
    <header>
      <identifier>oai:zenodo.org:249523</identifier>
      <datestamp>2017-01-17T20:51:24Z</datestamp>
      <setSpec>user-biosyslit</setSpec>
    </header>
    <header>
      <identifier>oai:zenodo.org:249521</identifier>
      <datestamp>2017-01-17T20:51:14Z</datestamp>
      <setSpec>user-biosyslit</setSpec>
    </header>
    <header>
      <identifier>oai:zenodo.org:279588</identifier>
      <datestamp>2017-02-09T01:40:51Z</datestamp>
      <setSpec>user-biosyslit</setSpec>
    </header>
    <header>
      <identifier>oai:zenodo.org:231957</identifier>
      <datestamp>2017-01-06T09:21:01Z</datestamp>
      <setSpec>user-biosyslit</setSpec>
    </header>
    <header>
      <identifier>oai:zenodo.org:288400</identifier>
      <datestamp>2017-02-09T20:53:53Z</datestamp>
      <setSpec>user-biosyslit</setSpec>
    </header>
    <header>
      <identifier>oai:zenodo.org:288401</identifier>
      <datestamp>2017-02-09T20:53:55Z</datestamp>
      <setSpec>user-biosyslit</setSpec>
    </header>
    <header>
      <identifier>oai:zenodo.org:288410</identifier>
      <datestamp>2017-02-09T20:54:15Z</datestamp>
      <setSpec>user-biosyslit</setSpec>
    </header>
    <header>
      <identifier>oai:zenodo.org:288406</identifier>
      <datestamp>2017-02-09T20:54:07Z</datestamp>
      <setSpec>user-biosyslit</setSpec>
    </header>
    <header>
      <identifier>oai:zenodo.org:288405</identifier>
      <datestamp>2017-02-09T20:54:05Z</datestamp>
      <setSpec>user-biosyslit</setSpec>
    </header>
    <header>
      <identifier>oai:zenodo.org:288411</identifier>
      <datestamp>2017-02-09T20:54:17Z</datestamp>
      <setSpec>user-biosyslit</setSpec>
    </header>
    <header>
      <identifier>oai:zenodo.org:288402</identifier>
      <datestamp>2017-02-09T20:53:58Z</datestamp>
      <setSpec>user-biosyslit</setSpec>
    </header>
    <header>
      <identifier>oai:zenodo.org:288413</identifier>
      <datestamp>2017-02-09T20:54:22Z</datestamp>
      <setSpec>user-biosyslit</setSpec>
    </header>
    <header>
      <identifier>oai:zenodo.org:256470</identifier>
      <datestamp>2017-01-22T14:58:22Z</datestamp>
      <setSpec>user-biosyslit</setSpec>
    </header>
    <header>
      <identifier>oai:zenodo.org:289214</identifier>
      <datestamp>2017-02-09T22:58:22Z</datestamp>
      <setSpec>user-biosyslit</setSpec>
    </header>
    <header>
      <identifier>oai:zenodo.org:239065</identifier>
      <datestamp>2017-01-11T15:58:04Z</datestamp>
      <setSpec>user-biosyslit</setSpec>
    </header>
    <header>
      <identifier>oai:zenodo.org:239064</identifier>
      <datestamp>2017-01-11T15:58:00Z</datestamp>
      <setSpec>user-biosyslit</setSpec>
    </header>
    <header>
      <identifier>oai:zenodo.org:289213</identifier>
      <datestamp>2017-02-09T22:58:19Z</datestamp>
      <setSpec>user-biosyslit</setSpec>
    </header>
    <header>
      <identifier>oai:zenodo.org:256473</identifier>
      <datestamp>2017-01-22T14:58:20Z</datestamp>
      <setSpec>user-biosyslit</setSpec>
    </header>
    <header>
      <identifier>oai:zenodo.org:289216</identifier>
      <datestamp>2017-02-09T22:58:27Z</datestamp>
      <setSpec>user-biosyslit</setSpec>
    </header>
    <header>
      <identifier>oai:zenodo.org:291814</identifier>
      <datestamp>2017-02-15T07:42:33Z</datestamp>
      <setSpec>user-biosyslit</setSpec>
    </header>
    <header>
      <identifier>oai:zenodo.org:259072</identifier>
      <datestamp>2017-01-24T07:38:26Z</datestamp>
      <setSpec>user-biosyslit</setSpec>
    </header>
    <header>
      <identifier>oai:zenodo.org:259071</identifier>
      <datestamp>2017-01-24T07:38:22Z</datestamp>
      <setSpec>user-biosyslit</setSpec>
    </header>
    <header>
      <identifier>oai:zenodo.org:259069</identifier>
      <datestamp>2017-01-24T07:38:14Z</datestamp>
      <setSpec>user-biosyslit</setSpec>
    </header>
    <header>
      <identifier>oai:zenodo.org:259074</identifier>
      <datestamp>2017-01-24T07:38:33Z</datestamp>
      <setSpec>user-biosyslit</setSpec>
    </header>
    <header>
      <identifier>oai:zenodo.org:259068</identifier>
      <datestamp>2017-01-24T07:38:12Z</datestamp>
      <setSpec>user-biosyslit</setSpec>
    </header>
    <header>
      <identifier>oai:zenodo.org:276475</identifier>
      <datestamp>2017-02-08T18:54:34Z</datestamp>
      <setSpec>user-biosyslit</setSpec>
    </header>
    <header>
      <identifier>oai:zenodo.org:280211</identifier>
      <datestamp>2017-02-09T02:58:39Z</datestamp>
      <setSpec>user-biosyslit</setSpec>
    </header>
    <header>
      <identifier>oai:zenodo.org:280212</identifier>
      <datestamp>2017-02-09T02:58:45Z</datestamp>
      <setSpec>user-biosyslit</setSpec>
    </header>
    <header>
      <identifier>oai:zenodo.org:280215</identifier>
      <datestamp>2017-02-09T02:58:58Z</datestamp>
      <setSpec>user-biosyslit</setSpec>
    </header>
    <header>
      <identifier>oai:zenodo.org:280213</identifier>
      <datestamp>2017-02-09T02:58:48Z</datestamp>
      <setSpec>user-biosyslit</setSpec>
    </header>
    <header>
      <identifier>oai:zenodo.org:281750</identifier>
      <datestamp>2017-02-09T05:51:04Z</datestamp>
      <setSpec>user-biosyslit</setSpec>
    </header>
    <header>
      <identifier>oai:zenodo.org:281747</identifier>
      <datestamp>2017-02-09T05:50:56Z</datestamp>
      <setSpec>user-biosyslit</setSpec>
    </header>
    <header>
      <identifier>oai:zenodo.org:281748</identifier>
      <datestamp>2017-02-09T05:50:59Z</datestamp>
      <setSpec>user-biosyslit</setSpec>
    </header>
    <header>
      <identifier>oai:zenodo.org:281744</identifier>
      <datestamp>2017-02-09T05:50:50Z</datestamp>
      <setSpec>user-biosyslit</setSpec>
    </header>
    <header>
      <identifier>oai:zenodo.org:283651</identifier>
      <datestamp>2017-02-09T09:21:38Z</datestamp>
      <setSpec>user-biosyslit</setSpec>
    </header>
    <header>
      <identifier>oai:zenodo.org:283652</identifier>
      <datestamp>2017-02-09T09:21:40Z</datestamp>
      <setSpec>user-biosyslit</setSpec>
    </header>
    <header>
      <identifier>oai:zenodo.org:228359</identifier>
      <datestamp>2017-01-02T22:53:08Z</datestamp>
      <setSpec>user-biosyslit</setSpec>
    </header>
    <header>
      <identifier>oai:zenodo.org:228360</identifier>
      <datestamp>2017-01-02T22:53:14Z</datestamp>
      <setSpec>user-biosyslit</setSpec>
    </header>
    <header>
      <identifier>oai:zenodo.org:238863</identifier>
      <datestamp>2017-01-11T12:02:49Z</datestamp>
      <setSpec>user-biosyslit</setSpec>
    </header>
    <header>
      <identifier>oai:zenodo.org:238864</identifier>
      <datestamp>2017-01-11T12:02:54Z</datestamp>
      <setSpec>user-biosyslit</setSpec>
    </header>
    <header>
      <identifier>oai:zenodo.org:233165</identifier>
      <datestamp>2017-01-08T01:32:08Z</datestamp>
      <setSpec>user-biosyslit</setSpec>
    </header>
    <header>
      <identifier>oai:zenodo.org:231666</identifier>
      <datestamp>2017-01-06T05:33:55Z</datestamp>
      <setSpec>user-biosyslit</setSpec>
    </header>
    <header>
      <identifier>oai:zenodo.org:231667</identifier>
      <datestamp>2017-01-06T05:33:50Z</datestamp>
      <setSpec>user-biosyslit</setSpec>
    </header>
    <header>
      <identifier>oai:zenodo.org:270868</identifier>
      <datestamp>2017-02-08T00:07:11Z</datestamp>
      <setSpec>user-biosyslit</setSpec>
    </header>
    <header>
      <identifier>oai:zenodo.org:270870</identifier>
      <datestamp>2017-02-08T00:07:09Z</datestamp>
      <setSpec>user-biosyslit</setSpec>
    </header>
    <header>
      <identifier>oai:zenodo.org:270869</identifier>
      <datestamp>2017-02-08T00:07:07Z</datestamp>
      <setSpec>user-biosyslit</setSpec>
    </header>
    <header>
      <identifier>oai:zenodo.org:263491</identifier>
      <datestamp>2017-01-29T23:32:24Z</datestamp>
      <setSpec>user-biosyslit</setSpec>
    </header>
    <header>
      <identifier>oai:zenodo.org:255174</identifier>
      <datestamp>2017-01-21T08:43:21Z</datestamp>
      <setSpec>user-biosyslit</setSpec>
    </header>
    <header>
      <identifier>oai:zenodo.org:255172</identifier>
      <datestamp>2017-01-21T08:43:16Z</datestamp>
      <setSpec>user-biosyslit</setSpec>
    </header>
    <header>
      <identifier>oai:zenodo.org:255175</identifier>
      <datestamp>2017-01-21T08:43:24Z</datestamp>
      <setSpec>user-biosyslit</setSpec>
    </header>
    <header>
      <identifier>oai:zenodo.org:276434</identifier>
      <datestamp>2017-02-08T18:49:34Z</datestamp>
      <setSpec>user-biosyslit</setSpec>
    </header>
    <header>
      <identifier>oai:zenodo.org:276976</identifier>
      <datestamp>2017-02-08T20:08:09Z</datestamp>
      <setSpec>user-biosyslit</setSpec>
    </header>
    <header>
      <identifier>oai:zenodo.org:228970</identifier>
      <datestamp>2017-01-03T07:50:57Z</datestamp>
      <setSpec>user-biosyslit</setSpec>
    </header>
    <header>
      <identifier>oai:zenodo.org:275006</identifier>
      <datestamp>2017-02-08T15:03:09Z</datestamp>
      <setSpec>user-biosyslit</setSpec>
    </header>
    <header>
      <identifier>oai:zenodo.org:276981</identifier>
      <datestamp>2017-02-08T20:07:51Z</datestamp>
      <setSpec>user-biosyslit</setSpec>
    </header>
    <header>
      <identifier>oai:zenodo.org:276980</identifier>
      <datestamp>2017-02-08T20:07:49Z</datestamp>
      <setSpec>user-biosyslit</setSpec>
    </header>
    <header>
      <identifier>oai:zenodo.org:278680</identifier>
      <datestamp>2017-02-08T23:40:11Z</datestamp>
      <setSpec>user-biosyslit</setSpec>
    </header>
    <header>
      <identifier>oai:zenodo.org:263678</identifier>
      <datestamp>2017-01-30T03:08:51Z</datestamp>
      <setSpec>user-biosyslit</setSpec>
    </header>
    <header>
      <identifier>oai:zenodo.org:278687</identifier>
      <datestamp>2017-02-08T23:39:55Z</datestamp>
      <setSpec>user-biosyslit</setSpec>
    </header>
    <header>
      <identifier>oai:zenodo.org:239700</identifier>
      <datestamp>2017-01-11T23:51:25Z</datestamp>
      <setSpec>user-biosyslit</setSpec>
    </header>
    <header>
      <identifier>oai:zenodo.org:278685</identifier>
      <datestamp>2017-02-08T23:39:50Z</datestamp>
      <setSpec>user-biosyslit</setSpec>
    </header>
    <header>
      <identifier>oai:zenodo.org:278688</identifier>
      <datestamp>2017-02-08T23:40:01Z</datestamp>
      <setSpec>user-biosyslit</setSpec>
    </header>
    <header>
      <identifier>oai:zenodo.org:278690</identifier>
      <datestamp>2017-02-08T23:40:07Z</datestamp>
      <setSpec>user-biosyslit</setSpec>
    </header>
    <header>
      <identifier>oai:zenodo.org:278691</identifier>
      <datestamp>2017-02-08T23:40:10Z</datestamp>
      <setSpec>user-biosyslit</setSpec>
    </header>
    <header>
      <identifier>oai:zenodo.org:285270</identifier>
      <datestamp>2017-02-09T13:10:10Z</datestamp>
      <setSpec>user-biosyslit</setSpec>
    </header>
    <header>
      <identifier>oai:zenodo.org:285271</identifier>
      <datestamp>2017-02-09T13:09:55Z</datestamp>
      <setSpec>user-biosyslit</setSpec>
    </header>
    <header>
      <identifier>oai:zenodo.org:285274</identifier>
      <datestamp>2017-02-09T13:10:02Z</datestamp>
      <setSpec>user-biosyslit</setSpec>
    </header>
    <header>
      <identifier>oai:zenodo.org:285273</identifier>
      <datestamp>2017-02-09T13:10:00Z</datestamp>
      <setSpec>user-biosyslit</setSpec>
    </header>
    <header>
      <identifier>oai:zenodo.org:239732</identifier>
      <datestamp>2017-01-12T00:06:18Z</datestamp>
      <setSpec>user-biosyslit</setSpec>
    </header>
    <header>
      <identifier>oai:zenodo.org:283684</identifier>
      <datestamp>2017-02-09T09:27:02Z</datestamp>
      <setSpec>user-biosyslit</setSpec>
    </header>
    <header>
      <identifier>oai:zenodo.org:283678</identifier>
      <datestamp>2017-02-09T09:26:44Z</datestamp>
      <setSpec>user-biosyslit</setSpec>
    </header>
    <header>
      <identifier>oai:zenodo.org:283680</identifier>
      <datestamp>2017-02-09T09:26:49Z</datestamp>
      <setSpec>user-biosyslit</setSpec>
    </header>
    <header>
      <identifier>oai:zenodo.org:283679</identifier>
      <datestamp>2017-02-09T09:26:47Z</datestamp>
      <setSpec>user-biosyslit</setSpec>
    </header>
    <header>
      <identifier>oai:zenodo.org:239737</identifier>
      <datestamp>2017-01-12T00:06:14Z</datestamp>
      <setSpec>user-biosyslit</setSpec>
    </header>
    <header>
      <identifier>oai:zenodo.org:241072</identifier>
      <datestamp>2017-01-12T19:33:42Z</datestamp>
      <setSpec>user-biosyslit</setSpec>
    </header>
    <header>
      <identifier>oai:zenodo.org:285803</identifier>
      <datestamp>2017-02-09T14:34:47Z</datestamp>
      <setSpec>user-biosyslit</setSpec>
    </header>
    <header>
      <identifier>oai:zenodo.org:241074</identifier>
      <datestamp>2017-01-12T19:33:25Z</datestamp>
      <setSpec>user-biosyslit</setSpec>
    </header>
    <resumptionToken expirationDate="2017-08-31T15:47:58Z" cursor="70800" completeListSize="77796">.eJyNyj0LgkAYAOD_8s4S90GdCS2hiYOKXoq2hKmIeZp4hXrhf8-luebneYMsywIMtNkjROgWE7LDTKeYaSDz4SHEtV4Z8iQWeSeizI5fYRujlFTMM-Xkmin1VIP8Fit-CkiC9Smq0Ryco2eqwimmzsiRxVwVzN7dWV9BfVtcbnbPo-4oOCkG3wpmjo_8QvPvw38-9fOZ8gAa9FlVgsEw0qAZs6GSYLyX5QOP_1Es.DInAtg.X9IIOd5QzHouMqoEKyXSnp7Sg6A</resumptionToken>
  </ListIdentifiers>
</OAI-PMH>
