<?xml version='1.0' encoding='UTF-8'?>
<?xml-stylesheet type="text/xsl" href="/static/xsl/oai2.v1.0.xsl"?>
<OAI-PMH xmlns="http://www.openarchives.org/OAI/2.0/" xmlns:xsi="http://www.w3.org/2001/XMLSchema-instance" xsi:schemaLocation="http://www.openarchives.org/OAI/2.0/ http://www.openarchives.org/OAI/2.0/OAI-PMH.xsd">
  <responseDate>2017-08-31T15:44:48Z</responseDate>
  <request verb="ListIdentifiers" resumptionToken=".eJyNysEKgjAYAOB3-c8S_5wyEbqEJh5UbCnaJWyKmLPCFenCd69L5zp_3wtU09Tg4spCxhxEBxm1TbQoNUCJ8Srlsfs4iCKX4iKzKsgfuyHH0mxZ7Kkp8koa6x6TgWi-Tc2COFPW4Zzus3upd1NOwydHn0U6neNz-Hk1TQJ5OAU3nl02kpv1mPjpzMmGH6j4PvLn0z-fp9ZgwK1qG3BtmxjQP6uxVeC-luUNxQlRYw.DInAcA.BfCzuElBtvN5XVK_Zux_IIBZPEA">https://zenodo.org/oai2d</request>
  <ListIdentifiers>
    <header>
      <identifier>oai:zenodo.org:243602</identifier>
      <datestamp>2017-01-14T08:02:41Z</datestamp>
      <setSpec>user-biosyslit</setSpec>
    </header>
    <header>
      <identifier>oai:zenodo.org:244529</identifier>
      <datestamp>2017-01-14T23:09:28Z</datestamp>
      <setSpec>user-biosyslit</setSpec>
    </header>
    <header>
      <identifier>oai:zenodo.org:243857</identifier>
      <datestamp>2017-01-14T11:49:25Z</datestamp>
      <setSpec>user-biosyslit</setSpec>
    </header>
    <header>
      <identifier>oai:zenodo.org:272500</identifier>
      <datestamp>2017-02-08T04:56:15Z</datestamp>
      <setSpec>user-biosyslit</setSpec>
    </header>
    <header>
      <identifier>oai:zenodo.org:244322</identifier>
      <datestamp>2017-01-14T19:50:45Z</datestamp>
      <setSpec>user-biosyslit</setSpec>
    </header>
    <header>
      <identifier>oai:zenodo.org:244152</identifier>
      <datestamp>2017-01-14T16:49:38Z</datestamp>
      <setSpec>user-biosyslit</setSpec>
    </header>
    <header>
      <identifier>oai:zenodo.org:244096</identifier>
      <datestamp>2017-01-14T16:14:03Z</datestamp>
      <setSpec>user-biosyslit</setSpec>
    </header>
    <header>
      <identifier>oai:zenodo.org:244583</identifier>
      <datestamp>2017-01-14T23:42:46Z</datestamp>
      <setSpec>user-biosyslit</setSpec>
    </header>
    <header>
      <identifier>oai:zenodo.org:272196</identifier>
      <datestamp>2017-02-08T03:58:39Z</datestamp>
      <setSpec>user-biosyslit</setSpec>
    </header>
    <header>
      <identifier>oai:zenodo.org:244823</identifier>
      <datestamp>2017-01-15T03:18:05Z</datestamp>
      <setSpec>user-biosyslit</setSpec>
    </header>
    <header>
      <identifier>oai:zenodo.org:246042</identifier>
      <datestamp>2017-01-15T21:23:18Z</datestamp>
      <setSpec>user-biosyslit</setSpec>
    </header>
    <header>
      <identifier>oai:zenodo.org:272308</identifier>
      <datestamp>2017-02-08T04:12:52Z</datestamp>
      <setSpec>user-biosyslit</setSpec>
    </header>
    <header>
      <identifier>oai:zenodo.org:246957</identifier>
      <datestamp>2017-01-16T10:07:15Z</datestamp>
      <setSpec>user-biosyslit</setSpec>
    </header>
    <header>
      <identifier>oai:zenodo.org:246306</identifier>
      <datestamp>2017-01-16T00:14:39Z</datestamp>
      <setSpec>user-biosyslit</setSpec>
    </header>
    <header>
      <identifier>oai:zenodo.org:245884</identifier>
      <datestamp>2017-01-15T19:13:07Z</datestamp>
      <setSpec>user-biosyslit</setSpec>
    </header>
    <header>
      <identifier>oai:zenodo.org:246315</identifier>
      <datestamp>2017-01-16T00:43:42Z</datestamp>
      <setSpec>user-biosyslit</setSpec>
    </header>
    <header>
      <identifier>oai:zenodo.org:246608</identifier>
      <datestamp>2017-01-16T04:42:41Z</datestamp>
      <setSpec>user-biosyslit</setSpec>
    </header>
    <header>
      <identifier>oai:zenodo.org:247561</identifier>
      <datestamp>2017-01-16T17:12:23Z</datestamp>
      <setSpec>user-biosyslit</setSpec>
    </header>
    <header>
      <identifier>oai:zenodo.org:246793</identifier>
      <datestamp>2017-01-16T08:22:31Z</datestamp>
      <setSpec>user-biosyslit</setSpec>
    </header>
    <header>
      <identifier>oai:zenodo.org:247416</identifier>
      <datestamp>2017-01-16T15:27:54Z</datestamp>
      <setSpec>user-biosyslit</setSpec>
    </header>
    <header>
      <identifier>oai:zenodo.org:247079</identifier>
      <datestamp>2017-01-16T11:09:39Z</datestamp>
      <setSpec>user-biosyslit</setSpec>
    </header>
    <header>
      <identifier>oai:zenodo.org:247313</identifier>
      <datestamp>2017-01-16T14:07:42Z</datestamp>
      <setSpec>user-biosyslit</setSpec>
    </header>
    <header>
      <identifier>oai:zenodo.org:248005</identifier>
      <datestamp>2017-01-16T22:34:43Z</datestamp>
      <setSpec>user-biosyslit</setSpec>
    </header>
    <header>
      <identifier>oai:zenodo.org:249060</identifier>
      <datestamp>2017-01-17T15:45:30Z</datestamp>
      <setSpec>user-biosyslit</setSpec>
    </header>
    <header>
      <identifier>oai:zenodo.org:247893</identifier>
      <datestamp>2017-01-16T21:16:00Z</datestamp>
      <setSpec>user-biosyslit</setSpec>
    </header>
    <header>
      <identifier>oai:zenodo.org:248132</identifier>
      <datestamp>2017-01-17T00:25:56Z</datestamp>
      <setSpec>user-biosyslit</setSpec>
    </header>
    <header>
      <identifier>oai:zenodo.org:249993</identifier>
      <datestamp>2017-01-18T03:29:58Z</datestamp>
      <setSpec>user-biosyslit</setSpec>
    </header>
    <header>
      <identifier>oai:zenodo.org:250961</identifier>
      <datestamp>2017-01-18T16:52:45Z</datestamp>
      <setSpec>user-biosyslit</setSpec>
    </header>
    <header>
      <identifier>oai:zenodo.org:250346</identifier>
      <datestamp>2017-01-18T08:42:15Z</datestamp>
      <setSpec>user-biosyslit</setSpec>
    </header>
    <header>
      <identifier>oai:zenodo.org:251549</identifier>
      <datestamp>2017-01-19T01:36:37Z</datestamp>
      <setSpec>user-biosyslit</setSpec>
    </header>
    <header>
      <identifier>oai:zenodo.org:251545</identifier>
      <datestamp>2017-01-19T01:36:24Z</datestamp>
      <setSpec>user-biosyslit</setSpec>
    </header>
    <header>
      <identifier>oai:zenodo.org:272978</identifier>
      <datestamp>2017-02-08T06:56:31Z</datestamp>
      <setSpec>user-biosyslit</setSpec>
    </header>
    <header>
      <identifier>oai:zenodo.org:273188</identifier>
      <datestamp>2017-02-10T16:20:28Z</datestamp>
      <setSpec>openaire</setSpec>
      <setSpec>user-biosyslit</setSpec>
    </header>
    <header>
      <identifier>oai:zenodo.org:251689</identifier>
      <datestamp>2017-01-19T03:29:13Z</datestamp>
      <setSpec>user-biosyslit</setSpec>
    </header>
    <header>
      <identifier>oai:zenodo.org:276196</identifier>
      <datestamp>2017-02-08T18:22:56Z</datestamp>
      <setSpec>user-biosyslit</setSpec>
    </header>
    <header>
      <identifier>oai:zenodo.org:275870</identifier>
      <datestamp>2017-02-08T17:16:58Z</datestamp>
      <setSpec>user-biosyslit</setSpec>
    </header>
    <header>
      <identifier>oai:zenodo.org:252041</identifier>
      <datestamp>2017-01-19T07:37:02Z</datestamp>
      <setSpec>user-biosyslit</setSpec>
    </header>
    <header>
      <identifier>oai:zenodo.org:251943</identifier>
      <datestamp>2017-01-19T06:27:48Z</datestamp>
      <setSpec>user-biosyslit</setSpec>
    </header>
    <header>
      <identifier>oai:zenodo.org:252434</identifier>
      <datestamp>2017-01-19T14:36:24Z</datestamp>
      <setSpec>user-biosyslit</setSpec>
    </header>
    <header>
      <identifier>oai:zenodo.org:252019</identifier>
      <datestamp>2017-01-19T07:22:14Z</datestamp>
      <setSpec>user-biosyslit</setSpec>
    </header>
    <header>
      <identifier>oai:zenodo.org:253700</identifier>
      <datestamp>2017-01-20T10:05:01Z</datestamp>
      <setSpec>user-biosyslit</setSpec>
    </header>
    <header>
      <identifier>oai:zenodo.org:252324</identifier>
      <datestamp>2017-01-19T11:56:54Z</datestamp>
      <setSpec>user-biosyslit</setSpec>
    </header>
    <header>
      <identifier>oai:zenodo.org:253084</identifier>
      <datestamp>2017-01-20T02:10:10Z</datestamp>
      <setSpec>user-biosyslit</setSpec>
    </header>
    <header>
      <identifier>oai:zenodo.org:279707</identifier>
      <datestamp>2017-02-09T01:54:02Z</datestamp>
      <setSpec>user-biosyslit</setSpec>
    </header>
    <header>
      <identifier>oai:zenodo.org:253261</identifier>
      <datestamp>2017-01-20T04:55:06Z</datestamp>
      <setSpec>user-biosyslit</setSpec>
    </header>
    <header>
      <identifier>oai:zenodo.org:252985</identifier>
      <datestamp>2017-01-20T01:03:22Z</datestamp>
      <setSpec>user-biosyslit</setSpec>
    </header>
    <header>
      <identifier>oai:zenodo.org:253740</identifier>
      <datestamp>2017-01-20T10:41:25Z</datestamp>
      <setSpec>user-biosyslit</setSpec>
    </header>
    <header>
      <identifier>oai:zenodo.org:254820</identifier>
      <datestamp>2017-01-21T03:23:01Z</datestamp>
      <setSpec>user-biosyslit</setSpec>
    </header>
    <header>
      <identifier>oai:zenodo.org:254441</identifier>
      <datestamp>2017-01-20T18:49:36Z</datestamp>
      <setSpec>user-biosyslit</setSpec>
    </header>
    <header>
      <identifier>oai:zenodo.org:254992</identifier>
      <datestamp>2017-01-21T06:22:43Z</datestamp>
      <setSpec>user-biosyslit</setSpec>
    </header>
    <header>
      <identifier>oai:zenodo.org:254508</identifier>
      <datestamp>2017-01-20T19:47:22Z</datestamp>
      <setSpec>user-biosyslit</setSpec>
    </header>
    <header>
      <identifier>oai:zenodo.org:254214</identifier>
      <datestamp>2017-01-20T16:46:52Z</datestamp>
      <setSpec>user-biosyslit</setSpec>
    </header>
    <header>
      <identifier>oai:zenodo.org:255491</identifier>
      <datestamp>2017-01-21T14:13:26Z</datestamp>
      <setSpec>user-biosyslit</setSpec>
    </header>
    <header>
      <identifier>oai:zenodo.org:254286</identifier>
      <datestamp>2017-01-20T17:33:34Z</datestamp>
      <setSpec>user-biosyslit</setSpec>
    </header>
    <header>
      <identifier>oai:zenodo.org:255949</identifier>
      <datestamp>2017-01-22T00:34:55Z</datestamp>
      <setSpec>user-biosyslit</setSpec>
    </header>
    <header>
      <identifier>oai:zenodo.org:254444</identifier>
      <datestamp>2017-01-20T18:49:44Z</datestamp>
      <setSpec>user-biosyslit</setSpec>
    </header>
    <header>
      <identifier>oai:zenodo.org:255094</identifier>
      <datestamp>2017-01-21T07:49:40Z</datestamp>
      <setSpec>user-biosyslit</setSpec>
    </header>
    <header>
      <identifier>oai:zenodo.org:255822</identifier>
      <datestamp>2017-01-21T22:40:19Z</datestamp>
      <setSpec>user-biosyslit</setSpec>
    </header>
    <header>
      <identifier>oai:zenodo.org:255240</identifier>
      <datestamp>2017-01-21T10:01:06Z</datestamp>
      <setSpec>user-biosyslit</setSpec>
    </header>
    <header>
      <identifier>oai:zenodo.org:255942</identifier>
      <datestamp>2017-01-22T00:29:50Z</datestamp>
      <setSpec>user-biosyslit</setSpec>
    </header>
    <header>
      <identifier>oai:zenodo.org:256378</identifier>
      <datestamp>2017-01-22T13:25:32Z</datestamp>
      <setSpec>user-biosyslit</setSpec>
    </header>
    <header>
      <identifier>oai:zenodo.org:256612</identifier>
      <datestamp>2017-01-22T18:36:15Z</datestamp>
      <setSpec>user-biosyslit</setSpec>
    </header>
    <header>
      <identifier>oai:zenodo.org:276485</identifier>
      <datestamp>2017-02-08T18:57:31Z</datestamp>
      <setSpec>user-biosyslit</setSpec>
    </header>
    <header>
      <identifier>oai:zenodo.org:256668</identifier>
      <datestamp>2017-01-22T19:09:38Z</datestamp>
      <setSpec>user-biosyslit</setSpec>
    </header>
    <header>
      <identifier>oai:zenodo.org:256410</identifier>
      <datestamp>2017-01-22T13:54:32Z</datestamp>
      <setSpec>user-biosyslit</setSpec>
    </header>
    <header>
      <identifier>oai:zenodo.org:256946</identifier>
      <datestamp>2017-01-22T23:41:44Z</datestamp>
      <setSpec>user-biosyslit</setSpec>
    </header>
    <header>
      <identifier>oai:zenodo.org:256822</identifier>
      <datestamp>2017-01-22T21:18:10Z</datestamp>
      <setSpec>user-biosyslit</setSpec>
    </header>
    <header>
      <identifier>oai:zenodo.org:257068</identifier>
      <datestamp>2017-01-23T00:41:39Z</datestamp>
      <setSpec>user-biosyslit</setSpec>
    </header>
    <header>
      <identifier>oai:zenodo.org:257044</identifier>
      <datestamp>2017-01-23T00:24:22Z</datestamp>
      <setSpec>user-biosyslit</setSpec>
    </header>
    <header>
      <identifier>oai:zenodo.org:257287</identifier>
      <datestamp>2017-01-23T04:54:29Z</datestamp>
      <setSpec>user-biosyslit</setSpec>
    </header>
    <header>
      <identifier>oai:zenodo.org:257299</identifier>
      <datestamp>2017-01-23T04:55:05Z</datestamp>
      <setSpec>user-biosyslit</setSpec>
    </header>
    <header>
      <identifier>oai:zenodo.org:258052</identifier>
      <datestamp>2017-01-24T15:20:04Z</datestamp>
      <setSpec>openaire</setSpec>
      <setSpec>user-biosyslit</setSpec>
    </header>
    <header>
      <identifier>oai:zenodo.org:257811</identifier>
      <datestamp>2017-01-23T13:30:28Z</datestamp>
      <setSpec>user-biosyslit</setSpec>
    </header>
    <header>
      <identifier>oai:zenodo.org:257813</identifier>
      <datestamp>2017-01-23T13:30:32Z</datestamp>
      <setSpec>user-biosyslit</setSpec>
    </header>
    <header>
      <identifier>oai:zenodo.org:257958</identifier>
      <datestamp>2017-01-23T14:43:43Z</datestamp>
      <setSpec>user-biosyslit</setSpec>
    </header>
    <header>
      <identifier>oai:zenodo.org:258927</identifier>
      <datestamp>2017-01-24T06:27:45Z</datestamp>
      <setSpec>user-biosyslit</setSpec>
    </header>
    <header>
      <identifier>oai:zenodo.org:258335</identifier>
      <datestamp>2017-01-23T21:00:22Z</datestamp>
      <setSpec>user-biosyslit</setSpec>
    </header>
    <header>
      <identifier>oai:zenodo.org:258304</identifier>
      <datestamp>2017-01-23T20:29:42Z</datestamp>
      <setSpec>user-biosyslit</setSpec>
    </header>
    <header>
      <identifier>oai:zenodo.org:258456</identifier>
      <datestamp>2017-01-23T23:13:39Z</datestamp>
      <setSpec>user-biosyslit</setSpec>
    </header>
    <header>
      <identifier>oai:zenodo.org:239621</identifier>
      <datestamp>2017-01-11T22:48:24Z</datestamp>
      <setSpec>user-biosyslit</setSpec>
    </header>
    <header>
      <identifier>oai:zenodo.org:278446</identifier>
      <datestamp>2017-02-08T23:11:35Z</datestamp>
      <setSpec>user-biosyslit</setSpec>
    </header>
    <header>
      <identifier>oai:zenodo.org:240090</identifier>
      <datestamp>2017-01-12T04:33:29Z</datestamp>
      <setSpec>user-biosyslit</setSpec>
    </header>
    <header>
      <identifier>oai:zenodo.org:278370</identifier>
      <datestamp>2017-02-08T23:03:02Z</datestamp>
      <setSpec>user-biosyslit</setSpec>
    </header>
    <header>
      <identifier>oai:zenodo.org:279081</identifier>
      <datestamp>2017-02-09T00:34:35Z</datestamp>
      <setSpec>user-biosyslit</setSpec>
    </header>
    <header>
      <identifier>oai:zenodo.org:279078</identifier>
      <datestamp>2017-02-09T00:34:27Z</datestamp>
      <setSpec>user-biosyslit</setSpec>
    </header>
    <header>
      <identifier>oai:zenodo.org:271319</identifier>
      <datestamp>2017-02-08T01:22:40Z</datestamp>
      <setSpec>user-biosyslit</setSpec>
    </header>
    <header>
      <identifier>oai:zenodo.org:241125</identifier>
      <datestamp>2017-01-12T20:16:15Z</datestamp>
      <setSpec>user-biosyslit</setSpec>
    </header>
    <header>
      <identifier>oai:zenodo.org:271537</identifier>
      <datestamp>2017-02-08T01:53:49Z</datestamp>
      <setSpec>user-biosyslit</setSpec>
    </header>
    <header>
      <identifier>oai:zenodo.org:271588</identifier>
      <datestamp>2017-02-08T02:00:51Z</datestamp>
      <setSpec>user-biosyslit</setSpec>
    </header>
    <header>
      <identifier>oai:zenodo.org:241362</identifier>
      <datestamp>2017-01-13T00:21:12Z</datestamp>
      <setSpec>user-biosyslit</setSpec>
    </header>
    <header>
      <identifier>oai:zenodo.org:271529</identifier>
      <datestamp>2017-02-08T01:53:25Z</datestamp>
      <setSpec>user-biosyslit</setSpec>
    </header>
    <header>
      <identifier>oai:zenodo.org:241612</identifier>
      <datestamp>2017-01-13T04:10:43Z</datestamp>
      <setSpec>user-biosyslit</setSpec>
    </header>
    <header>
      <identifier>oai:zenodo.org:271320</identifier>
      <datestamp>2017-02-08T01:20:52Z</datestamp>
      <setSpec>user-biosyslit</setSpec>
    </header>
    <header>
      <identifier>oai:zenodo.org:272265</identifier>
      <datestamp>2017-02-08T04:07:55Z</datestamp>
      <setSpec>user-biosyslit</setSpec>
    </header>
    <header>
      <identifier>oai:zenodo.org:278832</identifier>
      <datestamp>2017-02-08T23:58:06Z</datestamp>
      <setSpec>user-biosyslit</setSpec>
    </header>
    <header>
      <identifier>oai:zenodo.org:272711</identifier>
      <datestamp>2017-02-08T06:14:59Z</datestamp>
      <setSpec>user-biosyslit</setSpec>
    </header>
    <header>
      <identifier>oai:zenodo.org:272077</identifier>
      <datestamp>2017-02-08T03:29:29Z</datestamp>
      <setSpec>user-biosyslit</setSpec>
    </header>
    <header>
      <identifier>oai:zenodo.org:279464</identifier>
      <datestamp>2017-02-09T01:24:44Z</datestamp>
      <setSpec>user-biosyslit</setSpec>
    </header>
    <header>
      <identifier>oai:zenodo.org:242197</identifier>
      <datestamp>2017-01-13T12:01:41Z</datestamp>
      <setSpec>user-biosyslit</setSpec>
    </header>
    <header>
      <identifier>oai:zenodo.org:279146</identifier>
      <datestamp>2017-02-09T00:42:05Z</datestamp>
      <setSpec>user-biosyslit</setSpec>
    </header>
    <resumptionToken expirationDate="2017-08-31T15:46:48Z" cursor="55000" completeListSize="77796">.eJyNyssKgkAUANB_uWuJeTD4gDaiiQsVmxR1E6Yi1mTiFOmI_56b1rU-ZwHZNDVYaKcThE1sEN00KDMNpoGsxocQ525jqLJUVL1ISi99He8pykmrh46cAienobqh6I4VP8Qkw8aUdGiOT8kzV8cppf6bI1cPVDyHV397NY08UVy8gSe9LTipx8iNZ45tXtDq-_CfT_18jtyDBkPZNmAxRjS4vcuxlWAt6_oBqOBRSw.DInAcA.1BjZVJBErvmdxUiEQhYjJTxzVtk</resumptionToken>
  </ListIdentifiers>
</OAI-PMH>
