<?xml version='1.0' encoding='UTF-8'?>
<?xml-stylesheet type="text/xsl" href="/static/xsl/oai2.v1.0.xsl"?>
<OAI-PMH xmlns="http://www.openarchives.org/OAI/2.0/" xmlns:xsi="http://www.w3.org/2001/XMLSchema-instance" xsi:schemaLocation="http://www.openarchives.org/OAI/2.0/ http://www.openarchives.org/OAI/2.0/OAI-PMH.xsd">
  <responseDate>2017-08-31T15:43:25Z</responseDate>
  <request verb="ListIdentifiers" resumptionToken=".eJyNyk0LgjAYAOD_8p4l5pbThC5iiYeUuRT1EqYi5frAFerE_56XznV-nglkXVdgoxXGFjIsShE1DLpZWxrIsnsIcbosDGWaiPIu4sJL3tEtQRluzMCVw8HNSKBaFN50xfcMp7o1xBc0smP8ylQ0JMTvOdqZB8XG4OovryKhJ_Kz9-Tx3REcV124YyPXHZ6T8vv0P5_6-Vy5BQ2eRVODTUykQdsXXSPBnub5A6UgUUU.DInAHQ.fJ6_lIh1Cstv_BylVlKKwrnNw_Q">https://zenodo.org/oai2d</request>
  <ListIdentifiers>
    <header>
      <identifier>oai:zenodo.org:816396</identifier>
      <datestamp>2017-06-27T12:51:31Z</datestamp>
      <setSpec>openaire</setSpec>
      <setSpec>user-biosyslit</setSpec>
    </header>
    <header>
      <identifier>oai:zenodo.org:816412</identifier>
      <datestamp>2017-06-27T12:46:55Z</datestamp>
      <setSpec>openaire</setSpec>
      <setSpec>user-biosyslit</setSpec>
    </header>
    <header>
      <identifier>oai:zenodo.org:816424</identifier>
      <datestamp>2017-06-27T12:46:28Z</datestamp>
      <setSpec>openaire</setSpec>
      <setSpec>user-biosyslit</setSpec>
    </header>
    <header>
      <identifier>oai:zenodo.org:816416</identifier>
      <datestamp>2017-06-27T12:46:38Z</datestamp>
      <setSpec>openaire</setSpec>
      <setSpec>user-biosyslit</setSpec>
    </header>
    <header>
      <identifier>oai:zenodo.org:816408</identifier>
      <datestamp>2017-06-27T12:46:57Z</datestamp>
      <setSpec>openaire</setSpec>
      <setSpec>user-biosyslit</setSpec>
    </header>
    <header>
      <identifier>oai:zenodo.org:816422</identifier>
      <datestamp>2017-06-27T12:46:29Z</datestamp>
      <setSpec>openaire</setSpec>
      <setSpec>user-biosyslit</setSpec>
    </header>
    <header>
      <identifier>oai:zenodo.org:816406</identifier>
      <datestamp>2017-06-27T12:46:58Z</datestamp>
      <setSpec>openaire</setSpec>
      <setSpec>user-biosyslit</setSpec>
    </header>
    <header>
      <identifier>oai:zenodo.org:816390</identifier>
      <datestamp>2017-06-27T12:51:41Z</datestamp>
      <setSpec>openaire</setSpec>
      <setSpec>user-biosyslit</setSpec>
    </header>
    <header>
      <identifier>oai:zenodo.org:816420</identifier>
      <datestamp>2017-06-27T12:46:34Z</datestamp>
      <setSpec>openaire</setSpec>
      <setSpec>user-biosyslit</setSpec>
    </header>
    <header>
      <identifier>oai:zenodo.org:823210</identifier>
      <datestamp>2017-07-05T14:27:12Z</datestamp>
      <setSpec>user-biosyslit</setSpec>
    </header>
    <header>
      <identifier>oai:zenodo.org:823214</identifier>
      <datestamp>2017-07-05T14:26:59Z</datestamp>
      <setSpec>user-biosyslit</setSpec>
    </header>
    <header>
      <identifier>oai:zenodo.org:823212</identifier>
      <datestamp>2017-07-05T14:26:55Z</datestamp>
      <setSpec>user-biosyslit</setSpec>
    </header>
    <header>
      <identifier>oai:zenodo.org:823216</identifier>
      <datestamp>2017-07-05T14:27:04Z</datestamp>
      <setSpec>user-biosyslit</setSpec>
    </header>
    <header>
      <identifier>oai:zenodo.org:823218</identifier>
      <datestamp>2017-07-05T14:27:09Z</datestamp>
      <setSpec>user-biosyslit</setSpec>
    </header>
    <header>
      <identifier>oai:zenodo.org:846086</identifier>
      <datestamp>2017-08-21T08:12:32Z</datestamp>
      <setSpec>user-biosyslit</setSpec>
    </header>
    <header>
      <identifier>oai:zenodo.org:846142</identifier>
      <datestamp>2017-08-21T08:11:23Z</datestamp>
      <setSpec>user-biosyslit</setSpec>
    </header>
    <header>
      <identifier>oai:zenodo.org:846108</identifier>
      <datestamp>2017-08-21T08:10:07Z</datestamp>
      <setSpec>user-biosyslit</setSpec>
    </header>
    <header>
      <identifier>oai:zenodo.org:846130</identifier>
      <datestamp>2017-08-21T08:10:59Z</datestamp>
      <setSpec>user-biosyslit</setSpec>
    </header>
    <header>
      <identifier>oai:zenodo.org:846106</identifier>
      <datestamp>2017-08-21T08:10:03Z</datestamp>
      <setSpec>user-biosyslit</setSpec>
    </header>
    <header>
      <identifier>oai:zenodo.org:846146</identifier>
      <datestamp>2017-08-21T08:11:29Z</datestamp>
      <setSpec>user-biosyslit</setSpec>
    </header>
    <header>
      <identifier>oai:zenodo.org:846132</identifier>
      <datestamp>2017-08-21T08:11:04Z</datestamp>
      <setSpec>user-biosyslit</setSpec>
    </header>
    <header>
      <identifier>oai:zenodo.org:846112</identifier>
      <datestamp>2017-08-21T08:10:15Z</datestamp>
      <setSpec>user-biosyslit</setSpec>
    </header>
    <header>
      <identifier>oai:zenodo.org:846122</identifier>
      <datestamp>2017-08-21T08:10:32Z</datestamp>
      <setSpec>user-biosyslit</setSpec>
    </header>
    <header>
      <identifier>oai:zenodo.org:846116</identifier>
      <datestamp>2017-08-21T08:10:23Z</datestamp>
      <setSpec>user-biosyslit</setSpec>
    </header>
    <header>
      <identifier>oai:zenodo.org:846084</identifier>
      <datestamp>2017-08-21T08:07:57Z</datestamp>
      <setSpec>user-biosyslit</setSpec>
    </header>
    <header>
      <identifier>oai:zenodo.org:846154</identifier>
      <datestamp>2017-08-21T08:11:44Z</datestamp>
      <setSpec>user-biosyslit</setSpec>
    </header>
    <header>
      <identifier>oai:zenodo.org:846160</identifier>
      <datestamp>2017-08-21T08:11:57Z</datestamp>
      <setSpec>user-biosyslit</setSpec>
    </header>
    <header>
      <identifier>oai:zenodo.org:846170</identifier>
      <datestamp>2017-08-21T08:12:15Z</datestamp>
      <setSpec>user-biosyslit</setSpec>
    </header>
    <header>
      <identifier>oai:zenodo.org:846162</identifier>
      <datestamp>2017-08-21T08:12:01Z</datestamp>
      <setSpec>user-biosyslit</setSpec>
    </header>
    <header>
      <identifier>oai:zenodo.org:846166</identifier>
      <datestamp>2017-08-21T08:12:09Z</datestamp>
      <setSpec>user-biosyslit</setSpec>
    </header>
    <header>
      <identifier>oai:zenodo.org:846150</identifier>
      <datestamp>2017-08-21T08:11:37Z</datestamp>
      <setSpec>user-biosyslit</setSpec>
    </header>
    <header>
      <identifier>oai:zenodo.org:846172</identifier>
      <datestamp>2017-08-21T08:12:19Z</datestamp>
      <setSpec>user-biosyslit</setSpec>
    </header>
    <header>
      <identifier>oai:zenodo.org:846184</identifier>
      <datestamp>2017-08-21T08:16:20Z</datestamp>
      <setSpec>user-biosyslit</setSpec>
    </header>
    <header>
      <identifier>oai:zenodo.org:846194</identifier>
      <datestamp>2017-08-21T08:16:41Z</datestamp>
      <setSpec>user-biosyslit</setSpec>
    </header>
    <header>
      <identifier>oai:zenodo.org:846218</identifier>
      <datestamp>2017-08-21T08:17:21Z</datestamp>
      <setSpec>user-biosyslit</setSpec>
    </header>
    <header>
      <identifier>oai:zenodo.org:846196</identifier>
      <datestamp>2017-08-21T08:16:45Z</datestamp>
      <setSpec>user-biosyslit</setSpec>
    </header>
    <header>
      <identifier>oai:zenodo.org:846216</identifier>
      <datestamp>2017-08-21T08:17:18Z</datestamp>
      <setSpec>user-biosyslit</setSpec>
    </header>
    <header>
      <identifier>oai:zenodo.org:846200</identifier>
      <datestamp>2017-08-21T08:16:51Z</datestamp>
      <setSpec>user-biosyslit</setSpec>
    </header>
    <header>
      <identifier>oai:zenodo.org:846212</identifier>
      <datestamp>2017-08-21T08:17:13Z</datestamp>
      <setSpec>user-biosyslit</setSpec>
    </header>
    <header>
      <identifier>oai:zenodo.org:846210</identifier>
      <datestamp>2017-08-21T08:17:09Z</datestamp>
      <setSpec>user-biosyslit</setSpec>
    </header>
    <header>
      <identifier>oai:zenodo.org:846214</identifier>
      <datestamp>2017-08-21T08:17:16Z</datestamp>
      <setSpec>user-biosyslit</setSpec>
    </header>
    <header>
      <identifier>oai:zenodo.org:846186</identifier>
      <datestamp>2017-08-21T08:16:24Z</datestamp>
      <setSpec>user-biosyslit</setSpec>
    </header>
    <header>
      <identifier>oai:zenodo.org:846092</identifier>
      <datestamp>2017-08-21T08:09:35Z</datestamp>
      <setSpec>user-biosyslit</setSpec>
    </header>
    <header>
      <identifier>oai:zenodo.org:846088</identifier>
      <datestamp>2017-08-21T08:09:28Z</datestamp>
      <setSpec>user-biosyslit</setSpec>
    </header>
    <header>
      <identifier>oai:zenodo.org:846102</identifier>
      <datestamp>2017-08-21T08:09:56Z</datestamp>
      <setSpec>user-biosyslit</setSpec>
    </header>
    <header>
      <identifier>oai:zenodo.org:846104</identifier>
      <datestamp>2017-08-21T08:09:59Z</datestamp>
      <setSpec>user-biosyslit</setSpec>
    </header>
    <header>
      <identifier>oai:zenodo.org:846098</identifier>
      <datestamp>2017-08-21T08:09:47Z</datestamp>
      <setSpec>user-biosyslit</setSpec>
    </header>
    <header>
      <identifier>oai:zenodo.org:846220</identifier>
      <datestamp>2017-08-21T08:17:24Z</datestamp>
      <setSpec>user-biosyslit</setSpec>
    </header>
    <header>
      <identifier>oai:zenodo.org:842879</identifier>
      <datestamp>2017-08-23T06:37:00Z</datestamp>
      <setSpec>openaire</setSpec>
      <setSpec>user-biosyslit</setSpec>
    </header>
    <header>
      <identifier>oai:zenodo.org:842219</identifier>
      <datestamp>2017-08-23T06:37:02Z</datestamp>
      <setSpec>openaire</setSpec>
      <setSpec>user-biosyslit</setSpec>
    </header>
    <header>
      <identifier>oai:zenodo.org:839046</identifier>
      <datestamp>2017-08-23T06:37:03Z</datestamp>
      <setSpec>openaire</setSpec>
      <setSpec>user-biosyslit</setSpec>
    </header>
    <header>
      <identifier>oai:zenodo.org:846430</identifier>
      <datestamp>2017-08-23T06:36:49Z</datestamp>
      <setSpec>user-biosyslit</setSpec>
    </header>
    <header>
      <identifier>oai:zenodo.org:847239</identifier>
      <datestamp>2017-08-23T11:56:48Z</datestamp>
      <setSpec>user-biosyslit</setSpec>
    </header>
    <header>
      <identifier>oai:zenodo.org:847243</identifier>
      <datestamp>2017-08-23T11:56:53Z</datestamp>
      <setSpec>user-biosyslit</setSpec>
    </header>
    <header>
      <identifier>oai:zenodo.org:847241</identifier>
      <datestamp>2017-08-23T11:56:50Z</datestamp>
      <setSpec>user-biosyslit</setSpec>
    </header>
    <header>
      <identifier>oai:zenodo.org:847249</identifier>
      <datestamp>2017-08-23T11:57:04Z</datestamp>
      <setSpec>user-biosyslit</setSpec>
    </header>
    <header>
      <identifier>oai:zenodo.org:847235</identifier>
      <datestamp>2017-08-23T11:56:41Z</datestamp>
      <setSpec>user-biosyslit</setSpec>
    </header>
    <header>
      <identifier>oai:zenodo.org:847247</identifier>
      <datestamp>2017-08-23T11:57:01Z</datestamp>
      <setSpec>user-biosyslit</setSpec>
    </header>
    <header>
      <identifier>oai:zenodo.org:847245</identifier>
      <datestamp>2017-08-23T11:56:57Z</datestamp>
      <setSpec>user-biosyslit</setSpec>
    </header>
    <header>
      <identifier>oai:zenodo.org:847225</identifier>
      <datestamp>2017-08-23T11:56:23Z</datestamp>
      <setSpec>user-biosyslit</setSpec>
    </header>
    <header>
      <identifier>oai:zenodo.org:847227</identifier>
      <datestamp>2017-08-23T11:56:27Z</datestamp>
      <setSpec>user-biosyslit</setSpec>
    </header>
    <header>
      <identifier>oai:zenodo.org:847221</identifier>
      <datestamp>2017-08-23T11:57:56Z</datestamp>
      <setSpec>user-biosyslit</setSpec>
    </header>
    <header>
      <identifier>oai:zenodo.org:847255</identifier>
      <datestamp>2017-08-23T11:57:15Z</datestamp>
      <setSpec>user-biosyslit</setSpec>
    </header>
    <header>
      <identifier>oai:zenodo.org:847269</identifier>
      <datestamp>2017-08-23T11:57:43Z</datestamp>
      <setSpec>user-biosyslit</setSpec>
    </header>
    <header>
      <identifier>oai:zenodo.org:847259</identifier>
      <datestamp>2017-08-23T11:57:21Z</datestamp>
      <setSpec>user-biosyslit</setSpec>
    </header>
    <header>
      <identifier>oai:zenodo.org:847253</identifier>
      <datestamp>2017-08-23T11:57:12Z</datestamp>
      <setSpec>user-biosyslit</setSpec>
    </header>
    <header>
      <identifier>oai:zenodo.org:847275</identifier>
      <datestamp>2017-08-23T11:57:53Z</datestamp>
      <setSpec>user-biosyslit</setSpec>
    </header>
    <header>
      <identifier>oai:zenodo.org:847267</identifier>
      <datestamp>2017-08-23T11:57:40Z</datestamp>
      <setSpec>user-biosyslit</setSpec>
    </header>
    <header>
      <identifier>oai:zenodo.org:847251</identifier>
      <datestamp>2017-08-23T11:57:09Z</datestamp>
      <setSpec>user-biosyslit</setSpec>
    </header>
    <header>
      <identifier>oai:zenodo.org:847271</identifier>
      <datestamp>2017-08-23T11:57:46Z</datestamp>
      <setSpec>user-biosyslit</setSpec>
    </header>
    <header>
      <identifier>oai:zenodo.org:847293</identifier>
      <datestamp>2017-08-23T12:01:39Z</datestamp>
      <setSpec>user-biosyslit</setSpec>
    </header>
    <header>
      <identifier>oai:zenodo.org:847281</identifier>
      <datestamp>2017-08-23T11:59:52Z</datestamp>
      <setSpec>user-biosyslit</setSpec>
    </header>
    <header>
      <identifier>oai:zenodo.org:847285</identifier>
      <datestamp>2017-08-23T12:00:17Z</datestamp>
      <setSpec>user-biosyslit</setSpec>
    </header>
    <header>
      <identifier>oai:zenodo.org:847309</identifier>
      <datestamp>2017-08-23T12:01:30Z</datestamp>
      <setSpec>user-biosyslit</setSpec>
    </header>
    <header>
      <identifier>oai:zenodo.org:847299</identifier>
      <datestamp>2017-08-23T12:01:08Z</datestamp>
      <setSpec>user-biosyslit</setSpec>
    </header>
    <header>
      <identifier>oai:zenodo.org:847279</identifier>
      <datestamp>2017-08-23T11:59:49Z</datestamp>
      <setSpec>user-biosyslit</setSpec>
    </header>
    <header>
      <identifier>oai:zenodo.org:847301</identifier>
      <datestamp>2017-08-23T12:01:12Z</datestamp>
      <setSpec>user-biosyslit</setSpec>
    </header>
    <header>
      <identifier>oai:zenodo.org:847317</identifier>
      <datestamp>2017-08-23T12:02:42Z</datestamp>
      <setSpec>user-biosyslit</setSpec>
    </header>
    <header>
      <identifier>oai:zenodo.org:847313</identifier>
      <datestamp>2017-08-23T12:01:37Z</datestamp>
      <setSpec>user-biosyslit</setSpec>
    </header>
    <header>
      <identifier>oai:zenodo.org:847339</identifier>
      <datestamp>2017-08-23T12:04:10Z</datestamp>
      <setSpec>user-biosyslit</setSpec>
    </header>
    <header>
      <identifier>oai:zenodo.org:847383</identifier>
      <datestamp>2017-08-23T12:06:59Z</datestamp>
      <setSpec>user-biosyslit</setSpec>
    </header>
    <header>
      <identifier>oai:zenodo.org:847385</identifier>
      <datestamp>2017-08-23T12:07:02Z</datestamp>
      <setSpec>user-biosyslit</setSpec>
    </header>
    <header>
      <identifier>oai:zenodo.org:847379</identifier>
      <datestamp>2017-08-23T12:06:52Z</datestamp>
      <setSpec>user-biosyslit</setSpec>
    </header>
    <header>
      <identifier>oai:zenodo.org:847327</identifier>
      <datestamp>2017-08-23T12:03:01Z</datestamp>
      <setSpec>user-biosyslit</setSpec>
    </header>
    <header>
      <identifier>oai:zenodo.org:847325</identifier>
      <datestamp>2017-08-23T12:02:58Z</datestamp>
      <setSpec>user-biosyslit</setSpec>
    </header>
    <header>
      <identifier>oai:zenodo.org:847361</identifier>
      <datestamp>2017-08-23T12:05:46Z</datestamp>
      <setSpec>user-biosyslit</setSpec>
    </header>
    <header>
      <identifier>oai:zenodo.org:847353</identifier>
      <datestamp>2017-08-23T12:04:38Z</datestamp>
      <setSpec>user-biosyslit</setSpec>
    </header>
    <header>
      <identifier>oai:zenodo.org:847391</identifier>
      <datestamp>2017-08-23T12:08:07Z</datestamp>
      <setSpec>user-biosyslit</setSpec>
    </header>
    <header>
      <identifier>oai:zenodo.org:847399</identifier>
      <datestamp>2017-08-23T12:08:45Z</datestamp>
      <setSpec>user-biosyslit</setSpec>
    </header>
    <header>
      <identifier>oai:zenodo.org:847397</identifier>
      <datestamp>2017-08-23T12:08:04Z</datestamp>
      <setSpec>user-biosyslit</setSpec>
    </header>
    <header>
      <identifier>oai:zenodo.org:847395</identifier>
      <datestamp>2017-08-23T12:08:01Z</datestamp>
      <setSpec>user-biosyslit</setSpec>
    </header>
    <header>
      <identifier>oai:zenodo.org:847437</identifier>
      <datestamp>2017-08-23T12:10:24Z</datestamp>
      <setSpec>user-biosyslit</setSpec>
    </header>
    <header>
      <identifier>oai:zenodo.org:847415</identifier>
      <datestamp>2017-08-23T12:09:23Z</datestamp>
      <setSpec>user-biosyslit</setSpec>
    </header>
    <header>
      <identifier>oai:zenodo.org:847411</identifier>
      <datestamp>2017-08-23T12:09:18Z</datestamp>
      <setSpec>user-biosyslit</setSpec>
    </header>
    <header>
      <identifier>oai:zenodo.org:847405</identifier>
      <datestamp>2017-08-23T12:08:43Z</datestamp>
      <setSpec>user-biosyslit</setSpec>
    </header>
    <header>
      <identifier>oai:zenodo.org:847423</identifier>
      <datestamp>2017-08-23T12:10:00Z</datestamp>
      <setSpec>user-biosyslit</setSpec>
    </header>
    <header>
      <identifier>oai:zenodo.org:847451</identifier>
      <datestamp>2017-08-23T12:10:46Z</datestamp>
      <setSpec>user-biosyslit</setSpec>
    </header>
    <header>
      <identifier>oai:zenodo.org:847443</identifier>
      <datestamp>2017-08-23T12:10:34Z</datestamp>
      <setSpec>user-biosyslit</setSpec>
    </header>
    <header>
      <identifier>oai:zenodo.org:847455</identifier>
      <datestamp>2017-08-23T12:10:53Z</datestamp>
      <setSpec>user-biosyslit</setSpec>
    </header>
    <header>
      <identifier>oai:zenodo.org:847445</identifier>
      <datestamp>2017-08-23T12:10:36Z</datestamp>
      <setSpec>user-biosyslit</setSpec>
    </header>
    <resumptionToken expirationDate="2017-08-31T15:45:25Z" cursor="36900" completeListSize="77796">.eJyNysEKgjAYAOB3-c8Sm7OmQpfQxEOKLkW7hE2RcpW4Qp347nnpXOfvm0BWVQk2Wq3NNd3oxKLY2lgGNTSQvHsKcb4uDDxLBX-IpPDSd3xPUa7XNHDkcHByEqgGhXes2D7SM2wOyRWN0TF55SoeUuL3DLn0oKIxuPnLK0noidPFa1ny2Amml13oRiPDO3Yi_Pvwn0_9fI7cggZtUVdgE4o1aPqiqyXY0zx_ALCFUVI.DInAHQ.QyxdHv5ic-Zkp2qa2HWdI95Z9aM</resumptionToken>
  </ListIdentifiers>
</OAI-PMH>
