<?xml version='1.0' encoding='UTF-8'?>
<?xml-stylesheet type="text/xsl" href="/static/xsl/oai2.v1.0.xsl"?>
<OAI-PMH xmlns="http://www.openarchives.org/OAI/2.0/" xmlns:xsi="http://www.w3.org/2001/XMLSchema-instance" xsi:schemaLocation="http://www.openarchives.org/OAI/2.0/ http://www.openarchives.org/OAI/2.0/OAI-PMH.xsd">
  <responseDate>2017-08-31T15:44:20Z</responseDate>
  <request verb="ListIdentifiers" resumptionToken=".eJyNz00PQzAAgOH_0rMsrZqvZBdh4oDQkXFZrERMmegWVPz3uey8nd_n8q6AV1UJTHgwjlDDuiGrGKoGUpAEOB2fjN2aPQN6TRntWVK46TvuUpjJtRbYfPbtDAeihWGHBDlH8hXpc9LAJbokr0zEc4q9iUBH80W0BA9vdyUOXZbf3YEkvcWIXI6hEy0EWSTH9OvQn078dDY_AQkMRV0BUzH2q3YqxpoDc922D5-AUUI.DInAUw.ryWkL4QGdcFhqo1Hy9_EeqUanmw">https://zenodo.org/oai2d</request>
  <ListIdentifiers>
    <header>
      <identifier>oai:zenodo.org:399548</identifier>
      <datestamp>2017-03-15T22:43:15Z</datestamp>
      <setSpec>user-biosyslit</setSpec>
    </header>
    <header>
      <identifier>oai:zenodo.org:399897</identifier>
      <datestamp>2017-03-16T01:31:21Z</datestamp>
      <setSpec>user-biosyslit</setSpec>
    </header>
    <header>
      <identifier>oai:zenodo.org:400028</identifier>
      <datestamp>2017-03-16T07:30:03Z</datestamp>
      <setSpec>user-biosyslit</setSpec>
    </header>
    <header>
      <identifier>oai:zenodo.org:399537</identifier>
      <datestamp>2017-03-15T22:42:45Z</datestamp>
      <setSpec>user-biosyslit</setSpec>
    </header>
    <header>
      <identifier>oai:zenodo.org:400073</identifier>
      <datestamp>2017-03-16T07:32:37Z</datestamp>
      <setSpec>user-biosyslit</setSpec>
    </header>
    <header>
      <identifier>oai:zenodo.org:399795</identifier>
      <datestamp>2017-03-15T23:57:59Z</datestamp>
      <setSpec>user-biosyslit</setSpec>
    </header>
    <header>
      <identifier>oai:zenodo.org:283755</identifier>
      <datestamp>2017-02-09T09:35:08Z</datestamp>
      <setSpec>user-biosyslit</setSpec>
    </header>
    <header>
      <identifier>oai:zenodo.org:399126</identifier>
      <datestamp>2017-03-15T08:35:56Z</datestamp>
      <setSpec>user-biosyslit</setSpec>
    </header>
    <header>
      <identifier>oai:zenodo.org:283967</identifier>
      <datestamp>2017-02-09T10:08:37Z</datestamp>
      <setSpec>user-biosyslit</setSpec>
    </header>
    <header>
      <identifier>oai:zenodo.org:399099</identifier>
      <datestamp>2017-03-15T08:25:51Z</datestamp>
      <setSpec>user-biosyslit</setSpec>
    </header>
    <header>
      <identifier>oai:zenodo.org:283095</identifier>
      <datestamp>2017-02-09T08:08:10Z</datestamp>
      <setSpec>user-biosyslit</setSpec>
    </header>
    <header>
      <identifier>oai:zenodo.org:398875</identifier>
      <datestamp>2017-03-14T21:01:49Z</datestamp>
      <setSpec>user-biosyslit</setSpec>
    </header>
    <header>
      <identifier>oai:zenodo.org:399814</identifier>
      <datestamp>2017-03-15T23:58:59Z</datestamp>
      <setSpec>user-biosyslit</setSpec>
    </header>
    <header>
      <identifier>oai:zenodo.org:400228</identifier>
      <datestamp>2017-03-16T09:59:24Z</datestamp>
      <setSpec>user-biosyslit</setSpec>
    </header>
    <header>
      <identifier>oai:zenodo.org:399595</identifier>
      <datestamp>2017-03-15T22:58:38Z</datestamp>
      <setSpec>user-biosyslit</setSpec>
    </header>
    <header>
      <identifier>oai:zenodo.org:400345</identifier>
      <datestamp>2017-03-16T20:00:56Z</datestamp>
      <setSpec>user-biosyslit</setSpec>
    </header>
    <header>
      <identifier>oai:zenodo.org:398975</identifier>
      <datestamp>2017-03-14T21:12:16Z</datestamp>
      <setSpec>user-biosyslit</setSpec>
    </header>
    <header>
      <identifier>oai:zenodo.org:399565</identifier>
      <datestamp>2017-03-15T22:44:01Z</datestamp>
      <setSpec>user-biosyslit</setSpec>
    </header>
    <header>
      <identifier>oai:zenodo.org:399042</identifier>
      <datestamp>2017-03-14T23:50:09Z</datestamp>
      <setSpec>user-biosyslit</setSpec>
    </header>
    <header>
      <identifier>oai:zenodo.org:400223</identifier>
      <datestamp>2017-03-16T09:59:13Z</datestamp>
      <setSpec>user-biosyslit</setSpec>
    </header>
    <header>
      <identifier>oai:zenodo.org:399672</identifier>
      <datestamp>2017-03-15T23:08:14Z</datestamp>
      <setSpec>user-biosyslit</setSpec>
    </header>
    <header>
      <identifier>oai:zenodo.org:400427</identifier>
      <datestamp>2017-03-17T08:24:06Z</datestamp>
      <setSpec>user-biosyslit</setSpec>
    </header>
    <header>
      <identifier>oai:zenodo.org:400157</identifier>
      <datestamp>2017-03-16T09:06:18Z</datestamp>
      <setSpec>user-biosyslit</setSpec>
    </header>
    <header>
      <identifier>oai:zenodo.org:399577</identifier>
      <datestamp>2017-03-15T22:57:36Z</datestamp>
      <setSpec>user-biosyslit</setSpec>
    </header>
    <header>
      <identifier>oai:zenodo.org:399600</identifier>
      <datestamp>2017-03-15T22:58:50Z</datestamp>
      <setSpec>user-biosyslit</setSpec>
    </header>
    <header>
      <identifier>oai:zenodo.org:400899</identifier>
      <datestamp>2017-03-20T09:35:43Z</datestamp>
      <setSpec>user-biosyslit</setSpec>
    </header>
    <header>
      <identifier>oai:zenodo.org:400367</identifier>
      <datestamp>2017-03-16T23:22:23Z</datestamp>
      <setSpec>user-biosyslit</setSpec>
    </header>
    <header>
      <identifier>oai:zenodo.org:284341</identifier>
      <datestamp>2017-02-09T11:05:07Z</datestamp>
      <setSpec>user-biosyslit</setSpec>
    </header>
    <header>
      <identifier>oai:zenodo.org:400420</identifier>
      <datestamp>2017-03-17T08:23:52Z</datestamp>
      <setSpec>user-biosyslit</setSpec>
    </header>
    <header>
      <identifier>oai:zenodo.org:399884</identifier>
      <datestamp>2017-03-16T01:30:39Z</datestamp>
      <setSpec>user-biosyslit</setSpec>
    </header>
    <header>
      <identifier>oai:zenodo.org:399122</identifier>
      <datestamp>2017-03-15T08:36:26Z</datestamp>
      <setSpec>user-biosyslit</setSpec>
    </header>
    <header>
      <identifier>oai:zenodo.org:400063</identifier>
      <datestamp>2017-03-16T07:32:10Z</datestamp>
      <setSpec>user-biosyslit</setSpec>
    </header>
    <header>
      <identifier>oai:zenodo.org:400082</identifier>
      <datestamp>2017-03-16T07:33:07Z</datestamp>
      <setSpec>user-biosyslit</setSpec>
    </header>
    <header>
      <identifier>oai:zenodo.org:399110</identifier>
      <datestamp>2017-03-15T08:26:21Z</datestamp>
      <setSpec>user-biosyslit</setSpec>
    </header>
    <header>
      <identifier>oai:zenodo.org:399723</identifier>
      <datestamp>2017-03-15T23:26:37Z</datestamp>
      <setSpec>user-biosyslit</setSpec>
    </header>
    <header>
      <identifier>oai:zenodo.org:400031</identifier>
      <datestamp>2017-03-16T07:30:20Z</datestamp>
      <setSpec>user-biosyslit</setSpec>
    </header>
    <header>
      <identifier>oai:zenodo.org:283629</identifier>
      <datestamp>2017-02-09T09:19:46Z</datestamp>
      <setSpec>user-biosyslit</setSpec>
    </header>
    <header>
      <identifier>oai:zenodo.org:283089</identifier>
      <datestamp>2017-02-09T08:07:56Z</datestamp>
      <setSpec>user-biosyslit</setSpec>
    </header>
    <header>
      <identifier>oai:zenodo.org:398706</identifier>
      <datestamp>2017-03-14T08:46:39Z</datestamp>
      <setSpec>user-biosyslit</setSpec>
    </header>
    <header>
      <identifier>oai:zenodo.org:398720</identifier>
      <datestamp>2017-03-14T08:59:47Z</datestamp>
      <setSpec>user-biosyslit</setSpec>
    </header>
    <header>
      <identifier>oai:zenodo.org:399131</identifier>
      <datestamp>2017-03-15T08:36:06Z</datestamp>
      <setSpec>user-biosyslit</setSpec>
    </header>
    <header>
      <identifier>oai:zenodo.org:400407</identifier>
      <datestamp>2017-03-17T08:13:35Z</datestamp>
      <setSpec>user-biosyslit</setSpec>
    </header>
    <header>
      <identifier>oai:zenodo.org:399344</identifier>
      <datestamp>2017-03-15T19:50:47Z</datestamp>
      <setSpec>user-biosyslit</setSpec>
    </header>
    <header>
      <identifier>oai:zenodo.org:283768</identifier>
      <datestamp>2017-02-09T09:39:40Z</datestamp>
      <setSpec>user-biosyslit</setSpec>
    </header>
    <header>
      <identifier>oai:zenodo.org:399023</identifier>
      <datestamp>2017-03-14T23:49:11Z</datestamp>
      <setSpec>user-biosyslit</setSpec>
    </header>
    <header>
      <identifier>oai:zenodo.org:399730</identifier>
      <datestamp>2017-03-15T23:26:57Z</datestamp>
      <setSpec>user-biosyslit</setSpec>
    </header>
    <header>
      <identifier>oai:zenodo.org:400646</identifier>
      <datestamp>2017-03-18T16:19:14Z</datestamp>
      <setSpec>user-biosyslit</setSpec>
    </header>
    <header>
      <identifier>oai:zenodo.org:283633</identifier>
      <datestamp>2017-02-09T09:19:56Z</datestamp>
      <setSpec>user-biosyslit</setSpec>
    </header>
    <header>
      <identifier>oai:zenodo.org:400732</identifier>
      <datestamp>2017-03-19T12:05:45Z</datestamp>
      <setSpec>user-biosyslit</setSpec>
    </header>
    <header>
      <identifier>oai:zenodo.org:283316</identifier>
      <datestamp>2017-02-09T08:35:20Z</datestamp>
      <setSpec>user-biosyslit</setSpec>
    </header>
    <header>
      <identifier>oai:zenodo.org:398745</identifier>
      <datestamp>2017-03-14T09:12:17Z</datestamp>
      <setSpec>user-biosyslit</setSpec>
    </header>
    <header>
      <identifier>oai:zenodo.org:283903</identifier>
      <datestamp>2017-02-09T10:01:53Z</datestamp>
      <setSpec>user-biosyslit</setSpec>
    </header>
    <header>
      <identifier>oai:zenodo.org:398721</identifier>
      <datestamp>2017-03-14T08:59:49Z</datestamp>
      <setSpec>user-biosyslit</setSpec>
    </header>
    <header>
      <identifier>oai:zenodo.org:283165</identifier>
      <datestamp>2017-02-09T08:16:39Z</datestamp>
      <setSpec>user-biosyslit</setSpec>
    </header>
    <header>
      <identifier>oai:zenodo.org:283410</identifier>
      <datestamp>2017-02-09T08:50:38Z</datestamp>
      <setSpec>user-biosyslit</setSpec>
    </header>
    <header>
      <identifier>oai:zenodo.org:399538</identifier>
      <datestamp>2017-03-15T22:42:47Z</datestamp>
      <setSpec>user-biosyslit</setSpec>
    </header>
    <header>
      <identifier>oai:zenodo.org:400047</identifier>
      <datestamp>2017-03-16T07:31:26Z</datestamp>
      <setSpec>user-biosyslit</setSpec>
    </header>
    <header>
      <identifier>oai:zenodo.org:398895</identifier>
      <datestamp>2017-03-14T21:02:40Z</datestamp>
      <setSpec>user-biosyslit</setSpec>
    </header>
    <header>
      <identifier>oai:zenodo.org:399891</identifier>
      <datestamp>2017-03-16T01:30:59Z</datestamp>
      <setSpec>user-biosyslit</setSpec>
    </header>
    <header>
      <identifier>oai:zenodo.org:400119</identifier>
      <datestamp>2017-03-16T08:39:56Z</datestamp>
      <setSpec>user-biosyslit</setSpec>
    </header>
    <header>
      <identifier>oai:zenodo.org:399773</identifier>
      <datestamp>2017-03-15T23:55:19Z</datestamp>
      <setSpec>user-biosyslit</setSpec>
    </header>
    <header>
      <identifier>oai:zenodo.org:399026</identifier>
      <datestamp>2017-03-14T23:49:19Z</datestamp>
      <setSpec>user-biosyslit</setSpec>
    </header>
    <header>
      <identifier>oai:zenodo.org:399590</identifier>
      <datestamp>2017-03-15T22:58:22Z</datestamp>
      <setSpec>user-biosyslit</setSpec>
    </header>
    <header>
      <identifier>oai:zenodo.org:400072</identifier>
      <datestamp>2017-03-16T07:32:35Z</datestamp>
      <setSpec>user-biosyslit</setSpec>
    </header>
    <header>
      <identifier>oai:zenodo.org:399380</identifier>
      <datestamp>2017-03-15T20:26:18Z</datestamp>
      <setSpec>user-biosyslit</setSpec>
    </header>
    <header>
      <identifier>oai:zenodo.org:399599</identifier>
      <datestamp>2017-03-15T22:58:48Z</datestamp>
      <setSpec>user-biosyslit</setSpec>
    </header>
    <header>
      <identifier>oai:zenodo.org:400421</identifier>
      <datestamp>2017-03-17T08:23:54Z</datestamp>
      <setSpec>user-biosyslit</setSpec>
    </header>
    <header>
      <identifier>oai:zenodo.org:400868</identifier>
      <datestamp>2017-03-20T08:46:54Z</datestamp>
      <setSpec>user-biosyslit</setSpec>
    </header>
    <header>
      <identifier>oai:zenodo.org:399634</identifier>
      <datestamp>2017-03-15T23:04:53Z</datestamp>
      <setSpec>user-biosyslit</setSpec>
    </header>
    <header>
      <identifier>oai:zenodo.org:400465</identifier>
      <datestamp>2017-03-17T09:12:24Z</datestamp>
      <setSpec>user-biosyslit</setSpec>
    </header>
    <header>
      <identifier>oai:zenodo.org:283618</identifier>
      <datestamp>2017-02-09T09:18:39Z</datestamp>
      <setSpec>user-biosyslit</setSpec>
    </header>
    <header>
      <identifier>oai:zenodo.org:283319</identifier>
      <datestamp>2017-02-09T08:35:27Z</datestamp>
      <setSpec>user-biosyslit</setSpec>
    </header>
    <header>
      <identifier>oai:zenodo.org:283424</identifier>
      <datestamp>2017-02-09T08:55:10Z</datestamp>
      <setSpec>user-biosyslit</setSpec>
    </header>
    <header>
      <identifier>oai:zenodo.org:398740</identifier>
      <datestamp>2017-03-14T09:00:37Z</datestamp>
      <setSpec>user-biosyslit</setSpec>
    </header>
    <header>
      <identifier>oai:zenodo.org:400201</identifier>
      <datestamp>2017-03-16T09:36:07Z</datestamp>
      <setSpec>user-biosyslit</setSpec>
    </header>
    <header>
      <identifier>oai:zenodo.org:283638</identifier>
      <datestamp>2017-02-09T09:20:08Z</datestamp>
      <setSpec>user-biosyslit</setSpec>
    </header>
    <header>
      <identifier>oai:zenodo.org:399547</identifier>
      <datestamp>2017-03-15T22:43:13Z</datestamp>
      <setSpec>user-biosyslit</setSpec>
    </header>
    <header>
      <identifier>oai:zenodo.org:398929</identifier>
      <datestamp>2017-03-14T21:06:52Z</datestamp>
      <setSpec>user-biosyslit</setSpec>
    </header>
    <header>
      <identifier>oai:zenodo.org:398768</identifier>
      <datestamp>2017-03-14T09:51:57Z</datestamp>
      <setSpec>user-biosyslit</setSpec>
    </header>
    <header>
      <identifier>oai:zenodo.org:400080</identifier>
      <datestamp>2017-03-16T07:33:00Z</datestamp>
      <setSpec>user-biosyslit</setSpec>
    </header>
    <header>
      <identifier>oai:zenodo.org:400145</identifier>
      <datestamp>2017-03-16T08:49:49Z</datestamp>
      <setSpec>user-biosyslit</setSpec>
    </header>
    <header>
      <identifier>oai:zenodo.org:398889</identifier>
      <datestamp>2017-03-14T21:02:21Z</datestamp>
      <setSpec>user-biosyslit</setSpec>
    </header>
    <header>
      <identifier>oai:zenodo.org:283121</identifier>
      <datestamp>2017-02-09T08:12:02Z</datestamp>
      <setSpec>user-biosyslit</setSpec>
    </header>
    <header>
      <identifier>oai:zenodo.org:283330</identifier>
      <datestamp>2017-02-09T08:36:39Z</datestamp>
      <setSpec>user-biosyslit</setSpec>
    </header>
    <header>
      <identifier>oai:zenodo.org:399861</identifier>
      <datestamp>2017-03-16T01:29:22Z</datestamp>
      <setSpec>user-biosyslit</setSpec>
    </header>
    <header>
      <identifier>oai:zenodo.org:398974</identifier>
      <datestamp>2017-03-14T21:12:11Z</datestamp>
      <setSpec>user-biosyslit</setSpec>
    </header>
    <header>
      <identifier>oai:zenodo.org:399533</identifier>
      <datestamp>2017-03-15T22:42:34Z</datestamp>
      <setSpec>user-biosyslit</setSpec>
    </header>
    <header>
      <identifier>oai:zenodo.org:399168</identifier>
      <datestamp>2017-03-15T09:00:42Z</datestamp>
      <setSpec>user-biosyslit</setSpec>
    </header>
    <header>
      <identifier>oai:zenodo.org:399620</identifier>
      <datestamp>2017-03-15T23:00:00Z</datestamp>
      <setSpec>user-biosyslit</setSpec>
    </header>
    <header>
      <identifier>oai:zenodo.org:399158</identifier>
      <datestamp>2017-03-15T08:52:26Z</datestamp>
      <setSpec>user-biosyslit</setSpec>
    </header>
    <header>
      <identifier>oai:zenodo.org:399404</identifier>
      <datestamp>2017-03-15T20:52:48Z</datestamp>
      <setSpec>user-biosyslit</setSpec>
    </header>
    <header>
      <identifier>oai:zenodo.org:400224</identifier>
      <datestamp>2017-03-16T09:59:15Z</datestamp>
      <setSpec>user-biosyslit</setSpec>
    </header>
    <header>
      <identifier>oai:zenodo.org:399880</identifier>
      <datestamp>2017-03-16T01:30:27Z</datestamp>
      <setSpec>user-biosyslit</setSpec>
    </header>
    <header>
      <identifier>oai:zenodo.org:399915</identifier>
      <datestamp>2017-03-16T01:32:11Z</datestamp>
      <setSpec>user-biosyslit</setSpec>
    </header>
    <header>
      <identifier>oai:zenodo.org:400643</identifier>
      <datestamp>2017-03-18T16:19:07Z</datestamp>
      <setSpec>user-biosyslit</setSpec>
    </header>
    <header>
      <identifier>oai:zenodo.org:400911</identifier>
      <datestamp>2017-03-20T09:57:43Z</datestamp>
      <setSpec>user-biosyslit</setSpec>
    </header>
    <header>
      <identifier>oai:zenodo.org:283504</identifier>
      <datestamp>2017-02-09T09:06:11Z</datestamp>
      <setSpec>user-biosyslit</setSpec>
    </header>
    <header>
      <identifier>oai:zenodo.org:399133</identifier>
      <datestamp>2017-03-15T08:36:12Z</datestamp>
      <setSpec>user-biosyslit</setSpec>
    </header>
    <header>
      <identifier>oai:zenodo.org:398939</identifier>
      <datestamp>2017-03-14T21:07:16Z</datestamp>
      <setSpec>user-biosyslit</setSpec>
    </header>
    <header>
      <identifier>oai:zenodo.org:399353</identifier>
      <datestamp>2017-03-15T19:52:34Z</datestamp>
      <setSpec>user-biosyslit</setSpec>
    </header>
    <resumptionToken expirationDate="2017-08-31T15:46:20Z" cursor="49000" completeListSize="77796">.eJyNyk0LgjAYAOD_8p4lNmf5AV3EEg8qa03SS5iKmNPCFeqk_16XznV-ngVkVZXgoJVtrPFmTUwbGRbGhqWBLIabEOfmw1CcElH0gud-8jx0CUr12ow8OYVeSiLVorjDiu2pfsLWxBs00yN_pOowJSQYGdqZoaJzdA0-rySxL7KLf2e8dwXTyyHe0Zlhl2Wk-D7851M_nye3oME9rytwDFvXoB3zoZbgLK_XG6E9UUU.DInAVA.CYARiRODNrZjhYWUNZZhJiJSr_g</resumptionToken>
  </ListIdentifiers>
</OAI-PMH>
