<?xml version='1.0' encoding='UTF-8'?>
<?xml-stylesheet type="text/xsl" href="/static/xsl/oai2.v1.0.xsl"?>
<OAI-PMH xmlns="http://www.openarchives.org/OAI/2.0/" xmlns:xsi="http://www.w3.org/2001/XMLSchema-instance" xsi:schemaLocation="http://www.openarchives.org/OAI/2.0/ http://www.openarchives.org/OAI/2.0/OAI-PMH.xsd">
  <responseDate>2017-08-31T15:45:29Z</responseDate>
  <request verb="ListIdentifiers" resumptionToken=".eJyNyk0LgjAYAOD_8p4lNid-QRexxIPKXIp2CVMRc1a4Qp343_PSuc7Ps4Co6wpstNMsXSMaIkTHKjYtrIAohwfnl3ZjKLOUl3eeFF76jvsU5WpjhK6YAjcnoexQ1GPJjlTNsDklLZrpKXnlMp5S4o8MHYxA0jm8-durSOTx89V7suTucKZWQ3SgM8MOO5Py-_CfT_58rtiDAs-iqcHWNVOBbiyGRoC9rOsHl0ZRPQ.DInAmQ.32x4PMO1hQhSZ6Fa_JR89ss4ki0">https://zenodo.org/oai2d</request>
  <ListIdentifiers>
    <header>
      <identifier>oai:zenodo.org:277065</identifier>
      <datestamp>2017-02-08T20:18:39Z</datestamp>
      <setSpec>user-biosyslit</setSpec>
    </header>
    <header>
      <identifier>oai:zenodo.org:277068</identifier>
      <datestamp>2017-02-08T20:18:49Z</datestamp>
      <setSpec>user-biosyslit</setSpec>
    </header>
    <header>
      <identifier>oai:zenodo.org:249423</identifier>
      <datestamp>2017-01-17T19:55:41Z</datestamp>
      <setSpec>user-biosyslit</setSpec>
    </header>
    <header>
      <identifier>oai:zenodo.org:249428</identifier>
      <datestamp>2017-01-17T19:55:06Z</datestamp>
      <setSpec>user-biosyslit</setSpec>
    </header>
    <header>
      <identifier>oai:zenodo.org:249427</identifier>
      <datestamp>2017-01-17T19:55:02Z</datestamp>
      <setSpec>user-biosyslit</setSpec>
    </header>
    <header>
      <identifier>oai:zenodo.org:249432</identifier>
      <datestamp>2017-01-17T19:55:32Z</datestamp>
      <setSpec>user-biosyslit</setSpec>
    </header>
    <header>
      <identifier>oai:zenodo.org:280246</identifier>
      <datestamp>2017-02-09T03:02:57Z</datestamp>
      <setSpec>user-biosyslit</setSpec>
    </header>
    <header>
      <identifier>oai:zenodo.org:249434</identifier>
      <datestamp>2017-01-17T19:55:40Z</datestamp>
      <setSpec>user-biosyslit</setSpec>
    </header>
    <header>
      <identifier>oai:zenodo.org:263554</identifier>
      <datestamp>2017-01-30T00:25:31Z</datestamp>
      <setSpec>user-biosyslit</setSpec>
    </header>
    <header>
      <identifier>oai:zenodo.org:276124</identifier>
      <datestamp>2017-02-08T18:10:18Z</datestamp>
      <setSpec>user-biosyslit</setSpec>
    </header>
    <header>
      <identifier>oai:zenodo.org:276118</identifier>
      <datestamp>2017-02-08T18:10:01Z</datestamp>
      <setSpec>user-biosyslit</setSpec>
    </header>
    <header>
      <identifier>oai:zenodo.org:276115</identifier>
      <datestamp>2017-02-08T18:09:53Z</datestamp>
      <setSpec>user-biosyslit</setSpec>
    </header>
    <header>
      <identifier>oai:zenodo.org:276114</identifier>
      <datestamp>2017-02-08T18:09:44Z</datestamp>
      <setSpec>user-biosyslit</setSpec>
    </header>
    <header>
      <identifier>oai:zenodo.org:276111</identifier>
      <datestamp>2017-02-08T18:09:30Z</datestamp>
      <setSpec>user-biosyslit</setSpec>
    </header>
    <header>
      <identifier>oai:zenodo.org:276116</identifier>
      <datestamp>2017-02-08T18:09:57Z</datestamp>
      <setSpec>user-biosyslit</setSpec>
    </header>
    <header>
      <identifier>oai:zenodo.org:276121</identifier>
      <datestamp>2017-02-08T18:10:10Z</datestamp>
      <setSpec>user-biosyslit</setSpec>
    </header>
    <header>
      <identifier>oai:zenodo.org:276123</identifier>
      <datestamp>2017-02-08T18:10:16Z</datestamp>
      <setSpec>user-biosyslit</setSpec>
    </header>
    <header>
      <identifier>oai:zenodo.org:276120</identifier>
      <datestamp>2017-02-08T18:10:07Z</datestamp>
      <setSpec>user-biosyslit</setSpec>
    </header>
    <header>
      <identifier>oai:zenodo.org:276147</identifier>
      <datestamp>2017-02-08T18:11:35Z</datestamp>
      <setSpec>user-biosyslit</setSpec>
    </header>
    <header>
      <identifier>oai:zenodo.org:276146</identifier>
      <datestamp>2017-02-08T18:11:32Z</datestamp>
      <setSpec>user-biosyslit</setSpec>
    </header>
    <header>
      <identifier>oai:zenodo.org:276135</identifier>
      <datestamp>2017-02-08T18:11:00Z</datestamp>
      <setSpec>user-biosyslit</setSpec>
    </header>
    <header>
      <identifier>oai:zenodo.org:276141</identifier>
      <datestamp>2017-02-08T18:11:17Z</datestamp>
      <setSpec>user-biosyslit</setSpec>
    </header>
    <header>
      <identifier>oai:zenodo.org:276133</identifier>
      <datestamp>2017-02-08T18:10:52Z</datestamp>
      <setSpec>user-biosyslit</setSpec>
    </header>
    <header>
      <identifier>oai:zenodo.org:276142</identifier>
      <datestamp>2017-02-08T18:11:21Z</datestamp>
      <setSpec>user-biosyslit</setSpec>
    </header>
    <header>
      <identifier>oai:zenodo.org:276126</identifier>
      <datestamp>2017-02-08T18:10:25Z</datestamp>
      <setSpec>user-biosyslit</setSpec>
    </header>
    <header>
      <identifier>oai:zenodo.org:276137</identifier>
      <datestamp>2017-02-08T18:11:06Z</datestamp>
      <setSpec>user-biosyslit</setSpec>
    </header>
    <header>
      <identifier>oai:zenodo.org:241569</identifier>
      <datestamp>2017-01-13T03:24:55Z</datestamp>
      <setSpec>user-biosyslit</setSpec>
    </header>
    <header>
      <identifier>oai:zenodo.org:242858</identifier>
      <datestamp>2017-01-13T19:55:50Z</datestamp>
      <setSpec>user-biosyslit</setSpec>
    </header>
    <header>
      <identifier>oai:zenodo.org:242860</identifier>
      <datestamp>2017-01-13T19:55:49Z</datestamp>
      <setSpec>user-biosyslit</setSpec>
    </header>
    <header>
      <identifier>oai:zenodo.org:229538</identifier>
      <datestamp>2017-01-03T17:53:14Z</datestamp>
      <setSpec>user-biosyslit</setSpec>
    </header>
    <header>
      <identifier>oai:zenodo.org:280830</identifier>
      <datestamp>2017-02-09T04:10:17Z</datestamp>
      <setSpec>user-biosyslit</setSpec>
    </header>
    <header>
      <identifier>oai:zenodo.org:280003</identifier>
      <datestamp>2017-02-09T02:28:46Z</datestamp>
      <setSpec>user-biosyslit</setSpec>
    </header>
    <header>
      <identifier>oai:zenodo.org:280834</identifier>
      <datestamp>2017-02-09T04:10:14Z</datestamp>
      <setSpec>user-biosyslit</setSpec>
    </header>
    <header>
      <identifier>oai:zenodo.org:294358</identifier>
      <datestamp>2017-02-20T19:37:01Z</datestamp>
      <setSpec>user-biosyslit</setSpec>
    </header>
    <header>
      <identifier>oai:zenodo.org:277346</identifier>
      <datestamp>2017-02-08T20:56:38Z</datestamp>
      <setSpec>user-biosyslit</setSpec>
    </header>
    <header>
      <identifier>oai:zenodo.org:277535</identifier>
      <datestamp>2017-02-08T21:19:56Z</datestamp>
      <setSpec>user-biosyslit</setSpec>
    </header>
    <header>
      <identifier>oai:zenodo.org:294362</identifier>
      <datestamp>2017-02-20T19:36:58Z</datestamp>
      <setSpec>user-biosyslit</setSpec>
    </header>
    <header>
      <identifier>oai:zenodo.org:294365</identifier>
      <datestamp>2017-02-20T19:37:00Z</datestamp>
      <setSpec>user-biosyslit</setSpec>
    </header>
    <header>
      <identifier>oai:zenodo.org:270333</identifier>
      <datestamp>2017-02-07T23:01:24Z</datestamp>
      <setSpec>user-biosyslit</setSpec>
    </header>
    <header>
      <identifier>oai:zenodo.org:270336</identifier>
      <datestamp>2017-02-07T23:01:31Z</datestamp>
      <setSpec>user-biosyslit</setSpec>
    </header>
    <header>
      <identifier>oai:zenodo.org:270334</identifier>
      <datestamp>2017-02-07T23:01:26Z</datestamp>
      <setSpec>user-biosyslit</setSpec>
    </header>
    <header>
      <identifier>oai:zenodo.org:270329</identifier>
      <datestamp>2017-02-07T23:01:14Z</datestamp>
      <setSpec>user-biosyslit</setSpec>
    </header>
    <header>
      <identifier>oai:zenodo.org:279419</identifier>
      <datestamp>2017-02-09T01:18:44Z</datestamp>
      <setSpec>user-biosyslit</setSpec>
    </header>
    <header>
      <identifier>oai:zenodo.org:279420</identifier>
      <datestamp>2017-02-09T01:18:46Z</datestamp>
      <setSpec>user-biosyslit</setSpec>
    </header>
    <header>
      <identifier>oai:zenodo.org:279416</identifier>
      <datestamp>2017-02-09T01:18:36Z</datestamp>
      <setSpec>user-biosyslit</setSpec>
    </header>
    <header>
      <identifier>oai:zenodo.org:282029</identifier>
      <datestamp>2017-02-09T06:21:27Z</datestamp>
      <setSpec>user-biosyslit</setSpec>
    </header>
    <header>
      <identifier>oai:zenodo.org:282031</identifier>
      <datestamp>2017-02-09T06:21:15Z</datestamp>
      <setSpec>user-biosyslit</setSpec>
    </header>
    <header>
      <identifier>oai:zenodo.org:282032</identifier>
      <datestamp>2017-02-09T06:21:17Z</datestamp>
      <setSpec>user-biosyslit</setSpec>
    </header>
    <header>
      <identifier>oai:zenodo.org:271073</identifier>
      <datestamp>2017-02-08T00:42:15Z</datestamp>
      <setSpec>user-biosyslit</setSpec>
    </header>
    <header>
      <identifier>oai:zenodo.org:242027</identifier>
      <datestamp>2017-01-13T09:27:32Z</datestamp>
      <setSpec>user-biosyslit</setSpec>
    </header>
    <header>
      <identifier>oai:zenodo.org:271076</identifier>
      <datestamp>2017-02-08T00:42:13Z</datestamp>
      <setSpec>user-biosyslit</setSpec>
    </header>
    <header>
      <identifier>oai:zenodo.org:231805</identifier>
      <datestamp>2017-01-06T07:33:37Z</datestamp>
      <setSpec>user-biosyslit</setSpec>
    </header>
    <header>
      <identifier>oai:zenodo.org:231806</identifier>
      <datestamp>2017-01-06T07:33:29Z</datestamp>
      <setSpec>user-biosyslit</setSpec>
    </header>
    <header>
      <identifier>oai:zenodo.org:263253</identifier>
      <datestamp>2017-01-29T20:05:17Z</datestamp>
      <setSpec>user-biosyslit</setSpec>
    </header>
    <header>
      <identifier>oai:zenodo.org:263262</identifier>
      <datestamp>2017-01-29T20:05:11Z</datestamp>
      <setSpec>user-biosyslit</setSpec>
    </header>
    <header>
      <identifier>oai:zenodo.org:263257</identifier>
      <datestamp>2017-01-29T20:04:57Z</datestamp>
      <setSpec>user-biosyslit</setSpec>
    </header>
    <header>
      <identifier>oai:zenodo.org:263260</identifier>
      <datestamp>2017-01-29T20:05:05Z</datestamp>
      <setSpec>user-biosyslit</setSpec>
    </header>
    <header>
      <identifier>oai:zenodo.org:263255</identifier>
      <datestamp>2017-01-29T20:04:52Z</datestamp>
      <setSpec>user-biosyslit</setSpec>
    </header>
    <header>
      <identifier>oai:zenodo.org:263258</identifier>
      <datestamp>2017-01-29T20:05:01Z</datestamp>
      <setSpec>user-biosyslit</setSpec>
    </header>
    <header>
      <identifier>oai:zenodo.org:263254</identifier>
      <datestamp>2017-01-29T20:04:50Z</datestamp>
      <setSpec>user-biosyslit</setSpec>
    </header>
    <header>
      <identifier>oai:zenodo.org:263264</identifier>
      <datestamp>2017-01-29T20:05:16Z</datestamp>
      <setSpec>user-biosyslit</setSpec>
    </header>
    <header>
      <identifier>oai:zenodo.org:245023</identifier>
      <datestamp>2017-01-15T06:50:56Z</datestamp>
      <setSpec>user-biosyslit</setSpec>
    </header>
    <header>
      <identifier>oai:zenodo.org:231519</identifier>
      <datestamp>2017-01-06T03:26:09Z</datestamp>
      <setSpec>user-biosyslit</setSpec>
    </header>
    <header>
      <identifier>oai:zenodo.org:245025</identifier>
      <datestamp>2017-01-15T06:51:05Z</datestamp>
      <setSpec>user-biosyslit</setSpec>
    </header>
    <header>
      <identifier>oai:zenodo.org:245026</identifier>
      <datestamp>2017-01-15T06:51:09Z</datestamp>
      <setSpec>user-biosyslit</setSpec>
    </header>
    <header>
      <identifier>oai:zenodo.org:245024</identifier>
      <datestamp>2017-01-15T06:51:01Z</datestamp>
      <setSpec>user-biosyslit</setSpec>
    </header>
    <header>
      <identifier>oai:zenodo.org:245022</identifier>
      <datestamp>2017-01-15T06:51:17Z</datestamp>
      <setSpec>user-biosyslit</setSpec>
    </header>
    <header>
      <identifier>oai:zenodo.org:245103</identifier>
      <datestamp>2017-01-15T07:48:49Z</datestamp>
      <setSpec>user-biosyslit</setSpec>
    </header>
    <header>
      <identifier>oai:zenodo.org:245105</identifier>
      <datestamp>2017-01-15T07:48:31Z</datestamp>
      <setSpec>user-biosyslit</setSpec>
    </header>
    <header>
      <identifier>oai:zenodo.org:245106</identifier>
      <datestamp>2017-01-15T07:48:33Z</datestamp>
      <setSpec>user-biosyslit</setSpec>
    </header>
    <header>
      <identifier>oai:zenodo.org:228436</identifier>
      <datestamp>2017-01-02T23:49:32Z</datestamp>
      <setSpec>user-biosyslit</setSpec>
    </header>
    <header>
      <identifier>oai:zenodo.org:228434</identifier>
      <datestamp>2017-01-02T23:49:19Z</datestamp>
      <setSpec>user-biosyslit</setSpec>
    </header>
    <header>
      <identifier>oai:zenodo.org:228435</identifier>
      <datestamp>2017-01-02T23:49:27Z</datestamp>
      <setSpec>user-biosyslit</setSpec>
    </header>
    <header>
      <identifier>oai:zenodo.org:243921</identifier>
      <datestamp>2017-01-14T13:12:04Z</datestamp>
      <setSpec>user-biosyslit</setSpec>
    </header>
    <header>
      <identifier>oai:zenodo.org:285746</identifier>
      <datestamp>2017-02-09T14:23:51Z</datestamp>
      <setSpec>user-biosyslit</setSpec>
    </header>
    <header>
      <identifier>oai:zenodo.org:243922</identifier>
      <datestamp>2017-01-14T13:11:50Z</datestamp>
      <setSpec>user-biosyslit</setSpec>
    </header>
    <header>
      <identifier>oai:zenodo.org:243923</identifier>
      <datestamp>2017-01-14T13:11:53Z</datestamp>
      <setSpec>user-biosyslit</setSpec>
    </header>
    <header>
      <identifier>oai:zenodo.org:228939</identifier>
      <datestamp>2017-01-03T07:32:18Z</datestamp>
      <setSpec>user-biosyslit</setSpec>
    </header>
    <header>
      <identifier>oai:zenodo.org:256303</identifier>
      <datestamp>2017-01-22T11:48:51Z</datestamp>
      <setSpec>user-biosyslit</setSpec>
    </header>
    <header>
      <identifier>oai:zenodo.org:245590</identifier>
      <datestamp>2017-01-15T16:00:37Z</datestamp>
      <setSpec>user-biosyslit</setSpec>
    </header>
    <header>
      <identifier>oai:zenodo.org:228940</identifier>
      <datestamp>2017-01-03T07:31:43Z</datestamp>
      <setSpec>user-biosyslit</setSpec>
    </header>
    <header>
      <identifier>oai:zenodo.org:228944</identifier>
      <datestamp>2017-01-03T07:31:59Z</datestamp>
      <setSpec>user-biosyslit</setSpec>
    </header>
    <header>
      <identifier>oai:zenodo.org:228949</identifier>
      <datestamp>2017-01-03T07:32:16Z</datestamp>
      <setSpec>user-biosyslit</setSpec>
    </header>
    <header>
      <identifier>oai:zenodo.org:228941</identifier>
      <datestamp>2017-01-03T07:31:47Z</datestamp>
      <setSpec>user-biosyslit</setSpec>
    </header>
    <header>
      <identifier>oai:zenodo.org:228945</identifier>
      <datestamp>2017-01-03T07:32:02Z</datestamp>
      <setSpec>user-biosyslit</setSpec>
    </header>
    <header>
      <identifier>oai:zenodo.org:273879</identifier>
      <datestamp>2017-02-08T11:04:26Z</datestamp>
      <setSpec>user-biosyslit</setSpec>
    </header>
    <header>
      <identifier>oai:zenodo.org:256308</identifier>
      <datestamp>2017-01-22T11:49:11Z</datestamp>
      <setSpec>user-biosyslit</setSpec>
    </header>
    <header>
      <identifier>oai:zenodo.org:256309</identifier>
      <datestamp>2017-01-22T11:49:14Z</datestamp>
      <setSpec>user-biosyslit</setSpec>
    </header>
    <header>
      <identifier>oai:zenodo.org:256304</identifier>
      <datestamp>2017-01-22T11:48:57Z</datestamp>
      <setSpec>user-biosyslit</setSpec>
    </header>
    <header>
      <identifier>oai:zenodo.org:256306</identifier>
      <datestamp>2017-01-22T11:49:04Z</datestamp>
      <setSpec>user-biosyslit</setSpec>
    </header>
    <header>
      <identifier>oai:zenodo.org:256305</identifier>
      <datestamp>2017-01-22T11:49:01Z</datestamp>
      <setSpec>user-biosyslit</setSpec>
    </header>
    <header>
      <identifier>oai:zenodo.org:274411</identifier>
      <datestamp>2017-02-08T13:08:16Z</datestamp>
      <setSpec>user-biosyslit</setSpec>
    </header>
    <header>
      <identifier>oai:zenodo.org:274410</identifier>
      <datestamp>2017-02-08T13:08:19Z</datestamp>
      <setSpec>user-biosyslit</setSpec>
    </header>
    <header>
      <identifier>oai:zenodo.org:226921</identifier>
      <datestamp>2017-01-01T06:35:59Z</datestamp>
      <setSpec>user-biosyslit</setSpec>
    </header>
    <header>
      <identifier>oai:zenodo.org:230431</identifier>
      <datestamp>2017-01-05T01:19:10Z</datestamp>
      <setSpec>user-biosyslit</setSpec>
    </header>
    <header>
      <identifier>oai:zenodo.org:230430</identifier>
      <datestamp>2017-01-05T01:19:02Z</datestamp>
      <setSpec>user-biosyslit</setSpec>
    </header>
    <header>
      <identifier>oai:zenodo.org:247268</identifier>
      <datestamp>2017-01-16T13:38:28Z</datestamp>
      <setSpec>user-biosyslit</setSpec>
    </header>
    <header>
      <identifier>oai:zenodo.org:247271</identifier>
      <datestamp>2017-01-16T13:38:06Z</datestamp>
      <setSpec>user-biosyslit</setSpec>
    </header>
    <header>
      <identifier>oai:zenodo.org:247273</identifier>
      <datestamp>2017-01-16T13:38:13Z</datestamp>
      <setSpec>user-biosyslit</setSpec>
    </header>
    <header>
      <identifier>oai:zenodo.org:247272</identifier>
      <datestamp>2017-01-16T13:38:09Z</datestamp>
      <setSpec>user-biosyslit</setSpec>
    </header>
    <resumptionToken expirationDate="2017-08-31T15:47:29Z" cursor="64700" completeListSize="77796">.eJyNyk0LgjAYAOD_8p4lNmf5AV1EEw8pupT0EjZFzFXiCnXif89L5zo_zwyiqkqw0GZr7AysqSYiGOvE1BUQrH9yfmlWBnZOOXvwpPDSd3xPUabWeuCI8ehkJJAtCu9Y0kOknrExJg2aolPyymQ8psQfKHL1o4ym4OavryShx_Or19HkYXOqln3oRhPFNs0J-z7855M_nyP2oEBX1BVYO81UoB2KvhZgzcvyAaB2UUg.DInAmQ.IEmROB0jui5GRm_14DH3rlVlwFo</resumptionToken>
  </ListIdentifiers>
</OAI-PMH>
