<?xml version='1.0' encoding='UTF-8'?>
<?xml-stylesheet type="text/xsl" href="/static/xsl/oai2.v1.0.xsl"?>
<OAI-PMH xmlns="http://www.openarchives.org/OAI/2.0/" xmlns:xsi="http://www.w3.org/2001/XMLSchema-instance" xsi:schemaLocation="http://www.openarchives.org/OAI/2.0/ http://www.openarchives.org/OAI/2.0/OAI-PMH.xsd">
  <responseDate>2017-08-31T15:43:12Z</responseDate>
  <request verb="ListIdentifiers" resumptionToken=".eJyNyj0LgkAYAOD_8s4S95FoQkto4qByXYq6hJ0i5WniFelF_z2X5pqf5wWqritw0IpsTGKZmKxtjDfYNqkBSow3KU-XxUFkqRS9TEo_fRy6FOWksSJXTaGb00i3KO6w5ntGMmxPyQXN7Jjcc32YUho8OfKsULM5ugbLq2jsy-LsDzzpd5KTaow9NnO84wUV34f_fPrnc9UWDBjKpgaHUtOA9lmOjQLn9X5_AM_sUW8.DInAEA.MQdy_Tfv0EdibltyeD0Kneb0II0">https://zenodo.org/oai2d</request>
  <ListIdentifiers>
    <header>
      <identifier>oai:zenodo.org:236778</identifier>
      <datestamp>2017-01-10T04:53:04Z</datestamp>
      <setSpec>user-biosyslit</setSpec>
    </header>
    <header>
      <identifier>oai:zenodo.org:236769</identifier>
      <datestamp>2017-01-10T04:52:35Z</datestamp>
      <setSpec>user-biosyslit</setSpec>
    </header>
    <header>
      <identifier>oai:zenodo.org:236774</identifier>
      <datestamp>2017-01-10T04:52:51Z</datestamp>
      <setSpec>user-biosyslit</setSpec>
    </header>
    <header>
      <identifier>oai:zenodo.org:236775</identifier>
      <datestamp>2017-01-10T04:52:53Z</datestamp>
      <setSpec>user-biosyslit</setSpec>
    </header>
    <header>
      <identifier>oai:zenodo.org:261594</identifier>
      <datestamp>2017-01-28T11:12:55Z</datestamp>
      <setSpec>user-biosyslit</setSpec>
    </header>
    <header>
      <identifier>oai:zenodo.org:261588</identifier>
      <datestamp>2017-01-28T11:12:37Z</datestamp>
      <setSpec>user-biosyslit</setSpec>
    </header>
    <header>
      <identifier>oai:zenodo.org:261595</identifier>
      <datestamp>2017-01-28T11:12:59Z</datestamp>
      <setSpec>user-biosyslit</setSpec>
    </header>
    <header>
      <identifier>oai:zenodo.org:261587</identifier>
      <datestamp>2017-01-28T11:12:35Z</datestamp>
      <setSpec>user-biosyslit</setSpec>
    </header>
    <header>
      <identifier>oai:zenodo.org:261578</identifier>
      <datestamp>2017-01-28T11:12:10Z</datestamp>
      <setSpec>user-biosyslit</setSpec>
    </header>
    <header>
      <identifier>oai:zenodo.org:261589</identifier>
      <datestamp>2017-01-28T11:12:39Z</datestamp>
      <setSpec>user-biosyslit</setSpec>
    </header>
    <header>
      <identifier>oai:zenodo.org:261590</identifier>
      <datestamp>2017-01-28T11:12:43Z</datestamp>
      <setSpec>user-biosyslit</setSpec>
    </header>
    <header>
      <identifier>oai:zenodo.org:261579</identifier>
      <datestamp>2017-01-28T11:12:13Z</datestamp>
      <setSpec>user-biosyslit</setSpec>
    </header>
    <header>
      <identifier>oai:zenodo.org:261592</identifier>
      <datestamp>2017-01-28T11:12:49Z</datestamp>
      <setSpec>user-biosyslit</setSpec>
    </header>
    <header>
      <identifier>oai:zenodo.org:280836</identifier>
      <datestamp>2017-02-09T04:10:56Z</datestamp>
      <setSpec>user-biosyslit</setSpec>
    </header>
    <header>
      <identifier>oai:zenodo.org:280839</identifier>
      <datestamp>2017-02-09T04:10:41Z</datestamp>
      <setSpec>user-biosyslit</setSpec>
    </header>
    <header>
      <identifier>oai:zenodo.org:280838</identifier>
      <datestamp>2017-02-09T04:10:38Z</datestamp>
      <setSpec>user-biosyslit</setSpec>
    </header>
    <header>
      <identifier>oai:zenodo.org:280840</identifier>
      <datestamp>2017-02-09T04:10:43Z</datestamp>
      <setSpec>user-biosyslit</setSpec>
    </header>
    <header>
      <identifier>oai:zenodo.org:253789</identifier>
      <datestamp>2017-01-20T11:10:26Z</datestamp>
      <setSpec>user-biosyslit</setSpec>
    </header>
    <header>
      <identifier>oai:zenodo.org:250370</identifier>
      <datestamp>2017-01-18T09:08:17Z</datestamp>
      <setSpec>user-biosyslit</setSpec>
    </header>
    <header>
      <identifier>oai:zenodo.org:253788</identifier>
      <datestamp>2017-01-20T11:10:21Z</datestamp>
      <setSpec>user-biosyslit</setSpec>
    </header>
    <header>
      <identifier>oai:zenodo.org:250367</identifier>
      <datestamp>2017-01-18T09:07:59Z</datestamp>
      <setSpec>user-biosyslit</setSpec>
    </header>
    <header>
      <identifier>oai:zenodo.org:287631</identifier>
      <datestamp>2017-02-09T18:48:16Z</datestamp>
      <setSpec>user-biosyslit</setSpec>
    </header>
    <header>
      <identifier>oai:zenodo.org:250374</identifier>
      <datestamp>2017-01-18T09:08:36Z</datestamp>
      <setSpec>user-biosyslit</setSpec>
    </header>
    <header>
      <identifier>oai:zenodo.org:250376</identifier>
      <datestamp>2017-01-18T09:08:45Z</datestamp>
      <setSpec>user-biosyslit</setSpec>
    </header>
    <header>
      <identifier>oai:zenodo.org:287632</identifier>
      <datestamp>2017-02-09T18:48:18Z</datestamp>
      <setSpec>user-biosyslit</setSpec>
    </header>
    <header>
      <identifier>oai:zenodo.org:250371</identifier>
      <datestamp>2017-01-18T09:08:21Z</datestamp>
      <setSpec>user-biosyslit</setSpec>
    </header>
    <header>
      <identifier>oai:zenodo.org:252462</identifier>
      <datestamp>2017-01-19T14:47:22Z</datestamp>
      <setSpec>user-biosyslit</setSpec>
    </header>
    <header>
      <identifier>oai:zenodo.org:283709</identifier>
      <datestamp>2017-02-09T09:31:33Z</datestamp>
      <setSpec>user-biosyslit</setSpec>
    </header>
    <header>
      <identifier>oai:zenodo.org:283710</identifier>
      <datestamp>2017-02-09T09:31:35Z</datestamp>
      <setSpec>user-biosyslit</setSpec>
    </header>
    <header>
      <identifier>oai:zenodo.org:283708</identifier>
      <datestamp>2017-02-09T09:31:31Z</datestamp>
      <setSpec>user-biosyslit</setSpec>
    </header>
    <header>
      <identifier>oai:zenodo.org:283706</identifier>
      <datestamp>2017-02-09T09:31:27Z</datestamp>
      <setSpec>user-biosyslit</setSpec>
    </header>
    <header>
      <identifier>oai:zenodo.org:283704</identifier>
      <datestamp>2017-02-09T09:31:21Z</datestamp>
      <setSpec>user-biosyslit</setSpec>
    </header>
    <header>
      <identifier>oai:zenodo.org:252478</identifier>
      <datestamp>2017-01-19T14:47:14Z</datestamp>
      <setSpec>user-biosyslit</setSpec>
    </header>
    <header>
      <identifier>oai:zenodo.org:283703</identifier>
      <datestamp>2017-02-09T09:31:19Z</datestamp>
      <setSpec>user-biosyslit</setSpec>
    </header>
    <header>
      <identifier>oai:zenodo.org:252477</identifier>
      <datestamp>2017-01-19T14:47:11Z</datestamp>
      <setSpec>user-biosyslit</setSpec>
    </header>
    <header>
      <identifier>oai:zenodo.org:267022</identifier>
      <datestamp>2017-02-01T18:31:08Z</datestamp>
      <setSpec>user-biosyslit</setSpec>
    </header>
    <header>
      <identifier>oai:zenodo.org:267043</identifier>
      <datestamp>2017-02-01T18:31:06Z</datestamp>
      <setSpec>user-biosyslit</setSpec>
    </header>
    <header>
      <identifier>oai:zenodo.org:250300</identifier>
      <datestamp>2017-01-18T08:15:17Z</datestamp>
      <setSpec>user-biosyslit</setSpec>
    </header>
    <header>
      <identifier>oai:zenodo.org:267040</identifier>
      <datestamp>2017-02-01T18:30:57Z</datestamp>
      <setSpec>user-biosyslit</setSpec>
    </header>
    <header>
      <identifier>oai:zenodo.org:267042</identifier>
      <datestamp>2017-02-01T18:31:02Z</datestamp>
      <setSpec>user-biosyslit</setSpec>
    </header>
    <header>
      <identifier>oai:zenodo.org:250307</identifier>
      <datestamp>2017-01-18T08:15:44Z</datestamp>
      <setSpec>user-biosyslit</setSpec>
    </header>
    <header>
      <identifier>oai:zenodo.org:250302</identifier>
      <datestamp>2017-01-18T08:15:25Z</datestamp>
      <setSpec>user-biosyslit</setSpec>
    </header>
    <header>
      <identifier>oai:zenodo.org:250301</identifier>
      <datestamp>2017-01-18T08:15:20Z</datestamp>
      <setSpec>user-biosyslit</setSpec>
    </header>
    <header>
      <identifier>oai:zenodo.org:267041</identifier>
      <datestamp>2017-02-01T18:30:59Z</datestamp>
      <setSpec>user-biosyslit</setSpec>
    </header>
    <header>
      <identifier>oai:zenodo.org:233570</identifier>
      <datestamp>2017-01-08T08:33:00Z</datestamp>
      <setSpec>user-biosyslit</setSpec>
    </header>
    <header>
      <identifier>oai:zenodo.org:233555</identifier>
      <datestamp>2017-01-08T08:32:11Z</datestamp>
      <setSpec>user-biosyslit</setSpec>
    </header>
    <header>
      <identifier>oai:zenodo.org:233564</identifier>
      <datestamp>2017-01-08T08:32:40Z</datestamp>
      <setSpec>user-biosyslit</setSpec>
    </header>
    <header>
      <identifier>oai:zenodo.org:233562</identifier>
      <datestamp>2017-01-08T08:32:33Z</datestamp>
      <setSpec>user-biosyslit</setSpec>
    </header>
    <header>
      <identifier>oai:zenodo.org:233557</identifier>
      <datestamp>2017-01-08T08:32:18Z</datestamp>
      <setSpec>user-biosyslit</setSpec>
    </header>
    <header>
      <identifier>oai:zenodo.org:233573</identifier>
      <datestamp>2017-01-08T08:33:09Z</datestamp>
      <setSpec>user-biosyslit</setSpec>
    </header>
    <header>
      <identifier>oai:zenodo.org:233558</identifier>
      <datestamp>2017-01-08T08:32:21Z</datestamp>
      <setSpec>user-biosyslit</setSpec>
    </header>
    <header>
      <identifier>oai:zenodo.org:233563</identifier>
      <datestamp>2017-01-08T08:32:37Z</datestamp>
      <setSpec>user-biosyslit</setSpec>
    </header>
    <header>
      <identifier>oai:zenodo.org:233572</identifier>
      <datestamp>2017-01-08T08:33:06Z</datestamp>
      <setSpec>user-biosyslit</setSpec>
    </header>
    <header>
      <identifier>oai:zenodo.org:233587</identifier>
      <datestamp>2017-01-08T08:34:08Z</datestamp>
      <setSpec>user-biosyslit</setSpec>
    </header>
    <header>
      <identifier>oai:zenodo.org:233590</identifier>
      <datestamp>2017-01-08T08:34:18Z</datestamp>
      <setSpec>user-biosyslit</setSpec>
    </header>
    <header>
      <identifier>oai:zenodo.org:240669</identifier>
      <datestamp>2017-01-12T12:30:34Z</datestamp>
      <setSpec>user-biosyslit</setSpec>
    </header>
    <header>
      <identifier>oai:zenodo.org:240668</identifier>
      <datestamp>2017-01-12T12:30:31Z</datestamp>
      <setSpec>user-biosyslit</setSpec>
    </header>
    <header>
      <identifier>oai:zenodo.org:283540</identifier>
      <datestamp>2017-02-09T09:09:34Z</datestamp>
      <setSpec>user-biosyslit</setSpec>
    </header>
    <header>
      <identifier>oai:zenodo.org:271772</identifier>
      <datestamp>2017-02-08T02:38:15Z</datestamp>
      <setSpec>user-biosyslit</setSpec>
    </header>
    <header>
      <identifier>oai:zenodo.org:271774</identifier>
      <datestamp>2017-02-08T02:38:09Z</datestamp>
      <setSpec>user-biosyslit</setSpec>
    </header>
    <header>
      <identifier>oai:zenodo.org:271775</identifier>
      <datestamp>2017-02-08T02:38:12Z</datestamp>
      <setSpec>user-biosyslit</setSpec>
    </header>
    <header>
      <identifier>oai:zenodo.org:271773</identifier>
      <datestamp>2017-02-08T02:38:04Z</datestamp>
      <setSpec>user-biosyslit</setSpec>
    </header>
    <header>
      <identifier>oai:zenodo.org:238565</identifier>
      <datestamp>2017-01-11T07:43:02Z</datestamp>
      <setSpec>user-biosyslit</setSpec>
    </header>
    <header>
      <identifier>oai:zenodo.org:238564</identifier>
      <datestamp>2017-01-11T07:42:59Z</datestamp>
      <setSpec>user-biosyslit</setSpec>
    </header>
    <header>
      <identifier>oai:zenodo.org:280750</identifier>
      <datestamp>2017-02-09T04:00:23Z</datestamp>
      <setSpec>user-biosyslit</setSpec>
    </header>
    <header>
      <identifier>oai:zenodo.org:238563</identifier>
      <datestamp>2017-01-11T07:42:56Z</datestamp>
      <setSpec>user-biosyslit</setSpec>
    </header>
    <header>
      <identifier>oai:zenodo.org:280751</identifier>
      <datestamp>2017-02-09T04:00:25Z</datestamp>
      <setSpec>user-biosyslit</setSpec>
    </header>
    <header>
      <identifier>oai:zenodo.org:240277</identifier>
      <datestamp>2017-01-12T06:48:14Z</datestamp>
      <setSpec>user-biosyslit</setSpec>
    </header>
    <header>
      <identifier>oai:zenodo.org:248009</identifier>
      <datestamp>2017-01-16T22:45:18Z</datestamp>
      <setSpec>user-biosyslit</setSpec>
    </header>
    <header>
      <identifier>oai:zenodo.org:236913</identifier>
      <datestamp>2017-01-10T08:14:29Z</datestamp>
      <setSpec>user-biosyslit</setSpec>
    </header>
    <header>
      <identifier>oai:zenodo.org:236916</identifier>
      <datestamp>2017-01-10T08:14:41Z</datestamp>
      <setSpec>user-biosyslit</setSpec>
    </header>
    <header>
      <identifier>oai:zenodo.org:236915</identifier>
      <datestamp>2017-01-10T08:14:38Z</datestamp>
      <setSpec>user-biosyslit</setSpec>
    </header>
    <header>
      <identifier>oai:zenodo.org:248019</identifier>
      <datestamp>2017-01-16T22:45:04Z</datestamp>
      <setSpec>user-biosyslit</setSpec>
    </header>
    <header>
      <identifier>oai:zenodo.org:236914</identifier>
      <datestamp>2017-01-10T08:14:33Z</datestamp>
      <setSpec>user-biosyslit</setSpec>
    </header>
    <header>
      <identifier>oai:zenodo.org:248018</identifier>
      <datestamp>2017-01-16T22:45:01Z</datestamp>
      <setSpec>user-biosyslit</setSpec>
    </header>
    <header>
      <identifier>oai:zenodo.org:241489</identifier>
      <datestamp>2017-01-13T02:05:05Z</datestamp>
      <setSpec>user-biosyslit</setSpec>
    </header>
    <header>
      <identifier>oai:zenodo.org:241492</identifier>
      <datestamp>2017-01-13T02:05:00Z</datestamp>
      <setSpec>user-biosyslit</setSpec>
    </header>
    <header>
      <identifier>oai:zenodo.org:241491</identifier>
      <datestamp>2017-01-13T02:04:57Z</datestamp>
      <setSpec>user-biosyslit</setSpec>
    </header>
    <header>
      <identifier>oai:zenodo.org:230822</identifier>
      <datestamp>2017-01-05T08:52:11Z</datestamp>
      <setSpec>user-biosyslit</setSpec>
    </header>
    <header>
      <identifier>oai:zenodo.org:227368</identifier>
      <datestamp>2017-01-01T19:51:58Z</datestamp>
      <setSpec>user-biosyslit</setSpec>
    </header>
    <header>
      <identifier>oai:zenodo.org:237180</identifier>
      <datestamp>2017-01-10T11:49:31Z</datestamp>
      <setSpec>user-biosyslit</setSpec>
    </header>
    <header>
      <identifier>oai:zenodo.org:227370</identifier>
      <datestamp>2017-01-01T19:51:54Z</datestamp>
      <setSpec>user-biosyslit</setSpec>
    </header>
    <header>
      <identifier>oai:zenodo.org:227371</identifier>
      <datestamp>2017-01-01T19:51:56Z</datestamp>
      <setSpec>user-biosyslit</setSpec>
    </header>
    <header>
      <identifier>oai:zenodo.org:227369</identifier>
      <datestamp>2017-01-01T19:51:51Z</datestamp>
      <setSpec>user-biosyslit</setSpec>
    </header>
    <header>
      <identifier>oai:zenodo.org:227285</identifier>
      <datestamp>2017-01-01T18:58:15Z</datestamp>
      <setSpec>user-biosyslit</setSpec>
    </header>
    <header>
      <identifier>oai:zenodo.org:238808</identifier>
      <datestamp>2017-01-11T11:13:34Z</datestamp>
      <setSpec>user-biosyslit</setSpec>
    </header>
    <header>
      <identifier>oai:zenodo.org:244515</identifier>
      <datestamp>2017-01-14T23:01:06Z</datestamp>
      <setSpec>user-biosyslit</setSpec>
    </header>
    <header>
      <identifier>oai:zenodo.org:244518</identifier>
      <datestamp>2017-01-14T23:01:03Z</datestamp>
      <setSpec>user-biosyslit</setSpec>
    </header>
    <header>
      <identifier>oai:zenodo.org:244516</identifier>
      <datestamp>2017-01-14T23:00:54Z</datestamp>
      <setSpec>user-biosyslit</setSpec>
    </header>
    <header>
      <identifier>oai:zenodo.org:293975</identifier>
      <datestamp>2017-02-20T19:04:40Z</datestamp>
      <setSpec>user-biosyslit</setSpec>
    </header>
    <header>
      <identifier>oai:zenodo.org:248307</identifier>
      <datestamp>2017-01-17T02:36:57Z</datestamp>
      <setSpec>user-biosyslit</setSpec>
    </header>
    <header>
      <identifier>oai:zenodo.org:240101</identifier>
      <datestamp>2017-01-12T04:42:44Z</datestamp>
      <setSpec>user-biosyslit</setSpec>
    </header>
    <header>
      <identifier>oai:zenodo.org:240104</identifier>
      <datestamp>2017-01-12T04:42:38Z</datestamp>
      <setSpec>user-biosyslit</setSpec>
    </header>
    <header>
      <identifier>oai:zenodo.org:237464</identifier>
      <datestamp>2017-01-10T15:55:36Z</datestamp>
      <setSpec>user-biosyslit</setSpec>
    </header>
    <header>
      <identifier>oai:zenodo.org:237463</identifier>
      <datestamp>2017-01-10T15:55:33Z</datestamp>
      <setSpec>user-biosyslit</setSpec>
    </header>
    <header>
      <identifier>oai:zenodo.org:240105</identifier>
      <datestamp>2017-01-12T04:42:43Z</datestamp>
      <setSpec>user-biosyslit</setSpec>
    </header>
    <header>
      <identifier>oai:zenodo.org:240102</identifier>
      <datestamp>2017-01-12T04:42:24Z</datestamp>
      <setSpec>user-biosyslit</setSpec>
    </header>
    <header>
      <identifier>oai:zenodo.org:285838</identifier>
      <datestamp>2017-02-09T14:41:14Z</datestamp>
      <setSpec>user-biosyslit</setSpec>
    </header>
    <header>
      <identifier>oai:zenodo.org:285837</identifier>
      <datestamp>2017-02-09T14:41:12Z</datestamp>
      <setSpec>user-biosyslit</setSpec>
    </header>
    <header>
      <identifier>oai:zenodo.org:285835</identifier>
      <datestamp>2017-02-09T14:41:08Z</datestamp>
      <setSpec>user-biosyslit</setSpec>
    </header>
    <resumptionToken expirationDate="2017-08-31T15:45:12Z" cursor="33400" completeListSize="77796">.eJyNysEKgjAYAOB3-c8Sm0tdQhfRpIOKLkW9hKlIOU1coS5697x0rvP3vUDUdQUm2mhkq1FdV9GOUop1TQFRjnfOz9eVoUwTXvY8LtzkGXUJytTG8G0xe3ZGfNmioMOSHUI1xXSOr2gJT_Ejk9GckOPEkGN4Mlz823F9FQlcnl_cgcW9xZlajYETLgxbLCfl9-E_n_z5bLEHBYaiqcEkRFegnYqxEWC-3u8PqR1RSw.DInAEA.URbFqDO_XHePgN0jJih4I2W0FEw</resumptionToken>
  </ListIdentifiers>
</OAI-PMH>
