<?xml version='1.0' encoding='UTF-8'?>
<?xml-stylesheet type="text/xsl" href="/static/xsl/oai2.v1.0.xsl"?>
<OAI-PMH xmlns="http://www.openarchives.org/OAI/2.0/" xmlns:xsi="http://www.w3.org/2001/XMLSchema-instance" xsi:schemaLocation="http://www.openarchives.org/OAI/2.0/ http://www.openarchives.org/OAI/2.0/OAI-PMH.xsd">
  <responseDate>2017-08-31T15:45:49Z</responseDate>
  <request verb="ListIdentifiers" resumptionToken=".eJyNyj0LgkAYAOD_8s4S91HaCS2hiYPKdSnqEqYi5lnhFelF_z2X5pqf5wWqriuw0WLFlpRYpkWWiDBmYgNUOVylPLYzQ5kmsrzIuPCSx75PUEYaK3TUGDgZDXWHoh5rseMkxesxbtHED_E90_sxof5TINcKNJ_Csz-_ikaezE_eTcSXrRSkGiKXTwJvRU7L78N_Pv3zOWoDBtyKpgbbZMiA7lkMjQL79X5_AKIiUUY.DInArQ.h9EBuBs6fzT2gA5BkfNC_sUn9lQ">https://zenodo.org/oai2d</request>
  <ListIdentifiers>
    <header>
      <identifier>oai:zenodo.org:282653</identifier>
      <datestamp>2017-02-09T07:23:41Z</datestamp>
      <setSpec>user-biosyslit</setSpec>
    </header>
    <header>
      <identifier>oai:zenodo.org:282655</identifier>
      <datestamp>2017-02-09T07:23:45Z</datestamp>
      <setSpec>user-biosyslit</setSpec>
    </header>
    <header>
      <identifier>oai:zenodo.org:282654</identifier>
      <datestamp>2017-02-09T07:23:43Z</datestamp>
      <setSpec>user-biosyslit</setSpec>
    </header>
    <header>
      <identifier>oai:zenodo.org:282658</identifier>
      <datestamp>2017-02-09T07:23:51Z</datestamp>
      <setSpec>user-biosyslit</setSpec>
    </header>
    <header>
      <identifier>oai:zenodo.org:282656</identifier>
      <datestamp>2017-02-09T07:23:47Z</datestamp>
      <setSpec>user-biosyslit</setSpec>
    </header>
    <header>
      <identifier>oai:zenodo.org:282651</identifier>
      <datestamp>2017-02-09T07:23:35Z</datestamp>
      <setSpec>user-biosyslit</setSpec>
    </header>
    <header>
      <identifier>oai:zenodo.org:282659</identifier>
      <datestamp>2017-02-09T07:23:53Z</datestamp>
      <setSpec>user-biosyslit</setSpec>
    </header>
    <header>
      <identifier>oai:zenodo.org:248884</identifier>
      <datestamp>2017-01-17T13:30:54Z</datestamp>
      <setSpec>user-biosyslit</setSpec>
    </header>
    <header>
      <identifier>oai:zenodo.org:248883</identifier>
      <datestamp>2017-01-17T13:30:51Z</datestamp>
      <setSpec>user-biosyslit</setSpec>
    </header>
    <header>
      <identifier>oai:zenodo.org:248882</identifier>
      <datestamp>2017-01-17T13:30:48Z</datestamp>
      <setSpec>user-biosyslit</setSpec>
    </header>
    <header>
      <identifier>oai:zenodo.org:248881</identifier>
      <datestamp>2017-01-17T13:30:44Z</datestamp>
      <setSpec>user-biosyslit</setSpec>
    </header>
    <header>
      <identifier>oai:zenodo.org:248889</identifier>
      <datestamp>2017-01-17T13:31:12Z</datestamp>
      <setSpec>user-biosyslit</setSpec>
    </header>
    <header>
      <identifier>oai:zenodo.org:248880</identifier>
      <datestamp>2017-01-17T13:30:39Z</datestamp>
      <setSpec>user-biosyslit</setSpec>
    </header>
    <header>
      <identifier>oai:zenodo.org:248890</identifier>
      <datestamp>2017-01-17T13:31:15Z</datestamp>
      <setSpec>user-biosyslit</setSpec>
    </header>
    <header>
      <identifier>oai:zenodo.org:248892</identifier>
      <datestamp>2017-01-17T13:31:24Z</datestamp>
      <setSpec>user-biosyslit</setSpec>
    </header>
    <header>
      <identifier>oai:zenodo.org:238663</identifier>
      <datestamp>2017-01-11T08:52:03Z</datestamp>
      <setSpec>user-biosyslit</setSpec>
    </header>
    <header>
      <identifier>oai:zenodo.org:238662</identifier>
      <datestamp>2017-01-11T08:51:58Z</datestamp>
      <setSpec>user-biosyslit</setSpec>
    </header>
    <header>
      <identifier>oai:zenodo.org:233435</identifier>
      <datestamp>2017-01-08T05:03:34Z</datestamp>
      <setSpec>user-biosyslit</setSpec>
    </header>
    <header>
      <identifier>oai:zenodo.org:233439</identifier>
      <datestamp>2017-01-08T05:03:28Z</datestamp>
      <setSpec>user-biosyslit</setSpec>
    </header>
    <header>
      <identifier>oai:zenodo.org:245769</identifier>
      <datestamp>2017-01-15T18:22:17Z</datestamp>
      <setSpec>user-biosyslit</setSpec>
    </header>
    <header>
      <identifier>oai:zenodo.org:233472</identifier>
      <datestamp>2017-01-08T05:35:55Z</datestamp>
      <setSpec>user-biosyslit</setSpec>
    </header>
    <header>
      <identifier>oai:zenodo.org:233471</identifier>
      <datestamp>2017-01-08T05:35:53Z</datestamp>
      <setSpec>user-biosyslit</setSpec>
    </header>
    <header>
      <identifier>oai:zenodo.org:233475</identifier>
      <datestamp>2017-01-08T05:36:06Z</datestamp>
      <setSpec>user-biosyslit</setSpec>
    </header>
    <header>
      <identifier>oai:zenodo.org:233473</identifier>
      <datestamp>2017-01-08T05:35:59Z</datestamp>
      <setSpec>user-biosyslit</setSpec>
    </header>
    <header>
      <identifier>oai:zenodo.org:245766</identifier>
      <datestamp>2017-01-15T18:22:08Z</datestamp>
      <setSpec>user-biosyslit</setSpec>
    </header>
    <header>
      <identifier>oai:zenodo.org:233477</identifier>
      <datestamp>2017-01-08T05:36:12Z</datestamp>
      <setSpec>user-biosyslit</setSpec>
    </header>
    <header>
      <identifier>oai:zenodo.org:245768</identifier>
      <datestamp>2017-01-15T18:22:12Z</datestamp>
      <setSpec>user-biosyslit</setSpec>
    </header>
    <header>
      <identifier>oai:zenodo.org:233476</identifier>
      <datestamp>2017-01-08T05:36:08Z</datestamp>
      <setSpec>user-biosyslit</setSpec>
    </header>
    <header>
      <identifier>oai:zenodo.org:282983</identifier>
      <datestamp>2017-02-09T07:58:12Z</datestamp>
      <setSpec>user-biosyslit</setSpec>
    </header>
    <header>
      <identifier>oai:zenodo.org:282987</identifier>
      <datestamp>2017-02-09T07:58:21Z</datestamp>
      <setSpec>user-biosyslit</setSpec>
    </header>
    <header>
      <identifier>oai:zenodo.org:235393</identifier>
      <datestamp>2017-01-09T09:43:54Z</datestamp>
      <setSpec>user-biosyslit</setSpec>
    </header>
    <header>
      <identifier>oai:zenodo.org:235389</identifier>
      <datestamp>2017-01-09T09:43:39Z</datestamp>
      <setSpec>user-biosyslit</setSpec>
    </header>
    <header>
      <identifier>oai:zenodo.org:235392</identifier>
      <datestamp>2017-01-09T09:43:49Z</datestamp>
      <setSpec>user-biosyslit</setSpec>
    </header>
    <header>
      <identifier>oai:zenodo.org:235388</identifier>
      <datestamp>2017-01-09T09:43:34Z</datestamp>
      <setSpec>user-biosyslit</setSpec>
    </header>
    <header>
      <identifier>oai:zenodo.org:282997</identifier>
      <datestamp>2017-02-09T07:58:42Z</datestamp>
      <setSpec>user-biosyslit</setSpec>
    </header>
    <header>
      <identifier>oai:zenodo.org:282991</identifier>
      <datestamp>2017-02-09T07:58:29Z</datestamp>
      <setSpec>user-biosyslit</setSpec>
    </header>
    <header>
      <identifier>oai:zenodo.org:282995</identifier>
      <datestamp>2017-02-09T07:58:38Z</datestamp>
      <setSpec>user-biosyslit</setSpec>
    </header>
    <header>
      <identifier>oai:zenodo.org:235397</identifier>
      <datestamp>2017-01-09T09:44:13Z</datestamp>
      <setSpec>user-biosyslit</setSpec>
    </header>
    <header>
      <identifier>oai:zenodo.org:235400</identifier>
      <datestamp>2017-01-09T09:44:25Z</datestamp>
      <setSpec>user-biosyslit</setSpec>
    </header>
    <header>
      <identifier>oai:zenodo.org:235399</identifier>
      <datestamp>2017-01-09T09:44:23Z</datestamp>
      <setSpec>user-biosyslit</setSpec>
    </header>
    <header>
      <identifier>oai:zenodo.org:234229</identifier>
      <datestamp>2017-01-08T17:01:26Z</datestamp>
      <setSpec>user-biosyslit</setSpec>
    </header>
    <header>
      <identifier>oai:zenodo.org:282171</identifier>
      <datestamp>2017-02-09T06:34:02Z</datestamp>
      <setSpec>user-biosyslit</setSpec>
    </header>
    <header>
      <identifier>oai:zenodo.org:231319</identifier>
      <datestamp>2017-01-05T19:42:18Z</datestamp>
      <setSpec>user-biosyslit</setSpec>
    </header>
    <header>
      <identifier>oai:zenodo.org:282176</identifier>
      <datestamp>2017-02-09T06:34:01Z</datestamp>
      <setSpec>user-biosyslit</setSpec>
    </header>
    <header>
      <identifier>oai:zenodo.org:282175</identifier>
      <datestamp>2017-02-09T06:33:59Z</datestamp>
      <setSpec>user-biosyslit</setSpec>
    </header>
    <header>
      <identifier>oai:zenodo.org:228519</identifier>
      <datestamp>2017-01-03T00:50:03Z</datestamp>
      <setSpec>user-biosyslit</setSpec>
    </header>
    <header>
      <identifier>oai:zenodo.org:282172</identifier>
      <datestamp>2017-02-09T06:33:53Z</datestamp>
      <setSpec>user-biosyslit</setSpec>
    </header>
    <header>
      <identifier>oai:zenodo.org:282173</identifier>
      <datestamp>2017-02-09T06:33:55Z</datestamp>
      <setSpec>user-biosyslit</setSpec>
    </header>
    <header>
      <identifier>oai:zenodo.org:228514</identifier>
      <datestamp>2017-01-03T00:50:10Z</datestamp>
      <setSpec>user-biosyslit</setSpec>
    </header>
    <header>
      <identifier>oai:zenodo.org:246021</identifier>
      <datestamp>2017-01-15T21:09:45Z</datestamp>
      <setSpec>user-biosyslit</setSpec>
    </header>
    <header>
      <identifier>oai:zenodo.org:246025</identifier>
      <datestamp>2017-01-15T21:09:34Z</datestamp>
      <setSpec>user-biosyslit</setSpec>
    </header>
    <header>
      <identifier>oai:zenodo.org:246024</identifier>
      <datestamp>2017-01-15T21:09:28Z</datestamp>
      <setSpec>user-biosyslit</setSpec>
    </header>
    <header>
      <identifier>oai:zenodo.org:246026</identifier>
      <datestamp>2017-01-15T21:09:38Z</datestamp>
      <setSpec>user-biosyslit</setSpec>
    </header>
    <header>
      <identifier>oai:zenodo.org:246022</identifier>
      <datestamp>2017-01-15T21:09:21Z</datestamp>
      <setSpec>user-biosyslit</setSpec>
    </header>
    <header>
      <identifier>oai:zenodo.org:228520</identifier>
      <datestamp>2017-01-03T00:50:07Z</datestamp>
      <setSpec>user-biosyslit</setSpec>
    </header>
    <header>
      <identifier>oai:zenodo.org:280407</identifier>
      <datestamp>2017-02-09T03:21:03Z</datestamp>
      <setSpec>user-biosyslit</setSpec>
    </header>
    <header>
      <identifier>oai:zenodo.org:275591</identifier>
      <datestamp>2017-02-08T16:45:49Z</datestamp>
      <setSpec>user-biosyslit</setSpec>
    </header>
    <header>
      <identifier>oai:zenodo.org:240707</identifier>
      <datestamp>2017-01-12T12:52:37Z</datestamp>
      <setSpec>user-biosyslit</setSpec>
    </header>
    <header>
      <identifier>oai:zenodo.org:275593</identifier>
      <datestamp>2017-02-08T16:45:42Z</datestamp>
      <setSpec>user-biosyslit</setSpec>
    </header>
    <header>
      <identifier>oai:zenodo.org:240708</identifier>
      <datestamp>2017-01-12T12:52:40Z</datestamp>
      <setSpec>user-biosyslit</setSpec>
    </header>
    <header>
      <identifier>oai:zenodo.org:240706</identifier>
      <datestamp>2017-01-12T12:52:34Z</datestamp>
      <setSpec>user-biosyslit</setSpec>
    </header>
    <header>
      <identifier>oai:zenodo.org:280410</identifier>
      <datestamp>2017-02-09T03:21:13Z</datestamp>
      <setSpec>user-biosyslit</setSpec>
    </header>
    <header>
      <identifier>oai:zenodo.org:235464</identifier>
      <datestamp>2017-01-09T10:23:36Z</datestamp>
      <setSpec>user-biosyslit</setSpec>
    </header>
    <header>
      <identifier>oai:zenodo.org:240709</identifier>
      <datestamp>2017-01-12T12:52:43Z</datestamp>
      <setSpec>user-biosyslit</setSpec>
    </header>
    <header>
      <identifier>oai:zenodo.org:240713</identifier>
      <datestamp>2017-01-12T12:52:54Z</datestamp>
      <setSpec>user-biosyslit</setSpec>
    </header>
    <header>
      <identifier>oai:zenodo.org:240712</identifier>
      <datestamp>2017-01-12T12:52:52Z</datestamp>
      <setSpec>user-biosyslit</setSpec>
    </header>
    <header>
      <identifier>oai:zenodo.org:240710</identifier>
      <datestamp>2017-01-12T12:52:46Z</datestamp>
      <setSpec>user-biosyslit</setSpec>
    </header>
    <header>
      <identifier>oai:zenodo.org:235466</identifier>
      <datestamp>2017-01-09T10:22:57Z</datestamp>
      <setSpec>user-biosyslit</setSpec>
    </header>
    <header>
      <identifier>oai:zenodo.org:235469</identifier>
      <datestamp>2017-01-09T10:23:12Z</datestamp>
      <setSpec>user-biosyslit</setSpec>
    </header>
    <header>
      <identifier>oai:zenodo.org:235470</identifier>
      <datestamp>2017-01-09T10:23:15Z</datestamp>
      <setSpec>user-biosyslit</setSpec>
    </header>
    <header>
      <identifier>oai:zenodo.org:235474</identifier>
      <datestamp>2017-01-09T10:23:28Z</datestamp>
      <setSpec>user-biosyslit</setSpec>
    </header>
    <header>
      <identifier>oai:zenodo.org:255651</identifier>
      <datestamp>2017-01-21T17:54:50Z</datestamp>
      <setSpec>user-biosyslit</setSpec>
    </header>
    <header>
      <identifier>oai:zenodo.org:250385</identifier>
      <datestamp>2017-01-18T09:40:44Z</datestamp>
      <setSpec>user-biosyslit</setSpec>
    </header>
    <header>
      <identifier>oai:zenodo.org:255650</identifier>
      <datestamp>2017-01-21T17:54:56Z</datestamp>
      <setSpec>user-biosyslit</setSpec>
    </header>
    <header>
      <identifier>oai:zenodo.org:250398</identifier>
      <datestamp>2017-01-18T09:40:43Z</datestamp>
      <setSpec>user-biosyslit</setSpec>
    </header>
    <header>
      <identifier>oai:zenodo.org:250397</identifier>
      <datestamp>2017-01-18T09:40:40Z</datestamp>
      <setSpec>user-biosyslit</setSpec>
    </header>
    <header>
      <identifier>oai:zenodo.org:250386</identifier>
      <datestamp>2017-01-18T09:39:59Z</datestamp>
      <setSpec>user-biosyslit</setSpec>
    </header>
    <header>
      <identifier>oai:zenodo.org:250395</identifier>
      <datestamp>2017-01-18T09:40:34Z</datestamp>
      <setSpec>user-biosyslit</setSpec>
    </header>
    <header>
      <identifier>oai:zenodo.org:250396</identifier>
      <datestamp>2017-01-18T09:40:38Z</datestamp>
      <setSpec>user-biosyslit</setSpec>
    </header>
    <header>
      <identifier>oai:zenodo.org:279921</identifier>
      <datestamp>2017-02-09T02:17:48Z</datestamp>
      <setSpec>user-biosyslit</setSpec>
    </header>
    <header>
      <identifier>oai:zenodo.org:279923</identifier>
      <datestamp>2017-02-09T02:17:36Z</datestamp>
      <setSpec>user-biosyslit</setSpec>
    </header>
    <header>
      <identifier>oai:zenodo.org:279925</identifier>
      <datestamp>2017-02-09T02:17:44Z</datestamp>
      <setSpec>user-biosyslit</setSpec>
    </header>
    <header>
      <identifier>oai:zenodo.org:274995</identifier>
      <datestamp>2017-02-08T14:59:56Z</datestamp>
      <setSpec>user-biosyslit</setSpec>
    </header>
    <header>
      <identifier>oai:zenodo.org:283478</identifier>
      <datestamp>2017-02-09T08:58:53Z</datestamp>
      <setSpec>user-biosyslit</setSpec>
    </header>
    <header>
      <identifier>oai:zenodo.org:283470</identifier>
      <datestamp>2017-02-09T08:58:30Z</datestamp>
      <setSpec>user-biosyslit</setSpec>
    </header>
    <header>
      <identifier>oai:zenodo.org:283473</identifier>
      <datestamp>2017-02-09T08:58:37Z</datestamp>
      <setSpec>user-biosyslit</setSpec>
    </header>
    <header>
      <identifier>oai:zenodo.org:283469</identifier>
      <datestamp>2017-02-09T08:58:24Z</datestamp>
      <setSpec>user-biosyslit</setSpec>
    </header>
    <header>
      <identifier>oai:zenodo.org:283475</identifier>
      <datestamp>2017-02-09T08:58:45Z</datestamp>
      <setSpec>user-biosyslit</setSpec>
    </header>
    <header>
      <identifier>oai:zenodo.org:283471</identifier>
      <datestamp>2017-02-09T08:58:32Z</datestamp>
      <setSpec>user-biosyslit</setSpec>
    </header>
    <header>
      <identifier>oai:zenodo.org:231209</identifier>
      <datestamp>2017-01-05T17:17:08Z</datestamp>
      <setSpec>user-biosyslit</setSpec>
    </header>
    <header>
      <identifier>oai:zenodo.org:285424</identifier>
      <datestamp>2017-02-09T13:33:16Z</datestamp>
      <setSpec>user-biosyslit</setSpec>
    </header>
    <header>
      <identifier>oai:zenodo.org:285422</identifier>
      <datestamp>2017-02-09T13:33:10Z</datestamp>
      <setSpec>user-biosyslit</setSpec>
    </header>
    <header>
      <identifier>oai:zenodo.org:245930</identifier>
      <datestamp>2017-01-15T19:35:59Z</datestamp>
      <setSpec>user-biosyslit</setSpec>
    </header>
    <header>
      <identifier>oai:zenodo.org:278349</identifier>
      <datestamp>2017-02-08T22:57:10Z</datestamp>
      <setSpec>user-biosyslit</setSpec>
    </header>
    <header>
      <identifier>oai:zenodo.org:281544</identifier>
      <datestamp>2017-02-09T05:30:12Z</datestamp>
      <setSpec>user-biosyslit</setSpec>
    </header>
    <header>
      <identifier>oai:zenodo.org:278350</identifier>
      <datestamp>2017-02-08T22:57:15Z</datestamp>
      <setSpec>user-biosyslit</setSpec>
    </header>
    <header>
      <identifier>oai:zenodo.org:281543</identifier>
      <datestamp>2017-02-09T05:30:10Z</datestamp>
      <setSpec>user-biosyslit</setSpec>
    </header>
    <header>
      <identifier>oai:zenodo.org:278348</identifier>
      <datestamp>2017-02-08T22:57:07Z</datestamp>
      <setSpec>user-biosyslit</setSpec>
    </header>
    <header>
      <identifier>oai:zenodo.org:278345</identifier>
      <datestamp>2017-02-08T22:57:01Z</datestamp>
      <setSpec>user-biosyslit</setSpec>
    </header>
    <header>
      <identifier>oai:zenodo.org:245938</identifier>
      <datestamp>2017-01-15T19:35:51Z</datestamp>
      <setSpec>user-biosyslit</setSpec>
    </header>
    <resumptionToken expirationDate="2017-08-31T15:47:49Z" cursor="68900" completeListSize="77796">.eJyNyj0LgkAYAOD_8s4S95FaQoto0qByXR7pEqYi1mnhFemF_z2X5pqf5w2qqkpw0AKZaEWIRTCx19RcGqCK_iblqZkViqOQRSeTPBDPfStQSmo78tQQeimN9BXFLdZ8y8gRr4akQSM7JI9U7wdBdy-OfDvUbIwuu_mVNA5kdg7uPOlcyUnZxz4bOXZ5Rovvw38-_fN5agMG3PO6AsdaYwOur7yvFTjvafoAXtpRAw.DInArQ.jHEuA93haYTS_tO6ncHCaLsn0qI</resumptionToken>
  </ListIdentifiers>
</OAI-PMH>
