<?xml version='1.0' encoding='UTF-8'?>
<?xml-stylesheet type="text/xsl" href="/static/xsl/oai2.v1.0.xsl"?>
<OAI-PMH xmlns="http://www.openarchives.org/OAI/2.0/" xmlns:xsi="http://www.w3.org/2001/XMLSchema-instance" xsi:schemaLocation="http://www.openarchives.org/OAI/2.0/ http://www.openarchives.org/OAI/2.0/OAI-PMH.xsd">
  <responseDate>2017-08-31T15:46:23Z</responseDate>
  <request verb="ListIdentifiers" resumptionToken=".eJyNyssKgkAUANB_uWuJeZAvaBOWuFDRaUTbhKmIOZU4hTriv-emda3PmUFWVQk22mDTxASblFiWQbeWTjWQRf8U4tKsDkWaiOIheO4m7_ieoIzURuDI0XcyGqgWhXes2DEiKTZH3qApOvFXpuIxod7A0MHwVTQFN299JQ1dcb66HeOPvWCk7MNDNDG8Z2dafB_-86mfz5E70KDL6wpsQ0catEPe1xLseVk-2uRRfQ.DInAzg.dybsIbAT2vlckcfEJ-NxJwAtu0s">https://zenodo.org/oai2d</request>
  <ListIdentifiers>
    <header>
      <identifier>oai:zenodo.org:828100</identifier>
      <datestamp>2017-07-15T08:42:38Z</datestamp>
      <setSpec>user-biosyslit</setSpec>
    </header>
    <header>
      <identifier>oai:zenodo.org:828208</identifier>
      <datestamp>2017-07-15T08:44:13Z</datestamp>
      <setSpec>user-biosyslit</setSpec>
    </header>
    <header>
      <identifier>oai:zenodo.org:828214</identifier>
      <datestamp>2017-07-15T08:44:25Z</datestamp>
      <setSpec>user-biosyslit</setSpec>
    </header>
    <header>
      <identifier>oai:zenodo.org:828188</identifier>
      <datestamp>2017-07-15T08:42:05Z</datestamp>
      <setSpec>user-biosyslit</setSpec>
    </header>
    <header>
      <identifier>oai:zenodo.org:828202</identifier>
      <datestamp>2017-07-15T08:42:31Z</datestamp>
      <setSpec>user-biosyslit</setSpec>
    </header>
    <header>
      <identifier>oai:zenodo.org:828176</identifier>
      <datestamp>2017-07-15T08:41:38Z</datestamp>
      <setSpec>user-biosyslit</setSpec>
    </header>
    <header>
      <identifier>oai:zenodo.org:828192</identifier>
      <datestamp>2017-07-15T08:42:12Z</datestamp>
      <setSpec>user-biosyslit</setSpec>
    </header>
    <header>
      <identifier>oai:zenodo.org:828204</identifier>
      <datestamp>2017-07-15T08:42:34Z</datestamp>
      <setSpec>user-biosyslit</setSpec>
    </header>
    <header>
      <identifier>oai:zenodo.org:828182</identifier>
      <datestamp>2017-07-15T08:41:48Z</datestamp>
      <setSpec>user-biosyslit</setSpec>
    </header>
    <header>
      <identifier>oai:zenodo.org:828403</identifier>
      <datestamp>2017-07-15T08:54:05Z</datestamp>
      <setSpec>user-biosyslit</setSpec>
    </header>
    <header>
      <identifier>oai:zenodo.org:828399</identifier>
      <datestamp>2017-07-15T08:53:13Z</datestamp>
      <setSpec>user-biosyslit</setSpec>
    </header>
    <header>
      <identifier>oai:zenodo.org:828407</identifier>
      <datestamp>2017-07-15T08:53:29Z</datestamp>
      <setSpec>user-biosyslit</setSpec>
    </header>
    <header>
      <identifier>oai:zenodo.org:828429</identifier>
      <datestamp>2017-07-15T08:54:30Z</datestamp>
      <setSpec>user-biosyslit</setSpec>
    </header>
    <header>
      <identifier>oai:zenodo.org:828401</identifier>
      <datestamp>2017-07-15T08:53:04Z</datestamp>
      <setSpec>user-biosyslit</setSpec>
    </header>
    <header>
      <identifier>oai:zenodo.org:828405</identifier>
      <datestamp>2017-07-15T08:53:22Z</datestamp>
      <setSpec>user-biosyslit</setSpec>
    </header>
    <header>
      <identifier>oai:zenodo.org:828431</identifier>
      <datestamp>2017-07-15T08:54:35Z</datestamp>
      <setSpec>user-biosyslit</setSpec>
    </header>
    <header>
      <identifier>oai:zenodo.org:828413</identifier>
      <datestamp>2017-07-15T08:53:42Z</datestamp>
      <setSpec>user-biosyslit</setSpec>
    </header>
    <header>
      <identifier>oai:zenodo.org:828421</identifier>
      <datestamp>2017-07-15T08:54:01Z</datestamp>
      <setSpec>user-biosyslit</setSpec>
    </header>
    <header>
      <identifier>oai:zenodo.org:828585</identifier>
      <datestamp>2017-07-15T09:01:39Z</datestamp>
      <setSpec>user-biosyslit</setSpec>
    </header>
    <header>
      <identifier>oai:zenodo.org:828601</identifier>
      <datestamp>2017-07-15T09:02:16Z</datestamp>
      <setSpec>user-biosyslit</setSpec>
    </header>
    <header>
      <identifier>oai:zenodo.org:828619</identifier>
      <datestamp>2017-07-15T09:02:26Z</datestamp>
      <setSpec>user-biosyslit</setSpec>
    </header>
    <header>
      <identifier>oai:zenodo.org:828617</identifier>
      <datestamp>2017-07-15T09:02:22Z</datestamp>
      <setSpec>user-biosyslit</setSpec>
    </header>
    <header>
      <identifier>oai:zenodo.org:828603</identifier>
      <datestamp>2017-07-15T09:01:49Z</datestamp>
      <setSpec>user-biosyslit</setSpec>
    </header>
    <header>
      <identifier>oai:zenodo.org:828607</identifier>
      <datestamp>2017-07-15T09:01:57Z</datestamp>
      <setSpec>user-biosyslit</setSpec>
    </header>
    <header>
      <identifier>oai:zenodo.org:828609</identifier>
      <datestamp>2017-07-15T09:02:03Z</datestamp>
      <setSpec>user-biosyslit</setSpec>
    </header>
    <header>
      <identifier>oai:zenodo.org:828611</identifier>
      <datestamp>2017-07-15T09:02:08Z</datestamp>
      <setSpec>user-biosyslit</setSpec>
    </header>
    <header>
      <identifier>oai:zenodo.org:828613</identifier>
      <datestamp>2017-07-15T09:02:12Z</datestamp>
      <setSpec>user-biosyslit</setSpec>
    </header>
    <header>
      <identifier>oai:zenodo.org:828723</identifier>
      <datestamp>2017-07-15T09:06:13Z</datestamp>
      <setSpec>user-biosyslit</setSpec>
    </header>
    <header>
      <identifier>oai:zenodo.org:828733</identifier>
      <datestamp>2017-07-15T09:06:24Z</datestamp>
      <setSpec>user-biosyslit</setSpec>
    </header>
    <header>
      <identifier>oai:zenodo.org:828741</identifier>
      <datestamp>2017-07-15T09:06:42Z</datestamp>
      <setSpec>user-biosyslit</setSpec>
    </header>
    <header>
      <identifier>oai:zenodo.org:828747</identifier>
      <datestamp>2017-07-15T09:06:54Z</datestamp>
      <setSpec>user-biosyslit</setSpec>
    </header>
    <header>
      <identifier>oai:zenodo.org:828727</identifier>
      <datestamp>2017-07-15T09:06:10Z</datestamp>
      <setSpec>user-biosyslit</setSpec>
    </header>
    <header>
      <identifier>oai:zenodo.org:828751</identifier>
      <datestamp>2017-07-15T09:07:04Z</datestamp>
      <setSpec>user-biosyslit</setSpec>
    </header>
    <header>
      <identifier>oai:zenodo.org:828721</identifier>
      <datestamp>2017-07-15T09:05:57Z</datestamp>
      <setSpec>user-biosyslit</setSpec>
    </header>
    <header>
      <identifier>oai:zenodo.org:828897</identifier>
      <datestamp>2017-07-15T09:16:25Z</datestamp>
      <setSpec>user-biosyslit</setSpec>
    </header>
    <header>
      <identifier>oai:zenodo.org:828909</identifier>
      <datestamp>2017-07-15T09:16:18Z</datestamp>
      <setSpec>user-biosyslit</setSpec>
    </header>
    <header>
      <identifier>oai:zenodo.org:828907</identifier>
      <datestamp>2017-07-15T09:16:14Z</datestamp>
      <setSpec>user-biosyslit</setSpec>
    </header>
    <header>
      <identifier>oai:zenodo.org:828881</identifier>
      <datestamp>2017-07-15T09:15:04Z</datestamp>
      <setSpec>user-biosyslit</setSpec>
    </header>
    <header>
      <identifier>oai:zenodo.org:828911</identifier>
      <datestamp>2017-07-15T09:16:22Z</datestamp>
      <setSpec>user-biosyslit</setSpec>
    </header>
    <header>
      <identifier>oai:zenodo.org:828895</identifier>
      <datestamp>2017-07-15T09:15:43Z</datestamp>
      <setSpec>user-biosyslit</setSpec>
    </header>
    <header>
      <identifier>oai:zenodo.org:828915</identifier>
      <datestamp>2017-07-15T09:16:39Z</datestamp>
      <setSpec>user-biosyslit</setSpec>
    </header>
    <header>
      <identifier>oai:zenodo.org:828875</identifier>
      <datestamp>2017-07-15T09:14:49Z</datestamp>
      <setSpec>user-biosyslit</setSpec>
    </header>
    <header>
      <identifier>oai:zenodo.org:829017</identifier>
      <datestamp>2017-07-15T09:21:50Z</datestamp>
      <setSpec>user-biosyslit</setSpec>
    </header>
    <header>
      <identifier>oai:zenodo.org:829029</identifier>
      <datestamp>2017-07-15T09:22:25Z</datestamp>
      <setSpec>user-biosyslit</setSpec>
    </header>
    <header>
      <identifier>oai:zenodo.org:829031</identifier>
      <datestamp>2017-07-15T09:22:33Z</datestamp>
      <setSpec>user-biosyslit</setSpec>
    </header>
    <header>
      <identifier>oai:zenodo.org:829027</identifier>
      <datestamp>2017-07-15T09:22:19Z</datestamp>
      <setSpec>user-biosyslit</setSpec>
    </header>
    <header>
      <identifier>oai:zenodo.org:829019</identifier>
      <datestamp>2017-07-15T09:21:54Z</datestamp>
      <setSpec>user-biosyslit</setSpec>
    </header>
    <header>
      <identifier>oai:zenodo.org:829015</identifier>
      <datestamp>2017-07-15T09:21:45Z</datestamp>
      <setSpec>user-biosyslit</setSpec>
    </header>
    <header>
      <identifier>oai:zenodo.org:829021</identifier>
      <datestamp>2017-07-15T09:21:58Z</datestamp>
      <setSpec>user-biosyslit</setSpec>
    </header>
    <header>
      <identifier>oai:zenodo.org:829023</identifier>
      <datestamp>2017-07-15T09:22:03Z</datestamp>
      <setSpec>user-biosyslit</setSpec>
    </header>
    <header>
      <identifier>oai:zenodo.org:829127</identifier>
      <datestamp>2017-07-15T09:28:43Z</datestamp>
      <setSpec>user-biosyslit</setSpec>
    </header>
    <header>
      <identifier>oai:zenodo.org:829129</identifier>
      <datestamp>2017-07-15T09:28:39Z</datestamp>
      <setSpec>user-biosyslit</setSpec>
    </header>
    <header>
      <identifier>oai:zenodo.org:829137</identifier>
      <datestamp>2017-07-15T09:28:56Z</datestamp>
      <setSpec>user-biosyslit</setSpec>
    </header>
    <header>
      <identifier>oai:zenodo.org:829139</identifier>
      <datestamp>2017-07-15T09:29:02Z</datestamp>
      <setSpec>user-biosyslit</setSpec>
    </header>
    <header>
      <identifier>oai:zenodo.org:829099</identifier>
      <datestamp>2017-07-15T09:27:30Z</datestamp>
      <setSpec>user-biosyslit</setSpec>
    </header>
    <header>
      <identifier>oai:zenodo.org:829117</identifier>
      <datestamp>2017-07-15T09:28:16Z</datestamp>
      <setSpec>user-biosyslit</setSpec>
    </header>
    <header>
      <identifier>oai:zenodo.org:829121</identifier>
      <datestamp>2017-07-15T09:28:23Z</datestamp>
      <setSpec>user-biosyslit</setSpec>
    </header>
    <header>
      <identifier>oai:zenodo.org:829125</identifier>
      <datestamp>2017-07-15T09:28:28Z</datestamp>
      <setSpec>user-biosyslit</setSpec>
    </header>
    <header>
      <identifier>oai:zenodo.org:829107</identifier>
      <datestamp>2017-07-15T09:27:55Z</datestamp>
      <setSpec>user-biosyslit</setSpec>
    </header>
    <header>
      <identifier>oai:zenodo.org:829207</identifier>
      <datestamp>2017-07-15T09:32:07Z</datestamp>
      <setSpec>user-biosyslit</setSpec>
    </header>
    <header>
      <identifier>oai:zenodo.org:829223</identifier>
      <datestamp>2017-07-15T09:31:54Z</datestamp>
      <setSpec>user-biosyslit</setSpec>
    </header>
    <header>
      <identifier>oai:zenodo.org:829219</identifier>
      <datestamp>2017-07-15T09:31:51Z</datestamp>
      <setSpec>user-biosyslit</setSpec>
    </header>
    <header>
      <identifier>oai:zenodo.org:829241</identifier>
      <datestamp>2017-07-15T09:32:29Z</datestamp>
      <setSpec>user-biosyslit</setSpec>
    </header>
    <header>
      <identifier>oai:zenodo.org:829225</identifier>
      <datestamp>2017-07-15T09:31:57Z</datestamp>
      <setSpec>user-biosyslit</setSpec>
    </header>
    <header>
      <identifier>oai:zenodo.org:829227</identifier>
      <datestamp>2017-07-15T09:32:00Z</datestamp>
      <setSpec>user-biosyslit</setSpec>
    </header>
    <header>
      <identifier>oai:zenodo.org:829243</identifier>
      <datestamp>2017-07-15T09:32:32Z</datestamp>
      <setSpec>user-biosyslit</setSpec>
    </header>
    <header>
      <identifier>oai:zenodo.org:829239</identifier>
      <datestamp>2017-07-15T09:32:26Z</datestamp>
      <setSpec>user-biosyslit</setSpec>
    </header>
    <header>
      <identifier>oai:zenodo.org:829237</identifier>
      <datestamp>2017-07-15T09:32:22Z</datestamp>
      <setSpec>user-biosyslit</setSpec>
    </header>
    <header>
      <identifier>oai:zenodo.org:829387</identifier>
      <datestamp>2017-07-15T09:38:25Z</datestamp>
      <setSpec>user-biosyslit</setSpec>
    </header>
    <header>
      <identifier>oai:zenodo.org:829415</identifier>
      <datestamp>2017-07-15T09:39:00Z</datestamp>
      <setSpec>user-biosyslit</setSpec>
    </header>
    <header>
      <identifier>oai:zenodo.org:829425</identifier>
      <datestamp>2017-07-15T09:39:17Z</datestamp>
      <setSpec>user-biosyslit</setSpec>
    </header>
    <header>
      <identifier>oai:zenodo.org:829413</identifier>
      <datestamp>2017-07-15T09:38:57Z</datestamp>
      <setSpec>user-biosyslit</setSpec>
    </header>
    <header>
      <identifier>oai:zenodo.org:829419</identifier>
      <datestamp>2017-07-15T09:39:07Z</datestamp>
      <setSpec>user-biosyslit</setSpec>
    </header>
    <header>
      <identifier>oai:zenodo.org:829427</identifier>
      <datestamp>2017-07-15T09:39:20Z</datestamp>
      <setSpec>user-biosyslit</setSpec>
    </header>
    <header>
      <identifier>oai:zenodo.org:829401</identifier>
      <datestamp>2017-07-15T09:38:22Z</datestamp>
      <setSpec>user-biosyslit</setSpec>
    </header>
    <header>
      <identifier>oai:zenodo.org:829397</identifier>
      <datestamp>2017-07-15T09:38:15Z</datestamp>
      <setSpec>user-biosyslit</setSpec>
    </header>
    <header>
      <identifier>oai:zenodo.org:829405</identifier>
      <datestamp>2017-07-15T09:38:31Z</datestamp>
      <setSpec>user-biosyslit</setSpec>
    </header>
    <header>
      <identifier>oai:zenodo.org:829643</identifier>
      <datestamp>2017-07-15T09:47:04Z</datestamp>
      <setSpec>user-biosyslit</setSpec>
    </header>
    <header>
      <identifier>oai:zenodo.org:829627</identifier>
      <datestamp>2017-07-15T09:46:39Z</datestamp>
      <setSpec>user-biosyslit</setSpec>
    </header>
    <header>
      <identifier>oai:zenodo.org:829657</identifier>
      <datestamp>2017-07-15T09:47:10Z</datestamp>
      <setSpec>user-biosyslit</setSpec>
    </header>
    <header>
      <identifier>oai:zenodo.org:829661</identifier>
      <datestamp>2017-07-15T09:47:19Z</datestamp>
      <setSpec>user-biosyslit</setSpec>
    </header>
    <header>
      <identifier>oai:zenodo.org:829641</identifier>
      <datestamp>2017-07-15T09:46:36Z</datestamp>
      <setSpec>user-biosyslit</setSpec>
    </header>
    <header>
      <identifier>oai:zenodo.org:829651</identifier>
      <datestamp>2017-07-15T09:46:58Z</datestamp>
      <setSpec>user-biosyslit</setSpec>
    </header>
    <header>
      <identifier>oai:zenodo.org:829639</identifier>
      <datestamp>2017-07-15T09:46:32Z</datestamp>
      <setSpec>user-biosyslit</setSpec>
    </header>
    <header>
      <identifier>oai:zenodo.org:829647</identifier>
      <datestamp>2017-07-15T09:46:51Z</datestamp>
      <setSpec>user-biosyslit</setSpec>
    </header>
    <header>
      <identifier>oai:zenodo.org:829637</identifier>
      <datestamp>2017-07-15T09:46:29Z</datestamp>
      <setSpec>user-biosyslit</setSpec>
    </header>
    <header>
      <identifier>oai:zenodo.org:828457</identifier>
      <datestamp>2017-07-15T08:55:29Z</datestamp>
      <setSpec>user-biosyslit</setSpec>
    </header>
    <header>
      <identifier>oai:zenodo.org:828463</identifier>
      <datestamp>2017-07-15T08:55:40Z</datestamp>
      <setSpec>user-biosyslit</setSpec>
    </header>
    <header>
      <identifier>oai:zenodo.org:828453</identifier>
      <datestamp>2017-07-15T08:55:20Z</datestamp>
      <setSpec>user-biosyslit</setSpec>
    </header>
    <header>
      <identifier>oai:zenodo.org:828487</identifier>
      <datestamp>2017-07-15T08:56:42Z</datestamp>
      <setSpec>user-biosyslit</setSpec>
    </header>
    <header>
      <identifier>oai:zenodo.org:828467</identifier>
      <datestamp>2017-07-15T08:55:54Z</datestamp>
      <setSpec>user-biosyslit</setSpec>
    </header>
    <header>
      <identifier>oai:zenodo.org:828433</identifier>
      <datestamp>2017-07-15T08:54:39Z</datestamp>
      <setSpec>user-biosyslit</setSpec>
    </header>
    <header>
      <identifier>oai:zenodo.org:828461</identifier>
      <datestamp>2017-07-15T08:55:37Z</datestamp>
      <setSpec>user-biosyslit</setSpec>
    </header>
    <header>
      <identifier>oai:zenodo.org:828443</identifier>
      <datestamp>2017-07-15T08:55:00Z</datestamp>
      <setSpec>user-biosyslit</setSpec>
    </header>
    <header>
      <identifier>oai:zenodo.org:828477</identifier>
      <datestamp>2017-07-15T08:56:22Z</datestamp>
      <setSpec>user-biosyslit</setSpec>
    </header>
    <header>
      <identifier>oai:zenodo.org:828537</identifier>
      <datestamp>2017-07-15T08:59:13Z</datestamp>
      <setSpec>user-biosyslit</setSpec>
    </header>
    <header>
      <identifier>oai:zenodo.org:828527</identifier>
      <datestamp>2017-07-15T08:58:43Z</datestamp>
      <setSpec>user-biosyslit</setSpec>
    </header>
    <header>
      <identifier>oai:zenodo.org:828557</identifier>
      <datestamp>2017-07-15T08:59:25Z</datestamp>
      <setSpec>user-biosyslit</setSpec>
    </header>
    <header>
      <identifier>oai:zenodo.org:828551</identifier>
      <datestamp>2017-07-15T08:59:10Z</datestamp>
      <setSpec>user-biosyslit</setSpec>
    </header>
    <header>
      <identifier>oai:zenodo.org:828543</identifier>
      <datestamp>2017-07-15T08:58:57Z</datestamp>
      <setSpec>user-biosyslit</setSpec>
    </header>
    <resumptionToken expirationDate="2017-08-31T15:48:23Z" cursor="75900" completeListSize="77796">.eJyNyj0LgkAYAOD_8s4Sd57f0CKaOKjopaRLmIqYp4lXqBf991qaa36eJ_CmqcFCO6IYpqnKhGBDRaZmKBLwar4xdu4-DtUpY9XI0tLLHsmQoVxu9dDha-DkJBQ9igYs6CGWT9hY0w5t8TG95yJZM-IvFLl6IOItvPqfV5PIY8XFm2g62ozK9Ry58UaxTQtSfR_-84mfz-F7kGAq2wYsXcMS9Es5txys5-v1Bt0GUYA.DInAzw.1GNRVgfbeb_KGlP1YYbB-pA9Ecg</resumptionToken>
  </ListIdentifiers>
</OAI-PMH>
