<?xml version='1.0' encoding='UTF-8'?>
<?xml-stylesheet type="text/xsl" href="/static/xsl/oai2.v1.0.xsl"?>
<OAI-PMH xmlns="http://www.openarchives.org/OAI/2.0/" xmlns:xsi="http://www.w3.org/2001/XMLSchema-instance" xsi:schemaLocation="http://www.openarchives.org/OAI/2.0/ http://www.openarchives.org/OAI/2.0/OAI-PMH.xsd">
  <responseDate>2017-08-31T15:44:15Z</responseDate>
  <request verb="ListIdentifiers" resumptionToken=".eJyNysEKgjAYAOB3-c8Sc7OcQhfRxIOKLSW9hKmIOU1ckU5897p0rvP3LSCqqgQTbbBhbCnSkI4MSvCOKiCK8c75pfkwFOeEFz2Pczd5HrsEpbjWA1tMvp2SQLYo7FTJDhE-q3SKGzRHp_iRyuOUEO_FkKP7MpqDm_d5JQldnl3dgcW9xRkux9CJZqZaLCPF96l_Pvnz2WIPCgx5XYGpUaJA-8rHWoC5rOsbpbtRSg.DInATw.qltCp3p-jCF0HAuju7KV01T9Pxk">https://zenodo.org/oai2d</request>
  <ListIdentifiers>
    <header>
      <identifier>oai:zenodo.org:235739</identifier>
      <datestamp>2017-01-09T14:16:57Z</datestamp>
      <setSpec>user-biosyslit</setSpec>
    </header>
    <header>
      <identifier>oai:zenodo.org:236731</identifier>
      <datestamp>2017-01-10T03:58:52Z</datestamp>
      <setSpec>user-biosyslit</setSpec>
    </header>
    <header>
      <identifier>oai:zenodo.org:289004</identifier>
      <datestamp>2017-02-09T22:22:45Z</datestamp>
      <setSpec>user-biosyslit</setSpec>
    </header>
    <header>
      <identifier>oai:zenodo.org:236657</identifier>
      <datestamp>2017-01-10T02:30:30Z</datestamp>
      <setSpec>user-biosyslit</setSpec>
    </header>
    <header>
      <identifier>oai:zenodo.org:237750</identifier>
      <datestamp>2017-01-10T19:21:29Z</datestamp>
      <setSpec>user-biosyslit</setSpec>
    </header>
    <header>
      <identifier>oai:zenodo.org:270784</identifier>
      <datestamp>2017-02-07T23:56:03Z</datestamp>
      <setSpec>user-biosyslit</setSpec>
    </header>
    <header>
      <identifier>oai:zenodo.org:236580</identifier>
      <datestamp>2017-01-10T01:40:44Z</datestamp>
      <setSpec>user-biosyslit</setSpec>
    </header>
    <header>
      <identifier>oai:zenodo.org:236542</identifier>
      <datestamp>2017-01-10T01:22:19Z</datestamp>
      <setSpec>user-biosyslit</setSpec>
    </header>
    <header>
      <identifier>oai:zenodo.org:236728</identifier>
      <datestamp>2017-01-10T03:47:06Z</datestamp>
      <setSpec>user-biosyslit</setSpec>
    </header>
    <header>
      <identifier>oai:zenodo.org:236374</identifier>
      <datestamp>2017-01-09T23:25:36Z</datestamp>
      <setSpec>user-biosyslit</setSpec>
    </header>
    <header>
      <identifier>oai:zenodo.org:237055</identifier>
      <datestamp>2017-01-10T10:22:32Z</datestamp>
      <setSpec>user-biosyslit</setSpec>
    </header>
    <header>
      <identifier>oai:zenodo.org:237283</identifier>
      <datestamp>2017-01-10T13:55:54Z</datestamp>
      <setSpec>user-biosyslit</setSpec>
    </header>
    <header>
      <identifier>oai:zenodo.org:270946</identifier>
      <datestamp>2017-02-08T00:19:21Z</datestamp>
      <setSpec>user-biosyslit</setSpec>
    </header>
    <header>
      <identifier>oai:zenodo.org:237989</identifier>
      <datestamp>2017-01-10T23:19:24Z</datestamp>
      <setSpec>user-biosyslit</setSpec>
    </header>
    <header>
      <identifier>oai:zenodo.org:237673</identifier>
      <datestamp>2017-01-10T18:30:49Z</datestamp>
      <setSpec>user-biosyslit</setSpec>
    </header>
    <header>
      <identifier>oai:zenodo.org:237480</identifier>
      <datestamp>2017-01-10T16:05:00Z</datestamp>
      <setSpec>user-biosyslit</setSpec>
    </header>
    <header>
      <identifier>oai:zenodo.org:236881</identifier>
      <datestamp>2017-01-10T07:21:01Z</datestamp>
      <setSpec>user-biosyslit</setSpec>
    </header>
    <header>
      <identifier>oai:zenodo.org:271268</identifier>
      <datestamp>2017-02-08T01:14:07Z</datestamp>
      <setSpec>user-biosyslit</setSpec>
    </header>
    <header>
      <identifier>oai:zenodo.org:237201</identifier>
      <datestamp>2017-01-10T12:03:42Z</datestamp>
      <setSpec>user-biosyslit</setSpec>
    </header>
    <header>
      <identifier>oai:zenodo.org:239412</identifier>
      <datestamp>2017-01-11T20:06:08Z</datestamp>
      <setSpec>user-biosyslit</setSpec>
    </header>
    <header>
      <identifier>oai:zenodo.org:271225</identifier>
      <datestamp>2017-02-08T01:05:47Z</datestamp>
      <setSpec>user-biosyslit</setSpec>
    </header>
    <header>
      <identifier>oai:zenodo.org:237839</identifier>
      <datestamp>2017-01-10T21:20:45Z</datestamp>
      <setSpec>user-biosyslit</setSpec>
    </header>
    <header>
      <identifier>oai:zenodo.org:238217</identifier>
      <datestamp>2017-01-11T02:23:24Z</datestamp>
      <setSpec>user-biosyslit</setSpec>
    </header>
    <header>
      <identifier>oai:zenodo.org:271003</identifier>
      <datestamp>2017-02-08T00:34:16Z</datestamp>
      <setSpec>user-biosyslit</setSpec>
    </header>
    <header>
      <identifier>oai:zenodo.org:238641</identifier>
      <datestamp>2017-01-11T08:30:50Z</datestamp>
      <setSpec>user-biosyslit</setSpec>
    </header>
    <header>
      <identifier>oai:zenodo.org:239524</identifier>
      <datestamp>2017-01-11T21:47:45Z</datestamp>
      <setSpec>user-biosyslit</setSpec>
    </header>
    <header>
      <identifier>oai:zenodo.org:238623</identifier>
      <datestamp>2017-01-11T08:14:46Z</datestamp>
      <setSpec>user-biosyslit</setSpec>
    </header>
    <header>
      <identifier>oai:zenodo.org:238190</identifier>
      <datestamp>2017-01-11T02:00:53Z</datestamp>
      <setSpec>user-biosyslit</setSpec>
    </header>
    <header>
      <identifier>oai:zenodo.org:289092</identifier>
      <datestamp>2017-02-09T22:36:46Z</datestamp>
      <setSpec>user-biosyslit</setSpec>
    </header>
    <header>
      <identifier>oai:zenodo.org:238183</identifier>
      <datestamp>2017-01-11T01:57:08Z</datestamp>
      <setSpec>user-biosyslit</setSpec>
    </header>
    <header>
      <identifier>oai:zenodo.org:238826</identifier>
      <datestamp>2017-01-11T11:24:43Z</datestamp>
      <setSpec>user-biosyslit</setSpec>
    </header>
    <header>
      <identifier>oai:zenodo.org:238462</identifier>
      <datestamp>2017-01-11T05:58:14Z</datestamp>
      <setSpec>user-biosyslit</setSpec>
    </header>
    <header>
      <identifier>oai:zenodo.org:239670</identifier>
      <datestamp>2017-01-11T23:33:33Z</datestamp>
      <setSpec>user-biosyslit</setSpec>
    </header>
    <header>
      <identifier>oai:zenodo.org:239192</identifier>
      <datestamp>2017-01-11T17:35:11Z</datestamp>
      <setSpec>user-biosyslit</setSpec>
    </header>
    <header>
      <identifier>oai:zenodo.org:239256</identifier>
      <datestamp>2017-01-11T18:46:50Z</datestamp>
      <setSpec>user-biosyslit</setSpec>
    </header>
    <header>
      <identifier>oai:zenodo.org:271501</identifier>
      <datestamp>2017-02-08T01:49:31Z</datestamp>
      <setSpec>user-biosyslit</setSpec>
    </header>
    <header>
      <identifier>oai:zenodo.org:239777</identifier>
      <datestamp>2017-01-12T00:45:49Z</datestamp>
      <setSpec>user-biosyslit</setSpec>
    </header>
    <header>
      <identifier>oai:zenodo.org:239031</identifier>
      <datestamp>2017-01-11T14:58:02Z</datestamp>
      <setSpec>user-biosyslit</setSpec>
    </header>
    <header>
      <identifier>oai:zenodo.org:239303</identifier>
      <datestamp>2017-01-11T18:50:02Z</datestamp>
      <setSpec>user-biosyslit</setSpec>
    </header>
    <header>
      <identifier>oai:zenodo.org:271494</identifier>
      <datestamp>2017-02-08T01:49:11Z</datestamp>
      <setSpec>user-biosyslit</setSpec>
    </header>
    <header>
      <identifier>oai:zenodo.org:271379</identifier>
      <datestamp>2017-02-08T01:34:08Z</datestamp>
      <setSpec>user-biosyslit</setSpec>
    </header>
    <header>
      <identifier>oai:zenodo.org:239831</identifier>
      <datestamp>2017-01-12T01:22:41Z</datestamp>
      <setSpec>user-biosyslit</setSpec>
    </header>
    <header>
      <identifier>oai:zenodo.org:240700</identifier>
      <datestamp>2017-01-12T12:43:47Z</datestamp>
      <setSpec>user-biosyslit</setSpec>
    </header>
    <header>
      <identifier>oai:zenodo.org:239888</identifier>
      <datestamp>2017-01-12T02:16:04Z</datestamp>
      <setSpec>user-biosyslit</setSpec>
    </header>
    <header>
      <identifier>oai:zenodo.org:241580</identifier>
      <datestamp>2017-01-13T03:32:38Z</datestamp>
      <setSpec>user-biosyslit</setSpec>
    </header>
    <header>
      <identifier>oai:zenodo.org:271330</identifier>
      <datestamp>2017-02-08T01:21:40Z</datestamp>
      <setSpec>user-biosyslit</setSpec>
    </header>
    <header>
      <identifier>oai:zenodo.org:240114</identifier>
      <datestamp>2017-01-12T04:50:17Z</datestamp>
      <setSpec>user-biosyslit</setSpec>
    </header>
    <header>
      <identifier>oai:zenodo.org:240012</identifier>
      <datestamp>2017-01-12T03:39:58Z</datestamp>
      <setSpec>user-biosyslit</setSpec>
    </header>
    <header>
      <identifier>oai:zenodo.org:240093</identifier>
      <datestamp>2017-01-12T04:33:46Z</datestamp>
      <setSpec>user-biosyslit</setSpec>
    </header>
    <header>
      <identifier>oai:zenodo.org:240063</identifier>
      <datestamp>2017-01-12T04:15:46Z</datestamp>
      <setSpec>user-biosyslit</setSpec>
    </header>
    <header>
      <identifier>oai:zenodo.org:271365</identifier>
      <datestamp>2017-02-08T01:32:38Z</datestamp>
      <setSpec>user-biosyslit</setSpec>
    </header>
    <header>
      <identifier>oai:zenodo.org:240723</identifier>
      <datestamp>2017-01-12T13:03:26Z</datestamp>
      <setSpec>user-biosyslit</setSpec>
    </header>
    <header>
      <identifier>oai:zenodo.org:240099</identifier>
      <datestamp>2017-01-12T04:40:11Z</datestamp>
      <setSpec>user-biosyslit</setSpec>
    </header>
    <header>
      <identifier>oai:zenodo.org:240419</identifier>
      <datestamp>2017-01-12T08:24:31Z</datestamp>
      <setSpec>user-biosyslit</setSpec>
    </header>
    <header>
      <identifier>oai:zenodo.org:273007</identifier>
      <datestamp>2017-02-08T06:58:08Z</datestamp>
      <setSpec>user-biosyslit</setSpec>
    </header>
    <header>
      <identifier>oai:zenodo.org:241346</identifier>
      <datestamp>2017-01-13T00:12:11Z</datestamp>
      <setSpec>user-biosyslit</setSpec>
    </header>
    <header>
      <identifier>oai:zenodo.org:240908</identifier>
      <datestamp>2017-01-12T15:46:20Z</datestamp>
      <setSpec>user-biosyslit</setSpec>
    </header>
    <header>
      <identifier>oai:zenodo.org:241602</identifier>
      <datestamp>2017-01-13T03:48:59Z</datestamp>
      <setSpec>user-biosyslit</setSpec>
    </header>
    <header>
      <identifier>oai:zenodo.org:271355</identifier>
      <datestamp>2017-02-08T01:30:53Z</datestamp>
      <setSpec>user-biosyslit</setSpec>
    </header>
    <header>
      <identifier>oai:zenodo.org:240771</identifier>
      <datestamp>2017-01-12T13:43:58Z</datestamp>
      <setSpec>user-biosyslit</setSpec>
    </header>
    <header>
      <identifier>oai:zenodo.org:271564</identifier>
      <datestamp>2017-02-08T01:55:07Z</datestamp>
      <setSpec>user-biosyslit</setSpec>
    </header>
    <header>
      <identifier>oai:zenodo.org:271401</identifier>
      <datestamp>2017-02-08T01:35:59Z</datestamp>
      <setSpec>user-biosyslit</setSpec>
    </header>
    <header>
      <identifier>oai:zenodo.org:241039</identifier>
      <datestamp>2017-01-12T19:14:28Z</datestamp>
      <setSpec>user-biosyslit</setSpec>
    </header>
    <header>
      <identifier>oai:zenodo.org:271555</identifier>
      <datestamp>2017-02-08T01:54:37Z</datestamp>
      <setSpec>user-biosyslit</setSpec>
    </header>
    <header>
      <identifier>oai:zenodo.org:272161</identifier>
      <datestamp>2017-02-08T03:53:15Z</datestamp>
      <setSpec>user-biosyslit</setSpec>
    </header>
    <header>
      <identifier>oai:zenodo.org:241619</identifier>
      <datestamp>2017-01-13T04:11:06Z</datestamp>
      <setSpec>user-biosyslit</setSpec>
    </header>
    <header>
      <identifier>oai:zenodo.org:272415</identifier>
      <datestamp>2017-02-08T04:33:49Z</datestamp>
      <setSpec>user-biosyslit</setSpec>
    </header>
    <header>
      <identifier>oai:zenodo.org:271974</identifier>
      <datestamp>2017-02-08T03:11:01Z</datestamp>
      <setSpec>user-biosyslit</setSpec>
    </header>
    <header>
      <identifier>oai:zenodo.org:271906</identifier>
      <datestamp>2017-02-08T03:00:30Z</datestamp>
      <setSpec>user-biosyslit</setSpec>
    </header>
    <header>
      <identifier>oai:zenodo.org:271808</identifier>
      <datestamp>2017-02-08T02:43:13Z</datestamp>
      <setSpec>user-biosyslit</setSpec>
    </header>
    <header>
      <identifier>oai:zenodo.org:272534</identifier>
      <datestamp>2017-02-08T05:05:43Z</datestamp>
      <setSpec>user-biosyslit</setSpec>
    </header>
    <header>
      <identifier>oai:zenodo.org:271966</identifier>
      <datestamp>2017-02-08T03:10:42Z</datestamp>
      <setSpec>user-biosyslit</setSpec>
    </header>
    <header>
      <identifier>oai:zenodo.org:272466</identifier>
      <datestamp>2017-02-08T04:45:10Z</datestamp>
      <setSpec>user-biosyslit</setSpec>
    </header>
    <header>
      <identifier>oai:zenodo.org:272193</identifier>
      <datestamp>2017-02-08T03:58:33Z</datestamp>
      <setSpec>user-biosyslit</setSpec>
    </header>
    <header>
      <identifier>oai:zenodo.org:273244</identifier>
      <datestamp>2017-02-08T08:42:58Z</datestamp>
      <setSpec>user-biosyslit</setSpec>
    </header>
    <header>
      <identifier>oai:zenodo.org:241579</identifier>
      <datestamp>2017-01-13T03:32:53Z</datestamp>
      <setSpec>user-biosyslit</setSpec>
    </header>
    <header>
      <identifier>oai:zenodo.org:272428</identifier>
      <datestamp>2017-02-08T04:39:47Z</datestamp>
      <setSpec>user-biosyslit</setSpec>
    </header>
    <header>
      <identifier>oai:zenodo.org:271985</identifier>
      <datestamp>2017-02-08T03:13:42Z</datestamp>
      <setSpec>user-biosyslit</setSpec>
    </header>
    <header>
      <identifier>oai:zenodo.org:271800</identifier>
      <datestamp>2017-02-08T02:47:31Z</datestamp>
      <setSpec>user-biosyslit</setSpec>
    </header>
    <header>
      <identifier>oai:zenodo.org:271981</identifier>
      <datestamp>2017-02-08T03:13:27Z</datestamp>
      <setSpec>user-biosyslit</setSpec>
    </header>
    <header>
      <identifier>oai:zenodo.org:232791</identifier>
      <datestamp>2017-01-06T23:09:19Z</datestamp>
      <setSpec>user-biosyslit</setSpec>
    </header>
    <header>
      <identifier>oai:zenodo.org:232717</identifier>
      <datestamp>2017-01-06T22:06:47Z</datestamp>
      <setSpec>user-biosyslit</setSpec>
    </header>
    <header>
      <identifier>oai:zenodo.org:232708</identifier>
      <datestamp>2017-01-06T21:55:28Z</datestamp>
      <setSpec>user-biosyslit</setSpec>
    </header>
    <header>
      <identifier>oai:zenodo.org:233526</identifier>
      <datestamp>2017-01-08T08:07:18Z</datestamp>
      <setSpec>user-biosyslit</setSpec>
    </header>
    <header>
      <identifier>oai:zenodo.org:234337</identifier>
      <datestamp>2017-01-08T18:34:40Z</datestamp>
      <setSpec>user-biosyslit</setSpec>
    </header>
    <header>
      <identifier>oai:zenodo.org:289529</identifier>
      <datestamp>2017-02-09T23:48:16Z</datestamp>
      <setSpec>user-biosyslit</setSpec>
    </header>
    <header>
      <identifier>oai:zenodo.org:233664</identifier>
      <datestamp>2017-01-08T09:26:02Z</datestamp>
      <setSpec>user-biosyslit</setSpec>
    </header>
    <header>
      <identifier>oai:zenodo.org:232903</identifier>
      <datestamp>2017-01-07T01:16:20Z</datestamp>
      <setSpec>user-biosyslit</setSpec>
    </header>
    <header>
      <identifier>oai:zenodo.org:234877</identifier>
      <datestamp>2017-01-09T02:58:27Z</datestamp>
      <setSpec>user-biosyslit</setSpec>
    </header>
    <header>
      <identifier>oai:zenodo.org:271069</identifier>
      <datestamp>2017-02-08T00:41:42Z</datestamp>
      <setSpec>user-biosyslit</setSpec>
    </header>
    <header>
      <identifier>oai:zenodo.org:235644</identifier>
      <datestamp>2017-01-09T13:12:10Z</datestamp>
      <setSpec>user-biosyslit</setSpec>
    </header>
    <header>
      <identifier>oai:zenodo.org:234497</identifier>
      <datestamp>2017-01-08T20:49:47Z</datestamp>
      <setSpec>user-biosyslit</setSpec>
    </header>
    <header>
      <identifier>oai:zenodo.org:270766</identifier>
      <datestamp>2017-02-07T23:55:20Z</datestamp>
      <setSpec>user-biosyslit</setSpec>
    </header>
    <header>
      <identifier>oai:zenodo.org:234118</identifier>
      <datestamp>2017-01-08T15:13:46Z</datestamp>
      <setSpec>user-biosyslit</setSpec>
    </header>
    <header>
      <identifier>oai:zenodo.org:235124</identifier>
      <datestamp>2017-01-09T05:44:55Z</datestamp>
      <setSpec>user-biosyslit</setSpec>
    </header>
    <header>
      <identifier>oai:zenodo.org:235023</identifier>
      <datestamp>2017-01-09T04:46:14Z</datestamp>
      <setSpec>user-biosyslit</setSpec>
    </header>
    <header>
      <identifier>oai:zenodo.org:234341</identifier>
      <datestamp>2017-01-08T18:34:57Z</datestamp>
      <setSpec>user-biosyslit</setSpec>
    </header>
    <header>
      <identifier>oai:zenodo.org:235947</identifier>
      <datestamp>2017-01-09T17:05:51Z</datestamp>
      <setSpec>user-biosyslit</setSpec>
    </header>
    <header>
      <identifier>oai:zenodo.org:235428</identifier>
      <datestamp>2017-01-09T09:59:36Z</datestamp>
      <setSpec>user-biosyslit</setSpec>
    </header>
    <header>
      <identifier>oai:zenodo.org:235921</identifier>
      <datestamp>2017-01-09T16:55:54Z</datestamp>
      <setSpec>user-biosyslit</setSpec>
    </header>
    <resumptionToken expirationDate="2017-08-31T15:46:15Z" cursor="48200" completeListSize="77796">.eJyNyssKgkAUANB_uWuJefhCaBOWuFDRSck2YSpijiZOoY7477lpXetzFhBlWYCFdphSHWsE6yolpmZgooDIhyfnt3pzyC8JzzseZ07yjtoEpaQyfFtMnp1SXzYoaLFkp5BcsDnFNZrDc_xKZTQl1B0ZOhqeDGf_4W6voIHDr3enZ3F34IwUQ3AMZ4YP7Erz78N_Pvnz2WIPCvRZVYKlmqoCzZgNlQBrWdcPxBNRZw.DInATw.hccFzcU5OOkCsKOKcoyLtDaoNMk</resumptionToken>
  </ListIdentifiers>
</OAI-PMH>
