<?xml version='1.0' encoding='UTF-8'?>
<?xml-stylesheet type="text/xsl" href="/static/xsl/oai2.v1.0.xsl"?>
<OAI-PMH xmlns="http://www.openarchives.org/OAI/2.0/" xmlns:xsi="http://www.w3.org/2001/XMLSchema-instance" xsi:schemaLocation="http://www.openarchives.org/OAI/2.0/ http://www.openarchives.org/OAI/2.0/OAI-PMH.xsd">
  <responseDate>2017-08-31T15:41:34Z</responseDate>
  <request verb="ListIdentifiers" resumptionToken=".eJyNyj0LgkAYAOD_8s4S9yFqQktY4pByXoq2hJ0i1mniFemF_z2X5tqe4XmDqqoSXLRC1HaIiTAmFl5M1qYBSgx3Kc_NEkBkqRSdTAo_fcZtinJS26GnxoOX01DfUNRizfeMZNgZkwZN7Jg8ch2PKQ1eHO3sg2ZTeA2WV9LIl6eL3_Ok20pOyiHasYnjLT9R8X34z6d_Pk9twIC-qCtwHcuA26sYagXue54_pahRZQ.DIm_rg.EVnARxiWFQ0D0mIvCD1Acmz6noU">https://zenodo.org/oai2d</request>
  <ListIdentifiers>
    <header>
      <identifier>oai:zenodo.org:262154</identifier>
      <datestamp>2017-01-28T22:03:23Z</datestamp>
      <setSpec>user-biosyslit</setSpec>
    </header>
    <header>
      <identifier>oai:zenodo.org:261775</identifier>
      <datestamp>2017-01-28T14:22:12Z</datestamp>
      <setSpec>user-biosyslit</setSpec>
    </header>
    <header>
      <identifier>oai:zenodo.org:262259</identifier>
      <datestamp>2017-01-29T01:13:45Z</datestamp>
      <setSpec>user-biosyslit</setSpec>
    </header>
    <header>
      <identifier>oai:zenodo.org:273530</identifier>
      <datestamp>2017-02-08T09:35:50Z</datestamp>
      <setSpec>user-biosyslit</setSpec>
    </header>
    <header>
      <identifier>oai:zenodo.org:262339</identifier>
      <datestamp>2017-01-29T01:59:41Z</datestamp>
      <setSpec>user-biosyslit</setSpec>
    </header>
    <header>
      <identifier>oai:zenodo.org:274171</identifier>
      <datestamp>2017-02-08T12:17:42Z</datestamp>
      <setSpec>user-biosyslit</setSpec>
    </header>
    <header>
      <identifier>oai:zenodo.org:261969</identifier>
      <datestamp>2017-01-28T18:33:56Z</datestamp>
      <setSpec>user-biosyslit</setSpec>
    </header>
    <header>
      <identifier>oai:zenodo.org:262407</identifier>
      <datestamp>2017-01-29T03:42:40Z</datestamp>
      <setSpec>user-biosyslit</setSpec>
    </header>
    <header>
      <identifier>oai:zenodo.org:273813</identifier>
      <datestamp>2017-02-08T10:49:42Z</datestamp>
      <setSpec>user-biosyslit</setSpec>
    </header>
    <header>
      <identifier>oai:zenodo.org:262466</identifier>
      <datestamp>2017-01-29T04:33:26Z</datestamp>
      <setSpec>user-biosyslit</setSpec>
    </header>
    <header>
      <identifier>oai:zenodo.org:262051</identifier>
      <datestamp>2017-01-28T19:46:32Z</datestamp>
      <setSpec>user-biosyslit</setSpec>
    </header>
    <header>
      <identifier>oai:zenodo.org:274513</identifier>
      <datestamp>2017-02-08T13:34:15Z</datestamp>
      <setSpec>user-biosyslit</setSpec>
    </header>
    <header>
      <identifier>oai:zenodo.org:273843</identifier>
      <datestamp>2017-02-08T10:59:44Z</datestamp>
      <setSpec>user-biosyslit</setSpec>
    </header>
    <header>
      <identifier>oai:zenodo.org:262160</identifier>
      <datestamp>2017-01-28T22:14:09Z</datestamp>
      <setSpec>user-biosyslit</setSpec>
    </header>
    <header>
      <identifier>oai:zenodo.org:274682</identifier>
      <datestamp>2017-02-08T13:59:23Z</datestamp>
      <setSpec>user-biosyslit</setSpec>
    </header>
    <header>
      <identifier>oai:zenodo.org:273849</identifier>
      <datestamp>2017-02-08T11:00:16Z</datestamp>
      <setSpec>user-biosyslit</setSpec>
    </header>
    <header>
      <identifier>oai:zenodo.org:274562</identifier>
      <datestamp>2017-02-08T13:41:16Z</datestamp>
      <setSpec>user-biosyslit</setSpec>
    </header>
    <header>
      <identifier>oai:zenodo.org:274157</identifier>
      <datestamp>2017-02-08T12:16:58Z</datestamp>
      <setSpec>user-biosyslit</setSpec>
    </header>
    <header>
      <identifier>oai:zenodo.org:262519</identifier>
      <datestamp>2017-01-29T05:08:59Z</datestamp>
      <setSpec>user-biosyslit</setSpec>
    </header>
    <header>
      <identifier>oai:zenodo.org:263116</identifier>
      <datestamp>2017-01-29T17:25:50Z</datestamp>
      <setSpec>user-biosyslit</setSpec>
    </header>
    <header>
      <identifier>oai:zenodo.org:262638</identifier>
      <datestamp>2017-01-29T06:35:54Z</datestamp>
      <setSpec>user-biosyslit</setSpec>
    </header>
    <header>
      <identifier>oai:zenodo.org:263248</identifier>
      <datestamp>2017-01-29T19:52:56Z</datestamp>
      <setSpec>user-biosyslit</setSpec>
    </header>
    <header>
      <identifier>oai:zenodo.org:263066</identifier>
      <datestamp>2017-01-29T15:52:53Z</datestamp>
      <setSpec>user-biosyslit</setSpec>
    </header>
    <header>
      <identifier>oai:zenodo.org:264060</identifier>
      <datestamp>2017-01-30T12:26:21Z</datestamp>
      <setSpec>user-biosyslit</setSpec>
    </header>
    <header>
      <identifier>oai:zenodo.org:262553</identifier>
      <datestamp>2017-01-29T05:29:39Z</datestamp>
      <setSpec>user-biosyslit</setSpec>
    </header>
    <header>
      <identifier>oai:zenodo.org:262782</identifier>
      <datestamp>2017-01-29T08:36:18Z</datestamp>
      <setSpec>user-biosyslit</setSpec>
    </header>
    <header>
      <identifier>oai:zenodo.org:262982</identifier>
      <datestamp>2017-01-29T14:24:47Z</datestamp>
      <setSpec>user-biosyslit</setSpec>
    </header>
    <header>
      <identifier>oai:zenodo.org:262720</identifier>
      <datestamp>2017-01-29T07:52:40Z</datestamp>
      <setSpec>user-biosyslit</setSpec>
    </header>
    <header>
      <identifier>oai:zenodo.org:262570</identifier>
      <datestamp>2017-01-29T05:43:14Z</datestamp>
      <setSpec>user-biosyslit</setSpec>
    </header>
    <header>
      <identifier>oai:zenodo.org:262711</identifier>
      <datestamp>2017-01-29T07:31:34Z</datestamp>
      <setSpec>user-biosyslit</setSpec>
    </header>
    <header>
      <identifier>oai:zenodo.org:263278</identifier>
      <datestamp>2017-01-29T20:29:44Z</datestamp>
      <setSpec>user-biosyslit</setSpec>
    </header>
    <header>
      <identifier>oai:zenodo.org:263115</identifier>
      <datestamp>2017-01-29T17:25:45Z</datestamp>
      <setSpec>user-biosyslit</setSpec>
    </header>
    <header>
      <identifier>oai:zenodo.org:263595</identifier>
      <datestamp>2017-01-30T01:15:03Z</datestamp>
      <setSpec>user-biosyslit</setSpec>
    </header>
    <header>
      <identifier>oai:zenodo.org:264131</identifier>
      <datestamp>2017-01-30T13:28:58Z</datestamp>
      <setSpec>user-biosyslit</setSpec>
    </header>
    <header>
      <identifier>oai:zenodo.org:263088</identifier>
      <datestamp>2017-01-29T16:39:22Z</datestamp>
      <setSpec>user-biosyslit</setSpec>
    </header>
    <header>
      <identifier>oai:zenodo.org:263337</identifier>
      <datestamp>2017-01-29T22:25:59Z</datestamp>
      <setSpec>user-biosyslit</setSpec>
    </header>
    <header>
      <identifier>oai:zenodo.org:226905</identifier>
      <datestamp>2017-01-01T06:03:05Z</datestamp>
      <setSpec>user-biosyslit</setSpec>
    </header>
    <header>
      <identifier>oai:zenodo.org:263300</identifier>
      <datestamp>2017-01-29T22:22:56Z</datestamp>
      <setSpec>user-biosyslit</setSpec>
    </header>
    <header>
      <identifier>oai:zenodo.org:226644</identifier>
      <datestamp>2017-01-01T01:08:33Z</datestamp>
      <setSpec>user-biosyslit</setSpec>
    </header>
    <header>
      <identifier>oai:zenodo.org:263020</identifier>
      <datestamp>2017-01-29T15:04:59Z</datestamp>
      <setSpec>user-biosyslit</setSpec>
    </header>
    <header>
      <identifier>oai:zenodo.org:264262</identifier>
      <datestamp>2017-01-30T15:45:43Z</datestamp>
      <setSpec>user-biosyslit</setSpec>
    </header>
    <header>
      <identifier>oai:zenodo.org:262990</identifier>
      <datestamp>2017-01-29T14:32:41Z</datestamp>
      <setSpec>user-biosyslit</setSpec>
    </header>
    <header>
      <identifier>oai:zenodo.org:263444</identifier>
      <datestamp>2017-01-29T22:33:40Z</datestamp>
      <setSpec>user-biosyslit</setSpec>
    </header>
    <header>
      <identifier>oai:zenodo.org:263183</identifier>
      <datestamp>2017-01-29T18:11:00Z</datestamp>
      <setSpec>user-biosyslit</setSpec>
    </header>
    <header>
      <identifier>oai:zenodo.org:264093</identifier>
      <datestamp>2017-01-30T12:44:21Z</datestamp>
      <setSpec>user-biosyslit</setSpec>
    </header>
    <header>
      <identifier>oai:zenodo.org:263399</identifier>
      <datestamp>2017-01-29T22:30:50Z</datestamp>
      <setSpec>user-biosyslit</setSpec>
    </header>
    <header>
      <identifier>oai:zenodo.org:264669</identifier>
      <datestamp>2017-01-31T00:56:50Z</datestamp>
      <setSpec>user-biosyslit</setSpec>
    </header>
    <header>
      <identifier>oai:zenodo.org:265126</identifier>
      <datestamp>2017-01-31T08:33:12Z</datestamp>
      <setSpec>user-biosyslit</setSpec>
    </header>
    <header>
      <identifier>oai:zenodo.org:274164</identifier>
      <datestamp>2017-02-08T12:17:23Z</datestamp>
      <setSpec>user-biosyslit</setSpec>
    </header>
    <header>
      <identifier>oai:zenodo.org:264811</identifier>
      <datestamp>2017-01-31T02:53:28Z</datestamp>
      <setSpec>user-biosyslit</setSpec>
    </header>
    <header>
      <identifier>oai:zenodo.org:265271</identifier>
      <datestamp>2017-01-31T11:06:06Z</datestamp>
      <setSpec>user-biosyslit</setSpec>
    </header>
    <header>
      <identifier>oai:zenodo.org:264955</identifier>
      <datestamp>2017-01-31T05:08:20Z</datestamp>
      <setSpec>user-biosyslit</setSpec>
    </header>
    <header>
      <identifier>oai:zenodo.org:265811</identifier>
      <datestamp>2017-01-31T21:47:47Z</datestamp>
      <setSpec>user-biosyslit</setSpec>
    </header>
    <header>
      <identifier>oai:zenodo.org:265454</identifier>
      <datestamp>2017-01-31T14:07:05Z</datestamp>
      <setSpec>user-biosyslit</setSpec>
    </header>
    <header>
      <identifier>oai:zenodo.org:265261</identifier>
      <datestamp>2017-01-31T10:57:19Z</datestamp>
      <setSpec>user-biosyslit</setSpec>
    </header>
    <header>
      <identifier>oai:zenodo.org:265196</identifier>
      <datestamp>2017-01-31T09:58:56Z</datestamp>
      <setSpec>user-biosyslit</setSpec>
    </header>
    <header>
      <identifier>oai:zenodo.org:265618</identifier>
      <datestamp>2017-01-31T17:53:00Z</datestamp>
      <setSpec>user-biosyslit</setSpec>
    </header>
    <header>
      <identifier>oai:zenodo.org:265214</identifier>
      <datestamp>2017-01-31T10:05:42Z</datestamp>
      <setSpec>user-biosyslit</setSpec>
    </header>
    <header>
      <identifier>oai:zenodo.org:265761</identifier>
      <datestamp>2017-01-31T19:55:39Z</datestamp>
      <setSpec>user-biosyslit</setSpec>
    </header>
    <header>
      <identifier>oai:zenodo.org:274435</identifier>
      <datestamp>2017-02-08T13:11:39Z</datestamp>
      <setSpec>user-biosyslit</setSpec>
    </header>
    <header>
      <identifier>oai:zenodo.org:265309</identifier>
      <datestamp>2017-01-31T11:58:23Z</datestamp>
      <setSpec>user-biosyslit</setSpec>
    </header>
    <header>
      <identifier>oai:zenodo.org:265569</identifier>
      <datestamp>2017-01-31T17:10:36Z</datestamp>
      <setSpec>user-biosyslit</setSpec>
    </header>
    <header>
      <identifier>oai:zenodo.org:265834</identifier>
      <datestamp>2017-01-31T21:48:59Z</datestamp>
      <setSpec>user-biosyslit</setSpec>
    </header>
    <header>
      <identifier>oai:zenodo.org:265637</identifier>
      <datestamp>2017-01-31T18:11:06Z</datestamp>
      <setSpec>user-biosyslit</setSpec>
    </header>
    <header>
      <identifier>oai:zenodo.org:265532</identifier>
      <datestamp>2017-01-31T15:49:54Z</datestamp>
      <setSpec>user-biosyslit</setSpec>
    </header>
    <header>
      <identifier>oai:zenodo.org:266639</identifier>
      <datestamp>2017-02-01T12:56:03Z</datestamp>
      <setSpec>user-biosyslit</setSpec>
    </header>
    <header>
      <identifier>oai:zenodo.org:266851</identifier>
      <datestamp>2017-02-01T15:55:43Z</datestamp>
      <setSpec>user-biosyslit</setSpec>
    </header>
    <header>
      <identifier>oai:zenodo.org:265630</identifier>
      <datestamp>2017-01-31T17:52:46Z</datestamp>
      <setSpec>user-biosyslit</setSpec>
    </header>
    <header>
      <identifier>oai:zenodo.org:266359</identifier>
      <datestamp>2017-02-01T06:58:09Z</datestamp>
      <setSpec>user-biosyslit</setSpec>
    </header>
    <header>
      <identifier>oai:zenodo.org:266361</identifier>
      <datestamp>2017-02-01T06:57:59Z</datestamp>
      <setSpec>user-biosyslit</setSpec>
    </header>
    <header>
      <identifier>oai:zenodo.org:266171</identifier>
      <datestamp>2017-02-01T01:36:11Z</datestamp>
      <setSpec>user-biosyslit</setSpec>
    </header>
    <header>
      <identifier>oai:zenodo.org:266633</identifier>
      <datestamp>2017-02-01T12:48:01Z</datestamp>
      <setSpec>user-biosyslit</setSpec>
    </header>
    <header>
      <identifier>oai:zenodo.org:267063</identifier>
      <datestamp>2017-02-01T18:48:29Z</datestamp>
      <setSpec>user-biosyslit</setSpec>
    </header>
    <header>
      <identifier>oai:zenodo.org:266861</identifier>
      <datestamp>2017-02-01T15:56:06Z</datestamp>
      <setSpec>user-biosyslit</setSpec>
    </header>
    <header>
      <identifier>oai:zenodo.org:274281</identifier>
      <datestamp>2017-02-08T12:43:25Z</datestamp>
      <setSpec>user-biosyslit</setSpec>
    </header>
    <header>
      <identifier>oai:zenodo.org:274346</identifier>
      <datestamp>2017-02-08T13:00:09Z</datestamp>
      <setSpec>user-biosyslit</setSpec>
    </header>
    <header>
      <identifier>oai:zenodo.org:267319</identifier>
      <datestamp>2017-02-02T00:14:59Z</datestamp>
      <setSpec>user-biosyslit</setSpec>
    </header>
    <header>
      <identifier>oai:zenodo.org:266833</identifier>
      <datestamp>2017-02-01T15:54:48Z</datestamp>
      <setSpec>user-biosyslit</setSpec>
    </header>
    <header>
      <identifier>oai:zenodo.org:266385</identifier>
      <datestamp>2017-02-01T07:33:58Z</datestamp>
      <setSpec>user-biosyslit</setSpec>
    </header>
    <header>
      <identifier>oai:zenodo.org:266534</identifier>
      <datestamp>2017-02-01T11:43:55Z</datestamp>
      <setSpec>user-biosyslit</setSpec>
    </header>
    <header>
      <identifier>oai:zenodo.org:266574</identifier>
      <datestamp>2017-02-01T12:04:06Z</datestamp>
      <setSpec>user-biosyslit</setSpec>
    </header>
    <header>
      <identifier>oai:zenodo.org:266485</identifier>
      <datestamp>2017-02-01T10:55:29Z</datestamp>
      <setSpec>user-biosyslit</setSpec>
    </header>
    <header>
      <identifier>oai:zenodo.org:266358</identifier>
      <datestamp>2017-02-01T06:49:27Z</datestamp>
      <setSpec>user-biosyslit</setSpec>
    </header>
    <header>
      <identifier>oai:zenodo.org:268370</identifier>
      <datestamp>2017-02-03T12:29:05Z</datestamp>
      <setSpec>user-biosyslit</setSpec>
    </header>
    <header>
      <identifier>oai:zenodo.org:267243</identifier>
      <datestamp>2017-02-01T23:18:58Z</datestamp>
      <setSpec>user-biosyslit</setSpec>
    </header>
    <header>
      <identifier>oai:zenodo.org:266507</identifier>
      <datestamp>2017-02-01T11:17:43Z</datestamp>
      <setSpec>user-biosyslit</setSpec>
    </header>
    <header>
      <identifier>oai:zenodo.org:267554</identifier>
      <datestamp>2017-02-02T03:45:29Z</datestamp>
      <setSpec>user-biosyslit</setSpec>
    </header>
    <header>
      <identifier>oai:zenodo.org:267203</identifier>
      <datestamp>2017-02-01T22:28:04Z</datestamp>
      <setSpec>user-biosyslit</setSpec>
    </header>
    <header>
      <identifier>oai:zenodo.org:266915</identifier>
      <datestamp>2017-02-01T16:51:52Z</datestamp>
      <setSpec>user-biosyslit</setSpec>
    </header>
    <header>
      <identifier>oai:zenodo.org:266816</identifier>
      <datestamp>2017-02-01T15:22:53Z</datestamp>
      <setSpec>user-biosyslit</setSpec>
    </header>
    <header>
      <identifier>oai:zenodo.org:267057</identifier>
      <datestamp>2017-02-01T18:48:12Z</datestamp>
      <setSpec>user-biosyslit</setSpec>
    </header>
    <header>
      <identifier>oai:zenodo.org:267388</identifier>
      <datestamp>2017-02-02T01:18:47Z</datestamp>
      <setSpec>user-biosyslit</setSpec>
    </header>
    <header>
      <identifier>oai:zenodo.org:267056</identifier>
      <datestamp>2017-02-01T18:48:10Z</datestamp>
      <setSpec>user-biosyslit</setSpec>
    </header>
    <header>
      <identifier>oai:zenodo.org:267115</identifier>
      <datestamp>2017-02-01T19:38:17Z</datestamp>
      <setSpec>user-biosyslit</setSpec>
    </header>
    <header>
      <identifier>oai:zenodo.org:267382</identifier>
      <datestamp>2017-02-02T01:07:40Z</datestamp>
      <setSpec>user-biosyslit</setSpec>
    </header>
    <header>
      <identifier>oai:zenodo.org:267170</identifier>
      <datestamp>2017-02-01T20:33:00Z</datestamp>
      <setSpec>user-biosyslit</setSpec>
    </header>
    <header>
      <identifier>oai:zenodo.org:267559</identifier>
      <datestamp>2017-02-02T03:46:09Z</datestamp>
      <setSpec>user-biosyslit</setSpec>
    </header>
    <header>
      <identifier>oai:zenodo.org:267679</identifier>
      <datestamp>2017-02-02T05:38:12Z</datestamp>
      <setSpec>user-biosyslit</setSpec>
    </header>
    <header>
      <identifier>oai:zenodo.org:274883</identifier>
      <datestamp>2017-02-08T14:41:16Z</datestamp>
      <setSpec>user-biosyslit</setSpec>
    </header>
    <header>
      <identifier>oai:zenodo.org:264061</identifier>
      <datestamp>2017-01-30T12:26:26Z</datestamp>
      <setSpec>user-biosyslit</setSpec>
    </header>
    <resumptionToken expirationDate="2017-08-31T15:43:34Z" cursor="8500" completeListSize="77796">.eJyNyrsOgjAUANB_uTMxfQhFEheDEgchtbYBF4OFELU-QjVCjf8ui7PO57zA1nUFERqxiT8J_GCMAuIzNg49sLq9GrM7DAw6V0ZfjCwT9VifFSpIw9LYdqu4oKk7oeyMnVhwkuOwkwfU8428F27dKbp8CjRnK8f79LgcXkWzxGz3yU3Iy8wIUrXZnPcCz8SW6u_Dfz7388V2Ch7cyqaGKGQenJ5l21iIXu_3B2ABUSQ.DIm_rg.tjr_DanHBwjDYefa7M8Urk0HowM</resumptionToken>
  </ListIdentifiers>
</OAI-PMH>
