<?xml version='1.0' encoding='UTF-8'?>
<?xml-stylesheet type="text/xsl" href="/static/xsl/oai2.v1.0.xsl"?>
<OAI-PMH xmlns="http://www.openarchives.org/OAI/2.0/" xmlns:xsi="http://www.w3.org/2001/XMLSchema-instance" xsi:schemaLocation="http://www.openarchives.org/OAI/2.0/ http://www.openarchives.org/OAI/2.0/OAI-PMH.xsd">
  <responseDate>2017-08-31T14:19:51Z</responseDate>
  <request verb="ListIdentifiers" resumptionToken=".eJwVzd1OgzAYgOF76TExbVn4OxsByYwfhEHL4MRgQZgURMAAXXbvm8dv8rw3NNd1hRz8YukHg5r2wbYNw7CIqaFZTD9SflyfGYkLl2KQrAz437nnOKeNGXrzBl5OwpSpqCcqeY3phVgbu-I9TtmSq_PG9dOaYN8EFa-gGhr1lR4FsvgMxoQNrkxoNUV-vCfETQpdmJAe6dMj8D0uArcslPYX8NMCnU_eM8CCVzv4ixspwODBIUzHoVLtmGXbL5Nva8GWoVStD90Ss_-XOppIQ2PZ1Mghuoa6tZyaGTm3-_0Bg7xSIA.DImsGw.AhpuOiCnPD1OIJeCr3WroXDc4vc">https://zenodo.org/oai2d</request>
  <ListIdentifiers>
    <header>
      <identifier>oai:zenodo.org:269529</identifier>
      <datestamp>2017-02-07T00:45:14Z</datestamp>
      <setSpec>user-biosyslit</setSpec>
    </header>
    <header>
      <identifier>oai:zenodo.org:230665</identifier>
      <datestamp>2017-01-05T05:57:57Z</datestamp>
      <setSpec>user-biosyslit</setSpec>
    </header>
    <header>
      <identifier>oai:zenodo.org:269359</identifier>
      <datestamp>2017-02-06T23:58:24Z</datestamp>
      <setSpec>user-biosyslit</setSpec>
    </header>
    <header>
      <identifier>oai:zenodo.org:269288</identifier>
      <datestamp>2017-02-06T23:48:25Z</datestamp>
      <setSpec>user-biosyslit</setSpec>
    </header>
    <header>
      <identifier>oai:zenodo.org:269514</identifier>
      <datestamp>2017-02-07T00:44:18Z</datestamp>
      <setSpec>user-biosyslit</setSpec>
    </header>
    <header>
      <identifier>oai:zenodo.org:269745</identifier>
      <datestamp>2017-02-07T20:15:16Z</datestamp>
      <setSpec>user-biosyslit</setSpec>
    </header>
    <header>
      <identifier>oai:zenodo.org:231884</identifier>
      <datestamp>2017-01-06T08:18:41Z</datestamp>
      <setSpec>user-biosyslit</setSpec>
    </header>
    <header>
      <identifier>oai:zenodo.org:270174</identifier>
      <datestamp>2017-02-07T22:29:15Z</datestamp>
      <setSpec>user-biosyslit</setSpec>
    </header>
    <header>
      <identifier>oai:zenodo.org:269464</identifier>
      <datestamp>2017-02-10T16:20:29Z</datestamp>
      <setSpec>openaire</setSpec>
      <setSpec>user-biosyslit</setSpec>
    </header>
    <header>
      <identifier>oai:zenodo.org:269358</identifier>
      <datestamp>2017-02-06T23:58:21Z</datestamp>
      <setSpec>user-biosyslit</setSpec>
    </header>
    <header>
      <identifier>oai:zenodo.org:231186</identifier>
      <datestamp>2017-01-05T17:02:41Z</datestamp>
      <setSpec>user-biosyslit</setSpec>
    </header>
    <header>
      <identifier>oai:zenodo.org:275246</identifier>
      <datestamp>2017-02-08T15:47:33Z</datestamp>
      <setSpec>user-biosyslit</setSpec>
    </header>
    <header>
      <identifier>oai:zenodo.org:274901</identifier>
      <datestamp>2017-02-08T14:44:55Z</datestamp>
      <setSpec>user-biosyslit</setSpec>
    </header>
    <header>
      <identifier>oai:zenodo.org:275586</identifier>
      <datestamp>2017-02-08T16:45:04Z</datestamp>
      <setSpec>user-biosyslit</setSpec>
    </header>
    <header>
      <identifier>oai:zenodo.org:270210</identifier>
      <datestamp>2017-02-07T22:32:16Z</datestamp>
      <setSpec>user-biosyslit</setSpec>
    </header>
    <header>
      <identifier>oai:zenodo.org:269602</identifier>
      <datestamp>2017-02-07T01:06:32Z</datestamp>
      <setSpec>user-biosyslit</setSpec>
    </header>
    <header>
      <identifier>oai:zenodo.org:269516</identifier>
      <datestamp>2017-02-07T00:44:24Z</datestamp>
      <setSpec>user-biosyslit</setSpec>
    </header>
    <header>
      <identifier>oai:zenodo.org:275053</identifier>
      <datestamp>2017-02-08T15:09:05Z</datestamp>
      <setSpec>user-biosyslit</setSpec>
    </header>
    <header>
      <identifier>oai:zenodo.org:269471</identifier>
      <datestamp>2017-02-07T00:42:15Z</datestamp>
      <setSpec>user-biosyslit</setSpec>
    </header>
    <header>
      <identifier>oai:zenodo.org:271612</identifier>
      <datestamp>2017-02-08T02:03:31Z</datestamp>
      <setSpec>user-biosyslit</setSpec>
    </header>
    <header>
      <identifier>oai:zenodo.org:269523</identifier>
      <datestamp>2017-02-07T00:44:49Z</datestamp>
      <setSpec>user-biosyslit</setSpec>
    </header>
    <header>
      <identifier>oai:zenodo.org:233661</identifier>
      <datestamp>2017-01-08T09:25:54Z</datestamp>
      <setSpec>user-biosyslit</setSpec>
    </header>
    <header>
      <identifier>oai:zenodo.org:275244</identifier>
      <datestamp>2017-02-08T15:47:28Z</datestamp>
      <setSpec>user-biosyslit</setSpec>
    </header>
    <header>
      <identifier>oai:zenodo.org:232476</identifier>
      <datestamp>2017-01-06T18:21:16Z</datestamp>
      <setSpec>user-biosyslit</setSpec>
    </header>
    <header>
      <identifier>oai:zenodo.org:232437</identifier>
      <datestamp>2017-01-06T17:35:23Z</datestamp>
      <setSpec>user-biosyslit</setSpec>
    </header>
    <header>
      <identifier>oai:zenodo.org:232457</identifier>
      <datestamp>2017-01-06T17:57:50Z</datestamp>
      <setSpec>user-biosyslit</setSpec>
    </header>
    <header>
      <identifier>oai:zenodo.org:233327</identifier>
      <datestamp>2017-01-08T03:33:07Z</datestamp>
      <setSpec>user-biosyslit</setSpec>
    </header>
    <header>
      <identifier>oai:zenodo.org:275518</identifier>
      <datestamp>2017-02-08T16:36:52Z</datestamp>
      <setSpec>user-biosyslit</setSpec>
    </header>
    <header>
      <identifier>oai:zenodo.org:270440</identifier>
      <datestamp>2017-02-07T23:15:31Z</datestamp>
      <setSpec>user-biosyslit</setSpec>
    </header>
    <header>
      <identifier>oai:zenodo.org:275874</identifier>
      <datestamp>2017-02-08T17:17:06Z</datestamp>
      <setSpec>user-biosyslit</setSpec>
    </header>
    <header>
      <identifier>oai:zenodo.org:234031</identifier>
      <datestamp>2017-01-08T14:13:14Z</datestamp>
      <setSpec>user-biosyslit</setSpec>
    </header>
    <header>
      <identifier>oai:zenodo.org:233694</identifier>
      <datestamp>2017-01-08T10:13:12Z</datestamp>
      <setSpec>user-biosyslit</setSpec>
    </header>
    <header>
      <identifier>oai:zenodo.org:277303</identifier>
      <datestamp>2017-02-08T20:50:02Z</datestamp>
      <setSpec>user-biosyslit</setSpec>
    </header>
    <header>
      <identifier>oai:zenodo.org:277166</identifier>
      <datestamp>2017-02-08T20:33:04Z</datestamp>
      <setSpec>user-biosyslit</setSpec>
    </header>
    <header>
      <identifier>oai:zenodo.org:234344</identifier>
      <datestamp>2017-01-08T18:35:08Z</datestamp>
      <setSpec>user-biosyslit</setSpec>
    </header>
    <header>
      <identifier>oai:zenodo.org:277814</identifier>
      <datestamp>2017-02-08T21:52:13Z</datestamp>
      <setSpec>user-biosyslit</setSpec>
    </header>
    <header>
      <identifier>oai:zenodo.org:235931</identifier>
      <datestamp>2017-01-09T16:56:21Z</datestamp>
      <setSpec>user-biosyslit</setSpec>
    </header>
    <header>
      <identifier>oai:zenodo.org:276822</identifier>
      <datestamp>2017-02-08T19:46:39Z</datestamp>
      <setSpec>user-biosyslit</setSpec>
    </header>
    <header>
      <identifier>oai:zenodo.org:277074</identifier>
      <datestamp>2017-02-08T20:19:30Z</datestamp>
      <setSpec>user-biosyslit</setSpec>
    </header>
    <header>
      <identifier>oai:zenodo.org:277636</identifier>
      <datestamp>2017-02-08T21:30:50Z</datestamp>
      <setSpec>user-biosyslit</setSpec>
    </header>
    <header>
      <identifier>oai:zenodo.org:277187</identifier>
      <datestamp>2017-02-08T20:34:14Z</datestamp>
      <setSpec>user-biosyslit</setSpec>
    </header>
    <header>
      <identifier>oai:zenodo.org:234861</identifier>
      <datestamp>2017-01-09T02:57:26Z</datestamp>
      <setSpec>user-biosyslit</setSpec>
    </header>
    <header>
      <identifier>oai:zenodo.org:234579</identifier>
      <datestamp>2017-01-08T22:10:50Z</datestamp>
      <setSpec>user-biosyslit</setSpec>
    </header>
    <header>
      <identifier>oai:zenodo.org:277602</identifier>
      <datestamp>2017-02-08T21:28:11Z</datestamp>
      <setSpec>user-biosyslit</setSpec>
    </header>
    <header>
      <identifier>oai:zenodo.org:234999</identifier>
      <datestamp>2017-01-09T04:28:40Z</datestamp>
      <setSpec>user-biosyslit</setSpec>
    </header>
    <header>
      <identifier>oai:zenodo.org:234852</identifier>
      <datestamp>2017-01-09T02:41:00Z</datestamp>
      <setSpec>user-biosyslit</setSpec>
    </header>
    <header>
      <identifier>oai:zenodo.org:234816</identifier>
      <datestamp>2017-01-09T02:26:46Z</datestamp>
      <setSpec>user-biosyslit</setSpec>
    </header>
    <header>
      <identifier>oai:zenodo.org:271091</identifier>
      <datestamp>2017-02-08T00:44:53Z</datestamp>
      <setSpec>user-biosyslit</setSpec>
    </header>
    <header>
      <identifier>oai:zenodo.org:234841</identifier>
      <datestamp>2017-01-09T02:40:21Z</datestamp>
      <setSpec>user-biosyslit</setSpec>
    </header>
    <header>
      <identifier>oai:zenodo.org:235115</identifier>
      <datestamp>2017-01-09T05:44:26Z</datestamp>
      <setSpec>user-biosyslit</setSpec>
    </header>
    <header>
      <identifier>oai:zenodo.org:235372</identifier>
      <datestamp>2017-01-09T09:31:24Z</datestamp>
      <setSpec>user-biosyslit</setSpec>
    </header>
    <header>
      <identifier>oai:zenodo.org:236996</identifier>
      <datestamp>2017-01-10T09:17:50Z</datestamp>
      <setSpec>user-biosyslit</setSpec>
    </header>
    <header>
      <identifier>oai:zenodo.org:276687</identifier>
      <datestamp>2017-02-08T19:28:11Z</datestamp>
      <setSpec>user-biosyslit</setSpec>
    </header>
    <header>
      <identifier>oai:zenodo.org:234850</identifier>
      <datestamp>2017-01-09T02:40:52Z</datestamp>
      <setSpec>user-biosyslit</setSpec>
    </header>
    <header>
      <identifier>oai:zenodo.org:235497</identifier>
      <datestamp>2017-01-09T10:42:06Z</datestamp>
      <setSpec>user-biosyslit</setSpec>
    </header>
    <header>
      <identifier>oai:zenodo.org:236410</identifier>
      <datestamp>2017-01-09T23:55:53Z</datestamp>
      <setSpec>user-biosyslit</setSpec>
    </header>
    <header>
      <identifier>oai:zenodo.org:235925</identifier>
      <datestamp>2017-01-09T16:56:06Z</datestamp>
      <setSpec>user-biosyslit</setSpec>
    </header>
    <header>
      <identifier>oai:zenodo.org:236032</identifier>
      <datestamp>2017-01-09T18:01:40Z</datestamp>
      <setSpec>user-biosyslit</setSpec>
    </header>
    <header>
      <identifier>oai:zenodo.org:278414</identifier>
      <datestamp>2017-02-08T23:08:30Z</datestamp>
      <setSpec>user-biosyslit</setSpec>
    </header>
    <header>
      <identifier>oai:zenodo.org:277884</identifier>
      <datestamp>2017-02-08T22:00:58Z</datestamp>
      <setSpec>user-biosyslit</setSpec>
    </header>
    <header>
      <identifier>oai:zenodo.org:277799</identifier>
      <datestamp>2017-02-08T21:50:36Z</datestamp>
      <setSpec>user-biosyslit</setSpec>
    </header>
    <header>
      <identifier>oai:zenodo.org:237242</identifier>
      <datestamp>2017-01-10T12:51:19Z</datestamp>
      <setSpec>user-biosyslit</setSpec>
    </header>
    <header>
      <identifier>oai:zenodo.org:237732</identifier>
      <datestamp>2017-01-10T19:14:34Z</datestamp>
      <setSpec>user-biosyslit</setSpec>
    </header>
    <header>
      <identifier>oai:zenodo.org:236087</identifier>
      <datestamp>2017-01-09T18:31:51Z</datestamp>
      <setSpec>user-biosyslit</setSpec>
    </header>
    <header>
      <identifier>oai:zenodo.org:277305</identifier>
      <datestamp>2017-02-08T20:50:01Z</datestamp>
      <setSpec>user-biosyslit</setSpec>
    </header>
    <header>
      <identifier>oai:zenodo.org:236453</identifier>
      <datestamp>2017-01-10T00:19:03Z</datestamp>
      <setSpec>user-biosyslit</setSpec>
    </header>
    <header>
      <identifier>oai:zenodo.org:236606</identifier>
      <datestamp>2017-01-10T01:59:36Z</datestamp>
      <setSpec>user-biosyslit</setSpec>
    </header>
    <header>
      <identifier>oai:zenodo.org:277922</identifier>
      <datestamp>2017-02-08T22:04:50Z</datestamp>
      <setSpec>user-biosyslit</setSpec>
    </header>
    <header>
      <identifier>oai:zenodo.org:237735</identifier>
      <datestamp>2017-01-10T19:14:21Z</datestamp>
      <setSpec>user-biosyslit</setSpec>
    </header>
    <header>
      <identifier>oai:zenodo.org:278157</identifier>
      <datestamp>2017-02-08T22:34:37Z</datestamp>
      <setSpec>user-biosyslit</setSpec>
    </header>
    <header>
      <identifier>oai:zenodo.org:237316</identifier>
      <datestamp>2017-01-10T14:14:11Z</datestamp>
      <setSpec>user-biosyslit</setSpec>
    </header>
    <header>
      <identifier>oai:zenodo.org:271936</identifier>
      <datestamp>2017-02-08T03:07:21Z</datestamp>
      <setSpec>user-biosyslit</setSpec>
    </header>
    <header>
      <identifier>oai:zenodo.org:271293</identifier>
      <datestamp>2017-02-08T01:15:51Z</datestamp>
      <setSpec>user-biosyslit</setSpec>
    </header>
    <header>
      <identifier>oai:zenodo.org:237633</identifier>
      <datestamp>2017-01-10T18:03:10Z</datestamp>
      <setSpec>user-biosyslit</setSpec>
    </header>
    <header>
      <identifier>oai:zenodo.org:238626</identifier>
      <datestamp>2017-01-11T08:14:54Z</datestamp>
      <setSpec>user-biosyslit</setSpec>
    </header>
    <header>
      <identifier>oai:zenodo.org:278204</identifier>
      <datestamp>2017-02-08T22:39:50Z</datestamp>
      <setSpec>user-biosyslit</setSpec>
    </header>
    <header>
      <identifier>oai:zenodo.org:278007</identifier>
      <datestamp>2017-02-08T22:16:25Z</datestamp>
      <setSpec>user-biosyslit</setSpec>
    </header>
    <header>
      <identifier>oai:zenodo.org:271923</identifier>
      <datestamp>2017-02-08T03:04:41Z</datestamp>
      <setSpec>user-biosyslit</setSpec>
    </header>
    <header>
      <identifier>oai:zenodo.org:238586</identifier>
      <datestamp>2017-01-11T07:55:16Z</datestamp>
      <setSpec>user-biosyslit</setSpec>
    </header>
    <header>
      <identifier>oai:zenodo.org:238340</identifier>
      <datestamp>2017-01-11T04:27:19Z</datestamp>
      <setSpec>user-biosyslit</setSpec>
    </header>
    <header>
      <identifier>oai:zenodo.org:238845</identifier>
      <datestamp>2017-01-11T11:31:20Z</datestamp>
      <setSpec>user-biosyslit</setSpec>
    </header>
    <header>
      <identifier>oai:zenodo.org:278107</identifier>
      <datestamp>2017-02-08T22:27:35Z</datestamp>
      <setSpec>user-biosyslit</setSpec>
    </header>
    <header>
      <identifier>oai:zenodo.org:238504</identifier>
      <datestamp>2017-01-11T06:40:33Z</datestamp>
      <setSpec>user-biosyslit</setSpec>
    </header>
    <header>
      <identifier>oai:zenodo.org:278147</identifier>
      <datestamp>2017-02-08T22:32:39Z</datestamp>
      <setSpec>user-biosyslit</setSpec>
    </header>
    <header>
      <identifier>oai:zenodo.org:240007</identifier>
      <datestamp>2017-01-12T03:36:16Z</datestamp>
      <setSpec>user-biosyslit</setSpec>
    </header>
    <header>
      <identifier>oai:zenodo.org:278433</identifier>
      <datestamp>2017-02-08T23:10:08Z</datestamp>
      <setSpec>user-biosyslit</setSpec>
    </header>
    <header>
      <identifier>oai:zenodo.org:278619</identifier>
      <datestamp>2017-02-08T23:32:52Z</datestamp>
      <setSpec>user-biosyslit</setSpec>
    </header>
    <header>
      <identifier>oai:zenodo.org:238817</identifier>
      <datestamp>2017-01-11T11:24:11Z</datestamp>
      <setSpec>user-biosyslit</setSpec>
    </header>
    <header>
      <identifier>oai:zenodo.org:239069</identifier>
      <datestamp>2017-01-11T16:05:49Z</datestamp>
      <setSpec>user-biosyslit</setSpec>
    </header>
    <header>
      <identifier>oai:zenodo.org:240100</identifier>
      <datestamp>2017-01-12T04:40:10Z</datestamp>
      <setSpec>user-biosyslit</setSpec>
    </header>
    <header>
      <identifier>oai:zenodo.org:240444</identifier>
      <datestamp>2017-01-12T08:42:37Z</datestamp>
      <setSpec>user-biosyslit</setSpec>
    </header>
    <header>
      <identifier>oai:zenodo.org:272380</identifier>
      <datestamp>2017-02-08T04:23:02Z</datestamp>
      <setSpec>user-biosyslit</setSpec>
    </header>
    <header>
      <identifier>oai:zenodo.org:239779</identifier>
      <datestamp>2017-01-12T00:45:56Z</datestamp>
      <setSpec>user-biosyslit</setSpec>
    </header>
    <header>
      <identifier>oai:zenodo.org:239486</identifier>
      <datestamp>2017-01-11T21:22:21Z</datestamp>
      <setSpec>user-biosyslit</setSpec>
    </header>
    <header>
      <identifier>oai:zenodo.org:278427</identifier>
      <datestamp>2017-02-08T23:09:28Z</datestamp>
      <setSpec>user-biosyslit</setSpec>
    </header>
    <header>
      <identifier>oai:zenodo.org:238970</identifier>
      <datestamp>2017-01-11T14:08:14Z</datestamp>
      <setSpec>user-biosyslit</setSpec>
    </header>
    <header>
      <identifier>oai:zenodo.org:278844</identifier>
      <datestamp>2017-02-09T00:00:42Z</datestamp>
      <setSpec>user-biosyslit</setSpec>
    </header>
    <header>
      <identifier>oai:zenodo.org:239112</identifier>
      <datestamp>2017-01-11T16:37:38Z</datestamp>
      <setSpec>user-biosyslit</setSpec>
    </header>
    <header>
      <identifier>oai:zenodo.org:278075</identifier>
      <datestamp>2017-02-08T22:23:29Z</datestamp>
      <setSpec>user-biosyslit</setSpec>
    </header>
    <header>
      <identifier>oai:zenodo.org:241023</identifier>
      <datestamp>2017-01-12T19:06:47Z</datestamp>
      <setSpec>user-biosyslit</setSpec>
    </header>
    <resumptionToken expirationDate="2017-08-31T14:21:52Z" cursor="1200" completeListSize="142507">.eJwVzdFuREAYQOF3mWtpZgal7laobNOfWIblptGhbA1VpsFs9t13e32S71zR0jQ1cvCTiU1DJ7ph28-2bVKqoYXPP0J8XB4Z8XMm-ChYFWR_pyHDBW2t0Fs28AoSpkxFA1HJa0zPxN7YBe9xymShTlumH9cE-xaoeAXV0mio9SgQ5WcwJWx0RULrOfLjPSFuUurcgvRAHx6B70ly3LFQvHxBdpTQ--Q9B8yzegdfupECDB4YYTqNteqmPN9-mXhbSybHSnU-9DJm_y91sJCGpqptkEMMDfVrNbcLcq632x1umFIK.DImsiA.Ens8_b91NsuQDEdN9qJDH7z43wY</resumptionToken>
  </ListIdentifiers>
</OAI-PMH>
