<?xml version='1.0' encoding='UTF-8'?>
<?xml-stylesheet type="text/xsl" href="/static/xsl/oai2.v1.0.xsl"?>
<OAI-PMH xmlns="http://www.openarchives.org/OAI/2.0/" xmlns:xsi="http://www.w3.org/2001/XMLSchema-instance" xsi:schemaLocation="http://www.openarchives.org/OAI/2.0/ http://www.openarchives.org/OAI/2.0/OAI-PMH.xsd">
  <responseDate>2017-08-31T15:43:17Z</responseDate>
  <request verb="ListIdentifiers" resumptionToken=".eJyNyk0LgjAYAOD_8p4l9iE6hC6hiQeVtSbaJUxFrGXiinThf69L5zo_zwt009TgoZWDsc1sxhyXEEQotkBX402pY_dhqPJMVb2SZZg9dtcMFaR1E19PsV_QxFxQesVGbDnJMZtkh2a-l_fC7KaMRk-BAjc2fE7O0efVNA3V4RQOQvYbJUg9pgGfBd6IA62-D__5zM_n6zVYMJRtAx61mQWXZzm2GrzXsrwBllFROQ.DInAFQ.PpdR55tRXXgPnjAepT8xoRABtT4">https://zenodo.org/oai2d</request>
  <ListIdentifiers>
    <header>
      <identifier>oai:zenodo.org:248796</identifier>
      <datestamp>2017-01-17T11:03:18Z</datestamp>
      <setSpec>user-biosyslit</setSpec>
    </header>
    <header>
      <identifier>oai:zenodo.org:226685</identifier>
      <datestamp>2017-01-01T02:00:55Z</datestamp>
      <setSpec>user-biosyslit</setSpec>
    </header>
    <header>
      <identifier>oai:zenodo.org:270351</identifier>
      <datestamp>2017-02-07T23:03:20Z</datestamp>
      <setSpec>user-biosyslit</setSpec>
    </header>
    <header>
      <identifier>oai:zenodo.org:226703</identifier>
      <datestamp>2017-01-01T02:00:47Z</datestamp>
      <setSpec>user-biosyslit</setSpec>
    </header>
    <header>
      <identifier>oai:zenodo.org:226698</identifier>
      <datestamp>2017-01-01T02:00:33Z</datestamp>
      <setSpec>user-biosyslit</setSpec>
    </header>
    <header>
      <identifier>oai:zenodo.org:226699</identifier>
      <datestamp>2017-01-01T02:00:36Z</datestamp>
      <setSpec>user-biosyslit</setSpec>
    </header>
    <header>
      <identifier>oai:zenodo.org:226695</identifier>
      <datestamp>2017-01-01T02:00:21Z</datestamp>
      <setSpec>user-biosyslit</setSpec>
    </header>
    <header>
      <identifier>oai:zenodo.org:226694</identifier>
      <datestamp>2017-01-01T02:00:19Z</datestamp>
      <setSpec>user-biosyslit</setSpec>
    </header>
    <header>
      <identifier>oai:zenodo.org:226697</identifier>
      <datestamp>2017-01-01T02:00:30Z</datestamp>
      <setSpec>user-biosyslit</setSpec>
    </header>
    <header>
      <identifier>oai:zenodo.org:286107</identifier>
      <datestamp>2017-02-09T15:15:22Z</datestamp>
      <setSpec>user-biosyslit</setSpec>
    </header>
    <header>
      <identifier>oai:zenodo.org:236666</identifier>
      <datestamp>2017-01-10T02:40:59Z</datestamp>
      <setSpec>user-biosyslit</setSpec>
    </header>
    <header>
      <identifier>oai:zenodo.org:286111</identifier>
      <datestamp>2017-02-09T15:15:31Z</datestamp>
      <setSpec>user-biosyslit</setSpec>
    </header>
    <header>
      <identifier>oai:zenodo.org:227519</identifier>
      <datestamp>2017-01-01T22:59:49Z</datestamp>
      <setSpec>user-biosyslit</setSpec>
    </header>
    <header>
      <identifier>oai:zenodo.org:286108</identifier>
      <datestamp>2017-02-09T15:15:24Z</datestamp>
      <setSpec>user-biosyslit</setSpec>
    </header>
    <header>
      <identifier>oai:zenodo.org:286109</identifier>
      <datestamp>2017-02-09T15:15:26Z</datestamp>
      <setSpec>user-biosyslit</setSpec>
    </header>
    <header>
      <identifier>oai:zenodo.org:236668</identifier>
      <datestamp>2017-01-10T02:40:50Z</datestamp>
      <setSpec>user-biosyslit</setSpec>
    </header>
    <header>
      <identifier>oai:zenodo.org:256038</identifier>
      <datestamp>2017-01-22T02:42:45Z</datestamp>
      <setSpec>user-biosyslit</setSpec>
    </header>
    <header>
      <identifier>oai:zenodo.org:236667</identifier>
      <datestamp>2017-01-10T02:40:47Z</datestamp>
      <setSpec>user-biosyslit</setSpec>
    </header>
    <header>
      <identifier>oai:zenodo.org:277567</identifier>
      <datestamp>2017-02-08T21:23:46Z</datestamp>
      <setSpec>user-biosyslit</setSpec>
    </header>
    <header>
      <identifier>oai:zenodo.org:277571</identifier>
      <datestamp>2017-02-08T21:23:44Z</datestamp>
      <setSpec>user-biosyslit</setSpec>
    </header>
    <header>
      <identifier>oai:zenodo.org:243318</identifier>
      <datestamp>2017-01-14T02:35:30Z</datestamp>
      <setSpec>user-biosyslit</setSpec>
    </header>
    <header>
      <identifier>oai:zenodo.org:255272</identifier>
      <datestamp>2017-01-21T10:41:30Z</datestamp>
      <setSpec>user-biosyslit</setSpec>
    </header>
    <header>
      <identifier>oai:zenodo.org:255269</identifier>
      <datestamp>2017-01-21T10:41:21Z</datestamp>
      <setSpec>user-biosyslit</setSpec>
    </header>
    <header>
      <identifier>oai:zenodo.org:255268</identifier>
      <datestamp>2017-01-21T10:41:17Z</datestamp>
      <setSpec>user-biosyslit</setSpec>
    </header>
    <header>
      <identifier>oai:zenodo.org:245736</identifier>
      <datestamp>2017-01-15T18:04:27Z</datestamp>
      <setSpec>user-biosyslit</setSpec>
    </header>
    <header>
      <identifier>oai:zenodo.org:234930</identifier>
      <datestamp>2017-01-09T03:39:17Z</datestamp>
      <setSpec>user-biosyslit</setSpec>
    </header>
    <header>
      <identifier>oai:zenodo.org:234927</identifier>
      <datestamp>2017-01-09T03:39:06Z</datestamp>
      <setSpec>user-biosyslit</setSpec>
    </header>
    <header>
      <identifier>oai:zenodo.org:230337</identifier>
      <datestamp>2017-01-04T22:57:07Z</datestamp>
      <setSpec>user-biosyslit</setSpec>
    </header>
    <header>
      <identifier>oai:zenodo.org:271083</identifier>
      <datestamp>2017-02-08T00:44:20Z</datestamp>
      <setSpec>user-biosyslit</setSpec>
    </header>
    <header>
      <identifier>oai:zenodo.org:230338</identifier>
      <datestamp>2017-01-04T22:57:10Z</datestamp>
      <setSpec>user-biosyslit</setSpec>
    </header>
    <header>
      <identifier>oai:zenodo.org:230335</identifier>
      <datestamp>2017-01-04T22:57:01Z</datestamp>
      <setSpec>user-biosyslit</setSpec>
    </header>
    <header>
      <identifier>oai:zenodo.org:283814</identifier>
      <datestamp>2017-02-09T09:51:54Z</datestamp>
      <setSpec>user-biosyslit</setSpec>
    </header>
    <header>
      <identifier>oai:zenodo.org:283815</identifier>
      <datestamp>2017-02-09T09:51:49Z</datestamp>
      <setSpec>user-biosyslit</setSpec>
    </header>
    <header>
      <identifier>oai:zenodo.org:283816</identifier>
      <datestamp>2017-02-09T09:51:51Z</datestamp>
      <setSpec>user-biosyslit</setSpec>
    </header>
    <header>
      <identifier>oai:zenodo.org:286049</identifier>
      <datestamp>2017-02-09T15:07:45Z</datestamp>
      <setSpec>user-biosyslit</setSpec>
    </header>
    <header>
      <identifier>oai:zenodo.org:261833</identifier>
      <datestamp>2017-01-28T15:40:23Z</datestamp>
      <setSpec>user-biosyslit</setSpec>
    </header>
    <header>
      <identifier>oai:zenodo.org:242989</identifier>
      <datestamp>2017-01-13T21:25:22Z</datestamp>
      <setSpec>user-biosyslit</setSpec>
    </header>
    <header>
      <identifier>oai:zenodo.org:242988</identifier>
      <datestamp>2017-01-13T21:25:19Z</datestamp>
      <setSpec>user-biosyslit</setSpec>
    </header>
    <header>
      <identifier>oai:zenodo.org:242987</identifier>
      <datestamp>2017-01-13T21:25:16Z</datestamp>
      <setSpec>user-biosyslit</setSpec>
    </header>
    <header>
      <identifier>oai:zenodo.org:242985</identifier>
      <datestamp>2017-01-13T21:25:11Z</datestamp>
      <setSpec>user-biosyslit</setSpec>
    </header>
    <header>
      <identifier>oai:zenodo.org:242982</identifier>
      <datestamp>2017-01-13T21:25:02Z</datestamp>
      <setSpec>user-biosyslit</setSpec>
    </header>
    <header>
      <identifier>oai:zenodo.org:247754</identifier>
      <datestamp>2017-01-16T19:33:01Z</datestamp>
      <setSpec>user-biosyslit</setSpec>
    </header>
    <header>
      <identifier>oai:zenodo.org:270689</identifier>
      <datestamp>2017-02-07T23:48:01Z</datestamp>
      <setSpec>user-biosyslit</setSpec>
    </header>
    <header>
      <identifier>oai:zenodo.org:283876</identifier>
      <datestamp>2017-02-09T09:59:00Z</datestamp>
      <setSpec>user-biosyslit</setSpec>
    </header>
    <header>
      <identifier>oai:zenodo.org:270682</identifier>
      <datestamp>2017-02-07T23:47:39Z</datestamp>
      <setSpec>user-biosyslit</setSpec>
    </header>
    <header>
      <identifier>oai:zenodo.org:270690</identifier>
      <datestamp>2017-02-07T23:48:03Z</datestamp>
      <setSpec>user-biosyslit</setSpec>
    </header>
    <header>
      <identifier>oai:zenodo.org:247759</identifier>
      <datestamp>2017-01-16T19:33:00Z</datestamp>
      <setSpec>user-biosyslit</setSpec>
    </header>
    <header>
      <identifier>oai:zenodo.org:288389</identifier>
      <datestamp>2017-02-09T20:48:43Z</datestamp>
      <setSpec>user-biosyslit</setSpec>
    </header>
    <header>
      <identifier>oai:zenodo.org:279151</identifier>
      <datestamp>2017-02-09T00:42:56Z</datestamp>
      <setSpec>user-biosyslit</setSpec>
    </header>
    <header>
      <identifier>oai:zenodo.org:279153</identifier>
      <datestamp>2017-02-09T00:43:01Z</datestamp>
      <setSpec>user-biosyslit</setSpec>
    </header>
    <header>
      <identifier>oai:zenodo.org:238655</identifier>
      <datestamp>2017-01-11T08:52:15Z</datestamp>
      <setSpec>user-biosyslit</setSpec>
    </header>
    <header>
      <identifier>oai:zenodo.org:238665</identifier>
      <datestamp>2017-01-11T08:52:13Z</datestamp>
      <setSpec>user-biosyslit</setSpec>
    </header>
    <header>
      <identifier>oai:zenodo.org:256694</identifier>
      <datestamp>2017-01-22T19:29:11Z</datestamp>
      <setSpec>user-biosyslit</setSpec>
    </header>
    <header>
      <identifier>oai:zenodo.org:280476</identifier>
      <datestamp>2017-02-09T03:29:41Z</datestamp>
      <setSpec>user-biosyslit</setSpec>
    </header>
    <header>
      <identifier>oai:zenodo.org:256696</identifier>
      <datestamp>2017-01-22T19:28:59Z</datestamp>
      <setSpec>user-biosyslit</setSpec>
    </header>
    <header>
      <identifier>oai:zenodo.org:256697</identifier>
      <datestamp>2017-01-22T19:29:02Z</datestamp>
      <setSpec>user-biosyslit</setSpec>
    </header>
    <header>
      <identifier>oai:zenodo.org:256699</identifier>
      <datestamp>2017-01-22T19:29:09Z</datestamp>
      <setSpec>user-biosyslit</setSpec>
    </header>
    <header>
      <identifier>oai:zenodo.org:239596</identifier>
      <datestamp>2017-01-11T22:36:16Z</datestamp>
      <setSpec>user-biosyslit</setSpec>
    </header>
    <header>
      <identifier>oai:zenodo.org:239593</identifier>
      <datestamp>2017-01-11T22:36:06Z</datestamp>
      <setSpec>user-biosyslit</setSpec>
    </header>
    <header>
      <identifier>oai:zenodo.org:239592</identifier>
      <datestamp>2017-01-11T22:36:03Z</datestamp>
      <setSpec>user-biosyslit</setSpec>
    </header>
    <header>
      <identifier>oai:zenodo.org:239598</identifier>
      <datestamp>2017-01-11T22:36:22Z</datestamp>
      <setSpec>user-biosyslit</setSpec>
    </header>
    <header>
      <identifier>oai:zenodo.org:239597</identifier>
      <datestamp>2017-01-11T22:36:19Z</datestamp>
      <setSpec>user-biosyslit</setSpec>
    </header>
    <header>
      <identifier>oai:zenodo.org:245761</identifier>
      <datestamp>2017-01-15T18:22:19Z</datestamp>
      <setSpec>user-biosyslit</setSpec>
    </header>
    <header>
      <identifier>oai:zenodo.org:243577</identifier>
      <datestamp>2017-01-14T07:50:02Z</datestamp>
      <setSpec>user-biosyslit</setSpec>
    </header>
    <header>
      <identifier>oai:zenodo.org:233705</identifier>
      <datestamp>2017-01-08T10:27:24Z</datestamp>
      <setSpec>user-biosyslit</setSpec>
    </header>
    <header>
      <identifier>oai:zenodo.org:233708</identifier>
      <datestamp>2017-01-08T10:27:34Z</datestamp>
      <setSpec>user-biosyslit</setSpec>
    </header>
    <header>
      <identifier>oai:zenodo.org:243581</identifier>
      <datestamp>2017-01-14T07:49:41Z</datestamp>
      <setSpec>user-biosyslit</setSpec>
    </header>
    <header>
      <identifier>oai:zenodo.org:243580</identifier>
      <datestamp>2017-01-14T07:49:37Z</datestamp>
      <setSpec>user-biosyslit</setSpec>
    </header>
    <header>
      <identifier>oai:zenodo.org:245765</identifier>
      <datestamp>2017-01-15T18:22:05Z</datestamp>
      <setSpec>user-biosyslit</setSpec>
    </header>
    <header>
      <identifier>oai:zenodo.org:245767</identifier>
      <datestamp>2017-01-15T18:22:10Z</datestamp>
      <setSpec>user-biosyslit</setSpec>
    </header>
    <header>
      <identifier>oai:zenodo.org:231988</identifier>
      <datestamp>2017-01-06T09:58:37Z</datestamp>
      <setSpec>user-biosyslit</setSpec>
    </header>
    <header>
      <identifier>oai:zenodo.org:231997</identifier>
      <datestamp>2017-01-06T09:58:36Z</datestamp>
      <setSpec>user-biosyslit</setSpec>
    </header>
    <header>
      <identifier>oai:zenodo.org:231992</identifier>
      <datestamp>2017-01-06T09:58:21Z</datestamp>
      <setSpec>user-biosyslit</setSpec>
    </header>
    <header>
      <identifier>oai:zenodo.org:231994</identifier>
      <datestamp>2017-01-06T09:58:27Z</datestamp>
      <setSpec>user-biosyslit</setSpec>
    </header>
    <header>
      <identifier>oai:zenodo.org:271205</identifier>
      <datestamp>2017-02-08T01:01:30Z</datestamp>
      <setSpec>user-biosyslit</setSpec>
    </header>
    <header>
      <identifier>oai:zenodo.org:271203</identifier>
      <datestamp>2017-02-08T01:01:25Z</datestamp>
      <setSpec>user-biosyslit</setSpec>
    </header>
    <header>
      <identifier>oai:zenodo.org:228564</identifier>
      <datestamp>2017-01-03T01:41:07Z</datestamp>
      <setSpec>user-biosyslit</setSpec>
    </header>
    <header>
      <identifier>oai:zenodo.org:228562</identifier>
      <datestamp>2017-01-03T01:41:00Z</datestamp>
      <setSpec>user-biosyslit</setSpec>
    </header>
    <header>
      <identifier>oai:zenodo.org:228566</identifier>
      <datestamp>2017-01-03T01:41:13Z</datestamp>
      <setSpec>user-biosyslit</setSpec>
    </header>
    <header>
      <identifier>oai:zenodo.org:228567</identifier>
      <datestamp>2017-01-03T01:41:15Z</datestamp>
      <setSpec>user-biosyslit</setSpec>
    </header>
    <header>
      <identifier>oai:zenodo.org:227355</identifier>
      <datestamp>2017-01-01T19:45:47Z</datestamp>
      <setSpec>user-biosyslit</setSpec>
    </header>
    <header>
      <identifier>oai:zenodo.org:227360</identifier>
      <datestamp>2017-01-01T19:45:37Z</datestamp>
      <setSpec>user-biosyslit</setSpec>
    </header>
    <header>
      <identifier>oai:zenodo.org:227359</identifier>
      <datestamp>2017-01-01T19:45:33Z</datestamp>
      <setSpec>user-biosyslit</setSpec>
    </header>
    <header>
      <identifier>oai:zenodo.org:227361</identifier>
      <datestamp>2017-01-01T19:45:40Z</datestamp>
      <setSpec>user-biosyslit</setSpec>
    </header>
    <header>
      <identifier>oai:zenodo.org:227357</identifier>
      <datestamp>2017-01-01T19:45:28Z</datestamp>
      <setSpec>user-biosyslit</setSpec>
    </header>
    <header>
      <identifier>oai:zenodo.org:227362</identifier>
      <datestamp>2017-01-01T19:45:43Z</datestamp>
      <setSpec>user-biosyslit</setSpec>
    </header>
    <header>
      <identifier>oai:zenodo.org:229713</identifier>
      <datestamp>2017-01-03T20:47:52Z</datestamp>
      <setSpec>user-biosyslit</setSpec>
    </header>
    <header>
      <identifier>oai:zenodo.org:229711</identifier>
      <datestamp>2017-01-03T20:47:45Z</datestamp>
      <setSpec>user-biosyslit</setSpec>
    </header>
    <header>
      <identifier>oai:zenodo.org:237597</identifier>
      <datestamp>2017-01-10T17:38:15Z</datestamp>
      <setSpec>user-biosyslit</setSpec>
    </header>
    <header>
      <identifier>oai:zenodo.org:237600</identifier>
      <datestamp>2017-01-10T17:38:24Z</datestamp>
      <setSpec>user-biosyslit</setSpec>
    </header>
    <header>
      <identifier>oai:zenodo.org:241680</identifier>
      <datestamp>2017-01-13T04:46:19Z</datestamp>
      <setSpec>user-biosyslit</setSpec>
    </header>
    <header>
      <identifier>oai:zenodo.org:241681</identifier>
      <datestamp>2017-01-13T04:46:07Z</datestamp>
      <setSpec>user-biosyslit</setSpec>
    </header>
    <header>
      <identifier>oai:zenodo.org:241185</identifier>
      <datestamp>2017-01-12T21:45:42Z</datestamp>
      <setSpec>user-biosyslit</setSpec>
    </header>
    <header>
      <identifier>oai:zenodo.org:241187</identifier>
      <datestamp>2017-01-12T21:45:53Z</datestamp>
      <setSpec>user-biosyslit</setSpec>
    </header>
    <header>
      <identifier>oai:zenodo.org:241186</identifier>
      <datestamp>2017-01-12T21:45:48Z</datestamp>
      <setSpec>user-biosyslit</setSpec>
    </header>
    <header>
      <identifier>oai:zenodo.org:241188</identifier>
      <datestamp>2017-01-12T21:45:56Z</datestamp>
      <setSpec>user-biosyslit</setSpec>
    </header>
    <header>
      <identifier>oai:zenodo.org:277591</identifier>
      <datestamp>2017-02-08T21:27:31Z</datestamp>
      <setSpec>user-biosyslit</setSpec>
    </header>
    <header>
      <identifier>oai:zenodo.org:277594</identifier>
      <datestamp>2017-02-08T21:27:23Z</datestamp>
      <setSpec>user-biosyslit</setSpec>
    </header>
    <header>
      <identifier>oai:zenodo.org:277597</identifier>
      <datestamp>2017-02-08T21:27:29Z</datestamp>
      <setSpec>user-biosyslit</setSpec>
    </header>
    <header>
      <identifier>oai:zenodo.org:230999</identifier>
      <datestamp>2017-01-05T12:08:47Z</datestamp>
      <setSpec>user-biosyslit</setSpec>
    </header>
    <resumptionToken expirationDate="2017-08-31T15:45:17Z" cursor="34700" completeListSize="77796">.eJyNyj0LgkAYAOD_8s4S90Wl0BKaOKjYdYe6hKmIdVZ4RXrSf8-luebnmUDXdQUOWthrbFNGGcNoiQhmFuiyvyl1bGeGMpWqvCpR-PK57yTKSLOKXD2EbkYjc0Fxhw3fJSTF60G0aEwO4pGZ_SBp8OLIW4UmGaNzML-Kxr7KT_6di-tWcVL1sZeMHG95Tsvvw38-8_O5egMW3IumBocy24LLq-gbDc70fn8AkuhRNg.DInAFQ.6rfavbFHbUY7CCULGyo3Wx5tgoE</resumptionToken>
  </ListIdentifiers>
</OAI-PMH>
