<?xml version='1.0' encoding='UTF-8'?>
<?xml-stylesheet type="text/xsl" href="/static/xsl/oai2.v1.0.xsl"?>
<OAI-PMH xmlns="http://www.openarchives.org/OAI/2.0/" xmlns:xsi="http://www.w3.org/2001/XMLSchema-instance" xsi:schemaLocation="http://www.openarchives.org/OAI/2.0/ http://www.openarchives.org/OAI/2.0/OAI-PMH.xsd">
  <responseDate>2017-08-31T15:44:44Z</responseDate>
  <request verb="ListIdentifiers" resumptionToken=".eJyNz00LgjAAgOH_snPEPnSG0CU08ZAy1yS9hE0Rc1q4Ql303_PSuc7vc3lfQFdVCVy4thAlyN5QSCGmDsUroOVwU-rcLBnIU6pkr0QRpM-kS2GGayfy9HTwMhKZFsYdMnzP8AltJtHAmR3FIzPJlJJw5NB3DobN0TVcXEniQOWX4M5Fv1Mcl0Pss5mjHc-J_Dr0pzM_nae3YAXuRV0B17aWq3YshloD9_V-fwCVxlE1.DInAbA.B6-vW25tkDLsAA_0MuYHiPT-E0U">https://zenodo.org/oai2d</request>
  <ListIdentifiers>
    <header>
      <identifier>oai:zenodo.org:250963</identifier>
      <datestamp>2017-01-18T16:52:52Z</datestamp>
      <setSpec>user-biosyslit</setSpec>
    </header>
    <header>
      <identifier>oai:zenodo.org:272653</identifier>
      <datestamp>2017-02-08T06:12:15Z</datestamp>
      <setSpec>user-biosyslit</setSpec>
    </header>
    <header>
      <identifier>oai:zenodo.org:250580</identifier>
      <datestamp>2017-01-18T12:29:32Z</datestamp>
      <setSpec>user-biosyslit</setSpec>
    </header>
    <header>
      <identifier>oai:zenodo.org:251461</identifier>
      <datestamp>2017-01-19T00:39:40Z</datestamp>
      <setSpec>user-biosyslit</setSpec>
    </header>
    <header>
      <identifier>oai:zenodo.org:251643</identifier>
      <datestamp>2017-01-19T02:48:41Z</datestamp>
      <setSpec>user-biosyslit</setSpec>
    </header>
    <header>
      <identifier>oai:zenodo.org:272704</identifier>
      <datestamp>2017-02-08T06:14:41Z</datestamp>
      <setSpec>user-biosyslit</setSpec>
    </header>
    <header>
      <identifier>oai:zenodo.org:272688</identifier>
      <datestamp>2017-02-08T06:13:49Z</datestamp>
      <setSpec>user-biosyslit</setSpec>
    </header>
    <header>
      <identifier>oai:zenodo.org:272728</identifier>
      <datestamp>2017-02-08T06:15:40Z</datestamp>
      <setSpec>user-biosyslit</setSpec>
    </header>
    <header>
      <identifier>oai:zenodo.org:251127</identifier>
      <datestamp>2017-01-18T19:12:26Z</datestamp>
      <setSpec>user-biosyslit</setSpec>
    </header>
    <header>
      <identifier>oai:zenodo.org:251559</identifier>
      <datestamp>2017-01-19T01:58:56Z</datestamp>
      <setSpec>user-biosyslit</setSpec>
    </header>
    <header>
      <identifier>oai:zenodo.org:272774</identifier>
      <datestamp>2017-02-08T06:26:51Z</datestamp>
      <setSpec>user-biosyslit</setSpec>
    </header>
    <header>
      <identifier>oai:zenodo.org:272859</identifier>
      <datestamp>2017-02-08T06:30:57Z</datestamp>
      <setSpec>user-biosyslit</setSpec>
    </header>
    <header>
      <identifier>oai:zenodo.org:272851</identifier>
      <datestamp>2017-02-08T06:30:32Z</datestamp>
      <setSpec>user-biosyslit</setSpec>
    </header>
    <header>
      <identifier>oai:zenodo.org:273049</identifier>
      <datestamp>2017-02-08T06:59:57Z</datestamp>
      <setSpec>user-biosyslit</setSpec>
    </header>
    <header>
      <identifier>oai:zenodo.org:272801</identifier>
      <datestamp>2017-02-08T06:28:03Z</datestamp>
      <setSpec>user-biosyslit</setSpec>
    </header>
    <header>
      <identifier>oai:zenodo.org:273022</identifier>
      <datestamp>2017-02-08T06:58:45Z</datestamp>
      <setSpec>user-biosyslit</setSpec>
    </header>
    <header>
      <identifier>oai:zenodo.org:273139</identifier>
      <datestamp>2017-02-08T07:25:17Z</datestamp>
      <setSpec>user-biosyslit</setSpec>
    </header>
    <header>
      <identifier>oai:zenodo.org:273152</identifier>
      <datestamp>2017-02-08T07:25:41Z</datestamp>
      <setSpec>user-biosyslit</setSpec>
    </header>
    <header>
      <identifier>oai:zenodo.org:273265</identifier>
      <datestamp>2017-02-08T08:48:27Z</datestamp>
      <setSpec>user-biosyslit</setSpec>
    </header>
    <header>
      <identifier>oai:zenodo.org:272990</identifier>
      <datestamp>2017-02-08T06:57:11Z</datestamp>
      <setSpec>user-biosyslit</setSpec>
    </header>
    <header>
      <identifier>oai:zenodo.org:275871</identifier>
      <datestamp>2017-02-08T17:17:00Z</datestamp>
      <setSpec>user-biosyslit</setSpec>
    </header>
    <header>
      <identifier>oai:zenodo.org:251781</identifier>
      <datestamp>2017-01-19T04:30:38Z</datestamp>
      <setSpec>user-biosyslit</setSpec>
    </header>
    <header>
      <identifier>oai:zenodo.org:273081</identifier>
      <datestamp>2017-02-08T07:01:30Z</datestamp>
      <setSpec>user-biosyslit</setSpec>
    </header>
    <header>
      <identifier>oai:zenodo.org:276073</identifier>
      <datestamp>2017-02-08T18:03:06Z</datestamp>
      <setSpec>user-biosyslit</setSpec>
    </header>
    <header>
      <identifier>oai:zenodo.org:276319</identifier>
      <datestamp>2017-02-08T18:37:51Z</datestamp>
      <setSpec>user-biosyslit</setSpec>
    </header>
    <header>
      <identifier>oai:zenodo.org:251793</identifier>
      <datestamp>2017-01-19T04:31:10Z</datestamp>
      <setSpec>user-biosyslit</setSpec>
    </header>
    <header>
      <identifier>oai:zenodo.org:275905</identifier>
      <datestamp>2017-02-08T17:21:29Z</datestamp>
      <setSpec>user-biosyslit</setSpec>
    </header>
    <header>
      <identifier>oai:zenodo.org:276285</identifier>
      <datestamp>2017-02-08T18:34:49Z</datestamp>
      <setSpec>user-biosyslit</setSpec>
    </header>
    <header>
      <identifier>oai:zenodo.org:252339</identifier>
      <datestamp>2017-01-19T12:23:03Z</datestamp>
      <setSpec>user-biosyslit</setSpec>
    </header>
    <header>
      <identifier>oai:zenodo.org:252036</identifier>
      <datestamp>2017-01-19T07:36:47Z</datestamp>
      <setSpec>user-biosyslit</setSpec>
    </header>
    <header>
      <identifier>oai:zenodo.org:252373</identifier>
      <datestamp>2017-01-19T12:48:09Z</datestamp>
      <setSpec>user-biosyslit</setSpec>
    </header>
    <header>
      <identifier>oai:zenodo.org:252364</identifier>
      <datestamp>2017-01-19T12:47:42Z</datestamp>
      <setSpec>user-biosyslit</setSpec>
    </header>
    <header>
      <identifier>oai:zenodo.org:252385</identifier>
      <datestamp>2017-01-19T13:20:45Z</datestamp>
      <setSpec>user-biosyslit</setSpec>
    </header>
    <header>
      <identifier>oai:zenodo.org:252374</identifier>
      <datestamp>2017-01-19T12:48:12Z</datestamp>
      <setSpec>user-biosyslit</setSpec>
    </header>
    <header>
      <identifier>oai:zenodo.org:252262</identifier>
      <datestamp>2017-01-19T11:15:27Z</datestamp>
      <setSpec>user-biosyslit</setSpec>
    </header>
    <header>
      <identifier>oai:zenodo.org:252137</identifier>
      <datestamp>2017-01-19T09:41:15Z</datestamp>
      <setSpec>user-biosyslit</setSpec>
    </header>
    <header>
      <identifier>oai:zenodo.org:252448</identifier>
      <datestamp>2017-01-19T14:41:44Z</datestamp>
      <setSpec>user-biosyslit</setSpec>
    </header>
    <header>
      <identifier>oai:zenodo.org:252762</identifier>
      <datestamp>2017-01-19T19:33:47Z</datestamp>
      <setSpec>user-biosyslit</setSpec>
    </header>
    <header>
      <identifier>oai:zenodo.org:253804</identifier>
      <datestamp>2017-01-20T11:20:07Z</datestamp>
      <setSpec>user-biosyslit</setSpec>
    </header>
    <header>
      <identifier>oai:zenodo.org:252895</identifier>
      <datestamp>2017-01-19T22:39:05Z</datestamp>
      <setSpec>user-biosyslit</setSpec>
    </header>
    <header>
      <identifier>oai:zenodo.org:253114</identifier>
      <datestamp>2017-01-20T02:34:19Z</datestamp>
      <setSpec>user-biosyslit</setSpec>
    </header>
    <header>
      <identifier>oai:zenodo.org:272975</identifier>
      <datestamp>2017-02-08T06:56:22Z</datestamp>
      <setSpec>user-biosyslit</setSpec>
    </header>
    <header>
      <identifier>oai:zenodo.org:251091</identifier>
      <datestamp>2017-01-18T18:43:44Z</datestamp>
      <setSpec>user-biosyslit</setSpec>
    </header>
    <header>
      <identifier>oai:zenodo.org:250897</identifier>
      <datestamp>2017-01-18T16:11:46Z</datestamp>
      <setSpec>user-biosyslit</setSpec>
    </header>
    <header>
      <identifier>oai:zenodo.org:272834</identifier>
      <datestamp>2017-02-08T06:29:43Z</datestamp>
      <setSpec>user-biosyslit</setSpec>
    </header>
    <header>
      <identifier>oai:zenodo.org:272862</identifier>
      <datestamp>2017-02-08T06:31:06Z</datestamp>
      <setSpec>user-biosyslit</setSpec>
    </header>
    <header>
      <identifier>oai:zenodo.org:272761</identifier>
      <datestamp>2017-02-08T06:26:14Z</datestamp>
      <setSpec>user-biosyslit</setSpec>
    </header>
    <header>
      <identifier>oai:zenodo.org:275793</identifier>
      <datestamp>2017-02-08T17:05:27Z</datestamp>
      <setSpec>user-biosyslit</setSpec>
    </header>
    <header>
      <identifier>oai:zenodo.org:272805</identifier>
      <datestamp>2017-02-08T06:28:14Z</datestamp>
      <setSpec>user-biosyslit</setSpec>
    </header>
    <header>
      <identifier>oai:zenodo.org:272802</identifier>
      <datestamp>2017-02-08T06:28:06Z</datestamp>
      <setSpec>user-biosyslit</setSpec>
    </header>
    <header>
      <identifier>oai:zenodo.org:272755</identifier>
      <datestamp>2017-02-08T06:25:54Z</datestamp>
      <setSpec>user-biosyslit</setSpec>
    </header>
    <header>
      <identifier>oai:zenodo.org:251556</identifier>
      <datestamp>2017-01-19T01:58:48Z</datestamp>
      <setSpec>user-biosyslit</setSpec>
    </header>
    <header>
      <identifier>oai:zenodo.org:272806</identifier>
      <datestamp>2017-02-08T06:28:17Z</datestamp>
      <setSpec>user-biosyslit</setSpec>
    </header>
    <header>
      <identifier>oai:zenodo.org:273080</identifier>
      <datestamp>2017-02-08T07:01:27Z</datestamp>
      <setSpec>user-biosyslit</setSpec>
    </header>
    <header>
      <identifier>oai:zenodo.org:272878</identifier>
      <datestamp>2017-02-08T06:31:50Z</datestamp>
      <setSpec>user-biosyslit</setSpec>
    </header>
    <header>
      <identifier>oai:zenodo.org:272896</identifier>
      <datestamp>2017-02-08T06:32:53Z</datestamp>
      <setSpec>user-biosyslit</setSpec>
    </header>
    <header>
      <identifier>oai:zenodo.org:273004</identifier>
      <datestamp>2017-02-08T06:57:58Z</datestamp>
      <setSpec>user-biosyslit</setSpec>
    </header>
    <header>
      <identifier>oai:zenodo.org:273002</identifier>
      <datestamp>2017-02-08T06:57:54Z</datestamp>
      <setSpec>user-biosyslit</setSpec>
    </header>
    <header>
      <identifier>oai:zenodo.org:276106</identifier>
      <datestamp>2017-02-08T18:07:55Z</datestamp>
      <setSpec>user-biosyslit</setSpec>
    </header>
    <header>
      <identifier>oai:zenodo.org:251752</identifier>
      <datestamp>2017-01-19T04:21:47Z</datestamp>
      <setSpec>user-biosyslit</setSpec>
    </header>
    <header>
      <identifier>oai:zenodo.org:275904</identifier>
      <datestamp>2017-02-08T17:21:26Z</datestamp>
      <setSpec>user-biosyslit</setSpec>
    </header>
    <header>
      <identifier>oai:zenodo.org:276325</identifier>
      <datestamp>2017-02-08T18:38:10Z</datestamp>
      <setSpec>user-biosyslit</setSpec>
    </header>
    <header>
      <identifier>oai:zenodo.org:251850</identifier>
      <datestamp>2017-01-19T05:21:31Z</datestamp>
      <setSpec>user-biosyslit</setSpec>
    </header>
    <header>
      <identifier>oai:zenodo.org:252264</identifier>
      <datestamp>2017-01-19T11:15:31Z</datestamp>
      <setSpec>user-biosyslit</setSpec>
    </header>
    <header>
      <identifier>oai:zenodo.org:252015</identifier>
      <datestamp>2017-01-19T07:22:04Z</datestamp>
      <setSpec>user-biosyslit</setSpec>
    </header>
    <header>
      <identifier>oai:zenodo.org:252423</identifier>
      <datestamp>2017-01-19T14:27:04Z</datestamp>
      <setSpec>user-biosyslit</setSpec>
    </header>
    <header>
      <identifier>oai:zenodo.org:252302</identifier>
      <datestamp>2017-01-19T11:55:39Z</datestamp>
      <setSpec>user-biosyslit</setSpec>
    </header>
    <header>
      <identifier>oai:zenodo.org:252336</identifier>
      <datestamp>2017-01-19T12:14:15Z</datestamp>
      <setSpec>user-biosyslit</setSpec>
    </header>
    <header>
      <identifier>oai:zenodo.org:252631</identifier>
      <datestamp>2017-01-19T17:48:25Z</datestamp>
      <setSpec>user-biosyslit</setSpec>
    </header>
    <header>
      <identifier>oai:zenodo.org:253077</identifier>
      <datestamp>2017-01-20T02:09:50Z</datestamp>
      <setSpec>user-biosyslit</setSpec>
    </header>
    <header>
      <identifier>oai:zenodo.org:253096</identifier>
      <datestamp>2017-01-20T02:33:04Z</datestamp>
      <setSpec>user-biosyslit</setSpec>
    </header>
    <header>
      <identifier>oai:zenodo.org:252877</identifier>
      <datestamp>2017-01-19T22:27:26Z</datestamp>
      <setSpec>user-biosyslit</setSpec>
    </header>
    <header>
      <identifier>oai:zenodo.org:253051</identifier>
      <datestamp>2017-01-20T01:56:09Z</datestamp>
      <setSpec>user-biosyslit</setSpec>
    </header>
    <header>
      <identifier>oai:zenodo.org:254038</identifier>
      <datestamp>2017-01-20T13:40:08Z</datestamp>
      <setSpec>user-biosyslit</setSpec>
    </header>
    <header>
      <identifier>oai:zenodo.org:253656</identifier>
      <datestamp>2017-01-20T09:31:45Z</datestamp>
      <setSpec>user-biosyslit</setSpec>
    </header>
    <header>
      <identifier>oai:zenodo.org:253824</identifier>
      <datestamp>2017-01-20T11:28:14Z</datestamp>
      <setSpec>user-biosyslit</setSpec>
    </header>
    <header>
      <identifier>oai:zenodo.org:254138</identifier>
      <datestamp>2017-01-20T15:21:29Z</datestamp>
      <setSpec>user-biosyslit</setSpec>
    </header>
    <header>
      <identifier>oai:zenodo.org:251567</identifier>
      <datestamp>2017-01-19T01:59:24Z</datestamp>
      <setSpec>user-biosyslit</setSpec>
    </header>
    <header>
      <identifier>oai:zenodo.org:273069</identifier>
      <datestamp>2017-02-08T07:00:51Z</datestamp>
      <setSpec>user-biosyslit</setSpec>
    </header>
    <header>
      <identifier>oai:zenodo.org:273048</identifier>
      <datestamp>2017-02-08T06:59:54Z</datestamp>
      <setSpec>user-biosyslit</setSpec>
    </header>
    <header>
      <identifier>oai:zenodo.org:251652</identifier>
      <datestamp>2017-01-19T02:49:12Z</datestamp>
      <setSpec>user-biosyslit</setSpec>
    </header>
    <header>
      <identifier>oai:zenodo.org:273284</identifier>
      <datestamp>2017-02-08T08:51:01Z</datestamp>
      <setSpec>user-biosyslit</setSpec>
    </header>
    <header>
      <identifier>oai:zenodo.org:273006</identifier>
      <datestamp>2017-02-08T06:58:05Z</datestamp>
      <setSpec>user-biosyslit</setSpec>
    </header>
    <header>
      <identifier>oai:zenodo.org:273158</identifier>
      <datestamp>2017-02-08T08:14:15Z</datestamp>
      <setSpec>user-biosyslit</setSpec>
    </header>
    <header>
      <identifier>oai:zenodo.org:273036</identifier>
      <datestamp>2017-02-08T06:59:21Z</datestamp>
      <setSpec>user-biosyslit</setSpec>
    </header>
    <header>
      <identifier>oai:zenodo.org:276168</identifier>
      <datestamp>2017-02-08T18:16:37Z</datestamp>
      <setSpec>user-biosyslit</setSpec>
    </header>
    <header>
      <identifier>oai:zenodo.org:251774</identifier>
      <datestamp>2017-01-19T04:30:22Z</datestamp>
      <setSpec>user-biosyslit</setSpec>
    </header>
    <header>
      <identifier>oai:zenodo.org:273162</identifier>
      <datestamp>2017-02-08T08:14:26Z</datestamp>
      <setSpec>user-biosyslit</setSpec>
    </header>
    <header>
      <identifier>oai:zenodo.org:273180</identifier>
      <datestamp>2017-02-08T08:15:07Z</datestamp>
      <setSpec>user-biosyslit</setSpec>
    </header>
    <header>
      <identifier>oai:zenodo.org:276230</identifier>
      <datestamp>2017-02-08T18:27:10Z</datestamp>
      <setSpec>user-biosyslit</setSpec>
    </header>
    <header>
      <identifier>oai:zenodo.org:276296</identifier>
      <datestamp>2017-02-08T18:35:13Z</datestamp>
      <setSpec>user-biosyslit</setSpec>
    </header>
    <header>
      <identifier>oai:zenodo.org:272829</identifier>
      <datestamp>2017-02-08T06:29:29Z</datestamp>
      <setSpec>user-biosyslit</setSpec>
    </header>
    <header>
      <identifier>oai:zenodo.org:251639</identifier>
      <datestamp>2017-01-19T02:48:23Z</datestamp>
      <setSpec>user-biosyslit</setSpec>
    </header>
    <header>
      <identifier>oai:zenodo.org:251953</identifier>
      <datestamp>2017-01-19T06:28:16Z</datestamp>
      <setSpec>user-biosyslit</setSpec>
    </header>
    <header>
      <identifier>oai:zenodo.org:275921</identifier>
      <datestamp>2017-02-08T17:22:22Z</datestamp>
      <setSpec>user-biosyslit</setSpec>
    </header>
    <header>
      <identifier>oai:zenodo.org:275635</identifier>
      <datestamp>2017-02-08T16:50:16Z</datestamp>
      <setSpec>user-biosyslit</setSpec>
    </header>
    <header>
      <identifier>oai:zenodo.org:272828</identifier>
      <datestamp>2017-02-08T06:29:25Z</datestamp>
      <setSpec>user-biosyslit</setSpec>
    </header>
    <header>
      <identifier>oai:zenodo.org:275758</identifier>
      <datestamp>2017-02-08T17:02:10Z</datestamp>
      <setSpec>user-biosyslit</setSpec>
    </header>
    <header>
      <identifier>oai:zenodo.org:276390</identifier>
      <datestamp>2017-02-08T18:46:08Z</datestamp>
      <setSpec>user-biosyslit</setSpec>
    </header>
    <header>
      <identifier>oai:zenodo.org:252200</identifier>
      <datestamp>2017-01-19T10:30:15Z</datestamp>
      <setSpec>user-biosyslit</setSpec>
    </header>
    <resumptionToken expirationDate="2017-08-31T15:46:44Z" cursor="54100" completeListSize="77796">.eJyNzz0PQ0AAgOH_crM09-Grki5CxYBwJWVpFBF1VFwbnPjvtXRu5_dZ3hXwqiqBAQ8YaqqCZFXXFHxEOpEAL8YnY7dmz6C4JqzoWZw7yTvqEpjiWvMtPntWSnzRwqBDgp5DfEX6HDdwCS_xKxXRnBB3otDWPBEu_sPdXUkCh2V3Z6BxbzKKyzGww4Uik2ak-Dr0pxM_ncVPQAJDXlfAUOT9qp3ysebAWLftA5_bUUE.DInAbA.cktcFH2U9s2z9BtgeH2HISkT6LE</resumptionToken>
  </ListIdentifiers>
</OAI-PMH>
