<?xml version='1.0' encoding='UTF-8'?>
<?xml-stylesheet type="text/xsl" href="/static/xsl/oai2.v1.0.xsl"?>
<OAI-PMH xmlns="http://www.openarchives.org/OAI/2.0/" xmlns:xsi="http://www.w3.org/2001/XMLSchema-instance" xsi:schemaLocation="http://www.openarchives.org/OAI/2.0/ http://www.openarchives.org/OAI/2.0/OAI-PMH.xsd">
  <responseDate>2017-08-31T15:42:23Z</responseDate>
  <request verb="ListIdentifiers" resumptionToken=".eJyNz7sOgjAYQOF3-WdiekGLJC4EJQ5CoLYRFoNAiFIvoRqgxHeXxVnn8y1nBF1VJbhoxuYLwphN8dJ2bDS3LdBFe1fqeJ4yFAepipsSeSBfyVWilNQs9HW_81MamgZFV2z4JiYH7PTijIZ4L56pSXpJtx1Ha7Yz8RBetpMraRSo7BQ8uLh5ipOyjdbxwLHHM1p8Hf7TmZ_O1yuw4JHXFbgET1dNl7e1Bnd8vz-hvFE-.DIm_3w.hjYfZ9kMtYpBC7oIudsp2ep1ODk">https://zenodo.org/oai2d</request>
  <ListIdentifiers>
    <header>
      <identifier>oai:zenodo.org:249810</identifier>
      <datestamp>2017-01-18T00:03:15Z</datestamp>
      <setSpec>user-biosyslit</setSpec>
    </header>
    <header>
      <identifier>oai:zenodo.org:276385</identifier>
      <datestamp>2017-02-08T18:45:04Z</datestamp>
      <setSpec>user-biosyslit</setSpec>
    </header>
    <header>
      <identifier>oai:zenodo.org:273786</identifier>
      <datestamp>2017-02-08T10:45:05Z</datestamp>
      <setSpec>user-biosyslit</setSpec>
    </header>
    <header>
      <identifier>oai:zenodo.org:249806</identifier>
      <datestamp>2017-01-18T00:03:01Z</datestamp>
      <setSpec>user-biosyslit</setSpec>
    </header>
    <header>
      <identifier>oai:zenodo.org:273787</identifier>
      <datestamp>2017-02-08T10:45:10Z</datestamp>
      <setSpec>user-biosyslit</setSpec>
    </header>
    <header>
      <identifier>oai:zenodo.org:273789</identifier>
      <datestamp>2017-02-08T10:45:14Z</datestamp>
      <setSpec>user-biosyslit</setSpec>
    </header>
    <header>
      <identifier>oai:zenodo.org:248536</identifier>
      <datestamp>2017-01-17T05:08:02Z</datestamp>
      <setSpec>user-biosyslit</setSpec>
    </header>
    <header>
      <identifier>oai:zenodo.org:248468</identifier>
      <datestamp>2017-01-17T04:26:17Z</datestamp>
      <setSpec>user-biosyslit</setSpec>
    </header>
    <header>
      <identifier>oai:zenodo.org:248456</identifier>
      <datestamp>2017-01-17T04:25:39Z</datestamp>
      <setSpec>user-biosyslit</setSpec>
    </header>
    <header>
      <identifier>oai:zenodo.org:248465</identifier>
      <datestamp>2017-01-17T04:26:07Z</datestamp>
      <setSpec>user-biosyslit</setSpec>
    </header>
    <header>
      <identifier>oai:zenodo.org:248462</identifier>
      <datestamp>2017-01-17T04:25:59Z</datestamp>
      <setSpec>user-biosyslit</setSpec>
    </header>
    <header>
      <identifier>oai:zenodo.org:248458</identifier>
      <datestamp>2017-01-17T04:25:45Z</datestamp>
      <setSpec>user-biosyslit</setSpec>
    </header>
    <header>
      <identifier>oai:zenodo.org:248459</identifier>
      <datestamp>2017-01-17T04:25:47Z</datestamp>
      <setSpec>user-biosyslit</setSpec>
    </header>
    <header>
      <identifier>oai:zenodo.org:248455</identifier>
      <datestamp>2017-01-17T04:26:39Z</datestamp>
      <setSpec>user-biosyslit</setSpec>
    </header>
    <header>
      <identifier>oai:zenodo.org:248469</identifier>
      <datestamp>2017-01-17T04:26:21Z</datestamp>
      <setSpec>user-biosyslit</setSpec>
    </header>
    <header>
      <identifier>oai:zenodo.org:279381</identifier>
      <datestamp>2017-02-09T01:11:13Z</datestamp>
      <setSpec>user-biosyslit</setSpec>
    </header>
    <header>
      <identifier>oai:zenodo.org:279380</identifier>
      <datestamp>2017-02-09T01:11:10Z</datestamp>
      <setSpec>user-biosyslit</setSpec>
    </header>
    <header>
      <identifier>oai:zenodo.org:279390</identifier>
      <datestamp>2017-02-09T01:12:01Z</datestamp>
      <setSpec>user-biosyslit</setSpec>
    </header>
    <header>
      <identifier>oai:zenodo.org:279378</identifier>
      <datestamp>2017-02-09T01:11:05Z</datestamp>
      <setSpec>user-biosyslit</setSpec>
    </header>
    <header>
      <identifier>oai:zenodo.org:248474</identifier>
      <datestamp>2017-01-17T04:26:33Z</datestamp>
      <setSpec>user-biosyslit</setSpec>
    </header>
    <header>
      <identifier>oai:zenodo.org:248472</identifier>
      <datestamp>2017-01-17T04:26:28Z</datestamp>
      <setSpec>user-biosyslit</setSpec>
    </header>
    <header>
      <identifier>oai:zenodo.org:248470</identifier>
      <datestamp>2017-01-17T04:26:23Z</datestamp>
      <setSpec>user-biosyslit</setSpec>
    </header>
    <header>
      <identifier>oai:zenodo.org:279393</identifier>
      <datestamp>2017-02-09T01:12:17Z</datestamp>
      <setSpec>user-biosyslit</setSpec>
    </header>
    <header>
      <identifier>oai:zenodo.org:279395</identifier>
      <datestamp>2017-02-09T01:12:21Z</datestamp>
      <setSpec>user-biosyslit</setSpec>
    </header>
    <header>
      <identifier>oai:zenodo.org:276724</identifier>
      <datestamp>2017-02-08T19:32:14Z</datestamp>
      <setSpec>user-biosyslit</setSpec>
    </header>
    <header>
      <identifier>oai:zenodo.org:276723</identifier>
      <datestamp>2017-02-08T19:32:11Z</datestamp>
      <setSpec>user-biosyslit</setSpec>
    </header>
    <header>
      <identifier>oai:zenodo.org:280805</identifier>
      <datestamp>2017-02-09T04:07:04Z</datestamp>
      <setSpec>user-biosyslit</setSpec>
    </header>
    <header>
      <identifier>oai:zenodo.org:276722</identifier>
      <datestamp>2017-02-08T19:32:09Z</datestamp>
      <setSpec>user-biosyslit</setSpec>
    </header>
    <header>
      <identifier>oai:zenodo.org:276726</identifier>
      <datestamp>2017-02-08T19:32:20Z</datestamp>
      <setSpec>user-biosyslit</setSpec>
    </header>
    <header>
      <identifier>oai:zenodo.org:276725</identifier>
      <datestamp>2017-02-08T19:32:17Z</datestamp>
      <setSpec>user-biosyslit</setSpec>
    </header>
    <header>
      <identifier>oai:zenodo.org:280806</identifier>
      <datestamp>2017-02-09T04:07:07Z</datestamp>
      <setSpec>user-biosyslit</setSpec>
    </header>
    <header>
      <identifier>oai:zenodo.org:282180</identifier>
      <datestamp>2017-02-09T06:34:45Z</datestamp>
      <setSpec>user-biosyslit</setSpec>
    </header>
    <header>
      <identifier>oai:zenodo.org:282185</identifier>
      <datestamp>2017-02-09T06:34:55Z</datestamp>
      <setSpec>user-biosyslit</setSpec>
    </header>
    <header>
      <identifier>oai:zenodo.org:254482</identifier>
      <datestamp>2017-01-20T19:14:01Z</datestamp>
      <setSpec>user-biosyslit</setSpec>
    </header>
    <header>
      <identifier>oai:zenodo.org:230974</identifier>
      <datestamp>2017-01-05T11:54:46Z</datestamp>
      <setSpec>user-biosyslit</setSpec>
    </header>
    <header>
      <identifier>oai:zenodo.org:230984</identifier>
      <datestamp>2017-01-05T11:54:33Z</datestamp>
      <setSpec>user-biosyslit</setSpec>
    </header>
    <header>
      <identifier>oai:zenodo.org:230975</identifier>
      <datestamp>2017-01-05T11:54:04Z</datestamp>
      <setSpec>user-biosyslit</setSpec>
    </header>
    <header>
      <identifier>oai:zenodo.org:230983</identifier>
      <datestamp>2017-01-05T11:54:30Z</datestamp>
      <setSpec>user-biosyslit</setSpec>
    </header>
    <header>
      <identifier>oai:zenodo.org:230978</identifier>
      <datestamp>2017-01-05T11:54:14Z</datestamp>
      <setSpec>user-biosyslit</setSpec>
    </header>
    <header>
      <identifier>oai:zenodo.org:230982</identifier>
      <datestamp>2017-01-05T11:54:27Z</datestamp>
      <setSpec>user-biosyslit</setSpec>
    </header>
    <header>
      <identifier>oai:zenodo.org:230981</identifier>
      <datestamp>2017-01-05T11:54:24Z</datestamp>
      <setSpec>user-biosyslit</setSpec>
    </header>
    <header>
      <identifier>oai:zenodo.org:230977</identifier>
      <datestamp>2017-01-05T11:54:12Z</datestamp>
      <setSpec>user-biosyslit</setSpec>
    </header>
    <header>
      <identifier>oai:zenodo.org:255440</identifier>
      <datestamp>2017-01-21T13:18:43Z</datestamp>
      <setSpec>user-biosyslit</setSpec>
    </header>
    <header>
      <identifier>oai:zenodo.org:255428</identifier>
      <datestamp>2017-01-21T13:18:07Z</datestamp>
      <setSpec>user-biosyslit</setSpec>
    </header>
    <header>
      <identifier>oai:zenodo.org:255435</identifier>
      <datestamp>2017-01-21T13:18:27Z</datestamp>
      <setSpec>user-biosyslit</setSpec>
    </header>
    <header>
      <identifier>oai:zenodo.org:255432</identifier>
      <datestamp>2017-01-21T13:18:19Z</datestamp>
      <setSpec>user-biosyslit</setSpec>
    </header>
    <header>
      <identifier>oai:zenodo.org:255437</identifier>
      <datestamp>2017-01-21T13:18:34Z</datestamp>
      <setSpec>user-biosyslit</setSpec>
    </header>
    <header>
      <identifier>oai:zenodo.org:255429</identifier>
      <datestamp>2017-01-21T13:18:10Z</datestamp>
      <setSpec>user-biosyslit</setSpec>
    </header>
    <header>
      <identifier>oai:zenodo.org:255436</identifier>
      <datestamp>2017-01-21T13:18:31Z</datestamp>
      <setSpec>user-biosyslit</setSpec>
    </header>
    <header>
      <identifier>oai:zenodo.org:255427</identifier>
      <datestamp>2017-01-21T13:18:04Z</datestamp>
      <setSpec>user-biosyslit</setSpec>
    </header>
    <header>
      <identifier>oai:zenodo.org:255447</identifier>
      <datestamp>2017-01-21T13:19:11Z</datestamp>
      <setSpec>user-biosyslit</setSpec>
    </header>
    <header>
      <identifier>oai:zenodo.org:255443</identifier>
      <datestamp>2017-01-21T13:18:54Z</datestamp>
      <setSpec>user-biosyslit</setSpec>
    </header>
    <header>
      <identifier>oai:zenodo.org:255449</identifier>
      <datestamp>2017-01-21T13:19:18Z</datestamp>
      <setSpec>user-biosyslit</setSpec>
    </header>
    <header>
      <identifier>oai:zenodo.org:255441</identifier>
      <datestamp>2017-01-21T13:18:46Z</datestamp>
      <setSpec>user-biosyslit</setSpec>
    </header>
    <header>
      <identifier>oai:zenodo.org:255450</identifier>
      <datestamp>2017-01-21T13:19:23Z</datestamp>
      <setSpec>user-biosyslit</setSpec>
    </header>
    <header>
      <identifier>oai:zenodo.org:282259</identifier>
      <datestamp>2017-02-09T06:43:32Z</datestamp>
      <setSpec>user-biosyslit</setSpec>
    </header>
    <header>
      <identifier>oai:zenodo.org:282260</identifier>
      <datestamp>2017-02-09T06:43:36Z</datestamp>
      <setSpec>user-biosyslit</setSpec>
    </header>
    <header>
      <identifier>oai:zenodo.org:282257</identifier>
      <datestamp>2017-02-09T06:43:27Z</datestamp>
      <setSpec>user-biosyslit</setSpec>
    </header>
    <header>
      <identifier>oai:zenodo.org:282256</identifier>
      <datestamp>2017-02-09T06:43:25Z</datestamp>
      <setSpec>user-biosyslit</setSpec>
    </header>
    <header>
      <identifier>oai:zenodo.org:282263</identifier>
      <datestamp>2017-02-09T06:43:43Z</datestamp>
      <setSpec>user-biosyslit</setSpec>
    </header>
    <header>
      <identifier>oai:zenodo.org:282255</identifier>
      <datestamp>2017-02-09T06:43:46Z</datestamp>
      <setSpec>user-biosyslit</setSpec>
    </header>
    <header>
      <identifier>oai:zenodo.org:282264</identifier>
      <datestamp>2017-02-09T06:43:44Z</datestamp>
      <setSpec>user-biosyslit</setSpec>
    </header>
    <header>
      <identifier>oai:zenodo.org:289365</identifier>
      <datestamp>2017-02-09T23:20:49Z</datestamp>
      <setSpec>user-biosyslit</setSpec>
    </header>
    <header>
      <identifier>oai:zenodo.org:289362</identifier>
      <datestamp>2017-02-09T23:20:42Z</datestamp>
      <setSpec>user-biosyslit</setSpec>
    </header>
    <header>
      <identifier>oai:zenodo.org:289359</identifier>
      <datestamp>2017-02-09T23:20:34Z</datestamp>
      <setSpec>user-biosyslit</setSpec>
    </header>
    <header>
      <identifier>oai:zenodo.org:289364</identifier>
      <datestamp>2017-02-09T23:20:46Z</datestamp>
      <setSpec>user-biosyslit</setSpec>
    </header>
    <header>
      <identifier>oai:zenodo.org:289363</identifier>
      <datestamp>2017-02-09T23:20:44Z</datestamp>
      <setSpec>user-biosyslit</setSpec>
    </header>
    <header>
      <identifier>oai:zenodo.org:289367</identifier>
      <datestamp>2017-02-09T23:20:53Z</datestamp>
      <setSpec>user-biosyslit</setSpec>
    </header>
    <header>
      <identifier>oai:zenodo.org:289360</identifier>
      <datestamp>2017-02-09T23:20:37Z</datestamp>
      <setSpec>user-biosyslit</setSpec>
    </header>
    <header>
      <identifier>oai:zenodo.org:289369</identifier>
      <datestamp>2017-02-09T23:20:58Z</datestamp>
      <setSpec>user-biosyslit</setSpec>
    </header>
    <header>
      <identifier>oai:zenodo.org:289371</identifier>
      <datestamp>2017-02-09T23:21:02Z</datestamp>
      <setSpec>user-biosyslit</setSpec>
    </header>
    <header>
      <identifier>oai:zenodo.org:289368</identifier>
      <datestamp>2017-02-09T23:20:55Z</datestamp>
      <setSpec>user-biosyslit</setSpec>
    </header>
    <header>
      <identifier>oai:zenodo.org:398905</identifier>
      <datestamp>2017-03-14T21:04:23Z</datestamp>
      <setSpec>user-biosyslit</setSpec>
    </header>
    <header>
      <identifier>oai:zenodo.org:274738</identifier>
      <datestamp>2017-02-08T14:08:54Z</datestamp>
      <setSpec>user-biosyslit</setSpec>
    </header>
    <header>
      <identifier>oai:zenodo.org:398901</identifier>
      <datestamp>2017-03-14T21:04:07Z</datestamp>
      <setSpec>user-biosyslit</setSpec>
    </header>
    <header>
      <identifier>oai:zenodo.org:398900</identifier>
      <datestamp>2017-03-14T21:04:03Z</datestamp>
      <setSpec>user-biosyslit</setSpec>
    </header>
    <header>
      <identifier>oai:zenodo.org:398902</identifier>
      <datestamp>2017-03-14T21:04:10Z</datestamp>
      <setSpec>user-biosyslit</setSpec>
    </header>
    <header>
      <identifier>oai:zenodo.org:398903</identifier>
      <datestamp>2017-03-14T21:04:13Z</datestamp>
      <setSpec>user-biosyslit</setSpec>
    </header>
    <header>
      <identifier>oai:zenodo.org:274735</identifier>
      <datestamp>2017-02-08T14:08:56Z</datestamp>
      <setSpec>user-biosyslit</setSpec>
    </header>
    <header>
      <identifier>oai:zenodo.org:234481</identifier>
      <datestamp>2017-01-08T20:40:38Z</datestamp>
      <setSpec>user-biosyslit</setSpec>
    </header>
    <header>
      <identifier>oai:zenodo.org:234483</identifier>
      <datestamp>2017-01-08T20:40:46Z</datestamp>
      <setSpec>user-biosyslit</setSpec>
    </header>
    <header>
      <identifier>oai:zenodo.org:234477</identifier>
      <datestamp>2017-01-08T20:40:18Z</datestamp>
      <setSpec>user-biosyslit</setSpec>
    </header>
    <header>
      <identifier>oai:zenodo.org:280417</identifier>
      <datestamp>2017-02-09T03:22:07Z</datestamp>
      <setSpec>user-biosyslit</setSpec>
    </header>
    <header>
      <identifier>oai:zenodo.org:280423</identifier>
      <datestamp>2017-02-09T03:22:26Z</datestamp>
      <setSpec>user-biosyslit</setSpec>
    </header>
    <header>
      <identifier>oai:zenodo.org:280416</identifier>
      <datestamp>2017-02-09T03:22:02Z</datestamp>
      <setSpec>user-biosyslit</setSpec>
    </header>
    <header>
      <identifier>oai:zenodo.org:275766</identifier>
      <datestamp>2017-02-08T17:03:20Z</datestamp>
      <setSpec>user-biosyslit</setSpec>
    </header>
    <header>
      <identifier>oai:zenodo.org:234491</identifier>
      <datestamp>2017-01-08T20:41:16Z</datestamp>
      <setSpec>user-biosyslit</setSpec>
    </header>
    <header>
      <identifier>oai:zenodo.org:275767</identifier>
      <datestamp>2017-02-08T17:03:22Z</datestamp>
      <setSpec>user-biosyslit</setSpec>
    </header>
    <header>
      <identifier>oai:zenodo.org:234485</identifier>
      <datestamp>2017-01-08T20:40:53Z</datestamp>
      <setSpec>user-biosyslit</setSpec>
    </header>
    <header>
      <identifier>oai:zenodo.org:234495</identifier>
      <datestamp>2017-01-08T20:41:34Z</datestamp>
      <setSpec>user-biosyslit</setSpec>
    </header>
    <header>
      <identifier>oai:zenodo.org:234494</identifier>
      <datestamp>2017-01-08T20:41:31Z</datestamp>
      <setSpec>user-biosyslit</setSpec>
    </header>
    <header>
      <identifier>oai:zenodo.org:275765</identifier>
      <datestamp>2017-02-08T17:03:41Z</datestamp>
      <setSpec>user-biosyslit</setSpec>
    </header>
    <header>
      <identifier>oai:zenodo.org:285786</identifier>
      <datestamp>2017-02-09T14:32:42Z</datestamp>
      <setSpec>user-biosyslit</setSpec>
    </header>
    <header>
      <identifier>oai:zenodo.org:285793</identifier>
      <datestamp>2017-02-09T14:33:02Z</datestamp>
      <setSpec>user-biosyslit</setSpec>
    </header>
    <header>
      <identifier>oai:zenodo.org:285783</identifier>
      <datestamp>2017-02-09T14:32:33Z</datestamp>
      <setSpec>user-biosyslit</setSpec>
    </header>
    <header>
      <identifier>oai:zenodo.org:285785</identifier>
      <datestamp>2017-02-09T14:32:40Z</datestamp>
      <setSpec>user-biosyslit</setSpec>
    </header>
    <header>
      <identifier>oai:zenodo.org:285789</identifier>
      <datestamp>2017-02-09T14:32:49Z</datestamp>
      <setSpec>user-biosyslit</setSpec>
    </header>
    <header>
      <identifier>oai:zenodo.org:285790</identifier>
      <datestamp>2017-02-09T14:32:51Z</datestamp>
      <setSpec>user-biosyslit</setSpec>
    </header>
    <header>
      <identifier>oai:zenodo.org:275772</identifier>
      <datestamp>2017-02-08T17:03:33Z</datestamp>
      <setSpec>user-biosyslit</setSpec>
    </header>
    <header>
      <identifier>oai:zenodo.org:275774</identifier>
      <datestamp>2017-02-08T17:03:38Z</datestamp>
      <setSpec>user-biosyslit</setSpec>
    </header>
    <resumptionToken expirationDate="2017-08-31T15:44:24Z" cursor="21300" completeListSize="77796">.eJyNyj0PQ0AcgPHv8p-luZcKkXQRKgaEK6FLo4ioo-La4MR3r6VzOzzT81tBVFUJBjpoKiHaEel7VEWqroAoxifnt2bfUKQJL3oe507yjroEZaTWfEvMnpVRX7Yo6LBk55CkWJ_jBi3hJX5lMpoT6k4M2Zonw8V_uLsraeDw690ZWNybnJFyDOxwYdhkV1p8Hf7TyZ_OEidQYMjrCgyCVQXaKR9rAca6bR-ZX1E2.DIm_4A.qNDXSg_UyiyhdJAgneM3rkTYBRE</resumptionToken>
  </ListIdentifiers>
</OAI-PMH>
