<?xml version='1.0' encoding='UTF-8'?>
<?xml-stylesheet type="text/xsl" href="/static/xsl/oai2.v1.0.xsl"?>
<OAI-PMH xmlns="http://www.openarchives.org/OAI/2.0/" xmlns:xsi="http://www.w3.org/2001/XMLSchema-instance" xsi:schemaLocation="http://www.openarchives.org/OAI/2.0/ http://www.openarchives.org/OAI/2.0/OAI-PMH.xsd">
  <responseDate>2017-08-31T15:41:40Z</responseDate>
  <request verb="ListIdentifiers" resumptionToken=".eJyNysEOQzAYAOB3-c-ytBqKZBdh4oBYR3BZDBFTJrplVPbu22Xn7fx9G4imqcFCO0R1nRLDNImu6VTTTAVENd84P3cfhypLeTXypPTSx3FIUa62NHTEEjg5CWWPogFLdojVDBtL0qE1PiX3XB6XlPhPhlwayHgNr_7n1STyeHHxJpaMNmdqPUduvDJss4JU34f_fPLnc8QeFJjKtgELI1WB_lnOrQBre73e6Q9Rgw.DIm_tA.cAuJhkgy7NwtYLzriaOKbnQpJR0">https://zenodo.org/oai2d</request>
  <ListIdentifiers>
    <header>
      <identifier>oai:zenodo.org:249653</identifier>
      <datestamp>2017-01-17T22:09:15Z</datestamp>
      <setSpec>user-biosyslit</setSpec>
    </header>
    <header>
      <identifier>oai:zenodo.org:249703</identifier>
      <datestamp>2017-01-17T22:47:11Z</datestamp>
      <setSpec>user-biosyslit</setSpec>
    </header>
    <header>
      <identifier>oai:zenodo.org:250887</identifier>
      <datestamp>2017-01-18T16:11:15Z</datestamp>
      <setSpec>user-biosyslit</setSpec>
    </header>
    <header>
      <identifier>oai:zenodo.org:250501</identifier>
      <datestamp>2017-01-18T11:06:08Z</datestamp>
      <setSpec>user-biosyslit</setSpec>
    </header>
    <header>
      <identifier>oai:zenodo.org:251140</identifier>
      <datestamp>2017-01-18T19:21:32Z</datestamp>
      <setSpec>user-biosyslit</setSpec>
    </header>
    <header>
      <identifier>oai:zenodo.org:250957</identifier>
      <datestamp>2017-01-18T16:43:33Z</datestamp>
      <setSpec>user-biosyslit</setSpec>
    </header>
    <header>
      <identifier>oai:zenodo.org:250224</identifier>
      <datestamp>2017-01-18T07:17:09Z</datestamp>
      <setSpec>user-biosyslit</setSpec>
    </header>
    <header>
      <identifier>oai:zenodo.org:272644</identifier>
      <datestamp>2017-02-08T06:06:57Z</datestamp>
      <setSpec>user-biosyslit</setSpec>
    </header>
    <header>
      <identifier>oai:zenodo.org:272970</identifier>
      <datestamp>2017-02-08T06:56:03Z</datestamp>
      <setSpec>user-biosyslit</setSpec>
    </header>
    <header>
      <identifier>oai:zenodo.org:272587</identifier>
      <datestamp>2017-02-08T05:18:23Z</datestamp>
      <setSpec>user-biosyslit</setSpec>
    </header>
    <header>
      <identifier>oai:zenodo.org:250206</identifier>
      <datestamp>2017-01-18T06:54:07Z</datestamp>
      <setSpec>user-biosyslit</setSpec>
    </header>
    <header>
      <identifier>oai:zenodo.org:250688</identifier>
      <datestamp>2017-01-18T14:03:55Z</datestamp>
      <setSpec>user-biosyslit</setSpec>
    </header>
    <header>
      <identifier>oai:zenodo.org:251287</identifier>
      <datestamp>2017-01-18T21:19:17Z</datestamp>
      <setSpec>user-biosyslit</setSpec>
    </header>
    <header>
      <identifier>oai:zenodo.org:250512</identifier>
      <datestamp>2017-01-18T11:21:57Z</datestamp>
      <setSpec>user-biosyslit</setSpec>
    </header>
    <header>
      <identifier>oai:zenodo.org:273157</identifier>
      <datestamp>2017-02-08T08:14:12Z</datestamp>
      <setSpec>user-biosyslit</setSpec>
    </header>
    <header>
      <identifier>oai:zenodo.org:272616</identifier>
      <datestamp>2017-02-08T05:44:28Z</datestamp>
      <setSpec>user-biosyslit</setSpec>
    </header>
    <header>
      <identifier>oai:zenodo.org:251530</identifier>
      <datestamp>2017-01-19T01:35:45Z</datestamp>
      <setSpec>user-biosyslit</setSpec>
    </header>
    <header>
      <identifier>oai:zenodo.org:275535</identifier>
      <datestamp>2017-02-08T16:38:48Z</datestamp>
      <setSpec>user-biosyslit</setSpec>
    </header>
    <header>
      <identifier>oai:zenodo.org:272843</identifier>
      <datestamp>2017-02-08T06:30:10Z</datestamp>
      <setSpec>user-biosyslit</setSpec>
    </header>
    <header>
      <identifier>oai:zenodo.org:272884</identifier>
      <datestamp>2017-02-08T06:32:09Z</datestamp>
      <setSpec>user-biosyslit</setSpec>
    </header>
    <header>
      <identifier>oai:zenodo.org:273164</identifier>
      <datestamp>2017-02-08T08:14:33Z</datestamp>
      <setSpec>user-biosyslit</setSpec>
    </header>
    <header>
      <identifier>oai:zenodo.org:251303</identifier>
      <datestamp>2017-01-18T21:20:09Z</datestamp>
      <setSpec>user-biosyslit</setSpec>
    </header>
    <header>
      <identifier>oai:zenodo.org:272968</identifier>
      <datestamp>2017-02-08T06:55:56Z</datestamp>
      <setSpec>user-biosyslit</setSpec>
    </header>
    <header>
      <identifier>oai:zenodo.org:272853</identifier>
      <datestamp>2017-02-08T06:30:38Z</datestamp>
      <setSpec>user-biosyslit</setSpec>
    </header>
    <header>
      <identifier>oai:zenodo.org:273257</identifier>
      <datestamp>2017-02-08T08:48:11Z</datestamp>
      <setSpec>user-biosyslit</setSpec>
    </header>
    <header>
      <identifier>oai:zenodo.org:273179</identifier>
      <datestamp>2017-02-08T08:15:05Z</datestamp>
      <setSpec>user-biosyslit</setSpec>
    </header>
    <header>
      <identifier>oai:zenodo.org:273017</identifier>
      <datestamp>2017-02-08T06:58:32Z</datestamp>
      <setSpec>user-biosyslit</setSpec>
    </header>
    <header>
      <identifier>oai:zenodo.org:163561</identifier>
      <datestamp>2017-05-16T12:56:32Z</datestamp>
      <setSpec>openaire</setSpec>
      <setSpec>user-biosyslit</setSpec>
    </header>
    <header>
      <identifier>oai:zenodo.org:272959</identifier>
      <datestamp>2017-02-08T06:55:29Z</datestamp>
      <setSpec>user-biosyslit</setSpec>
    </header>
    <header>
      <identifier>oai:zenodo.org:251647</identifier>
      <datestamp>2017-01-19T02:48:56Z</datestamp>
      <setSpec>user-biosyslit</setSpec>
    </header>
    <header>
      <identifier>oai:zenodo.org:273127</identifier>
      <datestamp>2017-02-08T07:23:08Z</datestamp>
      <setSpec>user-biosyslit</setSpec>
    </header>
    <header>
      <identifier>oai:zenodo.org:276286</identifier>
      <datestamp>2017-02-08T18:34:50Z</datestamp>
      <setSpec>user-biosyslit</setSpec>
    </header>
    <header>
      <identifier>oai:zenodo.org:275696</identifier>
      <datestamp>2017-02-08T16:55:55Z</datestamp>
      <setSpec>user-biosyslit</setSpec>
    </header>
    <header>
      <identifier>oai:zenodo.org:273165</identifier>
      <datestamp>2017-02-08T08:14:35Z</datestamp>
      <setSpec>user-biosyslit</setSpec>
    </header>
    <header>
      <identifier>oai:zenodo.org:251799</identifier>
      <datestamp>2017-01-19T04:31:22Z</datestamp>
      <setSpec>user-biosyslit</setSpec>
    </header>
    <header>
      <identifier>oai:zenodo.org:251854</identifier>
      <datestamp>2017-01-19T05:21:43Z</datestamp>
      <setSpec>user-biosyslit</setSpec>
    </header>
    <header>
      <identifier>oai:zenodo.org:252006</identifier>
      <datestamp>2017-01-19T07:14:08Z</datestamp>
      <setSpec>user-biosyslit</setSpec>
    </header>
    <header>
      <identifier>oai:zenodo.org:276312</identifier>
      <datestamp>2017-02-08T18:37:09Z</datestamp>
      <setSpec>user-biosyslit</setSpec>
    </header>
    <header>
      <identifier>oai:zenodo.org:252458</identifier>
      <datestamp>2017-01-19T14:42:13Z</datestamp>
      <setSpec>user-biosyslit</setSpec>
    </header>
    <header>
      <identifier>oai:zenodo.org:252118</identifier>
      <datestamp>2017-01-19T09:22:04Z</datestamp>
      <setSpec>user-biosyslit</setSpec>
    </header>
    <header>
      <identifier>oai:zenodo.org:252839</identifier>
      <datestamp>2017-01-19T20:55:40Z</datestamp>
      <setSpec>user-biosyslit</setSpec>
    </header>
    <header>
      <identifier>oai:zenodo.org:252145</identifier>
      <datestamp>2017-01-19T09:49:51Z</datestamp>
      <setSpec>user-biosyslit</setSpec>
    </header>
    <header>
      <identifier>oai:zenodo.org:252040</identifier>
      <datestamp>2017-01-19T07:36:58Z</datestamp>
      <setSpec>user-biosyslit</setSpec>
    </header>
    <header>
      <identifier>oai:zenodo.org:251954</identifier>
      <datestamp>2017-01-19T06:28:18Z</datestamp>
      <setSpec>user-biosyslit</setSpec>
    </header>
    <header>
      <identifier>oai:zenodo.org:252623</identifier>
      <datestamp>2017-01-19T17:48:03Z</datestamp>
      <setSpec>user-biosyslit</setSpec>
    </header>
    <header>
      <identifier>oai:zenodo.org:252987</identifier>
      <datestamp>2017-01-20T01:03:27Z</datestamp>
      <setSpec>user-biosyslit</setSpec>
    </header>
    <header>
      <identifier>oai:zenodo.org:252382</identifier>
      <datestamp>2017-01-19T13:20:36Z</datestamp>
      <setSpec>user-biosyslit</setSpec>
    </header>
    <header>
      <identifier>oai:zenodo.org:252996</identifier>
      <datestamp>2017-01-20T01:04:56Z</datestamp>
      <setSpec>user-biosyslit</setSpec>
    </header>
    <header>
      <identifier>oai:zenodo.org:253048</identifier>
      <datestamp>2017-01-20T01:56:01Z</datestamp>
      <setSpec>user-biosyslit</setSpec>
    </header>
    <header>
      <identifier>oai:zenodo.org:253223</identifier>
      <datestamp>2017-01-20T04:33:34Z</datestamp>
      <setSpec>user-biosyslit</setSpec>
    </header>
    <header>
      <identifier>oai:zenodo.org:252297</identifier>
      <datestamp>2017-01-19T11:55:28Z</datestamp>
      <setSpec>user-biosyslit</setSpec>
    </header>
    <header>
      <identifier>oai:zenodo.org:252507</identifier>
      <datestamp>2017-01-19T15:25:20Z</datestamp>
      <setSpec>user-biosyslit</setSpec>
    </header>
    <header>
      <identifier>oai:zenodo.org:253142</identifier>
      <datestamp>2017-01-20T02:35:46Z</datestamp>
      <setSpec>user-biosyslit</setSpec>
    </header>
    <header>
      <identifier>oai:zenodo.org:253062</identifier>
      <datestamp>2017-01-20T01:56:48Z</datestamp>
      <setSpec>user-biosyslit</setSpec>
    </header>
    <header>
      <identifier>oai:zenodo.org:252886</identifier>
      <datestamp>2017-01-19T22:27:55Z</datestamp>
      <setSpec>user-biosyslit</setSpec>
    </header>
    <header>
      <identifier>oai:zenodo.org:252706</identifier>
      <datestamp>2017-01-19T18:47:15Z</datestamp>
      <setSpec>user-biosyslit</setSpec>
    </header>
    <header>
      <identifier>oai:zenodo.org:252624</identifier>
      <datestamp>2017-01-19T17:48:05Z</datestamp>
      <setSpec>user-biosyslit</setSpec>
    </header>
    <header>
      <identifier>oai:zenodo.org:253092</identifier>
      <datestamp>2017-01-20T02:32:47Z</datestamp>
      <setSpec>user-biosyslit</setSpec>
    </header>
    <header>
      <identifier>oai:zenodo.org:272482</identifier>
      <datestamp>2017-02-08T04:54:24Z</datestamp>
      <setSpec>user-biosyslit</setSpec>
    </header>
    <header>
      <identifier>oai:zenodo.org:248306</identifier>
      <datestamp>2017-01-17T02:18:25Z</datestamp>
      <setSpec>user-biosyslit</setSpec>
    </header>
    <header>
      <identifier>oai:zenodo.org:249139</identifier>
      <datestamp>2017-01-17T16:38:30Z</datestamp>
      <setSpec>user-biosyslit</setSpec>
    </header>
    <header>
      <identifier>oai:zenodo.org:247924</identifier>
      <datestamp>2017-01-16T21:33:19Z</datestamp>
      <setSpec>user-biosyslit</setSpec>
    </header>
    <header>
      <identifier>oai:zenodo.org:248184</identifier>
      <datestamp>2017-01-17T00:44:11Z</datestamp>
      <setSpec>user-biosyslit</setSpec>
    </header>
    <header>
      <identifier>oai:zenodo.org:248172</identifier>
      <datestamp>2017-01-17T00:43:35Z</datestamp>
      <setSpec>user-biosyslit</setSpec>
    </header>
    <header>
      <identifier>oai:zenodo.org:248606</identifier>
      <datestamp>2017-01-17T06:01:42Z</datestamp>
      <setSpec>user-biosyslit</setSpec>
    </header>
    <header>
      <identifier>oai:zenodo.org:248613</identifier>
      <datestamp>2017-01-17T06:02:03Z</datestamp>
      <setSpec>user-biosyslit</setSpec>
    </header>
    <header>
      <identifier>oai:zenodo.org:248709</identifier>
      <datestamp>2017-01-17T08:28:51Z</datestamp>
      <setSpec>user-biosyslit</setSpec>
    </header>
    <header>
      <identifier>oai:zenodo.org:250198</identifier>
      <datestamp>2017-01-18T06:53:31Z</datestamp>
      <setSpec>user-biosyslit</setSpec>
    </header>
    <header>
      <identifier>oai:zenodo.org:251100</identifier>
      <datestamp>2017-01-18T18:44:16Z</datestamp>
      <setSpec>user-biosyslit</setSpec>
    </header>
    <header>
      <identifier>oai:zenodo.org:249730</identifier>
      <datestamp>2017-01-17T23:05:51Z</datestamp>
      <setSpec>user-biosyslit</setSpec>
    </header>
    <header>
      <identifier>oai:zenodo.org:250515</identifier>
      <datestamp>2017-01-18T11:22:07Z</datestamp>
      <setSpec>user-biosyslit</setSpec>
    </header>
    <header>
      <identifier>oai:zenodo.org:250034</identifier>
      <datestamp>2017-01-18T04:02:48Z</datestamp>
      <setSpec>user-biosyslit</setSpec>
    </header>
    <header>
      <identifier>oai:zenodo.org:249945</identifier>
      <datestamp>2017-01-18T02:40:56Z</datestamp>
      <setSpec>user-biosyslit</setSpec>
    </header>
    <header>
      <identifier>oai:zenodo.org:250685</identifier>
      <datestamp>2017-01-18T14:03:43Z</datestamp>
      <setSpec>user-biosyslit</setSpec>
    </header>
    <header>
      <identifier>oai:zenodo.org:251101</identifier>
      <datestamp>2017-01-18T18:44:20Z</datestamp>
      <setSpec>user-biosyslit</setSpec>
    </header>
    <header>
      <identifier>oai:zenodo.org:250280</identifier>
      <datestamp>2017-01-18T07:55:37Z</datestamp>
      <setSpec>user-biosyslit</setSpec>
    </header>
    <header>
      <identifier>oai:zenodo.org:250032</identifier>
      <datestamp>2017-01-18T04:02:41Z</datestamp>
      <setSpec>user-biosyslit</setSpec>
    </header>
    <header>
      <identifier>oai:zenodo.org:272556</identifier>
      <datestamp>2017-02-08T05:08:29Z</datestamp>
      <setSpec>user-biosyslit</setSpec>
    </header>
    <header>
      <identifier>oai:zenodo.org:250012</identifier>
      <datestamp>2017-01-18T03:31:08Z</datestamp>
      <setSpec>user-biosyslit</setSpec>
    </header>
    <header>
      <identifier>oai:zenodo.org:250171</identifier>
      <datestamp>2017-01-18T05:45:15Z</datestamp>
      <setSpec>user-biosyslit</setSpec>
    </header>
    <header>
      <identifier>oai:zenodo.org:250008</identifier>
      <datestamp>2017-01-18T03:30:56Z</datestamp>
      <setSpec>user-biosyslit</setSpec>
    </header>
    <header>
      <identifier>oai:zenodo.org:250566</identifier>
      <datestamp>2017-01-18T12:28:15Z</datestamp>
      <setSpec>user-biosyslit</setSpec>
    </header>
    <header>
      <identifier>oai:zenodo.org:250245</identifier>
      <datestamp>2017-01-18T07:28:56Z</datestamp>
      <setSpec>user-biosyslit</setSpec>
    </header>
    <header>
      <identifier>oai:zenodo.org:250423</identifier>
      <datestamp>2017-01-18T10:07:07Z</datestamp>
      <setSpec>user-biosyslit</setSpec>
    </header>
    <header>
      <identifier>oai:zenodo.org:250424</identifier>
      <datestamp>2017-01-18T10:07:10Z</datestamp>
      <setSpec>user-biosyslit</setSpec>
    </header>
    <header>
      <identifier>oai:zenodo.org:250664</identifier>
      <datestamp>2017-01-18T14:02:24Z</datestamp>
      <setSpec>user-biosyslit</setSpec>
    </header>
    <header>
      <identifier>oai:zenodo.org:250951</identifier>
      <datestamp>2017-01-18T16:43:14Z</datestamp>
      <setSpec>user-biosyslit</setSpec>
    </header>
    <header>
      <identifier>oai:zenodo.org:251289</identifier>
      <datestamp>2017-01-18T21:19:24Z</datestamp>
      <setSpec>user-biosyslit</setSpec>
    </header>
    <header>
      <identifier>oai:zenodo.org:250470</identifier>
      <datestamp>2017-01-18T10:40:07Z</datestamp>
      <setSpec>user-biosyslit</setSpec>
    </header>
    <header>
      <identifier>oai:zenodo.org:250673</identifier>
      <datestamp>2017-01-18T14:02:56Z</datestamp>
      <setSpec>user-biosyslit</setSpec>
    </header>
    <header>
      <identifier>oai:zenodo.org:272597</identifier>
      <datestamp>2017-02-08T05:21:14Z</datestamp>
      <setSpec>user-biosyslit</setSpec>
    </header>
    <header>
      <identifier>oai:zenodo.org:251211</identifier>
      <datestamp>2017-01-18T20:00:40Z</datestamp>
      <setSpec>user-biosyslit</setSpec>
    </header>
    <header>
      <identifier>oai:zenodo.org:250924</identifier>
      <datestamp>2017-01-18T16:25:38Z</datestamp>
      <setSpec>user-biosyslit</setSpec>
    </header>
    <header>
      <identifier>oai:zenodo.org:251542</identifier>
      <datestamp>2017-01-19T01:36:15Z</datestamp>
      <setSpec>user-biosyslit</setSpec>
    </header>
    <header>
      <identifier>oai:zenodo.org:272984</identifier>
      <datestamp>2017-02-08T06:56:52Z</datestamp>
      <setSpec>user-biosyslit</setSpec>
    </header>
    <header>
      <identifier>oai:zenodo.org:251656</identifier>
      <datestamp>2017-01-19T02:49:24Z</datestamp>
      <setSpec>user-biosyslit</setSpec>
    </header>
    <header>
      <identifier>oai:zenodo.org:251468</identifier>
      <datestamp>2017-01-19T00:39:59Z</datestamp>
      <setSpec>user-biosyslit</setSpec>
    </header>
    <header>
      <identifier>oai:zenodo.org:251115</identifier>
      <datestamp>2017-01-18T18:51:42Z</datestamp>
      <setSpec>user-biosyslit</setSpec>
    </header>
    <header>
      <identifier>oai:zenodo.org:272845</identifier>
      <datestamp>2017-02-08T06:30:16Z</datestamp>
      <setSpec>user-biosyslit</setSpec>
    </header>
    <header>
      <identifier>oai:zenodo.org:272952</identifier>
      <datestamp>2017-02-08T06:55:07Z</datestamp>
      <setSpec>user-biosyslit</setSpec>
    </header>
    <resumptionToken expirationDate="2017-08-31T15:43:40Z" cursor="10100" completeListSize="77796">.eJyNz00PQzAAgOH_0rMsrc5nsoswcUDoyLgsViKmTHQLKv77XHbezu9zeVfAq6oEJjwohoZUVVWOmoGxrGMJcDo-Gbs1ewb0mjLas6Rw03fcpTCTay2w-ezbGQ5EC8MOCXKO5CvS56SBS3RJXpmI5xR7E4GO5otoCR7e7kocuiy_uwNJeosRuRxDJ1oIskiO6dehP5346Wx-AhIYiroCJoL7VTsVY82BuW7bB6jpUUM.DIm_tA.3r0hcmosjgOcIfwKo7I9lWyYhgg</resumptionToken>
  </ListIdentifiers>
</OAI-PMH>
