<?xml version='1.0' encoding='UTF-8'?>
<?xml-stylesheet type="text/xsl" href="/static/xsl/oai2.v1.0.xsl"?>
<OAI-PMH xmlns="http://www.openarchives.org/OAI/2.0/" xmlns:xsi="http://www.w3.org/2001/XMLSchema-instance" xsi:schemaLocation="http://www.openarchives.org/OAI/2.0/ http://www.openarchives.org/OAI/2.0/OAI-PMH.xsd">
  <responseDate>2017-08-31T15:42:05Z</responseDate>
  <request verb="ListIdentifiers" resumptionToken=".eJyNyk0PQzAYAOD_8p5laRVFssvCxGGEjrDLYoiY7iO6BRX_fS47b-fnmUHUdQU22hBL1yhCum5SqhHdUkCU_YPzc7sylFnKyztPCi99x7cU5WpDA0eMBycngexQeMOS7SM1w-aYtGiKjskrl_GYEn9gyKUHGU3B1V9fRUKPny7ekyX3HWdq1YduNDG8YydSfh_-88mfzxFbUOBZNDXY2DAU6IaibwTY87J8AKZbUUk.DIm_zQ.pjvsrbPGp39rRIi3XfxsgwEnxHA">https://zenodo.org/oai2d</request>
  <ListIdentifiers>
    <header>
      <identifier>oai:zenodo.org:571667</identifier>
      <datestamp>2017-05-05T08:12:09Z</datestamp>
      <setSpec>user-biosyslit</setSpec>
    </header>
    <header>
      <identifier>oai:zenodo.org:570100</identifier>
      <datestamp>2017-05-01T07:24:19Z</datestamp>
      <setSpec>user-biosyslit</setSpec>
    </header>
    <header>
      <identifier>oai:zenodo.org:573086</identifier>
      <datestamp>2017-05-09T07:48:20Z</datestamp>
      <setSpec>user-biosyslit</setSpec>
    </header>
    <header>
      <identifier>oai:zenodo.org:573168</identifier>
      <datestamp>2017-05-09T09:12:05Z</datestamp>
      <setSpec>user-biosyslit</setSpec>
    </header>
    <header>
      <identifier>oai:zenodo.org:573110</identifier>
      <datestamp>2017-05-09T08:19:15Z</datestamp>
      <setSpec>user-biosyslit</setSpec>
    </header>
    <header>
      <identifier>oai:zenodo.org:569145</identifier>
      <datestamp>2017-04-26T08:28:52Z</datestamp>
      <setSpec>user-biosyslit</setSpec>
    </header>
    <header>
      <identifier>oai:zenodo.org:570435</identifier>
      <datestamp>2017-05-02T07:51:19Z</datestamp>
      <setSpec>user-biosyslit</setSpec>
    </header>
    <header>
      <identifier>oai:zenodo.org:570999</identifier>
      <datestamp>2017-05-03T07:31:27Z</datestamp>
      <setSpec>user-biosyslit</setSpec>
    </header>
    <header>
      <identifier>oai:zenodo.org:572593</identifier>
      <datestamp>2017-05-08T10:39:00Z</datestamp>
      <setSpec>user-biosyslit</setSpec>
    </header>
    <header>
      <identifier>oai:zenodo.org:571661</identifier>
      <datestamp>2017-05-05T08:11:56Z</datestamp>
      <setSpec>user-biosyslit</setSpec>
    </header>
    <header>
      <identifier>oai:zenodo.org:571610</identifier>
      <datestamp>2017-05-05T08:09:50Z</datestamp>
      <setSpec>user-biosyslit</setSpec>
    </header>
    <header>
      <identifier>oai:zenodo.org:571305</identifier>
      <datestamp>2017-05-04T07:42:05Z</datestamp>
      <setSpec>user-biosyslit</setSpec>
    </header>
    <header>
      <identifier>oai:zenodo.org:571699</identifier>
      <datestamp>2017-05-05T08:34:51Z</datestamp>
      <setSpec>user-biosyslit</setSpec>
    </header>
    <header>
      <identifier>oai:zenodo.org:572522</identifier>
      <datestamp>2017-05-08T07:19:48Z</datestamp>
      <setSpec>user-biosyslit</setSpec>
    </header>
    <header>
      <identifier>oai:zenodo.org:571323</identifier>
      <datestamp>2017-05-04T07:41:12Z</datestamp>
      <setSpec>user-biosyslit</setSpec>
    </header>
    <header>
      <identifier>oai:zenodo.org:571615</identifier>
      <datestamp>2017-05-05T08:10:03Z</datestamp>
      <setSpec>user-biosyslit</setSpec>
    </header>
    <header>
      <identifier>oai:zenodo.org:573084</identifier>
      <datestamp>2017-05-09T07:47:01Z</datestamp>
      <setSpec>user-biosyslit</setSpec>
    </header>
    <header>
      <identifier>oai:zenodo.org:571650</identifier>
      <datestamp>2017-05-05T08:11:29Z</datestamp>
      <setSpec>user-biosyslit</setSpec>
    </header>
    <header>
      <identifier>oai:zenodo.org:571691</identifier>
      <datestamp>2017-05-05T08:34:33Z</datestamp>
      <setSpec>user-biosyslit</setSpec>
    </header>
    <header>
      <identifier>oai:zenodo.org:438235</identifier>
      <datestamp>2017-03-27T07:44:31Z</datestamp>
      <setSpec>user-biosyslit</setSpec>
    </header>
    <header>
      <identifier>oai:zenodo.org:571608</identifier>
      <datestamp>2017-05-05T08:12:44Z</datestamp>
      <setSpec>user-biosyslit</setSpec>
    </header>
    <header>
      <identifier>oai:zenodo.org:571729</identifier>
      <datestamp>2017-05-05T08:36:06Z</datestamp>
      <setSpec>user-biosyslit</setSpec>
    </header>
    <header>
      <identifier>oai:zenodo.org:437958</identifier>
      <datestamp>2017-03-24T08:30:56Z</datestamp>
      <setSpec>user-biosyslit</setSpec>
    </header>
    <header>
      <identifier>oai:zenodo.org:437960</identifier>
      <datestamp>2017-03-24T08:31:01Z</datestamp>
      <setSpec>user-biosyslit</setSpec>
    </header>
    <header>
      <identifier>oai:zenodo.org:571632</identifier>
      <datestamp>2017-05-05T08:10:45Z</datestamp>
      <setSpec>user-biosyslit</setSpec>
    </header>
    <header>
      <identifier>oai:zenodo.org:438521</identifier>
      <datestamp>2017-03-28T07:13:48Z</datestamp>
      <setSpec>user-biosyslit</setSpec>
    </header>
    <header>
      <identifier>oai:zenodo.org:439466</identifier>
      <datestamp>2017-03-31T07:48:43Z</datestamp>
      <setSpec>user-biosyslit</setSpec>
    </header>
    <header>
      <identifier>oai:zenodo.org:573064</identifier>
      <datestamp>2017-05-09T07:19:12Z</datestamp>
      <setSpec>user-biosyslit</setSpec>
    </header>
    <header>
      <identifier>oai:zenodo.org:573190</identifier>
      <datestamp>2017-05-09T09:30:39Z</datestamp>
      <setSpec>user-biosyslit</setSpec>
    </header>
    <header>
      <identifier>oai:zenodo.org:571630</identifier>
      <datestamp>2017-05-05T08:10:40Z</datestamp>
      <setSpec>user-biosyslit</setSpec>
    </header>
    <header>
      <identifier>oai:zenodo.org:495527</identifier>
      <datestamp>2017-04-07T07:30:55Z</datestamp>
      <setSpec>user-biosyslit</setSpec>
    </header>
    <header>
      <identifier>oai:zenodo.org:495839</identifier>
      <datestamp>2017-04-10T07:21:21Z</datestamp>
      <setSpec>user-biosyslit</setSpec>
    </header>
    <header>
      <identifier>oai:zenodo.org:572553</identifier>
      <datestamp>2017-05-08T07:54:23Z</datestamp>
      <setSpec>user-biosyslit</setSpec>
    </header>
    <header>
      <identifier>oai:zenodo.org:572601</identifier>
      <datestamp>2017-05-08T10:51:13Z</datestamp>
      <setSpec>user-biosyslit</setSpec>
    </header>
    <header>
      <identifier>oai:zenodo.org:545912</identifier>
      <datestamp>2017-04-13T08:06:51Z</datestamp>
      <setSpec>user-biosyslit</setSpec>
    </header>
    <header>
      <identifier>oai:zenodo.org:556061</identifier>
      <datestamp>2017-04-19T07:49:11Z</datestamp>
      <setSpec>user-biosyslit</setSpec>
    </header>
    <header>
      <identifier>oai:zenodo.org:569403</identifier>
      <datestamp>2017-04-27T07:16:46Z</datestamp>
      <setSpec>user-biosyslit</setSpec>
    </header>
    <header>
      <identifier>oai:zenodo.org:437227</identifier>
      <datestamp>2017-03-22T08:13:35Z</datestamp>
      <setSpec>user-biosyslit</setSpec>
    </header>
    <header>
      <identifier>oai:zenodo.org:569737</identifier>
      <datestamp>2017-04-28T07:21:58Z</datestamp>
      <setSpec>user-biosyslit</setSpec>
    </header>
    <header>
      <identifier>oai:zenodo.org:437245</identifier>
      <datestamp>2017-03-22T08:44:41Z</datestamp>
      <setSpec>user-biosyslit</setSpec>
    </header>
    <header>
      <identifier>oai:zenodo.org:437285</identifier>
      <datestamp>2017-03-22T09:11:53Z</datestamp>
      <setSpec>user-biosyslit</setSpec>
    </header>
    <header>
      <identifier>oai:zenodo.org:556896</identifier>
      <datestamp>2017-04-24T08:06:59Z</datestamp>
      <setSpec>user-biosyslit</setSpec>
    </header>
    <header>
      <identifier>oai:zenodo.org:438218</identifier>
      <datestamp>2017-03-27T07:30:35Z</datestamp>
      <setSpec>user-biosyslit</setSpec>
    </header>
    <header>
      <identifier>oai:zenodo.org:556895</identifier>
      <datestamp>2017-04-24T08:06:56Z</datestamp>
      <setSpec>user-biosyslit</setSpec>
    </header>
    <header>
      <identifier>oai:zenodo.org:571053</identifier>
      <datestamp>2017-05-03T08:22:28Z</datestamp>
      <setSpec>user-biosyslit</setSpec>
    </header>
    <header>
      <identifier>oai:zenodo.org:438608</identifier>
      <datestamp>2017-03-28T08:02:45Z</datestamp>
      <setSpec>user-biosyslit</setSpec>
    </header>
    <header>
      <identifier>oai:zenodo.org:438541</identifier>
      <datestamp>2017-03-28T07:14:41Z</datestamp>
      <setSpec>user-biosyslit</setSpec>
    </header>
    <header>
      <identifier>oai:zenodo.org:439868</identifier>
      <datestamp>2017-04-03T10:36:14Z</datestamp>
      <setSpec>user-biosyslit</setSpec>
    </header>
    <header>
      <identifier>oai:zenodo.org:571646</identifier>
      <datestamp>2017-05-05T08:11:18Z</datestamp>
      <setSpec>user-biosyslit</setSpec>
    </header>
    <header>
      <identifier>oai:zenodo.org:557194</identifier>
      <datestamp>2017-04-25T09:18:23Z</datestamp>
      <setSpec>user-biosyslit</setSpec>
    </header>
    <header>
      <identifier>oai:zenodo.org:571728</identifier>
      <datestamp>2017-05-05T08:36:03Z</datestamp>
      <setSpec>user-biosyslit</setSpec>
    </header>
    <header>
      <identifier>oai:zenodo.org:439464</identifier>
      <datestamp>2017-03-31T07:48:38Z</datestamp>
      <setSpec>user-biosyslit</setSpec>
    </header>
    <header>
      <identifier>oai:zenodo.org:439328</identifier>
      <datestamp>2017-03-31T09:17:00Z</datestamp>
      <setSpec>user-biosyslit</setSpec>
    </header>
    <header>
      <identifier>oai:zenodo.org:439748</identifier>
      <datestamp>2017-04-02T21:15:56Z</datestamp>
      <setSpec>user-biosyslit</setSpec>
    </header>
    <header>
      <identifier>oai:zenodo.org:438550</identifier>
      <datestamp>2017-03-28T07:23:05Z</datestamp>
      <setSpec>user-biosyslit</setSpec>
    </header>
    <header>
      <identifier>oai:zenodo.org:495294</identifier>
      <datestamp>2017-04-06T07:22:49Z</datestamp>
      <setSpec>user-biosyslit</setSpec>
    </header>
    <header>
      <identifier>oai:zenodo.org:573127</identifier>
      <datestamp>2017-05-09T08:29:16Z</datestamp>
      <setSpec>user-biosyslit</setSpec>
    </header>
    <header>
      <identifier>oai:zenodo.org:573071</identifier>
      <datestamp>2017-05-09T07:31:11Z</datestamp>
      <setSpec>user-biosyslit</setSpec>
    </header>
    <header>
      <identifier>oai:zenodo.org:439190</identifier>
      <datestamp>2017-03-30T07:50:35Z</datestamp>
      <setSpec>user-biosyslit</setSpec>
    </header>
    <header>
      <identifier>oai:zenodo.org:438832</identifier>
      <datestamp>2017-03-29T07:20:14Z</datestamp>
      <setSpec>user-biosyslit</setSpec>
    </header>
    <header>
      <identifier>oai:zenodo.org:556265</identifier>
      <datestamp>2017-04-20T07:12:18Z</datestamp>
      <setSpec>user-biosyslit</setSpec>
    </header>
    <header>
      <identifier>oai:zenodo.org:399656</identifier>
      <datestamp>2017-03-15T23:07:23Z</datestamp>
      <setSpec>user-biosyslit</setSpec>
    </header>
    <header>
      <identifier>oai:zenodo.org:400360</identifier>
      <datestamp>2017-03-16T22:03:10Z</datestamp>
      <setSpec>user-biosyslit</setSpec>
    </header>
    <header>
      <identifier>oai:zenodo.org:399356</identifier>
      <datestamp>2017-03-15T20:01:39Z</datestamp>
      <setSpec>user-biosyslit</setSpec>
    </header>
    <header>
      <identifier>oai:zenodo.org:399739</identifier>
      <datestamp>2017-03-15T23:48:22Z</datestamp>
      <setSpec>user-biosyslit</setSpec>
    </header>
    <header>
      <identifier>oai:zenodo.org:400472</identifier>
      <datestamp>2017-03-17T09:17:01Z</datestamp>
      <setSpec>user-biosyslit</setSpec>
    </header>
    <header>
      <identifier>oai:zenodo.org:426959</identifier>
      <datestamp>2017-03-21T08:25:34Z</datestamp>
      <setSpec>user-biosyslit</setSpec>
    </header>
    <header>
      <identifier>oai:zenodo.org:400851</identifier>
      <datestamp>2017-03-20T08:32:49Z</datestamp>
      <setSpec>user-biosyslit</setSpec>
    </header>
    <header>
      <identifier>oai:zenodo.org:428731</identifier>
      <datestamp>2017-03-21T08:48:25Z</datestamp>
      <setSpec>user-biosyslit</setSpec>
    </header>
    <header>
      <identifier>oai:zenodo.org:437654</identifier>
      <datestamp>2017-03-23T10:10:23Z</datestamp>
      <setSpec>user-biosyslit</setSpec>
    </header>
    <header>
      <identifier>oai:zenodo.org:556311</identifier>
      <datestamp>2017-04-20T08:06:36Z</datestamp>
      <setSpec>user-biosyslit</setSpec>
    </header>
    <header>
      <identifier>oai:zenodo.org:437949</identifier>
      <datestamp>2017-03-24T08:24:45Z</datestamp>
      <setSpec>user-biosyslit</setSpec>
    </header>
    <header>
      <identifier>oai:zenodo.org:437660</identifier>
      <datestamp>2017-03-23T10:10:34Z</datestamp>
      <setSpec>user-biosyslit</setSpec>
    </header>
    <header>
      <identifier>oai:zenodo.org:556460</identifier>
      <datestamp>2017-04-20T21:21:29Z</datestamp>
      <setSpec>user-biosyslit</setSpec>
    </header>
    <header>
      <identifier>oai:zenodo.org:556486</identifier>
      <datestamp>2017-04-21T08:45:31Z</datestamp>
      <setSpec>user-biosyslit</setSpec>
    </header>
    <header>
      <identifier>oai:zenodo.org:437952</identifier>
      <datestamp>2017-03-24T08:31:08Z</datestamp>
      <setSpec>user-biosyslit</setSpec>
    </header>
    <header>
      <identifier>oai:zenodo.org:438910</identifier>
      <datestamp>2017-03-29T08:35:14Z</datestamp>
      <setSpec>user-biosyslit</setSpec>
    </header>
    <header>
      <identifier>oai:zenodo.org:438873</identifier>
      <datestamp>2017-03-29T07:57:26Z</datestamp>
      <setSpec>user-biosyslit</setSpec>
    </header>
    <header>
      <identifier>oai:zenodo.org:438530</identifier>
      <datestamp>2017-03-28T07:14:12Z</datestamp>
      <setSpec>user-biosyslit</setSpec>
    </header>
    <header>
      <identifier>oai:zenodo.org:438812</identifier>
      <datestamp>2017-03-29T07:14:29Z</datestamp>
      <setSpec>user-biosyslit</setSpec>
    </header>
    <header>
      <identifier>oai:zenodo.org:439326</identifier>
      <datestamp>2017-03-31T09:17:03Z</datestamp>
      <setSpec>user-biosyslit</setSpec>
    </header>
    <header>
      <identifier>oai:zenodo.org:322665</identifier>
      <datestamp>2017-04-03T10:01:37Z</datestamp>
      <setSpec>openaire</setSpec>
      <setSpec>user-biosyslit</setSpec>
    </header>
    <header>
      <identifier>oai:zenodo.org:439322</identifier>
      <datestamp>2017-03-31T09:17:08Z</datestamp>
      <setSpec>user-biosyslit</setSpec>
    </header>
    <header>
      <identifier>oai:zenodo.org:452790</identifier>
      <datestamp>2017-04-04T07:41:01Z</datestamp>
      <setSpec>user-biosyslit</setSpec>
    </header>
    <header>
      <identifier>oai:zenodo.org:495307</identifier>
      <datestamp>2017-04-06T07:41:14Z</datestamp>
      <setSpec>user-biosyslit</setSpec>
    </header>
    <header>
      <identifier>oai:zenodo.org:495828</identifier>
      <datestamp>2017-04-10T07:20:52Z</datestamp>
      <setSpec>user-biosyslit</setSpec>
    </header>
    <header>
      <identifier>oai:zenodo.org:495315</identifier>
      <datestamp>2017-04-06T07:46:51Z</datestamp>
      <setSpec>user-biosyslit</setSpec>
    </header>
    <header>
      <identifier>oai:zenodo.org:495333</identifier>
      <datestamp>2017-04-06T08:03:14Z</datestamp>
      <setSpec>user-biosyslit</setSpec>
    </header>
    <header>
      <identifier>oai:zenodo.org:495547</identifier>
      <datestamp>2017-04-07T07:46:07Z</datestamp>
      <setSpec>user-biosyslit</setSpec>
    </header>
    <header>
      <identifier>oai:zenodo.org:496989</identifier>
      <datestamp>2017-04-11T07:48:14Z</datestamp>
      <setSpec>user-biosyslit</setSpec>
    </header>
    <header>
      <identifier>oai:zenodo.org:546748</identifier>
      <datestamp>2017-04-28T10:53:42Z</datestamp>
      <setSpec>openaire</setSpec>
      <setSpec>user-biosyslit</setSpec>
    </header>
    <header>
      <identifier>oai:zenodo.org:557179</identifier>
      <datestamp>2017-04-25T09:17:35Z</datestamp>
      <setSpec>user-biosyslit</setSpec>
    </header>
    <header>
      <identifier>oai:zenodo.org:572592</identifier>
      <datestamp>2017-05-08T10:38:57Z</datestamp>
      <setSpec>user-biosyslit</setSpec>
    </header>
    <header>
      <identifier>oai:zenodo.org:572627</identifier>
      <datestamp>2017-05-08T11:41:15Z</datestamp>
      <setSpec>user-biosyslit</setSpec>
    </header>
    <header>
      <identifier>oai:zenodo.org:569766</identifier>
      <datestamp>2017-04-28T07:57:22Z</datestamp>
      <setSpec>user-biosyslit</setSpec>
    </header>
    <header>
      <identifier>oai:zenodo.org:569153</identifier>
      <datestamp>2017-04-26T08:28:40Z</datestamp>
      <setSpec>user-biosyslit</setSpec>
    </header>
    <header>
      <identifier>oai:zenodo.org:569753</identifier>
      <datestamp>2017-04-28T07:35:16Z</datestamp>
      <setSpec>user-biosyslit</setSpec>
    </header>
    <header>
      <identifier>oai:zenodo.org:569146</identifier>
      <datestamp>2017-04-26T08:28:19Z</datestamp>
      <setSpec>user-biosyslit</setSpec>
    </header>
    <header>
      <identifier>oai:zenodo.org:570424</identifier>
      <datestamp>2017-05-02T07:38:37Z</datestamp>
      <setSpec>user-biosyslit</setSpec>
    </header>
    <header>
      <identifier>oai:zenodo.org:571043</identifier>
      <datestamp>2017-05-03T08:04:06Z</datestamp>
      <setSpec>user-biosyslit</setSpec>
    </header>
    <resumptionToken expirationDate="2017-08-31T15:44:05Z" cursor="16500" completeListSize="77796">.eJyNyj0LgkAYAOD_8s4S91FeCi1hiUOKXSfqEqYi5lnhFemJ_z2X5pqfZwRVlgXYaIHp0iSmRRlZrQmyLNMAlXd3Kc_17JDHkcxvUmRu9Dq2EUpIxXxH9Qcnob5uUNBizfchifG6FzUawpN4JvrYR9R7c7RjBx0O_tWbX0EDV6YX98HFbSs5KbpgFw4cb3lK8-_Dfz798zlqAwY8sqoEG5vMgOaddZUCe5ymD9gNUXs.DIm_zQ.Q4jWuAemyZ90_c2T3BpX0C4bC34</resumptionToken>
  </ListIdentifiers>
</OAI-PMH>
