<?xml version='1.0' encoding='UTF-8'?>
<?xml-stylesheet type="text/xsl" href="/static/xsl/oai2.v1.0.xsl"?>
<OAI-PMH xmlns="http://www.openarchives.org/OAI/2.0/" xmlns:xsi="http://www.w3.org/2001/XMLSchema-instance" xsi:schemaLocation="http://www.openarchives.org/OAI/2.0/ http://www.openarchives.org/OAI/2.0/OAI-PMH.xsd">
  <responseDate>2017-08-31T15:41:53Z</responseDate>
  <request verb="ListIdentifiers" resumptionToken=".eJyNyk0LgjAYAOD_8p4l9pE5hC6hSYeUuRzqJUxFqmniinTRf89L5zo_zwt0XVfgooWNlsxZrohNMGGMMgt0OdyUOp5nhjKVquxUUgTyEbcSZaRxQk-Pey-jobmiqMVGbDlJMRuTM5r4IblnJh4l3T0F8p294VN42c2volGg8lPQi6TbKEGqIfL5JPBG5LT8PvznMz-fp9dgQV80NbiY2hZcn8XQaHBf7_cHnsdRPQ.DIm_wQ.tp8FbwP5lxse5-PtRXoADFbRx8o">https://zenodo.org/oai2d</request>
  <ListIdentifiers>
    <header>
      <identifier>oai:zenodo.org:227738</identifier>
      <datestamp>2017-01-02T03:26:23Z</datestamp>
      <setSpec>user-biosyslit</setSpec>
    </header>
    <header>
      <identifier>oai:zenodo.org:230017</identifier>
      <datestamp>2017-01-04T17:37:42Z</datestamp>
      <setSpec>user-biosyslit</setSpec>
    </header>
    <header>
      <identifier>oai:zenodo.org:287234</identifier>
      <datestamp>2017-02-09T17:49:25Z</datestamp>
      <setSpec>user-biosyslit</setSpec>
    </header>
    <header>
      <identifier>oai:zenodo.org:287105</identifier>
      <datestamp>2017-02-09T17:28:16Z</datestamp>
      <setSpec>user-biosyslit</setSpec>
    </header>
    <header>
      <identifier>oai:zenodo.org:287492</identifier>
      <datestamp>2017-02-09T18:27:47Z</datestamp>
      <setSpec>user-biosyslit</setSpec>
    </header>
    <header>
      <identifier>oai:zenodo.org:287767</identifier>
      <datestamp>2017-02-09T19:14:24Z</datestamp>
      <setSpec>user-biosyslit</setSpec>
    </header>
    <header>
      <identifier>oai:zenodo.org:287751</identifier>
      <datestamp>2017-02-09T19:11:12Z</datestamp>
      <setSpec>user-biosyslit</setSpec>
    </header>
    <header>
      <identifier>oai:zenodo.org:287439</identifier>
      <datestamp>2017-02-09T18:19:13Z</datestamp>
      <setSpec>user-biosyslit</setSpec>
    </header>
    <header>
      <identifier>oai:zenodo.org:288361</identifier>
      <datestamp>2017-02-09T20:44:13Z</datestamp>
      <setSpec>user-biosyslit</setSpec>
    </header>
    <header>
      <identifier>oai:zenodo.org:288366</identifier>
      <datestamp>2017-02-09T20:45:11Z</datestamp>
      <setSpec>user-biosyslit</setSpec>
    </header>
    <header>
      <identifier>oai:zenodo.org:287196</identifier>
      <datestamp>2017-02-09T17:38:20Z</datestamp>
      <setSpec>user-biosyslit</setSpec>
    </header>
    <header>
      <identifier>oai:zenodo.org:288496</identifier>
      <datestamp>2017-02-09T21:04:19Z</datestamp>
      <setSpec>user-biosyslit</setSpec>
    </header>
    <header>
      <identifier>oai:zenodo.org:287683</identifier>
      <datestamp>2017-02-09T18:57:45Z</datestamp>
      <setSpec>user-biosyslit</setSpec>
    </header>
    <header>
      <identifier>oai:zenodo.org:288543</identifier>
      <datestamp>2017-02-09T21:06:21Z</datestamp>
      <setSpec>user-biosyslit</setSpec>
    </header>
    <header>
      <identifier>oai:zenodo.org:288518</identifier>
      <datestamp>2017-02-09T21:05:13Z</datestamp>
      <setSpec>user-biosyslit</setSpec>
    </header>
    <header>
      <identifier>oai:zenodo.org:287756</identifier>
      <datestamp>2017-02-09T19:12:11Z</datestamp>
      <setSpec>user-biosyslit</setSpec>
    </header>
    <header>
      <identifier>oai:zenodo.org:288348</identifier>
      <datestamp>2017-02-09T20:41:33Z</datestamp>
      <setSpec>user-biosyslit</setSpec>
    </header>
    <header>
      <identifier>oai:zenodo.org:287660</identifier>
      <datestamp>2017-02-09T18:52:14Z</datestamp>
      <setSpec>user-biosyslit</setSpec>
    </header>
    <header>
      <identifier>oai:zenodo.org:288296</identifier>
      <datestamp>2017-02-09T20:32:49Z</datestamp>
      <setSpec>user-biosyslit</setSpec>
    </header>
    <header>
      <identifier>oai:zenodo.org:226834</identifier>
      <datestamp>2017-01-01T04:12:47Z</datestamp>
      <setSpec>user-biosyslit</setSpec>
    </header>
    <header>
      <identifier>oai:zenodo.org:287755</identifier>
      <datestamp>2017-02-09T19:12:30Z</datestamp>
      <setSpec>user-biosyslit</setSpec>
    </header>
    <header>
      <identifier>oai:zenodo.org:495052</identifier>
      <datestamp>2017-04-05T07:30:02Z</datestamp>
      <setSpec>user-biosyslit</setSpec>
    </header>
    <header>
      <identifier>oai:zenodo.org:287912</identifier>
      <datestamp>2017-02-09T19:35:59Z</datestamp>
      <setSpec>user-biosyslit</setSpec>
    </header>
    <header>
      <identifier>oai:zenodo.org:288458</identifier>
      <datestamp>2017-02-09T21:02:00Z</datestamp>
      <setSpec>user-biosyslit</setSpec>
    </header>
    <header>
      <identifier>oai:zenodo.org:288506</identifier>
      <datestamp>2017-02-09T21:04:47Z</datestamp>
      <setSpec>user-biosyslit</setSpec>
    </header>
    <header>
      <identifier>oai:zenodo.org:227608</identifier>
      <datestamp>2017-01-02T00:53:42Z</datestamp>
      <setSpec>user-biosyslit</setSpec>
    </header>
    <header>
      <identifier>oai:zenodo.org:227549</identifier>
      <datestamp>2017-01-01T23:37:26Z</datestamp>
      <setSpec>user-biosyslit</setSpec>
    </header>
    <header>
      <identifier>oai:zenodo.org:227201</identifier>
      <datestamp>2017-01-01T18:02:44Z</datestamp>
      <setSpec>user-biosyslit</setSpec>
    </header>
    <header>
      <identifier>oai:zenodo.org:227407</identifier>
      <datestamp>2017-01-01T20:44:43Z</datestamp>
      <setSpec>user-biosyslit</setSpec>
    </header>
    <header>
      <identifier>oai:zenodo.org:229825</identifier>
      <datestamp>2017-01-04T07:35:19Z</datestamp>
      <setSpec>user-biosyslit</setSpec>
    </header>
    <header>
      <identifier>oai:zenodo.org:228992</identifier>
      <datestamp>2017-01-03T08:10:50Z</datestamp>
      <setSpec>user-biosyslit</setSpec>
    </header>
    <header>
      <identifier>oai:zenodo.org:288731</identifier>
      <datestamp>2017-02-09T21:49:36Z</datestamp>
      <setSpec>user-biosyslit</setSpec>
    </header>
    <header>
      <identifier>oai:zenodo.org:227577</identifier>
      <datestamp>2017-01-01T23:58:45Z</datestamp>
      <setSpec>user-biosyslit</setSpec>
    </header>
    <header>
      <identifier>oai:zenodo.org:227448</identifier>
      <datestamp>2017-01-01T21:32:09Z</datestamp>
      <setSpec>user-biosyslit</setSpec>
    </header>
    <header>
      <identifier>oai:zenodo.org:288700</identifier>
      <datestamp>2017-02-09T21:44:38Z</datestamp>
      <setSpec>user-biosyslit</setSpec>
    </header>
    <header>
      <identifier>oai:zenodo.org:495537</identifier>
      <datestamp>2017-04-07T07:38:06Z</datestamp>
      <setSpec>user-biosyslit</setSpec>
    </header>
    <header>
      <identifier>oai:zenodo.org:228472</identifier>
      <datestamp>2017-01-03T00:21:56Z</datestamp>
      <setSpec>user-biosyslit</setSpec>
    </header>
    <header>
      <identifier>oai:zenodo.org:288738</identifier>
      <datestamp>2017-02-09T21:49:58Z</datestamp>
      <setSpec>user-biosyslit</setSpec>
    </header>
    <header>
      <identifier>oai:zenodo.org:228599</identifier>
      <datestamp>2017-01-03T02:15:14Z</datestamp>
      <setSpec>user-biosyslit</setSpec>
    </header>
    <header>
      <identifier>oai:zenodo.org:495538</identifier>
      <datestamp>2017-04-07T07:38:08Z</datestamp>
      <setSpec>user-biosyslit</setSpec>
    </header>
    <header>
      <identifier>oai:zenodo.org:285882</identifier>
      <datestamp>2017-02-09T14:45:30Z</datestamp>
      <setSpec>user-biosyslit</setSpec>
    </header>
    <header>
      <identifier>oai:zenodo.org:286226</identifier>
      <datestamp>2017-02-09T15:33:35Z</datestamp>
      <setSpec>user-biosyslit</setSpec>
    </header>
    <header>
      <identifier>oai:zenodo.org:285775</identifier>
      <datestamp>2017-02-09T14:31:40Z</datestamp>
      <setSpec>user-biosyslit</setSpec>
    </header>
    <header>
      <identifier>oai:zenodo.org:286569</identifier>
      <datestamp>2017-02-09T16:23:03Z</datestamp>
      <setSpec>user-biosyslit</setSpec>
    </header>
    <header>
      <identifier>oai:zenodo.org:287292</identifier>
      <datestamp>2017-02-09T17:59:59Z</datestamp>
      <setSpec>user-biosyslit</setSpec>
    </header>
    <header>
      <identifier>oai:zenodo.org:287128</identifier>
      <datestamp>2017-02-09T17:31:08Z</datestamp>
      <setSpec>user-biosyslit</setSpec>
    </header>
    <header>
      <identifier>oai:zenodo.org:286299</identifier>
      <datestamp>2017-02-09T15:43:31Z</datestamp>
      <setSpec>user-biosyslit</setSpec>
    </header>
    <header>
      <identifier>oai:zenodo.org:286564</identifier>
      <datestamp>2017-02-09T16:22:54Z</datestamp>
      <setSpec>user-biosyslit</setSpec>
    </header>
    <header>
      <identifier>oai:zenodo.org:287504</identifier>
      <datestamp>2017-02-09T18:30:00Z</datestamp>
      <setSpec>user-biosyslit</setSpec>
    </header>
    <header>
      <identifier>oai:zenodo.org:288299</identifier>
      <datestamp>2017-02-09T20:32:57Z</datestamp>
      <setSpec>user-biosyslit</setSpec>
    </header>
    <header>
      <identifier>oai:zenodo.org:287663</identifier>
      <datestamp>2017-02-09T18:52:22Z</datestamp>
      <setSpec>user-biosyslit</setSpec>
    </header>
    <header>
      <identifier>oai:zenodo.org:287535</identifier>
      <datestamp>2017-02-09T18:32:53Z</datestamp>
      <setSpec>user-biosyslit</setSpec>
    </header>
    <header>
      <identifier>oai:zenodo.org:287294</identifier>
      <datestamp>2017-02-09T18:00:06Z</datestamp>
      <setSpec>user-biosyslit</setSpec>
    </header>
    <header>
      <identifier>oai:zenodo.org:287309</identifier>
      <datestamp>2017-02-09T18:00:42Z</datestamp>
      <setSpec>user-biosyslit</setSpec>
    </header>
    <header>
      <identifier>oai:zenodo.org:287796</identifier>
      <datestamp>2017-02-09T19:20:51Z</datestamp>
      <setSpec>user-biosyslit</setSpec>
    </header>
    <header>
      <identifier>oai:zenodo.org:287990</identifier>
      <datestamp>2017-02-09T19:43:54Z</datestamp>
      <setSpec>user-biosyslit</setSpec>
    </header>
    <header>
      <identifier>oai:zenodo.org:287993</identifier>
      <datestamp>2017-02-09T19:44:02Z</datestamp>
      <setSpec>user-biosyslit</setSpec>
    </header>
    <header>
      <identifier>oai:zenodo.org:287975</identifier>
      <datestamp>2017-02-09T19:42:23Z</datestamp>
      <setSpec>user-biosyslit</setSpec>
    </header>
    <header>
      <identifier>oai:zenodo.org:287617</identifier>
      <datestamp>2017-02-09T18:45:12Z</datestamp>
      <setSpec>user-biosyslit</setSpec>
    </header>
    <header>
      <identifier>oai:zenodo.org:288477</identifier>
      <datestamp>2017-02-09T21:03:22Z</datestamp>
      <setSpec>user-biosyslit</setSpec>
    </header>
    <header>
      <identifier>oai:zenodo.org:288468</identifier>
      <datestamp>2017-02-09T21:01:52Z</datestamp>
      <setSpec>user-biosyslit</setSpec>
    </header>
    <header>
      <identifier>oai:zenodo.org:288051</identifier>
      <datestamp>2017-02-09T19:55:19Z</datestamp>
      <setSpec>user-biosyslit</setSpec>
    </header>
    <header>
      <identifier>oai:zenodo.org:288037</identifier>
      <datestamp>2017-02-09T19:54:37Z</datestamp>
      <setSpec>user-biosyslit</setSpec>
    </header>
    <header>
      <identifier>oai:zenodo.org:287657</identifier>
      <datestamp>2017-02-09T18:52:32Z</datestamp>
      <setSpec>user-biosyslit</setSpec>
    </header>
    <header>
      <identifier>oai:zenodo.org:287459</identifier>
      <datestamp>2017-02-09T18:21:34Z</datestamp>
      <setSpec>user-biosyslit</setSpec>
    </header>
    <header>
      <identifier>oai:zenodo.org:288035</identifier>
      <datestamp>2017-02-09T19:54:33Z</datestamp>
      <setSpec>user-biosyslit</setSpec>
    </header>
    <header>
      <identifier>oai:zenodo.org:287743</identifier>
      <datestamp>2017-02-09T19:10:40Z</datestamp>
      <setSpec>user-biosyslit</setSpec>
    </header>
    <header>
      <identifier>oai:zenodo.org:287496</identifier>
      <datestamp>2017-02-09T18:28:18Z</datestamp>
      <setSpec>user-biosyslit</setSpec>
    </header>
    <header>
      <identifier>oai:zenodo.org:287376</identifier>
      <datestamp>2017-02-09T18:10:48Z</datestamp>
      <setSpec>user-biosyslit</setSpec>
    </header>
    <header>
      <identifier>oai:zenodo.org:287267</identifier>
      <datestamp>2017-02-09T17:56:21Z</datestamp>
      <setSpec>user-biosyslit</setSpec>
    </header>
    <header>
      <identifier>oai:zenodo.org:287265</identifier>
      <datestamp>2017-02-09T17:56:16Z</datestamp>
      <setSpec>user-biosyslit</setSpec>
    </header>
    <header>
      <identifier>oai:zenodo.org:287484</identifier>
      <datestamp>2017-02-09T18:27:04Z</datestamp>
      <setSpec>user-biosyslit</setSpec>
    </header>
    <header>
      <identifier>oai:zenodo.org:288219</identifier>
      <datestamp>2017-02-09T20:20:43Z</datestamp>
      <setSpec>user-biosyslit</setSpec>
    </header>
    <header>
      <identifier>oai:zenodo.org:287800</identifier>
      <datestamp>2017-02-09T19:20:59Z</datestamp>
      <setSpec>user-biosyslit</setSpec>
    </header>
    <header>
      <identifier>oai:zenodo.org:287502</identifier>
      <datestamp>2017-02-09T18:29:55Z</datestamp>
      <setSpec>user-biosyslit</setSpec>
    </header>
    <header>
      <identifier>oai:zenodo.org:289051</identifier>
      <datestamp>2017-02-09T22:32:36Z</datestamp>
      <setSpec>user-biosyslit</setSpec>
    </header>
    <header>
      <identifier>oai:zenodo.org:289265</identifier>
      <datestamp>2017-02-09T23:06:55Z</datestamp>
      <setSpec>user-biosyslit</setSpec>
    </header>
    <header>
      <identifier>oai:zenodo.org:289276</identifier>
      <datestamp>2017-02-09T23:07:25Z</datestamp>
      <setSpec>user-biosyslit</setSpec>
    </header>
    <header>
      <identifier>oai:zenodo.org:288047</identifier>
      <datestamp>2017-02-09T19:55:07Z</datestamp>
      <setSpec>user-biosyslit</setSpec>
    </header>
    <header>
      <identifier>oai:zenodo.org:285996</identifier>
      <datestamp>2017-02-09T15:00:07Z</datestamp>
      <setSpec>user-biosyslit</setSpec>
    </header>
    <header>
      <identifier>oai:zenodo.org:285758</identifier>
      <datestamp>2017-02-09T14:25:51Z</datestamp>
      <setSpec>user-biosyslit</setSpec>
    </header>
    <header>
      <identifier>oai:zenodo.org:286264</identifier>
      <datestamp>2017-02-09T15:38:51Z</datestamp>
      <setSpec>user-biosyslit</setSpec>
    </header>
    <header>
      <identifier>oai:zenodo.org:286625</identifier>
      <datestamp>2017-02-09T16:25:41Z</datestamp>
      <setSpec>user-biosyslit</setSpec>
    </header>
    <header>
      <identifier>oai:zenodo.org:287744</identifier>
      <datestamp>2017-02-09T19:10:33Z</datestamp>
      <setSpec>user-biosyslit</setSpec>
    </header>
    <header>
      <identifier>oai:zenodo.org:286660</identifier>
      <datestamp>2017-02-09T16:31:47Z</datestamp>
      <setSpec>user-biosyslit</setSpec>
    </header>
    <header>
      <identifier>oai:zenodo.org:286202</identifier>
      <datestamp>2017-02-09T15:28:11Z</datestamp>
      <setSpec>user-biosyslit</setSpec>
    </header>
    <header>
      <identifier>oai:zenodo.org:286860</identifier>
      <datestamp>2017-02-09T16:57:57Z</datestamp>
      <setSpec>user-biosyslit</setSpec>
    </header>
    <header>
      <identifier>oai:zenodo.org:287281</identifier>
      <datestamp>2017-02-09T18:01:13Z</datestamp>
      <setSpec>user-biosyslit</setSpec>
    </header>
    <header>
      <identifier>oai:zenodo.org:286416</identifier>
      <datestamp>2017-02-09T15:57:28Z</datestamp>
      <setSpec>user-biosyslit</setSpec>
    </header>
    <header>
      <identifier>oai:zenodo.org:287667</identifier>
      <datestamp>2017-02-09T18:52:31Z</datestamp>
      <setSpec>user-biosyslit</setSpec>
    </header>
    <header>
      <identifier>oai:zenodo.org:287619</identifier>
      <datestamp>2017-02-09T18:45:01Z</datestamp>
      <setSpec>user-biosyslit</setSpec>
    </header>
    <header>
      <identifier>oai:zenodo.org:287114</identifier>
      <datestamp>2017-02-09T17:30:30Z</datestamp>
      <setSpec>user-biosyslit</setSpec>
    </header>
    <header>
      <identifier>oai:zenodo.org:285119</identifier>
      <datestamp>2017-02-09T12:39:03Z</datestamp>
      <setSpec>user-biosyslit</setSpec>
    </header>
    <header>
      <identifier>oai:zenodo.org:285117</identifier>
      <datestamp>2017-02-09T12:38:59Z</datestamp>
      <setSpec>user-biosyslit</setSpec>
    </header>
    <header>
      <identifier>oai:zenodo.org:285116</identifier>
      <datestamp>2017-02-09T12:38:57Z</datestamp>
      <setSpec>user-biosyslit</setSpec>
    </header>
    <header>
      <identifier>oai:zenodo.org:286828</identifier>
      <datestamp>2017-02-09T16:55:05Z</datestamp>
      <setSpec>user-biosyslit</setSpec>
    </header>
    <header>
      <identifier>oai:zenodo.org:286187</identifier>
      <datestamp>2017-02-09T15:27:27Z</datestamp>
      <setSpec>user-biosyslit</setSpec>
    </header>
    <header>
      <identifier>oai:zenodo.org:286675</identifier>
      <datestamp>2017-02-09T16:32:31Z</datestamp>
      <setSpec>user-biosyslit</setSpec>
    </header>
    <header>
      <identifier>oai:zenodo.org:287021</identifier>
      <datestamp>2017-02-09T17:19:19Z</datestamp>
      <setSpec>user-biosyslit</setSpec>
    </header>
    <header>
      <identifier>oai:zenodo.org:286616</identifier>
      <datestamp>2017-02-09T16:25:21Z</datestamp>
      <setSpec>user-biosyslit</setSpec>
    </header>
    <resumptionToken expirationDate="2017-08-31T15:43:53Z" cursor="13400" completeListSize="77796">.eJyNz00PQzAAgOH_0rMsrc7HJLsIEweEjuCyWImYMtEtqPjvc9l5O7_P5V0Br6oSGPCAZAWrOlL0o3JSNARVCXA6Phm7NXsHNE0Y7VlcOMk76hKYybXmW3z2rAz7ooVBhwS5hHKK9Dlu4BJe41cmojnB7kSgrXkiXPyHu7sSBw7L785A4t5kRC7HwA4XgkySY_p16E8nfjqLn4EEhqKugIHwftVOxVhzYKzb9gHSfVFx.DIm_wQ.GD4xj8nPOS0OwqXDJCnb892eLiw</resumptionToken>
  </ListIdentifiers>
</OAI-PMH>
