<?xml version='1.0' encoding='UTF-8'?>
<?xml-stylesheet type="text/xsl" href="/static/xsl/oai2.v1.0.xsl"?>
<OAI-PMH xmlns="http://www.openarchives.org/OAI/2.0/" xmlns:xsi="http://www.w3.org/2001/XMLSchema-instance" xsi:schemaLocation="http://www.openarchives.org/OAI/2.0/ http://www.openarchives.org/OAI/2.0/OAI-PMH.xsd">
  <responseDate>2017-08-31T15:44:04Z</responseDate>
  <request verb="ListIdentifiers" resumptionToken=".eJyNyj0PQ0AYAOD_8s7SHOerki5CxYBwJWVpFBF1VFwbnPjvtXRu5-dZgVVVCQY6KLqEVBVrsqopsqIfBWDF-KT01uwMxTWhRU_j3EneUZegVKo132KzZ6XY5y0KOpGTcyhdRX2OG7SEl_iV8mhOsDsRZGseDxf_4e6vxIFDs7szkLg3KZHKMbDDhYgmyXDxfeKfj_98FjuBAENeV2DIqixAO-VjzcBYt-0DqgBRTg.DInARA.6H9-LqazNhV3TrCo93hkHykB54Y">https://zenodo.org/oai2d</request>
  <ListIdentifiers>
    <header>
      <identifier>oai:zenodo.org:244356</identifier>
      <datestamp>2017-01-14T20:32:06Z</datestamp>
      <setSpec>user-biosyslit</setSpec>
    </header>
    <header>
      <identifier>oai:zenodo.org:272204</identifier>
      <datestamp>2017-02-08T03:59:00Z</datestamp>
      <setSpec>user-biosyslit</setSpec>
    </header>
    <header>
      <identifier>oai:zenodo.org:244611</identifier>
      <datestamp>2017-01-15T00:04:58Z</datestamp>
      <setSpec>user-biosyslit</setSpec>
    </header>
    <header>
      <identifier>oai:zenodo.org:245208</identifier>
      <datestamp>2017-01-15T10:05:21Z</datestamp>
      <setSpec>user-biosyslit</setSpec>
    </header>
    <header>
      <identifier>oai:zenodo.org:270948</identifier>
      <datestamp>2017-02-08T00:19:26Z</datestamp>
      <setSpec>user-biosyslit</setSpec>
    </header>
    <header>
      <identifier>oai:zenodo.org:236684</identifier>
      <datestamp>2017-01-10T02:52:55Z</datestamp>
      <setSpec>user-biosyslit</setSpec>
    </header>
    <header>
      <identifier>oai:zenodo.org:236466</identifier>
      <datestamp>2017-01-10T00:26:44Z</datestamp>
      <setSpec>user-biosyslit</setSpec>
    </header>
    <header>
      <identifier>oai:zenodo.org:239053</identifier>
      <datestamp>2017-01-11T15:53:14Z</datestamp>
      <setSpec>user-biosyslit</setSpec>
    </header>
    <header>
      <identifier>oai:zenodo.org:237508</identifier>
      <datestamp>2017-01-10T16:20:26Z</datestamp>
      <setSpec>user-biosyslit</setSpec>
    </header>
    <header>
      <identifier>oai:zenodo.org:237506</identifier>
      <datestamp>2017-01-10T16:20:19Z</datestamp>
      <setSpec>user-biosyslit</setSpec>
    </header>
    <header>
      <identifier>oai:zenodo.org:237503</identifier>
      <datestamp>2017-01-10T16:20:08Z</datestamp>
      <setSpec>user-biosyslit</setSpec>
    </header>
    <header>
      <identifier>oai:zenodo.org:237502</identifier>
      <datestamp>2017-01-10T16:20:05Z</datestamp>
      <setSpec>user-biosyslit</setSpec>
    </header>
    <header>
      <identifier>oai:zenodo.org:237609</identifier>
      <datestamp>2017-01-10T18:03:50Z</datestamp>
      <setSpec>user-biosyslit</setSpec>
    </header>
    <header>
      <identifier>oai:zenodo.org:238972</identifier>
      <datestamp>2017-01-11T14:08:27Z</datestamp>
      <setSpec>user-biosyslit</setSpec>
    </header>
    <header>
      <identifier>oai:zenodo.org:237557</identifier>
      <datestamp>2017-01-10T17:00:35Z</datestamp>
      <setSpec>user-biosyslit</setSpec>
    </header>
    <header>
      <identifier>oai:zenodo.org:238153</identifier>
      <datestamp>2017-01-11T01:43:32Z</datestamp>
      <setSpec>user-biosyslit</setSpec>
    </header>
    <header>
      <identifier>oai:zenodo.org:237831</identifier>
      <datestamp>2017-01-10T21:13:26Z</datestamp>
      <setSpec>user-biosyslit</setSpec>
    </header>
    <header>
      <identifier>oai:zenodo.org:238203</identifier>
      <datestamp>2017-01-11T02:12:12Z</datestamp>
      <setSpec>user-biosyslit</setSpec>
    </header>
    <header>
      <identifier>oai:zenodo.org:237749</identifier>
      <datestamp>2017-01-10T19:21:21Z</datestamp>
      <setSpec>user-biosyslit</setSpec>
    </header>
    <header>
      <identifier>oai:zenodo.org:288626</identifier>
      <datestamp>2017-02-09T21:35:19Z</datestamp>
      <setSpec>user-biosyslit</setSpec>
    </header>
    <header>
      <identifier>oai:zenodo.org:237625</identifier>
      <datestamp>2017-01-10T18:02:38Z</datestamp>
      <setSpec>user-biosyslit</setSpec>
    </header>
    <header>
      <identifier>oai:zenodo.org:270952</identifier>
      <datestamp>2017-02-08T00:20:06Z</datestamp>
      <setSpec>user-biosyslit</setSpec>
    </header>
    <header>
      <identifier>oai:zenodo.org:237729</identifier>
      <datestamp>2017-01-10T19:12:09Z</datestamp>
      <setSpec>user-biosyslit</setSpec>
    </header>
    <header>
      <identifier>oai:zenodo.org:238087</identifier>
      <datestamp>2017-01-11T00:51:56Z</datestamp>
      <setSpec>user-biosyslit</setSpec>
    </header>
    <header>
      <identifier>oai:zenodo.org:239117</identifier>
      <datestamp>2017-01-11T16:46:02Z</datestamp>
      <setSpec>user-biosyslit</setSpec>
    </header>
    <header>
      <identifier>oai:zenodo.org:271328</identifier>
      <datestamp>2017-02-08T01:21:30Z</datestamp>
      <setSpec>user-biosyslit</setSpec>
    </header>
    <header>
      <identifier>oai:zenodo.org:238468</identifier>
      <datestamp>2017-01-11T05:58:48Z</datestamp>
      <setSpec>user-biosyslit</setSpec>
    </header>
    <header>
      <identifier>oai:zenodo.org:238913</identifier>
      <datestamp>2017-01-11T12:33:18Z</datestamp>
      <setSpec>user-biosyslit</setSpec>
    </header>
    <header>
      <identifier>oai:zenodo.org:239018</identifier>
      <datestamp>2017-01-11T14:57:10Z</datestamp>
      <setSpec>user-biosyslit</setSpec>
    </header>
    <header>
      <identifier>oai:zenodo.org:289759</identifier>
      <datestamp>2017-02-10T00:25:53Z</datestamp>
      <setSpec>user-biosyslit</setSpec>
    </header>
    <header>
      <identifier>oai:zenodo.org:239050</identifier>
      <datestamp>2017-01-11T15:53:03Z</datestamp>
      <setSpec>user-biosyslit</setSpec>
    </header>
    <header>
      <identifier>oai:zenodo.org:239184</identifier>
      <datestamp>2017-01-11T17:26:11Z</datestamp>
      <setSpec>user-biosyslit</setSpec>
    </header>
    <header>
      <identifier>oai:zenodo.org:238690</identifier>
      <datestamp>2017-01-11T09:41:50Z</datestamp>
      <setSpec>user-biosyslit</setSpec>
    </header>
    <header>
      <identifier>oai:zenodo.org:239345</identifier>
      <datestamp>2017-01-11T18:52:34Z</datestamp>
      <setSpec>user-biosyslit</setSpec>
    </header>
    <header>
      <identifier>oai:zenodo.org:239255</identifier>
      <datestamp>2017-01-11T18:46:46Z</datestamp>
      <setSpec>user-biosyslit</setSpec>
    </header>
    <header>
      <identifier>oai:zenodo.org:239488</identifier>
      <datestamp>2017-01-11T21:21:53Z</datestamp>
      <setSpec>user-biosyslit</setSpec>
    </header>
    <header>
      <identifier>oai:zenodo.org:239131</identifier>
      <datestamp>2017-01-11T16:46:45Z</datestamp>
      <setSpec>user-biosyslit</setSpec>
    </header>
    <header>
      <identifier>oai:zenodo.org:239688</identifier>
      <datestamp>2017-01-11T23:45:11Z</datestamp>
      <setSpec>user-biosyslit</setSpec>
    </header>
    <header>
      <identifier>oai:zenodo.org:239130</identifier>
      <datestamp>2017-01-11T16:46:43Z</datestamp>
      <setSpec>user-biosyslit</setSpec>
    </header>
    <header>
      <identifier>oai:zenodo.org:239825</identifier>
      <datestamp>2017-01-12T01:22:22Z</datestamp>
      <setSpec>user-biosyslit</setSpec>
    </header>
    <header>
      <identifier>oai:zenodo.org:240006</identifier>
      <datestamp>2017-01-12T03:36:13Z</datestamp>
      <setSpec>user-biosyslit</setSpec>
    </header>
    <header>
      <identifier>oai:zenodo.org:239740</identifier>
      <datestamp>2017-01-12T00:08:50Z</datestamp>
      <setSpec>user-biosyslit</setSpec>
    </header>
    <header>
      <identifier>oai:zenodo.org:238923</identifier>
      <datestamp>2017-01-11T12:40:19Z</datestamp>
      <setSpec>user-biosyslit</setSpec>
    </header>
    <header>
      <identifier>oai:zenodo.org:239721</identifier>
      <datestamp>2017-01-12T00:01:20Z</datestamp>
      <setSpec>user-biosyslit</setSpec>
    </header>
    <header>
      <identifier>oai:zenodo.org:239167</identifier>
      <datestamp>2017-01-11T17:13:03Z</datestamp>
      <setSpec>user-biosyslit</setSpec>
    </header>
    <header>
      <identifier>oai:zenodo.org:239664</identifier>
      <datestamp>2017-01-11T23:27:42Z</datestamp>
      <setSpec>user-biosyslit</setSpec>
    </header>
    <header>
      <identifier>oai:zenodo.org:271388</identifier>
      <datestamp>2017-02-08T01:34:31Z</datestamp>
      <setSpec>user-biosyslit</setSpec>
    </header>
    <header>
      <identifier>oai:zenodo.org:271445</identifier>
      <datestamp>2017-02-08T01:40:46Z</datestamp>
      <setSpec>user-biosyslit</setSpec>
    </header>
    <header>
      <identifier>oai:zenodo.org:276496</identifier>
      <datestamp>2017-02-08T18:58:01Z</datestamp>
      <setSpec>user-biosyslit</setSpec>
    </header>
    <header>
      <identifier>oai:zenodo.org:241359</identifier>
      <datestamp>2017-01-13T00:21:00Z</datestamp>
      <setSpec>user-biosyslit</setSpec>
    </header>
    <header>
      <identifier>oai:zenodo.org:240517</identifier>
      <datestamp>2017-01-12T09:49:33Z</datestamp>
      <setSpec>user-biosyslit</setSpec>
    </header>
    <header>
      <identifier>oai:zenodo.org:240249</identifier>
      <datestamp>2017-01-12T06:34:24Z</datestamp>
      <setSpec>user-biosyslit</setSpec>
    </header>
    <header>
      <identifier>oai:zenodo.org:240382</identifier>
      <datestamp>2017-01-12T07:59:09Z</datestamp>
      <setSpec>user-biosyslit</setSpec>
    </header>
    <header>
      <identifier>oai:zenodo.org:240702</identifier>
      <datestamp>2017-01-12T12:43:51Z</datestamp>
      <setSpec>user-biosyslit</setSpec>
    </header>
    <header>
      <identifier>oai:zenodo.org:271975</identifier>
      <datestamp>2017-02-08T03:11:03Z</datestamp>
      <setSpec>user-biosyslit</setSpec>
    </header>
    <header>
      <identifier>oai:zenodo.org:241122</identifier>
      <datestamp>2017-01-12T20:16:05Z</datestamp>
      <setSpec>user-biosyslit</setSpec>
    </header>
    <header>
      <identifier>oai:zenodo.org:271280</identifier>
      <datestamp>2017-02-08T01:15:16Z</datestamp>
      <setSpec>user-biosyslit</setSpec>
    </header>
    <header>
      <identifier>oai:zenodo.org:240906</identifier>
      <datestamp>2017-01-12T15:46:15Z</datestamp>
      <setSpec>user-biosyslit</setSpec>
    </header>
    <header>
      <identifier>oai:zenodo.org:271352</identifier>
      <datestamp>2017-02-08T01:30:38Z</datestamp>
      <setSpec>user-biosyslit</setSpec>
    </header>
    <header>
      <identifier>oai:zenodo.org:271827</identifier>
      <datestamp>2017-02-08T02:44:19Z</datestamp>
      <setSpec>user-biosyslit</setSpec>
    </header>
    <header>
      <identifier>oai:zenodo.org:240955</identifier>
      <datestamp>2017-01-12T16:59:26Z</datestamp>
      <setSpec>user-biosyslit</setSpec>
    </header>
    <header>
      <identifier>oai:zenodo.org:271482</identifier>
      <datestamp>2017-02-08T01:48:35Z</datestamp>
      <setSpec>user-biosyslit</setSpec>
    </header>
    <header>
      <identifier>oai:zenodo.org:241646</identifier>
      <datestamp>2017-01-13T04:12:29Z</datestamp>
      <setSpec>user-biosyslit</setSpec>
    </header>
    <header>
      <identifier>oai:zenodo.org:241536</identifier>
      <datestamp>2017-01-13T02:58:16Z</datestamp>
      <setSpec>user-biosyslit</setSpec>
    </header>
    <header>
      <identifier>oai:zenodo.org:241634</identifier>
      <datestamp>2017-01-13T04:11:54Z</datestamp>
      <setSpec>user-biosyslit</setSpec>
    </header>
    <header>
      <identifier>oai:zenodo.org:271785</identifier>
      <datestamp>2017-02-08T02:39:47Z</datestamp>
      <setSpec>user-biosyslit</setSpec>
    </header>
    <header>
      <identifier>oai:zenodo.org:272321</identifier>
      <datestamp>2017-02-08T04:15:06Z</datestamp>
      <setSpec>user-biosyslit</setSpec>
    </header>
    <header>
      <identifier>oai:zenodo.org:272604</identifier>
      <datestamp>2017-02-08T05:30:49Z</datestamp>
      <setSpec>user-biosyslit</setSpec>
    </header>
    <header>
      <identifier>oai:zenodo.org:241645</identifier>
      <datestamp>2017-01-13T04:12:27Z</datestamp>
      <setSpec>user-biosyslit</setSpec>
    </header>
    <header>
      <identifier>oai:zenodo.org:272643</identifier>
      <datestamp>2017-02-08T06:06:46Z</datestamp>
      <setSpec>user-biosyslit</setSpec>
    </header>
    <header>
      <identifier>oai:zenodo.org:242038</identifier>
      <datestamp>2017-01-13T09:37:09Z</datestamp>
      <setSpec>user-biosyslit</setSpec>
    </header>
    <header>
      <identifier>oai:zenodo.org:271914</identifier>
      <datestamp>2017-02-08T03:01:13Z</datestamp>
      <setSpec>user-biosyslit</setSpec>
    </header>
    <header>
      <identifier>oai:zenodo.org:243141</identifier>
      <datestamp>2017-01-13T23:51:13Z</datestamp>
      <setSpec>user-biosyslit</setSpec>
    </header>
    <header>
      <identifier>oai:zenodo.org:242461</identifier>
      <datestamp>2017-01-13T15:28:42Z</datestamp>
      <setSpec>user-biosyslit</setSpec>
    </header>
    <header>
      <identifier>oai:zenodo.org:243008</identifier>
      <datestamp>2017-01-13T21:50:57Z</datestamp>
      <setSpec>user-biosyslit</setSpec>
    </header>
    <header>
      <identifier>oai:zenodo.org:242888</identifier>
      <datestamp>2017-01-13T20:22:35Z</datestamp>
      <setSpec>user-biosyslit</setSpec>
    </header>
    <header>
      <identifier>oai:zenodo.org:241881</identifier>
      <datestamp>2017-01-13T07:17:33Z</datestamp>
      <setSpec>user-biosyslit</setSpec>
    </header>
    <header>
      <identifier>oai:zenodo.org:241703</identifier>
      <datestamp>2017-01-13T05:09:55Z</datestamp>
      <setSpec>user-biosyslit</setSpec>
    </header>
    <header>
      <identifier>oai:zenodo.org:243660</identifier>
      <datestamp>2017-01-14T08:53:12Z</datestamp>
      <setSpec>user-biosyslit</setSpec>
    </header>
    <header>
      <identifier>oai:zenodo.org:242276</identifier>
      <datestamp>2017-01-13T12:41:29Z</datestamp>
      <setSpec>user-biosyslit</setSpec>
    </header>
    <header>
      <identifier>oai:zenodo.org:243882</identifier>
      <datestamp>2017-01-14T12:42:31Z</datestamp>
      <setSpec>user-biosyslit</setSpec>
    </header>
    <header>
      <identifier>oai:zenodo.org:242194</identifier>
      <datestamp>2017-01-13T12:01:26Z</datestamp>
      <setSpec>user-biosyslit</setSpec>
    </header>
    <header>
      <identifier>oai:zenodo.org:243091</identifier>
      <datestamp>2017-01-13T23:19:19Z</datestamp>
      <setSpec>user-biosyslit</setSpec>
    </header>
    <header>
      <identifier>oai:zenodo.org:243172</identifier>
      <datestamp>2017-01-14T00:18:14Z</datestamp>
      <setSpec>user-biosyslit</setSpec>
    </header>
    <header>
      <identifier>oai:zenodo.org:243097</identifier>
      <datestamp>2017-01-13T23:19:39Z</datestamp>
      <setSpec>user-biosyslit</setSpec>
    </header>
    <header>
      <identifier>oai:zenodo.org:243290</identifier>
      <datestamp>2017-01-14T02:07:42Z</datestamp>
      <setSpec>user-biosyslit</setSpec>
    </header>
    <header>
      <identifier>oai:zenodo.org:272511</identifier>
      <datestamp>2017-02-08T04:58:50Z</datestamp>
      <setSpec>user-biosyslit</setSpec>
    </header>
    <header>
      <identifier>oai:zenodo.org:242457</identifier>
      <datestamp>2017-01-13T15:28:28Z</datestamp>
      <setSpec>user-biosyslit</setSpec>
    </header>
    <header>
      <identifier>oai:zenodo.org:243544</identifier>
      <datestamp>2017-01-14T07:14:02Z</datestamp>
      <setSpec>user-biosyslit</setSpec>
    </header>
    <header>
      <identifier>oai:zenodo.org:243614</identifier>
      <datestamp>2017-01-14T08:12:23Z</datestamp>
      <setSpec>user-biosyslit</setSpec>
    </header>
    <header>
      <identifier>oai:zenodo.org:243064</identifier>
      <datestamp>2017-01-13T22:45:22Z</datestamp>
      <setSpec>user-biosyslit</setSpec>
    </header>
    <header>
      <identifier>oai:zenodo.org:243748</identifier>
      <datestamp>2017-01-14T10:17:21Z</datestamp>
      <setSpec>user-biosyslit</setSpec>
    </header>
    <header>
      <identifier>oai:zenodo.org:243458</identifier>
      <datestamp>2017-01-14T06:05:58Z</datestamp>
      <setSpec>user-biosyslit</setSpec>
    </header>
    <header>
      <identifier>oai:zenodo.org:245319</identifier>
      <datestamp>2017-01-15T11:43:38Z</datestamp>
      <setSpec>user-biosyslit</setSpec>
    </header>
    <header>
      <identifier>oai:zenodo.org:272145</identifier>
      <datestamp>2017-02-08T03:49:45Z</datestamp>
      <setSpec>user-biosyslit</setSpec>
    </header>
    <header>
      <identifier>oai:zenodo.org:244533</identifier>
      <datestamp>2017-01-14T23:09:44Z</datestamp>
      <setSpec>user-biosyslit</setSpec>
    </header>
    <header>
      <identifier>oai:zenodo.org:272337</identifier>
      <datestamp>2017-02-08T04:18:07Z</datestamp>
      <setSpec>user-biosyslit</setSpec>
    </header>
    <header>
      <identifier>oai:zenodo.org:272287</identifier>
      <datestamp>2017-02-08T04:10:20Z</datestamp>
      <setSpec>user-biosyslit</setSpec>
    </header>
    <header>
      <identifier>oai:zenodo.org:243888</identifier>
      <datestamp>2017-01-14T12:42:48Z</datestamp>
      <setSpec>user-biosyslit</setSpec>
    </header>
    <header>
      <identifier>oai:zenodo.org:244220</identifier>
      <datestamp>2017-01-14T17:39:27Z</datestamp>
      <setSpec>user-biosyslit</setSpec>
    </header>
    <resumptionToken expirationDate="2017-08-31T15:46:04Z" cursor="46300" completeListSize="77796">.eJyNzz0PQ0AcgPHv8p-lOeetJF2EigHhSsrSKCLqqLg2OPHda-nczs9veVZgVVWCgQ6KqiKMsC6riqwjrArAivFJ6a3ZMxTXhBY9jXMneUddglJca77FZs9KJZ-3KOhETs4hvorHOW7QEl7iV8qjOZHciSBb83i4-A93d6UUODS7OwOJe5MSXI6BHS5ENEkmFV8n_un4T2exEwgw5HUFxr4mQDvlY83AWLftA5jKUTw.DInARA.2_oEy7WUxw4UxeG0wKw_KQVRerY</resumptionToken>
  </ListIdentifiers>
</OAI-PMH>
