<?xml version='1.0' encoding='UTF-8'?>
<?xml-stylesheet type="text/xsl" href="/static/xsl/oai2.v1.0.xsl"?>
<OAI-PMH xmlns="http://www.openarchives.org/OAI/2.0/" xmlns:xsi="http://www.w3.org/2001/XMLSchema-instance" xsi:schemaLocation="http://www.openarchives.org/OAI/2.0/ http://www.openarchives.org/OAI/2.0/OAI-PMH.xsd">
  <responseDate>2017-08-31T15:44:10Z</responseDate>
  <request verb="ListIdentifiers" resumptionToken=".eJyNyssKgkAUANB_uWuJeWQ-oE1o4iJFJ0XbhKmIOZk4hTriv-emda3PmUGUZQEm2uyoQVVMVGSoqk50QwGR90_Or_XKkCcxz1seZU78Dh8xSkmleZYYT1ZKPdkg_4ElOwYkwfoY1WgKztErleEYU3dgyNZOMpi8u7u-gvoOv9ycjkXtgTNS9L4dTAwf2IXm34f_fPLns8QeFOiyqgRzq1EFmiHrKwHmvCwfpXFRSQ.DInASg.hdk4ctO_7T7VDxZ7Dy3Lfh7g8F0">https://zenodo.org/oai2d</request>
  <ListIdentifiers>
    <header>
      <identifier>oai:zenodo.org:229030</identifier>
      <datestamp>2017-01-03T08:37:45Z</datestamp>
      <setSpec>user-biosyslit</setSpec>
    </header>
    <header>
      <identifier>oai:zenodo.org:229075</identifier>
      <datestamp>2017-01-03T09:13:33Z</datestamp>
      <setSpec>user-biosyslit</setSpec>
    </header>
    <header>
      <identifier>oai:zenodo.org:227939</identifier>
      <datestamp>2017-01-02T07:30:00Z</datestamp>
      <setSpec>user-biosyslit</setSpec>
    </header>
    <header>
      <identifier>oai:zenodo.org:289053</identifier>
      <datestamp>2017-02-09T22:32:40Z</datestamp>
      <setSpec>user-biosyslit</setSpec>
    </header>
    <header>
      <identifier>oai:zenodo.org:228124</identifier>
      <datestamp>2017-01-02T10:58:21Z</datestamp>
      <setSpec>user-biosyslit</setSpec>
    </header>
    <header>
      <identifier>oai:zenodo.org:228990</identifier>
      <datestamp>2017-01-03T08:10:43Z</datestamp>
      <setSpec>user-biosyslit</setSpec>
    </header>
    <header>
      <identifier>oai:zenodo.org:228221</identifier>
      <datestamp>2017-01-02T20:04:56Z</datestamp>
      <setSpec>user-biosyslit</setSpec>
    </header>
    <header>
      <identifier>oai:zenodo.org:228483</identifier>
      <datestamp>2017-01-03T00:22:30Z</datestamp>
      <setSpec>user-biosyslit</setSpec>
    </header>
    <header>
      <identifier>oai:zenodo.org:227814</identifier>
      <datestamp>2017-01-02T05:27:53Z</datestamp>
      <setSpec>user-biosyslit</setSpec>
    </header>
    <header>
      <identifier>oai:zenodo.org:269841</identifier>
      <datestamp>2017-02-07T20:32:17Z</datestamp>
      <setSpec>user-biosyslit</setSpec>
    </header>
    <header>
      <identifier>oai:zenodo.org:229143</identifier>
      <datestamp>2017-01-03T11:05:29Z</datestamp>
      <setSpec>user-biosyslit</setSpec>
    </header>
    <header>
      <identifier>oai:zenodo.org:289496</identifier>
      <datestamp>2017-02-09T23:42:26Z</datestamp>
      <setSpec>user-biosyslit</setSpec>
    </header>
    <header>
      <identifier>oai:zenodo.org:229274</identifier>
      <datestamp>2017-01-03T13:35:04Z</datestamp>
      <setSpec>user-biosyslit</setSpec>
    </header>
    <header>
      <identifier>oai:zenodo.org:229812</identifier>
      <datestamp>2017-01-04T07:23:18Z</datestamp>
      <setSpec>user-biosyslit</setSpec>
    </header>
    <header>
      <identifier>oai:zenodo.org:289119</identifier>
      <datestamp>2017-02-09T22:45:31Z</datestamp>
      <setSpec>user-biosyslit</setSpec>
    </header>
    <header>
      <identifier>oai:zenodo.org:229118</identifier>
      <datestamp>2017-01-03T09:59:48Z</datestamp>
      <setSpec>user-biosyslit</setSpec>
    </header>
    <header>
      <identifier>oai:zenodo.org:228018</identifier>
      <datestamp>2017-01-02T08:49:49Z</datestamp>
      <setSpec>user-biosyslit</setSpec>
    </header>
    <header>
      <identifier>oai:zenodo.org:269784</identifier>
      <datestamp>2017-02-07T20:18:42Z</datestamp>
      <setSpec>user-biosyslit</setSpec>
    </header>
    <header>
      <identifier>oai:zenodo.org:229729</identifier>
      <datestamp>2017-01-03T21:08:59Z</datestamp>
      <setSpec>user-biosyslit</setSpec>
    </header>
    <header>
      <identifier>oai:zenodo.org:229275</identifier>
      <datestamp>2017-01-03T13:35:07Z</datestamp>
      <setSpec>user-biosyslit</setSpec>
    </header>
    <header>
      <identifier>oai:zenodo.org:230146</identifier>
      <datestamp>2017-01-04T20:26:19Z</datestamp>
      <setSpec>user-biosyslit</setSpec>
    </header>
    <header>
      <identifier>oai:zenodo.org:269711</identifier>
      <datestamp>2017-02-07T20:07:08Z</datestamp>
      <setSpec>user-biosyslit</setSpec>
    </header>
    <header>
      <identifier>oai:zenodo.org:269814</identifier>
      <datestamp>2017-02-07T20:26:58Z</datestamp>
      <setSpec>user-biosyslit</setSpec>
    </header>
    <header>
      <identifier>oai:zenodo.org:229919</identifier>
      <datestamp>2017-01-04T16:01:52Z</datestamp>
      <setSpec>user-biosyslit</setSpec>
    </header>
    <header>
      <identifier>oai:zenodo.org:270133</identifier>
      <datestamp>2017-02-07T22:25:24Z</datestamp>
      <setSpec>user-biosyslit</setSpec>
    </header>
    <header>
      <identifier>oai:zenodo.org:230281</identifier>
      <datestamp>2017-01-04T22:08:36Z</datestamp>
      <setSpec>user-biosyslit</setSpec>
    </header>
    <header>
      <identifier>oai:zenodo.org:230497</identifier>
      <datestamp>2017-01-05T02:08:37Z</datestamp>
      <setSpec>user-biosyslit</setSpec>
    </header>
    <header>
      <identifier>oai:zenodo.org:230150</identifier>
      <datestamp>2017-01-04T20:26:30Z</datestamp>
      <setSpec>user-biosyslit</setSpec>
    </header>
    <header>
      <identifier>oai:zenodo.org:269891</identifier>
      <datestamp>2017-02-07T20:39:38Z</datestamp>
      <setSpec>user-biosyslit</setSpec>
    </header>
    <header>
      <identifier>oai:zenodo.org:269791</identifier>
      <datestamp>2017-02-07T20:19:05Z</datestamp>
      <setSpec>user-biosyslit</setSpec>
    </header>
    <header>
      <identifier>oai:zenodo.org:230681</identifier>
      <datestamp>2017-01-05T06:30:38Z</datestamp>
      <setSpec>user-biosyslit</setSpec>
    </header>
    <header>
      <identifier>oai:zenodo.org:230646</identifier>
      <datestamp>2017-01-05T05:35:13Z</datestamp>
      <setSpec>user-biosyslit</setSpec>
    </header>
    <header>
      <identifier>oai:zenodo.org:230542</identifier>
      <datestamp>2017-01-05T03:02:27Z</datestamp>
      <setSpec>user-biosyslit</setSpec>
    </header>
    <header>
      <identifier>oai:zenodo.org:230859</identifier>
      <datestamp>2017-01-05T09:19:51Z</datestamp>
      <setSpec>user-biosyslit</setSpec>
    </header>
    <header>
      <identifier>oai:zenodo.org:269988</identifier>
      <datestamp>2017-02-07T21:57:10Z</datestamp>
      <setSpec>user-biosyslit</setSpec>
    </header>
    <header>
      <identifier>oai:zenodo.org:230741</identifier>
      <datestamp>2017-01-05T07:38:00Z</datestamp>
      <setSpec>user-biosyslit</setSpec>
    </header>
    <header>
      <identifier>oai:zenodo.org:231134</identifier>
      <datestamp>2017-01-06T11:05:19Z</datestamp>
      <setSpec>openaire</setSpec>
      <setSpec>user-biosyslit</setSpec>
    </header>
    <header>
      <identifier>oai:zenodo.org:271002</identifier>
      <datestamp>2017-02-08T00:34:13Z</datestamp>
      <setSpec>user-biosyslit</setSpec>
    </header>
    <header>
      <identifier>oai:zenodo.org:231517</identifier>
      <datestamp>2017-01-06T03:21:57Z</datestamp>
      <setSpec>user-biosyslit</setSpec>
    </header>
    <header>
      <identifier>oai:zenodo.org:270358</identifier>
      <datestamp>2017-02-07T23:05:05Z</datestamp>
      <setSpec>user-biosyslit</setSpec>
    </header>
    <header>
      <identifier>oai:zenodo.org:230941</identifier>
      <datestamp>2017-01-05T11:34:36Z</datestamp>
      <setSpec>user-biosyslit</setSpec>
    </header>
    <header>
      <identifier>oai:zenodo.org:270098</identifier>
      <datestamp>2017-02-07T22:19:01Z</datestamp>
      <setSpec>user-biosyslit</setSpec>
    </header>
    <header>
      <identifier>oai:zenodo.org:270130</identifier>
      <datestamp>2017-02-07T22:25:09Z</datestamp>
      <setSpec>user-biosyslit</setSpec>
    </header>
    <header>
      <identifier>oai:zenodo.org:270258</identifier>
      <datestamp>2017-02-07T22:54:50Z</datestamp>
      <setSpec>user-biosyslit</setSpec>
    </header>
    <header>
      <identifier>oai:zenodo.org:231429</identifier>
      <datestamp>2017-01-06T01:39:34Z</datestamp>
      <setSpec>user-biosyslit</setSpec>
    </header>
    <header>
      <identifier>oai:zenodo.org:231698</identifier>
      <datestamp>2017-01-06T06:04:53Z</datestamp>
      <setSpec>user-biosyslit</setSpec>
    </header>
    <header>
      <identifier>oai:zenodo.org:231454</identifier>
      <datestamp>2017-01-06T02:14:00Z</datestamp>
      <setSpec>user-biosyslit</setSpec>
    </header>
    <header>
      <identifier>oai:zenodo.org:270313</identifier>
      <datestamp>2017-02-07T22:59:44Z</datestamp>
      <setSpec>user-biosyslit</setSpec>
    </header>
    <header>
      <identifier>oai:zenodo.org:270547</identifier>
      <datestamp>2017-02-07T23:26:52Z</datestamp>
      <setSpec>user-biosyslit</setSpec>
    </header>
    <header>
      <identifier>oai:zenodo.org:270431</identifier>
      <datestamp>2017-02-07T23:13:45Z</datestamp>
      <setSpec>user-biosyslit</setSpec>
    </header>
    <header>
      <identifier>oai:zenodo.org:232234</identifier>
      <datestamp>2017-01-06T14:05:29Z</datestamp>
      <setSpec>user-biosyslit</setSpec>
    </header>
    <header>
      <identifier>oai:zenodo.org:270173</identifier>
      <datestamp>2017-02-07T22:29:12Z</datestamp>
      <setSpec>user-biosyslit</setSpec>
    </header>
    <header>
      <identifier>oai:zenodo.org:270398</identifier>
      <datestamp>2017-02-07T23:09:22Z</datestamp>
      <setSpec>user-biosyslit</setSpec>
    </header>
    <header>
      <identifier>oai:zenodo.org:270151</identifier>
      <datestamp>2017-02-07T22:27:01Z</datestamp>
      <setSpec>user-biosyslit</setSpec>
    </header>
    <header>
      <identifier>oai:zenodo.org:270298</identifier>
      <datestamp>2017-02-07T22:58:30Z</datestamp>
      <setSpec>user-biosyslit</setSpec>
    </header>
    <header>
      <identifier>oai:zenodo.org:232760</identifier>
      <datestamp>2017-01-06T22:36:52Z</datestamp>
      <setSpec>user-biosyslit</setSpec>
    </header>
    <header>
      <identifier>oai:zenodo.org:286938</identifier>
      <datestamp>2017-02-09T17:05:57Z</datestamp>
      <setSpec>user-biosyslit</setSpec>
    </header>
    <header>
      <identifier>oai:zenodo.org:287972</identifier>
      <datestamp>2017-02-09T19:42:15Z</datestamp>
      <setSpec>user-biosyslit</setSpec>
    </header>
    <header>
      <identifier>oai:zenodo.org:287612</identifier>
      <datestamp>2017-02-09T18:43:54Z</datestamp>
      <setSpec>user-biosyslit</setSpec>
    </header>
    <header>
      <identifier>oai:zenodo.org:226631</identifier>
      <datestamp>2017-01-01T00:58:15Z</datestamp>
      <setSpec>user-biosyslit</setSpec>
    </header>
    <header>
      <identifier>oai:zenodo.org:287052</identifier>
      <datestamp>2017-02-09T17:20:28Z</datestamp>
      <setSpec>user-biosyslit</setSpec>
    </header>
    <header>
      <identifier>oai:zenodo.org:287264</identifier>
      <datestamp>2017-02-09T17:56:13Z</datestamp>
      <setSpec>user-biosyslit</setSpec>
    </header>
    <header>
      <identifier>oai:zenodo.org:287441</identifier>
      <datestamp>2017-02-09T18:19:17Z</datestamp>
      <setSpec>user-biosyslit</setSpec>
    </header>
    <header>
      <identifier>oai:zenodo.org:287322</identifier>
      <datestamp>2017-02-09T18:01:08Z</datestamp>
      <setSpec>user-biosyslit</setSpec>
    </header>
    <header>
      <identifier>oai:zenodo.org:287316</identifier>
      <datestamp>2017-02-09T18:00:57Z</datestamp>
      <setSpec>user-biosyslit</setSpec>
    </header>
    <header>
      <identifier>oai:zenodo.org:287187</identifier>
      <datestamp>2017-02-09T17:37:58Z</datestamp>
      <setSpec>user-biosyslit</setSpec>
    </header>
    <header>
      <identifier>oai:zenodo.org:288126</identifier>
      <datestamp>2017-02-09T20:04:10Z</datestamp>
      <setSpec>user-biosyslit</setSpec>
    </header>
    <header>
      <identifier>oai:zenodo.org:287979</identifier>
      <datestamp>2017-02-09T19:43:25Z</datestamp>
      <setSpec>user-biosyslit</setSpec>
    </header>
    <header>
      <identifier>oai:zenodo.org:287330</identifier>
      <datestamp>2017-02-09T18:04:17Z</datestamp>
      <setSpec>user-biosyslit</setSpec>
    </header>
    <header>
      <identifier>oai:zenodo.org:288295</identifier>
      <datestamp>2017-02-09T20:32:46Z</datestamp>
      <setSpec>user-biosyslit</setSpec>
    </header>
    <header>
      <identifier>oai:zenodo.org:288488</identifier>
      <datestamp>2017-02-09T21:03:53Z</datestamp>
      <setSpec>user-biosyslit</setSpec>
    </header>
    <header>
      <identifier>oai:zenodo.org:288225</identifier>
      <datestamp>2017-02-09T20:20:57Z</datestamp>
      <setSpec>user-biosyslit</setSpec>
    </header>
    <header>
      <identifier>oai:zenodo.org:287643</identifier>
      <datestamp>2017-02-09T18:48:59Z</datestamp>
      <setSpec>user-biosyslit</setSpec>
    </header>
    <header>
      <identifier>oai:zenodo.org:287610</identifier>
      <datestamp>2017-02-09T18:43:49Z</datestamp>
      <setSpec>user-biosyslit</setSpec>
    </header>
    <header>
      <identifier>oai:zenodo.org:288134</identifier>
      <datestamp>2017-02-09T20:04:33Z</datestamp>
      <setSpec>user-biosyslit</setSpec>
    </header>
    <header>
      <identifier>oai:zenodo.org:289100</identifier>
      <datestamp>2017-02-09T22:37:56Z</datestamp>
      <setSpec>user-biosyslit</setSpec>
    </header>
    <header>
      <identifier>oai:zenodo.org:288000</identifier>
      <datestamp>2017-02-09T19:44:17Z</datestamp>
      <setSpec>user-biosyslit</setSpec>
    </header>
    <header>
      <identifier>oai:zenodo.org:288554</identifier>
      <datestamp>2017-02-09T21:17:08Z</datestamp>
      <setSpec>user-biosyslit</setSpec>
    </header>
    <header>
      <identifier>oai:zenodo.org:287787</identifier>
      <datestamp>2017-02-09T19:20:29Z</datestamp>
      <setSpec>user-biosyslit</setSpec>
    </header>
    <header>
      <identifier>oai:zenodo.org:289090</identifier>
      <datestamp>2017-02-09T22:36:39Z</datestamp>
      <setSpec>user-biosyslit</setSpec>
    </header>
    <header>
      <identifier>oai:zenodo.org:287794</identifier>
      <datestamp>2017-02-09T19:20:46Z</datestamp>
      <setSpec>user-biosyslit</setSpec>
    </header>
    <header>
      <identifier>oai:zenodo.org:289457</identifier>
      <datestamp>2017-02-09T23:32:41Z</datestamp>
      <setSpec>user-biosyslit</setSpec>
    </header>
    <header>
      <identifier>oai:zenodo.org:288336</identifier>
      <datestamp>2017-02-09T20:40:58Z</datestamp>
      <setSpec>user-biosyslit</setSpec>
    </header>
    <header>
      <identifier>oai:zenodo.org:288529</identifier>
      <datestamp>2017-02-09T21:05:42Z</datestamp>
      <setSpec>user-biosyslit</setSpec>
    </header>
    <header>
      <identifier>oai:zenodo.org:288668</identifier>
      <datestamp>2017-02-09T21:40:01Z</datestamp>
      <setSpec>user-biosyslit</setSpec>
    </header>
    <header>
      <identifier>oai:zenodo.org:227259</identifier>
      <datestamp>2017-01-01T18:50:41Z</datestamp>
      <setSpec>user-biosyslit</setSpec>
    </header>
    <header>
      <identifier>oai:zenodo.org:227236</identifier>
      <datestamp>2017-01-01T18:34:30Z</datestamp>
      <setSpec>user-biosyslit</setSpec>
    </header>
    <header>
      <identifier>oai:zenodo.org:227385</identifier>
      <datestamp>2017-01-01T20:04:17Z</datestamp>
      <setSpec>user-biosyslit</setSpec>
    </header>
    <header>
      <identifier>oai:zenodo.org:227400</identifier>
      <datestamp>2017-01-01T20:39:03Z</datestamp>
      <setSpec>user-biosyslit</setSpec>
    </header>
    <header>
      <identifier>oai:zenodo.org:227699</identifier>
      <datestamp>2017-01-02T02:23:35Z</datestamp>
      <setSpec>user-biosyslit</setSpec>
    </header>
    <header>
      <identifier>oai:zenodo.org:227381</identifier>
      <datestamp>2017-01-01T20:00:39Z</datestamp>
      <setSpec>user-biosyslit</setSpec>
    </header>
    <header>
      <identifier>oai:zenodo.org:227810</identifier>
      <datestamp>2017-01-02T05:27:40Z</datestamp>
      <setSpec>user-biosyslit</setSpec>
    </header>
    <header>
      <identifier>oai:zenodo.org:227848</identifier>
      <datestamp>2017-01-02T05:53:50Z</datestamp>
      <setSpec>user-biosyslit</setSpec>
    </header>
    <header>
      <identifier>oai:zenodo.org:227781</identifier>
      <datestamp>2017-01-02T04:33:14Z</datestamp>
      <setSpec>user-biosyslit</setSpec>
    </header>
    <header>
      <identifier>oai:zenodo.org:230179</identifier>
      <datestamp>2017-01-04T20:45:04Z</datestamp>
      <setSpec>user-biosyslit</setSpec>
    </header>
    <header>
      <identifier>oai:zenodo.org:495306</identifier>
      <datestamp>2017-04-06T07:41:11Z</datestamp>
      <setSpec>user-biosyslit</setSpec>
    </header>
    <header>
      <identifier>oai:zenodo.org:287124</identifier>
      <datestamp>2017-02-09T17:30:58Z</datestamp>
      <setSpec>user-biosyslit</setSpec>
    </header>
    <header>
      <identifier>oai:zenodo.org:288124</identifier>
      <datestamp>2017-02-09T20:04:05Z</datestamp>
      <setSpec>user-biosyslit</setSpec>
    </header>
    <header>
      <identifier>oai:zenodo.org:287207</identifier>
      <datestamp>2017-02-09T17:42:52Z</datestamp>
      <setSpec>user-biosyslit</setSpec>
    </header>
    <header>
      <identifier>oai:zenodo.org:287636</identifier>
      <datestamp>2017-02-09T18:48:42Z</datestamp>
      <setSpec>user-biosyslit</setSpec>
    </header>
    <resumptionToken expirationDate="2017-08-31T15:46:10Z" cursor="47200" completeListSize="77796">.eJyNysEOQzAYAOB3-c-ytJiOZBdh4oBYR8ZlMURMmegWVLz7XHbezt-3AC_LAgy00_SDjFWCsbrXNR0RCXg-PBm71RtDfo1Z3rEoc-L3uY1RIlfEt_jkWYniiwYFLRb0FMpXfJiiGs3hJXol4jzFijtSZBNPhLP_cLdXKIHD0rvT06gzGZWLIbDDmWKTpkr-ffjPJ34-ix9Bgj6rSjBUokrQjNlQcTCWdf0ApM5RSQ.DInASg.NjLrSuLaDPZvZP7Bx34xGNivOwg</resumptionToken>
  </ListIdentifiers>
</OAI-PMH>
