<?xml version='1.0' encoding='UTF-8'?>
<?xml-stylesheet type="text/xsl" href="/static/xsl/oai2.v1.0.xsl"?>
<OAI-PMH xmlns="http://www.openarchives.org/OAI/2.0/" xmlns:xsi="http://www.w3.org/2001/XMLSchema-instance" xsi:schemaLocation="http://www.openarchives.org/OAI/2.0/ http://www.openarchives.org/OAI/2.0/OAI-PMH.xsd">
  <responseDate>2017-08-31T15:44:43Z</responseDate>
  <request verb="ListIdentifiers" resumptionToken=".eJyNzz0PQ0AAgOH_crM090GppItQMSBcCZZGEVFHxbXBif9eS-d2fp_lXQGvqhLo8CCTo4IwVKGMkaadJMCL8cnYrdkrKJKYFT2Lcjt-h10MU1yrnsln10yJJ1rod0jQS4ATpM1RA5fgGr1SEc4xcSYKLdUVweI9nN2VxLdZdrcHGvUGo7gcfStYKDJoRoqvQ3868dOZ_AwkMOR1BXSF7FftlI81B_q6bR9ig1EI.DInAag.fZrm95oOeidcBIbjfoUJtlQXmiM">https://zenodo.org/oai2d</request>
  <ListIdentifiers>
    <header>
      <identifier>oai:zenodo.org:262409</identifier>
      <datestamp>2017-01-29T03:42:45Z</datestamp>
      <setSpec>user-biosyslit</setSpec>
    </header>
    <header>
      <identifier>oai:zenodo.org:262337</identifier>
      <datestamp>2017-01-29T01:59:36Z</datestamp>
      <setSpec>user-biosyslit</setSpec>
    </header>
    <header>
      <identifier>oai:zenodo.org:274203</identifier>
      <datestamp>2017-02-08T12:23:48Z</datestamp>
      <setSpec>user-biosyslit</setSpec>
    </header>
    <header>
      <identifier>oai:zenodo.org:262391</identifier>
      <datestamp>2017-01-29T03:25:45Z</datestamp>
      <setSpec>user-biosyslit</setSpec>
    </header>
    <header>
      <identifier>oai:zenodo.org:262472</identifier>
      <datestamp>2017-01-29T04:36:07Z</datestamp>
      <setSpec>user-biosyslit</setSpec>
    </header>
    <header>
      <identifier>oai:zenodo.org:274542</identifier>
      <datestamp>2017-02-08T13:38:01Z</datestamp>
      <setSpec>user-biosyslit</setSpec>
    </header>
    <header>
      <identifier>oai:zenodo.org:262620</identifier>
      <datestamp>2017-01-29T06:20:23Z</datestamp>
      <setSpec>user-biosyslit</setSpec>
    </header>
    <header>
      <identifier>oai:zenodo.org:262591</identifier>
      <datestamp>2017-01-29T06:01:59Z</datestamp>
      <setSpec>user-biosyslit</setSpec>
    </header>
    <header>
      <identifier>oai:zenodo.org:226744</identifier>
      <datestamp>2017-01-01T02:48:17Z</datestamp>
      <setSpec>user-biosyslit</setSpec>
    </header>
    <header>
      <identifier>oai:zenodo.org:262535</identifier>
      <datestamp>2017-01-29T05:18:17Z</datestamp>
      <setSpec>user-biosyslit</setSpec>
    </header>
    <header>
      <identifier>oai:zenodo.org:263010</identifier>
      <datestamp>2017-01-29T14:43:10Z</datestamp>
      <setSpec>user-biosyslit</setSpec>
    </header>
    <header>
      <identifier>oai:zenodo.org:263048</identifier>
      <datestamp>2017-01-29T15:16:25Z</datestamp>
      <setSpec>user-biosyslit</setSpec>
    </header>
    <header>
      <identifier>oai:zenodo.org:262696</identifier>
      <datestamp>2017-01-29T07:15:00Z</datestamp>
      <setSpec>user-biosyslit</setSpec>
    </header>
    <header>
      <identifier>oai:zenodo.org:262542</identifier>
      <datestamp>2017-01-29T05:26:46Z</datestamp>
      <setSpec>user-biosyslit</setSpec>
    </header>
    <header>
      <identifier>oai:zenodo.org:263123</identifier>
      <datestamp>2017-01-29T17:26:40Z</datestamp>
      <setSpec>user-biosyslit</setSpec>
    </header>
    <header>
      <identifier>oai:zenodo.org:262827</identifier>
      <datestamp>2017-01-29T09:56:28Z</datestamp>
      <setSpec>user-biosyslit</setSpec>
    </header>
    <header>
      <identifier>oai:zenodo.org:262624</identifier>
      <datestamp>2017-01-29T06:22:55Z</datestamp>
      <setSpec>user-biosyslit</setSpec>
    </header>
    <header>
      <identifier>oai:zenodo.org:262906</identifier>
      <datestamp>2017-01-29T11:08:57Z</datestamp>
      <setSpec>user-biosyslit</setSpec>
    </header>
    <header>
      <identifier>oai:zenodo.org:262640</identifier>
      <datestamp>2017-01-29T06:35:50Z</datestamp>
      <setSpec>user-biosyslit</setSpec>
    </header>
    <header>
      <identifier>oai:zenodo.org:262690</identifier>
      <datestamp>2017-01-29T07:11:01Z</datestamp>
      <setSpec>user-biosyslit</setSpec>
    </header>
    <header>
      <identifier>oai:zenodo.org:262911</identifier>
      <datestamp>2017-01-29T11:09:16Z</datestamp>
      <setSpec>user-biosyslit</setSpec>
    </header>
    <header>
      <identifier>oai:zenodo.org:263572</identifier>
      <datestamp>2017-01-30T00:50:39Z</datestamp>
      <setSpec>user-biosyslit</setSpec>
    </header>
    <header>
      <identifier>oai:zenodo.org:264134</identifier>
      <datestamp>2017-01-30T13:36:00Z</datestamp>
      <setSpec>user-biosyslit</setSpec>
    </header>
    <header>
      <identifier>oai:zenodo.org:263526</identifier>
      <datestamp>2017-01-29T23:50:30Z</datestamp>
      <setSpec>user-biosyslit</setSpec>
    </header>
    <header>
      <identifier>oai:zenodo.org:259956</identifier>
      <datestamp>2017-01-25T17:56:04Z</datestamp>
      <setSpec>user-biosyslit</setSpec>
    </header>
    <header>
      <identifier>oai:zenodo.org:260431</identifier>
      <datestamp>2017-01-27T19:41:27Z</datestamp>
      <setSpec>user-biosyslit</setSpec>
    </header>
    <header>
      <identifier>oai:zenodo.org:259639</identifier>
      <datestamp>2017-01-25T14:35:50Z</datestamp>
      <setSpec>user-biosyslit</setSpec>
    </header>
    <header>
      <identifier>oai:zenodo.org:259675</identifier>
      <datestamp>2017-01-25T15:01:08Z</datestamp>
      <setSpec>user-biosyslit</setSpec>
    </header>
    <header>
      <identifier>oai:zenodo.org:260996</identifier>
      <datestamp>2017-01-28T03:36:56Z</datestamp>
      <setSpec>user-biosyslit</setSpec>
    </header>
    <header>
      <identifier>oai:zenodo.org:260469</identifier>
      <datestamp>2017-01-27T20:46:33Z</datestamp>
      <setSpec>user-biosyslit</setSpec>
    </header>
    <header>
      <identifier>oai:zenodo.org:259873</identifier>
      <datestamp>2017-01-25T17:10:45Z</datestamp>
      <setSpec>user-biosyslit</setSpec>
    </header>
    <header>
      <identifier>oai:zenodo.org:261211</identifier>
      <datestamp>2017-01-28T06:42:16Z</datestamp>
      <setSpec>user-biosyslit</setSpec>
    </header>
    <header>
      <identifier>oai:zenodo.org:261018</identifier>
      <datestamp>2017-01-28T03:51:34Z</datestamp>
      <setSpec>user-biosyslit</setSpec>
    </header>
    <header>
      <identifier>oai:zenodo.org:273798</identifier>
      <datestamp>2017-02-08T10:47:23Z</datestamp>
      <setSpec>user-biosyslit</setSpec>
    </header>
    <header>
      <identifier>oai:zenodo.org:260629</identifier>
      <datestamp>2017-01-27T22:45:31Z</datestamp>
      <setSpec>user-biosyslit</setSpec>
    </header>
    <header>
      <identifier>oai:zenodo.org:260822</identifier>
      <datestamp>2017-01-28T01:12:33Z</datestamp>
      <setSpec>user-biosyslit</setSpec>
    </header>
    <header>
      <identifier>oai:zenodo.org:261267</identifier>
      <datestamp>2017-01-28T07:29:36Z</datestamp>
      <setSpec>user-biosyslit</setSpec>
    </header>
    <header>
      <identifier>oai:zenodo.org:262168</identifier>
      <datestamp>2017-01-28T22:20:13Z</datestamp>
      <setSpec>user-biosyslit</setSpec>
    </header>
    <header>
      <identifier>oai:zenodo.org:261542</identifier>
      <datestamp>2017-01-28T10:41:59Z</datestamp>
      <setSpec>user-biosyslit</setSpec>
    </header>
    <header>
      <identifier>oai:zenodo.org:261482</identifier>
      <datestamp>2017-01-28T09:35:45Z</datestamp>
      <setSpec>user-biosyslit</setSpec>
    </header>
    <header>
      <identifier>oai:zenodo.org:261529</identifier>
      <datestamp>2017-01-28T10:10:39Z</datestamp>
      <setSpec>user-biosyslit</setSpec>
    </header>
    <header>
      <identifier>oai:zenodo.org:260774</identifier>
      <datestamp>2017-01-28T00:52:28Z</datestamp>
      <setSpec>user-biosyslit</setSpec>
    </header>
    <header>
      <identifier>oai:zenodo.org:261234</identifier>
      <datestamp>2017-01-28T07:03:17Z</datestamp>
      <setSpec>user-biosyslit</setSpec>
    </header>
    <header>
      <identifier>oai:zenodo.org:261252</identifier>
      <datestamp>2017-01-28T07:15:41Z</datestamp>
      <setSpec>user-biosyslit</setSpec>
    </header>
    <header>
      <identifier>oai:zenodo.org:261235</identifier>
      <datestamp>2017-01-28T07:03:22Z</datestamp>
      <setSpec>user-biosyslit</setSpec>
    </header>
    <header>
      <identifier>oai:zenodo.org:261724</identifier>
      <datestamp>2017-01-28T13:39:58Z</datestamp>
      <setSpec>user-biosyslit</setSpec>
    </header>
    <header>
      <identifier>oai:zenodo.org:261333</identifier>
      <datestamp>2017-01-28T08:01:44Z</datestamp>
      <setSpec>user-biosyslit</setSpec>
    </header>
    <header>
      <identifier>oai:zenodo.org:261017</identifier>
      <datestamp>2017-01-28T03:51:31Z</datestamp>
      <setSpec>user-biosyslit</setSpec>
    </header>
    <header>
      <identifier>oai:zenodo.org:261223</identifier>
      <datestamp>2017-01-28T06:52:47Z</datestamp>
      <setSpec>user-biosyslit</setSpec>
    </header>
    <header>
      <identifier>oai:zenodo.org:262015</identifier>
      <datestamp>2017-01-28T19:26:57Z</datestamp>
      <setSpec>user-biosyslit</setSpec>
    </header>
    <header>
      <identifier>oai:zenodo.org:273696</identifier>
      <datestamp>2017-02-08T10:22:05Z</datestamp>
      <setSpec>user-biosyslit</setSpec>
    </header>
    <header>
      <identifier>oai:zenodo.org:261531</identifier>
      <datestamp>2017-01-28T10:10:46Z</datestamp>
      <setSpec>user-biosyslit</setSpec>
    </header>
    <header>
      <identifier>oai:zenodo.org:261457</identifier>
      <datestamp>2017-01-28T08:46:50Z</datestamp>
      <setSpec>user-biosyslit</setSpec>
    </header>
    <header>
      <identifier>oai:zenodo.org:262040</identifier>
      <datestamp>2017-01-28T19:42:10Z</datestamp>
      <setSpec>user-biosyslit</setSpec>
    </header>
    <header>
      <identifier>oai:zenodo.org:261479</identifier>
      <datestamp>2017-01-28T09:35:49Z</datestamp>
      <setSpec>user-biosyslit</setSpec>
    </header>
    <header>
      <identifier>oai:zenodo.org:261736</identifier>
      <datestamp>2017-01-28T13:45:50Z</datestamp>
      <setSpec>user-biosyslit</setSpec>
    </header>
    <header>
      <identifier>oai:zenodo.org:262200</identifier>
      <datestamp>2017-01-28T23:33:45Z</datestamp>
      <setSpec>user-biosyslit</setSpec>
    </header>
    <header>
      <identifier>oai:zenodo.org:262109</identifier>
      <datestamp>2017-01-28T20:47:23Z</datestamp>
      <setSpec>user-biosyslit</setSpec>
    </header>
    <header>
      <identifier>oai:zenodo.org:273953</identifier>
      <datestamp>2017-02-08T11:34:50Z</datestamp>
      <setSpec>user-biosyslit</setSpec>
    </header>
    <header>
      <identifier>oai:zenodo.org:261858</identifier>
      <datestamp>2017-01-28T16:10:23Z</datestamp>
      <setSpec>user-biosyslit</setSpec>
    </header>
    <header>
      <identifier>oai:zenodo.org:273925</identifier>
      <datestamp>2017-02-08T11:16:57Z</datestamp>
      <setSpec>user-biosyslit</setSpec>
    </header>
    <header>
      <identifier>oai:zenodo.org:273804</identifier>
      <datestamp>2017-02-08T10:48:48Z</datestamp>
      <setSpec>user-biosyslit</setSpec>
    </header>
    <header>
      <identifier>oai:zenodo.org:262093</identifier>
      <datestamp>2017-01-28T20:10:36Z</datestamp>
      <setSpec>user-biosyslit</setSpec>
    </header>
    <header>
      <identifier>oai:zenodo.org:262151</identifier>
      <datestamp>2017-01-28T22:03:15Z</datestamp>
      <setSpec>user-biosyslit</setSpec>
    </header>
    <header>
      <identifier>oai:zenodo.org:262175</identifier>
      <datestamp>2017-01-28T22:23:41Z</datestamp>
      <setSpec>user-biosyslit</setSpec>
    </header>
    <header>
      <identifier>oai:zenodo.org:273871</identifier>
      <datestamp>2017-02-08T11:01:49Z</datestamp>
      <setSpec>user-biosyslit</setSpec>
    </header>
    <header>
      <identifier>oai:zenodo.org:262152</identifier>
      <datestamp>2017-01-28T22:03:18Z</datestamp>
      <setSpec>user-biosyslit</setSpec>
    </header>
    <header>
      <identifier>oai:zenodo.org:274253</identifier>
      <datestamp>2017-02-08T12:34:21Z</datestamp>
      <setSpec>user-biosyslit</setSpec>
    </header>
    <header>
      <identifier>oai:zenodo.org:274205</identifier>
      <datestamp>2017-02-08T12:23:55Z</datestamp>
      <setSpec>user-biosyslit</setSpec>
    </header>
    <header>
      <identifier>oai:zenodo.org:226829</identifier>
      <datestamp>2017-01-01T04:00:33Z</datestamp>
      <setSpec>user-biosyslit</setSpec>
    </header>
    <header>
      <identifier>oai:zenodo.org:262532</identifier>
      <datestamp>2017-01-29T05:18:09Z</datestamp>
      <setSpec>user-biosyslit</setSpec>
    </header>
    <header>
      <identifier>oai:zenodo.org:262646</identifier>
      <datestamp>2017-01-29T06:48:58Z</datestamp>
      <setSpec>user-biosyslit</setSpec>
    </header>
    <header>
      <identifier>oai:zenodo.org:262934</identifier>
      <datestamp>2017-01-29T13:26:13Z</datestamp>
      <setSpec>user-biosyslit</setSpec>
    </header>
    <header>
      <identifier>oai:zenodo.org:264087</identifier>
      <datestamp>2017-01-30T12:37:16Z</datestamp>
      <setSpec>user-biosyslit</setSpec>
    </header>
    <header>
      <identifier>oai:zenodo.org:262833</identifier>
      <datestamp>2017-01-29T09:56:20Z</datestamp>
      <setSpec>user-biosyslit</setSpec>
    </header>
    <header>
      <identifier>oai:zenodo.org:262582</identifier>
      <datestamp>2017-01-29T05:50:17Z</datestamp>
      <setSpec>user-biosyslit</setSpec>
    </header>
    <header>
      <identifier>oai:zenodo.org:262810</identifier>
      <datestamp>2017-01-29T09:17:11Z</datestamp>
      <setSpec>user-biosyslit</setSpec>
    </header>
    <header>
      <identifier>oai:zenodo.org:263434</identifier>
      <datestamp>2017-01-29T22:33:09Z</datestamp>
      <setSpec>user-biosyslit</setSpec>
    </header>
    <header>
      <identifier>oai:zenodo.org:264222</identifier>
      <datestamp>2017-01-30T15:01:50Z</datestamp>
      <setSpec>user-biosyslit</setSpec>
    </header>
    <header>
      <identifier>oai:zenodo.org:263011</identifier>
      <datestamp>2017-01-29T14:43:13Z</datestamp>
      <setSpec>user-biosyslit</setSpec>
    </header>
    <header>
      <identifier>oai:zenodo.org:263034</identifier>
      <datestamp>2017-01-29T15:04:45Z</datestamp>
      <setSpec>user-biosyslit</setSpec>
    </header>
    <header>
      <identifier>oai:zenodo.org:263223</identifier>
      <datestamp>2017-01-29T18:58:22Z</datestamp>
      <setSpec>user-biosyslit</setSpec>
    </header>
    <header>
      <identifier>oai:zenodo.org:274188</identifier>
      <datestamp>2017-02-08T12:19:56Z</datestamp>
      <setSpec>user-biosyslit</setSpec>
    </header>
    <header>
      <identifier>oai:zenodo.org:260730</identifier>
      <datestamp>2017-01-28T00:00:43Z</datestamp>
      <setSpec>user-biosyslit</setSpec>
    </header>
    <header>
      <identifier>oai:zenodo.org:259625</identifier>
      <datestamp>2017-01-25T14:25:58Z</datestamp>
      <setSpec>user-biosyslit</setSpec>
    </header>
    <header>
      <identifier>oai:zenodo.org:273640</identifier>
      <datestamp>2017-02-08T10:07:32Z</datestamp>
      <setSpec>user-biosyslit</setSpec>
    </header>
    <header>
      <identifier>oai:zenodo.org:260678</identifier>
      <datestamp>2017-01-27T23:19:57Z</datestamp>
      <setSpec>user-biosyslit</setSpec>
    </header>
    <header>
      <identifier>oai:zenodo.org:259683</identifier>
      <datestamp>2017-01-25T15:01:36Z</datestamp>
      <setSpec>user-biosyslit</setSpec>
    </header>
    <header>
      <identifier>oai:zenodo.org:259899</identifier>
      <datestamp>2017-01-25T17:11:57Z</datestamp>
      <setSpec>user-biosyslit</setSpec>
    </header>
    <header>
      <identifier>oai:zenodo.org:261066</identifier>
      <datestamp>2017-01-28T04:35:33Z</datestamp>
      <setSpec>user-biosyslit</setSpec>
    </header>
    <header>
      <identifier>oai:zenodo.org:261056</identifier>
      <datestamp>2017-01-28T04:35:38Z</datestamp>
      <setSpec>user-biosyslit</setSpec>
    </header>
    <header>
      <identifier>oai:zenodo.org:259886</identifier>
      <datestamp>2017-01-25T17:11:20Z</datestamp>
      <setSpec>user-biosyslit</setSpec>
    </header>
    <header>
      <identifier>oai:zenodo.org:260588</identifier>
      <datestamp>2017-01-27T22:16:30Z</datestamp>
      <setSpec>user-biosyslit</setSpec>
    </header>
    <header>
      <identifier>oai:zenodo.org:261096</identifier>
      <datestamp>2017-01-28T04:54:00Z</datestamp>
      <setSpec>user-biosyslit</setSpec>
    </header>
    <header>
      <identifier>oai:zenodo.org:261248</identifier>
      <datestamp>2017-01-28T07:12:55Z</datestamp>
      <setSpec>user-biosyslit</setSpec>
    </header>
    <header>
      <identifier>oai:zenodo.org:261099</identifier>
      <datestamp>2017-01-28T04:53:53Z</datestamp>
      <setSpec>user-biosyslit</setSpec>
    </header>
    <header>
      <identifier>oai:zenodo.org:261142</identifier>
      <datestamp>2017-01-28T05:38:26Z</datestamp>
      <setSpec>user-biosyslit</setSpec>
    </header>
    <header>
      <identifier>oai:zenodo.org:260917</identifier>
      <datestamp>2017-01-28T02:28:05Z</datestamp>
      <setSpec>user-biosyslit</setSpec>
    </header>
    <header>
      <identifier>oai:zenodo.org:261512</identifier>
      <datestamp>2017-01-28T09:58:39Z</datestamp>
      <setSpec>user-biosyslit</setSpec>
    </header>
    <header>
      <identifier>oai:zenodo.org:260577</identifier>
      <datestamp>2017-01-27T22:07:16Z</datestamp>
      <setSpec>user-biosyslit</setSpec>
    </header>
    <resumptionToken expirationDate="2017-08-31T15:46:43Z" cursor="53800" completeListSize="77796">.eJyNyj0PQ0AYAOD_8s7S3Aehki6NVgwIV0KXRhFRR8W1wYn_Xkvndn6eBURZFmCiHTIwJbpKVaJhqqE9UUDkw5PzW7055EnM845HmR2_wzZGKal0zxKTa6XUkw3yWyzZOSAJNqaoRnNwiV6pDKeYOiNDJ92Vwew9nO0V1Lf59W73LOqOnJFi8E_BzPCRXWn-ffjPJ38-SxxAgT6rSjA1FSnQjNlQCTCXdf0AwtpRXw.DInAaw.IUgx2LIBWQxSoYOUIRVPoOtFYAg</resumptionToken>
  </ListIdentifiers>
</OAI-PMH>
