<?xml version='1.0' encoding='UTF-8'?>
<?xml-stylesheet type="text/xsl" href="/static/xsl/oai2.v1.0.xsl"?>
<OAI-PMH xmlns="http://www.openarchives.org/OAI/2.0/" xmlns:xsi="http://www.w3.org/2001/XMLSchema-instance" xsi:schemaLocation="http://www.openarchives.org/OAI/2.0/ http://www.openarchives.org/OAI/2.0/OAI-PMH.xsd">
  <responseDate>2017-08-31T15:44:24Z</responseDate>
  <request verb="ListIdentifiers" resumptionToken=".eJyNyk0LgjAYAOD_8p4lNj_aFLqIJh1SbE3SS9gUsZaJK9JJ_70unev8PDOouq7AQwtiOy41l4Ri4tgIG6DEcJPy2H4UxCGTopO8jLLH7pqh3GxIHKhxG-RWrC8ouWLN1ql5wHTkLZrSPb_nejdm1ubJUEi2Op3i8-bzKiuJZHGKesY7XzKzGpIwnRj2WWGJ78N_Pv3zBWoFBvRlU4Nnu9SAy7McGgXe_Hq9AXA1URo.DInAWA.RFA4V8iAYLYByp7WknrWEdQb05E">https://zenodo.org/oai2d</request>
  <ListIdentifiers>
    <header>
      <identifier>oai:zenodo.org:269298</identifier>
      <datestamp>2017-02-06T23:50:46Z</datestamp>
      <setSpec>user-biosyslit</setSpec>
    </header>
    <header>
      <identifier>oai:zenodo.org:227997</identifier>
      <datestamp>2017-01-02T08:15:56Z</datestamp>
      <setSpec>user-biosyslit</setSpec>
    </header>
    <header>
      <identifier>oai:zenodo.org:229388</identifier>
      <datestamp>2017-01-03T15:07:57Z</datestamp>
      <setSpec>user-biosyslit</setSpec>
    </header>
    <header>
      <identifier>oai:zenodo.org:230310</identifier>
      <datestamp>2017-01-04T22:41:13Z</datestamp>
      <setSpec>user-biosyslit</setSpec>
    </header>
    <header>
      <identifier>oai:zenodo.org:274528</identifier>
      <datestamp>2017-02-08T13:36:42Z</datestamp>
      <setSpec>user-biosyslit</setSpec>
    </header>
    <header>
      <identifier>oai:zenodo.org:228997</identifier>
      <datestamp>2017-01-03T08:11:05Z</datestamp>
      <setSpec>user-biosyslit</setSpec>
    </header>
    <header>
      <identifier>oai:zenodo.org:269913</identifier>
      <datestamp>2017-02-07T20:43:45Z</datestamp>
      <setSpec>user-biosyslit</setSpec>
    </header>
    <header>
      <identifier>oai:zenodo.org:229037</identifier>
      <datestamp>2017-01-03T08:42:16Z</datestamp>
      <setSpec>user-biosyslit</setSpec>
    </header>
    <header>
      <identifier>oai:zenodo.org:229409</identifier>
      <datestamp>2017-01-03T15:26:27Z</datestamp>
      <setSpec>user-biosyslit</setSpec>
    </header>
    <header>
      <identifier>oai:zenodo.org:270163</identifier>
      <datestamp>2017-02-07T22:28:14Z</datestamp>
      <setSpec>user-biosyslit</setSpec>
    </header>
    <header>
      <identifier>oai:zenodo.org:229245</identifier>
      <datestamp>2017-01-03T13:13:32Z</datestamp>
      <setSpec>user-biosyslit</setSpec>
    </header>
    <header>
      <identifier>oai:zenodo.org:274594</identifier>
      <datestamp>2017-02-08T13:45:47Z</datestamp>
      <setSpec>user-biosyslit</setSpec>
    </header>
    <header>
      <identifier>oai:zenodo.org:269048</identifier>
      <datestamp>2017-02-06T22:36:20Z</datestamp>
      <setSpec>user-biosyslit</setSpec>
    </header>
    <header>
      <identifier>oai:zenodo.org:230244</identifier>
      <datestamp>2017-01-04T21:37:03Z</datestamp>
      <setSpec>user-biosyslit</setSpec>
    </header>
    <header>
      <identifier>oai:zenodo.org:274610</identifier>
      <datestamp>2017-02-08T13:49:00Z</datestamp>
      <setSpec>user-biosyslit</setSpec>
    </header>
    <header>
      <identifier>oai:zenodo.org:269002</identifier>
      <datestamp>2017-02-06T20:10:47Z</datestamp>
      <setSpec>user-biosyslit</setSpec>
    </header>
    <header>
      <identifier>oai:zenodo.org:269282</identifier>
      <datestamp>2017-02-06T23:47:15Z</datestamp>
      <setSpec>user-biosyslit</setSpec>
    </header>
    <header>
      <identifier>oai:zenodo.org:269361</identifier>
      <datestamp>2017-02-06T23:58:32Z</datestamp>
      <setSpec>user-biosyslit</setSpec>
    </header>
    <header>
      <identifier>oai:zenodo.org:269084</identifier>
      <datestamp>2017-02-06T22:41:17Z</datestamp>
      <setSpec>user-biosyslit</setSpec>
    </header>
    <header>
      <identifier>oai:zenodo.org:231177</identifier>
      <datestamp>2017-01-05T16:58:40Z</datestamp>
      <setSpec>user-biosyslit</setSpec>
    </header>
    <header>
      <identifier>oai:zenodo.org:269792</identifier>
      <datestamp>2017-02-07T20:19:07Z</datestamp>
      <setSpec>user-biosyslit</setSpec>
    </header>
    <header>
      <identifier>oai:zenodo.org:269041</identifier>
      <datestamp>2017-02-06T22:36:04Z</datestamp>
      <setSpec>user-biosyslit</setSpec>
    </header>
    <header>
      <identifier>oai:zenodo.org:230802</identifier>
      <datestamp>2017-01-05T08:38:40Z</datestamp>
      <setSpec>user-biosyslit</setSpec>
    </header>
    <header>
      <identifier>oai:zenodo.org:269466</identifier>
      <datestamp>2017-02-07T00:42:02Z</datestamp>
      <setSpec>user-biosyslit</setSpec>
    </header>
    <header>
      <identifier>oai:zenodo.org:269333</identifier>
      <datestamp>2017-02-06T23:55:52Z</datestamp>
      <setSpec>user-biosyslit</setSpec>
    </header>
    <header>
      <identifier>oai:zenodo.org:269318</identifier>
      <datestamp>2017-02-06T23:53:47Z</datestamp>
      <setSpec>user-biosyslit</setSpec>
    </header>
    <header>
      <identifier>oai:zenodo.org:269142</identifier>
      <datestamp>2017-02-06T22:53:44Z</datestamp>
      <setSpec>user-biosyslit</setSpec>
    </header>
    <header>
      <identifier>oai:zenodo.org:269243</identifier>
      <datestamp>2017-02-06T23:40:48Z</datestamp>
      <setSpec>user-biosyslit</setSpec>
    </header>
    <header>
      <identifier>oai:zenodo.org:230526</identifier>
      <datestamp>2017-01-05T02:30:02Z</datestamp>
      <setSpec>user-biosyslit</setSpec>
    </header>
    <header>
      <identifier>oai:zenodo.org:275782</identifier>
      <datestamp>2017-02-08T17:04:42Z</datestamp>
      <setSpec>user-biosyslit</setSpec>
    </header>
    <header>
      <identifier>oai:zenodo.org:275264</identifier>
      <datestamp>2017-02-08T15:53:57Z</datestamp>
      <setSpec>user-biosyslit</setSpec>
    </header>
    <header>
      <identifier>oai:zenodo.org:230743</identifier>
      <datestamp>2017-01-05T07:38:07Z</datestamp>
      <setSpec>user-biosyslit</setSpec>
    </header>
    <header>
      <identifier>oai:zenodo.org:231816</identifier>
      <datestamp>2017-01-06T07:39:06Z</datestamp>
      <setSpec>user-biosyslit</setSpec>
    </header>
    <header>
      <identifier>oai:zenodo.org:270436</identifier>
      <datestamp>2017-02-07T23:15:16Z</datestamp>
      <setSpec>user-biosyslit</setSpec>
    </header>
    <header>
      <identifier>oai:zenodo.org:231954</identifier>
      <datestamp>2017-01-06T09:15:04Z</datestamp>
      <setSpec>user-biosyslit</setSpec>
    </header>
    <header>
      <identifier>oai:zenodo.org:271021</identifier>
      <datestamp>2017-02-08T00:36:36Z</datestamp>
      <setSpec>user-biosyslit</setSpec>
    </header>
    <header>
      <identifier>oai:zenodo.org:231694</identifier>
      <datestamp>2017-01-06T06:04:36Z</datestamp>
      <setSpec>user-biosyslit</setSpec>
    </header>
    <header>
      <identifier>oai:zenodo.org:270156</identifier>
      <datestamp>2017-02-07T22:27:30Z</datestamp>
      <setSpec>user-biosyslit</setSpec>
    </header>
    <header>
      <identifier>oai:zenodo.org:270818</identifier>
      <datestamp>2017-02-07T23:57:24Z</datestamp>
      <setSpec>user-biosyslit</setSpec>
    </header>
    <header>
      <identifier>oai:zenodo.org:270481</identifier>
      <datestamp>2017-02-07T23:17:34Z</datestamp>
      <setSpec>user-biosyslit</setSpec>
    </header>
    <header>
      <identifier>oai:zenodo.org:274980</identifier>
      <datestamp>2017-02-08T14:57:37Z</datestamp>
      <setSpec>user-biosyslit</setSpec>
    </header>
    <header>
      <identifier>oai:zenodo.org:274955</identifier>
      <datestamp>2017-02-08T14:54:44Z</datestamp>
      <setSpec>user-biosyslit</setSpec>
    </header>
    <header>
      <identifier>oai:zenodo.org:232248</identifier>
      <datestamp>2017-01-06T14:21:07Z</datestamp>
      <setSpec>user-biosyslit</setSpec>
    </header>
    <header>
      <identifier>oai:zenodo.org:232753</identifier>
      <datestamp>2017-01-06T22:28:34Z</datestamp>
      <setSpec>user-biosyslit</setSpec>
    </header>
    <header>
      <identifier>oai:zenodo.org:269566</identifier>
      <datestamp>2017-02-07T00:58:22Z</datestamp>
      <setSpec>user-biosyslit</setSpec>
    </header>
    <header>
      <identifier>oai:zenodo.org:275587</identifier>
      <datestamp>2017-02-08T16:45:07Z</datestamp>
      <setSpec>user-biosyslit</setSpec>
    </header>
    <header>
      <identifier>oai:zenodo.org:232473</identifier>
      <datestamp>2017-01-06T18:21:08Z</datestamp>
      <setSpec>user-biosyslit</setSpec>
    </header>
    <header>
      <identifier>oai:zenodo.org:275116</identifier>
      <datestamp>2017-02-08T15:20:12Z</datestamp>
      <setSpec>user-biosyslit</setSpec>
    </header>
    <header>
      <identifier>oai:zenodo.org:232845</identifier>
      <datestamp>2017-01-07T00:16:56Z</datestamp>
      <setSpec>user-biosyslit</setSpec>
    </header>
    <header>
      <identifier>oai:zenodo.org:234036</identifier>
      <datestamp>2017-01-08T14:13:27Z</datestamp>
      <setSpec>user-biosyslit</setSpec>
    </header>
    <header>
      <identifier>oai:zenodo.org:233178</identifier>
      <datestamp>2017-01-08T01:46:09Z</datestamp>
      <setSpec>user-biosyslit</setSpec>
    </header>
    <header>
      <identifier>oai:zenodo.org:275191</identifier>
      <datestamp>2017-02-08T15:36:11Z</datestamp>
      <setSpec>user-biosyslit</setSpec>
    </header>
    <header>
      <identifier>oai:zenodo.org:233741</identifier>
      <datestamp>2017-01-08T11:14:22Z</datestamp>
      <setSpec>user-biosyslit</setSpec>
    </header>
    <header>
      <identifier>oai:zenodo.org:270407</identifier>
      <datestamp>2017-02-07T23:10:45Z</datestamp>
      <setSpec>user-biosyslit</setSpec>
    </header>
    <header>
      <identifier>oai:zenodo.org:233156</identifier>
      <datestamp>2017-01-08T01:27:07Z</datestamp>
      <setSpec>user-biosyslit</setSpec>
    </header>
    <header>
      <identifier>oai:zenodo.org:276517</identifier>
      <datestamp>2017-02-08T19:05:10Z</datestamp>
      <setSpec>user-biosyslit</setSpec>
    </header>
    <header>
      <identifier>oai:zenodo.org:277189</identifier>
      <datestamp>2017-02-08T20:34:19Z</datestamp>
      <setSpec>user-biosyslit</setSpec>
    </header>
    <header>
      <identifier>oai:zenodo.org:276658</identifier>
      <datestamp>2017-02-08T19:24:53Z</datestamp>
      <setSpec>user-biosyslit</setSpec>
    </header>
    <header>
      <identifier>oai:zenodo.org:233186</identifier>
      <datestamp>2017-01-08T01:57:33Z</datestamp>
      <setSpec>user-biosyslit</setSpec>
    </header>
    <header>
      <identifier>oai:zenodo.org:277419</identifier>
      <datestamp>2017-02-08T21:06:14Z</datestamp>
      <setSpec>user-biosyslit</setSpec>
    </header>
    <header>
      <identifier>oai:zenodo.org:277323</identifier>
      <datestamp>2017-02-08T20:54:01Z</datestamp>
      <setSpec>user-biosyslit</setSpec>
    </header>
    <header>
      <identifier>oai:zenodo.org:233738</identifier>
      <datestamp>2017-01-08T11:14:31Z</datestamp>
      <setSpec>user-biosyslit</setSpec>
    </header>
    <header>
      <identifier>oai:zenodo.org:192638</identifier>
      <datestamp>2017-01-09T10:33:30Z</datestamp>
      <setSpec>user-biosyslit</setSpec>
    </header>
    <header>
      <identifier>oai:zenodo.org:278238</identifier>
      <datestamp>2017-02-08T22:42:00Z</datestamp>
      <setSpec>user-biosyslit</setSpec>
    </header>
    <header>
      <identifier>oai:zenodo.org:270595</identifier>
      <datestamp>2017-02-07T23:34:08Z</datestamp>
      <setSpec>user-biosyslit</setSpec>
    </header>
    <header>
      <identifier>oai:zenodo.org:276909</identifier>
      <datestamp>2017-02-08T19:57:35Z</datestamp>
      <setSpec>user-biosyslit</setSpec>
    </header>
    <header>
      <identifier>oai:zenodo.org:276593</identifier>
      <datestamp>2017-02-08T19:17:24Z</datestamp>
      <setSpec>user-biosyslit</setSpec>
    </header>
    <header>
      <identifier>oai:zenodo.org:277576</identifier>
      <datestamp>2017-02-08T21:25:58Z</datestamp>
      <setSpec>user-biosyslit</setSpec>
    </header>
    <header>
      <identifier>oai:zenodo.org:276618</identifier>
      <datestamp>2017-02-08T19:20:08Z</datestamp>
      <setSpec>user-biosyslit</setSpec>
    </header>
    <header>
      <identifier>oai:zenodo.org:277002</identifier>
      <datestamp>2017-02-08T20:10:04Z</datestamp>
      <setSpec>user-biosyslit</setSpec>
    </header>
    <header>
      <identifier>oai:zenodo.org:277714</identifier>
      <datestamp>2017-02-08T21:41:18Z</datestamp>
      <setSpec>user-biosyslit</setSpec>
    </header>
    <header>
      <identifier>oai:zenodo.org:276773</identifier>
      <datestamp>2017-02-08T19:38:58Z</datestamp>
      <setSpec>user-biosyslit</setSpec>
    </header>
    <header>
      <identifier>oai:zenodo.org:270649</identifier>
      <datestamp>2017-02-07T23:41:40Z</datestamp>
      <setSpec>user-biosyslit</setSpec>
    </header>
    <header>
      <identifier>oai:zenodo.org:277381</identifier>
      <datestamp>2017-02-08T21:00:32Z</datestamp>
      <setSpec>user-biosyslit</setSpec>
    </header>
    <header>
      <identifier>oai:zenodo.org:236078</identifier>
      <datestamp>2017-01-09T18:31:23Z</datestamp>
      <setSpec>user-biosyslit</setSpec>
    </header>
    <header>
      <identifier>oai:zenodo.org:276656</identifier>
      <datestamp>2017-02-08T19:24:48Z</datestamp>
      <setSpec>user-biosyslit</setSpec>
    </header>
    <header>
      <identifier>oai:zenodo.org:236592</identifier>
      <datestamp>2017-01-10T01:50:56Z</datestamp>
      <setSpec>user-biosyslit</setSpec>
    </header>
    <header>
      <identifier>oai:zenodo.org:277619</identifier>
      <datestamp>2017-02-08T21:30:06Z</datestamp>
      <setSpec>user-biosyslit</setSpec>
    </header>
    <header>
      <identifier>oai:zenodo.org:237312</identifier>
      <datestamp>2017-01-10T14:11:51Z</datestamp>
      <setSpec>user-biosyslit</setSpec>
    </header>
    <header>
      <identifier>oai:zenodo.org:236496</identifier>
      <datestamp>2017-01-10T00:51:58Z</datestamp>
      <setSpec>user-biosyslit</setSpec>
    </header>
    <header>
      <identifier>oai:zenodo.org:271086</identifier>
      <datestamp>2017-02-08T00:44:38Z</datestamp>
      <setSpec>user-biosyslit</setSpec>
    </header>
    <header>
      <identifier>oai:zenodo.org:277716</identifier>
      <datestamp>2017-02-08T21:41:48Z</datestamp>
      <setSpec>user-biosyslit</setSpec>
    </header>
    <header>
      <identifier>oai:zenodo.org:237285</identifier>
      <datestamp>2017-01-10T13:56:05Z</datestamp>
      <setSpec>user-biosyslit</setSpec>
    </header>
    <header>
      <identifier>oai:zenodo.org:276872</identifier>
      <datestamp>2017-02-08T19:53:03Z</datestamp>
      <setSpec>user-biosyslit</setSpec>
    </header>
    <header>
      <identifier>oai:zenodo.org:276733</identifier>
      <datestamp>2017-02-08T19:33:03Z</datestamp>
      <setSpec>user-biosyslit</setSpec>
    </header>
    <header>
      <identifier>oai:zenodo.org:237194</identifier>
      <datestamp>2017-01-10T11:56:51Z</datestamp>
      <setSpec>user-biosyslit</setSpec>
    </header>
    <header>
      <identifier>oai:zenodo.org:237801</identifier>
      <datestamp>2017-01-10T20:50:43Z</datestamp>
      <setSpec>user-biosyslit</setSpec>
    </header>
    <header>
      <identifier>oai:zenodo.org:236600</identifier>
      <datestamp>2017-01-10T01:59:07Z</datestamp>
      <setSpec>user-biosyslit</setSpec>
    </header>
    <header>
      <identifier>oai:zenodo.org:238037</identifier>
      <datestamp>2017-01-11T00:17:33Z</datestamp>
      <setSpec>user-biosyslit</setSpec>
    </header>
    <header>
      <identifier>oai:zenodo.org:237132</identifier>
      <datestamp>2017-01-10T11:24:24Z</datestamp>
      <setSpec>user-biosyslit</setSpec>
    </header>
    <header>
      <identifier>oai:zenodo.org:277793</identifier>
      <datestamp>2017-02-08T21:49:57Z</datestamp>
      <setSpec>user-biosyslit</setSpec>
    </header>
    <header>
      <identifier>oai:zenodo.org:277517</identifier>
      <datestamp>2017-02-08T21:16:59Z</datestamp>
      <setSpec>user-biosyslit</setSpec>
    </header>
    <header>
      <identifier>oai:zenodo.org:237243</identifier>
      <datestamp>2017-01-10T12:55:02Z</datestamp>
      <setSpec>user-biosyslit</setSpec>
    </header>
    <header>
      <identifier>oai:zenodo.org:238834</identifier>
      <datestamp>2017-01-11T11:25:12Z</datestamp>
      <setSpec>user-biosyslit</setSpec>
    </header>
    <header>
      <identifier>oai:zenodo.org:278054</identifier>
      <datestamp>2017-02-08T22:21:09Z</datestamp>
      <setSpec>user-biosyslit</setSpec>
    </header>
    <header>
      <identifier>oai:zenodo.org:277599</identifier>
      <datestamp>2017-02-08T21:28:00Z</datestamp>
      <setSpec>user-biosyslit</setSpec>
    </header>
    <header>
      <identifier>oai:zenodo.org:278503</identifier>
      <datestamp>2017-02-08T23:17:38Z</datestamp>
      <setSpec>user-biosyslit</setSpec>
    </header>
    <header>
      <identifier>oai:zenodo.org:238585</identifier>
      <datestamp>2017-01-11T07:55:13Z</datestamp>
      <setSpec>user-biosyslit</setSpec>
    </header>
    <header>
      <identifier>oai:zenodo.org:239236</identifier>
      <datestamp>2017-01-11T18:45:44Z</datestamp>
      <setSpec>user-biosyslit</setSpec>
    </header>
    <header>
      <identifier>oai:zenodo.org:239126</identifier>
      <datestamp>2017-01-11T16:46:31Z</datestamp>
      <setSpec>user-biosyslit</setSpec>
    </header>
    <resumptionToken expirationDate="2017-08-31T15:46:24Z" cursor="49700" completeListSize="77796">.eJyNyj0LgkAYAOD_8s4S91FoQoto0qCi14m6hKlIeVp4hXrif8-luebnmUFWVQkm2hiIEIzIzjAo1TElGsiifwhxua0MRRKLohM8d-N31MYoJbXu23L07JT6qkFBixU7hiTBxshvaArP_JWqaIzpaWDI0T0VTv79tL6SBq7Iru6T8c4SjJR94IQTwxbLaPF9-M-nfj5bHkCDZ15XYG73ew2aIe9rCea8LB-PDFE4.DInAWA.9om3E04oK2N9wFv2hbyA6bntT5c</resumptionToken>
  </ListIdentifiers>
</OAI-PMH>
