<?xml version='1.0' encoding='UTF-8'?>
<?xml-stylesheet type="text/xsl" href="/static/xsl/oai2.v1.0.xsl"?>
<OAI-PMH xmlns="http://www.openarchives.org/OAI/2.0/" xmlns:xsi="http://www.w3.org/2001/XMLSchema-instance" xsi:schemaLocation="http://www.openarchives.org/OAI/2.0/ http://www.openarchives.org/OAI/2.0/OAI-PMH.xsd">
  <responseDate>2017-08-31T15:44:52Z</responseDate>
  <request verb="ListIdentifiers" resumptionToken=".eJyNyj0PQ0AYAOD_8s7S3KG-ki5CxYBwJWVpFBF1VFwbnPjvtXRu5-dZgVVVCQY6yKqiyLoua5qmyKKKBWDF-KT01uwMxTWhRU_j3EneUZegVKxV32KzZ6WSz1sUdJiTcyhesTbHDVrCS_xKeTQnkjsRZKseDxf_4e6vlAKHZndnIHFvUiKWY2CHC8EmyaTi-_Cfj_98FjuBAENeV2AcFSRAO-VjzcBYt-0DsadRUw.DInAdA.nzwwOAisuEavxSkpb1jfaeb_fVY">https://zenodo.org/oai2d</request>
  <ListIdentifiers>
    <header>
      <identifier>oai:zenodo.org:249851</identifier>
      <datestamp>2017-01-18T00:40:47Z</datestamp>
      <setSpec>user-biosyslit</setSpec>
    </header>
    <header>
      <identifier>oai:zenodo.org:250838</identifier>
      <datestamp>2017-01-18T15:25:47Z</datestamp>
      <setSpec>user-biosyslit</setSpec>
    </header>
    <header>
      <identifier>oai:zenodo.org:251117</identifier>
      <datestamp>2017-01-18T18:51:49Z</datestamp>
      <setSpec>user-biosyslit</setSpec>
    </header>
    <header>
      <identifier>oai:zenodo.org:250578</identifier>
      <datestamp>2017-01-18T12:29:24Z</datestamp>
      <setSpec>user-biosyslit</setSpec>
    </header>
    <header>
      <identifier>oai:zenodo.org:250605</identifier>
      <datestamp>2017-01-18T13:00:35Z</datestamp>
      <setSpec>user-biosyslit</setSpec>
    </header>
    <header>
      <identifier>oai:zenodo.org:250596</identifier>
      <datestamp>2017-01-18T12:30:30Z</datestamp>
      <setSpec>user-biosyslit</setSpec>
    </header>
    <header>
      <identifier>oai:zenodo.org:250569</identifier>
      <datestamp>2017-01-18T12:28:28Z</datestamp>
      <setSpec>user-biosyslit</setSpec>
    </header>
    <header>
      <identifier>oai:zenodo.org:251611</identifier>
      <datestamp>2017-01-19T02:46:39Z</datestamp>
      <setSpec>user-biosyslit</setSpec>
    </header>
    <header>
      <identifier>oai:zenodo.org:250149</identifier>
      <datestamp>2017-01-18T05:28:50Z</datestamp>
      <setSpec>user-biosyslit</setSpec>
    </header>
    <header>
      <identifier>oai:zenodo.org:251331</identifier>
      <datestamp>2017-01-18T21:21:53Z</datestamp>
      <setSpec>user-biosyslit</setSpec>
    </header>
    <header>
      <identifier>oai:zenodo.org:250291</identifier>
      <datestamp>2017-01-18T08:12:50Z</datestamp>
      <setSpec>user-biosyslit</setSpec>
    </header>
    <header>
      <identifier>oai:zenodo.org:251520</identifier>
      <datestamp>2017-01-19T01:35:12Z</datestamp>
      <setSpec>user-biosyslit</setSpec>
    </header>
    <header>
      <identifier>oai:zenodo.org:251629</identifier>
      <datestamp>2017-01-19T02:47:45Z</datestamp>
      <setSpec>user-biosyslit</setSpec>
    </header>
    <header>
      <identifier>oai:zenodo.org:272588</identifier>
      <datestamp>2017-02-08T05:18:26Z</datestamp>
      <setSpec>user-biosyslit</setSpec>
    </header>
    <header>
      <identifier>oai:zenodo.org:273088</identifier>
      <datestamp>2017-02-08T07:09:06Z</datestamp>
      <setSpec>user-biosyslit</setSpec>
    </header>
    <header>
      <identifier>oai:zenodo.org:251161</identifier>
      <datestamp>2017-01-18T19:31:43Z</datestamp>
      <setSpec>user-biosyslit</setSpec>
    </header>
    <header>
      <identifier>oai:zenodo.org:250905</identifier>
      <datestamp>2017-01-18T16:12:17Z</datestamp>
      <setSpec>user-biosyslit</setSpec>
    </header>
    <header>
      <identifier>oai:zenodo.org:272749</identifier>
      <datestamp>2017-02-08T06:16:38Z</datestamp>
      <setSpec>user-biosyslit</setSpec>
    </header>
    <header>
      <identifier>oai:zenodo.org:251105</identifier>
      <datestamp>2017-01-18T18:44:30Z</datestamp>
      <setSpec>user-biosyslit</setSpec>
    </header>
    <header>
      <identifier>oai:zenodo.org:272915</identifier>
      <datestamp>2017-02-08T06:33:51Z</datestamp>
      <setSpec>user-biosyslit</setSpec>
    </header>
    <header>
      <identifier>oai:zenodo.org:251693</identifier>
      <datestamp>2017-01-19T03:29:24Z</datestamp>
      <setSpec>user-biosyslit</setSpec>
    </header>
    <header>
      <identifier>oai:zenodo.org:273061</identifier>
      <datestamp>2017-02-08T07:00:29Z</datestamp>
      <setSpec>user-biosyslit</setSpec>
    </header>
    <header>
      <identifier>oai:zenodo.org:251669</identifier>
      <datestamp>2017-01-19T03:28:02Z</datestamp>
      <setSpec>user-biosyslit</setSpec>
    </header>
    <header>
      <identifier>oai:zenodo.org:273117</identifier>
      <datestamp>2017-02-08T07:10:37Z</datestamp>
      <setSpec>user-biosyslit</setSpec>
    </header>
    <header>
      <identifier>oai:zenodo.org:272881</identifier>
      <datestamp>2017-02-08T06:31:59Z</datestamp>
      <setSpec>user-biosyslit</setSpec>
    </header>
    <header>
      <identifier>oai:zenodo.org:250635</identifier>
      <datestamp>2017-01-18T13:14:52Z</datestamp>
      <setSpec>user-biosyslit</setSpec>
    </header>
    <header>
      <identifier>oai:zenodo.org:272521</identifier>
      <datestamp>2017-02-08T05:00:09Z</datestamp>
      <setSpec>user-biosyslit</setSpec>
    </header>
    <header>
      <identifier>oai:zenodo.org:249919</identifier>
      <datestamp>2017-01-18T01:40:45Z</datestamp>
      <setSpec>user-biosyslit</setSpec>
    </header>
    <header>
      <identifier>oai:zenodo.org:249944</identifier>
      <datestamp>2017-01-18T02:42:55Z</datestamp>
      <setSpec>user-biosyslit</setSpec>
    </header>
    <header>
      <identifier>oai:zenodo.org:251638</identifier>
      <datestamp>2017-01-19T02:48:19Z</datestamp>
      <setSpec>user-biosyslit</setSpec>
    </header>
    <header>
      <identifier>oai:zenodo.org:250902</identifier>
      <datestamp>2017-01-18T16:12:03Z</datestamp>
      <setSpec>user-biosyslit</setSpec>
    </header>
    <header>
      <identifier>oai:zenodo.org:251108</identifier>
      <datestamp>2017-01-18T18:44:38Z</datestamp>
      <setSpec>user-biosyslit</setSpec>
    </header>
    <header>
      <identifier>oai:zenodo.org:250071</identifier>
      <datestamp>2017-01-18T04:23:17Z</datestamp>
      <setSpec>user-biosyslit</setSpec>
    </header>
    <header>
      <identifier>oai:zenodo.org:250228</identifier>
      <datestamp>2017-01-18T07:17:20Z</datestamp>
      <setSpec>user-biosyslit</setSpec>
    </header>
    <header>
      <identifier>oai:zenodo.org:251264</identifier>
      <datestamp>2017-01-18T20:43:17Z</datestamp>
      <setSpec>user-biosyslit</setSpec>
    </header>
    <header>
      <identifier>oai:zenodo.org:250331</identifier>
      <datestamp>2017-01-18T08:30:58Z</datestamp>
      <setSpec>user-biosyslit</setSpec>
    </header>
    <header>
      <identifier>oai:zenodo.org:251601</identifier>
      <datestamp>2017-01-19T02:46:01Z</datestamp>
      <setSpec>user-biosyslit</setSpec>
    </header>
    <header>
      <identifier>oai:zenodo.org:250696</identifier>
      <datestamp>2017-01-18T14:04:24Z</datestamp>
      <setSpec>user-biosyslit</setSpec>
    </header>
    <header>
      <identifier>oai:zenodo.org:273045</identifier>
      <datestamp>2017-02-08T06:59:47Z</datestamp>
      <setSpec>user-biosyslit</setSpec>
    </header>
    <header>
      <identifier>oai:zenodo.org:273018</identifier>
      <datestamp>2017-02-08T06:58:35Z</datestamp>
      <setSpec>user-biosyslit</setSpec>
    </header>
    <header>
      <identifier>oai:zenodo.org:250693</identifier>
      <datestamp>2017-01-18T14:04:11Z</datestamp>
      <setSpec>user-biosyslit</setSpec>
    </header>
    <header>
      <identifier>oai:zenodo.org:250686</identifier>
      <datestamp>2017-01-18T14:03:48Z</datestamp>
      <setSpec>user-biosyslit</setSpec>
    </header>
    <header>
      <identifier>oai:zenodo.org:251300</identifier>
      <datestamp>2017-01-18T21:20:01Z</datestamp>
      <setSpec>user-biosyslit</setSpec>
    </header>
    <header>
      <identifier>oai:zenodo.org:250837</identifier>
      <datestamp>2017-01-18T15:25:44Z</datestamp>
      <setSpec>user-biosyslit</setSpec>
    </header>
    <header>
      <identifier>oai:zenodo.org:251131</identifier>
      <datestamp>2017-01-18T19:12:38Z</datestamp>
      <setSpec>user-biosyslit</setSpec>
    </header>
    <header>
      <identifier>oai:zenodo.org:275483</identifier>
      <datestamp>2017-02-08T16:33:01Z</datestamp>
      <setSpec>user-biosyslit</setSpec>
    </header>
    <header>
      <identifier>oai:zenodo.org:273058</identifier>
      <datestamp>2017-02-08T07:00:19Z</datestamp>
      <setSpec>user-biosyslit</setSpec>
    </header>
    <header>
      <identifier>oai:zenodo.org:272636</identifier>
      <datestamp>2017-02-08T06:00:06Z</datestamp>
      <setSpec>user-biosyslit</setSpec>
    </header>
    <header>
      <identifier>oai:zenodo.org:251308</identifier>
      <datestamp>2017-01-18T21:20:27Z</datestamp>
      <setSpec>user-biosyslit</setSpec>
    </header>
    <header>
      <identifier>oai:zenodo.org:272799</identifier>
      <datestamp>2017-02-08T06:27:59Z</datestamp>
      <setSpec>user-biosyslit</setSpec>
    </header>
    <header>
      <identifier>oai:zenodo.org:272740</identifier>
      <datestamp>2017-02-08T06:16:12Z</datestamp>
      <setSpec>user-biosyslit</setSpec>
    </header>
    <header>
      <identifier>oai:zenodo.org:273108</identifier>
      <datestamp>2017-02-08T07:10:11Z</datestamp>
      <setSpec>user-biosyslit</setSpec>
    </header>
    <header>
      <identifier>oai:zenodo.org:251532</identifier>
      <datestamp>2017-01-19T01:35:50Z</datestamp>
      <setSpec>user-biosyslit</setSpec>
    </header>
    <header>
      <identifier>oai:zenodo.org:273116</identifier>
      <datestamp>2017-02-08T07:10:35Z</datestamp>
      <setSpec>user-biosyslit</setSpec>
    </header>
    <header>
      <identifier>oai:zenodo.org:251674</identifier>
      <datestamp>2017-01-19T03:28:20Z</datestamp>
      <setSpec>user-biosyslit</setSpec>
    </header>
    <header>
      <identifier>oai:zenodo.org:273104</identifier>
      <datestamp>2017-02-08T07:09:57Z</datestamp>
      <setSpec>user-biosyslit</setSpec>
    </header>
    <header>
      <identifier>oai:zenodo.org:276093</identifier>
      <datestamp>2017-02-08T18:07:16Z</datestamp>
      <setSpec>user-biosyslit</setSpec>
    </header>
    <header>
      <identifier>oai:zenodo.org:272830</identifier>
      <datestamp>2017-02-08T06:29:32Z</datestamp>
      <setSpec>user-biosyslit</setSpec>
    </header>
    <header>
      <identifier>oai:zenodo.org:251460</identifier>
      <datestamp>2017-01-19T00:39:37Z</datestamp>
      <setSpec>user-biosyslit</setSpec>
    </header>
    <header>
      <identifier>oai:zenodo.org:272962</identifier>
      <datestamp>2017-02-08T06:55:38Z</datestamp>
      <setSpec>user-biosyslit</setSpec>
    </header>
    <header>
      <identifier>oai:zenodo.org:275602</identifier>
      <datestamp>2017-02-08T16:46:37Z</datestamp>
      <setSpec>user-biosyslit</setSpec>
    </header>
    <header>
      <identifier>oai:zenodo.org:273098</identifier>
      <datestamp>2017-02-08T07:09:38Z</datestamp>
      <setSpec>user-biosyslit</setSpec>
    </header>
    <header>
      <identifier>oai:zenodo.org:251627</identifier>
      <datestamp>2017-01-19T02:47:39Z</datestamp>
      <setSpec>user-biosyslit</setSpec>
    </header>
    <header>
      <identifier>oai:zenodo.org:273185</identifier>
      <datestamp>2017-02-08T08:15:18Z</datestamp>
      <setSpec>user-biosyslit</setSpec>
    </header>
    <header>
      <identifier>oai:zenodo.org:273052</identifier>
      <datestamp>2017-02-08T07:00:05Z</datestamp>
      <setSpec>user-biosyslit</setSpec>
    </header>
    <header>
      <identifier>oai:zenodo.org:273283</identifier>
      <datestamp>2017-02-08T08:50:10Z</datestamp>
      <setSpec>user-biosyslit</setSpec>
    </header>
    <header>
      <identifier>oai:zenodo.org:273191</identifier>
      <datestamp>2017-02-08T08:26:12Z</datestamp>
      <setSpec>user-biosyslit</setSpec>
    </header>
    <header>
      <identifier>oai:zenodo.org:276090</identifier>
      <datestamp>2017-02-08T18:07:05Z</datestamp>
      <setSpec>user-biosyslit</setSpec>
    </header>
    <header>
      <identifier>oai:zenodo.org:251758</identifier>
      <datestamp>2017-01-19T04:22:03Z</datestamp>
      <setSpec>user-biosyslit</setSpec>
    </header>
    <header>
      <identifier>oai:zenodo.org:276279</identifier>
      <datestamp>2017-02-08T18:35:14Z</datestamp>
      <setSpec>user-biosyslit</setSpec>
    </header>
    <header>
      <identifier>oai:zenodo.org:273071</identifier>
      <datestamp>2017-02-08T07:00:57Z</datestamp>
      <setSpec>user-biosyslit</setSpec>
    </header>
    <header>
      <identifier>oai:zenodo.org:275930</identifier>
      <datestamp>2017-02-08T17:39:11Z</datestamp>
      <setSpec>user-biosyslit</setSpec>
    </header>
    <header>
      <identifier>oai:zenodo.org:252633</identifier>
      <datestamp>2017-01-19T17:48:30Z</datestamp>
      <setSpec>user-biosyslit</setSpec>
    </header>
    <header>
      <identifier>oai:zenodo.org:253662</identifier>
      <datestamp>2017-01-20T09:39:46Z</datestamp>
      <setSpec>user-biosyslit</setSpec>
    </header>
    <header>
      <identifier>oai:zenodo.org:252625</identifier>
      <datestamp>2017-01-19T17:48:07Z</datestamp>
      <setSpec>user-biosyslit</setSpec>
    </header>
    <header>
      <identifier>oai:zenodo.org:252021</identifier>
      <datestamp>2017-01-19T07:22:19Z</datestamp>
      <setSpec>user-biosyslit</setSpec>
    </header>
    <header>
      <identifier>oai:zenodo.org:252194</identifier>
      <datestamp>2017-01-19T10:29:56Z</datestamp>
      <setSpec>user-biosyslit</setSpec>
    </header>
    <header>
      <identifier>oai:zenodo.org:252080</identifier>
      <datestamp>2017-01-19T08:55:31Z</datestamp>
      <setSpec>user-biosyslit</setSpec>
    </header>
    <header>
      <identifier>oai:zenodo.org:252429</identifier>
      <datestamp>2017-01-19T14:27:32Z</datestamp>
      <setSpec>user-biosyslit</setSpec>
    </header>
    <header>
      <identifier>oai:zenodo.org:252109</identifier>
      <datestamp>2017-01-19T09:21:37Z</datestamp>
      <setSpec>user-biosyslit</setSpec>
    </header>
    <header>
      <identifier>oai:zenodo.org:252111</identifier>
      <datestamp>2017-01-19T09:21:44Z</datestamp>
      <setSpec>user-biosyslit</setSpec>
    </header>
    <header>
      <identifier>oai:zenodo.org:252460</identifier>
      <datestamp>2017-01-23T04:15:12Z</datestamp>
      <setSpec>openaire</setSpec>
      <setSpec>user-biosyslit</setSpec>
    </header>
    <header>
      <identifier>oai:zenodo.org:252140</identifier>
      <datestamp>2017-01-19T09:41:27Z</datestamp>
      <setSpec>user-biosyslit</setSpec>
    </header>
    <header>
      <identifier>oai:zenodo.org:252088</identifier>
      <datestamp>2017-01-19T08:55:55Z</datestamp>
      <setSpec>user-biosyslit</setSpec>
    </header>
    <header>
      <identifier>oai:zenodo.org:252763</identifier>
      <datestamp>2017-01-19T19:33:49Z</datestamp>
      <setSpec>user-biosyslit</setSpec>
    </header>
    <header>
      <identifier>oai:zenodo.org:252454</identifier>
      <datestamp>2017-01-19T14:41:59Z</datestamp>
      <setSpec>user-biosyslit</setSpec>
    </header>
    <header>
      <identifier>oai:zenodo.org:253812</identifier>
      <datestamp>2017-01-20T11:28:15Z</datestamp>
      <setSpec>user-biosyslit</setSpec>
    </header>
    <header>
      <identifier>oai:zenodo.org:252660</identifier>
      <datestamp>2017-01-19T18:15:40Z</datestamp>
      <setSpec>user-biosyslit</setSpec>
    </header>
    <header>
      <identifier>oai:zenodo.org:252489</identifier>
      <datestamp>2017-01-19T15:02:40Z</datestamp>
      <setSpec>user-biosyslit</setSpec>
    </header>
    <header>
      <identifier>oai:zenodo.org:253564</identifier>
      <datestamp>2017-01-20T08:25:19Z</datestamp>
      <setSpec>user-biosyslit</setSpec>
    </header>
    <header>
      <identifier>oai:zenodo.org:253105</identifier>
      <datestamp>2017-01-20T02:33:41Z</datestamp>
      <setSpec>user-biosyslit</setSpec>
    </header>
    <header>
      <identifier>oai:zenodo.org:252759</identifier>
      <datestamp>2017-01-19T19:33:39Z</datestamp>
      <setSpec>user-biosyslit</setSpec>
    </header>
    <header>
      <identifier>oai:zenodo.org:252666</identifier>
      <datestamp>2017-01-19T18:15:57Z</datestamp>
      <setSpec>user-biosyslit</setSpec>
    </header>
    <header>
      <identifier>oai:zenodo.org:247557</identifier>
      <datestamp>2017-01-16T17:02:21Z</datestamp>
      <setSpec>user-biosyslit</setSpec>
    </header>
    <header>
      <identifier>oai:zenodo.org:248678</identifier>
      <datestamp>2017-01-17T08:12:22Z</datestamp>
      <setSpec>user-biosyslit</setSpec>
    </header>
    <header>
      <identifier>oai:zenodo.org:248092</identifier>
      <datestamp>2017-01-16T23:47:28Z</datestamp>
      <setSpec>user-biosyslit</setSpec>
    </header>
    <header>
      <identifier>oai:zenodo.org:248139</identifier>
      <datestamp>2017-01-17T00:26:29Z</datestamp>
      <setSpec>user-biosyslit</setSpec>
    </header>
    <header>
      <identifier>oai:zenodo.org:248296</identifier>
      <datestamp>2017-01-17T02:17:50Z</datestamp>
      <setSpec>user-biosyslit</setSpec>
    </header>
    <header>
      <identifier>oai:zenodo.org:226738</identifier>
      <datestamp>2017-01-01T02:48:00Z</datestamp>
      <setSpec>user-biosyslit</setSpec>
    </header>
    <header>
      <identifier>oai:zenodo.org:248669</identifier>
      <datestamp>2017-01-17T08:08:48Z</datestamp>
      <setSpec>user-biosyslit</setSpec>
    </header>
    <resumptionToken expirationDate="2017-08-31T15:46:52Z" cursor="55900" completeListSize="77796">.eJyNz8EOQzAAgOF36VmWtkxNsoswcUDoCC6LIWLKRLeg4t3nsvN2_r_LvwJeVSXQ4UHFCsaIQIWcVKJpSAK8GJ-M3Zo9gyKJWdGzKLfjd9jFMMU18Uw-u2Yqe6KFfocEvQQ4QdocNXAJrtErFeEcy85EoUVcESzew9ldKfs2y-72QKPeYBSXo28FC0UGzeTi69CfTvx0Jj8DCQx5XQH9qO5X7ZSPNQf6um0fn7hRQQ.DInAdA.Y-dxo1YxyrHh7LosCTDLa2QxAeg</resumptionToken>
  </ListIdentifiers>
</OAI-PMH>
