<?xml version='1.0' encoding='UTF-8'?>
<?xml-stylesheet type="text/xsl" href="/static/xsl/oai2.v1.0.xsl"?>
<OAI-PMH xmlns="http://www.openarchives.org/OAI/2.0/" xmlns:xsi="http://www.w3.org/2001/XMLSchema-instance" xsi:schemaLocation="http://www.openarchives.org/OAI/2.0/ http://www.openarchives.org/OAI/2.0/OAI-PMH.xsd">
  <responseDate>2017-08-31T15:46:26Z</responseDate>
  <request verb="ListIdentifiers" resumptionToken=".eJyNyssKgkAUANB_uWuJuY7kA9qIJi5SdFLUTZiKlNMDp1BH_PfctK71OTOIpqnBIhsNcUvRQB1NU6OogKj6B-eny6pQZSmv7jwpvfQd31KSq60eOGI8ODkNZEfCG0q2j9QMjTG5kCk6Jq9cxmNK_YERVz_IaAqu_vpqGnq8OHtPltxtztS6D91oYmizglbfh38--fM5YgcKPMu2AUvfGgp0Q9m3Aqx5WT5h9lEL.DInA0g.BI8fJiUPTHMTqOYGsBQRAoelRqA">https://zenodo.org/oai2d</request>
  <ListIdentifiers>
    <header>
      <identifier>oai:zenodo.org:831026</identifier>
      <datestamp>2017-07-17T17:21:42Z</datestamp>
      <setSpec>user-biosyslit</setSpec>
    </header>
    <header>
      <identifier>oai:zenodo.org:831648</identifier>
      <datestamp>2017-07-18T15:14:44Z</datestamp>
      <setSpec>user-biosyslit</setSpec>
    </header>
    <header>
      <identifier>oai:zenodo.org:831644</identifier>
      <datestamp>2017-07-18T15:14:37Z</datestamp>
      <setSpec>user-biosyslit</setSpec>
    </header>
    <header>
      <identifier>oai:zenodo.org:831642</identifier>
      <datestamp>2017-07-18T15:14:33Z</datestamp>
      <setSpec>user-biosyslit</setSpec>
    </header>
    <header>
      <identifier>oai:zenodo.org:831646</identifier>
      <datestamp>2017-07-18T15:14:41Z</datestamp>
      <setSpec>user-biosyslit</setSpec>
    </header>
    <header>
      <identifier>oai:zenodo.org:831652</identifier>
      <datestamp>2017-07-18T15:14:51Z</datestamp>
      <setSpec>user-biosyslit</setSpec>
    </header>
    <header>
      <identifier>oai:zenodo.org:831757</identifier>
      <datestamp>2017-07-18T18:06:14Z</datestamp>
      <setSpec>user-biosyslit</setSpec>
    </header>
    <header>
      <identifier>oai:zenodo.org:831755</identifier>
      <datestamp>2017-07-18T18:06:11Z</datestamp>
      <setSpec>user-biosyslit</setSpec>
    </header>
    <header>
      <identifier>oai:zenodo.org:831807</identifier>
      <datestamp>2017-07-18T20:53:30Z</datestamp>
      <setSpec>user-biosyslit</setSpec>
    </header>
    <header>
      <identifier>oai:zenodo.org:831813</identifier>
      <datestamp>2017-07-18T20:53:18Z</datestamp>
      <setSpec>user-biosyslit</setSpec>
    </header>
    <header>
      <identifier>oai:zenodo.org:831811</identifier>
      <datestamp>2017-07-18T20:53:15Z</datestamp>
      <setSpec>user-biosyslit</setSpec>
    </header>
    <header>
      <identifier>oai:zenodo.org:831809</identifier>
      <datestamp>2017-07-18T20:53:12Z</datestamp>
      <setSpec>user-biosyslit</setSpec>
    </header>
    <header>
      <identifier>oai:zenodo.org:832214</identifier>
      <datestamp>2017-07-19T12:55:20Z</datestamp>
      <setSpec>user-biosyslit</setSpec>
    </header>
    <header>
      <identifier>oai:zenodo.org:832216</identifier>
      <datestamp>2017-07-19T12:55:25Z</datestamp>
      <setSpec>user-biosyslit</setSpec>
    </header>
    <header>
      <identifier>oai:zenodo.org:832218</identifier>
      <datestamp>2017-07-19T12:55:28Z</datestamp>
      <setSpec>user-biosyslit</setSpec>
    </header>
    <header>
      <identifier>oai:zenodo.org:832222</identifier>
      <datestamp>2017-07-19T12:55:37Z</datestamp>
      <setSpec>user-biosyslit</setSpec>
    </header>
    <header>
      <identifier>oai:zenodo.org:832228</identifier>
      <datestamp>2017-07-19T12:55:48Z</datestamp>
      <setSpec>user-biosyslit</setSpec>
    </header>
    <header>
      <identifier>oai:zenodo.org:832232</identifier>
      <datestamp>2017-07-19T12:55:54Z</datestamp>
      <setSpec>user-biosyslit</setSpec>
    </header>
    <header>
      <identifier>oai:zenodo.org:832234</identifier>
      <datestamp>2017-07-19T12:55:57Z</datestamp>
      <setSpec>user-biosyslit</setSpec>
    </header>
    <header>
      <identifier>oai:zenodo.org:814714</identifier>
      <datestamp>2017-06-20T10:06:15Z</datestamp>
      <setSpec>user-biosyslit</setSpec>
    </header>
    <header>
      <identifier>oai:zenodo.org:814706</identifier>
      <datestamp>2017-06-20T10:05:58Z</datestamp>
      <setSpec>user-biosyslit</setSpec>
    </header>
    <header>
      <identifier>oai:zenodo.org:814758</identifier>
      <datestamp>2017-06-20T10:07:52Z</datestamp>
      <setSpec>user-biosyslit</setSpec>
    </header>
    <header>
      <identifier>oai:zenodo.org:814734</identifier>
      <datestamp>2017-06-20T10:07:01Z</datestamp>
      <setSpec>user-biosyslit</setSpec>
    </header>
    <header>
      <identifier>oai:zenodo.org:814732</identifier>
      <datestamp>2017-06-20T10:06:50Z</datestamp>
      <setSpec>user-biosyslit</setSpec>
    </header>
    <header>
      <identifier>oai:zenodo.org:814754</identifier>
      <datestamp>2017-06-20T10:07:44Z</datestamp>
      <setSpec>user-biosyslit</setSpec>
    </header>
    <header>
      <identifier>oai:zenodo.org:814728</identifier>
      <datestamp>2017-06-20T10:06:43Z</datestamp>
      <setSpec>user-biosyslit</setSpec>
    </header>
    <header>
      <identifier>oai:zenodo.org:814756</identifier>
      <datestamp>2017-06-20T10:07:48Z</datestamp>
      <setSpec>user-biosyslit</setSpec>
    </header>
    <header>
      <identifier>oai:zenodo.org:814768</identifier>
      <datestamp>2017-06-20T10:08:14Z</datestamp>
      <setSpec>user-biosyslit</setSpec>
    </header>
    <header>
      <identifier>oai:zenodo.org:814762</identifier>
      <datestamp>2017-06-20T10:08:01Z</datestamp>
      <setSpec>user-biosyslit</setSpec>
    </header>
    <header>
      <identifier>oai:zenodo.org:814724</identifier>
      <datestamp>2017-06-20T10:06:36Z</datestamp>
      <setSpec>user-biosyslit</setSpec>
    </header>
    <header>
      <identifier>oai:zenodo.org:814704</identifier>
      <datestamp>2017-06-20T10:09:21Z</datestamp>
      <setSpec>user-biosyslit</setSpec>
    </header>
    <header>
      <identifier>oai:zenodo.org:801450</identifier>
      <datestamp>2017-05-31T13:06:28Z</datestamp>
      <setSpec>user-biosyslit</setSpec>
    </header>
    <header>
      <identifier>oai:zenodo.org:814784</identifier>
      <datestamp>2017-06-20T10:09:01Z</datestamp>
      <setSpec>user-biosyslit</setSpec>
    </header>
    <header>
      <identifier>oai:zenodo.org:814770</identifier>
      <datestamp>2017-06-20T10:08:18Z</datestamp>
      <setSpec>user-biosyslit</setSpec>
    </header>
    <header>
      <identifier>oai:zenodo.org:814786</identifier>
      <datestamp>2017-06-20T10:09:06Z</datestamp>
      <setSpec>user-biosyslit</setSpec>
    </header>
    <header>
      <identifier>oai:zenodo.org:283773</identifier>
      <datestamp>2017-02-09T09:41:26Z</datestamp>
      <setSpec>user-biosyslit</setSpec>
    </header>
    <header>
      <identifier>oai:zenodo.org:803956</identifier>
      <datestamp>2017-06-07T12:02:13Z</datestamp>
      <setSpec>user-biosyslit</setSpec>
    </header>
    <header>
      <identifier>oai:zenodo.org:803968</identifier>
      <datestamp>2017-06-07T12:02:34Z</datestamp>
      <setSpec>user-biosyslit</setSpec>
    </header>
    <header>
      <identifier>oai:zenodo.org:819918</identifier>
      <datestamp>2017-06-27T14:06:16Z</datestamp>
      <setSpec>user-biosyslit</setSpec>
    </header>
    <header>
      <identifier>oai:zenodo.org:819922</identifier>
      <datestamp>2017-06-27T14:05:45Z</datestamp>
      <setSpec>user-biosyslit</setSpec>
    </header>
    <header>
      <identifier>oai:zenodo.org:283774</identifier>
      <datestamp>2017-02-09T09:41:31Z</datestamp>
      <setSpec>user-biosyslit</setSpec>
    </header>
    <header>
      <identifier>oai:zenodo.org:819928</identifier>
      <datestamp>2017-06-27T14:06:12Z</datestamp>
      <setSpec>user-biosyslit</setSpec>
    </header>
    <header>
      <identifier>oai:zenodo.org:819924</identifier>
      <datestamp>2017-06-27T14:05:52Z</datestamp>
      <setSpec>user-biosyslit</setSpec>
    </header>
    <header>
      <identifier>oai:zenodo.org:283775</identifier>
      <datestamp>2017-02-09T09:41:35Z</datestamp>
      <setSpec>user-biosyslit</setSpec>
    </header>
    <header>
      <identifier>oai:zenodo.org:819920</identifier>
      <datestamp>2017-06-27T14:05:37Z</datestamp>
      <setSpec>user-biosyslit</setSpec>
    </header>
    <header>
      <identifier>oai:zenodo.org:283777</identifier>
      <datestamp>2017-02-09T09:41:47Z</datestamp>
      <setSpec>user-biosyslit</setSpec>
    </header>
    <header>
      <identifier>oai:zenodo.org:824156</identifier>
      <datestamp>2017-07-07T14:52:01Z</datestamp>
      <setSpec>user-biosyslit</setSpec>
    </header>
    <header>
      <identifier>oai:zenodo.org:824158</identifier>
      <datestamp>2017-07-07T14:52:04Z</datestamp>
      <setSpec>user-biosyslit</setSpec>
    </header>
    <header>
      <identifier>oai:zenodo.org:824152</identifier>
      <datestamp>2017-07-07T14:51:55Z</datestamp>
      <setSpec>user-biosyslit</setSpec>
    </header>
    <header>
      <identifier>oai:zenodo.org:824172</identifier>
      <datestamp>2017-07-07T14:52:29Z</datestamp>
      <setSpec>user-biosyslit</setSpec>
    </header>
    <header>
      <identifier>oai:zenodo.org:824168</identifier>
      <datestamp>2017-07-07T14:52:22Z</datestamp>
      <setSpec>user-biosyslit</setSpec>
    </header>
    <header>
      <identifier>oai:zenodo.org:824190</identifier>
      <datestamp>2017-07-07T14:52:56Z</datestamp>
      <setSpec>user-biosyslit</setSpec>
    </header>
    <header>
      <identifier>oai:zenodo.org:824160</identifier>
      <datestamp>2017-07-07T14:52:07Z</datestamp>
      <setSpec>user-biosyslit</setSpec>
    </header>
    <header>
      <identifier>oai:zenodo.org:824166</identifier>
      <datestamp>2017-07-07T14:52:18Z</datestamp>
      <setSpec>user-biosyslit</setSpec>
    </header>
    <header>
      <identifier>oai:zenodo.org:824170</identifier>
      <datestamp>2017-07-07T14:52:25Z</datestamp>
      <setSpec>user-biosyslit</setSpec>
    </header>
    <header>
      <identifier>oai:zenodo.org:839438</identifier>
      <datestamp>2017-08-06T09:24:36Z</datestamp>
      <setSpec>user-biosyslit</setSpec>
    </header>
    <header>
      <identifier>oai:zenodo.org:839440</identifier>
      <datestamp>2017-08-06T09:24:21Z</datestamp>
      <setSpec>user-biosyslit</setSpec>
    </header>
    <header>
      <identifier>oai:zenodo.org:839450</identifier>
      <datestamp>2017-08-06T09:25:47Z</datestamp>
      <setSpec>user-biosyslit</setSpec>
    </header>
    <header>
      <identifier>oai:zenodo.org:839448</identifier>
      <datestamp>2017-08-06T09:25:44Z</datestamp>
      <setSpec>user-biosyslit</setSpec>
    </header>
    <header>
      <identifier>oai:zenodo.org:839432</identifier>
      <datestamp>2017-08-06T09:20:19Z</datestamp>
      <setSpec>user-biosyslit</setSpec>
    </header>
    <header>
      <identifier>oai:zenodo.org:839410</identifier>
      <datestamp>2017-08-06T07:45:49Z</datestamp>
      <setSpec>user-biosyslit</setSpec>
    </header>
    <header>
      <identifier>oai:zenodo.org:839464</identifier>
      <datestamp>2017-08-06T09:26:11Z</datestamp>
      <setSpec>user-biosyslit</setSpec>
    </header>
    <header>
      <identifier>oai:zenodo.org:839492</identifier>
      <datestamp>2017-08-06T09:51:03Z</datestamp>
      <setSpec>user-biosyslit</setSpec>
    </header>
    <header>
      <identifier>oai:zenodo.org:839500</identifier>
      <datestamp>2017-08-06T09:50:44Z</datestamp>
      <setSpec>user-biosyslit</setSpec>
    </header>
    <header>
      <identifier>oai:zenodo.org:839498</identifier>
      <datestamp>2017-08-06T09:50:39Z</datestamp>
      <setSpec>user-biosyslit</setSpec>
    </header>
    <header>
      <identifier>oai:zenodo.org:839494</identifier>
      <datestamp>2017-08-06T09:50:31Z</datestamp>
      <setSpec>user-biosyslit</setSpec>
    </header>
    <header>
      <identifier>oai:zenodo.org:839502</identifier>
      <datestamp>2017-08-06T09:50:47Z</datestamp>
      <setSpec>user-biosyslit</setSpec>
    </header>
    <header>
      <identifier>oai:zenodo.org:839240</identifier>
      <datestamp>2017-08-05T11:49:02Z</datestamp>
      <setSpec>user-biosyslit</setSpec>
    </header>
    <header>
      <identifier>oai:zenodo.org:839280</identifier>
      <datestamp>2017-08-05T17:18:50Z</datestamp>
      <setSpec>user-biosyslit</setSpec>
    </header>
    <header>
      <identifier>oai:zenodo.org:839276</identifier>
      <datestamp>2017-08-05T17:16:30Z</datestamp>
      <setSpec>user-biosyslit</setSpec>
    </header>
    <header>
      <identifier>oai:zenodo.org:839282</identifier>
      <datestamp>2017-08-05T17:18:53Z</datestamp>
      <setSpec>user-biosyslit</setSpec>
    </header>
    <header>
      <identifier>oai:zenodo.org:839290</identifier>
      <datestamp>2017-08-05T17:19:07Z</datestamp>
      <setSpec>user-biosyslit</setSpec>
    </header>
    <header>
      <identifier>oai:zenodo.org:839294</identifier>
      <datestamp>2017-08-05T17:19:14Z</datestamp>
      <setSpec>user-biosyslit</setSpec>
    </header>
    <header>
      <identifier>oai:zenodo.org:839292</identifier>
      <datestamp>2017-08-05T17:19:11Z</datestamp>
      <setSpec>user-biosyslit</setSpec>
    </header>
    <header>
      <identifier>oai:zenodo.org:839306</identifier>
      <datestamp>2017-08-05T17:23:15Z</datestamp>
      <setSpec>user-biosyslit</setSpec>
    </header>
    <header>
      <identifier>oai:zenodo.org:839288</identifier>
      <datestamp>2017-08-05T17:19:04Z</datestamp>
      <setSpec>user-biosyslit</setSpec>
    </header>
    <header>
      <identifier>oai:zenodo.org:839284</identifier>
      <datestamp>2017-08-05T17:18:57Z</datestamp>
      <setSpec>user-biosyslit</setSpec>
    </header>
    <header>
      <identifier>oai:zenodo.org:839300</identifier>
      <datestamp>2017-08-05T17:23:06Z</datestamp>
      <setSpec>user-biosyslit</setSpec>
    </header>
    <header>
      <identifier>oai:zenodo.org:839302</identifier>
      <datestamp>2017-08-05T17:23:09Z</datestamp>
      <setSpec>user-biosyslit</setSpec>
    </header>
    <header>
      <identifier>oai:zenodo.org:839296</identifier>
      <datestamp>2017-08-05T17:23:28Z</datestamp>
      <setSpec>user-biosyslit</setSpec>
    </header>
    <header>
      <identifier>oai:zenodo.org:839319</identifier>
      <datestamp>2017-08-05T17:24:50Z</datestamp>
      <setSpec>user-biosyslit</setSpec>
    </header>
    <header>
      <identifier>oai:zenodo.org:839323</identifier>
      <datestamp>2017-08-05T17:24:34Z</datestamp>
      <setSpec>user-biosyslit</setSpec>
    </header>
    <header>
      <identifier>oai:zenodo.org:839321</identifier>
      <datestamp>2017-08-05T17:24:31Z</datestamp>
      <setSpec>user-biosyslit</setSpec>
    </header>
    <header>
      <identifier>oai:zenodo.org:839312</identifier>
      <datestamp>2017-08-05T17:23:23Z</datestamp>
      <setSpec>user-biosyslit</setSpec>
    </header>
    <header>
      <identifier>oai:zenodo.org:839314</identifier>
      <datestamp>2017-08-05T17:23:25Z</datestamp>
      <setSpec>user-biosyslit</setSpec>
    </header>
    <header>
      <identifier>oai:zenodo.org:839363</identifier>
      <datestamp>2017-08-05T21:33:20Z</datestamp>
      <setSpec>user-biosyslit</setSpec>
    </header>
    <header>
      <identifier>oai:zenodo.org:839359</identifier>
      <datestamp>2017-08-05T21:33:12Z</datestamp>
      <setSpec>user-biosyslit</setSpec>
    </header>
    <header>
      <identifier>oai:zenodo.org:839367</identifier>
      <datestamp>2017-08-05T21:33:31Z</datestamp>
      <setSpec>user-biosyslit</setSpec>
    </header>
    <header>
      <identifier>oai:zenodo.org:839377</identifier>
      <datestamp>2017-08-05T21:33:57Z</datestamp>
      <setSpec>user-biosyslit</setSpec>
    </header>
    <header>
      <identifier>oai:zenodo.org:839375</identifier>
      <datestamp>2017-08-05T21:33:53Z</datestamp>
      <setSpec>user-biosyslit</setSpec>
    </header>
    <header>
      <identifier>oai:zenodo.org:839373</identifier>
      <datestamp>2017-08-05T21:33:48Z</datestamp>
      <setSpec>user-biosyslit</setSpec>
    </header>
    <header>
      <identifier>oai:zenodo.org:839357</identifier>
      <datestamp>2017-08-05T21:34:06Z</datestamp>
      <setSpec>user-biosyslit</setSpec>
    </header>
    <header>
      <identifier>oai:zenodo.org:839402</identifier>
      <datestamp>2017-08-06T07:45:34Z</datestamp>
      <setSpec>user-biosyslit</setSpec>
    </header>
    <header>
      <identifier>oai:zenodo.org:839404</identifier>
      <datestamp>2017-08-06T07:45:38Z</datestamp>
      <setSpec>user-biosyslit</setSpec>
    </header>
    <header>
      <identifier>oai:zenodo.org:839406</identifier>
      <datestamp>2017-08-06T07:45:42Z</datestamp>
      <setSpec>user-biosyslit</setSpec>
    </header>
    <header>
      <identifier>oai:zenodo.org:839470</identifier>
      <datestamp>2017-08-06T09:46:47Z</datestamp>
      <setSpec>user-biosyslit</setSpec>
    </header>
    <header>
      <identifier>oai:zenodo.org:839446</identifier>
      <datestamp>2017-08-06T09:26:19Z</datestamp>
      <setSpec>user-biosyslit</setSpec>
    </header>
    <header>
      <identifier>oai:zenodo.org:839478</identifier>
      <datestamp>2017-08-06T09:46:10Z</datestamp>
      <setSpec>user-biosyslit</setSpec>
    </header>
    <header>
      <identifier>oai:zenodo.org:839476</identifier>
      <datestamp>2017-08-06T09:46:06Z</datestamp>
      <setSpec>user-biosyslit</setSpec>
    </header>
    <header>
      <identifier>oai:zenodo.org:839472</identifier>
      <datestamp>2017-08-06T09:45:56Z</datestamp>
      <setSpec>user-biosyslit</setSpec>
    </header>
    <resumptionToken expirationDate="2017-08-31T15:48:26Z" cursor="76700" completeListSize="77796">.eJyNyssKgkAUANB_uWuJeZgvaCOatFDRSUk3YSpSjiZOoY7077VpXetzVhB1XYGFNqpqaluVmIQYKkYYUQVEOd45P18_DuUp5WXPk8JLn3GXoow0euCI2XcyGsgWhR2WbB-REzbm5IqW6Jg8MhnPKT1MDLm6L6MluB0-r6Khx_OLN7Cktzkj1Ri60cKwzXJafh_-88mfzxE7UGAomhosXTMVaKdibARY6-v1Bsi9UXE.DInA0g.zN5Elvo_eaEiv8lOGaSxm4fSiRU</resumptionToken>
  </ListIdentifiers>
</OAI-PMH>
