<?xml version='1.0' encoding='UTF-8'?>
<?xml-stylesheet type="text/xsl" href="/static/xsl/oai2.v1.0.xsl"?>
<OAI-PMH xmlns="http://www.openarchives.org/OAI/2.0/" xmlns:xsi="http://www.w3.org/2001/XMLSchema-instance" xsi:schemaLocation="http://www.openarchives.org/OAI/2.0/ http://www.openarchives.org/OAI/2.0/OAI-PMH.xsd">
  <responseDate>2017-08-31T15:45:13Z</responseDate>
  <request verb="ListIdentifiers" resumptionToken=".eJyNyj0LgkAYAOD_8s4Sd57f0CKaOKjYpahLmIqYp4lXpBf991yaa36eF_CmqcFCO0VVEEaqoRMTa6ZJJODVfGPs3G0MVZayamRJ6aWP45CiXG710OFL4OQkFD2KBizoIZYzbCxJh9b4lNxzcVxS4j8pcvVAxGt49bdXk8hjxcWbaDLajMr1HLnxSrFNC1J9H_7ziZ_P4XuQYCrbBiwNyxL0z3JuOViv9_sDn4FRPg.DInAiQ.CVvNPwuWzlKVJwcY3XjMq-gTroI">https://zenodo.org/oai2d</request>
  <ListIdentifiers>
    <header>
      <identifier>oai:zenodo.org:243481</identifier>
      <datestamp>2017-01-14T06:17:17Z</datestamp>
      <setSpec>user-biosyslit</setSpec>
    </header>
    <header>
      <identifier>oai:zenodo.org:243482</identifier>
      <datestamp>2017-01-14T06:17:21Z</datestamp>
      <setSpec>user-biosyslit</setSpec>
    </header>
    <header>
      <identifier>oai:zenodo.org:239548</identifier>
      <datestamp>2017-01-11T22:04:40Z</datestamp>
      <setSpec>user-biosyslit</setSpec>
    </header>
    <header>
      <identifier>oai:zenodo.org:239547</identifier>
      <datestamp>2017-01-11T22:04:37Z</datestamp>
      <setSpec>user-biosyslit</setSpec>
    </header>
    <header>
      <identifier>oai:zenodo.org:239549</identifier>
      <datestamp>2017-01-11T22:04:43Z</datestamp>
      <setSpec>user-biosyslit</setSpec>
    </header>
    <header>
      <identifier>oai:zenodo.org:244052</identifier>
      <datestamp>2017-01-14T15:46:32Z</datestamp>
      <setSpec>user-biosyslit</setSpec>
    </header>
    <header>
      <identifier>oai:zenodo.org:235173</identifier>
      <datestamp>2017-01-09T06:23:27Z</datestamp>
      <setSpec>user-biosyslit</setSpec>
    </header>
    <header>
      <identifier>oai:zenodo.org:235169</identifier>
      <datestamp>2017-01-09T06:23:15Z</datestamp>
      <setSpec>user-biosyslit</setSpec>
    </header>
    <header>
      <identifier>oai:zenodo.org:235176</identifier>
      <datestamp>2017-01-09T06:23:37Z</datestamp>
      <setSpec>user-biosyslit</setSpec>
    </header>
    <header>
      <identifier>oai:zenodo.org:235170</identifier>
      <datestamp>2017-01-09T06:23:18Z</datestamp>
      <setSpec>user-biosyslit</setSpec>
    </header>
    <header>
      <identifier>oai:zenodo.org:235184</identifier>
      <datestamp>2017-01-09T06:24:12Z</datestamp>
      <setSpec>user-biosyslit</setSpec>
    </header>
    <header>
      <identifier>oai:zenodo.org:235180</identifier>
      <datestamp>2017-01-09T06:24:00Z</datestamp>
      <setSpec>user-biosyslit</setSpec>
    </header>
    <header>
      <identifier>oai:zenodo.org:235190</identifier>
      <datestamp>2017-01-09T06:24:35Z</datestamp>
      <setSpec>user-biosyslit</setSpec>
    </header>
    <header>
      <identifier>oai:zenodo.org:235181</identifier>
      <datestamp>2017-01-09T06:24:02Z</datestamp>
      <setSpec>user-biosyslit</setSpec>
    </header>
    <header>
      <identifier>oai:zenodo.org:235185</identifier>
      <datestamp>2017-01-09T06:24:15Z</datestamp>
      <setSpec>user-biosyslit</setSpec>
    </header>
    <header>
      <identifier>oai:zenodo.org:235178</identifier>
      <datestamp>2017-01-09T06:23:55Z</datestamp>
      <setSpec>user-biosyslit</setSpec>
    </header>
    <header>
      <identifier>oai:zenodo.org:235179</identifier>
      <datestamp>2017-01-09T06:23:57Z</datestamp>
      <setSpec>user-biosyslit</setSpec>
    </header>
    <header>
      <identifier>oai:zenodo.org:235177</identifier>
      <datestamp>2017-01-09T06:23:52Z</datestamp>
      <setSpec>user-biosyslit</setSpec>
    </header>
    <header>
      <identifier>oai:zenodo.org:235182</identifier>
      <datestamp>2017-01-09T06:24:05Z</datestamp>
      <setSpec>user-biosyslit</setSpec>
    </header>
    <header>
      <identifier>oai:zenodo.org:235166</identifier>
      <datestamp>2017-01-09T06:25:04Z</datestamp>
      <setSpec>user-biosyslit</setSpec>
    </header>
    <header>
      <identifier>oai:zenodo.org:235192</identifier>
      <datestamp>2017-01-09T06:24:41Z</datestamp>
      <setSpec>user-biosyslit</setSpec>
    </header>
    <header>
      <identifier>oai:zenodo.org:235197</identifier>
      <datestamp>2017-01-09T06:24:56Z</datestamp>
      <setSpec>user-biosyslit</setSpec>
    </header>
    <header>
      <identifier>oai:zenodo.org:235194</identifier>
      <datestamp>2017-01-09T06:24:47Z</datestamp>
      <setSpec>user-biosyslit</setSpec>
    </header>
    <header>
      <identifier>oai:zenodo.org:235199</identifier>
      <datestamp>2017-01-09T06:25:03Z</datestamp>
      <setSpec>user-biosyslit</setSpec>
    </header>
    <header>
      <identifier>oai:zenodo.org:235191</identifier>
      <datestamp>2017-01-09T06:24:38Z</datestamp>
      <setSpec>user-biosyslit</setSpec>
    </header>
    <header>
      <identifier>oai:zenodo.org:280773</identifier>
      <datestamp>2017-02-09T04:04:36Z</datestamp>
      <setSpec>user-biosyslit</setSpec>
    </header>
    <header>
      <identifier>oai:zenodo.org:280780</identifier>
      <datestamp>2017-02-09T04:04:28Z</datestamp>
      <setSpec>user-biosyslit</setSpec>
    </header>
    <header>
      <identifier>oai:zenodo.org:280775</identifier>
      <datestamp>2017-02-09T04:04:17Z</datestamp>
      <setSpec>user-biosyslit</setSpec>
    </header>
    <header>
      <identifier>oai:zenodo.org:280778</identifier>
      <datestamp>2017-02-09T04:04:23Z</datestamp>
      <setSpec>user-biosyslit</setSpec>
    </header>
    <header>
      <identifier>oai:zenodo.org:280782</identifier>
      <datestamp>2017-02-09T04:04:32Z</datestamp>
      <setSpec>user-biosyslit</setSpec>
    </header>
    <header>
      <identifier>oai:zenodo.org:250729</identifier>
      <datestamp>2017-01-18T14:49:59Z</datestamp>
      <setSpec>user-biosyslit</setSpec>
    </header>
    <header>
      <identifier>oai:zenodo.org:304481</identifier>
      <datestamp>2017-02-20T22:23:50Z</datestamp>
      <setSpec>user-biosyslit</setSpec>
    </header>
    <header>
      <identifier>oai:zenodo.org:304484</identifier>
      <datestamp>2017-02-20T22:23:52Z</datestamp>
      <setSpec>user-biosyslit</setSpec>
    </header>
    <header>
      <identifier>oai:zenodo.org:304505</identifier>
      <datestamp>2017-02-20T22:24:03Z</datestamp>
      <setSpec>user-biosyslit</setSpec>
    </header>
    <header>
      <identifier>oai:zenodo.org:304502</identifier>
      <datestamp>2017-02-20T22:24:01Z</datestamp>
      <setSpec>user-biosyslit</setSpec>
    </header>
    <header>
      <identifier>oai:zenodo.org:304490</identifier>
      <datestamp>2017-02-20T22:23:57Z</datestamp>
      <setSpec>user-biosyslit</setSpec>
    </header>
    <header>
      <identifier>oai:zenodo.org:304495</identifier>
      <datestamp>2017-02-20T22:23:59Z</datestamp>
      <setSpec>user-biosyslit</setSpec>
    </header>
    <header>
      <identifier>oai:zenodo.org:283552</identifier>
      <datestamp>2017-02-09T09:10:54Z</datestamp>
      <setSpec>user-biosyslit</setSpec>
    </header>
    <header>
      <identifier>oai:zenodo.org:250747</identifier>
      <datestamp>2017-01-18T14:50:44Z</datestamp>
      <setSpec>user-biosyslit</setSpec>
    </header>
    <header>
      <identifier>oai:zenodo.org:250731</identifier>
      <datestamp>2017-01-18T14:50:04Z</datestamp>
      <setSpec>user-biosyslit</setSpec>
    </header>
    <header>
      <identifier>oai:zenodo.org:250746</identifier>
      <datestamp>2017-01-18T14:50:41Z</datestamp>
      <setSpec>user-biosyslit</setSpec>
    </header>
    <header>
      <identifier>oai:zenodo.org:250750</identifier>
      <datestamp>2017-01-18T14:50:50Z</datestamp>
      <setSpec>user-biosyslit</setSpec>
    </header>
    <header>
      <identifier>oai:zenodo.org:250738</identifier>
      <datestamp>2017-01-18T14:50:21Z</datestamp>
      <setSpec>user-biosyslit</setSpec>
    </header>
    <header>
      <identifier>oai:zenodo.org:250753</identifier>
      <datestamp>2017-01-18T14:50:58Z</datestamp>
      <setSpec>user-biosyslit</setSpec>
    </header>
    <header>
      <identifier>oai:zenodo.org:250734</identifier>
      <datestamp>2017-01-18T14:50:11Z</datestamp>
      <setSpec>user-biosyslit</setSpec>
    </header>
    <header>
      <identifier>oai:zenodo.org:250737</identifier>
      <datestamp>2017-01-18T14:50:18Z</datestamp>
      <setSpec>user-biosyslit</setSpec>
    </header>
    <header>
      <identifier>oai:zenodo.org:250742</identifier>
      <datestamp>2017-01-18T14:50:31Z</datestamp>
      <setSpec>user-biosyslit</setSpec>
    </header>
    <header>
      <identifier>oai:zenodo.org:250765</identifier>
      <datestamp>2017-01-18T14:51:26Z</datestamp>
      <setSpec>user-biosyslit</setSpec>
    </header>
    <header>
      <identifier>oai:zenodo.org:250766</identifier>
      <datestamp>2017-01-18T14:51:32Z</datestamp>
      <setSpec>user-biosyslit</setSpec>
    </header>
    <header>
      <identifier>oai:zenodo.org:250761</identifier>
      <datestamp>2017-01-18T14:51:17Z</datestamp>
      <setSpec>user-biosyslit</setSpec>
    </header>
    <header>
      <identifier>oai:zenodo.org:250754</identifier>
      <datestamp>2017-01-18T14:51:01Z</datestamp>
      <setSpec>user-biosyslit</setSpec>
    </header>
    <header>
      <identifier>oai:zenodo.org:250757</identifier>
      <datestamp>2017-01-18T14:51:08Z</datestamp>
      <setSpec>user-biosyslit</setSpec>
    </header>
    <header>
      <identifier>oai:zenodo.org:250764</identifier>
      <datestamp>2017-01-18T14:51:24Z</datestamp>
      <setSpec>user-biosyslit</setSpec>
    </header>
    <header>
      <identifier>oai:zenodo.org:250763</identifier>
      <datestamp>2017-01-18T14:51:21Z</datestamp>
      <setSpec>user-biosyslit</setSpec>
    </header>
    <header>
      <identifier>oai:zenodo.org:250760</identifier>
      <datestamp>2017-01-18T14:51:15Z</datestamp>
      <setSpec>user-biosyslit</setSpec>
    </header>
    <header>
      <identifier>oai:zenodo.org:250756</identifier>
      <datestamp>2017-01-18T14:51:06Z</datestamp>
      <setSpec>user-biosyslit</setSpec>
    </header>
    <header>
      <identifier>oai:zenodo.org:250777</identifier>
      <datestamp>2017-01-18T14:51:58Z</datestamp>
      <setSpec>user-biosyslit</setSpec>
    </header>
    <header>
      <identifier>oai:zenodo.org:250775</identifier>
      <datestamp>2017-01-18T14:51:54Z</datestamp>
      <setSpec>user-biosyslit</setSpec>
    </header>
    <header>
      <identifier>oai:zenodo.org:250770</identifier>
      <datestamp>2017-01-18T14:51:44Z</datestamp>
      <setSpec>user-biosyslit</setSpec>
    </header>
    <header>
      <identifier>oai:zenodo.org:250769</identifier>
      <datestamp>2017-01-18T14:51:41Z</datestamp>
      <setSpec>user-biosyslit</setSpec>
    </header>
    <header>
      <identifier>oai:zenodo.org:250776</identifier>
      <datestamp>2017-01-18T14:51:56Z</datestamp>
      <setSpec>user-biosyslit</setSpec>
    </header>
    <header>
      <identifier>oai:zenodo.org:250773</identifier>
      <datestamp>2017-01-18T14:51:49Z</datestamp>
      <setSpec>user-biosyslit</setSpec>
    </header>
    <header>
      <identifier>oai:zenodo.org:250767</identifier>
      <datestamp>2017-01-18T14:51:35Z</datestamp>
      <setSpec>user-biosyslit</setSpec>
    </header>
    <header>
      <identifier>oai:zenodo.org:250779</identifier>
      <datestamp>2017-01-18T14:52:02Z</datestamp>
      <setSpec>user-biosyslit</setSpec>
    </header>
    <header>
      <identifier>oai:zenodo.org:250772</identifier>
      <datestamp>2017-01-18T14:51:47Z</datestamp>
      <setSpec>user-biosyslit</setSpec>
    </header>
    <header>
      <identifier>oai:zenodo.org:250784</identifier>
      <datestamp>2017-01-18T14:52:14Z</datestamp>
      <setSpec>user-biosyslit</setSpec>
    </header>
    <header>
      <identifier>oai:zenodo.org:250790</identifier>
      <datestamp>2017-01-18T14:52:28Z</datestamp>
      <setSpec>user-biosyslit</setSpec>
    </header>
    <header>
      <identifier>oai:zenodo.org:250780</identifier>
      <datestamp>2017-01-18T14:52:04Z</datestamp>
      <setSpec>user-biosyslit</setSpec>
    </header>
    <header>
      <identifier>oai:zenodo.org:250783</identifier>
      <datestamp>2017-01-18T14:52:11Z</datestamp>
      <setSpec>user-biosyslit</setSpec>
    </header>
    <header>
      <identifier>oai:zenodo.org:250785</identifier>
      <datestamp>2017-01-18T14:52:17Z</datestamp>
      <setSpec>user-biosyslit</setSpec>
    </header>
    <header>
      <identifier>oai:zenodo.org:250792</identifier>
      <datestamp>2017-01-18T14:52:33Z</datestamp>
      <setSpec>user-biosyslit</setSpec>
    </header>
    <header>
      <identifier>oai:zenodo.org:250781</identifier>
      <datestamp>2017-01-18T14:52:07Z</datestamp>
      <setSpec>user-biosyslit</setSpec>
    </header>
    <header>
      <identifier>oai:zenodo.org:250794</identifier>
      <datestamp>2017-01-18T14:52:42Z</datestamp>
      <setSpec>user-biosyslit</setSpec>
    </header>
    <header>
      <identifier>oai:zenodo.org:250788</identifier>
      <datestamp>2017-01-18T14:52:24Z</datestamp>
      <setSpec>user-biosyslit</setSpec>
    </header>
    <header>
      <identifier>oai:zenodo.org:250808</identifier>
      <datestamp>2017-01-18T14:53:18Z</datestamp>
      <setSpec>user-biosyslit</setSpec>
    </header>
    <header>
      <identifier>oai:zenodo.org:250805</identifier>
      <datestamp>2017-01-18T14:53:09Z</datestamp>
      <setSpec>user-biosyslit</setSpec>
    </header>
    <header>
      <identifier>oai:zenodo.org:250804</identifier>
      <datestamp>2017-01-18T14:53:06Z</datestamp>
      <setSpec>user-biosyslit</setSpec>
    </header>
    <header>
      <identifier>oai:zenodo.org:250817</identifier>
      <datestamp>2017-01-18T14:53:44Z</datestamp>
      <setSpec>user-biosyslit</setSpec>
    </header>
    <header>
      <identifier>oai:zenodo.org:250810</identifier>
      <datestamp>2017-01-18T14:53:23Z</datestamp>
      <setSpec>user-biosyslit</setSpec>
    </header>
    <header>
      <identifier>oai:zenodo.org:250814</identifier>
      <datestamp>2017-01-18T14:53:35Z</datestamp>
      <setSpec>user-biosyslit</setSpec>
    </header>
    <header>
      <identifier>oai:zenodo.org:250807</identifier>
      <datestamp>2017-01-18T14:53:15Z</datestamp>
      <setSpec>user-biosyslit</setSpec>
    </header>
    <header>
      <identifier>oai:zenodo.org:250806</identifier>
      <datestamp>2017-01-18T14:53:12Z</datestamp>
      <setSpec>user-biosyslit</setSpec>
    </header>
    <header>
      <identifier>oai:zenodo.org:256592</identifier>
      <datestamp>2017-01-22T18:17:11Z</datestamp>
      <setSpec>user-biosyslit</setSpec>
    </header>
    <header>
      <identifier>oai:zenodo.org:238932</identifier>
      <datestamp>2017-01-11T12:48:17Z</datestamp>
      <setSpec>user-biosyslit</setSpec>
    </header>
    <header>
      <identifier>oai:zenodo.org:238936</identifier>
      <datestamp>2017-01-11T12:48:29Z</datestamp>
      <setSpec>user-biosyslit</setSpec>
    </header>
    <header>
      <identifier>oai:zenodo.org:238935</identifier>
      <datestamp>2017-01-11T12:48:25Z</datestamp>
      <setSpec>user-biosyslit</setSpec>
    </header>
    <header>
      <identifier>oai:zenodo.org:273985</identifier>
      <datestamp>2017-02-08T11:44:06Z</datestamp>
      <setSpec>user-biosyslit</setSpec>
    </header>
    <header>
      <identifier>oai:zenodo.org:273986</identifier>
      <datestamp>2017-02-08T11:44:09Z</datestamp>
      <setSpec>user-biosyslit</setSpec>
    </header>
    <header>
      <identifier>oai:zenodo.org:273983</identifier>
      <datestamp>2017-02-08T11:44:01Z</datestamp>
      <setSpec>user-biosyslit</setSpec>
    </header>
    <header>
      <identifier>oai:zenodo.org:273984</identifier>
      <datestamp>2017-02-08T11:44:04Z</datestamp>
      <setSpec>user-biosyslit</setSpec>
    </header>
    <header>
      <identifier>oai:zenodo.org:273982</identifier>
      <datestamp>2017-02-08T11:43:59Z</datestamp>
      <setSpec>user-biosyslit</setSpec>
    </header>
    <header>
      <identifier>oai:zenodo.org:273981</identifier>
      <datestamp>2017-02-08T11:44:31Z</datestamp>
      <setSpec>user-biosyslit</setSpec>
    </header>
    <header>
      <identifier>oai:zenodo.org:273990</identifier>
      <datestamp>2017-02-08T11:44:20Z</datestamp>
      <setSpec>user-biosyslit</setSpec>
    </header>
    <header>
      <identifier>oai:zenodo.org:273992</identifier>
      <datestamp>2017-02-08T11:44:29Z</datestamp>
      <setSpec>user-biosyslit</setSpec>
    </header>
    <header>
      <identifier>oai:zenodo.org:273991</identifier>
      <datestamp>2017-02-08T11:44:24Z</datestamp>
      <setSpec>user-biosyslit</setSpec>
    </header>
    <header>
      <identifier>oai:zenodo.org:273989</identifier>
      <datestamp>2017-02-08T11:44:17Z</datestamp>
      <setSpec>user-biosyslit</setSpec>
    </header>
    <header>
      <identifier>oai:zenodo.org:273988</identifier>
      <datestamp>2017-02-08T11:44:15Z</datestamp>
      <setSpec>user-biosyslit</setSpec>
    </header>
    <header>
      <identifier>oai:zenodo.org:282464</identifier>
      <datestamp>2017-02-09T07:02:49Z</datestamp>
      <setSpec>user-biosyslit</setSpec>
    </header>
    <header>
      <identifier>oai:zenodo.org:282461</identifier>
      <datestamp>2017-02-09T07:02:41Z</datestamp>
      <setSpec>user-biosyslit</setSpec>
    </header>
    <header>
      <identifier>oai:zenodo.org:282462</identifier>
      <datestamp>2017-02-09T07:02:43Z</datestamp>
      <setSpec>user-biosyslit</setSpec>
    </header>
    <resumptionToken expirationDate="2017-08-31T15:47:13Z" cursor="61100" completeListSize="77796">.eJyNzz0LgkAcgPHv8p8l7sUyhRbRxEFFLyVdwlTEPE28Qr3ou-fSXPPzW54XiKoqwUAbSqi-w1Td6irRCNE1BUQx3jm_NGuH4pzwoudx7iTPqEtQSmrNt8TsWSn1ZYuCDkt2DMkZ7-e4QUt4ih-pjOaEuhNDtubJcPFv7upKGjg8uzoDi3uTM1KOgR0uDJsso8XX4T-d_OkscQAFhryuwFj_FGinfKwFGK_3-wPUQ1Fz.DInAiQ.QAeWrp_i0LhOBHtw9PNWdFl6UfE</resumptionToken>
  </ListIdentifiers>
</OAI-PMH>
