<?xml version='1.0' encoding='UTF-8'?>
<?xml-stylesheet type="text/xsl" href="/static/xsl/oai2.v1.0.xsl"?>
<OAI-PMH xmlns="http://www.openarchives.org/OAI/2.0/" xmlns:xsi="http://www.w3.org/2001/XMLSchema-instance" xsi:schemaLocation="http://www.openarchives.org/OAI/2.0/ http://www.openarchives.org/OAI/2.0/OAI-PMH.xsd">
  <responseDate>2017-08-31T15:46:10Z</responseDate>
  <request verb="ListIdentifiers" resumptionToken=".eJyNz8EOQzAAgOF36VmWahdFssvCxAGhq-CyGCKmTHQLKt59Ljtv5_-7_CsQVVUCEx4I0rABiXbUETIMpClAFOOT81uzZ1AkMS96znInfkddDFNUE98Ss2el2JctDDpV0kuIElWfWQOX8MpeqYzmGLsThTbxZLj4D3d3JQ4cnt2dgbL-zCkqx8AOF6qeaYaLr1P_dPKns8QJKGDI6wqYBO9X7ZSPtQDmum0fp45RTQ.DInAwg.ulGNUYNSmdyR9f_OZ2wYJDlxaZY">https://zenodo.org/oai2d</request>
  <ListIdentifiers>
    <header>
      <identifier>oai:zenodo.org:258364</identifier>
      <datestamp>2017-01-23T21:36:37Z</datestamp>
      <setSpec>user-biosyslit</setSpec>
    </header>
    <header>
      <identifier>oai:zenodo.org:234659</identifier>
      <datestamp>2017-01-08T23:27:25Z</datestamp>
      <setSpec>user-biosyslit</setSpec>
    </header>
    <header>
      <identifier>oai:zenodo.org:244265</identifier>
      <datestamp>2017-01-14T18:48:31Z</datestamp>
      <setSpec>user-biosyslit</setSpec>
    </header>
    <header>
      <identifier>oai:zenodo.org:230826</identifier>
      <datestamp>2017-01-05T08:52:01Z</datestamp>
      <setSpec>user-biosyslit</setSpec>
    </header>
    <header>
      <identifier>oai:zenodo.org:230823</identifier>
      <datestamp>2017-01-05T08:51:53Z</datestamp>
      <setSpec>user-biosyslit</setSpec>
    </header>
    <header>
      <identifier>oai:zenodo.org:237179</identifier>
      <datestamp>2017-01-10T11:49:53Z</datestamp>
      <setSpec>user-biosyslit</setSpec>
    </header>
    <header>
      <identifier>oai:zenodo.org:237185</identifier>
      <datestamp>2017-01-10T11:49:50Z</datestamp>
      <setSpec>user-biosyslit</setSpec>
    </header>
    <header>
      <identifier>oai:zenodo.org:237182</identifier>
      <datestamp>2017-01-10T11:49:40Z</datestamp>
      <setSpec>user-biosyslit</setSpec>
    </header>
    <header>
      <identifier>oai:zenodo.org:237186</identifier>
      <datestamp>2017-01-10T11:49:52Z</datestamp>
      <setSpec>user-biosyslit</setSpec>
    </header>
    <header>
      <identifier>oai:zenodo.org:237184</identifier>
      <datestamp>2017-01-10T11:49:46Z</datestamp>
      <setSpec>user-biosyslit</setSpec>
    </header>
    <header>
      <identifier>oai:zenodo.org:244760</identifier>
      <datestamp>2017-01-15T02:06:20Z</datestamp>
      <setSpec>user-biosyslit</setSpec>
    </header>
    <header>
      <identifier>oai:zenodo.org:244763</identifier>
      <datestamp>2017-01-15T02:06:46Z</datestamp>
      <setSpec>user-biosyslit</setSpec>
    </header>
    <header>
      <identifier>oai:zenodo.org:244761</identifier>
      <datestamp>2017-01-15T02:06:24Z</datestamp>
      <setSpec>user-biosyslit</setSpec>
    </header>
    <header>
      <identifier>oai:zenodo.org:244517</identifier>
      <datestamp>2017-01-14T23:00:57Z</datestamp>
      <setSpec>user-biosyslit</setSpec>
    </header>
    <header>
      <identifier>oai:zenodo.org:238811</identifier>
      <datestamp>2017-01-11T11:13:30Z</datestamp>
      <setSpec>user-biosyslit</setSpec>
    </header>
    <header>
      <identifier>oai:zenodo.org:238810</identifier>
      <datestamp>2017-01-11T11:13:26Z</datestamp>
      <setSpec>user-biosyslit</setSpec>
    </header>
    <header>
      <identifier>oai:zenodo.org:238812</identifier>
      <datestamp>2017-01-11T11:13:33Z</datestamp>
      <setSpec>user-biosyslit</setSpec>
    </header>
    <header>
      <identifier>oai:zenodo.org:238809</identifier>
      <datestamp>2017-01-11T11:13:20Z</datestamp>
      <setSpec>user-biosyslit</setSpec>
    </header>
    <header>
      <identifier>oai:zenodo.org:243787</identifier>
      <datestamp>2017-01-14T10:54:41Z</datestamp>
      <setSpec>user-biosyslit</setSpec>
    </header>
    <header>
      <identifier>oai:zenodo.org:243784</identifier>
      <datestamp>2017-01-14T10:54:42Z</datestamp>
      <setSpec>user-biosyslit</setSpec>
    </header>
    <header>
      <identifier>oai:zenodo.org:285120</identifier>
      <datestamp>2017-02-09T12:39:25Z</datestamp>
      <setSpec>user-biosyslit</setSpec>
    </header>
    <header>
      <identifier>oai:zenodo.org:243227</identifier>
      <datestamp>2017-01-14T00:54:53Z</datestamp>
      <setSpec>user-biosyslit</setSpec>
    </header>
    <header>
      <identifier>oai:zenodo.org:243226</identifier>
      <datestamp>2017-01-14T00:54:48Z</datestamp>
      <setSpec>user-biosyslit</setSpec>
    </header>
    <header>
      <identifier>oai:zenodo.org:243228</identifier>
      <datestamp>2017-01-14T00:55:05Z</datestamp>
      <setSpec>user-biosyslit</setSpec>
    </header>
    <header>
      <identifier>oai:zenodo.org:242700</identifier>
      <datestamp>2017-01-13T18:47:50Z</datestamp>
      <setSpec>user-biosyslit</setSpec>
    </header>
    <header>
      <identifier>oai:zenodo.org:273909</identifier>
      <datestamp>2017-02-08T11:11:02Z</datestamp>
      <setSpec>user-biosyslit</setSpec>
    </header>
    <header>
      <identifier>oai:zenodo.org:242698</identifier>
      <datestamp>2017-01-13T18:47:44Z</datestamp>
      <setSpec>user-biosyslit</setSpec>
    </header>
    <header>
      <identifier>oai:zenodo.org:242701</identifier>
      <datestamp>2017-01-13T18:47:54Z</datestamp>
      <setSpec>user-biosyslit</setSpec>
    </header>
    <header>
      <identifier>oai:zenodo.org:237459</identifier>
      <datestamp>2017-01-10T15:55:47Z</datestamp>
      <setSpec>user-biosyslit</setSpec>
    </header>
    <header>
      <identifier>oai:zenodo.org:237461</identifier>
      <datestamp>2017-01-10T15:55:24Z</datestamp>
      <setSpec>user-biosyslit</setSpec>
    </header>
    <header>
      <identifier>oai:zenodo.org:237467</identifier>
      <datestamp>2017-01-10T15:55:46Z</datestamp>
      <setSpec>user-biosyslit</setSpec>
    </header>
    <header>
      <identifier>oai:zenodo.org:284167</identifier>
      <datestamp>2017-02-09T10:36:32Z</datestamp>
      <setSpec>user-biosyslit</setSpec>
    </header>
    <header>
      <identifier>oai:zenodo.org:284168</identifier>
      <datestamp>2017-02-09T10:36:34Z</datestamp>
      <setSpec>user-biosyslit</setSpec>
    </header>
    <header>
      <identifier>oai:zenodo.org:237465</identifier>
      <datestamp>2017-01-10T15:55:38Z</datestamp>
      <setSpec>user-biosyslit</setSpec>
    </header>
    <header>
      <identifier>oai:zenodo.org:237466</identifier>
      <datestamp>2017-01-10T15:55:42Z</datestamp>
      <setSpec>user-biosyslit</setSpec>
    </header>
    <header>
      <identifier>oai:zenodo.org:284170</identifier>
      <datestamp>2017-02-09T10:36:40Z</datestamp>
      <setSpec>user-biosyslit</setSpec>
    </header>
    <header>
      <identifier>oai:zenodo.org:233386</identifier>
      <datestamp>2017-01-08T04:10:09Z</datestamp>
      <setSpec>user-biosyslit</setSpec>
    </header>
    <header>
      <identifier>oai:zenodo.org:233383</identifier>
      <datestamp>2017-01-08T04:09:56Z</datestamp>
      <setSpec>user-biosyslit</setSpec>
    </header>
    <header>
      <identifier>oai:zenodo.org:233387</identifier>
      <datestamp>2017-01-08T04:10:12Z</datestamp>
      <setSpec>user-biosyslit</setSpec>
    </header>
    <header>
      <identifier>oai:zenodo.org:233388</identifier>
      <datestamp>2017-01-08T04:10:26Z</datestamp>
      <setSpec>user-biosyslit</setSpec>
    </header>
    <header>
      <identifier>oai:zenodo.org:233384</identifier>
      <datestamp>2017-01-08T04:10:01Z</datestamp>
      <setSpec>user-biosyslit</setSpec>
    </header>
    <header>
      <identifier>oai:zenodo.org:271449</identifier>
      <datestamp>2017-02-08T01:42:50Z</datestamp>
      <setSpec>user-biosyslit</setSpec>
    </header>
    <header>
      <identifier>oai:zenodo.org:253872</identifier>
      <datestamp>2017-01-20T11:56:46Z</datestamp>
      <setSpec>user-biosyslit</setSpec>
    </header>
    <header>
      <identifier>oai:zenodo.org:253874</identifier>
      <datestamp>2017-01-20T11:56:53Z</datestamp>
      <setSpec>user-biosyslit</setSpec>
    </header>
    <header>
      <identifier>oai:zenodo.org:253873</identifier>
      <datestamp>2017-01-20T11:56:49Z</datestamp>
      <setSpec>user-biosyslit</setSpec>
    </header>
    <header>
      <identifier>oai:zenodo.org:253868</identifier>
      <datestamp>2017-01-20T11:56:35Z</datestamp>
      <setSpec>user-biosyslit</setSpec>
    </header>
    <header>
      <identifier>oai:zenodo.org:253867</identifier>
      <datestamp>2017-01-20T11:56:31Z</datestamp>
      <setSpec>user-biosyslit</setSpec>
    </header>
    <header>
      <identifier>oai:zenodo.org:253871</identifier>
      <datestamp>2017-01-20T11:56:44Z</datestamp>
      <setSpec>user-biosyslit</setSpec>
    </header>
    <header>
      <identifier>oai:zenodo.org:253870</identifier>
      <datestamp>2017-01-20T11:56:41Z</datestamp>
      <setSpec>user-biosyslit</setSpec>
    </header>
    <header>
      <identifier>oai:zenodo.org:253875</identifier>
      <datestamp>2017-01-20T11:56:55Z</datestamp>
      <setSpec>user-biosyslit</setSpec>
    </header>
    <header>
      <identifier>oai:zenodo.org:280204</identifier>
      <datestamp>2017-02-09T02:57:35Z</datestamp>
      <setSpec>user-biosyslit</setSpec>
    </header>
    <header>
      <identifier>oai:zenodo.org:280200</identifier>
      <datestamp>2017-02-09T02:57:22Z</datestamp>
      <setSpec>user-biosyslit</setSpec>
    </header>
    <header>
      <identifier>oai:zenodo.org:280202</identifier>
      <datestamp>2017-02-09T02:57:30Z</datestamp>
      <setSpec>user-biosyslit</setSpec>
    </header>
    <header>
      <identifier>oai:zenodo.org:280206</identifier>
      <datestamp>2017-02-09T02:57:40Z</datestamp>
      <setSpec>user-biosyslit</setSpec>
    </header>
    <header>
      <identifier>oai:zenodo.org:280201</identifier>
      <datestamp>2017-02-09T02:57:24Z</datestamp>
      <setSpec>user-biosyslit</setSpec>
    </header>
    <header>
      <identifier>oai:zenodo.org:280199</identifier>
      <datestamp>2017-02-09T02:57:19Z</datestamp>
      <setSpec>user-biosyslit</setSpec>
    </header>
    <header>
      <identifier>oai:zenodo.org:274402</identifier>
      <datestamp>2017-02-08T13:05:53Z</datestamp>
      <setSpec>user-biosyslit</setSpec>
    </header>
    <header>
      <identifier>oai:zenodo.org:274398</identifier>
      <datestamp>2017-02-08T13:05:41Z</datestamp>
      <setSpec>user-biosyslit</setSpec>
    </header>
    <header>
      <identifier>oai:zenodo.org:274401</identifier>
      <datestamp>2017-02-08T13:05:49Z</datestamp>
      <setSpec>user-biosyslit</setSpec>
    </header>
    <header>
      <identifier>oai:zenodo.org:274393</identifier>
      <datestamp>2017-02-08T13:05:29Z</datestamp>
      <setSpec>user-biosyslit</setSpec>
    </header>
    <header>
      <identifier>oai:zenodo.org:274399</identifier>
      <datestamp>2017-02-08T13:05:43Z</datestamp>
      <setSpec>user-biosyslit</setSpec>
    </header>
    <header>
      <identifier>oai:zenodo.org:274394</identifier>
      <datestamp>2017-02-08T13:05:31Z</datestamp>
      <setSpec>user-biosyslit</setSpec>
    </header>
    <header>
      <identifier>oai:zenodo.org:273232</identifier>
      <datestamp>2017-02-08T08:41:15Z</datestamp>
      <setSpec>user-biosyslit</setSpec>
    </header>
    <header>
      <identifier>oai:zenodo.org:273538</identifier>
      <datestamp>2017-02-08T09:36:52Z</datestamp>
      <setSpec>user-biosyslit</setSpec>
    </header>
    <header>
      <identifier>oai:zenodo.org:273540</identifier>
      <datestamp>2017-02-08T09:36:48Z</datestamp>
      <setSpec>user-biosyslit</setSpec>
    </header>
    <header>
      <identifier>oai:zenodo.org:273539</identifier>
      <datestamp>2017-02-08T09:36:46Z</datestamp>
      <setSpec>user-biosyslit</setSpec>
    </header>
    <header>
      <identifier>oai:zenodo.org:265670</identifier>
      <datestamp>2017-01-31T18:44:29Z</datestamp>
      <setSpec>user-biosyslit</setSpec>
    </header>
    <header>
      <identifier>oai:zenodo.org:234586</identifier>
      <datestamp>2017-01-08T22:19:57Z</datestamp>
      <setSpec>user-biosyslit</setSpec>
    </header>
    <header>
      <identifier>oai:zenodo.org:234585</identifier>
      <datestamp>2017-01-08T22:19:54Z</datestamp>
      <setSpec>user-biosyslit</setSpec>
    </header>
    <header>
      <identifier>oai:zenodo.org:234588</identifier>
      <datestamp>2017-01-08T22:20:02Z</datestamp>
      <setSpec>user-biosyslit</setSpec>
    </header>
    <header>
      <identifier>oai:zenodo.org:265672</identifier>
      <datestamp>2017-01-31T18:44:21Z</datestamp>
      <setSpec>user-biosyslit</setSpec>
    </header>
    <header>
      <identifier>oai:zenodo.org:234584</identifier>
      <datestamp>2017-01-08T22:19:51Z</datestamp>
      <setSpec>user-biosyslit</setSpec>
    </header>
    <header>
      <identifier>oai:zenodo.org:265671</identifier>
      <datestamp>2017-01-31T18:44:18Z</datestamp>
      <setSpec>user-biosyslit</setSpec>
    </header>
    <header>
      <identifier>oai:zenodo.org:265675</identifier>
      <datestamp>2017-01-31T18:44:28Z</datestamp>
      <setSpec>user-biosyslit</setSpec>
    </header>
    <header>
      <identifier>oai:zenodo.org:265673</identifier>
      <datestamp>2017-01-31T18:44:23Z</datestamp>
      <setSpec>user-biosyslit</setSpec>
    </header>
    <header>
      <identifier>oai:zenodo.org:343793</identifier>
      <datestamp>2017-02-28T08:33:08Z</datestamp>
      <setSpec>user-biosyslit</setSpec>
    </header>
    <header>
      <identifier>oai:zenodo.org:343784</identifier>
      <datestamp>2017-02-28T08:32:45Z</datestamp>
      <setSpec>user-biosyslit</setSpec>
    </header>
    <header>
      <identifier>oai:zenodo.org:343791</identifier>
      <datestamp>2017-02-28T08:33:02Z</datestamp>
      <setSpec>user-biosyslit</setSpec>
    </header>
    <header>
      <identifier>oai:zenodo.org:274569</identifier>
      <datestamp>2017-02-08T13:41:57Z</datestamp>
      <setSpec>user-biosyslit</setSpec>
    </header>
    <header>
      <identifier>oai:zenodo.org:343786</identifier>
      <datestamp>2017-02-28T08:32:49Z</datestamp>
      <setSpec>user-biosyslit</setSpec>
    </header>
    <header>
      <identifier>oai:zenodo.org:274567</identifier>
      <datestamp>2017-02-08T13:41:51Z</datestamp>
      <setSpec>user-biosyslit</setSpec>
    </header>
    <header>
      <identifier>oai:zenodo.org:274566</identifier>
      <datestamp>2017-02-08T13:41:47Z</datestamp>
      <setSpec>user-biosyslit</setSpec>
    </header>
    <header>
      <identifier>oai:zenodo.org:274571</identifier>
      <datestamp>2017-02-08T13:42:02Z</datestamp>
      <setSpec>user-biosyslit</setSpec>
    </header>
    <header>
      <identifier>oai:zenodo.org:272017</identifier>
      <datestamp>2017-02-08T03:20:55Z</datestamp>
      <setSpec>user-biosyslit</setSpec>
    </header>
    <header>
      <identifier>oai:zenodo.org:273441</identifier>
      <datestamp>2017-02-08T09:21:56Z</datestamp>
      <setSpec>user-biosyslit</setSpec>
    </header>
    <header>
      <identifier>oai:zenodo.org:273440</identifier>
      <datestamp>2017-02-08T09:21:54Z</datestamp>
      <setSpec>user-biosyslit</setSpec>
    </header>
    <header>
      <identifier>oai:zenodo.org:243068</identifier>
      <datestamp>2017-01-13T22:49:43Z</datestamp>
      <setSpec>user-biosyslit</setSpec>
    </header>
    <header>
      <identifier>oai:zenodo.org:273442</identifier>
      <datestamp>2017-02-08T09:21:58Z</datestamp>
      <setSpec>user-biosyslit</setSpec>
    </header>
    <header>
      <identifier>oai:zenodo.org:273438</identifier>
      <datestamp>2017-02-08T09:21:49Z</datestamp>
      <setSpec>user-biosyslit</setSpec>
    </header>
    <header>
      <identifier>oai:zenodo.org:240074</identifier>
      <datestamp>2017-01-12T04:21:57Z</datestamp>
      <setSpec>user-biosyslit</setSpec>
    </header>
    <header>
      <identifier>oai:zenodo.org:228936</identifier>
      <datestamp>2017-01-03T07:20:47Z</datestamp>
      <setSpec>user-biosyslit</setSpec>
    </header>
    <header>
      <identifier>oai:zenodo.org:282731</identifier>
      <datestamp>2017-02-09T07:32:05Z</datestamp>
      <setSpec>user-biosyslit</setSpec>
    </header>
    <header>
      <identifier>oai:zenodo.org:228938</identifier>
      <datestamp>2017-01-03T07:20:45Z</datestamp>
      <setSpec>user-biosyslit</setSpec>
    </header>
    <header>
      <identifier>oai:zenodo.org:228937</identifier>
      <datestamp>2017-01-03T07:20:42Z</datestamp>
      <setSpec>user-biosyslit</setSpec>
    </header>
    <header>
      <identifier>oai:zenodo.org:230634</identifier>
      <datestamp>2017-01-05T05:21:09Z</datestamp>
      <setSpec>user-biosyslit</setSpec>
    </header>
    <header>
      <identifier>oai:zenodo.org:228425</identifier>
      <datestamp>2017-01-02T23:45:13Z</datestamp>
      <setSpec>user-biosyslit</setSpec>
    </header>
    <header>
      <identifier>oai:zenodo.org:228427</identifier>
      <datestamp>2017-01-02T23:44:54Z</datestamp>
      <setSpec>user-biosyslit</setSpec>
    </header>
    <header>
      <identifier>oai:zenodo.org:228430</identifier>
      <datestamp>2017-01-02T23:45:02Z</datestamp>
      <setSpec>user-biosyslit</setSpec>
    </header>
    <header>
      <identifier>oai:zenodo.org:228429</identifier>
      <datestamp>2017-01-02T23:44:59Z</datestamp>
      <setSpec>user-biosyslit</setSpec>
    </header>
    <header>
      <identifier>oai:zenodo.org:228431</identifier>
      <datestamp>2017-01-02T23:45:08Z</datestamp>
      <setSpec>user-biosyslit</setSpec>
    </header>
    <resumptionToken expirationDate="2017-08-31T15:48:11Z" cursor="73500" completeListSize="77796">.eJyNyj0LgkAYAOD_8s4S9yFpQkto4qCi1x3pEqYi5lXiFepJ_72W5pqfZwFV1xU4aGViTMjGJGsbmwgboMrhLuWp_SCURyHLm-SFL57pVaCMNFbkqil0MxrpDsVXrNk-IUdsT7xFc3Lgj0ynk6DByJBnhTqZo0vweRWNfZmf_Z7x204yUg2xl8wM71hOy-_Dfz7987lqCwb0RVODY1HLgG4shkaBs7xebySaUMk.DInAww.np0KPHcSKcHHWveMYcmBssNrBM8</resumptionToken>
  </ListIdentifiers>
</OAI-PMH>
