<?xml version='1.0' encoding='UTF-8'?>
<?xml-stylesheet type="text/xsl" href="/static/xsl/oai2.v1.0.xsl"?>
<OAI-PMH xmlns="http://www.openarchives.org/OAI/2.0/" xmlns:xsi="http://www.w3.org/2001/XMLSchema-instance" xsi:schemaLocation="http://www.openarchives.org/OAI/2.0/ http://www.openarchives.org/OAI/2.0/OAI-PMH.xsd">
  <responseDate>2017-08-31T15:44:19Z</responseDate>
  <request verb="ListIdentifiers" resumptionToken=".eJyNyssKgkAUANB_uWuJeZgvaBOWuFCxSUk3YSpijhZOoY7477lpXetzZhBlWYCFNibWVEIMijVqUtXYKiDy_sH5tV4Z8kvM845HmRO_T22MElLpvi1Gz06oLxsUtFiyY0gu2BijGk3hOXol8jTG1B0YOuieDCf_7q6voIHD05vzZFG354wUfXAIJ4b3LKX59-E_n_z5bLEDBZ5ZVYKlmkiBZsj6SoA1L8sHoAJRQg.DInAUw.apWM4deiPFXKP6gePt8knpQQ31c">https://zenodo.org/oai2d</request>
  <ListIdentifiers>
    <header>
      <identifier>oai:zenodo.org:452179</identifier>
      <datestamp>2017-04-04T07:32:34Z</datestamp>
      <setSpec>user-biosyslit</setSpec>
    </header>
    <header>
      <identifier>oai:zenodo.org:285988</identifier>
      <datestamp>2017-02-09T14:59:46Z</datestamp>
      <setSpec>user-biosyslit</setSpec>
    </header>
    <header>
      <identifier>oai:zenodo.org:285292</identifier>
      <datestamp>2017-02-09T13:12:00Z</datestamp>
      <setSpec>user-biosyslit</setSpec>
    </header>
    <header>
      <identifier>oai:zenodo.org:437627</identifier>
      <datestamp>2017-03-23T10:09:18Z</datestamp>
      <setSpec>user-biosyslit</setSpec>
    </header>
    <header>
      <identifier>oai:zenodo.org:437979</identifier>
      <datestamp>2017-03-24T08:46:55Z</datestamp>
      <setSpec>user-biosyslit</setSpec>
    </header>
    <header>
      <identifier>oai:zenodo.org:438540</identifier>
      <datestamp>2017-03-28T07:14:38Z</datestamp>
      <setSpec>user-biosyslit</setSpec>
    </header>
    <header>
      <identifier>oai:zenodo.org:439296</identifier>
      <datestamp>2017-03-31T09:17:44Z</datestamp>
      <setSpec>user-biosyslit</setSpec>
    </header>
    <header>
      <identifier>oai:zenodo.org:437640</identifier>
      <datestamp>2017-03-23T10:09:53Z</datestamp>
      <setSpec>user-biosyslit</setSpec>
    </header>
    <header>
      <identifier>oai:zenodo.org:284373</identifier>
      <datestamp>2017-02-09T11:06:33Z</datestamp>
      <setSpec>user-biosyslit</setSpec>
    </header>
    <header>
      <identifier>oai:zenodo.org:284552</identifier>
      <datestamp>2017-02-09T11:28:45Z</datestamp>
      <setSpec>user-biosyslit</setSpec>
    </header>
    <header>
      <identifier>oai:zenodo.org:437681</identifier>
      <datestamp>2017-03-23T10:11:17Z</datestamp>
      <setSpec>user-biosyslit</setSpec>
    </header>
    <header>
      <identifier>oai:zenodo.org:438537</identifier>
      <datestamp>2017-03-28T07:14:31Z</datestamp>
      <setSpec>user-biosyslit</setSpec>
    </header>
    <header>
      <identifier>oai:zenodo.org:438911</identifier>
      <datestamp>2017-03-29T08:40:56Z</datestamp>
      <setSpec>user-biosyslit</setSpec>
    </header>
    <header>
      <identifier>oai:zenodo.org:439155</identifier>
      <datestamp>2017-03-30T07:27:24Z</datestamp>
      <setSpec>user-biosyslit</setSpec>
    </header>
    <header>
      <identifier>oai:zenodo.org:439816</identifier>
      <datestamp>2017-04-03T08:05:32Z</datestamp>
      <setSpec>user-biosyslit</setSpec>
    </header>
    <header>
      <identifier>oai:zenodo.org:437282</identifier>
      <datestamp>2017-03-22T09:12:09Z</datestamp>
      <setSpec>user-biosyslit</setSpec>
    </header>
    <header>
      <identifier>oai:zenodo.org:437975</identifier>
      <datestamp>2017-03-24T08:42:44Z</datestamp>
      <setSpec>user-biosyslit</setSpec>
    </header>
    <header>
      <identifier>oai:zenodo.org:439302</identifier>
      <datestamp>2017-03-31T09:17:31Z</datestamp>
      <setSpec>user-biosyslit</setSpec>
    </header>
    <header>
      <identifier>oai:zenodo.org:439821</identifier>
      <datestamp>2017-04-03T08:10:47Z</datestamp>
      <setSpec>user-biosyslit</setSpec>
    </header>
    <header>
      <identifier>oai:zenodo.org:437672</identifier>
      <datestamp>2017-03-23T10:10:57Z</datestamp>
      <setSpec>user-biosyslit</setSpec>
    </header>
    <header>
      <identifier>oai:zenodo.org:437275</identifier>
      <datestamp>2017-03-22T09:03:38Z</datestamp>
      <setSpec>user-biosyslit</setSpec>
    </header>
    <header>
      <identifier>oai:zenodo.org:437286</identifier>
      <datestamp>2017-03-22T09:11:55Z</datestamp>
      <setSpec>user-biosyslit</setSpec>
    </header>
    <header>
      <identifier>oai:zenodo.org:438833</identifier>
      <datestamp>2017-03-29T07:20:17Z</datestamp>
      <setSpec>user-biosyslit</setSpec>
    </header>
    <header>
      <identifier>oai:zenodo.org:438275</identifier>
      <datestamp>2017-03-27T08:42:59Z</datestamp>
      <setSpec>user-biosyslit</setSpec>
    </header>
    <header>
      <identifier>oai:zenodo.org:438243</identifier>
      <datestamp>2017-03-27T08:04:36Z</datestamp>
      <setSpec>user-biosyslit</setSpec>
    </header>
    <header>
      <identifier>oai:zenodo.org:438819</identifier>
      <datestamp>2017-03-29T07:14:51Z</datestamp>
      <setSpec>user-biosyslit</setSpec>
    </header>
    <header>
      <identifier>oai:zenodo.org:439163</identifier>
      <datestamp>2017-03-30T07:33:00Z</datestamp>
      <setSpec>user-biosyslit</setSpec>
    </header>
    <header>
      <identifier>oai:zenodo.org:438825</identifier>
      <datestamp>2017-03-29T07:19:58Z</datestamp>
      <setSpec>user-biosyslit</setSpec>
    </header>
    <header>
      <identifier>oai:zenodo.org:439781</identifier>
      <datestamp>2017-04-03T07:24:44Z</datestamp>
      <setSpec>user-biosyslit</setSpec>
    </header>
    <header>
      <identifier>oai:zenodo.org:439298</identifier>
      <datestamp>2017-03-31T09:17:36Z</datestamp>
      <setSpec>user-biosyslit</setSpec>
    </header>
    <header>
      <identifier>oai:zenodo.org:438891</identifier>
      <datestamp>2017-03-29T08:19:00Z</datestamp>
      <setSpec>user-biosyslit</setSpec>
    </header>
    <header>
      <identifier>oai:zenodo.org:438271</identifier>
      <datestamp>2017-03-27T08:43:00Z</datestamp>
      <setSpec>user-biosyslit</setSpec>
    </header>
    <header>
      <identifier>oai:zenodo.org:284599</identifier>
      <datestamp>2017-02-09T11:34:56Z</datestamp>
      <setSpec>user-biosyslit</setSpec>
    </header>
    <header>
      <identifier>oai:zenodo.org:439457</identifier>
      <datestamp>2017-03-31T07:48:13Z</datestamp>
      <setSpec>user-biosyslit</setSpec>
    </header>
    <header>
      <identifier>oai:zenodo.org:439870</identifier>
      <datestamp>2017-04-03T10:36:21Z</datestamp>
      <setSpec>user-biosyslit</setSpec>
    </header>
    <header>
      <identifier>oai:zenodo.org:438227</identifier>
      <datestamp>2017-03-27T07:36:36Z</datestamp>
      <setSpec>user-biosyslit</setSpec>
    </header>
    <header>
      <identifier>oai:zenodo.org:438804</identifier>
      <datestamp>2017-03-29T07:15:00Z</datestamp>
      <setSpec>user-biosyslit</setSpec>
    </header>
    <header>
      <identifier>oai:zenodo.org:439179</identifier>
      <datestamp>2017-03-30T07:43:13Z</datestamp>
      <setSpec>user-biosyslit</setSpec>
    </header>
    <header>
      <identifier>oai:zenodo.org:439318</identifier>
      <datestamp>2017-03-31T09:17:13Z</datestamp>
      <setSpec>user-biosyslit</setSpec>
    </header>
    <header>
      <identifier>oai:zenodo.org:438545</identifier>
      <datestamp>2017-03-28T07:22:52Z</datestamp>
      <setSpec>user-biosyslit</setSpec>
    </header>
    <header>
      <identifier>oai:zenodo.org:30226</identifier>
      <datestamp>2017-03-14T21:12:50Z</datestamp>
      <setSpec>user-biosyslit</setSpec>
    </header>
    <header>
      <identifier>oai:zenodo.org:452477</identifier>
      <datestamp>2017-04-04T07:36:40Z</datestamp>
      <setSpec>user-biosyslit</setSpec>
    </header>
    <header>
      <identifier>oai:zenodo.org:284943</identifier>
      <datestamp>2017-02-09T12:19:57Z</datestamp>
      <setSpec>user-biosyslit</setSpec>
    </header>
    <header>
      <identifier>oai:zenodo.org:437955</identifier>
      <datestamp>2017-03-24T08:30:50Z</datestamp>
      <setSpec>user-biosyslit</setSpec>
    </header>
    <header>
      <identifier>oai:zenodo.org:438267</identifier>
      <datestamp>2017-03-27T08:34:25Z</datestamp>
      <setSpec>user-biosyslit</setSpec>
    </header>
    <header>
      <identifier>oai:zenodo.org:438895</identifier>
      <datestamp>2017-03-29T08:24:43Z</datestamp>
      <setSpec>user-biosyslit</setSpec>
    </header>
    <header>
      <identifier>oai:zenodo.org:438562</identifier>
      <datestamp>2017-03-28T07:23:48Z</datestamp>
      <setSpec>user-biosyslit</setSpec>
    </header>
    <header>
      <identifier>oai:zenodo.org:438826</identifier>
      <datestamp>2017-03-29T07:20:01Z</datestamp>
      <setSpec>user-biosyslit</setSpec>
    </header>
    <header>
      <identifier>oai:zenodo.org:439306</identifier>
      <datestamp>2017-03-31T09:17:27Z</datestamp>
      <setSpec>user-biosyslit</setSpec>
    </header>
    <header>
      <identifier>oai:zenodo.org:439314</identifier>
      <datestamp>2017-03-31T09:17:18Z</datestamp>
      <setSpec>user-biosyslit</setSpec>
    </header>
    <header>
      <identifier>oai:zenodo.org:439983</identifier>
      <datestamp>2017-04-03T22:55:31Z</datestamp>
      <setSpec>user-biosyslit</setSpec>
    </header>
    <header>
      <identifier>oai:zenodo.org:438245</identifier>
      <datestamp>2017-03-27T08:04:31Z</datestamp>
      <setSpec>user-biosyslit</setSpec>
    </header>
    <header>
      <identifier>oai:zenodo.org:437976</identifier>
      <datestamp>2017-03-24T08:42:46Z</datestamp>
      <setSpec>user-biosyslit</setSpec>
    </header>
    <header>
      <identifier>oai:zenodo.org:438239</identifier>
      <datestamp>2017-03-27T07:54:58Z</datestamp>
      <setSpec>user-biosyslit</setSpec>
    </header>
    <header>
      <identifier>oai:zenodo.org:438889</identifier>
      <datestamp>2017-03-29T08:18:55Z</datestamp>
      <setSpec>user-biosyslit</setSpec>
    </header>
    <header>
      <identifier>oai:zenodo.org:438579</identifier>
      <datestamp>2017-03-28T07:34:02Z</datestamp>
      <setSpec>user-biosyslit</setSpec>
    </header>
    <header>
      <identifier>oai:zenodo.org:439817</identifier>
      <datestamp>2017-04-03T08:05:34Z</datestamp>
      <setSpec>user-biosyslit</setSpec>
    </header>
    <header>
      <identifier>oai:zenodo.org:439804</identifier>
      <datestamp>2017-04-03T07:52:52Z</datestamp>
      <setSpec>user-biosyslit</setSpec>
    </header>
    <header>
      <identifier>oai:zenodo.org:439869</identifier>
      <datestamp>2017-04-03T10:36:17Z</datestamp>
      <setSpec>user-biosyslit</setSpec>
    </header>
    <header>
      <identifier>oai:zenodo.org:438588</identifier>
      <datestamp>2017-03-28T07:44:45Z</datestamp>
      <setSpec>user-biosyslit</setSpec>
    </header>
    <header>
      <identifier>oai:zenodo.org:438590</identifier>
      <datestamp>2017-03-28T07:43:58Z</datestamp>
      <setSpec>user-biosyslit</setSpec>
    </header>
    <header>
      <identifier>oai:zenodo.org:439176</identifier>
      <datestamp>2017-03-30T07:37:32Z</datestamp>
      <setSpec>user-biosyslit</setSpec>
    </header>
    <header>
      <identifier>oai:zenodo.org:439809</identifier>
      <datestamp>2017-04-03T07:58:21Z</datestamp>
      <setSpec>user-biosyslit</setSpec>
    </header>
    <header>
      <identifier>oai:zenodo.org:322668</identifier>
      <datestamp>2017-04-03T10:01:35Z</datestamp>
      <setSpec>openaire</setSpec>
      <setSpec>user-biosyslit</setSpec>
    </header>
    <header>
      <identifier>oai:zenodo.org:439963</identifier>
      <datestamp>2017-04-03T18:46:14Z</datestamp>
      <setSpec>user-biosyslit</setSpec>
    </header>
    <header>
      <identifier>oai:zenodo.org:438906</identifier>
      <datestamp>2017-03-29T08:30:30Z</datestamp>
      <setSpec>user-biosyslit</setSpec>
    </header>
    <header>
      <identifier>oai:zenodo.org:438574</identifier>
      <datestamp>2017-03-28T07:34:14Z</datestamp>
      <setSpec>user-biosyslit</setSpec>
    </header>
    <header>
      <identifier>oai:zenodo.org:283150</identifier>
      <datestamp>2017-02-09T08:13:13Z</datestamp>
      <setSpec>user-biosyslit</setSpec>
    </header>
    <header>
      <identifier>oai:zenodo.org:282840</identifier>
      <datestamp>2017-02-09T07:42:36Z</datestamp>
      <setSpec>user-biosyslit</setSpec>
    </header>
    <header>
      <identifier>oai:zenodo.org:284079</identifier>
      <datestamp>2017-02-09T10:20:31Z</datestamp>
      <setSpec>user-biosyslit</setSpec>
    </header>
    <header>
      <identifier>oai:zenodo.org:282894</identifier>
      <datestamp>2017-02-09T07:48:22Z</datestamp>
      <setSpec>user-biosyslit</setSpec>
    </header>
    <header>
      <identifier>oai:zenodo.org:399123</identifier>
      <datestamp>2017-03-15T08:35:50Z</datestamp>
      <setSpec>user-biosyslit</setSpec>
    </header>
    <header>
      <identifier>oai:zenodo.org:399028</identifier>
      <datestamp>2017-03-14T23:49:24Z</datestamp>
      <setSpec>user-biosyslit</setSpec>
    </header>
    <header>
      <identifier>oai:zenodo.org:400843</identifier>
      <datestamp>2017-03-20T08:27:21Z</datestamp>
      <setSpec>user-biosyslit</setSpec>
    </header>
    <header>
      <identifier>oai:zenodo.org:398718</identifier>
      <datestamp>2017-03-14T08:59:41Z</datestamp>
      <setSpec>user-biosyslit</setSpec>
    </header>
    <header>
      <identifier>oai:zenodo.org:398946</identifier>
      <datestamp>2017-03-14T21:07:33Z</datestamp>
      <setSpec>user-biosyslit</setSpec>
    </header>
    <header>
      <identifier>oai:zenodo.org:283636</identifier>
      <datestamp>2017-02-09T09:20:03Z</datestamp>
      <setSpec>user-biosyslit</setSpec>
    </header>
    <header>
      <identifier>oai:zenodo.org:399922</identifier>
      <datestamp>2017-03-16T01:32:31Z</datestamp>
      <setSpec>user-biosyslit</setSpec>
    </header>
    <header>
      <identifier>oai:zenodo.org:400105</identifier>
      <datestamp>2017-03-16T08:22:36Z</datestamp>
      <setSpec>user-biosyslit</setSpec>
    </header>
    <header>
      <identifier>oai:zenodo.org:399528</identifier>
      <datestamp>2017-03-15T22:42:21Z</datestamp>
      <setSpec>user-biosyslit</setSpec>
    </header>
    <header>
      <identifier>oai:zenodo.org:399473</identifier>
      <datestamp>2017-03-15T21:07:21Z</datestamp>
      <setSpec>user-biosyslit</setSpec>
    </header>
    <header>
      <identifier>oai:zenodo.org:284350</identifier>
      <datestamp>2017-02-09T11:05:30Z</datestamp>
      <setSpec>user-biosyslit</setSpec>
    </header>
    <header>
      <identifier>oai:zenodo.org:399898</identifier>
      <datestamp>2017-03-16T01:31:26Z</datestamp>
      <setSpec>user-biosyslit</setSpec>
    </header>
    <header>
      <identifier>oai:zenodo.org:400412</identifier>
      <datestamp>2017-03-17T08:14:08Z</datestamp>
      <setSpec>user-biosyslit</setSpec>
    </header>
    <header>
      <identifier>oai:zenodo.org:398693</identifier>
      <datestamp>2017-03-14T08:18:53Z</datestamp>
      <setSpec>user-biosyslit</setSpec>
    </header>
    <header>
      <identifier>oai:zenodo.org:283771</identifier>
      <datestamp>2017-02-09T09:40:02Z</datestamp>
      <setSpec>user-biosyslit</setSpec>
    </header>
    <header>
      <identifier>oai:zenodo.org:398777</identifier>
      <datestamp>2017-03-14T09:51:53Z</datestamp>
      <setSpec>user-biosyslit</setSpec>
    </header>
    <header>
      <identifier>oai:zenodo.org:398735</identifier>
      <datestamp>2017-03-14T09:00:24Z</datestamp>
      <setSpec>user-biosyslit</setSpec>
    </header>
    <header>
      <identifier>oai:zenodo.org:400655</identifier>
      <datestamp>2017-03-18T17:19:22Z</datestamp>
      <setSpec>user-biosyslit</setSpec>
    </header>
    <header>
      <identifier>oai:zenodo.org:398692</identifier>
      <datestamp>2017-03-14T08:18:51Z</datestamp>
      <setSpec>user-biosyslit</setSpec>
    </header>
    <header>
      <identifier>oai:zenodo.org:399857</identifier>
      <datestamp>2017-03-16T01:29:08Z</datestamp>
      <setSpec>user-biosyslit</setSpec>
    </header>
    <header>
      <identifier>oai:zenodo.org:398738</identifier>
      <datestamp>2017-03-14T09:00:31Z</datestamp>
      <setSpec>user-biosyslit</setSpec>
    </header>
    <header>
      <identifier>oai:zenodo.org:400171</identifier>
      <datestamp>2017-03-16T09:17:05Z</datestamp>
      <setSpec>user-biosyslit</setSpec>
    </header>
    <header>
      <identifier>oai:zenodo.org:398942</identifier>
      <datestamp>2017-03-14T21:07:23Z</datestamp>
      <setSpec>user-biosyslit</setSpec>
    </header>
    <header>
      <identifier>oai:zenodo.org:399582</identifier>
      <datestamp>2017-03-15T22:57:53Z</datestamp>
      <setSpec>user-biosyslit</setSpec>
    </header>
    <header>
      <identifier>oai:zenodo.org:283849</identifier>
      <datestamp>2017-02-09T09:56:19Z</datestamp>
      <setSpec>user-biosyslit</setSpec>
    </header>
    <header>
      <identifier>oai:zenodo.org:400424</identifier>
      <datestamp>2017-03-17T08:24:00Z</datestamp>
      <setSpec>user-biosyslit</setSpec>
    </header>
    <header>
      <identifier>oai:zenodo.org:398773</identifier>
      <datestamp>2017-03-14T09:51:43Z</datestamp>
      <setSpec>user-biosyslit</setSpec>
    </header>
    <header>
      <identifier>oai:zenodo.org:399352</identifier>
      <datestamp>2017-03-15T19:52:15Z</datestamp>
      <setSpec>user-biosyslit</setSpec>
    </header>
    <header>
      <identifier>oai:zenodo.org:400141</identifier>
      <datestamp>2017-03-16T08:49:39Z</datestamp>
      <setSpec>user-biosyslit</setSpec>
    </header>
    <resumptionToken expirationDate="2017-08-31T15:46:19Z" cursor="48900" completeListSize="77796">.eJyNz00PQzAAgOH_0rMsrZqvZBdh4oDQkXFZrERMmegWVPz3uey8nd_n8q6AV1UJTHgwjlDDuiGrGKoGUpAEOB2fjN2aPQN6TRntWVK46TvuUpjJtRbYfPbtDAeihWGHBDlH8hXpc9LAJbokr0zEc4q9iUBH80W0BA9vdyUOXZbf3YEkvcWIXI6hEy0EWSTH9OvQn078dDY_AQkMRV0BUzH2q3YqxpoDc922D5-AUUI.DInAUw.ryWkL4QGdcFhqo1Hy9_EeqUanmw</resumptionToken>
  </ListIdentifiers>
</OAI-PMH>
