<?xml version='1.0' encoding='UTF-8'?>
<?xml-stylesheet type="text/xsl" href="/static/xsl/oai2.v1.0.xsl"?>
<OAI-PMH xmlns="http://www.openarchives.org/OAI/2.0/" xmlns:xsi="http://www.w3.org/2001/XMLSchema-instance" xsi:schemaLocation="http://www.openarchives.org/OAI/2.0/ http://www.openarchives.org/OAI/2.0/OAI-PMH.xsd">
  <responseDate>2017-08-31T15:43:47Z</responseDate>
  <request verb="ListIdentifiers" resumptionToken=".eJyNyk0LgjAYAOD_8p4lNjf8gi5hiQcVXUp2CVMRc5q4Qp343_PSuc7Ps4AoywIstCOaiahJMaWGqRFkKCDy4cn5rd4Y8kvC847HmZO8ozZBqVrpvi0mz06JLxsUtFiyU6hesDHFNZrDc_xKZTQlxB0ZOuqeDGf_4W6vIIHDr3enZ3F34EwthuAYzgwf2JXk34f_fPLns8UeFOizqgSLqlSBZsyGSoC1rOsHo41RQw.DInAMg.6P9z5kCz2oW50qgs6wEr231SwhQ">https://zenodo.org/oai2d</request>
  <ListIdentifiers>
    <header>
      <identifier>oai:zenodo.org:266646</identifier>
      <datestamp>2017-02-01T12:56:01Z</datestamp>
      <setSpec>user-biosyslit</setSpec>
    </header>
    <header>
      <identifier>oai:zenodo.org:266837</identifier>
      <datestamp>2017-02-01T15:55:02Z</datestamp>
      <setSpec>user-biosyslit</setSpec>
    </header>
    <header>
      <identifier>oai:zenodo.org:266149</identifier>
      <datestamp>2017-02-01T01:17:32Z</datestamp>
      <setSpec>user-biosyslit</setSpec>
    </header>
    <header>
      <identifier>oai:zenodo.org:266137</identifier>
      <datestamp>2017-02-01T01:04:55Z</datestamp>
      <setSpec>user-biosyslit</setSpec>
    </header>
    <header>
      <identifier>oai:zenodo.org:267154</identifier>
      <datestamp>2017-02-01T20:15:14Z</datestamp>
      <setSpec>user-biosyslit</setSpec>
    </header>
    <header>
      <identifier>oai:zenodo.org:267418</identifier>
      <datestamp>2017-02-02T01:42:55Z</datestamp>
      <setSpec>user-biosyslit</setSpec>
    </header>
    <header>
      <identifier>oai:zenodo.org:266872</identifier>
      <datestamp>2017-02-01T15:56:41Z</datestamp>
      <setSpec>user-biosyslit</setSpec>
    </header>
    <header>
      <identifier>oai:zenodo.org:267204</identifier>
      <datestamp>2017-02-01T22:28:07Z</datestamp>
      <setSpec>user-biosyslit</setSpec>
    </header>
    <header>
      <identifier>oai:zenodo.org:266908</identifier>
      <datestamp>2017-02-01T16:32:56Z</datestamp>
      <setSpec>user-biosyslit</setSpec>
    </header>
    <header>
      <identifier>oai:zenodo.org:267443</identifier>
      <datestamp>2017-02-02T02:18:44Z</datestamp>
      <setSpec>user-biosyslit</setSpec>
    </header>
    <header>
      <identifier>oai:zenodo.org:268288</identifier>
      <datestamp>2017-02-03T05:37:40Z</datestamp>
      <setSpec>user-biosyslit</setSpec>
    </header>
    <header>
      <identifier>oai:zenodo.org:275407</identifier>
      <datestamp>2017-02-08T16:14:11Z</datestamp>
      <setSpec>user-biosyslit</setSpec>
    </header>
    <header>
      <identifier>oai:zenodo.org:268070</identifier>
      <datestamp>2017-02-03T01:16:44Z</datestamp>
      <setSpec>user-biosyslit</setSpec>
    </header>
    <header>
      <identifier>oai:zenodo.org:267451</identifier>
      <datestamp>2017-02-02T02:22:06Z</datestamp>
      <setSpec>user-biosyslit</setSpec>
    </header>
    <header>
      <identifier>oai:zenodo.org:268228</identifier>
      <datestamp>2017-02-03T04:28:46Z</datestamp>
      <setSpec>user-biosyslit</setSpec>
    </header>
    <header>
      <identifier>oai:zenodo.org:269253</identifier>
      <datestamp>2017-02-06T23:41:45Z</datestamp>
      <setSpec>user-biosyslit</setSpec>
    </header>
    <header>
      <identifier>oai:zenodo.org:269153</identifier>
      <datestamp>2017-02-06T22:54:08Z</datestamp>
      <setSpec>user-biosyslit</setSpec>
    </header>
    <header>
      <identifier>oai:zenodo.org:269593</identifier>
      <datestamp>2017-02-07T01:05:10Z</datestamp>
      <setSpec>user-biosyslit</setSpec>
    </header>
    <header>
      <identifier>oai:zenodo.org:274626</identifier>
      <datestamp>2017-02-08T13:49:41Z</datestamp>
      <setSpec>user-biosyslit</setSpec>
    </header>
    <header>
      <identifier>oai:zenodo.org:274668</identifier>
      <datestamp>2017-02-08T13:57:18Z</datestamp>
      <setSpec>user-biosyslit</setSpec>
    </header>
    <header>
      <identifier>oai:zenodo.org:275286</identifier>
      <datestamp>2017-02-08T15:58:34Z</datestamp>
      <setSpec>user-biosyslit</setSpec>
    </header>
    <header>
      <identifier>oai:zenodo.org:269484</identifier>
      <datestamp>2017-02-07T00:42:46Z</datestamp>
      <setSpec>user-biosyslit</setSpec>
    </header>
    <header>
      <identifier>oai:zenodo.org:275134</identifier>
      <datestamp>2017-02-08T15:23:01Z</datestamp>
      <setSpec>user-biosyslit</setSpec>
    </header>
    <header>
      <identifier>oai:zenodo.org:275262</identifier>
      <datestamp>2017-02-08T15:54:03Z</datestamp>
      <setSpec>user-biosyslit</setSpec>
    </header>
    <header>
      <identifier>oai:zenodo.org:274976</identifier>
      <datestamp>2017-02-08T14:58:05Z</datestamp>
      <setSpec>user-biosyslit</setSpec>
    </header>
    <header>
      <identifier>oai:zenodo.org:275532</identifier>
      <datestamp>2017-02-08T16:38:55Z</datestamp>
      <setSpec>user-biosyslit</setSpec>
    </header>
    <header>
      <identifier>oai:zenodo.org:276226</identifier>
      <datestamp>2017-02-08T18:26:58Z</datestamp>
      <setSpec>user-biosyslit</setSpec>
    </header>
    <header>
      <identifier>oai:zenodo.org:277114</identifier>
      <datestamp>2017-02-08T20:26:44Z</datestamp>
      <setSpec>user-biosyslit</setSpec>
    </header>
    <header>
      <identifier>oai:zenodo.org:277138</identifier>
      <datestamp>2017-02-08T20:29:16Z</datestamp>
      <setSpec>user-biosyslit</setSpec>
    </header>
    <header>
      <identifier>oai:zenodo.org:276957</identifier>
      <datestamp>2017-02-08T20:04:15Z</datestamp>
      <setSpec>user-biosyslit</setSpec>
    </header>
    <header>
      <identifier>oai:zenodo.org:277019</identifier>
      <datestamp>2017-02-08T20:12:27Z</datestamp>
      <setSpec>user-biosyslit</setSpec>
    </header>
    <header>
      <identifier>oai:zenodo.org:277600</identifier>
      <datestamp>2017-02-08T21:28:04Z</datestamp>
      <setSpec>user-biosyslit</setSpec>
    </header>
    <header>
      <identifier>oai:zenodo.org:277192</identifier>
      <datestamp>2017-02-08T20:34:28Z</datestamp>
      <setSpec>user-biosyslit</setSpec>
    </header>
    <header>
      <identifier>oai:zenodo.org:278288</identifier>
      <datestamp>2017-02-08T22:47:06Z</datestamp>
      <setSpec>user-biosyslit</setSpec>
    </header>
    <header>
      <identifier>oai:zenodo.org:277943</identifier>
      <datestamp>2017-02-08T22:08:05Z</datestamp>
      <setSpec>user-biosyslit</setSpec>
    </header>
    <header>
      <identifier>oai:zenodo.org:277520</identifier>
      <datestamp>2017-02-08T21:17:09Z</datestamp>
      <setSpec>user-biosyslit</setSpec>
    </header>
    <header>
      <identifier>oai:zenodo.org:278622</identifier>
      <datestamp>2017-02-08T23:33:01Z</datestamp>
      <setSpec>user-biosyslit</setSpec>
    </header>
    <header>
      <identifier>oai:zenodo.org:279668</identifier>
      <datestamp>2017-02-09T01:47:42Z</datestamp>
      <setSpec>user-biosyslit</setSpec>
    </header>
    <header>
      <identifier>oai:zenodo.org:278275</identifier>
      <datestamp>2017-02-08T22:46:27Z</datestamp>
      <setSpec>user-biosyslit</setSpec>
    </header>
    <header>
      <identifier>oai:zenodo.org:278708</identifier>
      <datestamp>2017-02-08T23:44:18Z</datestamp>
      <setSpec>user-biosyslit</setSpec>
    </header>
    <header>
      <identifier>oai:zenodo.org:278672</identifier>
      <datestamp>2017-02-08T23:38:16Z</datestamp>
      <setSpec>user-biosyslit</setSpec>
    </header>
    <header>
      <identifier>oai:zenodo.org:279095</identifier>
      <datestamp>2017-02-09T00:36:08Z</datestamp>
      <setSpec>user-biosyslit</setSpec>
    </header>
    <header>
      <identifier>oai:zenodo.org:279750</identifier>
      <datestamp>2017-02-09T01:59:55Z</datestamp>
      <setSpec>user-biosyslit</setSpec>
    </header>
    <header>
      <identifier>oai:zenodo.org:279404</identifier>
      <datestamp>2017-02-09T01:14:42Z</datestamp>
      <setSpec>user-biosyslit</setSpec>
    </header>
    <header>
      <identifier>oai:zenodo.org:280225</identifier>
      <datestamp>2017-02-09T03:00:56Z</datestamp>
      <setSpec>user-biosyslit</setSpec>
    </header>
    <header>
      <identifier>oai:zenodo.org:281078</identifier>
      <datestamp>2017-02-09T04:41:18Z</datestamp>
      <setSpec>user-biosyslit</setSpec>
    </header>
    <header>
      <identifier>oai:zenodo.org:281458</identifier>
      <datestamp>2017-02-09T05:19:48Z</datestamp>
      <setSpec>user-biosyslit</setSpec>
    </header>
    <header>
      <identifier>oai:zenodo.org:281264</identifier>
      <datestamp>2017-02-09T05:01:41Z</datestamp>
      <setSpec>user-biosyslit</setSpec>
    </header>
    <header>
      <identifier>oai:zenodo.org:281885</identifier>
      <datestamp>2017-02-09T06:07:38Z</datestamp>
      <setSpec>user-biosyslit</setSpec>
    </header>
    <header>
      <identifier>oai:zenodo.org:282393</identifier>
      <datestamp>2017-02-09T06:55:56Z</datestamp>
      <setSpec>user-biosyslit</setSpec>
    </header>
    <header>
      <identifier>oai:zenodo.org:281966</identifier>
      <datestamp>2017-02-09T06:14:36Z</datestamp>
      <setSpec>user-biosyslit</setSpec>
    </header>
    <header>
      <identifier>oai:zenodo.org:282927</identifier>
      <datestamp>2017-02-09T07:51:28Z</datestamp>
      <setSpec>user-biosyslit</setSpec>
    </header>
    <header>
      <identifier>oai:zenodo.org:283332</identifier>
      <datestamp>2017-02-09T08:36:44Z</datestamp>
      <setSpec>user-biosyslit</setSpec>
    </header>
    <header>
      <identifier>oai:zenodo.org:281994</identifier>
      <datestamp>2017-02-09T06:17:54Z</datestamp>
      <setSpec>user-biosyslit</setSpec>
    </header>
    <header>
      <identifier>oai:zenodo.org:282378</identifier>
      <datestamp>2017-02-09T06:54:47Z</datestamp>
      <setSpec>user-biosyslit</setSpec>
    </header>
    <header>
      <identifier>oai:zenodo.org:282546</identifier>
      <datestamp>2017-02-09T07:12:12Z</datestamp>
      <setSpec>user-biosyslit</setSpec>
    </header>
    <header>
      <identifier>oai:zenodo.org:282533</identifier>
      <datestamp>2017-02-09T07:11:39Z</datestamp>
      <setSpec>user-biosyslit</setSpec>
    </header>
    <header>
      <identifier>oai:zenodo.org:283318</identifier>
      <datestamp>2017-02-09T08:35:24Z</datestamp>
      <setSpec>user-biosyslit</setSpec>
    </header>
    <header>
      <identifier>oai:zenodo.org:283400</identifier>
      <datestamp>2017-02-09T08:50:43Z</datestamp>
      <setSpec>user-biosyslit</setSpec>
    </header>
    <header>
      <identifier>oai:zenodo.org:284135</identifier>
      <datestamp>2017-02-09T10:32:45Z</datestamp>
      <setSpec>user-biosyslit</setSpec>
    </header>
    <header>
      <identifier>oai:zenodo.org:284199</identifier>
      <datestamp>2017-02-09T10:38:41Z</datestamp>
      <setSpec>user-biosyslit</setSpec>
    </header>
    <header>
      <identifier>oai:zenodo.org:283425</identifier>
      <datestamp>2017-02-09T08:54:22Z</datestamp>
      <setSpec>user-biosyslit</setSpec>
    </header>
    <header>
      <identifier>oai:zenodo.org:283904</identifier>
      <datestamp>2017-02-09T10:01:55Z</datestamp>
      <setSpec>user-biosyslit</setSpec>
    </header>
    <header>
      <identifier>oai:zenodo.org:283906</identifier>
      <datestamp>2017-02-09T10:03:16Z</datestamp>
      <setSpec>user-biosyslit</setSpec>
    </header>
    <header>
      <identifier>oai:zenodo.org:284357</identifier>
      <datestamp>2017-02-09T11:05:49Z</datestamp>
      <setSpec>user-biosyslit</setSpec>
    </header>
    <header>
      <identifier>oai:zenodo.org:284348</identifier>
      <datestamp>2017-02-09T11:05:25Z</datestamp>
      <setSpec>user-biosyslit</setSpec>
    </header>
    <header>
      <identifier>oai:zenodo.org:284591</identifier>
      <datestamp>2017-02-09T11:34:30Z</datestamp>
      <setSpec>user-biosyslit</setSpec>
    </header>
    <header>
      <identifier>oai:zenodo.org:284575</identifier>
      <datestamp>2017-02-09T11:33:36Z</datestamp>
      <setSpec>user-biosyslit</setSpec>
    </header>
    <header>
      <identifier>oai:zenodo.org:285502</identifier>
      <datestamp>2017-02-09T13:43:53Z</datestamp>
      <setSpec>user-biosyslit</setSpec>
    </header>
    <header>
      <identifier>oai:zenodo.org:285447</identifier>
      <datestamp>2017-02-09T13:36:14Z</datestamp>
      <setSpec>user-biosyslit</setSpec>
    </header>
    <header>
      <identifier>oai:zenodo.org:285476</identifier>
      <datestamp>2017-02-09T13:40:31Z</datestamp>
      <setSpec>user-biosyslit</setSpec>
    </header>
    <header>
      <identifier>oai:zenodo.org:285681</identifier>
      <datestamp>2017-02-09T14:06:31Z</datestamp>
      <setSpec>user-biosyslit</setSpec>
    </header>
    <header>
      <identifier>oai:zenodo.org:286677</identifier>
      <datestamp>2017-02-09T16:32:35Z</datestamp>
      <setSpec>user-biosyslit</setSpec>
    </header>
    <header>
      <identifier>oai:zenodo.org:286085</identifier>
      <datestamp>2017-02-09T15:12:43Z</datestamp>
      <setSpec>user-biosyslit</setSpec>
    </header>
    <header>
      <identifier>oai:zenodo.org:286282</identifier>
      <datestamp>2017-02-09T15:42:47Z</datestamp>
      <setSpec>user-biosyslit</setSpec>
    </header>
    <header>
      <identifier>oai:zenodo.org:286381</identifier>
      <datestamp>2017-02-09T15:54:30Z</datestamp>
      <setSpec>user-biosyslit</setSpec>
    </header>
    <header>
      <identifier>oai:zenodo.org:286670</identifier>
      <datestamp>2017-02-09T16:32:17Z</datestamp>
      <setSpec>user-biosyslit</setSpec>
    </header>
    <header>
      <identifier>oai:zenodo.org:286767</identifier>
      <datestamp>2017-02-09T16:45:57Z</datestamp>
      <setSpec>user-biosyslit</setSpec>
    </header>
    <header>
      <identifier>oai:zenodo.org:288659</identifier>
      <datestamp>2017-02-09T21:40:38Z</datestamp>
      <setSpec>user-biosyslit</setSpec>
    </header>
    <header>
      <identifier>oai:zenodo.org:286939</identifier>
      <datestamp>2017-02-09T17:05:59Z</datestamp>
      <setSpec>user-biosyslit</setSpec>
    </header>
    <header>
      <identifier>oai:zenodo.org:287954</identifier>
      <datestamp>2017-02-09T19:40:22Z</datestamp>
      <setSpec>user-biosyslit</setSpec>
    </header>
    <header>
      <identifier>oai:zenodo.org:287666</identifier>
      <datestamp>2017-02-09T18:52:28Z</datestamp>
      <setSpec>user-biosyslit</setSpec>
    </header>
    <header>
      <identifier>oai:zenodo.org:288016</identifier>
      <datestamp>2017-02-09T19:49:34Z</datestamp>
      <setSpec>user-biosyslit</setSpec>
    </header>
    <header>
      <identifier>oai:zenodo.org:289088</identifier>
      <datestamp>2017-02-09T22:36:32Z</datestamp>
      <setSpec>user-biosyslit</setSpec>
    </header>
    <header>
      <identifier>oai:zenodo.org:289010</identifier>
      <datestamp>2017-02-09T22:24:33Z</datestamp>
      <setSpec>user-biosyslit</setSpec>
    </header>
    <header>
      <identifier>oai:zenodo.org:289460</identifier>
      <datestamp>2017-02-09T23:32:49Z</datestamp>
      <setSpec>user-biosyslit</setSpec>
    </header>
    <header>
      <identifier>oai:zenodo.org:288745</identifier>
      <datestamp>2017-02-09T21:50:18Z</datestamp>
      <setSpec>user-biosyslit</setSpec>
    </header>
    <header>
      <identifier>oai:zenodo.org:289737</identifier>
      <datestamp>2017-02-10T00:22:57Z</datestamp>
      <setSpec>user-biosyslit</setSpec>
    </header>
    <header>
      <identifier>oai:zenodo.org:289310</identifier>
      <datestamp>2017-02-09T23:11:55Z</datestamp>
      <setSpec>user-biosyslit</setSpec>
    </header>
    <header>
      <identifier>oai:zenodo.org:289647</identifier>
      <datestamp>2017-02-10T00:02:02Z</datestamp>
      <setSpec>user-biosyslit</setSpec>
    </header>
    <header>
      <identifier>oai:zenodo.org:289804</identifier>
      <datestamp>2017-02-10T00:31:19Z</datestamp>
      <setSpec>user-biosyslit</setSpec>
    </header>
    <header>
      <identifier>oai:zenodo.org:289761</identifier>
      <datestamp>2017-02-10T00:25:57Z</datestamp>
      <setSpec>user-biosyslit</setSpec>
    </header>
    <header>
      <identifier>oai:zenodo.org:293185</identifier>
      <datestamp>2017-02-19T18:00:44Z</datestamp>
      <setSpec>openaire</setSpec>
      <setSpec>user-biosyslit</setSpec>
      <setSpec>user-neilreichia</setSpec>
    </header>
    <header>
      <identifier>oai:zenodo.org:293976</identifier>
      <datestamp>2017-02-20T19:05:10Z</datestamp>
      <setSpec>user-biosyslit</setSpec>
    </header>
    <header>
      <identifier>oai:zenodo.org:313286</identifier>
      <datestamp>2017-02-21T00:58:06Z</datestamp>
      <setSpec>user-biosyslit</setSpec>
    </header>
    <header>
      <identifier>oai:zenodo.org:311826</identifier>
      <datestamp>2017-02-21T00:29:54Z</datestamp>
      <setSpec>user-biosyslit</setSpec>
    </header>
    <header>
      <identifier>oai:zenodo.org:320159</identifier>
      <datestamp>2017-02-21T03:27:03Z</datestamp>
      <setSpec>user-biosyslit</setSpec>
    </header>
    <header>
      <identifier>oai:zenodo.org:322294</identifier>
      <datestamp>2017-02-24T09:04:09Z</datestamp>
      <setSpec>user-biosyslit</setSpec>
    </header>
    <header>
      <identifier>oai:zenodo.org:322184</identifier>
      <datestamp>2017-02-24T07:36:46Z</datestamp>
      <setSpec>user-biosyslit</setSpec>
    </header>
    <header>
      <identifier>oai:zenodo.org:322389</identifier>
      <datestamp>2017-02-24T15:53:46Z</datestamp>
      <setSpec>user-biosyslit</setSpec>
    </header>
    <resumptionToken expirationDate="2017-08-31T15:45:47Z" cursor="42300" completeListSize="77796">.eJyNysEKgjAYAOB3-c8S-zdrJnQRSzqkrDVJL2EqUq0SV6SL3r0unev8fU8wdV2BT0buFJEjnxJ3jBOPOWDK7qr17vBRKLepLi9aFVF6X59TktGGx6HpV2HGYnsiyRmtXAi6Ra9XBzKIjbpldt2nbPmQZM5XVgzxcfl5FUsine-jVqpLoCWtumQuBomBzFn5ffjnsz9faGbgQFs0NfguHTtwehRdY8B_vl5vZ-tRCA.DInAMw.GgkbbXZuXMLJ96I_VkVmXU_nxIY</resumptionToken>
  </ListIdentifiers>
</OAI-PMH>
