<?xml version='1.0' encoding='UTF-8'?>
<?xml-stylesheet type="text/xsl" href="/static/xsl/oai2.v1.0.xsl"?>
<OAI-PMH xmlns="http://www.openarchives.org/OAI/2.0/" xmlns:xsi="http://www.w3.org/2001/XMLSchema-instance" xsi:schemaLocation="http://www.openarchives.org/OAI/2.0/ http://www.openarchives.org/OAI/2.0/OAI-PMH.xsd">
  <responseDate>2017-08-31T15:41:43Z</responseDate>
  <request verb="ListIdentifiers" resumptionToken=".eJyNyssKgkAUANB_uWuJuU75gjZiSQsVnZR0E6Yi1WjiFOqI_16b1rU-ZwZRVSVYZGWYG2ONmkZNJAbqqIAo-gfn5-uHoTglvGh5nLvJK2oSkqq17jti9JyU-vJOggYl24fqCY0xvpIpPMbPVEZjQg8DIzvdk-Hk3w6fV9LA5dnF7Vjc2pypZR_swomhzTJafB_--eTP54gtKNDldQUWIlHgPuR9LcCal-UNopZROg.DIm_tw.6w1Jas4e_POlyVWOqru_MW1PCQY">https://zenodo.org/oai2d</request>
  <ListIdentifiers>
    <header>
      <identifier>oai:zenodo.org:250518</identifier>
      <datestamp>2017-01-18T11:22:40Z</datestamp>
      <setSpec>user-biosyslit</setSpec>
    </header>
    <header>
      <identifier>oai:zenodo.org:250670</identifier>
      <datestamp>2017-01-18T14:02:46Z</datestamp>
      <setSpec>user-biosyslit</setSpec>
    </header>
    <header>
      <identifier>oai:zenodo.org:250945</identifier>
      <datestamp>2017-01-18T16:42:45Z</datestamp>
      <setSpec>user-biosyslit</setSpec>
    </header>
    <header>
      <identifier>oai:zenodo.org:272833</identifier>
      <datestamp>2017-02-08T06:29:41Z</datestamp>
      <setSpec>user-biosyslit</setSpec>
    </header>
    <header>
      <identifier>oai:zenodo.org:250584</identifier>
      <datestamp>2017-01-18T12:29:47Z</datestamp>
      <setSpec>user-biosyslit</setSpec>
    </header>
    <header>
      <identifier>oai:zenodo.org:251600</identifier>
      <datestamp>2017-01-19T02:45:48Z</datestamp>
      <setSpec>user-biosyslit</setSpec>
    </header>
    <header>
      <identifier>oai:zenodo.org:272714</identifier>
      <datestamp>2017-02-08T06:15:05Z</datestamp>
      <setSpec>user-biosyslit</setSpec>
    </header>
    <header>
      <identifier>oai:zenodo.org:251620</identifier>
      <datestamp>2017-01-19T02:47:13Z</datestamp>
      <setSpec>user-biosyslit</setSpec>
    </header>
    <header>
      <identifier>oai:zenodo.org:273092</identifier>
      <datestamp>2017-02-08T07:09:20Z</datestamp>
      <setSpec>user-biosyslit</setSpec>
    </header>
    <header>
      <identifier>oai:zenodo.org:272689</identifier>
      <datestamp>2017-02-08T06:13:53Z</datestamp>
      <setSpec>user-biosyslit</setSpec>
    </header>
    <header>
      <identifier>oai:zenodo.org:250884</identifier>
      <datestamp>2017-01-18T16:11:05Z</datestamp>
      <setSpec>user-biosyslit</setSpec>
    </header>
    <header>
      <identifier>oai:zenodo.org:251270</identifier>
      <datestamp>2017-01-18T20:43:37Z</datestamp>
      <setSpec>user-biosyslit</setSpec>
    </header>
    <header>
      <identifier>oai:zenodo.org:250895</identifier>
      <datestamp>2017-01-18T16:11:40Z</datestamp>
      <setSpec>user-biosyslit</setSpec>
    </header>
    <header>
      <identifier>oai:zenodo.org:250898</identifier>
      <datestamp>2017-01-18T16:11:49Z</datestamp>
      <setSpec>user-biosyslit</setSpec>
    </header>
    <header>
      <identifier>oai:zenodo.org:272716</identifier>
      <datestamp>2017-02-08T06:15:11Z</datestamp>
      <setSpec>user-biosyslit</setSpec>
    </header>
    <header>
      <identifier>oai:zenodo.org:251129</identifier>
      <datestamp>2017-01-18T19:12:32Z</datestamp>
      <setSpec>user-biosyslit</setSpec>
    </header>
    <header>
      <identifier>oai:zenodo.org:276228</identifier>
      <datestamp>2017-02-08T18:27:04Z</datestamp>
      <setSpec>user-biosyslit</setSpec>
    </header>
    <header>
      <identifier>oai:zenodo.org:247304</identifier>
      <datestamp>2017-01-16T14:07:04Z</datestamp>
      <setSpec>user-biosyslit</setSpec>
    </header>
    <header>
      <identifier>oai:zenodo.org:247569</identifier>
      <datestamp>2017-01-16T17:12:52Z</datestamp>
      <setSpec>user-biosyslit</setSpec>
    </header>
    <header>
      <identifier>oai:zenodo.org:247341</identifier>
      <datestamp>2017-01-16T14:31:15Z</datestamp>
      <setSpec>user-biosyslit</setSpec>
    </header>
    <header>
      <identifier>oai:zenodo.org:247323</identifier>
      <datestamp>2017-01-23T04:39:27Z</datestamp>
      <setSpec>openaire</setSpec>
      <setSpec>user-biosyslit</setSpec>
    </header>
    <header>
      <identifier>oai:zenodo.org:247972</identifier>
      <datestamp>2017-01-16T22:08:34Z</datestamp>
      <setSpec>user-biosyslit</setSpec>
    </header>
    <header>
      <identifier>oai:zenodo.org:248722</identifier>
      <datestamp>2017-01-17T08:29:34Z</datestamp>
      <setSpec>user-biosyslit</setSpec>
    </header>
    <header>
      <identifier>oai:zenodo.org:248173</identifier>
      <datestamp>2017-01-17T00:43:38Z</datestamp>
      <setSpec>user-biosyslit</setSpec>
    </header>
    <header>
      <identifier>oai:zenodo.org:248714</identifier>
      <datestamp>2017-01-17T08:29:08Z</datestamp>
      <setSpec>user-biosyslit</setSpec>
    </header>
    <header>
      <identifier>oai:zenodo.org:249318</identifier>
      <datestamp>2017-01-17T18:34:49Z</datestamp>
      <setSpec>user-biosyslit</setSpec>
    </header>
    <header>
      <identifier>oai:zenodo.org:249117</identifier>
      <datestamp>2017-01-17T16:30:26Z</datestamp>
      <setSpec>user-biosyslit</setSpec>
    </header>
    <header>
      <identifier>oai:zenodo.org:248666</identifier>
      <datestamp>2017-01-17T08:00:42Z</datestamp>
      <setSpec>user-biosyslit</setSpec>
    </header>
    <header>
      <identifier>oai:zenodo.org:249112</identifier>
      <datestamp>2017-01-17T16:30:07Z</datestamp>
      <setSpec>user-biosyslit</setSpec>
    </header>
    <header>
      <identifier>oai:zenodo.org:249845</identifier>
      <datestamp>2017-01-18T00:40:26Z</datestamp>
      <setSpec>user-biosyslit</setSpec>
    </header>
    <header>
      <identifier>oai:zenodo.org:249329</identifier>
      <datestamp>2017-01-17T18:43:44Z</datestamp>
      <setSpec>user-biosyslit</setSpec>
    </header>
    <header>
      <identifier>oai:zenodo.org:250571</identifier>
      <datestamp>2017-01-18T12:28:37Z</datestamp>
      <setSpec>user-biosyslit</setSpec>
    </header>
    <header>
      <identifier>oai:zenodo.org:250474</identifier>
      <datestamp>2017-01-18T10:40:23Z</datestamp>
      <setSpec>user-biosyslit</setSpec>
    </header>
    <header>
      <identifier>oai:zenodo.org:251116</identifier>
      <datestamp>2017-01-18T18:51:46Z</datestamp>
      <setSpec>user-biosyslit</setSpec>
    </header>
    <header>
      <identifier>oai:zenodo.org:272594</identifier>
      <datestamp>2017-02-08T05:20:33Z</datestamp>
      <setSpec>user-biosyslit</setSpec>
    </header>
    <header>
      <identifier>oai:zenodo.org:249901</identifier>
      <datestamp>2017-01-18T01:39:24Z</datestamp>
      <setSpec>user-biosyslit</setSpec>
    </header>
    <header>
      <identifier>oai:zenodo.org:249951</identifier>
      <datestamp>2017-01-18T02:41:14Z</datestamp>
      <setSpec>user-biosyslit</setSpec>
    </header>
    <header>
      <identifier>oai:zenodo.org:250836</identifier>
      <datestamp>2017-01-18T15:25:39Z</datestamp>
      <setSpec>user-biosyslit</setSpec>
    </header>
    <header>
      <identifier>oai:zenodo.org:250910</identifier>
      <datestamp>2017-01-18T16:12:34Z</datestamp>
      <setSpec>user-biosyslit</setSpec>
    </header>
    <header>
      <identifier>oai:zenodo.org:250167</identifier>
      <datestamp>2017-01-18T05:44:59Z</datestamp>
      <setSpec>user-biosyslit</setSpec>
    </header>
    <header>
      <identifier>oai:zenodo.org:250202</identifier>
      <datestamp>2017-01-18T06:53:50Z</datestamp>
      <setSpec>user-biosyslit</setSpec>
    </header>
    <header>
      <identifier>oai:zenodo.org:250432</identifier>
      <datestamp>2017-01-18T10:13:34Z</datestamp>
      <setSpec>user-biosyslit</setSpec>
    </header>
    <header>
      <identifier>oai:zenodo.org:250633</identifier>
      <datestamp>2017-01-18T13:14:44Z</datestamp>
      <setSpec>user-biosyslit</setSpec>
    </header>
    <header>
      <identifier>oai:zenodo.org:251159</identifier>
      <datestamp>2017-01-18T19:31:38Z</datestamp>
      <setSpec>user-biosyslit</setSpec>
    </header>
    <header>
      <identifier>oai:zenodo.org:251558</identifier>
      <datestamp>2017-01-19T01:58:54Z</datestamp>
      <setSpec>user-biosyslit</setSpec>
    </header>
    <header>
      <identifier>oai:zenodo.org:272656</identifier>
      <datestamp>2017-02-08T06:12:22Z</datestamp>
      <setSpec>user-biosyslit</setSpec>
    </header>
    <header>
      <identifier>oai:zenodo.org:251625</identifier>
      <datestamp>2017-01-19T02:47:33Z</datestamp>
      <setSpec>user-biosyslit</setSpec>
    </header>
    <header>
      <identifier>oai:zenodo.org:250684</identifier>
      <datestamp>2017-01-18T14:03:40Z</datestamp>
      <setSpec>user-biosyslit</setSpec>
    </header>
    <header>
      <identifier>oai:zenodo.org:272618</identifier>
      <datestamp>2017-02-08T05:44:33Z</datestamp>
      <setSpec>user-biosyslit</setSpec>
    </header>
    <header>
      <identifier>oai:zenodo.org:272652</identifier>
      <datestamp>2017-02-08T06:12:12Z</datestamp>
      <setSpec>user-biosyslit</setSpec>
    </header>
    <header>
      <identifier>oai:zenodo.org:272919</identifier>
      <datestamp>2017-02-08T06:34:01Z</datestamp>
      <setSpec>user-biosyslit</setSpec>
    </header>
    <header>
      <identifier>oai:zenodo.org:251599</identifier>
      <datestamp>2017-01-19T02:45:44Z</datestamp>
      <setSpec>user-biosyslit</setSpec>
    </header>
    <header>
      <identifier>oai:zenodo.org:251678</identifier>
      <datestamp>2017-01-19T03:28:38Z</datestamp>
      <setSpec>user-biosyslit</setSpec>
    </header>
    <header>
      <identifier>oai:zenodo.org:251637</identifier>
      <datestamp>2017-01-19T02:48:16Z</datestamp>
      <setSpec>user-biosyslit</setSpec>
    </header>
    <header>
      <identifier>oai:zenodo.org:251467</identifier>
      <datestamp>2017-01-19T00:39:56Z</datestamp>
      <setSpec>user-biosyslit</setSpec>
    </header>
    <header>
      <identifier>oai:zenodo.org:247290</identifier>
      <datestamp>2017-01-16T13:46:37Z</datestamp>
      <setSpec>user-biosyslit</setSpec>
    </header>
    <header>
      <identifier>oai:zenodo.org:248145</identifier>
      <datestamp>2017-01-17T00:26:55Z</datestamp>
      <setSpec>user-biosyslit</setSpec>
    </header>
    <header>
      <identifier>oai:zenodo.org:248692</identifier>
      <datestamp>2017-01-17T08:17:08Z</datestamp>
      <setSpec>user-biosyslit</setSpec>
    </header>
    <header>
      <identifier>oai:zenodo.org:247308</identifier>
      <datestamp>2017-01-16T14:07:22Z</datestamp>
      <setSpec>user-biosyslit</setSpec>
    </header>
    <header>
      <identifier>oai:zenodo.org:247526</identifier>
      <datestamp>2017-01-16T16:47:19Z</datestamp>
      <setSpec>user-biosyslit</setSpec>
    </header>
    <header>
      <identifier>oai:zenodo.org:247967</identifier>
      <datestamp>2017-01-16T22:08:19Z</datestamp>
      <setSpec>user-biosyslit</setSpec>
    </header>
    <header>
      <identifier>oai:zenodo.org:247618</identifier>
      <datestamp>2017-01-16T17:39:33Z</datestamp>
      <setSpec>user-biosyslit</setSpec>
    </header>
    <header>
      <identifier>oai:zenodo.org:247634</identifier>
      <datestamp>2017-01-16T17:41:42Z</datestamp>
      <setSpec>user-biosyslit</setSpec>
    </header>
    <header>
      <identifier>oai:zenodo.org:248639</identifier>
      <datestamp>2017-01-17T07:38:46Z</datestamp>
      <setSpec>user-biosyslit</setSpec>
    </header>
    <header>
      <identifier>oai:zenodo.org:248135</identifier>
      <datestamp>2017-01-17T00:26:06Z</datestamp>
      <setSpec>user-biosyslit</setSpec>
    </header>
    <header>
      <identifier>oai:zenodo.org:248162</identifier>
      <datestamp>2017-01-17T00:43:06Z</datestamp>
      <setSpec>user-biosyslit</setSpec>
    </header>
    <header>
      <identifier>oai:zenodo.org:248658</identifier>
      <datestamp>2017-01-17T08:00:17Z</datestamp>
      <setSpec>user-biosyslit</setSpec>
    </header>
    <header>
      <identifier>oai:zenodo.org:248687</identifier>
      <datestamp>2017-01-17T08:16:43Z</datestamp>
      <setSpec>user-biosyslit</setSpec>
    </header>
    <header>
      <identifier>oai:zenodo.org:248297</identifier>
      <datestamp>2017-01-17T02:17:54Z</datestamp>
      <setSpec>user-biosyslit</setSpec>
    </header>
    <header>
      <identifier>oai:zenodo.org:248355</identifier>
      <datestamp>2017-01-17T03:15:43Z</datestamp>
      <setSpec>user-biosyslit</setSpec>
    </header>
    <header>
      <identifier>oai:zenodo.org:248248</identifier>
      <datestamp>2017-01-17T01:43:11Z</datestamp>
      <setSpec>user-biosyslit</setSpec>
    </header>
    <header>
      <identifier>oai:zenodo.org:248610</identifier>
      <datestamp>2017-01-17T06:01:54Z</datestamp>
      <setSpec>user-biosyslit</setSpec>
    </header>
    <header>
      <identifier>oai:zenodo.org:248366</identifier>
      <datestamp>2017-01-17T03:16:24Z</datestamp>
      <setSpec>user-biosyslit</setSpec>
    </header>
    <header>
      <identifier>oai:zenodo.org:248659</identifier>
      <datestamp>2017-01-17T08:00:19Z</datestamp>
      <setSpec>user-biosyslit</setSpec>
    </header>
    <header>
      <identifier>oai:zenodo.org:248624</identifier>
      <datestamp>2017-01-17T07:26:54Z</datestamp>
      <setSpec>user-biosyslit</setSpec>
    </header>
    <header>
      <identifier>oai:zenodo.org:249013</identifier>
      <datestamp>2017-01-17T14:59:43Z</datestamp>
      <setSpec>user-biosyslit</setSpec>
    </header>
    <header>
      <identifier>oai:zenodo.org:250074</identifier>
      <datestamp>2017-01-18T04:35:18Z</datestamp>
      <setSpec>user-biosyslit</setSpec>
    </header>
    <header>
      <identifier>oai:zenodo.org:249057</identifier>
      <datestamp>2017-01-17T15:45:18Z</datestamp>
      <setSpec>user-biosyslit</setSpec>
    </header>
    <header>
      <identifier>oai:zenodo.org:250630</identifier>
      <datestamp>2017-01-18T13:14:33Z</datestamp>
      <setSpec>user-biosyslit</setSpec>
    </header>
    <header>
      <identifier>oai:zenodo.org:272632</identifier>
      <datestamp>2017-02-08T05:54:00Z</datestamp>
      <setSpec>user-biosyslit</setSpec>
    </header>
    <header>
      <identifier>oai:zenodo.org:272733</identifier>
      <datestamp>2017-02-08T06:15:53Z</datestamp>
      <setSpec>user-biosyslit</setSpec>
    </header>
    <header>
      <identifier>oai:zenodo.org:249655</identifier>
      <datestamp>2017-01-17T22:09:23Z</datestamp>
      <setSpec>user-biosyslit</setSpec>
    </header>
    <header>
      <identifier>oai:zenodo.org:249722</identifier>
      <datestamp>2017-01-17T23:05:18Z</datestamp>
      <setSpec>user-biosyslit</setSpec>
    </header>
    <header>
      <identifier>oai:zenodo.org:249609</identifier>
      <datestamp>2017-01-17T21:41:22Z</datestamp>
      <setSpec>user-biosyslit</setSpec>
    </header>
    <header>
      <identifier>oai:zenodo.org:250325</identifier>
      <datestamp>2017-01-18T08:25:50Z</datestamp>
      <setSpec>user-biosyslit</setSpec>
    </header>
    <header>
      <identifier>oai:zenodo.org:249962</identifier>
      <datestamp>2017-01-18T02:41:50Z</datestamp>
      <setSpec>user-biosyslit</setSpec>
    </header>
    <header>
      <identifier>oai:zenodo.org:249848</identifier>
      <datestamp>2017-01-18T00:40:36Z</datestamp>
      <setSpec>user-biosyslit</setSpec>
    </header>
    <header>
      <identifier>oai:zenodo.org:249594</identifier>
      <datestamp>2017-01-17T21:32:07Z</datestamp>
      <setSpec>user-biosyslit</setSpec>
    </header>
    <header>
      <identifier>oai:zenodo.org:250519</identifier>
      <datestamp>2017-01-18T11:22:47Z</datestamp>
      <setSpec>user-biosyslit</setSpec>
    </header>
    <header>
      <identifier>oai:zenodo.org:249900</identifier>
      <datestamp>2017-01-18T01:39:14Z</datestamp>
      <setSpec>user-biosyslit</setSpec>
    </header>
    <header>
      <identifier>oai:zenodo.org:250316</identifier>
      <datestamp>2017-01-18T08:18:32Z</datestamp>
      <setSpec>user-biosyslit</setSpec>
    </header>
    <header>
      <identifier>oai:zenodo.org:250038</identifier>
      <datestamp>2017-01-18T04:03:08Z</datestamp>
      <setSpec>user-biosyslit</setSpec>
    </header>
    <header>
      <identifier>oai:zenodo.org:249818</identifier>
      <datestamp>2017-01-18T00:17:20Z</datestamp>
      <setSpec>user-biosyslit</setSpec>
    </header>
    <header>
      <identifier>oai:zenodo.org:249897</identifier>
      <datestamp>2017-01-18T01:39:00Z</datestamp>
      <setSpec>user-biosyslit</setSpec>
    </header>
    <header>
      <identifier>oai:zenodo.org:250514</identifier>
      <datestamp>2017-01-18T11:22:04Z</datestamp>
      <setSpec>user-biosyslit</setSpec>
    </header>
    <header>
      <identifier>oai:zenodo.org:250906</identifier>
      <datestamp>2017-01-18T16:12:20Z</datestamp>
      <setSpec>user-biosyslit</setSpec>
    </header>
    <header>
      <identifier>oai:zenodo.org:251261</identifier>
      <datestamp>2017-01-18T20:43:08Z</datestamp>
      <setSpec>user-biosyslit</setSpec>
    </header>
    <header>
      <identifier>oai:zenodo.org:250257</identifier>
      <datestamp>2017-01-18T07:30:05Z</datestamp>
      <setSpec>user-biosyslit</setSpec>
    </header>
    <header>
      <identifier>oai:zenodo.org:251565</identifier>
      <datestamp>2017-01-19T01:59:17Z</datestamp>
      <setSpec>user-biosyslit</setSpec>
    </header>
    <header>
      <identifier>oai:zenodo.org:251321</identifier>
      <datestamp>2017-01-18T21:21:17Z</datestamp>
      <setSpec>user-biosyslit</setSpec>
    </header>
    <resumptionToken expirationDate="2017-08-31T15:43:43Z" cursor="10900" completeListSize="77796">.eJyNyrEKgkAYAOB3-WeJ-73EFFpCkwYVvRR1CVOR8jTxCvXCd8-luebve4OoqhJMstE0DelWJ7g1dIMSQwFRDA_OL7eVoUhiXnQ8yp34FbYxSdVa9ywxuVZKPdkQv0XJjoGa4G6KbmQOztEzleEU09PIiK27Mpi9-2l9JfUdnl2dnkXdgTO1HHw7mBkeWEaL78M_n_z5LLEHBfq8rsBERAWaMR9qAeZ7WT6de1E2.DIm_tw.UBx-OaTT2hqQRXlwUnkIbCFsPWI</resumptionToken>
  </ListIdentifiers>
</OAI-PMH>
