<?xml version='1.0' encoding='UTF-8'?>
<?xml-stylesheet type="text/xsl" href="/static/xsl/oai2.v1.0.xsl"?>
<OAI-PMH xmlns="http://www.openarchives.org/OAI/2.0/" xmlns:xsi="http://www.w3.org/2001/XMLSchema-instance" xsi:schemaLocation="http://www.openarchives.org/OAI/2.0/ http://www.openarchives.org/OAI/2.0/OAI-PMH.xsd">
  <responseDate>2017-08-31T15:43:40Z</responseDate>
  <request verb="ListIdentifiers" resumptionToken=".eJyNyrsOgjAUANB_uTMxfSivxIWgxAFIqRBgMVgIUYsaqgFq_HdZnHU-5wWqaWpw0QJjhzq2aZnEoStMbNMAJfqblIfT7CDyTIqrTKsgeyZdhgrSWpGvxtAvaKQvKO6w5ltGcmyP6QlNbJ8-Cp2MGd0NHG2sULMpOu_mV9M4kOUxuPP06klO6j7esIljj5dUfB_-8-mfz1drMOBetQ24S2QbcBmqvlXgvt7vD9vpUX0.DInALA.zs2zl4HcCjLwIn8uwxRr0hQjKPM">https://zenodo.org/oai2d</request>
  <ListIdentifiers>
    <header>
      <identifier>oai:zenodo.org:277485</identifier>
      <datestamp>2017-02-08T21:13:35Z</datestamp>
      <setSpec>user-biosyslit</setSpec>
    </header>
    <header>
      <identifier>oai:zenodo.org:278161</identifier>
      <datestamp>2017-02-08T22:35:21Z</datestamp>
      <setSpec>user-biosyslit</setSpec>
    </header>
    <header>
      <identifier>oai:zenodo.org:277422</identifier>
      <datestamp>2017-02-08T21:07:03Z</datestamp>
      <setSpec>user-biosyslit</setSpec>
    </header>
    <header>
      <identifier>oai:zenodo.org:278789</identifier>
      <datestamp>2017-02-08T23:53:23Z</datestamp>
      <setSpec>user-biosyslit</setSpec>
    </header>
    <header>
      <identifier>oai:zenodo.org:278908</identifier>
      <datestamp>2017-02-09T00:05:50Z</datestamp>
      <setSpec>user-biosyslit</setSpec>
    </header>
    <header>
      <identifier>oai:zenodo.org:257687</identifier>
      <datestamp>2017-01-23T12:18:47Z</datestamp>
      <setSpec>user-biosyslit</setSpec>
    </header>
    <header>
      <identifier>oai:zenodo.org:257815</identifier>
      <datestamp>2017-01-23T13:30:37Z</datestamp>
      <setSpec>user-biosyslit</setSpec>
    </header>
    <header>
      <identifier>oai:zenodo.org:258473</identifier>
      <datestamp>2017-01-23T23:27:49Z</datestamp>
      <setSpec>user-biosyslit</setSpec>
    </header>
    <header>
      <identifier>oai:zenodo.org:257578</identifier>
      <datestamp>2017-01-23T10:49:51Z</datestamp>
      <setSpec>user-biosyslit</setSpec>
    </header>
    <header>
      <identifier>oai:zenodo.org:258169</identifier>
      <datestamp>2017-01-23T17:34:47Z</datestamp>
      <setSpec>user-biosyslit</setSpec>
    </header>
    <header>
      <identifier>oai:zenodo.org:258540</identifier>
      <datestamp>2017-01-24T00:04:53Z</datestamp>
      <setSpec>user-biosyslit</setSpec>
    </header>
    <header>
      <identifier>oai:zenodo.org:258549</identifier>
      <datestamp>2017-01-24T00:05:27Z</datestamp>
      <setSpec>user-biosyslit</setSpec>
    </header>
    <header>
      <identifier>oai:zenodo.org:257499</identifier>
      <datestamp>2017-01-23T08:19:42Z</datestamp>
      <setSpec>user-biosyslit</setSpec>
    </header>
    <header>
      <identifier>oai:zenodo.org:258585</identifier>
      <datestamp>2017-01-24T01:48:29Z</datestamp>
      <setSpec>user-biosyslit</setSpec>
    </header>
    <header>
      <identifier>oai:zenodo.org:258344</identifier>
      <datestamp>2017-01-23T21:18:06Z</datestamp>
      <setSpec>user-biosyslit</setSpec>
    </header>
    <header>
      <identifier>oai:zenodo.org:258307</identifier>
      <datestamp>2017-01-23T20:34:31Z</datestamp>
      <setSpec>user-biosyslit</setSpec>
    </header>
    <header>
      <identifier>oai:zenodo.org:258996</identifier>
      <datestamp>2017-01-24T07:21:44Z</datestamp>
      <setSpec>user-biosyslit</setSpec>
    </header>
    <header>
      <identifier>oai:zenodo.org:259644</identifier>
      <datestamp>2017-01-25T14:39:30Z</datestamp>
      <setSpec>user-biosyslit</setSpec>
    </header>
    <header>
      <identifier>oai:zenodo.org:260671</identifier>
      <datestamp>2017-01-27T23:19:42Z</datestamp>
      <setSpec>user-biosyslit</setSpec>
    </header>
    <header>
      <identifier>oai:zenodo.org:276108</identifier>
      <datestamp>2017-02-08T18:08:00Z</datestamp>
      <setSpec>user-biosyslit</setSpec>
    </header>
    <header>
      <identifier>oai:zenodo.org:261489</identifier>
      <datestamp>2017-01-28T09:39:53Z</datestamp>
      <setSpec>user-biosyslit</setSpec>
    </header>
    <header>
      <identifier>oai:zenodo.org:260563</identifier>
      <datestamp>2017-01-27T21:51:35Z</datestamp>
      <setSpec>user-biosyslit</setSpec>
    </header>
    <header>
      <identifier>oai:zenodo.org:280588</identifier>
      <datestamp>2017-02-09T03:41:42Z</datestamp>
      <setSpec>user-biosyslit</setSpec>
    </header>
    <header>
      <identifier>oai:zenodo.org:260864</identifier>
      <datestamp>2017-01-28T01:45:30Z</datestamp>
      <setSpec>user-biosyslit</setSpec>
    </header>
    <header>
      <identifier>oai:zenodo.org:261166</identifier>
      <datestamp>2017-01-28T06:02:56Z</datestamp>
      <setSpec>user-biosyslit</setSpec>
    </header>
    <header>
      <identifier>oai:zenodo.org:261279</identifier>
      <datestamp>2017-01-28T07:30:13Z</datestamp>
      <setSpec>user-biosyslit</setSpec>
    </header>
    <header>
      <identifier>oai:zenodo.org:261047</identifier>
      <datestamp>2017-01-28T04:26:40Z</datestamp>
      <setSpec>user-biosyslit</setSpec>
    </header>
    <header>
      <identifier>oai:zenodo.org:260658</identifier>
      <datestamp>2017-01-27T23:05:28Z</datestamp>
      <setSpec>user-biosyslit</setSpec>
    </header>
    <header>
      <identifier>oai:zenodo.org:279428</identifier>
      <datestamp>2017-02-09T01:21:14Z</datestamp>
      <setSpec>user-biosyslit</setSpec>
    </header>
    <header>
      <identifier>oai:zenodo.org:261533</identifier>
      <datestamp>2017-01-28T10:10:53Z</datestamp>
      <setSpec>user-biosyslit</setSpec>
    </header>
    <header>
      <identifier>oai:zenodo.org:261442</identifier>
      <datestamp>2017-01-28T08:46:12Z</datestamp>
      <setSpec>user-biosyslit</setSpec>
    </header>
    <header>
      <identifier>oai:zenodo.org:261021</identifier>
      <datestamp>2017-01-28T03:51:42Z</datestamp>
      <setSpec>user-biosyslit</setSpec>
    </header>
    <header>
      <identifier>oai:zenodo.org:261326</identifier>
      <datestamp>2017-01-28T07:57:00Z</datestamp>
      <setSpec>user-biosyslit</setSpec>
    </header>
    <header>
      <identifier>oai:zenodo.org:260782</identifier>
      <datestamp>2017-01-28T00:52:48Z</datestamp>
      <setSpec>user-biosyslit</setSpec>
    </header>
    <header>
      <identifier>oai:zenodo.org:261466</identifier>
      <datestamp>2017-01-28T09:23:33Z</datestamp>
      <setSpec>user-biosyslit</setSpec>
    </header>
    <header>
      <identifier>oai:zenodo.org:261269</identifier>
      <datestamp>2017-01-28T07:29:43Z</datestamp>
      <setSpec>user-biosyslit</setSpec>
    </header>
    <header>
      <identifier>oai:zenodo.org:261090</identifier>
      <datestamp>2017-01-28T04:46:49Z</datestamp>
      <setSpec>user-biosyslit</setSpec>
    </header>
    <header>
      <identifier>oai:zenodo.org:262023</identifier>
      <datestamp>2017-01-28T19:27:29Z</datestamp>
      <setSpec>user-biosyslit</setSpec>
    </header>
    <header>
      <identifier>oai:zenodo.org:273722</identifier>
      <datestamp>2017-02-08T10:28:50Z</datestamp>
      <setSpec>user-biosyslit</setSpec>
    </header>
    <header>
      <identifier>oai:zenodo.org:262215</identifier>
      <datestamp>2017-01-28T23:45:09Z</datestamp>
      <setSpec>user-biosyslit</setSpec>
    </header>
    <header>
      <identifier>oai:zenodo.org:261898</identifier>
      <datestamp>2017-01-28T17:08:03Z</datestamp>
      <setSpec>user-biosyslit</setSpec>
    </header>
    <header>
      <identifier>oai:zenodo.org:274090</identifier>
      <datestamp>2017-02-08T12:07:31Z</datestamp>
      <setSpec>user-biosyslit</setSpec>
    </header>
    <header>
      <identifier>oai:zenodo.org:276374</identifier>
      <datestamp>2017-02-08T18:43:36Z</datestamp>
      <setSpec>user-biosyslit</setSpec>
    </header>
    <header>
      <identifier>oai:zenodo.org:274031</identifier>
      <datestamp>2017-02-08T11:52:04Z</datestamp>
      <setSpec>user-biosyslit</setSpec>
    </header>
    <header>
      <identifier>oai:zenodo.org:274642</identifier>
      <datestamp>2017-02-08T13:52:32Z</datestamp>
      <setSpec>user-biosyslit</setSpec>
    </header>
    <header>
      <identifier>oai:zenodo.org:262746</identifier>
      <datestamp>2017-01-29T07:53:45Z</datestamp>
      <setSpec>user-biosyslit</setSpec>
    </header>
    <header>
      <identifier>oai:zenodo.org:262647</identifier>
      <datestamp>2017-01-29T06:49:00Z</datestamp>
      <setSpec>user-biosyslit</setSpec>
    </header>
    <header>
      <identifier>oai:zenodo.org:263087</identifier>
      <datestamp>2017-01-29T16:39:20Z</datestamp>
      <setSpec>user-biosyslit</setSpec>
    </header>
    <header>
      <identifier>oai:zenodo.org:262962</identifier>
      <datestamp>2017-01-29T14:03:11Z</datestamp>
      <setSpec>user-biosyslit</setSpec>
    </header>
    <header>
      <identifier>oai:zenodo.org:263028</identifier>
      <datestamp>2017-01-29T15:04:25Z</datestamp>
      <setSpec>user-biosyslit</setSpec>
    </header>
    <header>
      <identifier>oai:zenodo.org:262808</identifier>
      <datestamp>2017-01-29T09:17:06Z</datestamp>
      <setSpec>user-biosyslit</setSpec>
    </header>
    <header>
      <identifier>oai:zenodo.org:263377</identifier>
      <datestamp>2017-01-29T22:29:34Z</datestamp>
      <setSpec>user-biosyslit</setSpec>
    </header>
    <header>
      <identifier>oai:zenodo.org:263237</identifier>
      <datestamp>2017-01-29T19:28:18Z</datestamp>
      <setSpec>user-biosyslit</setSpec>
    </header>
    <header>
      <identifier>oai:zenodo.org:264441</identifier>
      <datestamp>2017-01-30T21:42:06Z</datestamp>
      <setSpec>user-biosyslit</setSpec>
    </header>
    <header>
      <identifier>oai:zenodo.org:264414</identifier>
      <datestamp>2017-01-30T21:17:26Z</datestamp>
      <setSpec>user-biosyslit</setSpec>
    </header>
    <header>
      <identifier>oai:zenodo.org:263331</identifier>
      <datestamp>2017-01-29T22:25:07Z</datestamp>
      <setSpec>user-biosyslit</setSpec>
    </header>
    <header>
      <identifier>oai:zenodo.org:263638</identifier>
      <datestamp>2017-01-30T01:51:39Z</datestamp>
      <setSpec>user-biosyslit</setSpec>
    </header>
    <header>
      <identifier>oai:zenodo.org:263915</identifier>
      <datestamp>2017-01-30T10:09:42Z</datestamp>
      <setSpec>user-biosyslit</setSpec>
    </header>
    <header>
      <identifier>oai:zenodo.org:264538</identifier>
      <datestamp>2017-01-30T23:06:28Z</datestamp>
      <setSpec>user-biosyslit</setSpec>
    </header>
    <header>
      <identifier>oai:zenodo.org:266677</identifier>
      <datestamp>2017-02-01T13:34:30Z</datestamp>
      <setSpec>user-biosyslit</setSpec>
    </header>
    <header>
      <identifier>oai:zenodo.org:265316</identifier>
      <datestamp>2017-01-31T12:16:09Z</datestamp>
      <setSpec>user-biosyslit</setSpec>
    </header>
    <header>
      <identifier>oai:zenodo.org:265263</identifier>
      <datestamp>2017-01-31T10:57:25Z</datestamp>
      <setSpec>user-biosyslit</setSpec>
    </header>
    <header>
      <identifier>oai:zenodo.org:266699</identifier>
      <datestamp>2017-02-01T14:03:39Z</datestamp>
      <setSpec>user-biosyslit</setSpec>
    </header>
    <header>
      <identifier>oai:zenodo.org:265418</identifier>
      <datestamp>2017-01-31T13:45:34Z</datestamp>
      <setSpec>user-biosyslit</setSpec>
    </header>
    <header>
      <identifier>oai:zenodo.org:265414</identifier>
      <datestamp>2017-01-31T13:41:37Z</datestamp>
      <setSpec>user-biosyslit</setSpec>
    </header>
    <header>
      <identifier>oai:zenodo.org:266344</identifier>
      <datestamp>2017-02-01T06:36:11Z</datestamp>
      <setSpec>user-biosyslit</setSpec>
    </header>
    <header>
      <identifier>oai:zenodo.org:266295</identifier>
      <datestamp>2017-02-01T05:53:48Z</datestamp>
      <setSpec>user-biosyslit</setSpec>
    </header>
    <header>
      <identifier>oai:zenodo.org:266537</identifier>
      <datestamp>2017-02-01T11:44:05Z</datestamp>
      <setSpec>user-biosyslit</setSpec>
    </header>
    <header>
      <identifier>oai:zenodo.org:266544</identifier>
      <datestamp>2017-02-01T12:04:44Z</datestamp>
      <setSpec>user-biosyslit</setSpec>
    </header>
    <header>
      <identifier>oai:zenodo.org:267091</identifier>
      <datestamp>2017-02-01T19:12:24Z</datestamp>
      <setSpec>user-biosyslit</setSpec>
    </header>
    <header>
      <identifier>oai:zenodo.org:266201</identifier>
      <datestamp>2017-02-01T02:10:24Z</datestamp>
      <setSpec>user-biosyslit</setSpec>
    </header>
    <header>
      <identifier>oai:zenodo.org:266528</identifier>
      <datestamp>2017-02-01T11:43:38Z</datestamp>
      <setSpec>user-biosyslit</setSpec>
    </header>
    <header>
      <identifier>oai:zenodo.org:274743</identifier>
      <datestamp>2017-02-08T14:09:25Z</datestamp>
      <setSpec>user-biosyslit</setSpec>
    </header>
    <header>
      <identifier>oai:zenodo.org:267164</identifier>
      <datestamp>2017-02-01T20:25:05Z</datestamp>
      <setSpec>user-biosyslit</setSpec>
    </header>
    <header>
      <identifier>oai:zenodo.org:267296</identifier>
      <datestamp>2017-02-01T23:59:08Z</datestamp>
      <setSpec>user-biosyslit</setSpec>
    </header>
    <header>
      <identifier>oai:zenodo.org:267103</identifier>
      <datestamp>2017-02-01T19:25:04Z</datestamp>
      <setSpec>user-biosyslit</setSpec>
    </header>
    <header>
      <identifier>oai:zenodo.org:268115</identifier>
      <datestamp>2017-02-03T01:33:50Z</datestamp>
      <setSpec>user-biosyslit</setSpec>
    </header>
    <header>
      <identifier>oai:zenodo.org:274352</identifier>
      <datestamp>2017-02-08T13:00:26Z</datestamp>
      <setSpec>user-biosyslit</setSpec>
    </header>
    <header>
      <identifier>oai:zenodo.org:268245</identifier>
      <datestamp>2017-02-03T04:35:23Z</datestamp>
      <setSpec>user-biosyslit</setSpec>
    </header>
    <header>
      <identifier>oai:zenodo.org:268101</identifier>
      <datestamp>2017-02-03T01:33:18Z</datestamp>
      <setSpec>user-biosyslit</setSpec>
    </header>
    <header>
      <identifier>oai:zenodo.org:268376</identifier>
      <datestamp>2017-02-03T12:39:32Z</datestamp>
      <setSpec>user-biosyslit</setSpec>
    </header>
    <header>
      <identifier>oai:zenodo.org:274491</identifier>
      <datestamp>2017-02-08T13:30:40Z</datestamp>
      <setSpec>user-biosyslit</setSpec>
    </header>
    <header>
      <identifier>oai:zenodo.org:269213</identifier>
      <datestamp>2017-02-06T23:30:22Z</datestamp>
      <setSpec>user-biosyslit</setSpec>
    </header>
    <header>
      <identifier>oai:zenodo.org:269004</identifier>
      <datestamp>2017-02-06T20:10:46Z</datestamp>
      <setSpec>user-biosyslit</setSpec>
    </header>
    <header>
      <identifier>oai:zenodo.org:269519</identifier>
      <datestamp>2017-02-07T00:44:36Z</datestamp>
      <setSpec>user-biosyslit</setSpec>
    </header>
    <header>
      <identifier>oai:zenodo.org:275038</identifier>
      <datestamp>2017-02-08T15:08:28Z</datestamp>
      <setSpec>user-biosyslit</setSpec>
    </header>
    <header>
      <identifier>oai:zenodo.org:276103</identifier>
      <datestamp>2017-02-08T18:07:48Z</datestamp>
      <setSpec>user-biosyslit</setSpec>
    </header>
    <header>
      <identifier>oai:zenodo.org:274982</identifier>
      <datestamp>2017-02-08T14:57:42Z</datestamp>
      <setSpec>user-biosyslit</setSpec>
    </header>
    <header>
      <identifier>oai:zenodo.org:275029</identifier>
      <datestamp>2017-02-08T15:08:05Z</datestamp>
      <setSpec>user-biosyslit</setSpec>
    </header>
    <header>
      <identifier>oai:zenodo.org:275895</identifier>
      <datestamp>2017-02-08T17:20:12Z</datestamp>
      <setSpec>user-biosyslit</setSpec>
    </header>
    <header>
      <identifier>oai:zenodo.org:275601</identifier>
      <datestamp>2017-02-08T16:46:38Z</datestamp>
      <setSpec>user-biosyslit</setSpec>
    </header>
    <header>
      <identifier>oai:zenodo.org:276094</identifier>
      <datestamp>2017-02-08T18:07:19Z</datestamp>
      <setSpec>user-biosyslit</setSpec>
    </header>
    <header>
      <identifier>oai:zenodo.org:278087</identifier>
      <datestamp>2017-02-08T22:24:43Z</datestamp>
      <setSpec>user-biosyslit</setSpec>
    </header>
    <header>
      <identifier>oai:zenodo.org:277898</identifier>
      <datestamp>2017-02-08T22:02:04Z</datestamp>
      <setSpec>user-biosyslit</setSpec>
    </header>
    <header>
      <identifier>oai:zenodo.org:278863</identifier>
      <datestamp>2017-02-09T00:00:19Z</datestamp>
      <setSpec>user-biosyslit</setSpec>
    </header>
    <header>
      <identifier>oai:zenodo.org:278148</identifier>
      <datestamp>2017-02-08T22:32:23Z</datestamp>
      <setSpec>user-biosyslit</setSpec>
    </header>
    <header>
      <identifier>oai:zenodo.org:277021</identifier>
      <datestamp>2017-02-08T20:12:33Z</datestamp>
      <setSpec>user-biosyslit</setSpec>
    </header>
    <header>
      <identifier>oai:zenodo.org:277209</identifier>
      <datestamp>2017-02-08T20:36:56Z</datestamp>
      <setSpec>user-biosyslit</setSpec>
    </header>
    <header>
      <identifier>oai:zenodo.org:277790</identifier>
      <datestamp>2017-02-08T21:50:07Z</datestamp>
      <setSpec>user-biosyslit</setSpec>
    </header>
    <header>
      <identifier>oai:zenodo.org:277101</identifier>
      <datestamp>2017-02-08T20:24:19Z</datestamp>
      <setSpec>user-biosyslit</setSpec>
    </header>
    <resumptionToken expirationDate="2017-08-31T15:45:40Z" cursor="40700" completeListSize="77796">.eJyNysEKgjAYAOB3-c8SmyabQpewpIPKWhvZJWyKVNPEFemkd69L5zp_3wSmqkoI0Yz6fuBS4mOCMKJz4oBR_U3r4_nDoPZSq1aLIpaPbSNR7tYkjcyQRLmX2ivKGmz5mrl7TAdxRiPbiXtut4P0Nk-OViSxbEwvm88rvSzWh1PccdEuNXfLPluxkeMlP3jq-_Cfz_58kVmAA11RVxDOUeDA9Vn0tYFwer3eoxJRRQ.DInALA.2Oj5HKIxEeS_4iQB4phXAcCzucA</resumptionToken>
  </ListIdentifiers>
</OAI-PMH>
