<?xml version='1.0' encoding='UTF-8'?>
<?xml-stylesheet type="text/xsl" href="/static/xsl/oai2.v1.0.xsl"?>
<OAI-PMH xmlns="http://www.openarchives.org/OAI/2.0/" xmlns:xsi="http://www.w3.org/2001/XMLSchema-instance" xsi:schemaLocation="http://www.openarchives.org/OAI/2.0/ http://www.openarchives.org/OAI/2.0/OAI-PMH.xsd">
  <responseDate>2017-08-31T15:42:11Z</responseDate>
  <request verb="ListIdentifiers" resumptionToken=".eJyNysEKgjAYAOB3-c8Sm7NmQhfRxIPKWkp6CVMRa5q4Ip347nXpXOfvm0FWVQkWWplrA1G8wWRr0I1haiCL4S7EufkoFKdEFJ2Icy95HtoEpXpNQ0eOgZOSUN1Q1GLF90w_YXOMGzSxY_xI1WFMiP_iyKWBYlN49T-vJJEnsovX87izBdfLIXLZxLHNM1J8H_7zqZ_PkTvQoM_rCixsEg1ur3yoJVjzsrwBbkdREA.DIm_0w.nc_qyASJ4lt61NasIovdps9CzpI">https://zenodo.org/oai2d</request>
  <ListIdentifiers>
    <header>
      <identifier>oai:zenodo.org:574217</identifier>
      <datestamp>2017-05-11T07:23:38Z</datestamp>
      <setSpec>user-biosyslit</setSpec>
    </header>
    <header>
      <identifier>oai:zenodo.org:322741</identifier>
      <datestamp>2017-02-27T10:11:54Z</datestamp>
      <setSpec>user-biosyslit</setSpec>
    </header>
    <header>
      <identifier>oai:zenodo.org:573634</identifier>
      <datestamp>2017-05-10T07:35:53Z</datestamp>
      <setSpec>user-biosyslit</setSpec>
    </header>
    <header>
      <identifier>oai:zenodo.org:573653</identifier>
      <datestamp>2017-05-10T08:02:36Z</datestamp>
      <setSpec>user-biosyslit</setSpec>
    </header>
    <header>
      <identifier>oai:zenodo.org:575332</identifier>
      <datestamp>2017-05-12T08:06:46Z</datestamp>
      <setSpec>user-biosyslit</setSpec>
    </header>
    <header>
      <identifier>oai:zenodo.org:344061</identifier>
      <datestamp>2017-02-28T23:48:59Z</datestamp>
      <setSpec>user-biosyslit</setSpec>
    </header>
    <header>
      <identifier>oai:zenodo.org:343961</identifier>
      <datestamp>2017-02-28T23:50:24Z</datestamp>
      <setSpec>user-biosyslit</setSpec>
    </header>
    <header>
      <identifier>oai:zenodo.org:343807</identifier>
      <datestamp>2017-02-28T08:52:35Z</datestamp>
      <setSpec>user-biosyslit</setSpec>
    </header>
    <header>
      <identifier>oai:zenodo.org:343759</identifier>
      <datestamp>2017-02-28T08:25:53Z</datestamp>
      <setSpec>user-biosyslit</setSpec>
    </header>
    <header>
      <identifier>oai:zenodo.org:575649</identifier>
      <datestamp>2017-05-12T08:29:20Z</datestamp>
      <setSpec>user-biosyslit</setSpec>
    </header>
    <header>
      <identifier>oai:zenodo.org:344375</identifier>
      <datestamp>2017-02-28T23:40:31Z</datestamp>
      <setSpec>user-biosyslit</setSpec>
    </header>
    <header>
      <identifier>oai:zenodo.org:344244</identifier>
      <datestamp>2017-02-28T23:43:03Z</datestamp>
      <setSpec>user-biosyslit</setSpec>
    </header>
    <header>
      <identifier>oai:zenodo.org:344444</identifier>
      <datestamp>2017-02-28T23:25:26Z</datestamp>
      <setSpec>user-biosyslit</setSpec>
    </header>
    <header>
      <identifier>oai:zenodo.org:312460</identifier>
      <datestamp>2017-02-21T00:44:13Z</datestamp>
      <setSpec>user-biosyslit</setSpec>
    </header>
    <header>
      <identifier>oai:zenodo.org:312371</identifier>
      <datestamp>2017-02-21T00:42:58Z</datestamp>
      <setSpec>user-biosyslit</setSpec>
    </header>
    <header>
      <identifier>oai:zenodo.org:312877</identifier>
      <datestamp>2017-02-21T00:51:15Z</datestamp>
      <setSpec>user-biosyslit</setSpec>
    </header>
    <header>
      <identifier>oai:zenodo.org:317395</identifier>
      <datestamp>2017-02-22T10:00:49Z</datestamp>
      <setSpec>openaire</setSpec>
      <setSpec>user-biosyslit</setSpec>
    </header>
    <header>
      <identifier>oai:zenodo.org:321662</identifier>
      <datestamp>2017-02-24T00:00:51Z</datestamp>
      <setSpec>openaire</setSpec>
      <setSpec>user-biosyslit</setSpec>
    </header>
    <header>
      <identifier>oai:zenodo.org:321257</identifier>
      <datestamp>2017-02-21T09:20:19Z</datestamp>
      <setSpec>user-biosyslit</setSpec>
    </header>
    <header>
      <identifier>oai:zenodo.org:321741</identifier>
      <datestamp>2017-02-23T08:24:05Z</datestamp>
      <setSpec>user-biosyslit</setSpec>
    </header>
    <header>
      <identifier>oai:zenodo.org:321700</identifier>
      <datestamp>2017-02-23T00:14:55Z</datestamp>
      <setSpec>user-biosyslit</setSpec>
    </header>
    <header>
      <identifier>oai:zenodo.org:322353</identifier>
      <datestamp>2017-02-28T23:51:03Z</datestamp>
      <setSpec>openaire</setSpec>
      <setSpec>user-biosyslit</setSpec>
    </header>
    <header>
      <identifier>oai:zenodo.org:319974</identifier>
      <datestamp>2017-02-21T03:24:14Z</datestamp>
      <setSpec>user-biosyslit</setSpec>
    </header>
    <header>
      <identifier>oai:zenodo.org:322287</identifier>
      <datestamp>2017-02-24T08:59:03Z</datestamp>
      <setSpec>user-biosyslit</setSpec>
    </header>
    <header>
      <identifier>oai:zenodo.org:322243</identifier>
      <datestamp>2017-02-24T08:30:44Z</datestamp>
      <setSpec>user-biosyslit</setSpec>
    </header>
    <header>
      <identifier>oai:zenodo.org:322176</identifier>
      <datestamp>2017-02-24T07:36:27Z</datestamp>
      <setSpec>user-biosyslit</setSpec>
    </header>
    <header>
      <identifier>oai:zenodo.org:322111</identifier>
      <datestamp>2017-02-24T07:30:53Z</datestamp>
      <setSpec>user-biosyslit</setSpec>
    </header>
    <header>
      <identifier>oai:zenodo.org:322224</identifier>
      <datestamp>2017-02-24T07:38:24Z</datestamp>
      <setSpec>user-biosyslit</setSpec>
    </header>
    <header>
      <identifier>oai:zenodo.org:321786</identifier>
      <datestamp>2017-02-23T08:59:53Z</datestamp>
      <setSpec>user-biosyslit</setSpec>
    </header>
    <header>
      <identifier>oai:zenodo.org:322319</identifier>
      <datestamp>2017-02-24T09:36:14Z</datestamp>
      <setSpec>user-biosyslit</setSpec>
    </header>
    <header>
      <identifier>oai:zenodo.org:322390</identifier>
      <datestamp>2017-02-24T15:53:49Z</datestamp>
      <setSpec>user-biosyslit</setSpec>
    </header>
    <header>
      <identifier>oai:zenodo.org:321985</identifier>
      <datestamp>2017-02-24T07:21:18Z</datestamp>
      <setSpec>user-biosyslit</setSpec>
    </header>
    <header>
      <identifier>oai:zenodo.org:322254</identifier>
      <datestamp>2017-02-24T08:34:27Z</datestamp>
      <setSpec>user-biosyslit</setSpec>
    </header>
    <header>
      <identifier>oai:zenodo.org:322311</identifier>
      <datestamp>2017-02-24T09:20:13Z</datestamp>
      <setSpec>user-biosyslit</setSpec>
    </header>
    <header>
      <identifier>oai:zenodo.org:322153</identifier>
      <datestamp>2017-02-24T07:35:21Z</datestamp>
      <setSpec>user-biosyslit</setSpec>
    </header>
    <header>
      <identifier>oai:zenodo.org:322730</identifier>
      <datestamp>2017-02-27T09:56:18Z</datestamp>
      <setSpec>user-biosyslit</setSpec>
    </header>
    <header>
      <identifier>oai:zenodo.org:322876</identifier>
      <datestamp>2017-02-28T23:50:57Z</datestamp>
      <setSpec>openaire</setSpec>
      <setSpec>user-biosyslit</setSpec>
    </header>
    <header>
      <identifier>oai:zenodo.org:574233</identifier>
      <datestamp>2017-05-11T07:24:15Z</datestamp>
      <setSpec>user-biosyslit</setSpec>
    </header>
    <header>
      <identifier>oai:zenodo.org:331988</identifier>
      <datestamp>2017-02-27T23:54:03Z</datestamp>
      <setSpec>user-biosyslit</setSpec>
    </header>
    <header>
      <identifier>oai:zenodo.org:573692</identifier>
      <datestamp>2017-05-10T09:18:09Z</datestamp>
      <setSpec>user-biosyslit</setSpec>
    </header>
    <header>
      <identifier>oai:zenodo.org:573668</identifier>
      <datestamp>2017-05-10T08:45:26Z</datestamp>
      <setSpec>user-biosyslit</setSpec>
    </header>
    <header>
      <identifier>oai:zenodo.org:574386</identifier>
      <datestamp>2017-05-17T07:21:15Z</datestamp>
      <setSpec>openaire</setSpec>
      <setSpec>user-biosyslit</setSpec>
    </header>
    <header>
      <identifier>oai:zenodo.org:343971</identifier>
      <datestamp>2017-02-28T23:50:13Z</datestamp>
      <setSpec>user-biosyslit</setSpec>
    </header>
    <header>
      <identifier>oai:zenodo.org:344138</identifier>
      <datestamp>2017-02-28T23:43:14Z</datestamp>
      <setSpec>user-biosyslit</setSpec>
    </header>
    <header>
      <identifier>oai:zenodo.org:344386</identifier>
      <datestamp>2017-02-28T23:40:14Z</datestamp>
      <setSpec>user-biosyslit</setSpec>
    </header>
    <header>
      <identifier>oai:zenodo.org:344248</identifier>
      <datestamp>2017-02-28T23:42:57Z</datestamp>
      <setSpec>user-biosyslit</setSpec>
    </header>
    <header>
      <identifier>oai:zenodo.org:344289</identifier>
      <datestamp>2017-02-28T23:42:28Z</datestamp>
      <setSpec>user-biosyslit</setSpec>
    </header>
    <header>
      <identifier>oai:zenodo.org:344388</identifier>
      <datestamp>2017-02-28T23:40:13Z</datestamp>
      <setSpec>user-biosyslit</setSpec>
    </header>
    <header>
      <identifier>oai:zenodo.org:344309</identifier>
      <datestamp>2017-02-28T23:42:03Z</datestamp>
      <setSpec>user-biosyslit</setSpec>
    </header>
    <header>
      <identifier>oai:zenodo.org:344301</identifier>
      <datestamp>2017-02-28T23:42:13Z</datestamp>
      <setSpec>user-biosyslit</setSpec>
    </header>
    <header>
      <identifier>oai:zenodo.org:344304</identifier>
      <datestamp>2017-02-28T23:42:09Z</datestamp>
      <setSpec>user-biosyslit</setSpec>
    </header>
    <header>
      <identifier>oai:zenodo.org:344343</identifier>
      <datestamp>2017-02-28T23:41:14Z</datestamp>
      <setSpec>openaire_data</setSpec>
      <setSpec>user-biosyslit</setSpec>
    </header>
    <header>
      <identifier>oai:zenodo.org:344410</identifier>
      <datestamp>2017-02-28T23:39:42Z</datestamp>
      <setSpec>user-biosyslit</setSpec>
    </header>
    <header>
      <identifier>oai:zenodo.org:345017</identifier>
      <datestamp>2017-03-02T08:46:13Z</datestamp>
      <setSpec>user-biosyslit</setSpec>
    </header>
    <header>
      <identifier>oai:zenodo.org:345276</identifier>
      <datestamp>2017-03-03T09:08:50Z</datestamp>
      <setSpec>user-biosyslit</setSpec>
    </header>
    <header>
      <identifier>oai:zenodo.org:345057</identifier>
      <datestamp>2017-03-02T09:09:48Z</datestamp>
      <setSpec>user-biosyslit</setSpec>
    </header>
    <header>
      <identifier>oai:zenodo.org:545716</identifier>
      <datestamp>2017-04-12T07:35:00Z</datestamp>
      <setSpec>user-biosyslit</setSpec>
    </header>
    <header>
      <identifier>oai:zenodo.org:345260</identifier>
      <datestamp>2017-03-03T08:55:15Z</datestamp>
      <setSpec>user-biosyslit</setSpec>
    </header>
    <header>
      <identifier>oai:zenodo.org:344843</identifier>
      <datestamp>2017-03-02T07:47:19Z</datestamp>
      <setSpec>user-biosyslit</setSpec>
    </header>
    <header>
      <identifier>oai:zenodo.org:345816</identifier>
      <datestamp>2017-03-06T09:03:05Z</datestamp>
      <setSpec>user-biosyslit</setSpec>
    </header>
    <header>
      <identifier>oai:zenodo.org:345851</identifier>
      <datestamp>2017-03-07T07:30:05Z</datestamp>
      <setSpec>openaire</setSpec>
      <setSpec>user-biosyslit</setSpec>
    </header>
    <header>
      <identifier>oai:zenodo.org:545905</identifier>
      <datestamp>2017-04-13T08:01:59Z</datestamp>
      <setSpec>user-biosyslit</setSpec>
    </header>
    <header>
      <identifier>oai:zenodo.org:545903</identifier>
      <datestamp>2017-04-13T08:01:56Z</datestamp>
      <setSpec>user-biosyslit</setSpec>
    </header>
    <header>
      <identifier>oai:zenodo.org:579199</identifier>
      <datestamp>2017-05-18T07:06:43Z</datestamp>
      <setSpec>openaire</setSpec>
      <setSpec>user-biosyslit</setSpec>
    </header>
    <header>
      <identifier>oai:zenodo.org:546752</identifier>
      <datestamp>2017-04-28T10:53:37Z</datestamp>
      <setSpec>openaire</setSpec>
      <setSpec>user-2231-0614-bjmmr</setSpec>
      <setSpec>user-biosyslit</setSpec>
    </header>
    <header>
      <identifier>oai:zenodo.org:579191</identifier>
      <datestamp>2017-05-23T13:26:58Z</datestamp>
      <setSpec>openaire</setSpec>
      <setSpec>user-biosyslit</setSpec>
    </header>
    <header>
      <identifier>oai:zenodo.org:579443</identifier>
      <datestamp>2017-05-18T06:59:35Z</datestamp>
      <setSpec>openaire</setSpec>
      <setSpec>user-biosyslit</setSpec>
    </header>
    <header>
      <identifier>oai:zenodo.org:545898</identifier>
      <datestamp>2017-04-13T07:57:07Z</datestamp>
      <setSpec>user-biosyslit</setSpec>
    </header>
    <header>
      <identifier>oai:zenodo.org:579371</identifier>
      <datestamp>2017-05-18T07:01:57Z</datestamp>
      <setSpec>openaire</setSpec>
      <setSpec>user-biosyslit</setSpec>
    </header>
    <header>
      <identifier>oai:zenodo.org:579249</identifier>
      <datestamp>2017-05-18T07:05:34Z</datestamp>
      <setSpec>openaire</setSpec>
      <setSpec>user-biosyslit</setSpec>
    </header>
    <header>
      <identifier>oai:zenodo.org:579425</identifier>
      <datestamp>2017-05-18T07:00:03Z</datestamp>
      <setSpec>openaire</setSpec>
      <setSpec>user-biosyslit</setSpec>
    </header>
    <header>
      <identifier>oai:zenodo.org:580252</identifier>
      <datestamp>2017-05-16T08:49:45Z</datestamp>
      <setSpec>user-biosyslit</setSpec>
    </header>
    <header>
      <identifier>oai:zenodo.org:579928</identifier>
      <datestamp>2017-05-15T08:33:12Z</datestamp>
      <setSpec>user-biosyslit</setSpec>
    </header>
    <header>
      <identifier>oai:zenodo.org:579269</identifier>
      <datestamp>2017-05-18T07:04:22Z</datestamp>
      <setSpec>openaire</setSpec>
      <setSpec>user-biosyslit</setSpec>
    </header>
    <header>
      <identifier>oai:zenodo.org:580494</identifier>
      <datestamp>2017-05-17T08:08:10Z</datestamp>
      <setSpec>user-biosyslit</setSpec>
    </header>
    <header>
      <identifier>oai:zenodo.org:580470</identifier>
      <datestamp>2017-05-17T07:16:33Z</datestamp>
      <setSpec>user-biosyslit</setSpec>
    </header>
    <header>
      <identifier>oai:zenodo.org:579503</identifier>
      <datestamp>2017-05-18T06:55:30Z</datestamp>
      <setSpec>openaire</setSpec>
      <setSpec>user-biosyslit</setSpec>
    </header>
    <header>
      <identifier>oai:zenodo.org:579411</identifier>
      <datestamp>2017-05-18T07:00:31Z</datestamp>
      <setSpec>openaire</setSpec>
      <setSpec>user-biosyslit</setSpec>
    </header>
    <header>
      <identifier>oai:zenodo.org:236230</identifier>
      <datestamp>2017-01-09T20:00:27Z</datestamp>
      <setSpec>user-biosyslit</setSpec>
    </header>
    <header>
      <identifier>oai:zenodo.org:237059</identifier>
      <datestamp>2017-01-10T10:22:52Z</datestamp>
      <setSpec>user-biosyslit</setSpec>
    </header>
    <header>
      <identifier>oai:zenodo.org:236563</identifier>
      <datestamp>2017-01-10T01:23:23Z</datestamp>
      <setSpec>user-biosyslit</setSpec>
    </header>
    <header>
      <identifier>oai:zenodo.org:236499</identifier>
      <datestamp>2017-01-10T00:51:56Z</datestamp>
      <setSpec>user-biosyslit</setSpec>
    </header>
    <header>
      <identifier>oai:zenodo.org:236498</identifier>
      <datestamp>2017-01-10T00:51:51Z</datestamp>
      <setSpec>user-biosyslit</setSpec>
    </header>
    <header>
      <identifier>oai:zenodo.org:236413</identifier>
      <datestamp>2017-01-09T23:56:05Z</datestamp>
      <setSpec>user-biosyslit</setSpec>
    </header>
    <header>
      <identifier>oai:zenodo.org:236549</identifier>
      <datestamp>2017-01-10T01:22:41Z</datestamp>
      <setSpec>user-biosyslit</setSpec>
    </header>
    <header>
      <identifier>oai:zenodo.org:237311</identifier>
      <datestamp>2017-01-10T14:11:57Z</datestamp>
      <setSpec>user-biosyslit</setSpec>
    </header>
    <header>
      <identifier>oai:zenodo.org:237742</identifier>
      <datestamp>2017-01-10T19:18:29Z</datestamp>
      <setSpec>user-biosyslit</setSpec>
    </header>
    <header>
      <identifier>oai:zenodo.org:237632</identifier>
      <datestamp>2017-01-10T18:03:06Z</datestamp>
      <setSpec>user-biosyslit</setSpec>
    </header>
    <header>
      <identifier>oai:zenodo.org:237522</identifier>
      <datestamp>2017-01-10T16:29:41Z</datestamp>
      <setSpec>user-biosyslit</setSpec>
    </header>
    <header>
      <identifier>oai:zenodo.org:238055</identifier>
      <datestamp>2017-01-11T00:30:19Z</datestamp>
      <setSpec>user-biosyslit</setSpec>
    </header>
    <header>
      <identifier>oai:zenodo.org:237145</identifier>
      <datestamp>2017-01-10T11:25:08Z</datestamp>
      <setSpec>user-biosyslit</setSpec>
    </header>
    <header>
      <identifier>oai:zenodo.org:237303</identifier>
      <datestamp>2017-01-10T14:06:13Z</datestamp>
      <setSpec>user-biosyslit</setSpec>
    </header>
    <header>
      <identifier>oai:zenodo.org:236955</identifier>
      <datestamp>2017-01-10T08:39:26Z</datestamp>
      <setSpec>user-biosyslit</setSpec>
    </header>
    <header>
      <identifier>oai:zenodo.org:237894</identifier>
      <datestamp>2017-01-10T22:06:49Z</datestamp>
      <setSpec>user-biosyslit</setSpec>
    </header>
    <header>
      <identifier>oai:zenodo.org:271023</identifier>
      <datestamp>2017-02-08T00:36:41Z</datestamp>
      <setSpec>user-biosyslit</setSpec>
    </header>
    <header>
      <identifier>oai:zenodo.org:237950</identifier>
      <datestamp>2017-01-10T22:50:29Z</datestamp>
      <setSpec>user-biosyslit</setSpec>
    </header>
    <header>
      <identifier>oai:zenodo.org:237640</identifier>
      <datestamp>2017-01-10T18:03:41Z</datestamp>
      <setSpec>user-biosyslit</setSpec>
    </header>
    <header>
      <identifier>oai:zenodo.org:238159</identifier>
      <datestamp>2017-01-11T01:44:00Z</datestamp>
      <setSpec>user-biosyslit</setSpec>
    </header>
    <header>
      <identifier>oai:zenodo.org:238619</identifier>
      <datestamp>2017-01-11T08:14:33Z</datestamp>
      <setSpec>user-biosyslit</setSpec>
    </header>
    <header>
      <identifier>oai:zenodo.org:238552</identifier>
      <datestamp>2017-01-11T07:21:41Z</datestamp>
      <setSpec>user-biosyslit</setSpec>
    </header>
    <resumptionToken expirationDate="2017-08-31T15:44:11Z" cursor="18200" completeListSize="77796">.eJyNyrEOgjAUQNF_eTMxLRUFEhcDEgYgUCHCYrAQghQlVAOU8O-yOOtyl3tmEGVZgIk2qrHD2pYQTdP0NYYCgvVPzq_1uoFdEs4ePM6d5B21CUrVau9bYvSslPiyQUGLJT2F6gXrY1yjKTzHr1RGY0LcgSJ778lw8u_u6goSODy7OR2NH0dO1aIP7HCi-Egzwr4O_-nkT2eJAyjQ5VUJJta3CjRD3lcCzHlZPqORUUY.DIm_0w.7bebU6A8Iebry6aBnJBtyYo5E5Q</resumptionToken>
  </ListIdentifiers>
</OAI-PMH>
