<?xml version='1.0' encoding='UTF-8'?>
<?xml-stylesheet type="text/xsl" href="/static/xsl/oai2.v1.0.xsl"?>
<OAI-PMH xmlns="http://www.openarchives.org/OAI/2.0/" xmlns:xsi="http://www.w3.org/2001/XMLSchema-instance" xsi:schemaLocation="http://www.openarchives.org/OAI/2.0/ http://www.openarchives.org/OAI/2.0/OAI-PMH.xsd">
  <responseDate>2017-08-31T15:44:21Z</responseDate>
  <request verb="ListIdentifiers" resumptionToken=".eJyNz00PQzAAgOH_0rMsrZqvZBdh4oDQVcZlMURMmegWVPz3uey8nd_n8q6AV1UJTHjAimHoRwXr0FBVWVOxBHgxPhm7NXsHxTVhRc9o7ibvuEtgKtdaYPPZt1MciBaGHRLkHMlXpM-0gUt0oa9UxHOCvYlAR_NFtAQPb3clDl2W3d2B0N5iRC7H0IkWgiyS4eLr0J9O_HQ2PwEJDHldAVMx9qt2yseaA3Pdtg_h2FGH.DInAVQ.q07gQi569ZzePLYlUtnjEtkd8QQ">https://zenodo.org/oai2d</request>
  <ListIdentifiers>
    <header>
      <identifier>oai:zenodo.org:284345</identifier>
      <datestamp>2017-02-09T11:05:16Z</datestamp>
      <setSpec>user-biosyslit</setSpec>
    </header>
    <header>
      <identifier>oai:zenodo.org:283999</identifier>
      <datestamp>2017-02-09T10:10:07Z</datestamp>
      <setSpec>user-biosyslit</setSpec>
    </header>
    <header>
      <identifier>oai:zenodo.org:285028</identifier>
      <datestamp>2017-02-09T12:30:18Z</datestamp>
      <setSpec>user-biosyslit</setSpec>
    </header>
    <header>
      <identifier>oai:zenodo.org:283780</identifier>
      <datestamp>2017-02-09T09:42:45Z</datestamp>
      <setSpec>user-biosyslit</setSpec>
    </header>
    <header>
      <identifier>oai:zenodo.org:284493</identifier>
      <datestamp>2017-02-09T11:21:46Z</datestamp>
      <setSpec>user-biosyslit</setSpec>
    </header>
    <header>
      <identifier>oai:zenodo.org:284335</identifier>
      <datestamp>2017-02-09T11:04:54Z</datestamp>
      <setSpec>user-biosyslit</setSpec>
    </header>
    <header>
      <identifier>oai:zenodo.org:283964</identifier>
      <datestamp>2017-02-09T10:08:28Z</datestamp>
      <setSpec>user-biosyslit</setSpec>
    </header>
    <header>
      <identifier>oai:zenodo.org:284946</identifier>
      <datestamp>2017-02-09T12:20:04Z</datestamp>
      <setSpec>user-biosyslit</setSpec>
    </header>
    <header>
      <identifier>oai:zenodo.org:284196</identifier>
      <datestamp>2017-02-09T10:38:32Z</datestamp>
      <setSpec>user-biosyslit</setSpec>
    </header>
    <header>
      <identifier>oai:zenodo.org:427417</identifier>
      <datestamp>2017-03-21T08:31:18Z</datestamp>
      <setSpec>user-biosyslit</setSpec>
    </header>
    <header>
      <identifier>oai:zenodo.org:284144</identifier>
      <datestamp>2017-02-09T10:33:33Z</datestamp>
      <setSpec>user-biosyslit</setSpec>
    </header>
    <header>
      <identifier>oai:zenodo.org:283528</identifier>
      <datestamp>2017-02-09T09:08:16Z</datestamp>
      <setSpec>user-biosyslit</setSpec>
    </header>
    <header>
      <identifier>oai:zenodo.org:283427</identifier>
      <datestamp>2017-02-09T08:54:27Z</datestamp>
      <setSpec>user-biosyslit</setSpec>
    </header>
    <header>
      <identifier>oai:zenodo.org:284076</identifier>
      <datestamp>2017-02-09T10:20:24Z</datestamp>
      <setSpec>user-biosyslit</setSpec>
    </header>
    <header>
      <identifier>oai:zenodo.org:284390</identifier>
      <datestamp>2017-02-09T11:10:07Z</datestamp>
      <setSpec>user-biosyslit</setSpec>
    </header>
    <header>
      <identifier>oai:zenodo.org:284244</identifier>
      <datestamp>2017-02-09T10:45:55Z</datestamp>
      <setSpec>user-biosyslit</setSpec>
    </header>
    <header>
      <identifier>oai:zenodo.org:284143</identifier>
      <datestamp>2017-02-09T10:33:02Z</datestamp>
      <setSpec>user-biosyslit</setSpec>
    </header>
    <header>
      <identifier>oai:zenodo.org:283977</identifier>
      <datestamp>2017-02-09T10:09:02Z</datestamp>
      <setSpec>user-biosyslit</setSpec>
    </header>
    <header>
      <identifier>oai:zenodo.org:284194</identifier>
      <datestamp>2017-02-09T10:38:28Z</datestamp>
      <setSpec>user-biosyslit</setSpec>
    </header>
    <header>
      <identifier>oai:zenodo.org:283559</identifier>
      <datestamp>2017-02-09T09:11:08Z</datestamp>
      <setSpec>user-biosyslit</setSpec>
    </header>
    <header>
      <identifier>oai:zenodo.org:283957</identifier>
      <datestamp>2017-02-09T10:08:10Z</datestamp>
      <setSpec>user-biosyslit</setSpec>
    </header>
    <header>
      <identifier>oai:zenodo.org:283946</identifier>
      <datestamp>2017-02-09T10:06:10Z</datestamp>
      <setSpec>user-biosyslit</setSpec>
    </header>
    <header>
      <identifier>oai:zenodo.org:283368</identifier>
      <datestamp>2017-02-09T08:42:03Z</datestamp>
      <setSpec>user-biosyslit</setSpec>
    </header>
    <header>
      <identifier>oai:zenodo.org:283945</identifier>
      <datestamp>2017-02-09T10:06:05Z</datestamp>
      <setSpec>user-biosyslit</setSpec>
    </header>
    <header>
      <identifier>oai:zenodo.org:283502</identifier>
      <datestamp>2017-02-09T09:06:23Z</datestamp>
      <setSpec>user-biosyslit</setSpec>
    </header>
    <header>
      <identifier>oai:zenodo.org:284134</identifier>
      <datestamp>2017-02-09T10:33:03Z</datestamp>
      <setSpec>user-biosyslit</setSpec>
    </header>
    <header>
      <identifier>oai:zenodo.org:283918</identifier>
      <datestamp>2017-02-09T10:03:06Z</datestamp>
      <setSpec>user-biosyslit</setSpec>
    </header>
    <header>
      <identifier>oai:zenodo.org:283870</identifier>
      <datestamp>2017-02-09T09:58:41Z</datestamp>
      <setSpec>user-biosyslit</setSpec>
    </header>
    <header>
      <identifier>oai:zenodo.org:283932</identifier>
      <datestamp>2017-02-09T10:04:45Z</datestamp>
      <setSpec>user-biosyslit</setSpec>
    </header>
    <header>
      <identifier>oai:zenodo.org:283538</identifier>
      <datestamp>2017-02-09T09:09:24Z</datestamp>
      <setSpec>user-biosyslit</setSpec>
    </header>
    <header>
      <identifier>oai:zenodo.org:283762</identifier>
      <datestamp>2017-02-09T09:40:05Z</datestamp>
      <setSpec>user-biosyslit</setSpec>
    </header>
    <header>
      <identifier>oai:zenodo.org:284393</identifier>
      <datestamp>2017-02-09T11:10:16Z</datestamp>
      <setSpec>user-biosyslit</setSpec>
    </header>
    <header>
      <identifier>oai:zenodo.org:283919</identifier>
      <datestamp>2017-02-09T10:03:08Z</datestamp>
      <setSpec>user-biosyslit</setSpec>
    </header>
    <header>
      <identifier>oai:zenodo.org:285026</identifier>
      <datestamp>2017-02-09T12:30:14Z</datestamp>
      <setSpec>user-biosyslit</setSpec>
    </header>
    <header>
      <identifier>oai:zenodo.org:284257</identifier>
      <datestamp>2017-02-09T10:46:31Z</datestamp>
      <setSpec>user-biosyslit</setSpec>
    </header>
    <header>
      <identifier>oai:zenodo.org:283911</identifier>
      <datestamp>2017-02-09T10:02:49Z</datestamp>
      <setSpec>user-biosyslit</setSpec>
    </header>
    <header>
      <identifier>oai:zenodo.org:283985</identifier>
      <datestamp>2017-02-09T10:09:29Z</datestamp>
      <setSpec>user-biosyslit</setSpec>
    </header>
    <header>
      <identifier>oai:zenodo.org:283920</identifier>
      <datestamp>2017-02-09T10:03:11Z</datestamp>
      <setSpec>user-biosyslit</setSpec>
    </header>
    <header>
      <identifier>oai:zenodo.org:283993</identifier>
      <datestamp>2017-02-09T10:09:51Z</datestamp>
      <setSpec>user-biosyslit</setSpec>
    </header>
    <header>
      <identifier>oai:zenodo.org:284175</identifier>
      <datestamp>2017-02-09T10:38:45Z</datestamp>
      <setSpec>user-biosyslit</setSpec>
    </header>
    <header>
      <identifier>oai:zenodo.org:284013</identifier>
      <datestamp>2017-02-09T10:10:44Z</datestamp>
      <setSpec>user-biosyslit</setSpec>
    </header>
    <header>
      <identifier>oai:zenodo.org:284165</identifier>
      <datestamp>2017-02-09T10:36:12Z</datestamp>
      <setSpec>user-biosyslit</setSpec>
    </header>
    <header>
      <identifier>oai:zenodo.org:431573</identifier>
      <datestamp>2017-03-21T09:24:57Z</datestamp>
      <setSpec>user-biosyslit</setSpec>
    </header>
    <header>
      <identifier>oai:zenodo.org:284912</identifier>
      <datestamp>2017-02-09T12:15:19Z</datestamp>
      <setSpec>user-biosyslit</setSpec>
    </header>
    <header>
      <identifier>oai:zenodo.org:284574</identifier>
      <datestamp>2017-02-09T11:33:33Z</datestamp>
      <setSpec>user-biosyslit</setSpec>
    </header>
    <header>
      <identifier>oai:zenodo.org:438268</identifier>
      <datestamp>2017-03-27T08:34:20Z</datestamp>
      <setSpec>user-biosyslit</setSpec>
    </header>
    <header>
      <identifier>oai:zenodo.org:284331</identifier>
      <datestamp>2017-02-09T11:04:44Z</datestamp>
      <setSpec>user-biosyslit</setSpec>
    </header>
    <header>
      <identifier>oai:zenodo.org:430608</identifier>
      <datestamp>2017-03-21T09:12:24Z</datestamp>
      <setSpec>user-biosyslit</setSpec>
    </header>
    <header>
      <identifier>oai:zenodo.org:428754</identifier>
      <datestamp>2017-03-21T08:48:24Z</datestamp>
      <setSpec>user-biosyslit</setSpec>
    </header>
    <header>
      <identifier>oai:zenodo.org:284597</identifier>
      <datestamp>2017-02-09T11:34:48Z</datestamp>
      <setSpec>user-biosyslit</setSpec>
    </header>
    <header>
      <identifier>oai:zenodo.org:432677</identifier>
      <datestamp>2017-03-21T09:39:10Z</datestamp>
      <setSpec>user-biosyslit</setSpec>
    </header>
    <header>
      <identifier>oai:zenodo.org:437298</identifier>
      <datestamp>2017-03-22T09:24:36Z</datestamp>
      <setSpec>user-biosyslit</setSpec>
    </header>
    <header>
      <identifier>oai:zenodo.org:451001</identifier>
      <datestamp>2017-04-04T07:17:08Z</datestamp>
      <setSpec>user-biosyslit</setSpec>
    </header>
    <header>
      <identifier>oai:zenodo.org:450976</identifier>
      <datestamp>2017-04-04T07:16:54Z</datestamp>
      <setSpec>user-biosyslit</setSpec>
    </header>
    <header>
      <identifier>oai:zenodo.org:285023</identifier>
      <datestamp>2017-02-09T12:30:19Z</datestamp>
      <setSpec>user-biosyslit</setSpec>
    </header>
    <header>
      <identifier>oai:zenodo.org:452785</identifier>
      <datestamp>2017-04-04T07:41:06Z</datestamp>
      <setSpec>user-biosyslit</setSpec>
    </header>
    <header>
      <identifier>oai:zenodo.org:33626</identifier>
      <datestamp>2017-03-14T21:10:31Z</datestamp>
      <setSpec>user-biosyslit</setSpec>
    </header>
    <header>
      <identifier>oai:zenodo.org:284916</identifier>
      <datestamp>2017-02-09T12:15:30Z</datestamp>
      <setSpec>user-biosyslit</setSpec>
    </header>
    <header>
      <identifier>oai:zenodo.org:439331</identifier>
      <datestamp>2017-03-31T09:16:57Z</datestamp>
      <setSpec>user-biosyslit</setSpec>
    </header>
    <header>
      <identifier>oai:zenodo.org:439453</identifier>
      <datestamp>2017-03-31T07:47:58Z</datestamp>
      <setSpec>user-biosyslit</setSpec>
    </header>
    <header>
      <identifier>oai:zenodo.org:439467</identifier>
      <datestamp>2017-03-31T07:48:46Z</datestamp>
      <setSpec>user-biosyslit</setSpec>
    </header>
    <header>
      <identifier>oai:zenodo.org:285287</identifier>
      <datestamp>2017-02-09T13:11:23Z</datestamp>
      <setSpec>user-biosyslit</setSpec>
    </header>
    <header>
      <identifier>oai:zenodo.org:452200</identifier>
      <datestamp>2017-04-04T07:32:45Z</datestamp>
      <setSpec>user-biosyslit</setSpec>
    </header>
    <header>
      <identifier>oai:zenodo.org:452177</identifier>
      <datestamp>2017-04-04T07:32:49Z</datestamp>
      <setSpec>user-biosyslit</setSpec>
    </header>
    <header>
      <identifier>oai:zenodo.org:439872</identifier>
      <datestamp>2017-04-03T10:36:25Z</datestamp>
      <setSpec>user-biosyslit</setSpec>
    </header>
    <header>
      <identifier>oai:zenodo.org:583868</identifier>
      <datestamp>2017-05-29T08:02:08Z</datestamp>
      <setSpec>user-biosyslit</setSpec>
    </header>
    <header>
      <identifier>oai:zenodo.org:282870</identifier>
      <datestamp>2017-02-09T07:45:36Z</datestamp>
      <setSpec>user-biosyslit</setSpec>
    </header>
    <header>
      <identifier>oai:zenodo.org:282892</identifier>
      <datestamp>2017-02-09T07:48:16Z</datestamp>
      <setSpec>user-biosyslit</setSpec>
    </header>
    <header>
      <identifier>oai:zenodo.org:282843</identifier>
      <datestamp>2017-02-09T07:42:42Z</datestamp>
      <setSpec>user-biosyslit</setSpec>
    </header>
    <header>
      <identifier>oai:zenodo.org:283046</identifier>
      <datestamp>2017-02-09T08:04:11Z</datestamp>
      <setSpec>user-biosyslit</setSpec>
    </header>
    <header>
      <identifier>oai:zenodo.org:283113</identifier>
      <datestamp>2017-02-09T08:10:23Z</datestamp>
      <setSpec>user-biosyslit</setSpec>
    </header>
    <header>
      <identifier>oai:zenodo.org:284321</identifier>
      <datestamp>2017-02-09T11:01:09Z</datestamp>
      <setSpec>user-biosyslit</setSpec>
    </header>
    <header>
      <identifier>oai:zenodo.org:399879</identifier>
      <datestamp>2017-03-16T01:30:25Z</datestamp>
      <setSpec>user-biosyslit</setSpec>
    </header>
    <header>
      <identifier>oai:zenodo.org:398734</identifier>
      <datestamp>2017-03-14T09:00:21Z</datestamp>
      <setSpec>user-biosyslit</setSpec>
    </header>
    <header>
      <identifier>oai:zenodo.org:398700</identifier>
      <datestamp>2017-03-14T08:36:10Z</datestamp>
      <setSpec>user-biosyslit</setSpec>
    </header>
    <header>
      <identifier>oai:zenodo.org:283503</identifier>
      <datestamp>2017-02-09T09:06:09Z</datestamp>
      <setSpec>user-biosyslit</setSpec>
    </header>
    <header>
      <identifier>oai:zenodo.org:221250</identifier>
      <datestamp>2017-05-24T16:02:29Z</datestamp>
      <setSpec>openaire</setSpec>
      <setSpec>user-biosyslit</setSpec>
    </header>
    <header>
      <identifier>oai:zenodo.org:283628</identifier>
      <datestamp>2017-02-09T09:19:43Z</datestamp>
      <setSpec>user-biosyslit</setSpec>
    </header>
    <header>
      <identifier>oai:zenodo.org:284408</identifier>
      <datestamp>2017-02-09T11:10:59Z</datestamp>
      <setSpec>user-biosyslit</setSpec>
    </header>
    <header>
      <identifier>oai:zenodo.org:284183</identifier>
      <datestamp>2017-02-09T10:38:02Z</datestamp>
      <setSpec>user-biosyslit</setSpec>
    </header>
    <header>
      <identifier>oai:zenodo.org:283951</identifier>
      <datestamp>2017-02-09T10:07:18Z</datestamp>
      <setSpec>user-biosyslit</setSpec>
    </header>
    <header>
      <identifier>oai:zenodo.org:284379</identifier>
      <datestamp>2017-02-09T11:06:53Z</datestamp>
      <setSpec>user-biosyslit</setSpec>
    </header>
    <header>
      <identifier>oai:zenodo.org:283637</identifier>
      <datestamp>2017-02-09T09:20:06Z</datestamp>
      <setSpec>user-biosyslit</setSpec>
    </header>
    <header>
      <identifier>oai:zenodo.org:284186</identifier>
      <datestamp>2017-02-09T10:38:09Z</datestamp>
      <setSpec>user-biosyslit</setSpec>
    </header>
    <header>
      <identifier>oai:zenodo.org:283988</identifier>
      <datestamp>2017-02-09T10:09:37Z</datestamp>
      <setSpec>user-biosyslit</setSpec>
    </header>
    <header>
      <identifier>oai:zenodo.org:284197</identifier>
      <datestamp>2017-02-09T10:38:33Z</datestamp>
      <setSpec>user-biosyslit</setSpec>
    </header>
    <header>
      <identifier>oai:zenodo.org:283415</identifier>
      <datestamp>2017-02-09T08:51:18Z</datestamp>
      <setSpec>user-biosyslit</setSpec>
    </header>
    <header>
      <identifier>oai:zenodo.org:283982</identifier>
      <datestamp>2017-02-09T10:09:16Z</datestamp>
      <setSpec>user-biosyslit</setSpec>
    </header>
    <header>
      <identifier>oai:zenodo.org:283834</identifier>
      <datestamp>2017-02-09T09:55:00Z</datestamp>
      <setSpec>user-biosyslit</setSpec>
    </header>
    <header>
      <identifier>oai:zenodo.org:284033</identifier>
      <datestamp>2017-02-09T10:11:37Z</datestamp>
      <setSpec>user-biosyslit</setSpec>
    </header>
    <header>
      <identifier>oai:zenodo.org:284339</identifier>
      <datestamp>2017-02-09T11:05:03Z</datestamp>
      <setSpec>user-biosyslit</setSpec>
    </header>
    <header>
      <identifier>oai:zenodo.org:283625</identifier>
      <datestamp>2017-02-09T09:18:58Z</datestamp>
      <setSpec>user-biosyslit</setSpec>
    </header>
    <header>
      <identifier>oai:zenodo.org:284553</identifier>
      <datestamp>2017-02-09T11:28:48Z</datestamp>
      <setSpec>user-biosyslit</setSpec>
    </header>
    <header>
      <identifier>oai:zenodo.org:283928</identifier>
      <datestamp>2017-02-09T10:04:16Z</datestamp>
      <setSpec>user-biosyslit</setSpec>
    </header>
    <header>
      <identifier>oai:zenodo.org:283779</identifier>
      <datestamp>2017-02-09T09:42:56Z</datestamp>
      <setSpec>user-biosyslit</setSpec>
    </header>
    <header>
      <identifier>oai:zenodo.org:284565</identifier>
      <datestamp>2017-02-09T11:32:28Z</datestamp>
      <setSpec>user-biosyslit</setSpec>
    </header>
    <header>
      <identifier>oai:zenodo.org:283865</identifier>
      <datestamp>2017-02-09T09:57:29Z</datestamp>
      <setSpec>user-biosyslit</setSpec>
    </header>
    <header>
      <identifier>oai:zenodo.org:284338</identifier>
      <datestamp>2017-02-09T11:05:00Z</datestamp>
      <setSpec>user-biosyslit</setSpec>
    </header>
    <header>
      <identifier>oai:zenodo.org:428291</identifier>
      <datestamp>2017-03-21T08:42:31Z</datestamp>
      <setSpec>user-biosyslit</setSpec>
    </header>
    <header>
      <identifier>oai:zenodo.org:426869</identifier>
      <datestamp>2017-03-21T08:24:36Z</datestamp>
      <setSpec>user-biosyslit</setSpec>
    </header>
    <resumptionToken expirationDate="2017-08-31T15:46:21Z" cursor="49200" completeListSize="77796">.eJyNyj0LgkAYAOD_8s4S92HaCS2iSYOKXUq6hKlIeZp4hXrSf6-luebnWUBWVQkWWq2ZQbCB8IYxRgkzNJDFcBfifP0wFKdEFJ2Icy95HtoEpaQ2A0dOvpPSQDUobLHiu4ic8GaKr2iOjvEjVYcpofuRI9f0VTQHt_3nlTT0RHbxeh53tuCkHEI3mjm2eUaL78N_PvXzOXILGvR5XYGlM12DZsyHWoK1vF5vqkVRUQ.DInAVQ.-aHA1e7CI7o5z_doXdMQZnAQWDU</resumptionToken>
  </ListIdentifiers>
</OAI-PMH>
