<?xml version='1.0' encoding='UTF-8'?>
<?xml-stylesheet type="text/xsl" href="/static/xsl/oai2.v1.0.xsl"?>
<OAI-PMH xmlns="http://www.openarchives.org/OAI/2.0/" xmlns:xsi="http://www.w3.org/2001/XMLSchema-instance" xsi:schemaLocation="http://www.openarchives.org/OAI/2.0/ http://www.openarchives.org/OAI/2.0/OAI-PMH.xsd">
  <responseDate>2017-08-31T15:42:34Z</responseDate>
  <request verb="ListIdentifiers" resumptionToken=".eJyNyj0LgkAYAOD_8s4S9yF1J7SEJg0peinpEqYi1mniFeqJ_72W5pqfZwZVlgVYaMUxIgxxxjjja5OYBqi8f0h5qT8M-TmWeSujzI1fYROjhFQbz1bj0U6op-_Ib7AW-4CcMRujGk3BKXomOhxjehgEcjZHHUze7fB5BfVdmV7dTkTtTgpS9L4TTALvRErz78N_Pv3z2WoLBnRZVYJFKDfgPmR9pcCal-UNq_JRUA.DIm_6g.2V-ULpvHAN_WU3y-KaeXECnguvI">https://zenodo.org/oai2d</request>
  <ListIdentifiers>
    <header>
      <identifier>oai:zenodo.org:241089</identifier>
      <datestamp>2017-01-12T19:46:45Z</datestamp>
      <setSpec>user-biosyslit</setSpec>
    </header>
    <header>
      <identifier>oai:zenodo.org:266107</identifier>
      <datestamp>2017-02-01T00:39:24Z</datestamp>
      <setSpec>user-biosyslit</setSpec>
    </header>
    <header>
      <identifier>oai:zenodo.org:266106</identifier>
      <datestamp>2017-02-01T00:39:20Z</datestamp>
      <setSpec>user-biosyslit</setSpec>
    </header>
    <header>
      <identifier>oai:zenodo.org:266108</identifier>
      <datestamp>2017-02-01T00:39:27Z</datestamp>
      <setSpec>user-biosyslit</setSpec>
    </header>
    <header>
      <identifier>oai:zenodo.org:266111</identifier>
      <datestamp>2017-02-01T00:39:35Z</datestamp>
      <setSpec>user-biosyslit</setSpec>
    </header>
    <header>
      <identifier>oai:zenodo.org:266110</identifier>
      <datestamp>2017-02-01T00:39:32Z</datestamp>
      <setSpec>user-biosyslit</setSpec>
    </header>
    <header>
      <identifier>oai:zenodo.org:266109</identifier>
      <datestamp>2017-02-01T00:39:30Z</datestamp>
      <setSpec>user-biosyslit</setSpec>
    </header>
    <header>
      <identifier>oai:zenodo.org:288112</identifier>
      <datestamp>2017-02-09T20:02:15Z</datestamp>
      <setSpec>user-biosyslit</setSpec>
    </header>
    <header>
      <identifier>oai:zenodo.org:281433</identifier>
      <datestamp>2017-02-09T05:18:16Z</datestamp>
      <setSpec>user-biosyslit</setSpec>
    </header>
    <header>
      <identifier>oai:zenodo.org:281430</identifier>
      <datestamp>2017-02-09T05:18:09Z</datestamp>
      <setSpec>user-biosyslit</setSpec>
    </header>
    <header>
      <identifier>oai:zenodo.org:281432</identifier>
      <datestamp>2017-02-09T05:18:14Z</datestamp>
      <setSpec>user-biosyslit</setSpec>
    </header>
    <header>
      <identifier>oai:zenodo.org:281434</identifier>
      <datestamp>2017-02-09T05:18:19Z</datestamp>
      <setSpec>user-biosyslit</setSpec>
    </header>
    <header>
      <identifier>oai:zenodo.org:288108</identifier>
      <datestamp>2017-02-09T20:02:03Z</datestamp>
      <setSpec>user-biosyslit</setSpec>
    </header>
    <header>
      <identifier>oai:zenodo.org:281436</identifier>
      <datestamp>2017-02-09T05:18:23Z</datestamp>
      <setSpec>user-biosyslit</setSpec>
    </header>
    <header>
      <identifier>oai:zenodo.org:271769</identifier>
      <datestamp>2017-02-08T02:36:24Z</datestamp>
      <setSpec>user-biosyslit</setSpec>
    </header>
    <header>
      <identifier>oai:zenodo.org:271771</identifier>
      <datestamp>2017-02-08T02:36:29Z</datestamp>
      <setSpec>user-biosyslit</setSpec>
    </header>
    <header>
      <identifier>oai:zenodo.org:278456</identifier>
      <datestamp>2017-02-08T23:14:22Z</datestamp>
      <setSpec>user-biosyslit</setSpec>
    </header>
    <header>
      <identifier>oai:zenodo.org:240613</identifier>
      <datestamp>2017-01-12T10:52:15Z</datestamp>
      <setSpec>user-biosyslit</setSpec>
    </header>
    <header>
      <identifier>oai:zenodo.org:238227</identifier>
      <datestamp>2017-01-11T02:34:27Z</datestamp>
      <setSpec>user-biosyslit</setSpec>
    </header>
    <header>
      <identifier>oai:zenodo.org:278469</identifier>
      <datestamp>2017-02-08T23:14:11Z</datestamp>
      <setSpec>user-biosyslit</setSpec>
    </header>
    <header>
      <identifier>oai:zenodo.org:278472</identifier>
      <datestamp>2017-02-08T23:14:20Z</datestamp>
      <setSpec>user-biosyslit</setSpec>
    </header>
    <header>
      <identifier>oai:zenodo.org:278468</identifier>
      <datestamp>2017-02-08T23:14:08Z</datestamp>
      <setSpec>user-biosyslit</setSpec>
    </header>
    <header>
      <identifier>oai:zenodo.org:240616</identifier>
      <datestamp>2017-01-12T10:52:11Z</datestamp>
      <setSpec>user-biosyslit</setSpec>
    </header>
    <header>
      <identifier>oai:zenodo.org:240615</identifier>
      <datestamp>2017-01-12T10:52:08Z</datestamp>
      <setSpec>user-biosyslit</setSpec>
    </header>
    <header>
      <identifier>oai:zenodo.org:240617</identifier>
      <datestamp>2017-01-12T10:52:13Z</datestamp>
      <setSpec>user-biosyslit</setSpec>
    </header>
    <header>
      <identifier>oai:zenodo.org:271706</identifier>
      <datestamp>2017-02-08T02:25:34Z</datestamp>
      <setSpec>user-biosyslit</setSpec>
    </header>
    <header>
      <identifier>oai:zenodo.org:271708</identifier>
      <datestamp>2017-02-08T02:25:41Z</datestamp>
      <setSpec>user-biosyslit</setSpec>
    </header>
    <header>
      <identifier>oai:zenodo.org:265719</identifier>
      <datestamp>2017-01-31T19:35:18Z</datestamp>
      <setSpec>user-biosyslit</setSpec>
    </header>
    <header>
      <identifier>oai:zenodo.org:265715</identifier>
      <datestamp>2017-01-31T19:35:07Z</datestamp>
      <setSpec>user-biosyslit</setSpec>
    </header>
    <header>
      <identifier>oai:zenodo.org:265721</identifier>
      <datestamp>2017-01-31T19:35:25Z</datestamp>
      <setSpec>user-biosyslit</setSpec>
    </header>
    <header>
      <identifier>oai:zenodo.org:265716</identifier>
      <datestamp>2017-01-31T19:35:10Z</datestamp>
      <setSpec>user-biosyslit</setSpec>
    </header>
    <header>
      <identifier>oai:zenodo.org:284498</identifier>
      <datestamp>2017-02-09T11:22:43Z</datestamp>
      <setSpec>user-biosyslit</setSpec>
    </header>
    <header>
      <identifier>oai:zenodo.org:284497</identifier>
      <datestamp>2017-02-09T11:22:40Z</datestamp>
      <setSpec>user-biosyslit</setSpec>
    </header>
    <header>
      <identifier>oai:zenodo.org:284495</identifier>
      <datestamp>2017-02-09T11:22:34Z</datestamp>
      <setSpec>user-biosyslit</setSpec>
    </header>
    <header>
      <identifier>oai:zenodo.org:279268</identifier>
      <datestamp>2017-02-09T00:57:02Z</datestamp>
      <setSpec>user-biosyslit</setSpec>
    </header>
    <header>
      <identifier>oai:zenodo.org:279270</identifier>
      <datestamp>2017-02-09T00:57:08Z</datestamp>
      <setSpec>user-biosyslit</setSpec>
    </header>
    <header>
      <identifier>oai:zenodo.org:279273</identifier>
      <datestamp>2017-02-09T00:57:19Z</datestamp>
      <setSpec>user-biosyslit</setSpec>
    </header>
    <header>
      <identifier>oai:zenodo.org:279272</identifier>
      <datestamp>2017-02-09T00:57:16Z</datestamp>
      <setSpec>user-biosyslit</setSpec>
    </header>
    <header>
      <identifier>oai:zenodo.org:279271</identifier>
      <datestamp>2017-02-09T00:57:11Z</datestamp>
      <setSpec>user-biosyslit</setSpec>
    </header>
    <header>
      <identifier>oai:zenodo.org:279277</identifier>
      <datestamp>2017-02-09T00:57:31Z</datestamp>
      <setSpec>user-biosyslit</setSpec>
    </header>
    <header>
      <identifier>oai:zenodo.org:279267</identifier>
      <datestamp>2017-02-09T00:56:59Z</datestamp>
      <setSpec>user-biosyslit</setSpec>
    </header>
    <header>
      <identifier>oai:zenodo.org:279262</identifier>
      <datestamp>2017-02-09T00:56:47Z</datestamp>
      <setSpec>user-biosyslit</setSpec>
    </header>
    <header>
      <identifier>oai:zenodo.org:279276</identifier>
      <datestamp>2017-02-09T00:57:28Z</datestamp>
      <setSpec>user-biosyslit</setSpec>
    </header>
    <header>
      <identifier>oai:zenodo.org:243476</identifier>
      <datestamp>2017-01-14T06:16:58Z</datestamp>
      <setSpec>user-biosyslit</setSpec>
    </header>
    <header>
      <identifier>oai:zenodo.org:243477</identifier>
      <datestamp>2017-01-14T06:17:03Z</datestamp>
      <setSpec>user-biosyslit</setSpec>
    </header>
    <header>
      <identifier>oai:zenodo.org:243474</identifier>
      <datestamp>2017-01-14T06:16:49Z</datestamp>
      <setSpec>user-biosyslit</setSpec>
    </header>
    <header>
      <identifier>oai:zenodo.org:243475</identifier>
      <datestamp>2017-01-14T06:16:52Z</datestamp>
      <setSpec>user-biosyslit</setSpec>
    </header>
    <header>
      <identifier>oai:zenodo.org:243473</identifier>
      <datestamp>2017-01-14T06:16:43Z</datestamp>
      <setSpec>user-biosyslit</setSpec>
    </header>
    <header>
      <identifier>oai:zenodo.org:243472</identifier>
      <datestamp>2017-01-14T06:16:41Z</datestamp>
      <setSpec>user-biosyslit</setSpec>
    </header>
    <header>
      <identifier>oai:zenodo.org:243471</identifier>
      <datestamp>2017-01-14T06:16:38Z</datestamp>
      <setSpec>user-biosyslit</setSpec>
    </header>
    <header>
      <identifier>oai:zenodo.org:243469</identifier>
      <datestamp>2017-01-14T06:16:32Z</datestamp>
      <setSpec>user-biosyslit</setSpec>
    </header>
    <header>
      <identifier>oai:zenodo.org:243465</identifier>
      <datestamp>2017-01-14T06:16:15Z</datestamp>
      <setSpec>user-biosyslit</setSpec>
    </header>
    <header>
      <identifier>oai:zenodo.org:235171</identifier>
      <datestamp>2017-01-09T06:23:20Z</datestamp>
      <setSpec>user-biosyslit</setSpec>
    </header>
    <header>
      <identifier>oai:zenodo.org:235174</identifier>
      <datestamp>2017-01-09T06:23:30Z</datestamp>
      <setSpec>user-biosyslit</setSpec>
    </header>
    <header>
      <identifier>oai:zenodo.org:235175</identifier>
      <datestamp>2017-01-09T06:23:33Z</datestamp>
      <setSpec>user-biosyslit</setSpec>
    </header>
    <header>
      <identifier>oai:zenodo.org:235172</identifier>
      <datestamp>2017-01-09T06:23:23Z</datestamp>
      <setSpec>user-biosyslit</setSpec>
    </header>
    <header>
      <identifier>oai:zenodo.org:235183</identifier>
      <datestamp>2017-01-09T06:24:08Z</datestamp>
      <setSpec>user-biosyslit</setSpec>
    </header>
    <header>
      <identifier>oai:zenodo.org:235167</identifier>
      <datestamp>2017-01-09T06:23:09Z</datestamp>
      <setSpec>user-biosyslit</setSpec>
    </header>
    <header>
      <identifier>oai:zenodo.org:235168</identifier>
      <datestamp>2017-01-09T06:23:12Z</datestamp>
      <setSpec>user-biosyslit</setSpec>
    </header>
    <header>
      <identifier>oai:zenodo.org:250796</identifier>
      <datestamp>2017-01-18T14:52:46Z</datestamp>
      <setSpec>user-biosyslit</setSpec>
    </header>
    <header>
      <identifier>oai:zenodo.org:250787</identifier>
      <datestamp>2017-01-18T14:52:21Z</datestamp>
      <setSpec>user-biosyslit</setSpec>
    </header>
    <header>
      <identifier>oai:zenodo.org:250786</identifier>
      <datestamp>2017-01-18T14:52:19Z</datestamp>
      <setSpec>user-biosyslit</setSpec>
    </header>
    <header>
      <identifier>oai:zenodo.org:250798</identifier>
      <datestamp>2017-01-18T14:52:51Z</datestamp>
      <setSpec>user-biosyslit</setSpec>
    </header>
    <header>
      <identifier>oai:zenodo.org:250795</identifier>
      <datestamp>2017-01-18T14:52:44Z</datestamp>
      <setSpec>user-biosyslit</setSpec>
    </header>
    <header>
      <identifier>oai:zenodo.org:250789</identifier>
      <datestamp>2017-01-18T14:52:25Z</datestamp>
      <setSpec>user-biosyslit</setSpec>
    </header>
    <header>
      <identifier>oai:zenodo.org:250793</identifier>
      <datestamp>2017-01-18T14:52:39Z</datestamp>
      <setSpec>user-biosyslit</setSpec>
    </header>
    <header>
      <identifier>oai:zenodo.org:250797</identifier>
      <datestamp>2017-01-18T14:52:49Z</datestamp>
      <setSpec>user-biosyslit</setSpec>
    </header>
    <header>
      <identifier>oai:zenodo.org:250791</identifier>
      <datestamp>2017-01-18T14:52:30Z</datestamp>
      <setSpec>user-biosyslit</setSpec>
    </header>
    <header>
      <identifier>oai:zenodo.org:287726</identifier>
      <datestamp>2017-02-09T19:08:56Z</datestamp>
      <setSpec>user-biosyslit</setSpec>
    </header>
    <header>
      <identifier>oai:zenodo.org:273779</identifier>
      <datestamp>2017-02-08T10:44:23Z</datestamp>
      <setSpec>user-biosyslit</setSpec>
    </header>
    <header>
      <identifier>oai:zenodo.org:263776</identifier>
      <datestamp>2017-01-30T07:54:15Z</datestamp>
      <setSpec>user-biosyslit</setSpec>
    </header>
    <header>
      <identifier>oai:zenodo.org:255983</identifier>
      <datestamp>2017-01-22T01:27:04Z</datestamp>
      <setSpec>user-biosyslit</setSpec>
    </header>
    <header>
      <identifier>oai:zenodo.org:289614</identifier>
      <datestamp>2017-02-09T23:57:29Z</datestamp>
      <setSpec>user-biosyslit</setSpec>
    </header>
    <header>
      <identifier>oai:zenodo.org:289610</identifier>
      <datestamp>2017-02-09T23:57:19Z</datestamp>
      <setSpec>user-biosyslit</setSpec>
    </header>
    <header>
      <identifier>oai:zenodo.org:289599</identifier>
      <datestamp>2017-02-09T23:56:52Z</datestamp>
      <setSpec>user-biosyslit</setSpec>
    </header>
    <header>
      <identifier>oai:zenodo.org:289617</identifier>
      <datestamp>2017-02-09T23:57:38Z</datestamp>
      <setSpec>user-biosyslit</setSpec>
    </header>
    <header>
      <identifier>oai:zenodo.org:289605</identifier>
      <datestamp>2017-02-09T23:57:06Z</datestamp>
      <setSpec>user-biosyslit</setSpec>
    </header>
    <header>
      <identifier>oai:zenodo.org:289619</identifier>
      <datestamp>2017-02-09T23:57:48Z</datestamp>
      <setSpec>user-biosyslit</setSpec>
    </header>
    <header>
      <identifier>oai:zenodo.org:285047</identifier>
      <datestamp>2017-02-09T12:32:02Z</datestamp>
      <setSpec>user-biosyslit</setSpec>
    </header>
    <header>
      <identifier>oai:zenodo.org:285060</identifier>
      <datestamp>2017-02-09T12:32:40Z</datestamp>
      <setSpec>user-biosyslit</setSpec>
    </header>
    <header>
      <identifier>oai:zenodo.org:285054</identifier>
      <datestamp>2017-02-09T12:32:27Z</datestamp>
      <setSpec>user-biosyslit</setSpec>
    </header>
    <header>
      <identifier>oai:zenodo.org:285051</identifier>
      <datestamp>2017-02-09T12:32:11Z</datestamp>
      <setSpec>user-biosyslit</setSpec>
    </header>
    <header>
      <identifier>oai:zenodo.org:285065</identifier>
      <datestamp>2017-02-09T12:32:52Z</datestamp>
      <setSpec>user-biosyslit</setSpec>
    </header>
    <header>
      <identifier>oai:zenodo.org:285045</identifier>
      <datestamp>2017-02-09T12:31:56Z</datestamp>
      <setSpec>user-biosyslit</setSpec>
    </header>
    <header>
      <identifier>oai:zenodo.org:285053</identifier>
      <datestamp>2017-02-09T12:32:17Z</datestamp>
      <setSpec>user-biosyslit</setSpec>
    </header>
    <header>
      <identifier>oai:zenodo.org:285061</identifier>
      <datestamp>2017-02-09T12:32:43Z</datestamp>
      <setSpec>user-biosyslit</setSpec>
    </header>
    <header>
      <identifier>oai:zenodo.org:285059</identifier>
      <datestamp>2017-02-09T12:32:37Z</datestamp>
      <setSpec>user-biosyslit</setSpec>
    </header>
    <header>
      <identifier>oai:zenodo.org:284707</identifier>
      <datestamp>2017-02-09T11:50:35Z</datestamp>
      <setSpec>user-biosyslit</setSpec>
    </header>
    <header>
      <identifier>oai:zenodo.org:284700</identifier>
      <datestamp>2017-02-09T11:50:18Z</datestamp>
      <setSpec>user-biosyslit</setSpec>
    </header>
    <header>
      <identifier>oai:zenodo.org:284693</identifier>
      <datestamp>2017-02-09T11:50:03Z</datestamp>
      <setSpec>user-biosyslit</setSpec>
    </header>
    <header>
      <identifier>oai:zenodo.org:284694</identifier>
      <datestamp>2017-02-09T11:50:05Z</datestamp>
      <setSpec>user-biosyslit</setSpec>
    </header>
    <header>
      <identifier>oai:zenodo.org:284705</identifier>
      <datestamp>2017-02-09T11:50:30Z</datestamp>
      <setSpec>user-biosyslit</setSpec>
    </header>
    <header>
      <identifier>oai:zenodo.org:284706</identifier>
      <datestamp>2017-02-09T11:50:32Z</datestamp>
      <setSpec>user-biosyslit</setSpec>
    </header>
    <header>
      <identifier>oai:zenodo.org:284708</identifier>
      <datestamp>2017-02-09T11:50:38Z</datestamp>
      <setSpec>user-biosyslit</setSpec>
    </header>
    <header>
      <identifier>oai:zenodo.org:284702</identifier>
      <datestamp>2017-02-09T11:50:22Z</datestamp>
      <setSpec>user-biosyslit</setSpec>
    </header>
    <header>
      <identifier>oai:zenodo.org:284709</identifier>
      <datestamp>2017-02-09T11:50:40Z</datestamp>
      <setSpec>user-biosyslit</setSpec>
    </header>
    <header>
      <identifier>oai:zenodo.org:238391</identifier>
      <datestamp>2017-01-11T05:20:43Z</datestamp>
      <setSpec>user-biosyslit</setSpec>
    </header>
    <header>
      <identifier>oai:zenodo.org:238399</identifier>
      <datestamp>2017-01-11T05:20:18Z</datestamp>
      <setSpec>user-biosyslit</setSpec>
    </header>
    <header>
      <identifier>oai:zenodo.org:238402</identifier>
      <datestamp>2017-01-11T05:20:28Z</datestamp>
      <setSpec>user-biosyslit</setSpec>
    </header>
    <header>
      <identifier>oai:zenodo.org:238398</identifier>
      <datestamp>2017-01-11T05:20:12Z</datestamp>
      <setSpec>user-biosyslit</setSpec>
    </header>
    <resumptionToken expirationDate="2017-08-31T15:44:34Z" cursor="23800" completeListSize="77796">.eJyNysEOQzAYAOB3-c-yVGtjkl2EiQNCR8ZlMURMmegWVLz7XHbezt-3AC_LAnS0I8pB3R8RQVjDWCFYAp4PT8Zu9caQX2OWdyzK7PgdtjFKcKV6Jp9cMyGeaJDfyoKeA3yVtSmq0RxcolciwikmzkiRpboimL2Hs72C-DZL73ZPo85gFBeDbwUzlQ2akvz75D-f-PlMfgIJ-qwqQccKkqAZs6HioC_r-gGTCFEt.DIm_6g.a7_IIVFUQHEfYE6SUBo1tj4gKko</resumptionToken>
  </ListIdentifiers>
</OAI-PMH>
