<?xml version='1.0' encoding='UTF-8'?>
<?xml-stylesheet type="text/xsl" href="/static/xsl/oai2.v1.0.xsl"?>
<OAI-PMH xmlns="http://www.openarchives.org/OAI/2.0/" xmlns:xsi="http://www.w3.org/2001/XMLSchema-instance" xsi:schemaLocation="http://www.openarchives.org/OAI/2.0/ http://www.openarchives.org/OAI/2.0/OAI-PMH.xsd">
  <responseDate>2017-08-31T15:45:01Z</responseDate>
  <request verb="ListIdentifiers" resumptionToken=".eJyNysEKgjAYAOB3-c8S-7e0FLqIJR1UdCnpJUxFqlnhCnXiu-elc52_bwRZVSVYZGEYqC8NE5FQkyJDDWTRPoQ4XWaG4piI4i7i3E3eUZOQlNYr35G956TMVzcSNKj4LqRHXPfxhQzhIX6lKuoTtu842a48FQ7-dT-_kgWuyM7uk8d3W3BatsE2HDjaPGPF9-GfT_18jtyABs-8rsDS17oGty5vawnWOE0fkQlRNg.DInAfQ.TGJu5GWuU5Vnb3sT8M0vi7zes54">https://zenodo.org/oai2d</request>
  <ListIdentifiers>
    <header>
      <identifier>oai:zenodo.org:311701</identifier>
      <datestamp>2017-02-21T00:27:35Z</datestamp>
      <setSpec>user-biosyslit</setSpec>
    </header>
    <header>
      <identifier>oai:zenodo.org:311661</identifier>
      <datestamp>2017-02-21T00:27:02Z</datestamp>
      <setSpec>user-biosyslit</setSpec>
    </header>
    <header>
      <identifier>oai:zenodo.org:313020</identifier>
      <datestamp>2017-02-21T00:53:15Z</datestamp>
      <setSpec>user-biosyslit</setSpec>
    </header>
    <header>
      <identifier>oai:zenodo.org:322028</identifier>
      <datestamp>2017-02-24T07:25:43Z</datestamp>
      <setSpec>user-biosyslit</setSpec>
    </header>
    <header>
      <identifier>oai:zenodo.org:321347</identifier>
      <datestamp>2017-02-21T14:24:01Z</datestamp>
      <setSpec>user-biosyslit</setSpec>
    </header>
    <header>
      <identifier>oai:zenodo.org:319965</identifier>
      <datestamp>2017-02-21T03:24:07Z</datestamp>
      <setSpec>user-biosyslit</setSpec>
    </header>
    <header>
      <identifier>oai:zenodo.org:322088</identifier>
      <datestamp>2017-02-24T07:29:58Z</datestamp>
      <setSpec>user-biosyslit</setSpec>
    </header>
    <header>
      <identifier>oai:zenodo.org:312577</identifier>
      <datestamp>2017-02-21T00:46:10Z</datestamp>
      <setSpec>user-biosyslit</setSpec>
    </header>
    <header>
      <identifier>oai:zenodo.org:321421</identifier>
      <datestamp>2017-02-22T10:00:49Z</datestamp>
      <setSpec>openaire</setSpec>
      <setSpec>user-biosyslit</setSpec>
      <setSpec>user-neilreichia</setSpec>
    </header>
    <header>
      <identifier>oai:zenodo.org:312356</identifier>
      <datestamp>2017-02-21T00:42:49Z</datestamp>
      <setSpec>user-biosyslit</setSpec>
    </header>
    <header>
      <identifier>oai:zenodo.org:321310</identifier>
      <datestamp>2017-02-21T12:16:22Z</datestamp>
      <setSpec>user-biosyslit</setSpec>
    </header>
    <header>
      <identifier>oai:zenodo.org:322030</identifier>
      <datestamp>2017-02-24T07:25:47Z</datestamp>
      <setSpec>user-biosyslit</setSpec>
    </header>
    <header>
      <identifier>oai:zenodo.org:321727</identifier>
      <datestamp>2017-02-23T08:15:24Z</datestamp>
      <setSpec>user-biosyslit</setSpec>
    </header>
    <header>
      <identifier>oai:zenodo.org:322293</identifier>
      <datestamp>2017-02-24T09:04:10Z</datestamp>
      <setSpec>user-biosyslit</setSpec>
    </header>
    <header>
      <identifier>oai:zenodo.org:320129</identifier>
      <datestamp>2017-02-21T03:26:38Z</datestamp>
      <setSpec>user-biosyslit</setSpec>
    </header>
    <header>
      <identifier>oai:zenodo.org:321986</identifier>
      <datestamp>2017-02-24T07:21:22Z</datestamp>
      <setSpec>user-biosyslit</setSpec>
    </header>
    <header>
      <identifier>oai:zenodo.org:322090</identifier>
      <datestamp>2017-02-24T07:30:02Z</datestamp>
      <setSpec>user-biosyslit</setSpec>
    </header>
    <header>
      <identifier>oai:zenodo.org:321828</identifier>
      <datestamp>2017-02-28T23:51:09Z</datestamp>
      <setSpec>openaire</setSpec>
      <setSpec>user-biosyslit</setSpec>
    </header>
    <header>
      <identifier>oai:zenodo.org:321314</identifier>
      <datestamp>2017-02-21T12:16:42Z</datestamp>
      <setSpec>user-biosyslit</setSpec>
    </header>
    <header>
      <identifier>oai:zenodo.org:321732</identifier>
      <datestamp>2017-02-23T08:23:33Z</datestamp>
      <setSpec>user-biosyslit</setSpec>
    </header>
    <header>
      <identifier>oai:zenodo.org:322239</identifier>
      <datestamp>2017-02-24T08:30:32Z</datestamp>
      <setSpec>user-biosyslit</setSpec>
    </header>
    <header>
      <identifier>oai:zenodo.org:321961</identifier>
      <datestamp>2017-02-24T07:19:12Z</datestamp>
      <setSpec>user-biosyslit</setSpec>
    </header>
    <header>
      <identifier>oai:zenodo.org:321999</identifier>
      <datestamp>2017-02-24T07:22:42Z</datestamp>
      <setSpec>user-biosyslit</setSpec>
    </header>
    <header>
      <identifier>oai:zenodo.org:322079</identifier>
      <datestamp>2017-02-24T07:29:35Z</datestamp>
      <setSpec>user-biosyslit</setSpec>
    </header>
    <header>
      <identifier>oai:zenodo.org:322127</identifier>
      <datestamp>2017-02-24T07:34:09Z</datestamp>
      <setSpec>user-biosyslit</setSpec>
    </header>
    <header>
      <identifier>oai:zenodo.org:322693</identifier>
      <datestamp>2017-02-27T08:48:06Z</datestamp>
      <setSpec>user-biosyslit</setSpec>
    </header>
    <header>
      <identifier>oai:zenodo.org:322774</identifier>
      <datestamp>2017-02-27T11:02:05Z</datestamp>
      <setSpec>user-biosyslit</setSpec>
    </header>
    <header>
      <identifier>oai:zenodo.org:322700</identifier>
      <datestamp>2017-02-27T08:55:09Z</datestamp>
      <setSpec>user-biosyslit</setSpec>
    </header>
    <header>
      <identifier>oai:zenodo.org:573652</identifier>
      <datestamp>2017-05-10T08:02:33Z</datestamp>
      <setSpec>user-biosyslit</setSpec>
    </header>
    <header>
      <identifier>oai:zenodo.org:545748</identifier>
      <datestamp>2017-04-12T08:13:21Z</datestamp>
      <setSpec>user-biosyslit</setSpec>
    </header>
    <header>
      <identifier>oai:zenodo.org:344000</identifier>
      <datestamp>2017-02-28T23:49:34Z</datestamp>
      <setSpec>user-biosyslit</setSpec>
    </header>
    <header>
      <identifier>oai:zenodo.org:344085</identifier>
      <datestamp>2017-02-28T23:48:36Z</datestamp>
      <setSpec>openaire</setSpec>
      <setSpec>user-biosyslit</setSpec>
    </header>
    <header>
      <identifier>oai:zenodo.org:343776</identifier>
      <datestamp>2017-02-28T08:26:33Z</datestamp>
      <setSpec>user-biosyslit</setSpec>
    </header>
    <header>
      <identifier>oai:zenodo.org:343774</identifier>
      <datestamp>2017-02-28T08:26:28Z</datestamp>
      <setSpec>user-biosyslit</setSpec>
    </header>
    <header>
      <identifier>oai:zenodo.org:343997</identifier>
      <datestamp>2017-02-28T23:49:40Z</datestamp>
      <setSpec>user-biosyslit</setSpec>
    </header>
    <header>
      <identifier>oai:zenodo.org:545689</identifier>
      <datestamp>2017-04-12T07:15:15Z</datestamp>
      <setSpec>user-biosyslit</setSpec>
    </header>
    <header>
      <identifier>oai:zenodo.org:343955</identifier>
      <datestamp>2017-02-28T23:50:34Z</datestamp>
      <setSpec>user-biosyslit</setSpec>
    </header>
    <header>
      <identifier>oai:zenodo.org:292324</identifier>
      <datestamp>2017-02-20T08:29:45Z</datestamp>
      <setSpec>user-biosyslit</setSpec>
    </header>
    <header>
      <identifier>oai:zenodo.org:292453</identifier>
      <datestamp>2017-02-20T08:27:50Z</datestamp>
      <setSpec>openaire</setSpec>
      <setSpec>user-biosyslit</setSpec>
    </header>
    <header>
      <identifier>oai:zenodo.org:292400</identifier>
      <datestamp>2017-02-20T08:28:33Z</datestamp>
      <setSpec>openaire</setSpec>
      <setSpec>user-biosyslit</setSpec>
    </header>
    <header>
      <identifier>oai:zenodo.org:292500</identifier>
      <datestamp>2017-02-20T08:18:59Z</datestamp>
      <setSpec>user-biosyslit</setSpec>
    </header>
    <header>
      <identifier>oai:zenodo.org:292869</identifier>
      <datestamp>2017-02-16T18:50:26Z</datestamp>
      <setSpec>user-biosyslit</setSpec>
    </header>
    <header>
      <identifier>oai:zenodo.org:292812</identifier>
      <datestamp>2017-02-16T18:43:03Z</datestamp>
      <setSpec>user-biosyslit</setSpec>
    </header>
    <header>
      <identifier>oai:zenodo.org:292476</identifier>
      <datestamp>2017-02-20T08:19:13Z</datestamp>
      <setSpec>user-biosyslit</setSpec>
    </header>
    <header>
      <identifier>oai:zenodo.org:293049</identifier>
      <datestamp>2017-02-19T11:38:25Z</datestamp>
      <setSpec>user-neilreichia</setSpec>
      <setSpec>user-biosyslit</setSpec>
    </header>
    <header>
      <identifier>oai:zenodo.org:292837</identifier>
      <datestamp>2017-02-16T18:45:06Z</datestamp>
      <setSpec>user-biosyslit</setSpec>
    </header>
    <header>
      <identifier>oai:zenodo.org:292803</identifier>
      <datestamp>2017-02-16T18:42:32Z</datestamp>
      <setSpec>user-biosyslit</setSpec>
    </header>
    <header>
      <identifier>oai:zenodo.org:292802</identifier>
      <datestamp>2017-02-16T18:41:48Z</datestamp>
      <setSpec>user-biosyslit</setSpec>
    </header>
    <header>
      <identifier>oai:zenodo.org:292866</identifier>
      <datestamp>2017-02-16T18:50:16Z</datestamp>
      <setSpec>user-biosyslit</setSpec>
    </header>
    <header>
      <identifier>oai:zenodo.org:292653</identifier>
      <datestamp>2017-02-16T18:25:07Z</datestamp>
      <setSpec>user-biosyslit</setSpec>
    </header>
    <header>
      <identifier>oai:zenodo.org:293620</identifier>
      <datestamp>2017-02-19T13:54:39Z</datestamp>
      <setSpec>user-biosyslit</setSpec>
    </header>
    <header>
      <identifier>oai:zenodo.org:293941</identifier>
      <datestamp>2017-02-20T19:01:33Z</datestamp>
      <setSpec>user-biosyslit</setSpec>
    </header>
    <header>
      <identifier>oai:zenodo.org:293287</identifier>
      <datestamp>2017-02-19T13:28:19Z</datestamp>
      <setSpec>user-biosyslit</setSpec>
    </header>
    <header>
      <identifier>oai:zenodo.org:294107</identifier>
      <datestamp>2017-02-20T19:19:19Z</datestamp>
      <setSpec>user-biosyslit</setSpec>
    </header>
    <header>
      <identifier>oai:zenodo.org:294087</identifier>
      <datestamp>2017-02-20T19:16:58Z</datestamp>
      <setSpec>user-biosyslit</setSpec>
    </header>
    <header>
      <identifier>oai:zenodo.org:294462</identifier>
      <datestamp>2017-02-20T19:39:03Z</datestamp>
      <setSpec>user-biosyslit</setSpec>
    </header>
    <header>
      <identifier>oai:zenodo.org:294018</identifier>
      <datestamp>2017-02-20T19:09:06Z</datestamp>
      <setSpec>user-biosyslit</setSpec>
    </header>
    <header>
      <identifier>oai:zenodo.org:294076</identifier>
      <datestamp>2017-02-20T19:15:05Z</datestamp>
      <setSpec>user-biosyslit</setSpec>
    </header>
    <header>
      <identifier>oai:zenodo.org:294215</identifier>
      <datestamp>2017-02-20T19:29:40Z</datestamp>
      <setSpec>user-biosyslit</setSpec>
    </header>
    <header>
      <identifier>oai:zenodo.org:302169</identifier>
      <datestamp>2017-02-20T21:46:42Z</datestamp>
      <setSpec>user-biosyslit</setSpec>
    </header>
    <header>
      <identifier>oai:zenodo.org:294187</identifier>
      <datestamp>2017-02-20T19:26:52Z</datestamp>
      <setSpec>user-biosyslit</setSpec>
    </header>
    <header>
      <identifier>oai:zenodo.org:311017</identifier>
      <datestamp>2017-02-21T00:14:25Z</datestamp>
      <setSpec>user-biosyslit</setSpec>
    </header>
    <header>
      <identifier>oai:zenodo.org:306318</identifier>
      <datestamp>2017-02-20T22:54:12Z</datestamp>
      <setSpec>user-biosyslit</setSpec>
    </header>
    <header>
      <identifier>oai:zenodo.org:304598</identifier>
      <datestamp>2017-02-20T22:25:48Z</datestamp>
      <setSpec>user-biosyslit</setSpec>
    </header>
    <header>
      <identifier>oai:zenodo.org:305365</identifier>
      <datestamp>2017-02-20T22:38:49Z</datestamp>
      <setSpec>user-biosyslit</setSpec>
    </header>
    <header>
      <identifier>oai:zenodo.org:312063</identifier>
      <datestamp>2017-02-21T00:36:00Z</datestamp>
      <setSpec>user-biosyslit</setSpec>
    </header>
    <header>
      <identifier>oai:zenodo.org:306380</identifier>
      <datestamp>2017-02-20T22:55:09Z</datestamp>
      <setSpec>user-biosyslit</setSpec>
    </header>
    <header>
      <identifier>oai:zenodo.org:312463</identifier>
      <datestamp>2017-02-21T00:44:17Z</datestamp>
      <setSpec>user-biosyslit</setSpec>
    </header>
    <header>
      <identifier>oai:zenodo.org:311086</identifier>
      <datestamp>2017-02-21T00:16:00Z</datestamp>
      <setSpec>user-biosyslit</setSpec>
    </header>
    <header>
      <identifier>oai:zenodo.org:312201</identifier>
      <datestamp>2017-02-21T00:39:16Z</datestamp>
      <setSpec>user-biosyslit</setSpec>
    </header>
    <header>
      <identifier>oai:zenodo.org:321857</identifier>
      <datestamp>2017-02-23T14:04:16Z</datestamp>
      <setSpec>user-biosyslit</setSpec>
    </header>
    <header>
      <identifier>oai:zenodo.org:311023</identifier>
      <datestamp>2017-02-21T00:14:33Z</datestamp>
      <setSpec>user-biosyslit</setSpec>
    </header>
    <header>
      <identifier>oai:zenodo.org:312918</identifier>
      <datestamp>2017-02-21T00:51:37Z</datestamp>
      <setSpec>user-biosyslit</setSpec>
    </header>
    <header>
      <identifier>oai:zenodo.org:321773</identifier>
      <datestamp>2017-02-23T08:41:40Z</datestamp>
      <setSpec>user-biosyslit</setSpec>
    </header>
    <header>
      <identifier>oai:zenodo.org:321306</identifier>
      <datestamp>2017-02-21T12:17:02Z</datestamp>
      <setSpec>user-biosyslit</setSpec>
    </header>
    <header>
      <identifier>oai:zenodo.org:320271</identifier>
      <datestamp>2017-02-21T03:29:44Z</datestamp>
      <setSpec>user-biosyslit</setSpec>
    </header>
    <header>
      <identifier>oai:zenodo.org:322044</identifier>
      <datestamp>2017-02-24T07:27:04Z</datestamp>
      <setSpec>user-biosyslit</setSpec>
    </header>
    <header>
      <identifier>oai:zenodo.org:322034</identifier>
      <datestamp>2017-02-24T07:25:57Z</datestamp>
      <setSpec>user-biosyslit</setSpec>
    </header>
    <header>
      <identifier>oai:zenodo.org:322238</identifier>
      <datestamp>2017-02-24T08:30:30Z</datestamp>
      <setSpec>user-biosyslit</setSpec>
    </header>
    <header>
      <identifier>oai:zenodo.org:321261</identifier>
      <datestamp>2017-02-21T09:20:31Z</datestamp>
      <setSpec>user-biosyslit</setSpec>
    </header>
    <header>
      <identifier>oai:zenodo.org:321752</identifier>
      <datestamp>2017-02-23T08:30:52Z</datestamp>
      <setSpec>user-biosyslit</setSpec>
    </header>
    <header>
      <identifier>oai:zenodo.org:321247</identifier>
      <datestamp>2017-02-21T08:42:28Z</datestamp>
      <setSpec>user-biosyslit</setSpec>
    </header>
    <header>
      <identifier>oai:zenodo.org:322305</identifier>
      <datestamp>2017-02-24T09:15:32Z</datestamp>
      <setSpec>user-biosyslit</setSpec>
    </header>
    <header>
      <identifier>oai:zenodo.org:321724</identifier>
      <datestamp>2017-02-23T08:15:15Z</datestamp>
      <setSpec>user-biosyslit</setSpec>
    </header>
    <header>
      <identifier>oai:zenodo.org:322066</identifier>
      <datestamp>2017-02-24T07:28:59Z</datestamp>
      <setSpec>user-biosyslit</setSpec>
    </header>
    <header>
      <identifier>oai:zenodo.org:322280</identifier>
      <datestamp>2017-02-24T08:54:45Z</datestamp>
      <setSpec>user-biosyslit</setSpec>
    </header>
    <header>
      <identifier>oai:zenodo.org:322685</identifier>
      <datestamp>2017-02-27T08:34:19Z</datestamp>
      <setSpec>user-biosyslit</setSpec>
    </header>
    <header>
      <identifier>oai:zenodo.org:322412</identifier>
      <datestamp>2017-02-24T15:55:54Z</datestamp>
      <setSpec>user-biosyslit</setSpec>
    </header>
    <header>
      <identifier>oai:zenodo.org:573597</identifier>
      <datestamp>2017-05-10T07:25:53Z</datestamp>
      <setSpec>user-biosyslit</setSpec>
    </header>
    <header>
      <identifier>oai:zenodo.org:573624</identifier>
      <datestamp>2017-05-10T07:27:20Z</datestamp>
      <setSpec>user-biosyslit</setSpec>
    </header>
    <header>
      <identifier>oai:zenodo.org:331995</identifier>
      <datestamp>2017-02-27T23:54:10Z</datestamp>
      <setSpec>user-biosyslit</setSpec>
    </header>
    <header>
      <identifier>oai:zenodo.org:573657</identifier>
      <datestamp>2017-05-10T08:33:40Z</datestamp>
      <setSpec>user-biosyslit</setSpec>
    </header>
    <header>
      <identifier>oai:zenodo.org:573607</identifier>
      <datestamp>2017-05-10T07:26:29Z</datestamp>
      <setSpec>user-biosyslit</setSpec>
    </header>
    <header>
      <identifier>oai:zenodo.org:343950</identifier>
      <datestamp>2017-02-28T23:50:39Z</datestamp>
      <setSpec>user-biosyslit</setSpec>
    </header>
    <header>
      <identifier>oai:zenodo.org:343796</identifier>
      <datestamp>2017-02-28T08:53:22Z</datestamp>
      <setSpec>user-biosyslit</setSpec>
    </header>
    <header>
      <identifier>oai:zenodo.org:344012</identifier>
      <datestamp>2017-02-28T23:49:22Z</datestamp>
      <setSpec>user-biosyslit</setSpec>
    </header>
    <header>
      <identifier>oai:zenodo.org:575338</identifier>
      <datestamp>2017-05-12T08:06:53Z</datestamp>
      <setSpec>user-biosyslit</setSpec>
    </header>
    <header>
      <identifier>oai:zenodo.org:579970</identifier>
      <datestamp>2017-05-15T09:20:41Z</datestamp>
      <setSpec>user-biosyslit</setSpec>
    </header>
    <header>
      <identifier>oai:zenodo.org:344005</identifier>
      <datestamp>2017-02-28T23:49:29Z</datestamp>
      <setSpec>user-biosyslit</setSpec>
    </header>
    <header>
      <identifier>oai:zenodo.org:344464</identifier>
      <datestamp>2017-02-28T23:24:50Z</datestamp>
      <setSpec>user-biosyslit</setSpec>
    </header>
    <resumptionToken expirationDate="2017-08-31T15:47:01Z" cursor="58400" completeListSize="77796">.eJyNyssKgkAUANB_uWuJO77GhDahiYsUnZRsE6Yi1lTiFOqI_56b1rU-ZwJRVSXYuKJoGUipiTpB3VwbCoiie3J-bhaG4pjy4sGT3Evf8T3FTK1p4Ihh72RaIG8Y3olku0g9EmtIGhyjQ_LKZDykmt8zdOleRmNw9ZdXaqHHTxevZcljy5ladqEbjYxs2Ukrvo_8-eTP54gNKNDmdQW2YZkK3Pq8qwXY0zx_AJvPUUM.DInAfQ.3CDkBpTgAu7yu3SLAP3S6Qjnvqs</resumptionToken>
  </ListIdentifiers>
</OAI-PMH>
