<?xml version='1.0' encoding='UTF-8'?>
<?xml-stylesheet type="text/xsl" href="/static/xsl/oai2.v1.0.xsl"?>
<OAI-PMH xmlns="http://www.openarchives.org/OAI/2.0/" xmlns:xsi="http://www.w3.org/2001/XMLSchema-instance" xsi:schemaLocation="http://www.openarchives.org/OAI/2.0/ http://www.openarchives.org/OAI/2.0/OAI-PMH.xsd">
  <responseDate>2017-08-31T15:41:22Z</responseDate>
  <request verb="ListIdentifiers" resumptionToken=".eJyNyj0PQ0AYAOD_8s7SHKe-ki5CxYBwJWVpFBF1VFwbnPjvtXRu5-dZgVVVCQY6KLquIIxVWcGaoiIsACvGJ6W3ZmcorgktehrnTvKOugSlUq36Fps9K8U-b1HQiZycQ-kqanPcoCW8xK-UR3OC3YkgW_V4uPgPd38lDhya3Z2BxL1JiVSOgR0uRDRJhovvE_98_Oez2AkEGPK6AuMoC9BO-VgzMNZt-wBWmlEU.DIm_og.Am9zZaIg-QYrrnuq6MpukYlbUU4">https://zenodo.org/oai2d</request>
  <ListIdentifiers>
    <header>
      <identifier>oai:zenodo.org:272433</identifier>
      <datestamp>2017-02-08T04:39:14Z</datestamp>
      <setSpec>user-biosyslit</setSpec>
    </header>
    <header>
      <identifier>oai:zenodo.org:243677</identifier>
      <datestamp>2017-01-14T09:02:12Z</datestamp>
      <setSpec>user-biosyslit</setSpec>
    </header>
    <header>
      <identifier>oai:zenodo.org:243747</identifier>
      <datestamp>2017-01-14T10:17:23Z</datestamp>
      <setSpec>user-biosyslit</setSpec>
    </header>
    <header>
      <identifier>oai:zenodo.org:243691</identifier>
      <datestamp>2017-01-14T09:20:18Z</datestamp>
      <setSpec>user-biosyslit</setSpec>
    </header>
    <header>
      <identifier>oai:zenodo.org:272607</identifier>
      <datestamp>2017-02-08T05:35:54Z</datestamp>
      <setSpec>user-biosyslit</setSpec>
    </header>
    <header>
      <identifier>oai:zenodo.org:243732</identifier>
      <datestamp>2017-01-14T10:02:58Z</datestamp>
      <setSpec>user-biosyslit</setSpec>
    </header>
    <header>
      <identifier>oai:zenodo.org:272174</identifier>
      <datestamp>2017-02-08T03:54:29Z</datestamp>
      <setSpec>user-biosyslit</setSpec>
    </header>
    <header>
      <identifier>oai:zenodo.org:246113</identifier>
      <datestamp>2017-01-15T22:17:56Z</datestamp>
      <setSpec>user-biosyslit</setSpec>
    </header>
    <header>
      <identifier>oai:zenodo.org:246004</identifier>
      <datestamp>2017-01-15T20:44:46Z</datestamp>
      <setSpec>user-biosyslit</setSpec>
    </header>
    <header>
      <identifier>oai:zenodo.org:247011</identifier>
      <datestamp>2017-01-16T10:22:10Z</datestamp>
      <setSpec>user-biosyslit</setSpec>
    </header>
    <header>
      <identifier>oai:zenodo.org:245004</identifier>
      <datestamp>2017-01-15T06:32:46Z</datestamp>
      <setSpec>user-biosyslit</setSpec>
    </header>
    <header>
      <identifier>oai:zenodo.org:272327</identifier>
      <datestamp>2017-02-08T04:16:06Z</datestamp>
      <setSpec>user-biosyslit</setSpec>
    </header>
    <header>
      <identifier>oai:zenodo.org:245377</identifier>
      <datestamp>2017-01-15T12:19:41Z</datestamp>
      <setSpec>user-biosyslit</setSpec>
    </header>
    <header>
      <identifier>oai:zenodo.org:245859</identifier>
      <datestamp>2017-01-15T19:11:28Z</datestamp>
      <setSpec>user-biosyslit</setSpec>
    </header>
    <header>
      <identifier>oai:zenodo.org:246470</identifier>
      <datestamp>2017-01-16T02:29:38Z</datestamp>
      <setSpec>user-biosyslit</setSpec>
    </header>
    <header>
      <identifier>oai:zenodo.org:245594</identifier>
      <datestamp>2017-01-15T16:05:45Z</datestamp>
      <setSpec>user-biosyslit</setSpec>
    </header>
    <header>
      <identifier>oai:zenodo.org:246574</identifier>
      <datestamp>2017-01-16T04:19:37Z</datestamp>
      <setSpec>user-biosyslit</setSpec>
    </header>
    <header>
      <identifier>oai:zenodo.org:246605</identifier>
      <datestamp>2017-01-16T04:42:29Z</datestamp>
      <setSpec>user-biosyslit</setSpec>
    </header>
    <header>
      <identifier>oai:zenodo.org:246723</identifier>
      <datestamp>2017-01-16T07:16:26Z</datestamp>
      <setSpec>user-biosyslit</setSpec>
    </header>
    <header>
      <identifier>oai:zenodo.org:279670</identifier>
      <datestamp>2017-02-09T01:47:47Z</datestamp>
      <setSpec>user-biosyslit</setSpec>
    </header>
    <header>
      <identifier>oai:zenodo.org:247570</identifier>
      <datestamp>2017-01-16T17:12:55Z</datestamp>
      <setSpec>user-biosyslit</setSpec>
    </header>
    <header>
      <identifier>oai:zenodo.org:247920</identifier>
      <datestamp>2017-01-16T21:33:05Z</datestamp>
      <setSpec>user-biosyslit</setSpec>
    </header>
    <header>
      <identifier>oai:zenodo.org:247230</identifier>
      <datestamp>2017-01-16T12:54:29Z</datestamp>
      <setSpec>user-biosyslit</setSpec>
    </header>
    <header>
      <identifier>oai:zenodo.org:247909</identifier>
      <datestamp>2017-01-16T21:32:19Z</datestamp>
      <setSpec>user-biosyslit</setSpec>
    </header>
    <header>
      <identifier>oai:zenodo.org:249118</identifier>
      <datestamp>2017-01-17T16:30:29Z</datestamp>
      <setSpec>user-biosyslit</setSpec>
    </header>
    <header>
      <identifier>oai:zenodo.org:248774</identifier>
      <datestamp>2017-01-17T10:48:06Z</datestamp>
      <setSpec>user-biosyslit</setSpec>
    </header>
    <header>
      <identifier>oai:zenodo.org:248917</identifier>
      <datestamp>2017-01-17T13:46:29Z</datestamp>
      <setSpec>user-biosyslit</setSpec>
    </header>
    <header>
      <identifier>oai:zenodo.org:249306</identifier>
      <datestamp>2017-01-17T18:34:02Z</datestamp>
      <setSpec>user-biosyslit</setSpec>
    </header>
    <header>
      <identifier>oai:zenodo.org:249971</identifier>
      <datestamp>2017-01-18T02:42:16Z</datestamp>
      <setSpec>user-biosyslit</setSpec>
    </header>
    <header>
      <identifier>oai:zenodo.org:250575</identifier>
      <datestamp>2017-01-18T12:28:53Z</datestamp>
      <setSpec>user-biosyslit</setSpec>
    </header>
    <header>
      <identifier>oai:zenodo.org:250568</identifier>
      <datestamp>2017-01-18T12:28:24Z</datestamp>
      <setSpec>user-biosyslit</setSpec>
    </header>
    <header>
      <identifier>oai:zenodo.org:250234</identifier>
      <datestamp>2017-01-18T07:17:35Z</datestamp>
      <setSpec>user-biosyslit</setSpec>
    </header>
    <header>
      <identifier>oai:zenodo.org:249852</identifier>
      <datestamp>2017-01-18T00:40:50Z</datestamp>
      <setSpec>user-biosyslit</setSpec>
    </header>
    <header>
      <identifier>oai:zenodo.org:250676</identifier>
      <datestamp>2017-01-18T14:03:09Z</datestamp>
      <setSpec>user-biosyslit</setSpec>
    </header>
    <header>
      <identifier>oai:zenodo.org:250840</identifier>
      <datestamp>2017-01-18T15:25:53Z</datestamp>
      <setSpec>user-biosyslit</setSpec>
    </header>
    <header>
      <identifier>oai:zenodo.org:250665</identifier>
      <datestamp>2017-01-18T14:02:27Z</datestamp>
      <setSpec>user-biosyslit</setSpec>
    </header>
    <header>
      <identifier>oai:zenodo.org:251325</identifier>
      <datestamp>2017-01-18T21:21:31Z</datestamp>
      <setSpec>user-biosyslit</setSpec>
    </header>
    <header>
      <identifier>oai:zenodo.org:272668</identifier>
      <datestamp>2017-02-08T06:12:53Z</datestamp>
      <setSpec>user-biosyslit</setSpec>
    </header>
    <header>
      <identifier>oai:zenodo.org:272964</identifier>
      <datestamp>2017-02-08T06:55:44Z</datestamp>
      <setSpec>user-biosyslit</setSpec>
    </header>
    <header>
      <identifier>oai:zenodo.org:251590</identifier>
      <datestamp>2017-01-19T02:45:12Z</datestamp>
      <setSpec>user-biosyslit</setSpec>
    </header>
    <header>
      <identifier>oai:zenodo.org:275585</identifier>
      <datestamp>2017-02-08T16:45:08Z</datestamp>
      <setSpec>user-biosyslit</setSpec>
    </header>
    <header>
      <identifier>oai:zenodo.org:272994</identifier>
      <datestamp>2017-02-08T06:57:23Z</datestamp>
      <setSpec>user-biosyslit</setSpec>
    </header>
    <header>
      <identifier>oai:zenodo.org:272637</identifier>
      <datestamp>2017-02-08T06:00:08Z</datestamp>
      <setSpec>user-biosyslit</setSpec>
    </header>
    <header>
      <identifier>oai:zenodo.org:273133</identifier>
      <datestamp>2017-02-08T07:25:03Z</datestamp>
      <setSpec>user-biosyslit</setSpec>
    </header>
    <header>
      <identifier>oai:zenodo.org:273086</identifier>
      <datestamp>2017-02-08T07:10:45Z</datestamp>
      <setSpec>user-biosyslit</setSpec>
    </header>
    <header>
      <identifier>oai:zenodo.org:273115</identifier>
      <datestamp>2017-02-08T07:10:33Z</datestamp>
      <setSpec>user-biosyslit</setSpec>
    </header>
    <header>
      <identifier>oai:zenodo.org:273050</identifier>
      <datestamp>2017-02-08T06:59:59Z</datestamp>
      <setSpec>user-biosyslit</setSpec>
    </header>
    <header>
      <identifier>oai:zenodo.org:276058</identifier>
      <datestamp>2017-02-08T18:02:23Z</datestamp>
      <setSpec>user-biosyslit</setSpec>
    </header>
    <header>
      <identifier>oai:zenodo.org:276272</identifier>
      <datestamp>2017-02-08T18:33:41Z</datestamp>
      <setSpec>user-biosyslit</setSpec>
    </header>
    <header>
      <identifier>oai:zenodo.org:252378</identifier>
      <datestamp>2017-01-19T13:20:51Z</datestamp>
      <setSpec>user-biosyslit</setSpec>
    </header>
    <header>
      <identifier>oai:zenodo.org:251960</identifier>
      <datestamp>2017-01-19T06:36:10Z</datestamp>
      <setSpec>user-biosyslit</setSpec>
    </header>
    <header>
      <identifier>oai:zenodo.org:252054</identifier>
      <datestamp>2017-01-19T07:44:52Z</datestamp>
      <setSpec>user-biosyslit</setSpec>
    </header>
    <header>
      <identifier>oai:zenodo.org:252630</identifier>
      <datestamp>2017-01-19T17:48:22Z</datestamp>
      <setSpec>user-biosyslit</setSpec>
    </header>
    <header>
      <identifier>oai:zenodo.org:252918</identifier>
      <datestamp>2017-01-19T23:01:00Z</datestamp>
      <setSpec>user-biosyslit</setSpec>
    </header>
    <header>
      <identifier>oai:zenodo.org:253544</identifier>
      <datestamp>2017-01-20T08:24:18Z</datestamp>
      <setSpec>user-biosyslit</setSpec>
    </header>
    <header>
      <identifier>oai:zenodo.org:252813</identifier>
      <datestamp>2017-01-19T20:12:55Z</datestamp>
      <setSpec>user-biosyslit</setSpec>
    </header>
    <header>
      <identifier>oai:zenodo.org:253206</identifier>
      <datestamp>2017-01-20T04:00:36Z</datestamp>
      <setSpec>user-biosyslit</setSpec>
    </header>
    <header>
      <identifier>oai:zenodo.org:253042</identifier>
      <datestamp>2017-01-20T01:55:44Z</datestamp>
      <setSpec>user-biosyslit</setSpec>
    </header>
    <header>
      <identifier>oai:zenodo.org:254427</identifier>
      <datestamp>2017-01-20T18:50:07Z</datestamp>
      <setSpec>user-biosyslit</setSpec>
    </header>
    <header>
      <identifier>oai:zenodo.org:255113</identifier>
      <datestamp>2017-01-21T08:08:29Z</datestamp>
      <setSpec>user-biosyslit</setSpec>
    </header>
    <header>
      <identifier>oai:zenodo.org:253572</identifier>
      <datestamp>2017-01-20T08:25:42Z</datestamp>
      <setSpec>user-biosyslit</setSpec>
    </header>
    <header>
      <identifier>oai:zenodo.org:254859</identifier>
      <datestamp>2017-01-21T04:10:18Z</datestamp>
      <setSpec>user-biosyslit</setSpec>
    </header>
    <header>
      <identifier>oai:zenodo.org:255016</identifier>
      <datestamp>2017-01-21T06:39:21Z</datestamp>
      <setSpec>user-biosyslit</setSpec>
    </header>
    <header>
      <identifier>oai:zenodo.org:254796</identifier>
      <datestamp>2017-01-21T03:03:14Z</datestamp>
      <setSpec>user-biosyslit</setSpec>
    </header>
    <header>
      <identifier>oai:zenodo.org:255036</identifier>
      <datestamp>2017-01-21T06:50:24Z</datestamp>
      <setSpec>user-biosyslit</setSpec>
    </header>
    <header>
      <identifier>oai:zenodo.org:255354</identifier>
      <datestamp>2017-01-21T12:23:31Z</datestamp>
      <setSpec>user-biosyslit</setSpec>
    </header>
    <header>
      <identifier>oai:zenodo.org:255705</identifier>
      <datestamp>2017-01-21T18:47:56Z</datestamp>
      <setSpec>user-biosyslit</setSpec>
    </header>
    <header>
      <identifier>oai:zenodo.org:255378</identifier>
      <datestamp>2017-01-21T12:40:21Z</datestamp>
      <setSpec>user-biosyslit</setSpec>
    </header>
    <header>
      <identifier>oai:zenodo.org:255696</identifier>
      <datestamp>2017-01-21T18:38:59Z</datestamp>
      <setSpec>user-biosyslit</setSpec>
    </header>
    <header>
      <identifier>oai:zenodo.org:255659</identifier>
      <datestamp>2017-01-21T18:03:45Z</datestamp>
      <setSpec>user-biosyslit</setSpec>
    </header>
    <header>
      <identifier>oai:zenodo.org:255551</identifier>
      <datestamp>2017-01-21T15:57:13Z</datestamp>
      <setSpec>user-biosyslit</setSpec>
    </header>
    <header>
      <identifier>oai:zenodo.org:256079</identifier>
      <datestamp>2017-01-22T03:33:23Z</datestamp>
      <setSpec>user-biosyslit</setSpec>
    </header>
    <header>
      <identifier>oai:zenodo.org:256421</identifier>
      <datestamp>2017-01-22T14:22:54Z</datestamp>
      <setSpec>user-biosyslit</setSpec>
    </header>
    <header>
      <identifier>oai:zenodo.org:256091</identifier>
      <datestamp>2017-01-22T03:54:27Z</datestamp>
      <setSpec>user-biosyslit</setSpec>
    </header>
    <header>
      <identifier>oai:zenodo.org:256294</identifier>
      <datestamp>2017-01-22T11:11:54Z</datestamp>
      <setSpec>user-biosyslit</setSpec>
    </header>
    <header>
      <identifier>oai:zenodo.org:256554</identifier>
      <datestamp>2017-01-22T17:21:02Z</datestamp>
      <setSpec>user-biosyslit</setSpec>
    </header>
    <header>
      <identifier>oai:zenodo.org:256495</identifier>
      <datestamp>2017-01-22T15:57:23Z</datestamp>
      <setSpec>user-biosyslit</setSpec>
    </header>
    <header>
      <identifier>oai:zenodo.org:256629</identifier>
      <datestamp>2017-01-22T18:37:05Z</datestamp>
      <setSpec>user-biosyslit</setSpec>
    </header>
    <header>
      <identifier>oai:zenodo.org:257511</identifier>
      <datestamp>2017-01-23T08:33:29Z</datestamp>
      <setSpec>user-biosyslit</setSpec>
    </header>
    <header>
      <identifier>oai:zenodo.org:257797</identifier>
      <datestamp>2017-01-23T13:29:41Z</datestamp>
      <setSpec>user-biosyslit</setSpec>
    </header>
    <header>
      <identifier>oai:zenodo.org:257474</identifier>
      <datestamp>2017-01-23T07:24:52Z</datestamp>
      <setSpec>user-biosyslit</setSpec>
    </header>
    <header>
      <identifier>oai:zenodo.org:279657</identifier>
      <datestamp>2017-02-09T01:47:05Z</datestamp>
      <setSpec>user-biosyslit</setSpec>
    </header>
    <header>
      <identifier>oai:zenodo.org:257154</identifier>
      <datestamp>2017-01-23T02:57:20Z</datestamp>
      <setSpec>user-biosyslit</setSpec>
    </header>
    <header>
      <identifier>oai:zenodo.org:257809</identifier>
      <datestamp>2017-01-23T13:30:22Z</datestamp>
      <setSpec>user-biosyslit</setSpec>
    </header>
    <header>
      <identifier>oai:zenodo.org:258000</identifier>
      <datestamp>2017-01-23T15:12:15Z</datestamp>
      <setSpec>user-biosyslit</setSpec>
    </header>
    <header>
      <identifier>oai:zenodo.org:257449</identifier>
      <datestamp>2017-01-23T07:01:00Z</datestamp>
      <setSpec>user-biosyslit</setSpec>
    </header>
    <header>
      <identifier>oai:zenodo.org:258064</identifier>
      <datestamp>2017-01-23T15:43:23Z</datestamp>
      <setSpec>user-biosyslit</setSpec>
    </header>
    <header>
      <identifier>oai:zenodo.org:257957</identifier>
      <datestamp>2017-01-23T14:43:41Z</datestamp>
      <setSpec>user-biosyslit</setSpec>
    </header>
    <header>
      <identifier>oai:zenodo.org:258021</identifier>
      <datestamp>2017-01-23T15:25:28Z</datestamp>
      <setSpec>user-biosyslit</setSpec>
    </header>
    <header>
      <identifier>oai:zenodo.org:257623</identifier>
      <datestamp>2017-01-23T11:11:23Z</datestamp>
      <setSpec>user-biosyslit</setSpec>
    </header>
    <header>
      <identifier>oai:zenodo.org:258743</identifier>
      <datestamp>2017-01-24T04:16:02Z</datestamp>
      <setSpec>user-biosyslit</setSpec>
    </header>
    <header>
      <identifier>oai:zenodo.org:258263</identifier>
      <datestamp>2017-01-23T19:48:27Z</datestamp>
      <setSpec>user-biosyslit</setSpec>
    </header>
    <header>
      <identifier>oai:zenodo.org:258292</identifier>
      <datestamp>2017-01-23T20:23:22Z</datestamp>
      <setSpec>user-biosyslit</setSpec>
    </header>
    <header>
      <identifier>oai:zenodo.org:258405</identifier>
      <datestamp>2017-01-23T22:05:04Z</datestamp>
      <setSpec>user-biosyslit</setSpec>
    </header>
    <header>
      <identifier>oai:zenodo.org:258369</identifier>
      <datestamp>2017-01-23T21:41:33Z</datestamp>
      <setSpec>user-biosyslit</setSpec>
    </header>
    <header>
      <identifier>oai:zenodo.org:258658</identifier>
      <datestamp>2017-01-24T02:33:25Z</datestamp>
      <setSpec>user-biosyslit</setSpec>
    </header>
    <header>
      <identifier>oai:zenodo.org:243450</identifier>
      <datestamp>2017-01-14T05:52:38Z</datestamp>
      <setSpec>user-biosyslit</setSpec>
    </header>
    <header>
      <identifier>oai:zenodo.org:271970</identifier>
      <datestamp>2017-02-08T03:10:52Z</datestamp>
      <setSpec>user-biosyslit</setSpec>
    </header>
    <header>
      <identifier>oai:zenodo.org:244661</identifier>
      <datestamp>2017-01-15T00:31:18Z</datestamp>
      <setSpec>user-biosyslit</setSpec>
    </header>
    <header>
      <identifier>oai:zenodo.org:272401</identifier>
      <datestamp>2017-02-08T04:27:45Z</datestamp>
      <setSpec>user-biosyslit</setSpec>
    </header>
    <resumptionToken expirationDate="2017-08-31T15:43:22Z" cursor="5300" completeListSize="77796">.eJyNysEOQzAYAOB3-c-yVGs0kl3EJjsgdASXxRDZlIluQcW7z2Xn7fx9C4iqKsFEO6pTHSOiGZpBMdU1BUQxPDm_3jeGIol50fEod-J32MYoxbXh2WJy7ZR4skF-q0p2CnCi0im6ozm4RK9UhlNMziNDR8OVwew9ztsrie_w7Ob0LOosznA5-MdgZqrFMlJ8n_rnkz-fLQ6gQJ_XFZj7vQLNmA-1AHNZ1w9ZMVEY.DIm_og.oFZN8EtrWcus52vCmpfULPKIzH8</resumptionToken>
  </ListIdentifiers>
</OAI-PMH>
