<?xml version='1.0' encoding='UTF-8'?>
<?xml-stylesheet type="text/xsl" href="/static/xsl/oai2.v1.0.xsl"?>
<OAI-PMH xmlns="http://www.openarchives.org/OAI/2.0/" xmlns:xsi="http://www.w3.org/2001/XMLSchema-instance" xsi:schemaLocation="http://www.openarchives.org/OAI/2.0/ http://www.openarchives.org/OAI/2.0/OAI-PMH.xsd">
  <responseDate>2017-08-31T15:45:41Z</responseDate>
  <request verb="ListIdentifiers" resumptionToken=".eJyNyrEKgkAYAOB3-WeJ-71SE1pEkwYVvZR0CVOR8jTxivTCd8-luebve4OoqhJMskKi4naNaOCGaBRRV0AUw53z83VxKE4JLzoe527yjNqEpGqt-7YYPTulvmxI0KJk-1A9oTHGVzKFx_iRymhM6OHFiKN7Mpz822F5JQ1cnl3cnsWdxZlaDoETTgwtltHi-_DPJ38-W-xAgT6vKzA1nSrQvPKhFmC-5_kDu8RRXg.DInApQ.WxwJD7PFOOvcn3iktmVnwtSk3co">https://zenodo.org/oai2d</request>
  <ListIdentifiers>
    <header>
      <identifier>oai:zenodo.org:264761</identifier>
      <datestamp>2017-01-31T02:24:50Z</datestamp>
      <setSpec>user-biosyslit</setSpec>
    </header>
    <header>
      <identifier>oai:zenodo.org:264767</identifier>
      <datestamp>2017-01-31T02:25:16Z</datestamp>
      <setSpec>user-biosyslit</setSpec>
    </header>
    <header>
      <identifier>oai:zenodo.org:238649</identifier>
      <datestamp>2017-01-11T08:36:53Z</datestamp>
      <setSpec>user-biosyslit</setSpec>
    </header>
    <header>
      <identifier>oai:zenodo.org:238645</identifier>
      <datestamp>2017-01-11T08:36:37Z</datestamp>
      <setSpec>user-biosyslit</setSpec>
    </header>
    <header>
      <identifier>oai:zenodo.org:238647</identifier>
      <datestamp>2017-01-11T08:36:45Z</datestamp>
      <setSpec>user-biosyslit</setSpec>
    </header>
    <header>
      <identifier>oai:zenodo.org:265526</identifier>
      <datestamp>2017-01-31T15:38:48Z</datestamp>
      <setSpec>user-biosyslit</setSpec>
    </header>
    <header>
      <identifier>oai:zenodo.org:265520</identifier>
      <datestamp>2017-01-31T15:38:30Z</datestamp>
      <setSpec>user-biosyslit</setSpec>
    </header>
    <header>
      <identifier>oai:zenodo.org:244918</identifier>
      <datestamp>2017-01-15T05:15:51Z</datestamp>
      <setSpec>user-biosyslit</setSpec>
    </header>
    <header>
      <identifier>oai:zenodo.org:244920</identifier>
      <datestamp>2017-01-15T05:15:57Z</datestamp>
      <setSpec>user-biosyslit</setSpec>
    </header>
    <header>
      <identifier>oai:zenodo.org:244917</identifier>
      <datestamp>2017-01-15T05:15:48Z</datestamp>
      <setSpec>user-biosyslit</setSpec>
    </header>
    <header>
      <identifier>oai:zenodo.org:252156</identifier>
      <datestamp>2017-01-19T09:57:36Z</datestamp>
      <setSpec>user-biosyslit</setSpec>
    </header>
    <header>
      <identifier>oai:zenodo.org:252163</identifier>
      <datestamp>2017-01-19T09:58:01Z</datestamp>
      <setSpec>user-biosyslit</setSpec>
    </header>
    <header>
      <identifier>oai:zenodo.org:252158</identifier>
      <datestamp>2017-01-19T09:57:45Z</datestamp>
      <setSpec>user-biosyslit</setSpec>
    </header>
    <header>
      <identifier>oai:zenodo.org:252161</identifier>
      <datestamp>2017-01-19T09:57:55Z</datestamp>
      <setSpec>user-biosyslit</setSpec>
    </header>
    <header>
      <identifier>oai:zenodo.org:246537</identifier>
      <datestamp>2017-01-16T03:30:23Z</datestamp>
      <setSpec>user-biosyslit</setSpec>
    </header>
    <header>
      <identifier>oai:zenodo.org:246535</identifier>
      <datestamp>2017-01-16T03:30:16Z</datestamp>
      <setSpec>user-biosyslit</setSpec>
    </header>
    <header>
      <identifier>oai:zenodo.org:246534</identifier>
      <datestamp>2017-01-16T03:30:14Z</datestamp>
      <setSpec>user-biosyslit</setSpec>
    </header>
    <header>
      <identifier>oai:zenodo.org:246538</identifier>
      <datestamp>2017-01-16T03:30:27Z</datestamp>
      <setSpec>user-biosyslit</setSpec>
    </header>
    <header>
      <identifier>oai:zenodo.org:282254</identifier>
      <datestamp>2017-02-09T06:43:07Z</datestamp>
      <setSpec>user-biosyslit</setSpec>
    </header>
    <header>
      <identifier>oai:zenodo.org:246530</identifier>
      <datestamp>2017-01-16T03:29:58Z</datestamp>
      <setSpec>user-biosyslit</setSpec>
    </header>
    <header>
      <identifier>oai:zenodo.org:282253</identifier>
      <datestamp>2017-02-09T06:43:04Z</datestamp>
      <setSpec>user-biosyslit</setSpec>
    </header>
    <header>
      <identifier>oai:zenodo.org:256114</identifier>
      <datestamp>2017-01-22T04:27:21Z</datestamp>
      <setSpec>user-biosyslit</setSpec>
    </header>
    <header>
      <identifier>oai:zenodo.org:256118</identifier>
      <datestamp>2017-01-22T04:27:18Z</datestamp>
      <setSpec>user-biosyslit</setSpec>
    </header>
    <header>
      <identifier>oai:zenodo.org:256119</identifier>
      <datestamp>2017-01-22T04:27:20Z</datestamp>
      <setSpec>user-biosyslit</setSpec>
    </header>
    <header>
      <identifier>oai:zenodo.org:256117</identifier>
      <datestamp>2017-01-22T04:27:15Z</datestamp>
      <setSpec>user-biosyslit</setSpec>
    </header>
    <header>
      <identifier>oai:zenodo.org:256115</identifier>
      <datestamp>2017-01-22T04:27:08Z</datestamp>
      <setSpec>user-biosyslit</setSpec>
    </header>
    <header>
      <identifier>oai:zenodo.org:293945</identifier>
      <datestamp>2017-02-20T19:02:02Z</datestamp>
      <setSpec>user-biosyslit</setSpec>
    </header>
    <header>
      <identifier>oai:zenodo.org:287516</identifier>
      <datestamp>2017-02-09T18:31:02Z</datestamp>
      <setSpec>user-biosyslit</setSpec>
    </header>
    <header>
      <identifier>oai:zenodo.org:287517</identifier>
      <datestamp>2017-02-09T18:31:04Z</datestamp>
      <setSpec>user-biosyslit</setSpec>
    </header>
    <header>
      <identifier>oai:zenodo.org:287515</identifier>
      <datestamp>2017-02-09T18:31:00Z</datestamp>
      <setSpec>user-biosyslit</setSpec>
    </header>
    <header>
      <identifier>oai:zenodo.org:293950</identifier>
      <datestamp>2017-02-20T19:02:01Z</datestamp>
      <setSpec>user-biosyslit</setSpec>
    </header>
    <header>
      <identifier>oai:zenodo.org:293949</identifier>
      <datestamp>2017-02-20T19:01:59Z</datestamp>
      <setSpec>user-biosyslit</setSpec>
    </header>
    <header>
      <identifier>oai:zenodo.org:253015</identifier>
      <datestamp>2017-01-20T01:31:19Z</datestamp>
      <setSpec>user-biosyslit</setSpec>
    </header>
    <header>
      <identifier>oai:zenodo.org:261768</identifier>
      <datestamp>2017-01-28T14:17:59Z</datestamp>
      <setSpec>user-biosyslit</setSpec>
    </header>
    <header>
      <identifier>oai:zenodo.org:253014</identifier>
      <datestamp>2017-01-20T01:31:14Z</datestamp>
      <setSpec>user-biosyslit</setSpec>
    </header>
    <header>
      <identifier>oai:zenodo.org:261770</identifier>
      <datestamp>2017-01-28T14:18:07Z</datestamp>
      <setSpec>user-biosyslit</setSpec>
    </header>
    <header>
      <identifier>oai:zenodo.org:253007</identifier>
      <datestamp>2017-01-20T01:28:32Z</datestamp>
      <setSpec>user-biosyslit</setSpec>
    </header>
    <header>
      <identifier>oai:zenodo.org:253016</identifier>
      <datestamp>2017-01-20T01:31:22Z</datestamp>
      <setSpec>user-biosyslit</setSpec>
    </header>
    <header>
      <identifier>oai:zenodo.org:274223</identifier>
      <datestamp>2017-02-08T12:30:07Z</datestamp>
      <setSpec>user-biosyslit</setSpec>
    </header>
    <header>
      <identifier>oai:zenodo.org:287162</identifier>
      <datestamp>2017-02-09T17:35:38Z</datestamp>
      <setSpec>user-biosyslit</setSpec>
    </header>
    <header>
      <identifier>oai:zenodo.org:287161</identifier>
      <datestamp>2017-02-09T17:35:36Z</datestamp>
      <setSpec>user-biosyslit</setSpec>
    </header>
    <header>
      <identifier>oai:zenodo.org:287175</identifier>
      <datestamp>2017-02-09T17:36:09Z</datestamp>
      <setSpec>user-biosyslit</setSpec>
    </header>
    <header>
      <identifier>oai:zenodo.org:287166</identifier>
      <datestamp>2017-02-09T17:35:48Z</datestamp>
      <setSpec>user-biosyslit</setSpec>
    </header>
    <header>
      <identifier>oai:zenodo.org:287171</identifier>
      <datestamp>2017-02-09T17:36:00Z</datestamp>
      <setSpec>user-biosyslit</setSpec>
    </header>
    <header>
      <identifier>oai:zenodo.org:287165</identifier>
      <datestamp>2017-02-09T17:35:46Z</datestamp>
      <setSpec>user-biosyslit</setSpec>
    </header>
    <header>
      <identifier>oai:zenodo.org:287159</identifier>
      <datestamp>2017-02-09T17:35:31Z</datestamp>
      <setSpec>user-biosyslit</setSpec>
    </header>
    <header>
      <identifier>oai:zenodo.org:242110</identifier>
      <datestamp>2017-01-13T10:30:09Z</datestamp>
      <setSpec>user-biosyslit</setSpec>
    </header>
    <header>
      <identifier>oai:zenodo.org:242107</identifier>
      <datestamp>2017-01-13T10:30:00Z</datestamp>
      <setSpec>user-biosyslit</setSpec>
    </header>
    <header>
      <identifier>oai:zenodo.org:282782</identifier>
      <datestamp>2017-02-09T07:37:06Z</datestamp>
      <setSpec>user-biosyslit</setSpec>
    </header>
    <header>
      <identifier>oai:zenodo.org:240953</identifier>
      <datestamp>2017-01-12T16:55:05Z</datestamp>
      <setSpec>user-biosyslit</setSpec>
    </header>
    <header>
      <identifier>oai:zenodo.org:282783</identifier>
      <datestamp>2017-02-09T07:37:09Z</datestamp>
      <setSpec>user-biosyslit</setSpec>
    </header>
    <header>
      <identifier>oai:zenodo.org:282781</identifier>
      <datestamp>2017-02-09T07:37:04Z</datestamp>
      <setSpec>user-biosyslit</setSpec>
    </header>
    <header>
      <identifier>oai:zenodo.org:235512</identifier>
      <datestamp>2017-01-09T10:48:51Z</datestamp>
      <setSpec>user-biosyslit</setSpec>
    </header>
    <header>
      <identifier>oai:zenodo.org:235516</identifier>
      <datestamp>2017-01-09T10:49:06Z</datestamp>
      <setSpec>user-biosyslit</setSpec>
    </header>
    <header>
      <identifier>oai:zenodo.org:235503</identifier>
      <datestamp>2017-01-09T10:48:14Z</datestamp>
      <setSpec>user-biosyslit</setSpec>
    </header>
    <header>
      <identifier>oai:zenodo.org:235505</identifier>
      <datestamp>2017-01-09T10:48:21Z</datestamp>
      <setSpec>user-biosyslit</setSpec>
    </header>
    <header>
      <identifier>oai:zenodo.org:235508</identifier>
      <datestamp>2017-01-09T10:48:32Z</datestamp>
      <setSpec>user-biosyslit</setSpec>
    </header>
    <header>
      <identifier>oai:zenodo.org:252515</identifier>
      <datestamp>2017-01-19T15:31:42Z</datestamp>
      <setSpec>user-biosyslit</setSpec>
    </header>
    <header>
      <identifier>oai:zenodo.org:266230</identifier>
      <datestamp>2017-02-01T03:15:15Z</datestamp>
      <setSpec>user-biosyslit</setSpec>
    </header>
    <header>
      <identifier>oai:zenodo.org:266229</identifier>
      <datestamp>2017-02-01T03:15:12Z</datestamp>
      <setSpec>user-biosyslit</setSpec>
    </header>
    <header>
      <identifier>oai:zenodo.org:266235</identifier>
      <datestamp>2017-02-01T03:15:33Z</datestamp>
      <setSpec>user-biosyslit</setSpec>
    </header>
    <header>
      <identifier>oai:zenodo.org:266234</identifier>
      <datestamp>2017-02-01T03:15:29Z</datestamp>
      <setSpec>user-biosyslit</setSpec>
    </header>
    <header>
      <identifier>oai:zenodo.org:235504</identifier>
      <datestamp>2017-01-09T10:48:17Z</datestamp>
      <setSpec>user-biosyslit</setSpec>
    </header>
    <header>
      <identifier>oai:zenodo.org:255831</identifier>
      <datestamp>2017-01-21T22:51:50Z</datestamp>
      <setSpec>user-biosyslit</setSpec>
    </header>
    <header>
      <identifier>oai:zenodo.org:231242</identifier>
      <datestamp>2017-01-05T17:58:16Z</datestamp>
      <setSpec>user-biosyslit</setSpec>
    </header>
    <header>
      <identifier>oai:zenodo.org:231671</identifier>
      <datestamp>2017-01-06T05:42:00Z</datestamp>
      <setSpec>user-biosyslit</setSpec>
    </header>
    <header>
      <identifier>oai:zenodo.org:231673</identifier>
      <datestamp>2017-01-06T05:42:07Z</datestamp>
      <setSpec>user-biosyslit</setSpec>
    </header>
    <header>
      <identifier>oai:zenodo.org:255841</identifier>
      <datestamp>2017-01-21T22:51:43Z</datestamp>
      <setSpec>user-biosyslit</setSpec>
    </header>
    <header>
      <identifier>oai:zenodo.org:255836</identifier>
      <datestamp>2017-01-21T22:51:29Z</datestamp>
      <setSpec>user-biosyslit</setSpec>
    </header>
    <header>
      <identifier>oai:zenodo.org:255839</identifier>
      <datestamp>2017-01-21T22:51:37Z</datestamp>
      <setSpec>user-biosyslit</setSpec>
    </header>
    <header>
      <identifier>oai:zenodo.org:255833</identifier>
      <datestamp>2017-01-21T22:51:20Z</datestamp>
      <setSpec>user-biosyslit</setSpec>
    </header>
    <header>
      <identifier>oai:zenodo.org:231672</identifier>
      <datestamp>2017-01-06T05:42:03Z</datestamp>
      <setSpec>user-biosyslit</setSpec>
    </header>
    <header>
      <identifier>oai:zenodo.org:228039</identifier>
      <datestamp>2017-01-02T09:24:12Z</datestamp>
      <setSpec>user-biosyslit</setSpec>
    </header>
    <header>
      <identifier>oai:zenodo.org:228040</identifier>
      <datestamp>2017-01-02T09:24:15Z</datestamp>
      <setSpec>user-biosyslit</setSpec>
    </header>
    <header>
      <identifier>oai:zenodo.org:228038</identifier>
      <datestamp>2017-01-02T09:24:10Z</datestamp>
      <setSpec>user-biosyslit</setSpec>
    </header>
    <header>
      <identifier>oai:zenodo.org:234963</identifier>
      <datestamp>2017-01-09T04:03:10Z</datestamp>
      <setSpec>user-biosyslit</setSpec>
    </header>
    <header>
      <identifier>oai:zenodo.org:234967</identifier>
      <datestamp>2017-01-09T04:03:03Z</datestamp>
      <setSpec>user-biosyslit</setSpec>
    </header>
    <header>
      <identifier>oai:zenodo.org:290610</identifier>
      <datestamp>2017-02-12T22:17:15Z</datestamp>
      <setSpec>user-biosyslit</setSpec>
    </header>
    <header>
      <identifier>oai:zenodo.org:277470</identifier>
      <datestamp>2017-02-08T21:11:37Z</datestamp>
      <setSpec>user-biosyslit</setSpec>
    </header>
    <header>
      <identifier>oai:zenodo.org:277474</identifier>
      <datestamp>2017-02-08T21:11:47Z</datestamp>
      <setSpec>user-biosyslit</setSpec>
    </header>
    <header>
      <identifier>oai:zenodo.org:277464</identifier>
      <datestamp>2017-02-08T21:11:18Z</datestamp>
      <setSpec>user-biosyslit</setSpec>
    </header>
    <header>
      <identifier>oai:zenodo.org:277465</identifier>
      <datestamp>2017-02-08T21:11:21Z</datestamp>
      <setSpec>user-biosyslit</setSpec>
    </header>
    <header>
      <identifier>oai:zenodo.org:277473</identifier>
      <datestamp>2017-02-08T21:11:45Z</datestamp>
      <setSpec>user-biosyslit</setSpec>
    </header>
    <header>
      <identifier>oai:zenodo.org:277462</identifier>
      <datestamp>2017-02-08T21:11:12Z</datestamp>
      <setSpec>user-biosyslit</setSpec>
    </header>
    <header>
      <identifier>oai:zenodo.org:277467</identifier>
      <datestamp>2017-02-08T21:11:27Z</datestamp>
      <setSpec>user-biosyslit</setSpec>
    </header>
    <header>
      <identifier>oai:zenodo.org:277476</identifier>
      <datestamp>2017-02-08T21:11:52Z</datestamp>
      <setSpec>user-biosyslit</setSpec>
    </header>
    <header>
      <identifier>oai:zenodo.org:277466</identifier>
      <datestamp>2017-02-08T21:11:23Z</datestamp>
      <setSpec>user-biosyslit</setSpec>
    </header>
    <header>
      <identifier>oai:zenodo.org:276962</identifier>
      <datestamp>2017-02-08T20:05:29Z</datestamp>
      <setSpec>user-biosyslit</setSpec>
    </header>
    <header>
      <identifier>oai:zenodo.org:247701</identifier>
      <datestamp>2017-01-16T18:50:56Z</datestamp>
      <setSpec>user-biosyslit</setSpec>
    </header>
    <header>
      <identifier>oai:zenodo.org:247707</identifier>
      <datestamp>2017-01-16T18:51:24Z</datestamp>
      <setSpec>user-biosyslit</setSpec>
    </header>
    <header>
      <identifier>oai:zenodo.org:247708</identifier>
      <datestamp>2017-01-16T18:51:28Z</datestamp>
      <setSpec>user-biosyslit</setSpec>
    </header>
    <header>
      <identifier>oai:zenodo.org:247705</identifier>
      <datestamp>2017-01-16T18:51:17Z</datestamp>
      <setSpec>user-biosyslit</setSpec>
    </header>
    <header>
      <identifier>oai:zenodo.org:247699</identifier>
      <datestamp>2017-01-16T18:50:46Z</datestamp>
      <setSpec>user-biosyslit</setSpec>
    </header>
    <header>
      <identifier>oai:zenodo.org:247704</identifier>
      <datestamp>2017-01-16T18:51:06Z</datestamp>
      <setSpec>user-biosyslit</setSpec>
    </header>
    <header>
      <identifier>oai:zenodo.org:247706</identifier>
      <datestamp>2017-01-16T18:51:20Z</datestamp>
      <setSpec>user-biosyslit</setSpec>
    </header>
    <header>
      <identifier>oai:zenodo.org:274378</identifier>
      <datestamp>2017-02-08T13:04:09Z</datestamp>
      <setSpec>user-biosyslit</setSpec>
    </header>
    <header>
      <identifier>oai:zenodo.org:274381</identifier>
      <datestamp>2017-02-08T13:04:04Z</datestamp>
      <setSpec>user-biosyslit</setSpec>
    </header>
    <header>
      <identifier>oai:zenodo.org:281565</identifier>
      <datestamp>2017-02-09T05:32:19Z</datestamp>
      <setSpec>user-biosyslit</setSpec>
    </header>
    <header>
      <identifier>oai:zenodo.org:281564</identifier>
      <datestamp>2017-02-09T05:32:16Z</datestamp>
      <setSpec>user-biosyslit</setSpec>
    </header>
    <header>
      <identifier>oai:zenodo.org:281566</identifier>
      <datestamp>2017-02-09T05:32:22Z</datestamp>
      <setSpec>user-biosyslit</setSpec>
    </header>
    <resumptionToken expirationDate="2017-08-31T15:47:41Z" cursor="67200" completeListSize="77796">.eJyNz7sOgjAYQOF3-WdjeiG2krgYlDgIwdpGXAwWQtSChmqEEt5dFmedz7ecHmxR5OCjKfEwwZzMZ3PmcU65NwGrm7sxp8vYQR-U0bWRWaheu0qhlJQsCmy7DVIauRuKK-zEOiEHzFt5QV2yl8_U7VpFN2-BVmzrki66bkaX0zg0x3P4ELJeGkHyJl4lncBLcaT66_Cfzv10gV3ABB5ZWYA_Y-PV7Z01pQW_H4YP29FRgg.DInApQ.wgkGSj_SAcFyoPxYz_ApIQJ6X9E</resumptionToken>
  </ListIdentifiers>
</OAI-PMH>
