<?xml version='1.0' encoding='UTF-8'?>
<?xml-stylesheet type="text/xsl" href="/static/xsl/oai2.v1.0.xsl"?>
<OAI-PMH xmlns="http://www.openarchives.org/OAI/2.0/" xmlns:xsi="http://www.w3.org/2001/XMLSchema-instance" xsi:schemaLocation="http://www.openarchives.org/OAI/2.0/ http://www.openarchives.org/OAI/2.0/OAI-PMH.xsd">
  <responseDate>2017-08-31T15:44:51Z</responseDate>
  <request verb="ListIdentifiers" resumptionToken=".eJyNyk0LgjAYAOD_8p4l9lFOhC6hSQeVuRzqJUxFylXiinTRf89L5zo_zwt009TgogWmBC0ZRo5jO9hmNrFAV8NNqcNpdqgyqaqrSstAPpKLRDlpWeTpMfRyGpkOxRdsxJaTDDtjekIT36f33CSjpLunQD4LDZ-i825-NY0DVRyDXqTXjRKkHmKfTwJvREGr78N_PvPzeXoNFvRl24C7WjELumc5tBrc1_v9Ac0bUXI.DInAcg.6quD39R-vU4fDGY19R1aER6N9_M">https://zenodo.org/oai2d</request>
  <ListIdentifiers>
    <header>
      <identifier>oai:zenodo.org:249950</identifier>
      <datestamp>2017-01-18T02:41:10Z</datestamp>
      <setSpec>user-biosyslit</setSpec>
    </header>
    <header>
      <identifier>oai:zenodo.org:249728</identifier>
      <datestamp>2017-01-17T23:05:43Z</datestamp>
      <setSpec>user-biosyslit</setSpec>
    </header>
    <header>
      <identifier>oai:zenodo.org:249985</identifier>
      <datestamp>2017-01-18T03:29:24Z</datestamp>
      <setSpec>user-biosyslit</setSpec>
    </header>
    <header>
      <identifier>oai:zenodo.org:249637</identifier>
      <datestamp>2017-01-17T22:01:47Z</datestamp>
      <setSpec>user-biosyslit</setSpec>
    </header>
    <header>
      <identifier>oai:zenodo.org:250057</identifier>
      <datestamp>2017-01-18T04:22:27Z</datestamp>
      <setSpec>user-biosyslit</setSpec>
    </header>
    <header>
      <identifier>oai:zenodo.org:273124</identifier>
      <datestamp>2017-02-08T07:20:01Z</datestamp>
      <setSpec>user-biosyslit</setSpec>
    </header>
    <header>
      <identifier>oai:zenodo.org:250970</identifier>
      <datestamp>2017-01-18T16:53:14Z</datestamp>
      <setSpec>user-biosyslit</setSpec>
    </header>
    <header>
      <identifier>oai:zenodo.org:250969</identifier>
      <datestamp>2017-01-18T16:53:11Z</datestamp>
      <setSpec>user-biosyslit</setSpec>
    </header>
    <header>
      <identifier>oai:zenodo.org:250246</identifier>
      <datestamp>2017-01-18T07:28:59Z</datestamp>
      <setSpec>user-biosyslit</setSpec>
    </header>
    <header>
      <identifier>oai:zenodo.org:272639</identifier>
      <datestamp>2017-02-08T06:03:57Z</datestamp>
      <setSpec>user-biosyslit</setSpec>
    </header>
    <header>
      <identifier>oai:zenodo.org:251227</identifier>
      <datestamp>2017-01-18T20:08:32Z</datestamp>
      <setSpec>user-biosyslit</setSpec>
    </header>
    <header>
      <identifier>oai:zenodo.org:250124</identifier>
      <datestamp>2017-01-18T05:07:37Z</datestamp>
      <setSpec>user-biosyslit</setSpec>
    </header>
    <header>
      <identifier>oai:zenodo.org:250609</identifier>
      <datestamp>2017-01-18T13:00:57Z</datestamp>
      <setSpec>user-biosyslit</setSpec>
    </header>
    <header>
      <identifier>oai:zenodo.org:250313</identifier>
      <datestamp>2017-01-18T08:18:46Z</datestamp>
      <setSpec>user-biosyslit</setSpec>
    </header>
    <header>
      <identifier>oai:zenodo.org:251099</identifier>
      <datestamp>2017-01-18T18:44:12Z</datestamp>
      <setSpec>user-biosyslit</setSpec>
    </header>
    <header>
      <identifier>oai:zenodo.org:250178</identifier>
      <datestamp>2017-01-18T05:45:51Z</datestamp>
      <setSpec>user-biosyslit</setSpec>
    </header>
    <header>
      <identifier>oai:zenodo.org:250955</identifier>
      <datestamp>2017-01-18T16:43:26Z</datestamp>
      <setSpec>user-biosyslit</setSpec>
    </header>
    <header>
      <identifier>oai:zenodo.org:246936</identifier>
      <datestamp>2017-01-16T10:06:00Z</datestamp>
      <setSpec>user-biosyslit</setSpec>
    </header>
    <header>
      <identifier>oai:zenodo.org:247361</identifier>
      <datestamp>2017-01-16T14:31:08Z</datestamp>
      <setSpec>user-biosyslit</setSpec>
    </header>
    <header>
      <identifier>oai:zenodo.org:248360</identifier>
      <datestamp>2017-01-17T03:16:01Z</datestamp>
      <setSpec>user-biosyslit</setSpec>
    </header>
    <header>
      <identifier>oai:zenodo.org:247461</identifier>
      <datestamp>2017-01-16T15:31:00Z</datestamp>
      <setSpec>user-biosyslit</setSpec>
    </header>
    <header>
      <identifier>oai:zenodo.org:247616</identifier>
      <datestamp>2017-01-16T17:39:58Z</datestamp>
      <setSpec>user-biosyslit</setSpec>
    </header>
    <header>
      <identifier>oai:zenodo.org:248288</identifier>
      <datestamp>2017-01-17T02:17:27Z</datestamp>
      <setSpec>user-biosyslit</setSpec>
    </header>
    <header>
      <identifier>oai:zenodo.org:247505</identifier>
      <datestamp>2017-01-16T16:28:20Z</datestamp>
      <setSpec>user-biosyslit</setSpec>
    </header>
    <header>
      <identifier>oai:zenodo.org:248163</identifier>
      <datestamp>2017-01-17T00:43:08Z</datestamp>
      <setSpec>user-biosyslit</setSpec>
    </header>
    <header>
      <identifier>oai:zenodo.org:248085</identifier>
      <datestamp>2017-01-16T23:46:55Z</datestamp>
      <setSpec>user-biosyslit</setSpec>
    </header>
    <header>
      <identifier>oai:zenodo.org:248212</identifier>
      <datestamp>2017-01-17T01:10:03Z</datestamp>
      <setSpec>user-biosyslit</setSpec>
    </header>
    <header>
      <identifier>oai:zenodo.org:248767</identifier>
      <datestamp>2017-01-17T10:47:43Z</datestamp>
      <setSpec>user-biosyslit</setSpec>
    </header>
    <header>
      <identifier>oai:zenodo.org:248933</identifier>
      <datestamp>2017-01-17T13:54:47Z</datestamp>
      <setSpec>user-biosyslit</setSpec>
    </header>
    <header>
      <identifier>oai:zenodo.org:250176</identifier>
      <datestamp>2017-01-18T05:45:40Z</datestamp>
      <setSpec>user-biosyslit</setSpec>
    </header>
    <header>
      <identifier>oai:zenodo.org:249822</identifier>
      <datestamp>2017-01-18T00:17:35Z</datestamp>
      <setSpec>user-biosyslit</setSpec>
    </header>
    <header>
      <identifier>oai:zenodo.org:248667</identifier>
      <datestamp>2017-01-17T08:00:44Z</datestamp>
      <setSpec>user-biosyslit</setSpec>
    </header>
    <header>
      <identifier>oai:zenodo.org:249300</identifier>
      <datestamp>2017-01-17T18:33:43Z</datestamp>
      <setSpec>user-biosyslit</setSpec>
    </header>
    <header>
      <identifier>oai:zenodo.org:272649</identifier>
      <datestamp>2017-02-08T06:12:05Z</datestamp>
      <setSpec>user-biosyslit</setSpec>
    </header>
    <header>
      <identifier>oai:zenodo.org:249311</identifier>
      <datestamp>2017-01-17T18:34:24Z</datestamp>
      <setSpec>user-biosyslit</setSpec>
    </header>
    <header>
      <identifier>oai:zenodo.org:250107</identifier>
      <datestamp>2017-01-18T05:06:22Z</datestamp>
      <setSpec>user-biosyslit</setSpec>
    </header>
    <header>
      <identifier>oai:zenodo.org:249729</identifier>
      <datestamp>2017-01-17T23:05:47Z</datestamp>
      <setSpec>user-biosyslit</setSpec>
    </header>
    <header>
      <identifier>oai:zenodo.org:246844</identifier>
      <datestamp>2017-01-16T09:09:57Z</datestamp>
      <setSpec>user-biosyslit</setSpec>
    </header>
    <header>
      <identifier>oai:zenodo.org:247633</identifier>
      <datestamp>2017-01-16T17:41:37Z</datestamp>
      <setSpec>user-biosyslit</setSpec>
    </header>
    <header>
      <identifier>oai:zenodo.org:247250</identifier>
      <datestamp>2017-01-16T13:29:58Z</datestamp>
      <setSpec>user-biosyslit</setSpec>
    </header>
    <header>
      <identifier>oai:zenodo.org:247342</identifier>
      <datestamp>2017-01-16T14:30:07Z</datestamp>
      <setSpec>user-biosyslit</setSpec>
    </header>
    <header>
      <identifier>oai:zenodo.org:247594</identifier>
      <datestamp>2017-01-16T17:14:06Z</datestamp>
      <setSpec>user-biosyslit</setSpec>
    </header>
    <header>
      <identifier>oai:zenodo.org:247292</identifier>
      <datestamp>2017-01-16T13:53:38Z</datestamp>
      <setSpec>user-biosyslit</setSpec>
    </header>
    <header>
      <identifier>oai:zenodo.org:248143</identifier>
      <datestamp>2017-01-17T00:26:47Z</datestamp>
      <setSpec>user-biosyslit</setSpec>
    </header>
    <header>
      <identifier>oai:zenodo.org:247962</identifier>
      <datestamp>2017-01-16T22:08:02Z</datestamp>
      <setSpec>user-biosyslit</setSpec>
    </header>
    <header>
      <identifier>oai:zenodo.org:248211</identifier>
      <datestamp>2017-01-17T01:10:00Z</datestamp>
      <setSpec>user-biosyslit</setSpec>
    </header>
    <header>
      <identifier>oai:zenodo.org:247581</identifier>
      <datestamp>2017-01-16T17:13:25Z</datestamp>
      <setSpec>user-biosyslit</setSpec>
    </header>
    <header>
      <identifier>oai:zenodo.org:247601</identifier>
      <datestamp>2017-01-16T17:22:51Z</datestamp>
      <setSpec>user-biosyslit</setSpec>
    </header>
    <header>
      <identifier>oai:zenodo.org:248200</identifier>
      <datestamp>2017-01-17T01:09:19Z</datestamp>
      <setSpec>user-biosyslit</setSpec>
    </header>
    <header>
      <identifier>oai:zenodo.org:247990</identifier>
      <datestamp>2017-01-16T22:34:56Z</datestamp>
      <setSpec>user-biosyslit</setSpec>
    </header>
    <header>
      <identifier>oai:zenodo.org:248625</identifier>
      <datestamp>2017-01-17T07:26:59Z</datestamp>
      <setSpec>user-biosyslit</setSpec>
    </header>
    <header>
      <identifier>oai:zenodo.org:248915</identifier>
      <datestamp>2017-01-17T13:46:22Z</datestamp>
      <setSpec>user-biosyslit</setSpec>
    </header>
    <header>
      <identifier>oai:zenodo.org:249095</identifier>
      <datestamp>2017-01-17T16:15:07Z</datestamp>
      <setSpec>user-biosyslit</setSpec>
    </header>
    <header>
      <identifier>oai:zenodo.org:249608</identifier>
      <datestamp>2017-01-17T21:41:19Z</datestamp>
      <setSpec>user-biosyslit</setSpec>
    </header>
    <header>
      <identifier>oai:zenodo.org:249017</identifier>
      <datestamp>2017-01-23T04:15:34Z</datestamp>
      <setSpec>openaire</setSpec>
      <setSpec>user-biosyslit</setSpec>
    </header>
    <header>
      <identifier>oai:zenodo.org:250117</identifier>
      <datestamp>2017-01-18T05:06:57Z</datestamp>
      <setSpec>user-biosyslit</setSpec>
    </header>
    <header>
      <identifier>oai:zenodo.org:249814</identifier>
      <datestamp>2017-01-18T00:16:49Z</datestamp>
      <setSpec>user-biosyslit</setSpec>
    </header>
    <header>
      <identifier>oai:zenodo.org:249296</identifier>
      <datestamp>2017-01-17T18:33:30Z</datestamp>
      <setSpec>user-biosyslit</setSpec>
    </header>
    <header>
      <identifier>oai:zenodo.org:249418</identifier>
      <datestamp>2017-01-17T19:48:02Z</datestamp>
      <setSpec>user-biosyslit</setSpec>
    </header>
    <header>
      <identifier>oai:zenodo.org:249830</identifier>
      <datestamp>2017-01-18T00:39:23Z</datestamp>
      <setSpec>user-biosyslit</setSpec>
    </header>
    <header>
      <identifier>oai:zenodo.org:249906</identifier>
      <datestamp>2017-01-18T01:39:44Z</datestamp>
      <setSpec>user-biosyslit</setSpec>
    </header>
    <header>
      <identifier>oai:zenodo.org:249988</identifier>
      <datestamp>2017-01-18T03:29:43Z</datestamp>
      <setSpec>user-biosyslit</setSpec>
    </header>
    <header>
      <identifier>oai:zenodo.org:250839</identifier>
      <datestamp>2017-01-18T15:25:51Z</datestamp>
      <setSpec>user-biosyslit</setSpec>
    </header>
    <header>
      <identifier>oai:zenodo.org:250025</identifier>
      <datestamp>2017-01-18T04:03:10Z</datestamp>
      <setSpec>user-biosyslit</setSpec>
    </header>
    <header>
      <identifier>oai:zenodo.org:250226</identifier>
      <datestamp>2017-01-18T07:17:14Z</datestamp>
      <setSpec>user-biosyslit</setSpec>
    </header>
    <header>
      <identifier>oai:zenodo.org:250893</identifier>
      <datestamp>2017-01-18T16:11:34Z</datestamp>
      <setSpec>user-biosyslit</setSpec>
    </header>
    <header>
      <identifier>oai:zenodo.org:250075</identifier>
      <datestamp>2017-01-18T04:35:24Z</datestamp>
      <setSpec>user-biosyslit</setSpec>
    </header>
    <header>
      <identifier>oai:zenodo.org:249959</identifier>
      <datestamp>2017-01-18T02:41:42Z</datestamp>
      <setSpec>user-biosyslit</setSpec>
    </header>
    <header>
      <identifier>oai:zenodo.org:250220</identifier>
      <datestamp>2017-01-18T07:16:59Z</datestamp>
      <setSpec>user-biosyslit</setSpec>
    </header>
    <header>
      <identifier>oai:zenodo.org:251259</identifier>
      <datestamp>2017-01-18T20:43:01Z</datestamp>
      <setSpec>user-biosyslit</setSpec>
    </header>
    <header>
      <identifier>oai:zenodo.org:250655</identifier>
      <datestamp>2017-01-18T14:01:55Z</datestamp>
      <setSpec>user-biosyslit</setSpec>
    </header>
    <header>
      <identifier>oai:zenodo.org:250140</identifier>
      <datestamp>2017-01-18T05:21:01Z</datestamp>
      <setSpec>user-biosyslit</setSpec>
    </header>
    <header>
      <identifier>oai:zenodo.org:250138</identifier>
      <datestamp>2017-01-18T05:20:50Z</datestamp>
      <setSpec>user-biosyslit</setSpec>
    </header>
    <header>
      <identifier>oai:zenodo.org:250667</identifier>
      <datestamp>2017-01-18T14:02:34Z</datestamp>
      <setSpec>user-biosyslit</setSpec>
    </header>
    <header>
      <identifier>oai:zenodo.org:250574</identifier>
      <datestamp>2017-01-18T12:28:49Z</datestamp>
      <setSpec>user-biosyslit</setSpec>
    </header>
    <header>
      <identifier>oai:zenodo.org:251533</identifier>
      <datestamp>2017-01-19T01:35:52Z</datestamp>
      <setSpec>user-biosyslit</setSpec>
    </header>
    <header>
      <identifier>oai:zenodo.org:251327</identifier>
      <datestamp>2017-01-18T21:21:38Z</datestamp>
      <setSpec>user-biosyslit</setSpec>
    </header>
    <header>
      <identifier>oai:zenodo.org:250588</identifier>
      <datestamp>2017-01-18T12:30:01Z</datestamp>
      <setSpec>user-biosyslit</setSpec>
    </header>
    <header>
      <identifier>oai:zenodo.org:250901</identifier>
      <datestamp>2017-01-18T16:11:59Z</datestamp>
      <setSpec>user-biosyslit</setSpec>
    </header>
    <header>
      <identifier>oai:zenodo.org:247245</identifier>
      <datestamp>2017-01-16T13:16:56Z</datestamp>
      <setSpec>user-biosyslit</setSpec>
    </header>
    <header>
      <identifier>oai:zenodo.org:248289</identifier>
      <datestamp>2017-01-17T02:17:30Z</datestamp>
      <setSpec>user-biosyslit</setSpec>
    </header>
    <header>
      <identifier>oai:zenodo.org:247303</identifier>
      <datestamp>2017-01-16T14:06:58Z</datestamp>
      <setSpec>user-biosyslit</setSpec>
    </header>
    <header>
      <identifier>oai:zenodo.org:247126</identifier>
      <datestamp>2017-01-16T11:39:39Z</datestamp>
      <setSpec>user-biosyslit</setSpec>
    </header>
    <header>
      <identifier>oai:zenodo.org:247212</identifier>
      <datestamp>2017-01-16T12:53:26Z</datestamp>
      <setSpec>user-biosyslit</setSpec>
    </header>
    <header>
      <identifier>oai:zenodo.org:247821</identifier>
      <datestamp>2017-01-16T20:14:43Z</datestamp>
      <setSpec>user-biosyslit</setSpec>
    </header>
    <header>
      <identifier>oai:zenodo.org:247503</identifier>
      <datestamp>2017-01-16T16:28:14Z</datestamp>
      <setSpec>user-biosyslit</setSpec>
    </header>
    <header>
      <identifier>oai:zenodo.org:247621</identifier>
      <datestamp>2017-01-16T17:39:45Z</datestamp>
      <setSpec>user-biosyslit</setSpec>
    </header>
    <header>
      <identifier>oai:zenodo.org:247522</identifier>
      <datestamp>2017-01-16T16:47:05Z</datestamp>
      <setSpec>user-biosyslit</setSpec>
    </header>
    <header>
      <identifier>oai:zenodo.org:247912</identifier>
      <datestamp>2017-01-16T21:32:34Z</datestamp>
      <setSpec>user-biosyslit</setSpec>
    </header>
    <header>
      <identifier>oai:zenodo.org:247891</identifier>
      <datestamp>2017-01-16T21:15:54Z</datestamp>
      <setSpec>user-biosyslit</setSpec>
    </header>
    <header>
      <identifier>oai:zenodo.org:272476</identifier>
      <datestamp>2017-02-08T04:52:42Z</datestamp>
      <setSpec>user-biosyslit</setSpec>
    </header>
    <header>
      <identifier>oai:zenodo.org:248654</identifier>
      <datestamp>2017-01-17T08:00:46Z</datestamp>
      <setSpec>user-biosyslit</setSpec>
    </header>
    <header>
      <identifier>oai:zenodo.org:248629</identifier>
      <datestamp>2017-01-17T07:27:25Z</datestamp>
      <setSpec>user-biosyslit</setSpec>
    </header>
    <header>
      <identifier>oai:zenodo.org:248087</identifier>
      <datestamp>2017-01-16T23:47:04Z</datestamp>
      <setSpec>user-biosyslit</setSpec>
    </header>
    <header>
      <identifier>oai:zenodo.org:248541</identifier>
      <datestamp>2017-01-17T05:18:57Z</datestamp>
      <setSpec>user-biosyslit</setSpec>
    </header>
    <header>
      <identifier>oai:zenodo.org:248354</identifier>
      <datestamp>2017-01-17T03:15:39Z</datestamp>
      <setSpec>user-biosyslit</setSpec>
    </header>
    <header>
      <identifier>oai:zenodo.org:248665</identifier>
      <datestamp>2017-01-17T08:00:39Z</datestamp>
      <setSpec>user-biosyslit</setSpec>
    </header>
    <header>
      <identifier>oai:zenodo.org:249326</identifier>
      <datestamp>2017-01-17T18:43:33Z</datestamp>
      <setSpec>user-biosyslit</setSpec>
    </header>
    <header>
      <identifier>oai:zenodo.org:248608</identifier>
      <datestamp>2017-01-17T06:01:48Z</datestamp>
      <setSpec>user-biosyslit</setSpec>
    </header>
    <header>
      <identifier>oai:zenodo.org:250027</identifier>
      <datestamp>2017-01-18T04:02:21Z</datestamp>
      <setSpec>user-biosyslit</setSpec>
    </header>
    <resumptionToken expirationDate="2017-08-31T15:46:51Z" cursor="55600" completeListSize="77796">.eJyNysEKgjAYAOB3-c8Sm2tqQhexpIPKXA71EqYi1axwhbro3fPSuc7f9wLVNDW4aLFCxKGWhbBNLZPSpQGq6m9SHk4zQ5UJWV1lWgbimXQC5WZrR74aQz8nkb6guMOab5mZYWdMT2hi-_SR62QUZDdwtLFDzabovJtfTeJAFsfgztOrJ7lZ9_GGTRx7vCDV9-E_n_75fLUGA-5l24BLqWPAZSj7VoH7er8_nphRRQ.DInAcw.YRpo_Hy746qtZYfnNZNx5TMp-JU</resumptionToken>
  </ListIdentifiers>
</OAI-PMH>
