<?xml version='1.0' encoding='UTF-8'?>
<?xml-stylesheet type="text/xsl" href="/static/xsl/oai2.v1.0.xsl"?>
<OAI-PMH xmlns="http://www.openarchives.org/OAI/2.0/" xmlns:xsi="http://www.w3.org/2001/XMLSchema-instance" xsi:schemaLocation="http://www.openarchives.org/OAI/2.0/ http://www.openarchives.org/OAI/2.0/OAI-PMH.xsd">
  <responseDate>2017-08-31T15:45:28Z</responseDate>
  <request verb="ListIdentifiers" resumptionToken=".eJyNz8EOQzAAgOF36VmWamtMsoswcUDoCC6LIWLKRLeg4t3nsvN2_r_LvwJeVSXQ4QFBrGGCsQYRIcpJkQAvxidjt2bPoEhiVvQsyu34HXYxTFGteiafXTPFnmih38mCXgKUyNocNXAJrtErFeEcY2ei0FJdESzew9ldiX2bZXd7oFFvMIrK0beChcoGzXDxdfKfTvx0Jj8DCQx5XQH9SPardsrHmgN93bYPlc9ROQ.DInAmA.DWYdVqw3biBRGiQyCkUVrZZD6lE">https://zenodo.org/oai2d</request>
  <ListIdentifiers>
    <header>
      <identifier>oai:zenodo.org:242753</identifier>
      <datestamp>2017-01-13T19:30:34Z</datestamp>
      <setSpec>user-biosyslit</setSpec>
    </header>
    <header>
      <identifier>oai:zenodo.org:242775</identifier>
      <datestamp>2017-01-13T19:31:45Z</datestamp>
      <setSpec>user-biosyslit</setSpec>
    </header>
    <header>
      <identifier>oai:zenodo.org:242776</identifier>
      <datestamp>2017-01-13T19:31:49Z</datestamp>
      <setSpec>user-biosyslit</setSpec>
    </header>
    <header>
      <identifier>oai:zenodo.org:242781</identifier>
      <datestamp>2017-01-13T19:32:04Z</datestamp>
      <setSpec>user-biosyslit</setSpec>
    </header>
    <header>
      <identifier>oai:zenodo.org:242779</identifier>
      <datestamp>2017-01-13T19:31:59Z</datestamp>
      <setSpec>user-biosyslit</setSpec>
    </header>
    <header>
      <identifier>oai:zenodo.org:242768</identifier>
      <datestamp>2017-01-13T19:31:23Z</datestamp>
      <setSpec>user-biosyslit</setSpec>
    </header>
    <header>
      <identifier>oai:zenodo.org:242780</identifier>
      <datestamp>2017-01-13T19:32:02Z</datestamp>
      <setSpec>user-biosyslit</setSpec>
    </header>
    <header>
      <identifier>oai:zenodo.org:242767</identifier>
      <datestamp>2017-01-13T19:31:19Z</datestamp>
      <setSpec>user-biosyslit</setSpec>
    </header>
    <header>
      <identifier>oai:zenodo.org:242771</identifier>
      <datestamp>2017-01-13T19:31:31Z</datestamp>
      <setSpec>user-biosyslit</setSpec>
    </header>
    <header>
      <identifier>oai:zenodo.org:242772</identifier>
      <datestamp>2017-01-13T19:31:34Z</datestamp>
      <setSpec>user-biosyslit</setSpec>
    </header>
    <header>
      <identifier>oai:zenodo.org:242729</identifier>
      <datestamp>2017-01-13T19:35:34Z</datestamp>
      <setSpec>user-biosyslit</setSpec>
    </header>
    <header>
      <identifier>oai:zenodo.org:242845</identifier>
      <datestamp>2017-01-13T19:35:31Z</datestamp>
      <setSpec>user-biosyslit</setSpec>
    </header>
    <header>
      <identifier>oai:zenodo.org:253612</identifier>
      <datestamp>2017-01-20T08:54:27Z</datestamp>
      <setSpec>user-biosyslit</setSpec>
    </header>
    <header>
      <identifier>oai:zenodo.org:259921</identifier>
      <datestamp>2017-01-25T17:32:06Z</datestamp>
      <setSpec>user-biosyslit</setSpec>
    </header>
    <header>
      <identifier>oai:zenodo.org:259918</identifier>
      <datestamp>2017-01-25T17:31:52Z</datestamp>
      <setSpec>user-biosyslit</setSpec>
    </header>
    <header>
      <identifier>oai:zenodo.org:253601</identifier>
      <datestamp>2017-01-20T08:53:50Z</datestamp>
      <setSpec>user-biosyslit</setSpec>
    </header>
    <header>
      <identifier>oai:zenodo.org:253608</identifier>
      <datestamp>2017-01-20T08:54:15Z</datestamp>
      <setSpec>user-biosyslit</setSpec>
    </header>
    <header>
      <identifier>oai:zenodo.org:253606</identifier>
      <datestamp>2017-01-20T08:54:10Z</datestamp>
      <setSpec>user-biosyslit</setSpec>
    </header>
    <header>
      <identifier>oai:zenodo.org:810761</identifier>
      <datestamp>2017-06-19T08:12:30Z</datestamp>
      <setSpec>user-biosyslit</setSpec>
    </header>
    <header>
      <identifier>oai:zenodo.org:810763</identifier>
      <datestamp>2017-06-19T08:12:16Z</datestamp>
      <setSpec>user-biosyslit</setSpec>
    </header>
    <header>
      <identifier>oai:zenodo.org:810765</identifier>
      <datestamp>2017-06-19T08:12:21Z</datestamp>
      <setSpec>user-biosyslit</setSpec>
    </header>
    <header>
      <identifier>oai:zenodo.org:810757</identifier>
      <datestamp>2017-06-19T08:07:48Z</datestamp>
      <setSpec>user-biosyslit</setSpec>
    </header>
    <header>
      <identifier>oai:zenodo.org:806029</identifier>
      <datestamp>2017-06-19T09:56:23Z</datestamp>
      <setSpec>openaire</setSpec>
      <setSpec>user-biosyslit</setSpec>
    </header>
    <header>
      <identifier>oai:zenodo.org:233998</identifier>
      <datestamp>2017-01-08T13:52:56Z</datestamp>
      <setSpec>user-biosyslit</setSpec>
    </header>
    <header>
      <identifier>oai:zenodo.org:233999</identifier>
      <datestamp>2017-01-08T13:52:58Z</datestamp>
      <setSpec>user-biosyslit</setSpec>
    </header>
    <header>
      <identifier>oai:zenodo.org:233995</identifier>
      <datestamp>2017-01-08T13:52:48Z</datestamp>
      <setSpec>user-biosyslit</setSpec>
    </header>
    <header>
      <identifier>oai:zenodo.org:234000</identifier>
      <datestamp>2017-01-08T13:53:01Z</datestamp>
      <setSpec>user-biosyslit</setSpec>
    </header>
    <header>
      <identifier>oai:zenodo.org:233996</identifier>
      <datestamp>2017-01-08T13:52:50Z</datestamp>
      <setSpec>user-biosyslit</setSpec>
    </header>
    <header>
      <identifier>oai:zenodo.org:284263</identifier>
      <datestamp>2017-02-09T10:49:59Z</datestamp>
      <setSpec>user-biosyslit</setSpec>
    </header>
    <header>
      <identifier>oai:zenodo.org:284264</identifier>
      <datestamp>2017-02-09T10:50:02Z</datestamp>
      <setSpec>user-biosyslit</setSpec>
    </header>
    <header>
      <identifier>oai:zenodo.org:284262</identifier>
      <datestamp>2017-02-09T10:49:56Z</datestamp>
      <setSpec>user-biosyslit</setSpec>
    </header>
    <header>
      <identifier>oai:zenodo.org:284267</identifier>
      <datestamp>2017-02-09T10:50:09Z</datestamp>
      <setSpec>user-biosyslit</setSpec>
    </header>
    <header>
      <identifier>oai:zenodo.org:289179</identifier>
      <datestamp>2017-02-09T22:53:37Z</datestamp>
      <setSpec>user-biosyslit</setSpec>
    </header>
    <header>
      <identifier>oai:zenodo.org:289183</identifier>
      <datestamp>2017-02-09T22:53:48Z</datestamp>
      <setSpec>user-biosyslit</setSpec>
    </header>
    <header>
      <identifier>oai:zenodo.org:289180</identifier>
      <datestamp>2017-02-09T22:53:39Z</datestamp>
      <setSpec>user-biosyslit</setSpec>
    </header>
    <header>
      <identifier>oai:zenodo.org:289182</identifier>
      <datestamp>2017-02-09T22:53:45Z</datestamp>
      <setSpec>user-biosyslit</setSpec>
    </header>
    <header>
      <identifier>oai:zenodo.org:289177</identifier>
      <datestamp>2017-02-09T22:53:32Z</datestamp>
      <setSpec>user-biosyslit</setSpec>
    </header>
    <header>
      <identifier>oai:zenodo.org:400300</identifier>
      <datestamp>2017-03-16T19:00:53Z</datestamp>
      <setSpec>user-biosyslit</setSpec>
    </header>
    <header>
      <identifier>oai:zenodo.org:400304</identifier>
      <datestamp>2017-03-16T19:01:02Z</datestamp>
      <setSpec>user-biosyslit</setSpec>
    </header>
    <header>
      <identifier>oai:zenodo.org:243340</identifier>
      <datestamp>2017-01-14T02:48:35Z</datestamp>
      <setSpec>user-biosyslit</setSpec>
    </header>
    <header>
      <identifier>oai:zenodo.org:276178</identifier>
      <datestamp>2017-02-08T18:18:04Z</datestamp>
      <setSpec>user-biosyslit</setSpec>
    </header>
    <header>
      <identifier>oai:zenodo.org:276174</identifier>
      <datestamp>2017-02-08T18:17:51Z</datestamp>
      <setSpec>user-biosyslit</setSpec>
    </header>
    <header>
      <identifier>oai:zenodo.org:276173</identifier>
      <datestamp>2017-02-08T18:17:48Z</datestamp>
      <setSpec>user-biosyslit</setSpec>
    </header>
    <header>
      <identifier>oai:zenodo.org:243237</identifier>
      <datestamp>2017-01-14T01:16:30Z</datestamp>
      <setSpec>user-biosyslit</setSpec>
    </header>
    <header>
      <identifier>oai:zenodo.org:252739</identifier>
      <datestamp>2017-01-19T19:11:51Z</datestamp>
      <setSpec>user-biosyslit</setSpec>
    </header>
    <header>
      <identifier>oai:zenodo.org:252740</identifier>
      <datestamp>2017-01-19T19:11:53Z</datestamp>
      <setSpec>user-biosyslit</setSpec>
    </header>
    <header>
      <identifier>oai:zenodo.org:252733</identifier>
      <datestamp>2017-01-19T19:11:38Z</datestamp>
      <setSpec>user-biosyslit</setSpec>
    </header>
    <header>
      <identifier>oai:zenodo.org:252734</identifier>
      <datestamp>2017-01-19T19:11:40Z</datestamp>
      <setSpec>user-biosyslit</setSpec>
    </header>
    <header>
      <identifier>oai:zenodo.org:252741</identifier>
      <datestamp>2017-01-19T19:11:56Z</datestamp>
      <setSpec>user-biosyslit</setSpec>
    </header>
    <header>
      <identifier>oai:zenodo.org:252742</identifier>
      <datestamp>2017-01-19T19:11:58Z</datestamp>
      <setSpec>user-biosyslit</setSpec>
    </header>
    <header>
      <identifier>oai:zenodo.org:249072</identifier>
      <datestamp>2017-01-17T15:56:16Z</datestamp>
      <setSpec>user-biosyslit</setSpec>
    </header>
    <header>
      <identifier>oai:zenodo.org:249076</identifier>
      <datestamp>2017-01-17T15:56:30Z</datestamp>
      <setSpec>user-biosyslit</setSpec>
    </header>
    <header>
      <identifier>oai:zenodo.org:249073</identifier>
      <datestamp>2017-01-17T15:56:20Z</datestamp>
      <setSpec>user-biosyslit</setSpec>
    </header>
    <header>
      <identifier>oai:zenodo.org:249071</identifier>
      <datestamp>2017-01-17T15:56:14Z</datestamp>
      <setSpec>user-biosyslit</setSpec>
    </header>
    <header>
      <identifier>oai:zenodo.org:810619</identifier>
      <datestamp>2017-06-19T07:20:46Z</datestamp>
      <setSpec>user-biosyslit</setSpec>
    </header>
    <header>
      <identifier>oai:zenodo.org:810609</identifier>
      <datestamp>2017-06-19T07:20:31Z</datestamp>
      <setSpec>user-biosyslit</setSpec>
    </header>
    <header>
      <identifier>oai:zenodo.org:810615</identifier>
      <datestamp>2017-06-19T07:20:41Z</datestamp>
      <setSpec>user-biosyslit</setSpec>
    </header>
    <header>
      <identifier>oai:zenodo.org:810625</identifier>
      <datestamp>2017-06-19T07:20:55Z</datestamp>
      <setSpec>user-biosyslit</setSpec>
    </header>
    <header>
      <identifier>oai:zenodo.org:810617</identifier>
      <datestamp>2017-06-19T07:20:43Z</datestamp>
      <setSpec>user-biosyslit</setSpec>
    </header>
    <header>
      <identifier>oai:zenodo.org:810605</identifier>
      <datestamp>2017-06-19T07:22:14Z</datestamp>
      <setSpec>user-biosyslit</setSpec>
    </header>
    <header>
      <identifier>oai:zenodo.org:810665</identifier>
      <datestamp>2017-06-19T07:21:55Z</datestamp>
      <setSpec>user-biosyslit</setSpec>
    </header>
    <header>
      <identifier>oai:zenodo.org:810687</identifier>
      <datestamp>2017-06-19T07:28:02Z</datestamp>
      <setSpec>user-biosyslit</setSpec>
    </header>
    <header>
      <identifier>oai:zenodo.org:810673</identifier>
      <datestamp>2017-06-19T07:22:07Z</datestamp>
      <setSpec>user-biosyslit</setSpec>
    </header>
    <header>
      <identifier>oai:zenodo.org:810671</identifier>
      <datestamp>2017-06-19T07:22:04Z</datestamp>
      <setSpec>user-biosyslit</setSpec>
    </header>
    <header>
      <identifier>oai:zenodo.org:810667</identifier>
      <datestamp>2017-06-19T07:21:58Z</datestamp>
      <setSpec>user-biosyslit</setSpec>
    </header>
    <header>
      <identifier>oai:zenodo.org:810675</identifier>
      <datestamp>2017-06-19T07:22:10Z</datestamp>
      <setSpec>user-biosyslit</setSpec>
    </header>
    <header>
      <identifier>oai:zenodo.org:275327</identifier>
      <datestamp>2017-02-08T16:07:22Z</datestamp>
      <setSpec>user-biosyslit</setSpec>
    </header>
    <header>
      <identifier>oai:zenodo.org:275337</identifier>
      <datestamp>2017-02-08T16:07:19Z</datestamp>
      <setSpec>user-biosyslit</setSpec>
    </header>
    <header>
      <identifier>oai:zenodo.org:275333</identifier>
      <datestamp>2017-02-08T16:07:09Z</datestamp>
      <setSpec>user-biosyslit</setSpec>
    </header>
    <header>
      <identifier>oai:zenodo.org:284261</identifier>
      <datestamp>2017-02-09T10:49:54Z</datestamp>
      <setSpec>user-biosyslit</setSpec>
    </header>
    <header>
      <identifier>oai:zenodo.org:248417</identifier>
      <datestamp>2017-01-17T03:50:42Z</datestamp>
      <setSpec>user-biosyslit</setSpec>
    </header>
    <header>
      <identifier>oai:zenodo.org:248415</identifier>
      <datestamp>2017-01-17T03:50:33Z</datestamp>
      <setSpec>user-biosyslit</setSpec>
    </header>
    <header>
      <identifier>oai:zenodo.org:243336</identifier>
      <datestamp>2017-01-14T02:48:22Z</datestamp>
      <setSpec>user-biosyslit</setSpec>
    </header>
    <header>
      <identifier>oai:zenodo.org:243337</identifier>
      <datestamp>2017-01-14T02:48:26Z</datestamp>
      <setSpec>user-biosyslit</setSpec>
    </header>
    <header>
      <identifier>oai:zenodo.org:243338</identifier>
      <datestamp>2017-01-14T02:48:29Z</datestamp>
      <setSpec>user-biosyslit</setSpec>
    </header>
    <header>
      <identifier>oai:zenodo.org:400305</identifier>
      <datestamp>2017-03-16T19:01:06Z</datestamp>
      <setSpec>user-biosyslit</setSpec>
    </header>
    <header>
      <identifier>oai:zenodo.org:400307</identifier>
      <datestamp>2017-03-16T19:01:11Z</datestamp>
      <setSpec>user-biosyslit</setSpec>
    </header>
    <header>
      <identifier>oai:zenodo.org:400298</identifier>
      <datestamp>2017-03-16T19:00:46Z</datestamp>
      <setSpec>user-biosyslit</setSpec>
    </header>
    <header>
      <identifier>oai:zenodo.org:400308</identifier>
      <datestamp>2017-03-16T19:01:13Z</datestamp>
      <setSpec>user-biosyslit</setSpec>
    </header>
    <header>
      <identifier>oai:zenodo.org:400309</identifier>
      <datestamp>2017-03-16T19:01:16Z</datestamp>
      <setSpec>user-biosyslit</setSpec>
    </header>
    <header>
      <identifier>oai:zenodo.org:400320</identifier>
      <datestamp>2017-03-16T19:01:42Z</datestamp>
      <setSpec>user-biosyslit</setSpec>
    </header>
    <header>
      <identifier>oai:zenodo.org:276172</identifier>
      <datestamp>2017-02-08T18:17:44Z</datestamp>
      <setSpec>user-biosyslit</setSpec>
    </header>
    <header>
      <identifier>oai:zenodo.org:243241</identifier>
      <datestamp>2017-01-14T01:16:43Z</datestamp>
      <setSpec>user-biosyslit</setSpec>
    </header>
    <header>
      <identifier>oai:zenodo.org:244493</identifier>
      <datestamp>2017-01-14T22:43:09Z</datestamp>
      <setSpec>user-biosyslit</setSpec>
    </header>
    <header>
      <identifier>oai:zenodo.org:243239</identifier>
      <datestamp>2017-01-14T01:16:37Z</datestamp>
      <setSpec>user-biosyslit</setSpec>
    </header>
    <header>
      <identifier>oai:zenodo.org:244489</identifier>
      <datestamp>2017-01-14T22:42:55Z</datestamp>
      <setSpec>user-biosyslit</setSpec>
    </header>
    <header>
      <identifier>oai:zenodo.org:244483</identifier>
      <datestamp>2017-01-14T22:42:24Z</datestamp>
      <setSpec>user-biosyslit</setSpec>
    </header>
    <header>
      <identifier>oai:zenodo.org:244484</identifier>
      <datestamp>2017-01-14T22:42:28Z</datestamp>
      <setSpec>user-biosyslit</setSpec>
    </header>
    <header>
      <identifier>oai:zenodo.org:244491</identifier>
      <datestamp>2017-01-14T22:43:02Z</datestamp>
      <setSpec>user-biosyslit</setSpec>
    </header>
    <header>
      <identifier>oai:zenodo.org:244482</identifier>
      <datestamp>2017-01-14T22:43:51Z</datestamp>
      <setSpec>user-biosyslit</setSpec>
    </header>
    <header>
      <identifier>oai:zenodo.org:290005</identifier>
      <datestamp>2017-02-10T01:04:30Z</datestamp>
      <setSpec>user-biosyslit</setSpec>
    </header>
    <header>
      <identifier>oai:zenodo.org:290004</identifier>
      <datestamp>2017-02-10T01:04:27Z</datestamp>
      <setSpec>user-biosyslit</setSpec>
    </header>
    <header>
      <identifier>oai:zenodo.org:244500</identifier>
      <datestamp>2017-01-14T22:43:39Z</datestamp>
      <setSpec>user-biosyslit</setSpec>
    </header>
    <header>
      <identifier>oai:zenodo.org:252729</identifier>
      <datestamp>2017-01-19T19:11:29Z</datestamp>
      <setSpec>user-biosyslit</setSpec>
    </header>
    <header>
      <identifier>oai:zenodo.org:290003</identifier>
      <datestamp>2017-02-10T01:04:25Z</datestamp>
      <setSpec>user-biosyslit</setSpec>
    </header>
    <header>
      <identifier>oai:zenodo.org:252732</identifier>
      <datestamp>2017-01-19T19:11:36Z</datestamp>
      <setSpec>user-biosyslit</setSpec>
    </header>
    <header>
      <identifier>oai:zenodo.org:244494</identifier>
      <datestamp>2017-01-14T22:43:11Z</datestamp>
      <setSpec>user-biosyslit</setSpec>
    </header>
    <header>
      <identifier>oai:zenodo.org:244497</identifier>
      <datestamp>2017-01-14T22:43:22Z</datestamp>
      <setSpec>user-biosyslit</setSpec>
    </header>
    <header>
      <identifier>oai:zenodo.org:289999</identifier>
      <datestamp>2017-02-10T01:04:14Z</datestamp>
      <setSpec>user-biosyslit</setSpec>
    </header>
    <header>
      <identifier>oai:zenodo.org:249080</identifier>
      <datestamp>2017-01-17T15:56:44Z</datestamp>
      <setSpec>user-biosyslit</setSpec>
    </header>
    <resumptionToken expirationDate="2017-08-31T15:47:28Z" cursor="64400" completeListSize="77796">.eJyNys8PQlAcAPD_5Xu29n4UsnUxMgeMF8OlCTN5ZF4tXut_z6VznT-fF4i6rsBAG10jKkUY6ZSS3X6vgCinG-fndlUo04SXA48LJ3lEfYIy0mi-JWbPyqgvOxT0WLJjSFKsz3GLlvAU3zMZzQl1nwzZmifDxb-666to4PD84owsHkzOSDUFdrgwbLKclt-H_3zy57PEARQYi6YGQ92qCnTPYmoEGK_3-wNoHVEN.DInAmA.LLXnRprK_0v1JhasXMOf4-fEohM</resumptionToken>
  </ListIdentifiers>
</OAI-PMH>
