<?xml version='1.0' encoding='UTF-8'?>
<?xml-stylesheet type="text/xsl" href="/static/xsl/oai2.v1.0.xsl"?>
<OAI-PMH xmlns="http://www.openarchives.org/OAI/2.0/" xmlns:xsi="http://www.w3.org/2001/XMLSchema-instance" xsi:schemaLocation="http://www.openarchives.org/OAI/2.0/ http://www.openarchives.org/OAI/2.0/OAI-PMH.xsd">
  <responseDate>2017-08-31T15:42:54Z</responseDate>
  <request verb="ListIdentifiers" resumptionToken=".eJyNzz0PQ0AAgOH_crM099UqSRehYkC4krI0iog6Kq4NTvz3Wjq38_ss7wJEWRZAhzuqUaohgukeHQjEVAEiH56c3-otg_wa87zjUWbH77CNYYIr1TPF5JoJ8WQD_RZJdg7wFR2nqIZzcIleiQynmDgjg5bqymD2Hs7mCuLbPL3bPYs6gzNcDL4VzAwZLCX516E_nfzpTHECCuizqgQ61rarZsyGSgB9WdcPlIpRNw.DIm__g.MYpkc37VaNbcedcvpxGi14OxZF0">https://zenodo.org/oai2d</request>
  <ListIdentifiers>
    <header>
      <identifier>oai:zenodo.org:281531</identifier>
      <datestamp>2017-02-09T05:28:41Z</datestamp>
      <setSpec>user-biosyslit</setSpec>
    </header>
    <header>
      <identifier>oai:zenodo.org:240421</identifier>
      <datestamp>2017-01-12T08:31:01Z</datestamp>
      <setSpec>user-biosyslit</setSpec>
    </header>
    <header>
      <identifier>oai:zenodo.org:240427</identifier>
      <datestamp>2017-01-12T08:30:51Z</datestamp>
      <setSpec>user-biosyslit</setSpec>
    </header>
    <header>
      <identifier>oai:zenodo.org:240429</identifier>
      <datestamp>2017-01-12T08:31:00Z</datestamp>
      <setSpec>user-biosyslit</setSpec>
    </header>
    <header>
      <identifier>oai:zenodo.org:240423</identifier>
      <datestamp>2017-01-12T08:30:35Z</datestamp>
      <setSpec>user-biosyslit</setSpec>
    </header>
    <header>
      <identifier>oai:zenodo.org:236871</identifier>
      <datestamp>2017-01-10T06:44:54Z</datestamp>
      <setSpec>user-biosyslit</setSpec>
    </header>
    <header>
      <identifier>oai:zenodo.org:236874</identifier>
      <datestamp>2017-01-10T06:45:04Z</datestamp>
      <setSpec>user-biosyslit</setSpec>
    </header>
    <header>
      <identifier>oai:zenodo.org:236873</identifier>
      <datestamp>2017-01-10T06:45:00Z</datestamp>
      <setSpec>user-biosyslit</setSpec>
    </header>
    <header>
      <identifier>oai:zenodo.org:236875</identifier>
      <datestamp>2017-01-10T06:45:08Z</datestamp>
      <setSpec>user-biosyslit</setSpec>
    </header>
    <header>
      <identifier>oai:zenodo.org:239897</identifier>
      <datestamp>2017-01-12T02:20:34Z</datestamp>
      <setSpec>user-biosyslit</setSpec>
    </header>
    <header>
      <identifier>oai:zenodo.org:239894</identifier>
      <datestamp>2017-01-12T02:20:13Z</datestamp>
      <setSpec>user-biosyslit</setSpec>
    </header>
    <header>
      <identifier>oai:zenodo.org:239896</identifier>
      <datestamp>2017-01-12T02:20:29Z</datestamp>
      <setSpec>user-biosyslit</setSpec>
    </header>
    <header>
      <identifier>oai:zenodo.org:239895</identifier>
      <datestamp>2017-01-12T02:20:21Z</datestamp>
      <setSpec>user-biosyslit</setSpec>
    </header>
    <header>
      <identifier>oai:zenodo.org:276438</identifier>
      <datestamp>2017-02-08T18:51:11Z</datestamp>
      <setSpec>user-biosyslit</setSpec>
    </header>
    <header>
      <identifier>oai:zenodo.org:241133</identifier>
      <datestamp>2017-01-12T20:27:03Z</datestamp>
      <setSpec>user-biosyslit</setSpec>
    </header>
    <header>
      <identifier>oai:zenodo.org:241134</identifier>
      <datestamp>2017-01-12T20:27:07Z</datestamp>
      <setSpec>user-biosyslit</setSpec>
    </header>
    <header>
      <identifier>oai:zenodo.org:276451</identifier>
      <datestamp>2017-02-08T18:51:00Z</datestamp>
      <setSpec>user-biosyslit</setSpec>
    </header>
    <header>
      <identifier>oai:zenodo.org:276453</identifier>
      <datestamp>2017-02-08T18:51:05Z</datestamp>
      <setSpec>user-biosyslit</setSpec>
    </header>
    <header>
      <identifier>oai:zenodo.org:276455</identifier>
      <datestamp>2017-02-08T18:51:10Z</datestamp>
      <setSpec>user-biosyslit</setSpec>
    </header>
    <header>
      <identifier>oai:zenodo.org:276448</identifier>
      <datestamp>2017-02-08T18:50:50Z</datestamp>
      <setSpec>user-biosyslit</setSpec>
    </header>
    <header>
      <identifier>oai:zenodo.org:241136</identifier>
      <datestamp>2017-01-12T20:27:13Z</datestamp>
      <setSpec>user-biosyslit</setSpec>
    </header>
    <header>
      <identifier>oai:zenodo.org:241132</identifier>
      <datestamp>2017-01-12T20:27:00Z</datestamp>
      <setSpec>user-biosyslit</setSpec>
    </header>
    <header>
      <identifier>oai:zenodo.org:281647</identifier>
      <datestamp>2017-02-09T05:41:40Z</datestamp>
      <setSpec>user-biosyslit</setSpec>
    </header>
    <header>
      <identifier>oai:zenodo.org:281650</identifier>
      <datestamp>2017-02-09T05:41:37Z</datestamp>
      <setSpec>user-biosyslit</setSpec>
    </header>
    <header>
      <identifier>oai:zenodo.org:281648</identifier>
      <datestamp>2017-02-09T05:41:32Z</datestamp>
      <setSpec>user-biosyslit</setSpec>
    </header>
    <header>
      <identifier>oai:zenodo.org:247494</identifier>
      <datestamp>2017-01-16T16:15:51Z</datestamp>
      <setSpec>user-biosyslit</setSpec>
    </header>
    <header>
      <identifier>oai:zenodo.org:247489</identifier>
      <datestamp>2017-01-16T16:15:34Z</datestamp>
      <setSpec>user-biosyslit</setSpec>
    </header>
    <header>
      <identifier>oai:zenodo.org:247488</identifier>
      <datestamp>2017-01-16T16:15:30Z</datestamp>
      <setSpec>user-biosyslit</setSpec>
    </header>
    <header>
      <identifier>oai:zenodo.org:247491</identifier>
      <datestamp>2017-01-16T16:15:40Z</datestamp>
      <setSpec>user-biosyslit</setSpec>
    </header>
    <header>
      <identifier>oai:zenodo.org:247492</identifier>
      <datestamp>2017-01-16T16:15:44Z</datestamp>
      <setSpec>user-biosyslit</setSpec>
    </header>
    <header>
      <identifier>oai:zenodo.org:247493</identifier>
      <datestamp>2017-01-16T16:15:49Z</datestamp>
      <setSpec>user-biosyslit</setSpec>
    </header>
    <header>
      <identifier>oai:zenodo.org:247487</identifier>
      <datestamp>2017-01-16T16:15:20Z</datestamp>
      <setSpec>user-biosyslit</setSpec>
    </header>
    <header>
      <identifier>oai:zenodo.org:288599</identifier>
      <datestamp>2017-02-09T21:25:18Z</datestamp>
      <setSpec>user-biosyslit</setSpec>
    </header>
    <header>
      <identifier>oai:zenodo.org:288594</identifier>
      <datestamp>2017-02-09T21:25:06Z</datestamp>
      <setSpec>user-biosyslit</setSpec>
    </header>
    <header>
      <identifier>oai:zenodo.org:288590</identifier>
      <datestamp>2017-02-09T21:24:56Z</datestamp>
      <setSpec>user-biosyslit</setSpec>
    </header>
    <header>
      <identifier>oai:zenodo.org:288602</identifier>
      <datestamp>2017-02-09T21:25:24Z</datestamp>
      <setSpec>user-biosyslit</setSpec>
    </header>
    <header>
      <identifier>oai:zenodo.org:288587</identifier>
      <datestamp>2017-02-09T21:24:49Z</datestamp>
      <setSpec>user-biosyslit</setSpec>
    </header>
    <header>
      <identifier>oai:zenodo.org:288603</identifier>
      <datestamp>2017-02-09T21:25:26Z</datestamp>
      <setSpec>user-biosyslit</setSpec>
    </header>
    <header>
      <identifier>oai:zenodo.org:288598</identifier>
      <datestamp>2017-02-09T21:25:16Z</datestamp>
      <setSpec>user-biosyslit</setSpec>
    </header>
    <header>
      <identifier>oai:zenodo.org:288591</identifier>
      <datestamp>2017-02-09T21:24:59Z</datestamp>
      <setSpec>user-biosyslit</setSpec>
    </header>
    <header>
      <identifier>oai:zenodo.org:288604</identifier>
      <datestamp>2017-02-09T21:25:28Z</datestamp>
      <setSpec>user-biosyslit</setSpec>
    </header>
    <header>
      <identifier>oai:zenodo.org:282421</identifier>
      <datestamp>2017-02-09T06:59:12Z</datestamp>
      <setSpec>user-biosyslit</setSpec>
    </header>
    <header>
      <identifier>oai:zenodo.org:280626</identifier>
      <datestamp>2017-02-09T03:46:50Z</datestamp>
      <setSpec>user-biosyslit</setSpec>
    </header>
    <header>
      <identifier>oai:zenodo.org:280642</identifier>
      <datestamp>2017-02-09T03:46:48Z</datestamp>
      <setSpec>user-biosyslit</setSpec>
    </header>
    <header>
      <identifier>oai:zenodo.org:282429</identifier>
      <datestamp>2017-02-09T06:59:11Z</datestamp>
      <setSpec>user-biosyslit</setSpec>
    </header>
    <header>
      <identifier>oai:zenodo.org:282425</identifier>
      <datestamp>2017-02-09T06:59:03Z</datestamp>
      <setSpec>user-biosyslit</setSpec>
    </header>
    <header>
      <identifier>oai:zenodo.org:282428</identifier>
      <datestamp>2017-02-09T06:59:09Z</datestamp>
      <setSpec>user-biosyslit</setSpec>
    </header>
    <header>
      <identifier>oai:zenodo.org:240045</identifier>
      <datestamp>2017-01-12T04:04:20Z</datestamp>
      <setSpec>user-biosyslit</setSpec>
    </header>
    <header>
      <identifier>oai:zenodo.org:282423</identifier>
      <datestamp>2017-02-09T06:58:58Z</datestamp>
      <setSpec>user-biosyslit</setSpec>
    </header>
    <header>
      <identifier>oai:zenodo.org:240041</identifier>
      <datestamp>2017-01-12T04:04:03Z</datestamp>
      <setSpec>user-biosyslit</setSpec>
    </header>
    <header>
      <identifier>oai:zenodo.org:284230</identifier>
      <datestamp>2017-02-09T10:43:29Z</datestamp>
      <setSpec>user-biosyslit</setSpec>
    </header>
    <header>
      <identifier>oai:zenodo.org:284227</identifier>
      <datestamp>2017-02-09T10:43:22Z</datestamp>
      <setSpec>user-biosyslit</setSpec>
    </header>
    <header>
      <identifier>oai:zenodo.org:284228</identifier>
      <datestamp>2017-02-09T10:43:24Z</datestamp>
      <setSpec>user-biosyslit</setSpec>
    </header>
    <header>
      <identifier>oai:zenodo.org:284232</identifier>
      <datestamp>2017-02-09T10:43:34Z</datestamp>
      <setSpec>user-biosyslit</setSpec>
    </header>
    <header>
      <identifier>oai:zenodo.org:284226</identifier>
      <datestamp>2017-02-09T10:43:20Z</datestamp>
      <setSpec>user-biosyslit</setSpec>
    </header>
    <header>
      <identifier>oai:zenodo.org:284235</identifier>
      <datestamp>2017-02-09T10:43:40Z</datestamp>
      <setSpec>user-biosyslit</setSpec>
    </header>
    <header>
      <identifier>oai:zenodo.org:284233</identifier>
      <datestamp>2017-02-09T10:43:36Z</datestamp>
      <setSpec>user-biosyslit</setSpec>
    </header>
    <header>
      <identifier>oai:zenodo.org:278247</identifier>
      <datestamp>2017-02-08T22:43:34Z</datestamp>
      <setSpec>user-biosyslit</setSpec>
    </header>
    <header>
      <identifier>oai:zenodo.org:278246</identifier>
      <datestamp>2017-02-08T22:43:32Z</datestamp>
      <setSpec>user-biosyslit</setSpec>
    </header>
    <header>
      <identifier>oai:zenodo.org:282115</identifier>
      <datestamp>2017-02-09T06:29:47Z</datestamp>
      <setSpec>user-biosyslit</setSpec>
    </header>
    <header>
      <identifier>oai:zenodo.org:234934</identifier>
      <datestamp>2017-01-09T03:46:46Z</datestamp>
      <setSpec>user-biosyslit</setSpec>
    </header>
    <header>
      <identifier>oai:zenodo.org:234940</identifier>
      <datestamp>2017-01-09T03:46:25Z</datestamp>
      <setSpec>user-biosyslit</setSpec>
    </header>
    <header>
      <identifier>oai:zenodo.org:234935</identifier>
      <datestamp>2017-01-09T03:46:09Z</datestamp>
      <setSpec>user-biosyslit</setSpec>
    </header>
    <header>
      <identifier>oai:zenodo.org:234941</identifier>
      <datestamp>2017-01-09T03:46:28Z</datestamp>
      <setSpec>user-biosyslit</setSpec>
    </header>
    <header>
      <identifier>oai:zenodo.org:282141</identifier>
      <datestamp>2017-02-09T06:29:45Z</datestamp>
      <setSpec>user-biosyslit</setSpec>
    </header>
    <header>
      <identifier>oai:zenodo.org:234946</identifier>
      <datestamp>2017-01-09T03:46:45Z</datestamp>
      <setSpec>user-biosyslit</setSpec>
    </header>
    <header>
      <identifier>oai:zenodo.org:285623</identifier>
      <datestamp>2017-02-09T14:00:48Z</datestamp>
      <setSpec>user-biosyslit</setSpec>
    </header>
    <header>
      <identifier>oai:zenodo.org:285624</identifier>
      <datestamp>2017-02-09T14:00:50Z</datestamp>
      <setSpec>user-biosyslit</setSpec>
    </header>
    <header>
      <identifier>oai:zenodo.org:283226</identifier>
      <datestamp>2017-02-09T08:23:41Z</datestamp>
      <setSpec>user-biosyslit</setSpec>
    </header>
    <header>
      <identifier>oai:zenodo.org:283227</identifier>
      <datestamp>2017-02-09T08:23:43Z</datestamp>
      <setSpec>user-biosyslit</setSpec>
    </header>
    <header>
      <identifier>oai:zenodo.org:285627</identifier>
      <datestamp>2017-02-09T14:01:00Z</datestamp>
      <setSpec>user-biosyslit</setSpec>
    </header>
    <header>
      <identifier>oai:zenodo.org:285622</identifier>
      <datestamp>2017-02-09T14:00:46Z</datestamp>
      <setSpec>user-biosyslit</setSpec>
    </header>
    <header>
      <identifier>oai:zenodo.org:286318</identifier>
      <datestamp>2017-02-09T15:45:59Z</datestamp>
      <setSpec>user-biosyslit</setSpec>
    </header>
    <header>
      <identifier>oai:zenodo.org:286316</identifier>
      <datestamp>2017-02-09T15:45:55Z</datestamp>
      <setSpec>user-biosyslit</setSpec>
    </header>
    <header>
      <identifier>oai:zenodo.org:286307</identifier>
      <datestamp>2017-02-09T15:45:34Z</datestamp>
      <setSpec>user-biosyslit</setSpec>
    </header>
    <header>
      <identifier>oai:zenodo.org:286319</identifier>
      <datestamp>2017-02-09T15:46:02Z</datestamp>
      <setSpec>user-biosyslit</setSpec>
    </header>
    <header>
      <identifier>oai:zenodo.org:286312</identifier>
      <datestamp>2017-02-09T15:45:45Z</datestamp>
      <setSpec>user-biosyslit</setSpec>
    </header>
    <header>
      <identifier>oai:zenodo.org:286309</identifier>
      <datestamp>2017-02-09T15:45:39Z</datestamp>
      <setSpec>user-biosyslit</setSpec>
    </header>
    <header>
      <identifier>oai:zenodo.org:286314</identifier>
      <datestamp>2017-02-09T15:45:50Z</datestamp>
      <setSpec>user-biosyslit</setSpec>
    </header>
    <header>
      <identifier>oai:zenodo.org:286315</identifier>
      <datestamp>2017-02-09T15:45:53Z</datestamp>
      <setSpec>user-biosyslit</setSpec>
    </header>
    <header>
      <identifier>oai:zenodo.org:286328</identifier>
      <datestamp>2017-02-09T15:46:19Z</datestamp>
      <setSpec>user-biosyslit</setSpec>
    </header>
    <header>
      <identifier>oai:zenodo.org:286320</identifier>
      <datestamp>2017-02-09T15:46:04Z</datestamp>
      <setSpec>user-biosyslit</setSpec>
    </header>
    <header>
      <identifier>oai:zenodo.org:286323</identifier>
      <datestamp>2017-02-09T15:46:10Z</datestamp>
      <setSpec>user-biosyslit</setSpec>
    </header>
    <header>
      <identifier>oai:zenodo.org:286322</identifier>
      <datestamp>2017-02-09T15:46:08Z</datestamp>
      <setSpec>user-biosyslit</setSpec>
    </header>
    <header>
      <identifier>oai:zenodo.org:286304</identifier>
      <datestamp>2017-02-09T15:45:26Z</datestamp>
      <setSpec>user-biosyslit</setSpec>
    </header>
    <header>
      <identifier>oai:zenodo.org:280118</identifier>
      <datestamp>2017-02-09T02:44:02Z</datestamp>
      <setSpec>user-biosyslit</setSpec>
    </header>
    <header>
      <identifier>oai:zenodo.org:285310</identifier>
      <datestamp>2017-02-09T13:15:42Z</datestamp>
      <setSpec>user-biosyslit</setSpec>
    </header>
    <header>
      <identifier>oai:zenodo.org:285309</identifier>
      <datestamp>2017-02-09T13:15:40Z</datestamp>
      <setSpec>user-biosyslit</setSpec>
    </header>
    <header>
      <identifier>oai:zenodo.org:285308</identifier>
      <datestamp>2017-02-09T13:15:37Z</datestamp>
      <setSpec>user-biosyslit</setSpec>
    </header>
    <header>
      <identifier>oai:zenodo.org:280123</identifier>
      <datestamp>2017-02-09T02:44:15Z</datestamp>
      <setSpec>user-biosyslit</setSpec>
    </header>
    <header>
      <identifier>oai:zenodo.org:280124</identifier>
      <datestamp>2017-02-09T02:44:18Z</datestamp>
      <setSpec>user-biosyslit</setSpec>
    </header>
    <header>
      <identifier>oai:zenodo.org:280122</identifier>
      <datestamp>2017-02-09T02:44:13Z</datestamp>
      <setSpec>user-biosyslit</setSpec>
    </header>
    <header>
      <identifier>oai:zenodo.org:230552</identifier>
      <datestamp>2017-01-05T03:28:07Z</datestamp>
      <setSpec>user-biosyslit</setSpec>
    </header>
    <header>
      <identifier>oai:zenodo.org:230554</identifier>
      <datestamp>2017-01-05T03:27:46Z</datestamp>
      <setSpec>user-biosyslit</setSpec>
    </header>
    <header>
      <identifier>oai:zenodo.org:230553</identifier>
      <datestamp>2017-01-05T03:27:40Z</datestamp>
      <setSpec>user-biosyslit</setSpec>
    </header>
    <header>
      <identifier>oai:zenodo.org:230555</identifier>
      <datestamp>2017-01-05T03:27:49Z</datestamp>
      <setSpec>user-biosyslit</setSpec>
    </header>
    <header>
      <identifier>oai:zenodo.org:238894</identifier>
      <datestamp>2017-01-11T12:20:23Z</datestamp>
      <setSpec>user-biosyslit</setSpec>
    </header>
    <header>
      <identifier>oai:zenodo.org:238890</identifier>
      <datestamp>2017-01-11T12:20:10Z</datestamp>
      <setSpec>user-biosyslit</setSpec>
    </header>
    <header>
      <identifier>oai:zenodo.org:238893</identifier>
      <datestamp>2017-01-11T12:20:20Z</datestamp>
      <setSpec>user-biosyslit</setSpec>
    </header>
    <header>
      <identifier>oai:zenodo.org:238897</identifier>
      <datestamp>2017-01-11T12:20:32Z</datestamp>
      <setSpec>user-biosyslit</setSpec>
    </header>
    <resumptionToken expirationDate="2017-08-31T15:44:54Z" cursor="29300" completeListSize="77796">.eJyNys8PQlAcAPD_5Xu29n4osnUxZQ4YLxaXJszkkXk1vOZ_z6VznT-fN4iyLMBAG0JUda9TpJKttkMqVkDkw4Pza70y5JeY5x2PMjt-hW2MElJpniUm10qoJxvkt1iyU0AuWJ-iGs3BOXomMpxi6owMHTVXBrN3d9ZXUN_m6c3uWdSZnJFi8I_BzLDJUpp_H_7zyZ_PEgdQoM-qEgyy3yrQjNlQCTDey_IBlF9ROA.DIm__g.a5EIpJRmdND2ZtGR7yECuNsjGFg</resumptionToken>
  </ListIdentifiers>
</OAI-PMH>
