<?xml version='1.0' encoding='UTF-8'?>
<?xml-stylesheet type="text/xsl" href="/static/xsl/oai2.v1.0.xsl"?>
<OAI-PMH xmlns="http://www.openarchives.org/OAI/2.0/" xmlns:xsi="http://www.w3.org/2001/XMLSchema-instance" xsi:schemaLocation="http://www.openarchives.org/OAI/2.0/ http://www.openarchives.org/OAI/2.0/OAI-PMH.xsd">
  <responseDate>2017-08-31T14:13:31Z</responseDate>
  <request verb="ListIdentifiers" resumptionToken=".eJwVzd1OgzAYgOF76TEx_ZmycbYFJDN-EFZaBicGC8KkIAIG6LJ73zx-k-e9orEsC-TgJ0YY27zYlD5TgneYWGhUw4_WH5dHRuosteq0yH35d2olTmllB-64gJuSIBYmbInhrxE9k-0iLniNYjGl5rRIdpw59mww0QymomFbsNDX2affc9EdNKfFEHrRysmBZ0zZEO_pwyPw3U8K1yLQuy-Qxwkaj7wngJUsVvCmQ2gAgwubIO67wtR9kiy_Qr_NmZi63NQeNFMk_l9mbyML9XlVImdroWbOh2pEzvV2uwMKSVHG.DImq1w.YKpisiCag_xid5FFw4vYWWtXnq0">https://zenodo.org/oai2d</request>
  <ListIdentifiers>
    <header>
      <identifier>oai:zenodo.org:158747</identifier>
      <datestamp>2016-12-20T02:00:44Z</datestamp>
      <setSpec>user-biosyslit</setSpec>
    </header>
    <header>
      <identifier>oai:zenodo.org:158612</identifier>
      <datestamp>2016-09-29T01:22:53Z</datestamp>
      <setSpec>user-biosyslit</setSpec>
    </header>
    <header>
      <identifier>oai:zenodo.org:282147</identifier>
      <datestamp>2017-02-09T06:31:24Z</datestamp>
      <setSpec>user-biosyslit</setSpec>
    </header>
    <header>
      <identifier>oai:zenodo.org:183218</identifier>
      <datestamp>2016-11-29T13:25:29Z</datestamp>
      <setSpec>user-biosyslit</setSpec>
    </header>
    <header>
      <identifier>oai:zenodo.org:158838</identifier>
      <datestamp>2016-12-20T02:00:44Z</datestamp>
      <setSpec>user-biosyslit</setSpec>
    </header>
    <header>
      <identifier>oai:zenodo.org:158521</identifier>
      <datestamp>2016-09-29T00:31:40Z</datestamp>
      <setSpec>user-biosyslit</setSpec>
    </header>
    <header>
      <identifier>oai:zenodo.org:581308</identifier>
      <datestamp>2017-05-19T09:40:25Z</datestamp>
      <setSpec>user-biosyslit</setSpec>
    </header>
    <header>
      <identifier>oai:zenodo.org:158742</identifier>
      <datestamp>2016-09-29T02:58:50Z</datestamp>
      <setSpec>user-biosyslit</setSpec>
    </header>
    <header>
      <identifier>oai:zenodo.org:158398</identifier>
      <datestamp>2016-12-20T02:00:43Z</datestamp>
      <setSpec>user-biosyslit</setSpec>
    </header>
    <header>
      <identifier>oai:zenodo.org:158411</identifier>
      <datestamp>2016-12-20T02:00:24Z</datestamp>
      <setSpec>user-biosyslit</setSpec>
    </header>
    <header>
      <identifier>oai:zenodo.org:183286</identifier>
      <datestamp>2016-12-20T02:00:56Z</datestamp>
      <setSpec>user-biosyslit</setSpec>
    </header>
    <header>
      <identifier>oai:zenodo.org:158828</identifier>
      <datestamp>2016-12-20T02:00:44Z</datestamp>
      <setSpec>user-biosyslit</setSpec>
    </header>
    <header>
      <identifier>oai:zenodo.org:220620</identifier>
      <datestamp>2016-12-23T04:49:51Z</datestamp>
      <setSpec>user-biosyslit</setSpec>
    </header>
    <header>
      <identifier>oai:zenodo.org:183202</identifier>
      <datestamp>2016-12-20T02:01:03Z</datestamp>
      <setSpec>user-biosyslit</setSpec>
    </header>
    <header>
      <identifier>oai:zenodo.org:183370</identifier>
      <datestamp>2016-11-29T14:07:57Z</datestamp>
      <setSpec>user-biosyslit</setSpec>
    </header>
    <header>
      <identifier>oai:zenodo.org:184371</identifier>
      <datestamp>2016-12-20T02:00:55Z</datestamp>
      <setSpec>user-biosyslit</setSpec>
    </header>
    <header>
      <identifier>oai:zenodo.org:159038</identifier>
      <datestamp>2016-12-13T12:02:45Z</datestamp>
      <setSpec>openaire</setSpec>
      <setSpec>user-biosyslit</setSpec>
      <setSpec>user-modphytomorphol</setSpec>
    </header>
    <header>
      <identifier>oai:zenodo.org:183526</identifier>
      <datestamp>2016-12-20T02:00:51Z</datestamp>
      <setSpec>user-biosyslit</setSpec>
    </header>
    <header>
      <identifier>oai:zenodo.org:159406</identifier>
      <datestamp>2016-12-20T02:00:43Z</datestamp>
      <setSpec>user-biosyslit</setSpec>
    </header>
    <header>
      <identifier>oai:zenodo.org:183436</identifier>
      <datestamp>2016-12-20T02:00:58Z</datestamp>
      <setSpec>user-biosyslit</setSpec>
    </header>
    <header>
      <identifier>oai:zenodo.org:159341</identifier>
      <datestamp>2016-12-20T02:00:25Z</datestamp>
      <setSpec>user-biosyslit</setSpec>
    </header>
    <header>
      <identifier>oai:zenodo.org:159403</identifier>
      <datestamp>2016-10-05T12:03:54Z</datestamp>
      <setSpec>user-biosyslit</setSpec>
    </header>
    <header>
      <identifier>oai:zenodo.org:160292</identifier>
      <datestamp>2016-12-20T02:00:43Z</datestamp>
      <setSpec>user-biosyslit</setSpec>
    </header>
    <header>
      <identifier>oai:zenodo.org:160144</identifier>
      <datestamp>2016-12-13T12:01:35Z</datestamp>
      <setSpec>openaire</setSpec>
      <setSpec>user-biosyslit</setSpec>
    </header>
    <header>
      <identifier>oai:zenodo.org:183557</identifier>
      <datestamp>2016-12-13T12:03:10Z</datestamp>
      <setSpec>openaire</setSpec>
      <setSpec>user-biosyslit</setSpec>
    </header>
    <header>
      <identifier>oai:zenodo.org:160448</identifier>
      <datestamp>2016-12-13T12:02:45Z</datestamp>
      <setSpec>openaire</setSpec>
      <setSpec>user-biosyslit</setSpec>
      <setSpec>user-modphytomorphol</setSpec>
    </header>
    <header>
      <identifier>oai:zenodo.org:220539</identifier>
      <datestamp>2016-12-23T04:00:28Z</datestamp>
      <setSpec>user-biosyslit</setSpec>
    </header>
    <header>
      <identifier>oai:zenodo.org:160152</identifier>
      <datestamp>2016-12-13T12:01:35Z</datestamp>
      <setSpec>openaire</setSpec>
      <setSpec>user-biosyslit</setSpec>
    </header>
    <header>
      <identifier>oai:zenodo.org:160360</identifier>
      <datestamp>2016-12-13T12:02:45Z</datestamp>
      <setSpec>openaire</setSpec>
      <setSpec>user-biosyslit</setSpec>
      <setSpec>user-modphytomorphol</setSpec>
    </header>
    <header>
      <identifier>oai:zenodo.org:375732</identifier>
      <datestamp>2017-03-08T07:15:03Z</datestamp>
      <setSpec>user-biosyslit</setSpec>
    </header>
    <header>
      <identifier>oai:zenodo.org:183687</identifier>
      <datestamp>2016-11-29T15:45:16Z</datestamp>
      <setSpec>user-biosyslit</setSpec>
    </header>
    <header>
      <identifier>oai:zenodo.org:183918</identifier>
      <datestamp>2016-12-20T02:01:03Z</datestamp>
      <setSpec>user-biosyslit</setSpec>
    </header>
    <header>
      <identifier>oai:zenodo.org:220808</identifier>
      <datestamp>2016-12-23T06:23:21Z</datestamp>
      <setSpec>user-biosyslit</setSpec>
    </header>
    <header>
      <identifier>oai:zenodo.org:220693</identifier>
      <datestamp>2016-12-23T05:41:52Z</datestamp>
      <setSpec>user-biosyslit</setSpec>
    </header>
    <header>
      <identifier>oai:zenodo.org:183749</identifier>
      <datestamp>2016-11-29T16:07:17Z</datestamp>
      <setSpec>user-biosyslit</setSpec>
    </header>
    <header>
      <identifier>oai:zenodo.org:582004</identifier>
      <datestamp>2017-05-22T07:45:20Z</datestamp>
      <setSpec>user-biosyslit</setSpec>
    </header>
    <header>
      <identifier>oai:zenodo.org:375501</identifier>
      <datestamp>2017-03-07T08:35:07Z</datestamp>
      <setSpec>user-biosyslit</setSpec>
    </header>
    <header>
      <identifier>oai:zenodo.org:160768</identifier>
      <datestamp>2016-12-13T12:02:44Z</datestamp>
      <setSpec>openaire</setSpec>
      <setSpec>user-biosyslit</setSpec>
      <setSpec>user-modphytomorphol</setSpec>
    </header>
    <header>
      <identifier>oai:zenodo.org:161024</identifier>
      <datestamp>2016-12-13T12:02:44Z</datestamp>
      <setSpec>openaire</setSpec>
      <setSpec>user-biosyslit</setSpec>
      <setSpec>user-modphytomorphol</setSpec>
    </header>
    <header>
      <identifier>oai:zenodo.org:161485</identifier>
      <datestamp>2016-12-20T02:00:25Z</datestamp>
      <setSpec>user-biosyslit</setSpec>
    </header>
    <header>
      <identifier>oai:zenodo.org:161422</identifier>
      <datestamp>2016-12-13T12:02:44Z</datestamp>
      <setSpec>openaire</setSpec>
      <setSpec>user-biosyslit</setSpec>
      <setSpec>user-modphytomorphol</setSpec>
    </header>
    <header>
      <identifier>oai:zenodo.org:375993</identifier>
      <datestamp>2017-03-09T08:25:21Z</datestamp>
      <setSpec>user-biosyslit</setSpec>
    </header>
    <header>
      <identifier>oai:zenodo.org:375786</identifier>
      <datestamp>2017-03-08T08:34:40Z</datestamp>
      <setSpec>user-biosyslit</setSpec>
    </header>
    <header>
      <identifier>oai:zenodo.org:282525</identifier>
      <datestamp>2017-02-09T07:11:00Z</datestamp>
      <setSpec>user-biosyslit</setSpec>
    </header>
    <header>
      <identifier>oai:zenodo.org:582764</identifier>
      <datestamp>2017-05-24T08:10:53Z</datestamp>
      <setSpec>user-biosyslit</setSpec>
    </header>
    <header>
      <identifier>oai:zenodo.org:161434</identifier>
      <datestamp>2016-12-13T12:02:44Z</datestamp>
      <setSpec>openaire</setSpec>
      <setSpec>user-biosyslit</setSpec>
      <setSpec>user-modphytomorphol</setSpec>
    </header>
    <header>
      <identifier>oai:zenodo.org:376387</identifier>
      <datestamp>2017-03-10T08:38:09Z</datestamp>
      <setSpec>user-biosyslit</setSpec>
    </header>
    <header>
      <identifier>oai:zenodo.org:162188</identifier>
      <datestamp>2016-12-13T12:01:37Z</datestamp>
      <setSpec>openaire</setSpec>
      <setSpec>user-biosyslit</setSpec>
    </header>
    <header>
      <identifier>oai:zenodo.org:376069</identifier>
      <datestamp>2017-03-09T09:23:06Z</datestamp>
      <setSpec>user-biosyslit</setSpec>
    </header>
    <header>
      <identifier>oai:zenodo.org:162740</identifier>
      <datestamp>2016-12-13T12:02:45Z</datestamp>
      <setSpec>openaire</setSpec>
      <setSpec>user-biosyslit</setSpec>
      <setSpec>user-modphytomorphol</setSpec>
    </header>
    <header>
      <identifier>oai:zenodo.org:375778</identifier>
      <datestamp>2017-03-08T08:34:20Z</datestamp>
      <setSpec>user-biosyslit</setSpec>
    </header>
    <header>
      <identifier>oai:zenodo.org:282409</identifier>
      <datestamp>2017-02-09T06:57:31Z</datestamp>
      <setSpec>user-biosyslit</setSpec>
    </header>
    <header>
      <identifier>oai:zenodo.org:282248</identifier>
      <datestamp>2017-02-09T06:42:48Z</datestamp>
      <setSpec>user-biosyslit</setSpec>
    </header>
    <header>
      <identifier>oai:zenodo.org:162671</identifier>
      <datestamp>2016-12-13T12:02:52Z</datestamp>
      <setSpec>openaire</setSpec>
      <setSpec>user-biosyslit</setSpec>
      <setSpec>user-modphytomorphol</setSpec>
    </header>
    <header>
      <identifier>oai:zenodo.org:162716</identifier>
      <datestamp>2016-12-13T12:02:45Z</datestamp>
      <setSpec>openaire</setSpec>
      <setSpec>user-biosyslit</setSpec>
      <setSpec>user-modphytomorphol</setSpec>
    </header>
    <header>
      <identifier>oai:zenodo.org:155450</identifier>
      <datestamp>2016-12-20T02:00:38Z</datestamp>
      <setSpec>user-biosyslit</setSpec>
    </header>
    <header>
      <identifier>oai:zenodo.org:155620</identifier>
      <datestamp>2016-12-20T02:00:25Z</datestamp>
      <setSpec>user-biosyslit</setSpec>
    </header>
    <header>
      <identifier>oai:zenodo.org:155468</identifier>
      <datestamp>2016-12-20T02:00:39Z</datestamp>
      <setSpec>user-biosyslit</setSpec>
    </header>
    <header>
      <identifier>oai:zenodo.org:579379</identifier>
      <datestamp>2017-05-18T07:01:47Z</datestamp>
      <setSpec>openaire</setSpec>
      <setSpec>user-biosyslit</setSpec>
    </header>
    <header>
      <identifier>oai:zenodo.org:579339</identifier>
      <datestamp>2017-05-18T07:02:46Z</datestamp>
      <setSpec>openaire</setSpec>
      <setSpec>user-biosyslit</setSpec>
    </header>
    <header>
      <identifier>oai:zenodo.org:579942</identifier>
      <datestamp>2017-05-15T08:47:12Z</datestamp>
      <setSpec>user-biosyslit</setSpec>
    </header>
    <header>
      <identifier>oai:zenodo.org:281353</identifier>
      <datestamp>2017-02-09T05:10:40Z</datestamp>
      <setSpec>user-biosyslit</setSpec>
    </header>
    <header>
      <identifier>oai:zenodo.org:156036</identifier>
      <datestamp>2016-12-20T02:00:38Z</datestamp>
      <setSpec>user-biosyslit</setSpec>
    </header>
    <header>
      <identifier>oai:zenodo.org:579262</identifier>
      <datestamp>2017-05-18T07:04:31Z</datestamp>
      <setSpec>openaire</setSpec>
      <setSpec>user-biosyslit</setSpec>
    </header>
    <header>
      <identifier>oai:zenodo.org:155878</identifier>
      <datestamp>2016-12-13T12:01:36Z</datestamp>
      <setSpec>openaire</setSpec>
      <setSpec>user-biosyslit</setSpec>
    </header>
    <header>
      <identifier>oai:zenodo.org:280396</identifier>
      <datestamp>2017-02-09T03:20:00Z</datestamp>
      <setSpec>user-biosyslit</setSpec>
    </header>
    <header>
      <identifier>oai:zenodo.org:155552</identifier>
      <datestamp>2016-12-20T02:00:39Z</datestamp>
      <setSpec>user-biosyslit</setSpec>
    </header>
    <header>
      <identifier>oai:zenodo.org:281308</identifier>
      <datestamp>2017-02-09T05:06:13Z</datestamp>
      <setSpec>user-biosyslit</setSpec>
    </header>
    <header>
      <identifier>oai:zenodo.org:156794</identifier>
      <datestamp>2016-12-20T02:00:25Z</datestamp>
      <setSpec>user-biosyslit</setSpec>
    </header>
    <header>
      <identifier>oai:zenodo.org:155970</identifier>
      <datestamp>2016-09-27T19:22:29Z</datestamp>
      <setSpec>user-biosyslit</setSpec>
    </header>
    <header>
      <identifier>oai:zenodo.org:155799</identifier>
      <datestamp>2016-12-20T02:00:24Z</datestamp>
      <setSpec>user-biosyslit</setSpec>
    </header>
    <header>
      <identifier>oai:zenodo.org:155614</identifier>
      <datestamp>2016-12-20T02:00:39Z</datestamp>
      <setSpec>user-biosyslit</setSpec>
    </header>
    <header>
      <identifier>oai:zenodo.org:579376</identifier>
      <datestamp>2017-05-18T07:01:50Z</datestamp>
      <setSpec>openaire</setSpec>
      <setSpec>user-biosyslit</setSpec>
    </header>
    <header>
      <identifier>oai:zenodo.org:156126</identifier>
      <datestamp>2016-12-20T02:00:23Z</datestamp>
      <setSpec>user-biosyslit</setSpec>
    </header>
    <header>
      <identifier>oai:zenodo.org:280587</identifier>
      <datestamp>2017-02-09T03:41:47Z</datestamp>
      <setSpec>user-biosyslit</setSpec>
    </header>
    <header>
      <identifier>oai:zenodo.org:579527</identifier>
      <datestamp>2017-05-18T06:54:52Z</datestamp>
      <setSpec>openaire</setSpec>
      <setSpec>user-biosyslit</setSpec>
    </header>
    <header>
      <identifier>oai:zenodo.org:156265</identifier>
      <datestamp>2016-12-20T02:00:43Z</datestamp>
      <setSpec>user-biosyslit</setSpec>
    </header>
    <header>
      <identifier>oai:zenodo.org:580874</identifier>
      <datestamp>2017-05-18T07:32:27Z</datestamp>
      <setSpec>user-biosyslit</setSpec>
    </header>
    <header>
      <identifier>oai:zenodo.org:280685</identifier>
      <datestamp>2017-02-09T03:51:44Z</datestamp>
      <setSpec>user-biosyslit</setSpec>
    </header>
    <header>
      <identifier>oai:zenodo.org:580206</identifier>
      <datestamp>2017-05-16T08:13:47Z</datestamp>
      <setSpec>user-biosyslit</setSpec>
    </header>
    <header>
      <identifier>oai:zenodo.org:580541</identifier>
      <datestamp>2017-05-17T08:41:10Z</datestamp>
      <setSpec>user-biosyslit</setSpec>
    </header>
    <header>
      <identifier>oai:zenodo.org:580204</identifier>
      <datestamp>2017-05-16T08:13:42Z</datestamp>
      <setSpec>user-biosyslit</setSpec>
    </header>
    <header>
      <identifier>oai:zenodo.org:280470</identifier>
      <datestamp>2017-02-09T03:27:34Z</datestamp>
      <setSpec>user-biosyslit</setSpec>
    </header>
    <header>
      <identifier>oai:zenodo.org:281161</identifier>
      <datestamp>2017-02-09T04:49:48Z</datestamp>
      <setSpec>user-biosyslit</setSpec>
    </header>
    <header>
      <identifier>oai:zenodo.org:580217</identifier>
      <datestamp>2017-05-16T08:16:25Z</datestamp>
      <setSpec>user-biosyslit</setSpec>
    </header>
    <header>
      <identifier>oai:zenodo.org:281352</identifier>
      <datestamp>2017-02-09T05:10:37Z</datestamp>
      <setSpec>user-biosyslit</setSpec>
    </header>
    <header>
      <identifier>oai:zenodo.org:580538</identifier>
      <datestamp>2017-05-17T08:40:45Z</datestamp>
      <setSpec>user-biosyslit</setSpec>
    </header>
    <header>
      <identifier>oai:zenodo.org:156564</identifier>
      <datestamp>2016-12-20T02:00:43Z</datestamp>
      <setSpec>user-biosyslit</setSpec>
    </header>
    <header>
      <identifier>oai:zenodo.org:156630</identifier>
      <datestamp>2016-12-20T02:00:43Z</datestamp>
      <setSpec>user-biosyslit</setSpec>
    </header>
    <header>
      <identifier>oai:zenodo.org:156284</identifier>
      <datestamp>2016-12-20T02:00:25Z</datestamp>
      <setSpec>user-biosyslit</setSpec>
    </header>
    <header>
      <identifier>oai:zenodo.org:156291</identifier>
      <datestamp>2016-12-20T02:00:42Z</datestamp>
      <setSpec>user-biosyslit</setSpec>
    </header>
    <header>
      <identifier>oai:zenodo.org:281466</identifier>
      <datestamp>2017-02-09T05:21:21Z</datestamp>
      <setSpec>user-biosyslit</setSpec>
    </header>
    <header>
      <identifier>oai:zenodo.org:156252</identifier>
      <datestamp>2016-12-20T02:00:43Z</datestamp>
      <setSpec>user-biosyslit</setSpec>
    </header>
    <header>
      <identifier>oai:zenodo.org:156597</identifier>
      <datestamp>2016-12-20T02:00:24Z</datestamp>
      <setSpec>user-biosyslit</setSpec>
    </header>
    <header>
      <identifier>oai:zenodo.org:156810</identifier>
      <datestamp>2016-09-28T00:57:19Z</datestamp>
      <setSpec>user-biosyslit</setSpec>
    </header>
    <header>
      <identifier>oai:zenodo.org:156565</identifier>
      <datestamp>2016-12-20T02:00:43Z</datestamp>
      <setSpec>user-biosyslit</setSpec>
    </header>
    <header>
      <identifier>oai:zenodo.org:281155</identifier>
      <datestamp>2017-02-09T04:49:30Z</datestamp>
      <setSpec>user-biosyslit</setSpec>
    </header>
    <header>
      <identifier>oai:zenodo.org:281285</identifier>
      <datestamp>2017-02-09T05:04:23Z</datestamp>
      <setSpec>user-biosyslit</setSpec>
    </header>
    <header>
      <identifier>oai:zenodo.org:156521</identifier>
      <datestamp>2016-12-20T02:00:24Z</datestamp>
      <setSpec>user-biosyslit</setSpec>
    </header>
    <header>
      <identifier>oai:zenodo.org:156520</identifier>
      <datestamp>2016-09-27T23:00:19Z</datestamp>
      <setSpec>user-biosyslit</setSpec>
    </header>
    <resumptionToken expirationDate="2017-08-31T14:15:31Z" cursor="700" completeListSize="142507">.eJwVjUFPgzAYQP9Lz8SUMoJwGwHJjB-ElZbBxWBBmBREqAG67L87L-_ykvduaGmaGnn4ybWxaz9gkwO2XGwZaBHzt5Tv14dG4sKlGCWrIv57HjguSOvEwbJBUJhxxnQymJq-pORiPm_sivc0Y6rQ541bp5Xi0AGdrqBbkgy1lUSy_IgmykZfUlLPSZju1PRpaQkHsiN59Ez4mpTAHYul-wn8pKAPzbccsOD1DqHyEw0YAjjE2TTWupvyfPth8nUtmRor3YXQq5T9v_TRQQaaqrZBnmugfq3mdkHe7X7_AxvpUdo.DImrCw.DBbPW44Kf8znWtub-97xLAj21v4</resumptionToken>
  </ListIdentifiers>
</OAI-PMH>
