<?xml version='1.0' encoding='UTF-8'?>
<?xml-stylesheet type="text/xsl" href="/static/xsl/oai2.v1.0.xsl"?>
<OAI-PMH xmlns="http://www.openarchives.org/OAI/2.0/" xmlns:xsi="http://www.w3.org/2001/XMLSchema-instance" xsi:schemaLocation="http://www.openarchives.org/OAI/2.0/ http://www.openarchives.org/OAI/2.0/OAI-PMH.xsd">
  <responseDate>2017-08-31T15:44:37Z</responseDate>
  <request verb="ListIdentifiers" resumptionToken=".eJyNysEKgjAYAOB3-c8S27QthS6iSYeUtZT0EqYi1TJxRTrx3fPSuc7fN4KqqhIctGAUM2pbS2YxahFqG6CK7iHl6TIzFMdEFo2M8yB57e8JSknNQk_1Oy81Q31D0R1rseHkiFd9fEEDP8TPVO_7xNy-BfLZTvMhvG7nV5pRILNz0Iq4caUgZRf5fBDYFZlZfB_-8-mfz1NrMKDN6wqcJWEG3N55Vytwxmn6AK7XUVM.DInAZQ.jAfdAlLBpgEm5PaZ-rSwmkwqHw4">https://zenodo.org/oai2d</request>
  <ListIdentifiers>
    <header>
      <identifier>oai:zenodo.org:259082</identifier>
      <datestamp>2017-01-24T07:46:35Z</datestamp>
      <setSpec>user-biosyslit</setSpec>
    </header>
    <header>
      <identifier>oai:zenodo.org:259115</identifier>
      <datestamp>2017-01-24T07:49:48Z</datestamp>
      <setSpec>user-biosyslit</setSpec>
    </header>
    <header>
      <identifier>oai:zenodo.org:259728</identifier>
      <datestamp>2017-01-25T15:38:55Z</datestamp>
      <setSpec>user-biosyslit</setSpec>
    </header>
    <header>
      <identifier>oai:zenodo.org:260811</identifier>
      <datestamp>2017-01-28T01:11:50Z</datestamp>
      <setSpec>user-biosyslit</setSpec>
    </header>
    <header>
      <identifier>oai:zenodo.org:261419</identifier>
      <datestamp>2017-01-28T08:45:15Z</datestamp>
      <setSpec>user-biosyslit</setSpec>
    </header>
    <header>
      <identifier>oai:zenodo.org:261629</identifier>
      <datestamp>2017-01-28T11:59:59Z</datestamp>
      <setSpec>user-biosyslit</setSpec>
    </header>
    <header>
      <identifier>oai:zenodo.org:260947</identifier>
      <datestamp>2017-01-28T03:08:47Z</datestamp>
      <setSpec>user-biosyslit</setSpec>
    </header>
    <header>
      <identifier>oai:zenodo.org:260693</identifier>
      <datestamp>2017-01-27T23:28:20Z</datestamp>
      <setSpec>user-biosyslit</setSpec>
    </header>
    <header>
      <identifier>oai:zenodo.org:259846</identifier>
      <datestamp>2017-01-25T16:53:11Z</datestamp>
      <setSpec>user-biosyslit</setSpec>
    </header>
    <header>
      <identifier>oai:zenodo.org:261040</identifier>
      <datestamp>2017-01-28T04:15:41Z</datestamp>
      <setSpec>user-biosyslit</setSpec>
    </header>
    <header>
      <identifier>oai:zenodo.org:260425</identifier>
      <datestamp>2017-01-27T19:41:15Z</datestamp>
      <setSpec>user-biosyslit</setSpec>
    </header>
    <header>
      <identifier>oai:zenodo.org:273704</identifier>
      <datestamp>2017-02-08T10:24:28Z</datestamp>
      <setSpec>user-biosyslit</setSpec>
    </header>
    <header>
      <identifier>oai:zenodo.org:261365</identifier>
      <datestamp>2017-01-28T08:23:03Z</datestamp>
      <setSpec>user-biosyslit</setSpec>
    </header>
    <header>
      <identifier>oai:zenodo.org:260560</identifier>
      <datestamp>2017-01-27T21:51:25Z</datestamp>
      <setSpec>user-biosyslit</setSpec>
    </header>
    <header>
      <identifier>oai:zenodo.org:273459</identifier>
      <datestamp>2017-02-08T09:24:46Z</datestamp>
      <setSpec>user-biosyslit</setSpec>
    </header>
    <header>
      <identifier>oai:zenodo.org:261401</identifier>
      <datestamp>2017-01-28T08:44:32Z</datestamp>
      <setSpec>user-biosyslit</setSpec>
    </header>
    <header>
      <identifier>oai:zenodo.org:260636</identifier>
      <datestamp>2017-01-27T22:50:35Z</datestamp>
      <setSpec>user-biosyslit</setSpec>
    </header>
    <header>
      <identifier>oai:zenodo.org:262103</identifier>
      <datestamp>2017-01-28T20:47:06Z</datestamp>
      <setSpec>user-biosyslit</setSpec>
    </header>
    <header>
      <identifier>oai:zenodo.org:261721</identifier>
      <datestamp>2017-01-28T13:39:48Z</datestamp>
      <setSpec>user-biosyslit</setSpec>
    </header>
    <header>
      <identifier>oai:zenodo.org:261460</identifier>
      <datestamp>2017-01-28T09:01:43Z</datestamp>
      <setSpec>user-biosyslit</setSpec>
    </header>
    <header>
      <identifier>oai:zenodo.org:260738</identifier>
      <datestamp>2017-01-28T00:18:09Z</datestamp>
      <setSpec>user-biosyslit</setSpec>
    </header>
    <header>
      <identifier>oai:zenodo.org:261991</identifier>
      <datestamp>2017-01-28T19:11:30Z</datestamp>
      <setSpec>user-biosyslit</setSpec>
    </header>
    <header>
      <identifier>oai:zenodo.org:274440</identifier>
      <datestamp>2017-02-08T13:13:06Z</datestamp>
      <setSpec>user-biosyslit</setSpec>
    </header>
    <header>
      <identifier>oai:zenodo.org:262197</identifier>
      <datestamp>2017-01-28T23:33:47Z</datestamp>
      <setSpec>user-biosyslit</setSpec>
    </header>
    <header>
      <identifier>oai:zenodo.org:260825</identifier>
      <datestamp>2017-01-28T01:12:41Z</datestamp>
      <setSpec>user-biosyslit</setSpec>
    </header>
    <header>
      <identifier>oai:zenodo.org:261378</identifier>
      <datestamp>2017-01-28T08:29:20Z</datestamp>
      <setSpec>user-biosyslit</setSpec>
    </header>
    <header>
      <identifier>oai:zenodo.org:261707</identifier>
      <datestamp>2017-01-28T13:24:57Z</datestamp>
      <setSpec>user-biosyslit</setSpec>
    </header>
    <header>
      <identifier>oai:zenodo.org:261016</identifier>
      <datestamp>2017-01-28T03:51:48Z</datestamp>
      <setSpec>user-biosyslit</setSpec>
    </header>
    <header>
      <identifier>oai:zenodo.org:261739</identifier>
      <datestamp>2017-01-28T13:52:27Z</datestamp>
      <setSpec>user-biosyslit</setSpec>
    </header>
    <header>
      <identifier>oai:zenodo.org:260958</identifier>
      <datestamp>2017-01-28T03:07:57Z</datestamp>
      <setSpec>user-biosyslit</setSpec>
    </header>
    <header>
      <identifier>oai:zenodo.org:261689</identifier>
      <datestamp>2017-01-28T13:10:40Z</datestamp>
      <setSpec>user-biosyslit</setSpec>
    </header>
    <header>
      <identifier>oai:zenodo.org:261366</identifier>
      <datestamp>2017-01-28T08:23:06Z</datestamp>
      <setSpec>user-biosyslit</setSpec>
    </header>
    <header>
      <identifier>oai:zenodo.org:273873</identifier>
      <datestamp>2017-02-08T11:01:54Z</datestamp>
      <setSpec>user-biosyslit</setSpec>
    </header>
    <header>
      <identifier>oai:zenodo.org:261798</identifier>
      <datestamp>2017-01-28T15:09:54Z</datestamp>
      <setSpec>user-biosyslit</setSpec>
    </header>
    <header>
      <identifier>oai:zenodo.org:273816</identifier>
      <datestamp>2017-02-08T10:49:38Z</datestamp>
      <setSpec>user-biosyslit</setSpec>
    </header>
    <header>
      <identifier>oai:zenodo.org:262332</identifier>
      <datestamp>2017-01-29T01:59:13Z</datestamp>
      <setSpec>user-biosyslit</setSpec>
    </header>
    <header>
      <identifier>oai:zenodo.org:261753</identifier>
      <datestamp>2017-01-28T14:01:01Z</datestamp>
      <setSpec>user-biosyslit</setSpec>
    </header>
    <header>
      <identifier>oai:zenodo.org:262048</identifier>
      <datestamp>2017-01-28T19:46:19Z</datestamp>
      <setSpec>user-biosyslit</setSpec>
    </header>
    <header>
      <identifier>oai:zenodo.org:262343</identifier>
      <datestamp>2017-01-29T01:59:54Z</datestamp>
      <setSpec>user-biosyslit</setSpec>
    </header>
    <header>
      <identifier>oai:zenodo.org:262027</identifier>
      <datestamp>2017-01-28T19:33:55Z</datestamp>
      <setSpec>user-biosyslit</setSpec>
    </header>
    <header>
      <identifier>oai:zenodo.org:261718</identifier>
      <datestamp>2017-01-28T13:40:08Z</datestamp>
      <setSpec>user-biosyslit</setSpec>
    </header>
    <header>
      <identifier>oai:zenodo.org:262188</identifier>
      <datestamp>2017-01-28T22:42:35Z</datestamp>
      <setSpec>user-biosyslit</setSpec>
    </header>
    <header>
      <identifier>oai:zenodo.org:274118</identifier>
      <datestamp>2017-02-08T12:11:54Z</datestamp>
      <setSpec>user-biosyslit</setSpec>
    </header>
    <header>
      <identifier>oai:zenodo.org:262166</identifier>
      <datestamp>2017-01-28T22:20:07Z</datestamp>
      <setSpec>user-biosyslit</setSpec>
    </header>
    <header>
      <identifier>oai:zenodo.org:274028</identifier>
      <datestamp>2017-02-08T11:50:53Z</datestamp>
      <setSpec>user-biosyslit</setSpec>
    </header>
    <header>
      <identifier>oai:zenodo.org:273795</identifier>
      <datestamp>2017-02-08T10:47:17Z</datestamp>
      <setSpec>user-biosyslit</setSpec>
    </header>
    <header>
      <identifier>oai:zenodo.org:262467</identifier>
      <datestamp>2017-01-29T04:33:30Z</datestamp>
      <setSpec>user-biosyslit</setSpec>
    </header>
    <header>
      <identifier>oai:zenodo.org:274543</identifier>
      <datestamp>2017-02-08T13:38:03Z</datestamp>
      <setSpec>user-biosyslit</setSpec>
    </header>
    <header>
      <identifier>oai:zenodo.org:257210</identifier>
      <datestamp>2017-01-23T03:40:36Z</datestamp>
      <setSpec>user-biosyslit</setSpec>
    </header>
    <header>
      <identifier>oai:zenodo.org:258331</identifier>
      <datestamp>2017-01-23T21:00:12Z</datestamp>
      <setSpec>user-biosyslit</setSpec>
    </header>
    <header>
      <identifier>oai:zenodo.org:257882</identifier>
      <datestamp>2017-01-23T13:49:18Z</datestamp>
      <setSpec>user-biosyslit</setSpec>
    </header>
    <header>
      <identifier>oai:zenodo.org:257055</identifier>
      <datestamp>2017-01-23T00:41:01Z</datestamp>
      <setSpec>user-biosyslit</setSpec>
    </header>
    <header>
      <identifier>oai:zenodo.org:257949</identifier>
      <datestamp>2017-01-23T14:43:09Z</datestamp>
      <setSpec>user-biosyslit</setSpec>
    </header>
    <header>
      <identifier>oai:zenodo.org:258583</identifier>
      <datestamp>2017-01-24T01:43:59Z</datestamp>
      <setSpec>user-biosyslit</setSpec>
    </header>
    <header>
      <identifier>oai:zenodo.org:258689</identifier>
      <datestamp>2017-01-24T03:04:43Z</datestamp>
      <setSpec>user-biosyslit</setSpec>
    </header>
    <header>
      <identifier>oai:zenodo.org:257126</identifier>
      <datestamp>2017-01-23T01:36:48Z</datestamp>
      <setSpec>user-biosyslit</setSpec>
    </header>
    <header>
      <identifier>oai:zenodo.org:257161</identifier>
      <datestamp>2017-01-23T03:01:56Z</datestamp>
      <setSpec>user-biosyslit</setSpec>
    </header>
    <header>
      <identifier>oai:zenodo.org:257489</identifier>
      <datestamp>2017-01-23T07:32:37Z</datestamp>
      <setSpec>user-biosyslit</setSpec>
    </header>
    <header>
      <identifier>oai:zenodo.org:257934</identifier>
      <datestamp>2017-01-23T14:08:05Z</datestamp>
      <setSpec>user-biosyslit</setSpec>
    </header>
    <header>
      <identifier>oai:zenodo.org:257517</identifier>
      <datestamp>2017-01-23T08:33:27Z</datestamp>
      <setSpec>user-biosyslit</setSpec>
    </header>
    <header>
      <identifier>oai:zenodo.org:257301</identifier>
      <datestamp>2017-01-23T05:04:38Z</datestamp>
      <setSpec>user-biosyslit</setSpec>
    </header>
    <header>
      <identifier>oai:zenodo.org:257453</identifier>
      <datestamp>2017-01-23T07:07:08Z</datestamp>
      <setSpec>user-biosyslit</setSpec>
    </header>
    <header>
      <identifier>oai:zenodo.org:257466</identifier>
      <datestamp>2017-01-23T07:14:10Z</datestamp>
      <setSpec>user-biosyslit</setSpec>
    </header>
    <header>
      <identifier>oai:zenodo.org:257926</identifier>
      <datestamp>2017-01-23T14:08:11Z</datestamp>
      <setSpec>user-biosyslit</setSpec>
    </header>
    <header>
      <identifier>oai:zenodo.org:257491</identifier>
      <datestamp>2017-01-23T07:32:42Z</datestamp>
      <setSpec>user-biosyslit</setSpec>
    </header>
    <header>
      <identifier>oai:zenodo.org:257589</identifier>
      <datestamp>2017-01-23T10:50:16Z</datestamp>
      <setSpec>user-biosyslit</setSpec>
    </header>
    <header>
      <identifier>oai:zenodo.org:258020</identifier>
      <datestamp>2017-01-23T15:25:46Z</datestamp>
      <setSpec>user-biosyslit</setSpec>
    </header>
    <header>
      <identifier>oai:zenodo.org:257581</identifier>
      <datestamp>2017-01-23T10:49:58Z</datestamp>
      <setSpec>user-biosyslit</setSpec>
    </header>
    <header>
      <identifier>oai:zenodo.org:258565</identifier>
      <datestamp>2017-01-24T00:30:36Z</datestamp>
      <setSpec>user-biosyslit</setSpec>
    </header>
    <header>
      <identifier>oai:zenodo.org:257672</identifier>
      <datestamp>2017-01-23T12:17:54Z</datestamp>
      <setSpec>user-biosyslit</setSpec>
    </header>
    <header>
      <identifier>oai:zenodo.org:257996</identifier>
      <datestamp>2017-01-23T15:12:03Z</datestamp>
      <setSpec>user-biosyslit</setSpec>
    </header>
    <header>
      <identifier>oai:zenodo.org:257950</identifier>
      <datestamp>2017-01-23T14:43:14Z</datestamp>
      <setSpec>user-biosyslit</setSpec>
    </header>
    <header>
      <identifier>oai:zenodo.org:259684</identifier>
      <datestamp>2017-01-25T15:01:39Z</datestamp>
      <setSpec>user-biosyslit</setSpec>
    </header>
    <header>
      <identifier>oai:zenodo.org:259056</identifier>
      <datestamp>2017-01-24T07:32:35Z</datestamp>
      <setSpec>user-biosyslit</setSpec>
    </header>
    <header>
      <identifier>oai:zenodo.org:258469</identifier>
      <datestamp>2017-01-23T23:27:32Z</datestamp>
      <setSpec>user-biosyslit</setSpec>
    </header>
    <header>
      <identifier>oai:zenodo.org:258434</identifier>
      <datestamp>2017-01-23T22:45:06Z</datestamp>
      <setSpec>user-biosyslit</setSpec>
    </header>
    <header>
      <identifier>oai:zenodo.org:258351</identifier>
      <datestamp>2017-01-23T21:21:49Z</datestamp>
      <setSpec>user-biosyslit</setSpec>
    </header>
    <header>
      <identifier>oai:zenodo.org:258252</identifier>
      <datestamp>2017-01-23T18:59:52Z</datestamp>
      <setSpec>user-biosyslit</setSpec>
    </header>
    <header>
      <identifier>oai:zenodo.org:258997</identifier>
      <datestamp>2017-01-24T07:21:48Z</datestamp>
      <setSpec>user-biosyslit</setSpec>
    </header>
    <header>
      <identifier>oai:zenodo.org:258878</identifier>
      <datestamp>2017-01-24T05:43:27Z</datestamp>
      <setSpec>user-biosyslit</setSpec>
    </header>
    <header>
      <identifier>oai:zenodo.org:258471</identifier>
      <datestamp>2017-01-23T23:27:40Z</datestamp>
      <setSpec>user-biosyslit</setSpec>
    </header>
    <header>
      <identifier>oai:zenodo.org:258934</identifier>
      <datestamp>2017-01-24T06:28:10Z</datestamp>
      <setSpec>user-biosyslit</setSpec>
    </header>
    <header>
      <identifier>oai:zenodo.org:258827</identifier>
      <datestamp>2017-01-24T05:22:55Z</datestamp>
      <setSpec>user-biosyslit</setSpec>
    </header>
    <header>
      <identifier>oai:zenodo.org:258777</identifier>
      <datestamp>2017-01-24T04:54:17Z</datestamp>
      <setSpec>user-biosyslit</setSpec>
    </header>
    <header>
      <identifier>oai:zenodo.org:259137</identifier>
      <datestamp>2017-01-24T08:03:54Z</datestamp>
      <setSpec>user-biosyslit</setSpec>
    </header>
    <header>
      <identifier>oai:zenodo.org:258987</identifier>
      <datestamp>2017-01-24T07:17:03Z</datestamp>
      <setSpec>user-biosyslit</setSpec>
    </header>
    <header>
      <identifier>oai:zenodo.org:260972</identifier>
      <datestamp>2017-01-28T03:08:33Z</datestamp>
      <setSpec>user-biosyslit</setSpec>
    </header>
    <header>
      <identifier>oai:zenodo.org:259060</identifier>
      <datestamp>2017-01-24T07:32:47Z</datestamp>
      <setSpec>user-biosyslit</setSpec>
    </header>
    <header>
      <identifier>oai:zenodo.org:259654</identifier>
      <datestamp>2017-01-25T14:43:27Z</datestamp>
      <setSpec>user-biosyslit</setSpec>
    </header>
    <header>
      <identifier>oai:zenodo.org:259151</identifier>
      <datestamp>2017-01-24T08:14:43Z</datestamp>
      <setSpec>user-biosyslit</setSpec>
    </header>
    <header>
      <identifier>oai:zenodo.org:259292</identifier>
      <datestamp>2017-01-24T09:50:02Z</datestamp>
      <setSpec>user-biosyslit</setSpec>
    </header>
    <header>
      <identifier>oai:zenodo.org:273461</identifier>
      <datestamp>2017-02-08T09:24:50Z</datestamp>
      <setSpec>user-biosyslit</setSpec>
    </header>
    <header>
      <identifier>oai:zenodo.org:261221</identifier>
      <datestamp>2017-01-28T06:52:55Z</datestamp>
      <setSpec>user-biosyslit</setSpec>
    </header>
    <header>
      <identifier>oai:zenodo.org:259723</identifier>
      <datestamp>2017-01-25T15:38:42Z</datestamp>
      <setSpec>user-biosyslit</setSpec>
    </header>
    <header>
      <identifier>oai:zenodo.org:259832</identifier>
      <datestamp>2017-01-25T16:48:24Z</datestamp>
      <setSpec>user-biosyslit</setSpec>
    </header>
    <header>
      <identifier>oai:zenodo.org:259646</identifier>
      <datestamp>2017-01-25T14:39:36Z</datestamp>
      <setSpec>user-biosyslit</setSpec>
    </header>
    <header>
      <identifier>oai:zenodo.org:259648</identifier>
      <datestamp>2017-01-25T14:39:43Z</datestamp>
      <setSpec>user-biosyslit</setSpec>
    </header>
    <header>
      <identifier>oai:zenodo.org:259943</identifier>
      <datestamp>2017-01-25T17:46:47Z</datestamp>
      <setSpec>user-biosyslit</setSpec>
    </header>
    <header>
      <identifier>oai:zenodo.org:259900</identifier>
      <datestamp>2017-01-25T17:12:00Z</datestamp>
      <setSpec>user-biosyslit</setSpec>
    </header>
    <header>
      <identifier>oai:zenodo.org:273846</identifier>
      <datestamp>2017-02-08T11:00:20Z</datestamp>
      <setSpec>user-biosyslit</setSpec>
    </header>
    <resumptionToken expirationDate="2017-08-31T15:46:37Z" cursor="52600" completeListSize="77796">.eJyNyj0LgkAYAOD_8s4S95GdCS2hiYPKeSnZEqYi1mXiFepJ_72W5nrmZwZVVSXYaIGIiZG1pIwytCKUrKkBqujvUp6aT4DikMqilUnupc_4lqKM1Cx01Bg4GQ31FUU3rMWOkwO2xqRBE98nj0zHY0r9QSCXBZpP4cX_vJJGnjyevU4k7VYKUvaRyyeBt-JIi-_Dfz798zlqAwZ0eV2BbRLLgOuQ97UCe3693vmKUZs.DInAZQ.nYHV763o0XZoL0cI8iSq0Asra6s</resumptionToken>
  </ListIdentifiers>
</OAI-PMH>
