<?xml version='1.0' encoding='UTF-8'?>
<?xml-stylesheet type="text/xsl" href="/static/xsl/oai2.v1.0.xsl"?>
<OAI-PMH xmlns="http://www.openarchives.org/OAI/2.0/" xmlns:xsi="http://www.w3.org/2001/XMLSchema-instance" xsi:schemaLocation="http://www.openarchives.org/OAI/2.0/ http://www.openarchives.org/OAI/2.0/OAI-PMH.xsd">
  <responseDate>2017-08-31T15:43:35Z</responseDate>
  <request verb="ListIdentifiers" resumptionToken=".eJyNz7sOgjAYQOF36WxMyw9ySVwMSBiAlFoiLgaBELQgoRqgxneXxVnn8y3nhWRVlcjBa10ntkkALAOAbHRjhWQx3IU4N0tGxTEVRSd47qfPpE1xptVm5MopdDOI1A3HLVFsT7UjsSbe4Jke-CNTyZRCMDLsmaGic3QNFldC7IvTxe8Z73aCaeUQe3RmZMdOUHwd-dOpn86VW7RCfV5XyAF7ubqN-VBL5Lze7w-Z41E_.DInAJw.yvMDutM9kIkGMKAyeQIgPlpb5Lc">https://zenodo.org/oai2d</request>
  <ListIdentifiers>
    <header>
      <identifier>oai:zenodo.org:265894</identifier>
      <datestamp>2017-01-31T23:03:11Z</datestamp>
      <setSpec>user-biosyslit</setSpec>
    </header>
    <header>
      <identifier>oai:zenodo.org:273726</identifier>
      <datestamp>2017-02-08T10:29:34Z</datestamp>
      <setSpec>user-biosyslit</setSpec>
    </header>
    <header>
      <identifier>oai:zenodo.org:273854</identifier>
      <datestamp>2017-02-08T11:00:57Z</datestamp>
      <setSpec>user-biosyslit</setSpec>
    </header>
    <header>
      <identifier>oai:zenodo.org:273646</identifier>
      <datestamp>2017-02-08T10:08:33Z</datestamp>
      <setSpec>user-biosyslit</setSpec>
    </header>
    <header>
      <identifier>oai:zenodo.org:273705</identifier>
      <datestamp>2017-02-08T10:24:32Z</datestamp>
      <setSpec>user-biosyslit</setSpec>
    </header>
    <header>
      <identifier>oai:zenodo.org:262479</identifier>
      <datestamp>2017-01-29T04:41:49Z</datestamp>
      <setSpec>user-biosyslit</setSpec>
    </header>
    <header>
      <identifier>oai:zenodo.org:274539</identifier>
      <datestamp>2017-02-08T13:37:52Z</datestamp>
      <setSpec>user-biosyslit</setSpec>
    </header>
    <header>
      <identifier>oai:zenodo.org:262357</identifier>
      <datestamp>2017-01-29T02:28:33Z</datestamp>
      <setSpec>user-biosyslit</setSpec>
    </header>
    <header>
      <identifier>oai:zenodo.org:276194</identifier>
      <datestamp>2017-02-08T18:23:23Z</datestamp>
      <setSpec>user-biosyslit</setSpec>
    </header>
    <header>
      <identifier>oai:zenodo.org:274168</identifier>
      <datestamp>2017-02-08T12:17:34Z</datestamp>
      <setSpec>user-biosyslit</setSpec>
    </header>
    <header>
      <identifier>oai:zenodo.org:262756</identifier>
      <datestamp>2017-01-29T07:54:12Z</datestamp>
      <setSpec>user-biosyslit</setSpec>
    </header>
    <header>
      <identifier>oai:zenodo.org:262576</identifier>
      <datestamp>2017-01-29T05:43:31Z</datestamp>
      <setSpec>user-biosyslit</setSpec>
    </header>
    <header>
      <identifier>oai:zenodo.org:262837</identifier>
      <datestamp>2017-01-29T10:06:55Z</datestamp>
      <setSpec>user-biosyslit</setSpec>
    </header>
    <header>
      <identifier>oai:zenodo.org:263324</identifier>
      <datestamp>2017-01-29T22:24:30Z</datestamp>
      <setSpec>user-biosyslit</setSpec>
    </header>
    <header>
      <identifier>oai:zenodo.org:262551</identifier>
      <datestamp>2017-01-29T05:29:49Z</datestamp>
      <setSpec>user-biosyslit</setSpec>
    </header>
    <header>
      <identifier>oai:zenodo.org:262652</identifier>
      <datestamp>2017-01-29T06:51:39Z</datestamp>
      <setSpec>user-biosyslit</setSpec>
    </header>
    <header>
      <identifier>oai:zenodo.org:262747</identifier>
      <datestamp>2017-01-29T07:53:48Z</datestamp>
      <setSpec>user-biosyslit</setSpec>
    </header>
    <header>
      <identifier>oai:zenodo.org:262785</identifier>
      <datestamp>2017-01-29T08:36:25Z</datestamp>
      <setSpec>user-biosyslit</setSpec>
    </header>
    <header>
      <identifier>oai:zenodo.org:263559</identifier>
      <datestamp>2017-01-30T00:28:15Z</datestamp>
      <setSpec>user-biosyslit</setSpec>
    </header>
    <header>
      <identifier>oai:zenodo.org:264539</identifier>
      <datestamp>2017-01-30T23:06:31Z</datestamp>
      <setSpec>user-biosyslit</setSpec>
    </header>
    <header>
      <identifier>oai:zenodo.org:262989</identifier>
      <datestamp>2017-01-29T14:32:38Z</datestamp>
      <setSpec>user-biosyslit</setSpec>
    </header>
    <header>
      <identifier>oai:zenodo.org:262988</identifier>
      <datestamp>2017-01-29T14:32:35Z</datestamp>
      <setSpec>user-biosyslit</setSpec>
    </header>
    <header>
      <identifier>oai:zenodo.org:263614</identifier>
      <datestamp>2017-01-30T01:23:43Z</datestamp>
      <setSpec>user-biosyslit</setSpec>
    </header>
    <header>
      <identifier>oai:zenodo.org:263032</identifier>
      <datestamp>2017-01-29T15:04:38Z</datestamp>
      <setSpec>user-biosyslit</setSpec>
    </header>
    <header>
      <identifier>oai:zenodo.org:264066</identifier>
      <datestamp>2017-01-30T12:30:57Z</datestamp>
      <setSpec>user-biosyslit</setSpec>
    </header>
    <header>
      <identifier>oai:zenodo.org:263234</identifier>
      <datestamp>2017-01-29T19:28:07Z</datestamp>
      <setSpec>user-biosyslit</setSpec>
    </header>
    <header>
      <identifier>oai:zenodo.org:263636</identifier>
      <datestamp>2017-01-30T01:51:34Z</datestamp>
      <setSpec>user-biosyslit</setSpec>
    </header>
    <header>
      <identifier>oai:zenodo.org:263578</identifier>
      <datestamp>2017-01-30T00:50:58Z</datestamp>
      <setSpec>user-biosyslit</setSpec>
    </header>
    <header>
      <identifier>oai:zenodo.org:263693</identifier>
      <datestamp>2017-01-30T03:31:10Z</datestamp>
      <setSpec>user-biosyslit</setSpec>
    </header>
    <header>
      <identifier>oai:zenodo.org:263050</identifier>
      <datestamp>2017-01-29T15:35:45Z</datestamp>
      <setSpec>user-biosyslit</setSpec>
    </header>
    <header>
      <identifier>oai:zenodo.org:264537</identifier>
      <datestamp>2017-01-30T23:06:23Z</datestamp>
      <setSpec>user-biosyslit</setSpec>
    </header>
    <header>
      <identifier>oai:zenodo.org:264437</identifier>
      <datestamp>2017-01-30T21:35:12Z</datestamp>
      <setSpec>user-biosyslit</setSpec>
    </header>
    <header>
      <identifier>oai:zenodo.org:263601</identifier>
      <datestamp>2017-01-30T01:23:45Z</datestamp>
      <setSpec>user-biosyslit</setSpec>
    </header>
    <header>
      <identifier>oai:zenodo.org:274731</identifier>
      <datestamp>2017-02-08T14:08:03Z</datestamp>
      <setSpec>user-biosyslit</setSpec>
    </header>
    <header>
      <identifier>oai:zenodo.org:264001</identifier>
      <datestamp>2017-01-30T11:28:29Z</datestamp>
      <setSpec>user-biosyslit</setSpec>
    </header>
    <header>
      <identifier>oai:zenodo.org:264053</identifier>
      <datestamp>2017-01-30T12:25:55Z</datestamp>
      <setSpec>user-biosyslit</setSpec>
    </header>
    <header>
      <identifier>oai:zenodo.org:264116</identifier>
      <datestamp>2017-01-30T13:07:01Z</datestamp>
      <setSpec>user-biosyslit</setSpec>
    </header>
    <header>
      <identifier>oai:zenodo.org:264048</identifier>
      <datestamp>2017-01-30T12:25:33Z</datestamp>
      <setSpec>user-biosyslit</setSpec>
    </header>
    <header>
      <identifier>oai:zenodo.org:264119</identifier>
      <datestamp>2017-01-30T13:08:42Z</datestamp>
      <setSpec>user-biosyslit</setSpec>
    </header>
    <header>
      <identifier>oai:zenodo.org:263923</identifier>
      <datestamp>2017-01-30T10:16:06Z</datestamp>
      <setSpec>user-biosyslit</setSpec>
    </header>
    <header>
      <identifier>oai:zenodo.org:264084</identifier>
      <datestamp>2017-01-30T12:37:05Z</datestamp>
      <setSpec>user-biosyslit</setSpec>
    </header>
    <header>
      <identifier>oai:zenodo.org:263979</identifier>
      <datestamp>2017-01-30T11:07:08Z</datestamp>
      <setSpec>user-biosyslit</setSpec>
    </header>
    <header>
      <identifier>oai:zenodo.org:264256</identifier>
      <datestamp>2017-01-30T15:36:12Z</datestamp>
      <setSpec>user-biosyslit</setSpec>
    </header>
    <header>
      <identifier>oai:zenodo.org:265631</identifier>
      <datestamp>2017-01-31T17:52:51Z</datestamp>
      <setSpec>user-biosyslit</setSpec>
    </header>
    <header>
      <identifier>oai:zenodo.org:264149</identifier>
      <datestamp>2017-02-09T08:35:54Z</datestamp>
      <setSpec>user-biosyslit</setSpec>
    </header>
    <header>
      <identifier>oai:zenodo.org:264324</identifier>
      <datestamp>2017-01-30T19:10:47Z</datestamp>
      <setSpec>user-biosyslit</setSpec>
    </header>
    <header>
      <identifier>oai:zenodo.org:264671</identifier>
      <datestamp>2017-01-31T00:56:59Z</datestamp>
      <setSpec>user-biosyslit</setSpec>
    </header>
    <header>
      <identifier>oai:zenodo.org:264680</identifier>
      <datestamp>2017-01-31T00:57:39Z</datestamp>
      <setSpec>user-biosyslit</setSpec>
    </header>
    <header>
      <identifier>oai:zenodo.org:226935</identifier>
      <datestamp>2017-01-01T06:59:55Z</datestamp>
      <setSpec>user-biosyslit</setSpec>
    </header>
    <header>
      <identifier>oai:zenodo.org:264920</identifier>
      <datestamp>2017-01-31T04:36:39Z</datestamp>
      <setSpec>user-biosyslit</setSpec>
    </header>
    <header>
      <identifier>oai:zenodo.org:264622</identifier>
      <datestamp>2017-01-31T00:10:07Z</datestamp>
      <setSpec>user-biosyslit</setSpec>
    </header>
    <header>
      <identifier>oai:zenodo.org:265272</identifier>
      <datestamp>2017-01-31T11:06:12Z</datestamp>
      <setSpec>user-biosyslit</setSpec>
    </header>
    <header>
      <identifier>oai:zenodo.org:265456</identifier>
      <datestamp>2017-01-31T14:25:06Z</datestamp>
      <setSpec>user-biosyslit</setSpec>
    </header>
    <header>
      <identifier>oai:zenodo.org:265082</identifier>
      <datestamp>2017-01-31T07:37:23Z</datestamp>
      <setSpec>user-biosyslit</setSpec>
    </header>
    <header>
      <identifier>oai:zenodo.org:265912</identifier>
      <datestamp>2017-01-31T23:15:45Z</datestamp>
      <setSpec>user-biosyslit</setSpec>
    </header>
    <header>
      <identifier>oai:zenodo.org:265300</identifier>
      <datestamp>2017-01-31T11:46:31Z</datestamp>
      <setSpec>user-biosyslit</setSpec>
    </header>
    <header>
      <identifier>oai:zenodo.org:265735</identifier>
      <datestamp>2017-01-31T19:54:24Z</datestamp>
      <setSpec>user-biosyslit</setSpec>
    </header>
    <header>
      <identifier>oai:zenodo.org:265009</identifier>
      <datestamp>2017-01-31T06:20:44Z</datestamp>
      <setSpec>user-biosyslit</setSpec>
    </header>
    <header>
      <identifier>oai:zenodo.org:265308</identifier>
      <datestamp>2017-01-31T11:58:32Z</datestamp>
      <setSpec>user-biosyslit</setSpec>
    </header>
    <header>
      <identifier>oai:zenodo.org:265785</identifier>
      <datestamp>2017-01-31T21:04:27Z</datestamp>
      <setSpec>user-biosyslit</setSpec>
    </header>
    <header>
      <identifier>oai:zenodo.org:265165</identifier>
      <datestamp>2017-01-31T09:34:41Z</datestamp>
      <setSpec>user-biosyslit</setSpec>
    </header>
    <header>
      <identifier>oai:zenodo.org:265277</identifier>
      <datestamp>2017-01-31T11:14:56Z</datestamp>
      <setSpec>user-biosyslit</setSpec>
    </header>
    <header>
      <identifier>oai:zenodo.org:265598</identifier>
      <datestamp>2017-01-31T17:30:57Z</datestamp>
      <setSpec>user-biosyslit</setSpec>
    </header>
    <header>
      <identifier>oai:zenodo.org:265584</identifier>
      <datestamp>2017-01-31T17:21:40Z</datestamp>
      <setSpec>user-biosyslit</setSpec>
    </header>
    <header>
      <identifier>oai:zenodo.org:265730</identifier>
      <datestamp>2017-01-31T19:54:08Z</datestamp>
      <setSpec>user-biosyslit</setSpec>
    </header>
    <header>
      <identifier>oai:zenodo.org:265870</identifier>
      <datestamp>2017-01-31T22:38:55Z</datestamp>
      <setSpec>user-biosyslit</setSpec>
    </header>
    <header>
      <identifier>oai:zenodo.org:266291</identifier>
      <datestamp>2017-02-01T05:40:21Z</datestamp>
      <setSpec>user-biosyslit</setSpec>
    </header>
    <header>
      <identifier>oai:zenodo.org:263371</identifier>
      <datestamp>2017-01-29T22:28:36Z</datestamp>
      <setSpec>user-biosyslit</setSpec>
    </header>
    <header>
      <identifier>oai:zenodo.org:262960</identifier>
      <datestamp>2017-01-29T14:03:06Z</datestamp>
      <setSpec>user-biosyslit</setSpec>
    </header>
    <header>
      <identifier>oai:zenodo.org:263488</identifier>
      <datestamp>2017-01-29T23:29:03Z</datestamp>
      <setSpec>user-biosyslit</setSpec>
    </header>
    <header>
      <identifier>oai:zenodo.org:263114</identifier>
      <datestamp>2017-01-29T17:29:23Z</datestamp>
      <setSpec>user-biosyslit</setSpec>
    </header>
    <header>
      <identifier>oai:zenodo.org:262974</identifier>
      <datestamp>2017-01-29T14:24:48Z</datestamp>
      <setSpec>user-biosyslit</setSpec>
    </header>
    <header>
      <identifier>oai:zenodo.org:263120</identifier>
      <datestamp>2017-01-29T17:26:06Z</datestamp>
      <setSpec>user-biosyslit</setSpec>
    </header>
    <header>
      <identifier>oai:zenodo.org:263160</identifier>
      <datestamp>2017-01-29T17:56:36Z</datestamp>
      <setSpec>user-biosyslit</setSpec>
    </header>
    <header>
      <identifier>oai:zenodo.org:263057</identifier>
      <datestamp>2017-01-29T15:36:04Z</datestamp>
      <setSpec>user-biosyslit</setSpec>
    </header>
    <header>
      <identifier>oai:zenodo.org:263600</identifier>
      <datestamp>2017-01-30T01:17:05Z</datestamp>
      <setSpec>user-biosyslit</setSpec>
    </header>
    <header>
      <identifier>oai:zenodo.org:263460</identifier>
      <datestamp>2017-01-29T22:34:30Z</datestamp>
      <setSpec>user-biosyslit</setSpec>
    </header>
    <header>
      <identifier>oai:zenodo.org:264071</identifier>
      <datestamp>2017-01-30T12:37:19Z</datestamp>
      <setSpec>user-biosyslit</setSpec>
    </header>
    <header>
      <identifier>oai:zenodo.org:264943</identifier>
      <datestamp>2017-01-31T05:00:25Z</datestamp>
      <setSpec>user-biosyslit</setSpec>
    </header>
    <header>
      <identifier>oai:zenodo.org:263466</identifier>
      <datestamp>2017-01-29T22:34:51Z</datestamp>
      <setSpec>user-biosyslit</setSpec>
    </header>
    <header>
      <identifier>oai:zenodo.org:274037</identifier>
      <datestamp>2017-02-08T11:55:08Z</datestamp>
      <setSpec>user-biosyslit</setSpec>
    </header>
    <header>
      <identifier>oai:zenodo.org:263809</identifier>
      <datestamp>2017-01-30T08:30:21Z</datestamp>
      <setSpec>user-biosyslit</setSpec>
    </header>
    <header>
      <identifier>oai:zenodo.org:263158</identifier>
      <datestamp>2017-01-29T17:56:29Z</datestamp>
      <setSpec>user-biosyslit</setSpec>
    </header>
    <header>
      <identifier>oai:zenodo.org:263091</identifier>
      <datestamp>2017-01-29T16:39:36Z</datestamp>
      <setSpec>user-biosyslit</setSpec>
    </header>
    <header>
      <identifier>oai:zenodo.org:263409</identifier>
      <datestamp>2017-01-29T22:31:31Z</datestamp>
      <setSpec>user-biosyslit</setSpec>
    </header>
    <header>
      <identifier>oai:zenodo.org:264099</identifier>
      <datestamp>2017-01-30T12:49:59Z</datestamp>
      <setSpec>user-biosyslit</setSpec>
    </header>
    <header>
      <identifier>oai:zenodo.org:263212</identifier>
      <datestamp>2017-01-29T18:51:04Z</datestamp>
      <setSpec>user-biosyslit</setSpec>
    </header>
    <header>
      <identifier>oai:zenodo.org:263062</identifier>
      <datestamp>2017-01-29T15:36:15Z</datestamp>
      <setSpec>user-biosyslit</setSpec>
    </header>
    <header>
      <identifier>oai:zenodo.org:264346</identifier>
      <datestamp>2017-01-30T19:32:19Z</datestamp>
      <setSpec>user-biosyslit</setSpec>
    </header>
    <header>
      <identifier>oai:zenodo.org:263200</identifier>
      <datestamp>2017-01-29T18:42:20Z</datestamp>
      <setSpec>user-biosyslit</setSpec>
    </header>
    <header>
      <identifier>oai:zenodo.org:263648</identifier>
      <datestamp>2017-01-30T02:28:07Z</datestamp>
      <setSpec>user-biosyslit</setSpec>
    </header>
    <header>
      <identifier>oai:zenodo.org:265217</identifier>
      <datestamp>2017-01-31T10:05:53Z</datestamp>
      <setSpec>user-biosyslit</setSpec>
    </header>
    <header>
      <identifier>oai:zenodo.org:263573</identifier>
      <datestamp>2017-01-30T00:50:41Z</datestamp>
      <setSpec>user-biosyslit</setSpec>
    </header>
    <header>
      <identifier>oai:zenodo.org:263992</identifier>
      <datestamp>2017-01-30T11:17:21Z</datestamp>
      <setSpec>user-biosyslit</setSpec>
    </header>
    <header>
      <identifier>oai:zenodo.org:264535</identifier>
      <datestamp>2017-01-30T23:06:17Z</datestamp>
      <setSpec>user-biosyslit</setSpec>
    </header>
    <header>
      <identifier>oai:zenodo.org:265112</identifier>
      <datestamp>2017-01-31T07:56:06Z</datestamp>
      <setSpec>user-biosyslit</setSpec>
    </header>
    <header>
      <identifier>oai:zenodo.org:264182</identifier>
      <datestamp>2017-01-30T14:32:56Z</datestamp>
      <setSpec>user-biosyslit</setSpec>
    </header>
    <header>
      <identifier>oai:zenodo.org:264682</identifier>
      <datestamp>2017-01-31T00:57:46Z</datestamp>
      <setSpec>user-biosyslit</setSpec>
    </header>
    <header>
      <identifier>oai:zenodo.org:264187</identifier>
      <datestamp>2017-01-30T14:36:25Z</datestamp>
      <setSpec>user-biosyslit</setSpec>
    </header>
    <header>
      <identifier>oai:zenodo.org:264215</identifier>
      <datestamp>2017-01-30T14:54:01Z</datestamp>
      <setSpec>user-biosyslit</setSpec>
    </header>
    <resumptionToken expirationDate="2017-08-31T15:45:35Z" cursor="39400" completeListSize="77796">.eJyNysEKgjAYAOB3-c8S0zU1oYto4iFFl6JewqaIuUxcoS5697x0rvP3vUDUdQUW2piE6BohCGFCDMPcKiDYeOf83K4MLEs563lSeukzvqUo1xojcMR8dHIcyA6FN1XSQ6RlqjknLVqiU_LIZTyn2J8oco2jjJbg6q-vwqHHi4s30KS3OdWqMXSjhao2LTD7PvXPJ38-R-xBgaFsarDwTlegm8qxEWC93u8PoTxRSA.DInAJw.uC7gUxo4VgAn_RSZa9EDyWw2RJw</resumptionToken>
  </ListIdentifiers>
</OAI-PMH>
