<?xml version='1.0' encoding='UTF-8'?>
<?xml-stylesheet type="text/xsl" href="/static/xsl/oai2.v1.0.xsl"?>
<OAI-PMH xmlns="http://www.openarchives.org/OAI/2.0/" xmlns:xsi="http://www.w3.org/2001/XMLSchema-instance" xsi:schemaLocation="http://www.openarchives.org/OAI/2.0/ http://www.openarchives.org/OAI/2.0/OAI-PMH.xsd">
  <responseDate>2017-08-31T15:45:30Z</responseDate>
  <request verb="ListIdentifiers" resumptionToken=".eJyNysEKgjAYAOB3-c8S_5xpCV3Ekg4quhT1EjZFylnhCnXRu-elc33n7wWyriuwcYGGaRCCuKaIuLQsNDSQvL8JcTzPAXiWCn4VSemlz7hLMdcbK3Dl6Ls5DVSLYUcU20V6RlZjcsYpOiSPXMVjSvcDw63lq2gKLvv5VTT0RHHy7iy5OoLpVR9uo4kRhxWUfx_586mfz5Ub0OBeNjXY5pJo0A5l30iwX-_3B-yRUYo.DInAmg.QECe1LkJ2Hf_3nCU4dBA3M-PNw8">https://zenodo.org/oai2d</request>
  <ListIdentifiers>
    <header>
      <identifier>oai:zenodo.org:249808</identifier>
      <datestamp>2017-01-18T00:03:08Z</datestamp>
      <setSpec>user-biosyslit</setSpec>
    </header>
    <header>
      <identifier>oai:zenodo.org:249802</identifier>
      <datestamp>2017-01-18T00:02:45Z</datestamp>
      <setSpec>user-biosyslit</setSpec>
    </header>
    <header>
      <identifier>oai:zenodo.org:276386</identifier>
      <datestamp>2017-02-08T18:45:09Z</datestamp>
      <setSpec>user-biosyslit</setSpec>
    </header>
    <header>
      <identifier>oai:zenodo.org:248525</identifier>
      <datestamp>2017-01-17T05:07:19Z</datestamp>
      <setSpec>user-biosyslit</setSpec>
    </header>
    <header>
      <identifier>oai:zenodo.org:273785</identifier>
      <datestamp>2017-02-08T10:45:16Z</datestamp>
      <setSpec>user-biosyslit</setSpec>
    </header>
    <header>
      <identifier>oai:zenodo.org:248526</identifier>
      <datestamp>2017-01-17T05:07:28Z</datestamp>
      <setSpec>user-biosyslit</setSpec>
    </header>
    <header>
      <identifier>oai:zenodo.org:273788</identifier>
      <datestamp>2017-02-08T10:45:12Z</datestamp>
      <setSpec>user-biosyslit</setSpec>
    </header>
    <header>
      <identifier>oai:zenodo.org:276388</identifier>
      <datestamp>2017-02-08T18:45:16Z</datestamp>
      <setSpec>user-biosyslit</setSpec>
    </header>
    <header>
      <identifier>oai:zenodo.org:276384</identifier>
      <datestamp>2017-02-08T18:45:23Z</datestamp>
      <setSpec>user-biosyslit</setSpec>
    </header>
    <header>
      <identifier>oai:zenodo.org:276389</identifier>
      <datestamp>2017-02-08T18:45:21Z</datestamp>
      <setSpec>user-biosyslit</setSpec>
    </header>
    <header>
      <identifier>oai:zenodo.org:276387</identifier>
      <datestamp>2017-02-08T18:45:13Z</datestamp>
      <setSpec>user-biosyslit</setSpec>
    </header>
    <header>
      <identifier>oai:zenodo.org:248530</identifier>
      <datestamp>2017-01-17T05:07:42Z</datestamp>
      <setSpec>user-biosyslit</setSpec>
    </header>
    <header>
      <identifier>oai:zenodo.org:248528</identifier>
      <datestamp>2017-01-17T05:07:35Z</datestamp>
      <setSpec>user-biosyslit</setSpec>
    </header>
    <header>
      <identifier>oai:zenodo.org:248529</identifier>
      <datestamp>2017-01-17T05:07:38Z</datestamp>
      <setSpec>user-biosyslit</setSpec>
    </header>
    <header>
      <identifier>oai:zenodo.org:248531</identifier>
      <datestamp>2017-01-17T05:07:46Z</datestamp>
      <setSpec>user-biosyslit</setSpec>
    </header>
    <header>
      <identifier>oai:zenodo.org:248527</identifier>
      <datestamp>2017-01-17T05:07:32Z</datestamp>
      <setSpec>user-biosyslit</setSpec>
    </header>
    <header>
      <identifier>oai:zenodo.org:248535</identifier>
      <datestamp>2017-01-17T05:07:59Z</datestamp>
      <setSpec>user-biosyslit</setSpec>
    </header>
    <header>
      <identifier>oai:zenodo.org:248532</identifier>
      <datestamp>2017-01-17T05:07:49Z</datestamp>
      <setSpec>user-biosyslit</setSpec>
    </header>
    <header>
      <identifier>oai:zenodo.org:248534</identifier>
      <datestamp>2017-01-17T05:07:56Z</datestamp>
      <setSpec>user-biosyslit</setSpec>
    </header>
    <header>
      <identifier>oai:zenodo.org:248533</identifier>
      <datestamp>2017-01-17T05:07:53Z</datestamp>
      <setSpec>user-biosyslit</setSpec>
    </header>
    <header>
      <identifier>oai:zenodo.org:248524</identifier>
      <datestamp>2017-01-17T05:08:09Z</datestamp>
      <setSpec>user-biosyslit</setSpec>
    </header>
    <header>
      <identifier>oai:zenodo.org:248538</identifier>
      <datestamp>2017-01-17T05:08:08Z</datestamp>
      <setSpec>user-biosyslit</setSpec>
    </header>
    <header>
      <identifier>oai:zenodo.org:248537</identifier>
      <datestamp>2017-01-17T05:08:05Z</datestamp>
      <setSpec>user-biosyslit</setSpec>
    </header>
    <header>
      <identifier>oai:zenodo.org:273286</identifier>
      <datestamp>2017-02-08T08:51:15Z</datestamp>
      <setSpec>user-biosyslit</setSpec>
    </header>
    <header>
      <identifier>oai:zenodo.org:231164</identifier>
      <datestamp>2017-01-05T16:44:32Z</datestamp>
      <setSpec>user-biosyslit</setSpec>
    </header>
    <header>
      <identifier>oai:zenodo.org:248460</identifier>
      <datestamp>2017-01-17T04:25:52Z</datestamp>
      <setSpec>user-biosyslit</setSpec>
    </header>
    <header>
      <identifier>oai:zenodo.org:248461</identifier>
      <datestamp>2017-01-17T04:25:55Z</datestamp>
      <setSpec>user-biosyslit</setSpec>
    </header>
    <header>
      <identifier>oai:zenodo.org:231165</identifier>
      <datestamp>2017-01-05T16:44:35Z</datestamp>
      <setSpec>user-biosyslit</setSpec>
    </header>
    <header>
      <identifier>oai:zenodo.org:248457</identifier>
      <datestamp>2017-01-17T04:25:42Z</datestamp>
      <setSpec>user-biosyslit</setSpec>
    </header>
    <header>
      <identifier>oai:zenodo.org:231163</identifier>
      <datestamp>2017-01-05T16:44:36Z</datestamp>
      <setSpec>user-biosyslit</setSpec>
    </header>
    <header>
      <identifier>oai:zenodo.org:248463</identifier>
      <datestamp>2017-01-17T04:26:02Z</datestamp>
      <setSpec>user-biosyslit</setSpec>
    </header>
    <header>
      <identifier>oai:zenodo.org:248466</identifier>
      <datestamp>2017-01-17T04:26:10Z</datestamp>
      <setSpec>user-biosyslit</setSpec>
    </header>
    <header>
      <identifier>oai:zenodo.org:248467</identifier>
      <datestamp>2017-01-17T04:26:13Z</datestamp>
      <setSpec>user-biosyslit</setSpec>
    </header>
    <header>
      <identifier>oai:zenodo.org:279377</identifier>
      <datestamp>2017-02-09T01:11:02Z</datestamp>
      <setSpec>user-biosyslit</setSpec>
    </header>
    <header>
      <identifier>oai:zenodo.org:248464</identifier>
      <datestamp>2017-01-17T04:26:04Z</datestamp>
      <setSpec>user-biosyslit</setSpec>
    </header>
    <header>
      <identifier>oai:zenodo.org:248475</identifier>
      <datestamp>2017-01-17T04:26:37Z</datestamp>
      <setSpec>user-biosyslit</setSpec>
    </header>
    <header>
      <identifier>oai:zenodo.org:279376</identifier>
      <datestamp>2017-02-09T01:10:58Z</datestamp>
      <setSpec>user-biosyslit</setSpec>
    </header>
    <header>
      <identifier>oai:zenodo.org:248471</identifier>
      <datestamp>2017-01-17T04:26:26Z</datestamp>
      <setSpec>user-biosyslit</setSpec>
    </header>
    <header>
      <identifier>oai:zenodo.org:248473</identifier>
      <datestamp>2017-01-17T04:26:31Z</datestamp>
      <setSpec>user-biosyslit</setSpec>
    </header>
    <header>
      <identifier>oai:zenodo.org:279375</identifier>
      <datestamp>2017-02-09T01:10:54Z</datestamp>
      <setSpec>user-biosyslit</setSpec>
    </header>
    <header>
      <identifier>oai:zenodo.org:279384</identifier>
      <datestamp>2017-02-09T01:11:25Z</datestamp>
      <setSpec>user-biosyslit</setSpec>
    </header>
    <header>
      <identifier>oai:zenodo.org:279386</identifier>
      <datestamp>2017-02-09T01:11:37Z</datestamp>
      <setSpec>user-biosyslit</setSpec>
    </header>
    <header>
      <identifier>oai:zenodo.org:279387</identifier>
      <datestamp>2017-02-09T01:11:43Z</datestamp>
      <setSpec>user-biosyslit</setSpec>
    </header>
    <header>
      <identifier>oai:zenodo.org:279379</identifier>
      <datestamp>2017-02-09T01:11:07Z</datestamp>
      <setSpec>user-biosyslit</setSpec>
    </header>
    <header>
      <identifier>oai:zenodo.org:279382</identifier>
      <datestamp>2017-02-09T01:11:15Z</datestamp>
      <setSpec>user-biosyslit</setSpec>
    </header>
    <header>
      <identifier>oai:zenodo.org:279385</identifier>
      <datestamp>2017-02-09T01:11:30Z</datestamp>
      <setSpec>user-biosyslit</setSpec>
    </header>
    <header>
      <identifier>oai:zenodo.org:279389</identifier>
      <datestamp>2017-02-09T01:11:54Z</datestamp>
      <setSpec>user-biosyslit</setSpec>
    </header>
    <header>
      <identifier>oai:zenodo.org:279383</identifier>
      <datestamp>2017-02-09T01:11:20Z</datestamp>
      <setSpec>user-biosyslit</setSpec>
    </header>
    <header>
      <identifier>oai:zenodo.org:279388</identifier>
      <datestamp>2017-02-09T01:11:49Z</datestamp>
      <setSpec>user-biosyslit</setSpec>
    </header>
    <header>
      <identifier>oai:zenodo.org:279374</identifier>
      <datestamp>2017-02-09T01:12:23Z</datestamp>
      <setSpec>user-biosyslit</setSpec>
    </header>
    <header>
      <identifier>oai:zenodo.org:279392</identifier>
      <datestamp>2017-02-09T01:12:12Z</datestamp>
      <setSpec>user-biosyslit</setSpec>
    </header>
    <header>
      <identifier>oai:zenodo.org:279394</identifier>
      <datestamp>2017-02-09T01:12:19Z</datestamp>
      <setSpec>user-biosyslit</setSpec>
    </header>
    <header>
      <identifier>oai:zenodo.org:279391</identifier>
      <datestamp>2017-02-09T01:12:06Z</datestamp>
      <setSpec>user-biosyslit</setSpec>
    </header>
    <header>
      <identifier>oai:zenodo.org:276721</identifier>
      <datestamp>2017-02-08T19:32:22Z</datestamp>
      <setSpec>user-biosyslit</setSpec>
    </header>
    <header>
      <identifier>oai:zenodo.org:280804</identifier>
      <datestamp>2017-02-09T04:07:08Z</datestamp>
      <setSpec>user-biosyslit</setSpec>
    </header>
    <header>
      <identifier>oai:zenodo.org:282183</identifier>
      <datestamp>2017-02-09T06:34:51Z</datestamp>
      <setSpec>user-biosyslit</setSpec>
    </header>
    <header>
      <identifier>oai:zenodo.org:282181</identifier>
      <datestamp>2017-02-09T06:34:47Z</datestamp>
      <setSpec>user-biosyslit</setSpec>
    </header>
    <header>
      <identifier>oai:zenodo.org:282184</identifier>
      <datestamp>2017-02-09T06:34:53Z</datestamp>
      <setSpec>user-biosyslit</setSpec>
    </header>
    <header>
      <identifier>oai:zenodo.org:282182</identifier>
      <datestamp>2017-02-09T06:34:49Z</datestamp>
      <setSpec>user-biosyslit</setSpec>
    </header>
    <header>
      <identifier>oai:zenodo.org:282186</identifier>
      <datestamp>2017-02-09T06:34:58Z</datestamp>
      <setSpec>user-biosyslit</setSpec>
    </header>
    <header>
      <identifier>oai:zenodo.org:254479</identifier>
      <datestamp>2017-01-20T19:14:14Z</datestamp>
      <setSpec>user-biosyslit</setSpec>
    </header>
    <header>
      <identifier>oai:zenodo.org:282179</identifier>
      <datestamp>2017-02-09T06:35:00Z</datestamp>
      <setSpec>user-biosyslit</setSpec>
    </header>
    <header>
      <identifier>oai:zenodo.org:254484</identifier>
      <datestamp>2017-01-20T19:14:12Z</datestamp>
      <setSpec>user-biosyslit</setSpec>
    </header>
    <header>
      <identifier>oai:zenodo.org:254480</identifier>
      <datestamp>2017-01-20T19:13:53Z</datestamp>
      <setSpec>user-biosyslit</setSpec>
    </header>
    <header>
      <identifier>oai:zenodo.org:254481</identifier>
      <datestamp>2017-01-20T19:13:58Z</datestamp>
      <setSpec>user-biosyslit</setSpec>
    </header>
    <header>
      <identifier>oai:zenodo.org:254483</identifier>
      <datestamp>2017-01-20T19:14:07Z</datestamp>
      <setSpec>user-biosyslit</setSpec>
    </header>
    <header>
      <identifier>oai:zenodo.org:230986</identifier>
      <datestamp>2017-01-05T11:54:44Z</datestamp>
      <setSpec>user-biosyslit</setSpec>
    </header>
    <header>
      <identifier>oai:zenodo.org:230980</identifier>
      <datestamp>2017-01-05T11:54:21Z</datestamp>
      <setSpec>user-biosyslit</setSpec>
    </header>
    <header>
      <identifier>oai:zenodo.org:230985</identifier>
      <datestamp>2017-01-05T11:54:36Z</datestamp>
      <setSpec>user-biosyslit</setSpec>
    </header>
    <header>
      <identifier>oai:zenodo.org:230979</identifier>
      <datestamp>2017-01-05T11:54:18Z</datestamp>
      <setSpec>user-biosyslit</setSpec>
    </header>
    <header>
      <identifier>oai:zenodo.org:230976</identifier>
      <datestamp>2017-01-05T11:54:08Z</datestamp>
      <setSpec>user-biosyslit</setSpec>
    </header>
    <header>
      <identifier>oai:zenodo.org:255431</identifier>
      <datestamp>2017-01-21T13:18:16Z</datestamp>
      <setSpec>user-biosyslit</setSpec>
    </header>
    <header>
      <identifier>oai:zenodo.org:255433</identifier>
      <datestamp>2017-01-21T13:18:21Z</datestamp>
      <setSpec>user-biosyslit</setSpec>
    </header>
    <header>
      <identifier>oai:zenodo.org:255426</identifier>
      <datestamp>2017-01-21T13:18:01Z</datestamp>
      <setSpec>user-biosyslit</setSpec>
    </header>
    <header>
      <identifier>oai:zenodo.org:255434</identifier>
      <datestamp>2017-01-21T13:18:24Z</datestamp>
      <setSpec>user-biosyslit</setSpec>
    </header>
    <header>
      <identifier>oai:zenodo.org:255430</identifier>
      <datestamp>2017-01-21T13:18:13Z</datestamp>
      <setSpec>user-biosyslit</setSpec>
    </header>
    <header>
      <identifier>oai:zenodo.org:255452</identifier>
      <datestamp>2017-01-21T13:19:30Z</datestamp>
      <setSpec>user-biosyslit</setSpec>
    </header>
    <header>
      <identifier>oai:zenodo.org:255444</identifier>
      <datestamp>2017-01-21T13:18:59Z</datestamp>
      <setSpec>user-biosyslit</setSpec>
    </header>
    <header>
      <identifier>oai:zenodo.org:255446</identifier>
      <datestamp>2017-01-21T13:19:07Z</datestamp>
      <setSpec>user-biosyslit</setSpec>
    </header>
    <header>
      <identifier>oai:zenodo.org:255451</identifier>
      <datestamp>2017-01-21T13:19:27Z</datestamp>
      <setSpec>user-biosyslit</setSpec>
    </header>
    <header>
      <identifier>oai:zenodo.org:255439</identifier>
      <datestamp>2017-01-21T13:18:40Z</datestamp>
      <setSpec>user-biosyslit</setSpec>
    </header>
    <header>
      <identifier>oai:zenodo.org:255442</identifier>
      <datestamp>2017-01-21T13:18:49Z</datestamp>
      <setSpec>user-biosyslit</setSpec>
    </header>
    <header>
      <identifier>oai:zenodo.org:255448</identifier>
      <datestamp>2017-01-21T13:19:14Z</datestamp>
      <setSpec>user-biosyslit</setSpec>
    </header>
    <header>
      <identifier>oai:zenodo.org:255438</identifier>
      <datestamp>2017-01-21T13:18:36Z</datestamp>
      <setSpec>user-biosyslit</setSpec>
    </header>
    <header>
      <identifier>oai:zenodo.org:255445</identifier>
      <datestamp>2017-01-21T13:19:04Z</datestamp>
      <setSpec>user-biosyslit</setSpec>
    </header>
    <header>
      <identifier>oai:zenodo.org:255425</identifier>
      <datestamp>2017-01-21T13:19:35Z</datestamp>
      <setSpec>user-biosyslit</setSpec>
    </header>
    <header>
      <identifier>oai:zenodo.org:255453</identifier>
      <datestamp>2017-01-21T13:19:33Z</datestamp>
      <setSpec>user-biosyslit</setSpec>
    </header>
    <header>
      <identifier>oai:zenodo.org:282262</identifier>
      <datestamp>2017-02-09T06:43:40Z</datestamp>
      <setSpec>user-biosyslit</setSpec>
    </header>
    <header>
      <identifier>oai:zenodo.org:282261</identifier>
      <datestamp>2017-02-09T06:43:38Z</datestamp>
      <setSpec>user-biosyslit</setSpec>
    </header>
    <header>
      <identifier>oai:zenodo.org:289361</identifier>
      <datestamp>2017-02-09T23:20:39Z</datestamp>
      <setSpec>user-biosyslit</setSpec>
    </header>
    <header>
      <identifier>oai:zenodo.org:289358</identifier>
      <datestamp>2017-02-09T23:20:31Z</datestamp>
      <setSpec>user-biosyslit</setSpec>
    </header>
    <header>
      <identifier>oai:zenodo.org:282258</identifier>
      <datestamp>2017-02-09T06:43:30Z</datestamp>
      <setSpec>user-biosyslit</setSpec>
    </header>
    <header>
      <identifier>oai:zenodo.org:289356</identifier>
      <datestamp>2017-02-09T23:20:26Z</datestamp>
      <setSpec>user-biosyslit</setSpec>
    </header>
    <header>
      <identifier>oai:zenodo.org:289357</identifier>
      <datestamp>2017-02-09T23:20:29Z</datestamp>
      <setSpec>user-biosyslit</setSpec>
    </header>
    <header>
      <identifier>oai:zenodo.org:289355</identifier>
      <datestamp>2017-02-09T23:20:23Z</datestamp>
      <setSpec>user-biosyslit</setSpec>
    </header>
    <header>
      <identifier>oai:zenodo.org:289354</identifier>
      <datestamp>2017-02-09T23:21:12Z</datestamp>
      <setSpec>user-biosyslit</setSpec>
    </header>
    <header>
      <identifier>oai:zenodo.org:289373</identifier>
      <datestamp>2017-02-09T23:21:07Z</datestamp>
      <setSpec>user-biosyslit</setSpec>
    </header>
    <header>
      <identifier>oai:zenodo.org:289374</identifier>
      <datestamp>2017-02-09T23:21:09Z</datestamp>
      <setSpec>user-biosyslit</setSpec>
    </header>
    <header>
      <identifier>oai:zenodo.org:289375</identifier>
      <datestamp>2017-02-09T23:21:11Z</datestamp>
      <setSpec>user-biosyslit</setSpec>
    </header>
    <header>
      <identifier>oai:zenodo.org:289366</identifier>
      <datestamp>2017-02-09T23:20:51Z</datestamp>
      <setSpec>user-biosyslit</setSpec>
    </header>
    <resumptionToken expirationDate="2017-08-31T15:47:31Z" cursor="65000" completeListSize="77796">.eJyNyk0LgjAYAOD_8p4l9mEqQpewxEPKWhvqJUxFrPWBK9SF_z0vnev8PG_QdV2BjxaOZ2OKbWp7jktsj1qgy-6u1LGdGcpUqvKmRBHK1_4qUUYaNw70sAsyGpsLSq7Y8C0jKfYG0aKRHcQzM_tB0qjnaOPuDBvjczS_iiahyk_hg4vbWnFSdcmGjRyveU7L78N_PvPzBXoFFjyKpgbfWRILLn3RNRr89zR9AJ4zUUA.DInAmw.6B-NBytuJ8aVfjFXbHN1ivFAghw</resumptionToken>
  </ListIdentifiers>
</OAI-PMH>
