<?xml version='1.0' encoding='UTF-8'?>
<?xml-stylesheet type="text/xsl" href="/static/xsl/oai2.v1.0.xsl"?>
<OAI-PMH xmlns="http://www.openarchives.org/OAI/2.0/" xmlns:xsi="http://www.w3.org/2001/XMLSchema-instance" xsi:schemaLocation="http://www.openarchives.org/OAI/2.0/ http://www.openarchives.org/OAI/2.0/OAI-PMH.xsd">
  <responseDate>2017-08-31T15:45:47Z</responseDate>
  <request verb="ListIdentifiers" resumptionToken=".eJyNyssKgkAUANB_uWuJeeQjoY1o0iJFJ0XdhKlIOZY4hTriv-emda3PmUFUVQkm2mgqUqmmamRLMDF2VAFR9E_OL7eVoUhiXjx4lLvxO2xjlJJa92wxnuyUerJBfoslOwQkwcYY3dAUnKNXKsMxpseBIUc_yWDy7sf1ldR3eXZ1OxY9LM5I2ftOMDFssYwW34f_fPLns8UeFOjyugJTM1QFmiHvawHmvCwfmfJRQQ.DInAqw.PtelwLLLcOLhP_DnAFhKE_UMHso">https://zenodo.org/oai2d</request>
  <ListIdentifiers>
    <header>
      <identifier>oai:zenodo.org:240560</identifier>
      <datestamp>2017-01-12T10:20:26Z</datestamp>
      <setSpec>user-biosyslit</setSpec>
    </header>
    <header>
      <identifier>oai:zenodo.org:240566</identifier>
      <datestamp>2017-01-12T10:20:42Z</datestamp>
      <setSpec>user-biosyslit</setSpec>
    </header>
    <header>
      <identifier>oai:zenodo.org:242167</identifier>
      <datestamp>2017-01-13T11:38:07Z</datestamp>
      <setSpec>user-biosyslit</setSpec>
    </header>
    <header>
      <identifier>oai:zenodo.org:275106</identifier>
      <datestamp>2017-02-08T15:19:20Z</datestamp>
      <setSpec>user-biosyslit</setSpec>
    </header>
    <header>
      <identifier>oai:zenodo.org:240584</identifier>
      <datestamp>2017-01-12T10:21:29Z</datestamp>
      <setSpec>user-biosyslit</setSpec>
    </header>
    <header>
      <identifier>oai:zenodo.org:240588</identifier>
      <datestamp>2017-01-12T10:21:38Z</datestamp>
      <setSpec>user-biosyslit</setSpec>
    </header>
    <header>
      <identifier>oai:zenodo.org:240585</identifier>
      <datestamp>2017-01-12T10:21:32Z</datestamp>
      <setSpec>user-biosyslit</setSpec>
    </header>
    <header>
      <identifier>oai:zenodo.org:240586</identifier>
      <datestamp>2017-01-12T10:21:34Z</datestamp>
      <setSpec>user-biosyslit</setSpec>
    </header>
    <header>
      <identifier>oai:zenodo.org:254380</identifier>
      <datestamp>2017-01-20T18:19:00Z</datestamp>
      <setSpec>user-biosyslit</setSpec>
    </header>
    <header>
      <identifier>oai:zenodo.org:254377</identifier>
      <datestamp>2017-01-20T18:18:49Z</datestamp>
      <setSpec>user-biosyslit</setSpec>
    </header>
    <header>
      <identifier>oai:zenodo.org:254378</identifier>
      <datestamp>2017-01-20T18:18:54Z</datestamp>
      <setSpec>user-biosyslit</setSpec>
    </header>
    <header>
      <identifier>oai:zenodo.org:229507</identifier>
      <datestamp>2017-01-03T17:18:47Z</datestamp>
      <setSpec>user-biosyslit</setSpec>
    </header>
    <header>
      <identifier>oai:zenodo.org:229509</identifier>
      <datestamp>2017-01-03T17:18:57Z</datestamp>
      <setSpec>user-biosyslit</setSpec>
    </header>
    <header>
      <identifier>oai:zenodo.org:229508</identifier>
      <datestamp>2017-01-03T17:18:53Z</datestamp>
      <setSpec>user-biosyslit</setSpec>
    </header>
    <header>
      <identifier>oai:zenodo.org:246515</identifier>
      <datestamp>2017-01-16T03:13:31Z</datestamp>
      <setSpec>user-biosyslit</setSpec>
    </header>
    <header>
      <identifier>oai:zenodo.org:246507</identifier>
      <datestamp>2017-01-16T03:12:55Z</datestamp>
      <setSpec>user-biosyslit</setSpec>
    </header>
    <header>
      <identifier>oai:zenodo.org:246509</identifier>
      <datestamp>2017-01-16T03:13:04Z</datestamp>
      <setSpec>user-biosyslit</setSpec>
    </header>
    <header>
      <identifier>oai:zenodo.org:246511</identifier>
      <datestamp>2017-01-16T03:13:13Z</datestamp>
      <setSpec>user-biosyslit</setSpec>
    </header>
    <header>
      <identifier>oai:zenodo.org:246519</identifier>
      <datestamp>2017-01-16T03:13:50Z</datestamp>
      <setSpec>user-biosyslit</setSpec>
    </header>
    <header>
      <identifier>oai:zenodo.org:246512</identifier>
      <datestamp>2017-01-16T03:13:17Z</datestamp>
      <setSpec>user-biosyslit</setSpec>
    </header>
    <header>
      <identifier>oai:zenodo.org:246514</identifier>
      <datestamp>2017-01-16T03:13:26Z</datestamp>
      <setSpec>user-biosyslit</setSpec>
    </header>
    <header>
      <identifier>oai:zenodo.org:246516</identifier>
      <datestamp>2017-01-16T03:13:35Z</datestamp>
      <setSpec>user-biosyslit</setSpec>
    </header>
    <header>
      <identifier>oai:zenodo.org:246521</identifier>
      <datestamp>2017-01-16T03:14:00Z</datestamp>
      <setSpec>user-biosyslit</setSpec>
    </header>
    <header>
      <identifier>oai:zenodo.org:283080</identifier>
      <datestamp>2017-02-09T08:06:19Z</datestamp>
      <setSpec>user-biosyslit</setSpec>
    </header>
    <header>
      <identifier>oai:zenodo.org:283073</identifier>
      <datestamp>2017-02-09T08:06:03Z</datestamp>
      <setSpec>user-biosyslit</setSpec>
    </header>
    <header>
      <identifier>oai:zenodo.org:283068</identifier>
      <datestamp>2017-02-09T08:05:51Z</datestamp>
      <setSpec>user-biosyslit</setSpec>
    </header>
    <header>
      <identifier>oai:zenodo.org:283071</identifier>
      <datestamp>2017-02-09T08:05:58Z</datestamp>
      <setSpec>user-biosyslit</setSpec>
    </header>
    <header>
      <identifier>oai:zenodo.org:283076</identifier>
      <datestamp>2017-02-09T08:06:10Z</datestamp>
      <setSpec>user-biosyslit</setSpec>
    </header>
    <header>
      <identifier>oai:zenodo.org:283074</identifier>
      <datestamp>2017-02-09T08:06:06Z</datestamp>
      <setSpec>user-biosyslit</setSpec>
    </header>
    <header>
      <identifier>oai:zenodo.org:280140</identifier>
      <datestamp>2017-02-09T02:47:50Z</datestamp>
      <setSpec>user-biosyslit</setSpec>
    </header>
    <header>
      <identifier>oai:zenodo.org:244079</identifier>
      <datestamp>2017-01-14T16:03:05Z</datestamp>
      <setSpec>user-biosyslit</setSpec>
    </header>
    <header>
      <identifier>oai:zenodo.org:244080</identifier>
      <datestamp>2017-01-14T16:03:08Z</datestamp>
      <setSpec>user-biosyslit</setSpec>
    </header>
    <header>
      <identifier>oai:zenodo.org:244077</identifier>
      <datestamp>2017-01-14T16:02:59Z</datestamp>
      <setSpec>user-biosyslit</setSpec>
    </header>
    <header>
      <identifier>oai:zenodo.org:280143</identifier>
      <datestamp>2017-02-09T02:47:49Z</datestamp>
      <setSpec>user-biosyslit</setSpec>
    </header>
    <header>
      <identifier>oai:zenodo.org:280141</identifier>
      <datestamp>2017-02-09T02:47:44Z</datestamp>
      <setSpec>user-biosyslit</setSpec>
    </header>
    <header>
      <identifier>oai:zenodo.org:249343</identifier>
      <datestamp>2017-01-17T19:02:35Z</datestamp>
      <setSpec>user-biosyslit</setSpec>
    </header>
    <header>
      <identifier>oai:zenodo.org:249348</identifier>
      <datestamp>2017-01-17T19:02:53Z</datestamp>
      <setSpec>user-biosyslit</setSpec>
    </header>
    <header>
      <identifier>oai:zenodo.org:249345</identifier>
      <datestamp>2017-01-17T19:02:43Z</datestamp>
      <setSpec>user-biosyslit</setSpec>
    </header>
    <header>
      <identifier>oai:zenodo.org:249347</identifier>
      <datestamp>2017-01-17T19:02:50Z</datestamp>
      <setSpec>user-biosyslit</setSpec>
    </header>
    <header>
      <identifier>oai:zenodo.org:249354</identifier>
      <datestamp>2017-01-17T19:03:11Z</datestamp>
      <setSpec>user-biosyslit</setSpec>
    </header>
    <header>
      <identifier>oai:zenodo.org:249358</identifier>
      <datestamp>2017-01-17T19:03:22Z</datestamp>
      <setSpec>user-biosyslit</setSpec>
    </header>
    <header>
      <identifier>oai:zenodo.org:249356</identifier>
      <datestamp>2017-01-17T19:03:17Z</datestamp>
      <setSpec>user-biosyslit</setSpec>
    </header>
    <header>
      <identifier>oai:zenodo.org:249350</identifier>
      <datestamp>2017-01-17T19:02:59Z</datestamp>
      <setSpec>user-biosyslit</setSpec>
    </header>
    <header>
      <identifier>oai:zenodo.org:249352</identifier>
      <datestamp>2017-01-17T19:03:06Z</datestamp>
      <setSpec>user-biosyslit</setSpec>
    </header>
    <header>
      <identifier>oai:zenodo.org:283119</identifier>
      <datestamp>2017-02-09T08:11:44Z</datestamp>
      <setSpec>user-biosyslit</setSpec>
    </header>
    <header>
      <identifier>oai:zenodo.org:234520</identifier>
      <datestamp>2017-01-08T21:11:45Z</datestamp>
      <setSpec>user-biosyslit</setSpec>
    </header>
    <header>
      <identifier>oai:zenodo.org:234522</identifier>
      <datestamp>2017-01-08T21:11:53Z</datestamp>
      <setSpec>user-biosyslit</setSpec>
    </header>
    <header>
      <identifier>oai:zenodo.org:234524</identifier>
      <datestamp>2017-01-08T21:12:00Z</datestamp>
      <setSpec>user-biosyslit</setSpec>
    </header>
    <header>
      <identifier>oai:zenodo.org:234530</identifier>
      <datestamp>2017-01-08T21:12:24Z</datestamp>
      <setSpec>user-biosyslit</setSpec>
    </header>
    <header>
      <identifier>oai:zenodo.org:234518</identifier>
      <datestamp>2017-01-08T21:11:38Z</datestamp>
      <setSpec>user-biosyslit</setSpec>
    </header>
    <header>
      <identifier>oai:zenodo.org:277997</identifier>
      <datestamp>2017-02-08T22:13:52Z</datestamp>
      <setSpec>user-biosyslit</setSpec>
    </header>
    <header>
      <identifier>oai:zenodo.org:277996</identifier>
      <datestamp>2017-02-08T22:13:50Z</datestamp>
      <setSpec>user-biosyslit</setSpec>
    </header>
    <header>
      <identifier>oai:zenodo.org:277999</identifier>
      <datestamp>2017-02-08T22:13:59Z</datestamp>
      <setSpec>user-biosyslit</setSpec>
    </header>
    <header>
      <identifier>oai:zenodo.org:286022</identifier>
      <datestamp>2017-02-09T15:05:20Z</datestamp>
      <setSpec>user-biosyslit</setSpec>
    </header>
    <header>
      <identifier>oai:zenodo.org:232413</identifier>
      <datestamp>2017-01-06T17:15:51Z</datestamp>
      <setSpec>user-biosyslit</setSpec>
    </header>
    <header>
      <identifier>oai:zenodo.org:286023</identifier>
      <datestamp>2017-02-09T15:05:11Z</datestamp>
      <setSpec>user-biosyslit</setSpec>
    </header>
    <header>
      <identifier>oai:zenodo.org:232414</identifier>
      <datestamp>2017-01-06T17:15:55Z</datestamp>
      <setSpec>user-biosyslit</setSpec>
    </header>
    <header>
      <identifier>oai:zenodo.org:252168</identifier>
      <datestamp>2017-01-19T10:07:21Z</datestamp>
      <setSpec>user-biosyslit</setSpec>
    </header>
    <header>
      <identifier>oai:zenodo.org:252166</identifier>
      <datestamp>2017-01-19T10:07:14Z</datestamp>
      <setSpec>user-biosyslit</setSpec>
    </header>
    <header>
      <identifier>oai:zenodo.org:232419</identifier>
      <datestamp>2017-01-06T17:16:12Z</datestamp>
      <setSpec>user-biosyslit</setSpec>
    </header>
    <header>
      <identifier>oai:zenodo.org:284038</identifier>
      <datestamp>2017-02-09T10:18:16Z</datestamp>
      <setSpec>user-biosyslit</setSpec>
    </header>
    <header>
      <identifier>oai:zenodo.org:284066</identifier>
      <datestamp>2017-02-09T10:18:08Z</datestamp>
      <setSpec>user-biosyslit</setSpec>
    </header>
    <header>
      <identifier>oai:zenodo.org:284060</identifier>
      <datestamp>2017-02-09T10:17:42Z</datestamp>
      <setSpec>user-biosyslit</setSpec>
    </header>
    <header>
      <identifier>oai:zenodo.org:284062</identifier>
      <datestamp>2017-02-09T10:17:52Z</datestamp>
      <setSpec>user-biosyslit</setSpec>
    </header>
    <header>
      <identifier>oai:zenodo.org:284069</identifier>
      <datestamp>2017-02-09T10:18:15Z</datestamp>
      <setSpec>user-biosyslit</setSpec>
    </header>
    <header>
      <identifier>oai:zenodo.org:284063</identifier>
      <datestamp>2017-02-09T10:17:54Z</datestamp>
      <setSpec>user-biosyslit</setSpec>
    </header>
    <header>
      <identifier>oai:zenodo.org:284067</identifier>
      <datestamp>2017-02-09T10:18:10Z</datestamp>
      <setSpec>user-biosyslit</setSpec>
    </header>
    <header>
      <identifier>oai:zenodo.org:284061</identifier>
      <datestamp>2017-02-09T10:17:44Z</datestamp>
      <setSpec>user-biosyslit</setSpec>
    </header>
    <header>
      <identifier>oai:zenodo.org:284065</identifier>
      <datestamp>2017-02-09T10:18:05Z</datestamp>
      <setSpec>user-biosyslit</setSpec>
    </header>
    <header>
      <identifier>oai:zenodo.org:244340</identifier>
      <datestamp>2017-01-14T20:15:02Z</datestamp>
      <setSpec>user-biosyslit</setSpec>
    </header>
    <header>
      <identifier>oai:zenodo.org:244334</identifier>
      <datestamp>2017-01-14T20:14:35Z</datestamp>
      <setSpec>user-biosyslit</setSpec>
    </header>
    <header>
      <identifier>oai:zenodo.org:244333</identifier>
      <datestamp>2017-01-14T20:14:32Z</datestamp>
      <setSpec>user-biosyslit</setSpec>
    </header>
    <header>
      <identifier>oai:zenodo.org:244336</identifier>
      <datestamp>2017-01-14T20:14:42Z</datestamp>
      <setSpec>user-biosyslit</setSpec>
    </header>
    <header>
      <identifier>oai:zenodo.org:244335</identifier>
      <datestamp>2017-01-14T20:14:38Z</datestamp>
      <setSpec>user-biosyslit</setSpec>
    </header>
    <header>
      <identifier>oai:zenodo.org:244339</identifier>
      <datestamp>2017-01-14T20:14:59Z</datestamp>
      <setSpec>user-biosyslit</setSpec>
    </header>
    <header>
      <identifier>oai:zenodo.org:244338</identifier>
      <datestamp>2017-01-14T20:14:54Z</datestamp>
      <setSpec>user-biosyslit</setSpec>
    </header>
    <header>
      <identifier>oai:zenodo.org:284445</identifier>
      <datestamp>2017-02-09T11:14:09Z</datestamp>
      <setSpec>user-biosyslit</setSpec>
    </header>
    <header>
      <identifier>oai:zenodo.org:284437</identifier>
      <datestamp>2017-02-09T11:13:50Z</datestamp>
      <setSpec>user-biosyslit</setSpec>
    </header>
    <header>
      <identifier>oai:zenodo.org:284435</identifier>
      <datestamp>2017-02-09T11:13:45Z</datestamp>
      <setSpec>user-biosyslit</setSpec>
    </header>
    <header>
      <identifier>oai:zenodo.org:284431</identifier>
      <datestamp>2017-02-09T11:13:35Z</datestamp>
      <setSpec>user-biosyslit</setSpec>
    </header>
    <header>
      <identifier>oai:zenodo.org:284443</identifier>
      <datestamp>2017-02-09T11:14:04Z</datestamp>
      <setSpec>user-biosyslit</setSpec>
    </header>
    <header>
      <identifier>oai:zenodo.org:284440</identifier>
      <datestamp>2017-02-09T11:13:57Z</datestamp>
      <setSpec>user-biosyslit</setSpec>
    </header>
    <header>
      <identifier>oai:zenodo.org:284438</identifier>
      <datestamp>2017-02-09T11:13:52Z</datestamp>
      <setSpec>user-biosyslit</setSpec>
    </header>
    <header>
      <identifier>oai:zenodo.org:284442</identifier>
      <datestamp>2017-02-09T11:14:01Z</datestamp>
      <setSpec>user-biosyslit</setSpec>
    </header>
    <header>
      <identifier>oai:zenodo.org:284432</identifier>
      <datestamp>2017-02-09T11:13:37Z</datestamp>
      <setSpec>user-biosyslit</setSpec>
    </header>
    <header>
      <identifier>oai:zenodo.org:246182</identifier>
      <datestamp>2017-01-15T23:05:39Z</datestamp>
      <setSpec>user-biosyslit</setSpec>
    </header>
    <header>
      <identifier>oai:zenodo.org:246211</identifier>
      <datestamp>2017-01-15T23:05:17Z</datestamp>
      <setSpec>user-biosyslit</setSpec>
    </header>
    <header>
      <identifier>oai:zenodo.org:246217</identifier>
      <datestamp>2017-01-15T23:05:37Z</datestamp>
      <setSpec>user-biosyslit</setSpec>
    </header>
    <header>
      <identifier>oai:zenodo.org:273382</identifier>
      <datestamp>2017-02-08T09:08:46Z</datestamp>
      <setSpec>user-biosyslit</setSpec>
    </header>
    <header>
      <identifier>oai:zenodo.org:273383</identifier>
      <datestamp>2017-02-08T09:08:48Z</datestamp>
      <setSpec>user-biosyslit</setSpec>
    </header>
    <header>
      <identifier>oai:zenodo.org:240122</identifier>
      <datestamp>2017-01-12T04:59:00Z</datestamp>
      <setSpec>user-biosyslit</setSpec>
    </header>
    <header>
      <identifier>oai:zenodo.org:243201</identifier>
      <datestamp>2017-01-14T00:37:49Z</datestamp>
      <setSpec>user-biosyslit</setSpec>
    </header>
    <header>
      <identifier>oai:zenodo.org:240124</identifier>
      <datestamp>2017-01-12T04:58:20Z</datestamp>
      <setSpec>user-biosyslit</setSpec>
    </header>
    <header>
      <identifier>oai:zenodo.org:240133</identifier>
      <datestamp>2017-01-12T04:58:55Z</datestamp>
      <setSpec>user-biosyslit</setSpec>
    </header>
    <header>
      <identifier>oai:zenodo.org:240127</identifier>
      <datestamp>2017-01-12T04:58:35Z</datestamp>
      <setSpec>user-biosyslit</setSpec>
    </header>
    <header>
      <identifier>oai:zenodo.org:240126</identifier>
      <datestamp>2017-01-12T04:58:28Z</datestamp>
      <setSpec>user-biosyslit</setSpec>
    </header>
    <header>
      <identifier>oai:zenodo.org:240129</identifier>
      <datestamp>2017-01-12T04:58:42Z</datestamp>
      <setSpec>user-biosyslit</setSpec>
    </header>
    <header>
      <identifier>oai:zenodo.org:240131</identifier>
      <datestamp>2017-01-12T04:58:48Z</datestamp>
      <setSpec>user-biosyslit</setSpec>
    </header>
    <header>
      <identifier>oai:zenodo.org:240132</identifier>
      <datestamp>2017-01-12T04:58:52Z</datestamp>
      <setSpec>user-biosyslit</setSpec>
    </header>
    <header>
      <identifier>oai:zenodo.org:243569</identifier>
      <datestamp>2017-01-14T07:41:29Z</datestamp>
      <setSpec>user-biosyslit</setSpec>
    </header>
    <resumptionToken expirationDate="2017-08-31T15:47:47Z" cursor="68400" completeListSize="77796">.eJyNyj0LgkAYAOD_8s4S94GeCS1hiYOKXh7pEqYi5mniFelF_72W5pqf5wmqritw0IqYmBJqMWqumYlsYoAqp6uUp_bDUB6FLAeZFp64J71AGWlY6Ko5cDMa6g5FPdZ8H5Mjtue0RUt8SG-ZTmZB_QdHOxboeAkv_udVNPJkfvZGng5byUk1Rbt44XjLc1p-H_7z6Z_PVRswYCyaGhzLtgzoHsXUKHCer9cbmsVRQw.DInAqw.7IsNkp2n_hZOivI0GDPdHxf4qPk</resumptionToken>
  </ListIdentifiers>
</OAI-PMH>
