<?xml version='1.0' encoding='UTF-8'?>
<?xml-stylesheet type="text/xsl" href="/static/xsl/oai2.v1.0.xsl"?>
<OAI-PMH xmlns="http://www.openarchives.org/OAI/2.0/" xmlns:xsi="http://www.w3.org/2001/XMLSchema-instance" xsi:schemaLocation="http://www.openarchives.org/OAI/2.0/ http://www.openarchives.org/OAI/2.0/OAI-PMH.xsd">
  <responseDate>2017-08-31T15:41:58Z</responseDate>
  <request verb="ListIdentifiers" resumptionToken=".eJyNyk0LgjAYAOD_8p4l9lHMhC6hSQcVXY70EjZFrFnhCnXif69L5zo_zwS6qkpw0GKFMFkzuiQMrRjBzAItu7tSp-bDII9CyZtKC1-8klagjNQsdPUQuBkNzRVFLTZ8F5Mjtoe0QWN8SJ-ZSQZB9z1HHgtMPIaX_eeVNPJVfvYfPL1tFSdlF3nxyPGW51R-H_7zmZ_P1Ruw4FHUFTh4aVtw7Yuu1uBM8_wGlO1RNg.DIm_xg.N0QllRtFCYuAeA7UU_MulIKwBH8">https://zenodo.org/oai2d</request>
  <ListIdentifiers>
    <header>
      <identifier>oai:zenodo.org:227146</identifier>
      <datestamp>2017-01-01T17:30:39Z</datestamp>
      <setSpec>user-biosyslit</setSpec>
    </header>
    <header>
      <identifier>oai:zenodo.org:228382</identifier>
      <datestamp>2017-01-02T23:20:47Z</datestamp>
      <setSpec>user-biosyslit</setSpec>
    </header>
    <header>
      <identifier>oai:zenodo.org:228989</identifier>
      <datestamp>2017-01-03T08:10:31Z</datestamp>
      <setSpec>user-biosyslit</setSpec>
    </header>
    <header>
      <identifier>oai:zenodo.org:227635</identifier>
      <datestamp>2017-01-02T01:11:46Z</datestamp>
      <setSpec>user-biosyslit</setSpec>
    </header>
    <header>
      <identifier>oai:zenodo.org:228121</identifier>
      <datestamp>2017-01-02T10:58:13Z</datestamp>
      <setSpec>user-biosyslit</setSpec>
    </header>
    <header>
      <identifier>oai:zenodo.org:288905</identifier>
      <datestamp>2017-02-09T22:07:51Z</datestamp>
      <setSpec>user-biosyslit</setSpec>
    </header>
    <header>
      <identifier>oai:zenodo.org:227851</identifier>
      <datestamp>2017-01-02T05:54:04Z</datestamp>
      <setSpec>user-biosyslit</setSpec>
    </header>
    <header>
      <identifier>oai:zenodo.org:495908</identifier>
      <datestamp>2017-04-28T10:57:47Z</datestamp>
      <setSpec>openaire</setSpec>
      <setSpec>user-biosyslit</setSpec>
    </header>
    <header>
      <identifier>oai:zenodo.org:227936</identifier>
      <datestamp>2017-01-02T07:30:45Z</datestamp>
      <setSpec>user-biosyslit</setSpec>
    </header>
    <header>
      <identifier>oai:zenodo.org:229144</identifier>
      <datestamp>2017-01-03T11:05:33Z</datestamp>
      <setSpec>user-biosyslit</setSpec>
    </header>
    <header>
      <identifier>oai:zenodo.org:230021</identifier>
      <datestamp>2017-01-04T17:37:54Z</datestamp>
      <setSpec>user-biosyslit</setSpec>
    </header>
    <header>
      <identifier>oai:zenodo.org:228547</identifier>
      <datestamp>2017-01-03T01:15:09Z</datestamp>
      <setSpec>user-biosyslit</setSpec>
    </header>
    <header>
      <identifier>oai:zenodo.org:228498</identifier>
      <datestamp>2017-01-03T00:32:00Z</datestamp>
      <setSpec>user-biosyslit</setSpec>
    </header>
    <header>
      <identifier>oai:zenodo.org:228299</identifier>
      <datestamp>2017-01-02T21:31:35Z</datestamp>
      <setSpec>user-biosyslit</setSpec>
    </header>
    <header>
      <identifier>oai:zenodo.org:229995</identifier>
      <datestamp>2017-01-04T17:04:59Z</datestamp>
      <setSpec>user-biosyslit</setSpec>
    </header>
    <header>
      <identifier>oai:zenodo.org:495909</identifier>
      <datestamp>2017-04-28T10:57:46Z</datestamp>
      <setSpec>openaire</setSpec>
      <setSpec>user-biosyslit</setSpec>
    </header>
    <header>
      <identifier>oai:zenodo.org:227816</identifier>
      <datestamp>2017-01-02T05:31:01Z</datestamp>
      <setSpec>user-biosyslit</setSpec>
    </header>
    <header>
      <identifier>oai:zenodo.org:229211</identifier>
      <datestamp>2017-01-03T12:25:36Z</datestamp>
      <setSpec>user-biosyslit</setSpec>
    </header>
    <header>
      <identifier>oai:zenodo.org:228478</identifier>
      <datestamp>2017-01-03T00:22:15Z</datestamp>
      <setSpec>user-biosyslit</setSpec>
    </header>
    <header>
      <identifier>oai:zenodo.org:288618</identifier>
      <datestamp>2017-02-09T21:34:59Z</datestamp>
      <setSpec>user-biosyslit</setSpec>
    </header>
    <header>
      <identifier>oai:zenodo.org:229036</identifier>
      <datestamp>2017-01-03T08:38:05Z</datestamp>
      <setSpec>user-biosyslit</setSpec>
    </header>
    <header>
      <identifier>oai:zenodo.org:229206</identifier>
      <datestamp>2017-01-03T12:25:24Z</datestamp>
      <setSpec>user-biosyslit</setSpec>
    </header>
    <header>
      <identifier>oai:zenodo.org:269761</identifier>
      <datestamp>2017-02-07T20:17:34Z</datestamp>
      <setSpec>user-biosyslit</setSpec>
    </header>
    <header>
      <identifier>oai:zenodo.org:228499</identifier>
      <datestamp>2017-01-03T00:32:03Z</datestamp>
      <setSpec>user-biosyslit</setSpec>
    </header>
    <header>
      <identifier>oai:zenodo.org:228390</identifier>
      <datestamp>2017-01-02T23:20:35Z</datestamp>
      <setSpec>user-biosyslit</setSpec>
    </header>
    <header>
      <identifier>oai:zenodo.org:229476</identifier>
      <datestamp>2017-01-03T16:33:59Z</datestamp>
      <setSpec>user-biosyslit</setSpec>
    </header>
    <header>
      <identifier>oai:zenodo.org:228845</identifier>
      <datestamp>2017-01-03T05:47:35Z</datestamp>
      <setSpec>user-biosyslit</setSpec>
    </header>
    <header>
      <identifier>oai:zenodo.org:228781</identifier>
      <datestamp>2017-01-03T04:54:47Z</datestamp>
      <setSpec>user-biosyslit</setSpec>
    </header>
    <header>
      <identifier>oai:zenodo.org:230218</identifier>
      <datestamp>2017-01-04T21:16:36Z</datestamp>
      <setSpec>user-biosyslit</setSpec>
    </header>
    <header>
      <identifier>oai:zenodo.org:228639</identifier>
      <datestamp>2017-01-03T02:48:16Z</datestamp>
      <setSpec>user-biosyslit</setSpec>
    </header>
    <header>
      <identifier>oai:zenodo.org:229221</identifier>
      <datestamp>2017-01-03T12:38:15Z</datestamp>
      <setSpec>user-biosyslit</setSpec>
    </header>
    <header>
      <identifier>oai:zenodo.org:269822</identifier>
      <datestamp>2017-02-07T20:26:56Z</datestamp>
      <setSpec>user-biosyslit</setSpec>
    </header>
    <header>
      <identifier>oai:zenodo.org:230122</identifier>
      <datestamp>2017-01-04T19:30:26Z</datestamp>
      <setSpec>user-biosyslit</setSpec>
    </header>
    <header>
      <identifier>oai:zenodo.org:229844</identifier>
      <datestamp>2017-01-04T08:03:41Z</datestamp>
      <setSpec>user-biosyslit</setSpec>
    </header>
    <header>
      <identifier>oai:zenodo.org:269893</identifier>
      <datestamp>2017-02-07T20:39:45Z</datestamp>
      <setSpec>user-biosyslit</setSpec>
    </header>
    <header>
      <identifier>oai:zenodo.org:229544</identifier>
      <datestamp>2017-01-03T17:55:48Z</datestamp>
      <setSpec>user-biosyslit</setSpec>
    </header>
    <header>
      <identifier>oai:zenodo.org:289687</identifier>
      <datestamp>2017-02-10T00:11:00Z</datestamp>
      <setSpec>user-biosyslit</setSpec>
    </header>
    <header>
      <identifier>oai:zenodo.org:270007</identifier>
      <datestamp>2017-02-07T21:59:53Z</datestamp>
      <setSpec>user-biosyslit</setSpec>
    </header>
    <header>
      <identifier>oai:zenodo.org:229391</identifier>
      <datestamp>2017-01-03T15:15:18Z</datestamp>
      <setSpec>user-biosyslit</setSpec>
    </header>
    <header>
      <identifier>oai:zenodo.org:230775</identifier>
      <datestamp>2017-01-05T07:59:51Z</datestamp>
      <setSpec>user-biosyslit</setSpec>
    </header>
    <header>
      <identifier>oai:zenodo.org:230702</identifier>
      <datestamp>2017-01-05T07:00:00Z</datestamp>
      <setSpec>user-biosyslit</setSpec>
    </header>
    <header>
      <identifier>oai:zenodo.org:229840</identifier>
      <datestamp>2017-01-04T07:58:09Z</datestamp>
      <setSpec>user-biosyslit</setSpec>
    </header>
    <header>
      <identifier>oai:zenodo.org:230152</identifier>
      <datestamp>2017-01-04T20:26:36Z</datestamp>
      <setSpec>user-biosyslit</setSpec>
    </header>
    <header>
      <identifier>oai:zenodo.org:229996</identifier>
      <datestamp>2017-01-04T17:04:44Z</datestamp>
      <setSpec>user-biosyslit</setSpec>
    </header>
    <header>
      <identifier>oai:zenodo.org:230239</identifier>
      <datestamp>2017-01-04T21:37:08Z</datestamp>
      <setSpec>user-biosyslit</setSpec>
    </header>
    <header>
      <identifier>oai:zenodo.org:229999</identifier>
      <datestamp>2017-01-04T17:04:52Z</datestamp>
      <setSpec>user-biosyslit</setSpec>
    </header>
    <header>
      <identifier>oai:zenodo.org:230801</identifier>
      <datestamp>2017-01-05T08:34:24Z</datestamp>
      <setSpec>user-biosyslit</setSpec>
    </header>
    <header>
      <identifier>oai:zenodo.org:231542</identifier>
      <datestamp>2017-01-06T03:40:29Z</datestamp>
      <setSpec>user-biosyslit</setSpec>
    </header>
    <header>
      <identifier>oai:zenodo.org:230005</identifier>
      <datestamp>2017-01-04T17:37:06Z</datestamp>
      <setSpec>user-biosyslit</setSpec>
    </header>
    <header>
      <identifier>oai:zenodo.org:270025</identifier>
      <datestamp>2017-02-07T22:08:46Z</datestamp>
      <setSpec>user-biosyslit</setSpec>
    </header>
    <header>
      <identifier>oai:zenodo.org:231879</identifier>
      <datestamp>2017-01-06T08:16:34Z</datestamp>
      <setSpec>user-biosyslit</setSpec>
    </header>
    <header>
      <identifier>oai:zenodo.org:230515</identifier>
      <datestamp>2017-01-05T02:22:53Z</datestamp>
      <setSpec>user-biosyslit</setSpec>
    </header>
    <header>
      <identifier>oai:zenodo.org:231693</identifier>
      <datestamp>2017-01-06T06:04:34Z</datestamp>
      <setSpec>user-biosyslit</setSpec>
    </header>
    <header>
      <identifier>oai:zenodo.org:230737</identifier>
      <datestamp>2017-01-05T07:37:27Z</datestamp>
      <setSpec>user-biosyslit</setSpec>
    </header>
    <header>
      <identifier>oai:zenodo.org:231478</identifier>
      <datestamp>2017-01-06T02:30:24Z</datestamp>
      <setSpec>user-biosyslit</setSpec>
    </header>
    <header>
      <identifier>oai:zenodo.org:231172</identifier>
      <datestamp>2017-01-05T16:58:26Z</datestamp>
      <setSpec>user-biosyslit</setSpec>
    </header>
    <header>
      <identifier>oai:zenodo.org:270111</identifier>
      <datestamp>2017-02-07T22:32:20Z</datestamp>
      <setSpec>user-biosyslit</setSpec>
    </header>
    <header>
      <identifier>oai:zenodo.org:231503</identifier>
      <datestamp>2017-01-06T03:05:20Z</datestamp>
      <setSpec>user-biosyslit</setSpec>
    </header>
    <header>
      <identifier>oai:zenodo.org:269879</identifier>
      <datestamp>2017-02-07T20:38:03Z</datestamp>
      <setSpec>user-biosyslit</setSpec>
    </header>
    <header>
      <identifier>oai:zenodo.org:269878</identifier>
      <datestamp>2017-02-07T20:38:00Z</datestamp>
      <setSpec>user-biosyslit</setSpec>
    </header>
    <header>
      <identifier>oai:zenodo.org:270458</identifier>
      <datestamp>2017-02-07T23:16:25Z</datestamp>
      <setSpec>user-biosyslit</setSpec>
    </header>
    <header>
      <identifier>oai:zenodo.org:231096</identifier>
      <datestamp>2017-01-05T14:22:10Z</datestamp>
      <setSpec>user-biosyslit</setSpec>
    </header>
    <header>
      <identifier>oai:zenodo.org:232005</identifier>
      <datestamp>2017-01-06T10:08:11Z</datestamp>
      <setSpec>user-biosyslit</setSpec>
    </header>
    <header>
      <identifier>oai:zenodo.org:269934</identifier>
      <datestamp>2017-02-07T20:44:31Z</datestamp>
      <setSpec>user-biosyslit</setSpec>
    </header>
    <header>
      <identifier>oai:zenodo.org:231952</identifier>
      <datestamp>2017-01-06T09:14:57Z</datestamp>
      <setSpec>user-biosyslit</setSpec>
    </header>
    <header>
      <identifier>oai:zenodo.org:270249</identifier>
      <datestamp>2017-02-07T22:53:24Z</datestamp>
      <setSpec>user-biosyslit</setSpec>
    </header>
    <header>
      <identifier>oai:zenodo.org:231856</identifier>
      <datestamp>2017-01-06T07:59:22Z</datestamp>
      <setSpec>user-biosyslit</setSpec>
    </header>
    <header>
      <identifier>oai:zenodo.org:270289</identifier>
      <datestamp>2017-02-07T22:57:37Z</datestamp>
      <setSpec>user-biosyslit</setSpec>
    </header>
    <header>
      <identifier>oai:zenodo.org:271311</identifier>
      <datestamp>2017-02-08T01:18:20Z</datestamp>
      <setSpec>user-biosyslit</setSpec>
    </header>
    <header>
      <identifier>oai:zenodo.org:287285</identifier>
      <datestamp>2017-02-09T17:59:43Z</datestamp>
      <setSpec>user-biosyslit</setSpec>
    </header>
    <header>
      <identifier>oai:zenodo.org:287138</identifier>
      <datestamp>2017-02-09T17:31:34Z</datestamp>
      <setSpec>user-biosyslit</setSpec>
    </header>
    <header>
      <identifier>oai:zenodo.org:287840</identifier>
      <datestamp>2017-02-09T19:25:12Z</datestamp>
      <setSpec>user-biosyslit</setSpec>
    </header>
    <header>
      <identifier>oai:zenodo.org:287238</identifier>
      <datestamp>2017-02-09T17:52:49Z</datestamp>
      <setSpec>user-biosyslit</setSpec>
    </header>
    <header>
      <identifier>oai:zenodo.org:287914</identifier>
      <datestamp>2017-02-09T19:36:04Z</datestamp>
      <setSpec>user-biosyslit</setSpec>
    </header>
    <header>
      <identifier>oai:zenodo.org:287761</identifier>
      <datestamp>2017-02-09T19:12:23Z</datestamp>
      <setSpec>user-biosyslit</setSpec>
    </header>
    <header>
      <identifier>oai:zenodo.org:287366</identifier>
      <datestamp>2017-02-09T18:10:01Z</datestamp>
      <setSpec>user-biosyslit</setSpec>
    </header>
    <header>
      <identifier>oai:zenodo.org:288052</identifier>
      <datestamp>2017-02-09T19:55:21Z</datestamp>
      <setSpec>user-biosyslit</setSpec>
    </header>
    <header>
      <identifier>oai:zenodo.org:288115</identifier>
      <datestamp>2017-02-09T20:03:05Z</datestamp>
      <setSpec>user-biosyslit</setSpec>
    </header>
    <header>
      <identifier>oai:zenodo.org:289741</identifier>
      <datestamp>2017-02-10T00:23:09Z</datestamp>
      <setSpec>user-biosyslit</setSpec>
    </header>
    <header>
      <identifier>oai:zenodo.org:288902</identifier>
      <datestamp>2017-02-09T22:07:44Z</datestamp>
      <setSpec>user-biosyslit</setSpec>
    </header>
    <header>
      <identifier>oai:zenodo.org:288509</identifier>
      <datestamp>2017-02-09T21:04:52Z</datestamp>
      <setSpec>user-biosyslit</setSpec>
    </header>
    <header>
      <identifier>oai:zenodo.org:289248</identifier>
      <datestamp>2017-02-09T23:03:49Z</datestamp>
      <setSpec>user-biosyslit</setSpec>
    </header>
    <header>
      <identifier>oai:zenodo.org:227057</identifier>
      <datestamp>2017-01-01T09:00:17Z</datestamp>
      <setSpec>user-biosyslit</setSpec>
    </header>
    <header>
      <identifier>oai:zenodo.org:227491</identifier>
      <datestamp>2017-01-01T22:13:39Z</datestamp>
      <setSpec>user-biosyslit</setSpec>
    </header>
    <header>
      <identifier>oai:zenodo.org:227773</identifier>
      <datestamp>2017-01-02T04:24:29Z</datestamp>
      <setSpec>user-biosyslit</setSpec>
    </header>
    <header>
      <identifier>oai:zenodo.org:227217</identifier>
      <datestamp>2017-01-01T18:22:07Z</datestamp>
      <setSpec>user-biosyslit</setSpec>
    </header>
    <header>
      <identifier>oai:zenodo.org:227714</identifier>
      <datestamp>2017-01-02T02:33:50Z</datestamp>
      <setSpec>user-biosyslit</setSpec>
    </header>
    <header>
      <identifier>oai:zenodo.org:227661</identifier>
      <datestamp>2017-01-02T02:03:04Z</datestamp>
      <setSpec>user-biosyslit</setSpec>
    </header>
    <header>
      <identifier>oai:zenodo.org:227660</identifier>
      <datestamp>2017-01-02T02:03:02Z</datestamp>
      <setSpec>user-biosyslit</setSpec>
    </header>
    <header>
      <identifier>oai:zenodo.org:227774</identifier>
      <datestamp>2017-01-02T04:28:44Z</datestamp>
      <setSpec>user-biosyslit</setSpec>
    </header>
    <header>
      <identifier>oai:zenodo.org:227907</identifier>
      <datestamp>2017-01-02T06:37:46Z</datestamp>
      <setSpec>user-biosyslit</setSpec>
    </header>
    <header>
      <identifier>oai:zenodo.org:228862</identifier>
      <datestamp>2017-01-03T06:13:01Z</datestamp>
      <setSpec>user-biosyslit</setSpec>
    </header>
    <header>
      <identifier>oai:zenodo.org:227765</identifier>
      <datestamp>2017-01-02T04:17:00Z</datestamp>
      <setSpec>user-biosyslit</setSpec>
    </header>
    <header>
      <identifier>oai:zenodo.org:229617</identifier>
      <datestamp>2017-01-03T19:25:45Z</datestamp>
      <setSpec>user-biosyslit</setSpec>
    </header>
    <header>
      <identifier>oai:zenodo.org:275368</identifier>
      <datestamp>2017-02-08T16:10:06Z</datestamp>
      <setSpec>user-biosyslit</setSpec>
    </header>
    <header>
      <identifier>oai:zenodo.org:228865</identifier>
      <datestamp>2017-01-03T06:13:08Z</datestamp>
      <setSpec>user-biosyslit</setSpec>
    </header>
    <header>
      <identifier>oai:zenodo.org:228864</identifier>
      <datestamp>2017-01-03T06:13:04Z</datestamp>
      <setSpec>user-biosyslit</setSpec>
    </header>
    <header>
      <identifier>oai:zenodo.org:275489</identifier>
      <datestamp>2017-02-08T16:33:35Z</datestamp>
      <setSpec>user-biosyslit</setSpec>
    </header>
    <header>
      <identifier>oai:zenodo.org:228840</identifier>
      <datestamp>2017-01-03T05:47:19Z</datestamp>
      <setSpec>user-biosyslit</setSpec>
    </header>
    <header>
      <identifier>oai:zenodo.org:229304</identifier>
      <datestamp>2017-01-03T14:00:56Z</datestamp>
      <setSpec>user-biosyslit</setSpec>
    </header>
    <resumptionToken expirationDate="2017-08-31T15:43:58Z" cursor="14700" completeListSize="77796">.eJyNysEKgjAYAOB3-c8S_za1FLqEJR1UdCnpJUxFrGnhCnXSu9elc52_bwZZVSXYuEDTQEoJo6ijbumGqYEs-psQp-bjUBwTUXQizt3kGbUJprRe-o4cPSdlvrpi0BLFdyE9ktUYNziFh_iRqmhM2H7guF16Kpz8y_7zSha4Iju7dx53G8Fp2QfbcOJkwzNWfB_586mfz5Fr0OCe1xXYRLc0uA55X0uw59frDb1JUV4.DIm_xg.ePIM0yup8p122RXKgvTAXF_luqc</resumptionToken>
  </ListIdentifiers>
</OAI-PMH>
