<?xml version='1.0' encoding='UTF-8'?>
<?xml-stylesheet type="text/xsl" href="/static/xsl/oai2.v1.0.xsl"?>
<OAI-PMH xmlns="http://www.openarchives.org/OAI/2.0/" xmlns:xsi="http://www.w3.org/2001/XMLSchema-instance" xsi:schemaLocation="http://www.openarchives.org/OAI/2.0/ http://www.openarchives.org/OAI/2.0/OAI-PMH.xsd">
  <responseDate>2017-08-31T15:40:41Z</responseDate>
  <request verb="ListIdentifiers" resumptionToken=".eJwNj9FugjAAAP-lz2YpBURIfJAADkJLgNIBLwsryITqjGUBa_x3eb7LJfcEsuta4MAP04YWMnfI0pBtINPeAMnvf0J8n1cMeMkEv4qiObL_7MJghXqLeFIRL9QSOm5rnRsNE7IRUc6PLK6RNDIviosgurZKLtirdKL4I7loKg9SVGq7pTjDR0qLqVLZwvRwzqFvYXpAq6djeps4_C2IsE-YhRMefS3-wpCz9oH9yU2UP5OBr83D9qckIfPqU6mCPKaRS3JtIJ9ByQc3Tqmck3m_Bxtwa_oOOPo6Ns7NvZfAeb5eb4q5Uks.DIm_eQ.k_cql_3LDclHObALdijEfp-_I1E">https://zenodo.org/oai2d</request>
  <ListIdentifiers>
    <header>
      <identifier>oai:zenodo.org:251853</identifier>
      <datestamp>2017-01-19T05:21:40Z</datestamp>
      <setSpec>user-biosyslit</setSpec>
    </header>
    <header>
      <identifier>oai:zenodo.org:252203</identifier>
      <datestamp>2017-01-19T10:30:25Z</datestamp>
      <setSpec>user-biosyslit</setSpec>
    </header>
    <header>
      <identifier>oai:zenodo.org:275340</identifier>
      <datestamp>2017-02-08T16:07:55Z</datestamp>
      <setSpec>user-biosyslit</setSpec>
    </header>
    <header>
      <identifier>oai:zenodo.org:231465</identifier>
      <datestamp>2017-01-06T02:23:13Z</datestamp>
      <setSpec>user-biosyslit</setSpec>
    </header>
    <header>
      <identifier>oai:zenodo.org:231492</identifier>
      <datestamp>2017-01-06T02:46:32Z</datestamp>
      <setSpec>user-biosyslit</setSpec>
    </header>
    <header>
      <identifier>oai:zenodo.org:269141</identifier>
      <datestamp>2017-02-06T22:53:42Z</datestamp>
      <setSpec>user-biosyslit</setSpec>
    </header>
    <header>
      <identifier>oai:zenodo.org:269926</identifier>
      <datestamp>2017-02-07T20:44:13Z</datestamp>
      <setSpec>user-biosyslit</setSpec>
    </header>
    <header>
      <identifier>oai:zenodo.org:269592</identifier>
      <datestamp>2017-02-07T01:05:08Z</datestamp>
      <setSpec>user-biosyslit</setSpec>
    </header>
    <header>
      <identifier>oai:zenodo.org:269166</identifier>
      <datestamp>2017-02-06T22:54:33Z</datestamp>
      <setSpec>user-biosyslit</setSpec>
    </header>
    <header>
      <identifier>oai:zenodo.org:231068</identifier>
      <datestamp>2017-01-05T13:58:44Z</datestamp>
      <setSpec>user-biosyslit</setSpec>
    </header>
    <header>
      <identifier>oai:zenodo.org:269818</identifier>
      <datestamp>2017-02-07T20:26:46Z</datestamp>
      <setSpec>user-biosyslit</setSpec>
    </header>
    <header>
      <identifier>oai:zenodo.org:275610</identifier>
      <datestamp>2017-02-08T16:48:00Z</datestamp>
      <setSpec>user-biosyslit</setSpec>
    </header>
    <header>
      <identifier>oai:zenodo.org:275868</identifier>
      <datestamp>2017-02-08T17:16:54Z</datestamp>
      <setSpec>user-biosyslit</setSpec>
    </header>
    <header>
      <identifier>oai:zenodo.org:231567</identifier>
      <datestamp>2017-01-06T04:11:57Z</datestamp>
      <setSpec>user-biosyslit</setSpec>
    </header>
    <header>
      <identifier>oai:zenodo.org:230955</identifier>
      <datestamp>2017-01-05T11:43:56Z</datestamp>
      <setSpec>user-biosyslit</setSpec>
    </header>
    <header>
      <identifier>oai:zenodo.org:231450</identifier>
      <datestamp>2017-01-06T02:13:44Z</datestamp>
      <setSpec>user-biosyslit</setSpec>
    </header>
    <header>
      <identifier>oai:zenodo.org:274944</identifier>
      <datestamp>2017-02-08T14:55:02Z</datestamp>
      <setSpec>user-biosyslit</setSpec>
    </header>
    <header>
      <identifier>oai:zenodo.org:270814</identifier>
      <datestamp>2017-02-07T23:57:14Z</datestamp>
      <setSpec>user-biosyslit</setSpec>
    </header>
    <header>
      <identifier>oai:zenodo.org:269520</identifier>
      <datestamp>2017-02-07T00:44:39Z</datestamp>
      <setSpec>user-biosyslit</setSpec>
    </header>
    <header>
      <identifier>oai:zenodo.org:232202</identifier>
      <datestamp>2017-01-06T12:57:41Z</datestamp>
      <setSpec>user-biosyslit</setSpec>
    </header>
    <header>
      <identifier>oai:zenodo.org:275869</identifier>
      <datestamp>2017-02-08T17:16:56Z</datestamp>
      <setSpec>user-biosyslit</setSpec>
    </header>
    <header>
      <identifier>oai:zenodo.org:233038</identifier>
      <datestamp>2017-01-07T23:12:24Z</datestamp>
      <setSpec>user-biosyslit</setSpec>
    </header>
    <header>
      <identifier>oai:zenodo.org:233326</identifier>
      <datestamp>2017-01-08T03:33:04Z</datestamp>
      <setSpec>user-biosyslit</setSpec>
    </header>
    <header>
      <identifier>oai:zenodo.org:276102</identifier>
      <datestamp>2017-02-08T18:07:46Z</datestamp>
      <setSpec>user-biosyslit</setSpec>
    </header>
    <header>
      <identifier>oai:zenodo.org:269583</identifier>
      <datestamp>2017-02-07T01:03:13Z</datestamp>
      <setSpec>user-biosyslit</setSpec>
    </header>
    <header>
      <identifier>oai:zenodo.org:232698</identifier>
      <datestamp>2017-01-06T21:46:00Z</datestamp>
      <setSpec>user-biosyslit</setSpec>
    </header>
    <header>
      <identifier>oai:zenodo.org:234510</identifier>
      <datestamp>2017-01-08T20:57:05Z</datestamp>
      <setSpec>user-biosyslit</setSpec>
    </header>
    <header>
      <identifier>oai:zenodo.org:275537</identifier>
      <datestamp>2017-02-08T16:38:52Z</datestamp>
      <setSpec>user-biosyslit</setSpec>
    </header>
    <header>
      <identifier>oai:zenodo.org:275250</identifier>
      <datestamp>2017-02-08T15:48:19Z</datestamp>
      <setSpec>user-biosyslit</setSpec>
    </header>
    <header>
      <identifier>oai:zenodo.org:276498</identifier>
      <datestamp>2017-02-08T18:58:05Z</datestamp>
      <setSpec>user-biosyslit</setSpec>
    </header>
    <header>
      <identifier>oai:zenodo.org:233428</identifier>
      <datestamp>2017-01-08T04:52:06Z</datestamp>
      <setSpec>user-biosyslit</setSpec>
    </header>
    <header>
      <identifier>oai:zenodo.org:277179</identifier>
      <datestamp>2017-02-08T20:33:50Z</datestamp>
      <setSpec>user-biosyslit</setSpec>
    </header>
    <header>
      <identifier>oai:zenodo.org:276759</identifier>
      <datestamp>2017-02-08T19:37:57Z</datestamp>
      <setSpec>user-biosyslit</setSpec>
    </header>
    <header>
      <identifier>oai:zenodo.org:270534</identifier>
      <datestamp>2017-02-07T23:26:07Z</datestamp>
      <setSpec>user-biosyslit</setSpec>
    </header>
    <header>
      <identifier>oai:zenodo.org:234893</identifier>
      <datestamp>2017-01-09T03:13:31Z</datestamp>
      <setSpec>user-biosyslit</setSpec>
    </header>
    <header>
      <identifier>oai:zenodo.org:277625</identifier>
      <datestamp>2017-02-08T21:30:24Z</datestamp>
      <setSpec>user-biosyslit</setSpec>
    </header>
    <header>
      <identifier>oai:zenodo.org:234698</identifier>
      <datestamp>2017-01-09T00:02:55Z</datestamp>
      <setSpec>user-biosyslit</setSpec>
    </header>
    <header>
      <identifier>oai:zenodo.org:277812</identifier>
      <datestamp>2017-02-08T21:52:30Z</datestamp>
      <setSpec>user-biosyslit</setSpec>
    </header>
    <header>
      <identifier>oai:zenodo.org:235117</identifier>
      <datestamp>2017-01-09T05:44:33Z</datestamp>
      <setSpec>user-biosyslit</setSpec>
    </header>
    <header>
      <identifier>oai:zenodo.org:235112</identifier>
      <datestamp>2017-01-09T05:37:38Z</datestamp>
      <setSpec>user-biosyslit</setSpec>
    </header>
    <header>
      <identifier>oai:zenodo.org:235810</identifier>
      <datestamp>2017-01-09T15:22:19Z</datestamp>
      <setSpec>user-biosyslit</setSpec>
    </header>
    <header>
      <identifier>oai:zenodo.org:277056</identifier>
      <datestamp>2017-02-08T20:18:01Z</datestamp>
      <setSpec>user-biosyslit</setSpec>
    </header>
    <header>
      <identifier>oai:zenodo.org:278029</identifier>
      <datestamp>2017-02-08T22:19:06Z</datestamp>
      <setSpec>user-biosyslit</setSpec>
    </header>
    <header>
      <identifier>oai:zenodo.org:235425</identifier>
      <datestamp>2017-01-09T09:58:18Z</datestamp>
      <setSpec>user-biosyslit</setSpec>
    </header>
    <header>
      <identifier>oai:zenodo.org:276680</identifier>
      <datestamp>2017-02-08T19:28:15Z</datestamp>
      <setSpec>user-biosyslit</setSpec>
    </header>
    <header>
      <identifier>oai:zenodo.org:277954</identifier>
      <datestamp>2017-02-08T22:09:07Z</datestamp>
      <setSpec>user-biosyslit</setSpec>
    </header>
    <header>
      <identifier>oai:zenodo.org:236419</identifier>
      <datestamp>2017-01-10T00:06:54Z</datestamp>
      <setSpec>user-biosyslit</setSpec>
    </header>
    <header>
      <identifier>oai:zenodo.org:277800</identifier>
      <datestamp>2017-02-08T21:50:55Z</datestamp>
      <setSpec>user-biosyslit</setSpec>
    </header>
    <header>
      <identifier>oai:zenodo.org:277669</identifier>
      <datestamp>2017-02-08T21:35:59Z</datestamp>
      <setSpec>user-biosyslit</setSpec>
    </header>
    <header>
      <identifier>oai:zenodo.org:277818</identifier>
      <datestamp>2017-02-08T21:52:25Z</datestamp>
      <setSpec>user-biosyslit</setSpec>
    </header>
    <header>
      <identifier>oai:zenodo.org:236985</identifier>
      <datestamp>2017-01-10T09:10:39Z</datestamp>
      <setSpec>user-biosyslit</setSpec>
    </header>
    <header>
      <identifier>oai:zenodo.org:276760</identifier>
      <datestamp>2017-02-08T19:37:59Z</datestamp>
      <setSpec>user-biosyslit</setSpec>
    </header>
    <header>
      <identifier>oai:zenodo.org:277340</identifier>
      <datestamp>2017-02-08T20:55:39Z</datestamp>
      <setSpec>user-biosyslit</setSpec>
    </header>
    <header>
      <identifier>oai:zenodo.org:237519</identifier>
      <datestamp>2017-01-10T16:29:30Z</datestamp>
      <setSpec>user-biosyslit</setSpec>
    </header>
    <header>
      <identifier>oai:zenodo.org:236811</identifier>
      <datestamp>2017-01-10T05:59:21Z</datestamp>
      <setSpec>user-biosyslit</setSpec>
    </header>
    <header>
      <identifier>oai:zenodo.org:277622</identifier>
      <datestamp>2017-02-08T21:30:14Z</datestamp>
      <setSpec>user-biosyslit</setSpec>
    </header>
    <header>
      <identifier>oai:zenodo.org:277440</identifier>
      <datestamp>2017-02-08T21:08:44Z</datestamp>
      <setSpec>user-biosyslit</setSpec>
    </header>
    <header>
      <identifier>oai:zenodo.org:277427</identifier>
      <datestamp>2017-02-08T21:07:24Z</datestamp>
      <setSpec>user-biosyslit</setSpec>
    </header>
    <header>
      <identifier>oai:zenodo.org:277629</identifier>
      <datestamp>2017-02-08T21:30:34Z</datestamp>
      <setSpec>user-biosyslit</setSpec>
    </header>
    <header>
      <identifier>oai:zenodo.org:277769</identifier>
      <datestamp>2017-02-08T21:47:08Z</datestamp>
      <setSpec>user-biosyslit</setSpec>
    </header>
    <header>
      <identifier>oai:zenodo.org:237825</identifier>
      <datestamp>2017-01-10T21:07:47Z</datestamp>
      <setSpec>user-biosyslit</setSpec>
    </header>
    <header>
      <identifier>oai:zenodo.org:270877</identifier>
      <datestamp>2017-02-08T00:08:09Z</datestamp>
      <setSpec>user-biosyslit</setSpec>
    </header>
    <header>
      <identifier>oai:zenodo.org:239132</identifier>
      <datestamp>2017-01-11T16:46:48Z</datestamp>
      <setSpec>user-biosyslit</setSpec>
    </header>
    <header>
      <identifier>oai:zenodo.org:277674</identifier>
      <datestamp>2017-02-08T21:36:10Z</datestamp>
      <setSpec>user-biosyslit</setSpec>
    </header>
    <header>
      <identifier>oai:zenodo.org:237915</identifier>
      <datestamp>2017-01-10T22:23:33Z</datestamp>
      <setSpec>user-biosyslit</setSpec>
    </header>
    <header>
      <identifier>oai:zenodo.org:277667</identifier>
      <datestamp>2017-02-08T21:35:55Z</datestamp>
      <setSpec>user-biosyslit</setSpec>
    </header>
    <header>
      <identifier>oai:zenodo.org:238215</identifier>
      <datestamp>2017-01-11T02:23:16Z</datestamp>
      <setSpec>user-biosyslit</setSpec>
    </header>
    <header>
      <identifier>oai:zenodo.org:239473</identifier>
      <datestamp>2017-01-11T21:07:07Z</datestamp>
      <setSpec>user-biosyslit</setSpec>
    </header>
    <header>
      <identifier>oai:zenodo.org:239262</identifier>
      <datestamp>2017-01-11T18:47:09Z</datestamp>
      <setSpec>user-biosyslit</setSpec>
    </header>
    <header>
      <identifier>oai:zenodo.org:239235</identifier>
      <datestamp>2017-01-11T18:45:41Z</datestamp>
      <setSpec>user-biosyslit</setSpec>
    </header>
    <header>
      <identifier>oai:zenodo.org:240497</identifier>
      <datestamp>2017-01-12T09:27:30Z</datestamp>
      <setSpec>user-biosyslit</setSpec>
    </header>
    <header>
      <identifier>oai:zenodo.org:278297</identifier>
      <datestamp>2017-02-08T22:49:39Z</datestamp>
      <setSpec>user-biosyslit</setSpec>
    </header>
    <header>
      <identifier>oai:zenodo.org:239865</identifier>
      <datestamp>2017-01-12T01:58:35Z</datestamp>
      <setSpec>user-biosyslit</setSpec>
    </header>
    <header>
      <identifier>oai:zenodo.org:278196</identifier>
      <datestamp>2017-02-08T22:37:50Z</datestamp>
      <setSpec>user-biosyslit</setSpec>
    </header>
    <header>
      <identifier>oai:zenodo.org:278077</identifier>
      <datestamp>2017-02-08T22:23:35Z</datestamp>
      <setSpec>user-biosyslit</setSpec>
    </header>
    <header>
      <identifier>oai:zenodo.org:272015</identifier>
      <datestamp>2017-02-08T03:20:17Z</datestamp>
      <setSpec>user-biosyslit</setSpec>
    </header>
    <header>
      <identifier>oai:zenodo.org:240258</identifier>
      <datestamp>2017-01-12T06:37:54Z</datestamp>
      <setSpec>user-biosyslit</setSpec>
    </header>
    <header>
      <identifier>oai:zenodo.org:271072</identifier>
      <datestamp>2017-02-08T00:41:48Z</datestamp>
      <setSpec>user-biosyslit</setSpec>
    </header>
    <header>
      <identifier>oai:zenodo.org:279769</identifier>
      <datestamp>2017-02-09T02:00:45Z</datestamp>
      <setSpec>user-biosyslit</setSpec>
    </header>
    <header>
      <identifier>oai:zenodo.org:278551</identifier>
      <datestamp>2017-02-08T23:24:02Z</datestamp>
      <setSpec>user-biosyslit</setSpec>
    </header>
    <header>
      <identifier>oai:zenodo.org:240476</identifier>
      <datestamp>2017-01-12T09:05:01Z</datestamp>
      <setSpec>user-biosyslit</setSpec>
    </header>
    <header>
      <identifier>oai:zenodo.org:240878</identifier>
      <datestamp>2017-01-12T15:18:22Z</datestamp>
      <setSpec>user-biosyslit</setSpec>
    </header>
    <header>
      <identifier>oai:zenodo.org:240863</identifier>
      <datestamp>2017-01-12T14:59:35Z</datestamp>
      <setSpec>user-biosyslit</setSpec>
    </header>
    <header>
      <identifier>oai:zenodo.org:279661</identifier>
      <datestamp>2017-02-09T01:47:20Z</datestamp>
      <setSpec>user-biosyslit</setSpec>
    </header>
    <header>
      <identifier>oai:zenodo.org:278421</identifier>
      <datestamp>2017-02-08T23:08:19Z</datestamp>
      <setSpec>user-biosyslit</setSpec>
    </header>
    <header>
      <identifier>oai:zenodo.org:278401</identifier>
      <datestamp>2017-02-08T23:05:40Z</datestamp>
      <setSpec>user-biosyslit</setSpec>
    </header>
    <header>
      <identifier>oai:zenodo.org:241603</identifier>
      <datestamp>2017-01-13T03:49:02Z</datestamp>
      <setSpec>user-biosyslit</setSpec>
    </header>
    <header>
      <identifier>oai:zenodo.org:240962</identifier>
      <datestamp>2017-01-12T17:02:37Z</datestamp>
      <setSpec>user-biosyslit</setSpec>
    </header>
    <header>
      <identifier>oai:zenodo.org:240742</identifier>
      <datestamp>2017-01-12T13:19:19Z</datestamp>
      <setSpec>user-biosyslit</setSpec>
    </header>
    <header>
      <identifier>oai:zenodo.org:271283</identifier>
      <datestamp>2017-02-08T01:15:24Z</datestamp>
      <setSpec>user-biosyslit</setSpec>
    </header>
    <header>
      <identifier>oai:zenodo.org:241024</identifier>
      <datestamp>2017-01-12T19:06:52Z</datestamp>
      <setSpec>user-biosyslit</setSpec>
    </header>
    <header>
      <identifier>oai:zenodo.org:278381</identifier>
      <datestamp>2017-02-08T23:03:27Z</datestamp>
      <setSpec>user-biosyslit</setSpec>
    </header>
    <header>
      <identifier>oai:zenodo.org:241115</identifier>
      <datestamp>2017-01-12T20:12:27Z</datestamp>
      <setSpec>user-biosyslit</setSpec>
    </header>
    <header>
      <identifier>oai:zenodo.org:279225</identifier>
      <datestamp>2017-02-09T00:50:37Z</datestamp>
      <setSpec>user-biosyslit</setSpec>
    </header>
    <header>
      <identifier>oai:zenodo.org:280871</identifier>
      <datestamp>2017-02-09T04:15:23Z</datestamp>
      <setSpec>user-biosyslit</setSpec>
    </header>
    <header>
      <identifier>oai:zenodo.org:241338</identifier>
      <datestamp>2017-01-13T00:12:23Z</datestamp>
      <setSpec>user-biosyslit</setSpec>
    </header>
    <header>
      <identifier>oai:zenodo.org:278953</identifier>
      <datestamp>2017-02-09T00:14:03Z</datestamp>
      <setSpec>user-biosyslit</setSpec>
    </header>
    <header>
      <identifier>oai:zenodo.org:278699</identifier>
      <datestamp>2017-02-08T23:42:53Z</datestamp>
      <setSpec>user-biosyslit</setSpec>
    </header>
    <header>
      <identifier>oai:zenodo.org:272753</identifier>
      <datestamp>2017-02-08T06:25:48Z</datestamp>
      <setSpec>user-biosyslit</setSpec>
    </header>
    <header>
      <identifier>oai:zenodo.org:271500</identifier>
      <datestamp>2017-02-08T01:49:29Z</datestamp>
      <setSpec>user-biosyslit</setSpec>
    </header>
    <resumptionToken expirationDate="2017-08-31T15:42:41Z" cursor="3800" completeListSize="142507">.eJwNzN1ugjAAQOF36TVZWkpASLyQAA5CS_jrgJuFFWRCdcaygDW-u1yfL-cJZN93wIEf0DaxqSOMzZ1tIUs3NCD5_U-I7_PWAa-Y4FdRtkf2n10YrPXBop5U1AtRUkxmg7nRMiFbEeX8yOJGl0bmRXEZRNdOyZV4NaaKP5ILUnmQ6hXareUZPtKinGuVrQyHSw59ixQHfXOYFLeZw9-SCvtEWDiTyUfxF4GcdQ_iz26i_IWOfHsezJ-KhsxrTpUK8riIXJqjkX4GFR_dOC3kkiz7PdDArR164BhQA9PS3gcJnOfr9Qa7r1Jz.DIm_eQ.ERdIMitwdE6lezwq0pQ0PfWF8ig</resumptionToken>
  </ListIdentifiers>
</OAI-PMH>
