<?xml version='1.0' encoding='UTF-8'?>
<?xml-stylesheet type="text/xsl" href="/static/xsl/oai2.v1.0.xsl"?>
<OAI-PMH xmlns="http://www.openarchives.org/OAI/2.0/" xmlns:xsi="http://www.w3.org/2001/XMLSchema-instance" xsi:schemaLocation="http://www.openarchives.org/OAI/2.0/ http://www.openarchives.org/OAI/2.0/OAI-PMH.xsd">
  <responseDate>2017-08-31T15:42:32Z</responseDate>
  <request verb="ListIdentifiers" resumptionToken=".eJyNyrsOgjAUANB_uTMx7a08JHExKGEAghUiLAaBEKQgoRqhxn_XxVnnc54gq6oEmyxMnaJurNCgJkNESwNZjFchTs2HoTgmouhFnLvJfd8lJMXaDBw5-U7KAtWSsKOK7yI8UmuKGzJHh_iWqv2UMO_Bydb0VTQHF-_zSha6Iju7A4_7jeBYjuE2mjnd8IwV30f_fOrnc-QaNBjyugIb2VKD9pGPtQT7-Xq9AZpnUTg.DIm_6A.-wNWoDk9FV3M9cmrjBBcRRfwsNI">https://zenodo.org/oai2d</request>
  <ListIdentifiers>
    <header>
      <identifier>oai:zenodo.org:809564</identifier>
      <datestamp>2017-06-16T07:21:23Z</datestamp>
      <setSpec>user-biosyslit</setSpec>
    </header>
    <header>
      <identifier>oai:zenodo.org:809570</identifier>
      <datestamp>2017-06-16T07:21:38Z</datestamp>
      <setSpec>user-biosyslit</setSpec>
    </header>
    <header>
      <identifier>oai:zenodo.org:809558</identifier>
      <datestamp>2017-06-16T07:21:12Z</datestamp>
      <setSpec>user-biosyslit</setSpec>
    </header>
    <header>
      <identifier>oai:zenodo.org:809578</identifier>
      <datestamp>2017-06-16T07:21:51Z</datestamp>
      <setSpec>user-biosyslit</setSpec>
    </header>
    <header>
      <identifier>oai:zenodo.org:809560</identifier>
      <datestamp>2017-06-16T07:21:15Z</datestamp>
      <setSpec>user-biosyslit</setSpec>
    </header>
    <header>
      <identifier>oai:zenodo.org:809584</identifier>
      <datestamp>2017-06-16T07:22:04Z</datestamp>
      <setSpec>user-biosyslit</setSpec>
    </header>
    <header>
      <identifier>oai:zenodo.org:809576</identifier>
      <datestamp>2017-06-16T07:21:49Z</datestamp>
      <setSpec>user-biosyslit</setSpec>
    </header>
    <header>
      <identifier>oai:zenodo.org:809574</identifier>
      <datestamp>2017-06-16T07:21:45Z</datestamp>
      <setSpec>user-biosyslit</setSpec>
    </header>
    <header>
      <identifier>oai:zenodo.org:809612</identifier>
      <datestamp>2017-06-16T07:22:57Z</datestamp>
      <setSpec>user-biosyslit</setSpec>
    </header>
    <header>
      <identifier>oai:zenodo.org:809610</identifier>
      <datestamp>2017-06-16T07:22:51Z</datestamp>
      <setSpec>user-biosyslit</setSpec>
    </header>
    <header>
      <identifier>oai:zenodo.org:809616</identifier>
      <datestamp>2017-06-16T07:23:08Z</datestamp>
      <setSpec>user-biosyslit</setSpec>
    </header>
    <header>
      <identifier>oai:zenodo.org:809606</identifier>
      <datestamp>2017-06-16T07:22:43Z</datestamp>
      <setSpec>user-biosyslit</setSpec>
    </header>
    <header>
      <identifier>oai:zenodo.org:809598</identifier>
      <datestamp>2017-06-16T07:22:30Z</datestamp>
      <setSpec>user-biosyslit</setSpec>
    </header>
    <header>
      <identifier>oai:zenodo.org:809586</identifier>
      <datestamp>2017-06-16T07:22:09Z</datestamp>
      <setSpec>user-biosyslit</setSpec>
    </header>
    <header>
      <identifier>oai:zenodo.org:809600</identifier>
      <datestamp>2017-06-16T07:22:34Z</datestamp>
      <setSpec>user-biosyslit</setSpec>
    </header>
    <header>
      <identifier>oai:zenodo.org:809614</identifier>
      <datestamp>2017-06-16T07:23:01Z</datestamp>
      <setSpec>user-biosyslit</setSpec>
    </header>
    <header>
      <identifier>oai:zenodo.org:809642</identifier>
      <datestamp>2017-06-16T07:37:57Z</datestamp>
      <setSpec>user-biosyslit</setSpec>
    </header>
    <header>
      <identifier>oai:zenodo.org:809640</identifier>
      <datestamp>2017-06-16T07:37:54Z</datestamp>
      <setSpec>user-biosyslit</setSpec>
    </header>
    <header>
      <identifier>oai:zenodo.org:809658</identifier>
      <datestamp>2017-06-16T07:38:24Z</datestamp>
      <setSpec>user-biosyslit</setSpec>
    </header>
    <header>
      <identifier>oai:zenodo.org:809654</identifier>
      <datestamp>2017-06-16T07:38:18Z</datestamp>
      <setSpec>user-biosyslit</setSpec>
    </header>
    <header>
      <identifier>oai:zenodo.org:809622</identifier>
      <datestamp>2017-06-16T07:23:21Z</datestamp>
      <setSpec>user-biosyslit</setSpec>
    </header>
    <header>
      <identifier>oai:zenodo.org:809620</identifier>
      <datestamp>2017-06-16T07:23:16Z</datestamp>
      <setSpec>user-biosyslit</setSpec>
    </header>
    <header>
      <identifier>oai:zenodo.org:809626</identifier>
      <datestamp>2017-06-16T07:23:29Z</datestamp>
      <setSpec>user-biosyslit</setSpec>
    </header>
    <header>
      <identifier>oai:zenodo.org:809618</identifier>
      <datestamp>2017-06-16T07:23:12Z</datestamp>
      <setSpec>user-biosyslit</setSpec>
    </header>
    <header>
      <identifier>oai:zenodo.org:809636</identifier>
      <datestamp>2017-06-16T07:37:47Z</datestamp>
      <setSpec>user-biosyslit</setSpec>
    </header>
    <header>
      <identifier>oai:zenodo.org:809674</identifier>
      <datestamp>2017-06-16T07:53:14Z</datestamp>
      <setSpec>user-biosyslit</setSpec>
    </header>
    <header>
      <identifier>oai:zenodo.org:809682</identifier>
      <datestamp>2017-06-16T08:08:21Z</datestamp>
      <setSpec>user-biosyslit</setSpec>
    </header>
    <header>
      <identifier>oai:zenodo.org:809686</identifier>
      <datestamp>2017-06-16T08:08:02Z</datestamp>
      <setSpec>user-biosyslit</setSpec>
    </header>
    <header>
      <identifier>oai:zenodo.org:809664</identifier>
      <datestamp>2017-06-16T07:38:34Z</datestamp>
      <setSpec>user-biosyslit</setSpec>
    </header>
    <header>
      <identifier>oai:zenodo.org:809690</identifier>
      <datestamp>2017-06-16T08:08:09Z</datestamp>
      <setSpec>user-biosyslit</setSpec>
    </header>
    <header>
      <identifier>oai:zenodo.org:809670</identifier>
      <datestamp>2017-06-16T07:38:48Z</datestamp>
      <setSpec>user-biosyslit</setSpec>
    </header>
    <header>
      <identifier>oai:zenodo.org:809694</identifier>
      <datestamp>2017-06-16T08:08:16Z</datestamp>
      <setSpec>user-biosyslit</setSpec>
    </header>
    <header>
      <identifier>oai:zenodo.org:253023</identifier>
      <datestamp>2017-01-20T01:45:10Z</datestamp>
      <setSpec>user-biosyslit</setSpec>
    </header>
    <header>
      <identifier>oai:zenodo.org:253031</identifier>
      <datestamp>2017-01-20T01:45:07Z</datestamp>
      <setSpec>user-biosyslit</setSpec>
    </header>
    <header>
      <identifier>oai:zenodo.org:253030</identifier>
      <datestamp>2017-01-20T01:45:05Z</datestamp>
      <setSpec>user-biosyslit</setSpec>
    </header>
    <header>
      <identifier>oai:zenodo.org:253027</identifier>
      <datestamp>2017-01-20T01:44:52Z</datestamp>
      <setSpec>user-biosyslit</setSpec>
    </header>
    <header>
      <identifier>oai:zenodo.org:253026</identifier>
      <datestamp>2017-01-20T01:44:48Z</datestamp>
      <setSpec>user-biosyslit</setSpec>
    </header>
    <header>
      <identifier>oai:zenodo.org:253024</identifier>
      <datestamp>2017-01-20T01:44:42Z</datestamp>
      <setSpec>user-biosyslit</setSpec>
    </header>
    <header>
      <identifier>oai:zenodo.org:266105</identifier>
      <datestamp>2017-02-01T00:39:42Z</datestamp>
      <setSpec>user-biosyslit</setSpec>
    </header>
    <header>
      <identifier>oai:zenodo.org:244976</identifier>
      <datestamp>2017-01-15T06:06:51Z</datestamp>
      <setSpec>user-biosyslit</setSpec>
    </header>
    <header>
      <identifier>oai:zenodo.org:244974</identifier>
      <datestamp>2017-01-15T06:06:43Z</datestamp>
      <setSpec>user-biosyslit</setSpec>
    </header>
    <header>
      <identifier>oai:zenodo.org:244975</identifier>
      <datestamp>2017-01-15T06:06:48Z</datestamp>
      <setSpec>user-biosyslit</setSpec>
    </header>
    <header>
      <identifier>oai:zenodo.org:266112</identifier>
      <datestamp>2017-02-01T00:39:37Z</datestamp>
      <setSpec>user-biosyslit</setSpec>
    </header>
    <header>
      <identifier>oai:zenodo.org:278465</identifier>
      <datestamp>2017-02-08T23:14:01Z</datestamp>
      <setSpec>user-biosyslit</setSpec>
    </header>
    <header>
      <identifier>oai:zenodo.org:278463</identifier>
      <datestamp>2017-02-08T23:13:52Z</datestamp>
      <setSpec>user-biosyslit</setSpec>
    </header>
    <header>
      <identifier>oai:zenodo.org:278467</identifier>
      <datestamp>2017-02-08T23:14:06Z</datestamp>
      <setSpec>user-biosyslit</setSpec>
    </header>
    <header>
      <identifier>oai:zenodo.org:271724</identifier>
      <datestamp>2017-02-08T02:26:29Z</datestamp>
      <setSpec>user-biosyslit</setSpec>
    </header>
    <header>
      <identifier>oai:zenodo.org:271721</identifier>
      <datestamp>2017-02-08T02:26:22Z</datestamp>
      <setSpec>user-biosyslit</setSpec>
    </header>
    <header>
      <identifier>oai:zenodo.org:271720</identifier>
      <datestamp>2017-02-08T02:26:20Z</datestamp>
      <setSpec>user-biosyslit</setSpec>
    </header>
    <header>
      <identifier>oai:zenodo.org:279261</identifier>
      <datestamp>2017-02-09T00:56:44Z</datestamp>
      <setSpec>user-biosyslit</setSpec>
    </header>
    <header>
      <identifier>oai:zenodo.org:280023</identifier>
      <datestamp>2017-02-09T02:32:00Z</datestamp>
      <setSpec>user-biosyslit</setSpec>
    </header>
    <header>
      <identifier>oai:zenodo.org:253951</identifier>
      <datestamp>2017-01-20T12:53:48Z</datestamp>
      <setSpec>user-biosyslit</setSpec>
    </header>
    <header>
      <identifier>oai:zenodo.org:253946</identifier>
      <datestamp>2017-01-20T12:53:35Z</datestamp>
      <setSpec>user-biosyslit</setSpec>
    </header>
    <header>
      <identifier>oai:zenodo.org:273446</identifier>
      <datestamp>2017-02-08T09:22:27Z</datestamp>
      <setSpec>user-biosyslit</setSpec>
    </header>
    <header>
      <identifier>oai:zenodo.org:273445</identifier>
      <datestamp>2017-02-08T09:22:25Z</datestamp>
      <setSpec>user-biosyslit</setSpec>
    </header>
    <header>
      <identifier>oai:zenodo.org:280031</identifier>
      <datestamp>2017-02-09T02:31:52Z</datestamp>
      <setSpec>user-biosyslit</setSpec>
    </header>
    <header>
      <identifier>oai:zenodo.org:280030</identifier>
      <datestamp>2017-02-09T02:31:49Z</datestamp>
      <setSpec>user-biosyslit</setSpec>
    </header>
    <header>
      <identifier>oai:zenodo.org:280033</identifier>
      <datestamp>2017-02-09T02:31:56Z</datestamp>
      <setSpec>user-biosyslit</setSpec>
    </header>
    <header>
      <identifier>oai:zenodo.org:280034</identifier>
      <datestamp>2017-02-09T02:31:59Z</datestamp>
      <setSpec>user-biosyslit</setSpec>
    </header>
    <header>
      <identifier>oai:zenodo.org:244050</identifier>
      <datestamp>2017-01-14T15:46:45Z</datestamp>
      <setSpec>user-biosyslit</setSpec>
    </header>
    <header>
      <identifier>oai:zenodo.org:239546</identifier>
      <datestamp>2017-01-11T22:04:35Z</datestamp>
      <setSpec>user-biosyslit</setSpec>
    </header>
    <header>
      <identifier>oai:zenodo.org:239550</identifier>
      <datestamp>2017-01-11T22:04:45Z</datestamp>
      <setSpec>user-biosyslit</setSpec>
    </header>
    <header>
      <identifier>oai:zenodo.org:239543</identifier>
      <datestamp>2017-01-11T22:04:24Z</datestamp>
      <setSpec>user-biosyslit</setSpec>
    </header>
    <header>
      <identifier>oai:zenodo.org:244053</identifier>
      <datestamp>2017-01-14T15:46:35Z</datestamp>
      <setSpec>user-biosyslit</setSpec>
    </header>
    <header>
      <identifier>oai:zenodo.org:244055</identifier>
      <datestamp>2017-01-14T15:46:43Z</datestamp>
      <setSpec>user-biosyslit</setSpec>
    </header>
    <header>
      <identifier>oai:zenodo.org:239544</identifier>
      <datestamp>2017-01-11T22:04:27Z</datestamp>
      <setSpec>user-biosyslit</setSpec>
    </header>
    <header>
      <identifier>oai:zenodo.org:239545</identifier>
      <datestamp>2017-01-11T22:04:31Z</datestamp>
      <setSpec>user-biosyslit</setSpec>
    </header>
    <header>
      <identifier>oai:zenodo.org:244054</identifier>
      <datestamp>2017-01-14T15:46:38Z</datestamp>
      <setSpec>user-biosyslit</setSpec>
    </header>
    <header>
      <identifier>oai:zenodo.org:283259</identifier>
      <datestamp>2017-02-09T08:27:05Z</datestamp>
      <setSpec>user-biosyslit</setSpec>
    </header>
    <header>
      <identifier>oai:zenodo.org:283260</identifier>
      <datestamp>2017-02-09T08:27:04Z</datestamp>
      <setSpec>user-biosyslit</setSpec>
    </header>
    <header>
      <identifier>oai:zenodo.org:280774</identifier>
      <datestamp>2017-02-09T04:04:15Z</datestamp>
      <setSpec>user-biosyslit</setSpec>
    </header>
    <header>
      <identifier>oai:zenodo.org:280777</identifier>
      <datestamp>2017-02-09T04:04:21Z</datestamp>
      <setSpec>user-biosyslit</setSpec>
    </header>
    <header>
      <identifier>oai:zenodo.org:280776</identifier>
      <datestamp>2017-02-09T04:04:19Z</datestamp>
      <setSpec>user-biosyslit</setSpec>
    </header>
    <header>
      <identifier>oai:zenodo.org:280779</identifier>
      <datestamp>2017-02-09T04:04:25Z</datestamp>
      <setSpec>user-biosyslit</setSpec>
    </header>
    <header>
      <identifier>oai:zenodo.org:250404</identifier>
      <datestamp>2017-01-18T09:58:18Z</datestamp>
      <setSpec>user-biosyslit</setSpec>
    </header>
    <header>
      <identifier>oai:zenodo.org:250403</identifier>
      <datestamp>2017-01-18T09:58:13Z</datestamp>
      <setSpec>user-biosyslit</setSpec>
    </header>
    <header>
      <identifier>oai:zenodo.org:239148</identifier>
      <datestamp>2017-01-11T17:02:41Z</datestamp>
      <setSpec>user-biosyslit</setSpec>
    </header>
    <header>
      <identifier>oai:zenodo.org:284692</identifier>
      <datestamp>2017-02-09T11:50:01Z</datestamp>
      <setSpec>user-biosyslit</setSpec>
    </header>
    <header>
      <identifier>oai:zenodo.org:284688</identifier>
      <datestamp>2017-02-09T11:49:46Z</datestamp>
      <setSpec>user-biosyslit</setSpec>
    </header>
    <header>
      <identifier>oai:zenodo.org:284680</identifier>
      <datestamp>2017-02-09T11:49:23Z</datestamp>
      <setSpec>user-biosyslit</setSpec>
    </header>
    <header>
      <identifier>oai:zenodo.org:284690</identifier>
      <datestamp>2017-02-09T11:49:50Z</datestamp>
      <setSpec>user-biosyslit</setSpec>
    </header>
    <header>
      <identifier>oai:zenodo.org:284691</identifier>
      <datestamp>2017-02-09T11:49:58Z</datestamp>
      <setSpec>user-biosyslit</setSpec>
    </header>
    <header>
      <identifier>oai:zenodo.org:284685</identifier>
      <datestamp>2017-02-09T11:49:36Z</datestamp>
      <setSpec>user-biosyslit</setSpec>
    </header>
    <header>
      <identifier>oai:zenodo.org:276881</identifier>
      <datestamp>2017-02-08T19:54:26Z</datestamp>
      <setSpec>user-biosyslit</setSpec>
    </header>
    <header>
      <identifier>oai:zenodo.org:276882</identifier>
      <datestamp>2017-02-08T19:54:29Z</datestamp>
      <setSpec>user-biosyslit</setSpec>
    </header>
    <header>
      <identifier>oai:zenodo.org:276889</identifier>
      <datestamp>2017-02-08T19:54:50Z</datestamp>
      <setSpec>user-biosyslit</setSpec>
    </header>
    <header>
      <identifier>oai:zenodo.org:276892</identifier>
      <datestamp>2017-02-08T19:55:10Z</datestamp>
      <setSpec>user-biosyslit</setSpec>
    </header>
    <header>
      <identifier>oai:zenodo.org:276879</identifier>
      <datestamp>2017-02-08T19:54:20Z</datestamp>
      <setSpec>user-biosyslit</setSpec>
    </header>
    <header>
      <identifier>oai:zenodo.org:276883</identifier>
      <datestamp>2017-02-08T19:54:32Z</datestamp>
      <setSpec>user-biosyslit</setSpec>
    </header>
    <header>
      <identifier>oai:zenodo.org:276888</identifier>
      <datestamp>2017-02-08T19:54:47Z</datestamp>
      <setSpec>user-biosyslit</setSpec>
    </header>
    <header>
      <identifier>oai:zenodo.org:276895</identifier>
      <datestamp>2017-02-08T19:55:19Z</datestamp>
      <setSpec>user-biosyslit</setSpec>
    </header>
    <header>
      <identifier>oai:zenodo.org:399821</identifier>
      <datestamp>2017-03-15T23:59:33Z</datestamp>
      <setSpec>user-biosyslit</setSpec>
    </header>
    <header>
      <identifier>oai:zenodo.org:399650</identifier>
      <datestamp>2017-03-15T23:07:02Z</datestamp>
      <setSpec>user-biosyslit</setSpec>
    </header>
    <header>
      <identifier>oai:zenodo.org:288315</identifier>
      <datestamp>2017-02-09T20:35:43Z</datestamp>
      <setSpec>user-biosyslit</setSpec>
    </header>
    <header>
      <identifier>oai:zenodo.org:233961</identifier>
      <datestamp>2017-01-08T13:30:09Z</datestamp>
      <setSpec>user-biosyslit</setSpec>
    </header>
    <header>
      <identifier>oai:zenodo.org:274504</identifier>
      <datestamp>2017-02-08T13:33:27Z</datestamp>
      <setSpec>user-biosyslit</setSpec>
    </header>
    <header>
      <identifier>oai:zenodo.org:283805</identifier>
      <datestamp>2017-02-09T09:50:16Z</datestamp>
      <setSpec>user-biosyslit</setSpec>
    </header>
    <header>
      <identifier>oai:zenodo.org:274509</identifier>
      <datestamp>2017-02-08T13:33:39Z</datestamp>
      <setSpec>user-biosyslit</setSpec>
    </header>
    <header>
      <identifier>oai:zenodo.org:274507</identifier>
      <datestamp>2017-02-08T13:33:34Z</datestamp>
      <setSpec>user-biosyslit</setSpec>
    </header>
    <header>
      <identifier>oai:zenodo.org:283800</identifier>
      <datestamp>2017-02-09T09:50:05Z</datestamp>
      <setSpec>user-biosyslit</setSpec>
    </header>
    <resumptionToken expirationDate="2017-08-31T15:44:32Z" cursor="23300" completeListSize="77796">.eJyNyj0LgkAYAOD_8s4S95GeCi2hiYOKXUq2hKmIeZp4RXrSf6-luebnWUBWVQk2WhkGYZbOLJMgZqwR1kAW402Ic_NhKI6pKHqR5F762HcpykjNQkdOgZPRULUo6rDiu5gcsTklDZrjQ3LP1H5Kqf_kyGWBiufw6n9eSSNPnC7ewJN-Kzgpx8iNZ463_ESL78N_PvXzOXIDGgx5XYFNqK5B-8zHWoK9vF5vpOBRRA.DIm_6A.VFmhIRf1isHRwNlbgitfC9IDuLA</resumptionToken>
  </ListIdentifiers>
</OAI-PMH>
