<?xml version='1.0' encoding='UTF-8'?>
<?xml-stylesheet type="text/xsl" href="/static/xsl/oai2.v1.0.xsl"?>
<OAI-PMH xmlns="http://www.openarchives.org/OAI/2.0/" xmlns:xsi="http://www.w3.org/2001/XMLSchema-instance" xsi:schemaLocation="http://www.openarchives.org/OAI/2.0/ http://www.openarchives.org/OAI/2.0/OAI-PMH.xsd">
  <responseDate>2017-08-31T15:44:03Z</responseDate>
  <request verb="ListIdentifiers" resumptionToken=".eJyNyj0LgkAYAOD_8s4Sd57f0CKWNKjopahLmIpUp4lXqCf-91yaa36eBXhdV2ChHVJNWdU0YuqGoZiqYkrAy-HJ2OW2OZRpwsqOxYWbvKM2QZnc6L7DJ8_JiC8eKGixoMdQTrExxTc0h-f4lYloSshppOigeyKc_ftpexUJXJZf3Z7Gnc2oXA3BIZwptmlOyu_Dfz7x8zl8DxL0RVODpWhYgsdYDA0Ha1nXD-eOUYk.DInAQw.IFlzq7q6K1xOqJt6tbiEE2i5mEY">https://zenodo.org/oai2d</request>
  <ListIdentifiers>
    <header>
      <identifier>oai:zenodo.org:232236</identifier>
      <datestamp>2017-01-06T14:05:38Z</datestamp>
      <setSpec>user-biosyslit</setSpec>
    </header>
    <header>
      <identifier>oai:zenodo.org:232824</identifier>
      <datestamp>2017-01-06T23:42:17Z</datestamp>
      <setSpec>user-biosyslit</setSpec>
    </header>
    <header>
      <identifier>oai:zenodo.org:232371</identifier>
      <datestamp>2017-01-06T16:35:58Z</datestamp>
      <setSpec>user-biosyslit</setSpec>
    </header>
    <header>
      <identifier>oai:zenodo.org:232892</identifier>
      <datestamp>2017-01-07T01:04:49Z</datestamp>
      <setSpec>user-biosyslit</setSpec>
    </header>
    <header>
      <identifier>oai:zenodo.org:233332</identifier>
      <datestamp>2017-01-08T03:37:04Z</datestamp>
      <setSpec>user-biosyslit</setSpec>
    </header>
    <header>
      <identifier>oai:zenodo.org:232680</identifier>
      <datestamp>2017-01-06T21:31:39Z</datestamp>
      <setSpec>user-biosyslit</setSpec>
    </header>
    <header>
      <identifier>oai:zenodo.org:232801</identifier>
      <datestamp>2017-01-06T23:13:47Z</datestamp>
      <setSpec>user-biosyslit</setSpec>
    </header>
    <header>
      <identifier>oai:zenodo.org:233740</identifier>
      <datestamp>2017-01-08T11:14:18Z</datestamp>
      <setSpec>user-biosyslit</setSpec>
    </header>
    <header>
      <identifier>oai:zenodo.org:232910</identifier>
      <datestamp>2017-01-07T01:22:06Z</datestamp>
      <setSpec>user-biosyslit</setSpec>
    </header>
    <header>
      <identifier>oai:zenodo.org:234042</identifier>
      <datestamp>2017-01-08T14:13:43Z</datestamp>
      <setSpec>user-biosyslit</setSpec>
    </header>
    <header>
      <identifier>oai:zenodo.org:288482</identifier>
      <datestamp>2017-02-09T21:03:36Z</datestamp>
      <setSpec>user-biosyslit</setSpec>
    </header>
    <header>
      <identifier>oai:zenodo.org:233257</identifier>
      <datestamp>2017-01-08T02:35:35Z</datestamp>
      <setSpec>user-biosyslit</setSpec>
    </header>
    <header>
      <identifier>oai:zenodo.org:233149</identifier>
      <datestamp>2017-01-08T01:23:29Z</datestamp>
      <setSpec>user-biosyslit</setSpec>
    </header>
    <header>
      <identifier>oai:zenodo.org:233212</identifier>
      <datestamp>2017-01-08T02:12:46Z</datestamp>
      <setSpec>user-biosyslit</setSpec>
    </header>
    <header>
      <identifier>oai:zenodo.org:233651</identifier>
      <datestamp>2017-01-08T09:20:21Z</datestamp>
      <setSpec>user-biosyslit</setSpec>
    </header>
    <header>
      <identifier>oai:zenodo.org:234807</identifier>
      <datestamp>2017-01-09T02:21:31Z</datestamp>
      <setSpec>user-biosyslit</setSpec>
    </header>
    <header>
      <identifier>oai:zenodo.org:233334</identifier>
      <datestamp>2017-01-08T03:36:44Z</datestamp>
      <setSpec>user-biosyslit</setSpec>
    </header>
    <header>
      <identifier>oai:zenodo.org:286403</identifier>
      <datestamp>2017-02-09T15:55:21Z</datestamp>
      <setSpec>user-biosyslit</setSpec>
    </header>
    <header>
      <identifier>oai:zenodo.org:285684</identifier>
      <datestamp>2017-02-09T14:06:40Z</datestamp>
      <setSpec>user-biosyslit</setSpec>
    </header>
    <header>
      <identifier>oai:zenodo.org:285475</identifier>
      <datestamp>2017-02-09T13:40:29Z</datestamp>
      <setSpec>user-biosyslit</setSpec>
    </header>
    <header>
      <identifier>oai:zenodo.org:226639</identifier>
      <datestamp>2017-01-01T01:03:42Z</datestamp>
      <setSpec>user-biosyslit</setSpec>
    </header>
    <header>
      <identifier>oai:zenodo.org:285464</identifier>
      <datestamp>2017-02-09T13:39:34Z</datestamp>
      <setSpec>user-biosyslit</setSpec>
    </header>
    <header>
      <identifier>oai:zenodo.org:226635</identifier>
      <datestamp>2017-01-01T01:03:21Z</datestamp>
      <setSpec>user-biosyslit</setSpec>
    </header>
    <header>
      <identifier>oai:zenodo.org:226721</identifier>
      <datestamp>2017-01-01T02:32:42Z</datestamp>
      <setSpec>user-biosyslit</setSpec>
    </header>
    <header>
      <identifier>oai:zenodo.org:286863</identifier>
      <datestamp>2017-02-09T16:58:07Z</datestamp>
      <setSpec>user-biosyslit</setSpec>
    </header>
    <header>
      <identifier>oai:zenodo.org:286602</identifier>
      <datestamp>2017-02-09T16:24:34Z</datestamp>
      <setSpec>user-biosyslit</setSpec>
    </header>
    <header>
      <identifier>oai:zenodo.org:285753</identifier>
      <datestamp>2017-02-09T14:25:38Z</datestamp>
      <setSpec>user-biosyslit</setSpec>
    </header>
    <header>
      <identifier>oai:zenodo.org:286034</identifier>
      <datestamp>2017-02-09T15:06:35Z</datestamp>
      <setSpec>user-biosyslit</setSpec>
    </header>
    <header>
      <identifier>oai:zenodo.org:286199</identifier>
      <datestamp>2017-02-09T15:28:03Z</datestamp>
      <setSpec>user-biosyslit</setSpec>
    </header>
    <header>
      <identifier>oai:zenodo.org:285471</identifier>
      <datestamp>2017-02-09T13:39:47Z</datestamp>
      <setSpec>user-biosyslit</setSpec>
    </header>
    <header>
      <identifier>oai:zenodo.org:285485</identifier>
      <datestamp>2017-02-09T13:42:18Z</datestamp>
      <setSpec>user-biosyslit</setSpec>
    </header>
    <header>
      <identifier>oai:zenodo.org:286151</identifier>
      <datestamp>2017-02-09T15:23:40Z</datestamp>
      <setSpec>user-biosyslit</setSpec>
    </header>
    <header>
      <identifier>oai:zenodo.org:285186</identifier>
      <datestamp>2017-02-09T12:52:00Z</datestamp>
      <setSpec>user-biosyslit</setSpec>
    </header>
    <header>
      <identifier>oai:zenodo.org:286408</identifier>
      <datestamp>2017-02-09T15:57:05Z</datestamp>
      <setSpec>user-biosyslit</setSpec>
    </header>
    <header>
      <identifier>oai:zenodo.org:226715</identifier>
      <datestamp>2017-01-01T02:33:22Z</datestamp>
      <setSpec>user-biosyslit</setSpec>
    </header>
    <header>
      <identifier>oai:zenodo.org:285350</identifier>
      <datestamp>2017-02-09T13:21:32Z</datestamp>
      <setSpec>user-biosyslit</setSpec>
    </header>
    <header>
      <identifier>oai:zenodo.org:226899</identifier>
      <datestamp>2017-01-01T05:25:23Z</datestamp>
      <setSpec>user-biosyslit</setSpec>
    </header>
    <header>
      <identifier>oai:zenodo.org:286423</identifier>
      <datestamp>2017-02-09T15:57:48Z</datestamp>
      <setSpec>user-biosyslit</setSpec>
    </header>
    <header>
      <identifier>oai:zenodo.org:286297</identifier>
      <datestamp>2017-02-09T15:43:28Z</datestamp>
      <setSpec>user-biosyslit</setSpec>
    </header>
    <header>
      <identifier>oai:zenodo.org:287050</identifier>
      <datestamp>2017-02-09T17:20:23Z</datestamp>
      <setSpec>user-biosyslit</setSpec>
    </header>
    <header>
      <identifier>oai:zenodo.org:285482</identifier>
      <datestamp>2017-02-09T13:42:13Z</datestamp>
      <setSpec>user-biosyslit</setSpec>
    </header>
    <header>
      <identifier>oai:zenodo.org:285616</identifier>
      <datestamp>2017-02-09T13:59:45Z</datestamp>
      <setSpec>user-biosyslit</setSpec>
    </header>
    <header>
      <identifier>oai:zenodo.org:285774</identifier>
      <datestamp>2017-02-09T14:31:37Z</datestamp>
      <setSpec>user-biosyslit</setSpec>
    </header>
    <header>
      <identifier>oai:zenodo.org:285982</identifier>
      <datestamp>2017-02-09T14:59:29Z</datestamp>
      <setSpec>user-biosyslit</setSpec>
    </header>
    <header>
      <identifier>oai:zenodo.org:286446</identifier>
      <datestamp>2017-02-09T16:00:08Z</datestamp>
      <setSpec>user-biosyslit</setSpec>
    </header>
    <header>
      <identifier>oai:zenodo.org:286505</identifier>
      <datestamp>2017-02-09T16:11:11Z</datestamp>
      <setSpec>user-biosyslit</setSpec>
    </header>
    <header>
      <identifier>oai:zenodo.org:286455</identifier>
      <datestamp>2017-02-09T16:00:28Z</datestamp>
      <setSpec>user-biosyslit</setSpec>
    </header>
    <header>
      <identifier>oai:zenodo.org:286851</identifier>
      <datestamp>2017-02-09T16:57:37Z</datestamp>
      <setSpec>user-biosyslit</setSpec>
    </header>
    <header>
      <identifier>oai:zenodo.org:287335</identifier>
      <datestamp>2017-02-09T18:04:55Z</datestamp>
      <setSpec>user-biosyslit</setSpec>
    </header>
    <header>
      <identifier>oai:zenodo.org:286186</identifier>
      <datestamp>2017-02-09T15:27:13Z</datestamp>
      <setSpec>user-biosyslit</setSpec>
    </header>
    <header>
      <identifier>oai:zenodo.org:287266</identifier>
      <datestamp>2017-02-09T17:56:19Z</datestamp>
      <setSpec>user-biosyslit</setSpec>
    </header>
    <header>
      <identifier>oai:zenodo.org:286699</identifier>
      <datestamp>2017-02-09T16:33:31Z</datestamp>
      <setSpec>user-biosyslit</setSpec>
    </header>
    <header>
      <identifier>oai:zenodo.org:286291</identifier>
      <datestamp>2017-02-09T15:43:12Z</datestamp>
      <setSpec>user-biosyslit</setSpec>
    </header>
    <header>
      <identifier>oai:zenodo.org:288465</identifier>
      <datestamp>2017-02-09T21:01:46Z</datestamp>
      <setSpec>user-biosyslit</setSpec>
    </header>
    <header>
      <identifier>oai:zenodo.org:286260</identifier>
      <datestamp>2017-02-09T15:38:41Z</datestamp>
      <setSpec>user-biosyslit</setSpec>
    </header>
    <header>
      <identifier>oai:zenodo.org:286672</identifier>
      <datestamp>2017-02-09T16:32:25Z</datestamp>
      <setSpec>user-biosyslit</setSpec>
    </header>
    <header>
      <identifier>oai:zenodo.org:285923</identifier>
      <datestamp>2017-02-09T14:51:25Z</datestamp>
      <setSpec>user-biosyslit</setSpec>
    </header>
    <header>
      <identifier>oai:zenodo.org:285641</identifier>
      <datestamp>2017-02-09T14:03:21Z</datestamp>
      <setSpec>user-biosyslit</setSpec>
    </header>
    <header>
      <identifier>oai:zenodo.org:286302</identifier>
      <datestamp>2017-02-09T15:43:40Z</datestamp>
      <setSpec>user-biosyslit</setSpec>
    </header>
    <header>
      <identifier>oai:zenodo.org:286153</identifier>
      <datestamp>2017-02-09T15:23:45Z</datestamp>
      <setSpec>user-biosyslit</setSpec>
    </header>
    <header>
      <identifier>oai:zenodo.org:286036</identifier>
      <datestamp>2017-02-09T15:06:26Z</datestamp>
      <setSpec>user-biosyslit</setSpec>
    </header>
    <header>
      <identifier>oai:zenodo.org:285657</identifier>
      <datestamp>2017-02-09T14:05:20Z</datestamp>
      <setSpec>user-biosyslit</setSpec>
    </header>
    <header>
      <identifier>oai:zenodo.org:285772</identifier>
      <datestamp>2017-02-09T14:31:53Z</datestamp>
      <setSpec>user-biosyslit</setSpec>
    </header>
    <header>
      <identifier>oai:zenodo.org:286028</identifier>
      <datestamp>2017-02-09T15:05:58Z</datestamp>
      <setSpec>user-biosyslit</setSpec>
    </header>
    <header>
      <identifier>oai:zenodo.org:286655</identifier>
      <datestamp>2017-02-09T16:31:37Z</datestamp>
      <setSpec>user-biosyslit</setSpec>
    </header>
    <header>
      <identifier>oai:zenodo.org:286259</identifier>
      <datestamp>2017-02-09T15:38:39Z</datestamp>
      <setSpec>user-biosyslit</setSpec>
    </header>
    <header>
      <identifier>oai:zenodo.org:286053</identifier>
      <datestamp>2017-02-09T15:09:34Z</datestamp>
      <setSpec>user-biosyslit</setSpec>
    </header>
    <header>
      <identifier>oai:zenodo.org:287791</identifier>
      <datestamp>2017-02-09T19:20:38Z</datestamp>
      <setSpec>user-biosyslit</setSpec>
    </header>
    <header>
      <identifier>oai:zenodo.org:287048</identifier>
      <datestamp>2017-02-09T17:20:19Z</datestamp>
      <setSpec>user-biosyslit</setSpec>
    </header>
    <header>
      <identifier>oai:zenodo.org:286833</identifier>
      <datestamp>2017-02-09T16:56:47Z</datestamp>
      <setSpec>user-biosyslit</setSpec>
    </header>
    <header>
      <identifier>oai:zenodo.org:287137</identifier>
      <datestamp>2017-02-09T17:31:32Z</datestamp>
      <setSpec>user-biosyslit</setSpec>
    </header>
    <header>
      <identifier>oai:zenodo.org:285971</identifier>
      <datestamp>2017-02-09T14:56:14Z</datestamp>
      <setSpec>user-biosyslit</setSpec>
    </header>
    <header>
      <identifier>oai:zenodo.org:286068</identifier>
      <datestamp>2017-02-09T15:09:32Z</datestamp>
      <setSpec>user-biosyslit</setSpec>
    </header>
    <header>
      <identifier>oai:zenodo.org:287526</identifier>
      <datestamp>2017-02-09T18:32:26Z</datestamp>
      <setSpec>user-biosyslit</setSpec>
    </header>
    <header>
      <identifier>oai:zenodo.org:287297</identifier>
      <datestamp>2017-02-09T18:00:14Z</datestamp>
      <setSpec>user-biosyslit</setSpec>
    </header>
    <header>
      <identifier>oai:zenodo.org:286458</identifier>
      <datestamp>2017-02-09T16:00:33Z</datestamp>
      <setSpec>user-biosyslit</setSpec>
    </header>
    <header>
      <identifier>oai:zenodo.org:287841</identifier>
      <datestamp>2017-02-09T19:25:15Z</datestamp>
      <setSpec>user-biosyslit</setSpec>
    </header>
    <header>
      <identifier>oai:zenodo.org:286946</identifier>
      <datestamp>2017-02-09T17:06:16Z</datestamp>
      <setSpec>user-biosyslit</setSpec>
    </header>
    <header>
      <identifier>oai:zenodo.org:287307</identifier>
      <datestamp>2017-02-09T18:00:38Z</datestamp>
      <setSpec>user-biosyslit</setSpec>
    </header>
    <header>
      <identifier>oai:zenodo.org:286385</identifier>
      <datestamp>2017-02-09T15:54:39Z</datestamp>
      <setSpec>user-biosyslit</setSpec>
    </header>
    <header>
      <identifier>oai:zenodo.org:285573</identifier>
      <datestamp>2017-02-09T13:52:21Z</datestamp>
      <setSpec>user-biosyslit</setSpec>
    </header>
    <header>
      <identifier>oai:zenodo.org:285972</identifier>
      <datestamp>2017-02-09T14:56:16Z</datestamp>
      <setSpec>user-biosyslit</setSpec>
    </header>
    <header>
      <identifier>oai:zenodo.org:287064</identifier>
      <datestamp>2017-02-09T17:23:08Z</datestamp>
      <setSpec>user-biosyslit</setSpec>
    </header>
    <header>
      <identifier>oai:zenodo.org:286193</identifier>
      <datestamp>2017-02-09T15:27:44Z</datestamp>
      <setSpec>user-biosyslit</setSpec>
    </header>
    <header>
      <identifier>oai:zenodo.org:287437</identifier>
      <datestamp>2017-02-09T18:19:09Z</datestamp>
      <setSpec>user-biosyslit</setSpec>
    </header>
    <header>
      <identifier>oai:zenodo.org:286759</identifier>
      <datestamp>2017-02-09T16:45:40Z</datestamp>
      <setSpec>user-biosyslit</setSpec>
    </header>
    <header>
      <identifier>oai:zenodo.org:286931</identifier>
      <datestamp>2017-02-09T17:05:39Z</datestamp>
      <setSpec>user-biosyslit</setSpec>
    </header>
    <header>
      <identifier>oai:zenodo.org:286718</identifier>
      <datestamp>2017-02-09T16:38:02Z</datestamp>
      <setSpec>user-biosyslit</setSpec>
    </header>
    <header>
      <identifier>oai:zenodo.org:287245</identifier>
      <datestamp>2017-02-09T17:53:05Z</datestamp>
      <setSpec>user-biosyslit</setSpec>
    </header>
    <header>
      <identifier>oai:zenodo.org:226719</identifier>
      <datestamp>2017-01-01T02:32:32Z</datestamp>
      <setSpec>user-biosyslit</setSpec>
    </header>
    <header>
      <identifier>oai:zenodo.org:495034</identifier>
      <datestamp>2017-04-05T07:23:41Z</datestamp>
      <setSpec>user-biosyslit</setSpec>
    </header>
    <header>
      <identifier>oai:zenodo.org:288118</identifier>
      <datestamp>2017-02-09T20:03:12Z</datestamp>
      <setSpec>user-biosyslit</setSpec>
    </header>
    <header>
      <identifier>oai:zenodo.org:286855</identifier>
      <datestamp>2017-02-09T16:57:47Z</datestamp>
      <setSpec>user-biosyslit</setSpec>
    </header>
    <header>
      <identifier>oai:zenodo.org:287186</identifier>
      <datestamp>2017-02-09T17:37:56Z</datestamp>
      <setSpec>user-biosyslit</setSpec>
    </header>
    <header>
      <identifier>oai:zenodo.org:223820</identifier>
      <datestamp>2017-01-06T11:06:09Z</datestamp>
      <setSpec>openaire</setSpec>
      <setSpec>user-biosyslit</setSpec>
    </header>
    <header>
      <identifier>oai:zenodo.org:286396</identifier>
      <datestamp>2017-02-09T15:55:04Z</datestamp>
      <setSpec>user-biosyslit</setSpec>
    </header>
    <header>
      <identifier>oai:zenodo.org:286922</identifier>
      <datestamp>2017-02-09T17:05:11Z</datestamp>
      <setSpec>user-biosyslit</setSpec>
    </header>
    <header>
      <identifier>oai:zenodo.org:286163</identifier>
      <datestamp>2017-02-09T15:24:15Z</datestamp>
      <setSpec>user-biosyslit</setSpec>
    </header>
    <header>
      <identifier>oai:zenodo.org:287318</identifier>
      <datestamp>2017-02-09T18:01:01Z</datestamp>
      <setSpec>user-biosyslit</setSpec>
    </header>
    <header>
      <identifier>oai:zenodo.org:285999</identifier>
      <datestamp>2017-02-09T15:01:20Z</datestamp>
      <setSpec>user-biosyslit</setSpec>
    </header>
    <resumptionToken expirationDate="2017-08-31T15:46:03Z" cursor="46000" completeListSize="77796">.eJyNz00PQzAAgOH_0rMsbX1LdhEmDggdwWUxREyZ6BZU_Pe57Lyd3-fyboDVdQUMeFIkXdIxQrKKJV3WsABYOT0pvbVHBmWa0HKgceEk76hPYIYb1bfY4lmZ6PMOBj3i5BLiFGlL3MI1vMavjEdLIrozgbbq8XD1H-7hKjFwaH53RhIPJiW4mgI7XAkySS6WX4f-dPyns9gZCGAsmhoYknJcdXMxNQwY275_AKPAUUU.DInAQw.gXrOczONcfF8b03UZ2f0BupvnLo</resumptionToken>
  </ListIdentifiers>
</OAI-PMH>
