<?xml version='1.0' encoding='UTF-8'?>
<?xml-stylesheet type="text/xsl" href="/static/xsl/oai2.v1.0.xsl"?>
<OAI-PMH xmlns="http://www.openarchives.org/OAI/2.0/" xmlns:xsi="http://www.w3.org/2001/XMLSchema-instance" xsi:schemaLocation="http://www.openarchives.org/OAI/2.0/ http://www.openarchives.org/OAI/2.0/OAI-PMH.xsd">
  <responseDate>2017-08-31T14:37:01Z</responseDate>
  <request verb="ListIdentifiers" resumptionToken=".eJwVzdFOgzAYQOF36TUxpcwVuNsCkhl_CCuFwY3BgjApiFADdNm7O69P8p0bmuu6Qi5-otR2HGzt9s6ztafENtAspm8p36-PjMQllWKQvAzS33Of4pw0NPTmFbzcDBOuo97U7CUmF9Ne-RVvccJVrs9rap0Whn0KOl5ANyTqKysKZPERjIwPR8lINUV-vDHzyApLUEgO5OGZ8DUqgVseSucT0pOCzjffMsAirTbw1THSgMGDXZiMQ6XbMcvWHy5fl4KrodStD52K-f9LHygy0Fg2NXItYqBuKadmRu7tfv8DgjFSHw.DImwXA.i4_0gNPLAbV2P2CipxJRC-xiJXk">https://zenodo.org/oai2d</request>
  <ListIdentifiers>
    <header>
      <identifier>oai:zenodo.org:242036</identifier>
      <datestamp>2017-01-13T09:37:22Z</datestamp>
      <setSpec>user-biosyslit</setSpec>
    </header>
    <header>
      <identifier>oai:zenodo.org:279340</identifier>
      <datestamp>2017-02-09T01:06:24Z</datestamp>
      <setSpec>user-biosyslit</setSpec>
    </header>
    <header>
      <identifier>oai:zenodo.org:242463</identifier>
      <datestamp>2017-01-13T15:28:50Z</datestamp>
      <setSpec>user-biosyslit</setSpec>
    </header>
    <header>
      <identifier>oai:zenodo.org:241754</identifier>
      <datestamp>2017-01-13T05:32:04Z</datestamp>
      <setSpec>user-biosyslit</setSpec>
    </header>
    <header>
      <identifier>oai:zenodo.org:279051</identifier>
      <datestamp>2017-02-09T00:28:56Z</datestamp>
      <setSpec>user-biosyslit</setSpec>
    </header>
    <header>
      <identifier>oai:zenodo.org:279919</identifier>
      <datestamp>2017-02-09T02:17:05Z</datestamp>
      <setSpec>user-biosyslit</setSpec>
    </header>
    <header>
      <identifier>oai:zenodo.org:279441</identifier>
      <datestamp>2017-02-09T01:21:50Z</datestamp>
      <setSpec>user-biosyslit</setSpec>
    </header>
    <header>
      <identifier>oai:zenodo.org:241937</identifier>
      <datestamp>2017-01-13T08:02:53Z</datestamp>
      <setSpec>user-biosyslit</setSpec>
    </header>
    <header>
      <identifier>oai:zenodo.org:242533</identifier>
      <datestamp>2017-01-13T16:25:43Z</datestamp>
      <setSpec>user-biosyslit</setSpec>
    </header>
    <header>
      <identifier>oai:zenodo.org:242993</identifier>
      <datestamp>2017-01-13T21:37:49Z</datestamp>
      <setSpec>user-biosyslit</setSpec>
    </header>
    <header>
      <identifier>oai:zenodo.org:243098</identifier>
      <datestamp>2017-01-13T23:19:42Z</datestamp>
      <setSpec>user-biosyslit</setSpec>
    </header>
    <header>
      <identifier>oai:zenodo.org:243449</identifier>
      <datestamp>2017-01-14T05:52:36Z</datestamp>
      <setSpec>user-biosyslit</setSpec>
    </header>
    <header>
      <identifier>oai:zenodo.org:243433</identifier>
      <datestamp>2017-01-14T05:36:34Z</datestamp>
      <setSpec>user-biosyslit</setSpec>
    </header>
    <header>
      <identifier>oai:zenodo.org:244475</identifier>
      <datestamp>2017-01-14T22:28:52Z</datestamp>
      <setSpec>user-biosyslit</setSpec>
    </header>
    <header>
      <identifier>oai:zenodo.org:272180</identifier>
      <datestamp>2017-02-08T03:57:18Z</datestamp>
      <setSpec>user-biosyslit</setSpec>
    </header>
    <header>
      <identifier>oai:zenodo.org:272397</identifier>
      <datestamp>2017-02-08T04:27:12Z</datestamp>
      <setSpec>user-biosyslit</setSpec>
    </header>
    <header>
      <identifier>oai:zenodo.org:279306</identifier>
      <datestamp>2017-02-09T01:02:10Z</datestamp>
      <setSpec>user-biosyslit</setSpec>
    </header>
    <header>
      <identifier>oai:zenodo.org:244445</identifier>
      <datestamp>2017-01-14T22:12:50Z</datestamp>
      <setSpec>user-biosyslit</setSpec>
    </header>
    <header>
      <identifier>oai:zenodo.org:243727</identifier>
      <datestamp>2017-01-14T10:03:12Z</datestamp>
      <setSpec>user-biosyslit</setSpec>
    </header>
    <header>
      <identifier>oai:zenodo.org:272519</identifier>
      <datestamp>2017-02-08T05:00:28Z</datestamp>
      <setSpec>user-biosyslit</setSpec>
    </header>
    <header>
      <identifier>oai:zenodo.org:244243</identifier>
      <datestamp>2017-01-14T18:17:08Z</datestamp>
      <setSpec>user-biosyslit</setSpec>
    </header>
    <header>
      <identifier>oai:zenodo.org:244728</identifier>
      <datestamp>2017-01-15T01:50:02Z</datestamp>
      <setSpec>user-biosyslit</setSpec>
    </header>
    <header>
      <identifier>oai:zenodo.org:272501</identifier>
      <datestamp>2017-02-08T04:56:19Z</datestamp>
      <setSpec>user-biosyslit</setSpec>
    </header>
    <header>
      <identifier>oai:zenodo.org:245942</identifier>
      <datestamp>2017-01-15T19:40:47Z</datestamp>
      <setSpec>user-biosyslit</setSpec>
    </header>
    <header>
      <identifier>oai:zenodo.org:245703</identifier>
      <datestamp>2017-01-15T17:37:36Z</datestamp>
      <setSpec>user-biosyslit</setSpec>
    </header>
    <header>
      <identifier>oai:zenodo.org:245648</identifier>
      <datestamp>2017-01-15T16:41:19Z</datestamp>
      <setSpec>user-biosyslit</setSpec>
    </header>
    <header>
      <identifier>oai:zenodo.org:246748</identifier>
      <datestamp>2017-01-16T07:17:30Z</datestamp>
      <setSpec>user-biosyslit</setSpec>
    </header>
    <header>
      <identifier>oai:zenodo.org:272322</identifier>
      <datestamp>2017-02-08T04:15:08Z</datestamp>
      <setSpec>user-biosyslit</setSpec>
    </header>
    <header>
      <identifier>oai:zenodo.org:246848</identifier>
      <datestamp>2017-01-16T09:21:06Z</datestamp>
      <setSpec>user-biosyslit</setSpec>
    </header>
    <header>
      <identifier>oai:zenodo.org:246810</identifier>
      <datestamp>2017-01-16T08:55:28Z</datestamp>
      <setSpec>user-biosyslit</setSpec>
    </header>
    <header>
      <identifier>oai:zenodo.org:246658</identifier>
      <datestamp>2017-01-16T06:57:27Z</datestamp>
      <setSpec>user-biosyslit</setSpec>
    </header>
    <header>
      <identifier>oai:zenodo.org:246772</identifier>
      <datestamp>2017-01-16T07:53:43Z</datestamp>
      <setSpec>user-biosyslit</setSpec>
    </header>
    <header>
      <identifier>oai:zenodo.org:247624</identifier>
      <datestamp>2017-01-16T17:39:54Z</datestamp>
      <setSpec>user-biosyslit</setSpec>
    </header>
    <header>
      <identifier>oai:zenodo.org:248543</identifier>
      <datestamp>2017-01-17T05:19:04Z</datestamp>
      <setSpec>user-biosyslit</setSpec>
    </header>
    <header>
      <identifier>oai:zenodo.org:248718</identifier>
      <datestamp>2017-01-17T08:29:22Z</datestamp>
      <setSpec>user-biosyslit</setSpec>
    </header>
    <header>
      <identifier>oai:zenodo.org:249063</identifier>
      <datestamp>2017-01-17T15:45:42Z</datestamp>
      <setSpec>user-biosyslit</setSpec>
    </header>
    <header>
      <identifier>oai:zenodo.org:247961</identifier>
      <datestamp>2017-01-16T22:07:59Z</datestamp>
      <setSpec>user-biosyslit</setSpec>
    </header>
    <header>
      <identifier>oai:zenodo.org:248546</identifier>
      <datestamp>2017-01-17T05:19:14Z</datestamp>
      <setSpec>user-biosyslit</setSpec>
    </header>
    <header>
      <identifier>oai:zenodo.org:250213</identifier>
      <datestamp>2017-01-18T06:54:32Z</datestamp>
      <setSpec>user-biosyslit</setSpec>
    </header>
    <header>
      <identifier>oai:zenodo.org:249328</identifier>
      <datestamp>2017-01-17T18:43:40Z</datestamp>
      <setSpec>user-biosyslit</setSpec>
    </header>
    <header>
      <identifier>oai:zenodo.org:249607</identifier>
      <datestamp>2017-01-17T21:41:16Z</datestamp>
      <setSpec>user-biosyslit</setSpec>
    </header>
    <header>
      <identifier>oai:zenodo.org:251204</identifier>
      <datestamp>2017-01-18T20:01:03Z</datestamp>
      <setSpec>user-biosyslit</setSpec>
    </header>
    <header>
      <identifier>oai:zenodo.org:250238</identifier>
      <datestamp>2017-01-18T07:17:46Z</datestamp>
      <setSpec>user-biosyslit</setSpec>
    </header>
    <header>
      <identifier>oai:zenodo.org:250022</identifier>
      <datestamp>2017-01-18T03:31:40Z</datestamp>
      <setSpec>user-biosyslit</setSpec>
    </header>
    <header>
      <identifier>oai:zenodo.org:251292</identifier>
      <datestamp>2017-01-18T21:19:35Z</datestamp>
      <setSpec>user-biosyslit</setSpec>
    </header>
    <header>
      <identifier>oai:zenodo.org:272614</identifier>
      <datestamp>2017-02-08T05:44:14Z</datestamp>
      <setSpec>user-biosyslit</setSpec>
    </header>
    <header>
      <identifier>oai:zenodo.org:251555</identifier>
      <datestamp>2017-01-19T01:58:46Z</datestamp>
      <setSpec>user-biosyslit</setSpec>
    </header>
    <header>
      <identifier>oai:zenodo.org:251231</identifier>
      <datestamp>2017-01-18T20:14:42Z</datestamp>
      <setSpec>user-biosyslit</setSpec>
    </header>
    <header>
      <identifier>oai:zenodo.org:251055</identifier>
      <datestamp>2017-01-18T18:22:52Z</datestamp>
      <setSpec>user-biosyslit</setSpec>
    </header>
    <header>
      <identifier>oai:zenodo.org:251548</identifier>
      <datestamp>2017-01-19T01:36:34Z</datestamp>
      <setSpec>user-biosyslit</setSpec>
    </header>
    <header>
      <identifier>oai:zenodo.org:272886</identifier>
      <datestamp>2017-02-08T06:32:16Z</datestamp>
      <setSpec>user-biosyslit</setSpec>
    </header>
    <header>
      <identifier>oai:zenodo.org:273266</identifier>
      <datestamp>2017-02-08T08:48:29Z</datestamp>
      <setSpec>user-biosyslit</setSpec>
    </header>
    <header>
      <identifier>oai:zenodo.org:276049</identifier>
      <datestamp>2017-02-08T18:03:36Z</datestamp>
      <setSpec>user-biosyslit</setSpec>
    </header>
    <header>
      <identifier>oai:zenodo.org:276372</identifier>
      <datestamp>2017-02-08T18:43:30Z</datestamp>
      <setSpec>user-biosyslit</setSpec>
    </header>
    <header>
      <identifier>oai:zenodo.org:276391</identifier>
      <datestamp>2017-02-08T18:45:56Z</datestamp>
      <setSpec>user-biosyslit</setSpec>
    </header>
    <header>
      <identifier>oai:zenodo.org:252371</identifier>
      <datestamp>2017-01-19T12:48:03Z</datestamp>
      <setSpec>user-biosyslit</setSpec>
    </header>
    <header>
      <identifier>oai:zenodo.org:252307</identifier>
      <datestamp>2017-01-19T11:55:55Z</datestamp>
      <setSpec>user-biosyslit</setSpec>
    </header>
    <header>
      <identifier>oai:zenodo.org:253038</identifier>
      <datestamp>2017-01-20T01:55:31Z</datestamp>
      <setSpec>user-biosyslit</setSpec>
    </header>
    <header>
      <identifier>oai:zenodo.org:253828</identifier>
      <datestamp>2017-01-20T11:35:07Z</datestamp>
      <setSpec>user-biosyslit</setSpec>
    </header>
    <header>
      <identifier>oai:zenodo.org:253485</identifier>
      <datestamp>2017-01-20T07:37:22Z</datestamp>
      <setSpec>user-biosyslit</setSpec>
    </header>
    <header>
      <identifier>oai:zenodo.org:254614</identifier>
      <datestamp>2017-01-20T23:44:07Z</datestamp>
      <setSpec>user-biosyslit</setSpec>
    </header>
    <header>
      <identifier>oai:zenodo.org:254980</identifier>
      <datestamp>2017-01-21T06:03:06Z</datestamp>
      <setSpec>user-biosyslit</setSpec>
    </header>
    <header>
      <identifier>oai:zenodo.org:254118</identifier>
      <datestamp>2017-01-20T15:20:27Z</datestamp>
      <setSpec>user-biosyslit</setSpec>
    </header>
    <header>
      <identifier>oai:zenodo.org:254695</identifier>
      <datestamp>2017-01-21T01:46:15Z</datestamp>
      <setSpec>user-biosyslit</setSpec>
    </header>
    <header>
      <identifier>oai:zenodo.org:255313</identifier>
      <datestamp>2017-01-21T11:15:55Z</datestamp>
      <setSpec>user-biosyslit</setSpec>
    </header>
    <header>
      <identifier>oai:zenodo.org:254994</identifier>
      <datestamp>2017-01-21T06:30:38Z</datestamp>
      <setSpec>user-biosyslit</setSpec>
    </header>
    <header>
      <identifier>oai:zenodo.org:255815</identifier>
      <datestamp>2017-01-21T22:30:59Z</datestamp>
      <setSpec>user-biosyslit</setSpec>
    </header>
    <header>
      <identifier>oai:zenodo.org:255798</identifier>
      <datestamp>2017-01-21T22:11:01Z</datestamp>
      <setSpec>user-biosyslit</setSpec>
    </header>
    <header>
      <identifier>oai:zenodo.org:254649</identifier>
      <datestamp>2017-01-21T01:08:18Z</datestamp>
      <setSpec>user-biosyslit</setSpec>
    </header>
    <header>
      <identifier>oai:zenodo.org:254849</identifier>
      <datestamp>2017-01-21T03:59:42Z</datestamp>
      <setSpec>user-biosyslit</setSpec>
    </header>
    <header>
      <identifier>oai:zenodo.org:254707</identifier>
      <datestamp>2017-01-21T02:14:34Z</datestamp>
      <setSpec>user-biosyslit</setSpec>
    </header>
    <header>
      <identifier>oai:zenodo.org:254803</identifier>
      <datestamp>2017-01-21T03:03:31Z</datestamp>
      <setSpec>user-biosyslit</setSpec>
    </header>
    <header>
      <identifier>oai:zenodo.org:255103</identifier>
      <datestamp>2017-01-21T07:54:22Z</datestamp>
      <setSpec>user-biosyslit</setSpec>
    </header>
    <header>
      <identifier>oai:zenodo.org:255256</identifier>
      <datestamp>2017-01-21T10:24:57Z</datestamp>
      <setSpec>user-biosyslit</setSpec>
    </header>
    <header>
      <identifier>oai:zenodo.org:255604</identifier>
      <datestamp>2017-01-21T15:59:39Z</datestamp>
      <setSpec>user-biosyslit</setSpec>
    </header>
    <header>
      <identifier>oai:zenodo.org:255420</identifier>
      <datestamp>2017-01-21T13:08:01Z</datestamp>
      <setSpec>user-biosyslit</setSpec>
    </header>
    <header>
      <identifier>oai:zenodo.org:256873</identifier>
      <datestamp>2017-01-22T21:51:05Z</datestamp>
      <setSpec>user-biosyslit</setSpec>
    </header>
    <header>
      <identifier>oai:zenodo.org:255368</identifier>
      <datestamp>2017-01-21T12:32:07Z</datestamp>
      <setSpec>user-biosyslit</setSpec>
    </header>
    <header>
      <identifier>oai:zenodo.org:256661</identifier>
      <datestamp>2017-01-22T19:05:13Z</datestamp>
      <setSpec>user-biosyslit</setSpec>
    </header>
    <header>
      <identifier>oai:zenodo.org:256557</identifier>
      <datestamp>2017-01-22T17:41:21Z</datestamp>
      <setSpec>user-biosyslit</setSpec>
    </header>
    <header>
      <identifier>oai:zenodo.org:255806</identifier>
      <datestamp>2017-01-21T22:20:21Z</datestamp>
      <setSpec>user-biosyslit</setSpec>
    </header>
    <header>
      <identifier>oai:zenodo.org:257063</identifier>
      <datestamp>2017-01-23T00:41:25Z</datestamp>
      <setSpec>user-biosyslit</setSpec>
    </header>
    <header>
      <identifier>oai:zenodo.org:256512</identifier>
      <datestamp>2017-01-22T16:42:31Z</datestamp>
      <setSpec>user-biosyslit</setSpec>
    </header>
    <header>
      <identifier>oai:zenodo.org:256054</identifier>
      <datestamp>2017-01-22T03:07:26Z</datestamp>
      <setSpec>user-biosyslit</setSpec>
    </header>
    <header>
      <identifier>oai:zenodo.org:256631</identifier>
      <datestamp>2017-01-22T18:37:09Z</datestamp>
      <setSpec>user-biosyslit</setSpec>
    </header>
    <header>
      <identifier>oai:zenodo.org:256851</identifier>
      <datestamp>2017-01-22T21:33:40Z</datestamp>
      <setSpec>user-biosyslit</setSpec>
    </header>
    <header>
      <identifier>oai:zenodo.org:257004</identifier>
      <datestamp>2017-01-22T23:40:46Z</datestamp>
      <setSpec>user-biosyslit</setSpec>
    </header>
    <header>
      <identifier>oai:zenodo.org:257625</identifier>
      <datestamp>2017-01-23T11:11:29Z</datestamp>
      <setSpec>user-biosyslit</setSpec>
    </header>
    <header>
      <identifier>oai:zenodo.org:257300</identifier>
      <datestamp>2017-01-23T05:01:52Z</datestamp>
      <setSpec>user-biosyslit</setSpec>
    </header>
    <header>
      <identifier>oai:zenodo.org:271361</identifier>
      <datestamp>2017-02-08T01:32:27Z</datestamp>
      <setSpec>user-biosyslit</setSpec>
    </header>
    <header>
      <identifier>oai:zenodo.org:271026</identifier>
      <datestamp>2017-02-08T00:36:49Z</datestamp>
      <setSpec>user-biosyslit</setSpec>
    </header>
    <header>
      <identifier>oai:zenodo.org:239155</identifier>
      <datestamp>2017-01-11T17:08:25Z</datestamp>
      <setSpec>user-biosyslit</setSpec>
    </header>
    <header>
      <identifier>oai:zenodo.org:278398</identifier>
      <datestamp>2017-02-08T23:05:31Z</datestamp>
      <setSpec>user-biosyslit</setSpec>
    </header>
    <header>
      <identifier>oai:zenodo.org:278432</identifier>
      <datestamp>2017-02-08T23:10:05Z</datestamp>
      <setSpec>user-biosyslit</setSpec>
    </header>
    <header>
      <identifier>oai:zenodo.org:279096</identifier>
      <datestamp>2017-02-09T00:36:10Z</datestamp>
      <setSpec>user-biosyslit</setSpec>
    </header>
    <header>
      <identifier>oai:zenodo.org:239438</identifier>
      <datestamp>2017-01-11T20:34:39Z</datestamp>
      <setSpec>user-biosyslit</setSpec>
    </header>
    <header>
      <identifier>oai:zenodo.org:278197</identifier>
      <datestamp>2017-02-08T22:37:52Z</datestamp>
      <setSpec>user-biosyslit</setSpec>
    </header>
    <header>
      <identifier>oai:zenodo.org:272332</identifier>
      <datestamp>2017-02-08T04:17:44Z</datestamp>
      <setSpec>user-biosyslit</setSpec>
    </header>
    <header>
      <identifier>oai:zenodo.org:278669</identifier>
      <datestamp>2017-02-08T23:38:07Z</datestamp>
      <setSpec>user-biosyslit</setSpec>
    </header>
    <header>
      <identifier>oai:zenodo.org:239668</identifier>
      <datestamp>2017-01-11T23:33:28Z</datestamp>
      <setSpec>user-biosyslit</setSpec>
    </header>
    <resumptionToken expirationDate="2017-08-31T14:39:02Z" cursor="3100" completeListSize="142507">.eJwVzd1OgzAYgOF76TExpSB_Z1tAMuMHYaVlcGIQECYFEWqALrt35_GbPO8NLU1TIw8_uY7pYtMhNrEsx7WeNbRU87cQ79dHRtWFi2oUrAz573ngOCetHfnLBn6uRylT8aAr-pKQi-5s7Ir3JGUyV-eNG6eV4sAGlaygWhIPtRGHovgIJ8rGo6CknuMg2al-pIVR2ZAeyMPT4WuSFe5YJNxP4CcJfaC_ZYArXu8QyGOsAIMPZpROY626Kcu2HyZe14LJsVRdAL1M2P9LHWykoalsG-QZhob6tZzbBXm3-_0PghVSIA.DImwjg.OdAwYmXbP-v7KF2tRDwnvWqgZCg</resumptionToken>
  </ListIdentifiers>
</OAI-PMH>
