<?xml version='1.0' encoding='UTF-8'?>
<?xml-stylesheet type="text/xsl" href="/static/xsl/oai2.v1.0.xsl"?>
<OAI-PMH xmlns="http://www.openarchives.org/OAI/2.0/" xmlns:xsi="http://www.w3.org/2001/XMLSchema-instance" xsi:schemaLocation="http://www.openarchives.org/OAI/2.0/ http://www.openarchives.org/OAI/2.0/OAI-PMH.xsd">
  <responseDate>2017-08-31T15:43:30Z</responseDate>
  <request verb="ListIdentifiers" resumptionToken=".eJyNyj0PQ0AYAOD_8s7SHOerki5CxYBwJWVpFBF1VFwbnPjvtXRu5-dZgVVVCQY6YF1XNUVTkHpUZFWWFQFYMT4pvTW7Q3FNaNHTOHeSd9QlKJVqzbfY7Fkp9nmLgk7k5BxKV1Gf4wYt4SV-pTyaE-xOBNmax8PFf7j7K3Hg0OzuDCTuTUqkcgzscCGiSTJcfJ_45-M_n8VOIMCQ1xUYWMcCtFM-1gyMdds-4cVRhQ.DInAIg.2WUwA1IqwHXiUXm91fnyRxlPI30">https://zenodo.org/oai2d</request>
  <ListIdentifiers>
    <header>
      <identifier>oai:zenodo.org:828132</identifier>
      <datestamp>2017-07-15T08:40:08Z</datestamp>
      <setSpec>user-biosyslit</setSpec>
    </header>
    <header>
      <identifier>oai:zenodo.org:828128</identifier>
      <datestamp>2017-07-15T08:40:00Z</datestamp>
      <setSpec>user-biosyslit</setSpec>
    </header>
    <header>
      <identifier>oai:zenodo.org:828106</identifier>
      <datestamp>2017-07-15T08:39:15Z</datestamp>
      <setSpec>user-biosyslit</setSpec>
    </header>
    <header>
      <identifier>oai:zenodo.org:828160</identifier>
      <datestamp>2017-07-15T08:40:59Z</datestamp>
      <setSpec>user-biosyslit</setSpec>
    </header>
    <header>
      <identifier>oai:zenodo.org:828168</identifier>
      <datestamp>2017-07-15T08:41:24Z</datestamp>
      <setSpec>user-biosyslit</setSpec>
    </header>
    <header>
      <identifier>oai:zenodo.org:828172</identifier>
      <datestamp>2017-07-15T08:41:31Z</datestamp>
      <setSpec>user-biosyslit</setSpec>
    </header>
    <header>
      <identifier>oai:zenodo.org:828156</identifier>
      <datestamp>2017-07-15T08:40:51Z</datestamp>
      <setSpec>user-biosyslit</setSpec>
    </header>
    <header>
      <identifier>oai:zenodo.org:828178</identifier>
      <datestamp>2017-07-15T08:41:41Z</datestamp>
      <setSpec>user-biosyslit</setSpec>
    </header>
    <header>
      <identifier>oai:zenodo.org:828162</identifier>
      <datestamp>2017-07-15T08:41:05Z</datestamp>
      <setSpec>user-biosyslit</setSpec>
    </header>
    <header>
      <identifier>oai:zenodo.org:828134</identifier>
      <datestamp>2017-07-15T08:40:12Z</datestamp>
      <setSpec>user-biosyslit</setSpec>
    </header>
    <header>
      <identifier>oai:zenodo.org:828146</identifier>
      <datestamp>2017-07-15T08:40:33Z</datestamp>
      <setSpec>user-biosyslit</setSpec>
    </header>
    <header>
      <identifier>oai:zenodo.org:828166</identifier>
      <datestamp>2017-07-15T08:41:20Z</datestamp>
      <setSpec>user-biosyslit</setSpec>
    </header>
    <header>
      <identifier>oai:zenodo.org:828198</identifier>
      <datestamp>2017-07-15T08:42:22Z</datestamp>
      <setSpec>user-biosyslit</setSpec>
    </header>
    <header>
      <identifier>oai:zenodo.org:828210</identifier>
      <datestamp>2017-07-15T08:44:17Z</datestamp>
      <setSpec>user-biosyslit</setSpec>
    </header>
    <header>
      <identifier>oai:zenodo.org:828180</identifier>
      <datestamp>2017-07-15T08:41:44Z</datestamp>
      <setSpec>user-biosyslit</setSpec>
    </header>
    <header>
      <identifier>oai:zenodo.org:828184</identifier>
      <datestamp>2017-07-15T08:41:53Z</datestamp>
      <setSpec>user-biosyslit</setSpec>
    </header>
    <header>
      <identifier>oai:zenodo.org:828194</identifier>
      <datestamp>2017-07-15T08:42:16Z</datestamp>
      <setSpec>user-biosyslit</setSpec>
    </header>
    <header>
      <identifier>oai:zenodo.org:828190</identifier>
      <datestamp>2017-07-15T08:42:08Z</datestamp>
      <setSpec>user-biosyslit</setSpec>
    </header>
    <header>
      <identifier>oai:zenodo.org:828186</identifier>
      <datestamp>2017-07-15T08:41:55Z</datestamp>
      <setSpec>user-biosyslit</setSpec>
    </header>
    <header>
      <identifier>oai:zenodo.org:828196</identifier>
      <datestamp>2017-07-15T08:42:19Z</datestamp>
      <setSpec>user-biosyslit</setSpec>
    </header>
    <header>
      <identifier>oai:zenodo.org:828200</identifier>
      <datestamp>2017-07-15T08:42:26Z</datestamp>
      <setSpec>user-biosyslit</setSpec>
    </header>
    <header>
      <identifier>oai:zenodo.org:828240</identifier>
      <datestamp>2017-07-15T08:45:27Z</datestamp>
      <setSpec>user-biosyslit</setSpec>
    </header>
    <header>
      <identifier>oai:zenodo.org:828232</identifier>
      <datestamp>2017-07-15T08:45:04Z</datestamp>
      <setSpec>user-biosyslit</setSpec>
    </header>
    <header>
      <identifier>oai:zenodo.org:828236</identifier>
      <datestamp>2017-07-15T08:45:17Z</datestamp>
      <setSpec>user-biosyslit</setSpec>
    </header>
    <header>
      <identifier>oai:zenodo.org:828226</identifier>
      <datestamp>2017-07-15T08:44:50Z</datestamp>
      <setSpec>user-biosyslit</setSpec>
    </header>
    <header>
      <identifier>oai:zenodo.org:828234</identifier>
      <datestamp>2017-07-15T08:45:12Z</datestamp>
      <setSpec>user-biosyslit</setSpec>
    </header>
    <header>
      <identifier>oai:zenodo.org:828230</identifier>
      <datestamp>2017-07-15T08:44:58Z</datestamp>
      <setSpec>user-biosyslit</setSpec>
    </header>
    <header>
      <identifier>oai:zenodo.org:828212</identifier>
      <datestamp>2017-07-15T08:44:21Z</datestamp>
      <setSpec>user-biosyslit</setSpec>
    </header>
    <header>
      <identifier>oai:zenodo.org:828220</identifier>
      <datestamp>2017-07-15T08:44:37Z</datestamp>
      <setSpec>user-biosyslit</setSpec>
    </header>
    <header>
      <identifier>oai:zenodo.org:828224</identifier>
      <datestamp>2017-07-15T08:44:46Z</datestamp>
      <setSpec>user-biosyslit</setSpec>
    </header>
    <header>
      <identifier>oai:zenodo.org:828206</identifier>
      <datestamp>2017-07-15T08:46:08Z</datestamp>
      <setSpec>user-biosyslit</setSpec>
    </header>
    <header>
      <identifier>oai:zenodo.org:828242</identifier>
      <datestamp>2017-07-15T08:45:31Z</datestamp>
      <setSpec>user-biosyslit</setSpec>
    </header>
    <header>
      <identifier>oai:zenodo.org:828254</identifier>
      <datestamp>2017-07-15T08:45:54Z</datestamp>
      <setSpec>user-biosyslit</setSpec>
    </header>
    <header>
      <identifier>oai:zenodo.org:828250</identifier>
      <datestamp>2017-07-15T08:45:46Z</datestamp>
      <setSpec>user-biosyslit</setSpec>
    </header>
    <header>
      <identifier>oai:zenodo.org:828246</identifier>
      <datestamp>2017-07-15T08:45:38Z</datestamp>
      <setSpec>user-biosyslit</setSpec>
    </header>
    <header>
      <identifier>oai:zenodo.org:828252</identifier>
      <datestamp>2017-07-15T08:45:50Z</datestamp>
      <setSpec>user-biosyslit</setSpec>
    </header>
    <header>
      <identifier>oai:zenodo.org:828244</identifier>
      <datestamp>2017-07-15T08:45:35Z</datestamp>
      <setSpec>user-biosyslit</setSpec>
    </header>
    <header>
      <identifier>oai:zenodo.org:828264</identifier>
      <datestamp>2017-07-15T08:46:28Z</datestamp>
      <setSpec>user-biosyslit</setSpec>
    </header>
    <header>
      <identifier>oai:zenodo.org:828266</identifier>
      <datestamp>2017-07-15T08:46:32Z</datestamp>
      <setSpec>user-biosyslit</setSpec>
    </header>
    <header>
      <identifier>oai:zenodo.org:828262</identifier>
      <datestamp>2017-07-15T08:46:35Z</datestamp>
      <setSpec>user-biosyslit</setSpec>
    </header>
    <header>
      <identifier>oai:zenodo.org:828268</identifier>
      <datestamp>2017-07-15T08:47:20Z</datestamp>
      <setSpec>user-biosyslit</setSpec>
    </header>
    <header>
      <identifier>oai:zenodo.org:828300</identifier>
      <datestamp>2017-07-15T08:48:46Z</datestamp>
      <setSpec>user-biosyslit</setSpec>
    </header>
    <header>
      <identifier>oai:zenodo.org:828298</identifier>
      <datestamp>2017-07-15T08:48:42Z</datestamp>
      <setSpec>user-biosyslit</setSpec>
    </header>
    <header>
      <identifier>oai:zenodo.org:828272</identifier>
      <datestamp>2017-07-15T08:47:06Z</datestamp>
      <setSpec>user-biosyslit</setSpec>
    </header>
    <header>
      <identifier>oai:zenodo.org:828282</identifier>
      <datestamp>2017-07-15T08:47:40Z</datestamp>
      <setSpec>user-biosyslit</setSpec>
    </header>
    <header>
      <identifier>oai:zenodo.org:828274</identifier>
      <datestamp>2017-07-15T08:47:16Z</datestamp>
      <setSpec>user-biosyslit</setSpec>
    </header>
    <header>
      <identifier>oai:zenodo.org:828290</identifier>
      <datestamp>2017-07-15T08:48:03Z</datestamp>
      <setSpec>user-biosyslit</setSpec>
    </header>
    <header>
      <identifier>oai:zenodo.org:828270</identifier>
      <datestamp>2017-07-15T08:47:02Z</datestamp>
      <setSpec>user-biosyslit</setSpec>
    </header>
    <header>
      <identifier>oai:zenodo.org:828324</identifier>
      <datestamp>2017-07-15T08:49:52Z</datestamp>
      <setSpec>user-biosyslit</setSpec>
    </header>
    <header>
      <identifier>oai:zenodo.org:828294</identifier>
      <datestamp>2017-07-15T08:49:30Z</datestamp>
      <setSpec>user-biosyslit</setSpec>
    </header>
    <header>
      <identifier>oai:zenodo.org:828334</identifier>
      <datestamp>2017-07-15T08:50:08Z</datestamp>
      <setSpec>user-biosyslit</setSpec>
    </header>
    <header>
      <identifier>oai:zenodo.org:828304</identifier>
      <datestamp>2017-07-15T08:48:53Z</datestamp>
      <setSpec>user-biosyslit</setSpec>
    </header>
    <header>
      <identifier>oai:zenodo.org:828302</identifier>
      <datestamp>2017-07-15T08:48:50Z</datestamp>
      <setSpec>user-biosyslit</setSpec>
    </header>
    <header>
      <identifier>oai:zenodo.org:828322</identifier>
      <datestamp>2017-07-15T08:49:27Z</datestamp>
      <setSpec>user-biosyslit</setSpec>
    </header>
    <header>
      <identifier>oai:zenodo.org:828330</identifier>
      <datestamp>2017-07-15T08:49:48Z</datestamp>
      <setSpec>user-biosyslit</setSpec>
    </header>
    <header>
      <identifier>oai:zenodo.org:828328</identifier>
      <datestamp>2017-07-15T08:49:44Z</datestamp>
      <setSpec>user-biosyslit</setSpec>
    </header>
    <header>
      <identifier>oai:zenodo.org:828326</identifier>
      <datestamp>2017-07-15T08:49:41Z</datestamp>
      <setSpec>user-biosyslit</setSpec>
    </header>
    <header>
      <identifier>oai:zenodo.org:828347</identifier>
      <datestamp>2017-07-15T08:50:59Z</datestamp>
      <setSpec>user-biosyslit</setSpec>
    </header>
    <header>
      <identifier>oai:zenodo.org:828339</identifier>
      <datestamp>2017-07-15T08:50:23Z</datestamp>
      <setSpec>user-biosyslit</setSpec>
    </header>
    <header>
      <identifier>oai:zenodo.org:828365</identifier>
      <datestamp>2017-07-15T08:51:27Z</datestamp>
      <setSpec>user-biosyslit</setSpec>
    </header>
    <header>
      <identifier>oai:zenodo.org:828351</identifier>
      <datestamp>2017-07-15T08:50:52Z</datestamp>
      <setSpec>user-biosyslit</setSpec>
    </header>
    <header>
      <identifier>oai:zenodo.org:828357</identifier>
      <datestamp>2017-07-15T08:51:13Z</datestamp>
      <setSpec>user-biosyslit</setSpec>
    </header>
    <header>
      <identifier>oai:zenodo.org:828359</identifier>
      <datestamp>2017-07-15T08:51:17Z</datestamp>
      <setSpec>user-biosyslit</setSpec>
    </header>
    <header>
      <identifier>oai:zenodo.org:828355</identifier>
      <datestamp>2017-07-15T08:51:49Z</datestamp>
      <setSpec>user-biosyslit</setSpec>
    </header>
    <header>
      <identifier>oai:zenodo.org:828409</identifier>
      <datestamp>2017-07-15T08:53:36Z</datestamp>
      <setSpec>user-biosyslit</setSpec>
    </header>
    <header>
      <identifier>oai:zenodo.org:828367</identifier>
      <datestamp>2017-07-15T08:51:29Z</datestamp>
      <setSpec>user-biosyslit</setSpec>
    </header>
    <header>
      <identifier>oai:zenodo.org:828397</identifier>
      <datestamp>2017-07-15T08:52:46Z</datestamp>
      <setSpec>user-biosyslit</setSpec>
    </header>
    <header>
      <identifier>oai:zenodo.org:828379</identifier>
      <datestamp>2017-07-15T08:51:58Z</datestamp>
      <setSpec>user-biosyslit</setSpec>
    </header>
    <header>
      <identifier>oai:zenodo.org:828411</identifier>
      <datestamp>2017-07-15T08:53:40Z</datestamp>
      <setSpec>user-biosyslit</setSpec>
    </header>
    <header>
      <identifier>oai:zenodo.org:828393</identifier>
      <datestamp>2017-07-15T08:52:35Z</datestamp>
      <setSpec>user-biosyslit</setSpec>
    </header>
    <header>
      <identifier>oai:zenodo.org:828371</identifier>
      <datestamp>2017-07-15T08:51:35Z</datestamp>
      <setSpec>user-biosyslit</setSpec>
    </header>
    <header>
      <identifier>oai:zenodo.org:828373</identifier>
      <datestamp>2017-07-15T08:51:38Z</datestamp>
      <setSpec>user-biosyslit</setSpec>
    </header>
    <header>
      <identifier>oai:zenodo.org:828423</identifier>
      <datestamp>2017-07-15T08:54:42Z</datestamp>
      <setSpec>user-biosyslit</setSpec>
    </header>
    <header>
      <identifier>oai:zenodo.org:828427</identifier>
      <datestamp>2017-07-15T08:54:27Z</datestamp>
      <setSpec>user-biosyslit</setSpec>
    </header>
    <header>
      <identifier>oai:zenodo.org:828415</identifier>
      <datestamp>2017-07-15T08:53:46Z</datestamp>
      <setSpec>user-biosyslit</setSpec>
    </header>
    <header>
      <identifier>oai:zenodo.org:828419</identifier>
      <datestamp>2017-07-15T08:53:58Z</datestamp>
      <setSpec>user-biosyslit</setSpec>
    </header>
    <header>
      <identifier>oai:zenodo.org:828417</identifier>
      <datestamp>2017-07-15T08:53:50Z</datestamp>
      <setSpec>user-biosyslit</setSpec>
    </header>
    <header>
      <identifier>oai:zenodo.org:828445</identifier>
      <datestamp>2017-07-15T08:55:03Z</datestamp>
      <setSpec>user-biosyslit</setSpec>
    </header>
    <header>
      <identifier>oai:zenodo.org:828439</identifier>
      <datestamp>2017-07-15T08:54:54Z</datestamp>
      <setSpec>user-biosyslit</setSpec>
    </header>
    <header>
      <identifier>oai:zenodo.org:828425</identifier>
      <datestamp>2017-07-15T08:54:19Z</datestamp>
      <setSpec>user-biosyslit</setSpec>
    </header>
    <header>
      <identifier>oai:zenodo.org:828437</identifier>
      <datestamp>2017-07-15T08:54:50Z</datestamp>
      <setSpec>user-biosyslit</setSpec>
    </header>
    <header>
      <identifier>oai:zenodo.org:838052</identifier>
      <datestamp>2017-08-02T10:12:49Z</datestamp>
      <setSpec>user-biosyslit</setSpec>
    </header>
    <header>
      <identifier>oai:zenodo.org:838062</identifier>
      <datestamp>2017-08-02T10:13:04Z</datestamp>
      <setSpec>user-biosyslit</setSpec>
    </header>
    <header>
      <identifier>oai:zenodo.org:838056</identifier>
      <datestamp>2017-08-02T10:12:55Z</datestamp>
      <setSpec>user-biosyslit</setSpec>
    </header>
    <header>
      <identifier>oai:zenodo.org:838048</identifier>
      <datestamp>2017-08-02T10:12:43Z</datestamp>
      <setSpec>user-biosyslit</setSpec>
    </header>
    <header>
      <identifier>oai:zenodo.org:838076</identifier>
      <datestamp>2017-08-02T10:18:51Z</datestamp>
      <setSpec>user-biosyslit</setSpec>
    </header>
    <header>
      <identifier>oai:zenodo.org:838082</identifier>
      <datestamp>2017-08-02T10:18:43Z</datestamp>
      <setSpec>user-biosyslit</setSpec>
    </header>
    <header>
      <identifier>oai:zenodo.org:838084</identifier>
      <datestamp>2017-08-02T10:18:48Z</datestamp>
      <setSpec>user-biosyslit</setSpec>
    </header>
    <header>
      <identifier>oai:zenodo.org:838064</identifier>
      <datestamp>2017-08-02T10:13:08Z</datestamp>
      <setSpec>user-biosyslit</setSpec>
    </header>
    <header>
      <identifier>oai:zenodo.org:838072</identifier>
      <datestamp>2017-08-02T10:13:22Z</datestamp>
      <setSpec>user-biosyslit</setSpec>
    </header>
    <header>
      <identifier>oai:zenodo.org:838080</identifier>
      <datestamp>2017-08-02T10:18:38Z</datestamp>
      <setSpec>user-biosyslit</setSpec>
    </header>
    <header>
      <identifier>oai:zenodo.org:838066</identifier>
      <datestamp>2017-08-02T10:13:13Z</datestamp>
      <setSpec>user-biosyslit</setSpec>
    </header>
    <header>
      <identifier>oai:zenodo.org:838078</identifier>
      <datestamp>2017-08-02T10:18:32Z</datestamp>
      <setSpec>user-biosyslit</setSpec>
    </header>
    <header>
      <identifier>oai:zenodo.org:838109</identifier>
      <datestamp>2017-08-02T10:35:38Z</datestamp>
      <setSpec>user-biosyslit</setSpec>
    </header>
    <header>
      <identifier>oai:zenodo.org:838095</identifier>
      <datestamp>2017-08-02T10:30:45Z</datestamp>
      <setSpec>user-biosyslit</setSpec>
    </header>
    <header>
      <identifier>oai:zenodo.org:828517</identifier>
      <datestamp>2017-07-15T08:58:17Z</datestamp>
      <setSpec>user-biosyslit</setSpec>
    </header>
    <header>
      <identifier>oai:zenodo.org:828653</identifier>
      <datestamp>2017-07-15T09:03:46Z</datestamp>
      <setSpec>user-biosyslit</setSpec>
    </header>
    <header>
      <identifier>oai:zenodo.org:828499</identifier>
      <datestamp>2017-07-15T08:57:11Z</datestamp>
      <setSpec>user-biosyslit</setSpec>
    </header>
    <header>
      <identifier>oai:zenodo.org:828625</identifier>
      <datestamp>2017-07-15T09:02:39Z</datestamp>
      <setSpec>user-biosyslit</setSpec>
    </header>
    <header>
      <identifier>oai:zenodo.org:828663</identifier>
      <datestamp>2017-07-15T09:03:54Z</datestamp>
      <setSpec>user-biosyslit</setSpec>
    </header>
    <resumptionToken expirationDate="2017-08-31T15:45:30Z" cursor="38200" completeListSize="77796">.eJyNyj0LgkAYAOD_8s4S91FqQotY0qCil5IuYadIdZp4hXrif8-luebnmUCWZQEWWhGKdULIBhlY19GW6hpI3j2FuNwWB35OBG9EnLvJO6oTlJLK8B05eE5KffVAQY0VO4TkjM0hvqExPMWvVEVDQo89Q3vDU-Ho34_LK2jgiuzqtixubMFI0QX7cGTYZhnl34f_fOrnc-QONGjzqgSLmmsNHn3eVRKsaZ4_xMZRZw.DInAIg.SiXjMoY1SvW5rU8R6TeKokeeGqI</resumptionToken>
  </ListIdentifiers>
</OAI-PMH>
