<?xml version='1.0' encoding='UTF-8'?>
<?xml-stylesheet type="text/xsl" href="/static/xsl/oai2.v1.0.xsl"?>
<OAI-PMH xmlns="http://www.openarchives.org/OAI/2.0/" xmlns:xsi="http://www.w3.org/2001/XMLSchema-instance" xsi:schemaLocation="http://www.openarchives.org/OAI/2.0/ http://www.openarchives.org/OAI/2.0/OAI-PMH.xsd">
  <responseDate>2017-08-31T15:42:16Z</responseDate>
  <request verb="ListIdentifiers" resumptionToken=".eJyNz8EOQzAAgOF36VmWVo2R7CJMHBA6gstiJWLKRLeg4t3nsvN2_r_LvwJeVSUw4OGoKCqESFM1hHWoqhLgdHwydmv2DGiaMNqzuHCSd9QlMJNrzbf47FkZ9kULgw4JcgnlFJ3muIFLeI1fmYjmBLsTgbbmiXDxH-7uShw4LL87A4l7kxG5HAM7XAgySY7p16E_nfjpLH4GEhiKugIG0verdirGmgNj3bYPl9RRPA.DIm_2A.fXJnkzCLu5S7_CJVY3dIcTBiyzY">https://zenodo.org/oai2d</request>
  <ListIdentifiers>
    <header>
      <identifier>oai:zenodo.org:244120</identifier>
      <datestamp>2017-01-14T16:31:20Z</datestamp>
      <setSpec>user-biosyslit</setSpec>
    </header>
    <header>
      <identifier>oai:zenodo.org:244124</identifier>
      <datestamp>2017-01-14T16:31:38Z</datestamp>
      <setSpec>user-biosyslit</setSpec>
    </header>
    <header>
      <identifier>oai:zenodo.org:244100</identifier>
      <datestamp>2017-01-14T16:18:43Z</datestamp>
      <setSpec>user-biosyslit</setSpec>
    </header>
    <header>
      <identifier>oai:zenodo.org:245642</identifier>
      <datestamp>2017-01-15T16:41:01Z</datestamp>
      <setSpec>user-biosyslit</setSpec>
    </header>
    <header>
      <identifier>oai:zenodo.org:244874</identifier>
      <datestamp>2017-01-15T04:34:03Z</datestamp>
      <setSpec>user-biosyslit</setSpec>
    </header>
    <header>
      <identifier>oai:zenodo.org:244675</identifier>
      <datestamp>2017-01-15T01:10:01Z</datestamp>
      <setSpec>user-biosyslit</setSpec>
    </header>
    <header>
      <identifier>oai:zenodo.org:244219</identifier>
      <datestamp>2017-01-14T17:39:23Z</datestamp>
      <setSpec>user-biosyslit</setSpec>
    </header>
    <header>
      <identifier>oai:zenodo.org:245060</identifier>
      <datestamp>2017-01-15T07:12:00Z</datestamp>
      <setSpec>user-biosyslit</setSpec>
    </header>
    <header>
      <identifier>oai:zenodo.org:245393</identifier>
      <datestamp>2017-01-15T12:40:59Z</datestamp>
      <setSpec>user-biosyslit</setSpec>
    </header>
    <header>
      <identifier>oai:zenodo.org:272336</identifier>
      <datestamp>2017-02-08T04:18:03Z</datestamp>
      <setSpec>user-biosyslit</setSpec>
    </header>
    <header>
      <identifier>oai:zenodo.org:245164</identifier>
      <datestamp>2017-01-15T09:02:14Z</datestamp>
      <setSpec>user-biosyslit</setSpec>
    </header>
    <header>
      <identifier>oai:zenodo.org:245285</identifier>
      <datestamp>2017-01-15T11:15:59Z</datestamp>
      <setSpec>user-biosyslit</setSpec>
    </header>
    <header>
      <identifier>oai:zenodo.org:245183</identifier>
      <datestamp>2017-01-15T09:23:03Z</datestamp>
      <setSpec>user-biosyslit</setSpec>
    </header>
    <header>
      <identifier>oai:zenodo.org:245882</identifier>
      <datestamp>2017-01-15T19:13:01Z</datestamp>
      <setSpec>user-biosyslit</setSpec>
    </header>
    <header>
      <identifier>oai:zenodo.org:245834</identifier>
      <datestamp>2017-01-15T19:09:46Z</datestamp>
      <setSpec>user-biosyslit</setSpec>
    </header>
    <header>
      <identifier>oai:zenodo.org:289295</identifier>
      <datestamp>2017-02-09T23:10:00Z</datestamp>
      <setSpec>user-biosyslit</setSpec>
    </header>
    <header>
      <identifier>oai:zenodo.org:289064</identifier>
      <datestamp>2017-02-09T22:33:37Z</datestamp>
      <setSpec>user-biosyslit</setSpec>
    </header>
    <header>
      <identifier>oai:zenodo.org:245774</identifier>
      <datestamp>2017-01-15T18:29:03Z</datestamp>
      <setSpec>user-biosyslit</setSpec>
    </header>
    <header>
      <identifier>oai:zenodo.org:289084</identifier>
      <datestamp>2017-02-09T22:36:21Z</datestamp>
      <setSpec>user-biosyslit</setSpec>
    </header>
    <header>
      <identifier>oai:zenodo.org:289520</identifier>
      <datestamp>2017-02-09T23:44:12Z</datestamp>
      <setSpec>user-biosyslit</setSpec>
    </header>
    <header>
      <identifier>oai:zenodo.org:289458</identifier>
      <datestamp>2017-02-09T23:32:44Z</datestamp>
      <setSpec>user-biosyslit</setSpec>
    </header>
    <header>
      <identifier>oai:zenodo.org:289115</identifier>
      <datestamp>2017-02-09T22:45:20Z</datestamp>
      <setSpec>user-biosyslit</setSpec>
    </header>
    <header>
      <identifier>oai:zenodo.org:289535</identifier>
      <datestamp>2017-02-09T23:48:38Z</datestamp>
      <setSpec>user-biosyslit</setSpec>
    </header>
    <header>
      <identifier>oai:zenodo.org:289865</identifier>
      <datestamp>2017-02-10T00:42:40Z</datestamp>
      <setSpec>user-biosyslit</setSpec>
    </header>
    <header>
      <identifier>oai:zenodo.org:289453</identifier>
      <datestamp>2017-02-09T23:32:27Z</datestamp>
      <setSpec>user-biosyslit</setSpec>
    </header>
    <header>
      <identifier>oai:zenodo.org:289964</identifier>
      <datestamp>2017-02-10T00:53:30Z</datestamp>
      <setSpec>user-biosyslit</setSpec>
    </header>
    <header>
      <identifier>oai:zenodo.org:290058</identifier>
      <datestamp>2017-02-10T01:13:13Z</datestamp>
      <setSpec>user-biosyslit</setSpec>
    </header>
    <header>
      <identifier>oai:zenodo.org:291401</identifier>
      <datestamp>2017-02-14T05:50:50Z</datestamp>
      <setSpec>user-biosyslit</setSpec>
    </header>
    <header>
      <identifier>oai:zenodo.org:289902</identifier>
      <datestamp>2017-02-10T00:46:08Z</datestamp>
      <setSpec>user-biosyslit</setSpec>
    </header>
    <header>
      <identifier>oai:zenodo.org:289807</identifier>
      <datestamp>2017-02-10T00:31:26Z</datestamp>
      <setSpec>user-biosyslit</setSpec>
    </header>
    <header>
      <identifier>oai:zenodo.org:289913</identifier>
      <datestamp>2017-02-10T00:46:37Z</datestamp>
      <setSpec>user-biosyslit</setSpec>
    </header>
    <header>
      <identifier>oai:zenodo.org:291777</identifier>
      <datestamp>2017-02-14T17:08:27Z</datestamp>
      <setSpec>user-biosyslit</setSpec>
    </header>
    <header>
      <identifier>oai:zenodo.org:291497</identifier>
      <datestamp>2017-02-15T16:02:48Z</datestamp>
      <setSpec>openaire</setSpec>
      <setSpec>user-biosyslit</setSpec>
    </header>
    <header>
      <identifier>oai:zenodo.org:291296</identifier>
      <datestamp>2017-02-13T20:40:52Z</datestamp>
      <setSpec>user-biosyslit</setSpec>
    </header>
    <header>
      <identifier>oai:zenodo.org:291400</identifier>
      <datestamp>2017-02-14T05:50:07Z</datestamp>
      <setSpec>user-biosyslit</setSpec>
    </header>
    <header>
      <identifier>oai:zenodo.org:291922</identifier>
      <datestamp>2017-02-15T14:35:55Z</datestamp>
      <setSpec>user-biosyslit</setSpec>
    </header>
    <header>
      <identifier>oai:zenodo.org:292607</identifier>
      <datestamp>2017-02-20T08:32:33Z</datestamp>
      <setSpec>openaire</setSpec>
      <setSpec>user-biosyslit</setSpec>
    </header>
    <header>
      <identifier>oai:zenodo.org:292288</identifier>
      <datestamp>2017-02-20T08:30:46Z</datestamp>
      <setSpec>user-biosyslit</setSpec>
    </header>
    <header>
      <identifier>oai:zenodo.org:292286</identifier>
      <datestamp>2017-02-20T08:30:20Z</datestamp>
      <setSpec>openaire</setSpec>
      <setSpec>user-biosyslit</setSpec>
    </header>
    <header>
      <identifier>oai:zenodo.org:292285</identifier>
      <datestamp>2017-02-20T08:30:13Z</datestamp>
      <setSpec>openaire</setSpec>
      <setSpec>user-biosyslit</setSpec>
    </header>
    <header>
      <identifier>oai:zenodo.org:292305</identifier>
      <datestamp>2017-02-20T08:30:11Z</datestamp>
      <setSpec>user-biosyslit</setSpec>
    </header>
    <header>
      <identifier>oai:zenodo.org:293200</identifier>
      <datestamp>2017-02-21T00:00:46Z</datestamp>
      <setSpec>openaire</setSpec>
      <setSpec>user-biosyslit</setSpec>
    </header>
    <header>
      <identifier>oai:zenodo.org:292325</identifier>
      <datestamp>2017-02-20T08:29:43Z</datestamp>
      <setSpec>openaire</setSpec>
      <setSpec>user-biosyslit</setSpec>
    </header>
    <header>
      <identifier>oai:zenodo.org:292789</identifier>
      <datestamp>2017-02-16T18:40:36Z</datestamp>
      <setSpec>user-biosyslit</setSpec>
    </header>
    <header>
      <identifier>oai:zenodo.org:292822</identifier>
      <datestamp>2017-02-16T18:43:51Z</datestamp>
      <setSpec>user-biosyslit</setSpec>
    </header>
    <header>
      <identifier>oai:zenodo.org:292936</identifier>
      <datestamp>2017-02-20T08:16:19Z</datestamp>
      <setSpec>user-neilreichia</setSpec>
      <setSpec>user-biosyslit</setSpec>
    </header>
    <header>
      <identifier>oai:zenodo.org:292792</identifier>
      <datestamp>2017-02-16T18:41:14Z</datestamp>
      <setSpec>user-biosyslit</setSpec>
    </header>
    <header>
      <identifier>oai:zenodo.org:293621</identifier>
      <datestamp>2017-02-19T13:54:29Z</datestamp>
      <setSpec>user-biosyslit</setSpec>
    </header>
    <header>
      <identifier>oai:zenodo.org:292634</identifier>
      <datestamp>2017-02-20T08:16:25Z</datestamp>
      <setSpec>openaire</setSpec>
      <setSpec>user-biosyslit</setSpec>
    </header>
    <header>
      <identifier>oai:zenodo.org:292748</identifier>
      <datestamp>2017-02-16T18:35:34Z</datestamp>
      <setSpec>user-biosyslit</setSpec>
    </header>
    <header>
      <identifier>oai:zenodo.org:293029</identifier>
      <datestamp>2017-02-19T11:38:19Z</datestamp>
      <setSpec>user-neilreichia</setSpec>
      <setSpec>user-biosyslit</setSpec>
    </header>
    <header>
      <identifier>oai:zenodo.org:293929</identifier>
      <datestamp>2017-02-20T18:59:57Z</datestamp>
      <setSpec>user-biosyslit</setSpec>
    </header>
    <header>
      <identifier>oai:zenodo.org:293874</identifier>
      <datestamp>2017-02-20T18:53:12Z</datestamp>
      <setSpec>user-biosyslit</setSpec>
    </header>
    <header>
      <identifier>oai:zenodo.org:293983</identifier>
      <datestamp>2017-02-20T19:05:31Z</datestamp>
      <setSpec>user-biosyslit</setSpec>
    </header>
    <header>
      <identifier>oai:zenodo.org:294185</identifier>
      <datestamp>2017-02-20T19:26:24Z</datestamp>
      <setSpec>user-biosyslit</setSpec>
    </header>
    <header>
      <identifier>oai:zenodo.org:294194</identifier>
      <datestamp>2017-02-20T19:27:30Z</datestamp>
      <setSpec>user-biosyslit</setSpec>
    </header>
    <header>
      <identifier>oai:zenodo.org:294459</identifier>
      <datestamp>2017-02-20T19:39:01Z</datestamp>
      <setSpec>user-biosyslit</setSpec>
    </header>
    <header>
      <identifier>oai:zenodo.org:293937</identifier>
      <datestamp>2017-02-20T19:00:55Z</datestamp>
      <setSpec>user-biosyslit</setSpec>
    </header>
    <header>
      <identifier>oai:zenodo.org:293984</identifier>
      <datestamp>2017-02-20T19:06:03Z</datestamp>
      <setSpec>user-biosyslit</setSpec>
    </header>
    <header>
      <identifier>oai:zenodo.org:296605</identifier>
      <datestamp>2017-02-20T20:15:37Z</datestamp>
      <setSpec>user-biosyslit</setSpec>
    </header>
    <header>
      <identifier>oai:zenodo.org:294182</identifier>
      <datestamp>2017-02-20T19:26:17Z</datestamp>
      <setSpec>user-biosyslit</setSpec>
    </header>
    <header>
      <identifier>oai:zenodo.org:305498</identifier>
      <datestamp>2017-02-20T22:40:54Z</datestamp>
      <setSpec>user-biosyslit</setSpec>
    </header>
    <header>
      <identifier>oai:zenodo.org:303121</identifier>
      <datestamp>2017-02-20T22:01:25Z</datestamp>
      <setSpec>user-biosyslit</setSpec>
    </header>
    <header>
      <identifier>oai:zenodo.org:304610</identifier>
      <datestamp>2017-02-20T22:25:59Z</datestamp>
      <setSpec>user-biosyslit</setSpec>
    </header>
    <header>
      <identifier>oai:zenodo.org:306281</identifier>
      <datestamp>2017-02-20T22:53:37Z</datestamp>
      <setSpec>user-biosyslit</setSpec>
    </header>
    <header>
      <identifier>oai:zenodo.org:311055</identifier>
      <datestamp>2017-02-21T00:15:16Z</datestamp>
      <setSpec>user-biosyslit</setSpec>
    </header>
    <header>
      <identifier>oai:zenodo.org:322328</identifier>
      <datestamp>2017-02-24T09:47:15Z</datestamp>
      <setSpec>user-biosyslit</setSpec>
    </header>
    <header>
      <identifier>oai:zenodo.org:312511</identifier>
      <datestamp>2017-02-21T00:44:54Z</datestamp>
      <setSpec>user-biosyslit</setSpec>
    </header>
    <header>
      <identifier>oai:zenodo.org:312331</identifier>
      <datestamp>2017-02-21T00:42:10Z</datestamp>
      <setSpec>user-biosyslit</setSpec>
    </header>
    <header>
      <identifier>oai:zenodo.org:571035</identifier>
      <datestamp>2017-05-03T08:04:07Z</datestamp>
      <setSpec>user-biosyslit</setSpec>
    </header>
    <header>
      <identifier>oai:zenodo.org:572524</identifier>
      <datestamp>2017-05-08T07:19:53Z</datestamp>
      <setSpec>user-biosyslit</setSpec>
    </header>
    <header>
      <identifier>oai:zenodo.org:572561</identifier>
      <datestamp>2017-05-08T08:08:20Z</datestamp>
      <setSpec>user-biosyslit</setSpec>
    </header>
    <header>
      <identifier>oai:zenodo.org:569452</identifier>
      <datestamp>2017-04-27T08:26:49Z</datestamp>
      <setSpec>user-biosyslit</setSpec>
    </header>
    <header>
      <identifier>oai:zenodo.org:571716</identifier>
      <datestamp>2017-05-05T08:35:33Z</datestamp>
      <setSpec>user-biosyslit</setSpec>
    </header>
    <header>
      <identifier>oai:zenodo.org:571622</identifier>
      <datestamp>2017-05-05T08:10:22Z</datestamp>
      <setSpec>user-biosyslit</setSpec>
    </header>
    <header>
      <identifier>oai:zenodo.org:569470</identifier>
      <datestamp>2017-04-27T08:53:11Z</datestamp>
      <setSpec>user-biosyslit</setSpec>
    </header>
    <header>
      <identifier>oai:zenodo.org:573158</identifier>
      <datestamp>2017-05-09T09:00:13Z</datestamp>
      <setSpec>user-biosyslit</setSpec>
    </header>
    <header>
      <identifier>oai:zenodo.org:569740</identifier>
      <datestamp>2017-04-28T07:22:14Z</datestamp>
      <setSpec>user-biosyslit</setSpec>
    </header>
    <header>
      <identifier>oai:zenodo.org:573128</identifier>
      <datestamp>2017-05-09T08:30:03Z</datestamp>
      <setSpec>user-biosyslit</setSpec>
    </header>
    <header>
      <identifier>oai:zenodo.org:573075</identifier>
      <datestamp>2017-05-09T07:31:26Z</datestamp>
      <setSpec>user-biosyslit</setSpec>
    </header>
    <header>
      <identifier>oai:zenodo.org:556303</identifier>
      <datestamp>2017-04-20T08:01:12Z</datestamp>
      <setSpec>user-biosyslit</setSpec>
    </header>
    <header>
      <identifier>oai:zenodo.org:571712</identifier>
      <datestamp>2017-05-05T08:35:26Z</datestamp>
      <setSpec>user-biosyslit</setSpec>
    </header>
    <header>
      <identifier>oai:zenodo.org:573109</identifier>
      <datestamp>2017-05-09T08:31:44Z</datestamp>
      <setSpec>user-biosyslit</setSpec>
    </header>
    <header>
      <identifier>oai:zenodo.org:571627</identifier>
      <datestamp>2017-05-05T08:10:34Z</datestamp>
      <setSpec>user-biosyslit</setSpec>
    </header>
    <header>
      <identifier>oai:zenodo.org:571637</identifier>
      <datestamp>2017-05-05T08:10:58Z</datestamp>
      <setSpec>user-biosyslit</setSpec>
    </header>
    <header>
      <identifier>oai:zenodo.org:438526</identifier>
      <datestamp>2017-03-28T07:14:02Z</datestamp>
      <setSpec>user-biosyslit</setSpec>
    </header>
    <header>
      <identifier>oai:zenodo.org:572556</identifier>
      <datestamp>2017-05-08T08:08:39Z</datestamp>
      <setSpec>user-biosyslit</setSpec>
    </header>
    <header>
      <identifier>oai:zenodo.org:571718</identifier>
      <datestamp>2017-05-05T08:35:38Z</datestamp>
      <setSpec>user-biosyslit</setSpec>
    </header>
    <header>
      <identifier>oai:zenodo.org:571678</identifier>
      <datestamp>2017-05-05T08:12:33Z</datestamp>
      <setSpec>user-biosyslit</setSpec>
    </header>
    <header>
      <identifier>oai:zenodo.org:438261</identifier>
      <datestamp>2017-03-27T08:23:48Z</datestamp>
      <setSpec>user-biosyslit</setSpec>
    </header>
    <header>
      <identifier>oai:zenodo.org:438228</identifier>
      <datestamp>2017-03-27T07:36:38Z</datestamp>
      <setSpec>user-biosyslit</setSpec>
    </header>
    <header>
      <identifier>oai:zenodo.org:439297</identifier>
      <datestamp>2017-03-31T09:17:43Z</datestamp>
      <setSpec>user-biosyslit</setSpec>
    </header>
    <header>
      <identifier>oai:zenodo.org:438902</identifier>
      <datestamp>2017-03-29T08:30:31Z</datestamp>
      <setSpec>user-biosyslit</setSpec>
    </header>
    <header>
      <identifier>oai:zenodo.org:557169</identifier>
      <datestamp>2017-04-25T09:17:05Z</datestamp>
      <setSpec>user-biosyslit</setSpec>
    </header>
    <header>
      <identifier>oai:zenodo.org:495029</identifier>
      <datestamp>2017-04-05T07:23:28Z</datestamp>
      <setSpec>user-biosyslit</setSpec>
    </header>
    <header>
      <identifier>oai:zenodo.org:495525</identifier>
      <datestamp>2017-04-07T07:30:50Z</datestamp>
      <setSpec>user-biosyslit</setSpec>
    </header>
    <header>
      <identifier>oai:zenodo.org:495823</identifier>
      <datestamp>2017-04-10T07:20:37Z</datestamp>
      <setSpec>user-biosyslit</setSpec>
    </header>
    <header>
      <identifier>oai:zenodo.org:495856</identifier>
      <datestamp>2017-04-10T07:55:59Z</datestamp>
      <setSpec>user-biosyslit</setSpec>
    </header>
    <header>
      <identifier>oai:zenodo.org:545725</identifier>
      <datestamp>2017-04-12T07:45:30Z</datestamp>
      <setSpec>user-biosyslit</setSpec>
    </header>
    <header>
      <identifier>oai:zenodo.org:556044</identifier>
      <datestamp>2017-04-19T07:30:36Z</datestamp>
      <setSpec>user-biosyslit</setSpec>
    </header>
    <resumptionToken expirationDate="2017-08-31T15:44:16Z" cursor="19500" completeListSize="77796">.eJyNyk0LgjAYAOD_8p4lNudXQhexpEOKro30EjZFqmXiCnXSf69L5zo_zwyqrivw0cK2XM9G2LIc7NiYOAYo0d-lPJ4_DOLApWglKyP-zG4c5WbjxqEad2FOYn1FyQ1ruknNA_ZGdkZTumePXGcjJ9uBorW70-kUX7afV5EkksUp6ihrA0nNqk_W6URxQAsivg__-fTPF6oVGNCVTQ0-XroGXIeybxT48-v1BpkPUT4.DIm_2A.SxvCL4gufoDZBRq_ykSZbA7_gyI</resumptionToken>
  </ListIdentifiers>
</OAI-PMH>
