<?xml version='1.0' encoding='UTF-8'?>
<?xml-stylesheet type="text/xsl" href="/static/xsl/oai2.v1.0.xsl"?>
<OAI-PMH xmlns="http://www.openarchives.org/OAI/2.0/" xmlns:xsi="http://www.w3.org/2001/XMLSchema-instance" xsi:schemaLocation="http://www.openarchives.org/OAI/2.0/ http://www.openarchives.org/OAI/2.0/OAI-PMH.xsd">
  <responseDate>2017-08-31T15:42:52Z</responseDate>
  <request verb="ListIdentifiers" resumptionToken=".eJyNyssKgkAUANB_uWuJeZQvaCOatFDRSVE3YSpSjiZOoU7077lpXetzXiDqugITbahmYKxTY6dinVC0VRUQ5Xjn_HxdHco04WXP48JNnlGXoIw0mm-L2bMz6ssWBR2W7BCSFOtzfEVLeIofmYzmhB4nhhzNk-Hi347rq2jg8vziDizuLc5INQZOuDBssZyW34f_fPLns8UeFBiKpgaT6IYC7VSMjQDz9X5_ANNKUXo.DIm__A.ko8niEqCQ3IP8p41iYVLH7NMRH0">https://zenodo.org/oai2d</request>
  <ListIdentifiers>
    <header>
      <identifier>oai:zenodo.org:231686</identifier>
      <datestamp>2017-01-06T05:57:19Z</datestamp>
      <setSpec>user-biosyslit</setSpec>
    </header>
    <header>
      <identifier>oai:zenodo.org:266933</identifier>
      <datestamp>2017-02-01T17:14:11Z</datestamp>
      <setSpec>user-biosyslit</setSpec>
    </header>
    <header>
      <identifier>oai:zenodo.org:231549</identifier>
      <datestamp>2017-01-06T03:50:51Z</datestamp>
      <setSpec>user-biosyslit</setSpec>
    </header>
    <header>
      <identifier>oai:zenodo.org:231553</identifier>
      <datestamp>2017-01-06T03:50:30Z</datestamp>
      <setSpec>user-biosyslit</setSpec>
    </header>
    <header>
      <identifier>oai:zenodo.org:231556</identifier>
      <datestamp>2017-01-06T03:50:41Z</datestamp>
      <setSpec>user-biosyslit</setSpec>
    </header>
    <header>
      <identifier>oai:zenodo.org:231555</identifier>
      <datestamp>2017-01-06T03:50:36Z</datestamp>
      <setSpec>user-biosyslit</setSpec>
    </header>
    <header>
      <identifier>oai:zenodo.org:235766</identifier>
      <datestamp>2017-01-09T14:31:08Z</datestamp>
      <setSpec>user-biosyslit</setSpec>
    </header>
    <header>
      <identifier>oai:zenodo.org:235775</identifier>
      <datestamp>2017-01-09T14:31:43Z</datestamp>
      <setSpec>user-biosyslit</setSpec>
    </header>
    <header>
      <identifier>oai:zenodo.org:235772</identifier>
      <datestamp>2017-01-09T14:31:28Z</datestamp>
      <setSpec>user-biosyslit</setSpec>
    </header>
    <header>
      <identifier>oai:zenodo.org:235774</identifier>
      <datestamp>2017-01-09T14:31:36Z</datestamp>
      <setSpec>user-biosyslit</setSpec>
    </header>
    <header>
      <identifier>oai:zenodo.org:246527</identifier>
      <datestamp>2017-01-16T03:30:38Z</datestamp>
      <setSpec>user-biosyslit</setSpec>
    </header>
    <header>
      <identifier>oai:zenodo.org:246536</identifier>
      <datestamp>2017-01-16T03:30:19Z</datestamp>
      <setSpec>user-biosyslit</setSpec>
    </header>
    <header>
      <identifier>oai:zenodo.org:246532</identifier>
      <datestamp>2017-01-16T03:30:06Z</datestamp>
      <setSpec>user-biosyslit</setSpec>
    </header>
    <header>
      <identifier>oai:zenodo.org:246539</identifier>
      <datestamp>2017-01-16T03:30:29Z</datestamp>
      <setSpec>user-biosyslit</setSpec>
    </header>
    <header>
      <identifier>oai:zenodo.org:246540</identifier>
      <datestamp>2017-01-16T03:30:32Z</datestamp>
      <setSpec>user-biosyslit</setSpec>
    </header>
    <header>
      <identifier>oai:zenodo.org:246541</identifier>
      <datestamp>2017-01-16T03:30:36Z</datestamp>
      <setSpec>user-biosyslit</setSpec>
    </header>
    <header>
      <identifier>oai:zenodo.org:283732</identifier>
      <datestamp>2017-02-09T09:33:30Z</datestamp>
      <setSpec>user-biosyslit</setSpec>
    </header>
    <header>
      <identifier>oai:zenodo.org:283729</identifier>
      <datestamp>2017-02-09T09:33:22Z</datestamp>
      <setSpec>user-biosyslit</setSpec>
    </header>
    <header>
      <identifier>oai:zenodo.org:283733</identifier>
      <datestamp>2017-02-09T09:33:32Z</datestamp>
      <setSpec>user-biosyslit</setSpec>
    </header>
    <header>
      <identifier>oai:zenodo.org:262612</identifier>
      <datestamp>2017-01-29T06:16:47Z</datestamp>
      <setSpec>user-biosyslit</setSpec>
    </header>
    <header>
      <identifier>oai:zenodo.org:281578</identifier>
      <datestamp>2017-02-09T05:33:45Z</datestamp>
      <setSpec>user-biosyslit</setSpec>
    </header>
    <header>
      <identifier>oai:zenodo.org:262616</identifier>
      <datestamp>2017-01-29T06:16:59Z</datestamp>
      <setSpec>user-biosyslit</setSpec>
    </header>
    <header>
      <identifier>oai:zenodo.org:262611</identifier>
      <datestamp>2017-01-29T06:16:43Z</datestamp>
      <setSpec>user-biosyslit</setSpec>
    </header>
    <header>
      <identifier>oai:zenodo.org:262613</identifier>
      <datestamp>2017-01-29T06:16:49Z</datestamp>
      <setSpec>user-biosyslit</setSpec>
    </header>
    <header>
      <identifier>oai:zenodo.org:283734</identifier>
      <datestamp>2017-02-09T09:33:33Z</datestamp>
      <setSpec>user-biosyslit</setSpec>
    </header>
    <header>
      <identifier>oai:zenodo.org:252606</identifier>
      <datestamp>2017-01-19T17:10:17Z</datestamp>
      <setSpec>user-biosyslit</setSpec>
    </header>
    <header>
      <identifier>oai:zenodo.org:252600</identifier>
      <datestamp>2017-01-19T17:09:58Z</datestamp>
      <setSpec>user-biosyslit</setSpec>
    </header>
    <header>
      <identifier>oai:zenodo.org:252603</identifier>
      <datestamp>2017-01-19T17:10:07Z</datestamp>
      <setSpec>user-biosyslit</setSpec>
    </header>
    <header>
      <identifier>oai:zenodo.org:252608</identifier>
      <datestamp>2017-01-19T17:10:23Z</datestamp>
      <setSpec>user-biosyslit</setSpec>
    </header>
    <header>
      <identifier>oai:zenodo.org:252602</identifier>
      <datestamp>2017-01-19T17:10:04Z</datestamp>
      <setSpec>user-biosyslit</setSpec>
    </header>
    <header>
      <identifier>oai:zenodo.org:252605</identifier>
      <datestamp>2017-01-19T17:10:13Z</datestamp>
      <setSpec>user-biosyslit</setSpec>
    </header>
    <header>
      <identifier>oai:zenodo.org:252598</identifier>
      <datestamp>2017-01-19T17:09:44Z</datestamp>
      <setSpec>user-biosyslit</setSpec>
    </header>
    <header>
      <identifier>oai:zenodo.org:252607</identifier>
      <datestamp>2017-01-19T17:10:20Z</datestamp>
      <setSpec>user-biosyslit</setSpec>
    </header>
    <header>
      <identifier>oai:zenodo.org:252597</identifier>
      <datestamp>2017-01-19T17:09:42Z</datestamp>
      <setSpec>user-biosyslit</setSpec>
    </header>
    <header>
      <identifier>oai:zenodo.org:242146</identifier>
      <datestamp>2017-01-13T10:59:25Z</datestamp>
      <setSpec>user-biosyslit</setSpec>
    </header>
    <header>
      <identifier>oai:zenodo.org:237343</identifier>
      <datestamp>2017-01-10T14:31:00Z</datestamp>
      <setSpec>user-biosyslit</setSpec>
    </header>
    <header>
      <identifier>oai:zenodo.org:242149</identifier>
      <datestamp>2017-01-13T10:59:12Z</datestamp>
      <setSpec>user-biosyslit</setSpec>
    </header>
    <header>
      <identifier>oai:zenodo.org:242151</identifier>
      <datestamp>2017-01-13T10:59:21Z</datestamp>
      <setSpec>user-biosyslit</setSpec>
    </header>
    <header>
      <identifier>oai:zenodo.org:237344</identifier>
      <datestamp>2017-01-10T14:31:03Z</datestamp>
      <setSpec>user-biosyslit</setSpec>
    </header>
    <header>
      <identifier>oai:zenodo.org:240852</identifier>
      <datestamp>2017-01-12T14:52:32Z</datestamp>
      <setSpec>user-biosyslit</setSpec>
    </header>
    <header>
      <identifier>oai:zenodo.org:277532</identifier>
      <datestamp>2017-02-08T21:19:00Z</datestamp>
      <setSpec>user-biosyslit</setSpec>
    </header>
    <header>
      <identifier>oai:zenodo.org:269536</identifier>
      <datestamp>2017-02-07T00:51:00Z</datestamp>
      <setSpec>user-biosyslit</setSpec>
    </header>
    <header>
      <identifier>oai:zenodo.org:269539</identifier>
      <datestamp>2017-02-07T00:50:58Z</datestamp>
      <setSpec>user-biosyslit</setSpec>
    </header>
    <header>
      <identifier>oai:zenodo.org:269537</identifier>
      <datestamp>2017-02-07T00:50:52Z</datestamp>
      <setSpec>user-biosyslit</setSpec>
    </header>
    <header>
      <identifier>oai:zenodo.org:270901</identifier>
      <datestamp>2017-02-08T00:11:46Z</datestamp>
      <setSpec>user-biosyslit</setSpec>
    </header>
    <header>
      <identifier>oai:zenodo.org:270900</identifier>
      <datestamp>2017-02-08T00:11:44Z</datestamp>
      <setSpec>user-biosyslit</setSpec>
    </header>
    <header>
      <identifier>oai:zenodo.org:269538</identifier>
      <datestamp>2017-02-07T00:50:55Z</datestamp>
      <setSpec>user-biosyslit</setSpec>
    </header>
    <header>
      <identifier>oai:zenodo.org:229961</identifier>
      <datestamp>2017-01-04T16:22:03Z</datestamp>
      <setSpec>user-biosyslit</setSpec>
    </header>
    <header>
      <identifier>oai:zenodo.org:229959</identifier>
      <datestamp>2017-01-04T16:21:57Z</datestamp>
      <setSpec>user-biosyslit</setSpec>
    </header>
    <header>
      <identifier>oai:zenodo.org:229956</identifier>
      <datestamp>2017-01-04T16:22:05Z</datestamp>
      <setSpec>user-biosyslit</setSpec>
    </header>
    <header>
      <identifier>oai:zenodo.org:229958</identifier>
      <datestamp>2017-01-04T16:21:53Z</datestamp>
      <setSpec>user-biosyslit</setSpec>
    </header>
    <header>
      <identifier>oai:zenodo.org:226929</identifier>
      <datestamp>2017-01-01T06:51:59Z</datestamp>
      <setSpec>user-biosyslit</setSpec>
    </header>
    <header>
      <identifier>oai:zenodo.org:233231</identifier>
      <datestamp>2017-01-08T02:22:57Z</datestamp>
      <setSpec>user-biosyslit</setSpec>
    </header>
    <header>
      <identifier>oai:zenodo.org:233233</identifier>
      <datestamp>2017-01-08T02:22:48Z</datestamp>
      <setSpec>user-biosyslit</setSpec>
    </header>
    <header>
      <identifier>oai:zenodo.org:287771</identifier>
      <datestamp>2017-02-09T19:15:55Z</datestamp>
      <setSpec>user-biosyslit</setSpec>
    </header>
    <header>
      <identifier>oai:zenodo.org:287780</identifier>
      <datestamp>2017-02-09T19:15:42Z</datestamp>
      <setSpec>user-biosyslit</setSpec>
    </header>
    <header>
      <identifier>oai:zenodo.org:287781</identifier>
      <datestamp>2017-02-09T19:15:45Z</datestamp>
      <setSpec>user-biosyslit</setSpec>
    </header>
    <header>
      <identifier>oai:zenodo.org:287779</identifier>
      <datestamp>2017-02-09T19:15:39Z</datestamp>
      <setSpec>user-biosyslit</setSpec>
    </header>
    <header>
      <identifier>oai:zenodo.org:287773</identifier>
      <datestamp>2017-02-09T19:15:20Z</datestamp>
      <setSpec>user-biosyslit</setSpec>
    </header>
    <header>
      <identifier>oai:zenodo.org:287777</identifier>
      <datestamp>2017-02-09T19:15:34Z</datestamp>
      <setSpec>user-biosyslit</setSpec>
    </header>
    <header>
      <identifier>oai:zenodo.org:287783</identifier>
      <datestamp>2017-02-09T19:15:51Z</datestamp>
      <setSpec>user-biosyslit</setSpec>
    </header>
    <header>
      <identifier>oai:zenodo.org:287782</identifier>
      <datestamp>2017-02-09T19:15:48Z</datestamp>
      <setSpec>user-biosyslit</setSpec>
    </header>
    <header>
      <identifier>oai:zenodo.org:287784</identifier>
      <datestamp>2017-02-09T19:15:53Z</datestamp>
      <setSpec>user-biosyslit</setSpec>
    </header>
    <header>
      <identifier>oai:zenodo.org:265154</identifier>
      <datestamp>2017-01-31T09:22:56Z</datestamp>
      <setSpec>user-biosyslit</setSpec>
    </header>
    <header>
      <identifier>oai:zenodo.org:232066</identifier>
      <datestamp>2017-01-06T10:55:39Z</datestamp>
      <setSpec>user-biosyslit</setSpec>
    </header>
    <header>
      <identifier>oai:zenodo.org:265158</identifier>
      <datestamp>2017-01-31T09:22:46Z</datestamp>
      <setSpec>user-biosyslit</setSpec>
    </header>
    <header>
      <identifier>oai:zenodo.org:232071</identifier>
      <datestamp>2017-01-06T10:55:32Z</datestamp>
      <setSpec>user-biosyslit</setSpec>
    </header>
    <header>
      <identifier>oai:zenodo.org:242049</identifier>
      <datestamp>2017-01-13T09:46:41Z</datestamp>
      <setSpec>user-biosyslit</setSpec>
    </header>
    <header>
      <identifier>oai:zenodo.org:242051</identifier>
      <datestamp>2017-01-13T09:46:49Z</datestamp>
      <setSpec>user-biosyslit</setSpec>
    </header>
    <header>
      <identifier>oai:zenodo.org:242052</identifier>
      <datestamp>2017-01-13T09:46:52Z</datestamp>
      <setSpec>user-biosyslit</setSpec>
    </header>
    <header>
      <identifier>oai:zenodo.org:242053</identifier>
      <datestamp>2017-01-13T09:46:55Z</datestamp>
      <setSpec>user-biosyslit</setSpec>
    </header>
    <header>
      <identifier>oai:zenodo.org:242054</identifier>
      <datestamp>2017-01-13T09:46:59Z</datestamp>
      <setSpec>user-biosyslit</setSpec>
    </header>
    <header>
      <identifier>oai:zenodo.org:285869</identifier>
      <datestamp>2017-02-09T14:44:15Z</datestamp>
      <setSpec>user-biosyslit</setSpec>
    </header>
    <header>
      <identifier>oai:zenodo.org:238716</identifier>
      <datestamp>2017-01-11T10:53:51Z</datestamp>
      <setSpec>user-biosyslit</setSpec>
    </header>
    <header>
      <identifier>oai:zenodo.org:278361</identifier>
      <datestamp>2017-02-08T23:02:19Z</datestamp>
      <setSpec>user-biosyslit</setSpec>
    </header>
    <header>
      <identifier>oai:zenodo.org:288573</identifier>
      <datestamp>2017-02-09T21:24:17Z</datestamp>
      <setSpec>user-biosyslit</setSpec>
    </header>
    <header>
      <identifier>oai:zenodo.org:288577</identifier>
      <datestamp>2017-02-09T21:24:27Z</datestamp>
      <setSpec>user-biosyslit</setSpec>
    </header>
    <header>
      <identifier>oai:zenodo.org:288581</identifier>
      <datestamp>2017-02-09T21:24:36Z</datestamp>
      <setSpec>user-biosyslit</setSpec>
    </header>
    <header>
      <identifier>oai:zenodo.org:288576</identifier>
      <datestamp>2017-02-09T21:24:25Z</datestamp>
      <setSpec>user-biosyslit</setSpec>
    </header>
    <header>
      <identifier>oai:zenodo.org:288579</identifier>
      <datestamp>2017-02-09T21:24:31Z</datestamp>
      <setSpec>user-biosyslit</setSpec>
    </header>
    <header>
      <identifier>oai:zenodo.org:288585</identifier>
      <datestamp>2017-02-09T21:24:45Z</datestamp>
      <setSpec>user-biosyslit</setSpec>
    </header>
    <header>
      <identifier>oai:zenodo.org:288580</identifier>
      <datestamp>2017-02-09T21:24:33Z</datestamp>
      <setSpec>user-biosyslit</setSpec>
    </header>
    <header>
      <identifier>oai:zenodo.org:288582</identifier>
      <datestamp>2017-02-09T21:24:38Z</datestamp>
      <setSpec>user-biosyslit</setSpec>
    </header>
    <header>
      <identifier>oai:zenodo.org:254575</identifier>
      <datestamp>2017-01-20T22:08:09Z</datestamp>
      <setSpec>user-biosyslit</setSpec>
    </header>
    <header>
      <identifier>oai:zenodo.org:254574</identifier>
      <datestamp>2017-01-20T22:08:05Z</datestamp>
      <setSpec>user-biosyslit</setSpec>
    </header>
    <header>
      <identifier>oai:zenodo.org:264978</identifier>
      <datestamp>2017-01-31T05:32:29Z</datestamp>
      <setSpec>user-biosyslit</setSpec>
    </header>
    <header>
      <identifier>oai:zenodo.org:264977</identifier>
      <datestamp>2017-01-31T05:32:26Z</datestamp>
      <setSpec>user-biosyslit</setSpec>
    </header>
    <header>
      <identifier>oai:zenodo.org:264982</identifier>
      <datestamp>2017-01-31T05:32:42Z</datestamp>
      <setSpec>user-biosyslit</setSpec>
    </header>
    <header>
      <identifier>oai:zenodo.org:264981</identifier>
      <datestamp>2017-01-31T05:32:40Z</datestamp>
      <setSpec>user-biosyslit</setSpec>
    </header>
    <header>
      <identifier>oai:zenodo.org:275215</identifier>
      <datestamp>2017-02-08T15:43:47Z</datestamp>
      <setSpec>user-biosyslit</setSpec>
    </header>
    <header>
      <identifier>oai:zenodo.org:234499</identifier>
      <datestamp>2017-01-08T20:52:14Z</datestamp>
      <setSpec>user-biosyslit</setSpec>
    </header>
    <header>
      <identifier>oai:zenodo.org:275216</identifier>
      <datestamp>2017-02-08T15:43:46Z</datestamp>
      <setSpec>user-biosyslit</setSpec>
    </header>
    <header>
      <identifier>oai:zenodo.org:236207</identifier>
      <datestamp>2017-01-09T19:27:45Z</datestamp>
      <setSpec>user-biosyslit</setSpec>
    </header>
    <header>
      <identifier>oai:zenodo.org:273453</identifier>
      <datestamp>2017-02-08T09:24:04Z</datestamp>
      <setSpec>user-biosyslit</setSpec>
    </header>
    <header>
      <identifier>oai:zenodo.org:282123</identifier>
      <datestamp>2017-02-09T06:29:04Z</datestamp>
      <setSpec>user-biosyslit</setSpec>
    </header>
    <header>
      <identifier>oai:zenodo.org:282119</identifier>
      <datestamp>2017-02-09T06:28:56Z</datestamp>
      <setSpec>user-biosyslit</setSpec>
    </header>
    <header>
      <identifier>oai:zenodo.org:282117</identifier>
      <datestamp>2017-02-09T06:28:51Z</datestamp>
      <setSpec>user-biosyslit</setSpec>
    </header>
    <header>
      <identifier>oai:zenodo.org:282120</identifier>
      <datestamp>2017-02-09T06:28:58Z</datestamp>
      <setSpec>user-biosyslit</setSpec>
    </header>
    <header>
      <identifier>oai:zenodo.org:282121</identifier>
      <datestamp>2017-02-09T06:29:00Z</datestamp>
      <setSpec>user-biosyslit</setSpec>
    </header>
    <header>
      <identifier>oai:zenodo.org:228047</identifier>
      <datestamp>2017-01-02T09:35:37Z</datestamp>
      <setSpec>user-biosyslit</setSpec>
    </header>
    <resumptionToken expirationDate="2017-08-31T15:44:52Z" cursor="28800" completeListSize="77796">.eJyNyj0PQ0AYAOD_8s7SnLvUV9KloWJAuBIsjSKijoprgxP_vZbO7TM_K_CqKsFAB4Sxggk5YkXVNF0liiYBL8YnY7dmD1AkMSt6FuV2_A67GKW4Vj2Tz66ZEk-0yO9kQS8BTmRtjhq0BNfolYpwjokzUWSprggW7-HsryS-zbK7PdCoPzOKy9G3goXKZ5qR4vvkP5_4-Ux-AgmGvK7AwDqSoJ3yseZgrNv2AQ1GUa0.DIm__A.PFZAz79SuJ4twA1rgZgPi9kyu-M</resumptionToken>
  </ListIdentifiers>
</OAI-PMH>
