<?xml version='1.0' encoding='UTF-8'?>
<?xml-stylesheet type="text/xsl" href="/static/xsl/oai2.v1.0.xsl"?>
<OAI-PMH xmlns="http://www.openarchives.org/OAI/2.0/" xmlns:xsi="http://www.w3.org/2001/XMLSchema-instance" xsi:schemaLocation="http://www.openarchives.org/OAI/2.0/ http://www.openarchives.org/OAI/2.0/OAI-PMH.xsd">
  <responseDate>2017-08-31T15:41:14Z</responseDate>
  <request verb="ListIdentifiers" resumptionToken=".eJyNyjEPQ0AYgOH_8s3SnLsWlXQRKgaEKylLo4ioo-La4MR_r6Vzu73J-yzAy7IAHe32mqJgQo4EH9QtFAl4PjwZu9Xbhvwas7xjUWbH77CNUYIr1TP55JoJ8USD_FYW9Bzgq6xNUY3m4BK9EhFOMXFGiizVFcHsPZzNFcS3WXq3exp1BqO4GHwrmKls0JTkXyf_6cRPZ_ITSNBnVQk6wRI0YzZUHPRlXT9RpFEL.DIm_mg.V5HE_wZsfa0M1S5MPzVQ1uJRLeA">https://zenodo.org/oai2d</request>
  <ListIdentifiers>
    <header>
      <identifier>oai:zenodo.org:280084</identifier>
      <datestamp>2017-02-09T02:37:46Z</datestamp>
      <setSpec>user-biosyslit</setSpec>
    </header>
    <header>
      <identifier>oai:zenodo.org:579973</identifier>
      <datestamp>2017-05-15T09:20:51Z</datestamp>
      <setSpec>user-biosyslit</setSpec>
    </header>
    <header>
      <identifier>oai:zenodo.org:344091</identifier>
      <datestamp>2017-02-28T23:48:27Z</datestamp>
      <setSpec>user-biosyslit</setSpec>
    </header>
    <header>
      <identifier>oai:zenodo.org:279679</identifier>
      <datestamp>2017-02-09T01:50:45Z</datestamp>
      <setSpec>user-biosyslit</setSpec>
    </header>
    <header>
      <identifier>oai:zenodo.org:344099</identifier>
      <datestamp>2017-02-28T23:48:05Z</datestamp>
      <setSpec>openaire</setSpec>
      <setSpec>user-biosyslit</setSpec>
    </header>
    <header>
      <identifier>oai:zenodo.org:279803</identifier>
      <datestamp>2017-02-09T02:05:12Z</datestamp>
      <setSpec>user-biosyslit</setSpec>
    </header>
    <header>
      <identifier>oai:zenodo.org:344382</identifier>
      <datestamp>2017-02-28T23:40:22Z</datestamp>
      <setSpec>user-biosyslit</setSpec>
    </header>
    <header>
      <identifier>oai:zenodo.org:344447</identifier>
      <datestamp>2017-02-28T23:25:20Z</datestamp>
      <setSpec>user-biosyslit</setSpec>
    </header>
    <header>
      <identifier>oai:zenodo.org:344336</identifier>
      <datestamp>2017-02-28T23:41:23Z</datestamp>
      <setSpec>openaire_data</setSpec>
      <setSpec>user-biosyslit</setSpec>
    </header>
    <header>
      <identifier>oai:zenodo.org:344603</identifier>
      <datestamp>2017-03-01T00:02:33Z</datestamp>
      <setSpec>user-biosyslit</setSpec>
    </header>
    <header>
      <identifier>oai:zenodo.org:344828</identifier>
      <datestamp>2017-03-02T07:47:31Z</datestamp>
      <setSpec>user-biosyslit</setSpec>
    </header>
    <header>
      <identifier>oai:zenodo.org:344709</identifier>
      <datestamp>2017-03-01T08:18:05Z</datestamp>
      <setSpec>user-biosyslit</setSpec>
    </header>
    <header>
      <identifier>oai:zenodo.org:344775</identifier>
      <datestamp>2017-03-01T09:04:25Z</datestamp>
      <setSpec>user-biosyslit</setSpec>
    </header>
    <header>
      <identifier>oai:zenodo.org:344773</identifier>
      <datestamp>2017-03-01T09:00:34Z</datestamp>
      <setSpec>user-biosyslit</setSpec>
    </header>
    <header>
      <identifier>oai:zenodo.org:345051</identifier>
      <datestamp>2017-03-02T09:06:07Z</datestamp>
      <setSpec>user-biosyslit</setSpec>
    </header>
    <header>
      <identifier>oai:zenodo.org:344747</identifier>
      <datestamp>2017-03-01T08:42:45Z</datestamp>
      <setSpec>user-biosyslit</setSpec>
    </header>
    <header>
      <identifier>oai:zenodo.org:345246</identifier>
      <datestamp>2017-03-03T08:37:04Z</datestamp>
      <setSpec>user-biosyslit</setSpec>
    </header>
    <header>
      <identifier>oai:zenodo.org:345839</identifier>
      <datestamp>2017-03-07T07:30:07Z</datestamp>
      <setSpec>openaire</setSpec>
      <setSpec>user-biosyslit</setSpec>
    </header>
    <header>
      <identifier>oai:zenodo.org:280227</identifier>
      <datestamp>2017-02-09T03:01:01Z</datestamp>
      <setSpec>user-biosyslit</setSpec>
    </header>
    <header>
      <identifier>oai:zenodo.org:280261</identifier>
      <datestamp>2017-02-09T03:04:31Z</datestamp>
      <setSpec>user-biosyslit</setSpec>
    </header>
    <header>
      <identifier>oai:zenodo.org:280734</identifier>
      <datestamp>2017-02-09T03:59:19Z</datestamp>
      <setSpec>user-biosyslit</setSpec>
    </header>
    <header>
      <identifier>oai:zenodo.org:280284</identifier>
      <datestamp>2017-02-09T03:06:37Z</datestamp>
      <setSpec>user-biosyslit</setSpec>
    </header>
    <header>
      <identifier>oai:zenodo.org:281283</identifier>
      <datestamp>2017-02-09T05:04:19Z</datestamp>
      <setSpec>user-biosyslit</setSpec>
    </header>
    <header>
      <identifier>oai:zenodo.org:574231</identifier>
      <datestamp>2017-05-11T07:24:11Z</datestamp>
      <setSpec>user-biosyslit</setSpec>
    </header>
    <header>
      <identifier>oai:zenodo.org:280177</identifier>
      <datestamp>2017-02-09T02:53:47Z</datestamp>
      <setSpec>user-biosyslit</setSpec>
    </header>
    <header>
      <identifier>oai:zenodo.org:280475</identifier>
      <datestamp>2017-02-09T03:27:46Z</datestamp>
      <setSpec>user-biosyslit</setSpec>
    </header>
    <header>
      <identifier>oai:zenodo.org:343976</identifier>
      <datestamp>2017-02-28T23:50:08Z</datestamp>
      <setSpec>user-biosyslit</setSpec>
    </header>
    <header>
      <identifier>oai:zenodo.org:280696</identifier>
      <datestamp>2017-02-09T03:52:57Z</datestamp>
      <setSpec>user-biosyslit</setSpec>
    </header>
    <header>
      <identifier>oai:zenodo.org:344050</identifier>
      <datestamp>2017-02-28T23:49:03Z</datestamp>
      <setSpec>openaire</setSpec>
      <setSpec>user-biosyslit</setSpec>
    </header>
    <header>
      <identifier>oai:zenodo.org:343768</identifier>
      <datestamp>2017-02-28T08:26:14Z</datestamp>
      <setSpec>user-biosyslit</setSpec>
    </header>
    <header>
      <identifier>oai:zenodo.org:344107</identifier>
      <datestamp>2017-02-28T23:47:50Z</datestamp>
      <setSpec>user-biosyslit</setSpec>
    </header>
    <header>
      <identifier>oai:zenodo.org:344834</identifier>
      <datestamp>2017-03-02T07:47:14Z</datestamp>
      <setSpec>openaire</setSpec>
      <setSpec>user-biosyslit</setSpec>
    </header>
    <header>
      <identifier>oai:zenodo.org:344728</identifier>
      <datestamp>2017-03-01T08:18:55Z</datestamp>
      <setSpec>user-biosyslit</setSpec>
    </header>
    <header>
      <identifier>oai:zenodo.org:345010</identifier>
      <datestamp>2017-03-02T08:26:51Z</datestamp>
      <setSpec>user-biosyslit</setSpec>
    </header>
    <header>
      <identifier>oai:zenodo.org:344456</identifier>
      <datestamp>2017-02-28T23:25:04Z</datestamp>
      <setSpec>user-biosyslit</setSpec>
    </header>
    <header>
      <identifier>oai:zenodo.org:345268</identifier>
      <datestamp>2017-03-03T09:05:07Z</datestamp>
      <setSpec>user-biosyslit</setSpec>
    </header>
    <header>
      <identifier>oai:zenodo.org:345230</identifier>
      <datestamp>2017-03-03T08:20:02Z</datestamp>
      <setSpec>user-biosyslit</setSpec>
    </header>
    <header>
      <identifier>oai:zenodo.org:575646</identifier>
      <datestamp>2017-05-12T08:29:13Z</datestamp>
      <setSpec>user-biosyslit</setSpec>
    </header>
    <header>
      <identifier>oai:zenodo.org:344734</identifier>
      <datestamp>2017-03-01T08:19:11Z</datestamp>
      <setSpec>user-biosyslit</setSpec>
    </header>
    <header>
      <identifier>oai:zenodo.org:345772</identifier>
      <datestamp>2017-03-06T08:20:30Z</datestamp>
      <setSpec>user-biosyslit</setSpec>
    </header>
    <header>
      <identifier>oai:zenodo.org:345789</identifier>
      <datestamp>2017-03-06T08:33:22Z</datestamp>
      <setSpec>user-biosyslit</setSpec>
    </header>
    <header>
      <identifier>oai:zenodo.org:345818</identifier>
      <datestamp>2017-03-06T09:03:01Z</datestamp>
      <setSpec>user-biosyslit</setSpec>
    </header>
    <header>
      <identifier>oai:zenodo.org:280085</identifier>
      <datestamp>2017-02-09T02:37:49Z</datestamp>
      <setSpec>user-biosyslit</setSpec>
    </header>
    <header>
      <identifier>oai:zenodo.org:280507</identifier>
      <datestamp>2017-02-09T03:32:13Z</datestamp>
      <setSpec>user-biosyslit</setSpec>
    </header>
    <header>
      <identifier>oai:zenodo.org:280354</identifier>
      <datestamp>2017-02-09T03:16:38Z</datestamp>
      <setSpec>user-biosyslit</setSpec>
    </header>
    <header>
      <identifier>oai:zenodo.org:280563</identifier>
      <datestamp>2017-02-09T03:38:21Z</datestamp>
      <setSpec>user-biosyslit</setSpec>
    </header>
    <header>
      <identifier>oai:zenodo.org:280679</identifier>
      <datestamp>2017-02-09T03:51:29Z</datestamp>
      <setSpec>user-biosyslit</setSpec>
    </header>
    <header>
      <identifier>oai:zenodo.org:579961</identifier>
      <datestamp>2017-05-15T09:12:03Z</datestamp>
      <setSpec>user-biosyslit</setSpec>
    </header>
    <header>
      <identifier>oai:zenodo.org:280370</identifier>
      <datestamp>2017-02-09T03:16:16Z</datestamp>
      <setSpec>user-biosyslit</setSpec>
    </header>
    <header>
      <identifier>oai:zenodo.org:579237</identifier>
      <datestamp>2017-05-18T07:05:52Z</datestamp>
      <setSpec>openaire</setSpec>
      <setSpec>user-biosyslit</setSpec>
    </header>
    <header>
      <identifier>oai:zenodo.org:265832</identifier>
      <datestamp>2017-01-31T21:48:55Z</datestamp>
      <setSpec>user-biosyslit</setSpec>
    </header>
    <header>
      <identifier>oai:zenodo.org:265752</identifier>
      <datestamp>2017-01-31T19:55:12Z</datestamp>
      <setSpec>user-biosyslit</setSpec>
    </header>
    <header>
      <identifier>oai:zenodo.org:265828</identifier>
      <datestamp>2017-01-31T21:48:45Z</datestamp>
      <setSpec>user-biosyslit</setSpec>
    </header>
    <header>
      <identifier>oai:zenodo.org:266557</identifier>
      <datestamp>2017-02-01T12:02:50Z</datestamp>
      <setSpec>user-biosyslit</setSpec>
    </header>
    <header>
      <identifier>oai:zenodo.org:267160</identifier>
      <datestamp>2017-02-01T20:25:18Z</datestamp>
      <setSpec>user-biosyslit</setSpec>
    </header>
    <header>
      <identifier>oai:zenodo.org:274292</identifier>
      <datestamp>2017-02-08T12:44:51Z</datestamp>
      <setSpec>user-biosyslit</setSpec>
    </header>
    <header>
      <identifier>oai:zenodo.org:266477</identifier>
      <datestamp>2017-02-01T10:35:45Z</datestamp>
      <setSpec>user-biosyslit</setSpec>
    </header>
    <header>
      <identifier>oai:zenodo.org:266395</identifier>
      <datestamp>2017-02-01T07:43:17Z</datestamp>
      <setSpec>user-biosyslit</setSpec>
    </header>
    <header>
      <identifier>oai:zenodo.org:274451</identifier>
      <datestamp>2017-02-08T13:16:54Z</datestamp>
      <setSpec>user-biosyslit</setSpec>
    </header>
    <header>
      <identifier>oai:zenodo.org:266494</identifier>
      <datestamp>2017-02-01T11:08:04Z</datestamp>
      <setSpec>user-biosyslit</setSpec>
    </header>
    <header>
      <identifier>oai:zenodo.org:266549</identifier>
      <datestamp>2017-02-01T12:02:30Z</datestamp>
      <setSpec>user-biosyslit</setSpec>
    </header>
    <header>
      <identifier>oai:zenodo.org:267829</identifier>
      <datestamp>2017-02-02T07:50:34Z</datestamp>
      <setSpec>user-biosyslit</setSpec>
    </header>
    <header>
      <identifier>oai:zenodo.org:266635</identifier>
      <datestamp>2017-02-01T12:48:05Z</datestamp>
      <setSpec>user-biosyslit</setSpec>
    </header>
    <header>
      <identifier>oai:zenodo.org:266702</identifier>
      <datestamp>2017-02-01T14:03:47Z</datestamp>
      <setSpec>user-biosyslit</setSpec>
    </header>
    <header>
      <identifier>oai:zenodo.org:267368</identifier>
      <datestamp>2017-02-02T00:51:18Z</datestamp>
      <setSpec>user-biosyslit</setSpec>
    </header>
    <header>
      <identifier>oai:zenodo.org:268085</identifier>
      <datestamp>2017-02-03T01:32:41Z</datestamp>
      <setSpec>user-biosyslit</setSpec>
    </header>
    <header>
      <identifier>oai:zenodo.org:267587</identifier>
      <datestamp>2017-02-02T04:26:02Z</datestamp>
      <setSpec>user-biosyslit</setSpec>
    </header>
    <header>
      <identifier>oai:zenodo.org:267678</identifier>
      <datestamp>2017-02-02T05:38:09Z</datestamp>
      <setSpec>user-biosyslit</setSpec>
    </header>
    <header>
      <identifier>oai:zenodo.org:268372</identifier>
      <datestamp>2017-02-03T12:29:11Z</datestamp>
      <setSpec>user-biosyslit</setSpec>
    </header>
    <header>
      <identifier>oai:zenodo.org:267241</identifier>
      <datestamp>2017-02-01T23:19:15Z</datestamp>
      <setSpec>user-biosyslit</setSpec>
    </header>
    <header>
      <identifier>oai:zenodo.org:267017</identifier>
      <datestamp>2017-02-01T18:19:54Z</datestamp>
      <setSpec>user-biosyslit</setSpec>
    </header>
    <header>
      <identifier>oai:zenodo.org:267493</identifier>
      <datestamp>2017-02-02T02:59:37Z</datestamp>
      <setSpec>user-biosyslit</setSpec>
    </header>
    <header>
      <identifier>oai:zenodo.org:267425</identifier>
      <datestamp>2017-02-02T02:04:06Z</datestamp>
      <setSpec>user-biosyslit</setSpec>
    </header>
    <header>
      <identifier>oai:zenodo.org:267113</identifier>
      <datestamp>2017-02-01T19:38:08Z</datestamp>
      <setSpec>user-biosyslit</setSpec>
    </header>
    <header>
      <identifier>oai:zenodo.org:274345</identifier>
      <datestamp>2017-02-08T13:00:08Z</datestamp>
      <setSpec>user-biosyslit</setSpec>
    </header>
    <header>
      <identifier>oai:zenodo.org:267440</identifier>
      <datestamp>2017-02-02T02:11:51Z</datestamp>
      <setSpec>user-biosyslit</setSpec>
    </header>
    <header>
      <identifier>oai:zenodo.org:267823</identifier>
      <datestamp>2017-02-02T07:50:57Z</datestamp>
      <setSpec>user-biosyslit</setSpec>
    </header>
    <header>
      <identifier>oai:zenodo.org:267892</identifier>
      <datestamp>2017-02-02T09:05:34Z</datestamp>
      <setSpec>user-biosyslit</setSpec>
    </header>
    <header>
      <identifier>oai:zenodo.org:274616</identifier>
      <datestamp>2017-02-08T13:49:16Z</datestamp>
      <setSpec>user-biosyslit</setSpec>
    </header>
    <header>
      <identifier>oai:zenodo.org:268175</identifier>
      <datestamp>2017-02-03T02:56:38Z</datestamp>
      <setSpec>user-biosyslit</setSpec>
    </header>
    <header>
      <identifier>oai:zenodo.org:263054</identifier>
      <datestamp>2017-01-29T15:35:55Z</datestamp>
      <setSpec>user-biosyslit</setSpec>
    </header>
    <header>
      <identifier>oai:zenodo.org:263025</identifier>
      <datestamp>2017-01-29T15:04:16Z</datestamp>
      <setSpec>user-biosyslit</setSpec>
    </header>
    <header>
      <identifier>oai:zenodo.org:263383</identifier>
      <datestamp>2017-01-29T22:29:56Z</datestamp>
      <setSpec>user-biosyslit</setSpec>
    </header>
    <header>
      <identifier>oai:zenodo.org:263187</identifier>
      <datestamp>2017-01-29T18:25:42Z</datestamp>
      <setSpec>user-biosyslit</setSpec>
    </header>
    <header>
      <identifier>oai:zenodo.org:264206</identifier>
      <datestamp>2017-01-30T14:53:20Z</datestamp>
      <setSpec>user-biosyslit</setSpec>
    </header>
    <header>
      <identifier>oai:zenodo.org:263407</identifier>
      <datestamp>2017-01-29T22:31:25Z</datestamp>
      <setSpec>user-biosyslit</setSpec>
    </header>
    <header>
      <identifier>oai:zenodo.org:263055</identifier>
      <datestamp>2017-01-29T15:35:59Z</datestamp>
      <setSpec>user-biosyslit</setSpec>
    </header>
    <header>
      <identifier>oai:zenodo.org:264040</identifier>
      <datestamp>2017-01-30T12:23:42Z</datestamp>
      <setSpec>user-biosyslit</setSpec>
    </header>
    <header>
      <identifier>oai:zenodo.org:263284</identifier>
      <datestamp>2017-01-29T20:43:49Z</datestamp>
      <setSpec>user-biosyslit</setSpec>
    </header>
    <header>
      <identifier>oai:zenodo.org:263420</identifier>
      <datestamp>2017-01-29T22:32:01Z</datestamp>
      <setSpec>user-biosyslit</setSpec>
    </header>
    <header>
      <identifier>oai:zenodo.org:263304</identifier>
      <datestamp>2017-01-29T22:23:12Z</datestamp>
      <setSpec>user-biosyslit</setSpec>
    </header>
    <header>
      <identifier>oai:zenodo.org:264259</identifier>
      <datestamp>2017-01-30T15:46:33Z</datestamp>
      <setSpec>user-biosyslit</setSpec>
    </header>
    <header>
      <identifier>oai:zenodo.org:263579</identifier>
      <datestamp>2017-01-30T00:51:00Z</datestamp>
      <setSpec>user-biosyslit</setSpec>
    </header>
    <header>
      <identifier>oai:zenodo.org:263461</identifier>
      <datestamp>2017-01-29T22:34:36Z</datestamp>
      <setSpec>user-biosyslit</setSpec>
    </header>
    <header>
      <identifier>oai:zenodo.org:263597</identifier>
      <datestamp>2017-01-30T01:15:13Z</datestamp>
      <setSpec>user-biosyslit</setSpec>
    </header>
    <header>
      <identifier>oai:zenodo.org:263631</identifier>
      <datestamp>2017-01-30T01:51:04Z</datestamp>
      <setSpec>user-biosyslit</setSpec>
    </header>
    <header>
      <identifier>oai:zenodo.org:264133</identifier>
      <datestamp>2017-01-30T13:31:15Z</datestamp>
      <setSpec>user-biosyslit</setSpec>
    </header>
    <header>
      <identifier>oai:zenodo.org:274088</identifier>
      <datestamp>2017-02-08T12:07:32Z</datestamp>
      <setSpec>user-biosyslit</setSpec>
    </header>
    <header>
      <identifier>oai:zenodo.org:264126</identifier>
      <datestamp>2017-01-30T13:19:51Z</datestamp>
      <setSpec>user-biosyslit</setSpec>
    </header>
    <header>
      <identifier>oai:zenodo.org:263989</identifier>
      <datestamp>2017-01-30T11:17:12Z</datestamp>
      <setSpec>user-biosyslit</setSpec>
    </header>
    <resumptionToken expirationDate="2017-08-31T15:43:14Z" cursor="3100" completeListSize="77796">.eJyNyssKgkAUANB_uWuJeWg-oE1o4kJFJyXbhKmIOZo4hTrSv9emda3PWUFUVQkW2qimppmGpm6JaiCCdQVEMd45vzQfhuKU8qLnSe6mz7hLUUZqPbDF7NsZDWSLwg5LdojICRtz0qAlOiaPTMZzSr2JIUf3ZbQEN-_zShq6_Hx1B5b0e85IOYZOtDC8Z2dafB_-88mfzxY7UGDI6wosShVop3ysBVjr6_UGVZxREA.DIm_mg.gNYY8lS2yPK1sxDG-HFpVI1v0wU</resumptionToken>
  </ListIdentifiers>
</OAI-PMH>
