<?xml version='1.0' encoding='UTF-8'?>
<?xml-stylesheet type="text/xsl" href="/static/xsl/oai2.v1.0.xsl"?>
<OAI-PMH xmlns="http://www.openarchives.org/OAI/2.0/" xmlns:xsi="http://www.w3.org/2001/XMLSchema-instance" xsi:schemaLocation="http://www.openarchives.org/OAI/2.0/ http://www.openarchives.org/OAI/2.0/OAI-PMH.xsd">
  <responseDate>2017-08-31T15:45:40Z</responseDate>
  <request verb="ListIdentifiers" resumptionToken=".eJyNysEKgjAYAOB3-c8Sm-aWQhexpIOKLkW9hKlINU1coU5897x0rvP3zSCqqgQTbQjVdUNFW0owMQyiKyCK_sn55bYyFEnMi5ZHuRO_wyZGqVpTzxaja6eaJx_Ib7Bkx0BN8G6MbmgKztErleEYa6eBoQN1ZTB599P6Ss13eHZ1Oha1Fmdq2fuHYGLYYplWfB_-88mfzxZ7UKDL6wpMQpECjyHvawHmvCwfq_lRTw.DInAow.ncoew8fak2ZqTtUyWZ1cMAacrvA">https://zenodo.org/oai2d</request>
  <ListIdentifiers>
    <header>
      <identifier>oai:zenodo.org:240176</identifier>
      <datestamp>2017-01-12T05:25:09Z</datestamp>
      <setSpec>user-biosyslit</setSpec>
    </header>
    <header>
      <identifier>oai:zenodo.org:257921</identifier>
      <datestamp>2017-01-23T14:03:49Z</datestamp>
      <setSpec>user-biosyslit</setSpec>
    </header>
    <header>
      <identifier>oai:zenodo.org:257922</identifier>
      <datestamp>2017-01-23T14:03:42Z</datestamp>
      <setSpec>user-biosyslit</setSpec>
    </header>
    <header>
      <identifier>oai:zenodo.org:257923</identifier>
      <datestamp>2017-01-23T14:03:44Z</datestamp>
      <setSpec>user-biosyslit</setSpec>
    </header>
    <header>
      <identifier>oai:zenodo.org:257924</identifier>
      <datestamp>2017-01-23T14:03:47Z</datestamp>
      <setSpec>user-biosyslit</setSpec>
    </header>
    <header>
      <identifier>oai:zenodo.org:236272</identifier>
      <datestamp>2017-01-09T21:21:32Z</datestamp>
      <setSpec>user-biosyslit</setSpec>
    </header>
    <header>
      <identifier>oai:zenodo.org:274910</identifier>
      <datestamp>2017-02-08T14:46:38Z</datestamp>
      <setSpec>user-biosyslit</setSpec>
    </header>
    <header>
      <identifier>oai:zenodo.org:254593</identifier>
      <datestamp>2017-01-20T23:10:16Z</datestamp>
      <setSpec>user-biosyslit</setSpec>
    </header>
    <header>
      <identifier>oai:zenodo.org:254602</identifier>
      <datestamp>2017-01-20T23:10:35Z</datestamp>
      <setSpec>user-biosyslit</setSpec>
    </header>
    <header>
      <identifier>oai:zenodo.org:274913</identifier>
      <datestamp>2017-02-08T14:46:37Z</datestamp>
      <setSpec>user-biosyslit</setSpec>
    </header>
    <header>
      <identifier>oai:zenodo.org:254599</identifier>
      <datestamp>2017-01-20T23:10:28Z</datestamp>
      <setSpec>user-biosyslit</setSpec>
    </header>
    <header>
      <identifier>oai:zenodo.org:254598</identifier>
      <datestamp>2017-01-20T23:10:26Z</datestamp>
      <setSpec>user-biosyslit</setSpec>
    </header>
    <header>
      <identifier>oai:zenodo.org:274912</identifier>
      <datestamp>2017-02-08T14:46:35Z</datestamp>
      <setSpec>user-biosyslit</setSpec>
    </header>
    <header>
      <identifier>oai:zenodo.org:237289</identifier>
      <datestamp>2017-01-10T14:02:35Z</datestamp>
      <setSpec>user-biosyslit</setSpec>
    </header>
    <header>
      <identifier>oai:zenodo.org:237300</identifier>
      <datestamp>2017-01-10T14:02:34Z</datestamp>
      <setSpec>user-biosyslit</setSpec>
    </header>
    <header>
      <identifier>oai:zenodo.org:233774</identifier>
      <datestamp>2017-01-08T11:42:18Z</datestamp>
      <setSpec>user-biosyslit</setSpec>
    </header>
    <header>
      <identifier>oai:zenodo.org:271033</identifier>
      <datestamp>2017-02-08T00:38:00Z</datestamp>
      <setSpec>user-biosyslit</setSpec>
    </header>
    <header>
      <identifier>oai:zenodo.org:271036</identifier>
      <datestamp>2017-02-08T00:38:08Z</datestamp>
      <setSpec>user-biosyslit</setSpec>
    </header>
    <header>
      <identifier>oai:zenodo.org:271032</identifier>
      <datestamp>2017-02-08T00:37:58Z</datestamp>
      <setSpec>user-biosyslit</setSpec>
    </header>
    <header>
      <identifier>oai:zenodo.org:233776</identifier>
      <datestamp>2017-01-08T11:41:51Z</datestamp>
      <setSpec>user-biosyslit</setSpec>
    </header>
    <header>
      <identifier>oai:zenodo.org:233779</identifier>
      <datestamp>2017-01-08T11:42:01Z</datestamp>
      <setSpec>user-biosyslit</setSpec>
    </header>
    <header>
      <identifier>oai:zenodo.org:233777</identifier>
      <datestamp>2017-01-08T11:41:54Z</datestamp>
      <setSpec>user-biosyslit</setSpec>
    </header>
    <header>
      <identifier>oai:zenodo.org:233783</identifier>
      <datestamp>2017-01-08T11:42:14Z</datestamp>
      <setSpec>user-biosyslit</setSpec>
    </header>
    <header>
      <identifier>oai:zenodo.org:233784</identifier>
      <datestamp>2017-01-08T11:42:17Z</datestamp>
      <setSpec>user-biosyslit</setSpec>
    </header>
    <header>
      <identifier>oai:zenodo.org:226658</identifier>
      <datestamp>2017-01-01T01:22:48Z</datestamp>
      <setSpec>user-biosyslit</setSpec>
    </header>
    <header>
      <identifier>oai:zenodo.org:228269</identifier>
      <datestamp>2017-01-02T21:12:44Z</datestamp>
      <setSpec>user-biosyslit</setSpec>
    </header>
    <header>
      <identifier>oai:zenodo.org:280209</identifier>
      <datestamp>2017-02-09T02:58:16Z</datestamp>
      <setSpec>user-biosyslit</setSpec>
    </header>
    <header>
      <identifier>oai:zenodo.org:288612</identifier>
      <datestamp>2017-02-09T21:25:48Z</datestamp>
      <setSpec>user-biosyslit</setSpec>
    </header>
    <header>
      <identifier>oai:zenodo.org:288605</identifier>
      <datestamp>2017-02-09T21:25:30Z</datestamp>
      <setSpec>user-biosyslit</setSpec>
    </header>
    <header>
      <identifier>oai:zenodo.org:288600</identifier>
      <datestamp>2017-02-09T21:25:20Z</datestamp>
      <setSpec>user-biosyslit</setSpec>
    </header>
    <header>
      <identifier>oai:zenodo.org:288606</identifier>
      <datestamp>2017-02-09T21:25:32Z</datestamp>
      <setSpec>user-biosyslit</setSpec>
    </header>
    <header>
      <identifier>oai:zenodo.org:288601</identifier>
      <datestamp>2017-02-09T21:25:22Z</datestamp>
      <setSpec>user-biosyslit</setSpec>
    </header>
    <header>
      <identifier>oai:zenodo.org:288609</identifier>
      <datestamp>2017-02-09T21:25:40Z</datestamp>
      <setSpec>user-biosyslit</setSpec>
    </header>
    <header>
      <identifier>oai:zenodo.org:288610</identifier>
      <datestamp>2017-02-09T21:25:43Z</datestamp>
      <setSpec>user-biosyslit</setSpec>
    </header>
    <header>
      <identifier>oai:zenodo.org:288607</identifier>
      <datestamp>2017-02-09T21:25:34Z</datestamp>
      <setSpec>user-biosyslit</setSpec>
    </header>
    <header>
      <identifier>oai:zenodo.org:288597</identifier>
      <datestamp>2017-02-09T21:25:13Z</datestamp>
      <setSpec>user-biosyslit</setSpec>
    </header>
    <header>
      <identifier>oai:zenodo.org:230267</identifier>
      <datestamp>2017-01-04T21:57:25Z</datestamp>
      <setSpec>user-biosyslit</setSpec>
    </header>
    <header>
      <identifier>oai:zenodo.org:284210</identifier>
      <datestamp>2017-02-09T10:42:43Z</datestamp>
      <setSpec>user-biosyslit</setSpec>
    </header>
    <header>
      <identifier>oai:zenodo.org:284204</identifier>
      <datestamp>2017-02-09T10:42:29Z</datestamp>
      <setSpec>user-biosyslit</setSpec>
    </header>
    <header>
      <identifier>oai:zenodo.org:284215</identifier>
      <datestamp>2017-02-09T10:42:58Z</datestamp>
      <setSpec>user-biosyslit</setSpec>
    </header>
    <header>
      <identifier>oai:zenodo.org:284203</identifier>
      <datestamp>2017-02-09T10:42:26Z</datestamp>
      <setSpec>user-biosyslit</setSpec>
    </header>
    <header>
      <identifier>oai:zenodo.org:284212</identifier>
      <datestamp>2017-02-09T10:42:49Z</datestamp>
      <setSpec>user-biosyslit</setSpec>
    </header>
    <header>
      <identifier>oai:zenodo.org:284217</identifier>
      <datestamp>2017-02-09T10:43:02Z</datestamp>
      <setSpec>user-biosyslit</setSpec>
    </header>
    <header>
      <identifier>oai:zenodo.org:284218</identifier>
      <datestamp>2017-02-09T10:43:04Z</datestamp>
      <setSpec>user-biosyslit</setSpec>
    </header>
    <header>
      <identifier>oai:zenodo.org:284209</identifier>
      <datestamp>2017-02-09T10:42:41Z</datestamp>
      <setSpec>user-biosyslit</setSpec>
    </header>
    <header>
      <identifier>oai:zenodo.org:284219</identifier>
      <datestamp>2017-02-09T10:43:06Z</datestamp>
      <setSpec>user-biosyslit</setSpec>
    </header>
    <header>
      <identifier>oai:zenodo.org:229698</identifier>
      <datestamp>2017-01-03T20:39:15Z</datestamp>
      <setSpec>user-biosyslit</setSpec>
    </header>
    <header>
      <identifier>oai:zenodo.org:229703</identifier>
      <datestamp>2017-01-03T20:39:44Z</datestamp>
      <setSpec>user-biosyslit</setSpec>
    </header>
    <header>
      <identifier>oai:zenodo.org:229702</identifier>
      <datestamp>2017-01-03T20:39:41Z</datestamp>
      <setSpec>user-biosyslit</setSpec>
    </header>
    <header>
      <identifier>oai:zenodo.org:229701</identifier>
      <datestamp>2017-01-03T20:39:37Z</datestamp>
      <setSpec>user-biosyslit</setSpec>
    </header>
    <header>
      <identifier>oai:zenodo.org:229705</identifier>
      <datestamp>2017-01-03T20:39:49Z</datestamp>
      <setSpec>user-biosyslit</setSpec>
    </header>
    <header>
      <identifier>oai:zenodo.org:248029</identifier>
      <datestamp>2017-01-16T23:00:40Z</datestamp>
      <setSpec>user-biosyslit</setSpec>
    </header>
    <header>
      <identifier>oai:zenodo.org:248028</identifier>
      <datestamp>2017-01-16T23:00:36Z</datestamp>
      <setSpec>user-biosyslit</setSpec>
    </header>
    <header>
      <identifier>oai:zenodo.org:248040</identifier>
      <datestamp>2017-01-16T23:01:23Z</datestamp>
      <setSpec>user-biosyslit</setSpec>
    </header>
    <header>
      <identifier>oai:zenodo.org:248041</identifier>
      <datestamp>2017-01-16T23:01:26Z</datestamp>
      <setSpec>user-biosyslit</setSpec>
    </header>
    <header>
      <identifier>oai:zenodo.org:248033</identifier>
      <datestamp>2017-01-16T23:00:56Z</datestamp>
      <setSpec>user-biosyslit</setSpec>
    </header>
    <header>
      <identifier>oai:zenodo.org:248035</identifier>
      <datestamp>2017-01-16T23:01:04Z</datestamp>
      <setSpec>user-biosyslit</setSpec>
    </header>
    <header>
      <identifier>oai:zenodo.org:248037</identifier>
      <datestamp>2017-01-16T23:01:11Z</datestamp>
      <setSpec>user-biosyslit</setSpec>
    </header>
    <header>
      <identifier>oai:zenodo.org:248026</identifier>
      <datestamp>2017-01-16T23:00:27Z</datestamp>
      <setSpec>user-biosyslit</setSpec>
    </header>
    <header>
      <identifier>oai:zenodo.org:248039</identifier>
      <datestamp>2017-01-16T23:01:19Z</datestamp>
      <setSpec>user-biosyslit</setSpec>
    </header>
    <header>
      <identifier>oai:zenodo.org:236206</identifier>
      <datestamp>2017-01-09T19:28:02Z</datestamp>
      <setSpec>user-biosyslit</setSpec>
    </header>
    <header>
      <identifier>oai:zenodo.org:236210</identifier>
      <datestamp>2017-01-09T19:27:54Z</datestamp>
      <setSpec>user-biosyslit</setSpec>
    </header>
    <header>
      <identifier>oai:zenodo.org:282118</identifier>
      <datestamp>2017-02-09T06:28:53Z</datestamp>
      <setSpec>user-biosyslit</setSpec>
    </header>
    <header>
      <identifier>oai:zenodo.org:282132</identifier>
      <datestamp>2017-02-09T06:29:25Z</datestamp>
      <setSpec>user-biosyslit</setSpec>
    </header>
    <header>
      <identifier>oai:zenodo.org:282126</identifier>
      <datestamp>2017-02-09T06:29:11Z</datestamp>
      <setSpec>user-biosyslit</setSpec>
    </header>
    <header>
      <identifier>oai:zenodo.org:282125</identifier>
      <datestamp>2017-02-09T06:29:09Z</datestamp>
      <setSpec>user-biosyslit</setSpec>
    </header>
    <header>
      <identifier>oai:zenodo.org:282134</identifier>
      <datestamp>2017-02-09T06:29:29Z</datestamp>
      <setSpec>user-biosyslit</setSpec>
    </header>
    <header>
      <identifier>oai:zenodo.org:282116</identifier>
      <datestamp>2017-02-09T06:28:49Z</datestamp>
      <setSpec>user-biosyslit</setSpec>
    </header>
    <header>
      <identifier>oai:zenodo.org:282124</identifier>
      <datestamp>2017-02-09T06:29:06Z</datestamp>
      <setSpec>user-biosyslit</setSpec>
    </header>
    <header>
      <identifier>oai:zenodo.org:282122</identifier>
      <datestamp>2017-02-09T06:29:02Z</datestamp>
      <setSpec>user-biosyslit</setSpec>
    </header>
    <header>
      <identifier>oai:zenodo.org:275967</identifier>
      <datestamp>2017-02-08T17:47:13Z</datestamp>
      <setSpec>user-biosyslit</setSpec>
    </header>
    <header>
      <identifier>oai:zenodo.org:274849</identifier>
      <datestamp>2017-02-08T14:36:49Z</datestamp>
      <setSpec>user-biosyslit</setSpec>
    </header>
    <header>
      <identifier>oai:zenodo.org:274866</identifier>
      <datestamp>2017-02-08T14:36:45Z</datestamp>
      <setSpec>user-biosyslit</setSpec>
    </header>
    <header>
      <identifier>oai:zenodo.org:274867</identifier>
      <datestamp>2017-02-08T14:36:47Z</datestamp>
      <setSpec>user-biosyslit</setSpec>
    </header>
    <header>
      <identifier>oai:zenodo.org:274862</identifier>
      <datestamp>2017-02-08T14:36:35Z</datestamp>
      <setSpec>user-biosyslit</setSpec>
    </header>
    <header>
      <identifier>oai:zenodo.org:274855</identifier>
      <datestamp>2017-02-08T14:36:13Z</datestamp>
      <setSpec>user-biosyslit</setSpec>
    </header>
    <header>
      <identifier>oai:zenodo.org:286340</identifier>
      <datestamp>2017-02-09T15:46:47Z</datestamp>
      <setSpec>user-biosyslit</setSpec>
    </header>
    <header>
      <identifier>oai:zenodo.org:286341</identifier>
      <datestamp>2017-02-09T15:46:50Z</datestamp>
      <setSpec>user-biosyslit</setSpec>
    </header>
    <header>
      <identifier>oai:zenodo.org:286348</identifier>
      <datestamp>2017-02-09T15:47:08Z</datestamp>
      <setSpec>user-biosyslit</setSpec>
    </header>
    <header>
      <identifier>oai:zenodo.org:286345</identifier>
      <datestamp>2017-02-09T15:47:00Z</datestamp>
      <setSpec>user-biosyslit</setSpec>
    </header>
    <header>
      <identifier>oai:zenodo.org:286337</identifier>
      <datestamp>2017-02-09T15:46:39Z</datestamp>
      <setSpec>user-biosyslit</setSpec>
    </header>
    <header>
      <identifier>oai:zenodo.org:286339</identifier>
      <datestamp>2017-02-09T15:46:44Z</datestamp>
      <setSpec>user-biosyslit</setSpec>
    </header>
    <header>
      <identifier>oai:zenodo.org:286349</identifier>
      <datestamp>2017-02-09T15:47:10Z</datestamp>
      <setSpec>user-biosyslit</setSpec>
    </header>
    <header>
      <identifier>oai:zenodo.org:286344</identifier>
      <datestamp>2017-02-09T15:46:56Z</datestamp>
      <setSpec>user-biosyslit</setSpec>
    </header>
    <header>
      <identifier>oai:zenodo.org:286338</identifier>
      <datestamp>2017-02-09T15:46:41Z</datestamp>
      <setSpec>user-biosyslit</setSpec>
    </header>
    <header>
      <identifier>oai:zenodo.org:231513</identifier>
      <datestamp>2017-01-06T03:19:01Z</datestamp>
      <setSpec>user-biosyslit</setSpec>
    </header>
    <header>
      <identifier>oai:zenodo.org:243819</identifier>
      <datestamp>2017-01-14T11:17:22Z</datestamp>
      <setSpec>user-biosyslit</setSpec>
    </header>
    <header>
      <identifier>oai:zenodo.org:231514</identifier>
      <datestamp>2017-01-06T03:18:56Z</datestamp>
      <setSpec>user-biosyslit</setSpec>
    </header>
    <header>
      <identifier>oai:zenodo.org:281569</identifier>
      <datestamp>2017-02-09T05:32:50Z</datestamp>
      <setSpec>user-biosyslit</setSpec>
    </header>
    <header>
      <identifier>oai:zenodo.org:243799</identifier>
      <datestamp>2017-01-14T11:16:07Z</datestamp>
      <setSpec>user-biosyslit</setSpec>
    </header>
    <header>
      <identifier>oai:zenodo.org:243803</identifier>
      <datestamp>2017-01-14T11:16:23Z</datestamp>
      <setSpec>user-biosyslit</setSpec>
    </header>
    <header>
      <identifier>oai:zenodo.org:285302</identifier>
      <datestamp>2017-02-09T13:14:38Z</datestamp>
      <setSpec>user-biosyslit</setSpec>
    </header>
    <header>
      <identifier>oai:zenodo.org:285300</identifier>
      <datestamp>2017-02-09T13:14:33Z</datestamp>
      <setSpec>user-biosyslit</setSpec>
    </header>
    <header>
      <identifier>oai:zenodo.org:285298</identifier>
      <datestamp>2017-02-09T13:14:28Z</datestamp>
      <setSpec>user-biosyslit</setSpec>
    </header>
    <header>
      <identifier>oai:zenodo.org:285296</identifier>
      <datestamp>2017-02-09T13:14:23Z</datestamp>
      <setSpec>user-biosyslit</setSpec>
    </header>
    <header>
      <identifier>oai:zenodo.org:285301</identifier>
      <datestamp>2017-02-09T13:14:35Z</datestamp>
      <setSpec>user-biosyslit</setSpec>
    </header>
    <header>
      <identifier>oai:zenodo.org:285297</identifier>
      <datestamp>2017-02-09T13:14:25Z</datestamp>
      <setSpec>user-biosyslit</setSpec>
    </header>
    <header>
      <identifier>oai:zenodo.org:285299</identifier>
      <datestamp>2017-02-09T13:14:30Z</datestamp>
      <setSpec>user-biosyslit</setSpec>
    </header>
    <header>
      <identifier>oai:zenodo.org:285305</identifier>
      <datestamp>2017-02-09T13:14:45Z</datestamp>
      <setSpec>user-biosyslit</setSpec>
    </header>
    <header>
      <identifier>oai:zenodo.org:285306</identifier>
      <datestamp>2017-02-09T13:14:47Z</datestamp>
      <setSpec>user-biosyslit</setSpec>
    </header>
    <resumptionToken expirationDate="2017-08-31T15:47:40Z" cursor="66900" completeListSize="77796">.eJyNyj0LgkAYAOD_8s4S90FqQoto0pByXoq6hKmIdZl4hXrif8-luebnmUFWVQkW2lATIbwjZGtgalJT10AW_VOIS7MyFEksilZEuRe_w0eMUlIbviPHk5NSX91R8MCKHxhJsDlGDZrYOXqlKhxjehw4co2TYpN_O66vpIEnsqvX8ai1BSdlH7hs4tjmGS2-D__51M_nyD1o0OV1BZZuYA3uQ97XEqx5WT6YhlE7.DInApA.Js-a0581hrmXCjgUCsvbrrB7SBM</resumptionToken>
  </ListIdentifiers>
</OAI-PMH>
