<?xml version='1.0' encoding='UTF-8'?>
<?xml-stylesheet type="text/xsl" href="/static/xsl/oai2.v1.0.xsl"?>
<OAI-PMH xmlns="http://www.openarchives.org/OAI/2.0/" xmlns:xsi="http://www.w3.org/2001/XMLSchema-instance" xsi:schemaLocation="http://www.openarchives.org/OAI/2.0/ http://www.openarchives.org/OAI/2.0/OAI-PMH.xsd">
  <responseDate>2017-08-31T15:43:51Z</responseDate>
  <request verb="ListIdentifiers" resumptionToken=".eJyNysEKgjAYAOB3-c8SmxNXQhfRxEOKLod6CVMRa1q4Ql347nnpXOfve4Os6wostKGYmgSj3RYjsjNMDWQ53IU4t6tCmXJR9iIpPP6KO44yvaGBI6ejk5FA3VDYYcUOkZ7i7ZS0aI5OyTNT8cSJPzLk0qOK5uDqr68ioSfyi_dgSW8LpldD6EYzwzbLSfl9-M-nfj5H7kGDR9HUYBnE0OA2FkMjwXovywdm_lEH.DInANw.hIFNzK7Jip0cW-xBqHZRZ9UEy34">https://zenodo.org/oai2d</request>
  <ListIdentifiers>
    <header>
      <identifier>oai:zenodo.org:251517</identifier>
      <datestamp>2017-01-19T01:35:03Z</datestamp>
      <setSpec>user-biosyslit</setSpec>
    </header>
    <header>
      <identifier>oai:zenodo.org:273012</identifier>
      <datestamp>2017-02-08T06:58:20Z</datestamp>
      <setSpec>user-biosyslit</setSpec>
    </header>
    <header>
      <identifier>oai:zenodo.org:251596</identifier>
      <datestamp>2017-01-19T02:45:32Z</datestamp>
      <setSpec>user-biosyslit</setSpec>
    </header>
    <header>
      <identifier>oai:zenodo.org:251151</identifier>
      <datestamp>2017-01-18T19:31:07Z</datestamp>
      <setSpec>user-biosyslit</setSpec>
    </header>
    <header>
      <identifier>oai:zenodo.org:272954</identifier>
      <datestamp>2017-02-08T06:55:12Z</datestamp>
      <setSpec>user-biosyslit</setSpec>
    </header>
    <header>
      <identifier>oai:zenodo.org:272820</identifier>
      <datestamp>2017-02-08T06:28:57Z</datestamp>
      <setSpec>user-biosyslit</setSpec>
    </header>
    <header>
      <identifier>oai:zenodo.org:272897</identifier>
      <datestamp>2017-02-08T06:32:55Z</datestamp>
      <setSpec>user-biosyslit</setSpec>
    </header>
    <header>
      <identifier>oai:zenodo.org:276169</identifier>
      <datestamp>2017-02-08T18:16:40Z</datestamp>
      <setSpec>user-biosyslit</setSpec>
    </header>
    <header>
      <identifier>oai:zenodo.org:273025</identifier>
      <datestamp>2017-02-08T06:58:52Z</datestamp>
      <setSpec>user-biosyslit</setSpec>
    </header>
    <header>
      <identifier>oai:zenodo.org:276361</identifier>
      <datestamp>2017-02-08T18:42:16Z</datestamp>
      <setSpec>user-biosyslit</setSpec>
    </header>
    <header>
      <identifier>oai:zenodo.org:252365</identifier>
      <datestamp>2017-01-19T12:47:44Z</datestamp>
      <setSpec>user-biosyslit</setSpec>
    </header>
    <header>
      <identifier>oai:zenodo.org:252891</identifier>
      <datestamp>2017-01-19T22:38:52Z</datestamp>
      <setSpec>user-biosyslit</setSpec>
    </header>
    <header>
      <identifier>oai:zenodo.org:252722</identifier>
      <datestamp>2017-01-19T18:59:57Z</datestamp>
      <setSpec>user-biosyslit</setSpec>
    </header>
    <header>
      <identifier>oai:zenodo.org:252622</identifier>
      <datestamp>2017-01-19T17:48:00Z</datestamp>
      <setSpec>user-biosyslit</setSpec>
    </header>
    <header>
      <identifier>oai:zenodo.org:253173</identifier>
      <datestamp>2017-01-20T03:15:28Z</datestamp>
      <setSpec>user-biosyslit</setSpec>
    </header>
    <header>
      <identifier>oai:zenodo.org:279213</identifier>
      <datestamp>2017-02-09T00:48:54Z</datestamp>
      <setSpec>user-biosyslit</setSpec>
    </header>
    <header>
      <identifier>oai:zenodo.org:253692</identifier>
      <datestamp>2017-01-20T09:59:00Z</datestamp>
      <setSpec>user-biosyslit</setSpec>
    </header>
    <header>
      <identifier>oai:zenodo.org:254043</identifier>
      <datestamp>2017-01-20T13:40:21Z</datestamp>
      <setSpec>user-biosyslit</setSpec>
    </header>
    <header>
      <identifier>oai:zenodo.org:254006</identifier>
      <datestamp>2017-01-20T13:23:52Z</datestamp>
      <setSpec>user-biosyslit</setSpec>
    </header>
    <header>
      <identifier>oai:zenodo.org:255362</identifier>
      <datestamp>2017-01-21T12:31:48Z</datestamp>
      <setSpec>user-biosyslit</setSpec>
    </header>
    <header>
      <identifier>oai:zenodo.org:254668</identifier>
      <datestamp>2017-01-21T01:18:59Z</datestamp>
      <setSpec>user-biosyslit</setSpec>
    </header>
    <header>
      <identifier>oai:zenodo.org:255472</identifier>
      <datestamp>2017-01-21T13:45:48Z</datestamp>
      <setSpec>user-biosyslit</setSpec>
    </header>
    <header>
      <identifier>oai:zenodo.org:254982</identifier>
      <datestamp>2017-01-21T06:14:30Z</datestamp>
      <setSpec>user-biosyslit</setSpec>
    </header>
    <header>
      <identifier>oai:zenodo.org:255416</identifier>
      <datestamp>2017-01-21T13:07:39Z</datestamp>
      <setSpec>user-biosyslit</setSpec>
    </header>
    <header>
      <identifier>oai:zenodo.org:254738</identifier>
      <datestamp>2017-01-21T02:16:33Z</datestamp>
      <setSpec>user-biosyslit</setSpec>
    </header>
    <header>
      <identifier>oai:zenodo.org:256061</identifier>
      <datestamp>2017-01-22T03:07:50Z</datestamp>
      <setSpec>user-biosyslit</setSpec>
    </header>
    <header>
      <identifier>oai:zenodo.org:255555</identifier>
      <datestamp>2017-01-21T15:57:22Z</datestamp>
      <setSpec>user-biosyslit</setSpec>
    </header>
    <header>
      <identifier>oai:zenodo.org:255560</identifier>
      <datestamp>2017-01-21T15:57:33Z</datestamp>
      <setSpec>user-biosyslit</setSpec>
    </header>
    <header>
      <identifier>oai:zenodo.org:256646</identifier>
      <datestamp>2017-01-22T18:53:23Z</datestamp>
      <setSpec>user-biosyslit</setSpec>
    </header>
    <header>
      <identifier>oai:zenodo.org:255960</identifier>
      <datestamp>2017-01-22T00:45:09Z</datestamp>
      <setSpec>user-biosyslit</setSpec>
    </header>
    <header>
      <identifier>oai:zenodo.org:256573</identifier>
      <datestamp>2017-01-22T17:51:20Z</datestamp>
      <setSpec>user-biosyslit</setSpec>
    </header>
    <header>
      <identifier>oai:zenodo.org:256355</identifier>
      <datestamp>2017-01-22T13:10:38Z</datestamp>
      <setSpec>user-biosyslit</setSpec>
    </header>
    <header>
      <identifier>oai:zenodo.org:256602</identifier>
      <datestamp>2017-01-22T18:35:45Z</datestamp>
      <setSpec>user-biosyslit</setSpec>
    </header>
    <header>
      <identifier>oai:zenodo.org:257384</identifier>
      <datestamp>2017-01-23T06:18:38Z</datestamp>
      <setSpec>user-biosyslit</setSpec>
    </header>
    <header>
      <identifier>oai:zenodo.org:256467</identifier>
      <datestamp>2017-01-22T14:48:17Z</datestamp>
      <setSpec>user-biosyslit</setSpec>
    </header>
    <header>
      <identifier>oai:zenodo.org:256848</identifier>
      <datestamp>2017-01-22T21:19:27Z</datestamp>
      <setSpec>user-biosyslit</setSpec>
    </header>
    <header>
      <identifier>oai:zenodo.org:257049</identifier>
      <datestamp>2017-01-23T00:27:44Z</datestamp>
      <setSpec>user-biosyslit</setSpec>
    </header>
    <header>
      <identifier>oai:zenodo.org:256754</identifier>
      <datestamp>2017-01-22T20:15:02Z</datestamp>
      <setSpec>user-biosyslit</setSpec>
    </header>
    <header>
      <identifier>oai:zenodo.org:257197</identifier>
      <datestamp>2017-01-23T03:40:05Z</datestamp>
      <setSpec>user-biosyslit</setSpec>
    </header>
    <header>
      <identifier>oai:zenodo.org:258042</identifier>
      <datestamp>2017-01-23T15:37:17Z</datestamp>
      <setSpec>user-biosyslit</setSpec>
    </header>
    <header>
      <identifier>oai:zenodo.org:257736</identifier>
      <datestamp>2017-01-23T12:56:42Z</datestamp>
      <setSpec>user-biosyslit</setSpec>
    </header>
    <header>
      <identifier>oai:zenodo.org:258485</identifier>
      <datestamp>2017-01-23T23:40:53Z</datestamp>
      <setSpec>user-biosyslit</setSpec>
    </header>
    <header>
      <identifier>oai:zenodo.org:258477</identifier>
      <datestamp>2017-01-23T23:28:15Z</datestamp>
      <setSpec>user-biosyslit</setSpec>
    </header>
    <header>
      <identifier>oai:zenodo.org:258840</identifier>
      <datestamp>2017-01-24T05:41:10Z</datestamp>
      <setSpec>user-biosyslit</setSpec>
    </header>
    <header>
      <identifier>oai:zenodo.org:257780</identifier>
      <datestamp>2017-01-23T13:28:54Z</datestamp>
      <setSpec>user-biosyslit</setSpec>
    </header>
    <header>
      <identifier>oai:zenodo.org:258392</identifier>
      <datestamp>2017-01-23T21:54:53Z</datestamp>
      <setSpec>user-biosyslit</setSpec>
    </header>
    <header>
      <identifier>oai:zenodo.org:259220</identifier>
      <datestamp>2017-01-24T08:58:39Z</datestamp>
      <setSpec>user-biosyslit</setSpec>
    </header>
    <header>
      <identifier>oai:zenodo.org:258588</identifier>
      <datestamp>2017-01-24T01:48:28Z</datestamp>
      <setSpec>user-biosyslit</setSpec>
    </header>
    <header>
      <identifier>oai:zenodo.org:257791</identifier>
      <datestamp>2017-01-23T13:29:26Z</datestamp>
      <setSpec>user-biosyslit</setSpec>
    </header>
    <header>
      <identifier>oai:zenodo.org:258342</identifier>
      <datestamp>2017-01-23T21:18:25Z</datestamp>
      <setSpec>user-biosyslit</setSpec>
    </header>
    <header>
      <identifier>oai:zenodo.org:258640</identifier>
      <datestamp>2017-01-24T02:23:31Z</datestamp>
      <setSpec>user-biosyslit</setSpec>
    </header>
    <header>
      <identifier>oai:zenodo.org:259933</identifier>
      <datestamp>2017-01-25T17:47:10Z</datestamp>
      <setSpec>user-biosyslit</setSpec>
    </header>
    <header>
      <identifier>oai:zenodo.org:258552</identifier>
      <datestamp>2017-01-24T00:05:34Z</datestamp>
      <setSpec>user-biosyslit</setSpec>
    </header>
    <header>
      <identifier>oai:zenodo.org:258818</identifier>
      <datestamp>2017-01-24T04:56:35Z</datestamp>
      <setSpec>user-biosyslit</setSpec>
    </header>
    <header>
      <identifier>oai:zenodo.org:260648</identifier>
      <datestamp>2017-01-27T22:59:26Z</datestamp>
      <setSpec>user-biosyslit</setSpec>
    </header>
    <header>
      <identifier>oai:zenodo.org:259682</identifier>
      <datestamp>2017-01-25T15:01:32Z</datestamp>
      <setSpec>user-biosyslit</setSpec>
    </header>
    <header>
      <identifier>oai:zenodo.org:259148</identifier>
      <datestamp>2017-01-24T08:10:44Z</datestamp>
      <setSpec>user-biosyslit</setSpec>
    </header>
    <header>
      <identifier>oai:zenodo.org:259752</identifier>
      <datestamp>2017-01-25T15:45:05Z</datestamp>
      <setSpec>user-biosyslit</setSpec>
    </header>
    <header>
      <identifier>oai:zenodo.org:273916</identifier>
      <datestamp>2017-02-08T11:17:00Z</datestamp>
      <setSpec>user-biosyslit</setSpec>
    </header>
    <header>
      <identifier>oai:zenodo.org:260436</identifier>
      <datestamp>2017-01-27T19:41:38Z</datestamp>
      <setSpec>user-biosyslit</setSpec>
    </header>
    <header>
      <identifier>oai:zenodo.org:261427</identifier>
      <datestamp>2017-01-28T08:45:35Z</datestamp>
      <setSpec>user-biosyslit</setSpec>
    </header>
    <header>
      <identifier>oai:zenodo.org:261036</identifier>
      <datestamp>2017-01-28T04:15:31Z</datestamp>
      <setSpec>user-biosyslit</setSpec>
    </header>
    <header>
      <identifier>oai:zenodo.org:261471</identifier>
      <datestamp>2017-01-28T09:30:32Z</datestamp>
      <setSpec>user-biosyslit</setSpec>
    </header>
    <header>
      <identifier>oai:zenodo.org:261305</identifier>
      <datestamp>2017-01-28T07:50:26Z</datestamp>
      <setSpec>user-biosyslit</setSpec>
    </header>
    <header>
      <identifier>oai:zenodo.org:275065</identifier>
      <datestamp>2017-02-08T15:13:55Z</datestamp>
      <setSpec>user-biosyslit</setSpec>
    </header>
    <header>
      <identifier>oai:zenodo.org:260780</identifier>
      <datestamp>2017-01-28T00:52:42Z</datestamp>
      <setSpec>user-biosyslit</setSpec>
    </header>
    <header>
      <identifier>oai:zenodo.org:260866</identifier>
      <datestamp>2017-01-28T01:45:26Z</datestamp>
      <setSpec>user-biosyslit</setSpec>
    </header>
    <header>
      <identifier>oai:zenodo.org:274769</identifier>
      <datestamp>2017-02-08T14:18:45Z</datestamp>
      <setSpec>user-biosyslit</setSpec>
    </header>
    <header>
      <identifier>oai:zenodo.org:260655</identifier>
      <datestamp>2017-01-27T23:05:32Z</datestamp>
      <setSpec>user-biosyslit</setSpec>
    </header>
    <header>
      <identifier>oai:zenodo.org:261903</identifier>
      <datestamp>2017-01-28T17:20:31Z</datestamp>
      <setSpec>user-biosyslit</setSpec>
    </header>
    <header>
      <identifier>oai:zenodo.org:261291</identifier>
      <datestamp>2017-01-28T07:37:18Z</datestamp>
      <setSpec>user-biosyslit</setSpec>
    </header>
    <header>
      <identifier>oai:zenodo.org:261012</identifier>
      <datestamp>2017-01-28T03:48:37Z</datestamp>
      <setSpec>user-biosyslit</setSpec>
    </header>
    <header>
      <identifier>oai:zenodo.org:261754</identifier>
      <datestamp>2017-01-28T14:01:04Z</datestamp>
      <setSpec>user-biosyslit</setSpec>
    </header>
    <header>
      <identifier>oai:zenodo.org:261906</identifier>
      <datestamp>2017-01-28T17:20:41Z</datestamp>
      <setSpec>user-biosyslit</setSpec>
    </header>
    <header>
      <identifier>oai:zenodo.org:261311</identifier>
      <datestamp>2017-01-28T07:50:44Z</datestamp>
      <setSpec>user-biosyslit</setSpec>
    </header>
    <header>
      <identifier>oai:zenodo.org:261306</identifier>
      <datestamp>2017-01-28T07:50:30Z</datestamp>
      <setSpec>user-biosyslit</setSpec>
    </header>
    <header>
      <identifier>oai:zenodo.org:261299</identifier>
      <datestamp>2017-01-28T07:51:26Z</datestamp>
      <setSpec>user-biosyslit</setSpec>
    </header>
    <header>
      <identifier>oai:zenodo.org:262004</identifier>
      <datestamp>2017-01-28T19:18:59Z</datestamp>
      <setSpec>user-biosyslit</setSpec>
    </header>
    <header>
      <identifier>oai:zenodo.org:262002</identifier>
      <datestamp>2017-01-28T19:16:02Z</datestamp>
      <setSpec>user-biosyslit</setSpec>
    </header>
    <header>
      <identifier>oai:zenodo.org:261883</identifier>
      <datestamp>2017-01-28T16:27:29Z</datestamp>
      <setSpec>user-biosyslit</setSpec>
    </header>
    <header>
      <identifier>oai:zenodo.org:262212</identifier>
      <datestamp>2017-01-28T23:45:01Z</datestamp>
      <setSpec>user-biosyslit</setSpec>
    </header>
    <header>
      <identifier>oai:zenodo.org:273718</identifier>
      <datestamp>2017-02-08T10:25:06Z</datestamp>
      <setSpec>user-biosyslit</setSpec>
    </header>
    <header>
      <identifier>oai:zenodo.org:273659</identifier>
      <datestamp>2017-02-08T10:10:38Z</datestamp>
      <setSpec>user-biosyslit</setSpec>
    </header>
    <header>
      <identifier>oai:zenodo.org:273792</identifier>
      <datestamp>2017-02-08T10:47:09Z</datestamp>
      <setSpec>user-biosyslit</setSpec>
    </header>
    <header>
      <identifier>oai:zenodo.org:274370</identifier>
      <datestamp>2017-02-08T13:02:34Z</datestamp>
      <setSpec>user-biosyslit</setSpec>
    </header>
    <header>
      <identifier>oai:zenodo.org:274347</identifier>
      <datestamp>2017-02-08T13:00:12Z</datestamp>
      <setSpec>user-biosyslit</setSpec>
    </header>
    <header>
      <identifier>oai:zenodo.org:263229</identifier>
      <datestamp>2017-01-29T19:12:03Z</datestamp>
      <setSpec>user-biosyslit</setSpec>
    </header>
    <header>
      <identifier>oai:zenodo.org:263483</identifier>
      <datestamp>2017-01-29T22:35:40Z</datestamp>
      <setSpec>user-biosyslit</setSpec>
    </header>
    <header>
      <identifier>oai:zenodo.org:280351</identifier>
      <datestamp>2017-02-09T03:14:36Z</datestamp>
      <setSpec>user-biosyslit</setSpec>
    </header>
    <header>
      <identifier>oai:zenodo.org:262879</identifier>
      <datestamp>2017-01-29T10:48:58Z</datestamp>
      <setSpec>user-biosyslit</setSpec>
    </header>
    <header>
      <identifier>oai:zenodo.org:263085</identifier>
      <datestamp>2017-01-29T16:39:12Z</datestamp>
      <setSpec>user-biosyslit</setSpec>
    </header>
    <header>
      <identifier>oai:zenodo.org:274116</identifier>
      <datestamp>2017-02-08T12:11:49Z</datestamp>
      <setSpec>user-biosyslit</setSpec>
    </header>
    <header>
      <identifier>oai:zenodo.org:263311</identifier>
      <datestamp>2017-01-29T22:23:44Z</datestamp>
      <setSpec>user-biosyslit</setSpec>
    </header>
    <header>
      <identifier>oai:zenodo.org:264746</identifier>
      <datestamp>2017-01-31T02:03:37Z</datestamp>
      <setSpec>user-biosyslit</setSpec>
    </header>
    <header>
      <identifier>oai:zenodo.org:263769</identifier>
      <datestamp>2017-01-30T07:48:59Z</datestamp>
      <setSpec>user-biosyslit</setSpec>
    </header>
    <header>
      <identifier>oai:zenodo.org:264485</identifier>
      <datestamp>2017-01-30T22:35:23Z</datestamp>
      <setSpec>user-biosyslit</setSpec>
    </header>
    <header>
      <identifier>oai:zenodo.org:264033</identifier>
      <datestamp>2017-01-30T12:23:25Z</datestamp>
      <setSpec>user-biosyslit</setSpec>
    </header>
    <header>
      <identifier>oai:zenodo.org:264602</identifier>
      <datestamp>2017-01-31T00:08:33Z</datestamp>
      <setSpec>user-biosyslit</setSpec>
    </header>
    <header>
      <identifier>oai:zenodo.org:274255</identifier>
      <datestamp>2017-02-08T12:34:27Z</datestamp>
      <setSpec>user-biosyslit</setSpec>
    </header>
    <header>
      <identifier>oai:zenodo.org:264819</identifier>
      <datestamp>2017-01-31T03:02:37Z</datestamp>
      <setSpec>user-biosyslit</setSpec>
    </header>
    <resumptionToken expirationDate="2017-08-31T15:45:51Z" cursor="43300" completeListSize="77796">.eJyNysEKgjAYAOB3-c8Sm79lCl3Ekg4qupT0EjZFqlnhCnXiu-elc52_bwRZVSXYZIErc2VZBjURjSWhqIHk7UOI02Vm4MdU8LtICi99x01KMr02A1f2vpthoG4kbKhiu0g_0nWfXMgQHZJXpuI-xX3HyNb0VTQE1_38Sgw9kZ-9J0vujmB62YbbaGDUYTny76N_PvXzuXIDGjyLugLbwKUGt65oawn2OE0fna1RPg.DInANw.dDchzF9E71eJ-fDlxaeTxidvkyM</resumptionToken>
  </ListIdentifiers>
</OAI-PMH>
