<?xml version='1.0' encoding='UTF-8'?>
<?xml-stylesheet type="text/xsl" href="/static/xsl/oai2.v1.0.xsl"?>
<OAI-PMH xmlns="http://www.openarchives.org/OAI/2.0/" xmlns:xsi="http://www.w3.org/2001/XMLSchema-instance" xsi:schemaLocation="http://www.openarchives.org/OAI/2.0/ http://www.openarchives.org/OAI/2.0/OAI-PMH.xsd">
  <responseDate>2017-08-31T15:43:42Z</responseDate>
  <request verb="ListIdentifiers" resumptionToken=".eJyNysEOQzAYAOB3-c-ytIqKZBdh4oBYR3BZDBFT26JbRsW7z2Xn7fx9C4imqcFCO0OjGOvINCjFCOmGAqIa75yfu42hylJe3XhSeunrOKQoV1saOmIKnJyEskfRgCU7xGqGzSnp0Byfkmcuj1NK_DdDLg1kPIdXf3s1iTxeXLwHS242Z2o9Rm48M2yzglTfh_988udzxB4UeJRtA5aGiQL9uxxbAdayrh-WrlEz.DInALg.wL5lK2g3smaIBmq4Pf7UOLE_PY8">https://zenodo.org/oai2d</request>
  <ListIdentifiers>
    <header>
      <identifier>oai:zenodo.org:259773</identifier>
      <datestamp>2017-01-25T15:51:39Z</datestamp>
      <setSpec>user-biosyslit</setSpec>
    </header>
    <header>
      <identifier>oai:zenodo.org:260645</identifier>
      <datestamp>2017-01-27T22:56:43Z</datestamp>
      <setSpec>user-biosyslit</setSpec>
    </header>
    <header>
      <identifier>oai:zenodo.org:261400</identifier>
      <datestamp>2017-01-28T08:44:29Z</datestamp>
      <setSpec>user-biosyslit</setSpec>
    </header>
    <header>
      <identifier>oai:zenodo.org:261644</identifier>
      <datestamp>2017-01-28T12:14:00Z</datestamp>
      <setSpec>user-biosyslit</setSpec>
    </header>
    <header>
      <identifier>oai:zenodo.org:262097</identifier>
      <datestamp>2017-02-01T12:48:59Z</datestamp>
      <setSpec>openaire</setSpec>
      <setSpec>user-biosyslit</setSpec>
    </header>
    <header>
      <identifier>oai:zenodo.org:274036</identifier>
      <datestamp>2017-02-08T11:55:10Z</datestamp>
      <setSpec>user-biosyslit</setSpec>
    </header>
    <header>
      <identifier>oai:zenodo.org:261355</identifier>
      <datestamp>2017-01-28T08:17:12Z</datestamp>
      <setSpec>user-biosyslit</setSpec>
    </header>
    <header>
      <identifier>oai:zenodo.org:261320</identifier>
      <datestamp>2017-01-28T07:51:15Z</datestamp>
      <setSpec>user-biosyslit</setSpec>
    </header>
    <header>
      <identifier>oai:zenodo.org:261001</identifier>
      <datestamp>2017-01-28T03:37:11Z</datestamp>
      <setSpec>user-biosyslit</setSpec>
    </header>
    <header>
      <identifier>oai:zenodo.org:273457</identifier>
      <datestamp>2017-02-08T09:24:21Z</datestamp>
      <setSpec>user-biosyslit</setSpec>
    </header>
    <header>
      <identifier>oai:zenodo.org:261703</identifier>
      <datestamp>2017-01-28T13:23:14Z</datestamp>
      <setSpec>user-biosyslit</setSpec>
    </header>
    <header>
      <identifier>oai:zenodo.org:261915</identifier>
      <datestamp>2017-01-28T17:21:04Z</datestamp>
      <setSpec>user-biosyslit</setSpec>
    </header>
    <header>
      <identifier>oai:zenodo.org:261307</identifier>
      <datestamp>2017-01-28T07:50:33Z</datestamp>
      <setSpec>user-biosyslit</setSpec>
    </header>
    <header>
      <identifier>oai:zenodo.org:261639</identifier>
      <datestamp>2017-01-28T12:13:43Z</datestamp>
      <setSpec>user-biosyslit</setSpec>
    </header>
    <header>
      <identifier>oai:zenodo.org:261544</identifier>
      <datestamp>2017-01-28T10:42:07Z</datestamp>
      <setSpec>user-biosyslit</setSpec>
    </header>
    <header>
      <identifier>oai:zenodo.org:261911</identifier>
      <datestamp>2017-01-28T17:20:55Z</datestamp>
      <setSpec>user-biosyslit</setSpec>
    </header>
    <header>
      <identifier>oai:zenodo.org:274296</identifier>
      <datestamp>2017-02-08T12:45:02Z</datestamp>
      <setSpec>user-biosyslit</setSpec>
    </header>
    <header>
      <identifier>oai:zenodo.org:274358</identifier>
      <datestamp>2017-02-08T13:00:42Z</datestamp>
      <setSpec>user-biosyslit</setSpec>
    </header>
    <header>
      <identifier>oai:zenodo.org:273608</identifier>
      <datestamp>2017-02-08T10:03:48Z</datestamp>
      <setSpec>user-biosyslit</setSpec>
    </header>
    <header>
      <identifier>oai:zenodo.org:262244</identifier>
      <datestamp>2017-01-29T00:29:17Z</datestamp>
      <setSpec>user-biosyslit</setSpec>
    </header>
    <header>
      <identifier>oai:zenodo.org:273923</identifier>
      <datestamp>2017-02-08T11:16:52Z</datestamp>
      <setSpec>user-biosyslit</setSpec>
    </header>
    <header>
      <identifier>oai:zenodo.org:274535</identifier>
      <datestamp>2017-02-08T13:37:23Z</datestamp>
      <setSpec>user-biosyslit</setSpec>
    </header>
    <header>
      <identifier>oai:zenodo.org:262724</identifier>
      <datestamp>2017-01-29T07:52:50Z</datestamp>
      <setSpec>user-biosyslit</setSpec>
    </header>
    <header>
      <identifier>oai:zenodo.org:263046</identifier>
      <datestamp>2017-01-29T15:16:20Z</datestamp>
      <setSpec>user-biosyslit</setSpec>
    </header>
    <header>
      <identifier>oai:zenodo.org:262578</identifier>
      <datestamp>2017-01-29T05:43:36Z</datestamp>
      <setSpec>user-biosyslit</setSpec>
    </header>
    <header>
      <identifier>oai:zenodo.org:263244</identifier>
      <datestamp>2017-01-29T19:46:12Z</datestamp>
      <setSpec>user-biosyslit</setSpec>
    </header>
    <header>
      <identifier>oai:zenodo.org:264013</identifier>
      <datestamp>2017-01-30T11:50:32Z</datestamp>
      <setSpec>user-biosyslit</setSpec>
    </header>
    <header>
      <identifier>oai:zenodo.org:262858</identifier>
      <datestamp>2017-01-29T10:07:59Z</datestamp>
      <setSpec>user-biosyslit</setSpec>
    </header>
    <header>
      <identifier>oai:zenodo.org:263289</identifier>
      <datestamp>2017-01-29T20:43:35Z</datestamp>
      <setSpec>user-biosyslit</setSpec>
    </header>
    <header>
      <identifier>oai:zenodo.org:264511</identifier>
      <datestamp>2017-01-30T22:55:14Z</datestamp>
      <setSpec>user-biosyslit</setSpec>
    </header>
    <header>
      <identifier>oai:zenodo.org:263330</identifier>
      <datestamp>2017-01-29T22:24:50Z</datestamp>
      <setSpec>user-biosyslit</setSpec>
    </header>
    <header>
      <identifier>oai:zenodo.org:263771</identifier>
      <datestamp>2017-01-30T07:49:03Z</datestamp>
      <setSpec>user-biosyslit</setSpec>
    </header>
    <header>
      <identifier>oai:zenodo.org:263140</identifier>
      <datestamp>2017-01-29T17:39:05Z</datestamp>
      <setSpec>user-biosyslit</setSpec>
    </header>
    <header>
      <identifier>oai:zenodo.org:264319</identifier>
      <datestamp>2017-01-30T19:03:43Z</datestamp>
      <setSpec>user-biosyslit</setSpec>
    </header>
    <header>
      <identifier>oai:zenodo.org:264074</identifier>
      <datestamp>2017-01-30T12:36:29Z</datestamp>
      <setSpec>user-biosyslit</setSpec>
    </header>
    <header>
      <identifier>oai:zenodo.org:274443</identifier>
      <datestamp>2017-02-08T13:14:59Z</datestamp>
      <setSpec>user-biosyslit</setSpec>
    </header>
    <header>
      <identifier>oai:zenodo.org:279735</identifier>
      <datestamp>2017-02-09T01:58:15Z</datestamp>
      <setSpec>user-biosyslit</setSpec>
    </header>
    <header>
      <identifier>oai:zenodo.org:264609</identifier>
      <datestamp>2017-01-31T00:09:00Z</datestamp>
      <setSpec>user-biosyslit</setSpec>
    </header>
    <header>
      <identifier>oai:zenodo.org:264787</identifier>
      <datestamp>2017-01-31T02:38:00Z</datestamp>
      <setSpec>user-biosyslit</setSpec>
    </header>
    <header>
      <identifier>oai:zenodo.org:264381</identifier>
      <datestamp>2017-01-30T20:24:12Z</datestamp>
      <setSpec>user-biosyslit</setSpec>
    </header>
    <header>
      <identifier>oai:zenodo.org:265323</identifier>
      <datestamp>2017-01-31T12:15:47Z</datestamp>
      <setSpec>user-biosyslit</setSpec>
    </header>
    <header>
      <identifier>oai:zenodo.org:266376</identifier>
      <datestamp>2017-02-01T07:14:11Z</datestamp>
      <setSpec>user-biosyslit</setSpec>
    </header>
    <header>
      <identifier>oai:zenodo.org:279365</identifier>
      <datestamp>2017-02-09T01:09:40Z</datestamp>
      <setSpec>user-biosyslit</setSpec>
    </header>
    <header>
      <identifier>oai:zenodo.org:241540</identifier>
      <datestamp>2017-01-13T02:58:30Z</datestamp>
      <setSpec>user-biosyslit</setSpec>
    </header>
    <header>
      <identifier>oai:zenodo.org:271681</identifier>
      <datestamp>2017-02-08T02:21:09Z</datestamp>
      <setSpec>user-biosyslit</setSpec>
    </header>
    <header>
      <identifier>oai:zenodo.org:241550</identifier>
      <datestamp>2017-01-13T03:13:28Z</datestamp>
      <setSpec>user-biosyslit</setSpec>
    </header>
    <header>
      <identifier>oai:zenodo.org:271596</identifier>
      <datestamp>2017-02-08T02:00:46Z</datestamp>
      <setSpec>user-biosyslit</setSpec>
    </header>
    <header>
      <identifier>oai:zenodo.org:278904</identifier>
      <datestamp>2017-02-09T00:05:37Z</datestamp>
      <setSpec>user-biosyslit</setSpec>
    </header>
    <header>
      <identifier>oai:zenodo.org:278868</identifier>
      <datestamp>2017-02-09T00:00:35Z</datestamp>
      <setSpec>user-biosyslit</setSpec>
    </header>
    <header>
      <identifier>oai:zenodo.org:272409</identifier>
      <datestamp>2017-02-08T04:33:35Z</datestamp>
      <setSpec>user-biosyslit</setSpec>
    </header>
    <header>
      <identifier>oai:zenodo.org:241638</identifier>
      <datestamp>2017-01-13T04:12:05Z</datestamp>
      <setSpec>user-biosyslit</setSpec>
    </header>
    <header>
      <identifier>oai:zenodo.org:279106</identifier>
      <datestamp>2017-02-09T00:36:57Z</datestamp>
      <setSpec>user-biosyslit</setSpec>
    </header>
    <header>
      <identifier>oai:zenodo.org:271552</identifier>
      <datestamp>2017-02-08T01:54:29Z</datestamp>
      <setSpec>user-biosyslit</setSpec>
    </header>
    <header>
      <identifier>oai:zenodo.org:272439</identifier>
      <datestamp>2017-02-08T04:39:29Z</datestamp>
      <setSpec>user-biosyslit</setSpec>
    </header>
    <header>
      <identifier>oai:zenodo.org:272160</identifier>
      <datestamp>2017-02-08T03:53:32Z</datestamp>
      <setSpec>user-biosyslit</setSpec>
    </header>
    <header>
      <identifier>oai:zenodo.org:273262</identifier>
      <datestamp>2017-02-08T08:48:22Z</datestamp>
      <setSpec>user-biosyslit</setSpec>
    </header>
    <header>
      <identifier>oai:zenodo.org:242424</identifier>
      <datestamp>2017-01-13T15:14:23Z</datestamp>
      <setSpec>user-biosyslit</setSpec>
    </header>
    <header>
      <identifier>oai:zenodo.org:279442</identifier>
      <datestamp>2017-02-09T01:21:52Z</datestamp>
      <setSpec>user-biosyslit</setSpec>
    </header>
    <header>
      <identifier>oai:zenodo.org:279476</identifier>
      <datestamp>2017-02-09T01:25:25Z</datestamp>
      <setSpec>user-biosyslit</setSpec>
    </header>
    <header>
      <identifier>oai:zenodo.org:242305</identifier>
      <datestamp>2017-01-13T13:10:46Z</datestamp>
      <setSpec>user-biosyslit</setSpec>
    </header>
    <header>
      <identifier>oai:zenodo.org:243532</identifier>
      <datestamp>2017-01-14T07:03:15Z</datestamp>
      <setSpec>user-biosyslit</setSpec>
    </header>
    <header>
      <identifier>oai:zenodo.org:241940</identifier>
      <datestamp>2017-01-13T16:00:06Z</datestamp>
      <setSpec>openaire</setSpec>
      <setSpec>user-biosyslit</setSpec>
    </header>
    <header>
      <identifier>oai:zenodo.org:242119</identifier>
      <datestamp>2017-01-13T10:39:26Z</datestamp>
      <setSpec>user-biosyslit</setSpec>
    </header>
    <header>
      <identifier>oai:zenodo.org:279759</identifier>
      <datestamp>2017-02-09T02:00:21Z</datestamp>
      <setSpec>user-biosyslit</setSpec>
    </header>
    <header>
      <identifier>oai:zenodo.org:242161</identifier>
      <datestamp>2017-01-13T11:27:16Z</datestamp>
      <setSpec>user-biosyslit</setSpec>
    </header>
    <header>
      <identifier>oai:zenodo.org:272138</identifier>
      <datestamp>2017-02-08T03:48:21Z</datestamp>
      <setSpec>user-biosyslit</setSpec>
    </header>
    <header>
      <identifier>oai:zenodo.org:242293</identifier>
      <datestamp>2017-01-13T13:02:38Z</datestamp>
      <setSpec>user-biosyslit</setSpec>
    </header>
    <header>
      <identifier>oai:zenodo.org:242292</identifier>
      <datestamp>2017-01-13T13:00:01Z</datestamp>
      <setSpec>user-biosyslit</setSpec>
    </header>
    <header>
      <identifier>oai:zenodo.org:242317</identifier>
      <datestamp>2017-01-13T13:38:35Z</datestamp>
      <setSpec>user-biosyslit</setSpec>
    </header>
    <header>
      <identifier>oai:zenodo.org:243074</identifier>
      <datestamp>2017-01-13T22:55:35Z</datestamp>
      <setSpec>user-biosyslit</setSpec>
    </header>
    <header>
      <identifier>oai:zenodo.org:272345</identifier>
      <datestamp>2017-02-08T04:20:12Z</datestamp>
      <setSpec>user-biosyslit</setSpec>
    </header>
    <header>
      <identifier>oai:zenodo.org:243215</identifier>
      <datestamp>2017-01-14T00:47:56Z</datestamp>
      <setSpec>user-biosyslit</setSpec>
    </header>
    <header>
      <identifier>oai:zenodo.org:243015</identifier>
      <datestamp>2017-01-13T22:09:22Z</datestamp>
      <setSpec>user-biosyslit</setSpec>
    </header>
    <header>
      <identifier>oai:zenodo.org:243341</identifier>
      <datestamp>2017-01-14T03:00:55Z</datestamp>
      <setSpec>user-biosyslit</setSpec>
    </header>
    <header>
      <identifier>oai:zenodo.org:243432</identifier>
      <datestamp>2017-01-14T05:36:30Z</datestamp>
      <setSpec>user-biosyslit</setSpec>
    </header>
    <header>
      <identifier>oai:zenodo.org:243859</identifier>
      <datestamp>2017-01-14T11:51:02Z</datestamp>
      <setSpec>user-biosyslit</setSpec>
    </header>
    <header>
      <identifier>oai:zenodo.org:244442</identifier>
      <datestamp>2017-01-14T22:12:41Z</datestamp>
      <setSpec>user-biosyslit</setSpec>
    </header>
    <header>
      <identifier>oai:zenodo.org:243717</identifier>
      <datestamp>2017-01-14T09:53:21Z</datestamp>
      <setSpec>user-biosyslit</setSpec>
    </header>
    <header>
      <identifier>oai:zenodo.org:244331</identifier>
      <datestamp>2017-01-14T20:15:20Z</datestamp>
      <setSpec>user-biosyslit</setSpec>
    </header>
    <header>
      <identifier>oai:zenodo.org:244105</identifier>
      <datestamp>2017-01-14T16:23:26Z</datestamp>
      <setSpec>user-biosyslit</setSpec>
    </header>
    <header>
      <identifier>oai:zenodo.org:244827</identifier>
      <datestamp>2017-01-15T03:43:45Z</datestamp>
      <setSpec>user-biosyslit</setSpec>
    </header>
    <header>
      <identifier>oai:zenodo.org:244881</identifier>
      <datestamp>2017-01-15T04:36:56Z</datestamp>
      <setSpec>user-biosyslit</setSpec>
    </header>
    <header>
      <identifier>oai:zenodo.org:272394</identifier>
      <datestamp>2017-02-08T04:27:02Z</datestamp>
      <setSpec>user-biosyslit</setSpec>
    </header>
    <header>
      <identifier>oai:zenodo.org:245677</identifier>
      <datestamp>2017-01-15T17:14:15Z</datestamp>
      <setSpec>user-biosyslit</setSpec>
    </header>
    <header>
      <identifier>oai:zenodo.org:245683</identifier>
      <datestamp>2017-01-15T17:26:53Z</datestamp>
      <setSpec>user-biosyslit</setSpec>
    </header>
    <header>
      <identifier>oai:zenodo.org:245222</identifier>
      <datestamp>2017-01-15T10:12:06Z</datestamp>
      <setSpec>user-biosyslit</setSpec>
    </header>
    <header>
      <identifier>oai:zenodo.org:246407</identifier>
      <datestamp>2017-01-16T01:50:49Z</datestamp>
      <setSpec>user-biosyslit</setSpec>
    </header>
    <header>
      <identifier>oai:zenodo.org:272554</identifier>
      <datestamp>2017-02-08T05:08:19Z</datestamp>
      <setSpec>user-biosyslit</setSpec>
    </header>
    <header>
      <identifier>oai:zenodo.org:247451</identifier>
      <datestamp>2017-01-16T15:30:17Z</datestamp>
      <setSpec>user-biosyslit</setSpec>
    </header>
    <header>
      <identifier>oai:zenodo.org:246666</identifier>
      <datestamp>2017-01-16T06:57:51Z</datestamp>
      <setSpec>user-biosyslit</setSpec>
    </header>
    <header>
      <identifier>oai:zenodo.org:246849</identifier>
      <datestamp>2017-01-16T09:21:09Z</datestamp>
      <setSpec>user-biosyslit</setSpec>
    </header>
    <header>
      <identifier>oai:zenodo.org:247958</identifier>
      <datestamp>2017-01-16T22:07:51Z</datestamp>
      <setSpec>user-biosyslit</setSpec>
    </header>
    <header>
      <identifier>oai:zenodo.org:247593</identifier>
      <datestamp>2017-01-16T17:14:03Z</datestamp>
      <setSpec>user-biosyslit</setSpec>
    </header>
    <header>
      <identifier>oai:zenodo.org:272483</identifier>
      <datestamp>2017-02-08T04:54:07Z</datestamp>
      <setSpec>user-biosyslit</setSpec>
    </header>
    <header>
      <identifier>oai:zenodo.org:248185</identifier>
      <datestamp>2017-01-17T00:44:14Z</datestamp>
      <setSpec>user-biosyslit</setSpec>
    </header>
    <header>
      <identifier>oai:zenodo.org:249049</identifier>
      <datestamp>2017-01-17T15:34:36Z</datestamp>
      <setSpec>user-biosyslit</setSpec>
    </header>
    <header>
      <identifier>oai:zenodo.org:248482</identifier>
      <datestamp>2017-01-17T04:35:50Z</datestamp>
      <setSpec>user-biosyslit</setSpec>
    </header>
    <header>
      <identifier>oai:zenodo.org:249124</identifier>
      <datestamp>2017-01-17T16:37:45Z</datestamp>
      <setSpec>user-biosyslit</setSpec>
    </header>
    <header>
      <identifier>oai:zenodo.org:250203</identifier>
      <datestamp>2017-01-18T06:53:56Z</datestamp>
      <setSpec>user-biosyslit</setSpec>
    </header>
    <header>
      <identifier>oai:zenodo.org:249126</identifier>
      <datestamp>2017-01-17T16:37:51Z</datestamp>
      <setSpec>user-biosyslit</setSpec>
    </header>
    <resumptionToken expirationDate="2017-08-31T15:45:42Z" cursor="41200" completeListSize="77796">.eJyNyj0LgkAYAOD_8s4S90VnQkto4qBi10m6hKmIeZV4RXrSf6-luebnmUHXdQUOWhBKmc1WS0Q44xhRaoEuh5tSx_bjUB5SVV6VLPz0sbukKCMNj1w9hm5GI9Oh-IKN2CbkgO1RtmhK9vKemd2Y0uApkMdDk0zROfi8isa-yk9-L-R1owSphthLJoE3Iqfl9-E_n_n5XL0GC_qiqcFhmFnQPYuh0eDMr9cbyXxRZg.DInALg.0iAFRjKstI0nEnqbjiy9GYZ53_c</resumptionToken>
  </ListIdentifiers>
</OAI-PMH>
